year,price
2005,587.986418297026
2006,666.0087195549894
2007,660.6485244802146
2008,690.6687759035608
2009,887.104598750853
2010,940.4579450681637
2011,951.0266429255446
2012,1137.7883596756126
2013,1323.4784239408173
2014,1406.1196448604683
2015,1282.8020311280127
