year,price
2005,1085.2764326069412
2006,1623.5396825396826
2007,1835.8106451612903
2008,1664.077241664941
2009,1777.993668690373
2010,2121.110576923077
2011,2037.8009488173193
2012,2620.3689210474504
2015,3177.2913065799607
