year,price
2005,869.0730872283418
2006,932.6384766745921
2007,919.4799444406802
2008,1070.99116528181
2009,1245.4864680147773
2010,1474.554747759541
2011,1538.5874874080405
2012,1774.0458479651722
2014,2307.843163966879
2015,2376.373942071674
