year,price
2005,602.462451521918
2006,600.856551724138
2007,688.1393806845796
2008,750.4460462067095
2009,817.6349507350641
2010,1025.868889431973
2011,1022.90426476375
2012,1496.6536775641193
2013,1539.169348802753
2014,1692.4586141392542
2015,1968.3902312497326
