year,price
2005,1887.7400105657478
2006,1897.9394907033145
2007,2141.7270394031448
2008,2596.4891395405834
2009,2754.617579668972
2010,3424.1081387849863
2011,4399.024819345393
2012,3883.5556339542886
2013,4319.455016535989
2014,4337.841781945985
2015,4066.661000469389
