year,price
2005,490.9322521042907
2006,530.1873459326212
2007,690.6244347983361
2008,715.9183248496066
2009,918.0624342336023
2010,918.7068812758417
2011,953.5877189009661
2012,1204.1321779997063
2013,1793.6896387076238
2014,1682.3829329508785
2015,1531.7378236465688
