year,price
2005,1188.0808977133715
2006,1229.6200408968507
2007,1316.547494098266
2008,1521.9538174634652
2009,1783.6214018881037
2010,2001.549277386049
2011,2019.5178170949407
2012,2157.576593030729
2013,2535.474347532917
2014,2702.7957585322547
2015,2579.539125670936
