
"Year"	"Jan"	"Feb"	"Mar"	"Apr"	"May"	"Jun"	"Jul"	"Aug"	"Sep"	"Oct"	"Nov"	"Dec"
"1901"	"21.035"	"20.948"	"26.42"	"29.222"	"29.641"	"28.14"	"25.654"	"24.727"	"25.603"	"25.887"	"22.175"	"20.914"
"1902"	"22.054"	"23.274"	"27.265"	"29.587"	"30.808"	"28.787"	"26.517"	"26.202"	"25.228"	"26.123"	"21.648"	"20.726"
"1903"	"21.099"	"21.36"	"24.97"	"28.932"	"29.561"	"29.053"	"25.855"	"25.371"	"25.384"	"24.518"	"21.375"	"20.052"
"1904"	"21.312"	"22.371"	"25.361"	"29.216"	"30.449"	"27.807"	"25.861"	"25.906"	"25.233"	"25.546"	"21.087"	"20.486"
"1905"	"20.21"	"21.063"	"24.459"	"27.105"	"31.333"	"29.103"	"25.877"	"25.469"	"25.103"	"26.174"	"22.83"	"19.834"
"1906"	"20.502"	"21.604"	"25.704"	"29.768"	"30.926"	"27.286"	"25.581"	"25.535"	"24.45"	"24.857"	"23.072"	"21.285"
"1907"	"21.391"	"22.662"	"25.697"	"27.442"	"29.256"	"28.019"	"26.102"	"24.172"	"25.401"	"26.503"	"23.549"	"19.733"
"1908"	"20.638"	"22.186"	"25.598"	"29.832"	"30.027"	"28.368"	"24.932"	"24.638"	"25.671"	"25.762"	"21.723"	"18.857"
"1909"	"21.987"	"22.954"	"27.681"	"28.027"	"30.606"	"27.236"	"25.03"	"25.509"	"24.811"	"25.054"	"22.41"	"21.654"
"1910"	"21.122"	"22.246"	"26.334"	"29.535"	"30.13"	"27.627"	"25.999"	"25.279"	"24.874"	"24.342"	"20.285"	"19.828"
"1911"	"21.847"	"21.809"	"25.082"	"29.094"	"31.189"	"27.24"	"26.545"	"24.945"	"25.388"	"27.005"	"24.42"	"21.961"
"1912"	"21.796"	"23.653"	"26.553"	"30.24"	"30.886"	"30.028"	"26.382"	"25.313"	"26.047"	"25.894"	"22.159"	"20.253"
"1913"	"20.212"	"23.884"	"25.683"	"30.484"	"30.048"	"26.674"	"25.643"	"25.117"	"25.57"	"25.909"	"22.627"	"21.938"
"1914"	"21.367"	"23.446"	"25.598"	"28.7"	"30.824"	"27.839"	"25.345"	"25.253"	"25.437"	"25.705"	"23.514"	"21.33"
"1915"	"21.308"	"22.524"	"25.907"	"29.237"	"30.418"	"29.654"	"26.496"	"25.345"	"25.53"	"25.244"	"24.101"	"20.033"
"1916"	"21.119"	"22.26"	"27.362"	"29.989"	"31.003"	"26.647"	"26.761"	"25.443"	"25.644"	"25.374"	"22.774"	"19.853"
"1917"	"20.928"	"22.117"	"25.31"	"27.682"	"29.046"	"26.806"	"25.832"	"25.814"	"25.072"	"24.295"	"21.273"	"20.076"
"1918"	"19.819"	"23.074"	"25.726"	"28.032"	"29.19"	"27.196"	"26.956"	"25.907"	"26.046"	"26.819"	"24.456"	"21.881"
"1919"	"22.117"	"23.571"	"26.78"	"28.934"	"30.239"	"27.048"	"25.638"	"25.356"	"25.549"	"25.163"	"23.951"	"20.46"
"1920"	"21.946"	"22.15"	"26.477"	"29.014"	"29.166"	"27.826"	"25.138"	"25.341"	"26.121"	"26.348"	"22.75"	"20.918"
"1921"	"21.879"	"22.488"	"27.602"	"30.467"	"30.67"	"27.898"	"26.404"	"24.976"	"24.782"	"25.231"	"21.557"	"20.952"
"1922"	"21.518"	"23.671"	"26.582"	"29.967"	"30.339"	"27.752"	"25.118"	"25.037"	"24.927"	"25.326"	"21.871"	"19.087"
"1923"	"20.929"	"21.509"	"26.382"	"28.727"	"29.493"	"29.564"	"25.537"	"25.043"	"25.018"	"24.729"	"22.299"	"21.787"
"1924"	"22.33"	"23.673"	"28.032"	"30.311"	"30.689"	"28.694"	"26.41"	"25.871"	"25.224"	"23.87"	"20.854"	"20.831"
"1925"	"19.622"	"21.775"	"26.592"	"30.521"	"29.802"	"26.803"	"25.238"	"25.463"	"25.868"	"26.117"	"23.796"	"20.644"
"1926"	"22.177"	"24.4"	"26.42"	"27.137"	"30.162"	"29.951"	"26.313"	"25.145"	"25.356"	"26.031"	"22.269"	"20.727"
"1927"	"21.913"	"22.843"	"26.53"	"29.263"	"30.145"	"27.44"	"24.995"	"24.962"	"25.728"	"25.396"	"20.778"	"20.965"
"1928"	"21.626"	"22.751"	"26.508"	"29.514"	"30.355"	"28.255"	"25.636"	"25.278"	"24.625"	"25.318"	"22.985"	"20.922"
"1929"	"20.811"	"22.78"	"27.673"	"28.929"	"30.862"	"27.433"	"25.518"	"25.418"	"25.963"	"25.344"	"22.947"	"21.257"
"1930"	"21.754"	"20.792"	"26.672"	"28.707"	"30.545"	"28.058"	"24.769"	"24.665"	"25.217"	"25.892"	"21.526"	"21.793"
"1931"	"21.604"	"23.376"	"25.852"	"30.52"	"30.794"	"29.588"	"25.569"	"25.229"	"24.815"	"24.263"	"22.216"	"20.081"
"1932"	"20.632"	"21.145"	"25.769"	"28.532"	"30.422"	"27.799"	"25.206"	"25.698"	"25.308"	"26.05"	"22.652"	"20.646"
"1933"	"20.889"	"22.896"	"26.09"	"28.798"	"28.653"	"26.56"	"25.671"	"24.837"	"24.734"	"24.835"	"22.909"	"20.388"
"1934"	"20.118"	"22.481"	"25.526"	"29.493"	"30.091"	"27.75"	"25.216"	"24.526"	"24.437"	"25.088"	"21.225"	"20.202"
"1935"	"19.895"	"22.252"	"25.025"	"27.407"	"30.451"	"28.19"	"25.099"	"25.05"	"24.269"	"25.835"	"21.797"	"21.453"
"1936"	"21.018"	"21.78"	"25.974"	"28.449"	"31.063"	"26.555"	"25.559"	"25.097"	"25.641"	"25.381"	"23.545"	"20.708"
"1937"	"20.169"	"22.823"	"25.51"	"28.265"	"30.229"	"27.959"	"24.823"	"25.259"	"25.108"	"24.897"	"22.564"	"20.771"
"1938"	"22.671"	"21.291"	"27.272"	"29.592"	"29.863"	"25.398"	"24.922"	"25.349"	"24.88"	"24.035"	"21.675"	"20.309"
"1939"	"21.73"	"23.592"	"25.244"	"28.77"	"29.933"	"28.007"	"25.197"	"25.384"	"24.936"	"25.72"	"21.438"	"19.708"
"1940"	"20.439"	"23.027"	"24.89"	"28.929"	"30.329"	"27.91"	"25.018"	"24.726"	"25.377"	"25.245"	"23.352"	"20.974"
"1941"	"20.923"	"23.538"	"27.557"	"30.135"	"30.936"	"28.831"	"25.715"	"25.767"	"26.024"	"26.457"	"23.17"	"22.694"
"1942"	"21.521"	"23.206"	"27.544"	"30.538"	"30.694"	"28.647"	"24.821"	"24.937"	"24.719"	"25.961"	"22.225"	"20.901"
"1943"	"21.944"	"21.415"	"26.622"	"28.635"	"30.316"	"26.994"	"24.872"	"24.741"	"24.709"	"24.498"	"23.387"	"19.575"
"1944"	"21.32"	"21.96"	"25.318"	"28.496"	"31.274"	"28.337"	"25.257"	"24.934"	"25.537"	"25.171"	"22.762"	"22.175"
"1945"	"20.343"	"22.024"	"26.396"	"28.182"	"30.399"	"28.382"	"25.335"	"25.411"	"24.759"	"25.302"	"21.468"	"19.632"
"1946"	"20.584"	"23.2"	"26.599"	"29.494"	"29.619"	"27.176"	"25.174"	"24.736"	"25.102"	"26.332"	"23.129"	"23.098"
"1947"	"21.54"	"23.29"	"26.704"	"28.329"	"30.768"	"29.143"	"25.88"	"26.29"	"24.824"	"24.267"	"23.082"	"21.478"
"1948"	"22.132"	"22.852"	"26.517"	"30.037"	"31.182"	"28.176"	"25.703"	"25.309"	"24.826"	"26.251"	"24.342"	"19.92"
"1949"	"21.973"	"22.315"	"27.281"	"29.716"	"30.351"	"27.496"	"26.046"	"25.82"	"24.812"	"25.613"	"22.126"	"21.02"
"1950"	"21.548"	"21.85"	"25.839"	"29.434"	"30.186"	"28.485"	"25.412"	"26.079"	"25.335"	"24.621"	"21.699"	"21.133"
"1951"	"20.913"	"22.754"	"26.614"	"28.327"	"30.889"	"28.235"	"26.544"	"25.215"	"26.807"	"26.445"	"23.764"	"20.359"
"1952"	"21.608"	"23.829"	"25.487"	"30.008"	"30.92"	"28.138"	"25.932"	"24.821"	"25.546"	"26.022"	"21.985"	"23.212"
"1953"	"21.432"	"24.886"	"28.594"	"29.762"	"30.535"	"28.687"	"26.014"	"25.051"	"25.773"	"25.729"	"22.801"	"20.896"
"1954"	"20.682"	"24.093"	"26.717"	"29.84"	"31.226"	"27.735"	"25.454"	"25.349"	"24.02"	"24.36"	"21.937"	"21.533"
"1955"	"22.276"	"24.022"	"27.474"	"28.41"	"30.6"	"28.021"	"26.056"	"24.904"	"25.432"	"24.966"	"21.291"	"20.699"
"1956"	"21.966"	"22.785"	"27.4"	"30.024"	"29.498"	"27.247"	"24.365"	"24.865"	"24.906"	"24.936"	"22.655"	"21.121"
"1957"	"21.94"	"21.994"	"25.737"	"29.306"	"30.543"	"29.05"	"25.661"	"25.248"	"25.502"	"26.321"	"23.858"	"22.95"
"1958"	"22.142"	"22.953"	"26.645"	"30.193"	"31.201"	"29.538"	"25.529"	"25.696"	"25.166"	"25.79"	"24.103"	"21.983"
"1959"	"22.56"	"23.71"	"27.465"	"30.03"	"31.376"	"28.597"	"24.909"	"24.955"	"24.765"	"25.079"	"23.075"	"22.098"
"1960"	"21.653"	"23.922"	"25.994"	"29.81"	"30.534"	"27.588"	"26.057"	"24.552"	"25.415"	"25.055"	"22.79"	"22.568"
"1961"	"22.154"	"21.485"	"27.635"	"29.865"	"29.881"	"27.476"	"25.016"	"25.387"	"24.488"	"24.449"	"23.261"	"21.552"
"1962"	"19.917"	"23.121"	"26.141"	"29.173"	"30.764"	"28.313"	"25.621"	"25.224"	"24.814"	"24.954"	"22.802"	"21.383"
"1963"	"22.19"	"23.33"	"26.556"	"28.151"	"30.188"	"27.577"	"25.646"	"24.451"	"25.148"	"25.841"	"23.836"	"22.137"
"1964"	"20.897"	"22.943"	"27.496"	"30.723"	"30.038"	"27.697"	"25.457"	"24.4"	"24.902"	"25.664"	"22.466"	"20.986"
"1965"	"21.935"	"23"	"26.09"	"29.072"	"30.369"	"28.17"	"25.418"	"25.539"	"25.735"	"26.416"	"23.743"	"22.311"
"1966"	"21.367"	"23.913"	"26.268"	"29.539"	"29.382"	"28.896"	"26.641"	"25.651"	"25.634"	"26.718"	"24.697"	"21.874"
"1967"	"21.337"	"23.843"	"26.691"	"29.494"	"30.811"	"28.154"	"25.817"	"24.956"	"25.254"	"25.836"	"23.313"	"23.247"
"1968"	"20.322"	"22.49"	"25.92"	"29.009"	"30.008"	"28.754"	"25.905"	"24.872"	"26.232"	"24.795"	"22.324"	"21.524"
"1969"	"21.431"	"24.063"	"28.305"	"30.773"	"31.325"	"28.639"	"25.659"	"25.025"	"24.961"	"25.927"	"24.87"	"22.196"
"1970"	"21.755"	"24.351"	"26.868"	"30.453"	"31.126"	"26.909"	"25.795"	"24.986"	"25.077"	"25.65"	"21.496"	"19.492"
"1971"	"20.447"	"23.221"	"26.026"	"30.082"	"29.237"	"26.777"	"25.994"	"25.142"	"25.539"	"24.572"	"21.347"	"19.794"
"1972"	"19.868"	"21.468"	"27.609"	"29.358"	"30.637"	"28.924"	"26.227"	"25.211"	"26.545"	"27.237"	"23.053"	"22.617"
"1973"	"21.724"	"23.99"	"27.161"	"31.259"	"31.718"	"28.368"	"24.952"	"24.777"	"24.25"	"25.167"	"22.068"	"21.845"
"1974"	"21.333"	"23.476"	"27.682"	"30.052"	"29.583"	"28.089"	"25.941"	"25.059"	"26.123"	"25.114"	"22.019"	"20.269"
"1975"	"20.241"	"23.004"	"26.214"	"30.928"	"30.415"	"27.523"	"25.648"	"24.703"	"24.997"	"25.795"	"21.194"	"19.52"
"1976"	"20.014"	"22.672"	"26.74"	"28.497"	"29.5"	"26.745"	"25.518"	"24.84"	"25.476"	"27.044"	"25.222"	"22.37"
"1977"	"21.52"	"23.922"	"28.44"	"29.104"	"29.68"	"27.773"	"25.993"	"25.198"	"25.239"	"26.005"	"24.878"	"20.743"
"1978"	"20.343"	"22.332"	"24.737"	"29.036"	"30.877"	"26.758"	"25.366"	"24.928"	"25.468"	"26.005"	"24.57"	"21.542"
"1979"	"22.816"	"22.359"	"25.603"	"29.317"	"30.092"	"29.308"	"26.363"	"24.561"	"25.607"	"26.416"	"24.361"	"21.741"
"1980"	"21.897"	"23.953"	"26.425"	"29.94"	"31.087"	"26.376"	"25.44"	"24.509"	"25.879"	"27.219"	"25.124"	"21.25"
"1981"	"20.259"	"23.818"	"26.002"	"29.093"	"30.104"	"28.292"	"25.368"	"25.154"	"24.963"	"26.049"	"22.37"	"21.222"
"1982"	"22.118"	"23.114"	"25.869"	"28.556"	"29.491"	"28.669"	"26.456"	"25.735"	"26.021"	"27.035"	"24.077"	"22.527"
"1983"	"21.401"	"22.36"	"26.044"	"28.686"	"31.214"	"29.136"	"26.802"	"25.599"	"25.247"	"25.069"	"22.159"	"21.181"
"1984"	"21.319"	"22.495"	"27.414"	"29.742"	"31.444"	"27.904"	"25.533"	"24.745"	"25.495"	"25.962"	"22.676"	"22.45"
"1985"	"22.476"	"23.238"	"27.83"	"29.413"	"30.716"	"27.584"	"25.426"	"25.345"	"26.346"	"24.866"	"22.968"	"22.313"
"1986"	"21.783"	"23.524"	"27.148"	"30.088"	"30.66"	"27.401"	"25.848"	"24.797"	"26.484"	"27.35"	"24.633"	"21.431"
"1987"	"23.063"	"23.45"	"26.899"	"29.869"	"29.546"	"28.63"	"26.409"	"25.949"	"27.322"	"26.012"	"24.367"	"21.313"
"1988"	"22.211"	"24.241"	"26.684"	"29.499"	"30.995"	"27.817"	"25.024"	"25.491"	"25.869"	"25.264"	"22.586"	"21.18"
"1989"	"21.433"	"22.692"	"25.385"	"29.221"	"30.754"	"26.76"	"25.72"	"24.585"	"25.479"	"26.044"	"24.458"	"21.332"
"1990"	"22.569"	"23.125"	"25.428"	"29.216"	"28.769"	"26.379"	"25.322"	"24.699"	"25.429"	"24.941"	"24.053"	"21.796"
"1991"	"21.259"	"23.299"	"26.86"	"28.866"	"30.953"	"27.738"	"25.208"	"25.05"	"26.504"	"26.556"	"24.175"	"20.982"
"1992"	"21.025"	"22.08"	"26.932"	"29.285"	"31.151"	"29.109"	"26.894"	"25.08"	"25.965"	"25.878"	"24.013"	"21.228"
"1993"	"22.194"	"22.666"	"25.475"	"29.314"	"30.994"	"28.972"	"25.884"	"25.345"	"25.131"	"25.967"	"23.585"	"20.369"
"1994"	"21.67"	"22.563"	"27.638"	"28.069"	"30.539"	"27.062"	"24.943"	"25.026"	"25.034"	"26.178"	"23.058"	"20.449"
"1995"	"19.421"	"23.136"	"25.923"	"29.041"	"29.687"	"29.977"	"26.536"	"26.448"	"26.144"	"26.262"	"23.81"	"22.62"
"1996"	"23.139"	"24.426"	"28.144"	"29.539"	"30.783"	"29.006"	"26.254"	"25.155"	"25.597"	"25.06"	"22.819"	"21.553"
"1997"	"20.17"	"21.552"	"26.618"	"27.521"	"29.424"	"27.324"	"25.981"	"25.177"	"25.39"	"26.052"	"25.826"	"23.115"
"1998"	"22.066"	"22.713"	"26.432"	"30.3"	"31.972"	"29.287"	"26.357"	"26.17"	"25.797"	"26.151"	"23.873"	"20.719"
"1999"	"20.373"	"24.267"	"27.303"	"30.233"	"29.622"	"26.899"	"25.589"	"25.204"	"24.696"	"25.397"	"23.069"	"20.953"
"2000"	"21.915"	"22.499"	"25.578"	"30.623"	"29.405"	"27.202"	"25.202"	"25.921"	"25.991"	"26.97"	"23.946"	"21.043"
"2001"	"22.067"	"23.971"	"26.345"	"29.333"	"30.281"	"27.117"	"25.191"	"25.006"	"26.382"	"25.763"	"23.604"	"22.432"
"2002"	"20.54"	"24.536"	"26.956"	"30.536"	"30.888"	"27.557"	"26.292"	"24.646"	"25.485"	"26.803"	"23.698"	"22.222"
