
"Year"	"Jan"	"Feb"	"Mar"	"Apr"	"May"	"Jun"	"Jul"	"Aug"	"Sep"	"Oct"	"Nov"	"Dec"
"1901"	"2.51"	"11.489"	"11.325"	"33.931"	"30.401"	"262.971"	"162.397"	"120.152"	"58.708"	"62.633"	"0.596"	"0"
"1902"	"0.603"	"0"	"0.003"	"1.34"	"6.338"	"90.293"	"223.483"	"101.852"	"297.212"	"61.453"	"41.992"	"26.715"
"1903"	"0.227"	"0"	"0"	"2.602"	"69.076"	"182.652"	"500.983"	"156.236"	"164.433"	"88.419"	"2.022"	"3.999"
"1904"	"0.937"	"1.126"	"1.051"	"2.378"	"4.365"	"120.658"	"117.058"	"38.47"	"225.726"	"72.389"	"0.271"	"0"
"1905"	"0"	"0.622"	"0"	"0.452"	"4.115"	"114.385"	"197.696"	"116.061"	"54.338"	"66.508"	"6.581"	"0"
"1906"	"3.061"	"1.005"	"0.124"	"0.006"	"4.612"	"259.556"	"159.938"	"285.418"	"62.414"	"14.387"	"3.823"	"19.299"
"1907"	"0"	"4.317"	"1.187"	"57.017"	"0.282"	"148.949"	"407.846"	"199.486"	"82.819"	"4.017"	"0.544"	"1.968"
"1908"	"0.228"	"0"	"4.065"	"2.63"	"2.059"	"118.277"	"151.933"	"107.993"	"212.96"	"16.046"	"0.678"	"0"
"1909"	"0.745"	"0.345"	"0.301"	"2.323"	"72.218"	"208.955"	"143.086"	"159.47"	"207.009"	"20.276"	"0.271"	"5.98"
"1910"	"0"	"0"	"0.008"	"0.006"	"7.74"	"296.432"	"318.644"	"191.564"	"265.571"	"60.167"	"52.152"	"0"
"1911"	"1.584"	"0"	"0.521"	"0.351"	"3.158"	"101.505"	"444.751"	"144.037"	"31.325"	"2.432"	"49.787"	"2.649"
"1912"	"0"	"1.166"	"0"	"5.83"	"12.037"	"87.747"	"206.988"	"112.025"	"7.127"	"71.342"	"40.658"	"0"
"1913"	"0"	"0"	"0"	"1.719"	"23.627"	"361.091"	"312.628"	"74.991"	"72.612"	"36.054"	"0.33"	"2.47"
"1914"	"0"	"0.168"	"0.07"	"1.169"	"11.297"	"268.759"	"228.972"	"131.181"	"167.434"	"12.747"	"30.745"	"9.453"
"1915"	"3.081"	"0.315"	"15.25"	"25.554"	"90.597"	"255.959"	"342.74"	"58.797"	"271.783"	"91.273"	"14.348"	"25.365"
"1916"	"0"	"0"	"2.368"	"4.886"	"54.521"	"140.368"	"581.759"	"94.054"	"236.88"	"149.621"	"24.658"	"0"
"1917"	"0.126"	"5.627"	"3.366"	"9.791"	"10.82"	"159.173"	"89.7"	"254.389"	"253.643"	"147.429"	"22.548"	"0"
"1918"	"0.569"	"10.947"	"1.81"	"1.685"	"140.872"	"66.522"	"47.636"	"54.943"	"64.184"	"18.455"	"8.772"	"6.489"
"1919"	"0.295"	"0.255"	"1.448"	"3.082"	"18.446"	"240.662"	"185.198"	"66.495"	"266.7"	"24.18"	"38.946"	"0.954"
"1920"	"3.554"	"0.522"	"0"	"18.65"	"6.27"	"91.08"	"95.867"	"51.391"	"139.689"	"14.646"	"0.272"	"0"
"1921"	"1.287"	"0"	"0"	"5.248"	"0.282"	"177.188"	"316.121"	"49.567"	"123.904"	"21.004"	"19.49"	"0"
"1922"	"1.829"	"1.725"	"0"	"25.705"	"35.509"	"244.824"	"148.973"	"27.667"	"64.75"	"20.432"	"82.723"	"1.258"
"1923"	"2.546"	"12.182"	"20.187"	"4.977"	"4.01"	"25.46"	"361.411"	"57.941"	"229.395"	"10.329"	"0.271"	"5.522"
"1924"	"0.83"	"0"	"0.896"	"17.273"	"2.22"	"133.452"	"111.037"	"202.792"	"215.922"	"52.912"	"4.467"	"3.114"
"1925"	"0"	"0"	"0.619"	"0.069"	"42.488"	"161.719"	"96.356"	"167.665"	"121.018"	"20.326"	"81.42"	"1.854"
"1926"	"6.22"	"0"	"0"	"1.645"	"11.72"	"184.149"	"229.779"	"189.152"	"155.01"	"4.134"	"15.409"	"2.426"
"1927"	"0.013"	"0.243"	"2.811"	"12.049"	"6.826"	"225.85"	"217.726"	"36.048"	"181.463"	"44.811"	"83.754"	"0.543"
"1928"	"0"	"12.635"	"1.414"	"14.822"	"0.282"	"313.208"	"183.445"	"262.667"	"247.394"	"89.316"	"0.843"	"3.074"
"1929"	"0"	"0.126"	"0.488"	"51.552"	"13.095"	"260.639"	"103.027"	"41.355"	"149.672"	"63.381"	"1.189"	"2.224"
"1930"	"0"	"1.37"	"1.559"	"1.863"	"12.65"	"158.408"	"121.074"	"143.751"	"242.693"	"127.76"	"28.52"	"2.003"
"1931"	"0"	"0"	"0.096"	"7.914"	"0.385"	"96.78"	"314.099"	"94.894"	"157.335"	"153.543"	"85.398"	"12.972"
"1932"	"0"	"0"	"1.769"	"12.466"	"25.292"	"180.308"	"294.082"	"180.13"	"129.295"	"170.593"	"39.164"	"8.834"
"1933"	"0.213"	"0.329"	"3.644"	"4.991"	"113.239"	"232.387"	"125.174"	"194.071"	"407.231"	"61.082"	"14.676"	"17.777"
"1934"	"0.725"	"0"	"0.208"	"7.197"	"10.97"	"220.417"	"304.863"	"295.809"	"180.175"	"21.636"	"73.347"	"0.263"
"1935"	"0.241"	"0"	"0"	"1.883"	"0.933"	"209.243"	"221.647"	"285.713"	"129.084"	"129.026"	"7.358"	"2.385"
"1936"	"0"	"4.891"	"2.621"	"3.728"	"65.73"	"113.953"	"89.029"	"49.962"	"141.854"	"3.863"	"97.216"	"0.412"
"1937"	"0"	"2.914"	"1.913"	"32.618"	"0.954"	"134.519"	"300.901"	"25.09"	"216.809"	"116.485"	"0.271"	"6.624"
"1938"	"0"	"1.528"	"5.62"	"20.836"	"76.66"	"213.101"	"611.131"	"207.075"	"218.592"	"123.379"	"3.134"	"0.438"
"1939"	"0.134"	"0"	"2.186"	"15.86"	"0.283"	"146.35"	"211.295"	"142.44"	"49.421"	"21.194"	"28.518"	"0.425"
"1940"	"0"	"12.667"	"0.064"	"27.655"	"21.8"	"322.068"	"120.011"	"169.605"	"124.637"	"69.537"	"27.131"	"5.453"
"1941"	"1.529"	"13.135"	"4.355"	"4.182"	"0.456"	"41.519"	"208.775"	"82.964"	"225.262"	"18.873"	"0.271"	"0"
"1942"	"0"	"2.847"	"0"	"2.35"	"5.284"	"172.117"	"235.541"	"158.586"	"64.391"	"13.98"	"0.527"	"42.085"
"1943"	"0.232"	"0"	"0.404"	"2.943"	"47.957"	"229.488"	"279.95"	"76.095"	"220.85"	"233.169"	"2.466"	"0"
"1944"	"0.002"	"0.816"	"7.971"	"0.006"	"22.873"	"150.648"	"379.201"	"104.921"	"126.91"	"101.024"	"3.946"	"0"
"1945"	"2.742"	"0"	"0"	"4.773"	"1.349"	"104.255"	"159.602"	"266.635"	"122.051"	"32.717"	"7.204"	"1.174"
"1946"	"0"	"13.5"	"0.275"	"30.776"	"34.84"	"212.328"	"169.771"	"128.11"	"233.753"	"13.012"	"81.114"	"10.057"
"1947"	"3.189"	"0.817"	"4.983"	"59.429"	"13.987"	"106.05"	"260.826"	"302.857"	"269.238"	"22.378"	"3.77"	"12.324"
"1948"	"2.09"	"0.839"	"1.736"	"1.452"	"3.292"	"184.566"	"313.392"	"178.341"	"180.127"	"42.876"	"141.739"	"0"
"1949"	"0"	"0"	"1.503"	"0.504"	"48.932"	"129.104"	"136.577"	"122.938"	"348.499"	"38.319"	"10.084"	"0"
"1950"	"0"	"0.011"	"1.369"	"7.983"	"21.411"	"75.117"	"280.964"	"74.275"	"288.463"	"43.037"	"0.274"	"0.872"
"1951"	"1.763"	"0"	"2.334"	"13.071"	"8.934"	"185.443"	"374.62"	"73.186"	"66.198"	"122.406"	"8.684"	"0"
"1952"	"0"	"0.764"	"0"	"2.94"	"35.52"	"247.021"	"154.309"	"57.797"	"60.502"	"60.591"	"0.271"	"1.325"
"1953"	"0.115"	"0"	"0.199"	"25.382"	"0.282"	"195.77"	"296.331"	"125.949"	"146.883"	"94.34"	"0.271"	"0"
"1954"	"1.791"	"0.286"	"15.009"	"8.482"	"13.787"	"290.885"	"340.655"	"157.644"	"175.258"	"10.913"	"0.271"	"9.13"
"1955"	"1.587"	"0"	"1.735"	"10.149"	"9.479"	"178.987"	"186.949"	"247.731"	"220.575"	"188.344"	"2.178"	"0"
"1956"	"0"	"0"	"0"	"18.65"	"100.522"	"171.141"	"396.447"	"263.489"	"219.521"	"151.912"	"48.296"	"1.32"
"1957"	"0"	"0"	"2.409"	"28.074"	"49.649"	"175.374"	"198.474"	"341.86"	"113.846"	"139.055"	"20.052"	"0"
"1958"	"0.917"	"0"	"1.95"	"12.846"	"23.844"	"139.069"	"341.349"	"372.386"	"55.358"	"76.846"	"23.016"	"0.469"
"1959"	"2.505"	"0"	"0"	"8.399"	"24.372"	"207.721"	"240.318"	"261.797"	"151.507"	"141.973"	"20.714"	"0"
"1960"	"0.049"	"0"	"0.251"	"2.384"	"58.55"	"127.78"	"183.492"	"42.018"	"282.54"	"77.974"	"22.378"	"0.073"
"1961"	"0"	"0.044"	"0.06"	"13.584"	"106.834"	"216.78"	"288.939"	"84.68"	"48.397"	"142.961"	"5.491"	"0.938"
"1962"	"0"	"0.027"	"7.045"	"8.38"	"73.072"	"91.24"	"169.71"	"186.616"	"232.898"	"60.756"	"17.287"	"54.404"
"1963"	"0.047"	"0.233"	"14.251"	"5.921"	"20.817"	"178.377"	"276.515"	"185.721"	"55.196"	"67.771"	"4.059"	"0"
"1964"	"0"	"0"	"4.637"	"10.661"	"4.805"	"166.022"	"253.553"	"107.548"	"212.836"	"40.394"	"28.259"	"1.347"
"1965"	"0.364"	"0.249"	"0"	"21.678"	"4.256"	"68.081"	"317.079"	"296.214"	"81.757"	"3.821"	"15.113"	"18.297"
"1966"	"4.005"	"0"	"0.061"	"3.714"	"88.45"	"85.488"	"232.105"	"49.263"	"141.697"	"1.135"	"50.229"	"3.554"
"1967"	"0.042"	"1.98"	"2.571"	"5.031"	"3.247"	"143.188"	"356.748"	"72.577"	"140.429"	"41.625"	"1.53"	"54.992"
"1968"	"0.198"	"3.464"	"6.423"	"25.656"	"3.738"	"77.078"	"265.49"	"92.496"	"201.998"	"59.959"	"34.677"	"1.087"
"1969"	"0.042"	"0.557"	"0.08"	"1.774"	"1.699"	"237.119"	"349.046"	"154.901"	"207.083"	"16.664"	"26.057"	"1.011"
"1970"	"0.396"	"0"	"0"	"23.495"	"68.517"	"212.009"	"144.382"	"220.976"	"204.688"	"98.227"	"0.271"	"0"
"1971"	"0"	"0"	"0"	"0.985"	"75.502"	"106.108"	"42.528"	"280.24"	"216.014"	"53.594"	"0.271"	"0"
"1972"	"0"	"0"	"0"	"3.365"	"7.815"	"80.361"	"80.286"	"60.199"	"97.872"	"1.198"	"24.336"	"0.304"
"1973"	"0.094"	"4.66"	"0.05"	"0.847"	"4.799"	"184.257"	"237.604"	"183.191"	"152.613"	"78.677"	"5.471"	"0.388"
"1974"	"0"	"0"	"8.393"	"11.628"	"51.843"	"123.459"	"163.075"	"199.023"	"234.701"	"168.508"	"0.271"	"0"
"1975"	"0.49"	"0.825"	"0"	"0.006"	"16.805"	"126.873"	"352.86"	"245.267"	"271.077"	"108.952"	"0.914"	"0"
"1976"	"0.094"	"0"	"9.69"	"0.924"	"2.348"	"192.306"	"206.42"	"229.75"	"77.812"	"3.608"	"55.985"	"1.487"
"1977"	"0"	"0.944"	"3.057"	"4.026"	"20.134"	"90.316"	"128.577"	"45.434"	"58.223"	"77.766"	"122.685"	"2.315"
"1978"	"0.528"	"10.635"	"6.806"	"33.764"	"38.094"	"165.174"	"128.574"	"93.169"	"88.887"	"30.37"	"46.377"	"1.079"
"1979"	"0.561"	"1.213"	"6.498"	"0.117"	"6.405"	"90.818"	"306.211"	"190.891"	"254.571"	"18.119"	"96.991"	"0.757"
"1980"	"0"	"0.1"	"9.48"	"24.472"	"4.974"	"112.396"	"228.467"	"244.874"	"67.347"	"2.716"	"7.092"	"4.292"
"1981"	"4.082"	"0.718"	"0.938"	"1.963"	"19.056"	"155.437"	"156.296"	"106.685"	"351.304"	"102.084"	"7.153"	"4.788"
"1982"	"0"	"0.193"	"0.098"	"10.756"	"58.143"	"88.376"	"114.663"	"63.454"	"144.408"	"48.278"	"78.144"	"0"
"1983"	"1.755"	"0"	"0"	"0.006"	"0.982"	"129.109"	"308.874"	"222.138"	"378.288"	"39.768"	"0.504"	"2.515"
"1984"	"0.014"	"1.415"	"3.899"	"1.04"	"0.588"	"82.711"	"347.503"	"43.161"	"139.559"	"162.17"	"0.744"	"0.399"
"1985"	"0.58"	"0"	"0.647"	"15.6"	"4.64"	"125.289"	"179.562"	"147.409"	"69.429"	"130.114"	"80.678"	"0.37"
"1986"	"0"	"3.394"	"0"	"4.317"	"18.429"	"258.809"	"158.94"	"138.595"	"79.202"	"3.822"	"3.669"	"33.034"
"1987"	"6.453"	"7.3"	"1.269"	"2.467"	"72.85"	"112.21"	"88.113"	"217.134"	"38.745"	"124.757"	"25.241"	"33.788"
"1988"	"0"	"0"	"0"	"31.733"	"19.977"	"92.146"	"374.876"	"119.73"	"413.831"	"43.958"	"1.786"	"0.535"
"1989"	"0"	"0"	"14.806"	"13.899"	"25.049"	"187.379"	"209.503"	"102.737"	"186.1"	"16.369"	"0.389"	"3.576"
"1990"	"0.003"	"0.67"	"0.546"	"0.01"	"91.078"	"175.887"	"282.84"	"237.66"	"61.215"	"108.236"	"30.235"	"3.45"
"1991"	"0.002"	"0.439"	"1.252"	"22.65"	"21.557"	"233.085"	"240.383"	"91.64"	"110.431"	"1.921"	"15.386"	"0"
"1992"	"0"	"0"	"0"	"1.903"	"22.162"	"93.376"	"146.649"	"207.87"	"235.039"	"39.161"	"2.677"	"0"
"1993"	"0"	"0.547"	"1.765"	"1.017"	"2.639"	"100.426"	"240.257"	"84.128"	"105.509"	"195.909"	"4.649"	"32.839"
"1994"	"1.946"	"0.633"	"3.548"	"20.458"	"27.138"	"309.657"	"318.179"	"122.574"	"121.92"	"88.552"	"12.876"	"0"
"1995"	"1.663"	"0"	"4.572"	"19.104"	"31.173"	"80.793"	"288.451"	"57.425"	"233.547"	"67.643"	"2.655"	"0.029"
"1996"	"0.279"	"2.468"	"0.896"	"3.959"	"6.19"	"168.142"	"297.622"	"119.545"	"191.379"	"167.222"	"7.378"	"0"
"1997"	"3.099"	"0"	"1.671"	"23.129"	"4.646"	"267.071"	"213.733"	"257.381"	"45.384"	"28.709"	"85.942"	"22.876"
"1998"	"0.125"	"2.136"	"0.721"	"0.365"	"13.475"	"96.911"	"273.383"	"175.059"	"245.789"	"78.648"	"53.802"	"0"
"1999"	"0"	"3.732"	"0"	"0.277"	"48.162"	"192.939"	"143.288"	"68.693"	"209.051"	"158.838"	"0.271"	"0.18"
"2000"	"0"	"0.392"	"0"	"0.429"	"27.241"	"159.119"	"153.915"	"110.034"	"96.981"	"28.874"	"11.172"	"7.145"
"2001"	"0.578"	"0"	"4.291"	"2.292"	"10.876"	"134.787"	"127.43"	"96.425"	"99.768"	"102.959"	"16.935"	"0"
"2002"	"0.497"	"1.232"	"1.151"	"41.114"	"12.775"	"231.905"	"40.453"	"140.951"	"85.488"	"22.66"	"1.676"	"0"
