
"Year"	"Jan"	"Feb"	"Mar"	"Apr"	"May"	"Jun"	"Jul"	"Aug"	"Sep"	"Oct"	"Nov"	"Dec"
"1901"	"14.486"	"18.177"	"23.95"	"30.041"	"33.35"	"35.659"	"31.411"	"29.495"	"28.657"	"27.584"	"21.472"	"16.934"
"1902"	"17.268"	"19.361"	"26.52"	"30.331"	"34.292"	"35.091"	"30.603"	"29.718"	"29.079"	"26.316"	"20.817"	"16.01"
"1903"	"16.246"	"17.899"	"23.928"	"30.515"	"33.901"	"34.626"	"31.976"	"29.512"	"29.755"	"26.804"	"20.602"	"16.217"
"1904"	"16.44"	"18.905"	"24.634"	"31.555"	"32.879"	"32.827"	"29.687"	"28.845"	"28.876"	"26.737"	"20.229"	"16.946"
"1905"	"14.68"	"14.599"	"22.199"	"27.528"	"33.398"	"36.187"	"30.482"	"28.833"	"28.988"	"26.605"	"21.321"	"16.444"
"1906"	"15.601"	"17.656"	"23.165"	"30.634"	"35.154"	"33.915"	"30.724"	"29.065"	"29.378"	"26.838"	"22.016"	"17.395"
"1907"	"17.644"	"17.749"	"21.934"	"27.923"	"32.239"	"33.582"	"31.86"	"29.594"	"29.711"	"27.678"	"21.244"	"16.173"
"1908"	"14.923"	"18.816"	"24.39"	"32.434"	"34.473"	"35.294"	"30.72"	"29.601"	"29.726"	"26.745"	"20.546"	"16.066"
"1909"	"17.746"	"17.634"	"25.013"	"28.581"	"33.939"	"31.417"	"30.06"	"29.217"	"29.559"	"26.949"	"21.421"	"17.05"
"1910"	"15.605"	"18.624"	"25.087"	"30.754"	"33.76"	"32.6"	"30.324"	"29.341"	"29.378"	"26.604"	"20.572"	"16.049"
"1911"	"17.65"	"18.261"	"22.943"	"30.256"	"35.099"	"32.178"	"32.186"	"29.54"	"28.837"	"26.816"	"20.062"	"15.689"
"1912"	"16.24"	"19.794"	"24.538"	"29.981"	"33.625"	"34.771"	"30.803"	"29.218"	"28.777"	"26.843"	"20.183"	"15.956"
"1913"	"15.861"	"18.551"	"22.466"	"30.951"	"32.199"	"30.768"	"30.398"	"29.65"	"29.456"	"26.552"	"20.017"	"16.307"
"1914"	"17.256"	"19.234"	"23.523"	"29.261"	"32.456"	"33.189"	"30.508"	"29.118"	"29.005"	"25.573"	"21.877"	"16.929"
"1915"	"16.739"	"17.921"	"24.126"	"30.586"	"35.027"	"34.231"	"31.508"	"29.34"	"29.284"	"28.273"	"22.578"	"16.743"
"1916"	"15.861"	"18.417"	"26.843"	"31.787"	"34.768"	"31.516"	"30.333"	"28.961"	"29.139"	"27.217"	"21.542"	"15.472"
"1917"	"15.662"	"18.317"	"23.619"	"27.956"	"30.099"	"32.105"	"30.165"	"29.417"	"28.715"	"26.816"	"20.628"	"16.367"
"1918"	"14.791"	"18.854"	"24.927"	"29.303"	"34.07"	"30.99"	"31.904"	"29.236"	"29.335"	"26.379"	"20.485"	"15.683"
"1919"	"16.179"	"17.144"	"24.771"	"28.984"	"32.474"	"32.784"	"29.893"	"29.417"	"28.894"	"26.39"	"21.195"	"16.329"
"1920"	"16.228"	"18.25"	"24.177"	"30.365"	"31.386"	"34.27"	"30"	"29.417"	"29.291"	"27.198"	"21.645"	"17.094"
"1921"	"16.772"	"18.899"	"27.146"	"32.065"	"36.422"	"33.118"	"30.871"	"28.799"	"28.395"	"25.778"	"19.92"	"16.951"
"1922"	"16.102"	"19.74"	"25.734"	"30.273"	"34.963"	"31.635"	"29.633"	"28.693"	"28.156"	"25.097"	"20.314"	"16.267"
"1923"	"16.067"	"18.163"	"24.229"	"31.394"	"34.378"	"35.886"	"30.165"	"29.422"	"29.074"	"25.701"	"20.775"	"16.952"
"1924"	"15.546"	"18.745"	"26.327"	"31.488"	"32.955"	"36.055"	"29.993"	"29.118"	"28.466"	"26.877"	"20.966"	"16.834"
"1925"	"14.6"	"17.277"	"24.51"	"31.109"	"32.944"	"32.061"	"29.393"	"29.489"	"29.133"	"26.655"	"20.711"	"15.894"
"1926"	"15.73"	"19.432"	"23.245"	"27.229"	"31.824"	"36.036"	"31.061"	"29.418"	"28.781"	"26.184"	"18.991"	"16.474"
"1927"	"14.868"	"17.977"	"23.202"	"29.773"	"32.534"	"34.416"	"30.718"	"29.196"	"29.672"	"26.771"	"20.771"	"17.351"
"1928"	"15.511"	"18.816"	"25.11"	"29.352"	"34.256"	"32.517"	"30.094"	"30.255"	"30.293"	"27.839"	"21.479"	"17.206"
"1929"	"15.922"	"17.661"	"25.688"	"30.822"	"34.863"	"33.683"	"30.165"	"28.623"	"29.567"	"25.978"	"21.11"	"16.194"
"1930"	"15.193"	"18.216"	"25.528"	"29.918"	"33.119"	"33.815"	"29.812"	"29.118"	"29.554"	"27.093"	"20.949"	"16.189"
"1931"	"17.24"	"18.056"	"24.304"	"31.588"	"34.179"	"34.918"	"30.499"	"30.017"	"29.257"	"26.844"	"21.088"	"17.367"
"1932"	"17.578"	"17.8"	"25.127"	"30.188"	"33.285"	"35.276"	"30.815"	"29.14"	"29.378"	"27.061"	"21.776"	"16.366"
"1933"	"14.439"	"19.5"	"25.205"	"28.154"	"30.992"	"32.405"	"30.165"	"29.312"	"29.156"	"26.577"	"21.033"	"16.85"
"1934"	"15.818"	"19.183"	"24.348"	"30.854"	"33.916"	"33.417"	"30.165"	"29.272"	"29.485"	"26.283"	"21.088"	"17.001"
"1935"	"14.885"	"19.023"	"24.656"	"27.512"	"34.455"	"34.755"	"30.549"	"28.716"	"28.859"	"26.284"	"20.906"	"16.401"
"1936"	"15.123"	"18.563"	"25.047"	"29.372"	"33.716"	"30.941"	"29.649"	"29.09"	"28.577"	"25.535"	"21.289"	"17.128"
"1937"	"14.67"	"18.563"	"23.51"	"28.222"	"32.841"	"33.827"	"30.505"	"28.322"	"29.184"	"25.898"	"20.635"	"15.429"
"1938"	"15.858"	"16.9"	"26.166"	"31.034"	"33.424"	"31.472"	"30.108"	"29.118"	"29.302"	"27.055"	"20.184"	"16.534"
"1939"	"16.818"	"18.956"	"23.053"	"29.517"	"34.917"	"32.83"	"30.087"	"28.936"	"28.782"	"26.748"	"20.972"	"16.756"
"1940"	"15.845"	"18.183"	"22.661"	"29.035"	"33.586"	"34.156"	"30.145"	"29.335"	"28.701"	"27.067"	"22.068"	"16.415"
"1941"	"15.9"	"19.245"	"26.787"	"32.588"	"33.855"	"32.867"	"31.435"	"29.54"	"29.379"	"27.367"	"21.228"	"17.67"
"1942"	"15.629"	"19.255"	"25.556"	"30.488"	"35.001"	"34.862"	"30.448"	"29.296"	"28.472"	"26.771"	"22.313"	"16.807"
"1943"	"17.952"	"18.655"	"25.623"	"28.636"	"34.641"	"34.195"	"30.566"	"28.646"	"29.394"	"26.876"	"21.873"	"17.751"
"1944"	"15.756"	"18.278"	"23.51"	"28.388"	"35.361"	"33.621"	"30.364"	"29.417"	"29.884"	"26.199"	"21.599"	"18.16"
"1945"	"14.708"	"17.872"	"25.104"	"28.641"	"33.539"	"34.583"	"31.251"	"30.088"	"29.08"	"25.601"	"20.91"	"15.543"
"1946"	"16.9"	"20.716"	"24.62"	"29.455"	"32.405"	"32.989"	"30.063"	"29.717"	"29.465"	"26.55"	"21.222"	"17.901"
"1947"	"15.601"	"19.333"	"25.754"	"31.765"	"34.128"	"35.062"	"30.33"	"29.7"	"29.296"	"26.456"	"21.777"	"17.344"
"1948"	"16.74"	"18.8"	"24.388"	"31.704"	"34.705"	"35.272"	"29.987"	"29.194"	"28.876"	"26.45"	"21.067"	"16.606"
"1949"	"17.439"	"18.996"	"24.921"	"30.171"	"32.627"	"34.272"	"30.459"	"29.201"	"29.18"	"27.385"	"20.064"	"15.713"
"1950"	"16.801"	"18.139"	"23.683"	"29.777"	"33.999"	"33.078"	"30.165"	"29.096"	"28.872"	"26.483"	"20.621"	"17.029"
"1951"	"15.401"	"18.837"	"24.656"	"29.356"	"33.633"	"33.961"	"30.881"	"29.533"	"29.086"	"28.577"	"22.467"	"16.684"
"1952"	"17.356"	"20.817"	"24.261"	"31.044"	"34.272"	"33.067"	"30.094"	"28.899"	"29.181"	"27.378"	"21.335"	"17.337"
"1953"	"15.702"	"20.61"	"28.022"	"31.165"	"34.594"	"33.961"	"29.417"	"28.644"	"28.899"	"26.2"	"20.734"	"18.524"
"1954"	"15.323"	"20.478"	"25.426"	"32.054"	"35.239"	"33.66"	"30.766"	"29.102"	"29.179"	"25.684"	"20.881"	"16.701"
"1955"	"16.212"	"19.17"	"26.626"	"29.55"	"33.723"	"33.467"	"29.586"	"29.112"	"28.8"	"26.484"	"21.427"	"17.3"
"1956"	"16.511"	"19.054"	"25.689"	"31.693"	"35.023"	"31.786"	"30.165"	"29.201"	"28.306"	"26.738"	"20.811"	"17.292"
"1957"	"16.679"	"18.232"	"23.86"	"30.232"	"34.324"	"34.117"	"30.665"	"29.717"	"29.285"	"26.785"	"22.189"	"17.829"
"1958"	"17.879"	"19.423"	"25.6"	"31.976"	"34.618"	"35.34"	"30.572"	"29.135"	"29.278"	"26.983"	"22.036"	"18.045"
"1959"	"16.564"	"18.324"	"25.514"	"31.066"	"33.838"	"34.233"	"30.65"	"29.231"	"29.196"	"26.977"	"21.768"	"17.572"
"1960"	"16.024"	"21.1"	"24.36"	"30.072"	"33.777"	"34.734"	"30.071"	"29.424"	"29.371"	"26.584"	"20.718"	"18.455"
"1961"	"16.708"	"17.761"	"25.6"	"30.687"	"34.124"	"33.554"	"30.686"	"29.147"	"29.101"	"26.383"	"20.444"	"14.006"
"1962"	"15.069"	"19.194"	"24.626"	"30.458"	"33.615"	"35.774"	"31.559"	"28.831"	"28.307"	"25.813"	"21.328"	"17.315"
"1963"	"15.288"	"20.055"	"24.475"	"29.915"	"32.432"	"32.791"	"30.208"	"29.388"	"28.67"	"27.201"	"22.91"	"17.357"
"1964"	"15.7"	"18.916"	"26.343"	"31.159"	"32.377"	"34.176"	"29.741"	"29.364"	"28.754"	"27.706"	"21.111"	"17.246"
"1965"	"17.164"	"19.25"	"23.876"	"29.043"	"33.615"	"35.456"	"30.83"	"29.389"	"28.594"	"26.955"	"22.354"	"16.748"
"1966"	"16.855"	"21.281"	"25.545"	"31.361"	"34.456"	"33.89"	"31.63"	"29.343"	"29.443"	"27.167"	"22.616"	"16.461"
"1967"	"15.545"	"20.355"	"23.505"	"29.427"	"33.276"	"34.447"	"30.179"	"28.414"	"28.798"	"26.262"	"20.793"	"17.568"
"1968"	"15.238"	"17.739"	"24.334"	"29.656"	"33.314"	"32.676"	"30.165"	"29.462"	"30.364"	"26.248"	"21.759"	"17.184"
"1969"	"16.279"	"20.233"	"27.322"	"31.329"	"32.692"	"34.894"	"29.963"	"28.716"	"28.747"	"27.408"	"23.252"	"17.295"
"1970"	"16.586"	"18.307"	"24.241"	"31.273"	"33.62"	"32.553"	"30.636"	"29.588"	"28.599"	"27.384"	"21.248"	"17.42"
"1971"	"15.723"	"18.255"	"24.167"	"28.898"	"31.016"	"31.122"	"29.086"	"28.065"	"28.916"	"26.307"	"20.851"	"17.253"
"1972"	"15.999"	"17.022"	"24.959"	"29.573"	"34.162"	"34.832"	"31.409"	"29.128"	"28.199"	"25.585"	"21.372"	"17.338"
"1973"	"16.633"	"20.122"	"24.277"	"31.776"	"33.855"	"33.498"	"31.004"	"29.002"	"28.727"	"26.468"	"20.728"	"15.964"
"1974"	"15.545"	"18.059"	"25.321"	"31.582"	"33.632"	"33.745"	"29.843"	"28.99"	"28.689"	"27.929"	"21.149"	"15.983"
"1975"	"15.507"	"18.584"	"24.482"	"31.198"	"34.443"	"33.194"	"29.189"	"28.815"	"28.6"	"27.64"	"20.151"	"16.312"
"1976"	"16.263"	"19.146"	"24.876"	"29.332"	"32.597"	"33.034"	"30.446"	"28.445"	"28.406"	"26.976"	"22.801"	"16.646"
"1977"	"15.546"	"19.315"	"25.922"	"29.833"	"31.72"	"33.006"	"29.671"	"29.196"	"29.022"	"26.772"	"23.36"	"17.601"
"1978"	"15.463"	"17.49"	"22.628"	"29.455"	"34.628"	"33.364"	"29.749"	"28.915"	"28.44"	"26.876"	"22.661"	"17.298"
"1979"	"17.211"	"17.986"	"23.887"	"30.072"	"33.528"	"32.891"	"30.081"	"29.533"	"29.736"	"27.999"	"24.388"	"17.971"
"1980"	"16.364"	"19.316"	"24.427"	"31.905"	"34.054"	"31.918"	"29.239"	"28.486"	"28.921"	"26.928"	"21.862"	"17.566"
"1981"	"16.163"	"19.742"	"24.16"	"29.417"	"32.323"	"33.473"	"29.31"	"29.251"	"28.933"	"26.56"	"20.767"	"16.728"
"1982"	"17.433"	"17.814"	"22.438"	"29.5"	"32.918"	"32.388"	"31.937"	"29.319"	"28.591"	"26.927"	"22.046"	"17.662"
"1983"	"15.146"	"18.95"	"23.851"	"28.545"	"31.75"	"33.884"	"30.53"	"29.696"	"29.662"	"26.66"	"20.811"	"17.467"
"1984"	"15.933"	"17.555"	"25.55"	"30.967"	"34.533"	"32.722"	"29.71"	"28.951"	"28.406"	"27.517"	"20.777"	"17.822"
"1985"	"16.747"	"18.939"	"26.965"	"31.166"	"34.01"	"34.3"	"29.449"	"29.318"	"28.942"	"26.085"	"21.789"	"18.555"
"1986"	"16.505"	"18.633"	"24.711"	"30.149"	"31.651"	"33.313"	"29.483"	"28.889"	"28.349"	"25.984"	"22.252"	"16.746"
"1987"	"15.839"	"19.999"	"24.263"	"30.415"	"32.746"	"35.521"	"31.098"	"29.789"	"29.639"	"27.194"	"22.038"	"16.726"
"1988"	"16.985"	"19.693"	"24.605"	"31.112"	"34.512"	"32.826"	"29.717"	"29.081"	"30.222"	"27.339"	"22.156"	"18.324"
"1989"	"15.594"	"18.566"	"24.256"	"30.017"	"34.224"	"32.527"	"30.01"	"28.832"	"29.355"	"27.524"	"21.9"	"16.888"
"1990"	"17.795"	"18.967"	"23.428"	"30.749"	"32.688"	"33.688"	"29.184"	"29.279"	"29.108"	"27.026"	"21.663"	"17.76"
"1991"	"15.853"	"20.224"	"25.181"	"29.849"	"34.101"	"32.883"	"31.305"	"28.6"	"29.394"	"26.484"	"21.436"	"17.367"
"1992"	"16.076"	"17.731"	"26.138"	"30.91"	"32.416"	"32.822"	"30.692"	"29.162"	"28.943"	"27.294"	"22.528"	"17.178"
"1993"	"16.747"	"20.279"	"23.173"	"29.296"	"33.324"	"33.085"	"31.282"	"29.893"	"28.764"	"27.739"	"22.112"	"18.021"
"1994"	"17.565"	"18.541"	"26.665"	"29.843"	"35.237"	"33.704"	"30.196"	"29.172"	"29.439"	"26.423"	"21.706"	"17.368"
"1995"	"15.447"	"19.198"	"24.128"	"30.5"	"35.159"	"34.79"	"30.661"	"28.932"	"28.911"	"27.478"	"22.096"	"18.352"
"1996"	"16.789"	"19.563"	"25.848"	"29.972"	"34.302"	"33.161"	"30.154"	"28.476"	"29.678"	"26.583"	"21.707"	"16.908"
"1997"	"15.879"	"18.038"	"24.906"	"29.954"	"32.471"	"34.127"	"32.557"	"29.371"	"28.499"	"25.642"	"21.668"	"17.561"
"1998"	"15.179"	"20.249"	"23.503"	"30.408"	"34.302"	"34.491"	"30.165"	"29.495"	"29.5"	"28.462"	"23.249"	"19.308"
"1999"	"16.15"	"20.881"	"25.607"	"32.697"	"33.683"	"33.038"	"30.109"	"29.14"	"28.699"	"27.708"	"23.901"	"18.734"
"2000"	"16.883"	"19.415"	"24.605"	"31.504"	"33.466"	"32.372"	"30.394"	"29.527"	"29.041"	"28.199"	"24.278"	"17.723"
"2001"	"16.173"	"19.894"	"25.262"	"29.856"	"33.955"	"32.188"	"29.932"	"29.817"	"30.089"	"28.028"	"24.408"	"19.319"
"2002"	"16.501"	"19.879"	"25.81"	"30.866"	"35.205"	"34.325"	"32.198"	"29.35"	"28.578"	"27.123"	"22.367"	"17.452"
