
"Year"	"Jan"	"Feb"	"Mar"	"Apr"	"May"	"Jun"	"Jul"	"Aug"	"Sep"	"Oct"	"Nov"	"Dec"
"1901"	"15.31"	"18.94"	"24.027"	"29.8"	"31.185"	"31.692"	"27.922"	"26.965"	"26.416"	"25.324"	"19.817"	"16"
"1902"	"17.047"	"19.15"	"26.432"	"28.875"	"31.623"	"31.555"	"27.444"	"27.614"	"26.698"	"24.582"	"19.427"	"15.681"
"1903"	"16.787"	"18.27"	"24.708"	"30.129"	"32.396"	"30.478"	"28.428"	"27.381"	"27.053"	"24.689"	"18.827"	"15.189"
"1904"	"16.336"	"18.658"	"25.037"	"30.749"	"30.594"	"29.109"	"26.415"	"26.667"	"26.695"	"24.532"	"19.195"	"16.886"
"1905"	"15.708"	"16.011"	"23.06"	"26.863"	"30.31"	"33.017"	"27.234"	"27.006"	"26.415"	"24.422"	"19.804"	"16.296"
"1906"	"15.94"	"18.609"	"22.955"	"30.11"	"32.471"	"30.798"	"27.612"	"26.974"	"27.125"	"24.681"	"19.944"	"16.679"
"1907"	"17.128"	"18.244"	"22.768"	"27.142"	"30.636"	"30.01"	"28.072"	"26.892"	"26.984"	"24.843"	"19.796"	"15.468"
"1908"	"14.908"	"18.99"	"24.537"	"31.719"	"32.372"	"30.994"	"27.552"	"26.923"	"27.202"	"24.781"	"19.116"	"15.218"
"1909"	"17.747"	"19.029"	"25.09"	"27.478"	"31.963"	"28.383"	"27.015"	"26.533"	"26.735"	"24.303"	"20.415"	"16.738"
"1910"	"15.895"	"18.68"	"24.824"	"30.028"	"31.584"	"29.322"	"27.243"	"26.784"	"26.991"	"24.632"	"19.183"	"15.458"
"1911"	"18.511"	"18.327"	"23.627"	"29.467"	"32.46"	"28.681"	"28.671"	"26.554"	"26.425"	"24.61"	"20.065"	"15.108"
"1912"	"16.688"	"20.057"	"24.658"	"28.598"	"31.195"	"31.216"	"27.433"	"26.865"	"26.695"	"24.632"	"19.192"	"15.398"
"1913"	"16.223"	"18.979"	"22.951"	"30.699"	"30.254"	"27.425"	"27.403"	"26.504"	"26.695"	"24.1"	"18.826"	"15.637"
"1914"	"16.557"	"19.509"	"23.994"	"27.698"	"30.13"	"29.418"	"27.134"	"26.972"	"26.682"	"23.779"	"20.352"	"16.489"
"1915"	"17.035"	"19.146"	"23.977"	"29.549"	"32.087"	"30.366"	"28.501"	"27.654"	"26.735"	"26.018"	"21.584"	"16.078"
"1916"	"15.799"	"19.604"	"26.024"	"30.297"	"33.594"	"28.383"	"27.484"	"26.966"	"26.893"	"25.108"	"19.924"	"15.062"
"1917"	"16.016"	"18.957"	"23.744"	"28.423"	"28.914"	"28.98"	"27.317"	"26.764"	"26.573"	"24.78"	"19.118"	"15.818"
"1918"	"15.404"	"19.037"	"25.127"	"28.54"	"30.92"	"27.683"	"28.881"	"26.266"	"26.865"	"24.405"	"19.689"	"15.85"
"1919"	"18.263"	"18.338"	"25.317"	"28.832"	"31.159"	"29.3"	"27.109"	"26.955"	"26.606"	"24.312"	"20.084"	"15.89"
"1920"	"16.546"	"19.048"	"24.454"	"29.626"	"30.797"	"31.709"	"27.294"	"26.887"	"26.693"	"25.099"	"20.236"	"15.986"
"1921"	"17.183"	"18.627"	"26.063"	"30.696"	"33.985"	"30.459"	"27.913"	"26.426"	"26.595"	"23.72"	"18.607"	"16.907"
"1922"	"16.484"	"19.487"	"25.425"	"30.08"	"32.913"	"28.193"	"26.786"	"26.167"	"25.973"	"23.161"	"19.206"	"15.658"
"1923"	"16.374"	"18.727"	"24.005"	"30.157"	"32.454"	"32.067"	"27.306"	"26.493"	"26.984"	"23.972"	"19.481"	"17.006"
"1924"	"16.655"	"19.417"	"26.324"	"30.729"	"32.111"	"32.51"	"27.088"	"26.974"	"26.314"	"24.792"	"19.613"	"16.085"
"1925"	"15.228"	"17.937"	"24.259"	"29.047"	"30.947"	"29.661"	"26.554"	"27.165"	"26.872"	"24.308"	"19.814"	"15.875"
"1926"	"16.424"	"19.836"	"23.905"	"27.607"	"30.797"	"33.191"	"27.801"	"26.963"	"26.475"	"24.182"	"18.457"	"16.418"
"1927"	"16.578"	"19.149"	"22.94"	"29.693"	"30.748"	"31.32"	"27.633"	"26.785"	"27.313"	"24.97"	"20.074"	"17.136"
"1928"	"16.942"	"19.448"	"25.774"	"29.032"	"31.731"	"28.999"	"27.004"	"27.354"	"27.412"	"25.419"	"20.134"	"16.807"
"1929"	"16.538"	"18.128"	"25.066"	"29.678"	"32.865"	"31.349"	"26.991"	"26.355"	"27.201"	"23.83"	"19.445"	"15.7"
"1930"	"15.716"	"18.459"	"25.125"	"29.12"	"31.189"	"30.82"	"26.974"	"26.753"	"27.013"	"25.21"	"19.544"	"15.696"
"1931"	"17.834"	"18.86"	"23.847"	"30.651"	"31.871"	"31.933"	"27.256"	"27.184"	"27.054"	"24.928"	"19.644"	"16.621"
"1932"	"17.554"	"18.398"	"25.276"	"29.418"	"31.894"	"31.556"	"27.482"	"26.984"	"27.085"	"25.213"	"19.866"	"16.518"
"1933"	"15.316"	"19.485"	"25.024"	"27.565"	"30.847"	"29.293"	"27.125"	"26.394"	"26.872"	"24.58"	"19.404"	"16.187"
"1934"	"15.836"	"18.596"	"24.514"	"29.781"	"32.135"	"30.086"	"27.403"	"26.874"	"26.993"	"24.001"	"19.322"	"16.765"
"1935"	"15.666"	"19.4"	"25.156"	"28.084"	"32.888"	"31.668"	"27.762"	"26.364"	"26.634"	"24.382"	"19.744"	"16.707"
"1936"	"15.8"	"18.859"	"25.487"	"29.482"	"30.979"	"28.544"	"26.956"	"26.995"	"26.455"	"23.86"	"20.277"	"16.957"
"1937"	"14.809"	"19.294"	"23.617"	"28.46"	"30.655"	"30.317"	"27.632"	"26.744"	"26.814"	"24.061"	"19.743"	"15.348"
"1938"	"17.697"	"17.872"	"26.555"	"30.77"	"30.34"	"28.69"	"27.324"	"26.665"	"27.293"	"25.158"	"19.403"	"15.748"
"1939"	"17.354"	"20.137"	"23.928"	"29.853"	"32.442"	"30.431"	"27.054"	"26.296"	"26.585"	"24.87"	"19.524"	"16.518"
"1940"	"15.856"	"19.159"	"23.335"	"29.026"	"31.733"	"31.181"	"27.043"	"26.874"	"26.935"	"25.191"	"21.566"	"17.156"
"1941"	"17.076"	"19.452"	"26.424"	"31.068"	"31.908"	"29.66"	"27.532"	"27.144"	"27.073"	"24.23"	"19.774"	"17.438"
"1942"	"16.647"	"19.218"	"25.19"	"29.35"	"33.185"	"32.001"	"27.157"	"26.314"	"26.076"	"24.459"	"21.011"	"16.6"
"1943"	"18.152"	"17.889"	"24.947"	"27.862"	"32.313"	"30.078"	"27.124"	"26.276"	"27.016"	"25.55"	"20.393"	"17.458"
"1944"	"16.947"	"19.327"	"23.967"	"27.313"	"33.457"	"31.152"	"26.955"	"26.644"	"27.234"	"24.265"	"20.265"	"18.237"
"1945"	"16.057"	"18.211"	"25.39"	"27.953"	"31.416"	"31.064"	"27.654"	"27.762"	"27.075"	"23.882"	"19.587"	"15.42"
"1946"	"16.755"	"20.819"	"24.87"	"27.267"	"30.842"	"29.608"	"26.795"	"26.804"	"26.693"	"24.612"	"20.717"	"17.917"
"1947"	"16.782"	"19.308"	"25.438"	"30.794"	"32.215"	"31.418"	"27.433"	"27.014"	"26.925"	"24.523"	"20.494"	"17.268"
"1948"	"18.134"	"19.739"	"23.976"	"30.325"	"31.842"	"31.01"	"26.725"	"26.423"	"26.595"	"24.659"	"20.844"	"15.647"
"1949"	"17.085"	"18.928"	"24.899"	"28.326"	"29.772"	"30.93"	"27.324"	"27.004"	"26.662"	"25.291"	"18.686"	"15.719"
"1950"	"17.246"	"19"	"23.927"	"29.204"	"32.043"	"29.402"	"27.112"	"26.415"	"26.584"	"24.191"	"19.083"	"16.549"
"1951"	"15.966"	"19.306"	"24.824"	"28.961"	"32.192"	"31.095"	"27.392"	"27.664"	"27.366"	"26.25"	"20.632"	"17.17"
"1952"	"17.785"	"21.315"	"25.255"	"28.107"	"31.921"	"30.631"	"27.483"	"26.703"	"26.605"	"24.888"	"20.096"	"17.13"
"1953"	"16.614"	"20.778"	"27.613"	"30.221"	"32.676"	"30.556"	"26.844"	"26.696"	"26.424"	"24.693"	"19.606"	"18.009"
"1954"	"15.696"	"21.188"	"24.737"	"31.401"	"32.664"	"29.506"	"27.304"	"26.903"	"26.531"	"23.313"	"18.246"	"16.58"
"1955"	"16.978"	"19.468"	"26.633"	"29.003"	"32.813"	"31.105"	"26.865"	"26.762"	"26.924"	"24.951"	"20.153"	"16.765"
"1956"	"17.287"	"19.008"	"26.023"	"30.67"	"32.302"	"27.71"	"26.831"	"26.417"	"25.978"	"24.162"	"19.256"	"17.766"
"1957"	"17.685"	"18.578"	"24.026"	"29.851"	"33.958"	"31.62"	"27.046"	"27.125"	"26.747"	"25.22"	"20.206"	"17.799"
"1958"	"18.446"	"20.028"	"26.272"	"31.227"	"33.858"	"33.278"	"28.213"	"26.887"	"26.717"	"25.812"	"20.883"	"18.137"
"1959"	"17.586"	"19.11"	"25.145"	"30.238"	"32.805"	"30.68"	"27.464"	"26.895"	"26.456"	"25.22"	"19.834"	"16.578"
"1960"	"16.774"	"20.978"	"24.136"	"30.322"	"32.056"	"31.109"	"26.923"	"26.913"	"26.716"	"24.92"	"19.206"	"17.168"
"1961"	"17.494"	"17.876"	"25.795"	"30.271"	"32.802"	"29.305"	"26.924"	"27.076"	"26.603"	"24.309"	"19.004"	"14.098"
"1962"	"15.035"	"19.294"	"24.077"	"29.527"	"31.478"	"30.44"	"28.193"	"26.845"	"26.576"	"23.674"	"20.035"	"17.19"
"1963"	"15.389"	"20.737"	"24.696"	"29.089"	"30.344"	"29.734"	"27.307"	"27.165"	"26.804"	"25.159"	"21.349"	"17.915"
"1964"	"16.762"	"19.294"	"26.007"	"30.158"	"30.624"	"30.703"	"25.951"	"26.887"	"26.696"	"24.942"	"19.966"	"17.336"
"1965"	"17.578"	"19.758"	"23.625"	"28.265"	"31.6"	"32.091"	"27.609"	"26.994"	"26.616"	"25.05"	"21.083"	"16.259"
"1966"	"16.694"	"21.205"	"25.396"	"31.095"	"33.144"	"31.351"	"28.441"	"27.167"	"27.285"	"25.11"	"22.152"	"16.788"
"1967"	"17.555"	"21.138"	"23.865"	"27.987"	"31.817"	"31.97"	"28.012"	"26.586"	"26.615"	"24.334"	"19.886"	"18.419"
"1968"	"16.756"	"18.933"	"24.82"	"29.291"	"32.497"	"28.938"	"27.005"	"26.667"	"27.595"	"24.2"	"19.892"	"18.352"
"1969"	"16.498"	"20.779"	"26.608"	"30.329"	"30.594"	"30.752"	"27.511"	"26.394"	"26.206"	"24.952"	"21.347"	"17.216"
"1970"	"17.626"	"19.362"	"24.638"	"30.559"	"32.206"	"29.005"	"27.098"	"26.888"	"26.227"	"24.445"	"19.304"	"15.698"
"1971"	"16.257"	"18.587"	"23.626"	"26.636"	"28.632"	"27.752"	"25.835"	"25.476"	"26.194"	"24.481"	"19.259"	"16.277"
"1972"	"16.031"	"17.052"	"24.607"	"29.179"	"32.574"	"31.617"	"27.681"	"27.123"	"25.256"	"23.884"	"19.676"	"16.508"
"1973"	"16.467"	"19.986"	"23.308"	"29.768"	"31"	"28.899"	"27.306"	"27.094"	"26.273"	"24.689"	"20.013"	"16.696"
"1974"	"15.27"	"18.63"	"24.725"	"29.688"	"30.972"	"30.918"	"27.083"	"26.987"	"26.754"	"25.528"	"19.723"	"14.858"
"1975"	"15.896"	"19.38"	"24.537"	"29.656"	"31.876"	"30.089"	"26.267"	"26.753"	"26.203"	"25.501"	"20.234"	"16.165"
"1976"	"16.695"	"20.237"	"25.283"	"28.939"	"30.485"	"30.689"	"27.593"	"26.846"	"26.285"	"25.284"	"22.077"	"17.246"
"1977"	"16.487"	"19.398"	"26.437"	"29.156"	"28.371"	"29.332"	"26.945"	"27.357"	"27.054"	"24.584"	"21.713"	"15.156"
"1978"	"15.606"	"19.057"	"23.119"	"28.275"	"31.593"	"29.166"	"27.005"	"27.165"	"26.483"	"24.443"	"21.265"	"16.925"
"1979"	"17.509"	"17.518"	"24.209"	"29.327"	"32.231"	"31.211"	"28.116"	"28.051"	"26.044"	"25.46"	"22.925"	"17.521"
"1980"	"17.129"	"19.725"	"24.124"	"30.848"	"31.412"	"28.916"	"26.821"	"26.393"	"26.813"	"24.8"	"20.851"	"17.455"
"1981"	"16.206"	"19.44"	"24.087"	"27.587"	"29.481"	"30.461"	"27.104"	"27.442"	"27.112"	"24.772"	"20.175"	"16.659"
"1982"	"18.426"	"19.25"	"23.126"	"28.958"	"31.911"	"29.893"	"29.66"	"27.114"	"27.586"	"25.172"	"20.787"	"17.237"
"1983"	"16.16"	"19.21"	"25.117"	"28.281"	"30.454"	"31.833"	"28.104"	"27.682"	"27.531"	"24.523"	"20.065"	"17.015"
"1984"	"17.003"	"18.259"	"25.057"	"30.428"	"32.625"	"28.224"	"27.068"	"26.735"	"26.507"	"25.281"	"19.296"	"17.266"
"1985"	"17.707"	"18.978"	"26.01"	"30.216"	"31.058"	"31.026"	"26.513"	"27.04"	"26.777"	"24.456"	"20.582"	"18.402"
"1986"	"16.779"	"19.406"	"24.146"	"29.274"	"29.711"	"30.559"	"26.795"	"26.284"	"26.362"	"23.889"	"21.028"	"17.315"
"1987"	"16.613"	"20.255"	"24.522"	"28.985"	"30.754"	"31.835"	"27.233"	"26.381"	"26.681"	"25.098"	"20.962"	"17.956"
"1988"	"17.654"	"20.13"	"24.462"	"29.734"	"31.867"	"28.776"	"27.402"	"27.636"	"28.272"	"25.891"	"20.965"	"18.878"
"1989"	"16.518"	"20.613"	"25.316"	"30.661"	"31.78"	"28.833"	"27.365"	"27.116"	"27.216"	"25.573"	"20.984"	"17.099"
"1990"	"17.853"	"20.116"	"23.375"	"29.096"	"29.824"	"29.931"	"26.679"	"27.506"	"27.395"	"23.92"	"21.405"	"17.725"
"1991"	"16.144"	"21.22"	"24.819"	"28.906"	"32.438"	"28.864"	"28.083"	"26.596"	"26.697"	"24.906"	"20.428"	"16.526"
"1992"	"15.809"	"17.922"	"25.557"	"29.909"	"30.357"	"30.321"	"28.321"	"27.255"	"27.105"	"25.281"	"21.501"	"17.165"
"1993"	"17.546"	"21.184"	"24.286"	"28.69"	"31.63"	"31.438"	"28.29"	"26.976"	"26.693"	"25.499"	"20.054"	"17.186"
"1994"	"18.073"	"19.277"	"25.487"	"28.491"	"31.944"	"30.11"	"27.145"	"26.746"	"26.695"	"25.388"	"21.2"	"17.375"
"1995"	"15.567"	"19.526"	"24.228"	"29.56"	"31.313"	"31.824"	"27.324"	"26.678"	"26.614"	"25.099"	"21.193"	"17.747"
"1996"	"17.406"	"18.738"	"25.877"	"28.151"	"32.297"	"28.991"	"27.365"	"26.264"	"27.394"	"24.84"	"20.832"	"16.59"
"1997"	"16.296"	"18.5"	"25.016"	"27.687"	"31.084"	"31.56"	"27.064"	"26.904"	"26.305"	"25.062"	"21.605"	"17.648"
"1998"	"16.304"	"19.868"	"22.575"	"28.459"	"31.045"	"32.588"	"27.146"	"27.367"	"27.252"	"26.987"	"21.594"	"18.265"
"1999"	"16.614"	"20.599"	"25.618"	"31.295"	"31.43"	"30.08"	"27.173"	"26.965"	"26.573"	"25.818"	"21.642"	"18.456"
"2000"	"17.327"	"19.015"	"24.486"	"30.348"	"31.35"	"29.451"	"27.864"	"27.355"	"26.344"	"26.135"	"22.451"	"17.306"
"2001"	"16.682"	"19.433"	"24.935"	"29.909"	"31.97"	"28.609"	"26.665"	"27.542"	"27.495"	"26.47"	"22.763"	"18.733"
"2002"	"16.898"	"20.56"	"25.667"	"29.588"	"32.371"	"30.849"	"28.551"	"26.934"	"26.736"	"25.022"	"21.012"	"18.305"
