
"Year"	"Jan"	"Feb"	"Mar"	"Apr"	"May"	"Jun"	"Jul"	"Aug"	"Sep"	"Oct"	"Nov"	"Dec"
"1901"	"23.56"	"24.679"	"26.802"	"29.559"	"28.083"	"26.304"	"25.034"	"24.823"	"25.98"	"25.072"	"23.22"	"21.344"
"1902"	"22.33"	"23.959"	"27.815"	"29.301"	"29.593"	"27.234"	"25.955"	"26.013"	"24.869"	"24.791"	"22.548"	"22.246"
"1903"	"22.719"	"24.589"	"27.829"	"29.661"	"28.557"	"27.242"	"25.015"	"24.657"	"24.821"	"24.164"	"21.865"	"20.815"
"1904"	"21.669"	"23.465"	"26.955"	"29.549"	"28.171"	"25.499"	"24.82"	"25.21"	"25.175"	"24.829"	"22.151"	"21.08"
"1905"	"22.13"	"24.462"	"27.277"	"28.577"	"29.03"	"27.226"	"25.86"	"25.208"	"25.218"	"24.894"	"23.351"	"21.328"
"1906"	"23.297"	"25.194"	"26.869"	"30.646"	"30.334"	"26.436"	"25.33"	"24.945"	"24.366"	"24.605"	"23.216"	"21.906"
"1907"	"22.063"	"24.692"	"27.086"	"28.442"	"28.489"	"26.185"	"25.316"	"24.047"	"25.329"	"25.275"	"23.541"	"21.658"
"1908"	"22.229"	"24.201"	"26.712"	"30.249"	"29.014"	"27.211"	"24.638"	"24.583"	"25.006"	"24.882"	"22.378"	"20.857"
"1909"	"22.801"	"24.739"	"27.839"	"28.547"	"28.573"	"26.118"	"24.595"	"25.168"	"24.601"	"24.917"	"23.606"	"22.835"
"1910"	"22.578"	"24.322"	"27.69"	"30.071"	"29.526"	"26.558"	"25.694"	"24.738"	"24.139"	"24.364"	"21.767"	"20.56"
"1911"	"22.52"	"23.099"	"27.197"	"29.651"	"29.242"	"26.409"	"25.262"	"24.583"	"25.898"	"25.147"	"23.68"	"22.135"
"1912"	"22.215"	"25.48"	"28.007"	"29.797"	"30.006"	"27.502"	"25.174"	"24.864"	"25.382"	"24.72"	"22.54"	"20.942"
"1913"	"21.297"	"24.952"	"27.62"	"30.169"	"29.181"	"26.328"	"24.831"	"25.192"	"25.939"	"24.623"	"22.95"	"22.689"
"1914"	"21.706"	"25.152"	"27.715"	"29.144"	"29.333"	"27.064"	"25.013"	"24.653"	"25.157"	"24.654"	"23.226"	"22.571"
"1915"	"22.649"	"24.899"	"26.903"	"29.475"	"29.201"	"27.391"	"25.768"	"25.53"	"25.272"	"25.126"	"23.658"	"20.911"
"1916"	"21.959"	"24.795"	"27.72"	"29.845"	"28.923"	"25.387"	"25.497"	"24.808"	"24.937"	"24.582"	"22.742"	"20.658"
"1917"	"21.323"	"23.359"	"26.142"	"28.62"	"28.2"	"25.232"	"25.534"	"25.061"	"24.677"	"23.965"	"22.76"	"21.271"
"1918"	"21.381"	"23.274"	"26.236"	"28.993"	"27.24"	"26.154"	"26.407"	"25.253"	"25.497"	"25.646"	"24.162"	"22.225"
"1919"	"23.577"	"25.558"	"27.634"	"30.054"	"28.773"	"25.864"	"25.501"	"25.176"	"25.456"	"24.777"	"23.213"	"21.702"
"1920"	"22.025"	"24.61"	"27.867"	"29.125"	"29.12"	"26.909"	"25.498"	"25.568"	"25.55"	"25.357"	"23.357"	"21.528"
"1921"	"23.095"	"24.278"	"28.163"	"29.227"	"30.248"	"26.56"	"25.336"	"25.086"	"24.695"	"24.341"	"21.773"	"21.148"
"1922"	"22.45"	"24.012"	"27.847"	"29.859"	"28.824"	"26.472"	"25.087"	"25.262"	"25.003"	"24.361"	"22.842"	"20.627"
"1923"	"21.335"	"23.717"	"26.287"	"29.146"	"28.895"	"27.864"	"24.679"	"25.103"	"24.679"	"24.394"	"23.124"	"22.021"
"1924"	"22.533"	"25.174"	"27.432"	"30.441"	"29.797"	"26.898"	"25.454"	"25.432"	"24.893"	"24.337"	"22.136"	"20.953"
"1925"	"22.129"	"23.954"	"27.04"	"29.995"	"28.061"	"26.529"	"25.384"	"24.925"	"25.527"	"24.247"	"22.681"	"21.034"
"1926"	"22.745"	"24.632"	"27.783"	"28.719"	"29.234"	"28.196"	"26.327"	"25.397"	"25.269"	"24.878"	"22.818"	"21.887"
"1927"	"23.493"	"25.296"	"28.505"	"30.386"	"29.413"	"26.595"	"24.82"	"25.279"	"25.514"	"24.603"	"22.039"	"21.979"
"1928"	"22.93"	"24.68"	"27.21"	"29.649"	"30.039"	"26.934"	"25.453"	"25.114"	"25.496"	"24.645"	"23.045"	"21.618"
"1929"	"23.186"	"24.458"	"27.218"	"28.603"	"29.338"	"26.509"	"25.668"	"25.78"	"25.669"	"24.725"	"23.076"	"22.663"
"1930"	"23.035"	"23.955"	"27.43"	"29.274"	"28.709"	"27.116"	"25.439"	"25.28"	"25.412"	"24.653"	"22.557"	"22.372"
"1931"	"22.279"	"24.972"	"27.766"	"30.256"	"29.937"	"27.049"	"25.337"	"25.342"	"24.984"	"24.821"	"22.731"	"21.478"
"1932"	"21.269"	"23.892"	"26.255"	"29.446"	"28.384"	"26.494"	"24.854"	"25.514"	"24.91"	"25.094"	"23.339"	"21.51"
"1933"	"22.19"	"24.96"	"26.793"	"29.071"	"27.371"	"25.461"	"24.529"	"24.517"	"24.755"	"23.907"	"23.146"	"21.263"
"1934"	"21.957"	"23.838"	"26.769"	"29.463"	"29.554"	"26.808"	"25.183"	"24.699"	"25.548"	"25.07"	"21.875"	"20.81"
"1935"	"22.585"	"24.774"	"27.293"	"28.79"	"30.012"	"26.998"	"24.845"	"24.878"	"24.536"	"24.831"	"22.06"	"22.062"
"1936"	"23.473"	"24.765"	"26.739"	"29.484"	"29.096"	"25.285"	"25.134"	"24.682"	"25.533"	"24.831"	"23.04"	"22.154"
"1937"	"22.032"	"25.249"	"27.466"	"28.934"	"29.24"	"26.859"	"24.811"	"25.472"	"25.533"	"24.422"	"22.704"	"21.66"
"1938"	"23.12"	"25.171"	"28.07"	"29.727"	"29.206"	"25.108"	"24.643"	"24.55"	"24.553"	"23.745"	"22.202"	"21.463"
"1939"	"21.88"	"23.973"	"26.679"	"29.025"	"29.45"	"26.747"	"24.619"	"24.88"	"24.9"	"24.871"	"22.027"	"20.905"
"1940"	"20.934"	"24.134"	"27.215"	"28.824"	"28.628"	"26.435"	"24.547"	"24.546"	"25.278"	"24.733"	"23.016"	"21.898"
"1941"	"22.9"	"24.759"	"28.452"	"30.345"	"29.702"	"26.658"	"26.1"	"25.477"	"25.232"	"25.172"	"23.496"	"22.586"
"1942"	"22.688"	"24.854"	"27.825"	"29.691"	"29.771"	"26.766"	"25.025"	"24.654"	"24.843"	"24.628"	"22.68"	"22.438"
"1943"	"23.12"	"23.54"	"27.492"	"28.878"	"27.782"	"25.434"	"24.551"	"25.023"	"24.068"	"23.794"	"23.006"	"20.838"
"1944"	"22.795"	"24.292"	"26.038"	"28.599"	"29.564"	"26.718"	"24.759"	"25.426"	"25.163"	"24.719"	"23.005"	"21.642"
"1945"	"22.498"	"24.892"	"27.507"	"28.837"	"29.536"	"26.591"	"25.128"	"24.626"	"24.725"	"24.63"	"22.147"	"21.29"
"1946"	"21.236"	"23.895"	"27.713"	"29.138"	"28.908"	"26.068"	"25.036"	"24.734"	"25.073"	"25.248"	"23.263"	"22.124"
"1947"	"23.107"	"24.183"	"27.646"	"28.901"	"29.84"	"26.962"	"24.835"	"25.078"	"24.526"	"23.883"	"22.432"	"21.728"
"1948"	"22.91"	"25.067"	"27.067"	"29.331"	"29.169"	"26.796"	"25.278"	"24.777"	"24.721"	"24.934"	"24.01"	"20.755"
"1949"	"21.849"	"23.9"	"27.561"	"29.326"	"28.511"	"26.066"	"24.933"	"24.997"	"24.402"	"24.948"	"22.037"	"21.159"
"1950"	"22.048"	"24.37"	"26.924"	"29.567"	"29.36"	"26.218"	"24.755"	"25.281"	"24.372"	"23.989"	"22.26"	"21.222"
"1951"	"22.413"	"24.247"	"27.594"	"29.284"	"28.932"	"25.963"	"25.024"	"25.322"	"25.81"	"25.309"	"23.896"	"21.305"
"1952"	"22.669"	"25.081"	"27.498"	"30.161"	"29.437"	"26.908"	"25.771"	"25.034"	"25.216"	"24.434"	"22.167"	"22.171"
"1953"	"22.624"	"24.641"	"28.771"	"29.209"	"30.718"	"27.721"	"25.203"	"24.891"	"24.848"	"24.867"	"22.431"	"21.196"
"1954"	"22.587"	"25.291"	"27.301"	"30.175"	"29.717"	"26.711"	"24.603"	"24.743"	"24.388"	"23.901"	"21.812"	"22.033"
"1955"	"22.415"	"25.178"	"27.57"	"29.293"	"28.127"	"26.18"	"25.016"	"23.97"	"25.252"	"24.73"	"21.913"	"20.799"
"1956"	"22.166"	"23.98"	"28.107"	"30.174"	"28.485"	"25.831"	"23.88"	"24.51"	"24.548"	"23.907"	"22.951"	"21.356"
"1957"	"22.404"	"24.681"	"26.528"	"29.125"	"29.316"	"26.676"	"25.03"	"24.524"	"25.183"	"25.375"	"23.437"	"22.533"
"1958"	"22.815"	"25.435"	"27.967"	"29.689"	"29.084"	"28.021"	"24.869"	"25.108"	"24.807"	"24.736"	"23.755"	"21.927"
"1959"	"23.175"	"25.675"	"27.854"	"29.877"	"29.91"	"26.323"	"24.551"	"24.87"	"25.224"	"25.111"	"23.432"	"22.258"
"1960"	"23.33"	"24.68"	"27.818"	"29.699"	"29.094"	"26.738"	"25.751"	"25.852"	"25.057"	"24.82"	"22.804"	"22.158"
"1961"	"22.848"	"25.213"	"28.941"	"30.316"	"28.567"	"26.165"	"24.581"	"25.031"	"24.921"	"24.516"	"22.661"	"21.902"
"1962"	"21.967"	"24.605"	"27.434"	"28.797"	"28.519"	"27.171"	"25.466"	"24.881"	"24.887"	"24.658"	"22.709"	"21.654"
"1963"	"21.682"	"23.686"	"27.422"	"28.572"	"29.238"	"26.203"	"25.734"	"24.741"	"25.43"	"24.713"	"23.401"	"22.168"
"1964"	"22.72"	"25.329"	"28.387"	"30.48"	"30.142"	"26.956"	"25.643"	"24.552"	"24.308"	"24.978"	"22.213"	"21.186"
"1965"	"22.063"	"24.428"	"27.521"	"28.905"	"29.428"	"26.9"	"25.054"	"25.21"	"25.447"	"26.004"	"24.136"	"22.874"
"1966"	"23.566"	"25.793"	"28.699"	"30.194"	"29.316"	"27.323"	"25.874"	"25.958"	"25.108"	"24.685"	"23.613"	"21.987"
"1967"	"22.53"	"24.359"	"27.086"	"29.998"	"29.815"	"27.136"	"24.623"	"24.612"	"24.728"	"24.067"	"22.881"	"22.839"
"1968"	"22.259"	"25.31"	"27.263"	"29.125"	"29.688"	"26.965"	"25.203"	"25.393"	"25.149"	"24.368"	"23.301"	"22.635"
"1969"	"22.575"	"25.766"	"29.085"	"30.653"	"29.391"	"27.443"	"25.405"	"25.6"	"24.66"	"24.714"	"23.706"	"21.76"
"1970"	"23.046"	"25.336"	"28.486"	"30.238"	"29.158"	"26.061"	"25.523"	"24.576"	"25.01"	"24.67"	"22.62"	"20.767"
"1971"	"22.242"	"25.247"	"27.051"	"29.409"	"28.113"	"25.481"	"25.494"	"25.11"	"25.262"	"23.887"	"22.734"	"21.069"
"1972"	"21.641"	"24.809"	"27.314"	"29.411"	"28.516"	"27.729"	"25.827"	"26.204"	"25.757"	"25.138"	"23.83"	"22.879"
"1973"	"23.523"	"25.597"	"28.283"	"30.857"	"30.311"	"26.396"	"26.041"	"24.61"	"25.472"	"24.795"	"22.498"	"21.362"
"1974"	"22.39"	"24.582"	"27.957"	"30.111"	"28.911"	"26.107"	"25.336"	"25.158"	"24.916"	"24.314"	"23.344"	"21.082"
"1975"	"21.945"	"25.443"	"28.017"	"30.616"	"29.373"	"26.503"	"24.7"	"25.245"	"24.619"	"24.428"	"22.385"	"20.851"
"1976"	"21.526"	"23.947"	"27.856"	"29.002"	"28.386"	"27.122"	"25.316"	"24.986"	"25.708"	"25.868"	"24.111"	"23.146"
"1977"	"22.479"	"25.5"	"28.013"	"29.581"	"27.503"	"25.712"	"25.103"	"24.506"	"25.911"	"24.662"	"24.031"	"21.861"
"1978"	"23.105"	"25.165"	"27.694"	"29.549"	"28.754"	"25.676"	"24.786"	"24.375"	"24.936"	"25.171"	"24.138"	"22.397"
"1979"	"23.253"	"25.626"	"28.118"	"30.347"	"28.826"	"27.153"	"25.257"	"25.155"	"24.741"	"25.163"	"23.377"	"22.756"
"1980"	"22.963"	"25.895"	"28.107"	"29.664"	"30.207"	"26.136"	"25.287"	"24.372"	"26.026"	"26.153"	"23.998"	"23.003"
"1981"	"23.221"	"25.635"	"27.838"	"30.095"	"29.093"	"26.393"	"25.924"	"24.302"	"24.513"	"24.814"	"23.462"	"21.649"
"1982"	"22.97"	"26.206"	"28.664"	"29.961"	"29.288"	"26.936"	"25.707"	"25.742"	"25.82"	"26.116"	"23.799"	"22.2"
"1983"	"22.582"	"26.179"	"29.024"	"30.733"	"30.109"	"27.367"	"26.379"	"25.248"	"24.961"	"24.987"	"23.143"	"21.992"
"1984"	"23.748"	"24.585"	"27.425"	"29.413"	"30.814"	"26.819"	"24.96"	"25.489"	"25.732"	"25.045"	"23.572"	"23.235"
"1985"	"23.703"	"26.069"	"28.599"	"30.565"	"30.186"	"26.273"	"25.527"	"25.363"	"26.453"	"24.748"	"23.349"	"23.257"
"1986"	"22.157"	"25.159"	"28.77"	"31.106"	"30.306"	"26.92"	"26.118"	"25.463"	"26.141"	"25.713"	"24.234"	"23.391"
"1987"	"23.527"	"24.642"	"27.786"	"30.545"	"29.877"	"27.421"	"26.748"	"25.68"	"26.879"	"25.233"	"24.035"	"22.573"
"1988"	"22.99"	"26.547"	"29.27"	"29.435"	"30.178"	"27.784"	"25.085"	"24.838"	"24.9"	"25.684"	"23.633"	"22.275"
"1989"	"22.742"	"24.818"	"27.086"	"29.927"	"30.215"	"26.791"	"24.98"	"25.264"	"25.284"	"25.985"	"23.969"	"22.637"
"1990"	"23.234"	"25.497"	"28.417"	"30.719"	"27.533"	"25.942"	"25.284"	"24.966"	"26.293"	"24.805"	"23.766"	"22.387"
"1991"	"23.74"	"25.637"	"29.261"	"30.011"	"30.368"	"26.528"	"25.038"	"25.224"	"26.272"	"25.594"	"22.993"	"22.09"
"1992"	"21.933"	"25.592"	"28.462"	"30.502"	"29.601"	"27.294"	"26.126"	"25.023"	"26.135"	"25.563"	"24.071"	"21.549"
"1993"	"22.961"	"24.413"	"28.302"	"30.661"	"30.257"	"27.636"	"26.17"	"25.431"	"25.351"	"24.894"	"23.593"	"21.337"
"1994"	"23.007"	"25.564"	"28.772"	"29.615"	"30.432"	"27.195"	"25.128"	"25.493"	"26.684"	"24.714"	"22.648"	"21.311"
"1995"	"22.599"	"25.891"	"28.502"	"30.88"	"28.862"	"28.576"	"25.817"	"25.563"	"25.683"	"25.209"	"24.803"	"22.712"
"1996"	"23.936"	"25.419"	"28.904"	"29.58"	"30.634"	"27.044"	"25.944"	"24.971"	"25.161"	"24.472"	"24.338"	"21.827"
"1997"	"22.779"	"25.215"	"28.089"	"28.606"	"29.764"	"28.177"	"26.167"	"25.551"	"26.056"	"25.695"	"24.989"	"23.334"
"1998"	"24.275"	"26.483"	"29.312"	"31.066"	"30.525"	"28.377"	"26.215"	"25.738"	"25.62"	"25.308"	"24.207"	"22.208"
"1999"	"22.84"	"25.7"	"28.984"	"30.313"	"28.257"	"26.327"	"25.575"	"25.391"	"25.776"	"25.386"	"23.905"	"22.283"
"2000"	"23.756"	"25.812"	"27.966"	"30.417"	"28.867"	"25.853"	"25.239"	"25.096"	"25.758"	"25.471"	"24.206"	"22.107"
"2001"	"23.682"	"26.829"	"28.694"	"30.124"	"30.006"	"26.693"	"26.026"	"25.099"	"26.305"	"25.024"	"24.458"	"22.5"
"2002"	"23.563"	"25.433"	"28.968"	"30.791"	"29.894"	"26.906"	"26.349"	"25.342"	"26.434"	"25.778"	"23.831"	"22.929"
