
"Year"	"Jan"	"Feb"	"Mar"	"Apr"	"May"	"Jun"	"Jul"	"Aug"	"Sep"	"Oct"	"Nov"	"Dec"
"1901"	"13.962"	"17.498"	"23.542"	"29.761"	"32.433"	"34.481"	"30.889"	"29.38"	"28.721"	"27.612"	"21.921"	"16.941"
"1902"	"17.228"	"19.224"	"25.369"	"29.187"	"32.815"	"33.231"	"29.928"	"29.551"	"28.851"	"25.699"	"21.098"	"16.35"
"1903"	"15.855"	"17.371"	"22.691"	"29.64"	"33.312"	"33.343"	"31.49"	"29.329"	"29.393"	"26.435"	"21.23"	"16.712"
"1904"	"16.127"	"18.983"	"23.871"	"30.996"	"31.612"	"32.132"	"29.586"	"28.888"	"28.651"	"26.472"	"20.357"	"16.655"
"1905"	"13.88"	"14.102"	"20.612"	"26.652"	"32.044"	"34.189"	"30.099"	"28.865"	"28.741"	"26.665"	"21.498"	"16.333"
"1906"	"15.057"	"16.574"	"22.031"	"30.214"	"33.931"	"32.713"	"30.354"	"28.879"	"29.151"	"26.486"	"22.387"	"17.519"
"1907"	"17.7"	"16.603"	"20.376"	"27.227"	"31.343"	"32.961"	"30.956"	"29.605"	"29.579"	"27.499"	"21.362"	"16.536"
"1908"	"15.186"	"18.392"	"24.09"	"32.108"	"33.152"	"33.919"	"30.026"	"29.426"	"29.198"	"26.86"	"20.793"	"16.118"
"1909"	"16.425"	"17.471"	"25.303"	"27.939"	"33.03"	"31.262"	"30.08"	"29.315"	"29.588"	"27.341"	"21.519"	"17.254"
"1910"	"15.936"	"18.075"	"24.44"	"30.114"	"32.648"	"31.846"	"29.612"	"29.396"	"29.099"	"26.108"	"20.624"	"16.176"
"1911"	"16.696"	"18.124"	"21.883"	"29.626"	"34.065"	"31.827"	"31.506"	"29.479"	"28.6"	"26.322"	"19.826"	"15.854"
"1912"	"15.851"	"19.151"	"23.711"	"28.688"	"32.166"	"33.221"	"30.137"	"29.092"	"28.552"	"26.596"	"19.851"	"16.04"
"1913"	"15.776"	"17.344"	"21.62"	"30.457"	"31.195"	"30.575"	"30.143"	"29.624"	"29.539"	"26.229"	"19.911"	"15.573"
"1914"	"17.018"	"17.907"	"22.575"	"28.282"	"31.682"	"32.162"	"30.027"	"29.172"	"28.751"	"25.045"	"21.337"	"16.801"
"1915"	"16.565"	"17.426"	"23.077"	"29.634"	"33.408"	"32.67"	"31.004"	"29.439"	"29.179"	"28.218"	"22.661"	"16.814"
"1916"	"15.859"	"17.864"	"26.765"	"30.774"	"34.247"	"31.292"	"29.846"	"29.224"	"28.855"	"26.734"	"21.724"	"15.678"
"1917"	"15.564"	"17.753"	"22.624"	"27.109"	"29.17"	"31.496"	"30.04"	"29.388"	"28.219"	"26.104"	"21.389"	"16.291"
"1918"	"14.763"	"18.565"	"24.294"	"28.344"	"32.943"	"30.902"	"31.278"	"29.105"	"29.298"	"26.597"	"20.704"	"15.246"
"1919"	"15.284"	"16.852"	"23.971"	"27.996"	"31.589"	"32.191"	"29.796"	"29.388"	"28.651"	"26.318"	"21.182"	"16.105"
"1920"	"16.645"	"17.298"	"22.558"	"29.71"	"30.609"	"32.788"	"29.96"	"29.388"	"28.956"	"26.785"	"21.707"	"17.613"
"1921"	"16.007"	"18.732"	"26.485"	"31.253"	"35.5"	"32.329"	"30.168"	"28.739"	"28.063"	"25.482"	"20.548"	"16.399"
"1922"	"15.33"	"19.229"	"25.478"	"30.068"	"34.266"	"31.373"	"29.738"	"28.61"	"28.14"	"25.224"	"20.762"	"15.683"
"1923"	"16.11"	"17.203"	"24.138"	"30.962"	"33.233"	"34.555"	"29.85"	"29.453"	"28.751"	"25.623"	"21.065"	"16.647"
"1924"	"15.115"	"18.252"	"25.707"	"30.921"	"31.653"	"34.986"	"29.929"	"28.964"	"28.016"	"26.645"	"20.882"	"16.977"
"1925"	"14.155"	"17.172"	"23.996"	"30.31"	"32.266"	"31.214"	"29.432"	"29.229"	"28.715"	"26.098"	"20.434"	"16.3"
"1926"	"15.45"	"18.9"	"21.952"	"26.691"	"31.231"	"35.123"	"30.443"	"29.229"	"28.787"	"26.114"	"19.313"	"16.649"
"1927"	"14.829"	"17.003"	"22.68"	"29.448"	"31.496"	"33.201"	"30.204"	"28.939"	"29.198"	"26.392"	"20.858"	"17.281"
"1928"	"15.021"	"18.252"	"24.416"	"28.932"	"33.46"	"31.939"	"29.933"	"30.136"	"30.034"	"27.422"	"21.127"	"16.904"
"1929"	"15.551"	"17.397"	"25.049"	"29.793"	"34.016"	"32.841"	"29.85"	"28.747"	"28.918"	"25.695"	"21.252"	"15.965"
"1930"	"14.614"	"17.704"	"24.983"	"29.45"	"32.526"	"32.514"	"29.695"	"29.128"	"29.301"	"26.357"	"20.775"	"16.467"
"1931"	"16.956"	"17.003"	"23.706"	"31.066"	"32.9"	"34.137"	"30.099"	"29.988"	"28.815"	"26.483"	"21.069"	"17.234"
"1932"	"17.329"	"17.163"	"24.518"	"29.54"	"32.611"	"34.077"	"30.463"	"29.196"	"29.151"	"26.781"	"22.098"	"16.39"
"1933"	"14.36"	"18.715"	"24.458"	"27.567"	"30.488"	"31.878"	"29.754"	"29.127"	"28.805"	"26.253"	"21.435"	"17.054"
"1934"	"15.165"	"19.071"	"23.51"	"30.317"	"32.933"	"32.152"	"29.85"	"28.974"	"29.342"	"26.218"	"21.111"	"16.292"
"1935"	"14.186"	"18.408"	"24.119"	"26.935"	"33.791"	"33.736"	"30.159"	"28.593"	"28.702"	"26.128"	"20.93"	"15.87"
"1936"	"14.751"	"17.612"	"24.124"	"28.752"	"32.587"	"30.227"	"29.368"	"28.87"	"28.267"	"25.246"	"21.33"	"16.764"
"1937"	"14.563"	"17.602"	"22.869"	"27.531"	"31.941"	"32.906"	"30.268"	"28.632"	"29.059"	"25.531"	"20.246"	"15.695"
"1938"	"15.239"	"16.304"	"25.319"	"30.598"	"32.444"	"31.01"	"29.655"	"28.964"	"29.21"	"26.681"	"19.885"	"17.013"
"1939"	"16.263"	"17.809"	"21.84"	"29.208"	"33.944"	"31.81"	"29.872"	"29.123"	"28.796"	"26.245"	"21.358"	"17.113"
"1940"	"15.699"	"17.588"	"21.447"	"28.599"	"32.864"	"33.06"	"29.964"	"29.288"	"28.452"	"26.928"	"21.916"	"15.941"
"1941"	"15.22"	"18.888"	"26.143"	"31.99"	"32.896"	"32.225"	"30.986"	"29.429"	"29.054"	"26.789"	"21.317"	"18.014"
"1942"	"15.36"	"18.751"	"25.229"	"29.808"	"33.674"	"33.983"	"30.196"	"29.022"	"28.146"	"26.508"	"22.31"	"16.369"
"1943"	"16.612"	"18.378"	"24.74"	"27.634"	"33.672"	"32.914"	"30.077"	"28.738"	"29.242"	"26.728"	"22.373"	"17.605"
"1944"	"14.871"	"17.44"	"22.878"	"27.721"	"34.654"	"32.623"	"30.071"	"29.388"	"29.671"	"26.277"	"21.464"	"18.109"
"1945"	"14.233"	"17.092"	"24.319"	"27.911"	"32.719"	"33.795"	"30.628"	"29.692"	"28.755"	"25.394"	"21.242"	"15.613"
"1946"	"17.077"	"20.179"	"23.956"	"28.428"	"31.123"	"32.443"	"29.846"	"29.783"	"29.204"	"25.911"	"21.2"	"17.409"
"1947"	"15.111"	"18.751"	"24.66"	"30.98"	"33.074"	"34.06"	"30.05"	"29.688"	"29.001"	"25.986"	"21.661"	"17.183"
"1948"	"16.292"	"18.091"	"23.476"	"30.98"	"33.644"	"34.629"	"29.845"	"29.088"	"28.663"	"25.812"	"20.935"	"16.268"
"1949"	"17.256"	"18.056"	"24.208"	"29.299"	"31.456"	"33.313"	"29.952"	"29.238"	"28.842"	"27.168"	"20.664"	"15.368"
"1950"	"16.428"	"17.575"	"22.787"	"29.359"	"33.078"	"32.146"	"29.85"	"28.937"	"28.464"	"26.363"	"20.809"	"16.806"
"1951"	"14.866"	"18.647"	"24.17"	"28.526"	"32.991"	"33.097"	"30.627"	"29.625"	"28.903"	"28.269"	"22.287"	"16.719"
"1952"	"17.006"	"20.007"	"23.087"	"30.172"	"33.036"	"32.305"	"29.933"	"28.91"	"29.018"	"27.241"	"21.474"	"17.183"
"1953"	"14.819"	"20.105"	"27.152"	"30.676"	"33.615"	"33.232"	"29.449"	"29.012"	"28.96"	"26.226"	"21.075"	"18.174"
"1954"	"14.866"	"19.639"	"25.14"	"31.521"	"34.528"	"32.796"	"30.206"	"29.064"	"28.992"	"25.455"	"21.006"	"16.109"
"1955"	"15.564"	"18.974"	"25.96"	"28.703"	"32.6"	"32.781"	"29.623"	"28.96"	"28.556"	"26.17"	"21.73"	"16.722"
"1956"	"15.92"	"18.974"	"24.882"	"31.168"	"34.104"	"31.529"	"29.821"	"29.238"	"28.387"	"26.328"	"21.203"	"16.472"
"1957"	"15.795"	"17.789"	"22.906"	"29.416"	"33.366"	"32.919"	"30.401"	"29.688"	"29.197"	"26.617"	"22.347"	"17.447"
"1958"	"17.264"	"18.607"	"24.7"	"31.157"	"33.477"	"34.101"	"30.198"	"28.996"	"29.191"	"26.882"	"22.247"	"17.806"
"1959"	"16.229"	"17.846"	"24.836"	"30.281"	"33.116"	"33.096"	"30.113"	"29.315"	"29.028"	"26.681"	"21.626"	"17.717"
"1960"	"15.398"	"21.002"	"23.315"	"29.28"	"33.144"	"33.573"	"29.849"	"29.483"	"29.151"	"26.282"	"20.97"	"18.754"
"1961"	"16.243"	"16.991"	"24.773"	"30.065"	"33.097"	"32.6"	"30.5"	"29.323"	"29.172"	"26.105"	"20.238"	"14.272"
"1962"	"14.891"	"18.458"	"23.947"	"29.667"	"32.672"	"34.097"	"31.089"	"28.944"	"28.288"	"25.975"	"21.546"	"17.041"
"1963"	"15.649"	"19.766"	"23.524"	"28.794"	"31.532"	"32.154"	"30.213"	"29.179"	"28.452"	"27.023"	"22.143"	"17.247"
"1964"	"15.328"	"18.438"	"25.822"	"30.38"	"31.297"	"33.532"	"29.499"	"29.388"	"28.561"	"27.829"	"21.27"	"16.922"
"1965"	"16.81"	"18.044"	"22.872"	"28.203"	"32.661"	"34.376"	"30.142"	"28.94"	"28.43"	"26.446"	"21.917"	"16.474"
"1966"	"16.764"	"20.452"	"24.888"	"30.516"	"33.591"	"33.232"	"30.954"	"29.388"	"28.95"	"26.49"	"22.357"	"16.777"
"1967"	"15.723"	"20.159"	"22.731"	"28.917"	"32.267"	"33.328"	"29.85"	"28.401"	"28.787"	"25.835"	"19.97"	"16.815"
"1968"	"14.397"	"17.175"	"23.768"	"29.015"	"32.48"	"31.908"	"29.754"	"29.251"	"29.964"	"25.846"	"21.496"	"16.882"
"1969"	"15.691"	"19.781"	"26.624"	"30.109"	"31.631"	"33.6"	"29.691"	"28.782"	"28.424"	"26.714"	"22.984"	"17.313"
"1970"	"15.91"	"17.793"	"23.455"	"30.693"	"32.732"	"31.727"	"30.25"	"29.459"	"28.724"	"26.882"	"21.098"	"17.659"
"1971"	"15.631"	"18.087"	"23.393"	"28.635"	"30.391"	"30.934"	"28.942"	"27.901"	"28.8"	"26.433"	"21.257"	"17.626"
"1972"	"16.534"	"17.042"	"24.906"	"28.882"	"33.365"	"32.973"	"30.758"	"28.652"	"28.124"	"25.611"	"21.122"	"17.593"
"1973"	"16.321"	"19.095"	"23.324"	"30.877"	"33.218"	"32.318"	"30.149"	"29.173"	"28.981"	"26.67"	"21.149"	"16.425"
"1974"	"15.295"	"18.357"	"25.225"	"31.087"	"32.74"	"32.782"	"29.49"	"28.561"	"28.68"	"28.263"	"21.463"	"15.939"
"1975"	"15.199"	"17.993"	"23.328"	"30.607"	"33.34"	"32.122"	"29.002"	"28.651"	"28.48"	"27.934"	"20.743"	"16.681"
"1976"	"15.876"	"18.857"	"24.168"	"28.595"	"31.347"	"31.88"	"29.604"	"27.745"	"28.49"	"26.794"	"23.216"	"17.253"
"1977"	"15.902"	"19.227"	"25.559"	"28.937"	"30.619"	"32.235"	"29.495"	"29.017"	"28.523"	"26.746"	"23.102"	"16.688"
"1978"	"14.632"	"17.155"	"21.567"	"28.537"	"34.073"	"32.405"	"29.458"	"28.761"	"28.112"	"26.815"	"22.428"	"16.861"
"1979"	"16.787"	"17.532"	"22.997"	"29.477"	"31.651"	"32.19"	"29.477"	"29.522"	"29.064"	"27.449"	"24.004"	"17.119"
"1980"	"15.757"	"18.888"	"23.633"	"30.469"	"32.005"	"31.105"	"28.355"	"28.217"	"28.561"	"26.459"	"21.889"	"17.849"
"1981"	"15.372"	"19.335"	"23.207"	"29.04"	"31.695"	"32.268"	"29.144"	"29.083"	"28.287"	"26.376"	"20.559"	"16.376"
"1982"	"16.915"	"17.251"	"21.952"	"28.623"	"31.391"	"31.618"	"31.118"	"28.979"	"28.606"	"26.238"	"21.934"	"17.642"
"1983"	"14.896"	"17.011"	"23.369"	"27.55"	"31.423"	"32.509"	"30.228"	"29.394"	"29.13"	"26.42"	"20.784"	"17.199"
"1984"	"16.016"	"17.388"	"25.25"	"29.892"	"33.939"	"32.186"	"29.658"	"28.888"	"28.121"	"27.098"	"20.565"	"17.718"
"1985"	"15.634"	"18.78"	"26.284"	"30.336"	"32.878"	"33.269"	"29.157"	"29.477"	"28.457"	"26.092"	"21.912"	"18.522"
"1986"	"16.191"	"18.294"	"24.218"	"29.328"	"30.965"	"33.287"	"29.531"	"29.251"	"28.836"	"25.893"	"21.931"	"16.393"
"1987"	"15.462"	"19.382"	"24.336"	"29.647"	"31.299"	"34.397"	"30.928"	"30.066"	"29.539"	"26.874"	"22.526"	"17.734"
"1988"	"17.236"	"19.572"	"23.971"	"30.603"	"33.568"	"32.336"	"29.78"	"29.095"	"29.964"	"26.558"	"21.488"	"17.752"
"1989"	"14.648"	"17.826"	"23.657"	"29.335"	"33.016"	"31.66"	"29.821"	"27.716"	"29.074"	"26.773"	"21.2"	"16.331"
"1990"	"18.037"	"18.269"	"22.471"	"29.317"	"32.364"	"33.333"	"29.408"	"29.392"	"29.087"	"26.217"	"22.368"	"16.969"
"1991"	"15.323"	"19.686"	"24.111"	"29.239"	"33.346"	"32.756"	"31.354"	"28.819"	"29.066"	"26.19"	"20.623"	"16.985"
"1992"	"16.804"	"16.799"	"24.785"	"30.075"	"31.192"	"32.706"	"29.724"	"29.151"	"28.856"	"26.253"	"21.725"	"16.577"
"1993"	"16.264"	"19.756"	"22.121"	"28.716"	"32.166"	"32.132"	"30.518"	"29.618"	"28.037"	"26.838"	"22.354"	"17.875"
"1994"	"17.165"	"18"	"25.348"	"28.611"	"33.126"	"33.131"	"29.852"	"28.986"	"29.107"	"26.098"	"21.126"	"17.328"
"1995"	"14.478"	"18.328"	"23.817"	"29.906"	"34.631"	"33.961"	"30.335"	"28.959"	"28.966"	"27.556"	"21.682"	"17.49"
"1996"	"16.319"	"18.739"	"24.917"	"29.629"	"33.296"	"32.565"	"30.176"	"28.824"	"29.329"	"26.454"	"22.237"	"17.177"
"1997"	"15.882"	"17.689"	"24.083"	"29.511"	"31.182"	"32.137"	"32.226"	"29.288"	"28.466"	"24.781"	"21.482"	"16.824"
"1998"	"13.776"	"19.279"	"22.918"	"29.533"	"33.382"	"33.831"	"29.85"	"29.252"	"29.393"	"28.028"	"23.296"	"19.495"
"1999"	"16.273"	"21.037"	"25.918"	"33.355"	"33.119"	"32.119"	"30.256"	"29.396"	"28.687"	"27.523"	"23.751"	"18.659"
"2000"	"17.159"	"18.811"	"23.832"	"30.992"	"32.524"	"31.728"	"30.213"	"29.466"	"29.215"	"28.096"	"24.053"	"18.29"
"2001"	"16.383"	"19.412"	"24.561"	"29.257"	"33.018"	"31.69"	"30.172"	"29.915"	"30.187"	"28.069"	"24.252"	"19.173"
"2002"	"16.55"	"19.59"	"25.308"	"30.221"	"34.321"	"33.483"	"31.925"	"29.474"	"28.167"	"27.095"	"22.31"	"17.198"
