
"Year"	"Jan"	"Feb"	"Mar"	"Apr"	"May"	"Jun"	"Jul"	"Aug"	"Sep"	"Oct"	"Nov"	"Dec"
"1901"	"32.236"	"43.812"	"4.707"	"31.972"	"78.099"	"123.072"	"270.303"	"338.885"	"308.021"	"44.475"	"27.802"	"0"
"1902"	"1.263"	"0.344"	"35.6"	"106.674"	"108.061"	"124.72"	"330.814"	"292.299"	"288.618"	"44.159"	"0.57"	"8.404"
"1903"	"4.99"	"20.464"	"21.636"	"47.612"	"51.333"	"190.429"	"135.239"	"279.972"	"246.642"	"156.171"	"1.404"	"0"
"1904"	"0"	"30.243"	"70.779"	"7.983"	"234.99"	"349.96"	"390.83"	"298.065"	"110.268"	"23.278"	"3.836"	"0.032"
"1905"	"18.273"	"55.442"	"89.881"	"78.555"	"142.964"	"50.914"	"448.713"	"291.982"	"277.527"	"65.489"	"0"	"0.382"
"1906"	"33.657"	"120.047"	"58.719"	"2.036"	"62.859"	"200.021"	"281.762"	"231.11"	"168.458"	"137.723"	"3.485"	"0.168"
"1907"	"0.445"	"34.318"	"98.171"	"52.763"	"77.33"	"308.062"	"190.033"	"248.351"	"164.397"	"22.702"	"0"	"7.05"
"1908"	"15.712"	"34.005"	"6.037"	"3.053"	"65.197"	"435.577"	"421.835"	"337.116"	"152.717"	"42.851"	"0.365"	"0.208"
"1909"	"8.839"	"9.421"	"0.35"	"138.44"	"61.162"	"392.225"	"214.183"	"413.795"	"210.657"	"47.439"	"1.86"	"9.075"
"1910"	"15.417"	"38.135"	"32.432"	"44.232"	"67.261"	"185.21"	"275.266"	"330.342"	"247.578"	"110.581"	"3.726"	"0"
"1911"	"0.741"	"1.118"	"55.365"	"27.039"	"53.563"	"488.583"	"127.61"	"263.452"	"221.471"	"112.141"	"11.924"	"0"
"1912"	"0.126"	"13.625"	"75.072"	"62.689"	"83.011"	"210.521"	"281.135"	"291.965"	"83.793"	"63.711"	"30.949"	"0.309"
"1913"	"0.544"	"64.749"	"49.281"	"20.658"	"139.118"	"577.726"	"247.493"	"359.644"	"164.447"	"103.915"	"5.171"	"8.73"
"1914"	"0"	"43.063"	"24.348"	"66.684"	"136.132"	"168.668"	"399.612"	"319.187"	"138.504"	"19.374"	"0"	"15.699"
"1915"	"5.364"	"21.15"	"85.369"	"24.469"	"92.622"	"241.186"	"238.786"	"365.282"	"237.28"	"67.359"	"25.232"	"0"
"1916"	"0.029"	"6.103"	"3.144"	"36.181"	"49.423"	"424.034"	"236.074"	"399.457"	"344.859"	"293.866"	"10.68"	"0"
"1917"	"1.057"	"47.947"	"29.408"	"35.266"	"142.818"	"228.203"	"283.29"	"306.197"	"245.586"	"262.726"	"4.962"	"0.028"
"1918"	"1.551"	"0.267"	"21.295"	"81.79"	"120.684"	"312.338"	"131.846"	"422.71"	"209.717"	"9.326"	"0.331"	"6.193"
"1919"	"16.971"	"33.416"	"23.393"	"61.357"	"91.628"	"262.464"	"268.981"	"514.672"	"127.325"	"78.485"	"17.671"	"0"
"1920"	"0"	"37.98"	"137.96"	"5.742"	"50.286"	"117.741"	"421.599"	"386.014"	"273.894"	"63.062"	"0.151"	"0"
"1921"	"40.693"	"7.164"	"17.94"	"44.351"	"42.48"	"261.139"	"254.418"	"447.879"	"159.846"	"17.88"	"0"	"0"
"1922"	"6.975"	"4.358"	"0.395"	"21.351"	"34.67"	"485.483"	"312.144"	"405.711"	"397.948"	"51.332"	"1.034"	"3.243"
"1923"	"0.594"	"87.118"	"19.16"	"13.275"	"20.442"	"140.572"	"302.759"	"408.546"	"145.508"	"94.058"	"6.751"	"2.574"
"1924"	"7.352"	"16.372"	"0.672"	"23.868"	"28.231"	"235.559"	"294.453"	"369.166"	"243.343"	"80.608"	"29.199"	"0"
"1925"	"37.618"	"13.755"	"13.322"	"82.931"	"76.469"	"277.58"	"411.613"	"271.813"	"197.169"	"100.141"	"4.787"	"0.023"
"1926"	"23.531"	"8.722"	"127.742"	"31.093"	"107.271"	"98.183"	"475.982"	"442.357"	"187.87"	"69.721"	"0.567"	"10.453"
"1927"	"15.393"	"93.79"	"43.132"	"27.925"	"77.92"	"262.777"	"246.541"	"263.362"	"134.701"	"57.289"	"10.597"	"0"
"1928"	"31.908"	"1.615"	"3.239"	"53.605"	"115"	"437.835"	"450.561"	"300.521"	"219.023"	"101.753"	"0.029"	"0.563"
"1929"	"29.696"	"10.876"	"50.677"	"42.861"	"42.984"	"160.644"	"299.035"	"252.865"	"163.786"	"278.073"	"0.029"	"6.643"
"1930"	"0.366"	"19.327"	"12.369"	"14.031"	"69.58"	"184.119"	"406.264"	"313.565"	"171.539"	"42.503"	"27.394"	"3.158"
"1931"	"10.543"	"93.295"	"40.328"	"15.206"	"99.233"	"148.793"	"362.097"	"232.668"	"343.637"	"91.652"	"9.819"	"0.625"
"1932"	"0.096"	"44.004"	"14.436"	"27.256"	"163.254"	"99.472"	"304.213"	"262.856"	"235.125"	"61.171"	"33.364"	"2.222"
"1933"	"36.231"	"37.907"	"2.797"	"73.326"	"116.234"	"313.329"	"317.429"	"414.485"	"190.848"	"138.906"	"0"	"0"
"1934"	"5.718"	"29.295"	"3.312"	"53.247"	"44.322"	"198.614"	"220.97"	"364.774"	"277.174"	"89.84"	"10.566"	"4.06"
"1935"	"14.357"	"23.261"	"22.136"	"38.855"	"13.936"	"148.889"	"185.034"	"463.553"	"243.785"	"12.84"	"0"	"2.658"
"1936"	"7.833"	"20.321"	"22.276"	"6.642"	"165.969"	"298.7"	"266.865"	"210.435"	"453.195"	"113.253"	"0.139"	"20.691"
"1937"	"0"	"61.664"	"11.274"	"44.752"	"86.599"	"288.109"	"219.878"	"389.782"	"290.925"	"155.95"	"1.314"	"1.19"
"1938"	"5.599"	"32.078"	"13.573"	"2.91"	"205.837"	"268.474"	"155.722"	"274.982"	"91.856"	"64.926"	"1.374"	"0"
"1939"	"6.615"	"26.498"	"10.165"	"28.859"	"44.357"	"246.773"	"402.147"	"431.244"	"283.242"	"157.631"	"3.064"	"0.419"
"1940"	"0"	"27.815"	"154.726"	"8.355"	"93.147"	"161.558"	"237.449"	"337.944"	"244.09"	"57.1"	"0"	"1.427"
"1941"	"32.311"	"0.999"	"11.567"	"21.27"	"54.687"	"373.43"	"325.971"	"509.977"	"222.262"	"188.364"	"31.257"	"0"
"1942"	"0.861"	"57.333"	"14.622"	"28.331"	"15.992"	"102.822"	"369.333"	"449.166"	"429.439"	"102.93"	"2.823"	"0.208"
"1943"	"46.028"	"25.027"	"22.004"	"129.877"	"53.776"	"191.815"	"499.384"	"393.629"	"202.993"	"61.176"	"0.005"	"0"
"1944"	"26.195"	"45.651"	"80.444"	"38.212"	"53.8"	"194.322"	"316.809"	"521.793"	"137.338"	"76.355"	"0"	"0"
"1945"	"26.866"	"27.46"	"11.815"	"86.211"	"74.694"	"186.621"	"201.391"	"273.112"	"281.75"	"199.617"	"0"	"0.579"
"1946"	"0"	"7.051"	"23.341"	"45.528"	"102.252"	"200.979"	"247.43"	"302.39"	"348.143"	"178.966"	"20.554"	"0.078"
"1947"	"4.628"	"16.849"	"42.963"	"9.314"	"78.912"	"211.58"	"332.23"	"337.76"	"343.482"	"70.481"	"0.019"	"11.576"
"1948"	"10.092"	"28.466"	"74.235"	"62.717"	"76.501"	"220.394"	"274.117"	"336.051"	"155.498"	"126.136"	"35.712"	"0.078"
"1949"	"1.091"	"12.58"	"34.786"	"91.468"	"171.494"	"286.891"	"311.073"	"355.681"	"230.762"	"76.055"	"0"	"0"
"1950"	"0.024"	"9.205"	"54.899"	"31.345"	"53.295"	"388.065"	"276.026"	"286.047"	"178.345"	"94.22"	"36.162"	"0.658"
"1951"	"3.618"	"0.282"	"92.243"	"29.653"	"43.074"	"212.55"	"359.58"	"343.235"	"296.654"	"94.45"	"22.224"	"0"
"1952"	"0.023"	"9.196"	"51.669"	"94.494"	"46.311"	"232.48"	"317.221"	"290.76"	"215.604"	"114.896"	"11.707"	"0.208"
"1953"	"35.175"	"18.966"	"40.691"	"4.326"	"37.071"	"235.966"	"275.657"	"304.121"	"302.515"	"33.86"	"3.641"	"0"
"1954"	"16.23"	"15.859"	"1.091"	"5.833"	"92.283"	"266.729"	"192.492"	"283.8"	"269.006"	"72.344"	"0"	"10.046"
"1955"	"21.577"	"7.513"	"18.222"	"25.292"	"27.209"	"182.503"	"260.057"	"218.365"	"186.709"	"197.286"	"29.272"	"0"
"1956"	"8.908"	"47.809"	"47.132"	"39.965"	"94.015"	"385.349"	"247.33"	"326.635"	"334.521"	"150.402"	"11.629"	"2.886"
"1957"	"40.91"	"22.35"	"25.978"	"21.285"	"6.721"	"128.509"	"305.929"	"206.917"	"240.959"	"86.49"	"0"	"0"
"1958"	"9.975"	"56.746"	"17.659"	"31.763"	"32.752"	"102.229"	"317.066"	"358.932"	"235.641"	"115.93"	"6.879"	"0"
"1959"	"12.029"	"7.337"	"16.751"	"46.192"	"73.406"	"213.12"	"212.651"	"305.042"	"333.694"	"312.001"	"0"	"0.962"
"1960"	"0.49"	"0.257"	"58.757"	"3.944"	"57.028"	"116.138"	"395.893"	"322.745"	"246.341"	"78.048"	"1.938"	"0.005"
"1961"	"21.785"	"94.471"	"3.159"	"2.689"	"69.107"	"224.583"	"133.625"	"403.165"	"297.252"	"112.717"	"0.872"	"2.124"
"1962"	"12.898"	"18.181"	"4.253"	"23.191"	"57.853"	"187.458"	"222.096"	"316.046"	"177.538"	"106.562"	"0"	"1.204"
"1963"	"0.532"	"2.809"	"35.854"	"78.799"	"116.632"	"270.756"	"259.335"	"195.433"	"274.641"	"193.612"	"6.796"	"0.076"
"1964"	"0.32"	"6.131"	"25.881"	"81.992"	"84.896"	"151.024"	"397.095"	"291.832"	"178.897"	"84.907"	"11.739"	"0"
"1965"	"0.929"	"27.706"	"21.413"	"50.687"	"29.844"	"176.356"	"279.403"	"377.409"	"262.312"	"64.685"	"1.802"	"1.803"
"1966"	"37.794"	"3.36"	"3.745"	"11.135"	"15.533"	"237.25"	"110.079"	"279.541"	"170.921"	"49.727"	"21.354"	"14.798"
"1967"	"11.527"	"0.929"	"69.631"	"59.331"	"41.962"	"150.506"	"211.084"	"398.758"	"202.938"	"56.606"	"0"	"2.149"
"1968"	"10.21"	"20.098"	"24.266"	"16.815"	"18.017"	"435.194"	"365.906"	"449.936"	"112.905"	"112.873"	"14.858"	"1.612"
"1969"	"9.007"	"4.663"	"43.528"	"85.498"	"69.511"	"140.678"	"282.079"	"411.646"	"251.779"	"67.558"	"10.084"	"0"
"1970"	"14.694"	"14.428"	"55.408"	"14.053"	"42.779"	"303.571"	"266.409"	"263.332"	"370.446"	"170.139"	"9.249"	"0"
"1971"	"35.01"	"46.098"	"6.324"	"182.644"	"125.858"	"356.485"	"445.516"	"559.719"	"281.997"	"131.639"	"7.555"	"0"
"1972"	"4.397"	"56.73"	"1.677"	"24.004"	"15.877"	"76.461"	"208.383"	"474.18"	"193.818"	"95.311"	"3.937"	"0.218"
"1973"	"2.689"	"12.903"	"53.561"	"19.497"	"163.347"	"324.676"	"211.581"	"311.033"	"438.408"	"175.737"	"22.142"	"31.1"
"1974"	"1.612"	"0.312"	"118.491"	"19.033"	"92.751"	"106.92"	"322.317"	"272.859"	"332.813"	"159.107"	"2.116"	"0.499"
"1975"	"7.607"	"20.482"	"11.982"	"13.206"	"71.296"	"162.267"	"326.09"	"240.193"	"216.579"	"135.913"	"13.933"	"0"
"1976"	"0.061"	"34.975"	"11.613"	"44.639"	"116.589"	"86.596"	"369.736"	"298.12"	"283.513"	"19.307"	"1.585"	"0"
"1977"	"4.63"	"40.977"	"1.002"	"58.04"	"147.916"	"386.635"	"504.794"	"256.516"	"184.656"	"76.94"	"18.575"	"31.31"
"1978"	"0.7"	"53.735"	"75.847"	"75.821"	"111.942"	"250.202"	"333.238"	"324.759"	"614.02"	"133.409"	"18.193"	"5.205"
"1979"	"31.599"	"32.899"	"9.967"	"54.638"	"30.577"	"116.674"	"295.33"	"249.803"	"195.449"	"61.534"	"5.257"	"34.891"
"1980"	"24.922"	"42.397"	"96.121"	"3.132"	"90.242"	"311.979"	"274.19"	"316.611"	"115.633"	"93.02"	"2.102"	"0.236"
"1981"	"15.446"	"37.341"	"79.173"	"117.993"	"149.22"	"131.484"	"363.756"	"226.064"	"234.318"	"1.022"	"1.743"	"9.443"
"1982"	"3.579"	"18.917"	"53.973"	"106.389"	"32.636"	"116.984"	"160.551"	"386.425"	"161.325"	"17.413"	"8.955"	"0.421"
"1983"	"5.939"	"39.422"	"61.49"	"41.304"	"125.367"	"204.968"	"285.65"	"285.974"	"128.815"	"149.426"	"0.384"	"4.024"
"1984"	"29.32"	"11.879"	"4.062"	"63.883"	"60.427"	"633.406"	"320.068"	"377.023"	"228.918"	"68.524"	"0"	"0"
"1985"	"8.599"	"7.956"	"1.247"	"34.339"	"51.898"	"172.269"	"399.351"	"232.406"	"177.84"	"102.951"	"0.488"	"6.91"
"1986"	"12.464"	"10.402"	"1.358"	"49.98"	"99.54"	"196.813"	"348.894"	"202.092"	"558.355"	"82.093"	"35.419"	"3.066"
"1987"	"0.848"	"4.815"	"19.649"	"69.697"	"70.881"	"126.753"	"309.877"	"369.796"	"154.103"	"57.777"	"17.778"	"3.616"
"1988"	"3.166"	"33.117"	"32.513"	"21.705"	"73.459"	"275.436"	"267.759"	"399.116"	"167.607"	"86.418"	"26.816"	"1.464"
"1989"	"2.951"	"7.609"	"5.585"	"3.965"	"109.115"	"216.365"	"229.675"	"253.997"	"269.185"	"146.651"	"3.926"	"5.172"
"1990"	"0"	"30.597"	"56.725"	"33.458"	"217.966"	"281.584"	"606.333"	"213.775"	"299.933"	"187.213"	"10.012"	"0.945"
"1991"	"9.833"	"9.793"	"55.233"	"13.396"	"48.626"	"228.592"	"275.039"	"491.606"	"260.626"	"104.757"	"3.553"	"21.203"
"1992"	"13.383"	"10.242"	"1.89"	"12.549"	"65.873"	"250.109"	"342.564"	"184.654"	"174.291"	"56.616"	"0.165"	"0.019"
"1993"	"4.139"	"1.799"	"69.68"	"90.181"	"91.378"	"367.17"	"305.56"	"351.347"	"357.444"	"131.942"	"8.637"	"0"
"1994"	"15.405"	"47.388"	"62.798"	"62.73"	"86.786"	"185.558"	"301.43"	"352.716"	"125.559"	"160.747"	"3.511"	"0.019"
"1995"	"15.625"	"27.697"	"24.518"	"20.887"	"79.374"	"110.661"	"280.418"	"252.478"	"433.79"	"112.615"	"17.912"	"0.256"
"1996"	"6.575"	"18.058"	"9.6"	"46.178"	"37.804"	"260.359"	"170.342"	"470.701"	"140.425"	"150.812"	"0.007"	"0"
"1997"	"25.492"	"15.986"	"45.47"	"73.195"	"113.099"	"66.063"	"373.504"	"389.86"	"279.587"	"62.421"	"10.354"	"13.637"
"1998"	"21.884"	"68.821"	"33.34"	"46.259"	"88.646"	"187.497"	"215.791"	"232.488"	"245.808"	"291.23"	"25.06"	"0"
"1999"	"4.326"	"3.643"	"0.871"	"0.84"	"138.91"	"203.407"	"268.837"	"441.381"	"467.478"	"75.551"	"11.711"	"0"
"2000"	"3.392"	"49.019"	"3.026"	"73.899"	"131.694"	"216.932"	"171.927"	"244.964"	"196.247"	"38.334"	"6.502"	"1.511"
"2001"	"0.582"	"6.203"	"65.453"	"33.375"	"120.012"	"235.742"	"187.553"	"253.724"	"113.066"	"149.703"	"9.023"	"0"
"2002"	"22.606"	"13.203"	"9.864"	"69.369"	"56.344"	"215.979"	"258.872"	"364.907"	"232.112"	"86.453"	"10.733"	"0"
