
"Year"	"Jan"	"Feb"	"Mar"	"Apr"	"May"	"Jun"	"Jul"	"Aug"	"Sep"	"Oct"	"Nov"	"Dec"
"1901"	"14.936"	"18.132"	"22.188"	"25.38"	"25.449"	"27.102"	"27.164"	"27.134"	"26.615"	"25.261"	"20.579"	"16.584"
"1902"	"16.406"	"18.164"	"23.391"	"23.351"	"25.667"	"26.334"	"27.071"	"27.603"	"26.325"	"23.991"	"19.991"	"16.127"
"1903"	"14.42"	"17.154"	"21.41"	"24.728"	"25.025"	"25.613"	"27.374"	"26.774"	"26.626"	"25.726"	"21.056"	"16.554"
"1904"	"15.487"	"17.704"	"22.706"	"23.734"	"24.189"	"26.371"	"26.672"	"27.314"	"26.525"	"24.529"	"20.009"	"16.257"
"1905"	"14.678"	"15.102"	"20.538"	"22.17"	"24.439"	"26.438"	"26.972"	"26.565"	"26.393"	"24.93"	"21.219"	"16.955"
"1906"	"14.997"	"17.116"	"20.826"	"24.698"	"25.222"	"26.363"	"27.471"	"26.546"	"27.393"	"24.63"	"21.13"	"17.128"
"1907"	"16.428"	"17.315"	"20.277"	"22.776"	"24.79"	"25.764"	"26.603"	"27.613"	"26.226"	"24.741"	"20.829"	"16.396"
"1908"	"15.175"	"17.616"	"22.179"	"26.141"	"24.994"	"26.614"	"27.242"	"27.192"	"26.555"	"24.861"	"20.321"	"16.214"
"1909"	"15.55"	"17.304"	"23.717"	"23.905"	"24.854"	"25.941"	"27.301"	"26.942"	"27.463"	"25.479"	"21.817"	"17.385"
"1910"	"15.787"	"17.944"	"21.691"	"23.823"	"24.493"	"25.971"	"25.964"	"27.042"	"26.994"	"24.7"	"20.749"	"16.695"
"1911"	"16.79"	"17.244"	"21.548"	"24.11"	"24.324"	"26.31"	"26.634"	"26.844"	"26.226"	"23.991"	"19.841"	"15.866"
"1912"	"16.133"	"18.225"	"20.853"	"22.041"	"24.99"	"26.175"	"26.443"	"26.903"	"26.525"	"24.529"	"20.506"	"16.823"
"1913"	"15.746"	"17.893"	"20.338"	"24.354"	"24.021"	"25.679"	"26.894"	"27.164"	"26.436"	"24.568"	"19.747"	"16.255"
"1914"	"15.598"	"17.804"	"21.876"	"22.278"	"25.267"	"26.849"	"27.341"	"26.903"	"26.086"	"23.429"	"20.38"	"17.283"
"1915"	"16.916"	"17.905"	"21.559"	"23.899"	"24.532"	"25.814"	"26.777"	"27.162"	"26.335"	"26.769"	"22.648"	"17.385"
"1916"	"15.787"	"17.937"	"23.329"	"23.812"	"25.348"	"26.868"	"26.235"	"27.102"	"26.626"	"24.591"	"21.288"	"16.355"
"1917"	"15.259"	"17.644"	"21.149"	"23.958"	"25.724"	"26.241"	"26.803"	"27.473"	"26.493"	"24.529"	"21.288"	"16.923"
"1918"	"15.016"	"17.366"	"22.08"	"23.808"	"26.306"	"25.681"	"26.268"	"26.504"	"26.536"	"24.63"	"20.48"	"16.145"
"1919"	"16.477"	"17.373"	"23.448"	"23.828"	"24.921"	"27.01"	"27.004"	"27.942"	"26.056"	"24.9"	"21.647"	"17.342"
"1920"	"16.516"	"17.275"	"21.407"	"23.402"	"24.371"	"26.126"	"27.661"	"26.946"	"26.255"	"25.3"	"21.148"	"18.452"
"1921"	"16.149"	"17.534"	"22.871"	"23.912"	"25.228"	"25.356"	"26.764"	"27.502"	"26.753"	"23.73"	"20.618"	"17.262"
"1922"	"16.277"	"18.546"	"23.498"	"26.609"	"25.963"	"25.939"	"26.803"	"27.134"	"26.595"	"24.627"	"21.146"	"16.985"
"1923"	"16.246"	"17.504"	"22.897"	"24.698"	"24.553"	"25.906"	"26.894"	"27.581"	"26.486"	"24.498"	"21.288"	"17.374"
"1924"	"16.114"	"17.776"	"23.979"	"25.54"	"24.633"	"26.41"	"26.803"	"26.976"	"25.925"	"25.788"	"20.848"	"17.326"
"1925"	"14.418"	"16.736"	"22.288"	"23.989"	"23.684"	"26.491"	"26.803"	"27.403"	"25.697"	"23.762"	"20.437"	"15.455"
"1926"	"15.559"	"17.807"	"20.939"	"23.517"	"24.91"	"26.003"	"26.565"	"27.132"	"26.764"	"25.068"	"19.838"	"17.474"
"1927"	"15.538"	"16.708"	"20.16"	"23.892"	"24.351"	"25.936"	"27.102"	"26.976"	"25.729"	"24.793"	"20.341"	"16.888"
"1928"	"15.568"	"18.623"	"22.677"	"24.899"	"24.602"	"26.342"	"27.071"	"26.806"	"27.295"	"24.403"	"19.912"	"16.757"
"1929"	"15.01"	"17.086"	"22.598"	"23.78"	"24.567"	"25.986"	"26.803"	"27.102"	"26.525"	"24.398"	"20.419"	"16.755"
"1930"	"14.39"	"17.444"	"21.691"	"23.78"	"25.222"	"25.068"	"27.242"	"27.134"	"26.555"	"24.161"	"20.349"	"16.516"
"1931"	"16.68"	"18.434"	"22.158"	"24.263"	"24.322"	"26.3"	"26.633"	"27.865"	"25.55"	"25.19"	"20.041"	"16.988"
"1932"	"15.413"	"15.708"	"22.281"	"24.53"	"24.052"	"25.974"	"27.067"	"27.197"	"26.918"	"25.161"	"21.817"	"17.178"
"1933"	"14.777"	"18.147"	"23.256"	"23.466"	"24.503"	"26.512"	"27.141"	"27.071"	"26.725"	"25.159"	"20.529"	"16.898"
"1934"	"15.659"	"17.883"	"22.288"	"24.67"	"24.115"	"25.275"	"26.834"	"27.192"	"27.434"	"24.129"	"20.119"	"16.408"
"1935"	"15.09"	"17.988"	"22.641"	"24.68"	"25.075"	"25.644"	"27.445"	"26.542"	"26.586"	"24.9"	"21.319"	"16.505"
"1936"	"14.576"	"16.819"	"22.626"	"24.76"	"25.338"	"26.265"	"27.073"	"27.545"	"26.596"	"24.03"	"21.858"	"17.198"
"1937"	"14.339"	"17.647"	"21.517"	"25.689"	"25.012"	"26.965"	"27.884"	"27.014"	"26.786"	"24.695"	"20.22"	"17.413"
"1938"	"16.586"	"17.016"	"23.17"	"26.1"	"25.299"	"26.653"	"26.735"	"27.364"	"26.75"	"25.43"	"19.302"	"17.057"
"1939"	"16.218"	"18.115"	"22.472"	"26.889"	"25.323"	"26.324"	"26.827"	"27.534"	"26.419"	"24.36"	"21.041"	"17.187"
"1940"	"15.53"	"17.586"	"19.88"	"24.73"	"25.018"	"26.366"	"26.897"	"27.604"	"26.457"	"25.061"	"21.011"	"17.484"
"1941"	"15.312"	"17.908"	"23.329"	"24.875"	"24.732"	"26.346"	"27.424"	"27.664"	"26.937"	"24.378"	"19.941"	"17.877"
"1942"	"16.114"	"18.613"	"22.393"	"23.881"	"25.133"	"26.629"	"27.763"	"27.145"	"26.425"	"25.447"	"21.769"	"16.684"
"1943"	"16.78"	"17.421"	"21.274"	"22.25"	"24.64"	"26.402"	"26.725"	"27.042"	"26.617"	"24.64"	"22.015"	"17.998"
"1944"	"15.609"	"17.526"	"22.934"	"24.234"	"26.133"	"27.193"	"27.532"	"27.961"	"26.735"	"25.627"	"21.307"	"18.393"
"1945"	"16.194"	"16.643"	"23.277"	"26.072"	"25.139"	"26.914"	"27.664"	"27.292"	"27.463"	"25.047"	"20.937"	"16.882"
"1946"	"16.452"	"18.806"	"22.531"	"23.381"	"24.899"	"26.252"	"26.834"	"27.745"	"26.656"	"23.98"	"21.529"	"17.507"
"1947"	"15.825"	"18.375"	"22.073"	"24.651"	"25.165"	"26.48"	"26.668"	"27.192"	"26.626"	"24.262"	"20.63"	"17.776"
"1948"	"16.172"	"17.679"	"22.044"	"24.176"	"24.354"	"26.004"	"26.742"	"27.194"	"27.015"	"23.882"	"21.107"	"16.616"
"1949"	"16.197"	"17.856"	"22.556"	"22.196"	"24.764"	"26.031"	"26.944"	"26.974"	"26.486"	"25.522"	"20.908"	"15.617"
"1950"	"16.044"	"17.714"	"22.087"	"24.99"	"25.695"	"25.697"	"27.305"	"26.504"	"26.958"	"24.72"	"20.836"	"17.454"
"1951"	"15.798"	"18.404"	"23.487"	"24.441"	"25.173"	"26.002"	"26.473"	"27.777"	"26.848"	"25.499"	"21.073"	"17.587"
"1952"	"16.47"	"19.023"	"20.969"	"25.403"	"24.04"	"27.053"	"26.883"	"27.203"	"26.514"	"25.698"	"21.607"	"17.683"
"1953"	"15.216"	"18.375"	"22.651"	"24.809"	"25.482"	"25.972"	"26.391"	"27.842"	"26.207"	"24.7"	"20.649"	"18.277"
"1954"	"14.958"	"19.067"	"23.196"	"25.327"	"25.612"	"25.41"	"26.293"	"26.806"	"27.267"	"24.177"	"20.547"	"17.521"
"1955"	"15.819"	"18.219"	"23.087"	"24.266"	"26.119"	"25.835"	"26.4"	"26.631"	"26.749"	"25.918"	"21.679"	"16.116"
"1956"	"16.875"	"18.463"	"23.372"	"26.148"	"26.818"	"26.158"	"26.708"	"27.165"	"27.16"	"25.316"	"21.637"	"17.239"
"1957"	"16.236"	"17.375"	"21.78"	"25.637"	"25.033"	"26.092"	"27.393"	"27.776"	"27.269"	"24.367"	"21.131"	"17.581"
"1958"	"17.274"	"17.761"	"23.566"	"25.312"	"25.64"	"27.127"	"27.857"	"27.134"	"27.182"	"25.911"	"21.853"	"17.832"
"1959"	"16.144"	"17.179"	"22.658"	"25.747"	"25.488"	"26.608"	"27.769"	"28.343"	"26.454"	"24.691"	"21.267"	"17.635"
"1960"	"16.391"	"20.306"	"22.235"	"27.388"	"26.584"	"26.842"	"26.803"	"27.833"	"26.595"	"25.662"	"21.28"	"18.885"
"1961"	"17.549"	"17.571"	"22.721"	"25.76"	"25.689"	"26.931"	"27.518"	"27.91"	"27.161"	"25.495"	"20.322"	"15.85"
"1962"	"15.098"	"18.942"	"22.963"	"26.85"	"25.403"	"27.092"	"28.111"	"27.2"	"27.401"	"24.748"	"20.453"	"17.075"
"1963"	"15.781"	"19.13"	"22.678"	"24.179"	"24.76"	"26.247"	"27.291"	"27.484"	"27.045"	"24.691"	"20.558"	"17.464"
"1964"	"15.355"	"18.092"	"23.552"	"24.599"	"25.207"	"26.215"	"26.504"	"27.257"	"26.767"	"25.438"	"21.64"	"17.545"
"1965"	"16.712"	"18.309"	"21.56"	"24.542"	"25.345"	"26.134"	"26.792"	"26.085"	"26.314"	"24.573"	"19.813"	"17.838"
"1966"	"15.635"	"19.854"	"23.452"	"25.397"	"26.56"	"25.804"	"27.02"	"27.06"	"26.113"	"23.594"	"21.772"	"17.331"
"1967"	"16.733"	"19.147"	"21.687"	"23.944"	"24.806"	"25.915"	"26.767"	"27.129"	"26.153"	"23.846"	"19.295"	"17.476"
"1968"	"15.813"	"17.415"	"22.856"	"24.009"	"24.948"	"25.324"	"26.445"	"27.219"	"26.585"	"23.99"	"20.7"	"17.031"
"1969"	"16.102"	"19.228"	"24.298"	"25.295"	"26.09"	"26.504"	"27.039"	"26.592"	"26.525"	"24.417"	"21.34"	"17.805"
"1970"	"15.49"	"17.975"	"21.904"	"25.081"	"25.915"	"26.805"	"26.527"	"26.835"	"26.857"	"24.75"	"20.657"	"17.56"
"1971"	"16.086"	"17.844"	"21.548"	"23.979"	"24.851"	"26.449"	"26.693"	"26.411"	"26.555"	"25.165"	"20.72"	"17.476"
"1972"	"17.308"	"17.263"	"23.235"	"23.521"	"25.188"	"26.069"	"27.2"	"26.896"	"26.305"	"25.026"	"20.729"	"17.513"
"1973"	"17.039"	"19.199"	"22.366"	"25.658"	"25.533"	"26.085"	"26.606"	"27.317"	"26.262"	"24.891"	"20.847"	"17.072"
"1974"	"15.372"	"17.76"	"22.28"	"24.607"	"25.327"	"25.972"	"26.413"	"27.073"	"25.895"	"26.2"	"22.147"	"16.474"
"1975"	"16.058"	"18.432"	"23.321"	"25.528"	"25.17"	"26.664"	"26.134"	"27.286"	"26.329"	"26.036"	"20.765"	"16.383"
"1976"	"15.958"	"19.115"	"23.526"	"25.165"	"24.9"	"25.674"	"26.661"	"26.507"	"26.44"	"24.515"	"22.315"	"17.316"
"1977"	"16.041"	"18.903"	"23.735"	"23.004"	"23.892"	"25.306"	"27.007"	"26.757"	"27.178"	"23.819"	"21.393"	"17.101"
"1978"	"14.359"	"17.923"	"21.651"	"24.461"	"25.411"	"25.852"	"26.445"	"27.439"	"26.521"	"25.899"	"21.112"	"17.568"
"1979"	"16.834"	"17.802"	"22.615"	"25.762"	"26.129"	"27.343"	"26.672"	"27.53"	"25.92"	"24.619"	"22.455"	"17.241"
"1980"	"15.54"	"17.937"	"22.123"	"25.374"	"24.572"	"26.864"	"27.16"	"27.219"	"27.122"	"24.372"	"21.412"	"18.319"
"1981"	"15.923"	"18.863"	"22.181"	"23.736"	"25.159"	"27.029"	"26.897"	"27.644"	"26.755"	"25.569"	"21.629"	"17.292"
"1982"	"17.179"	"17.845"	"22.013"	"23.76"	"25.808"	"26.271"	"27.143"	"27.439"	"26.471"	"24.505"	"20.733"	"17.273"
"1983"	"14.867"	"16.593"	"21.954"	"23.634"	"24.465"	"26.829"	"27.326"	"27.262"	"26.508"	"25.328"	"21.193"	"16.234"
"1984"	"15.084"	"18.361"	"23.645"	"25.257"	"24.995"	"26.893"	"26.176"	"27.325"	"25.371"	"25.594"	"20.51"	"17.481"
"1985"	"16.009"	"18.038"	"23.772"	"24.829"	"25.157"	"26.466"	"26.034"	"27.672"	"26.461"	"24.871"	"20.289"	"18.053"
"1986"	"16.661"	"18.744"	"22.89"	"23.738"	"24.791"	"26.898"	"26.507"	"27.532"	"26.06"	"23.779"	"21.202"	"17.337"
"1987"	"16.458"	"19.461"	"22.226"	"24.607"	"25.673"	"27.161"	"26.773"	"26.842"	"26.83"	"24.491"	"21.25"	"18.671"
"1988"	"17.37"	"19.904"	"22.749"	"25.304"	"25.369"	"26.427"	"27.141"	"26.694"	"26.599"	"25.293"	"21.66"	"18.588"
"1989"	"15.746"	"17.624"	"22.445"	"24.205"	"25.925"	"26.271"	"26.546"	"27.042"	"26.548"	"25.511"	"20.6"	"16.45"
"1990"	"17.916"	"18.259"	"20.816"	"22.825"	"25.64"	"26.82"	"26.881"	"27.379"	"26.61"	"24.472"	"22.288"	"17.822"
"1991"	"14.999"	"18.766"	"23.259"	"24.424"	"24"	"26.31"	"26.994"	"27.257"	"26.139"	"24.861"	"20.549"	"16.556"
"1992"	"15.756"	"16.566"	"22.622"	"25.082"	"24.386"	"26.419"	"25.974"	"27.124"	"26.265"	"24.621"	"20.94"	"16.126"
"1993"	"15.676"	"19.067"	"21.22"	"23.744"	"24.228"	"25.724"	"26.785"	"27.124"	"26.064"	"24.946"	"21.479"	"19.172"
"1994"	"17.551"	"18.016"	"23.077"	"24.98"	"26.708"	"27.01"	"28.109"	"27.959"	"27.521"	"24.842"	"21.333"	"17.297"
"1995"	"15.655"	"18.565"	"23.787"	"25.434"	"27.07"	"26.993"	"27.127"	"27.412"	"26.788"	"25.872"	"22.076"	"18.217"
"1996"	"16.713"	"19.504"	"23.684"	"26.266"	"25.841"	"26.637"	"27.053"	"27.166"	"27.134"	"25.15"	"21.858"	"18.671"
"1997"	"16.208"	"17.625"	"23.639"	"24.261"	"26.079"	"26.836"	"27.631"	"27.946"	"26.186"	"24.395"	"20.996"	"17.844"
"1998"	"15.925"	"19.943"	"21.897"	"25.837"	"27.228"	"27.234"	"27.018"	"27.696"	"27.091"	"26.472"	"22.739"	"18.667"
"1999"	"17.274"	"21.091"	"24.085"	"28.295"	"26.345"	"27.822"	"27.064"	"27.203"	"27.115"	"25.761"	"22.579"	"18.827"
"2000"	"16.69"	"19.313"	"22.027"	"23.116"	"25.778"	"27.395"	"27.763"	"27.164"	"26.482"	"25.73"	"21.561"	"17.556"
"2001"	"16.396"	"19.481"	"23.156"	"25.04"	"26.699"	"27.521"	"28.093"	"28.172"	"27.263"	"25.465"	"22.26"	"17.839"
"2002"	"16.705"	"19.974"	"23.459"	"24.609"	"25.813"	"26.774"	"27.795"	"27.491"	"26.915"	"25.291"	"21.918"	"17.897"
