
"Year"	"Jan"	"Feb"	"Mar"	"Apr"	"May"	"Jun"	"Jul"	"Aug"	"Sep"	"Oct"	"Nov"	"Dec"
"1901"	"19.537"	"21.386"	"25.409"	"29.504"	"31.116"	"31.303"	"26.874"	"25.899"	"26.482"	"26.008"	"21.516"	"18.852"
"1902"	"20.03"	"22.247"	"26.949"	"28.929"	"31.33"	"30.61"	"26.68"	"26.805"	"26.65"	"25.614"	"21.49"	"19.123"
"1903"	"20.283"	"20.888"	"26.162"	"29.992"	"31.384"	"29.55"	"27.01"	"26.484"	"26.185"	"24.715"	"20.892"	"18.126"
"1904"	"19.459"	"21.324"	"25.94"	"30.041"	"30.43"	"28.099"	"26.179"	"25.798"	"26.042"	"25.307"	"21.239"	"19.532"
"1905"	"19.33"	"20.265"	"25.095"	"27.574"	"30.345"	"31.991"	"26.464"	"26.878"	"26.05"	"25.085"	"21.619"	"18.574"
"1906"	"19.865"	"22.067"	"24.603"	"30.355"	"32.126"	"29.34"	"26.746"	"26.498"	"26.43"	"25.292"	"21.732"	"19.779"
"1907"	"19.536"	"22.287"	"24.89"	"27.04"	"29.921"	"28.824"	"27.046"	"25.205"	"26.333"	"25.691"	"22.513"	"18.325"
"1908"	"17.772"	"22.106"	"25.247"	"30.405"	"31.323"	"29.372"	"26.058"	"25.191"	"26.259"	"25.025"	"20.724"	"17.625"
"1909"	"20.63"	"21.953"	"26.153"	"26.479"	"30.602"	"27.744"	"25.665"	"26.37"	"25.957"	"24.373"	"21.171"	"19.354"
"1910"	"19.191"	"21.459"	"25.695"	"29.407"	"31.144"	"28.579"	"26.49"	"26.076"	"26.145"	"24.828"	"19.998"	"17.528"
"1911"	"20.198"	"20.958"	"25.073"	"28.774"	"31.065"	"27.385"	"27.152"	"25.371"	"25.978"	"24.921"	"22.026"	"18.259"
"1912"	"19.377"	"22.253"	"26.422"	"28.54"	"31.56"	"30.377"	"26.201"	"25.905"	"26.144"	"25.07"	"20.746"	"17.468"
"1913"	"18.291"	"22.066"	"25.036"	"29.407"	"30.158"	"27.427"	"26.179"	"25.77"	"26.243"	"24.572"	"20.432"	"18.853"
"1914"	"18.764"	"22.581"	"25.409"	"27.032"	"29.129"	"28.277"	"26.051"	"25.968"	"25.769"	"24.773"	"21.684"	"19.067"
"1915"	"19.37"	"21.818"	"25.039"	"28.894"	"31.107"	"30.063"	"27.172"	"26.771"	"26.205"	"25.805"	"23.047"	"18.465"
"1916"	"18.419"	"22.062"	"25.811"	"29.359"	"31.104"	"27.336"	"26.85"	"26.105"	"26.277"	"25.484"	"22.011"	"17.946"
"1917"	"18.617"	"20.833"	"24.181"	"28.051"	"28.372"	"27.11"	"26.109"	"25.96"	"25.85"	"24.879"	"21.123"	"18.313"
"1918"	"18.03"	"21.105"	"25.341"	"28.146"	"29.404"	"26.456"	"27.375"	"25.663"	"26.415"	"24.991"	"22.666"	"19.296"
"1919"	"20.843"	"21.895"	"25.795"	"28.766"	"30.089"	"27.467"	"26.35"	"25.604"	"26.249"	"24.835"	"21.738"	"18.418"
"1920"	"19.029"	"21.753"	"25.881"	"28.436"	"29.743"	"29.463"	"25.62"	"25.899"	"26.277"	"25.333"	"21.497"	"17.945"
"1921"	"19.338"	"21.059"	"26.489"	"29.137"	"33.691"	"28.785"	"26.577"	"25.595"	"25.565"	"24"	"19.32"	"18.753"
"1922"	"18.751"	"21.532"	"26.162"	"29.353"	"31.446"	"27.844"	"25.314"	"25.56"	"25.268"	"23.727"	"20.951"	"17.246"
"1923"	"18.116"	"21.093"	"24.009"	"28.624"	"31.467"	"31.392"	"26.094"	"25.312"	"26.15"	"24.333"	"20.697"	"18.605"
"1924"	"19.015"	"22.044"	"26.096"	"29.946"	"30.285"	"30.977"	"26.511"	"26.178"	"25.771"	"24.686"	"20.917"	"17.966"
"1925"	"18.238"	"20.818"	"25.348"	"28.907"	"30.063"	"28.322"	"25.099"	"25.899"	"26.255"	"24.648"	"21.631"	"17.792"
"1926"	"19.243"	"22.247"	"25.186"	"27.886"	"30.025"	"31.784"	"26.737"	"25.61"	"26.084"	"24.2"	"20.137"	"18.725"
"1927"	"20.449"	"22.7"	"25.628"	"29.901"	"31.277"	"29.916"	"26.132"	"25.691"	"26.277"	"24.773"	"20.897"	"19.017"
"1928"	"19.518"	"22.006"	"25.911"	"28.473"	"31.078"	"28.112"	"26.101"	"26.312"	"26.277"	"25.506"	"21.157"	"19.232"
"1929"	"19.931"	"20.554"	"25.66"	"28.579"	"31.739"	"28.937"	"25.501"	"25.405"	"26.327"	"24"	"20.583"	"19.282"
"1930"	"18.93"	"20.539"	"25.739"	"28.573"	"30.557"	"29.35"	"25.973"	"25.626"	"26.084"	"25.32"	"20.512"	"18.446"
"1931"	"19.521"	"22.403"	"25.747"	"29.755"	"31.331"	"31.194"	"26.174"	"25.912"	"26.571"	"25.006"	"21.097"	"18.599"
"1932"	"19.306"	"20.724"	"25.559"	"28.846"	"30.665"	"29.971"	"25.858"	"26.141"	"26.242"	"25.711"	"21.854"	"18.81"
"1933"	"18.879"	"21.988"	"25.673"	"28.367"	"29.238"	"27.504"	"26.107"	"25.912"	"25.964"	"24.926"	"21.246"	"19.045"
"1934"	"18.633"	"21.252"	"25.687"	"29.546"	"32.345"	"28.944"	"26.179"	"25.818"	"26.031"	"24.364"	"20.419"	"18.84"
"1935"	"19.017"	"22.253"	"25.781"	"27.859"	"32.458"	"30.497"	"25.764"	"25.812"	"26.042"	"25.105"	"20.992"	"19.612"
"1936"	"20.882"	"21.374"	"26.182"	"29.179"	"30.267"	"27.398"	"26.179"	"25.663"	"26.205"	"24.498"	"22.639"	"19.495"
"1937"	"18.138"	"22.159"	"25.195"	"27.858"	"30.971"	"29.39"	"26.06"	"25.918"	"25.944"	"24.605"	"21.368"	"18.239"
"1938"	"20.958"	"21"	"26.988"	"29.267"	"30.364"	"26.739"	"26.051"	"25.953"	"26.071"	"24.593"	"20.174"	"18.152"
"1939"	"19.58"	"22.247"	"25.061"	"29.209"	"32.035"	"29.393"	"25.565"	"25.907"	"25.891"	"25.478"	"20.583"	"18.331"
"1940"	"17.484"	"21.458"	"24.494"	"28.744"	"30.025"	"28.731"	"25.387"	"25.698"	"26.518"	"25.305"	"22.898"	"19.421"
"1941"	"20.366"	"22.264"	"26.666"	"30.564"	"31.235"	"28.135"	"26.334"	"26.446"	"26.504"	"24.692"	"19.984"	"19.646"
"1942"	"19.319"	"21.853"	"26.26"	"28.773"	"32.159"	"30.499"	"25.785"	"25.818"	"26.188"	"24.378"	"20.897"	"19.326"
"1943"	"20.566"	"20.06"	"25.459"	"27.688"	"30.777"	"28.818"	"26.145"	"25.34"	"26.169"	"25.269"	"21.419"	"18.291"
"1944"	"19.536"	"21.046"	"24.046"	"27.159"	"31.452"	"29.749"	"25.764"	"25.627"	"26.311"	"24.706"	"21.004"	"19.809"
"1945"	"18.525"	"21.232"	"26.16"	"28.024"	"31.645"	"29.936"	"26.206"	"26.477"	"25.909"	"24.073"	"20.448"	"17.325"
"1946"	"17.949"	"21.785"	"26.322"	"27.04"	"30.245"	"27.858"	"25.957"	"25.704"	"26.256"	"25.291"	"23.116"	"20.972"
"1947"	"20.45"	"21.459"	"26.38"	"30.6"	"32.07"	"29.691"	"25.873"	"26.332"	"26.43"	"24.593"	"21.306"	"19.117"
"1948"	"20.058"	"22.446"	"25.074"	"29.365"	"31.58"	"30.343"	"26.597"	"25.912"	"26.058"	"25.204"	"23.015"	"18.032"
"1949"	"19.41"	"21.424"	"26.223"	"29.001"	"30.522"	"29.35"	"26.331"	"25.825"	"26.271"	"25.392"	"20.831"	"17.979"
"1950"	"19.384"	"21.724"	"24.661"	"29.286"	"31.481"	"28.462"	"25.557"	"25.974"	"26.256"	"24.593"	"20.483"	"18.332"
"1951"	"18.516"	"21.995"	"25.594"	"28.173"	"30.653"	"29.145"	"26.511"	"25.905"	"27.056"	"26.1"	"21.984"	"19.334"
"1952"	"19.938"	"22.839"	"25.009"	"29.063"	"31.365"	"30.193"	"26.599"	"25.812"	"26.042"	"25.056"	"21.283"	"20.444"
"1953"	"19.389"	"23.012"	"27.855"	"29.997"	"32.935"	"30.376"	"26.555"	"25.77"	"26.562"	"25.406"	"21.011"	"19.133"
"1954"	"18.625"	"23.293"	"25.581"	"30.34"	"31.511"	"28.699"	"26.837"	"26.404"	"25.763"	"24.1"	"19.892"	"19.354"
"1955"	"19.191"	"22.781"	"26.554"	"28.844"	"30.602"	"29.857"	"26.101"	"26.191"	"25.964"	"24.728"	"20.463"	"18.606"
"1956"	"20.177"	"20.925"	"26.709"	"30.226"	"30.923"	"26.785"	"25.687"	"25.833"	"25.899"	"24.283"	"21.332"	"19.832"
"1957"	"20.61"	"21.847"	"24.608"	"29.005"	"32.004"	"30.318"	"25.947"	"26.105"	"26.448"	"25.805"	"21.898"	"20.252"
"1958"	"20.612"	"22.76"	"26.155"	"29.999"	"31.804"	"31.763"	"26.024"	"26.495"	"26.106"	"25.264"	"22.405"	"19.842"
"1959"	"19.976"	"22.264"	"26.168"	"29.459"	"31.831"	"29.058"	"26.207"	"25.619"	"25.897"	"24.905"	"20.925"	"18.668"
"1960"	"19.11"	"22.24"	"25.073"	"29.751"	"31.532"	"29.644"	"25.973"	"25.899"	"26.864"	"24.956"	"21.183"	"20.372"
"1961"	"19.791"	"20.465"	"27.001"	"29.725"	"31.316"	"28.371"	"25.672"	"26.183"	"25.364"	"24.411"	"20.375"	"17.472"
"1962"	"17.317"	"21.238"	"25.395"	"28.36"	"31.022"	"28.325"	"26.316"	"25.905"	"26.321"	"24.532"	"21.204"	"19.499"
"1963"	"18.025"	"22.399"	"25.687"	"28.041"	"30.279"	"28.766"	"26.101"	"26.169"	"26.171"	"25.181"	"22.518"	"19.388"
"1964"	"20.638"	"22.666"	"26.954"	"29.586"	"31.193"	"29.458"	"25.805"	"25.484"	"26.277"	"25.292"	"21.71"	"19.388"
"1965"	"19.653"	"22.14"	"25.207"	"28.264"	"30.963"	"30.351"	"26.087"	"26.353"	"26.085"	"25.285"	"22.093"	"19.672"
"1966"	"18.937"	"22.939"	"26.008"	"29.073"	"32.492"	"29.143"	"27.452"	"26.824"	"27.022"	"25.42"	"23.626"	"19.232"
"1967"	"19.404"	"23.092"	"24.774"	"28.674"	"31.943"	"30.543"	"26.979"	"25.799"	"26.199"	"24.864"	"21.785"	"21.638"
"1968"	"19.558"	"22.275"	"25.341"	"28.228"	"31.23"	"28.978"	"26.693"	"25.877"	"26.305"	"24.305"	"21.502"	"19.26"
"1969"	"19.59"	"24.159"	"27.615"	"30.251"	"30.244"	"29.678"	"26.137"	"25.912"	"26.137"	"25.879"	"23.106"	"19.321"
"1970"	"20.061"	"23.467"	"26.022"	"29.08"	"31.358"	"27.724"	"26.065"	"26.049"	"26.1"	"24.9"	"20.47"	"17.72"
"1971"	"19.424"	"22.008"	"24.575"	"26.967"	"27.79"	"26.171"	"25.104"	"24.781"	"26.305"	"24.986"	"21.901"	"18.218"
"1972"	"19.864"	"21.344"	"26.94"	"29.499"	"32.602"	"31.757"	"26.952"	"26.232"	"26.393"	"25.372"	"22.386"	"20.952"
"1973"	"21.655"	"23.568"	"26.002"	"31.023"	"31.789"	"30.423"	"25.96"	"25.907"	"26.249"	"24.826"	"20.984"	"18.932"
"1974"	"19.829"	"22.292"	"26.222"	"29.793"	"30.458"	"29.649"	"26.757"	"26.797"	"26.936"	"25.392"	"21.627"	"18.441"
"1975"	"18.205"	"22.253"	"26.13"	"29.877"	"32.064"	"28.651"	"25.778"	"26.065"	"25.691"	"25.6"	"20.182"	"17.938"
"1976"	"17.898"	"22.204"	"26.104"	"28.552"	"30.307"	"29.149"	"25.792"	"25.798"	"25.949"	"25.699"	"24.112"	"20.322"
"1977"	"19.505"	"22.646"	"27.118"	"27.879"	"28.943"	"29.285"	"26.179"	"25.907"	"25.856"	"24.498"	"23.111"	"18.31"
"1978"	"18.573"	"21.546"	"24.903"	"28.258"	"31.406"	"29.106"	"25.878"	"25.391"	"26.212"	"25.42"	"23.306"	"19.367"
"1979"	"20.41"	"21.486"	"25.389"	"28.888"	"30.83"	"29.573"	"27.346"	"26.239"	"26.026"	"25.805"	"24.113"	"19.874"
"1980"	"20.465"	"22.881"	"26.108"	"29.859"	"31.071"	"27.277"	"25.493"	"25.717"	"26.314"	"24.878"	"22.813"	"20.13"
"1981"	"18.824"	"23.218"	"25.016"	"28.513"	"29.678"	"29.372"	"26.55"	"26.225"	"26.217"	"25.685"	"21.941"	"19.286"
"1982"	"21.218"	"22.852"	"25.155"	"28.917"	"30.925"	"29.505"	"28.245"	"25.585"	"27.029"	"26.185"	"23.064"	"20.884"
"1983"	"20.497"	"22.105"	"26.407"	"28.756"	"30.39"	"30.834"	"27.084"	"26.304"	"26.49"	"24.938"	"21.47"	"18.951"
"1984"	"19.832"	"21.247"	"26.227"	"29.37"	"31.93"	"28.158"	"26.331"	"25.905"	"26.271"	"25.705"	"21.23"	"20.268"
"1985"	"20.398"	"22.04"	"26.573"	"29.079"	"29.933"	"28.293"	"24.833"	"24.565"	"26.249"	"23.059"	"20.611"	"19.658"
"1986"	"18.158"	"21.601"	"25.143"	"28.049"	"29.111"	"27.838"	"25.426"	"25.165"	"25.909"	"23.75"	"21.331"	"19.198"
"1987"	"18.11"	"20.765"	"24.081"	"28.113"	"29.494"	"29.542"	"25.418"	"25.631"	"25.939"	"24.46"	"20.805"	"17.859"
"1988"	"18.749"	"21.246"	"24.763"	"27.421"	"29.809"	"26.979"	"25.306"	"26.783"	"26.864"	"25.443"	"22.266"	"20.732"
"1989"	"19.524"	"22.985"	"25.882"	"30.218"	"31.438"	"28.171"	"26.851"	"26.196"	"26.504"	"25.799"	"22.649"	"19.153"
"1990"	"21.343"	"22.559"	"24.323"	"28.366"	"28.431"	"27.578"	"25.672"	"26.504"	"26.176"	"24.338"	"22.359"	"19.618"
"1991"	"20.344"	"23.711"	"26.796"	"28.856"	"30.732"	"28.774"	"26.772"	"26.085"	"26.771"	"25.414"	"21.346"	"19.246"
"1992"	"18.625"	"21.657"	"26.382"	"29.36"	"30.67"	"28.764"	"26.964"	"25.941"	"26.277"	"25.175"	"23.005"	"18.917"
"1993"	"20.129"	"21.827"	"25.208"	"28.786"	"30.871"	"29.477"	"26.851"	"26.311"	"26.171"	"25.624"	"21.618"	"18.937"
"1994"	"20.424"	"22.082"	"26.809"	"28.687"	"31.029"	"28.652"	"25.764"	"25.47"	"26.006"	"25.434"	"21.705"	"19.031"
"1995"	"18.539"	"22.054"	"25.623"	"28.886"	"29.195"	"30.507"	"26.365"	"26.79"	"26.476"	"25.132"	"22.112"	"20.039"
"1996"	"20.652"	"21.552"	"26.717"	"28.473"	"31.873"	"29.407"	"27.007"	"25.912"	"27.164"	"25.057"	"22.224"	"19.24"
"1997"	"18.625"	"21.252"	"26.008"	"27.079"	"30.315"	"30.271"	"26.893"	"26.049"	"26.288"	"25.277"	"23.919"	"21.273"
"1998"	"20.263"	"22.658"	"25.223"	"28.895"	"31.229"	"30.651"	"27.052"	"26.804"	"26.958"	"26.497"	"23.089"	"18.952"
"1999"	"18.203"	"23.445"	"26.488"	"30.887"	"30.072"	"28.537"	"26.355"	"25.81"	"25.878"	"25.711"	"21.631"	"19.478"
"2000"	"21.031"	"22.101"	"25.395"	"30.001"	"30.499"	"27.965"	"26.498"	"26.418"	"26.338"	"26.019"	"22.677"	"19.039"
"2001"	"19.438"	"22.824"	"26.407"	"28.552"	"30.976"	"27.285"	"25.876"	"26.119"	"27.2"	"25.869"	"23.577"	"19.738"
"2002"	"19.838"	"23.017"	"26.862"	"29.25"	"31.866"	"28.75"	"27.286"	"25.677"	"26.299"	"25.613"	"21.932"	"20.445"
