
"Year"	"Jan"	"Feb"	"Mar"	"Apr"	"May"	"Jun"	"Jul"	"Aug"	"Sep"	"Oct"	"Nov"	"Dec"
"1901"	"47.291"	"4.65"	"49.304"	"8.765"	"6.007"	"127.625"	"354.774"	"308.788"	"68.797"	"11.644"	"0.212"	"0.201"
"1902"	"2.67"	"0.563"	"0.072"	"3.725"	"0.245"	"43.965"	"293.746"	"178.117"	"130.339"	"58.266"	"61.402"	"17.181"
"1903"	"3.438"	"0.075"	"0.072"	"0.063"	"24.036"	"89.89"	"322.636"	"265.364"	"248.112"	"81.594"	"0.212"	"0.201"
"1904"	"0.107"	"3.183"	"22.406"	"0"	"3.25"	"76.678"	"188.036"	"142.766"	"141.425"	"27.662"	"0.212"	"24.47"
"1905"	"1.549"	"4.44"	"1.402"	"1.416"	"4.866"	"64.141"	"294.028"	"192.802"	"381.832"	"0.479"	"0.216"	"0.351"
"1906"	"0.422"	"4.537"	"19.685"	"0"	"2.572"	"262.043"	"348.204"	"293.98"	"159.067"	"1.645"	"2.097"	"12.976"
"1907"	"5.921"	"41.35"	"0.382"	"23.042"	"3.606"	"81.411"	"143.723"	"323.858"	"11.522"	"0.451"	"35.038"	"1.218"
"1908"	"3.403"	"0.734"	"24.82"	"20.795"	"0.02"	"171.109"	"319.283"	"249.764"	"91.171"	"11.604"	"1.267"	"3.55"
"1909"	"4.252"	"3.733"	"2.597"	"11.712"	"30.227"	"134.348"	"179.008"	"180.01"	"112.413"	"0.709"	"0.212"	"74.777"
"1910"	"0.399"	"0"	"0.072"	"0.368"	"1.023"	"196.53"	"172.507"	"367.947"	"243.581"	"58.938"	"165.624"	"0.201"
"1911"	"6.821"	"0.072"	"7.42"	"0"	"0.059"	"141.334"	"87.228"	"204.219"	"220.699"	"20.2"	"95.046"	"0.201"
"1912"	"1.823"	"18.969"	"0.072"	"4.211"	"0.323"	"47.782"	"291.93"	"273.033"	"144.933"	"0.573"	"79.756"	"2.323"
"1913"	"0"	"5.384"	"14.319"	"0.465"	"13.628"	"136.521"	"346.186"	"276.009"	"122.61"	"2.983"	"0.412"	"18.207"
"1914"	"0"	"7.052"	"27.36"	"23.111"	"9.55"	"155.697"	"292.609"	"157.056"	"171.395"	"2.468"	"8.254"	"8.566"
"1915"	"4.137"	"14.933"	"68.282"	"7.24"	"4.41"	"159.968"	"261.344"	"189.586"	"148.22"	"116.819"	"5.086"	"5.964"
"1916"	"0"	"4.74"	"0.074"	"0.619"	"13.495"	"279.863"	"254.633"	"313.297"	"279.818"	"109.908"	"49.038"	"0.201"
"1917"	"1.34"	"18.483"	"31.134"	"0.737"	"42.279"	"138.803"	"281.592"	"259.96"	"277.77"	"108.032"	"0.212"	"0.201"
"1918"	"0.135"	"4.181"	"5.423"	"0.354"	"17.446"	"210.154"	"105.968"	"131.093"	"34.87"	"3.828"	"19.444"	"13.058"
"1919"	"43.656"	"7.182"	"3.933"	"7.162"	"13.212"	"237.113"	"217.181"	"353.751"	"138.074"	"45.001"	"53.805"	"2.739"
"1920"	"40.573"	"0"	"4.961"	"2.149"	"5.744"	"74.22"	"224.654"	"137.861"	"92.653"	"0.45"	"0.212"	"0.201"
"1921"	"7.324"	"0.426"	"0.072"	"0.098"	"0"	"225.668"	"252.145"	"205.709"	"194.732"	"0.603"	"0.212"	"0.201"
"1922"	"31.457"	"6.444"	"0.192"	"0.291"	"0.891"	"220.072"	"260.835"	"105.174"	"356.48"	"1.153"	"61.154"	"4.271"
"1923"	"2.166"	"0.68"	"31.392"	"6.887"	"8.177"	"16.348"	"507.138"	"290.976"	"210.101"	"11.051"	"0.765"	"2.55"
"1924"	"27.993"	"1.677"	"4.854"	"1.096"	"1.019"	"59.486"	"280.405"	"262.825"	"152.218"	"93.772"	"5.723"	"23.447"
"1925"	"0"	"0"	"0.205"	"0"	"25.132"	"109.121"	"276.766"	"251.008"	"62.438"	"4.619"	"89.832"	"0.425"
"1926"	"18.609"	"2.053"	"20.515"	"21.318"	"35.591"	"31.822"	"251.326"	"473.388"	"153.479"	"47.288"	"1.273"	"0.998"
"1927"	"1.033"	"3.732"	"29.247"	"1.569"	"0.167"	"164.08"	"273.881"	"149.272"	"52.349"	"67.306"	"116.59"	"4.9"
"1928"	"1.171"	"31.378"	"11.449"	"0.745"	"0.999"	"146.74"	"434.086"	"141.501"	"103.505"	"69.837"	"0.272"	"99.765"
"1929"	"4.088"	"10.306"	"0.074"	"6.778"	"0.428"	"166.673"	"341.967"	"184.214"	"208.961"	"6.612"	"0.212"	"14.206"
"1930"	"0"	"0.207"	"0.097"	"8.174"	"1.759"	"146.053"	"424.374"	"190.631"	"104.432"	"26.837"	"32.315"	"1.134"
"1931"	"4.907"	"2.167"	"6.233"	"1.572"	"3.747"	"62.491"	"445.081"	"333.821"	"294.02"	"186.08"	"39.267"	"6.165"
"1932"	"0"	"8.054"	"58.852"	"2.183"	"1.887"	"144.077"	"545.564"	"128.641"	"177.567"	"83.164"	"4.539"	"0.201"
"1933"	"1.562"	"18.564"	"18.917"	"13.456"	"20.108"	"136.871"	"286.741"	"354.953"	"280.148"	"58.854"	"31.926"	"11.018"
"1934"	"3.956"	"0"	"1.947"	"0.987"	"0.002"	"197.538"	"228.136"	"448.887"	"364.847"	"20.639"	"48.109"	"6.48"
"1935"	"4.696"	"3.087"	"0.072"	"22.68"	"0.971"	"154.023"	"478.592"	"236.389"	"209.058"	"42.274"	"0.635"	"6.785"
"1936"	"1.295"	"10.596"	"29.433"	"4.586"	"13.338"	"269.373"	"183.916"	"171.878"	"171.98"	"19.783"	"108.724"	"0.86"
"1937"	"0"	"12.233"	"56.586"	"18.234"	"0.976"	"252.791"	"509.754"	"114.791"	"215.903"	"149.598"	"3.195"	"0.511"
"1938"	"11.537"	"0.909"	"7.755"	"3.833"	"18.381"	"364.311"	"301.877"	"270.415"	"68.872"	"173.971"	"0.212"	"0.201"
"1939"	"3.802"	"2.303"	"55.967"	"1.917"	"0"	"74.327"	"325.387"	"407.391"	"105.847"	"35.704"	"23.32"	"1.153"
"1940"	"1.081"	"6.268"	"2.002"	"4.891"	"8.825"	"143.366"	"623.26"	"378.431"	"45.98"	"54.678"	"34.027"	"12.134"
"1941"	"24.791"	"12.548"	"25.083"	"8.748"	"0.638"	"60.9"	"297.938"	"259.439"	"118.697"	"0.58"	"0.212"	"0.201"
"1942"	"4.755"	"31.042"	"1.053"	"4.484"	"4.347"	"148.381"	"525.553"	"266.05"	"193.939"	"4.588"	"0.212"	"21.117"
"1943"	"39.697"	"0.015"	"0.075"	"3.49"	"16.598"	"104.014"	"247.245"	"132.153"	"225.201"	"132.197"	"1.088"	"0.201"
"1944"	"7.395"	"28.412"	"85.517"	"3.213"	"1.501"	"134.317"	"481.311"	"574.948"	"168.46"	"148.25"	"2.149"	"1.432"
"1945"	"43.185"	"0"	"0.072"	"9.87"	"2.124"	"155.001"	"368.909"	"193.629"	"173.614"	"12.408"	"0.216"	"0.201"
"1946"	"0"	"8.273"	"0.206"	"6.513"	"2.039"	"205.209"	"236.828"	"269.862"	"55.348"	"8.022"	"96.553"	"3.003"
"1947"	"44.171"	"10.202"	"20.068"	"7.757"	"1.545"	"82.618"	"424.728"	"384.687"	"190.444"	"10.964"	"0.322"	"2.791"
"1948"	"31.314"	"1.535"	"10.162"	"2.375"	"0.508"	"298.755"	"362.767"	"309.632"	"175.177"	"24.117"	"158.068"	"0.201"
"1949"	"0"	"1.31"	"0.072"	"0.723"	"18.694"	"131.89"	"369.636"	"187.723"	"405.122"	"129.707"	"0.212"	"0.201"
"1950"	"3.304"	"6.445"	"12.603"	"0.724"	"1.134"	"91.332"	"320.316"	"93.017"	"141.027"	"4.574"	"0.296"	"40.441"
"1951"	"6.663"	"3.034"	"17.245"	"2.113"	"4.013"	"158.394"	"214.613"	"257.115"	"140.227"	"150.168"	"0.218"	"0.201"
"1952"	"0"	"4.553"	"4.359"	"7.659"	"2.021"	"125.943"	"263.095"	"162.843"	"37.946"	"9.998"	"0.212"	"3.155"
"1953"	"1.67"	"0.105"	"0.072"	"3.593"	"1.117"	"53.508"	"223.674"	"356.135"	"211.711"	"27.972"	"0.212"	"0.201"
"1954"	"7.12"	"3.402"	"6.631"	"0.909"	"0.297"	"112.759"	"373.743"	"199.289"	"397.866"	"5.681"	"0.212"	"0.201"
"1955"	"10.501"	"0"	"1.075"	"3.987"	"0.518"	"149.141"	"218.206"	"317.45"	"339.236"	"141.371"	"0.212"	"0.201"
"1956"	"1.1"	"0.054"	"0.669"	"0.255"	"19.777"	"210.56"	"393.748"	"156.812"	"153.565"	"76.145"	"143.322"	"9.02"
"1957"	"5.574"	"0"	"73.215"	"34.842"	"7.688"	"87.806"	"164.993"	"281.949"	"80.581"	"9.199"	"0.51"	"1.389"
"1958"	"1.66"	"1.072"	"4.259"	"4.516"	"8.14"	"114.501"	"284.084"	"206.063"	"132.51"	"58.041"	"50.5"	"0.201"
"1959"	"3.958"	"1.691"	"0.074"	"10.089"	"14.033"	"137.24"	"377.799"	"319.653"	"369.18"	"90.918"	"12.371"	"0.201"
"1960"	"25.487"	"0"	"14.522"	"16.8"	"3.802"	"99.26"	"306.417"	"308.042"	"36.487"	"88.836"	"0.212"	"1.885"
"1961"	"6.37"	"1.196"	"1.574"	"0.95"	"4.629"	"63.855"	"329.211"	"276.454"	"448.019"	"47.406"	"9.015"	"6.304"
"1962"	"3.129"	"3.859"	"34.341"	"12.527"	"5.217"	"48.986"	"338.99"	"279.694"	"383.926"	"2.423"	"61.78"	"54.269"
"1963"	"2.727"	"12.739"	"2.274"	"3.853"	"13.211"	"112.622"	"199.953"	"220.452"	"255.103"	"57.062"	"6.028"	"0.491"
"1964"	"0"	"0.928"	"11.1"	"0.003"	"3.011"	"163.669"	"352.743"	"298.353"	"97.533"	"6.82"	"0.444"	"0.201"
"1965"	"8.734"	"0.846"	"10.195"	"19.997"	"1.32"	"95.478"	"195.575"	"202.305"	"166.829"	"5.859"	"0.743"	"5.242"
"1966"	"5.192"	"0.092"	"12.273"	"1.435"	"17.214"	"56.023"	"235.052"	"145.946"	"100.112"	"4.167"	"52.144"	"13.542"
"1967"	"0.032"	"0"	"44.744"	"0.725"	"2.493"	"132.003"	"221.059"	"206.077"	"88.885"	"0.594"	"0.212"	"133.491"
"1968"	"9.943"	"7.361"	"35.577"	"7.307"	"0.016"	"61.599"	"318.14"	"273.814"	"148.453"	"20.453"	"0.576"	"1.887"
"1969"	"4.408"	"0.321"	"1.447"	"0"	"3.287"	"61.412"	"374.663"	"302.81"	"222.546"	"0.601"	"43.646"	"0.201"
"1970"	"9.981"	"2.99"	"28.669"	"0.656"	"22.273"	"205.013"	"176.111"	"382.368"	"301.014"	"9.461"	"0.212"	"0.201"
"1971"	"3.599"	"7.325"	"6.27"	"3.425"	"34.886"	"164.97"	"265.506"	"150.532"	"224.817"	"70.47"	"0.212"	"0.201"
"1972"	"0"	"0.53"	"0.072"	"0.93"	"0.635"	"92.12"	"190.735"	"438.416"	"69.293"	"15.28"	"13.865"	"3.936"
"1973"	"0.131"	"21.54"	"0.072"	"0.698"	"0.765"	"111.535"	"558.921"	"290.244"	"215.074"	"31.53"	"0.212"	"7.507"
"1974"	"0"	"1.386"	"0.601"	"1.303"	"17.287"	"67.812"	"164.63"	"311.922"	"49.529"	"113.043"	"2.234"	"0.201"
"1975"	"9.522"	"14.903"	"4.999"	"0"	"0.9"	"180.721"	"196.419"	"385.091"	"308.383"	"47.142"	"0.212"	"0.201"
"1976"	"3.96"	"0.025"	"8.358"	"32.515"	"11.433"	"102.355"	"280.599"	"248.3"	"227.641"	"0.449"	"66.497"	"1.421"
"1977"	"0.311"	"3.798"	"13.701"	"1.376"	"7.519"	"264.585"	"168.637"	"254.426"	"209.753"	"47.715"	"114.554"	"7.592"
"1978"	"9.331"	"43.726"	"40.81"	"20.371"	"0.902"	"181.411"	"273.402"	"364.208"	"52.965"	"11.181"	"15.609"	"36.384"
"1979"	"39.811"	"39.041"	"1.656"	"0"	"11.361"	"130.867"	"221.923"	"405.772"	"43.875"	"16.217"	"60.694"	"3.338"
"1980"	"1.644"	"1.768"	"1.068"	"1.48"	"0.135"	"146.077"	"111.331"	"289.198"	"52.955"	"1.608"	"0.248"	"27.585"
"1981"	"15.469"	"1.295"	"11.3"	"1.226"	"19.353"	"114.691"	"186.35"	"175.237"	"204.561"	"28.77"	"2.979"	"12.15"
"1982"	"67.264"	"16.121"	"4.926"	"1.727"	"9.323"	"108.106"	"244.349"	"310.133"	"108.142"	"42.774"	"38.774"	"0.351"
"1983"	"1.752"	"0.193"	"2.38"	"0.526"	"2.247"	"77.458"	"213.697"	"340.266"	"317.277"	"58.384"	"0.212"	"7.824"
"1984"	"55.742"	"33.129"	"0.158"	"0.259"	"0.586"	"90.263"	"174.295"	"528.88"	"24.774"	"58.226"	"0.219"	"0.507"
"1985"	"28.927"	"0.166"	"0.072"	"13.973"	"6.465"	"182.29"	"308.616"	"273.852"	"116.585"	"123.613"	"0.212"	"0.293"
"1986"	"3.931"	"33.857"	"11.868"	"0.337"	"6.1"	"150.79"	"362.889"	"240.304"	"52.961"	"11.982"	"1.75"	"31.647"
"1987"	"12.477"	"15.838"	"2.801"	"0"	"14.845"	"139.894"	"126.326"	"173.879"	"115.651"	"32.706"	"38.225"	"21.68"
"1988"	"0"	"0.782"	"0.552"	"7.096"	"7.5"	"148.442"	"339.968"	"244.11"	"199.616"	"63.632"	"6.209"	"1.379"
"1989"	"0.542"	"0"	"52.725"	"0"	"7.118"	"124.102"	"140.228"	"285.011"	"112.375"	"0.729"	"0.212"	"27.802"
"1990"	"0.081"	"8.453"	"3.259"	"0"	"32.82"	"189.768"	"359.689"	"415.902"	"173.113"	"56.018"	"0.49"	"14.747"
"1991"	"1.348"	"5.113"	"11.498"	"17.569"	"3.087"	"134.899"	"182.31"	"225.293"	"13.957"	"0.511"	"10.352"	"0.201"
"1992"	"0.435"	"2.837"	"0.072"	"0.309"	"21.772"	"37.134"	"72.473"	"261.17"	"279.9"	"19.171"	"1.672"	"0.201"
"1993"	"0"	"8.182"	"42.56"	"0.128"	"4.524"	"80.076"	"232.314"	"171.329"	"143.484"	"70.376"	"0.267"	"9.909"
"1994"	"9.805"	"10.108"	"22.581"	"6.491"	"9.234"	"215.643"	"361.375"	"233.374"	"161.907"	"28.178"	"8.101"	"0.201"
"1995"	"31.38"	"2.385"	"65.897"	"4.616"	"7.631"	"112.68"	"382.123"	"85.147"	"244.409"	"24.924"	"2.834"	"15.518"
"1996"	"12.73"	"4.783"	"13.914"	"16.228"	"3.711"	"31.38"	"252.419"	"320.682"	"205.565"	"88.68"	"2.705"	"0.201"
"1997"	"20.647"	"0"	"0.072"	"9.637"	"6.169"	"82.761"	"224.469"	"247.977"	"70.897"	"46.268"	"175.236"	"73.194"
"1998"	"3.245"	"1.703"	"29.497"	"0.481"	"1.228"	"76.874"	"160.553"	"258.396"	"340.435"	"30.639"	"90.681"	"0.201"
"1999"	"0.605"	"40.866"	"0.072"	"0"	"13.192"	"120.821"	"247.932"	"319.418"	"260.822"	"93.992"	"0.212"	"0.547"
"2000"	"0"	"3.185"	"0.072"	"0"	"20.272"	"115.206"	"388.791"	"152.234"	"48.14"	"2.343"	"0.212"	"0.201"
"2001"	"15.159"	"0.175"	"18.014"	"7.449"	"16.319"	"246.536"	"154.393"	"171.611"	"14.317"	"30.7"	"2.136"	"0.201"
"2002"	"3.684"	"14.934"	"8.724"	"4.346"	"7.569"	"179.581"	"54.142"	"333.689"	"143.422"	"28.068"	"12.152"	"1.379"
