
"Year"	"Jan"	"Feb"	"Mar"	"Apr"	"May"	"Jun"	"Jul"	"Aug"	"Sep"	"Oct"	"Nov"	"Dec"
"1901"	"21.631"	"24.249"	"28.115"	"31.574"	"31.992"	"32.899"	"29.434"	"28.802"	"28.989"	"28.845"	"24.317"	"21.371"
"1902"	"22.301"	"24.712"	"29.306"	"30.26"	"31.656"	"31.826"	"29.034"	"29.372"	"29.375"	"28.401"	"24.4"	"21.644"
"1903"	"22.675"	"23.788"	"28.775"	"31.846"	"32.936"	"31.206"	"29.651"	"29.032"	"28.732"	"27.914"	"24.1"	"20.644"
"1904"	"21.675"	"23.949"	"28.561"	"31.479"	"31.061"	"30.019"	"28.677"	"28.542"	"28.732"	"28.169"	"24.299"	"22.044"
"1905"	"21.633"	"22.976"	"27.374"	"29.243"	"30.859"	"33.469"	"28.976"	"29.474"	"28.732"	"28.071"	"24.417"	"21.213"
"1906"	"22.136"	"24.494"	"27.001"	"32.004"	"32.836"	"31.406"	"29.521"	"29.115"	"29.19"	"28.201"	"24.6"	"22.244"
"1907"	"22.288"	"24.864"	"27.257"	"29.157"	"30.879"	"30.44"	"29.351"	"28.229"	"28.976"	"28.388"	"25.131"	"20.93"
"1908"	"20.287"	"24.72"	"28.031"	"32.218"	"31.853"	"30.866"	"28.62"	"28.028"	"28.732"	"27.945"	"23.618"	"20.312"
"1909"	"23.201"	"24.52"	"28.715"	"28.499"	"31.456"	"29.549"	"28.321"	"28.671"	"28.633"	"27.827"	"24.779"	"21.744"
"1910"	"21.832"	"24.311"	"28.062"	"30.822"	"31.952"	"30.423"	"28.806"	"28.644"	"28.532"	"27.515"	"23.286"	"20.543"
"1911"	"23.145"	"23.707"	"27.601"	"30.288"	"31.555"	"29.492"	"29.625"	"28.328"	"28.515"	"27.87"	"24.999"	"20.818"
"1912"	"22.301"	"25.107"	"28.917"	"30.317"	"32.396"	"31.154"	"28.833"	"28.559"	"28.87"	"27.827"	"23.486"	"20.125"
"1913"	"21.088"	"24.32"	"27.5"	"30.973"	"30.877"	"29.28"	"28.721"	"28.442"	"28.933"	"27.387"	"23.399"	"21.2"
"1914"	"21.602"	"25.09"	"27.788"	"29.157"	"29.892"	"29.906"	"28.521"	"28.559"	"28.345"	"27.827"	"24.558"	"21.644"
"1915"	"22.004"	"24.52"	"27.7"	"30.912"	"31.456"	"31.192"	"29.552"	"29.433"	"28.633"	"28.701"	"25.717"	"20.857"
"1916"	"21.119"	"24.61"	"28.577"	"30.788"	"32.558"	"29.822"	"29.234"	"28.559"	"28.732"	"28.088"	"24.6"	"20.812"
"1917"	"21.018"	"23.676"	"26.658"	"30.314"	"29.774"	"29.667"	"28.994"	"28.559"	"28.506"	"27.896"	"24.2"	"21.043"
"1918"	"20.361"	"23.907"	"28.249"	"30.018"	"30.454"	"28.865"	"30.025"	"28.559"	"29.133"	"28.502"	"25.444"	"21.448"
"1919"	"22.692"	"24.176"	"28.663"	"30.961"	"31.752"	"29.766"	"28.994"	"28.359"	"28.732"	"27.896"	"24.517"	"21.03"
"1920"	"21.588"	"24.281"	"28.144"	"30.148"	"31.265"	"31.138"	"28.176"	"28.559"	"28.714"	"28.014"	"24.517"	"20.555"
"1921"	"21.474"	"23.633"	"28.689"	"30.522"	"33.832"	"30.283"	"28.721"	"28.202"	"28.202"	"26.796"	"22.882"	"21.456"
"1922"	"21.101"	"24.25"	"28.775"	"31.005"	"32.169"	"29.449"	"28.076"	"28.028"	"27.688"	"26.439"	"23.513"	"20.252"
"1923"	"20.4"	"23.55"	"26.318"	"30.335"	"32.195"	"32.311"	"28.651"	"27.902"	"28.602"	"27.387"	"23.612"	"21.057"
"1924"	"21.287"	"24.307"	"28.493"	"31.948"	"31.137"	"32.398"	"29.094"	"28.559"	"28.133"	"27.757"	"23.817"	"20.457"
"1925"	"20.461"	"23.294"	"28.161"	"30.461"	"32.065"	"30.624"	"27.889"	"28.559"	"28.575"	"27.071"	"24.016"	"19.957"
"1926"	"20.778"	"24.596"	"27.134"	"30.26"	"31.735"	"32.822"	"29.108"	"28.119"	"28.606"	"27.015"	"23"	"21.347"
"1927"	"21.981"	"24.642"	"27.762"	"31.735"	"32.196"	"31.784"	"28.721"	"28.49"	"28.732"	"27.987"	"24.016"	"21.619"
"1928"	"22.004"	"24.938"	"28.788"	"30.303"	"31.667"	"29.523"	"28.721"	"28.759"	"29.019"	"28.057"	"24.526"	"21.77"
"1929"	"22.444"	"23.42"	"28.479"	"31.317"	"32.953"	"31.073"	"28.063"	"28.229"	"28.633"	"27.058"	"23.999"	"21.558"
"1930"	"21.275"	"23.433"	"28.405"	"30.87"	"31.537"	"31.055"	"28.594"	"28.26"	"28.732"	"28.314"	"23.687"	"20.743"
"1931"	"22.589"	"24.949"	"28.656"	"31.978"	"31.939"	"32.959"	"28.578"	"28.612"	"28.933"	"27.656"	"23.999"	"21.357"
"1932"	"22.148"	"23.606"	"28.331"	"30.888"	"31.726"	"31.227"	"28.42"	"28.559"	"28.732"	"28.57"	"24.598"	"21.687"
"1933"	"20.93"	"23.936"	"28.288"	"30.443"	"30.556"	"30.223"	"28.42"	"28.434"	"28.476"	"27.844"	"24.299"	"21.388"
"1934"	"20.919"	"23.864"	"28.489"	"31.633"	"33.369"	"30.524"	"28.721"	"28.359"	"28.576"	"27.515"	"23.3"	"21.545"
"1935"	"21.192"	"24.738"	"28.561"	"30.26"	"33.61"	"31.615"	"28.49"	"28.399"	"28.659"	"28.071"	"24.217"	"21.857"
"1936"	"22.762"	"24.024"	"28.989"	"31.562"	"30.735"	"30.11"	"28.678"	"28.403"	"28.477"	"27.24"	"25.314"	"21.945"
"1937"	"20.519"	"24.21"	"27.9"	"29.827"	"31.661"	"30.581"	"28.721"	"28.504"	"28.359"	"27.456"	"24.373"	"20.63"
"1938"	"22.892"	"23.197"	"29.506"	"31.492"	"30.693"	"29.22"	"28.364"	"28.217"	"28.602"	"27.542"	"23.243"	"20.73"
"1939"	"21.863"	"24.791"	"27.857"	"31.574"	"32.409"	"30.659"	"28.064"	"28.489"	"28.434"	"28.187"	"23.869"	"21.199"
"1940"	"20.206"	"23.924"	"26.961"	"31.26"	"30.966"	"30.624"	"28.165"	"28.303"	"28.767"	"28.114"	"26.174"	"21.788"
"1941"	"22.531"	"24.706"	"29.177"	"32.163"	"31.998"	"30.381"	"28.664"	"28.972"	"28.778"	"27.688"	"23.274"	"22.431"
"1942"	"21.892"	"24.379"	"29.146"	"30.662"	"33.387"	"32.055"	"28.678"	"28.159"	"28.189"	"27.857"	"24.074"	"21.588"
"1943"	"22.462"	"22.664"	"28.105"	"29.587"	"32.226"	"31.211"	"28.694"	"27.93"	"28.633"	"28.231"	"24.616"	"21.774"
"1944"	"22.119"	"23.467"	"27.157"	"29.26"	"32.744"	"31.625"	"28.62"	"28.402"	"29.133"	"27.804"	"24.348"	"22.837"
"1945"	"20.99"	"24.193"	"29.237"	"30.29"	"32.713"	"32.111"	"29.151"	"29.134"	"28.976"	"27.444"	"24.075"	"20.555"
"1946"	"21.163"	"25.452"	"29.117"	"28.767"	"30.961"	"30.136"	"28.62"	"28.403"	"28.575"	"27.718"	"25.587"	"22.701"
"1947"	"22.362"	"24.214"	"28.761"	"32.505"	"32.796"	"31.251"	"28.792"	"28.552"	"28.989"	"27.672"	"24.745"	"21.573"
"1948"	"22.333"	"24.637"	"27.96"	"30.779"	"31.893"	"31.811"	"28.8"	"28.612"	"28.559"	"27.931"	"25.399"	"20.657"
"1949"	"22.162"	"24.264"	"28.887"	"30.331"	"31.091"	"31.471"	"29.094"	"28.329"	"28.552"	"28.257"	"23.26"	"21.375"
"1950"	"22.007"	"24.408"	"27.415"	"31.246"	"32.105"	"30.377"	"28.308"	"28.402"	"28.675"	"27.669"	"23.544"	"20.915"
"1951"	"20.963"	"24.423"	"28.132"	"30.228"	"32.15"	"31.041"	"28.962"	"28.903"	"29.477"	"28.602"	"24.686"	"21.984"
"1952"	"22.207"	"25.252"	"27.381"	"30.478"	"31.992"	"31.638"	"28.721"	"28.312"	"28.73"	"27.757"	"24.544"	"22.576"
"1953"	"21.919"	"25.839"	"30.493"	"32.545"	"33.342"	"31.211"	"29.134"	"28.517"	"28.785"	"28.214"	"24.243"	"22.372"
"1954"	"21.145"	"26.209"	"28.243"	"32.605"	"32.294"	"29.82"	"29.486"	"28.941"	"28.412"	"27.156"	"23.269"	"21.896"
"1955"	"21.49"	"25.211"	"28.908"	"31.043"	"31.894"	"31.424"	"28.678"	"28.671"	"28.547"	"27.43"	"23.999"	"21.406"
"1956"	"22.846"	"23.48"	"28.978"	"31.862"	"31.697"	"28.536"	"28.447"	"28.559"	"28.477"	"27.341"	"24.156"	"22.172"
"1957"	"22.918"	"24.393"	"27.304"	"31.387"	"33.873"	"32.511"	"28.947"	"28.885"	"28.959"	"28.445"	"25.03"	"22.944"
"1958"	"23.69"	"25.281"	"28.632"	"31.978"	"33.402"	"33.186"	"28.765"	"29.042"	"28.659"	"28.359"	"25.27"	"22.589"
"1959"	"22.462"	"24.667"	"28.761"	"31.332"	"32.896"	"30.736"	"29.064"	"28.361"	"28.451"	"27.475"	"23.875"	"21.173"
"1960"	"21.331"	"25.169"	"27.644"	"32.062"	"32.979"	"31.581"	"28.463"	"28.673"	"29.463"	"28.127"	"24.273"	"22.817"
"1961"	"22.205"	"22.662"	"29.59"	"31.862"	"32.37"	"30.607"	"28.364"	"28.917"	"27.961"	"27.184"	"23.669"	"19.986"
"1962"	"20.089"	"24.224"	"28.314"	"30.613"	"32.455"	"30.524"	"29.321"	"28.612"	"29.032"	"27.456"	"24.261"	"22.188"
"1963"	"20.845"	"25.551"	"28.489"	"30.431"	"31.009"	"30.624"	"28.721"	"28.959"	"28.82"	"27.915"	"25.679"	"22.117"
"1964"	"23.216"	"25.565"	"29.763"	"31.061"	"31.693"	"31.897"	"28.321"	"28.403"	"28.87"	"28.189"	"25.1"	"22.088"
"1965"	"22.221"	"24.738"	"27.618"	"30.303"	"32.328"	"32.073"	"28.395"	"28.559"	"28.549"	"27.806"	"25.019"	"21.942"
"1966"	"21.075"	"25.551"	"28.376"	"30.462"	"33.296"	"30.528"	"29.668"	"29.603"	"29.565"	"28.073"	"26.232"	"21.69"
"1967"	"21.605"	"25.857"	"27.431"	"30.385"	"32.566"	"32.211"	"29.308"	"28.559"	"28.647"	"28.201"	"24.905"	"24.163"
"1968"	"22.407"	"24.8"	"28.813"	"30.978"	"32.502"	"29.983"	"29.323"	"28.532"	"29.021"	"27.157"	"24.243"	"21.856"
"1969"	"22.193"	"26.725"	"30.062"	"31.691"	"31.361"	"31.682"	"28.976"	"28.515"	"28.933"	"28.857"	"25.931"	"22.144"
"1970"	"22.549"	"25.983"	"28.644"	"31.005"	"32.097"	"30.124"	"28.721"	"28.917"	"28.633"	"27.871"	"23.812"	"20.555"
"1971"	"22.004"	"24.238"	"27.204"	"28.211"	"28.692"	"28.718"	"27.477"	"27.028"	"28.559"	"27.97"	"25.143"	"21.357"
"1972"	"22.461"	"23.48"	"29.032"	"31.361"	"33.493"	"32.797"	"29.292"	"28.902"	"29.007"	"28.527"	"25.581"	"23.313"
"1973"	"24.115"	"26.149"	"28.199"	"32.227"	"31.422"	"31.678"	"28.875"	"28.671"	"28.644"	"27.87"	"24.168"	"21.26"
"1974"	"22.461"	"24.694"	"28.401"	"30.761"	"31.351"	"31.254"	"28.748"	"29.346"	"29.105"	"28.212"	"24.864"	"20.671"
"1975"	"20.931"	"24.694"	"28.563"	"30.737"	"32.153"	"30.593"	"28.221"	"28.391"	"28.109"	"28.376"	"23.386"	"20.63"
"1976"	"21.195"	"24.954"	"28.856"	"30.286"	"30.691"	"30.736"	"28.704"	"28.204"	"28.671"	"28.739"	"26.562"	"22.138"
"1977"	"21.719"	"24.773"	"29.265"	"29.695"	"29.735"	"29.779"	"28.637"	"28.697"	"28.842"	"27.765"	"25.744"	"21.362"
"1978"	"21.155"	"24.263"	"27.544"	"29.687"	"31.735"	"30.624"	"28.49"	"28.204"	"28.447"	"28.314"	"25.918"	"22.044"
"1979"	"22.662"	"23.78"	"27.943"	"30.673"	"32.499"	"30.387"	"29.989"	"29.141"	"28.095"	"28.582"	"26.762"	"22.244"
"1980"	"22.407"	"25.462"	"28.019"	"31.431"	"31.266"	"29.178"	"27.877"	"27.89"	"29.233"	"27.515"	"24.911"	"22.294"
"1981"	"21.501"	"25.566"	"27.862"	"29.856"	"30.346"	"30.954"	"28.836"	"28.862"	"28.622"	"28.458"	"25.199"	"21.691"
"1982"	"23.381"	"25.268"	"27.5"	"30.491"	"32.44"	"30.842"	"30.569"	"28.403"	"29.477"	"29.058"	"25.76"	"22.862"
"1983"	"22.762"	"24.494"	"28.719"	"30.413"	"31.222"	"31.972"	"29.521"	"28.875"	"29.032"	"27.914"	"25.1"	"21.462"
"1984"	"22.123"	"23.836"	"28.844"	"31.278"	"32.127"	"29.923"	"28.994"	"28.559"	"28.933"	"28.471"	"24.324"	"22.599"
"1985"	"22.518"	"24.564"	"28.828"	"30.644"	"30.145"	"30.037"	"27.277"	"27.129"	"28.732"	"25.866"	"23.557"	"21.903"
"1986"	"20.545"	"24.15"	"27.853"	"29.429"	"29.544"	"29.493"	"27.934"	"28.181"	"28.003"	"26.469"	"23.926"	"21.427"
"1987"	"20.386"	"23.308"	"26.596"	"29.27"	"30.417"	"30.663"	"27.984"	"27.925"	"28.241"	"27.215"	"23.469"	"20.401"
"1988"	"20.606"	"23.478"	"27.097"	"28.984"	"29.648"	"28.303"	"27.819"	"29.389"	"29.35"	"28.631"	"25.46"	"23.362"
"1989"	"21.778"	"25.401"	"28.693"	"31.821"	"31.804"	"30.176"	"29.22"	"28.802"	"28.817"	"28.463"	"25.1"	"21.532"
"1990"	"23.206"	"25.023"	"26.435"	"29.629"	"30.248"	"30.377"	"28.562"	"29.021"	"28.719"	"27.213"	"25.114"	"21.931"
"1991"	"21.725"	"26.324"	"29.388"	"30.812"	"31.76"	"30.567"	"29.489"	"29.283"	"29.502"	"27.945"	"24.144"	"21.363"
"1992"	"21.344"	"24.362"	"28.526"	"31.118"	"31.253"	"30.949"	"29.051"	"28.759"	"28.989"	"28.278"	"25.08"	"21.388"
"1993"	"22.419"	"25.014"	"27.6"	"29.861"	"31.11"	"30.555"	"29.151"	"29.071"	"28.549"	"28.187"	"25.111"	"21.981"
"1994"	"22.494"	"24.411"	"29.005"	"30.231"	"32.203"	"30.549"	"28.721"	"28.502"	"28.983"	"28.172"	"24.812"	"21.798"
"1995"	"21.2"	"24.537"	"28.344"	"31.28"	"31.441"	"31.204"	"28.721"	"29.46"	"28.933"	"27.914"	"24.985"	"22.345"
"1996"	"22.694"	"24.544"	"29.149"	"30.373"	"32.724"	"30.192"	"29.638"	"28.252"	"29.351"	"27.715"	"25.1"	"21.843"
"1997"	"21.4"	"24.361"	"28.675"	"28.956"	"31.577"	"31.598"	"29.193"	"28.759"	"28.651"	"28.014"	"26.193"	"22.524"
"1998"	"21.593"	"25.138"	"27.276"	"30.533"	"32.123"	"31.917"	"29.214"	"29.178"	"29.108"	"28.989"	"26.083"	"22.19"
"1999"	"21.832"	"26.138"	"29.638"	"32.432"	"31.272"	"30.506"	"28.875"	"28.714"	"28.614"	"28.37"	"24.933"	"22.487"
"2000"	"22.868"	"24.619"	"28.455"	"31.387"	"31.446"	"30.231"	"28.783"	"29.203"	"29.057"	"28.302"	"25.685"	"21.656"
"2001"	"21.732"	"25.762"	"28.801"	"31.249"	"31.76"	"29.813"	"28.813"	"29.127"	"29.857"	"28.77"	"26.219"	"22.17"
"2002"	"22.883"	"25.723"	"29.288"	"30.73"	"32.209"	"30.581"	"29.452"	"28.627"	"29.156"	"28.314"	"24.943"	"22.32"
