
"Year"	"Jan"	"Feb"	"Mar"	"Apr"	"May"	"Jun"	"Jul"	"Aug"	"Sep"	"Oct"	"Nov"	"Dec"
"1901"	"27.43"	"73.698"	"3.292"	"19.574"	"103.178"	"117.859"	"230.442"	"252.334"	"381.087"	"79.191"	"115.443"	"0.325"
"1902"	"10.916"	"1.343"	"21.583"	"66.525"	"111.681"	"170.979"	"299.76"	"368.577"	"203.753"	"86.36"	"1.665"	"28.689"
"1903"	"7.174"	"42.299"	"11.404"	"18.286"	"26.389"	"171.478"	"295.008"	"223.819"	"290.433"	"177.137"	"13.962"	"1.366"
"1904"	"0.339"	"28.49"	"40.775"	"3.883"	"171.453"	"244.06"	"368.398"	"335.409"	"196.84"	"73.005"	"2.432"	"5.313"
"1905"	"11.434"	"27.646"	"80.326"	"114.146"	"180.49"	"60.141"	"424.826"	"237.91"	"339.909"	"93.402"	"0.948"	"0.325"
"1906"	"17.584"	"94.471"	"48.043"	"0.404"	"40.15"	"172.587"	"292.35"	"297.86"	"191.795"	"130.488"	"23.155"	"1.145"
"1907"	"0.339"	"12.404"	"73.483"	"101.448"	"74.75"	"238.91"	"160.603"	"278.024"	"95.857"	"33.661"	"2.104"	"24.225"
"1908"	"20.292"	"2.388"	"0.729"	"7.513"	"75.221"	"439.533"	"393.355"	"373.789"	"238.922"	"47.994"	"1.466"	"0.17"
"1909"	"0.643"	"29.718"	"0.3"	"105.028"	"49.304"	"253.87"	"226.192"	"341.718"	"209.848"	"65.765"	"2.934"	"20.338"
"1910"	"23.832"	"6.474"	"11.251"	"18.1"	"52.771"	"222.945"	"358.025"	"408.173"	"234.247"	"198.235"	"1.802"	"0.128"
"1911"	"0.138"	"3.16"	"33.21"	"21.778"	"42.852"	"324.882"	"136.211"	"222.414"	"307.279"	"71.562"	"6.457"	"0.24"
"1912"	"0.339"	"38.66"	"76.269"	"31.853"	"58.984"	"189.294"	"270.944"	"321.513"	"195.401"	"104.863"	"120.547"	"0"
"1913"	"0.855"	"62.154"	"15.845"	"17.822"	"93.777"	"283.138"	"347.729"	"250.403"	"136.314"	"196.984"	"22.05"	"3.52"
"1914"	"0"	"57.658"	"8.34"	"87.354"	"114.257"	"219.822"	"305.733"	"216.228"	"332.428"	"9.69"	"0.526"	"18.152"
"1915"	"5.572"	"24.941"	"79.268"	"48.268"	"80.71"	"212.894"	"241.496"	"474.18"	"260.035"	"143.295"	"75.064"	"0.325"
"1916"	"0.339"	"0.51"	"0.3"	"19.199"	"41.644"	"435.108"	"211.506"	"378.256"	"283.916"	"342.805"	"86.589"	"0.128"
"1917"	"0.035"	"117.25"	"27.161"	"26.742"	"119.906"	"270.229"	"242.144"	"408.655"	"182.848"	"316.89"	"12.915"	"0.325"
"1918"	"0.433"	"0.403"	"18.149"	"51.75"	"121.773"	"305.417"	"186.084"	"284.404"	"226.781"	"13.499"	"1.381"	"4.823"
"1919"	"50.849"	"25.028"	"9.1"	"45.356"	"56.745"	"250.452"	"312.989"	"490.225"	"91.334"	"82.242"	"74.718"	"0.282"
"1920"	"0.381"	"27.453"	"106.722"	"0.94"	"46.625"	"139.053"	"255.485"	"391.514"	"201.257"	"150.942"	"0.889"	"0.085"
"1921"	"58.878"	"5.519"	"10.524"	"46.059"	"28.994"	"240.439"	"236.801"	"335.456"	"236.66"	"71.226"	"1.104"	"0.325"
"1922"	"7.536"	"7.7"	"0.3"	"13.358"	"29.878"	"338.371"	"255.672"	"406.423"	"386.284"	"61.129"	"19.022"	"0.17"
"1923"	"0.491"	"120.04"	"22.115"	"18.494"	"27.527"	"114.089"	"279.885"	"320.959"	"199.746"	"158.832"	"43.676"	"10.5"
"1924"	"20.247"	"14.495"	"0.3"	"6.132"	"35.322"	"82.24"	"194.541"	"324.339"	"334.642"	"100.565"	"68.065"	"0.128"
"1925"	"6.488"	"3.224"	"12.382"	"75.498"	"136.041"	"430.347"	"361.847"	"271.613"	"152.995"	"269.192"	"6.133"	"21.841"
"1926"	"8.244"	"12.086"	"97.075"	"43.649"	"56.68"	"131.128"	"420.629"	"426.629"	"268.322"	"100.231"	"0.573"	"6.068"
"1927"	"2.941"	"16.191"	"80.903"	"22.209"	"56.972"	"154.478"	"241.746"	"295.839"	"221.855"	"62.622"	"8.617"	"0.282"
"1928"	"2.466"	"1.146"	"1.917"	"72.901"	"108.037"	"299.366"	"395.858"	"400.823"	"238.192"	"215.124"	"5.246"	"0"
"1929"	"8.974"	"35.404"	"37.013"	"37.382"	"53.065"	"138.002"	"189.819"	"378.881"	"201.785"	"300.831"	"0.709"	"8.61"
"1930"	"0.438"	"20.997"	"6.32"	"21.288"	"146.324"	"208.042"	"439.858"	"334.125"	"208.181"	"68.572"	"77.102"	"0.352"
"1931"	"3.156"	"34.456"	"22.878"	"19.238"	"88.015"	"136.409"	"253.41"	"290.276"	"281.139"	"241.561"	"32.396"	"5.808"
"1932"	"0.128"	"15.912"	"9.926"	"52.723"	"135.844"	"91.337"	"235.477"	"269.113"	"220.918"	"92.157"	"109.939"	"0.128"
"1933"	"25.472"	"25.667"	"6.005"	"43.445"	"96.095"	"306.775"	"363.616"	"305.828"	"252.766"	"233.029"	"4.394"	"0"
"1934"	"0.157"	"11.67"	"3.929"	"20.978"	"27.175"	"222.868"	"272.122"	"365.476"	"234.378"	"125.444"	"13.188"	"2.522"
"1935"	"4.873"	"19.387"	"14.473"	"39.142"	"11.632"	"128.005"	"163.745"	"235.158"	"154.039"	"60.677"	"0.765"	"1.721"
"1936"	"6.895"	"52.941"	"7.805"	"11.344"	"168.925"	"431.225"	"297.547"	"265.121"	"320.795"	"157.178"	"15.429"	"9.86"
"1937"	"0.381"	"94.35"	"11.507"	"44.192"	"75.591"	"262.779"	"229.024"	"313.118"	"230.545"	"200.449"	"2.298"	"1.377"
"1938"	"8.34"	"17.323"	"7.519"	"0.995"	"215.392"	"197.488"	"135.704"	"243.464"	"261.362"	"118.641"	"4.474"	"0.085"
"1939"	"8.773"	"15.655"	"42.339"	"17.402"	"34.432"	"171.461"	"297.174"	"438.035"	"306.655"	"241.148"	"9.237"	"2.73"
"1940"	"0"	"25.401"	"153.671"	"13.649"	"147.463"	"266.139"	"249.039"	"339.011"	"293.482"	"104.059"	"2.619"	"2.471"
"1941"	"29.077"	"0.924"	"1.664"	"9.978"	"67.475"	"278.149"	"254.105"	"430.478"	"209.271"	"283.471"	"60.258"	"0.24"
"1942"	"1.131"	"16.745"	"4.07"	"45.003"	"12.914"	"100.459"	"280.58"	"338.903"	"350.483"	"171.202"	"27.475"	"0.213"
"1943"	"37.474"	"14.338"	"9.781"	"115.814"	"20.022"	"185.75"	"355.891"	"361.4"	"150.537"	"140.336"	"8.673"	"0.128"
"1944"	"31.484"	"55.899"	"93.105"	"48.064"	"51.262"	"185.425"	"257.119"	"378.801"	"175.805"	"142.664"	"2.76"	"0.24"
"1945"	"11.408"	"5.162"	"7.762"	"101.992"	"52.583"	"106.987"	"232.149"	"162.353"	"276.698"	"283.875"	"1.005"	"16.305"
"1946"	"0.381"	"5.279"	"6.148"	"39.388"	"81.931"	"284.206"	"275.904"	"302.843"	"304.297"	"194.5"	"88.927"	"0.325"
"1947"	"22.302"	"64.758"	"20.485"	"11.16"	"55.538"	"262.447"	"379.653"	"341.992"	"321.891"	"103.377"	"0.948"	"25.076"
"1948"	"18.86"	"101.63"	"72.2"	"56.753"	"53.57"	"181.176"	"230.518"	"318.327"	"210.659"	"138.399"	"79.142"	"0"
"1949"	"0.747"	"7.514"	"19.514"	"73.727"	"146.413"	"156.504"	"253.715"	"258.226"	"376.629"	"159.097"	"1.104"	"0"
"1950"	"0"	"19.056"	"21.369"	"39.784"	"52.423"	"223.533"	"264.152"	"170.356"	"126.55"	"154.296"	"116.159"	"0.07"
"1951"	"0.105"	"0.318"	"61.068"	"45.502"	"56.478"	"171.008"	"416.246"	"369.876"	"296.807"	"72.597"	"62.588"	"1.885"
"1952"	"1.021"	"3.275"	"29.031"	"110.281"	"42.254"	"241.963"	"328.939"	"250.497"	"194.673"	"200.338"	"2.016"	"0"
"1953"	"24.596"	"4.166"	"0.3"	"1.804"	"23.522"	"147.249"	"123.121"	"400.738"	"325.589"	"99.059"	"87.776"	"0"
"1954"	"5.167"	"37.626"	"0.335"	"4.118"	"93.566"	"302.867"	"114.568"	"213.37"	"294.454"	"136.894"	"1.104"	"16.59"
"1955"	"0.663"	"0.579"	"20.136"	"25.466"	"139.565"	"189.137"	"156.527"	"327.143"	"423.288"	"366.228"	"83.339"	"0.085"
"1956"	"1.961"	"55.717"	"25.44"	"27.284"	"134.623"	"414.408"	"441.429"	"442.492"	"380.345"	"234.177"	"27.491"	"0.052"
"1957"	"25.7"	"24.367"	"23.847"	"20.468"	"5.056"	"103.727"	"303.811"	"354.068"	"148.132"	"123.718"	"1.104"	"0"
"1958"	"20.055"	"75.147"	"5.312"	"68.962"	"10.622"	"161.555"	"366.124"	"211.469"	"270.642"	"144.659"	"91.528"	"0.325"
"1959"	"17.305"	"21.555"	"5.681"	"37.513"	"124.31"	"222.156"	"262.665"	"195.571"	"252.516"	"310.982"	"0.257"	"9.922"
"1960"	"0.381"	"0.318"	"28.873"	"1.538"	"67.13"	"164.217"	"502.237"	"330.733"	"145.607"	"111.114"	"3.482"	"4.779"
"1961"	"37.747"	"87.019"	"2.819"	"4.751"	"98.424"	"177.845"	"149.56"	"388.439"	"434.863"	"166.341"	"0.906"	"0.052"
"1962"	"2.41"	"13.359"	"1.47"	"24.172"	"18.958"	"183.723"	"319.672"	"187.233"	"273.118"	"270.949"	"0.257"	"0"
"1963"	"0"	"0.37"	"12.239"	"106.723"	"154.725"	"171.357"	"274.629"	"215.979"	"261.773"	"240.984"	"8.507"	"0"
"1964"	"0.657"	"30.154"	"18.913"	"47.083"	"96.244"	"72.423"	"432.08"	"359.999"	"261.948"	"93.798"	"6.682"	"0"
"1965"	"5.846"	"39.901"	"30.096"	"39.456"	"17.479"	"133.488"	"394.278"	"390.064"	"282.312"	"111.468"	"0.709"	"6.773"
"1966"	"55.855"	"21.668"	"3.432"	"3.727"	"9.654"	"231.676"	"149.071"	"255.05"	"297.942"	"91.457"	"87.585"	"2.948"
"1967"	"46.663"	"0.318"	"108.33"	"23.272"	"18.746"	"212.19"	"262.38"	"302.174"	"350.082"	"83.064"	"0.257"	"1.699"
"1968"	"20.907"	"54.837"	"18.013"	"8.804"	"20.045"	"317.679"	"400.502"	"382.335"	"277.746"	"159.644"	"49.926"	"0"
"1969"	"3.804"	"0.457"	"35.123"	"56.935"	"43.083"	"93.489"	"311.33"	"308.064"	"242.264"	"96.383"	"44.023"	"1.169"
"1970"	"3.226"	"63.313"	"93.48"	"15.146"	"98.077"	"373.445"	"233.183"	"322.712"	"97.791"	"181.365"	"18.518"	"0"
"1971"	"31.106"	"109.925"	"8.081"	"119.205"	"86.986"	"482.29"	"337.982"	"424.056"	"184.262"	"202.741"	"7.041"	"0"
"1972"	"0.139"	"28.124"	"0.647"	"22.496"	"7.963"	"72.218"	"234.389"	"402.994"	"317.647"	"132.693"	"11.214"	"0"
"1973"	"0.659"	"9.428"	"41.209"	"16.878"	"115.253"	"93.894"	"216.075"	"374.637"	"195.264"	"192.82"	"35.713"	"50.543"
"1974"	"0.917"	"0.318"	"123.459"	"10.119"	"57.634"	"123.864"	"267.57"	"336.535"	"212.892"	"291.41"	"19.211"	"0"
"1975"	"1.505"	"10.769"	"2.94"	"5.089"	"37.356"	"277.88"	"270.215"	"332.086"	"253.951"	"249.709"	"50.599"	"1.97"
"1976"	"0"	"13.417"	"11.025"	"68.221"	"96.913"	"101.554"	"392.967"	"383.508"	"197.631"	"40.638"	"47.336"	"0"
"1977"	"0.978"	"15.139"	"0.3"	"48.713"	"141.285"	"242.631"	"358.519"	"317.725"	"272.504"	"99.261"	"48.471"	"9.509"
"1978"	"0"	"15.968"	"37.63"	"47.105"	"110.186"	"136.232"	"386.358"	"371.158"	"308.828"	"131.257"	"18.995"	"47.532"
"1979"	"5.636"	"27.85"	"8.25"	"37.697"	"9.972"	"130.704"	"276.483"	"212.121"	"171.579"	"63.671"	"0.763"	"14.881"
"1980"	"45.809"	"63.146"	"63.296"	"5.773"	"58.863"	"279.107"	"322.457"	"365.334"	"262.945"	"141.54"	"0.696"	"18.276"
"1981"	"15.451"	"36.846"	"72.087"	"66.178"	"113.777"	"130.863"	"308.985"	"329.313"	"350.25"	"18.076"	"0.932"	"7.337"
"1982"	"0.283"	"15.777"	"26.614"	"88.641"	"19.98"	"119.842"	"278.443"	"372.44"	"160.209"	"111.512"	"21.335"	"0.17"
"1983"	"1.801"	"67.448"	"48.358"	"16.832"	"82.19"	"222.405"	"236.081"	"331.989"	"138.665"	"212.504"	"2.509"	"7.617"
"1984"	"25.987"	"18.594"	"0.79"	"32.569"	"71.38"	"497.03"	"328.834"	"401.287"	"124.512"	"82.981"	"2.624"	"1.966"
"1985"	"17.593"	"4.666"	"1.092"	"22.484"	"33.975"	"233.029"	"382.426"	"268.756"	"182.631"	"199.254"	"5.538"	"0.606"
"1986"	"21.34"	"21.059"	"3.253"	"32.554"	"74.794"	"178.082"	"330.924"	"351.036"	"574.636"	"116.925"	"123.456"	"7.104"
"1987"	"3.378"	"13.62"	"50.451"	"52.199"	"68.219"	"87.336"	"301.03"	"433.592"	"138.769"	"129.073"	"71.108"	"6.108"
"1988"	"0.087"	"26.179"	"7.293"	"28.85"	"97.039"	"124.429"	"365.208"	"371.743"	"305.057"	"134.578"	"16.426"	"6.051"
"1989"	"0.211"	"4.846"	"33.706"	"3.257"	"195.336"	"273.574"	"397.022"	"257.901"	"189.236"	"209.86"	"0.466"	"0.43"
"1990"	"0"	"52.635"	"93.449"	"28.763"	"149.329"	"237.422"	"560.576"	"328.882"	"215.787"	"185.185"	"35.357"	"8.993"
"1991"	"19.186"	"8.615"	"32.011"	"6.011"	"32.19"	"172.249"	"294.036"	"351.817"	"214.921"	"183.168"	"18.699"	"27.007"
"1992"	"12.707"	"11.978"	"0.3"	"4.867"	"235.557"	"200.603"	"401.291"	"262.429"	"223.889"	"90.341"	"28.87"	"0"
"1993"	"2.044"	"0.775"	"51.951"	"70.073"	"80.298"	"384.936"	"328.354"	"350.925"	"274.439"	"241.567"	"20.685"	"0"
"1994"	"2.428"	"47.074"	"68.299"	"39.441"	"40.811"	"187.831"	"400.304"	"333.5"	"272.59"	"270.46"	"14.545"	"0"
"1995"	"19.54"	"22.208"	"27.311"	"19.47"	"79.684"	"130.427"	"333.17"	"237.415"	"295.452"	"290.726"	"50.076"	"0"
"1996"	"3.302"	"13.61"	"8.649"	"43.882"	"53.903"	"220.864"	"161.477"	"445.58"	"99.832"	"200.702"	"5.271"	"3.935"
"1997"	"25.901"	"17.204"	"78.299"	"68.259"	"35.384"	"188.064"	"457.357"	"351.597"	"349.893"	"77.81"	"20.008"	"20.952"
"1998"	"31.02"	"117.42"	"22.483"	"35.418"	"45.864"	"248.049"	"314.355"	"244.59"	"316.33"	"344.37"	"69.499"	"0"
"1999"	"0.155"	"0.318"	"0.3"	"0.362"	"196.43"	"222.624"	"220.066"	"485.768"	"303.527"	"119.579"	"29.862"	"0.629"
"2000"	"0.595"	"85.665"	"0.3"	"49.771"	"126.597"	"317.859"	"212.051"	"320.452"	"119.145"	"78.487"	"18.744"	"1.613"
"2001"	"0.035"	"4.666"	"39.229"	"25.246"	"122.913"	"432.629"	"186.645"	"317.532"	"170.094"	"196.523"	"38.903"	"1.27"
"2002"	"31.643"	"15.746"	"2.071"	"75.263"	"120.744"	"238.133"	"282.237"	"415.07"	"247.646"	"61.88"	"22.586"	"0"
