
"Year"	"Jan"	"Feb"	"Mar"	"Apr"	"May"	"Jun"	"Jul"	"Aug"	"Sep"	"Oct"	"Nov"	"Dec"
"1901"	"15.297"	"19.298"	"24.236"	"30.011"	"30.32"	"30.822"	"28.475"	"28.098"	"27.537"	"26.637"	"20.903"	"16.838"
"1902"	"17.237"	"19.375"	"25.936"	"28.148"	"30.12"	"30.122"	"27.937"	"28.398"	"27.637"	"25.438"	"20.465"	"16.163"
"1903"	"16.374"	"18.497"	"24.175"	"29.709"	"31.694"	"29.522"	"29.135"	"27.936"	"27.699"	"25.864"	"20.227"	"16.063"
"1904"	"16.138"	"19.097"	"24.937"	"30.383"	"29.32"	"28.947"	"27.437"	"27.86"	"27.699"	"25.699"	"20.166"	"17.2"
"1905"	"15.438"	"15.66"	"22.338"	"26.472"	"28.721"	"31.42"	"27.937"	"27.498"	"27.3"	"25.9"	"20.866"	"16.565"
"1906"	"15.799"	"18.238"	"22.398"	"30.009"	"31.057"	"30.084"	"28.338"	"27.636"	"28.137"	"25.701"	"20.965"	"17.162"
"1907"	"17.337"	"18.436"	"22.038"	"26.911"	"29.92"	"29.922"	"28.236"	"28.337"	"27.835"	"25.998"	"20.665"	"16.462"
"1908"	"14.963"	"18.737"	"24.835"	"31.846"	"31.157"	"30.022"	"28.099"	"28.235"	"27.837"	"26.3"	"20.327"	"15.862"
"1909"	"17.235"	"19.035"	"25.975"	"27.473"	"31.057"	"28.647"	"28.137"	"27.298"	"27.999"	"25.999"	"21.228"	"17.162"
"1910"	"15.762"	"18.797"	"24.674"	"29.648"	"30.456"	"29.085"	"27.637"	"27.934"	"27.937"	"25.701"	"20.166"	"16.063"
"1911"	"17.639"	"18.337"	"23.338"	"29.209"	"31.194"	"28.947"	"28.874"	"27.896"	"27.337"	"25.538"	"20.625"	"15.463"
"1912"	"16.56"	"19.996"	"24.211"	"27.546"	"29.721"	"30.122"	"27.835"	"27.896"	"27.701"	"25.701"	"19.928"	"16.164"
"1913"	"15.899"	"18.798"	"22.737"	"30.647"	"29.258"	"27.748"	"28.238"	"27.598"	"27.875"	"25.263"	"19.727"	"16.062"
"1914"	"16.437"	"19.298"	"23.899"	"27.009"	"29.483"	"28.986"	"27.838"	"27.697"	"27.636"	"24.7"	"20.665"	"17.163"
"1915"	"16.902"	"18.998"	"23.537"	"28.986"	"30.357"	"29.085"	"28.975"	"28.497"	"27.775"	"27.5"	"22.627"	"16.864"
"1916"	"16.1"	"19.299"	"26.273"	"29.447"	"33.094"	"28.748"	"28.036"	"28.037"	"27.837"	"26.037"	"20.866"	"15.963"
"1917"	"15.7"	"18.798"	"23.536"	"28.273"	"28.41"	"28.986"	"28.137"	"27.999"	"27.338"	"25.6"	"20.627"	"16.326"
"1918"	"15.1"	"18.836"	"25.136"	"28.072"	"29.884"	"28.048"	"29.272"	"27.298"	"27.975"	"25.999"	"20.765"	"16.164"
"1919"	"17.1"	"18.061"	"25.339"	"28.473"	"30.52"	"29.386"	"28.238"	"28.299"	"27.537"	"25.701"	"21.029"	"16.626"
"1920"	"16.801"	"18.836"	"23.636"	"29.247"	"30.32"	"30.923"	"28.538"	"28.098"	"27.575"	"26.3"	"21.166"	"16.966"
"1921"	"17.098"	"18.936"	"25.773"	"30.145"	"32.695"	"30.221"	"28.475"	"27.898"	"27.638"	"24.999"	"20.166"	"16.79"
"1922"	"16.739"	"19.698"	"25.736"	"30.511"	"32.158"	"28.546"	"28.137"	"27.66"	"27.237"	"24.901"	"20.727"	"16.764"
"1923"	"16.562"	"18.836"	"24.637"	"30.046"	"31.256"	"30.96"	"28.238"	"28.037"	"27.937"	"25.4"	"20.766"	"17.363"
"1924"	"16.499"	"19.299"	"26.536"	"30.51"	"31.219"	"31.76"	"28.137"	"27.999"	"27.137"	"26.201"	"20.526"	"16.902"
"1925"	"15.099"	"17.601"	"24.335"	"28.41"	"30.057"	"29.547"	"27.799"	"28.198"	"27.636"	"25.2"	"20.526"	"16.338"
"1926"	"16.299"	"19.637"	"23.437"	"27.711"	"30.32"	"32.558"	"28.236"	"27.999"	"27.637"	"25.663"	"19.827"	"17.363"
"1927"	"16.201"	"18.835"	"22.773"	"29.648"	"29.621"	"30.521"	"28.338"	"27.997"	"27.936"	"26.2"	"21.103"	"17.363"
"1928"	"16.3"	"19.301"	"25.774"	"29.21"	"30.795"	"28.986"	"27.937"	"28.435"	"28.437"	"26.338"	"20.764"	"17.2"
"1929"	"16.337"	"18.198"	"24.874"	"28.986"	"31.793"	"31.021"	"27.937"	"27.796"	"27.837"	"25.1"	"20.365"	"16.164"
"1930"	"15.299"	"18.599"	"24.973"	"28.909"	"30.72"	"30.02"	"27.999"	"27.898"	"27.837"	"25.999"	"20.266"	"16.064"
"1931"	"17.301"	"18.799"	"24.297"	"30.111"	"30.456"	"31.186"	"28.136"	"28.499"	"28.136"	"26.4"	"20.564"	"17.263"
"1932"	"17.3"	"18.174"	"25.238"	"29.273"	"31.747"	"30.72"	"28.737"	"28.2"	"28.499"	"26.5"	"21.065"	"17.089"
"1933"	"14.9"	"19.635"	"24.937"	"27.41"	"30.62"	"29.286"	"27.899"	"27.398"	"27.699"	"25.763"	"20.564"	"16.902"
"1934"	"15.8"	"18.698"	"24.298"	"29.511"	"30.956"	"29.284"	"28.238"	"28.037"	"27.999"	"25.301"	"20.164"	"17.2"
"1935"	"15.764"	"19.498"	"25.101"	"28.5"	"31.484"	"30.323"	"28.998"	"27.396"	"27.837"	"25.763"	"21.027"	"16.801"
"1936"	"15.535"	"19.298"	"25.137"	"29.036"	"30.417"	"29.211"	"28.3"	"28.46"	"27.598"	"25.264"	"21.529"	"17.366"
"1937"	"15.062"	"18.962"	"23.598"	"29.361"	"30.382"	"30.884"	"28.998"	"27.761"	"28.3"	"25"	"20.727"	"16.328"
"1938"	"17.499"	"17.962"	"26.136"	"30.436"	"30.017"	"29.211"	"28.338"	"27.862"	"28.599"	"26.362"	"20.327"	"16.765"
"1939"	"17.2"	"19.873"	"23.737"	"30.363"	"31.356"	"29.886"	"28.599"	"27.763"	"27.938"	"25.801"	"21.09"	"17.488"
"1940"	"16.4"	"19.237"	"22.935"	"28.776"	"31.384"	"30.522"	"28.438"	"28.162"	"27.899"	"26.599"	"21.667"	"17.599"
"1941"	"16.799"	"19.599"	"26.273"	"30.747"	"30.357"	"29.886"	"28.735"	"28.162"	"28.201"	"25.599"	"20.865"	"18.126"
"1942"	"16.801"	"19.299"	"25.337"	"28.985"	"32.03"	"31.385"	"28.8"	"27.561"	"27.102"	"25.702"	"22.064"	"16.738"
"1943"	"17.937"	"18.136"	"25.074"	"27.247"	"31.092"	"29.857"	"28.238"	"27.636"	"28"	"26.299"	"21.329"	"18.4"
"1944"	"16.636"	"19.234"	"24"	"27.174"	"32.459"	"30.785"	"28.301"	"28.06"	"28.448"	"25.564"	"20.866"	"18.337"
"1945"	"16.2"	"18.036"	"25.237"	"28.137"	"30.219"	"30.72"	"29.073"	"28.397"	"28.002"	"25.126"	"20.528"	"16.263"
"1946"	"17.027"	"21.073"	"24.675"	"26.585"	"29.584"	"29.847"	"28.201"	"28.224"	"27.901"	"25.562"	"21.192"	"17.865"
"1947"	"16.927"	"19.6"	"25.536"	"30.572"	"31.184"	"31.184"	"28.499"	"28.263"	"27.837"	"25.901"	"21.165"	"17.865"
"1948"	"17.863"	"19.798"	"24.798"	"29.521"	"30.555"	"30.995"	"27.701"	"27.625"	"27.901"	"25.564"	"21.166"	"16.563"
"1949"	"17.162"	"18.762"	"24.862"	"27.046"	"28.42"	"29.822"	"28.137"	"28.198"	"27.761"	"26.664"	"20.229"	"16.2"
"1950"	"17.237"	"18.7"	"23.937"	"29.273"	"31.284"	"29.649"	"28.601"	"27.499"	"27.964"	"25.863"	"20.091"	"16.966"
"1951"	"16.163"	"19.562"	"25.301"	"29.273"	"31.458"	"30.557"	"28.2"	"28.997"	"28.462"	"27.137"	"21.564"	"17.625"
"1952"	"17.599"	"20.67"	"24.011"	"28.084"	"30.195"	"30.185"	"28.112"	"27.763"	"27.337"	"26.263"	"20.966"	"16.963"
"1953"	"16.074"	"20.397"	"26.747"	"29.509"	"31.195"	"29.584"	"27.675"	"27.924"	"27.4"	"25.802"	"20.728"	"18.663"
"1954"	"15.599"	"20.898"	"24.798"	"31.674"	"31.458"	"29.196"	"27.812"	"27.761"	"28.002"	"24.601"	"19.391"	"17"
"1955"	"16.738"	"18.997"	"26.11"	"28.609"	"31.557"	"29.921"	"27.336"	"27.571"	"27.825"	"26.126"	"21.393"	"16.9"
"1956"	"16.499"	"19.199"	"25.6"	"29.983"	"31.156"	"28.274"	"28.137"	"27.797"	"27.163"	"25.6"	"20.291"	"17.599"
"1957"	"16.498"	"18.408"	"24.137"	"29.71"	"33.42"	"30.596"	"28.339"	"28.273"	"28.173"	"25.847"	"20.802"	"18.239"
"1958"	"18.102"	"19.736"	"25.61"	"30.774"	"33.02"	"32.422"	"29.338"	"27.699"	"28.164"	"26.864"	"21.865"	"18.265"
"1959"	"17.136"	"19.072"	"24.574"	"30.011"	"31.419"	"30.22"	"28.737"	"28.56"	"27.664"	"25.6"	"20.827"	"17.363"
"1960"	"16.513"	"21.598"	"23.636"	"30.873"	"31.946"	"30.757"	"28.037"	"28.698"	"27.475"	"26.401"	"20.59"	"17.789"
"1961"	"17.625"	"18.037"	"25.701"	"30.234"	"31.885"	"29.45"	"28.103"	"28.461"	"27.641"	"25.665"	"20.129"	"14.889"
"1962"	"15.425"	"19.924"	"24.463"	"30.099"	"30.72"	"29.984"	"28.875"	"27.636"	"27.602"	"25.462"	"20.965"	"17.363"
"1963"	"15.726"	"20.498"	"24.434"	"28.449"	"29.322"	"29.651"	"28.3"	"28.16"	"27.825"	"26.436"	"22.26"	"18.201"
"1964"	"16.436"	"19.774"	"25.936"	"29.834"	"29.621"	"31.045"	"27.599"	"28.261"	"27.838"	"26.599"	"21.291"	"17.701"
"1965"	"17.601"	"19.799"	"23.5"	"28.735"	"31.843"	"31.355"	"28.037"	"27.871"	"27.562"	"26.2"	"21.737"	"16.354"
"1966"	"16.59"	"20.925"	"25.5"	"30.775"	"32.418"	"31.281"	"28.674"	"27.9"	"27.936"	"25.674"	"22.237"	"17.488"
"1967"	"17.337"	"20.771"	"23.475"	"27.445"	"30.956"	"30.758"	"28.438"	"27.961"	"27.762"	"25.698"	"20.563"	"18.473"
"1968"	"16.497"	"18.647"	"24.836"	"29.272"	"32.081"	"28.451"	"27.8"	"28.061"	"28.636"	"25.399"	"21.065"	"19.184"
"1969"	"16.138"	"19.924"	"26.474"	"29.947"	"29.759"	"30.261"	"28.274"	"27.298"	"27.239"	"25.936"	"22.165"	"17.301"
"1970"	"16.7"	"19.137"	"24.633"	"30.308"	"31.783"	"29.247"	"28.2"	"28.136"	"27.437"	"26.036"	"20.539"	"16.563"
"1971"	"16.124"	"17.977"	"23.835"	"26.15"	"28.022"	"28.375"	"26.937"	"26.597"	"27.239"	"25.664"	"19.867"	"17.002"
"1972"	"16.165"	"16.965"	"24.4"	"28.772"	"32.046"	"30.456"	"28.437"	"27.898"	"25.875"	"24.964"	"19.939"	"16.565"
"1973"	"16.202"	"19.498"	"22.974"	"29.348"	"29.46"	"28.225"	"28.139"	"28.098"	"27.437"	"25.802"	"20.828"	"17.164"
"1974"	"15.213"	"18.724"	"24.344"	"29.211"	"29.759"	"30.059"	"27.675"	"27.797"	"27.574"	"26.763"	"20.564"	"15.064"
"1975"	"16.225"	"19.262"	"24.499"	"29.337"	"30.52"	"29.648"	"26.475"	"27.961"	"27.176"	"26.801"	"21.354"	"16.702"
"1976"	"16.674"	"19.999"	"25.2"	"29.034"	"29.322"	"30.148"	"28.376"	"27.759"	"27.235"	"26.201"	"22.554"	"17.225"
"1977"	"16.202"	"19.262"	"26.262"	"28.776"	"27.457"	"28.822"	"27.937"	"28.498"	"28.136"	"25.339"	"22.4"	"15.574"
"1978"	"15.275"	"18.599"	"23.236"	"27.91"	"30.129"	"28.785"	"27.937"	"28.274"	"27.4"	"25.603"	"22.028"	"17.725"
"1979"	"17.201"	"17.989"	"24.435"	"29.374"	"31.92"	"30.848"	"28.536"	"29.433"	"27.065"	"26.302"	"23.364"	"17.91"
"1980"	"16.638"	"19.3"	"24.264"	"30.673"	"30.03"	"29.212"	"28.102"	"27.763"	"27.899"	"25.602"	"21.529"	"18.03"
"1981"	"15.935"	"19.262"	"23.735"	"26.35"	"27.961"	"29.823"	"27.799"	"28.322"	"27.714"	"26.063"	"20.966"	"17.101"
"1982"	"17.602"	"18.936"	"22.637"	"28.61"	"32.155"	"29.785"	"30.099"	"28.197"	"28.499"	"25.998"	"21.501"	"16.703"
"1983"	"16.059"	"19.182"	"24.7"	"27.984"	"29.521"	"31.544"	"28.937"	"28.598"	"28.474"	"25.901"	"21.103"	"17.298"
"1984"	"16.325"	"18.263"	"25.138"	"30.046"	"31.784"	"28.584"	"27.999"	"27.898"	"27.436"	"26.862"	"20.126"	"17.663"
"1985"	"17.076"	"18.723"	"25.876"	"30.011"	"29.434"	"30.583"	"27.412"	"28.261"	"27.276"	"25.923"	"21.625"	"18.825"
"1986"	"16.966"	"19.303"	"24.075"	"28.709"	"28.595"	"30.809"	"28.036"	"27.498"	"27.163"	"25.101"	"21.801"	"17.363"
"1987"	"16.685"	"20.587"	"24.499"	"28.548"	"30.157"	"30.986"	"28.137"	"27.159"	"27.837"	"26.697"	"22.16"	"19.2"
"1988"	"18.103"	"20.162"	"24.4"	"29.711"	"31.02"	"29.084"	"28.437"	"28.424"	"29.136"	"27.759"	"22.226"	"19.538"
"1989"	"16.389"	"20.635"	"25.138"	"30.634"	"30.757"	"28.884"	"28.3"	"28.023"	"28.238"	"27.299"	"21.764"	"17.187"
"1990"	"17.065"	"19.623"	"23.274"	"28.858"	"29.247"	"29.985"	"28.16"	"28.724"	"28.377"	"25.399"	"22.526"	"18.263"
"1991"	"16.247"	"20.85"	"25.099"	"29.034"	"31.945"	"28.848"	"28.701"	"28.125"	"27.637"	"26.863"	"22.614"	"17.201"
"1992"	"15.189"	"17.601"	"25.838"	"30.009"	"29.421"	"30.409"	"28.249"	"28.198"	"28.137"	"26.574"	"21.963"	"17.3"
"1993"	"16.873"	"21.038"	"23.612"	"28.046"	"29.729"	"30.358"	"29.035"	"27.661"	"27.699"	"26.8"	"21.792"	"18.327"
"1994"	"17.639"	"18.835"	"25.274"	"28.411"	"30.922"	"29.983"	"28.664"	"28.163"	"27.999"	"26.299"	"21.864"	"17.626"
"1995"	"15.225"	"20.437"	"24.499"	"29.211"	"31.348"	"30.658"	"27.936"	"27.599"	"27.837"	"26.363"	"22.227"	"18.337"
"1996"	"16.737"	"19.162"	"25.574"	"28.376"	"30.957"	"29.049"	"28.137"	"27.162"	"28.437"	"26.136"	"21.864"	"18.027"
"1997"	"16.263"	"18.544"	"25.099"	"28.984"	"30.22"	"30.223"	"28.101"	"28.361"	"27.299"	"25.363"	"22.1"	"17.366"
"1998"	"16.238"	"19.997"	"23.536"	"28.908"	"31.119"	"31.658"	"28.338"	"28.497"	"28.339"	"28.3"	"22.528"	"18.762"
"1999"	"17.426"	"20.864"	"25.6"	"31.375"	"31.02"	"29.848"	"28.137"	"27.999"	"27.761"	"26.8"	"22.326"	"18.925"
"2000"	"17.71"	"19.263"	"24.644"	"29.62"	"30.521"	"29.984"	"28.474"	"28.198"	"27.3"	"26.873"	"22.939"	"17.862"
"2001"	"17.299"	"19.425"	"24.9"	"30.011"	"31.321"	"29.412"	"28.302"	"28.698"	"28.377"	"27.337"	"23.401"	"19.038"
"2002"	"16.701"	"20.599"	"25.636"	"29.21"	"31.321"	"30.621"	"29.437"	"27.999"	"27.899"	"26.3"	"21.964"	"18.7"
