
"Year"	"Jan"	"Feb"	"Mar"	"Apr"	"May"	"Jun"	"Jul"	"Aug"	"Sep"	"Oct"	"Nov"	"Dec"
"1901"	"0.671"	"0"	"0.371"	"11.422"	"1.486"	"35.553"	"178.324"	"131.856"	"23.416"	"7.302"	"0.466"	"0"
"1902"	"0"	"0"	"0"	"7.356"	"0.013"	"18.953"	"275.885"	"280.746"	"264.787"	"4.351"	"2.843"	"4.676"
"1903"	"0"	"0"	"2.523"	"0"	"10.344"	"19.916"	"596.738"	"145.31"	"231.98"	"0.938"	"0.466"	"0"
"1904"	"0"	"34.253"	"35.522"	"0"	"0.013"	"41.839"	"332.435"	"19.941"	"56.801"	"0.382"	"0.466"	"0.249"
"1905"	"0"	"7.846"	"0.45"	"7.946"	"0.013"	"18.37"	"454.127"	"32.709"	"29.682"	"2.1"	"0.925"	"0"
"1906"	"0.16"	"28.813"	"0"	"0"	"0.013"	"276.111"	"325.263"	"277.79"	"30.908"	"29.768"	"0.466"	"0"
"1907"	"0.283"	"0.602"	"0"	"10.889"	"0.013"	"94.563"	"416.528"	"321.54"	"2.657"	"0.222"	"0.466"	"0"
"1908"	"4.963"	"0"	"0"	"0"	"0.013"	"75.912"	"590.323"	"403.23"	"75.339"	"2.054"	"0.466"	"0"
"1909"	"0.09"	"8.897"	"0"	"0.997"	"0.549"	"237.53"	"381.239"	"166.235"	"221.63"	"0.967"	"0.466"	"9.57"
"1910"	"0.116"	"0"	"0"	"16.267"	"0.013"	"392.699"	"259.259"	"433.206"	"59.532"	"14.916"	"3.803"	"0"
"1911"	"3.663"	"0"	"40.49"	"0"	"0.025"	"187.731"	"34.731"	"64.636"	"55.78"	"0.222"	"2.367"	"0"
"1912"	"0"	"0"	"0.006"	"0.187"	"0.013"	"339.607"	"620.839"	"238.1"	"42.363"	"18.906"	"59.264"	"0"
"1913"	"0"	"0.048"	"0"	"0"	"0.062"	"415.159"	"268.343"	"103.511"	"100.238"	"0.231"	"0.474"	"0"
"1914"	"0"	"7.104"	"0.006"	"0"	"9.107"	"341.187"	"299.551"	"58.714"	"292.679"	"9.669"	"9.51"	"0"
"1915"	"4.29"	"1.172"	"12.925"	"0.982"	"0.753"	"174.963"	"159.996"	"30.927"	"48.846"	"75.177"	"0.466"	"0"
"1916"	"0"	"0"	"0"	"1.164"	"10.239"	"122.419"	"297.948"	"300.774"	"180.892"	"23.037"	"0.466"	"0"
"1917"	"0"	"28.532"	"0"	"0.625"	"27.513"	"348.325"	"298.496"	"258.771"	"261.122"	"138.203"	"0.466"	"0"
"1918"	"0"	"0"	"0"	"0"	"8.179"	"20.646"	"103.32"	"51.579"	"7.178"	"0.272"	"0.466"	"0"
"1919"	"0.588"	"0"	"0"	"0.444"	"1.34"	"67.325"	"257.579"	"261.358"	"62.681"	"24.876"	"43.623"	"0"
"1920"	"2.003"	"20.957"	"0"	"0"	"16.239"	"482.945"	"288.154"	"61.924"	"37.547"	"0.222"	"0.466"	"0"
"1921"	"0"	"0"	"0"	"0"	"0.013"	"68.86"	"787.842"	"189.275"	"249.581"	"1.844"	"0.466"	"0"
"1922"	"0.013"	"0.048"	"0"	"0.97"	"0.013"	"109.449"	"217.189"	"69.906"	"259.588"	"27.843"	"3.437"	"2.343"
"1923"	"0"	"31.957"	"0"	"12.384"	"0.349"	"1.972"	"178.836"	"129.964"	"37.244"	"4.357"	"0.466"	"0"
"1924"	"0"	"0.209"	"0"	"0"	"2.302"	"148.032"	"160.545"	"124.869"	"191.159"	"0.652"	"0.466"	"0.176"
"1925"	"0"	"0"	"0"	"0"	"18.012"	"504.64"	"100.567"	"43.444"	"16.779"	"0.222"	"32.181"	"0"
"1926"	"3.44"	"0"	"0"	"23.293"	"9.237"	"34.6"	"387.178"	"323.608"	"392.874"	"0.795"	"0.466"	"0"
"1927"	"0"	"6.088"	"0"	"0"	"8.631"	"198.976"	"554.408"	"81.785"	"115.245"	"46.199"	"50.832"	"5.132"
"1928"	"0"	"0.235"	"0"	"16.074"	"0.013"	"39.455"	"242.084"	"176.045"	"317.051"	"39.797"	"18.021"	"0.005"
"1929"	"0.336"	"0"	"0"	"8.499"	"0.013"	"160.033"	"383.445"	"84.113"	"34.238"	"24.244"	"0.466"	"12.327"
"1930"	"0.236"	"0.048"	"0.011"	"0"	"0.357"	"353.575"	"221.254"	"54.443"	"103.895"	"16.451"	"0.466"	"0.277"
"1931"	"0"	"0.004"	"0"	"0.005"	"0.341"	"21.168"	"260.951"	"228.935"	"75.971"	"118.286"	"8.419"	"0.554"
"1932"	"0"	"0"	"0"	"0"	"3.284"	"89.752"	"478.658"	"62.191"	"63.43"	"41.565"	"0.466"	"0"
"1933"	"0"	"27.101"	"7.301"	"0"	"40.431"	"123.265"	"218.689"	"365.877"	"241.873"	"11.094"	"0.466"	"4.401"
"1934"	"0"	"0"	"1.089"	"4.283"	"0.013"	"215.708"	"160.258"	"189.855"	"48.145"	"6.812"	"13.652"	"0"
"1935"	"2.188"	"0"	"0"	"0.036"	"0.013"	"137.719"	"347.429"	"163.469"	"93.864"	"6.711"	"0.466"	"0"
"1936"	"0"	"0"	"0.064"	"0"	"0.295"	"295.838"	"126.848"	"40.918"	"177.98"	"1.232"	"82.782"	"0"
"1937"	"0"	"5.876"	"1.057"	"0"	"0.013"	"224.954"	"266.921"	"14.794"	"263.827"	"23.972"	"0.466"	"0.02"
"1938"	"0.019"	"1.278"	"0"	"0"	"14.254"	"314.263"	"186.451"	"77.588"	"15.884"	"36.358"	"0.466"	"2.235"
"1939"	"0"	"0"	"10.232"	"0"	"0.013"	"58.317"	"231.787"	"236.086"	"17.163"	"5.201"	"16.425"	"0"
"1940"	"2.349"	"7.796"	"4.986"	"0.195"	"0.156"	"267.582"	"222.605"	"171.126"	"153.345"	"15.512"	"38.481"	"0"
"1941"	"0.144"	"0"	"0"	"0.332"	"1.387"	"37.101"	"624.988"	"36.31"	"20.163"	"14.244"	"0.466"	"0.421"
"1942"	"0.126"	"7.586"	"0"	"0"	"2.562"	"73.793"	"306.121"	"290.261"	"174.075"	"0.222"	"0.466"	"0.295"
"1943"	"0"	"0"	"0"	"1.21"	"16.341"	"109.64"	"447.339"	"8.235"	"135.602"	"40.805"	"0.605"	"0"
"1944"	"0"	"0"	"14.069"	"0.332"	"4.834"	"284.568"	"446.502"	"348.791"	"43.556"	"9.119"	"0.466"	"0"
"1945"	"2.41"	"0"	"0.017"	"1.516"	"0.013"	"381.859"	"438.922"	"222.885"	"261.479"	"3.608"	"0.466"	"0"
"1946"	"0"	"4.736"	"0"	"0"	"0.114"	"535.249"	"250.54"	"272.186"	"111.342"	"0.297"	"40.224"	"0.696"
"1947"	"0.003"	"0"	"0"	"7.02"	"0.013"	"14.383"	"260.28"	"219.933"	"258.58"	"3.589"	"4.661"	"0"
"1948"	"5.4"	"0"	"0"	"0"	"0.013"	"39.131"	"42.765"	"136.634"	"56.086"	"81.732"	"36.154"	"0"
"1949"	"0"	"1.411"	"0"	"0"	"0.228"	"34.113"	"315.026"	"168.67"	"161.13"	"17.313"	"0.466"	"0"
"1950"	"0"	"0"	"0"	"0"	"0.013"	"15.514"	"616.07"	"29.825"	"84.107"	"0.222"	"0.466"	"0"
"1951"	"0"	"0"	"0.055"	"0.628"	"3.281"	"54.84"	"214.969"	"128.716"	"6.783"	"8.333"	"6.562"	"0"
"1952"	"0"	"0"	"0"	"0"	"0.167"	"172.983"	"294.204"	"43.341"	"35.918"	"1.272"	"0.466"	"0"
"1953"	"1.125"	"0"	"0"	"0.235"	"0.687"	"279.729"	"309.89"	"372.157"	"127.222"	"0.222"	"0.466"	"0"
"1954"	"0"	"1.432"	"3.724"	"0"	"0.013"	"133.291"	"432.523"	"282.667"	"297.036"	"3.553"	"5.235"	"1"
"1955"	"0"	"0"	"0"	"0"	"0.013"	"87.834"	"50.082"	"192.792"	"303.776"	"45.563"	"0.466"	"0"
"1956"	"0"	"0.469"	"0"	"12.98"	"11.798"	"90.506"	"356.469"	"159.183"	"221.95"	"85.445"	"1.037"	"0"
"1957"	"0.008"	"0"	"0"	"2.238"	"5.357"	"279.467"	"270.015"	"215.629"	"13.917"	"1.169"	"61.055"	"1.357"
"1958"	"0"	"0"	"0"	"11.758"	"0.013"	"128.623"	"286.151"	"345.137"	"257.645"	"30.703"	"5.096"	"0"
"1959"	"0"	"0"	"0"	"28.741"	"20.511"	"127.952"	"816.226"	"155.276"	"169.495"	"154.157"	"1.739"	"0"
"1960"	"0"	"0"	"7.107"	"0"	"27.513"	"224.783"	"250.46"	"80.294"	"137.983"	"6.393"	"0.466"	"0"
"1961"	"0"	"5.581"	"0"	"0"	"0.136"	"72.908"	"299.316"	"132.948"	"202.771"	"19.134"	"0.466"	"0"
"1962"	"0"	"0"	"0.345"	"2.878"	"1.105"	"44.091"	"230.17"	"130.607"	"148.527"	"0.222"	"25.037"	"0.678"
"1963"	"2.092"	"0"	"8.174"	"0.016"	"0.019"	"52.45"	"348.836"	"321.327"	"129.863"	"24.796"	"74.222"	"0"
"1964"	"0"	"0"	"0"	"0"	"2.843"	"331.707"	"350.77"	"382.941"	"182.468"	"0.222"	"0.466"	"0"
"1965"	"1.665"	"0"	"0"	"0.004"	"1.427"	"2.385"	"468.084"	"231.27"	"234.818"	"0.625"	"3.663"	"0"
"1966"	"0.046"	"0"	"0"	"0.979"	"0.184"	"141.455"	"299.582"	"36.91"	"141.3"	"0.222"	"0.466"	"0"
"1967"	"0"	"0"	"37.153"	"0.65"	"0.013"	"171.17"	"388.164"	"61.889"	"57.292"	"0.94"	"0.466"	"13.804"
"1968"	"0.224"	"0.062"	"0"	"0"	"0.013"	"39.927"	"257.655"	"224.534"	"115.25"	"4.443"	"0.466"	"0"
"1969"	"0"	"0.215"	"0"	"0"	"0.013"	"175"	"228.457"	"54.578"	"83.94"	"0.222"	"7.246"	"0.467"
"1970"	"0"	"0.59"	"0"	"0"	"12.267"	"272.488"	"236.452"	"484.363"	"268.807"	"40.301"	"0.466"	"0"
"1971"	"0"	"0"	"0"	"0"	"4.67"	"242.713"	"370.12"	"159.952"	"175.733"	"2.172"	"0.466"	"0"
"1972"	"0"	"2.179"	"0"	"0"	"0.415"	"127.019"	"230.829"	"131.729"	"13.198"	"0.376"	"0.466"	"0"
"1973"	"0.495"	"0.64"	"0"	"0"	"2.111"	"107.911"	"342.91"	"155.596"	"252.216"	"3.715"	"0.466"	"0.013"
"1974"	"0"	"0"	"0"	"0.019"	"10.579"	"7.006"	"161.013"	"43.075"	"73.285"	"21.728"	"0.466"	"0.164"
"1975"	"0.054"	"0"	"0"	"0"	"0.013"	"122.592"	"134.686"	"240.529"	"150.347"	"81.223"	"0.466"	"0"
"1976"	"0.547"	"0"	"1.109"	"0"	"0.013"	"171.796"	"305.157"	"121.108"	"102.674"	"0.537"	"71.712"	"0"
"1977"	"3.12"	"0"	"0"	"0.75"	"6.512"	"159.691"	"350.843"	"86.18"	"265.274"	"0.283"	"16.96"	"0"
"1978"	"0"	"0.06"	"0"	"3.92"	"0.013"	"426.144"	"146.703"	"214.276"	"21.217"	"20.667"	"45.509"	"1.216"
"1979"	"0"	"7.414"	"0"	"0.311"	"0.545"	"387.851"	"96.158"	"419.494"	"87.67"	"7.216"	"272.325"	"0"
"1980"	"0.369"	"0.422"	"0"	"0.609"	"0.013"	"474.17"	"434.625"	"204.626"	"29.08"	"0.51"	"2.739"	"2.111"
"1981"	"0.484"	"0"	"0.035"	"0.004"	"0.013"	"118.908"	"455.998"	"241.06"	"130.456"	"68.318"	"52.594"	"0"
"1982"	"3.353"	"0"	"0"	"0.041"	"11.968"	"6.384"	"398.025"	"136.774"	"25.211"	"6.48"	"132.185"	"0"
"1983"	"0"	"0.24"	"0"	"1.354"	"0.013"	"445.943"	"406.912"	"353.12"	"161.212"	"46.549"	"0.466"	"0"
"1984"	"0"	"0"	"0"	"0"	"0.013"	"102.426"	"230.958"	"195.705"	"111.533"	"9.211"	"0.466"	"0"
"1985"	"0"	"0"	"0"	"0.619"	"2.08"	"23.286"	"180.181"	"166.49"	"22.969"	"76.079"	"28.92"	"0"
"1986"	"0"	"0.003"	"0.392"	"0"	"3.156"	"580.346"	"47.374"	"105.549"	"21.282"	"0.222"	"0.609"	"1.6"
"1987"	"0.844"	"2.835"	"0"	"0.036"	"3.195"	"46.178"	"49.733"	"170.048"	"4.526"	"7.749"	"2.115"	"6.066"
"1988"	"0"	"0"	"0"	"6.205"	"0.257"	"60.191"	"505.108"	"131.481"	"243.048"	"1.132"	"0.466"	"0"
"1989"	"2.061"	"0"	"1.572"	"0.422"	"0.515"	"199.04"	"344.183"	"178.99"	"54.162"	"0.98"	"0.466"	"0"
"1990"	"0"	"4.111"	"0"	"0"	"28.569"	"111.348"	"168.301"	"546.925"	"92.252"	"19.047"	"9.984"	"5.407"
"1991"	"0"	"0.008"	"0.18"	"0.575"	"0.013"	"94.724"	"400.447"	"93.041"	"24.756"	"0.222"	"3.158"	"0.027"
"1992"	"0.158"	"0"	"0"	"0"	"0.013"	"64.739"	"296.805"	"190.476"	"330.435"	"12.423"	"6.058"	"0"
"1993"	"0"	"0.083"	"0.18"	"0"	"2.312"	"67.988"	"399.576"	"46.187"	"106.281"	"47.146"	"29.188"	"0.016"
"1994"	"2.916"	"0"	"2.586"	"0.238"	"0.945"	"190.808"	"377.407"	"211.414"	"394.821"	"5.558"	"2.383"	"0"
"1995"	"0.093"	"0"	"1.686"	"1.641"	"0.342"	"23.272"	"304.77"	"59.466"	"92.71"	"4.024"	"18.359"	"0.938"
"1996"	"0.566"	"0.412"	"0"	"0"	"0.693"	"277"	"549.845"	"141.743"	"75.583"	"58.04"	"1.096"	"0"
"1997"	"1.602"	"0"	"0.02"	"4.757"	"4.607"	"257.025"	"253.847"	"240.352"	"144.802"	"2.378"	"7.613"	"0.771"
"1998"	"0"	"3.784"	"0.055"	"0"	"0.342"	"242.295"	"507.201"	"277.505"	"146.496"	"117.257"	"12.873"	"0"
"1999"	"0"	"2.383"	"0"	"0"	"3.364"	"292.969"	"236.826"	"39.607"	"52.204"	"60.924"	"0.466"	"0"
"2000"	"0"	"0"	"0"	"0"	"19.091"	"98.535"	"419.157"	"119.03"	"16.889"	"8.554"	"3.957"	"0"
"2001"	"0"	"0"	"0"	"0"	"21.342"	"327.277"	"259.509"	"143.821"	"25.19"	"52.07"	"6.055"	"0"
"2002"	"0"	"0"	"0"	"1.159"	"0.372"	"245.345"	"52.076"	"209.064"	"42.041"	"0.647"	"0.466"	"0.016"
