
"Year"	"Jan"	"Feb"	"Mar"	"Apr"	"May"	"Jun"	"Jul"	"Aug"	"Sep"	"Oct"	"Nov"	"Dec"
"1901"	"12.881"	"15.145"	"22.457"	"27.532"	"32.268"	"35.643"	"32.701"	"30.629"	"30.547"	"28.259"	"21.133"	"16.411"
"1902"	"15.54"	"17.948"	"24.743"	"28.991"	"32.804"	"33.45"	"31.795"	"31.728"	"29.498"	"26.651"	"20.434"	"14.858"
"1903"	"14.395"	"16.238"	"20.831"	"26.636"	"31.956"	"36.197"	"33.382"	"30.425"	"30.391"	"26.756"	"19.728"	"14.697"
"1904"	"13.704"	"16.944"	"21.433"	"28.924"	"32.505"	"34.48"	"31.134"	"29.771"	"29.345"	"26.558"	"19.934"	"15.838"
"1905"	"12.6"	"11.938"	"18.845"	"25.643"	"34.061"	"35.394"	"32.899"	"31.419"	"31.297"	"27.515"	"21.938"	"15.992"
"1906"	"13.234"	"14.741"	"20.501"	"27.473"	"34.803"	"33.699"	"32.43"	"30.11"	"29.151"	"27.406"	"21.588"	"16.649"
"1907"	"15.955"	"14.646"	"19.611"	"25.403"	"30.804"	"33.804"	"33.789"	"29.575"	"30.568"	"27.344"	"21.037"	"14.652"
"1908"	"14.295"	"16.888"	"22.038"	"28.634"	"32.85"	"35.142"	"30.524"	"28.331"	"29.301"	"26.262"	"19.739"	"15.159"
"1909"	"13.496"	"15.598"	"22.298"	"26.537"	"32.245"	"32.759"	"29.588"	"29.085"	"28.545"	"26.752"	"21.629"	"14.6"
"1910"	"13.642"	"16.695"	"22.243"	"26.77"	"33.249"	"33.45"	"30.737"	"29.433"	"29.597"	"25.605"	"19.431"	"15.202"
"1911"	"15.64"	"16.998"	"20.185"	"27.742"	"34.105"	"33.741"	"33.794"	"32.084"	"29.539"	"27.052"	"18.298"	"15.164"
"1912"	"14.949"	"17.954"	"21.629"	"28.096"	"33.202"	"35.746"	"31.833"	"29.525"	"28.551"	"26.653"	"19.523"	"15.202"
"1913"	"15.043"	"16.4"	"19.791"	"29.232"	"31.107"	"31.753"	"30.381"	"30.582"	"30.494"	"27.663"	"20.335"	"15.146"
"1914"	"16.3"	"15.897"	"21.582"	"27.934"	"33.272"	"33.25"	"30.599"	"30.134"	"29.501"	"25.275"	"20.891"	"14.694"
"1915"	"14.188"	"14.892"	"22.232"	"28.083"	"35.195"	"34.659"	"33.899"	"31.375"	"31.16"	"27.814"	"20.73"	"16.155"
"1916"	"15.246"	"15.778"	"24.776"	"29.567"	"32.497"	"33.129"	"30.82"	"28.982"	"29.096"	"25.939"	"18.527"	"14.585"
"1917"	"14.748"	"17.133"	"22.119"	"25.03"	"28.867"	"32.596"	"29.886"	"28.722"	"27.549"	"24.69"	"17.786"	"15.305"
"1918"	"13.493"	"17.152"	"21.938"	"25.633"	"34.788"	"33.743"	"34.029"	"31.569"	"30.137"	"27.202"	"20.433"	"14.735"
"1919"	"14.438"	"15.694"	"22.778"	"27.327"	"32.046"	"36.182"	"30.947"	"29.273"	"29.328"	"26.366"	"19.684"	"14.594"
"1920"	"14.087"	"15.747"	"22.241"	"27.475"	"29.242"	"32.362"	"30.772"	"30.412"	"31.144"	"27.902"	"21.673"	"16.036"
"1921"	"15.237"	"17.535"	"25.278"	"31.258"	"35.281"	"35.543"	"33.535"	"29.834"	"29.386"	"25.764"	"20.383"	"17.202"
"1922"	"13.935"	"17.849"	"23.573"	"28.824"	"33.087"	"33.44"	"31.741"	"29.933"	"28.7"	"25.607"	"19.924"	"15.285"
"1923"	"14.052"	"15.75"	"23.038"	"29.029"	"32.046"	"35.843"	"31.452"	"28.73"	"29.696"	"25.908"	"19.833"	"15.442"
"1924"	"13.486"	"16.301"	"23.495"	"28.826"	"30.01"	"35.727"	"32.246"	"29.674"	"27.834"	"25.494"	"19.476"	"15.584"
"1925"	"12.393"	"14.393"	"23.033"	"30.228"	"32.464"	"31.086"	"29.391"	"30.293"	"30.657"	"26.871"	"19.041"	"15.155"
"1926"	"14.842"	"18.162"	"21.132"	"25.035"	"30.261"	"35.445"	"32.143"	"29.099"	"28.59"	"25.707"	"18.229"	"14.84"
"1927"	"12.838"	"14.345"	"21.036"	"27.033"	"31.512"	"34.305"	"30.743"	"28.979"	"28.994"	"26.516"	"19.731"	"16.248"
"1928"	"13.654"	"17.1"	"22.456"	"27.979"	"34.496"	"34.4"	"31.941"	"31.271"	"29.89"	"27.256"	"20.781"	"14.785"
"1929"	"14.093"	"15.483"	"24.689"	"29.069"	"33.482"	"34.249"	"30.972"	"29.34"	"30.579"	"26.607"	"20.643"	"14.092"
"1930"	"13.396"	"16.249"	"22.887"	"27.282"	"32.494"	"32.932"	"29.586"	"29.872"	"29.32"	"26.666"	"19.481"	"15.202"
"1931"	"14.947"	"14.047"	"21.049"	"29.081"	"32.399"	"34.397"	"31.092"	"29.932"	"28.649"	"25.802"	"19.402"	"15.706"
"1932"	"16.415"	"16.2"	"23.085"	"27.972"	"31.67"	"35.583"	"31.239"	"28.837"	"29.759"	"26.61"	"19.476"	"15.303"
"1933"	"12.006"	"16.939"	"21.995"	"26.432"	"30.193"	"33.092"	"30.001"	"27.693"	"27.905"	"25.604"	"19.589"	"15.989"
"1934"	"12.192"	"18.193"	"21.185"	"27.882"	"31.806"	"33.192"	"31.042"	"28.887"	"30.085"	"26.002"	"20.073"	"16.346"
"1935"	"12.435"	"16.949"	"22.238"	"24.989"	"32.941"	"35.18"	"30.491"	"28.991"	"28.743"	"25.989"	"20.633"	"15.199"
"1936"	"12.893"	"17.192"	"21.292"	"27.828"	"34.892"	"31.613"	"30.198"	"28.888"	"28.898"	"26.512"	"19.795"	"15.297"
"1937"	"13.545"	"16.608"	"20.487"	"26.299"	"32.754"	"34.406"	"30.288"	"30.872"	"29.697"	"25.312"	"19.304"	"13.496"
"1938"	"13.241"	"14.991"	"23.542"	"28.975"	"34.748"	"32.789"	"32.044"	"30.781"	"30.941"	"27.656"	"18.681"	"14.805"
"1939"	"14.802"	"17.005"	"19.736"	"26.48"	"34.139"	"32.203"	"31.198"	"31.298"	"30.354"	"27.559"	"19.989"	"16.05"
"1940"	"14.602"	"16.397"	"20.986"	"26.88"	"33.75"	"34.286"	"31.692"	"28.892"	"29.138"	"26.766"	"21.182"	"15.4"
"1941"	"13.345"	"17.789"	"24.833"	"31.063"	"34.335"	"32.365"	"32.686"	"30.545"	"29.799"	"29.056"	"20.439"	"16.353"
"1942"	"13.043"	"17.494"	"23.881"	"30.036"	"33.401"	"34.939"	"29.844"	"28.439"	"27.602"	"26.15"	"21.13"	"14.048"
"1943"	"13.8"	"16.649"	"23.147"	"26.734"	"32.478"	"33.541"	"30.284"	"28.675"	"29.881"	"26.356"	"20.826"	"16.647"
"1944"	"13.491"	"16.144"	"21.045"	"27.445"	"33.99"	"33.588"	"30.441"	"29.532"	"28.903"	"25.445"	"20.829"	"15.954"
"1945"	"12.084"	"15.548"	"22.895"	"26.783"	"32.166"	"34.192"	"30.384"	"29.928"	"28.548"	"26.001"	"20.224"	"13.841"
"1946"	"14.695"	"18.245"	"21.747"	"30.346"	"33.255"	"34.146"	"30.648"	"29.574"	"29.519"	"27.256"	"19.68"	"14.103"
"1947"	"13.41"	"16.744"	"23.397"	"29.762"	"33.946"	"36.021"	"32.851"	"30.668"	"28.598"	"25.499"	"21.577"	"15.401"
"1948"	"13.691"	"16.139"	"21.351"	"30.618"	"34.266"	"35.093"	"31.368"	"28.988"	"29.798"	"27.525"	"18.991"	"15.254"
"1949"	"15.746"	"16.747"	"22.835"	"29.88"	"34.752"	"34.331"	"30.399"	"29.632"	"30.941"	"26.054"	"18.529"	"14.594"
"1950"	"15.342"	"14.04"	"21.097"	"26.883"	"33.547"	"34.592"	"30.288"	"28.932"	"28.402"	"25.706"	"18.919"	"13.446"
"1951"	"13.43"	"15.986"	"22.272"	"26.072"	"32.495"	"33.772"	"33.034"	"30.272"	"30.149"	"29.51"	"21.727"	"15.989"
"1952"	"15.29"	"18.682"	"22.433"	"30.759"	"33.597"	"33.448"	"31.586"	"29.035"	"30.28"	"26.839"	"20.274"	"15.434"
"1953"	"14.075"	"18.94"	"26.07"	"29.315"	"33.825"	"34.684"	"30.995"	"29.174"	"29.534"	"26.695"	"20.279"	"18.199"
"1954"	"13.584"	"17.732"	"22.442"	"29.061"	"34.591"	"34.888"	"31.631"	"31.071"	"30.133"	"24.593"	"20.474"	"15.883"
"1955"	"14.037"	"17.424"	"24.723"	"26.466"	"31.113"	"34.974"	"31.944"	"29.234"	"28.788"	"25.199"	"19.517"	"15.986"
"1956"	"14.138"	"17.169"	"22.767"	"29.203"	"35.036"	"34.086"	"30.069"	"28.83"	"30.434"	"25.093"	"19.056"	"15.942"
"1957"	"13.582"	"15.34"	"21.62"	"26.779"	"31.09"	"33.59"	"31.387"	"29.981"	"28.368"	"26.703"	"20.844"	"15.486"
"1958"	"15.892"	"16.346"	"23.873"	"30.912"	"32.779"	"35.078"	"30.728"	"30.239"	"28.585"	"26.25"	"20.468"	"16.696"
"1959"	"13.829"	"15.943"	"23.627"	"28.706"	"32.334"	"34.851"	"31.018"	"29.621"	"29.192"	"27.455"	"20.508"	"15.98"
"1960"	"13.877"	"19.364"	"21.867"	"27.062"	"32.963"	"34.823"	"30.984"	"29.474"	"30.285"	"26.202"	"19.53"	"15.556"
"1961"	"14.92"	"15.053"	"23.228"	"27.569"	"32.602"	"33.625"	"30.523"	"29.34"	"29.535"	"25.764"	"18.653"	"13.344"
"1962"	"13.002"	"17.64"	"22.551"	"29.528"	"32.94"	"34.243"	"31.604"	"30.471"	"28.312"	"25.283"	"19.946"	"14.788"
"1963"	"13.263"	"18.622"	"22.449"	"28.043"	"31.683"	"34.005"	"32.897"	"29.698"	"28.819"	"27.49"	"21.727"	"15.404"
"1964"	"12.16"	"16.301"	"24.122"	"29.307"	"31.271"	"34.034"	"29.58"	"29.6"	"28.417"	"25.673"	"18.938"	"15.116"
"1965"	"16.213"	"17.048"	"22.048"	"26.051"	"31.522"	"34.797"	"31.145"	"29.698"	"29.223"	"27.282"	"21.601"	"14.313"
"1966"	"14.961"	"19.118"	"22.385"	"28.382"	"32.47"	"33.024"	"32.354"	"29.584"	"28.566"	"26.837"	"19.811"	"14.36"
"1967"	"12.49"	"19.014"	"21.544"	"27.338"	"31.966"	"34.614"	"31.194"	"29.221"	"28.5"	"25.878"	"20.36"	"15.528"
"1968"	"13.628"	"15.14"	"22.382"	"27.885"	"31.989"	"34.739"	"31.316"	"30.291"	"30.691"	"26.282"	"20.731"	"15.661"
"1969"	"14.501"	"17.391"	"25.102"	"29.139"	"31.601"	"35.315"	"31.59"	"30.612"	"29.535"	"27.824"	"21.84"	"16.106"
"1970"	"15.087"	"16.389"	"22.325"	"29.582"	"33.991"	"32.561"	"31.982"	"29.899"	"29.536"	"27.505"	"19.831"	"15.853"
"1971"	"13.384"	"17.522"	"22.601"	"29.584"	"31.461"	"31.791"	"29.695"	"27.958"	"27.923"	"26.01"	"19.525"	"16.336"
"1972"	"14.622"	"14.581"	"23.616"	"27.473"	"33.038"	"33.59"	"31.954"	"28.6"	"28.565"	"25.435"	"20.919"	"15.88"
"1973"	"14.342"	"18.428"	"22.434"	"30.293"	"33.426"	"35.283"	"31.512"	"28.318"	"29.236"	"25.394"	"19.485"	"13.837"
"1974"	"13.767"	"14.986"	"24.384"	"30.27"	"32.5"	"32.227"	"30.395"	"29.806"	"30.297"	"26.291"	"19.726"	"14.371"
"1975"	"13.21"	"16.006"	"21.985"	"29.027"	"33.331"	"32.696"	"29.366"	"28.696"	"27.798"	"26.674"	"19.019"	"16.187"
"1976"	"15.036"	"17.225"	"21.011"	"27.849"	"32.447"	"31.614"	"30.534"	"27.515"	"28.387"	"27.153"	"20.788"	"15.327"
"1977"	"14.116"	"17.042"	"24.191"	"28.08"	"30.474"	"31.139"	"28.612"	"28.804"	"27.197"	"25.649"	"22.236"	"16.736"
"1978"	"13.433"	"14.9"	"20.347"	"28.294"	"36.029"	"33.554"	"28.989"	"28.392"	"27.624"	"25.981"	"20.392"	"15.582"
"1979"	"14.041"	"15.879"	"20.582"	"28.686"	"28.927"	"33.927"	"30.654"	"29.964"	"28.321"	"26.466"	"21.776"	"16.237"
"1980"	"14.125"	"18.134"	"21.725"	"29.858"	"33.161"	"33.058"	"29.209"	"29.314"	"28.966"	"27.224"	"20.873"	"15.589"
"1981"	"15.108"	"17.779"	"21.645"	"29.223"	"32.205"	"33.281"	"28.915"	"29.911"	"29.557"	"26.226"	"19.179"	"15.679"
"1982"	"14.474"	"15.132"	"20.025"	"26.981"	"30.121"	"33.798"	"32.423"	"29.24"	"30.376"	"27.012"	"21.104"	"16.071"
"1983"	"13.48"	"15.969"	"21.865"	"25.313"	"31.359"	"33.034"	"30.786"	"29.19"	"29.789"	"26.037"	"19.467"	"15.68"
"1984"	"13.418"	"14.818"	"23.949"	"28.818"	"35.567"	"35.123"	"30.208"	"29.138"	"27.792"	"24.886"	"19.783"	"15.725"
"1985"	"13.703"	"17.813"	"24.618"	"29.258"	"34.241"	"33.95"	"29.95"	"29.67"	"28.867"	"24.275"	"20.348"	"16.632"
"1986"	"14.127"	"16.019"	"22.464"	"28.782"	"31.054"	"33.89"	"30.386"	"29.872"	"29.501"	"26.168"	"21.748"	"14.946"
"1987"	"15.074"	"18.037"	"23.124"	"29.321"	"29.657"	"35.066"	"34.568"	"31.54"	"31.683"	"28.004"	"21.022"	"15.923"
"1988"	"15.958"	"18.388"	"22.727"	"29.922"	"35.751"	"33.443"	"29.95"	"28.838"	"29.369"	"26.068"	"20.965"	"16.433"
"1989"	"13.425"	"16.376"	"21.983"	"27.385"	"34.081"	"33.385"	"30.707"	"29.125"	"29.097"	"26.278"	"21.128"	"15.179"
"1990"	"16.227"	"16.523"	"20.883"	"28.383"	"32.994"	"34.581"	"29.936"	"29.433"	"28.735"	"25.505"	"20.965"	"15.921"
"1991"	"14.172"	"17.13"	"22.433"	"27.379"	"33.161"	"33.661"	"33.218"	"29.486"	"29.776"	"25.861"	"20.41"	"16.038"
"1992"	"14.968"	"16.114"	"22.276"	"28.029"	"32.336"	"35.051"	"30.343"	"29.324"	"28.49"	"25.902"	"20.077"	"16.744"
"1993"	"14.709"	"18.762"	"21.093"	"28.825"	"34.339"	"34.216"	"30.336"	"31.51"	"28.057"	"26.28"	"21.331"	"15.836"
"1994"	"15.661"	"16.639"	"24.188"	"27.423"	"33.905"	"34.593"	"29.878"	"28.929"	"28.534"	"25.709"	"20.616"	"16.27"
"1995"	"13.625"	"17.076"	"21.519"	"27.935"	"34.392"	"35.899"	"31.729"	"28.185"	"29.357"	"26.967"	"20.727"	"16.137"
"1996"	"14.14"	"17.434"	"23.647"	"29.027"	"32.844"	"31.995"	"31.589"	"29.131"	"28.888"	"26.141"	"19.979"	"14.93"
"1997"	"13.489"	"16.886"	"21.985"	"26.625"	"30.495"	"31.64"	"31.539"	"29.252"	"29.198"	"24.001"	"19.485"	"13.443"
"1998"	"13.945"	"17.393"	"20.837"	"29.027"	"33.9"	"33.508"	"30.998"	"30.101"	"29.406"	"26.272"	"21.133"	"15.613"
"1999"	"13.689"	"17.532"	"23.476"	"30.181"	"33.492"	"33.097"	"31.635"	"30.274"	"29.837"	"26.916"	"22.195"	"15.993"
"2000"	"14.497"	"16.142"	"22.437"	"30.583"	"34.629"	"32.6"	"30.336"	"29.891"	"29.354"	"27.017"	"21.637"	"16.198"
"2001"	"13.692"	"17.734"	"23.081"	"28.526"	"32.922"	"31.59"	"30.724"	"30.019"	"30.864"	"27.505"	"21.536"	"16.393"
"2002"	"14.674"	"17.041"	"23.444"	"30.325"	"33.996"	"33.964"	"32.203"	"30.679"	"28.323"	"26.819"	"21.387"	"16.502"
