
"Year"	"Jan"	"Feb"	"Mar"	"Apr"	"May"	"Jun"	"Jul"	"Aug"	"Sep"	"Oct"	"Nov"	"Dec"
"1901"	"6.487"	"6.132"	"7.817"	"50.658"	"35.7"	"119.525"	"159.496"	"109.575"	"143.548"	"35.671"	"1.753"	"0"
"1902"	"0"	"0"	"0.889"	"25.45"	"5.894"	"48.964"	"48.251"	"117.48"	"298.145"	"90.562"	"28.506"	"22.382"
"1903"	"3.914"	"0"	"0"	"5.363"	"49.302"	"82.313"	"259.874"	"206.694"	"283.883"	"238.132"	"30.635"	"24.423"
"1904"	"0"	"0"	"13.732"	"0.355"	"12.664"	"85.396"	"68.705"	"50.708"	"451.814"	"72.971"	"0.279"	"0"
"1905"	"0"	"17.344"	"0.564"	"33.788"	"29.226"	"93.955"	"25.606"	"158.433"	"229.849"	"59.896"	"0.279"	"0"
"1906"	"22.143"	"0"	"2.343"	"0.334"	"11.347"	"225.165"	"178.065"	"170.704"	"129.463"	"52.514"	"25.779"	"42.139"
"1907"	"0.822"	"1.615"	"4.619"	"74.219"	"0.36"	"111.952"	"148.81"	"192.4"	"104.28"	"1.638"	"8.766"	"10.392"
"1908"	"0"	"6.371"	"7.905"	"2.905"	"11.623"	"75.299"	"108.394"	"102.091"	"521.938"	"1.243"	"0.279"	"0"
"1909"	"4.022"	"1.356"	"12.348"	"33.235"	"25.618"	"170.223"	"200.326"	"143.752"	"190.634"	"8.215"	"0.311"	"2.382"
"1910"	"0"	"0"	"1.87"	"0.195"	"42.318"	"143.579"	"145.549"	"124.545"	"471.536"	"64.251"	"35.092"	"0"
"1911"	"0"	"0"	"1.101"	"0.47"	"8.318"	"69.486"	"189.571"	"142.584"	"133.093"	"6.043"	"10.17"	"0.576"
"1912"	"0"	"32.226"	"0"	"24.614"	"18.454"	"41.546"	"209.646"	"159.045"	"84.465"	"46.313"	"35.573"	"0"
"1913"	"0"	"4.064"	"0"	"8.141"	"49.437"	"161.036"	"179.452"	"31.846"	"129.86"	"51.988"	"0.471"	"4.49"
"1914"	"0"	"0"	"0.236"	"3.847"	"22.96"	"170.782"	"205.589"	"190.258"	"353.316"	"4.553"	"14.399"	"7.042"
"1915"	"22.654"	"0.343"	"22.751"	"28.427"	"8.83"	"126.85"	"112.621"	"80.641"	"286.23"	"104.357"	"9.301"	"0.381"
"1916"	"0"	"8.489"	"3.744"	"5.717"	"50.589"	"146.144"	"249.485"	"96.663"	"431.898"	"136.961"	"107.053"	"0"
"1917"	"0"	"33.034"	"14.199"	"21.898"	"49.505"	"143.668"	"134.373"	"210.738"	"345.729"	"136.206"	"50.032"	"0"
"1918"	"3.301"	"0.82"	"0"	"5.569"	"158.674"	"35.533"	"89.346"	"111.013"	"237.841"	"2.235"	"23.159"	"27.02"
"1919"	"6.923"	"0.216"	"0"	"7.615"	"48.865"	"169.941"	"99.61"	"79.287"	"255.178"	"47.569"	"57.5"	"6.023"
"1920"	"9.787"	"0"	"0"	"20.037"	"22.88"	"85.183"	"100.802"	"62.642"	"208.433"	"34.135"	"0.328"	"0"
"1921"	"0.107"	"0"	"1.576"	"16.927"	"1.088"	"107.918"	"177.195"	"78.067"	"118.497"	"51.135"	"61.196"	"0"
"1922"	"9.078"	"2.799"	"0"	"13.251"	"31.441"	"110.074"	"122.086"	"50.155"	"117.616"	"59.987"	"70.775"	"0"
"1923"	"0.096"	"7.863"	"13.785"	"26.39"	"1.786"	"20.28"	"210.77"	"38.023"	"280.959"	"16.663"	"0.279"	"0"
"1924"	"5.944"	"0"	"0.941"	"31.427"	"3.041"	"32.072"	"63.832"	"110.853"	"233.048"	"36.331"	"49.901"	"12.986"
"1925"	"0"	"0"	"3.41"	"1.212"	"65.755"	"69.725"	"84.162"	"139.752"	"188.596"	"108.453"	"20.801"	"0.208"
"1926"	"34.175"	"0.32"	"5.121"	"20.026"	"72.594"	"32.538"	"80.532"	"220.277"	"378.405"	"1.702"	"2.458"	"0.986"
"1927"	"0"	"0.432"	"6.494"	"21.957"	"19.006"	"151.753"	"114.541"	"73.988"	"196.259"	"35.412"	"92.362"	"0"
"1928"	"0"	"25.569"	"9.59"	"9.455"	"5.385"	"187.939"	"170.177"	"86.163"	"390.017"	"65.304"	"0.279"	"12.374"
"1929"	"0"	"37.644"	"1.609"	"27.928"	"14.643"	"130.821"	"63.282"	"42.172"	"183.579"	"23.351"	"0.359"	"6.702"
"1930"	"0"	"0.82"	"6.502"	"3.278"	"19.046"	"97.634"	"68.456"	"113.159"	"332.338"	"102.165"	"24.122"	"4.785"
"1931"	"0.048"	"0"	"11.54"	"26.219"	"10.316"	"118.823"	"231.066"	"81.231"	"259.62"	"88.126"	"90.728"	"8.028"
"1932"	"0"	"2.745"	"10.133"	"8.428"	"39.846"	"56.501"	"193.669"	"86.444"	"175.99"	"78.415"	"49.025"	"0"
"1933"	"0.497"	"3.452"	"14.903"	"44.659"	"87.625"	"177.33"	"120.579"	"128.437"	"270.258"	"63.362"	"35.874"	"30.017"
"1934"	"6.225"	"0"	"0.82"	"44.371"	"2.73"	"68.909"	"229.51"	"221.171"	"158.755"	"22.36"	"34.507"	"0"
"1935"	"11.337"	"0.08"	"0"	"28.893"	"2.505"	"182.699"	"121.695"	"142.513"	"242.472"	"154.672"	"2.472"	"0.35"
"1936"	"0.016"	"33.588"	"7.072"	"19.625"	"50.211"	"79.533"	"98.291"	"75.222"	"181.665"	"33.764"	"51.683"	"6.123"
"1937"	"0"	"20.868"	"24.8"	"53.956"	"6.68"	"50.097"	"240.77"	"26.31"	"119.808"	"59.193"	"0.279"	"13.279"
"1938"	"0"	"4.482"	"4.408"	"17.123"	"39.751"	"227.506"	"195.262"	"204.491"	"176.6"	"42.719"	"0.279"	"0.634"
"1939"	"0"	"0"	"3.338"	"1.41"	"3.812"	"76.793"	"105.986"	"99.871"	"165.632"	"56.575"	"16.212"	"0.804"
"1940"	"0"	"0"	"0"	"40.48"	"53.14"	"130.67"	"95.522"	"173.147"	"144.318"	"118.183"	"12.754"	"2.907"
"1941"	"12.658"	"5.674"	"1.885"	"4.776"	"10.478"	"45.056"	"70.166"	"125.872"	"302.953"	"8.752"	"0.279"	"0"
"1942"	"0"	"9.147"	"0.75"	"34.406"	"27.101"	"150.368"	"102.068"	"211.383"	"128.647"	"10.542"	"0.279"	"12.788"
"1943"	"7.022"	"0.367"	"2.311"	"13.041"	"42.392"	"232.394"	"100.919"	"74.731"	"402.345"	"164.509"	"2.121"	"0"
"1944"	"0"	"12.371"	"33.207"	"6.441"	"26.685"	"96.244"	"150.036"	"46.632"	"181.804"	"81.579"	"27.311"	"0"
"1945"	"0.011"	"0"	"0"	"23.757"	"6.813"	"96.301"	"220.198"	"176.337"	"174.39"	"93.74"	"1.307"	"0"
"1946"	"0"	"14.847"	"6.099"	"21.881"	"45.758"	"132.67"	"134.416"	"84.243"	"191.423"	"26.088"	"58.737"	"4.001"
"1947"	"12.889"	"15.58"	"1.78"	"5.364"	"6.661"	"97.947"	"143.435"	"257.812"	"270.493"	"11.283"	"3.144"	"9.549"
"1948"	"5.397"	"0"	"5.284"	"18.511"	"27.521"	"117.458"	"169.231"	"134.494"	"299.985"	"27.206"	"76.633"	"0"
"1949"	"0"	"8.448"	"0.624"	"5.231"	"77.689"	"137.513"	"235.092"	"121.007"	"570.644"	"67.708"	"11.46"	"0"
"1950"	"0"	"7.299"	"8.886"	"7.755"	"17.977"	"77.984"	"103.356"	"75.257"	"297.284"	"80.481"	"0.279"	"1.537"
"1951"	"0.483"	"0"	"7.499"	"18.105"	"46.29"	"130.692"	"222.278"	"81.36"	"119.411"	"83.307"	"0.538"	"0.064"
"1952"	"0"	"11.869"	"0"	"19.305"	"95.859"	"61.468"	"160.022"	"57.455"	"226.01"	"95.532"	"0.279"	"1.451"
"1953"	"0"	"0"	"0"	"28.347"	"0.36"	"174.723"	"220.138"	"86.981"	"311.65"	"137.916"	"0.279"	"0"
"1954"	"0"	"0"	"19.152"	"11.935"	"15.332"	"180.068"	"234.185"	"95.778"	"391.745"	"14.732"	"0.279"	"12.073"
"1955"	"2.398"	"0"	"4.824"	"6.967"	"39.552"	"202.389"	"278.531"	"366.92"	"230.606"	"26.518"	"4.322"	"0"
"1956"	"0"	"0"	"0"	"3.056"	"133.422"	"109.13"	"271.007"	"100.097"	"185.244"	"102.475"	"106.322"	"0.064"
"1957"	"0"	"4.792"	"17.805"	"49.974"	"49.892"	"111.231"	"141.559"	"228.588"	"93.843"	"143.046"	"0.359"	"0"
"1958"	"0"	"0"	"15.478"	"38.186"	"26.286"	"52.174"	"179.388"	"295.853"	"125.2"	"98.967"	"28.097"	"0"
"1959"	"0"	"0"	"0"	"22.258"	"24.909"	"131.903"	"168.777"	"194.226"	"229.811"	"120.195"	"9.489"	"0.916"
"1960"	"0"	"0"	"15.638"	"13.664"	"74.888"	"140.285"	"107.472"	"23.314"	"273.198"	"36.396"	"51.985"	"1.461"
"1961"	"0"	"0"	"0"	"37.656"	"113.222"	"141.075"	"200.379"	"119.952"	"68.379"	"213.411"	"20.977"	"0.935"
"1962"	"0"	"4.724"	"3.256"	"58.99"	"62.853"	"95.206"	"124.783"	"232.283"	"351.41"	"97.413"	"37.225"	"25.352"
"1963"	"0"	"2.317"	"17.693"	"34.088"	"57.186"	"186.309"	"115.968"	"280.371"	"105.957"	"143.5"	"0.279"	"0"
"1964"	"0.31"	"1.905"	"7.219"	"7.083"	"0.996"	"104.791"	"206.379"	"107.037"	"454.72"	"57.582"	"15.707"	"0"
"1965"	"0.334"	"0"	"0"	"3.168"	"2.724"	"157.912"	"219.037"	"126.808"	"161.646"	"1.186"	"0.746"	"9.224"
"1966"	"9.328"	"4.473"	"7.192"	"10.271"	"14.997"	"90.375"	"154.949"	"133.249"	"325.13"	"36.894"	"83.072"	"21.331"
"1967"	"4.029"	"0"	"7.496"	"2.227"	"32.26"	"124.404"	"227.815"	"70.786"	"151.42"	"18.649"	"0.793"	"20.368"
"1968"	"5.484"	"50.71"	"15.086"	"8.27"	"36.905"	"90.452"	"136.527"	"17.169"	"289.595"	"71.237"	"19.256"	"0.596"
"1969"	"0"	"0"	"1.762"	"14.755"	"17.838"	"81.948"	"158.995"	"98.883"	"317.332"	"32.261"	"45.02"	"0.455"
"1970"	"1.355"	"0"	"0"	"21.894"	"38.054"	"152.116"	"121.293"	"290.512"	"279.989"	"26.291"	"0.279"	"0"
"1971"	"0"	"0"	"1.288"	"5.342"	"51.492"	"76.903"	"35.351"	"158.203"	"166.198"	"136.622"	"0.279"	"0"
"1972"	"0"	"2.227"	"0.096"	"34.568"	"19.39"	"69.783"	"46.113"	"87.832"	"151.635"	"15.08"	"57.421"	"0"
"1973"	"0"	"0"	"0"	"7.596"	"7.093"	"107.45"	"95.25"	"271.956"	"121.572"	"219.235"	"0.678"	"0"
"1974"	"0"	"0"	"0"	"12.217"	"22.467"	"137.484"	"91.942"	"121.07"	"185.083"	"275.159"	"0.279"	"0"
"1975"	"13.313"	"0"	"13.503"	"4.098"	"31.003"	"67.203"	"173.095"	"156.752"	"330.288"	"291.351"	"1.988"	"0"
"1976"	"0"	"0"	"4.96"	"41.598"	"35.183"	"112.9"	"168.699"	"184.187"	"100.855"	"22.754"	"49.679"	"0"
"1977"	"0"	"0"	"12.145"	"12.533"	"32.069"	"98.024"	"124.609"	"119.39"	"89.135"	"69.825"	"64.873"	"1.931"
"1978"	"9.634"	"39.79"	"3.116"	"22.576"	"89.338"	"134.487"	"208.703"	"171.452"	"194.303"	"108.158"	"30.095"	"1.153"
"1979"	"1.11"	"18.751"	"6.186"	"11.901"	"85.123"	"88.888"	"113.11"	"76.909"	"320.912"	"22.128"	"123.348"	"0.272"
"1980"	"0.107"	"0"	"12.502"	"32.64"	"7.901"	"102.367"	"70.197"	"202.513"	"167.048"	"5.152"	"2.843"	"17.349"
"1981"	"5.394"	"0"	"13.431"	"18.556"	"34.511"	"159.699"	"73.135"	"139.913"	"381.272"	"96.287"	"2.653"	"0"
"1982"	"0.155"	"0.076"	"0.496"	"44.305"	"47.986"	"96.912"	"209.223"	"50.635"	"285.325"	"71.796"	"73.704"	"0"
"1983"	"0"	"0"	"0"	"2.718"	"33.469"	"76.354"	"131.643"	"247.952"	"432.734"	"184.332"	"6.935"	"25.694"
"1984"	"3.075"	"19.985"	"0.128"	"1.442"	"1.13"	"66.809"	"182.536"	"95.947"	"115.569"	"73.28"	"2.825"	"0.933"
"1985"	"1.552"	"0"	"11.007"	"9.019"	"2.783"	"123.263"	"132.607"	"75.566"	"51.248"	"126.522"	"30.065"	"4.981"
"1986"	"6.121"	"11.726"	"0"	"33.429"	"8.085"	"184.338"	"95.702"	"186.798"	"92.839"	"20.86"	"32.226"	"25.971"
"1987"	"15.145"	"6.393"	"15.267"	"6.336"	"49.297"	"89.697"	"109.137"	"178.261"	"77.301"	"155.747"	"48.009"	"13.241"
"1988"	"0"	"23.393"	"0"	"45.963"	"8.639"	"81.167"	"238.447"	"165.813"	"369.8"	"39.546"	"0.771"	"9.853"
"1989"	"0"	"0"	"21.94"	"9.706"	"10.061"	"133.805"	"282.013"	"100.866"	"209.48"	"79"	"3.353"	"3.877"
"1990"	"1.236"	"0.119"	"9.508"	"0.697"	"156.625"	"141.446"	"121.851"	"216.753"	"101.6"	"125.428"	"37.727"	"2.965"
"1991"	"0.991"	"0.428"	"0.646"	"23.663"	"21.802"	"190.829"	"122.036"	"163.184"	"187.464"	"31.553"	"26.287"	"0"
"1992"	"0"	"0"	"0"	"5.983"	"38.312"	"99.507"	"80.915"	"243.944"	"187.512"	"43.262"	"13.508"	"0"
"1993"	"0"	"0.545"	"0.994"	"9.553"	"9.401"	"83.311"	"149.312"	"142.221"	"142.288"	"187.377"	"1.676"	"10.313"
"1994"	"12.876"	"6.635"	"5.596"	"32.36"	"14.783"	"150.262"	"137.03"	"165.883"	"95.288"	"215.197"	"37.452"	"0"
"1995"	"13.931"	"0"	"17.674"	"4.037"	"63.623"	"117.391"	"182.757"	"122.514"	"241.543"	"256.483"	"27.54"	"0"
"1996"	"0.123"	"2.238"	"0.485"	"36.779"	"8.363"	"98.294"	"168.957"	"257.679"	"200.523"	"160.898"	"61.831"	"0"
"1997"	"8.468"	"0"	"5.217"	"48.337"	"13.654"	"87.31"	"147.214"	"191.364"	"85.827"	"79.248"	"98.214"	"22.756"
"1998"	"0"	"1.935"	"0.243"	"3.067"	"15.381"	"56.094"	"179.927"	"230.454"	"236.984"	"205.816"	"26.315"	"0"
"1999"	"0"	"3.63"	"0"	"5.491"	"81.257"	"75.724"	"119.787"	"105.627"	"188.949"	"105.322"	"0.279"	"0"
"2000"	"0"	"10.349"	"0"	"8.027"	"52.927"	"195.303"	"105.788"	"341.89"	"89.235"	"30.466"	"6.391"	"3.432"
"2001"	"9.103"	"0"	"23.144"	"9.775"	"2.777"	"182.154"	"49.705"	"175.309"	"122.006"	"149.636"	"7.501"	"0"
"2002"	"11.266"	"0.119"	"4.662"	"24.578"	"43.28"	"172.382"	"47.422"	"164.399"	"72.699"	"79.025"	"2.606"	"0"
