
"Year"	"Jan"	"Feb"	"Mar"	"Apr"	"May"	"Jun"	"Jul"	"Aug"	"Sep"	"Oct"	"Nov"	"Dec"
"1901"	"0.207"	"2.3"	"5.25"	"59.579"	"42.926"	"138.998"	"77.052"	"39.627"	"86.532"	"46.25"	"30.829"	"0.012"
"1902"	"0"	"0"	"1.962"	"18.276"	"34.139"	"109.417"	"23.707"	"48"	"152.537"	"88.829"	"25.622"	"20.992"
"1903"	"0.805"	"0"	"0"	"9.238"	"52.115"	"99.303"	"248.551"	"144.859"	"176.462"	"184.599"	"72.638"	"13.907"
"1904"	"0.259"	"0"	"12.427"	"3.306"	"24.281"	"100.764"	"53.689"	"17.168"	"131.772"	"96.494"	"0.297"	"0"
"1905"	"0"	"3.481"	"2.99"	"13.997"	"21.931"	"79.621"	"36.193"	"131.415"	"43.906"	"119.855"	"1.472"	"0"
"1906"	"4.741"	"0"	"0"	"0.374"	"37.079"	"145.45"	"97.586"	"226.145"	"79.368"	"69.184"	"40.547"	"43.143"
"1907"	"0.005"	"0.056"	"9.308"	"94.303"	"0.591"	"56.859"	"162.76"	"98.742"	"77.605"	"3.865"	"10.134"	"8.112"
"1908"	"0.082"	"0"	"4.306"	"10.348"	"12.871"	"43.934"	"110.358"	"54.538"	"226.543"	"4.389"	"0.309"	"0.02"
"1909"	"2.429"	"0"	"12.587"	"12.985"	"53.34"	"105.557"	"67.978"	"164.789"	"118.346"	"17.244"	"9.049"	"2.134"
"1910"	"0"	"0"	"3.458"	"2.335"	"25.12"	"84.578"	"169.038"	"150.742"	"199.391"	"40.229"	"61.374"	"0"
"1911"	"0"	"0"	"0.002"	"1.899"	"34.911"	"56.033"	"216.835"	"51.95"	"48.698"	"43.196"	"10.15"	"7.235"
"1912"	"0"	"4.972"	"0"	"36.745"	"22.817"	"43.205"	"139.384"	"79.19"	"38.687"	"85.891"	"46.838"	"0.008"
"1913"	"0"	"0.449"	"0"	"28.426"	"118.227"	"96.562"	"187.113"	"20.504"	"45.143"	"76.706"	"3.942"	"1.578"
"1914"	"0"	"0"	"0.24"	"9.177"	"27.914"	"61.078"	"122.859"	"151.286"	"113.199"	"10.682"	"76.504"	"12.26"
"1915"	"2.882"	"3.607"	"25.687"	"25.242"	"49.323"	"67.089"	"156.456"	"27.549"	"197.467"	"115.396"	"24.638"	"1.935"
"1916"	"0"	"0.02"	"0"	"13.84"	"55.235"	"98.85"	"256.856"	"68.621"	"159.62"	"201.43"	"142.977"	"0"
"1917"	"0"	"6.394"	"22.898"	"17.706"	"21.646"	"138.034"	"39.098"	"165.327"	"168.432"	"167.877"	"42.217"	"0"
"1918"	"0.808"	"0"	"1.907"	"20.654"	"179.424"	"19.88"	"23.007"	"18.225"	"101.684"	"1.795"	"46.4"	"2.28"
"1919"	"1.19"	"0"	"0.096"	"8.386"	"61.412"	"128.348"	"47.739"	"17.546"	"201.071"	"65.086"	"78.526"	"8.74"
"1920"	"2.267"	"0"	"0"	"7.455"	"27.097"	"76.571"	"39.332"	"54.514"	"110.938"	"31.108"	"0.594"	"0"
"1921"	"0.226"	"0"	"0.002"	"16.946"	"3.182"	"42.454"	"218.248"	"11.883"	"52.884"	"108.55"	"113.583"	"0"
"1922"	"0.428"	"0"	"0"	"30.173"	"44.437"	"78.649"	"68.367"	"13.641"	"36.896"	"53.675"	"83.175"	"0"
"1923"	"0.267"	"3.226"	"22.464"	"34.572"	"6.782"	"22.975"	"190.068"	"11.809"	"132.461"	"4.909"	"0.297"	"0.032"
"1924"	"1.254"	"0"	"2.774"	"29.105"	"22.823"	"29.383"	"33.533"	"117.584"	"132.849"	"40.972"	"4.856"	"7.768"
"1925"	"0"	"0"	"2.457"	"16.09"	"96.987"	"32.986"	"40.415"	"120.809"	"79.551"	"165.675"	"48.555"	"19.498"
"1926"	"7.14"	"0.789"	"0.295"	"7.109"	"52.208"	"53.152"	"78.257"	"63.885"	"162.924"	"12.34"	"1.541"	"0"
"1927"	"0"	"0.685"	"2.312"	"7.669"	"47.79"	"109.824"	"121.201"	"24.497"	"139.257"	"31.009"	"82.895"	"0"
"1928"	"0"	"11.493"	"9.155"	"5.719"	"1.207"	"148.562"	"147.81"	"51.822"	"230.7"	"84.041"	"0.297"	"15.173"
"1929"	"0.013"	"9.022"	"1.613"	"27.954"	"58.621"	"134.182"	"21.69"	"16.289"	"164.698"	"122.35"	"21.804"	"2.152"
"1930"	"0.024"	"0"	"2.542"	"18.067"	"59.72"	"60.357"	"61.648"	"34.777"	"192.756"	"135.455"	"42.606"	"1.547"
"1931"	"0"	"0"	"4.742"	"34.358"	"26.074"	"146.803"	"86.781"	"19.067"	"146.165"	"48.91"	"107.266"	"23.542"
"1932"	"0"	"0"	"2.009"	"15.346"	"67.68"	"49.123"	"163.031"	"182.091"	"72.299"	"161.996"	"96.75"	"0.129"
"1933"	"0"	"1.091"	"20.683"	"91.342"	"99.786"	"64.384"	"166.759"	"110.199"	"94.85"	"131.564"	"62.831"	"26.595"
"1934"	"0.025"	"0"	"0.16"	"57.416"	"4.149"	"42.803"	"291.23"	"88.327"	"81.879"	"36.303"	"72.461"	"0"
"1935"	"1.57"	"0"	"0.055"	"30.201"	"3.498"	"156.215"	"98.076"	"187.031"	"71.884"	"119.332"	"23.291"	"2.359"
"1936"	"0"	"2.665"	"2.467"	"18.143"	"48.124"	"46.04"	"21.526"	"45.102"	"99.357"	"17.67"	"86.773"	"0.641"
"1937"	"0"	"1.666"	"9.399"	"96.907"	"6.444"	"36.907"	"94.865"	"24.703"	"78.074"	"93.906"	"0.297"	"11.94"
"1938"	"0"	"2.517"	"14.058"	"2.83"	"48.92"	"148.763"	"148.378"	"218.468"	"173.214"	"38.501"	"2.128"	"0.289"
"1939"	"0"	"0"	"4.225"	"18.608"	"7.76"	"72.183"	"101.346"	"86.676"	"115.649"	"116.535"	"11.056"	"0"
"1940"	"0"	"0"	"0"	"23.31"	"94.479"	"100.243"	"79.952"	"124.745"	"78.618"	"82.373"	"23.529"	"3.814"
"1941"	"2.73"	"3.317"	"13.995"	"6.564"	"40.334"	"36.577"	"75.474"	"75.531"	"136.297"	"65.685"	"0.297"	"3.887"
"1942"	"0"	"0.351"	"0.001"	"40.182"	"14.507"	"163.631"	"50.941"	"74.2"	"37.932"	"43.951"	"19.971"	"24.305"
"1943"	"2.196"	"0"	"1.812"	"41.267"	"85.563"	"170.952"	"56.675"	"90.587"	"139.176"	"203.678"	"27.415"	"0"
"1944"	"0"	"1.279"	"22.943"	"1.318"	"16.048"	"64.859"	"130.759"	"14.618"	"139.103"	"151.319"	"21.168"	"0"
"1945"	"0"	"0"	"0"	"10.126"	"16.897"	"52.638"	"133.835"	"76.804"	"103.821"	"51.775"	"8.689"	"0.85"
"1946"	"0"	"6.521"	"2.896"	"30.8"	"107.445"	"97.549"	"147.962"	"87.28"	"90.207"	"51.73"	"123.124"	"4.621"
"1947"	"4.018"	"1.395"	"6.986"	"12.862"	"48.98"	"98.528"	"93.283"	"156.211"	"98.294"	"22.581"	"11.559"	"12.272"
"1948"	"0.759"	"0.125"	"4.417"	"29.54"	"16.427"	"46.051"	"88.679"	"177.775"	"134.472"	"79.521"	"101.595"	"0.004"
"1949"	"0"	"0.569"	"1.601"	"20.269"	"76.641"	"105.914"	"103.479"	"67.044"	"248.662"	"62.848"	"18.629"	"0"
"1950"	"0"	"1.63"	"5.016"	"1.871"	"59.653"	"70.645"	"54.646"	"133.733"	"171.583"	"100.15"	"8.357"	"0"
"1951"	"0"	"0"	"0.311"	"8.6"	"67.325"	"103.04"	"192.933"	"55.364"	"152.141"	"74.821"	"3.299"	"0.194"
"1952"	"0"	"3.423"	"0"	"27.394"	"139.252"	"51.355"	"101.523"	"37.256"	"74.499"	"75.355"	"0.297"	"2.726"
"1953"	"0"	"0"	"0.018"	"30.181"	"0.784"	"77.696"	"296.303"	"47.361"	"143.887"	"198.466"	"0.297"	"0"
"1954"	"0"	"0"	"16.556"	"14.412"	"18.818"	"87.107"	"219.944"	"174.891"	"54.049"	"33.078"	"0.297"	"11.093"
"1955"	"0"	"0"	"7.444"	"22.33"	"64.656"	"130.811"	"106.836"	"186.714"	"134.261"	"75.809"	"64.589"	"0"
"1956"	"0"	"0.299"	"0.114"	"18.882"	"151.4"	"65.726"	"367.239"	"106.94"	"122.539"	"199.248"	"86.21"	"2.731"
"1957"	"0"	"0.823"	"15.43"	"53.722"	"47.317"	"93.525"	"127.149"	"188.416"	"101.869"	"210.409"	"19.094"	"0"
"1958"	"0"	"0"	"12.591"	"48.386"	"131.462"	"27.642"	"132.895"	"153.594"	"47.727"	"164.555"	"30.838"	"0"
"1959"	"0"	"0"	"2.61"	"41.168"	"33.952"	"188.945"	"110.636"	"70.962"	"106.481"	"100.601"	"16.471"	"0.554"
"1960"	"0"	"0"	"10.766"	"18.498"	"135.259"	"87.225"	"88.21"	"6.32"	"147.715"	"41.23"	"60.845"	"0.02"
"1961"	"0"	"0"	"7.955"	"29.719"	"135.915"	"141.164"	"203.171"	"48.219"	"12.78"	"160.506"	"6.853"	"0.241"
"1962"	"0.26"	"3.323"	"4.905"	"97.516"	"107.715"	"100.159"	"120.584"	"107.006"	"152.329"	"102.736"	"23.18"	"40.78"
"1963"	"0.001"	"9.903"	"5.215"	"38.767"	"82.761"	"114.052"	"55.98"	"222.23"	"40.732"	"194.866"	"2.577"	"0"
"1964"	"0"	"3.035"	"3.273"	"16.847"	"2.032"	"62.548"	"392.207"	"68.668"	"341.594"	"147.458"	"54.304"	"14.655"
"1965"	"0.36"	"0"	"0.003"	"14.884"	"8.721"	"89.634"	"114.235"	"114.154"	"101.92"	"1.309"	"3.977"	"33.483"
"1966"	"3.979"	"0"	"5.418"	"19.826"	"90.323"	"36.481"	"161.789"	"75.573"	"147.216"	"21.599"	"68.205"	"14.432"
"1967"	"1.912"	"0"	"7.829"	"72.713"	"42.079"	"47.385"	"225.582"	"51.16"	"138.264"	"106.403"	"2.614"	"7.388"
"1968"	"0.519"	"12.078"	"3.54"	"48.803"	"24.863"	"129.66"	"149.11"	"11.108"	"191.735"	"106.797"	"50.103"	"7.722"
"1969"	"0"	"0.088"	"4.667"	"9.588"	"81.365"	"95.945"	"101.248"	"184.034"	"143.782"	"117.532"	"29.557"	"3.307"
"1970"	"1.082"	"0"	"0.178"	"32.268"	"67.214"	"30.555"	"136.221"	"204.46"	"155.348"	"65.518"	"0.297"	"0"
"1971"	"0"	"0"	"0"	"21.311"	"102.744"	"93.626"	"33.67"	"115.494"	"136.663"	"163.117"	"0.297"	"0"
"1972"	"0"	"1.771"	"0.265"	"32.141"	"25.023"	"41.248"	"41.365"	"5.777"	"99.671"	"37.828"	"33.387"	"1.266"
"1973"	"0"	"0"	"0"	"9.389"	"24.289"	"102.444"	"165.014"	"143.621"	"94.878"	"247.818"	"21.113"	"1.25"
"1974"	"0"	"0"	"6.267"	"26.385"	"143.402"	"68.711"	"78.801"	"119.28"	"146.549"	"234.876"	"2.013"	"0"
"1975"	"1.528"	"0.337"	"0.705"	"5.926"	"55.81"	"119.49"	"237.585"	"77.442"	"169.139"	"271.353"	"10.399"	"0"
"1976"	"0"	"0"	"1.644"	"40.278"	"23.858"	"135.893"	"103.864"	"210.551"	"58.103"	"11.904"	"55.408"	"0.205"
"1977"	"0"	"0.092"	"14.213"	"65.487"	"74.852"	"157.955"	"142.945"	"66.037"	"37.296"	"156.082"	"121.127"	"0.485"
"1978"	"0"	"5.2"	"0.645"	"34.626"	"132.376"	"63.457"	"202.685"	"120.103"	"203.348"	"123.554"	"68.636"	"11.953"
"1979"	"0.248"	"6.807"	"1.23"	"3.517"	"73.001"	"83.981"	"103.202"	"51.687"	"227.997"	"42.164"	"124.539"	"0"
"1980"	"0"	"0"	"1.277"	"47.756"	"14.373"	"87.908"	"92.546"	"116.979"	"91.107"	"16.843"	"20.653"	"5.1"
"1981"	"2.742"	"0"	"19.185"	"35.352"	"43.219"	"196.083"	"44.49"	"104.261"	"308.343"	"71.783"	"50.709"	"0.846"
"1982"	"0"	"0"	"0"	"30.692"	"63.348"	"125.918"	"171.885"	"32.17"	"146.022"	"87.002"	"80.05"	"0"
"1983"	"0"	"0"	"0"	"0.313"	"16.142"	"97.87"	"137.346"	"114.163"	"212.873"	"89.78"	"4.536"	"15.325"
"1984"	"0"	"2.928"	"2.749"	"8.084"	"1.372"	"28.432"	"240.327"	"48.95"	"129.838"	"126.576"	"9.257"	"0.367"
"1985"	"0.071"	"0"	"5.013"	"13.096"	"23.865"	"82.656"	"102.299"	"69.455"	"47.779"	"127.546"	"23.186"	"3.689"
"1986"	"0.893"	"2.273"	"0"	"41.404"	"6.361"	"123.096"	"77.498"	"114.453"	"42.665"	"29.626"	"48.183"	"19.875"
"1987"	"1.27"	"1.718"	"8.044"	"8.866"	"71.326"	"63.587"	"89.771"	"92.412"	"106.501"	"147.856"	"37.2"	"25.824"
"1988"	"0"	"4.447"	"0"	"67.981"	"6.792"	"86.282"	"194.803"	"110.941"	"258.83"	"31.99"	"0.321"	"10.37"
"1989"	"0"	"0"	"13.966"	"39.962"	"17.787"	"100.534"	"212.984"	"52.48"	"141.918"	"57.671"	"3.313"	"2.56"
"1990"	"0.126"	"0"	"4.189"	"13.044"	"147.286"	"97.283"	"105.021"	"114.675"	"54.766"	"118.038"	"38.851"	"1.934"
"1991"	"0.091"	"0"	"0.363"	"59.449"	"44.689"	"121.961"	"136.918"	"101.734"	"149.339"	"69.845"	"22.059"	"0"
"1992"	"0"	"0"	"0"	"15.136"	"48.223"	"111.202"	"86.256"	"134.641"	"185.132"	"98.04"	"59.626"	"0"
"1993"	"0"	"0"	"7.182"	"19.359"	"27.092"	"81.076"	"152.288"	"89.793"	"64.864"	"190.907"	"5.039"	"17.99"
"1994"	"1.276"	"1.282"	"4.139"	"50.758"	"23.142"	"136.902"	"181.793"	"106.332"	"61.506"	"246.512"	"24.344"	"0.024"
"1995"	"2.181"	"0"	"6.851"	"13.281"	"65.059"	"71.55"	"136.332"	"71.375"	"144.374"	"256.984"	"21.163"	"0"
"1996"	"0"	"0.76"	"0"	"44.384"	"13.291"	"96.132"	"131.887"	"117.28"	"139.546"	"181.994"	"41.472"	"0.024"
"1997"	"1.636"	"0"	"5.803"	"55.009"	"15.645"	"109.957"	"131.624"	"145.146"	"39.769"	"106.115"	"76.28"	"32.724"
"1998"	"0"	"0.446"	"0"	"3.371"	"29.165"	"86.807"	"146.485"	"126.854"	"124.173"	"170.859"	"30.596"	"1.167"
"1999"	"0"	"0.2"	"0"	"5.779"	"83.367"	"84.908"	"127.871"	"52.912"	"76.135"	"201.475"	"1.471"	"0"
"2000"	"0"	"1.983"	"0"	"22.747"	"67.553"	"125.319"	"106.289"	"160.135"	"142.43"	"70.803"	"8.748"	"2.701"
"2001"	"0.898"	"0"	"9.279"	"15.326"	"7.909"	"109.906"	"57.802"	"92.238"	"89.155"	"152.889"	"23.32"	"0.762"
"2002"	"1.119"	"0.571"	"1.746"	"37.155"	"50.035"	"131.128"	"39.465"	"106.268"	"27.634"	"137.027"	"1.791"	"0"
