
"Year"	"Jan"	"Feb"	"Mar"	"Apr"	"May"	"Jun"	"Jul"	"Aug"	"Sep"	"Oct"	"Nov"	"Dec"
"1901"	"17.405"	"21.435"	"26.422"	"31.807"	"31.714"	"31.621"	"29.107"	"28.542"	"28.338"	"27.474"	"22.039"	"18.12"
"1902"	"18.991"	"21.457"	"28.04"	"29.787"	"31.232"	"31.057"	"28.583"	"28.863"	"28.481"	"26.579"	"21.704"	"17.749"
"1903"	"18.648"	"20.619"	"26.7"	"31.586"	"33.344"	"30.46"	"29.742"	"28.518"	"28.341"	"26.651"	"21.205"	"17.268"
"1904"	"18.045"	"21.078"	"27.14"	"32.123"	"30.79"	"29.73"	"28.048"	"28.417"	"28.483"	"26.516"	"21.599"	"18.687"
"1905"	"17.807"	"18.566"	"24.825"	"28.35"	"30.055"	"32.594"	"28.583"	"28.401"	"27.984"	"26.716"	"21.962"	"18.065"
"1906"	"17.83"	"20.506"	"24.569"	"31.885"	"32.488"	"31.077"	"28.985"	"28.328"	"28.7"	"26.616"	"21.938"	"18.529"
"1907"	"19.223"	"20.728"	"24.567"	"28.749"	"31.383"	"30.649"	"28.763"	"28.479"	"28.483"	"26.75"	"21.981"	"17.664"
"1908"	"17.125"	"21.084"	"27.014"	"33.437"	"32.389"	"30.613"	"28.642"	"28.18"	"28.541"	"27.011"	"21.44"	"17.266"
"1909"	"19.526"	"21.299"	"27.953"	"28.945"	"32.342"	"29.39"	"28.623"	"27.663"	"28.42"	"26.554"	"22.832"	"18.39"
"1910"	"17.809"	"20.767"	"26.739"	"31.344"	"31.869"	"29.909"	"28.448"	"28.197"	"28.476"	"26.509"	"21.274"	"17.126"
"1911"	"19.889"	"20.577"	"25.745"	"30.823"	"32.408"	"29.589"	"29.464"	"28.342"	"28.016"	"26.515"	"22.001"	"16.751"
"1912"	"18.687"	"22.178"	"26.642"	"29.35"	"31.157"	"30.936"	"28.483"	"28.3"	"28.583"	"26.551"	"21.217"	"17.404"
"1913"	"17.925"	"21.136"	"25.199"	"32.395"	"30.713"	"28.379"	"28.799"	"27.898"	"28.44"	"25.976"	"20.962"	"17.429"
"1914"	"18.29"	"21.682"	"26.224"	"28.707"	"30.63"	"29.657"	"28.363"	"28.164"	"28.278"	"25.856"	"21.903"	"18.422"
"1915"	"18.751"	"21.243"	"25.703"	"30.762"	"31.649"	"29.997"	"29.609"	"29.054"	"28.376"	"28.057"	"23.775"	"18.201"
"1916"	"18.125"	"21.6"	"28.053"	"31.163"	"34.403"	"29.414"	"28.761"	"28.481"	"28.498"	"26.952"	"21.938"	"17.33"
"1917"	"17.69"	"21.057"	"25.715"	"30.405"	"29.835"	"29.714"	"28.741"	"28.258"	"28.041"	"26.549"	"21.639"	"17.589"
"1918"	"17.149"	"21.137"	"27.316"	"29.786"	"30.712"	"28.614"	"29.986"	"27.938"	"28.64"	"26.916"	"22.146"	"17.866"
"1919"	"19.346"	"20.4"	"27.54"	"30.45"	"32.008"	"29.992"	"28.798"	"28.56"	"28.242"	"26.515"	"22.164"	"17.922"
"1920"	"18.75"	"21.101"	"26.044"	"30.957"	"31.984"	"32.088"	"29.055"	"28.499"	"28.284"	"27.074"	"22.298"	"17.942"
"1921"	"19.061"	"21.091"	"27.683"	"31.542"	"34.007"	"31.106"	"29.142"	"28.235"	"28.355"	"25.752"	"21.219"	"18.799"
"1922"	"18.636"	"21.671"	"27.717"	"32.018"	"33.27"	"29.212"	"28.699"	"28.077"	"27.82"	"25.632"	"21.777"	"18.057"
"1923"	"18.498"	"21.015"	"26.359"	"31.462"	"32.706"	"31.898"	"28.778"	"28.039"	"28.676"	"26.252"	"21.819"	"18.838"
"1924"	"18.724"	"21.6"	"28.489"	"32.187"	"32.938"	"32.668"	"28.763"	"28.457"	"27.798"	"26.889"	"21.64"	"17.906"
"1925"	"17.147"	"20.001"	"26.338"	"29.854"	"31.632"	"30.514"	"28.321"	"28.701"	"28.341"	"26.009"	"21.796"	"17.735"
"1926"	"18.142"	"21.959"	"25.621"	"29.687"	"31.87"	"33.471"	"28.8"	"28.36"	"28.201"	"26.389"	"20.999"	"18.758"
"1927"	"18.603"	"21.103"	"24.946"	"31.544"	"31.159"	"31.393"	"28.887"	"28.423"	"28.598"	"27.053"	"22.332"	"18.881"
"1928"	"18.746"	"21.801"	"28.04"	"30.782"	"31.932"	"29.614"	"28.487"	"28.799"	"29.019"	"27.151"	"22.102"	"18.563"
"1929"	"18.583"	"20.301"	"26.805"	"30.74"	"33.227"	"31.93"	"28.386"	"28.142"	"28.476"	"25.93"	"21.505"	"17.452"
"1930"	"17.374"	"20.812"	"27.037"	"30.762"	"32.008"	"31.032"	"28.545"	"28.279"	"28.44"	"27.092"	"21.44"	"17.423"
"1931"	"19.465"	"21.031"	"25.6"	"32.204"	"31.752"	"32.512"	"28.584"	"28.745"	"28.385"	"26.757"	"21.529"	"18.467"
"1932"	"19.324"	"20.484"	"27.518"	"30.967"	"32.531"	"31.327"	"28.592"	"28.425"	"28.545"	"27.351"	"21.897"	"18.701"
"1933"	"17.034"	"21.58"	"26.883"	"29.291"	"32.061"	"30.049"	"28.486"	"27.766"	"28.343"	"26.512"	"21.637"	"18.222"
"1934"	"17.723"	"20.68"	"26.62"	"31.144"	"32.547"	"30.276"	"28.941"	"28.3"	"28.521"	"26.191"	"21.197"	"18.544"
"1935"	"17.671"	"21.503"	"27.4"	"30.159"	"34.061"	"32.299"	"29.102"	"27.804"	"28.286"	"26.517"	"21.863"	"18.251"
"1936"	"17.835"	"21.271"	"27.645"	"31.62"	"30.655"	"29.198"	"28.453"	"28.714"	"27.926"	"26.196"	"22.329"	"18.888"
"1937"	"17.014"	"20.83"	"25.744"	"30.297"	"30.994"	"30.145"	"28.99"	"28.301"	"28.38"	"26.192"	"21.628"	"17.522"
"1938"	"19.801"	"20.027"	"28.807"	"32.795"	"29.963"	"29.63"	"28.665"	"28.202"	"29.08"	"27.232"	"21.44"	"17.927"
"1939"	"19.379"	"22.277"	"26.166"	"32.108"	"32.572"	"31.07"	"28.427"	"27.826"	"28.281"	"26.872"	"21.845"	"18.802"
"1940"	"18.164"	"21.38"	"25.26"	"31.188"	"32.249"	"31.606"	"28.525"	"28.445"	"28.7"	"27.41"	"24.158"	"19.18"
"1941"	"18.947"	"21.804"	"28.467"	"32.287"	"31.999"	"30.552"	"28.801"	"28.702"	"28.687"	"26.273"	"21.976"	"19.723"
"1942"	"18.82"	"21.558"	"27.68"	"30.921"	"33.965"	"32.468"	"28.748"	"27.669"	"27.8"	"26.652"	"23.312"	"18.483"
"1943"	"19.726"	"20.038"	"27.039"	"29.248"	"32.795"	"30.199"	"28.512"	"28.042"	"28.579"	"27.609"	"22.601"	"19.892"
"1944"	"19.14"	"21.469"	"26.418"	"29.056"	"34.456"	"32.054"	"28.354"	"28.301"	"28.64"	"26.633"	"22.32"	"20"
"1945"	"18.162"	"20.619"	"27.793"	"29.615"	"31.814"	"31.356"	"29.088"	"28.897"	"28.745"	"26.11"	"21.896"	"17.758"
"1946"	"19.023"	"23.413"	"27.42"	"27.794"	"31.093"	"30.294"	"28.388"	"28.346"	"28.347"	"26.531"	"22.963"	"19.354"
"1947"	"19.188"	"21.606"	"27.54"	"32.819"	"32.815"	"31.69"	"28.874"	"28.391"	"28.461"	"26.676"	"22.761"	"19.261"
"1948"	"20.226"	"22.001"	"25.976"	"31.544"	"31.614"	"31.156"	"27.992"	"27.753"	"28.486"	"26.715"	"22.801"	"17.412"
"1949"	"19.091"	"21.044"	"27.148"	"28.778"	"29.284"	"31.054"	"28.741"	"28.796"	"28.378"	"27.243"	"21.164"	"17.73"
"1950"	"19.345"	"21.282"	"26.224"	"31.33"	"32.353"	"30.299"	"28.594"	"27.907"	"28.47"	"26.371"	"21.451"	"18.622"
"1951"	"18.262"	"21.88"	"27.034"	"31.141"	"32.848"	"31.243"	"28.744"	"29.3"	"29.198"	"27.972"	"22.678"	"19.648"
"1952"	"19.767"	"23.19"	"27.698"	"28.29"	"31.61"	"31.041"	"28.407"	"28.122"	"28.223"	"26.847"	"22.339"	"19.114"
"1953"	"18.483"	"22.744"	"29.357"	"31.789"	"32.856"	"30.375"	"28.247"	"28.145"	"28.068"	"26.917"	"22.083"	"20.262"
"1954"	"17.729"	"23.354"	"27"	"33.327"	"32.868"	"29.535"	"28.296"	"28.164"	"28.064"	"25.592"	"20.35"	"18.605"
"1955"	"18.746"	"21.641"	"28.549"	"30.784"	"33.459"	"31.073"	"28.445"	"28.216"	"28.762"	"26.95"	"22.658"	"18.521"
"1956"	"19.205"	"20.8"	"27.642"	"31.785"	"32.285"	"28.375"	"28.229"	"28.24"	"28.027"	"26.686"	"21.796"	"19.36"
"1957"	"19.249"	"20.696"	"26.085"	"31.565"	"35.299"	"31.827"	"28.527"	"28.637"	"28.683"	"27.243"	"22.223"	"19.629"
"1958"	"20.531"	"21.776"	"27.816"	"32.308"	"34.846"	"33.547"	"29.623"	"28.34"	"28.525"	"28.113"	"22.768"	"20.066"
"1959"	"19.289"	"21.145"	"26.903"	"31.665"	"33.37"	"30.727"	"28.927"	"28.582"	"28.103"	"27.341"	"21.877"	"18.604"
"1960"	"18.624"	"23.319"	"25.838"	"32.269"	"32.72"	"31.152"	"28.231"	"28.387"	"28.325"	"26.955"	"21.372"	"18.888"
"1961"	"19.484"	"19.783"	"28.057"	"32.087"	"33.169"	"30.257"	"28.467"	"28.603"	"28.225"	"26.374"	"21.205"	"16.579"
"1962"	"17.497"	"21.832"	"26.737"	"31.334"	"32.151"	"30.684"	"29.564"	"28.473"	"28.486"	"26.219"	"22.104"	"18.966"
"1963"	"17.728"	"22.956"	"26.879"	"30.286"	"30.616"	"30.38"	"28.963"	"28.676"	"28.844"	"27.286"	"23.771"	"19.408"
"1964"	"19.109"	"22.28"	"28.216"	"31.325"	"31.112"	"31.891"	"28.184"	"28.501"	"28.543"	"27.053"	"22.44"	"19.321"
"1965"	"19.684"	"21.961"	"25.627"	"30.571"	"33.301"	"32.387"	"28.717"	"28.419"	"28.598"	"27.066"	"23.135"	"18.265"
"1966"	"18.565"	"23.415"	"27.62"	"32.477"	"34.005"	"31.879"	"29.366"	"28.699"	"28.602"	"26.643"	"23.494"	"18.665"
"1967"	"19.517"	"23.199"	"25.681"	"29.231"	"32.424"	"31.754"	"29.044"	"28.224"	"28.364"	"26.87"	"22.08"	"20.36"
"1968"	"18.873"	"21.258"	"27.22"	"31.045"	"33.623"	"28.996"	"28.373"	"28.359"	"29.309"	"26.253"	"22.056"	"21.473"
"1969"	"18.467"	"22.527"	"28.561"	"31.602"	"30.992"	"31.141"	"28.742"	"27.763"	"28.004"	"26.738"	"23.181"	"18.723"
"1970"	"19.065"	"21.75"	"26.78"	"31.859"	"33.088"	"29.991"	"28.741"	"28.563"	"27.965"	"26.617"	"21.615"	"17.743"
"1971"	"18.343"	"20.844"	"25.675"	"27.467"	"29.005"	"29.134"	"27.378"	"27.141"	"27.98"	"26.517"	"21.168"	"18.345"
"1972"	"18.13"	"18.915"	"26.526"	"30.83"	"33.445"	"31.455"	"29.021"	"28.084"	"26.87"	"26.155"	"21.446"	"18.356"
"1973"	"18.718"	"21.964"	"25.144"	"31.133"	"30.638"	"29.126"	"28.742"	"28.358"	"27.879"	"26.587"	"22.076"	"18.32"
"1974"	"17.159"	"20.89"	"26.605"	"30.593"	"30.973"	"30.996"	"28.386"	"28.461"	"28.264"	"27.25"	"22.062"	"16.67"
"1975"	"18.24"	"21.437"	"26.76"	"30.839"	"31.972"	"30.577"	"27.241"	"28.237"	"27.843"	"27.588"	"22.387"	"18.126"
"1976"	"18.724"	"22.267"	"27.515"	"30.617"	"30.432"	"31.084"	"29.12"	"28.3"	"28.017"	"27.381"	"24.053"	"18.851"
"1977"	"18.443"	"21.388"	"28.378"	"30.307"	"28.778"	"29.535"	"28.487"	"28.936"	"28.775"	"26.533"	"23.701"	"17.04"
"1978"	"17.544"	"21.065"	"25.557"	"29.564"	"31.453"	"29.637"	"28.619"	"28.749"	"27.935"	"26.616"	"23.445"	"19.117"
"1979"	"19.585"	"20.067"	"26.416"	"30.784"	"33.275"	"31.597"	"29.495"	"29.438"	"27.439"	"27.338"	"24.902"	"19.178"
"1980"	"18.791"	"21.607"	"26.157"	"32.103"	"31.256"	"29.364"	"28.156"	"27.833"	"28.858"	"26.509"	"22.7"	"19.461"
"1981"	"18.22"	"21.533"	"25.845"	"27.87"	"28.974"	"30.65"	"28.248"	"28.575"	"28.258"	"26.877"	"22.402"	"18.638"
"1982"	"19.85"	"21.287"	"24.709"	"30.089"	"33.585"	"30.612"	"30.822"	"28.476"	"29.341"	"27.269"	"22.707"	"18.736"
"1983"	"18.385"	"21.154"	"27.001"	"29.802"	"30.988"	"32.586"	"29.584"	"28.858"	"28.876"	"26.696"	"22.637"	"18.603"
"1984"	"18.604"	"20.269"	"27.083"	"31.606"	"32.99"	"29.112"	"28.741"	"28.499"	"28.303"	"27.468"	"21.503"	"19.158"
"1985"	"19.379"	"20.943"	"27.679"	"31.613"	"30.613"	"31.227"	"28.041"	"28.57"	"28.112"	"26.657"	"22.93"	"20.37"
"1986"	"19.046"	"21.869"	"26.385"	"30.321"	"29.946"	"31.641"	"28.564"	"28.059"	"28.161"	"25.966"	"22.774"	"19.41"
"1987"	"18.887"	"22.543"	"26.553"	"30.198"	"31.506"	"31.86"	"28.64"	"27.914"	"28.538"	"27.741"	"23.499"	"20.58"
"1988"	"19.972"	"22.274"	"26.481"	"31.271"	"32.057"	"29.724"	"29.034"	"29.178"	"29.799"	"28.502"	"23.595"	"21.237"
"1989"	"18.588"	"23.297"	"27.204"	"32.58"	"31.928"	"29.694"	"28.984"	"28.834"	"28.743"	"27.87"	"23.126"	"18.991"
"1990"	"19.438"	"22.175"	"25.166"	"30.025"	"30.531"	"30.627"	"28.719"	"29.531"	"29.035"	"25.92"	"23.754"	"19.702"
"1991"	"18.045"	"23.5"	"27.32"	"30.721"	"33.085"	"29.894"	"29.505"	"28.692"	"28.53"	"27.395"	"23.563"	"18.561"
"1992"	"17.597"	"20.502"	"27.654"	"31.659"	"30.955"	"31.263"	"29.089"	"28.878"	"28.742"	"27.292"	"23.372"	"18.745"
"1993"	"18.982"	"22.964"	"25.865"	"29.688"	"31.063"	"31.23"	"29.556"	"28.397"	"28.344"	"27.46"	"22.737"	"19.52"
"1994"	"19.782"	"21.221"	"27.201"	"29.932"	"32.447"	"30.516"	"29.116"	"28.691"	"28.539"	"27.25"	"23.131"	"19.18"
"1995"	"17.623"	"21.432"	"26.424"	"31.091"	"32.309"	"31.59"	"28.646"	"28.422"	"28.343"	"27.088"	"23.29"	"19.723"
"1996"	"19.125"	"21.182"	"27.666"	"29.987"	"32.595"	"29.792"	"29.01"	"27.897"	"29.106"	"26.788"	"22.763"	"18.769"
"1997"	"18.362"	"20.966"	"27.258"	"29.753"	"31.855"	"31.339"	"28.722"	"28.715"	"27.941"	"26.58"	"23.663"	"18.966"
"1998"	"17.921"	"22.115"	"25.255"	"30.675"	"32.362"	"32.731"	"29.105"	"29.042"	"29.012"	"28.75"	"23.816"	"20.061"
"1999"	"19.137"	"23.161"	"27.924"	"32.96"	"31.969"	"30.649"	"28.684"	"28.499"	"28.258"	"27.433"	"23.258"	"20.423"
"2000"	"19.741"	"21.318"	"26.826"	"31.412"	"31.69"	"30.508"	"29.007"	"28.96"	"28.239"	"27.532"	"24.061"	"18.93"
"2001"	"18.836"	"22.176"	"27.016"	"31.72"	"32.19"	"29.901"	"28.617"	"29.241"	"29.239"	"28"	"24.462"	"20.041"
"2002"	"19.286"	"22.879"	"27.681"	"30.865"	"32.472"	"31.008"	"29.779"	"28.499"	"28.519"	"27.13"	"23.074"	"19.883"
