
"Year"	"Jan"	"Feb"	"Mar"	"Apr"	"May"	"Jun"	"Jul"	"Aug"	"Sep"	"Oct"	"Nov"	"Dec"
"1901"	"12.7"	"14.3"	"21.3"	"26.8"	"31.2"	"35.4"	"32.6"	"31.4"	"30.1"	"27.5"	"20.8"	"15.4"
"1902"	"15.4"	"17.6"	"22.9"	"27.7"	"32"	"33.4"	"31.7"	"31.7"	"29.7"	"25.6"	"19.9"	"14.7"
"1903"	"13.5"	"15.4"	"19.4"	"26.3"	"31.3"	"35.8"	"33.4"	"31"	"30.5"	"26.7"	"19.9"	"15.2"
"1904"	"12.9"	"17"	"20.4"	"28.3"	"31.7"	"34.5"	"31.6"	"30.8"	"29.7"	"26.2"	"19.3"	"15.2"
"1905"	"11.6"	"11.6"	"17.2"	"24.8"	"33"	"35.1"	"32.3"	"32.2"	"30.8"	"26.8"	"20.6"	"14.9"
"1906"	"12.5"	"13.6"	"19.1"	"27.2"	"33.9"	"33.8"	"32.6"	"29.9"	"29.5"	"26.6"	"21.3"	"16.3"
"1907"	"15.5"	"13.4"	"17.4"	"24.6"	"30.3"	"33.7"	"33.2"	"30.6"	"31"	"27.3"	"20.7"	"14.9"
"1908"	"14.4"	"16.4"	"21.2"	"28.2"	"32.1"	"35.7"	"31.5"	"29.4"	"29.9"	"26.3"	"19"	"14.5"
"1909"	"12.5"	"14.8"	"21.9"	"26"	"32.3"	"32.5"	"30.5"	"30"	"29.7"	"26.7"	"20.9"	"14.3"
"1910"	"13.6"	"15.7"	"21.1"	"26.5"	"32.5"	"33.6"	"30.6"	"30"	"30"	"25.6"	"19"	"14.4"
"1911"	"14.1"	"16.6"	"18.5"	"27"	"33.5"	"33.7"	"33.6"	"32.2"	"30"	"26.5"	"18.1"	"14.5"
"1912"	"13.9"	"17.3"	"20.8"	"26.8"	"32.2"	"35.2"	"31.9"	"30.2"	"29.2"	"26.5"	"18.7"	"14.6"
"1913"	"14.7"	"15.1"	"18.3"	"28.3"	"30.3"	"31.6"	"30.7"	"30.8"	"30.4"	"26.6"	"19.1"	"13.6"
"1914"	"15.4"	"14.9"	"20"	"26.4"	"31.6"	"33.4"	"30.9"	"30.7"	"29.6"	"24.1"	"19.7"	"14.2"
"1915"	"14"	"14.7"	"21.3"	"27.6"	"34.5"	"34.2"	"33.2"	"31.6"	"30.6"	"27.6"	"20.6"	"15.1"
"1916"	"14.5"	"15.2"	"24"	"28.8"	"32"	"33.1"	"30.7"	"30.2"	"29.7"	"26.2"	"19.2"	"14.3"
"1917"	"13.7"	"16.4"	"20.5"	"23.9"	"27.7"	"32.6"	"30.6"	"29.9"	"28.3"	"25"	"19"	"14.5"
"1918"	"13.2"	"16.6"	"20.6"	"24.9"	"33.9"	"33.1"	"33.1"	"31.5"	"30.4"	"26.5"	"19.5"	"13.8"
"1919"	"13.2"	"15.3"	"21.1"	"26.1"	"30.9"	"35.7"	"31.2"	"30.4"	"29.8"	"26.3"	"19.4"	"13.9"
"1920"	"14.8"	"14.5"	"20.2"	"26.9"	"28.6"	"33.1"	"31.5"	"30.9"	"30.5"	"27.2"	"20.9"	"16.5"
"1921"	"14.1"	"17.2"	"24.3"	"30.6"	"35.4"	"35.1"	"32.8"	"30.3"	"29.6"	"25"	"19.6"	"15.7"
"1922"	"12.6"	"17.1"	"22.8"	"27.6"	"32.8"	"33.4"	"31.6"	"30.5"	"29.2"	"25.2"	"19.4"	"13.9"
"1923"	"13.7"	"14.6"	"22.1"	"28.8"	"31.6"	"35.6"	"31.3"	"29.7"	"29.8"	"25.2"	"19.5"	"14.6"
"1924"	"12.9"	"15.8"	"22.5"	"28.4"	"28.9"	"36.3"	"32.4"	"30.4"	"28.5"	"26.2"	"19.5"	"15.5"
"1925"	"12"	"14.6"	"22.1"	"29.7"	"32"	"32"	"30.2"	"30.3"	"30.3"	"26"	"18.2"	"15.1"
"1926"	"14.1"	"17.1"	"19.3"	"24.1"	"29.4"	"35.5"	"32.3"	"29.9"	"29.6"	"26"	"17.7"	"14.8"
"1927"	"12.9"	"13.5"	"20"	"26.4"	"30.6"	"34.3"	"31.1"	"29.8"	"29.8"	"26"	"19.6"	"15.9"
"1928"	"12.8"	"16.4"	"21.1"	"27.1"	"34.4"	"34.1"	"32.1"	"31.5"	"30.3"	"26.9"	"19.6"	"14.4"
"1929"	"13.4"	"15"	"23.5"	"28.3"	"33.2"	"34.3"	"31.5"	"29.9"	"30.5"	"25.8"	"19.9"	"12.4"
"1930"	"12.4"	"15.5"	"21.9"	"26.6"	"31.8"	"32.9"	"30.3"	"30.5"	"29.2"	"25.6"	"18.9"	"15"
"1931"	"15.1"	"13.2"	"20.5"	"28.7"	"31.8"	"34.9"	"31.6"	"31"	"29.4"	"26"	"19.5"	"15.5"
"1932"	"15.9"	"15.3"	"22.1"	"27.7"	"30.8"	"35.9"	"31.6"	"29.9"	"29.8"	"26.3"	"19.9"	"14.8"
"1933"	"12.1"	"16.2"	"20.9"	"24.9"	"29.6"	"34.3"	"30.9"	"29.3"	"28.5"	"25.3"	"19.5"	"15.9"
"1934"	"11.4"	"18.2"	"20.3"	"27.5"	"31"	"33.8"	"31.4"	"29.8"	"30.9"	"26"	"19.6"	"14.9"
"1935"	"11.7"	"16.1"	"21.2"	"23.7"	"32.5"	"35.8"	"31.5"	"29.9"	"29.7"	"25.8"	"19.8"	"14.1"
"1936"	"12.4"	"15.6"	"20.6"	"26.9"	"34.1"	"32.1"	"30.9"	"30.3"	"29.4"	"26"	"19.7"	"13.9"
"1937"	"13.1"	"15.6"	"19.9"	"25.8"	"31.8"	"34.6"	"31"	"31.5"	"29.9"	"25.2"	"18.9"	"13.8"
"1938"	"13.2"	"14.3"	"22.3"	"28.4"	"34.3"	"33"	"32.3"	"31.1"	"30.7"	"27"	"18.3"	"15.9"
"1939"	"14.6"	"15.8"	"18.6"	"25.8"	"33.6"	"32.8"	"31.5"	"31.3"	"30.2"	"27.2"	"20.1"	"16"
"1940"	"14.1"	"15.3"	"19.2"	"25.8"	"32.7"	"34"	"31.6"	"29.9"	"29.4"	"26.4"	"20.5"	"14.4"
"1941"	"12.9"	"17"	"23.6"	"30.4"	"33.5"	"32.7"	"32.2"	"30.8"	"30.1"	"27.9"	"20.2"	"16.8"
"1942"	"12.6"	"16.3"	"23.2"	"28.9"	"32.5"	"35.1"	"30.7"	"29.2"	"28.8"	"26.3"	"20.9"	"14.3"
"1943"	"12.9"	"16.8"	"21.8"	"26.2"	"31.8"	"34.2"	"31.2"	"29.6"	"30.5"	"26.5"	"21"	"16.4"
"1944"	"12.4"	"14.7"	"19.9"	"26.6"	"33.6"	"34"	"31.2"	"30.5"	"29.6"	"26.3"	"20.2"	"15.7"
"1945"	"11.6"	"15.1"	"21.9"	"25.4"	"31.1"	"34.1"	"31.1"	"30.4"	"29.1"	"25.3"	"19.9"	"14.1"
"1946"	"15.5"	"18.9"	"20.7"	"29.6"	"32.2"	"33.7"	"31.2"	"30.6"	"30.6"	"26.1"	"19.8"	"14.2"
"1947"	"13"	"16.7"	"22"	"29.6"	"33.5"	"37"	"32.8"	"31.3"	"28.9"	"25.1"	"20.5"	"15.2"
"1948"	"14.5"	"15"	"20.2"	"30.1"	"33.3"	"35.3"	"31.7"	"29.7"	"29.9"	"26.3"	"18.5"	"14.1"
"1949"	"15.9"	"15.7"	"22.3"	"29.6"	"34.3"	"34.7"	"30.8"	"30.8"	"31"	"26.4"	"18.8"	"13.9"
"1950"	"14.7"	"14.6"	"20.1"	"27"	"33.3"	"35"	"31.7"	"30.3"	"28.4"	"25.2"	"19.6"	"13.5"
"1951"	"12.9"	"16.7"	"21.9"	"25.2"	"31.9"	"34.9"	"33.3"	"31.3"	"30.9"	"28.1"	"21.2"	"16.2"
"1952"	"15.2"	"18.5"	"21.3"	"30"	"33.2"	"33.8"	"31.6"	"30.2"	"30.9"	"26.4"	"20.6"	"15.5"
"1953"	"13"	"19"	"25.4"	"28.9"	"33.8"	"34.9"	"31.3"	"30.7"	"30.2"	"26.6"	"20.3"	"17.5"
"1954"	"12.9"	"17"	"22.3"	"29"	"33.6"	"34.8"	"31.8"	"31.6"	"30.4"	"24.3"	"19.5"	"14.5"
"1955"	"13.6"	"17.3"	"23.8"	"25.9"	"30.5"	"35.6"	"32.2"	"30.2"	"29.3"	"24.9"	"20.1"	"14.9"
"1956"	"13.9"	"17.9"	"21.8"	"29.2"	"35.2"	"34.2"	"30.8"	"30"	"30.7"	"25"	"19.2"	"14.5"
"1957"	"13"	"15.4"	"20.7"	"26.2"	"30.9"	"34"	"32.3"	"30.6"	"28.8"	"26.3"	"20.3"	"15.2"
"1958"	"15.5"	"16.8"	"22.9"	"30.6"	"32.5"	"35.6"	"31.2"	"30.7"	"29.6"	"26.5"	"21.3"	"16"
"1959"	"14.2"	"15.6"	"23"	"28.5"	"31.8"	"35.4"	"31.5"	"30.7"	"29.8"	"26"	"19.7"	"16"
"1960"	"13.3"	"20.4"	"20.7"	"27.2"	"33.9"	"35.7"	"32.2"	"31"	"30.4"	"26.2"	"19.2"	"16.1"
"1961"	"14.7"	"14.9"	"22.7"	"27.7"	"33"	"35.2"	"31.8"	"30.6"	"31.1"	"26.3"	"18.6"	"13.1"
"1962"	"12.8"	"17.1"	"21.5"	"29.3"	"32.8"	"34.4"	"32.5"	"31.1"	"28.8"	"28.4"	"19.6"	"14"
"1963"	"13.2"	"17.8"	"21.5"	"27.6"	"31.3"	"34.7"	"32.1"	"29.5"	"29.1"	"26.8"	"20.6"	"14.7"
"1964"	"12.8"	"15.7"	"21.5"	"27.9"	"30.2"	"34.9"	"30.1"	"30.8"	"29.7"	"26"	"19.2"	"14.9"
"1965"	"15.9"	"16.5"	"21.5"	"26.1"	"31.4"	"35.3"	"31.3"	"30"	"29.9"	"26.4"	"20.6"	"13.9"
"1966"	"13.5"	"17.6"	"21.2"	"28.1"	"32.8"	"34"	"32.3"	"30.6"	"29.6"	"25.6"	"19.1"	"14.4"
"1967"	"13"	"18.3"	"21.1"	"27.2"	"31.5"	"35.1"	"31.6"	"30"	"29.9"	"25.1"	"19.1"	"14.8"
"1968"	"12.8"	"14.7"	"21.7"	"28"	"32.3"	"34.9"	"31.2"	"30.3"	"31.2"	"24.9"	"19.9"	"15.5"
"1969"	"14.3"	"17.3"	"24.4"	"28.2"	"31.6"	"35.1"	"31.7"	"31.3"	"29.8"	"27.1"	"21.3"	"15.8"
"1970"	"14.4"	"16.3"	"22"	"29.1"	"34"	"33"	"32.7"	"30.3"	"30.3"	"27.2"	"19.7"	"15.5"
"1971"	"13.7"	"16.9"	"22.2"	"28.3"	"30.6"	"32.6"	"30.8"	"29.5"	"29.1"	"26.2"	"19.9"	"16.2"
"1972"	"14.6"	"14.6"	"22.9"	"27"	"33.4"	"35.6"	"32.2"	"30.3"	"28.8"	"25.3"	"20.3"	"15.5"
"1973"	"14.2"	"17.8"	"21.1"	"30.1"	"32.9"	"33.4"	"30.8"	"30"	"29.2"	"25.1"	"19.6"	"13.5"
"1974"	"13.1"	"14.9"	"22.4"	"29.5"	"32"	"33.3"	"30.9"	"29.9"	"29.5"	"25.7"	"19.4"	"13.5"
"1975"	"13.7"	"15.7"	"20.8"	"29.2"	"33.4"	"33.9"	"30.7"	"30.1"	"28.5"	"27.4"	"18.9"	"15.6"
"1976"	"14.1"	"16.2"	"21.2"	"26.8"	"32.2"	"32.5"	"31.3"	"29.1"	"29.1"	"26.1"	"20.3"	"14.7"
"1977"	"13.6"	"15.4"	"21.9"	"27"	"29.2"	"31.1"	"30.6"	"29.6"	"28.5"	"26.2"	"21.2"	"15.1"
"1978"	"12.3"	"14.9"	"19.7"	"26.5"	"33.3"	"33"	"29.9"	"29.4"	"28.4"	"26"	"20.2"	"15.5"
"1979"	"14.5"	"15.2"	"20.1"	"29.4"	"31.7"	"34.4"	"30.4"	"31.4"	"28.7"	"27"	"21.2"	"16.7"
"1980"	"14.3"	"16.8"	"21.1"	"30"	"33.6"	"33.3"	"30.4"	"30.5"	"28.7"	"26.4"	"19.2"	"14.5"
"1981"	"13.4"	"16.7"	"21.5"	"28"	"32.6"	"34.1"	"30.4"	"30.1"	"29.7"	"25.2"	"19.3"	"14.7"
"1982"	"15"	"15.3"	"19.3"	"25.5"	"29.1"	"34"	"32"	"29.9"	"29.9"	"25.8"	"20.1"	"15.7"
"1983"	"12.9"	"15.1"	"20.4"	"25.3"	"30.1"	"32.9"	"31.3"	"29.9"	"30"	"24.9"	"18.9"	"15"
"1984"	"12.5"	"14.4"	"22.9"	"28"	"35.1"	"34.2"	"30.5"	"30.3"	"28.4"	"25.2"	"19.4"	"15.5"
"1985"	"13.7"	"16.9"	"23.5"	"28.5"	"33.7"	"34.4"	"30.2"	"30.1"	"29.5"	"25"	"19.7"	"16.5"
"1986"	"13.2"	"15.8"	"21.1"	"27.6"	"30.2"	"33.7"	"30.2"	"30.4"	"29.1"	"24.8"	"20.8"	"13.9"
"1987"	"14.1"	"17.6"	"22.1"	"28.4"	"28.9"	"34.5"	"34.1"	"31.8"	"31.5"	"27.3"	"20.5"	"15.5"
"1988"	"15.4"	"17.4"	"21.5"	"29.7"	"34"	"33.4"	"30.5"	"29.5"	"29.3"	"25.5"	"20.3"	"15.7"
"1989"	"12.6"	"15.7"	"20.9"	"26.2"	"31.9"	"32.5"	"31.6"	"28.3"	"29.1"	"26"	"19.8"	"14.8"
"1990"	"15.7"	"16.5"	"20"	"27.4"	"32"	"35"	"30"	"29.7"	"28.5"	"24.6"	"20.2"	"15.2"
"1991"	"13.2"	"16.7"	"21.2"	"25.9"	"32.4"	"32.6"	"32.5"	"29.8"	"29.2"	"24.9"	"19.1"	"15.2"
"1992"	"14.4"	"15.3"	"21.2"	"27.6"	"31.3"	"34.2"	"30.3"	"29.6"	"28.9"	"25.4"	"20.2"	"16.1"
"1993"	"13.7"	"17.9"	"19.8"	"27.4"	"33.5"	"33.9"	"31"	"31.4"	"28.4"	"25.3"	"20.6"	"15.3"
"1994"	"14.3"	"16.5"	"23.2"	"26.3"	"33"	"34.9"	"30.6"	"29.9"	"28.7"	"25"	"20.2"	"16.1"
"1995"	"13.4"	"16.3"	"20.4"	"26.6"	"34.1"	"35.6"	"31"	"28.7"	"29.2"	"26.5"	"20.5"	"16.2"
"1996"	"14.1"	"17.2"	"22.5"	"28.5"	"31.8"	"32.7"	"31.1"	"28.8"	"28.8"	"25.5"	"19.4"	"14.3"
"1997"	"13.8"	"16.4"	"21.3"	"26.9"	"30.5"	"32.2"	"31.8"	"29.7"	"30"	"23.7"	"19.4"	"13.4"
"1998"	"11.2"	"17"	"19.9"	"28"	"33.5"	"35.1"	"31.1"	"30.3"	"29.8"	"26.3"	"21.3"	"16.5"
"1999"	"13.5"	"19"	"23.9"	"32.1"	"33.6"	"32.8"	"32.1"	"30.8"	"30.5"	"27"	"21.8"	"16.4"
"2000"	"14.8"	"15.2"	"21.1"	"30.3"	"34"	"32.9"	"30.7"	"30.6"	"30.2"	"27.8"	"21.7"	"16.8"
"2001"	"13.9"	"17.4"	"22.7"	"27.6"	"33.4"	"32.4"	"31.4"	"31.5"	"30.6"	"27.7"	"22"	"16.7"
"2002"	"16"	"16.3"	"20.9"	"30"	"34.8"	"34.2"	"33.2"	"31"	"28.3"	"26.4"	"21.3"	"16"
