
"Year"	"Jan"	"Feb"	"Mar"	"Apr"	"May"	"Jun"	"Jul"	"Aug"	"Sep"	"Oct"	"Nov"	"Dec"
"1901"	"14.055"	"17.271"	"23.185"	"29.163"	"33.555"	"35.969"	"31.094"	"27.779"	"27.498"	"25.879"	"19.974"	"16.102"
"1902"	"16.631"	"18.66"	"26.076"	"30.366"	"33.835"	"34.307"	"28.96"	"28.259"	"27.33"	"24.761"	"18.783"	"15.089"
"1903"	"15.894"	"17.126"	"23.223"	"28.947"	"33.637"	"34.684"	"30.592"	"28.088"	"27.761"	"24.282"	"18.628"	"15.072"
"1904"	"16.061"	"17.9"	"23.791"	"30.086"	"32.941"	"33.042"	"27.738"	"27.002"	"27.237"	"24.848"	"18.814"	"16.449"
"1905"	"14.502"	"13.986"	"21.643"	"26.702"	"32.932"	"35.498"	"29.25"	"27.495"	"27.784"	"24.679"	"20.238"	"15.874"
"1906"	"15.158"	"17.243"	"22.82"	"29.653"	"34.796"	"33.286"	"28.818"	"27.552"	"27.392"	"25.178"	"20.179"	"16.648"
"1907"	"16.877"	"17.335"	"22.066"	"27.554"	"32.392"	"33.909"	"32.093"	"27.389"	"28.722"	"26.406"	"20.47"	"14.948"
"1908"	"14.419"	"18.396"	"23.618"	"31.337"	"34.569"	"34.818"	"28.885"	"27.49"	"28.231"	"25.015"	"19.469"	"15.37"
"1909"	"18.112"	"16.591"	"24.812"	"27.756"	"33.591"	"29.908"	"27.664"	"27.437"	"27.169"	"24.845"	"20.21"	"16.024"
"1910"	"14.894"	"18.12"	"23.985"	"29.357"	"33.233"	"31.918"	"29.248"	"27.358"	"27.758"	"24.188"	"18.343"	"15.214"
"1911"	"17.849"	"17.651"	"22.067"	"28.977"	"34.574"	"32.18"	"30.314"	"27.887"	"26.737"	"25.222"	"18.934"	"15.023"
"1912"	"15.924"	"19.386"	"23.161"	"29.105"	"33.667"	"34.48"	"29.091"	"27.458"	"27.235"	"24.756"	"19.05"	"15.08"
"1913"	"15.386"	"18.535"	"21.935"	"30.415"	"31.774"	"30.064"	"29.254"	"28.115"	"28.125"	"26.53"	"19.511"	"16.211"
"1914"	"17.202"	"19.333"	"23.316"	"28.916"	"32.895"	"33.375"	"28.199"	"27.37"	"27.854"	"24.655"	"20.478"	"16.047"
"1915"	"16.147"	"17.045"	"22.782"	"28.871"	"35.19"	"33.612"	"29.422"	"27.461"	"27.266"	"25.852"	"20.061"	"15.971"
"1916"	"15.412"	"17.87"	"25.211"	"30.376"	"33.758"	"29.692"	"28.626"	"27.066"	"27.33"	"25.355"	"18.238"	"14.389"
"1917"	"15.318"	"17.786"	"22.741"	"26.872"	"29.674"	"31.153"	"28.422"	"27.69"	"27.062"	"25.05"	"17.565"	"15.779"
"1918"	"14.254"	"18.494"	"24.172"	"28.285"	"34.07"	"30.441"	"31.034"	"27.948"	"28.26"	"25.573"	"20.008"	"15.353"
"1919"	"16.071"	"16.442"	"24.051"	"28.763"	"33.214"	"33.686"	"27.74"	"27.49"	"27.629"	"24.515"	"19.658"	"15.648"
"1920"	"15.394"	"17.901"	"23.987"	"29.364"	"31.367"	"33.378"	"27.962"	"27.726"	"28.661"	"26.576"	"20.632"	"16.048"
"1921"	"16.684"	"18.16"	"25.981"	"31.461"	"35.807"	"33.019"	"30.632"	"26.838"	"27.231"	"24.615"	"18.799"	"17.565"
"1922"	"15.658"	"19.42"	"24.691"	"29.801"	"34.799"	"32.487"	"27.897"	"26.837"	"27.129"	"24.446"	"19.543"	"15.607"
"1923"	"15.396"	"17.859"	"24.103"	"30.159"	"33.865"	"35.635"	"28.552"	"27.308"	"27.863"	"24.305"	"19.776"	"16.547"
"1924"	"15.277"	"18.316"	"25.811"	"30.575"	"32.715"	"35.66"	"27.9"	"27.338"	"27.331"	"25.341"	"19.409"	"15.755"
"1925"	"14.231"	"16.713"	"23.682"	"29.849"	"32.131"	"31.463"	"27.132"	"28.117"	"27.213"	"25.615"	"18.766"	"14.79"
"1926"	"15.393"	"19.194"	"22.924"	"26.342"	"31.824"	"35.142"	"30.117"	"27.822"	"26.871"	"24.353"	"17.98"	"15.192"
"1927"	"14.234"	"17.419"	"22.231"	"29.115"	"32.941"	"33.719"	"28.749"	"27.591"	"28.169"	"25.279"	"18.516"	"16.746"
"1928"	"15.443"	"18.394"	"24.186"	"28.875"	"34.396"	"32.46"	"28.353"	"28.344"	"28.458"	"25.912"	"20.674"	"16.347"
"1929"	"15.466"	"16.801"	"24.676"	"30.087"	"34.895"	"33.021"	"28.56"	"26.533"	"28.85"	"24.551"	"19.442"	"15.096"
"1930"	"15.102"	"17.625"	"24.645"	"28.969"	"33.599"	"33.193"	"28.19"	"27.388"	"27.472"	"25.85"	"19.083"	"15.532"
"1931"	"17.021"	"17.697"	"23.461"	"30.896"	"34.043"	"34.886"	"29.473"	"28.12"	"27.538"	"24.751"	"19.152"	"16.539"
"1932"	"17.444"	"17.195"	"24.186"	"29.306"	"33.233"	"34.393"	"30.005"	"27.207"	"27.74"	"25.42"	"19.228"	"15.782"
"1933"	"14.088"	"19.168"	"24.51"	"26.854"	"30.417"	"31.552"	"28.535"	"27.856"	"27.465"	"25.148"	"19.147"	"15.851"
"1934"	"15.478"	"18.62"	"23.226"	"29.48"	"33.804"	"32.554"	"28.523"	"27.487"	"27.454"	"24.281"	"19.407"	"16.647"
"1935"	"14.438"	"18.401"	"24.011"	"27.041"	"34.365"	"34.285"	"28.449"	"26.927"	"27.062"	"24.331"	"19.877"	"15.963"
"1936"	"14.563"	"17.99"	"24.017"	"28.574"	"33.897"	"30.85"	"27.9"	"27.135"	"27.13"	"24.911"	"19.761"	"16.323"
"1937"	"14.194"	"18.292"	"22.421"	"28.137"	"32.956"	"32.611"	"28.914"	"26.333"	"27.101"	"23.655"	"20.373"	"15.047"
"1938"	"16.03"	"16.143"	"25.253"	"30.159"	"33.62"	"29.983"	"28.087"	"27.362"	"27.73"	"25.762"	"18.985"	"15.481"
"1939"	"16.695"	"18.708"	"22.885"	"28.478"	"34.536"	"31.934"	"28.317"	"26.989"	"26.938"	"25.615"	"19.278"	"15.488"
"1940"	"15.188"	"17.511"	"22.268"	"28.277"	"33.731"	"33.714"	"29.237"	"27.586"	"27.531"	"25.121"	"20.441"	"15.825"
"1941"	"15.644"	"18.394"	"25.938"	"31.537"	"33.98"	"31.876"	"29.946"	"28.088"	"28.167"	"26.733"	"19.811"	"16.556"
"1942"	"14.81"	"18.849"	"24.674"	"29.925"	"35.096"	"34.266"	"28.313"	"27.585"	"27.161"	"25.478"	"20.826"	"16.216"
"1943"	"17.986"	"18.051"	"25.141"	"28.246"	"34.679"	"33.735"	"29.209"	"26.588"	"27.853"	"25.075"	"20.649"	"16.823"
"1944"	"15.63"	"17.695"	"22.55"	"27.704"	"34.89"	"32.797"	"28.547"	"27.617"	"27.764"	"24.381"	"20.536"	"17.748"
"1945"	"14.043"	"17.762"	"24.646"	"27.704"	"33.253"	"33.827"	"29.568"	"28.685"	"27.627"	"24.218"	"19.236"	"14.754"
"1946"	"16.448"	"20.176"	"23.957"	"29.753"	"32.999"	"31.551"	"28.089"	"27.685"	"28.112"	"25.78"	"19.959"	"17.62"
"1947"	"15.106"	"18.849"	"25.392"	"30.886"	"34.324"	"34.459"	"28.547"	"27.858"	"27.789"	"25.013"	"20.789"	"16.747"
"1948"	"16.391"	"18.036"	"23.616"	"31.028"	"35.041"	"33.986"	"28.383"	"27.358"	"27.161"	"25.72"	"19.505"	"15.94"
"1949"	"17.168"	"18.982"	"24.648"	"30.396"	"33.589"	"33.961"	"29.249"	"27.364"	"27.853"	"25.844"	"18.209"	"15.253"
"1950"	"16.485"	"17.4"	"23.05"	"28.375"	"33.872"	"32.833"	"28.482"	"27.334"	"27.662"	"24.78"	"19.211"	"16.121"
"1951"	"14.92"	"17.907"	"23.691"	"28.237"	"33.067"	"33.27"	"29.682"	"27.518"	"27.473"	"27.336"	"21.169"	"16.114"
"1952"	"17.245"	"20.654"	"23.911"	"30.575"	"34.734"	"32.157"	"28.305"	"26.893"	"27.895"	"25.65"	"19.775"	"16.956"
"1953"	"15.668"	"20.564"	"27.609"	"30.102"	"34.37"	"33.409"	"27.573"	"26.435"	"27.211"	"24.556"	"19.371"	"18.033"
"1954"	"14.831"	"19.869"	"24.257"	"30.735"	"34.973"	"33.158"	"29.541"	"27.366"	"27.386"	"23.787"	"19.503"	"16.547"
"1955"	"16.127"	"18.704"	"26.045"	"28.529"	"33.793"	"32.786"	"27.732"	"27.328"	"27.268"	"24.421"	"19.304"	"16.906"
"1956"	"16.321"	"18.198"	"24.962"	"30.547"	"34.625"	"30.293"	"28.291"	"27.314"	"26.603"	"24.85"	"18.717"	"17.216"
"1957"	"16.412"	"17.471"	"22.976"	"29.062"	"33.626"	"33.568"	"28.914"	"28.016"	"27.044"	"25.316"	"20.747"	"17.554"
"1958"	"17.746"	"19.271"	"25.312"	"31.362"	"34.798"	"35.169"	"28.922"	"27.628"	"27.464"	"25.052"	"20.522"	"17.371"
"1959"	"16.33"	"17.81"	"25.176"	"30.272"	"33.705"	"33.874"	"29.077"	"27.416"	"27.627"	"25.48"	"20.438"	"16.973"
"1960"	"15.783"	"20.611"	"24.036"	"29.398"	"33.759"	"34.598"	"28.484"	"27.397"	"27.837"	"24.983"	"19.079"	"17.287"
"1961"	"16.241"	"16.943"	"25.386"	"29.905"	"34"	"32.792"	"28.719"	"27.327"	"27.127"	"24.55"	"18.958"	"13.99"
"1962"	"14.521"	"18.762"	"24.015"	"29.703"	"33.619"	"35.894"	"30.082"	"27.033"	"26.538"	"23.787"	"19.881"	"16.974"
"1963"	"14.394"	"19.592"	"23.877"	"29.101"	"32.112"	"31.598"	"28.426"	"27.627"	"27.014"	"25.588"	"22.333"	"16.548"
"1964"	"15.244"	"18.6"	"25.934"	"30.67"	"32.45"	"33.225"	"28.083"	"27.617"	"26.976"	"25.615"	"19.479"	"17.13"
"1965"	"17.074"	"19.253"	"23.616"	"28.077"	"33.263"	"35.236"	"29.709"	"28.32"	"27.159"	"25.814"	"21.34"	"16.458"
"1966"	"16.347"	"21.243"	"24.885"	"30.676"	"34.158"	"32.752"	"30.655"	"27.594"	"28.388"	"26.548"	"21.554"	"15.69"
"1967"	"15.013"	"20.057"	"22.833"	"28.575"	"33.485"	"34.129"	"28.536"	"26.528"	"26.914"	"25.276"	"20.474"	"17.326"
"1968"	"15.057"	"17.236"	"23.824"	"28.663"	"33.13"	"31.816"	"28.683"	"27.683"	"28.99"	"25.113"	"20.592"	"16.704"
"1969"	"16.025"	"19.874"	"26.879"	"30.551"	"32.378"	"34.302"	"28.168"	"26.799"	"27.03"	"26.591"	"21.948"	"16.514"
"1970"	"16.464"	"17.825"	"23.717"	"30.757"	"33.539"	"31.404"	"29.08"	"27.688"	"26.577"	"25.686"	"19.736"	"16.563"
"1971"	"15.264"	"17.963"	"22.609"	"28.621"	"30.659"	"29.663"	"27.004"	"26.236"	"27.269"	"24.918"	"19.303"	"16.396"
"1972"	"15.609"	"16.447"	"24.661"	"29.061"	"34.265"	"35.374"	"30.242"	"27.514"	"26.752"	"24.125"	"20.356"	"17.019"
"1973"	"16.461"	"19.831"	"24.021"	"31.256"	"34.52"	"33.762"	"29.199"	"27.418"	"26.973"	"24.645"	"19.426"	"15.593"
"1974"	"15.093"	"17.371"	"25.182"	"31.235"	"33.841"	"33.018"	"28.277"	"27.185"	"27.555"	"26.508"	"19.808"	"15.594"
"1975"	"14.946"	"18.313"	"23.782"	"30.227"	"35.064"	"32.723"	"27.356"	"27.405"	"26.94"	"25.989"	"18.682"	"15.699"
"1976"	"16.05"	"18.599"	"24.185"	"28.475"	"32.48"	"32.279"	"28.898"	"26.986"	"26.738"	"25.589"	"22.273"	"16.838"
"1977"	"15.572"	"18.885"	"25.827"	"29.392"	"31.684"	"32.55"	"27.743"	"27.198"	"27.001"	"25.649"	"22.472"	"17.267"
"1978"	"15.176"	"17.069"	"21.855"	"28.789"	"35.161"	"32.25"	"27.346"	"26.591"	"26.713"	"25.284"	"21.84"	"16.265"
"1979"	"16.594"	"17.407"	"22.626"	"28.895"	"32.45"	"32.336"	"28.521"	"28.083"	"28.893"	"27.341"	"24.247"	"17.776"
"1980"	"16.344"	"19.381"	"23.983"	"31.099"	"34.463"	"30.051"	"27.101"	"26.364"	"27.415"	"26.188"	"20.883"	"17.25"
"1981"	"16.044"	"19.436"	"23.675"	"29.052"	"32.538"	"32.739"	"27.163"	"27.465"	"27.397"	"25.32"	"19.626"	"16.181"
"1982"	"17.203"	"17.579"	"21.798"	"28.598"	"31.77"	"31.951"	"30.858"	"27.261"	"27.28"	"26.074"	"20.891"	"17.295"
"1983"	"14.709"	"17.639"	"23.659"	"27.323"	"31.615"	"33.706"	"28.903"	"28.105"	"27.769"	"24.866"	"19.274"	"16.559"
"1984"	"15.981"	"16.73"	"24.58"	"30.198"	"34.771"	"32.075"	"28.436"	"27.053"	"26.795"	"25.984"	"20.009"	"17.938"
"1985"	"16.24"	"18.882"	"26.647"	"30.614"	"34.527"	"33.563"	"27.857"	"27.391"	"27.54"	"24.616"	"20.67"	"18.104"
"1986"	"16.358"	"18.124"	"23.869"	"29.777"	"31.484"	"32.329"	"27.031"	"26.804"	"26.624"	"24.851"	"21.046"	"16.41"
"1987"	"15.627"	"19.381"	"24.024"	"30.529"	"32.184"	"35.31"	"29.681"	"29.135"	"27.961"	"25.808"	"20.94"	"16.174"
"1988"	"16.686"	"19.443"	"24.415"	"30.59"	"35.038"	"32.067"	"27.862"	"27.738"	"28.8"	"25.466"	"20.869"	"17.679"
"1989"	"15.095"	"18.423"	"23.384"	"29.116"	"34.138"	"31.301"	"28.337"	"27.673"	"27.475"	"25.784"	"21.053"	"16.72"
"1990"	"17.506"	"19.131"	"22.803"	"29.773"	"32.697"	"31.96"	"26.834"	"27.499"	"27.16"	"25.677"	"19.963"	"17.214"
"1991"	"15.288"	"19.842"	"24.545"	"29.211"	"34.894"	"32.188"	"30.618"	"26.633"	"28.018"	"24.857"	"20.476"	"16.646"
"1992"	"15.863"	"17.112"	"25.384"	"30.038"	"32.503"	"33.045"	"29.791"	"27.452"	"27.306"	"25.722"	"21.815"	"16.586"
"1993"	"16.235"	"19.591"	"22.334"	"28.516"	"33.725"	"33.198"	"30.197"	"28.78"	"26.941"	"26.513"	"21.106"	"16.93"
"1994"	"17.581"	"18.207"	"25.842"	"28.912"	"36.122"	"32.892"	"28.266"	"27.33"	"27.697"	"24.763"	"20.551"	"17.038"
"1995"	"14.95"	"18.629"	"22.837"	"29.81"	"34.556"	"34.884"	"29.721"	"27.147"	"27.321"	"26.24"	"20.649"	"17.834"
"1996"	"16.729"	"18.826"	"25.25"	"29.065"	"34.232"	"32.976"	"28.816"	"26.532"	"28.212"	"24.991"	"19.963"	"15.648"
"1997"	"15.514"	"17.566"	"24.352"	"28.154"	"32.466"	"33.758"	"30.797"	"27.534"	"27.003"	"24.631"	"20.463"	"16.95"
"1998"	"14.676"	"19.845"	"22.44"	"29.752"	"34.345"	"33.536"	"28.52"	"27.929"	"27.897"	"26.892"	"22.817"	"17.228"
"1999"	"15.203"	"19.635"	"24.386"	"30.703"	"33.167"	"32.087"	"28.461"	"27.38"	"26.932"	"26.084"	"22.855"	"17.308"
"2000"	"16.026"	"18.826"	"23.909"	"30.934"	"32.731"	"30.852"	"28.517"	"28.062"	"26.272"	"26.843"	"23.045"	"16.909"
"2001"	"15.136"	"19.272"	"23.924"	"28.536"	"32.683"	"30.694"	"27.762"	"28.05"	"28.104"	"26.38"	"21.686"	"16.952"
"2002"	"16.351"	"16.572"	"24.985"	"30.3"	"34.666"	"32.918"	"31.237"	"27.612"	"27.21"	"25.879"	"21.284"	"17.297"
