
"Year"	"Jan"	"Feb"	"Mar"	"Apr"	"May"	"Jun"	"Jul"	"Aug"	"Sep"	"Oct"	"Nov"	"Dec"
"1901"	"13.578"	"15.542"	"18.84"	"22.071"	"22.231"	"22.691"	"22.605"	"22.6"	"22.781"	"21.915"	"17.823"	"14.894"
"1902"	"14.046"	"15.284"	"19.691"	"20.31"	"22.272"	"22.174"	"22.704"	"22.464"	"22.644"	"20.625"	"17.182"	"14.447"
"1903"	"13.042"	"14.451"	"18.862"	"22.025"	"22.487"	"22.402"	"23.102"	"21.609"	"22.536"	"22.023"	"18.05"	"15.047"
"1904"	"13.305"	"15.536"	"19.607"	"20.736"	"21.865"	"22.542"	"22.444"	"22.212"	"22.791"	"21.267"	"17.451"	"14.056"
"1905"	"13.042"	"12.535"	"17.858"	"19.672"	"22.273"	"22.868"	"22.853"	"22.006"	"23.09"	"21.521"	"17.988"	"15.05"
"1906"	"13.78"	"14.938"	"17.966"	"21.305"	"22.833"	"22.628"	"23.204"	"21.607"	"23.59"	"21.126"	"17.993"	"15.015"
"1907"	"14.758"	"14.446"	"18.115"	"20.223"	"21.691"	"21.88"	"22.257"	"22.61"	"22.445"	"21.526"	"17.997"	"14.819"
"1908"	"13.747"	"14.851"	"19.532"	"22.5"	"21.927"	"22.369"	"22.357"	"22.506"	"22.844"	"21.226"	"17.549"	"14.912"
"1909"	"13.695"	"15.142"	"19.998"	"20.566"	"21.606"	"21.685"	"23.263"	"21.809"	"23.49"	"22.229"	"18.9"	"15.062"
"1910"	"13.583"	"14.658"	"18.434"	"20.289"	"22.131"	"21.681"	"21.802"	"22.109"	"22.891"	"21.025"	"18.092"	"13.907"
"1911"	"13.799"	"14.541"	"18.267"	"20.414"	"21.39"	"21.927"	"22.198"	"22.099"	"22.592"	"21.327"	"17.786"	"14.053"
"1912"	"13.647"	"15.541"	"18.923"	"19.996"	"21.99"	"22.228"	"22.363"	"22.061"	"22.29"	"20.921"	"18.055"	"14.755"
"1913"	"14.358"	"16.648"	"18.508"	"21.01"	"21.14"	"21.822"	"22.852"	"22.009"	"22.49"	"20.93"	"17.292"	"13.756"
"1914"	"13.408"	"15.037"	"18.962"	"20.01"	"21.489"	"22.074"	"22.705"	"21.504"	"22.592"	"20.026"	"17.733"	"15"
"1915"	"14.905"	"15.198"	"19.004"	"21.282"	"21.352"	"21.777"	"21.541"	"22.157"	"22.449"	"22.739"	"19.3"	"15.598"
"1916"	"13.454"	"15.536"	"19.358"	"20.435"	"22.143"	"22.289"	"22.29"	"22.108"	"22.599"	"21.13"	"18.305"	"14.39"
"1917"	"13.247"	"14.595"	"17.938"	"19.892"	"21.383"	"21.633"	"22.302"	"22.108"	"22.162"	"21.324"	"18.547"	"14.026"
"1918"	"13.545"	"14.847"	"18.835"	"20.387"	"22.085"	"20.723"	"22.597"	"21.9"	"22.692"	"21.318"	"17.455"	"14.666"
"1919"	"14.746"	"14.946"	"20.141"	"20.934"	"22.323"	"22.227"	"22.202"	"22.519"	"21.692"	"21.116"	"18.184"	"14.675"
"1920"	"14.656"	"14.838"	"18.477"	"20.374"	"21.78"	"21.928"	"22.824"	"22.005"	"22.602"	"21.226"	"17.677"	"14.979"
"1921"	"15.299"	"15.094"	"19.129"	"20.873"	"21.958"	"21.48"	"22.513"	"22.222"	"22.49"	"19.99"	"17.473"	"14.746"
"1922"	"14.847"	"15.562"	"19.557"	"21.521"	"22.623"	"21.885"	"22.58"	"22.332"	"22.409"	"20.845"	"17.896"	"14.967"
"1923"	"14.943"	"15.07"	"19.186"	"21.432"	"21.447"	"22.323"	"22.221"	"22.351"	"22.664"	"20.538"	"18.112"	"15.124"
"1924"	"14.241"	"15.04"	"20.623"	"21.735"	"21.349"	"22.33"	"22.613"	"22.185"	"22.099"	"21.848"	"18.41"	"14.466"
"1925"	"12.484"	"14.169"	"18.93"	"20.91"	"21.755"	"22.179"	"22.019"	"22.109"	"22.179"	"20.088"	"17.2"	"14.371"
"1926"	"14.042"	"14.998"	"18.383"	"20.341"	"22.022"	"21.632"	"22.314"	"22.232"	"22.486"	"21.234"	"17.11"	"15.607"
"1927"	"13.342"	"14.539"	"17.327"	"20.419"	"21.488"	"21.98"	"22.545"	"22.207"	"22.085"	"20.992"	"17.406"	"15.066"
"1928"	"14.738"	"16.064"	"19.248"	"21.627"	"21.533"	"21.693"	"22.385"	"22.403"	"22.743"	"20.975"	"17.136"	"15.366"
"1929"	"14.286"	"14.479"	"19.075"	"20.867"	"21.773"	"21.547"	"22.454"	"22.209"	"22.501"	"21.234"	"17.339"	"14.589"
"1930"	"12.381"	"15.541"	"18.729"	"20.773"	"22.094"	"21.279"	"22.654"	"22.209"	"23.291"	"20.629"	"18.291"	"14.948"
"1931"	"13.326"	"14.33"	"18.911"	"22.059"	"21.207"	"21.624"	"22.004"	"22.613"	"22.479"	"22.279"	"17.95"	"15.588"
"1932"	"14.344"	"14.987"	"19.829"	"21.48"	"22.802"	"21.765"	"22.351"	"22.223"	"22.804"	"21.992"	"18.49"	"15.237"
"1933"	"13.48"	"15.287"	"19.928"	"21.136"	"21.391"	"22.615"	"22.663"	"22.206"	"22.955"	"21.685"	"16.807"	"14.336"
"1934"	"14.179"	"14.794"	"19.634"	"21.668"	"21.69"	"21.356"	"22.158"	"21.819"	"22.785"	"21.809"	"16.799"	"14.711"
"1935"	"13.205"	"15.52"	"19.628"	"20.934"	"23.362"	"22.149"	"22.603"	"21.71"	"22.868"	"21.821"	"18.109"	"14.092"
"1936"	"12.639"	"14.54"	"19.669"	"21.376"	"22.073"	"22.414"	"22.607"	"22.598"	"22.597"	"21.174"	"18.49"	"15.242"
"1937"	"12.176"	"15.302"	"19.135"	"22.334"	"22.357"	"22.509"	"22.846"	"21.947"	"22.784"	"21.372"	"17.135"	"15.276"
"1938"	"14.538"	"14.59"	"21.223"	"22.368"	"21.553"	"22.269"	"22.304"	"22.398"	"22.63"	"21.82"	"16.886"	"15.47"
"1939"	"13.559"	"15.775"	"19.227"	"22.572"	"21.994"	"22.174"	"22.397"	"22.707"	"22.777"	"21.264"	"18.484"	"15.545"
"1940"	"12.818"	"15.022"	"17.49"	"22.177"	"21.737"	"22.418"	"22.211"	"22.706"	"22.188"	"21.623"	"18.208"	"15.502"
"1941"	"13.578"	"15.284"	"20.719"	"21.812"	"21.574"	"21.897"	"22.711"	"22.8"	"22.486"	"21.029"	"17.034"	"15.947"
"1942"	"13.847"	"15.792"	"19.861"	"21.416"	"21.816"	"22.19"	"22.779"	"22.123"	"21.905"	"21.834"	"18.179"	"14.5"
"1943"	"14.046"	"13.854"	"18.137"	"20.004"	"22.152"	"21.932"	"22.321"	"21.615"	"22.356"	"21.217"	"18.405"	"15.507"
"1944"	"13.086"	"14.289"	"19.033"	"20.218"	"22.291"	"21.768"	"22.518"	"22.296"	"21.923"	"21.174"	"17.434"	"15.24"
"1945"	"13.687"	"14.233"	"19.315"	"21.422"	"21.821"	"22.827"	"22.541"	"22.141"	"23.128"	"20.632"	"18.023"	"14.792"
"1946"	"14.092"	"16.95"	"19.722"	"20.594"	"21.836"	"22.179"	"22.441"	"22.714"	"22.791"	"20.93"	"18.597"	"15.849"
"1947"	"13.979"	"15.645"	"20.028"	"21.582"	"22.323"	"22.523"	"22.513"	"22.533"	"22.709"	"20.526"	"17.862"	"15.932"
"1948"	"14.266"	"15.232"	"18.491"	"20.533"	"20.748"	"22.244"	"22.205"	"22.611"	"22.738"	"20.926"	"18.791"	"14.786"
"1949"	"13.951"	"15.142"	"18.72"	"19.057"	"20.997"	"21.821"	"22.103"	"21.9"	"22.394"	"21.931"	"17.729"	"13.798"
"1950"	"13.576"	"14.747"	"18.734"	"20.876"	"22.388"	"21.98"	"22.403"	"21.799"	"22.793"	"21.46"	"17.736"	"15.103"
"1951"	"13.359"	"15.837"	"19.697"	"22.493"	"21.436"	"21.721"	"22.196"	"22.909"	"22.693"	"21.731"	"18.296"	"16.638"
"1952"	"14.351"	"16.811"	"18.243"	"21.484"	"21.928"	"23.029"	"22.715"	"22.84"	"22.424"	"22.356"	"18.41"	"15.291"
"1953"	"13.444"	"16.243"	"20.33"	"21.868"	"21.251"	"22.426"	"22.334"	"22.909"	"22.688"	"21.614"	"17.998"	"16.741"
"1954"	"12.754"	"17.001"	"19.432"	"22.116"	"22.338"	"21.523"	"22.186"	"22.191"	"23.079"	"20.92"	"17.002"	"15.446"
"1955"	"13.751"	"15.045"	"19.588"	"20.875"	"22.035"	"22.318"	"21.865"	"21.713"	"22.868"	"22.192"	"18.706"	"14.429"
"1956"	"13.604"	"15.22"	"19.621"	"21.717"	"21.504"	"21.495"	"22.612"	"22.408"	"22.275"	"21.882"	"18.21"	"15.155"
"1957"	"14.208"	"14.632"	"18.758"	"22.122"	"22.501"	"22.176"	"22.415"	"22.618"	"22.599"	"20.632"	"17.27"	"15.199"
"1958"	"13.206"	"15.037"	"19.045"	"22.18"	"21.725"	"23.596"	"22.985"	"21.668"	"23.004"	"21.488"	"17.475"	"15.157"
"1959"	"13.947"	"14.445"	"18.538"	"21.087"	"21.531"	"21.708"	"22.922"	"22.194"	"22.107"	"20.819"	"17.209"	"15.498"
"1960"	"13.849"	"15.212"	"18.535"	"22.312"	"23.266"	"22.635"	"21.921"	"22.982"	"22.437"	"21.386"	"17.843"	"14.75"
"1961"	"13.798"	"14.184"	"19.046"	"21.742"	"22.592"	"22.247"	"22.784"	"22.681"	"22.899"	"21.531"	"17.091"	"13.615"
"1962"	"12.821"	"15.199"	"18.909"	"21.797"	"21.876"	"21.787"	"23.102"	"21.901"	"23.05"	"20.992"	"17.495"	"14.904"
"1963"	"13.598"	"16.652"	"19.534"	"20.453"	"21.24"	"21.541"	"22.113"	"22.405"	"23.284"	"20.974"	"17.351"	"15.193"
"1964"	"13.443"	"15.346"	"19.677"	"20.267"	"21.533"	"21.611"	"21.562"	"22.599"	"23.048"	"22.168"	"18.694"	"14.949"
"1965"	"13.606"	"14.613"	"18.024"	"21.335"	"22.524"	"21.973"	"21.91"	"21.309"	"22.348"	"21.293"	"17.7"	"15.722"
"1966"	"14.251"	"16.51"	"19.935"	"22.067"	"22.867"	"21.122"	"22.799"	"21.901"	"22.49"	"20.62"	"19.229"	"15"
"1967"	"14.426"	"16.14"	"18.625"	"21.066"	"22.522"	"22.805"	"22.743"	"23.004"	"22.426"	"21.116"	"17.024"	"15.213"
"1968"	"13.84"	"14.731"	"19.561"	"21.037"	"21.422"	"21.776"	"22.511"	"22.7"	"22.483"	"21.336"	"18.087"	"14.984"
"1969"	"13.535"	"15.678"	"19.996"	"21.814"	"22.367"	"21.748"	"23.105"	"21.843"	"23.083"	"21.526"	"18.025"	"15.193"
"1970"	"13.08"	"15.233"	"19.306"	"21.735"	"22.379"	"22.624"	"22.108"	"22.409"	"22.087"	"21.122"	"17.995"	"15.19"
"1971"	"13.78"	"14.964"	"19.798"	"20.334"	"22.03"	"21.936"	"22.013"	"21.412"	"22.633"	"21.38"	"17.389"	"15.074"
"1972"	"14.378"	"14.533"	"19.218"	"20.862"	"22.857"	"22.565"	"22.906"	"22.405"	"23.111"	"21.721"	"18.62"	"15.201"
"1973"	"14.516"	"16.137"	"19.354"	"22.582"	"21.681"	"22.179"	"23.149"	"22.296"	"22.701"	"21.39"	"18.024"	"14.402"
"1974"	"13.576"	"15.225"	"18.844"	"20.567"	"21.641"	"22.03"	"21.053"	"22.218"	"21.993"	"22.034"	"19.267"	"14.072"
"1975"	"13.583"	"15.541"	"19.763"	"21.885"	"21.89"	"22.977"	"21.712"	"22.409"	"22.193"	"21.931"	"17.495"	"14.192"
"1976"	"13.807"	"16.231"	"19.659"	"21.409"	"21.699"	"20.642"	"21.912"	"21.945"	"22.551"	"20.926"	"18.754"	"14.562"
"1977"	"12.983"	"14.625"	"19.904"	"18.79"	"20.473"	"21.225"	"22.381"	"22.099"	"22.791"	"20.617"	"18.353"	"15.24"
"1978"	"12.873"	"16.165"	"18.866"	"21.268"	"21.575"	"22.195"	"22.366"	"23.138"	"22.155"	"22.282"	"18.407"	"15.352"
"1979"	"14.812"	"15.705"	"19.725"	"22.482"	"23.819"	"23.181"	"22.894"	"22.516"	"22.389"	"21.319"	"19.621"	"15.91"
"1980"	"14.032"	"15.31"	"19.13"	"22.361"	"21.313"	"22.742"	"23.205"	"22.568"	"22.797"	"20.92"	"18.721"	"16.02"
"1981"	"14.353"	"15.602"	"18.841"	"19.846"	"21.934"	"22.898"	"22.896"	"22.805"	"22.795"	"21.789"	"18.897"	"15.362"
"1982"	"14.813"	"15.541"	"19.222"	"20.431"	"23.163"	"22.03"	"22.701"	"22.657"	"22.597"	"21.642"	"17.789"	"15.012"
"1983"	"14.024"	"14.768"	"18.648"	"20.651"	"21.533"	"22.757"	"22.544"	"22.515"	"22.945"	"22.039"	"18.463"	"14.515"
"1984"	"12.847"	"14.799"	"19.339"	"21.114"	"20.837"	"21.878"	"22.394"	"22.578"	"21.891"	"21.365"	"17.847"	"16.087"
"1985"	"14.278"	"15.33"	"19.5"	"21.132"	"21.997"	"21.69"	"21.936"	"22.614"	"22.491"	"22.221"	"17.753"	"16.508"
"1986"	"14.088"	"16.687"	"20.526"	"20.449"	"22.065"	"22.842"	"22.345"	"22.706"	"22.222"	"20.711"	"17.622"	"15.45"
"1987"	"14.808"	"16.315"	"18.397"	"20.343"	"22.323"	"23.1"	"22.538"	"22.436"	"22.444"	"20.935"	"19.333"	"15.367"
"1988"	"14.929"	"16.631"	"19.155"	"22.669"	"21.856"	"22.439"	"22.702"	"21.934"	"22.476"	"21.917"	"19.099"	"17.017"
"1989"	"12.621"	"15.786"	"19.032"	"22.232"	"23.431"	"22.514"	"22.095"	"22.704"	"22.443"	"21.518"	"17.493"	"15.193"
"1990"	"14.461"	"15.76"	"17.546"	"18.988"	"22.291"	"22.472"	"22.35"	"23.053"	"22.392"	"21.459"	"19.983"	"15.767"
"1991"	"12.985"	"16.416"	"20.32"	"21.567"	"20.607"	"21.829"	"22.805"	"22.905"	"22.729"	"22.366"	"17.334"	"14.71"
"1992"	"13.791"	"13.194"	"20.718"	"22.4"	"21.721"	"23.12"	"22.34"	"22.812"	"23.088"	"21.178"	"18.344"	"13.671"
"1993"	"13.44"	"15.211"	"18.034"	"20.133"	"20.735"	"21.422"	"22.603"	"22.109"	"22.332"	"22.427"	"18.938"	"16.504"
"1994"	"14.757"	"14.988"	"19.72"	"20.649"	"22.409"	"22.294"	"22.911"	"22.914"	"23.789"	"20.72"	"19.042"	"15.358"
"1995"	"14.146"	"15.831"	"20.461"	"22.38"	"23.588"	"22.523"	"22.364"	"22.711"	"22.744"	"22.437"	"19.894"	"15.166"
"1996"	"13.949"	"16.044"	"19.034"	"22.604"	"21.988"	"22.195"	"22.558"	"22.113"	"23.196"	"21.762"	"19.19"	"17.11"
"1997"	"13.751"	"14.539"	"18.963"	"20.142"	"22.435"	"22.79"	"22.416"	"23.076"	"22.449"	"21.187"	"19.088"	"16.198"
"1998"	"13.984"	"15.751"	"17.974"	"21.589"	"23.311"	"23.072"	"23.171"	"22.516"	"23.563"	"22.936"	"19.809"	"16.494"
"1999"	"15.086"	"19.153"	"20.647"	"22.901"	"22.506"	"23.002"	"23.171"	"22.394"	"22.909"	"22.251"	"19.295"	"15.904"
"2000"	"13.232"	"15.661"	"18.33"	"21.202"	"21.949"	"22.345"	"23.57"	"22.156"	"22.188"	"21.667"	"18.212"	"15.656"
"2001"	"14.584"	"16.545"	"19.638"	"21.968"	"22.504"	"22.89"	"23.471"	"23.019"	"24.13"	"22.034"	"18.462"	"15.856"
"2002"	"14.697"	"16.801"	"19.946"	"21.475"	"22.14"	"22.236"	"23.213"	"22.521"	"22.599"	"21.633"	"18.706"	"16.148"
