
"Year"	"Jan"	"Feb"	"Mar"	"Apr"	"May"	"Jun"	"Jul"	"Aug"	"Sep"	"Oct"	"Nov"	"Dec"
"1901"	"0.245"	"18.169"	"0"	"3.843"	"39.097"	"31.134"	"61.426"	"59.532"	"115.923"	"56.265"	"120.149"	"34.542"
"1902"	"0.765"	"0"	"0"	"9.214"	"23.401"	"58.058"	"36.097"	"118.688"	"198.276"	"164.977"	"48.859"	"33.98"
"1903"	"2.693"	"0"	"0"	"0.806"	"121.507"	"60.262"	"94.653"	"135.278"	"232.111"	"100.03"	"228.149"	"36.504"
"1904"	"2.035"	"0"	"0.031"	"17.295"	"65.803"	"28.047"	"55.739"	"27.186"	"47.549"	"88.592"	"1.221"	"8.222"
"1905"	"0.508"	"0.326"	"27.6"	"12.988"	"24.324"	"56.237"	"28.444"	"168.644"	"75.589"	"176.211"	"15.815"	"0.478"
"1906"	"3.607"	"0.215"	"6.685"	"0.236"	"5.522"	"79.488"	"71.034"	"117.701"	"232.277"	"98.278"	"20.057"	"63.233"
"1907"	"1.151"	"0"	"9.467"	"72.075"	"3.653"	"29.984"	"68.094"	"18.796"	"112.575"	"47.119"	"95.155"	"25.058"
"1908"	"0.728"	"3.855"	"1.707"	"2.516"	"36.412"	"15.716"	"47.237"	"46.219"	"286.003"	"134.349"	"12.488"	"1.527"
"1909"	"2.518"	"0"	"0"	"58.674"	"101.407"	"31.704"	"46.721"	"162.082"	"258.053"	"32.51"	"1.595"	"0.705"
"1910"	"0"	"0.23"	"0.815"	"8.564"	"20.619"	"39.962"	"126.536"	"181.823"	"207.876"	"143.493"	"102.181"	"0.135"
"1911"	"0"	"0"	"0.726"	"45.202"	"92.437"	"47.736"	"39.65"	"35.376"	"133.104"	"89.058"	"55.264"	"20.546"
"1912"	"0.122"	"0.209"	"0"	"1.694"	"16.644"	"24.519"	"57.39"	"106.717"	"190.186"	"142.135"	"161.362"	"0.135"
"1913"	"0"	"0.808"	"0"	"0.475"	"42.907"	"13.779"	"69.948"	"32.262"	"89.885"	"181.239"	"4.636"	"47.554"
"1914"	"0.295"	"0"	"0.914"	"35.065"	"47.829"	"47.233"	"55.195"	"118.238"	"220.838"	"49.961"	"63.933"	"3.571"
"1915"	"0.797"	"0.846"	"45.227"	"1.668"	"38.791"	"29.48"	"118.854"	"47.056"	"149.74"	"51.529"	"205.298"	"2.378"
"1916"	"0"	"0"	"0"	"2.841"	"59.092"	"21.89"	"129.571"	"143.372"	"231.198"	"221.304"	"95.008"	"3.02"
"1917"	"1.622"	"8.619"	"0.776"	"5.87"	"79.825"	"68.605"	"36.166"	"130.513"	"201.343"	"195.755"	"67.158"	"11.792"
"1918"	"1.69"	"3.19"	"8.864"	"1.992"	"85.813"	"24.336"	"20.313"	"78.726"	"120.571"	"2.953"	"146.701"	"12.043"
"1919"	"2.175"	"0"	"28.575"	"6.012"	"52.556"	"44.301"	"126.338"	"29.405"	"218.916"	"68.274"	"113.326"	"25.683"
"1920"	"2.47"	"0"	"0"	"6.283"	"45.287"	"39.333"	"15.409"	"70.428"	"153.124"	"161.1"	"64.26"	"0.135"
"1921"	"2.345"	"0"	"0"	"77.462"	"5.485"	"50.408"	"143.104"	"56.965"	"123.084"	"201.715"	"43.921"	"1.228"
"1922"	"1.736"	"0"	"0"	"13.577"	"43.809"	"29.97"	"41.409"	"88.592"	"50.847"	"91.844"	"206.27"	"7.66"
"1923"	"1.34"	"3.272"	"7.5"	"7.017"	"18.836"	"35.851"	"24.279"	"34.635"	"176.43"	"116.929"	"16.179"	"4.422"
"1924"	"0.366"	"0"	"0.482"	"8.523"	"41.53"	"21.806"	"61.955"	"55.516"	"256.068"	"37.651"	"114.028"	"0.179"
"1925"	"0"	"0"	"5.968"	"23.426"	"153.486"	"30.148"	"80.225"	"116.821"	"80.84"	"128.913"	"83.215"	"75.082"
"1926"	"1.331"	"0"	"29.897"	"46.673"	"18.729"	"55.102"	"79.853"	"89.7"	"118.851"	"52.507"	"15.961"	"3.571"
"1927"	"0.759"	"0.215"	"0"	"2.514"	"19.994"	"55.506"	"74.907"	"58.12"	"234.964"	"62.486"	"154.827"	"0.322"
"1928"	"0.718"	"15.449"	"7.05"	"69.804"	"12.673"	"46.188"	"59.99"	"93.841"	"109.775"	"164.61"	"18.838"	"13.15"
"1929"	"1.328"	"4.868"	"0"	"21.114"	"34.008"	"48.614"	"33.686"	"31.026"	"215.22"	"95.665"	"82.616"	"12.286"
"1930"	"1.502"	"11.853"	"13.337"	"6.033"	"225.036"	"83.442"	"55.448"	"27.381"	"192.048"	"242.422"	"84.762"	"27.703"
"1931"	"0"	"0"	"0.907"	"5.344"	"51.902"	"66.549"	"71.4"	"25.834"	"152.479"	"115.946"	"64.318"	"23.671"
"1932"	"0"	"7.345"	"0"	"14.449"	"59.533"	"28.412"	"42.786"	"96.548"	"81.038"	"56.409"	"113.211"	"5.981"
"1933"	"0"	"0.966"	"10.094"	"12.036"	"90.95"	"14.559"	"60.351"	"123.667"	"76.213"	"132.9"	"55.737"	"54.977"
"1934"	"1.515"	"0"	"0"	"34.017"	"23.39"	"54.614"	"72.475"	"40.842"	"67.176"	"112.687"	"73.123"	"3.344"
"1935"	"1.882"	"1.025"	"2.446"	"9.834"	"10.716"	"69.484"	"95.066"	"202.746"	"95.607"	"142.948"	"7.582"	"3.541"
"1936"	"0.004"	"27.998"	"6.211"	"15.832"	"37.627"	"43.429"	"64.649"	"34.563"	"118.725"	"55.681"	"127.904"	"6.284"
"1937"	"0"	"16.373"	"5.463"	"88.043"	"17.447"	"31.672"	"85.514"	"33.042"	"132.942"	"158.872"	"90.039"	"8.566"
"1938"	"0"	"1.941"	"4.658"	"1.988"	"50.121"	"77.257"	"46.345"	"171.777"	"315.104"	"26.468"	"1.276"	"4.994"
"1939"	"1.471"	"0"	"9.014"	"80.022"	"6.031"	"30.588"	"35.49"	"46.217"	"191.715"	"146.556"	"111.758"	"1.913"
"1940"	"1.183"	"0.487"	"20.292"	"32.887"	"87.758"	"70.118"	"44.816"	"43.18"	"177.282"	"145.847"	"119.238"	"4.367"
"1941"	"1.396"	"8.294"	"0"	"21.821"	"36.523"	"45.081"	"29.687"	"49.136"	"200.248"	"67.893"	"49.98"	"49.392"
"1942"	"0"	"0.655"	"0"	"14.817"	"34.343"	"63.142"	"18.925"	"110.999"	"118.224"	"56.43"	"28.228"	"32.027"
"1943"	"0.966"	"0.014"	"0"	"15.557"	"167.427"	"29.953"	"38.491"	"75.694"	"117.203"	"254.584"	"80.915"	"5.084"
"1944"	"0.049"	"10.787"	"35.818"	"6.729"	"16.414"	"87.731"	"113.279"	"56.864"	"185.95"	"117.887"	"105.181"	"5.119"
"1945"	"0"	"0"	"0"	"19.908"	"33.895"	"28.244"	"118.752"	"112.815"	"149.962"	"59.926"	"62.601"	"3.649"
"1946"	"0.329"	"2.18"	"8.766"	"49.977"	"64.96"	"40.049"	"46.605"	"89.4"	"142.787"	"91.323"	"199.702"	"70.032"
"1947"	"2.492"	"1.576"	"0.49"	"12.493"	"38.612"	"37.449"	"89.915"	"141.198"	"188.727"	"75.505"	"13.588"	"17.887"
"1948"	"0.999"	"0"	"1.335"	"24.79"	"48.015"	"36.144"	"46.387"	"91.45"	"108.949"	"68.337"	"121.092"	"5.632"
"1949"	"0"	"0"	"0"	"9.52"	"95.42"	"74.479"	"97.357"	"156.673"	"267.479"	"77.445"	"45.607"	"0.135"
"1950"	"0"	"6.049"	"2.959"	"0.235"	"64.651"	"27.569"	"69.596"	"78.314"	"180.927"	"138.445"	"29.503"	"0.135"
"1951"	"0.066"	"0"	"18.799"	"59.65"	"57.552"	"49.223"	"73.863"	"38.969"	"86.618"	"58.014"	"29.642"	"0.135"
"1952"	"0"	"0.047"	"0.266"	"1.15"	"171.528"	"41.941"	"29.543"	"73.46"	"39.734"	"90.118"	"0.665"	"73.176"
"1953"	"0.545"	"0"	"0"	"22.258"	"7.75"	"28.639"	"99.011"	"49.381"	"147.486"	"222.462"	"6.2"	"0.135"
"1954"	"1.4"	"0"	"19.234"	"5.217"	"46.196"	"16.82"	"145.193"	"65.412"	"104.139"	"183.145"	"0.665"	"14.028"
"1955"	"0.593"	"0"	"3.663"	"9.298"	"149.074"	"15.453"	"83.377"	"133.518"	"97.756"	"99.603"	"36.531"	"20.461"
"1956"	"1.426"	"0.38"	"0"	"84.981"	"139.207"	"60.122"	"107.78"	"70.84"	"229.078"	"220.752"	"74.909"	"48.917"
"1957"	"0"	"0"	"8.075"	"21.631"	"44.981"	"119.88"	"76.472"	"91.827"	"89.691"	"73.003"	"60.032"	"0.135"
"1958"	"0"	"6.98"	"2.173"	"40.912"	"12.439"	"25.553"	"49.561"	"195.845"	"107.909"	"246.961"	"73.674"	"16.054"
"1959"	"0"	"2.16"	"0"	"50.872"	"91.328"	"115.177"	"66.359"	"95.094"	"113.649"	"84.745"	"37.691"	"7.13"
"1960"	"0"	"0"	"5.688"	"6.83"	"37.644"	"43.838"	"73.831"	"14.109"	"418.581"	"52.211"	"178.891"	"2.573"
"1961"	"1.15"	"7.341"	"0.534"	"1.83"	"53.763"	"93.637"	"84.446"	"158.318"	"117.947"	"128.163"	"54.753"	"0.257"
"1962"	"0"	"7.692"	"3.586"	"35.45"	"152.992"	"31.966"	"29.716"	"113.303"	"177.857"	"239.895"	"36.581"	"57.037"
"1963"	"0.148"	"0"	"2.61"	"61.254"	"31.483"	"47.548"	"83.825"	"168.19"	"100.868"	"114.714"	"3.521"	"24.671"
"1964"	"0"	"0"	"0"	"3.263"	"7.097"	"51.354"	"133.475"	"72.034"	"313.597"	"60.503"	"79.711"	"9.979"
"1965"	"0.19"	"0.428"	"0.129"	"49.153"	"14.283"	"46.288"	"57.321"	"120.405"	"152.495"	"19.282"	"35.704"	"29.233"
"1966"	"1.33"	"0"	"0.011"	"3.207"	"65.913"	"89.307"	"75.565"	"122.062"	"180.648"	"65.822"	"193.988"	"21.092"
"1967"	"5.041"	"0"	"26.56"	"10.07"	"64.369"	"54.247"	"116.05"	"38.049"	"181.603"	"102.733"	"22.007"	"43.991"
"1968"	"0"	"4.093"	"22.011"	"93.214"	"37.767"	"34.432"	"52.648"	"7.949"	"164.11"	"130.178"	"68.486"	"30.45"
"1969"	"0"	"0"	"0.262"	"1.677"	"58.66"	"58.916"	"89.574"	"103.927"	"32.396"	"218.637"	"68.094"	"33.525"
"1970"	"0.108"	"0"	"1.186"	"2.148"	"96.195"	"50.84"	"68.521"	"174.062"	"196.04"	"103.268"	"18.383"	"0.135"
"1971"	"0.194"	"5.085"	"15.642"	"106.529"	"38.087"	"31.03"	"60.61"	"78.693"	"86.153"	"179.876"	"27.304"	"4.711"
"1972"	"2.727"	"1.819"	"0"	"16.513"	"89.542"	"86.637"	"21.129"	"18.958"	"170.168"	"214.97"	"59.426"	"51.768"
"1973"	"0"	"0"	"0"	"0.825"	"30.929"	"30.51"	"58.665"	"120.296"	"136.532"	"166.337"	"27.46"	"6.921"
"1974"	"0"	"0"	"0"	"3.045"	"115.322"	"36.196"	"59.272"	"59.822"	"226.311"	"147.465"	"35.443"	"0.158"
"1975"	"0.502"	"0"	"10.351"	"2.816"	"29.876"	"45.531"	"108.588"	"93.559"	"167.335"	"348.488"	"76.246"	"9.674"
"1976"	"0.456"	"0.104"	"0"	"12.912"	"26.821"	"44.876"	"82.771"	"185.928"	"47.838"	"133.765"	"111.676"	"1.161"
"1977"	"0.013"	"0.548"	"3.032"	"30.093"	"107.966"	"49.77"	"97.351"	"96.202"	"36.018"	"157.124"	"124.991"	"2.077"
"1978"	"0.5"	"16.685"	"0.186"	"14.539"	"34.893"	"52.527"	"118.578"	"65.033"	"247.329"	"75.445"	"116.607"	"47.194"
"1979"	"0.053"	"12.735"	"0.479"	"5.001"	"189.083"	"34.865"	"41.563"	"50.372"	"164.487"	"50.726"	"163.528"	"6.405"
"1980"	"0.006"	"0"	"1.302"	"16.413"	"43.919"	"54.182"	"60.022"	"100.384"	"89.46"	"48.248"	"89.401"	"10.604"
"1981"	"0.712"	"0"	"28.301"	"20.688"	"38.849"	"33.126"	"65.263"	"99.143"	"234.241"	"135.955"	"34.567"	"12.165"
"1982"	"0.017"	"0"	"1.289"	"17.794"	"62.212"	"76.843"	"58.244"	"24.776"	"130.981"	"124.095"	"75.853"	"2.825"
"1983"	"0"	"0.003"	"13.916"	"34.322"	"92.455"	"45.542"	"97.449"	"186.651"	"363.84"	"106.867"	"26.985"	"16.237"
"1984"	"0.102"	"24.323"	"17.565"	"7.7"	"4.79"	"17.123"	"101.787"	"17.194"	"159.474"	"77.103"	"57.096"	"31.163"
"1985"	"1.22"	"0"	"10.143"	"20.208"	"17.936"	"53.455"	"81.992"	"48.311"	"168.252"	"86.991"	"105.588"	"14.294"
"1986"	"4.286"	"11.199"	"0"	"20.181"	"18.655"	"59.434"	"36.126"	"80.076"	"184.532"	"131.773"	"79.838"	"30.935"
"1987"	"0.352"	"0"	"21.046"	"21.249"	"33.443"	"53.545"	"47.864"	"100.969"	"55.416"	"150.354"	"55.529"	"34.143"
"1988"	"0"	"7.611"	"0"	"60.461"	"63.917"	"20.349"	"127.312"	"166.847"	"229.944"	"37.727"	"47.329"	"30.74"
"1989"	"0.062"	"0"	"21.502"	"1.588"	"20.836"	"71.824"	"142.29"	"37.198"	"206.372"	"140.055"	"40.518"	"12.052"
"1990"	"0.301"	"1.322"	"15.687"	"6.885"	"161.293"	"36.918"	"40.858"	"91.363"	"136.176"	"170.009"	"58.558"	"3.601"
"1991"	"0.178"	"0.226"	"0"	"14.123"	"50.503"	"115.406"	"55.62"	"95.268"	"123.154"	"148.452"	"65.559"	"0.135"
"1992"	"0.319"	"0"	"0"	"4.475"	"57.468"	"58.055"	"75.042"	"104.876"	"88.868"	"86.398"	"58.149"	"6.819"
"1993"	"0"	"0"	"6.033"	"13.293"	"92.967"	"61.931"	"68.88"	"115.074"	"123.255"	"185.067"	"39.491"	"41.855"
"1994"	"0.8"	"8.447"	"2.355"	"14.697"	"57.806"	"36.798"	"60.157"	"87.788"	"55.244"	"228.335"	"80.155"	"3.536"
"1995"	"3.636"	"0"	"16.958"	"10.607"	"87.666"	"49.35"	"87.392"	"171.23"	"195.991"	"227.163"	"50.461"	"0.858"
"1996"	"0"	"0"	"0"	"58.683"	"45.438"	"124.24"	"57.351"	"159.235"	"190.853"	"154.612"	"93.935"	"25.762"
"1997"	"0.838"	"0"	"7.68"	"48.466"	"27.19"	"43.406"	"40.874"	"92.87"	"121.453"	"180.855"	"154.915"	"65.91"
"1998"	"0"	"0"	"0"	"26.409"	"54.27"	"26.138"	"115.944"	"177.607"	"124.794"	"190.403"	"53.691"	"24.439"
"1999"	"0.014"	"3.001"	"0"	"26.9"	"95.522"	"49.334"	"61.436"	"88.641"	"120.672"	"111.743"	"36.087"	"5.507"
"2000"	"0"	"13.219"	"0"	"28.022"	"61.744"	"78.884"	"73.599"	"184.146"	"123.56"	"148.136"	"17.407"	"7.739"
"2001"	"0.79"	"0"	"11.753"	"36.055"	"22.966"	"54.64"	"58.776"	"79.416"	"148.728"	"178.554"	"28.6"	"13.374"
"2002"	"1.484"	"0.493"	"2.983"	"2.556"	"94.837"	"67.159"	"31.157"	"82.263"	"81.701"	"149.241"	"42.956"	"3.011"
