
"Year"	"Jan"	"Feb"	"Mar"	"Apr"	"May"	"Jun"	"Jul"	"Aug"	"Sep"	"Oct"	"Nov"	"Dec"
"1901"	"21.37"	"23.322"	"26.704"	"29.829"	"30.708"	"32.279"	"28.711"	"28.057"	"28.401"	"28.213"	"23.748"	"21.002"
"1902"	"21.769"	"23.954"	"28.018"	"28.859"	"30.653"	"31.091"	"28.315"	"28.768"	"28.695"	"27.816"	"23.855"	"21.329"
"1903"	"22.257"	"22.87"	"27.619"	"30.298"	"31.608"	"30.169"	"28.888"	"28.457"	"28.106"	"27.156"	"23.498"	"20.302"
"1904"	"21.234"	"23.026"	"27.21"	"29.993"	"29.8"	"28.881"	"27.934"	"27.771"	"28.029"	"27.515"	"23.654"	"21.644"
"1905"	"21.278"	"22.351"	"26.385"	"27.868"	"29.549"	"32.764"	"28.212"	"28.897"	"28.123"	"27.34"	"23.892"	"20.74"
"1906"	"21.948"	"23.824"	"25.854"	"30.502"	"31.491"	"30.32"	"28.769"	"28.54"	"28.6"	"27.612"	"24.031"	"21.934"
"1907"	"21.636"	"24.287"	"26.161"	"27.519"	"29.487"	"29.453"	"28.766"	"27.363"	"28.182"	"27.742"	"24.771"	"20.477"
"1908"	"19.706"	"23.859"	"26.537"	"30.533"	"30.618"	"29.89"	"27.904"	"27.169"	"28.127"	"27.262"	"23.003"	"19.836"
"1909"	"22.602"	"23.706"	"27.283"	"26.757"	"30.144"	"28.517"	"27.461"	"28.215"	"27.933"	"27.164"	"24.21"	"21.434"
"1910"	"21.408"	"23.607"	"26.761"	"29.315"	"30.768"	"29.462"	"27.99"	"27.925"	"27.864"	"26.775"	"22.531"	"20.174"
"1911"	"22.493"	"22.822"	"26.377"	"28.699"	"30.292"	"28.347"	"29.034"	"27.555"	"27.856"	"27.167"	"24.499"	"20.647"
"1912"	"21.773"	"24.067"	"27.724"	"28.947"	"31.335"	"30.283"	"28.092"	"27.888"	"28.103"	"27.191"	"22.814"	"19.506"
"1913"	"20.392"	"23.513"	"26.37"	"29.289"	"29.645"	"28.39"	"27.952"	"27.807"	"28.321"	"26.761"	"22.822"	"20.852"
"1914"	"21.059"	"24.039"	"26.435"	"27.569"	"28.411"	"28.894"	"27.73"	"27.867"	"27.623"	"27.231"	"24.036"	"21.308"
"1915"	"21.501"	"23.703"	"26.481"	"29.267"	"30.273"	"30.375"	"28.86"	"28.828"	"28.006"	"27.851"	"25.07"	"20.298"
"1916"	"20.553"	"23.852"	"27.171"	"29.164"	"31.159"	"28.804"	"28.567"	"28.07"	"28.127"	"27.354"	"24.041"	"20.371"
"1917"	"20.532"	"22.607"	"25.261"	"28.716"	"28.274"	"28.565"	"28.284"	"28.028"	"27.924"	"27.166"	"23.573"	"20.729"
"1918"	"19.88"	"22.994"	"26.807"	"28.599"	"29.264"	"27.872"	"29.432"	"27.885"	"28.515"	"27.875"	"25.127"	"21.306"
"1919"	"22.327"	"23.522"	"27.301"	"29.492"	"30.466"	"28.689"	"28.294"	"27.661"	"28.302"	"27.178"	"23.958"	"20.63"
"1920"	"20.935"	"23.475"	"26.938"	"28.577"	"29.798"	"29.928"	"27.166"	"27.818"	"28.057"	"27.274"	"23.946"	"20.06"
"1921"	"20.774"	"22.592"	"27.37"	"29.043"	"32.926"	"29.303"	"27.974"	"27.506"	"27.401"	"26.028"	"21.988"	"20.921"
"1922"	"20.274"	"23.254"	"27.378"	"29.414"	"30.88"	"28.45"	"27.056"	"27.244"	"26.859"	"25.581"	"22.788"	"19.423"
"1923"	"19.528"	"22.583"	"24.812"	"28.679"	"30.954"	"31.529"	"27.934"	"27.166"	"27.793"	"26.678"	"22.788"	"20.498"
"1924"	"20.644"	"23.415"	"27.06"	"30.399"	"29.558"	"31.515"	"28.415"	"27.888"	"27.573"	"26.987"	"23.209"	"19.95"
"1925"	"19.981"	"22.619"	"26.933"	"29.016"	"30.935"	"29.676"	"27.005"	"27.888"	"27.98"	"26.385"	"23.485"	"19.359"
"1926"	"20.328"	"23.784"	"25.985"	"28.866"	"30.391"	"32.156"	"28.487"	"27.414"	"28.024"	"26.229"	"22.423"	"20.877"
"1927"	"21.742"	"24.195"	"26.889"	"30.302"	"31.258"	"31.042"	"27.952"	"27.879"	"28.14"	"27.237"	"23.397"	"21.263"
"1928"	"21.449"	"24.087"	"27.434"	"28.73"	"30.576"	"28.539"	"27.952"	"28.091"	"28.215"	"27.301"	"23.803"	"21.319"
"1929"	"21.923"	"22.603"	"27.305"	"29.834"	"31.734"	"30.099"	"27.236"	"27.415"	"28.037"	"26.197"	"23.37"	"21.407"
"1930"	"20.885"	"22.378"	"27.144"	"29.314"	"30.261"	"30.185"	"27.915"	"27.543"	"28.032"	"27.504"	"23.008"	"20.416"
"1931"	"21.927"	"24.223"	"27.381"	"30.54"	"30.903"	"32.269"	"27.816"	"27.888"	"28.288"	"26.902"	"23.458"	"20.818"
"1932"	"21.58"	"22.701"	"26.902"	"29.326"	"30.402"	"30.419"	"27.595"	"27.877"	"28.127"	"27.848"	"23.968"	"21.23"
"1933"	"20.565"	"22.903"	"26.957"	"29.073"	"29.242"	"29.199"	"27.663"	"27.858"	"27.846"	"27.167"	"23.672"	"21.058"
"1934"	"20.37"	"23.008"	"27.144"	"30.238"	"32.431"	"29.542"	"27.952"	"27.624"	"27.945"	"26.782"	"22.711"	"21.206"
"1935"	"20.805"	"23.954"	"27.158"	"28.678"	"32.407"	"30.634"	"27.584"	"27.789"	"28.023"	"27.362"	"23.621"	"21.624"
"1936"	"22.609"	"23.17"	"27.525"	"29.968"	"29.558"	"29.33"	"27.89"	"27.621"	"27.865"	"26.516"	"24.833"	"21.657"
"1937"	"20.142"	"23.513"	"26.611"	"28.057"	"30.445"	"29.669"	"27.952"	"27.879"	"27.663"	"26.718"	"23.828"	"20.212"
"1938"	"22.421"	"22.443"	"28.157"	"29.821"	"29.587"	"28.015"	"27.564"	"27.6"	"27.88"	"26.716"	"22.517"	"20.308"
"1939"	"21.339"	"23.885"	"26.408"	"29.892"	"31.257"	"29.84"	"27.28"	"27.888"	"27.828"	"27.541"	"23.035"	"20.634"
"1940"	"19.491"	"23.032"	"25.722"	"29.755"	"29.661"	"29.588"	"27.286"	"27.59"	"28.274"	"27.371"	"25.595"	"21.369"
"1941"	"22.171"	"23.856"	"27.757"	"30.754"	"30.753"	"29.369"	"27.925"	"28.388"	"28.134"	"27.03"	"22.451"	"21.956"
"1942"	"21.404"	"23.576"	"27.671"	"29.109"	"32.04"	"31.038"	"27.876"	"27.582"	"27.597"	"27.068"	"23.231"	"21.235"
"1943"	"21.882"	"21.807"	"26.692"	"28.12"	"30.88"	"30.236"	"27.934"	"27.257"	"27.963"	"27.404"	"23.998"	"21.168"
"1944"	"21.608"	"22.592"	"25.682"	"27.738"	"31.407"	"30.523"	"27.763"	"27.731"	"28.456"	"27.165"	"23.772"	"22.42"
"1945"	"20.502"	"23.437"	"27.923"	"28.899"	"31.673"	"31.255"	"28.312"	"28.478"	"28.211"	"26.782"	"23.443"	"20.02"
"1946"	"20.542"	"24.457"	"27.805"	"27.216"	"29.657"	"29.034"	"27.869"	"27.705"	"27.931"	"27.168"	"25.135"	"22.44"
"1947"	"21.843"	"23.511"	"27.459"	"30.993"	"31.563"	"30.266"	"27.909"	"27.917"	"28.37"	"26.964"	"24.118"	"21.048"
"1948"	"21.606"	"23.84"	"26.584"	"29.315"	"30.788"	"31.08"	"28.138"	"27.888"	"27.882"	"27.262"	"24.844"	"20.14"
"1949"	"21.477"	"23.402"	"27.448"	"29.031"	"30.05"	"30.572"	"28.39"	"27.591"	"27.902"	"27.407"	"22.657"	"21.218"
"1950"	"21.389"	"23.576"	"25.911"	"29.791"	"30.714"	"29.233"	"27.431"	"27.737"	"27.983"	"26.986"	"22.834"	"20.437"
"1951"	"20.367"	"23.615"	"26.758"	"28.495"	"30.758"	"30.081"	"28.138"	"28.125"	"28.827"	"27.804"	"23.988"	"21.321"
"1952"	"21.639"	"24.237"	"26.049"	"28.974"	"30.862"	"30.788"	"28.128"	"27.549"	"28.023"	"26.977"	"23.921"	"22.368"
"1953"	"21.41"	"25.077"	"29.244"	"31.037"	"32.366"	"30.446"	"28.478"	"27.885"	"28.128"	"27.473"	"23.482"	"21.608"
"1954"	"20.567"	"25.323"	"26.804"	"30.998"	"31.003"	"28.773"	"28.692"	"28.291"	"27.589"	"26.381"	"22.572"	"21.462"
"1955"	"20.895"	"24.526"	"27.584"	"29.587"	"30.303"	"30.515"	"27.934"	"28.046"	"27.774"	"26.612"	"23.051"	"21.03"
"1956"	"22.352"	"22.588"	"27.741"	"30.451"	"30.459"	"27.4"	"27.539"	"27.888"	"27.829"	"26.507"	"23.488"	"21.777"
"1957"	"22.464"	"23.718"	"25.906"	"29.792"	"32.657"	"31.714"	"28.115"	"28.074"	"28.183"	"27.845"	"24.488"	"22.607"
"1958"	"23.076"	"24.522"	"27.215"	"30.517"	"32.201"	"32.436"	"27.865"	"28.388"	"27.954"	"27.473"	"24.479"	"22.126"
"1959"	"21.913"	"24.097"	"27.526"	"29.736"	"31.676"	"29.877"	"28.209"	"27.665"	"27.916"	"26.701"	"23.306"	"20.659"
"1960"	"20.734"	"24.13"	"26.379"	"30.562"	"31.635"	"30.626"	"27.654"	"27.93"	"28.968"	"27.435"	"23.725"	"22.58"
"1961"	"21.519"	"21.792"	"28.237"	"30.316"	"31.158"	"29.544"	"27.51"	"28.286"	"27.26"	"26.325"	"22.975"	"19.602"
"1962"	"19.48"	"23.269"	"26.943"	"28.951"	"31.375"	"29.546"	"28.415"	"27.888"	"28.418"	"26.682"	"23.624"	"21.814"
"1963"	"20.253"	"24.53"	"27.101"	"28.89"	"29.865"	"29.674"	"27.934"	"28.264"	"28.127"	"27.191"	"25.25"	"21.665"
"1964"	"22.815"	"24.732"	"28.41"	"29.615"	"30.478"	"30.956"	"27.615"	"27.662"	"28.127"	"27.514"	"24.421"	"21.644"
"1965"	"21.71"	"23.954"	"26.45"	"28.72"	"31.119"	"31.339"	"27.645"	"27.953"	"27.927"	"27.185"	"24.437"	"21.499"
"1966"	"20.356"	"24.567"	"27.004"	"28.7"	"32.02"	"29.692"	"29.058"	"29.18"	"29.31"	"27.594"	"25.874"	"21.412"
"1967"	"20.922"	"25.098"	"26.076"	"28.925"	"31.516"	"31.459"	"28.669"	"27.888"	"28.127"	"27.579"	"24.541"	"24.098"
"1968"	"22.045"	"24.288"	"27.411"	"29.435"	"31.398"	"29.345"	"28.769"	"27.93"	"28.343"	"26.39"	"23.631"	"21.376"
"1969"	"21.849"	"26.171"	"28.874"	"30.376"	"29.975"	"30.791"	"28.203"	"27.888"	"28.402"	"28.391"	"25.472"	"21.814"
"1970"	"22.234"	"25.461"	"27.352"	"29.417"	"30.608"	"29.108"	"27.952"	"28.254"	"28.108"	"27.181"	"23.069"	"19.996"
"1971"	"21.413"	"23.478"	"25.897"	"26.64"	"27.287"	"27.475"	"26.776"	"26.299"	"27.843"	"27.247"	"24.84"	"20.758"
"1972"	"22.189"	"23.045"	"28.051"	"29.899"	"32.346"	"32.286"	"28.592"	"28.523"	"28.401"	"27.892"	"25.006"	"23.142"
"1973"	"23.731"	"25.507"	"27.039"	"30.766"	"30.399"	"31.131"	"28.134"	"28.081"	"28.127"	"27.185"	"23.416"	"20.924"
"1974"	"22.183"	"23.955"	"27.192"	"29.352"	"30.227"	"30.426"	"28.305"	"28.822"	"28.561"	"27.472"	"23.893"	"20.323"
"1975"	"20.257"	"23.954"	"27.317"	"29.297"	"31.019"	"29.514"	"27.503"	"27.817"	"27.454"	"27.553"	"22.674"	"20.13"
"1976"	"20.386"	"23.932"	"27.422"	"28.752"	"29.682"	"29.852"	"27.84"	"27.548"	"28.098"	"27.932"	"25.792"	"21.848"
"1977"	"21.286"	"23.976"	"27.913"	"28.108"	"28.575"	"29.125"	"27.881"	"27.924"	"28.084"	"26.909"	"25.123"	"20.821"
"1978"	"20.738"	"23.414"	"26.288"	"28.247"	"30.635"	"29.717"	"27.652"	"27.422"	"27.977"	"27.612"	"25.231"	"21.68"
"1979"	"22.124"	"23.296"	"26.671"	"29.122"	"30.889"	"29.651"	"29.15"	"28.511"	"27.761"	"27.79"	"25.953"	"21.881"
"1980"	"22.072"	"24.706"	"26.941"	"29.789"	"30.154"	"28.388"	"27.256"	"27.394"	"28.512"	"26.84"	"24.397"	"21.988"
"1981"	"20.938"	"24.978"	"26.679"	"28.62"	"29.339"	"30.127"	"28.462"	"28.339"	"28.116"	"27.935"	"24.539"	"21.452"
"1982"	"23.164"	"24.662"	"26.427"	"29.153"	"31.071"	"29.948"	"29.888"	"27.686"	"28.878"	"28.469"	"25.455"	"22.824"
"1983"	"22.509"	"23.795"	"27.569"	"28.877"	"29.91"	"31.132"	"28.737"	"28.199"	"28.338"	"27.179"	"24.42"	"21.156"
"1984"	"21.734"	"23.108"	"27.627"	"29.801"	"31.005"	"29.038"	"28.276"	"27.888"	"28.308"	"27.772"	"23.635"	"22.324"
"1985"	"22.045"	"23.754"	"27.365"	"28.847"	"28.689"	"28.848"	"26.285"	"26.027"	"28.07"	"24.616"	"22.654"	"21.255"
"1986"	"19.701"	"23.059"	"26.254"	"27.604"	"28.015"	"28.033"	"26.931"	"27.2"	"27.241"	"25.501"	"22.964"	"20.708"
"1987"	"19.452"	"22.049"	"24.877"	"27.44"	"28.828"	"29.476"	"26.854"	"26.931"	"27.311"	"26.155"	"22.334"	"19.431"
"1988"	"19.675"	"22.222"	"25.4"	"26.907"	"27.896"	"26.829"	"26.693"	"28.766"	"28.662"	"27.794"	"24.728"	"22.901"
"1989"	"21.413"	"24.664"	"27.543"	"30.224"	"30.425"	"28.99"	"28.485"	"28.088"	"28.134"	"27.883"	"24.517"	"21.071"
"1990"	"22.9"	"24.059"	"25.261"	"28.021"	"28.757"	"29.255"	"27.676"	"28.307"	"27.993"	"26.447"	"24.277"	"21.419"
"1991"	"21.519"	"25.453"	"28.078"	"29.218"	"30.509"	"29.568"	"28.643"	"28.646"	"28.835"	"27.321"	"23.523"	"21.009"
"1992"	"20.772"	"23.607"	"27.126"	"29.398"	"29.984"	"29.911"	"28.35"	"27.958"	"28.361"	"27.516"	"24.431"	"20.912"
"1993"	"21.914"	"23.951"	"26.397"	"28.47"	"29.953"	"29.72"	"28.437"	"28.496"	"27.918"	"27.563"	"24.356"	"21.397"
"1994"	"21.999"	"23.678"	"27.783"	"28.729"	"30.851"	"29.568"	"27.81"	"27.681"	"28.255"	"27.429"	"24.047"	"21.229"
"1995"	"20.738"	"23.755"	"27.042"	"29.514"	"29.707"	"30.466"	"27.958"	"28.816"	"28.328"	"27.191"	"24.332"	"21.928"
"1996"	"22.256"	"23.665"	"27.761"	"28.748"	"31.337"	"29.384"	"28.834"	"27.616"	"28.704"	"27.046"	"24.441"	"21.422"
"1997"	"20.864"	"23.493"	"27.279"	"27.377"	"30.085"	"30.694"	"28.555"	"28.088"	"28.1"	"27.271"	"25.649"	"22.519"
"1998"	"21.576"	"24.354"	"26.258"	"28.91"	"30.764"	"30.878"	"28.445"	"28.518"	"28.566"	"28.257"	"25.45"	"21.515"
"1999"	"21.151"	"25.297"	"28.199"	"30.764"	"29.86"	"29.471"	"28.238"	"28.095"	"27.979"	"27.672"	"24.153"	"21.699"
"2000"	"22.494"	"23.909"	"27.046"	"29.855"	"30.215"	"29.164"	"28.119"	"28.422"	"28.462"	"27.753"	"24.928"	"21.138"
"2001"	"21.361"	"24.912"	"27.579"	"29.376"	"30.58"	"28.809"	"28.122"	"28.338"	"29.235"	"28.016"	"25.533"	"21.721"
"2002"	"22.33"	"24.829"	"28.009"	"29.164"	"31.052"	"29.596"	"28.793"	"27.912"	"28.591"	"27.662"	"24.12"	"22.001"
