
"Year"	"Jan"	"Feb"	"Mar"	"Apr"	"May"	"Jun"	"Jul"	"Aug"	"Sep"	"Oct"	"Nov"	"Dec"
"1901"	"31.845"	"63.872"	"4.731"	"9.162"	"65.907"	"85.641"	"179.566"	"176.658"	"300.957"	"95.08"	"183.531"	"0.221"
"1902"	"15.379"	"0.716"	"11.363"	"31.406"	"64.249"	"156.856"	"258.391"	"315.043"	"191.028"	"80.809"	"1.6"	"20.787"
"1903"	"7.886"	"39.29"	"6.211"	"8.36"	"18.179"	"137.103"	"365.604"	"184.072"	"247.886"	"176.932"	"26.446"	"1.441"
"1904"	"0.349"	"8.281"	"23.665"	"1.666"	"112.835"	"211.346"	"281.807"	"327.389"	"183.726"	"113.105"	"1.535"	"4.618"
"1905"	"7.656"	"17.006"	"51.578"	"95.875"	"118.94"	"57.323"	"336.841"	"238.13"	"359.737"	"80.535"	"1.226"	"0.221"
"1906"	"10.239"	"68.377"	"25.665"	"0.235"	"18.552"	"162.728"	"268.729"	"216.336"	"169.768"	"140.68"	"40.01"	"1"
"1907"	"0.336"	"11.388"	"48.37"	"89.625"	"45.329"	"173.776"	"133.889"	"237.024"	"78.586"	"37.231"	"3.896"	"16.852"
"1908"	"21.959"	"1.526"	"0.865"	"7.962"	"52.344"	"348.129"	"286.395"	"312.591"	"225.051"	"48.92"	"1.534"	"0.129"
"1909"	"0.509"	"32.904"	"0.234"	"70.208"	"22.952"	"173.043"	"201.407"	"255.911"	"182.41"	"52.671"	"1.575"	"12.509"
"1910"	"18.626"	"1.715"	"7.257"	"11.435"	"25.277"	"212.433"	"342.874"	"406.308"	"182.251"	"209.757"	"4.115"	"0.054"
"1911"	"0.066"	"2.829"	"22.025"	"9.729"	"27.135"	"295.268"	"110.58"	"200.116"	"314.524"	"68.387"	"4.117"	"0.16"
"1912"	"0.379"	"36.163"	"38.776"	"18.729"	"32.266"	"154.796"	"226.21"	"274.498"	"193.996"	"114.795"	"179.969"	"0"
"1913"	"0.505"	"43.775"	"10.939"	"7.716"	"46.747"	"149.485"	"315.684"	"183.278"	"119.206"	"216.643"	"34.753"	"2.299"
"1914"	"0.021"	"52.523"	"6.952"	"66.616"	"64.14"	"202.833"	"247.547"	"167.925"	"334.351"	"13.374"	"0.741"	"8.633"
"1915"	"6.319"	"25.472"	"57.161"	"37.351"	"38.409"	"180.345"	"198.38"	"414.579"	"252.314"	"187.295"	"110.759"	"0.221"
"1916"	"0.336"	"2.957"	"0.234"	"8.841"	"20.982"	"386.124"	"200.24"	"282.691"	"202.839"	"342.756"	"150.779"	"0.054"
"1917"	"0.019"	"116.612"	"18.874"	"16.254"	"70.714"	"242.9"	"178.564"	"375.188"	"159.223"	"359.239"	"19.673"	"0.564"
"1918"	"0.703"	"0.314"	"14.71"	"23.066"	"72.15"	"257.4"	"179.211"	"251.993"	"213.859"	"17.819"	"3.457"	"1.477"
"1919"	"68.572"	"21.43"	"5.993"	"21.305"	"35.506"	"213.349"	"323.076"	"404.484"	"88.981"	"121.325"	"113.353"	"0.206"
"1920"	"0.746"	"16.779"	"66.626"	"0.368"	"30.613"	"126.877"	"223.452"	"311.695"	"169.096"	"163.264"	"1.078"	"0.036"
"1921"	"65.143"	"1.852"	"5.519"	"29.094"	"12.324"	"195.333"	"232.567"	"252.849"	"234.803"	"109.142"	"1.446"	"0.221"
"1922"	"9.479"	"7.713"	"0.234"	"6.595"	"17.66"	"253.88"	"193.542"	"318.326"	"314.628"	"68.064"	"39.685"	"0.123"
"1923"	"0.432"	"102.679"	"11.101"	"16.775"	"12.231"	"95.785"	"219.031"	"236.332"	"213.051"	"178.793"	"77.575"	"7.374"
"1924"	"28.77"	"9.81"	"0.24"	"4.123"	"26.968"	"47.027"	"159.04"	"261.531"	"300.716"	"123.883"	"106.598"	"0.054"
"1925"	"1.47"	"0.985"	"6.382"	"54.311"	"112.424"	"433.634"	"315.894"	"249.629"	"122.316"	"349.014"	"5.712"	"17.772"
"1926"	"7.369"	"6.18"	"71.753"	"33.219"	"36.027"	"113.977"	"309.92"	"316.748"	"270.477"	"110.115"	"0.817"	"1.271"
"1927"	"0.63"	"8.306"	"98.638"	"10.485"	"28.974"	"119.645"	"257.549"	"305.157"	"203.83"	"60.838"	"14.404"	"0.178"
"1928"	"0.874"	"1.243"	"1.057"	"57.213"	"76.062"	"233.639"	"316.732"	"311.294"	"237.919"	"306.53"	"9.604"	"0.008"
"1929"	"2.356"	"33.606"	"19.716"	"30.216"	"39.918"	"124.567"	"151.984"	"364.693"	"142.472"	"331.668"	"0.96"	"6.536"
"1930"	"0.469"	"15.359"	"3.425"	"25.634"	"102"	"186.746"	"413.398"	"264.083"	"200.037"	"92.505"	"112.946"	"0.244"
"1931"	"3.542"	"10.69"	"14.103"	"9.908"	"41.278"	"115.549"	"191.611"	"262.57"	"252.737"	"303.541"	"56.662"	"4.608"
"1932"	"0.123"	"15.836"	"5.237"	"57.86"	"71.237"	"60.408"	"198.903"	"237.216"	"198.959"	"92.697"	"166.123"	"0.06"
"1933"	"28.043"	"6.692"	"2.829"	"27.395"	"53.809"	"259.774"	"327.908"	"245.921"	"238.624"	"234.581"	"8.653"	"0.425"
"1934"	"0.115"	"10.39"	"3.466"	"10.083"	"12.42"	"206.94"	"252.902"	"315.773"	"186.466"	"123.607"	"10.077"	"0.351"
"1935"	"2.648"	"9.513"	"7.761"	"29.394"	"7.264"	"122.232"	"160.726"	"184.414"	"144.215"	"84.321"	"1.032"	"0.236"
"1936"	"5.853"	"54.119"	"5.215"	"9.088"	"114.912"	"397.57"	"326.496"	"254.964"	"232.015"	"179.052"	"30.879"	"1.866"
"1937"	"0.397"	"85.805"	"6.735"	"45.417"	"40.573"	"196.909"	"219.792"	"240.336"	"175.051"	"211.316"	"1.319"	"0.515"
"1938"	"8.15"	"10.093"	"3.944"	"0.535"	"146.862"	"172.313"	"118.038"	"202.318"	"332.369"	"145.124"	"8.299"	"0.036"
"1939"	"11.707"	"4.232"	"29.498"	"8.529"	"20.701"	"111.501"	"241.241"	"327.899"	"286.246"	"241.044"	"12.063"	"2.059"
"1940"	"0"	"26.612"	"124.512"	"17.035"	"94.375"	"257.13"	"236.47"	"319.351"	"253.142"	"116.245"	"5.044"	"2.205"
"1941"	"29.232"	"3.661"	"1.589"	"4.5"	"49.445"	"210.206"	"190.827"	"297.428"	"205.758"	"316.785"	"58.519"	"0.16"
"1942"	"1.46"	"16.139"	"4.502"	"42.042"	"10.091"	"93.55"	"250.346"	"291.424"	"282.197"	"164.439"	"55.212"	"0.141"
"1943"	"30.434"	"4.01"	"6.049"	"83.971"	"9.836"	"157.757"	"302.727"	"300.264"	"131.578"	"198.985"	"19.168"	"0.054"
"1944"	"27.853"	"70.91"	"93.066"	"49.683"	"29.147"	"159.047"	"230.534"	"276.406"	"167.945"	"158.106"	"5.155"	"0.16"
"1945"	"7.17"	"1.612"	"4.097"	"95.251"	"31.714"	"76.427"	"263.671"	"136.925"	"251.84"	"303.777"	"2.526"	"13.799"
"1946"	"0.423"	"2.562"	"4.306"	"25.739"	"49.527"	"270.974"	"291.613"	"300.892"	"215.866"	"206.006"	"146.854"	"0.227"
"1947"	"30.952"	"63.685"	"12.133"	"9.919"	"23.949"	"244.818"	"344.252"	"267.86"	"279.077"	"101.991"	"2.967"	"14.79"
"1948"	"20.419"	"97.209"	"38.294"	"65.779"	"28.37"	"139.319"	"202.224"	"268.481"	"211.688"	"117.207"	"117.849"	"0.006"
"1949"	"1.489"	"8.317"	"11.066"	"39.91"	"71.698"	"119.078"	"199.182"	"226.594"	"336.301"	"206.879"	"1.472"	"0"
"1950"	"0.073"	"11.653"	"28.031"	"32.582"	"27.984"	"174.379"	"216.564"	"130.489"	"82.132"	"155.952"	"141.067"	"0.093"
"1951"	"0.408"	"0.274"	"35.036"	"44.159"	"28.835"	"144.413"	"370.816"	"320.804"	"266.971"	"72.941"	"101.653"	"0.305"
"1952"	"1.228"	"2.263"	"23.135"	"75.84"	"22.811"	"210.31"	"280.833"	"212.351"	"153.995"	"244.775"	"1.324"	"0.124"
"1953"	"27.805"	"2.083"	"0.234"	"1.187"	"7.829"	"115.439"	"94.407"	"364.469"	"292.617"	"114.805"	"155.478"	"0"
"1954"	"1.128"	"30.628"	"0.274"	"1.836"	"54.175"	"275.922"	"69.691"	"126.332"	"284.967"	"174.647"	"1.446"	"9.924"
"1955"	"0.637"	"0.746"	"23.77"	"27.845"	"99.65"	"164.249"	"128.305"	"291.898"	"416.354"	"399.657"	"110.214"	"0.167"
"1956"	"0.817"	"51.744"	"13.734"	"25.712"	"87.464"	"361.951"	"506.192"	"430.95"	"323.838"	"251.71"	"47.175"	"0.041"
"1957"	"12.781"	"18.724"	"18.237"	"11.69"	"1.867"	"91.511"	"264.237"	"331.13"	"105.557"	"128.47"	"2.233"	"0"
"1958"	"24.633"	"59.92"	"4.111"	"73.351"	"4.218"	"149.988"	"395.124"	"198.252"	"233.328"	"194.508"	"164.91"	"0.221"
"1959"	"11.96"	"16.023"	"2.965"	"16.557"	"82.446"	"188.861"	"256.684"	"132.818"	"158.051"	"320.433"	"0.704"	"5.256"
"1960"	"0.443"	"0.575"	"17.007"	"1.257"	"33.826"	"154.881"	"439.104"	"270.202"	"107.085"	"119.441"	"1.399"	"3.734"
"1961"	"42.591"	"83.562"	"1.516"	"4.436"	"60.949"	"149.632"	"132.635"	"333.682"	"387.802"	"178.422"	"1.736"	"0.047"
"1962"	"1.595"	"11.726"	"1.014"	"11.004"	"6.475"	"143.151"	"353.987"	"149.137"	"263.456"	"373.717"	"1"	"0.429"
"1963"	"0.352"	"0.647"	"8.381"	"95.383"	"97.081"	"129.907"	"204.412"	"181.085"	"209.548"	"316.473"	"14.247"	"0.123"
"1964"	"0.919"	"29.846"	"11.136"	"33.494"	"58.826"	"60.941"	"315.274"	"345.85"	"253.246"	"106.68"	"3.676"	"0"
"1965"	"7.812"	"22.286"	"30.019"	"25.556"	"4.416"	"85.603"	"429.628"	"302.954"	"243.13"	"117.11"	"0.637"	"1.944"
"1966"	"67.807"	"21.534"	"1.799"	"1.585"	"6.665"	"172.85"	"130.134"	"203.482"	"266.135"	"119.864"	"150.853"	"0.681"
"1967"	"50.549"	"0.426"	"101.279"	"12.16"	"5.057"	"213.665"	"237.187"	"232.981"	"318.16"	"77.086"	"0.467"	"1.903"
"1968"	"19.055"	"47.231"	"9.435"	"3.933"	"9.048"	"247.698"	"360.657"	"244.268"	"272.909"	"205.349"	"80.48"	"0.066"
"1969"	"0.696"	"0.541"	"31.062"	"26.593"	"28.913"	"70.907"	"315.68"	"209.263"	"192.813"	"87.551"	"80.989"	"1.364"
"1970"	"2.475"	"56.324"	"75.669"	"8.373"	"69.669"	"308.782"	"196.832"	"277.409"	"24.21"	"165.515"	"23.143"	"0.036"
"1971"	"24.729"	"105.252"	"3.703"	"76.845"	"52.225"	"434.489"	"235.672"	"320.04"	"168.812"	"188.766"	"2.149"	"0"
"1972"	"0.117"	"15.964"	"0.398"	"15.417"	"4.106"	"65.192"	"182.368"	"297.148"	"308.403"	"155.722"	"23.382"	"0.147"
"1973"	"0.175"	"1.754"	"21.48"	"11.588"	"56.945"	"63.25"	"204.914"	"314.564"	"135.717"	"210.505"	"39.536"	"31.941"
"1974"	"0.364"	"0.543"	"94.161"	"3.835"	"26.162"	"105.294"	"209.169"	"255.596"	"171.153"	"301.379"	"31.472"	"0"
"1975"	"1.129"	"4.568"	"3.286"	"2.275"	"20.317"	"266.623"	"269.25"	"274.829"	"235.504"	"299.47"	"65.279"	"0.431"
"1976"	"0.106"	"2.142"	"5.625"	"68.187"	"53.112"	"84.141"	"378.608"	"329.394"	"190.489"	"67.769"	"77.885"	"0.206"
"1977"	"0.425"	"2.251"	"0.234"	"35.109"	"90.901"	"183.269"	"295.149"	"273.467"	"253.894"	"117.155"	"81.44"	"1.214"
"1978"	"1.121"	"17.105"	"23.12"	"23.932"	"62.231"	"117.531"	"361.24"	"325.822"	"184.223"	"135.15"	"23.908"	"35.475"
"1979"	"1.485"	"30.358"	"4.646"	"23.399"	"6.728"	"107.492"	"218.65"	"155.57"	"157.242"	"63.847"	"3.817"	"6.08"
"1980"	"54.538"	"44.868"	"35.794"	"5.109"	"35.887"	"252.942"	"292.209"	"303.998"	"268.119"	"151.341"	"2.877"	"13.994"
"1981"	"14.743"	"21.489"	"63.442"	"30.47"	"52.076"	"113.16"	"244.415"	"296.485"	"342.146"	"26.369"	"1.682"	"3.46"
"1982"	"0.314"	"9.752"	"17.533"	"50.678"	"13.462"	"98.763"	"279.857"	"280.155"	"157.099"	"148.979"	"31.464"	"0.072"
"1983"	"1.4"	"66.416"	"28.526"	"8.371"	"46.583"	"177.223"	"207.199"	"293.24"	"128.165"	"214.135"	"5.086"	"4.103"
"1984"	"20.553"	"25.678"	"0.91"	"17.215"	"54.863"	"360.766"	"265.381"	"312.66"	"107.853"	"77.793"	"4.13"	"1.367"
"1985"	"24.385"	"2.892"	"1.4"	"11.418"	"20.224"	"209.448"	"315.683"	"228.592"	"165.793"	"252.219"	"9.56"	"0.453"
"1986"	"25.289"	"24.063"	"2.9"	"21.616"	"40.325"	"150.733"	"269.673"	"337.66"	"419.235"	"120.87"	"167.503"	"5.312"
"1987"	"4.641"	"3.223"	"43.518"	"28.572"	"44.559"	"59.403"	"236.35"	"328.475"	"102.133"	"142.62"	"114.092"	"3.905"
"1988"	"0.073"	"20.431"	"4.862"	"21.028"	"62.779"	"43.418"	"340.341"	"288.273"	"291.299"	"137.453"	"5.275"	"0.695"
"1989"	"0.33"	"0.714"	"34.426"	"2.539"	"136.87"	"250.805"	"364.025"	"229.986"	"141.07"	"188.043"	"1.19"	"0.245"
"1990"	"0.068"	"51.13"	"76.67"	"18.191"	"87.749"	"193.814"	"430.606"	"320.779"	"170.881"	"237.686"	"50.28"	"6.506"
"1991"	"19.118"	"5.351"	"21.534"	"5.973"	"17.303"	"131.493"	"266.258"	"265.717"	"165.57"	"196.667"	"30.915"	"14.113"
"1992"	"12.209"	"8.277"	"0.234"	"3.397"	"173.534"	"151.18"	"347.444"	"238.181"	"203.381"	"103.524"	"54.932"	"0"
"1993"	"2.65"	"0.458"	"33.004"	"38.7"	"39.692"	"319.196"	"269.881"	"265.665"	"200.427"	"288.015"	"23.755"	"0"
"1994"	"1.955"	"29.536"	"47.307"	"23.28"	"16.38"	"157.748"	"360.494"	"271.66"	"263.369"	"285.566"	"24.954"	"0"
"1995"	"20.47"	"13.729"	"28.686"	"13.024"	"51.43"	"114.702"	"301.075"	"187.614"	"201.962"	"344.313"	"66.702"	"0"
"1996"	"4.199"	"8.692"	"7.153"	"29.636"	"29.569"	"168.13"	"149.114"	"332.862"	"74.372"	"214.954"	"14.41"	"2.929"
"1997"	"24.689"	"11.201"	"66.942"	"42.717"	"13.599"	"182.65"	"368.853"	"265.436"	"290.415"	"78.164"	"45.665"	"14.179"
"1998"	"29.948"	"96.22"	"12.978"	"22.029"	"31.457"	"213.123"	"281.954"	"200.475"	"290.779"	"360.419"	"110.688"	"0"
"1999"	"0.268"	"0.24"	"0.234"	"0.199"	"128.203"	"190.74"	"173.107"	"405.97"	"162.253"	"146.101"	"34.536"	"0.449"
"2000"	"0.475"	"75.701"	"0.234"	"27.389"	"68.33"	"301.585"	"185.022"	"273.667"	"91.736"	"91.204"	"21.443"	"0.743"
"2001"	"0.107"	"2.887"	"25.684"	"17.663"	"71.827"	"394.378"	"178.283"	"287.455"	"162.04"	"202.569"	"64.014"	"0.948"
"2002"	"38.548"	"9.757"	"2.783"	"49.001"	"85.208"	"191.327"	"230.47"	"340.782"	"201.563"	"61.623"	"35.459"	"0"
