
"Year"	"Jan"	"Feb"	"Mar"	"Apr"	"May"	"Jun"	"Jul"	"Aug"	"Sep"	"Oct"	"Nov"	"Dec"
"1901"	"18.098"	"18.016"	"22.11"	"23.584"	"24.731"	"24.731"	"23.175"	"22.356"	"22.602"	"23.421"	"21.783"	"20.391"
"1902"	"19.735"	"19.817"	"22.765"	"23.912"	"25.222"	"24.731"	"23.502"	"23.339"	"22.52"	"23.584"	"21.128"	"19.817"
"1903"	"18.671"	"18.343"	"20.391"	"23.011"	"24.649"	"24.895"	"23.339"	"22.847"	"22.602"	"22.602"	"20.636"	"19.244"
"1904"	"19.08"	"19.326"	"20.964"	"23.502"	"24.976"	"24.158"	"22.602"	"22.765"	"22.52"	"23.502"	"20.8"	"19.981"
"1905"	"18.016"	"17.934"	"20.145"	"22.11"	"25.55"	"24.813"	"22.765"	"22.765"	"22.684"	"23.666"	"22.11"	"19.572"
"1906"	"18.016"	"18.18"	"21.046"	"23.502"	"25.222"	"23.748"	"22.765"	"22.765"	"22.028"	"22.847"	"22.028"	"20.227"
"1907"	"19.244"	"19.408"	"21.209"	"22.438"	"24.158"	"24.321"	"23.421"	"21.783"	"22.438"	"23.421"	"22.192"	"19.244"
"1908"	"18.589"	"18.753"	"21.046"	"23.912"	"24.567"	"24.485"	"22.192"	"22.028"	"22.765"	"23.257"	"21.046"	"18.753"
"1909"	"18.917"	"19.408"	"22.52"	"22.765"	"25.058"	"23.666"	"22.192"	"22.52"	"22.192"	"22.602"	"21.455"	"20.063"
"1910"	"18.753"	"19.244"	"21.783"	"23.421"	"24.649"	"23.748"	"22.765"	"22.52"	"22.356"	"22.192"	"20.063"	"19.244"
"1911"	"19.49"	"19.08"	"20.718"	"23.093"	"25.304"	"23.584"	"23.339"	"22.438"	"22.356"	"23.912"	"22.438"	"21.209"
"1912"	"19.572"	"20.145"	"21.537"	"24.158"	"25.222"	"25.386"	"23.175"	"22.602"	"22.847"	"23.339"	"21.128"	"19.654"
"1913"	"18.507"	"19.817"	"20.636"	"23.994"	"24.649"	"23.257"	"22.765"	"22.356"	"22.765"	"23.666"	"21.783"	"20.391"
"1914"	"19.49"	"19.572"	"20.964"	"23.011"	"25.304"	"24.158"	"22.52"	"22.602"	"22.684"	"23.339"	"22.52"	"20.145"
"1915"	"19.162"	"18.917"	"21.537"	"23.502"	"25.14"	"25.304"	"23.666"	"22.765"	"22.929"	"23.175"	"22.602"	"19.735"
"1916"	"19.162"	"18.671"	"22.847"	"23.994"	"25.304"	"23.339"	"23.502"	"22.602"	"22.929"	"23.093"	"21.373"	"19.326"
"1917"	"19.326"	"19.326"	"21.209"	"22.602"	"23.83"	"23.339"	"22.765"	"22.684"	"22.356"	"22.356"	"20.718"	"19.326"
"1918"	"18.098"	"19.817"	"21.537"	"22.438"	"24.567"	"23.748"	"23.584"	"22.847"	"22.765"	"23.912"	"22.929"	"20.391"
"1919"	"19.49"	"19.654"	"21.783"	"23.257"	"24.976"	"23.666"	"22.602"	"22.356"	"22.684"	"23.011"	"22.438"	"19.654"
"1920"	"19.735"	"19.162"	"21.947"	"23.257"	"23.912"	"23.83"	"22.192"	"22.356"	"23.011"	"23.584"	"22.028"	"19.981"
"1921"	"19.408"	"19.326"	"22.765"	"24.403"	"25.058"	"24.321"	"23.421"	"22.356"	"22.11"	"23.093"	"21.046"	"20.391"
"1922"	"18.917"	"20.145"	"22.11"	"23.994"	"24.895"	"24.158"	"22.356"	"22.192"	"22.274"	"23.011"	"21.373"	"18.835"
"1923"	"19.08"	"18.507"	"22.11"	"23.093"	"24.321"	"25.14"	"22.602"	"22.274"	"22.52"	"22.765"	"21.209"	"20.718"
"1924"	"19.49"	"19.817"	"23.175"	"24.158"	"24.895"	"24.731"	"23.175"	"22.847"	"22.52"	"22.11"	"20.472"	"20.063"
"1925"	"17.443"	"18.425"	"22.192"	"24.403"	"24.649"	"23.257"	"22.356"	"22.765"	"22.929"	"23.83"	"22.602"	"20.227"
"1926"	"19.735"	"20.8"	"21.783"	"22.192"	"24.731"	"25.55"	"23.093"	"22.602"	"22.438"	"23.257"	"21.046"	"19.654"
"1927"	"18.589"	"19.162"	"21.455"	"23.011"	"24.485"	"23.83"	"22.192"	"22.11"	"22.765"	"23.011"	"20.063"	"19.981"
"1928"	"19.08"	"19.244"	"21.619"	"23.584"	"24.731"	"24.239"	"22.438"	"22.192"	"22.028"	"23.011"	"21.865"	"19.572"
"1929"	"18.343"	"19.244"	"22.847"	"23.502"	"25.222"	"23.994"	"22.765"	"22.356"	"22.929"	"23.011"	"22.192"	"19.735"
"1930"	"19.08"	"18.343"	"21.947"	"23.175"	"24.976"	"24.239"	"21.865"	"21.947"	"22.602"	"23.502"	"20.8"	"20.309"
"1931"	"19.408"	"19.49"	"21.291"	"24.239"	"25.14"	"25.304"	"22.847"	"22.52"	"22.356"	"22.274"	"21.373"	"19.654"
"1932"	"19.162"	"18.589"	"21.455"	"23.093"	"24.895"	"24.158"	"22.356"	"22.684"	"22.52"	"23.584"	"21.537"	"20.063"
"1933"	"18.835"	"19.49"	"21.701"	"23.257"	"23.83"	"23.502"	"22.765"	"22.192"	"22.192"	"22.847"	"21.783"	"19.654"
"1934"	"17.77"	"19.572"	"21.291"	"23.584"	"24.485"	"23.994"	"22.356"	"22.028"	"22.028"	"22.765"	"20.882"	"19.817"
"1935"	"17.688"	"19.162"	"21.128"	"22.11"	"24.731"	"24.321"	"22.356"	"22.192"	"21.701"	"23.175"	"21.128"	"20.145"
"1936"	"18.425"	"18.998"	"21.537"	"22.765"	"25.386"	"23.257"	"22.438"	"22.438"	"22.684"	"23.093"	"22.192"	"19.654"
"1937"	"18.098"	"19.49"	"21.046"	"22.765"	"24.649"	"24.158"	"21.947"	"22.274"	"22.274"	"22.765"	"21.865"	"19.08"
"1938"	"19.572"	"18.343"	"22.438"	"23.83"	"24.731"	"22.52"	"22.192"	"22.52"	"22.274"	"22.11"	"20.8"	"19.899"
"1939"	"19.408"	"19.981"	"20.882"	"22.847"	"24.321"	"24.239"	"22.356"	"22.602"	"22.11"	"23.339"	"21.128"	"19.49"
"1940"	"18.917"	"19.817"	"20.472"	"23.093"	"24.895"	"24.158"	"22.274"	"22.11"	"22.438"	"23.093"	"22.11"	"19.654"
"1941"	"18.671"	"20.472"	"22.602"	"24.076"	"25.14"	"24.567"	"22.274"	"22.847"	"23.011"	"23.912"	"22.028"	"21.455"
"1942"	"18.998"	"19.899"	"22.684"	"24.567"	"24.895"	"24.649"	"21.947"	"22.028"	"22.11"	"23.421"	"21.373"	"19.654"
"1943"	"19.162"	"19.08"	"22.192"	"23.011"	"25.14"	"23.257"	"21.783"	"21.947"	"22.028"	"22.438"	"22.356"	"19.49"
"1944"	"18.998"	"18.835"	"21.128"	"22.847"	"25.386"	"24.239"	"22.11"	"22.11"	"22.765"	"22.847"	"21.865"	"20.882"
"1945"	"17.934"	"19.08"	"22.11"	"22.684"	"24.567"	"24.321"	"22.11"	"22.52"	"22.11"	"22.765"	"20.718"	"18.671"
"1946"	"18.589"	"20.145"	"21.783"	"23.83"	"24.158"	"23.584"	"22.192"	"21.783"	"22.274"	"23.584"	"21.455"	"21.046"
"1947"	"19.08"	"19.981"	"22.192"	"22.684"	"25.058"	"24.976"	"22.847"	"23.339"	"22.028"	"22.11"	"21.783"	"20.145"
"1948"	"19.408"	"19.572"	"22.11"	"24.239"	"25.468"	"24.649"	"23.257"	"22.765"	"22.52"	"23.748"	"22.847"	"19.654"
"1949"	"20.145"	"19.49"	"22.684"	"24.076"	"25.14"	"24.239"	"23.093"	"22.847"	"22.438"	"23.093"	"21.291"	"19.162"
"1950"	"18.753"	"17.934"	"21.209"	"23.011"	"24.731"	"24.649"	"22.274"	"22.11"	"22.192"	"22.438"	"20.554"	"18.753"
"1951"	"18.425"	"19.162"	"21.783"	"22.765"	"24.321"	"24.239"	"22.52"	"22.192"	"23.339"	"24.076"	"23.093"	"19.817"
"1952"	"19.572"	"20.227"	"21.209"	"23.994"	"25.222"	"24.158"	"22.52"	"22.11"	"22.356"	"23.093"	"20.718"	"21.209"
"1953"	"18.917"	"20.8"	"23.093"	"23.83"	"24.567"	"23.912"	"22.192"	"21.865"	"22.274"	"23.339"	"21.619"	"20.309"
"1954"	"18.589"	"20.309"	"22.438"	"23.502"	"24.976"	"24.158"	"22.192"	"22.52"	"21.455"	"22.274"	"21.455"	"19.899"
"1955"	"19.899"	"19.981"	"22.356"	"22.847"	"24.976"	"23.83"	"22.765"	"21.865"	"22.52"	"22.765"	"20.718"	"19.735"
"1956"	"19.162"	"19.49"	"22.52"	"23.912"	"24.403"	"23.421"	"21.865"	"21.865"	"22.274"	"22.847"	"21.783"	"19.981"
"1957"	"19.162"	"18.507"	"20.309"	"23.175"	"24.485"	"24.813"	"22.52"	"22.11"	"22.52"	"23.748"	"23.011"	"21.209"
"1958"	"20.227"	"19.572"	"22.192"	"24.158"	"25.222"	"24.731"	"22.356"	"22.274"	"22.274"	"23.011"	"22.765"	"21.046"
"1959"	"19.408"	"19.49"	"22.274"	"23.994"	"25.713"	"24.158"	"21.865"	"21.947"	"22.356"	"22.602"	"22.192"	"21.291"
"1960"	"18.917"	"21.209"	"21.537"	"23.584"	"25.304"	"23.666"	"22.765"	"21.947"	"22.684"	"23.011"	"22.192"	"21.209"
"1961"	"19.572"	"18.507"	"22.847"	"23.83"	"24.485"	"23.666"	"21.947"	"22.602"	"21.865"	"22.274"	"22.192"	"20.391"
"1962"	"18.016"	"20.145"	"21.783"	"23.83"	"25.386"	"24.239"	"22.438"	"22.356"	"22.192"	"22.274"	"21.783"	"20.554"
"1963"	"20.145"	"20.391"	"22.11"	"22.765"	"24.649"	"23.994"	"22.52"	"21.865"	"22.11"	"23.339"	"22.52"	"21.128"
"1964"	"18.343"	"19.654"	"22.847"	"24.567"	"24.567"	"23.83"	"22.274"	"21.865"	"22.192"	"23.093"	"21.455"	"19.981"
"1965"	"19.981"	"19.899"	"21.537"	"23.421"	"24.403"	"24.321"	"22.438"	"22.684"	"23.011"	"23.994"	"22.765"	"21.209"
"1966"	"19.735"	"20.964"	"21.783"	"23.83"	"24.321"	"24.567"	"23.257"	"22.847"	"22.847"	"24.158"	"23.175"	"20.718"
"1967"	"18.753"	"20.718"	"22.11"	"23.83"	"25.222"	"23.994"	"22.52"	"22.11"	"22.438"	"23.339"	"22.192"	"21.865"
"1968"	"18.425"	"19.244"	"21.783"	"23.584"	"24.485"	"24.895"	"23.011"	"22.11"	"23.502"	"23.011"	"21.783"	"20.472"
"1969"	"19.244"	"20.472"	"23.421"	"24.731"	"25.632"	"24.567"	"23.011"	"22.356"	"22.602"	"23.666"	"23.666"	"21.373"
"1970"	"19.572"	"20.554"	"22.192"	"24.567"	"25.55"	"23.502"	"22.52"	"22.274"	"22.274"	"23.584"	"20.8"	"18.998"
"1971"	"18.589"	"19.817"	"22.192"	"24.158"	"24.649"	"23.257"	"22.52"	"22.11"	"22.847"	"22.274"	"21.046"	"19.326"
"1972"	"18.998"	"18.261"	"22.192"	"23.257"	"24.895"	"24.567"	"22.765"	"22.765"	"23.175"	"23.994"	"21.783"	"20.554"
"1973"	"18.261"	"20.063"	"22.192"	"24.731"	"25.386"	"24.567"	"22.274"	"22.11"	"21.701"	"23.011"	"21.783"	"20.145"
"1974"	"18.835"	"19.326"	"22.684"	"24.321"	"24.158"	"24.731"	"22.356"	"22.52"	"23.175"	"22.847"	"20.8"	"19.326"
"1975"	"18.343"	"19.49"	"21.373"	"23.257"	"24.895"	"23.83"	"22.765"	"22.438"	"22.356"	"22.765"	"21.046"	"19.326"
"1976"	"18.917"	"20.063"	"22.684"	"23.175"	"24.239"	"23.584"	"22.847"	"22.438"	"22.356"	"23.994"	"23.666"	"20.882"
"1977"	"19.244"	"20.145"	"23.584"	"24.321"	"24.976"	"24.158"	"22.765"	"22.847"	"22.847"	"23.748"	"22.929"	"20.227"
"1978"	"18.425"	"19.244"	"20.8"	"23.83"	"25.222"	"23.666"	"22.765"	"22.356"	"22.11"	"23.584"	"22.765"	"20.8"
"1979"	"19.162"	"18.671"	"21.455"	"23.912"	"24.567"	"24.403"	"23.011"	"21.865"	"23.175"	"24.076"	"23.257"	"20.8"
"1980"	"19.326"	"20.227"	"22.11"	"24.813"	"25.713"	"22.684"	"22.602"	"22.438"	"23.339"	"24.076"	"23.011"	"20.063"
"1981"	"18.835"	"20.145"	"22.52"	"23.748"	"24.976"	"24.731"	"22.52"	"22.274"	"22.192"	"23.994"	"21.209"	"19.981"
"1982"	"19.49"	"19.408"	"21.373"	"23.175"	"24.976"	"24.895"	"23.339"	"22.684"	"22.929"	"24.567"	"22.602"	"21.046"
"1983"	"18.671"	"18.507"	"21.046"	"22.52"	"24.976"	"24.813"	"23.421"	"22.765"	"22.847"	"22.847"	"21.209"	"19.981"
"1984"	"18.098"	"19.244"	"23.257"	"24.239"	"25.468"	"24.239"	"22.847"	"22.274"	"22.684"	"23.421"	"21.865"	"20.472"
"1985"	"18.998"	"19.817"	"23.093"	"23.748"	"25.14"	"23.994"	"22.847"	"22.356"	"22.929"	"22.602"	"21.701"	"20.636"
"1986"	"19.572"	"19.817"	"22.11"	"23.994"	"25.14"	"24.158"	"22.847"	"22.11"	"23.093"	"23.666"	"22.52"	"19.654"
"1987"	"19.817"	"20.554"	"22.684"	"23.994"	"25.058"	"24.403"	"23.502"	"23.011"	"23.83"	"24.158"	"23.175"	"20.964"
"1988"	"20.391"	"20.554"	"21.619"	"24.403"	"25.55"	"24.485"	"22.765"	"22.847"	"23.175"	"23.175"	"21.947"	"20.391"
"1989"	"18.917"	"19.981"	"21.701"	"23.421"	"25.222"	"23.666"	"22.847"	"22.028"	"23.011"	"23.584"	"23.093"	"20.472"
"1990"	"20.554"	"20.145"	"21.209"	"23.257"	"24.731"	"23.912"	"22.602"	"22.274"	"22.52"	"23.502"	"22.765"	"21.046"
"1991"	"18.589"	"19.654"	"21.865"	"23.83"	"25.386"	"24.649"	"22.52"	"22.438"	"22.929"	"23.584"	"22.602"	"19.817"
"1992"	"19.326"	"19.08"	"22.11"	"23.093"	"24.731"	"24.895"	"23.584"	"22.52"	"22.929"	"23.175"	"22.684"	"20.718"
"1993"	"19.408"	"20.309"	"21.865"	"23.257"	"25.14"	"24.567"	"23.011"	"22.929"	"22.438"	"23.748"	"22.684"	"20.636"
"1994"	"19.899"	"19.408"	"22.602"	"23.502"	"25.14"	"23.83"	"22.274"	"22.356"	"22.028"	"23.666"	"22.52"	"19.654"
"1995"	"18.261"	"19.981"	"21.783"	"23.912"	"25.468"	"25.795"	"23.257"	"23.421"	"23.175"	"23.994"	"21.947"	"20.472"
"1996"	"19.49"	"20.472"	"23.257"	"23.83"	"25.058"	"24.813"	"22.929"	"22.438"	"22.847"	"23.175"	"21.947"	"20.718"
"1997"	"18.507"	"18.835"	"22.192"	"22.356"	"24.158"	"23.666"	"22.847"	"22.274"	"22.684"	"23.421"	"23.994"	"21.373"
"1998"	"19.654"	"19.408"	"21.701"	"24.321"	"26.041"	"24.895"	"22.847"	"23.175"	"22.929"	"24.076"	"22.356"	"19.899"
"1999"	"18.343"	"20.718"	"22.356"	"24.158"	"24.239"	"23.421"	"22.52"	"22.438"	"22.438"	"22.929"	"22.028"	"20.145"
"2000"	"19.654"	"19.08"	"21.128"	"24.567"	"24.158"	"23.912"	"22.274"	"22.929"	"23.093"	"24.239"	"22.602"	"20.718"
"2001"	"19.49"	"20.063"	"21.619"	"23.83"	"24.649"	"23.175"	"21.865"	"22.274"	"23.339"	"23.666"	"22.438"	"20.882"
"2002"	"18.343"	"20.391"	"22.274"	"24.567"	"25.386"	"24.158"	"23.093"	"22.192"	"22.847"	"24.485"	"22.602"	"21.128"
