
"Year"	"Jan"	"Feb"	"Mar"	"Apr"	"May"	"Jun"	"Jul"	"Aug"	"Sep"	"Oct"	"Nov"	"Dec"
"1901"	"0.409"	"0"	"0"	"2.211"	"4.586"	"314.13"	"521.885"	"346.313"	"75.503"	"17.443"	"0.164"	"0"
"1902"	"0"	"0"	"0"	"0"	"0.983"	"56.75"	"753.142"	"333.046"	"403.881"	"29.48"	"11.055"	"13.512"
"1903"	"0"	"0"	"0"	"0"	"40.781"	"126.848"	"676.247"	"341.072"	"277.116"	"57.732"	"1.146"	"0.491"
"1904"	"0"	"11.055"	"0.328"	"0.246"	"0.655"	"330.18"	"347.295"	"139.868"	"237.153"	"36.277"	"0.164"	"1.31"
"1905"	"0"	"4.34"	"0"	"0"	"0"	"93.518"	"682.553"	"127.83"	"86.803"	"13.512"	"4.504"	"0"
"1906"	"0"	"8.68"	"0"	"0"	"0"	"325.758"	"617.696"	"281.374"	"86.066"	"19.49"	"0.164"	"3.276"
"1907"	"0"	"0.491"	"0"	"0.246"	"0"	"306.35"	"854.03"	"686.975"	"61.499"	"0.328"	"0.164"	"0"
"1908"	"0.491"	"0"	"0"	"0"	"0"	"225.115"	"862.874"	"284.158"	"72.309"	"3.849"	"0.164"	"0"
"1909"	"0"	"0"	"0"	"0"	"0"	"664.046"	"770.83"	"218.073"	"284.24"	"6.469"	"0.164"	"3.194"
"1910"	"0"	"0"	"0"	"0"	"0"	"444.744"	"350.407"	"564.713"	"176.8"	"71.49"	"15.477"	"0"
"1911"	"0"	"0"	"0.573"	"0"	"0"	"317.242"	"238.873"	"377.185"	"110.224"	"0.328"	"5.732"	"2.457"
"1912"	"0"	"0"	"0"	"0"	"2.948"	"223.723"	"1090.365"	"330.672"	"38.816"	"41.273"	"79.024"	"0"
"1913"	"0"	"0"	"0"	"0"	"1.802"	"793.595"	"704.663"	"258.936"	"223.641"	"18.917"	"0.164"	"0"
"1914"	"0"	"4.586"	"0"	"0"	"0"	"564.713"	"1105.514"	"311.018"	"345.33"	"7.452"	"12.447"	"0"
"1915"	"0.164"	"0.983"	"0.328"	"0.164"	"0.328"	"498.792"	"327.068"	"189.985"	"267.944"	"101.462"	"7.043"	"0.328"
"1916"	"0"	"0"	"0"	"0"	"13.266"	"313.147"	"388.24"	"494.206"	"323.547"	"95.484"	"0.164"	"0"
"1917"	"0"	"0.246"	"0"	"0.491"	"38.324"	"426.729"	"395.201"	"470.54"	"334.52"	"109.159"	"0.164"	"0"
"1918"	"0"	"0"	"0.573"	"0"	"41.436"	"129.877"	"221.84"	"335.913"	"40.617"	"1.556"	"0.737"	"0"
"1919"	"0.246"	"0"	"0"	"0"	"0"	"377.103"	"932.153"	"330.672"	"185.972"	"50.117"	"1.72"	"0"
"1920"	"0.573"	"4.013"	"0"	"0"	"3.439"	"278.098"	"323.957"	"237.317"	"182.533"	"1.146"	"0.164"	"0"
"1921"	"0"	"0"	"0"	"0"	"0"	"251.566"	"826.27"	"276.952"	"262.212"	"2.457"	"0.164"	"0"
"1922"	"0"	"0"	"0"	"0"	"0"	"372.272"	"578.552"	"168.775"	"264.75"	"15.887"	"18.425"	"2.62"
"1923"	"0"	"5.569"	"1.065"	"0"	"0"	"54.047"	"749.375"	"301.846"	"311.1"	"1.965"	"0.164"	"0"
"1924"	"0"	"0"	"0"	"0"	"0"	"148.221"	"337.223"	"457.355"	"317.569"	"14.085"	"0.164"	"0"
"1925"	"0"	"0"	"0"	"0"	"29.89"	"573.557"	"322.728"	"185.972"	"56.504"	"0.983"	"6.306"	"0"
"1926"	"0.491"	"0"	"0"	"0.901"	"0"	"99.988"	"845.186"	"686.975"	"392.171"	"15.15"	"0.164"	"0"
"1927"	"0"	"0.491"	"0"	"0"	"0"	"368.914"	"890.553"	"153.544"	"189.657"	"55.931"	"54.948"	"0"
"1928"	"0"	"1.474"	"0"	"0"	"0"	"150.268"	"666.83"	"400.442"	"247.308"	"12.693"	"2.866"	"2.047"
"1929"	"0"	"0"	"0.164"	"0.246"	"0"	"288.007"	"520.574"	"240.511"	"86.803"	"78.942"	"0.164"	"8.271"
"1930"	"0"	"7.288"	"0"	"0"	"0"	"433.198"	"716.619"	"250.911"	"203.169"	"33.575"	"0.164"	"0.246"
"1931"	"0"	"0"	"0"	"0"	"0"	"291.037"	"1055.725"	"488.555"	"130.86"	"291.938"	"43.975"	"7.124"
"1932"	"0"	"0"	"0"	"0"	"2.129"	"141.752"	"1054.415"	"282.193"	"239.528"	"124.391"	"3.685"	"7.206"
"1933"	"0"	"0"	"0"	"0"	"43.565"	"719.485"	"423.535"	"850.918"	"452.114"	"72.391"	"2.62"	"11.219"
"1934"	"0"	"0"	"0"	"0.328"	"0"	"414.773"	"420.996"	"510.993"	"168.284"	"23.011"	"38.734"	"0"
"1935"	"0.164"	"0"	"0"	"0"	"0"	"490.93"	"576.096"	"254.923"	"185.972"	"26.287"	"0.164"	"0"
"1936"	"0"	"0"	"0.246"	"0"	"1.146"	"594.685"	"405.273"	"235.679"	"260.41"	"7.288"	"61.09"	"0"
"1937"	"0"	"6.551"	"0"	"0"	"0"	"685.828"	"936.575"	"117.43"	"514.76"	"30.873"	"0.164"	"0.655"
"1938"	"0"	"1.31"	"0"	"0"	"49.789"	"860.909"	"539.491"	"323.465"	"118.904"	"49.298"	"13.102"	"0"
"1939"	"0"	"0"	"0.164"	"0"	"0"	"102.362"	"642.836"	"497.809"	"160.013"	"5.978"	"21.783"	"0"
"1940"	"0.328"	"20.8"	"0.164"	"0"	"0.164"	"330.835"	"565.941"	"359.087"	"244.114"	"106.293"	"13.021"	"0"
"1941"	"0.164"	"0"	"0"	"0"	"0"	"210.13"	"922.736"	"137.493"	"61.336"	"32.51"	"0.164"	"0"
"1942"	"0"	"2.866"	"0"	"0"	"0.901"	"488.965"	"919.542"	"316.259"	"193.588"	"0.328"	"0.164"	"1.556"
"1943"	"0"	"0"	"0"	"0"	"23.502"	"307.742"	"807.353"	"96.958"	"162.306"	"92.699"	"0.164"	"0"
"1944"	"0"	"0"	"0"	"0"	"2.702"	"369.242"	"1042.459"	"587.151"	"50.936"	"106.211"	"0.164"	"0"
"1945"	"0.573"	"0"	"0"	"0"	"0"	"532.448"	"917.004"	"452.114"	"331.327"	"15.805"	"0.164"	"0"
"1946"	"0"	"4.75"	"0"	"0.491"	"12.611"	"281.21"	"632.764"	"648.487"	"235.352"	"19.08"	"62.236"	"0.409"
"1947"	"0"	"0"	"0"	"0.819"	"0"	"62.891"	"667.485"	"430.086"	"351.062"	"32.756"	"0.164"	"2.948"
"1948"	"0.573"	"0"	"0"	"0"	"0"	"314.13"	"562.174"	"201.204"	"73.046"	"34.558"	"46.186"	"0"
"1949"	"0"	"0"	"0"	"0"	"20.882"	"165.581"	"449.412"	"337.878"	"543.995"	"71.244"	"0.328"	"0"
"1950"	"0"	"0"	"0"	"0"	"0"	"43.484"	"1150.881"	"66.495"	"345.084"	"21.455"	"0.164"	"0"
"1951"	"0"	"0"	"0"	"0.328"	"0"	"170.004"	"543.258"	"255.333"	"55.112"	"108.259"	"13.184"	"0"
"1952"	"0"	"0"	"0"	"0"	"0"	"560.291"	"595.012"	"178.356"	"65.184"	"24.321"	"0.164"	"0"
"1953"	"0"	"0"	"0.164"	"0.246"	"0"	"398.476"	"477.746"	"498.218"	"176.309"	"15.559"	"0.164"	"0"
"1954"	"0"	"2.62"	"1.392"	"0"	"0"	"349.506"	"841.419"	"357.532"	"352.209"	"6.633"	"0.164"	"5.732"
"1955"	"0.164"	"0"	"0.491"	"0"	"0"	"434.836"	"373.091"	"600.008"	"359.087"	"110.306"	"0.164"	"0"
"1956"	"0"	"0"	"0"	"0"	"23.748"	"244.769"	"1233.426"	"366.376"	"218.81"	"123.899"	"5.65"	"0.655"
"1957"	"0"	"0"	"0"	"0"	"8.435"	"258.772"	"499.774"	"382.344"	"48.643"	"10.482"	"12.939"	"0"
"1958"	"0"	"0"	"0"	"0.409"	"0.164"	"393.399"	"965.564"	"566.351"	"337.96"	"18.18"	"11.219"	"0"
"1959"	"0"	"0"	"0"	"0"	"2.293"	"244.114"	"890.553"	"490.193"	"349.261"	"63.547"	"5.159"	"0"
"1960"	"0"	"0"	"0"	"0"	"11.301"	"337.305"	"511.812"	"251.73"	"287.27"	"31.937"	"0.164"	"0"
"1961"	"0"	"0"	"0"	"0"	"23.175"	"324.039"	"641.608"	"251.32"	"256.971"	"67.887"	"0.164"	"0"
"1962"	"0"	"0"	"0.655"	"0.491"	"18.589"	"137.002"	"593.047"	"224.46"	"337.059"	"4.258"	"3.931"	"16.46"
"1963"	"0"	"0"	"0"	"0.164"	"0.246"	"340.335"	"751.914"	"704.254"	"186.218"	"38.243"	"14.658"	"1.802"
"1964"	"0"	"0"	"0"	"0"	"5.487"	"519.182"	"627.768"	"490.193"	"275.805"	"39.799"	"0.164"	"0"
"1965"	"0.573"	"0"	"0"	"0"	"0"	"167.956"	"940.342"	"623.264"	"67.477"	"0.328"	"7.861"	"9.254"
"1966"	"0"	"0"	"0"	"0"	"11.137"	"274.004"	"730.458"	"181.55"	"292.101"	"5.241"	"2.948"	"0"
"1967"	"0"	"0"	"0.491"	"0"	"0"	"203.005"	"956.72"	"223.641"	"190.312"	"4.832"	"0.164"	"14.904"
"1968"	"0"	"0"	"0.409"	"0.164"	"0"	"160.177"	"626.458"	"459.321"	"160.996"	"56.75"	"1.474"	"0"
"1969"	"0"	"0.246"	"0"	"0"	"0"	"151.333"	"697.702"	"314.212"	"462.023"	"4.094"	"3.112"	"1.474"
"1970"	"0"	"0"	"0"	"0.246"	"34.639"	"583.466"	"506.08"	"584.367"	"299.635"	"57.732"	"0.164"	"0"
"1971"	"0"	"0"	"0"	"0"	"14.986"	"497.072"	"422.306"	"357.122"	"306.76"	"9.008"	"0.164"	"0"
"1972"	"0"	"1.31"	"0"	"0"	"1.556"	"134.3"	"456.946"	"283.339"	"65.184"	"2.293"	"9.909"	"0"
"1973"	"0.164"	"4.75"	"0"	"0"	"2.948"	"214.552"	"444.335"	"302.174"	"409.614"	"26.696"	"0.164"	"0.409"
"1974"	"0"	"0"	"0"	"0"	"17.115"	"61.581"	"364.902"	"224.051"	"155.673"	"88.687"	"0.164"	"0"
"1975"	"0"	"0"	"0"	"0"	"2.948"	"494.697"	"343.528"	"533.513"	"393.809"	"73.947"	"0.164"	"0"
"1976"	"0"	"0"	"0"	"0"	"0.164"	"151.66"	"1157.76"	"674.937"	"208.246"	"0.901"	"27.515"	"1.392"
"1977"	"0"	"0.737"	"0"	"0.246"	"3.03"	"414.117"	"557.179"	"226.426"	"193.588"	"5.487"	"30.217"	"0.164"
"1978"	"0"	"5.896"	"0"	"0.328"	"0"	"560.7"	"340.99"	"224.87"	"91.389"	"58.142"	"45.285"	"4.094"
"1979"	"0.491"	"6.224"	"0"	"0"	"1.802"	"364.492"	"465.135"	"546.288"	"93.928"	"13.594"	"108.668"	"0"
"1980"	"0"	"0.819"	"0"	"0"	"0.409"	"705.154"	"418.458"	"431.642"	"54.457"	"3.03"	"5.323"	"8.353"
"1981"	"0.164"	"0"	"0"	"0"	"4.34"	"344.429"	"1022.887"	"313.065"	"346.968"	"45.776"	"4.995"	"0"
"1982"	"0"	"0"	"0"	"0"	"6.06"	"350.243"	"422.306"	"419.277"	"105.884"	"4.913"	"40.781"	"0"
"1983"	"0"	"0"	"0"	"0"	"0"	"255.333"	"746.836"	"584.367"	"435.327"	"89.096"	"0.164"	"0"
"1984"	"0"	"0"	"0"	"0"	"0"	"342.054"	"951.07"	"456.946"	"213.733"	"35.54"	"0.164"	"0"
"1985"	"0"	"0"	"0"	"0"	"1.065"	"163.862"	"502.313"	"404.373"	"76.485"	"106.539"	"41.682"	"0"
"1986"	"0"	"0"	"0"	"0"	"7.206"	"794.251"	"215.534"	"286.205"	"82.873"	"0.819"	"0.737"	"13.184"
"1987"	"0.737"	"3.357"	"0"	"0"	"15.15"	"164.926"	"178.356"	"573.967"	"26.86"	"52.246"	"3.439"	"19.244"
"1988"	"0"	"0"	"0"	"0.491"	"1.883"	"178.52"	"1010.931"	"286.615"	"544.159"	"4.258"	"0.164"	"0"
"1989"	"0"	"0"	"0.491"	"0.164"	"3.357"	"428.776"	"613.274"	"353.109"	"186.709"	"6.387"	"0.164"	"0"
"1990"	"0"	"0.983"	"0"	"0"	"18.753"	"345.821"	"742.414"	"744.707"	"137.575"	"51.509"	"14.495"	"7.124"
"1991"	"0"	"0"	"0"	"0.164"	"5.159"	"557.261"	"777.136"	"224.46"	"140.769"	"0.328"	"4.75"	"0"
"1992"	"0"	"0"	"0"	"0"	"0.819"	"211.112"	"475.207"	"470.54"	"352.946"	"13.512"	"1.883"	"0"
"1993"	"0"	"0"	"0"	"0"	"5.241"	"277.116"	"801.047"	"165.909"	"130.451"	"89.178"	"5.65"	"0.246"
"1994"	"0.246"	"0"	"0.164"	"0"	"5.978"	"685.828"	"994.553"	"395.61"	"394.955"	"36.195"	"3.439"	"0"
"1995"	"0"	"0"	"0.164"	"0.246"	"2.948"	"123.408"	"630.307"	"139.049"	"264.996"	"23.83"	"1.474"	"1.146"
"1996"	"0"	"0.901"	"0"	"0"	"0.901"	"455.636"	"823.731"	"312.656"	"203.906"	"104.492"	"1.556"	"0"
"1997"	"0.491"	"0"	"0"	"0.328"	"6.142"	"597.387"	"514.269"	"689.759"	"100.151"	"10.318"	"6.715"	"5.814"
"1998"	"0"	"1.228"	"0"	"0"	"2.784"	"302.583"	"904.393"	"443.68"	"309.544"	"73.292"	"18.671"	"0"
"1999"	"0"	"1.065"	"0"	"0"	"5.569"	"529.746"	"477.091"	"98.186"	"184.826"	"80.907"	"0.164"	"0"
"2000"	"0"	"0"	"0"	"0"	"22.602"	"341.727"	"603.201"	"234.86"	"114.81"	"13.348"	"5.65"	"1.965"
"2001"	"0"	"0"	"0"	"0"	"13.839"	"423.289"	"455.718"	"254.923"	"123.981"	"72.309"	"8.68"	"0"
"2002"	"0"	"0.246"	"0"	"0.409"	"2.539"	"557.589"	"122.917"	"291.774"	"100.151"	"4.258"	"0.164"	"0"
