
"Year"	"Jan"	"Feb"	"Mar"	"Apr"	"May"	"Jun"	"Jul"	"Aug"	"Sep"	"Oct"	"Nov"	"Dec"
"1901"	"16.255"	"18.832"	"24.884"	"30.019"	"33.829"	"34.161"	"28.918"	"25.797"	"26.425"	"26.32"	"21.17"	"18.226"
"1902"	"19.019"	"20.942"	"27.733"	"31.156"	"34.277"	"33.422"	"27.794"	"27.177"	"26.273"	"25.172"	"19.872"	"16.982"
"1903"	"18.211"	"19.14"	"24.503"	"29.669"	"32.685"	"33.887"	"29.168"	"26.512"	"26.34"	"24.13"	"19.542"	"16.978"
"1904"	"18.254"	"19.841"	"24.613"	"30.968"	"33.251"	"31.544"	"26.163"	"25.577"	"25.98"	"25.318"	"20.165"	"18.134"
"1905"	"16.917"	"16.375"	"23.317"	"27.84"	"34.242"	"34.244"	"27.709"	"26.615"	"26.457"	"25.121"	"21.619"	"17.688"
"1906"	"17.102"	"19.042"	"24.226"	"30.714"	"35.211"	"31.559"	"27.033"	"26.522"	"25.733"	"24.792"	"21.397"	"18.374"
"1907"	"18.723"	"19.164"	"23.816"	"28.028"	"32.398"	"32.554"	"29.715"	"25.461"	"27.258"	"26.717"	"21.845"	"16.833"
"1908"	"16.835"	"20.392"	"24.641"	"31.709"	"34.289"	"33.486"	"26.743"	"25.697"	"26.971"	"25.324"	"20.663"	"16.928"
"1909"	"19.024"	"19.417"	"26.263"	"28.182"	"33.532"	"29.58"	"26.201"	"26.123"	"25.9"	"25.079"	"21.445"	"17.678"
"1910"	"17.411"	"20.191"	"25.633"	"30.202"	"33.736"	"30.353"	"27.399"	"26.044"	"26.398"	"24.182"	"19.274"	"17.663"
"1911"	"19.62"	"19.891"	"23.591"	"30.077"	"34.955"	"30.1"	"28.388"	"26.097"	"25.63"	"25.328"	"20.259"	"17.476"
"1912"	"18.302"	"21.215"	"24.924"	"30.068"	"34.079"	"33.884"	"27.844"	"26.083"	"26.097"	"25.172"	"20.013"	"16.945"
"1913"	"17.62"	"20.244"	"23.622"	"31.472"	"32.212"	"29.2"	"27.319"	"26.209"	"27.26"	"26.791"	"21.106"	"17.808"
"1914"	"19.484"	"20.85"	"24.539"	"29.452"	"33.306"	"31.315"	"26.809"	"26.146"	"26.704"	"25.471"	"22.053"	"17.885"
"1915"	"18.153"	"18.739"	"24.281"	"29.575"	"34.746"	"33.514"	"28.275"	"26.044"	"26.847"	"26.004"	"21.473"	"17.932"
"1916"	"17.859"	"19.543"	"26.971"	"31.197"	"34.058"	"28.6"	"27.699"	"25.973"	"26.418"	"24.933"	"19.557"	"16.479"
"1917"	"17.831"	"19.349"	"24.062"	"28.008"	"30.445"	"29.933"	"26.678"	"26.107"	"26.066"	"24.934"	"19.136"	"17.979"
"1918"	"16.256"	"20.685"	"25.526"	"29.313"	"34.351"	"29.895"	"28.946"	"26.261"	"27.123"	"26.115"	"21.698"	"17.177"
"1919"	"18.1"	"18.938"	"25.471"	"29.566"	"32.926"	"31.718"	"26.217"	"25.553"	"26.402"	"24.62"	"21.054"	"17.432"
"1920"	"17.811"	"19.941"	"25.596"	"30.111"	"31.222"	"31.695"	"26.41"	"26.189"	"27.504"	"26.94"	"22.021"	"18.792"
"1921"	"18.92"	"20.384"	"27.589"	"32.166"	"35.521"	"31.413"	"28.899"	"25.578"	"25.879"	"25.074"	"20.208"	"19.413"
"1922"	"17.331"	"21.539"	"26.358"	"30.841"	"34.512"	"30.885"	"26.656"	"25.623"	"26.024"	"24.852"	"20.568"	"17.139"
"1923"	"17.711"	"19.738"	"25.705"	"30.785"	"33.393"	"34.682"	"27.359"	"25.345"	"26.591"	"24.345"	"21"	"18.381"
"1924"	"17.612"	"20.567"	"27.073"	"31.472"	"33"	"33.809"	"26.888"	"26.103"	"26.159"	"24.773"	"19.929"	"17.589"
"1925"	"16.222"	"19.081"	"25.596"	"31.311"	"31.913"	"29.822"	"25.498"	"26.542"	"26.435"	"25.693"	"20.155"	"16.814"
"1926"	"17.863"	"21.263"	"24.158"	"26.877"	"31.765"	"34.19"	"28.127"	"26.23"	"26.013"	"23.743"	"18.668"	"16.389"
"1927"	"16.412"	"18.607"	"23.289"	"29.608"	"33.271"	"32.241"	"26.952"	"26.008"	"26.992"	"24.848"	"18.949"	"18.075"
"1928"	"17.575"	"20.139"	"25.267"	"29.719"	"34.321"	"31.379"	"26.641"	"26.614"	"27.154"	"25.607"	"21.67"	"17.274"
"1929"	"17.531"	"18.506"	"26.282"	"30.007"	"34.431"	"31.396"	"26.708"	"25.195"	"27.072"	"24.727"	"21.154"	"17.06"
"1930"	"17.694"	"19.427"	"26.078"	"29.342"	"33.365"	"31.832"	"26.302"	"25.78"	"26.425"	"26.216"	"20.139"	"18.193"
"1931"	"19.491"	"19.845"	"25.095"	"31.864"	"34.367"	"33.541"	"28.052"	"26.486"	"26.284"	"24.137"	"20.264"	"17.898"
"1932"	"19.845"	"18.951"	"25.1"	"29.839"	"33.423"	"32.93"	"27.494"	"26.123"	"26.368"	"25.624"	"20.549"	"18.191"
"1933"	"17.135"	"21.165"	"25.733"	"28.555"	"30.464"	"30.463"	"27.479"	"26.219"	"25.955"	"24.701"	"20.502"	"17.803"
"1934"	"16.848"	"20.689"	"24.66"	"30.363"	"33.589"	"31.501"	"26.716"	"25.932"	"25.776"	"24.114"	"20.106"	"17.948"
"1935"	"16.366"	"20.074"	"25.181"	"27.587"	"34.193"	"32.564"	"26.664"	"25.581"	"26.004"	"24.718"	"21.254"	"17.987"
"1936"	"16.765"	"19.75"	"25.237"	"29.433"	"34.391"	"29.841"	"26.888"	"25.865"	"25.961"	"24.737"	"20.941"	"17.579"
"1937"	"16.611"	"20.172"	"23.815"	"28.611"	"33.146"	"31.745"	"26.964"	"25.555"	"26.204"	"24.073"	"21.571"	"17.054"
"1938"	"18.271"	"18.411"	"26.827"	"30.849"	"34.324"	"27.995"	"26.445"	"26.177"	"27.074"	"25.204"	"20.208"	"17.742"
"1939"	"18.991"	"20.698"	"23.785"	"29.586"	"34.301"	"30.753"	"26.52"	"26.035"	"25.754"	"25.68"	"20.653"	"17.434"
"1940"	"17.533"	"19.78"	"23.809"	"29.435"	"33.793"	"31.96"	"27.196"	"25.854"	"26.349"	"25.228"	"21.376"	"17.438"
"1941"	"17.567"	"20.103"	"26.895"	"31.888"	"34.42"	"31.58"	"27.839"	"26.348"	"27.093"	"26.764"	"21.479"	"19.205"
"1942"	"16.677"	"20.197"	"26.031"	"31.097"	"34.913"	"33.388"	"26.168"	"25.94"	"26"	"25.376"	"21.373"	"17.488"
"1943"	"19.06"	"19.183"	"26.272"	"29.321"	"34.656"	"31.414"	"26.988"	"25.02"	"26.465"	"24.537"	"22.925"	"17.808"
"1944"	"17.319"	"19.33"	"23.611"	"29.066"	"34.767"	"31.34"	"26.601"	"25.964"	"26.455"	"24.182"	"21.27"	"19.555"
"1945"	"16.027"	"19.495"	"25.992"	"28.687"	"33.571"	"32.544"	"27.22"	"26.786"	"26.106"	"24.263"	"19.975"	"16.554"
"1946"	"18.558"	"21.757"	"25.481"	"31.209"	"33.702"	"30.12"	"26.662"	"25.753"	"26.464"	"25.582"	"19.991"	"18.899"
"1947"	"16.543"	"19.972"	"26.001"	"30.827"	"34.502"	"32.709"	"26.712"	"26.536"	"26.113"	"24.312"	"21.473"	"18.553"
"1948"	"17.661"	"19.471"	"24.981"	"31.674"	"35.4"	"32.112"	"27.239"	"26.044"	"26.004"	"25.733"	"20.196"	"17.323"
"1949"	"19.174"	"20.461"	"26.192"	"31.364"	"34.103"	"32.01"	"27.363"	"26.277"	"26.453"	"25.217"	"19.604"	"17.423"
"1950"	"18.621"	"19.107"	"24.192"	"29.622"	"34.21"	"32.277"	"26.997"	"25.989"	"26.455"	"24.778"	"20.064"	"17.543"
"1951"	"16.721"	"19.987"	"25.427"	"29.059"	"33.656"	"32.443"	"28.554"	"25.964"	"26.593"	"27.334"	"22.327"	"17.62"
"1952"	"19.183"	"22.061"	"25.145"	"31.432"	"35.244"	"31.575"	"26.997"	"25.344"	"26.956"	"25.971"	"20.963"	"18.972"
"1953"	"17.075"	"22.521"	"28.838"	"31.222"	"34.574"	"33.225"	"26.925"	"25.786"	"26.458"	"24.953"	"20.746"	"19.487"
"1954"	"16.803"	"21.604"	"25.632"	"31.331"	"35.283"	"32.408"	"27.853"	"26.001"	"25.545"	"23.633"	"20.807"	"18.377"
"1955"	"18.02"	"21.081"	"27.471"	"29.094"	"33.781"	"31.555"	"26.752"	"25.997"	"26.053"	"23.681"	"19.773"	"18.137"
"1956"	"18.119"	"20.184"	"26.516"	"31.228"	"34.472"	"29.237"	"26.226"	"25.443"	"25.617"	"24.507"	"19.375"	"18.547"
"1957"	"17.921"	"19.054"	"23.381"	"29.553"	"32.929"	"32.242"	"27.041"	"26.495"	"25.762"	"25.421"	"22.398"	"19.346"
"1958"	"19.62"	"20.831"	"26.192"	"31.885"	"34.666"	"33.763"	"26.874"	"26.512"	"25.984"	"24.359"	"21.508"	"18.834"
"1959"	"18.126"	"19.798"	"26.734"	"30.872"	"33.644"	"32.019"	"26.931"	"25.763"	"26.066"	"25.383"	"21.274"	"18.738"
"1960"	"16.94"	"22.293"	"25.111"	"30.425"	"34.385"	"33.272"	"27.336"	"25.29"	"26.749"	"24.603"	"20.332"	"19.335"
"1961"	"17.777"	"18.406"	"26.659"	"30.353"	"33.845"	"31.047"	"26.494"	"25.732"	"25.324"	"23.825"	"20.054"	"16.71"
"1962"	"16.279"	"19.824"	"24.693"	"29.897"	"33.407"	"32.781"	"27.673"	"25.496"	"25.315"	"23.406"	"21.015"	"18.69"
"1963"	"16.565"	"20.998"	"24.114"	"27.879"	"31.777"	"29.569"	"26.087"	"25.322"	"25.615"	"25.262"	"22.918"	"18.28"
"1964"	"17.315"	"20.625"	"27.326"	"31.828"	"33.125"	"32.043"	"27.164"	"26.074"	"26.138"	"25.867"	"20.734"	"18.688"
"1965"	"18.697"	"20.698"	"24.731"	"29.164"	"33.558"	"32.865"	"27.995"	"26.976"	"26.053"	"25.971"	"22.075"	"18.346"
"1966"	"18.227"	"22.548"	"25.692"	"30.388"	"33.307"	"31.08"	"29.103"	"25.964"	"27.633"	"26.96"	"23.05"	"17.734"
"1967"	"17.702"	"22.251"	"23.794"	"29.23"	"34.244"	"31.963"	"27.237"	"25.473"	"25.572"	"26.395"	"22.053"	"18.871"
"1968"	"17.121"	"19.525"	"26.098"	"29.005"	"32.431"	"30.476"	"27.024"	"25.797"	"27.447"	"25.252"	"22.165"	"18.735"
"1969"	"17.902"	"21.685"	"27.459"	"30.091"	"32.779"	"31.353"	"26.874"	"25.195"	"25.86"	"27.656"	"23.199"	"18.672"
"1970"	"18.465"	"20.333"	"25.882"	"32.441"	"34.645"	"30.205"	"27.702"	"25.888"	"25.651"	"25.383"	"20.417"	"18.099"
"1971"	"17.803"	"20.626"	"24.365"	"30.19"	"32.122"	"27.974"	"25.034"	"25.374"	"26.794"	"25.098"	"20.485"	"17.429"
"1972"	"17.842"	"19.285"	"26.404"	"29.964"	"33.191"	"33.192"	"28.117"	"24.978"	"26.463"	"24.966"	"21.674"	"19.468"
"1973"	"18.897"	"21.265"	"26.06"	"31.804"	"34.919"	"32.474"	"26.644"	"26.233"	"26.04"	"25.008"	"20.881"	"17.923"
"1974"	"17.376"	"20.31"	"27.364"	"31.79"	"33.891"	"31.743"	"27.147"	"25.629"	"27.986"	"26.325"	"20.517"	"17.831"
"1975"	"17.075"	"21.21"	"25.867"	"32.014"	"35.266"	"31.664"	"26.498"	"26.162"	"26.103"	"25.594"	"19.5"	"17.444"
"1976"	"17.911"	"20.635"	"25.252"	"29.4"	"33.307"	"30.068"	"27.155"	"25.873"	"25.691"	"25.672"	"23.821"	"18.99"
"1977"	"18.127"	"21.088"	"27.727"	"29.984"	"31.779"	"31.253"	"26.963"	"25.379"	"26.065"	"25.837"	"23.454"	"18.863"
"1978"	"16.966"	"19.398"	"23.498"	"28.907"	"35.522"	"30.373"	"26.107"	"24.733"	"26.16"	"25.334"	"22.971"	"17.574"
"1979"	"18.61"	"19.169"	"23.877"	"29.63"	"31.402"	"31.735"	"27.292"	"26.434"	"27.267"	"26.99"	"25.312"	"19.06"
"1980"	"19.012"	"21.593"	"26.17"	"32.032"	"34.9"	"30.02"	"26.326"	"24.868"	"26.868"	"26.403"	"22.763"	"18.436"
"1981"	"17.908"	"21.647"	"25.038"	"29.997"	"32.848"	"32.539"	"26.184"	"25.819"	"26.547"	"25.269"	"20.978"	"17.804"
"1982"	"19.399"	"19.573"	"23.502"	"29.065"	"31.749"	"32.156"	"28.495"	"25.287"	"26.589"	"26.494"	"22.113"	"19.963"
"1983"	"17.439"	"19.72"	"25.599"	"29.342"	"33.168"	"33.188"	"27.832"	"26.83"	"26.657"	"24.765"	"19.536"	"17.881"
"1984"	"17.652"	"18.615"	"26.146"	"30.797"	"35.203"	"31.695"	"27.554"	"24.993"	"26.01"	"25.962"	"20.866"	"18.835"
"1985"	"18.429"	"20.449"	"27.41"	"30.93"	"34.691"	"31.991"	"26.713"	"25.43"	"26.695"	"24.658"	"21.419"	"19.195"
"1986"	"18.193"	"18.748"	"24.881"	"30.845"	"32.751"	"31.639"	"25.328"	"26.133"	"25.627"	"25.502"	"22.178"	"17.938"
"1987"	"17.672"	"20.759"	"25.998"	"30.798"	"32.219"	"33.576"	"28.177"	"27.47"	"27.163"	"25.551"	"22.174"	"17.747"
"1988"	"18.648"	"21.78"	"26.182"	"31.699"	"35.589"	"32.367"	"27.224"	"26.904"	"28.048"	"25.452"	"21.476"	"18.541"
"1989"	"16.771"	"20.682"	"24.845"	"30.055"	"34.239"	"29.749"	"27.714"	"26.468"	"26.833"	"26.01"	"22.727"	"18.601"
"1990"	"20.191"	"21.009"	"24.523"	"30.788"	"31.736"	"28.883"	"25.663"	"26.831"	"25.71"	"25.678"	"22.32"	"19.245"
"1991"	"17.452"	"22.18"	"26.317"	"29.496"	"35.088"	"31.295"	"28.566"	"25.351"	"27.572"	"25.571"	"21.005"	"18.513"
"1992"	"18.558"	"19.435"	"26.553"	"30.877"	"32.739"	"34.2"	"28.646"	"26.284"	"26.182"	"25.58"	"22.218"	"18.228"
"1993"	"18.262"	"21.338"	"24.136"	"29.843"	"34.59"	"31.953"	"28.137"	"26.326"	"25.783"	"26.13"	"22.014"	"17.956"
"1994"	"19.932"	"20.016"	"26.916"	"29.602"	"34.872"	"30.567"	"25.879"	"25.443"	"26.503"	"25.4"	"22.124"	"18.622"
"1995"	"16.912"	"20.464"	"23.829"	"29.897"	"33.361"	"33.979"	"28.246"	"26.222"	"27.383"	"26.585"	"21.412"	"19.435"
"1996"	"18.433"	"20.36"	"26.543"	"29.845"	"34.112"	"33.442"	"28.098"	"25.69"	"27.203"	"25.459"	"21.313"	"16.913"
"1997"	"17.419"	"19.93"	"26.225"	"28.605"	"32.311"	"31.251"	"27.847"	"26.322"	"26.492"	"24.928"	"21.952"	"17.119"
"1998"	"17.192"	"21.048"	"23.637"	"30.265"	"34.702"	"32.443"	"27.476"	"26.966"	"27.507"	"26.944"	"22.513"	"18.974"
"1999"	"17.746"	"21.106"	"26.072"	"31.885"	"33.583"	"30.642"	"27.336"	"25.681"	"25.759"	"25.729"	"23.175"	"18.548"
"2000"	"18.9"	"19.956"	"25.124"	"32.072"	"32.478"	"29.743"	"26.751"	"26.878"	"26.276"	"27.504"	"23.978"	"19.372"
"2001"	"17.993"	"22.027"	"26.039"	"29.544"	"33.446"	"29.098"	"26.11"	"26.72"	"27.74"	"26.791"	"23.152"	"19.856"
"2002"	"18.374"	"20.49"	"26.652"	"31.585"	"35.15"	"31.65"	"29.451"	"25.944"	"26.627"	"26.656"	"22.588"	"20.572"
