
"Year"	"Jan"	"Feb"	"Mar"	"Apr"	"May"	"Jun"	"Jul"	"Aug"	"Sep"	"Oct"	"Nov"	"Dec"
"1901"	"25.862"	"2.497"	"34.025"	"236.419"	"145.884"	"634.443"	"424.204"	"409.088"	"317.623"	"171.922"	"109.893"	"10.314"
"1902"	"1.771"	"1.84"	"156.272"	"408.248"	"292.687"	"640.077"	"517.102"	"458.485"	"354.044"	"47.333"	"1.583"	"0.169"
"1903"	"8.979"	"30.122"	"115.125"	"131.138"	"308.739"	"737.158"	"332.886"	"632.594"	"342.735"	"155.218"	"31.053"	"0.246"
"1904"	"2.952"	"44.094"	"30.623"	"372.698"	"433.521"	"685.228"	"562.094"	"476.501"	"197.491"	"120.34"	"23.745"	"1.476"
"1905"	"12.97"	"9.116"	"89.136"	"214.136"	"382.614"	"369.243"	"343.619"	"768.19"	"330.029"	"93.002"	"15.278"	"14.627"
"1906"	"9.36"	"43.007"	"61.627"	"211.761"	"249.676"	"439.486"	"574.943"	"377.74"	"358.758"	"192.323"	"17.082"	"0.088"
"1907"	"30.928"	"38.803"	"170.46"	"316.397"	"286.588"	"705.111"	"634.865"	"313.462"	"353.093"	"13.555"	"0.329"	"7.842"
"1908"	"7.04"	"10.284"	"20.879"	"225.604"	"472.375"	"570.264"	"409.418"	"355.851"	"291.866"	"44.848"	"9.61"	"0.169"
"1909"	"6.588"	"4.496"	"1.854"	"215.588"	"431.602"	"818.821"	"481.138"	"343.138"	"176.187"	"164.142"	"4.364"	"2.273"
"1910"	"6.645"	"17.376"	"134.293"	"223.351"	"279.33"	"621.801"	"653.512"	"331.244"	"87.184"	"172.74"	"19.61"	"2.656"
"1911"	"37.349"	"7.224"	"39.419"	"214.534"	"470.57"	"613.158"	"513.357"	"555.457"	"462.848"	"231.083"	"23.852"	"0.56"
"1912"	"2.127"	"52.959"	"93.828"	"346.606"	"289.438"	"735.784"	"610.282"	"598.554"	"186.602"	"120.667"	"36.712"	"4.754"
"1913"	"2.272"	"55.191"	"80.192"	"257.466"	"479.48"	"526.714"	"430.97"	"367.022"	"279.353"	"316.8"	"2.637"	"51.409"
"1914"	"0.728"	"42.702"	"29.138"	"316.214"	"283.587"	"514.177"	"573.086"	"595.902"	"289.458"	"31.843"	"18.952"	"2.37"
"1915"	"1.904"	"46.116"	"104.608"	"217.668"	"772.139"	"784.128"	"703.754"	"474.604"	"204.555"	"48.644"	"5.201"	"0.912"
"1916"	"3.727"	"10.435"	"80.873"	"210.249"	"369.378"	"394.899"	"386.528"	"457.176"	"212.09"	"295.314"	"33.355"	"0.765"
"1917"	"1.452"	"48.097"	"29.612"	"225.746"	"179.566"	"643.183"	"994.373"	"500.968"	"429.244"	"212.56"	"50.958"	"0.059"
"1918"	"1.036"	"17.382"	"63.755"	"102.317"	"273.76"	"790.918"	"789.448"	"680.081"	"358.052"	"92.42"	"2.588"	"0.172"
"1919"	"11.418"	"7.656"	"8.63"	"194.496"	"251.735"	"585.062"	"577.687"	"290.778"	"445.978"	"143.073"	"25.964"	"0.176"
"1920"	"13.602"	"21.667"	"145.568"	"193.922"	"279.793"	"552.149"	"409.541"	"372.849"	"363.529"	"84.296"	"0.688"	"1.442"
"1921"	"35.601"	"19.3"	"104.332"	"450.522"	"492.898"	"604.437"	"800.042"	"545.095"	"209.967"	"120.89"	"12.399"	"2.737"
"1922"	"9.883"	"3.763"	"29.697"	"100.776"	"293.925"	"497.842"	"551.726"	"577.19"	"244.88"	"116.874"	"3.98"	"3.762"
"1923"	"0.234"	"43.866"	"4.435"	"222.766"	"393.235"	"845.322"	"412.392"	"424.007"	"206.221"	"30.37"	"10.906"	"10.179"
"1924"	"5.735"	"17.625"	"6.482"	"198.994"	"390.47"	"569.529"	"684.639"	"473.734"	"438.844"	"44.553"	"79.944"	"0.169"
"1925"	"4.732"	"7.666"	"37.557"	"207.204"	"565.244"	"415.757"	"666.093"	"241.925"	"336.164"	"73.659"	"1.271"	"0.088"
"1926"	"13.371"	"4.977"	"165.274"	"154.833"	"252.136"	"409.938"	"550.755"	"289.327"	"123.626"	"195.733"	"7.399"	"9.728"
"1927"	"33.98"	"63.765"	"89.117"	"201.35"	"269.248"	"579.4"	"557.615"	"548.179"	"492.784"	"123.455"	"17.16"	"0.059"
"1928"	"10.202"	"10.493"	"27.689"	"156.114"	"560.964"	"423.207"	"336.489"	"550.946"	"164.793"	"266.807"	"21.187"	"0.765"
"1929"	"16.065"	"1.312"	"84.399"	"217.734"	"673.595"	"668.885"	"396.802"	"545.171"	"194.494"	"123.848"	"14.278"	"2.537"
"1930"	"8.183"	"28.855"	"98.622"	"229.287"	"226.18"	"681.17"	"391.784"	"669.743"	"385.393"	"132.64"	"83.87"	"0.765"
"1931"	"1.129"	"13.856"	"62.808"	"282.437"	"432.898"	"572.591"	"920.472"	"537.958"	"295.095"	"131.183"	"4.528"	"16.321"
"1932"	"4.057"	"24.844"	"49.656"	"179.864"	"470.142"	"608.252"	"460.248"	"315.298"	"297.639"	"120.411"	"49.421"	"21.129"
"1933"	"13.842"	"19.261"	"6.44"	"235.247"	"344.974"	"359.766"	"563.934"	"389.587"	"136.658"	"270.134"	"2.088"	"0.53"
"1934"	"15.316"	"63.124"	"5.052"	"192.313"	"592.471"	"972.042"	"674.494"	"356.681"	"242.48"	"311.236"	"38.655"	"1.202"
"1935"	"1.771"	"39.501"	"64.498"	"61.847"	"323.988"	"776.795"	"387.046"	"496.386"	"284.324"	"3.785"	"3.983"	"2.688"
"1936"	"7.794"	"60.523"	"42.66"	"130.804"	"435.893"	"569.418"	"484.455"	"453.336"	"347.279"	"150.562"	"8.236"	"15.095"
"1937"	"1.839"	"40.161"	"24.114"	"120.491"	"484.933"	"483.603"	"483.916"	"767.116"	"436.64"	"97.798"	"10.119"	"0.632"
"1938"	"9.285"	"16.088"	"70.739"	"231.587"	"290.408"	"486.547"	"717.223"	"567.446"	"402.599"	"140.066"	"39.102"	"0.695"
"1939"	"0.781"	"11.273"	"5.255"	"69.474"	"299.726"	"579.654"	"564.698"	"194.567"	"451.786"	"191.278"	"0.241"	"0.164"
"1940"	"0.987"	"45.219"	"160.944"	"85.15"	"409.289"	"757.927"	"465.794"	"369.421"	"478.423"	"75.315"	"14.037"	"15.682"
"1941"	"3.324"	"16.451"	"55.816"	"299.625"	"701.426"	"759.606"	"312.414"	"332.942"	"313.019"	"153.859"	"13.725"	"5.936"
"1942"	"3.852"	"22.046"	"120.398"	"233.997"	"373.211"	"530.611"	"331.731"	"574.789"	"635.366"	"15.529"	"2.458"	"0"
"1943"	"16.582"	"13.978"	"175.508"	"326.198"	"481.709"	"460.037"	"507.051"	"388.366"	"509.774"	"63.129"	"10.694"	"3.894"
"1944"	"33.961"	"5.19"	"45.76"	"61.893"	"564.501"	"360.43"	"303.064"	"305.352"	"289.463"	"58.894"	"4.889"	"3.487"
"1945"	"42.687"	"16.168"	"64.695"	"176.47"	"488.533"	"696.665"	"567.771"	"401.198"	"210.627"	"186.911"	"0.329"	"2.074"
"1946"	"0"	"18.728"	"91.308"	"133.97"	"389.886"	"612.206"	"431.662"	"287.195"	"353.449"	"452.742"	"17.202"	"0"
"1947"	"1.094"	"1.918"	"80.128"	"200.633"	"419.486"	"603.351"	"823.916"	"419.098"	"349.91"	"166.148"	"1.716"	"7.578"
"1948"	"2.144"	"8.414"	"51.289"	"231.278"	"934.305"	"476.133"	"553.109"	"394.353"	"227.095"	"269.635"	"50.415"	"0.812"
"1949"	"15.112"	"6.39"	"30.55"	"379.454"	"433.69"	"548.008"	"394.545"	"607.987"	"709.274"	"133.772"	"6.642"	"1.725"
"1950"	"1.848"	"20.255"	"47.526"	"64.851"	"217.431"	"685.028"	"546.939"	"489.324"	"102.11"	"212.28"	"42.283"	"0.942"
"1951"	"3.454"	"2.523"	"34.55"	"205.644"	"321.86"	"737.055"	"684.321"	"403.14"	"227.374"	"317.815"	"25.795"	"4.562"
"1952"	"2.214"	"9.416"	"130.212"	"142.254"	"596.033"	"322.679"	"529.315"	"601.095"	"467.67"	"296.096"	"32.157"	"0.235"
"1953"	"25.705"	"7.084"	"189.688"	"145.92"	"368.159"	"627.743"	"545.086"	"282.107"	"485.181"	"71.756"	"1.524"	"15.097"
"1954"	"19.051"	"21.718"	"9.136"	"204.993"	"406.541"	"563.765"	"595.722"	"610.491"	"272.622"	"94.775"	"0.241"	"18.622"
"1955"	"2.435"	"8.775"	"116.132"	"245.649"	"300.072"	"641.532"	"786.382"	"349.417"	"252.506"	"134.622"	"31.514"	"14.729"
"1956"	"17.196"	"2.599"	"145.975"	"213.312"	"556.115"	"1054.138"	"447.336"	"511.651"	"245.386"	"104.806"	"30.186"	"4.226"
"1957"	"22.274"	"20.48"	"11.906"	"154.505"	"455.55"	"444.961"	"821.204"	"572.899"	"235.031"	"94.678"	"7.953"	"25.637"
"1958"	"19.555"	"34.877"	"10.536"	"162.49"	"611.001"	"284.858"	"486.717"	"583.677"	"279.389"	"113.848"	"0.894"	"2.779"
"1959"	"40.742"	"12.053"	"102.978"	"150.494"	"517.866"	"571.657"	"448.091"	"286.79"	"285.286"	"274.499"	"6.249"	"1.745"
"1960"	"0.487"	"4.176"	"32.806"	"43.535"	"470.198"	"424.985"	"715.815"	"266.727"	"377.592"	"67.094"	"10.802"	"4.381"
"1961"	"4.65"	"8.88"	"121.032"	"146.371"	"328.128"	"544.661"	"643.665"	"596.921"	"366.045"	"102.22"	"16.91"	"1.763"
"1962"	"14.53"	"18.573"	"20.351"	"108.371"	"297.992"	"682.386"	"325.601"	"350.829"	"74.104"	"103.458"	"2.211"	"2.86"
"1963"	"3.499"	"9.212"	"65.472"	"194.899"	"395.533"	"530.201"	"667.576"	"525.81"	"226.519"	"101.147"	"13.604"	"6.954"
"1964"	"4.043"	"20.668"	"98.933"	"261.138"	"342.439"	"728.556"	"671.899"	"345.305"	"218.954"	"197.204"	"9.814"	"2.903"
"1965"	"0.471"	"39.128"	"84.984"	"249.359"	"450.821"	"644.96"	"638.202"	"490.924"	"284.652"	"50.728"	"51.072"	"2.334"
"1966"	"20.48"	"6.655"	"31.725"	"136.137"	"318.494"	"930.086"	"438.595"	"614.602"	"276.53"	"63.959"	"46.645"	"6.401"
"1967"	"8.006"	"13.178"	"127.232"	"197.58"	"355.94"	"306.71"	"411.231"	"371.082"	"455.762"	"36.436"	"31.167"	"1.148"
"1968"	"4.592"	"11.906"	"51.222"	"198.021"	"580.009"	"668.783"	"542.697"	"450.432"	"193.162"	"111.868"	"0.825"	"0"
"1969"	"22.63"	"0.265"	"91.839"	"122.112"	"138.487"	"698.273"	"619.695"	"513.468"	"328.731"	"102.76"	"22.439"	"0.397"
"1970"	"23.768"	"24.134"	"63.146"	"139.402"	"351.41"	"752.579"	"783.925"	"573.826"	"311.893"	"289.025"	"31.785"	"0"
"1971"	"8.344"	"4.358"	"75.525"	"214.437"	"145.435"	"565.494"	"580.037"	"520.565"	"199.27"	"172.077"	"91.983"	"7.303"
"1972"	"10.912"	"27.45"	"82.366"	"276.469"	"355.309"	"588.205"	"547.618"	"407.026"	"184.123"	"41.335"	"16.48"	"0.795"
"1973"	"7.507"	"38.351"	"33.054"	"268.551"	"522.61"	"615.942"	"491.595"	"260.017"	"435.788"	"120.09"	"67.843"	"44.754"
"1974"	"25.734"	"1.317"	"36.36"	"240.255"	"320.711"	"714.86"	"1069.2"	"425.907"	"433.437"	"237.853"	"7.31"	"0.194"
"1975"	"6.367"	"12.059"	"21.085"	"137.93"	"384.266"	"485.41"	"706.555"	"343.61"	"324.118"	"186.919"	"4.191"	"1.989"
"1976"	"8.719"	"31.838"	"101.583"	"208.958"	"194.569"	"764.162"	"474.717"	"459.619"	"176.762"	"86.107"	"12.424"	"0.988"
"1977"	"11.339"	"8.762"	"104.231"	"535.333"	"403.13"	"723.776"	"968.72"	"531.245"	"178.916"	"335.353"	"43.799"	"15.102"
"1978"	"0.488"	"6.534"	"27.642"	"103.161"	"346.597"	"630.864"	"550.025"	"358.97"	"341.786"	"76.979"	"46.839"	"0"
"1979"	"1.856"	"9.356"	"20.492"	"92.289"	"341.872"	"441.38"	"674.22"	"190.866"	"317.121"	"250.985"	"19.279"	"50.892"
"1980"	"4.687"	"22.06"	"73.292"	"160.829"	"370.35"	"583.481"	"563.963"	"569.406"	"154.743"	"119.116"	"0.329"	"0"
"1981"	"30.766"	"16.272"	"67.663"	"116.927"	"341.448"	"220.065"	"605.416"	"413.875"	"306.142"	"17.724"	"0.889"	"36.072"
"1982"	"0.105"	"16.011"	"44.684"	"304.571"	"235.995"	"604.893"	"406.993"	"566.539"	"269.779"	"79.111"	"64.491"	"3.155"
"1983"	"13.378"	"49.263"	"72.525"	"225.372"	"438.052"	"441.89"	"498.128"	"453.44"	"488.284"	"227.039"	"0.855"	"18.517"
"1984"	"18.628"	"2.222"	"27.177"	"241.994"	"545.249"	"707.34"	"799.996"	"274.697"	"563.497"	"112.045"	"22.969"	"16.198"
"1985"	"1.358"	"30.94"	"96.457"	"219.286"	"251.004"	"485.391"	"838.321"	"257.084"	"397.012"	"23.238"	"4.877"	"23.152"
"1986"	"3.77"	"4.665"	"13.171"	"322.649"	"121.832"	"349.619"	"440.262"	"418.113"	"352.22"	"341.258"	"34.031"	"5.273"
"1987"	"11.72"	"23.34"	"139.44"	"325.634"	"210.39"	"274.431"	"838.448"	"392.113"	"564.151"	"166.539"	"8.57"	"2.544"
"1988"	"10.529"	"31.951"	"88.513"	"213.75"	"793.78"	"529.922"	"693.852"	"690.297"	"304.43"	"168.556"	"98.409"	"22.09"
"1989"	"3.284"	"51.385"	"16.637"	"248.86"	"288.648"	"608.978"	"800.043"	"389.425"	"564.897"	"210.385"	"5.993"	"5.736"
"1990"	"3.314"	"22.767"	"95.985"	"436.919"	"190.367"	"444.045"	"955.757"	"152.008"	"412.941"	"232.878"	"2.15"	"1.171"
"1991"	"35.312"	"8.567"	"69.662"	"181.168"	"760.611"	"438.424"	"427.222"	"604.017"	"332.853"	"493.067"	"2.324"	"11.287"
"1992"	"11.325"	"34.389"	"34.704"	"181.497"	"402.76"	"677.978"	"652.509"	"614.343"	"328.991"	"110.168"	"7.104"	"18.845"
"1993"	"36.636"	"59.642"	"105.232"	"224.823"	"491.168"	"840.47"	"596.262"	"647.162"	"430.819"	"52.143"	"1.186"	"0"
"1994"	"19.333"	"30.005"	"122.033"	"229.501"	"275.083"	"606.498"	"374.215"	"527.205"	"102.687"	"227.569"	"9.905"	"0.365"
"1995"	"12.471"	"16.7"	"47.325"	"168.245"	"251.399"	"675.362"	"885.31"	"514.394"	"584.945"	"50.409"	"60.63"	"5.316"
"1996"	"10.161"	"28.6"	"84.384"	"89.306"	"709.9"	"375.782"	"623.544"	"504.791"	"193.714"	"240.527"	"0.241"	"0"
"1997"	"12.973"	"22.81"	"47.336"	"198.789"	"299.021"	"446.055"	"414.206"	"367.075"	"396.857"	"20.739"	"6.593"	"34.575"
"1998"	"3.174"	"21.68"	"129.971"	"184.516"	"299.468"	"390.258"	"545.316"	"500.429"	"310.771"	"254.76"	"24.354"	"0"
"1999"	"0.105"	"2.699"	"18.568"	"69.045"	"459.084"	"513.277"	"607.796"	"592.54"	"291.028"	"212.809"	"35.272"	"1.084"
"2000"	"10.035"	"16.249"	"64.511"	"123.57"	"581.172"	"545.397"	"388.555"	"649.074"	"300.943"	"73.469"	"3.039"	"1.73"
"2001"	"1.902"	"15.764"	"22.781"	"221.524"	"457.651"	"575.999"	"466.65"	"372.101"	"350.911"	"280.318"	"16.547"	"0.337"
"2002"	"15.943"	"12.168"	"98.125"	"357.855"	"370.244"	"717.393"	"570.333"	"341.892"	"234.693"	"57.062"	"52.757"	"0.036"
