
"Year"	"Jan"	"Feb"	"Mar"	"Apr"	"May"	"Jun"	"Jul"	"Aug"	"Sep"	"Oct"	"Nov"	"Dec"
"1901"	"19.323"	"21.818"	"26.073"	"30.835"	"32.738"	"33.06"	"28.121"	"26.983"	"27.204"	"26.787"	"21.974"	"19.071"
"1902"	"20.098"	"22.575"	"27.905"	"30.316"	"33.11"	"32.375"	"27.81"	"27.925"	"27.608"	"26.379"	"21.939"	"19.326"
"1903"	"20.38"	"21.331"	"26.985"	"31.431"	"33.31"	"31.231"	"28.177"	"27.676"	"27.31"	"25.783"	"21.45"	"18.37"
"1904"	"19.563"	"21.62"	"26.729"	"31.463"	"32.062"	"29.684"	"27.12"	"26.777"	"27.104"	"26.128"	"21.678"	"19.911"
"1905"	"19.332"	"20.4"	"25.774"	"28.823"	"32.01"	"33.943"	"27.574"	"27.931"	"27.117"	"25.877"	"22.074"	"19.005"
"1906"	"19.895"	"22.42"	"25.417"	"31.573"	"33.874"	"31.25"	"27.985"	"27.576"	"27.616"	"26.192"	"22.288"	"20.074"
"1907"	"19.91"	"22.444"	"25.522"	"28.479"	"31.539"	"30.336"	"28.416"	"26.484"	"27.405"	"26.474"	"22.83"	"18.563"
"1908"	"17.863"	"22.519"	"26.018"	"31.911"	"33.118"	"31.269"	"27.43"	"26.465"	"27.447"	"25.826"	"21.182"	"18.019"
"1909"	"20.912"	"22.272"	"26.624"	"28.071"	"32.38"	"29.007"	"26.772"	"27.369"	"27.053"	"25.452"	"22.111"	"19.707"
"1910"	"19.427"	"22.045"	"26.516"	"30.763"	"32.887"	"30.099"	"27.561"	"26.977"	"27.14"	"25.66"	"20.832"	"18.279"
"1911"	"21.016"	"21.419"	"25.783"	"30.163"	"32.864"	"28.959"	"28.665"	"26.479"	"26.949"	"25.871"	"22.687"	"18.723"
"1912"	"19.741"	"22.864"	"27.086"	"30.223"	"33.389"	"31.702"	"27.617"	"26.975"	"27.118"	"25.923"	"21.22"	"17.851"
"1913"	"18.754"	"22.209"	"25.578"	"30.76"	"31.63"	"28.706"	"27.325"	"26.875"	"27.213"	"25.437"	"21.023"	"19.098"
"1914"	"19.272"	"22.907"	"25.96"	"28.831"	"30.708"	"29.89"	"27.217"	"27.168"	"26.8"	"25.605"	"22.545"	"19.505"
"1915"	"19.729"	"22.32"	"25.975"	"30.621"	"32.964"	"31.617"	"28.417"	"27.888"	"27.204"	"26.768"	"23.471"	"18.695"
"1916"	"18.615"	"22.568"	"26.874"	"31.003"	"33.242"	"29.039"	"27.873"	"27.087"	"27.222"	"26.26"	"22.376"	"18.278"
"1917"	"18.91"	"21.409"	"25.049"	"29.556"	"30.142"	"29.067"	"27.364"	"26.975"	"26.96"	"25.971"	"21.542"	"18.917"
"1918"	"18.121"	"21.676"	"26.373"	"29.779"	"31.624"	"28.174"	"28.83"	"26.752"	"27.416"	"25.972"	"22.898"	"19.419"
"1919"	"21.179"	"22.065"	"26.776"	"30.36"	"32.062"	"29.319"	"27.384"	"26.721"	"27.204"	"25.692"	"22.275"	"18.806"
"1920"	"19.112"	"22.166"	"26.662"	"30.011"	"31.454"	"31.222"	"26.657"	"26.962"	"27.204"	"26.124"	"22.232"	"18.407"
"1921"	"19.431"	"21.307"	"27.395"	"30.851"	"35.276"	"30.28"	"27.706"	"26.527"	"26.549"	"24.819"	"20.034"	"19.349"
"1922"	"18.797"	"22.065"	"26.918"	"30.628"	"33.217"	"28.994"	"26.36"	"26.307"	"25.992"	"24.263"	"21.115"	"17.705"
"1923"	"18.226"	"21.404"	"24.636"	"30.22"	"33.231"	"32.815"	"27.272"	"26.311"	"27.037"	"25.191"	"21.12"	"19.087"
"1924"	"19.095"	"22.305"	"26.993"	"31.587"	"31.745"	"32.63"	"27.458"	"26.978"	"26.739"	"25.672"	"21.532"	"18.442"
"1925"	"18.299"	"21.219"	"26.232"	"30.512"	"32.304"	"30.173"	"26.272"	"26.975"	"27.2"	"25.447"	"21.997"	"18.026"
"1926"	"19.07"	"22.617"	"25.706"	"29.315"	"31.869"	"33.28"	"27.972"	"26.708"	"27.005"	"25.011"	"20.474"	"18.974"
"1927"	"20.085"	"22.853"	"26.029"	"31.199"	"32.91"	"31.817"	"27.43"	"26.788"	"27.549"	"25.848"	"21.631"	"19.619"
"1928"	"19.729"	"22.532"	"26.939"	"29.831"	"32.775"	"29.434"	"27.236"	"27.313"	"27.448"	"26.355"	"22.044"	"19.655"
"1929"	"20.014"	"21.132"	"26.785"	"30.773"	"33.699"	"30.927"	"26.67"	"26.376"	"27.432"	"24.923"	"21.447"	"19.466"
"1930"	"19.115"	"21.064"	"26.673"	"30.255"	"32.187"	"31.142"	"27.086"	"26.676"	"27.204"	"26.37"	"21.375"	"18.794"
"1931"	"20.323"	"22.621"	"26.597"	"31.503"	"33.131"	"32.826"	"27.274"	"27.047"	"27.541"	"25.855"	"21.73"	"19.154"
"1932"	"20.014"	"21.367"	"26.465"	"30.353"	"32.486"	"31.726"	"27.117"	"27.15"	"27.302"	"26.487"	"22.275"	"19.323"
"1933"	"18.855"	"22.114"	"26.575"	"29.703"	"30.954"	"29.543"	"27.161"	"26.927"	"27.049"	"25.826"	"21.777"	"19.262"
"1934"	"18.747"	"21.718"	"26.529"	"31.191"	"34.059"	"30.547"	"27.325"	"26.863"	"27.149"	"25.29"	"21.127"	"19.467"
"1935"	"18.967"	"22.621"	"26.63"	"29.311"	"34.11"	"31.87"	"27.117"	"26.828"	"27.104"	"25.886"	"21.793"	"20.005"
"1936"	"20.471"	"21.818"	"27.13"	"30.721"	"32.006"	"29.402"	"27.325"	"26.823"	"27.105"	"25.115"	"23.028"	"19.907"
"1937"	"18.167"	"22.504"	"25.886"	"29.254"	"32.386"	"30.877"	"27.343"	"26.966"	"26.94"	"25.324"	"22.036"	"18.362"
"1938"	"20.791"	"21.16"	"27.826"	"30.988"	"31.963"	"28.606"	"27.105"	"26.85"	"27.101"	"25.578"	"20.928"	"18.471"
"1939"	"19.712"	"22.708"	"25.822"	"30.707"	"33.574"	"30.782"	"26.717"	"26.879"	"26.903"	"26.224"	"21.231"	"18.818"
"1940"	"17.82"	"21.815"	"25.218"	"30.324"	"31.917"	"30.686"	"26.63"	"26.772"	"27.387"	"26.124"	"23.599"	"19.707"
"1941"	"20.462"	"22.511"	"27.463"	"32.076"	"33.031"	"29.862"	"27.396"	"27.428"	"27.441"	"25.591"	"20.877"	"20.073"
"1942"	"19.523"	"22.186"	"27.034"	"30.279"	"34.068"	"32.194"	"27.085"	"26.764"	"26.835"	"25.461"	"21.762"	"19.594"
"1943"	"20.676"	"20.563"	"26.326"	"29.179"	"32.91"	"30.93"	"27.272"	"26.276"	"27.2"	"26.272"	"22.145"	"19.191"
"1944"	"19.719"	"21.496"	"24.977"	"28.643"	"33.411"	"31.358"	"27.085"	"26.68"	"27.561"	"25.504"	"21.955"	"20.779"
"1945"	"18.712"	"21.7"	"27.157"	"29.524"	"33.421"	"31.881"	"27.585"	"27.82"	"27.229"	"25.151"	"21.458"	"17.895"
"1946"	"18.592"	"22.762"	"26.953"	"28.71"	"31.918"	"29.705"	"26.976"	"26.776"	"27.092"	"25.975"	"23.366"	"21.127"
"1947"	"20.107"	"22.042"	"27.018"	"31.897"	"33.539"	"31.425"	"27.221"	"27.369"	"27.516"	"25.536"	"22.243"	"19.501"
"1948"	"20.239"	"22.609"	"25.934"	"30.811"	"33.297"	"31.893"	"27.507"	"26.975"	"26.905"	"25.98"	"23.357"	"18.506"
"1949"	"19.737"	"21.977"	"26.986"	"30.477"	"32.274"	"31.418"	"27.586"	"26.715"	"27.204"	"26.272"	"20.913"	"18.922"
"1950"	"19.711"	"22.121"	"25.418"	"30.516"	"33.075"	"29.85"	"26.781"	"26.863"	"27.101"	"25.439"	"21.083"	"18.815"
"1951"	"18.602"	"22.272"	"26.318"	"29.431"	"32.647"	"31.006"	"27.561"	"27.223"	"27.905"	"26.992"	"22.52"	"19.497"
"1952"	"20.107"	"23.296"	"25.714"	"30.551"	"33.318"	"31.636"	"27.71"	"26.799"	"27.113"	"25.859"	"22.045"	"20.562"
"1953"	"19.711"	"23.78"	"28.987"	"31.78"	"34.442"	"31.67"	"27.629"	"26.923"	"27.205"	"26.08"	"21.587"	"19.86"
"1954"	"18.81"	"24.025"	"26.366"	"31.99"	"33.319"	"30.1"	"28.081"	"27.463"	"26.839"	"24.878"	"20.634"	"19.707"
"1955"	"19.442"	"23.075"	"27.507"	"30.356"	"32.676"	"31.638"	"27.177"	"27.079"	"26.949"	"25.569"	"21.279"	"19.367"
"1956"	"20.524"	"21.563"	"27.598"	"31.774"	"32.927"	"28.181"	"26.881"	"26.831"	"26.795"	"24.992"	"21.626"	"20.351"
"1957"	"20.956"	"22.224"	"25.466"	"30.703"	"34.191"	"32.331"	"27.272"	"27.221"	"27.204"	"26.523"	"22.65"	"20.819"
"1958"	"21.184"	"23.328"	"27.241"	"31.83"	"33.924"	"33.441"	"27.422"	"27.467"	"27.105"	"26.233"	"23.019"	"20.562"
"1959"	"20.368"	"22.62"	"27.075"	"31.076"	"33.686"	"30.938"	"27.521"	"26.776"	"26.915"	"25.72"	"21.666"	"19.007"
"1960"	"19.194"	"23.02"	"25.967"	"31.32"	"33.366"	"31.551"	"27.069"	"26.975"	"27.821"	"26.035"	"21.749"	"20.774"
"1961"	"20.006"	"20.74"	"27.682"	"31.243"	"33.243"	"29.966"	"26.871"	"27.276"	"26.548"	"25.219"	"21.095"	"17.518"
"1962"	"17.576"	"21.832"	"26.09"	"30.086"	"32.93"	"30.389"	"27.829"	"26.975"	"27.213"	"25.08"	"21.93"	"20.117"
"1963"	"18.278"	"23.223"	"26.529"	"30.043"	"31.879"	"30.398"	"27.272"	"27.289"	"27.108"	"26.019"	"23.263"	"19.975"
"1964"	"20.734"	"22.807"	"27.842"	"31.064"	"32.386"	"31.142"	"26.448"	"26.733"	"27.204"	"26.136"	"22.358"	"19.918"
"1965"	"20.018"	"22.62"	"25.873"	"29.49"	"32.475"	"32.251"	"27.269"	"27.238"	"26.904"	"26.011"	"22.83"	"19.699"
"1966"	"19.031"	"23.508"	"26.704"	"30.541"	"34.04"	"30.79"	"28.617"	"27.946"	"28.128"	"26.422"	"24.418"	"19.619"
"1967"	"19.579"	"23.824"	"25.666"	"29.986"	"33.393"	"32.487"	"28.208"	"26.878"	"27.169"	"25.769"	"22.472"	"22.042"
"1968"	"19.999"	"22.591"	"26.552"	"30.179"	"33.066"	"30.234"	"27.839"	"26.879"	"27.548"	"25.167"	"21.97"	"19.471"
"1969"	"19.851"	"24.736"	"28.429"	"31.626"	"31.986"	"31.505"	"27.494"	"26.975"	"27.167"	"27.069"	"23.91"	"20.117"
"1970"	"20.581"	"23.644"	"26.721"	"30.919"	"32.875"	"29.473"	"27.185"	"27.107"	"27.008"	"25.728"	"21.194"	"18.218"
"1971"	"19.667"	"22.164"	"25.47"	"28.379"	"29.383"	"28"	"26.118"	"25.552"	"26.949"	"25.976"	"22.847"	"18.93"
"1972"	"20.209"	"21.519"	"27.525"	"30.886"	"34.199"	"33.237"	"28.024"	"27.402"	"27.196"	"26.235"	"23.229"	"21.161"
"1973"	"21.432"	"24.063"	"26.452"	"31.874"	"32.937"	"31.505"	"27.694"	"27.175"	"27.16"	"25.787"	"21.73"	"19.354"
"1974"	"20.077"	"22.476"	"26.857"	"30.95"	"32.345"	"31.341"	"27.665"	"27.823"	"27.756"	"26.28"	"22.073"	"18.738"
"1975"	"18.511"	"22.612"	"26.46"	"31.327"	"33.607"	"30.759"	"26.859"	"26.976"	"26.668"	"26.471"	"20.641"	"18.451"
"1976"	"18.464"	"22.761"	"26.916"	"29.831"	"31.682"	"30.79"	"27.029"	"26.863"	"26.903"	"26.704"	"25.035"	"20.549"
"1977"	"19.612"	"23.187"	"27.818"	"29.583"	"30.386"	"30.493"	"27.274"	"26.975"	"27.093"	"25.789"	"23.8"	"19.127"
"1978"	"18.712"	"22.021"	"25.442"	"29.598"	"33.139"	"30.501"	"27.016"	"26.443"	"27.057"	"26.179"	"24.096"	"19.662"
"1979"	"20.611"	"21.211"	"26.161"	"30.182"	"32.744"	"30.981"	"28.472"	"27.421"	"26.391"	"26.799"	"25.004"	"20.303"
"1980"	"20.596"	"23.4"	"26.695"	"31.087"	"32.693"	"28.608"	"26.429"	"26.663"	"27.177"	"25.755"	"23.121"	"20.181"
"1981"	"19.211"	"23.563"	"26.129"	"29.791"	"31.523"	"31.093"	"27.59"	"27.485"	"27.31"	"26.391"	"22.739"	"19.574"
"1982"	"21.567"	"23.088"	"25.73"	"30.455"	"32.611"	"30.606"	"29.481"	"26.919"	"28.004"	"26.99"	"23.586"	"21.249"
"1983"	"20.378"	"22.333"	"27.117"	"29.983"	"31.879"	"31.945"	"28.16"	"27.52"	"27.561"	"25.648"	"22.263"	"19.563"
"1984"	"20.022"	"21.543"	"27.122"	"31.123"	"33.362"	"29.557"	"27.385"	"26.879"	"27.169"	"26.422"	"21.837"	"20.562"
"1985"	"20.547"	"22.455"	"27.395"	"30.583"	"31.494"	"30.267"	"25.814"	"25.553"	"27.204"	"23.846"	"21.447"	"19.977"
"1986"	"18.388"	"21.772"	"25.775"	"29.492"	"30.494"	"29.31"	"26.273"	"26.364"	"26.527"	"24.507"	"21.939"	"19.196"
"1987"	"18.04"	"21.337"	"24.931"	"29.319"	"30.932"	"30.959"	"26.501"	"26.297"	"26.624"	"25.02"	"21.056"	"18.179"
"1988"	"18.474"	"21.581"	"25.294"	"28.837"	"31.09"	"28.062"	"26.314"	"27.832"	"27.949"	"26.3"	"22.878"	"21.17"
"1989"	"19.53"	"23.363"	"26.991"	"31.483"	"32.898"	"29.649"	"27.729"	"27.159"	"27.412"	"26.491"	"23.01"	"19.551"
"1990"	"21.399"	"22.963"	"25.094"	"29.693"	"30.6"	"29.855"	"26.781"	"27.328"	"27.148"	"25.115"	"22.719"	"19.934"
"1991"	"20.109"	"24.168"	"27.341"	"30.13"	"32.518"	"30.217"	"27.921"	"26.983"	"27.672"	"26.08"	"21.777"	"19.462"
"1992"	"18.909"	"21.844"	"27.219"	"30.776"	"32.134"	"30.407"	"28.14"	"27.176"	"27.293"	"26.248"	"23.507"	"19.445"
"1993"	"20.356"	"22.701"	"25.998"	"30.051"	"32.547"	"31.158"	"28.004"	"27.377"	"27.105"	"26.419"	"22.151"	"19.419"
"1994"	"20.643"	"22.416"	"27.505"	"29.919"	"32.784"	"30.293"	"26.939"	"26.588"	"27.018"	"26.32"	"22.464"	"19.56"
"1995"	"18.712"	"22.464"	"26.281"	"30.475"	"31.243"	"32.059"	"27.473"	"27.695"	"27.315"	"26.059"	"22.754"	"20.358"
"1996"	"20.763"	"21.932"	"27.562"	"29.696"	"33.574"	"30.606"	"28.032"	"26.931"	"28.059"	"25.814"	"22.819"	"19.561"
"1997"	"18.858"	"21.588"	"26.815"	"28.381"	"32.051"	"31.96"	"27.729"	"26.983"	"27.195"	"26.204"	"24.275"	"21.334"
"1998"	"20.033"	"23.019"	"25.484"	"30.051"	"32.653"	"32.426"	"27.896"	"27.832"	"27.804"	"27.405"	"23.624"	"19.669"
"1999"	"18.623"	"23.787"	"27.33"	"32.197"	"31.882"	"30.202"	"27.325"	"26.923"	"26.804"	"26.603"	"22.553"	"20.207"
"2000"	"20.886"	"22.321"	"26.185"	"31.364"	"32.171"	"29.562"	"27.704"	"27.575"	"27.204"	"26.851"	"23.508"	"19.45"
"2001"	"19.466"	"23.092"	"27.07"	"30.188"	"32.619"	"28.862"	"26.841"	"27.325"	"28.107"	"26.899"	"24.299"	"20.379"
"2002"	"20.078"	"23.468"	"27.618"	"30.6"	"33.461"	"30.562"	"28.305"	"26.823"	"27.204"	"26.375"	"22.763"	"20.839"
