
"Year"	"Jan"	"Feb"	"Mar"	"Apr"	"May"	"Jun"	"Jul"	"Aug"	"Sep"	"Oct"	"Nov"	"Dec"
"1901"	"10.862"	"13.781"	"20.776"	"26.285"	"30.162"	"33.554"	"31.136"	"29.796"	"28.319"	"26.156"	"20.254"	"14.743"
"1902"	"14.868"	"17.315"	"21.922"	"26.697"	"30.762"	"31.616"	"29.637"	"29.874"	"28.256"	"23.837"	"19.216"	"14.58"
"1903"	"12.836"	"14.691"	"18.498"	"25.882"	"30.385"	"33.262"	"31.477"	"29.636"	"28.939"	"25.025"	"19.491"	"15.118"
"1904"	"12.604"	"17.036"	"20.015"	"27.821"	"30.055"	"32.019"	"29.597"	"29.27"	"28.079"	"24.757"	"18.41"	"14.259"
"1905"	"10.414"	"11.197"	"16.294"	"23.958"	"31.275"	"32.777"	"30.08"	"30.232"	"28.833"	"25.252"	"19.797"	"14.123"
"1906"	"11.774"	"12.697"	"18.44"	"26.934"	"32.407"	"31.778"	"30.397"	"28.849"	"28.271"	"24.972"	"20.781"	"15.74"
"1907"	"15.257"	"12.652"	"16.334"	"24.238"	"29.196"	"32.215"	"31.037"	"29.415"	"29.299"	"26.092"	"19.954"	"14.735"
"1908"	"13.858"	"15.994"	"20.696"	"28.148"	"30.642"	"33.557"	"29.659"	"28.588"	"28.575"	"25.032"	"18.537"	"13.925"
"1909"	"11.856"	"14.474"	"21.839"	"25.281"	"30.961"	"30.515"	"29.315"	"29.17"	"28.855"	"25.758"	"19.883"	"14.229"
"1910"	"13.555"	"15.194"	"20.814"	"26.384"	"30.946"	"31.416"	"28.932"	"29.169"	"28.57"	"24.208"	"18.376"	"13.8"
"1911"	"13.079"	"16.388"	"17.658"	"26.517"	"32.366"	"31.631"	"31.536"	"30.411"	"28.317"	"24.816"	"17.594"	"14.102"
"1912"	"12.895"	"16.67"	"20.136"	"25.903"	"30.637"	"32.696"	"29.996"	"29.134"	"27.814"	"25.031"	"17.696"	"14.017"
"1913"	"13.814"	"14.152"	"17.712"	"27.362"	"29.062"	"29.859"	"29.394"	"29.789"	"29.134"	"24.952"	"17.995"	"12.543"
"1914"	"14.839"	"14.267"	"19.036"	"25.604"	"30.146"	"31.421"	"29.515"	"29.473"	"28.136"	"22.793"	"18.802"	"13.741"
"1915"	"13.595"	"14.352"	"20.393"	"26.758"	"32.536"	"31.977"	"30.855"	"29.954"	"28.991"	"26.618"	"20.081"	"14.526"
"1916"	"13.658"	"14.816"	"23.7"	"27.947"	"31.086"	"30.784"	"29.316"	"29.347"	"28.273"	"24.757"	"19.21"	"13.641"
"1917"	"13.158"	"15.471"	"19.273"	"23.026"	"26.379"	"30.54"	"29.115"	"29.169"	"27.309"	"23.848"	"19.235"	"13.864"
"1918"	"12.536"	"16.37"	"20.235"	"24.62"	"32.14"	"30.759"	"30.764"	"29.891"	"28.912"	"25.048"	"18.537"	"12.704"
"1919"	"11.959"	"14.827"	"20.114"	"24.848"	"29.202"	"32.634"	"29.491"	"29.367"	"28.179"	"24.829"	"18.819"	"13.302"
"1920"	"14.912"	"13.814"	"18.917"	"26.341"	"27.323"	"30.878"	"29.373"	"29.493"	"28.66"	"25.414"	"19.932"	"16.239"
"1921"	"12.84"	"16.733"	"23.697"	"29.321"	"33.982"	"32.196"	"30.336"	"28.77"	"27.455"	"23.453"	"18.794"	"14.745"
"1922"	"11.513"	"16.716"	"22.199"	"26.731"	"31.785"	"31.06"	"29.637"	"28.856"	"27.773"	"24.01"	"18.79"	"12.563"
"1923"	"13.417"	"13.867"	"21.493"	"28.197"	"30.524"	"33.462"	"29.561"	"29.023"	"28.056"	"23.676"	"18.878"	"13.92"
"1924"	"12.056"	"15.473"	"22.095"	"27.78"	"27.663"	"34.214"	"30.174"	"29.115"	"27.178"	"24.988"	"18.779"	"14.88"
"1925"	"11.171"	"14.854"	"21.194"	"28.704"	"30.425"	"29.856"	"28.813"	"29.229"	"28.455"	"24.469"	"17.655"	"14.813"
"1926"	"13.152"	"16.594"	"18.212"	"23.242"	"28.362"	"33.578"	"30.368"	"29.089"	"28.352"	"24.548"	"16.91"	"14.279"
"1927"	"12.235"	"13.015"	"19.437"	"25.982"	"29.361"	"32.277"	"29.579"	"28.669"	"28.437"	"24.565"	"18.713"	"15.356"
"1928"	"12.25"	"15.906"	"20.648"	"26.102"	"32.815"	"31.777"	"30.154"	"30.157"	"29.162"	"25.628"	"18.819"	"13.916"
"1929"	"12.457"	"14.517"	"22.534"	"27.227"	"31.918"	"31.841"	"29.693"	"28.686"	"28.541"	"24.252"	"19.475"	"11.59"
"1930"	"11.609"	"15.033"	"21.553"	"26.146"	"30.469"	"30.999"	"28.919"	"29.271"	"28.398"	"24.05"	"18.376"	"14.8"
"1931"	"14.713"	"12.911"	"20.135"	"28.361"	"30.523"	"33.219"	"30.054"	"30.069"	"27.835"	"24.429"	"18.874"	"14.876"
"1932"	"15.217"	"14.427"	"21.4"	"27.041"	"29.743"	"33.736"	"30.119"	"29.015"	"28.215"	"24.995"	"19.894"	"14.32"
"1933"	"11.859"	"15.653"	"20.657"	"24.466"	"27.76"	"31.657"	"29.094"	"28.633"	"27.496"	"24.11"	"18.952"	"15.28"
"1934"	"10.702"	"18.047"	"19.792"	"27.301"	"29.98"	"31.585"	"29.534"	"28.531"	"29.232"	"24.945"	"19.155"	"13.386"
"1935"	"10.517"	"15.513"	"20.559"	"23.163"	"31.643"	"33.674"	"29.697"	"28.924"	"28.033"	"24.565"	"18.937"	"13.197"
"1936"	"11.795"	"14.613"	"20.353"	"26.261"	"32.054"	"29.669"	"29.156"	"29.015"	"27.828"	"24.308"	"19.053"	"12.922"
"1937"	"12.508"	"14.768"	"19.354"	"24.717"	"30.28"	"32.334"	"29.474"	"29.851"	"28.395"	"24.024"	"17.892"	"13.442"
"1938"	"12.189"	"13.713"	"21.712"	"27.806"	"32.317"	"30.794"	"29.897"	"29.531"	"28.64"	"25.505"	"17.241"	"15.677"
"1939"	"13.695"	"15.055"	"17.835"	"25.483"	"32.422"	"30.552"	"29.655"	"29.89"	"28.253"	"25.129"	"19.487"	"15.459"
"1940"	"13.275"	"14.648"	"17.873"	"25.206"	"31.267"	"32.022"	"29.98"	"28.944"	"27.716"	"25.011"	"19.654"	"13.203"
"1941"	"11.795"	"16.455"	"23.015"	"29.667"	"31.824"	"31.056"	"30.683"	"29.711"	"28.595"	"25.853"	"19.191"	"16.318"
"1942"	"11.916"	"16.121"	"22.754"	"28.017"	"31.003"	"33.436"	"29.154"	"28.469"	"27.652"	"25.145"	"19.991"	"13.639"
"1943"	"11.903"	"16.713"	"21.276"	"25.125"	"30.686"	"31.975"	"29.379"	"28.407"	"28.91"	"25.149"	"20.615"	"15.465"
"1944"	"11.313"	"14.094"	"19.211"	"25.736"	"32.604"	"31.417"	"29.612"	"29.327"	"28.239"	"25.049"	"19.414"	"15.488"
"1945"	"10.656"	"14.493"	"21.134"	"24.884"	"30.881"	"33.173"	"29.596"	"29.486"	"27.954"	"23.753"	"19.411"	"13.347"
"1946"	"15.253"	"17.944"	"20.157"	"27.812"	"30.115"	"31.778"	"29.673"	"29.746"	"28.91"	"24.308"	"19.094"	"13.963"
"1947"	"12.054"	"16.311"	"21.094"	"28.377"	"31.76"	"34.254"	"30.669"	"29.612"	"28.139"	"23.792"	"19.578"	"14.684"
"1948"	"13.431"	"14.217"	"19.214"	"29.38"	"32.56"	"33.32"	"29.96"	"28.569"	"28.135"	"24.417"	"18.052"	"13.322"
"1949"	"15.012"	"14.877"	"21.154"	"28.157"	"31.62"	"32.739"	"29.236"	"29.186"	"28.876"	"25.251"	"18.376"	"13.042"
"1950"	"13.678"	"14.372"	"19.191"	"26.39"	"31.41"	"32.216"	"29.654"	"29.091"	"27.239"	"24.233"	"19.2"	"13.466"
"1951"	"11.816"	"16.486"	"20.913"	"24.305"	"30.639"	"32.753"	"31.175"	"30.153"	"28.917"	"26.55"	"20.27"	"15.62"
"1952"	"14.44"	"17.787"	"19.377"	"28.601"	"31.384"	"31.693"	"29.916"	"29.167"	"29.137"	"24.796"	"19.918"	"15.201"
"1953"	"11.696"	"18.57"	"24.294"	"27.843"	"31.721"	"32.837"	"29.595"	"29.345"	"28.535"	"24.956"	"19.634"	"16.54"
"1954"	"11.816"	"16.113"	"21.85"	"28.222"	"31.868"	"32.236"	"29.916"	"29.731"	"28.816"	"23.073"	"18.818"	"13.427"
"1955"	"12.516"	"16.877"	"22.971"	"24.905"	"29.146"	"33.196"	"29.936"	"28.694"	"28.036"	"23.629"	"19.412"	"13.78"
"1956"	"12.793"	"17.351"	"20.778"	"28.222"	"32.781"	"31.86"	"28.896"	"28.972"	"28.677"	"23.73"	"18.675"	"13.326"
"1957"	"11.913"	"15.112"	"19.33"	"25.385"	"29.547"	"31.769"	"30.234"	"29.591"	"27.63"	"24.931"	"19.961"	"14.739"
"1958"	"14.555"	"15.924"	"21.672"	"29.1"	"30.879"	"33.376"	"29.374"	"29.368"	"28.516"	"25.074"	"20.215"	"15.759"
"1959"	"13.719"	"15.098"	"22.392"	"27.345"	"30.45"	"33.035"	"29.28"	"29.765"	"28.737"	"25.17"	"19.077"	"15.781"
"1960"	"12.554"	"20.204"	"19.737"	"25.887"	"31.722"	"33.178"	"29.939"	"29.511"	"29.031"	"24.763"	"18.731"	"16.721"
"1961"	"13.674"	"14.048"	"22.013"	"27.208"	"31.394"	"32.631"	"30.174"	"29.568"	"29.667"	"24.874"	"17.987"	"12.479"
"1962"	"12.258"	"16.282"	"20.78"	"27.977"	"31.277"	"32.518"	"30.759"	"29.828"	"27.81"	"26.119"	"19.491"	"13.807"
"1963"	"13.169"	"17.553"	"20.394"	"26.38"	"30.014"	"32.255"	"30.434"	"28.754"	"27.877"	"25.485"	"19.786"	"14.462"
"1964"	"12.409"	"15.618"	"21.761"	"27.427"	"28.965"	"32.722"	"28.639"	"29.665"	"28.329"	"25.353"	"19.015"	"14.64"
"1965"	"15.09"	"15.407"	"20.071"	"25.358"	"30.122"	"33.285"	"29.536"	"28.792"	"28.435"	"24.951"	"19.922"	"13.78"
"1966"	"13.377"	"17.36"	"21.041"	"27.448"	"31.462"	"31.975"	"30.418"	"29.426"	"28.26"	"24.356"	"18.635"	"14.166"
"1967"	"12.841"	"17.903"	"19.892"	"26.327"	"30.329"	"32.761"	"29.833"	"28.728"	"28.435"	"23.853"	"18.109"	"14.002"
"1968"	"11.734"	"14.018"	"20.8"	"27"	"31.001"	"32.112"	"29.333"	"29.118"	"29.515"	"23.859"	"19.215"	"14.841"
"1969"	"13.349"	"16.916"	"23.622"	"27.002"	"29.897"	"32.619"	"29.655"	"29.647"	"27.965"	"25.363"	"20.53"	"15.379"
"1970"	"13.346"	"15.514"	"20.868"	"28.349"	"32.077"	"30.771"	"30.451"	"29.19"	"28.888"	"25.505"	"19.016"	"15.244"
"1971"	"13.051"	"16.215"	"20.887"	"26.616"	"28.326"	"29.949"	"29.095"	"27.843"	"27.735"	"24.759"	"18.934"	"15.741"
"1972"	"13.904"	"14.093"	"22.277"	"26.142"	"31.97"	"33.853"	"30.26"	"29.083"	"27.181"	"23.698"	"19.536"	"15.219"
"1973"	"13.358"	"17.138"	"20.4"	"29.315"	"31.094"	"31.51"	"29.667"	"29.438"	"28.346"	"24.185"	"19.201"	"13.147"
"1974"	"13.116"	"14.548"	"21.918"	"28.941"	"30.52"	"31.42"	"29.224"	"29.155"	"28.5"	"25.133"	"19.258"	"13.304"
"1975"	"12.867"	"15.491"	"20.156"	"28.045"	"31.801"	"30.872"	"28.736"	"29.012"	"27.178"	"25.851"	"18.064"	"15.099"
"1976"	"13.58"	"15.55"	"20.537"	"25.823"	"30.412"	"30.368"	"29.697"	"28.663"	"27.855"	"24.818"	"19.76"	"14.46"
"1977"	"13.279"	"15.559"	"22.219"	"26.257"	"28.421"	"30.35"	"28.913"	"28.938"	"26.999"	"24.652"	"20.654"	"14.79"
"1978"	"12.679"	"14.433"	"17.895"	"25.846"	"32.367"	"31.595"	"28.972"	"28.714"	"27.318"	"24.794"	"18.819"	"14.075"
"1979"	"13.729"	"14.613"	"19.112"	"28.062"	"30.201"	"32.001"	"28.885"	"29.936"	"27.464"	"25.552"	"20.815"	"15.399"
"1980"	"13.456"	"16.432"	"20.072"	"28.782"	"32.142"	"30.934"	"28.774"	"29.214"	"27.638"	"24.661"	"18.955"	"14.609"
"1981"	"12.274"	"16.27"	"20.148"	"27.002"	"30.677"	"31.939"	"28.954"	"28.941"	"28.217"	"24.333"	"18.444"	"13.805"
"1982"	"14.208"	"14.869"	"18.165"	"24.928"	"27.88"	"31.654"	"30.315"	"28.867"	"28.323"	"24.49"	"19.415"	"15.227"
"1983"	"12.301"	"14.094"	"19.458"	"24.179"	"29.078"	"30.681"	"29.7"	"29.02"	"28.471"	"23.708"	"18.403"	"14.263"
"1984"	"11.652"	"14.134"	"22.657"	"27.041"	"33.38"	"32.093"	"28.753"	"29.151"	"27.397"	"24.376"	"18.695"	"13.939"
"1985"	"13.115"	"16.056"	"23.317"	"27.742"	"30.356"	"32.442"	"28.557"	"29.128"	"27.61"	"23.708"	"18"	"15.439"
"1986"	"13.034"	"15.456"	"20.112"	"26.8"	"28.532"	"31.341"	"28.636"	"29.116"	"27.632"	"23.509"	"20.069"	"13.666"
"1987"	"13.433"	"17.055"	"21.618"	"27.623"	"27.938"	"32.423"	"31.595"	"30.134"	"29.478"	"25.849"	"20.314"	"15.431"
"1988"	"15.265"	"17.337"	"21.138"	"28.783"	"32.343"	"31.277"	"28.954"	"28.629"	"28.077"	"24.91"	"19.529"	"14.964"
"1989"	"11.689"	"15.397"	"20.672"	"25.727"	"30.623"	"30.218"	"29.717"	"27.734"	"27.899"	"24.855"	"19.115"	"14.264"
"1990"	"16.023"	"15.684"	"18.772"	"26.263"	"30.331"	"32.73"	"28.476"	"28.733"	"27.42"	"23.514"	"19.681"	"14.724"
"1991"	"11.672"	"16.331"	"20.896"	"25.245"	"31.117"	"30.634"	"30.601"	"28.691"	"27.911"	"24.075"	"18.333"	"14.506"
"1992"	"13.733"	"14.453"	"20.728"	"27.082"	"29.617"	"31.461"	"28.559"	"28.408"	"27.599"	"24.482"	"19.411"	"15.127"
"1993"	"12.994"	"17.053"	"18.795"	"26.44"	"31.5"	"31.259"	"29.216"	"30.004"	"27.296"	"24.593"	"20.022"	"15.083"
"1994"	"14.094"	"15.677"	"22.654"	"25.058"	"31.521"	"33.056"	"29.751"	"29.043"	"27.677"	"24.389"	"19.45"	"15.08"
"1995"	"12.736"	"15.679"	"19.815"	"26.141"	"32.939"	"33.74"	"28.414"	"27.156"	"27.796"	"25.233"	"19.614"	"15.135"
"1996"	"13.315"	"16.33"	"21.455"	"27.2"	"30.522"	"30.313"	"28.031"	"26.469"	"27.476"	"24.296"	"18.79"	"13.386"
"1997"	"13.164"	"15.791"	"20.726"	"25.92"	"29.275"	"30.257"	"30.417"	"28.972"	"28.569"	"22.149"	"18.719"	"13.215"
"1998"	"8.975"	"16.607"	"19.052"	"27.002"	"31.94"	"33.075"	"29.415"	"29.091"	"28.754"	"25.049"	"20.818"	"16.906"
"1999"	"13.019"	"19.231"	"23.852"	"31.984"	"31.94"	"30.863"	"30.716"	"29.933"	"28.932"	"25.631"	"21.494"	"16.242"
"2000"	"14.66"	"14.711"	"20.275"	"29.282"	"31.837"	"30.616"	"29.458"	"29.552"	"29.154"	"26.629"	"21.513"	"16.722"
"2001"	"13.75"	"16.792"	"21.948"	"26.477"	"31.655"	"30.636"	"30.236"	"30.347"	"29.498"	"26.496"	"21.577"	"16.448"
"2002"	"14.898"	"16.497"	"21.538"	"28.483"	"33.26"	"32.296"	"31.578"	"29.893"	"26.896"	"25.566"	"20.452"	"15.184"
