
"Year"	"Jan"	"Feb"	"Mar"	"Apr"	"May"	"Jun"	"Jul"	"Aug"	"Sep"	"Oct"	"Nov"	"Dec"
"1901"	"18.356"	"19.856"	"26.501"	"31.12"	"34.431"	"33.917"	"29.145"	"26.106"	"27.234"	"27.513"	"22.457"	"20.298"
"1902"	"20.808"	"22.825"	"28.599"	"32.203"	"34.552"	"33.263"	"28.901"	"27.902"	"26.669"	"25.903"	"20.949"	"18.57"
"1903"	"19.762"	"20.33"	"24.971"	"30.14"	"33.055"	"33.764"	"29.176"	"26.934"	"26.434"	"25.231"	"20.028"	"18.391"
"1904"	"19.993"	"21.018"	"25.132"	"31.96"	"34.092"	"31.326"	"27.094"	"26.504"	"26.795"	"26.421"	"21.522"	"19.725"
"1905"	"18.625"	"17.864"	"24.437"	"29.138"	"35.603"	"33.401"	"27.753"	"27.399"	"26.902"	"26.1"	"22.952"	"19.191"
"1906"	"18.094"	"19.961"	"25.622"	"31.392"	"35.251"	"31.216"	"27.425"	"27.093"	"25.842"	"25.268"	"22.56"	"19.612"
"1907"	"20.134"	"20.842"	"25.19"	"29.399"	"32.611"	"32.569"	"29.9"	"25.683"	"26.974"	"27.483"	"23.163"	"18.157"
"1908"	"18.769"	"21.104"	"24.873"	"32.113"	"33.852"	"32.51"	"26.797"	"26.162"	"26.998"	"26.177"	"22.091"	"18.478"
"1909"	"19.958"	"21.522"	"27.405"	"29.798"	"33.991"	"30.882"	"27.105"	"26.471"	"26.223"	"25.51"	"22.241"	"19.25"
"1910"	"19.501"	"21.529"	"26.495"	"30.757"	"33.847"	"30.303"	"27.354"	"26.871"	"26.603"	"24.541"	"20.128"	"19.583"
"1911"	"21.161"	"21.238"	"24.545"	"30.697"	"34.951"	"30.305"	"28.81"	"26.871"	"26.176"	"26.727"	"22.222"	"20.673"
"1912"	"20.407"	"22.998"	"26.047"	"31.467"	"34.63"	"33.922"	"28.478"	"26.453"	"26.53"	"26.13"	"21.075"	"18.753"
"1913"	"19.118"	"21.822"	"24.793"	"32.315"	"33.091"	"30.325"	"27.538"	"26.21"	"27.38"	"27.341"	"22.633"	"19.794"
"1914"	"21.333"	"21.848"	"25.474"	"30.919"	"34.569"	"31.068"	"27.505"	"26.971"	"27.279"	"26.505"	"23.601"	"19.436"
"1915"	"20.016"	"20.359"	"26.209"	"30.749"	"34.904"	"34.417"	"29.617"	"26.923"	"28.123"	"26.924"	"22.998"	"19.779"
"1916"	"19.902"	"20.807"	"28.225"	"32.391"	"34.807"	"29.501"	"28.71"	"26.7"	"27.401"	"25.499"	"20.726"	"18.677"
"1917"	"20.269"	"21.062"	"25.863"	"29.562"	"31.573"	"30.348"	"27.031"	"26.811"	"26.546"	"25.086"	"20.097"	"19.519"
"1918"	"17.968"	"22.307"	"26.376"	"29.958"	"34.758"	"30.995"	"29.307"	"26.908"	"27.263"	"27.133"	"23.663"	"19.003"
"1919"	"20.346"	"21.276"	"27.163"	"30.962"	"33.865"	"31.266"	"27.155"	"26.294"	"26.95"	"25.44"	"22.962"	"19.205"
"1920"	"19.937"	"21.156"	"26.948"	"30.985"	"31.409"	"31.673"	"27.014"	"26.51"	"27.846"	"27.463"	"23.2"	"20.527"
"1921"	"20.477"	"21.634"	"28.545"	"32.941"	"34.951"	"31.697"	"29.583"	"26.611"	"25.885"	"25.73"	"21.314"	"20.92"
"1922"	"18.905"	"23.305"	"27.339"	"31.919"	"34.492"	"31.328"	"27.405"	"26.584"	"26.486"	"25.714"	"21.493"	"18.32"
"1923"	"19.818"	"20.826"	"27.028"	"31.378"	"33.445"	"34.386"	"27.987"	"25.833"	"26.985"	"25.26"	"21.975"	"20.703"
"1924"	"19.95"	"22.493"	"28.309"	"32.448"	"33.406"	"33.04"	"27.923"	"26.866"	"26.676"	"24.642"	"20.276"	"19.341"
"1925"	"17.464"	"20.282"	"26.879"	"32.794"	"32.709"	"29.942"	"26.817"	"27.279"	"27.544"	"27.542"	"22.584"	"19.262"
"1926"	"20.369"	"23.413"	"26.174"	"28.557"	"33.43"	"34.698"	"28.55"	"26.75"	"26.827"	"25.691"	"20.528"	"18.472"
"1927"	"18.45"	"20.198"	"25.121"	"30.624"	"33.463"	"31.907"	"27.215"	"26.135"	"26.941"	"25.558"	"19.381"	"19.604"
"1928"	"19.186"	"21.47"	"26.061"	"30.558"	"34.106"	"31.534"	"26.947"	"26.44"	"26.895"	"25.98"	"22.675"	"18.454"
"1929"	"18.545"	"20.297"	"27.569"	"31.018"	"34.334"	"31.287"	"27.324"	"26.015"	"27.135"	"25.615"	"22.937"	"18.85"
"1930"	"19.849"	"20.474"	"27.156"	"30.582"	"33.929"	"32.067"	"26.571"	"26.155"	"27.234"	"27.071"	"21.041"	"20.089"
"1931"	"21.373"	"21.412"	"25.933"	"32.486"	"34.513"	"33.696"	"28.41"	"26.709"	"26.525"	"24.906"	"21.427"	"19.446"
"1932"	"21.378"	"20.193"	"25.627"	"30.366"	"34.204"	"32.201"	"27.272"	"26.815"	"26.932"	"26.57"	"21.478"	"19.995"
"1933"	"19.365"	"22.387"	"26.889"	"30.458"	"31.678"	"30.759"	"27.858"	"26.372"	"26.176"	"25.148"	"22.015"	"19.183"
"1934"	"18.252"	"22.413"	"25.754"	"31.305"	"33.695"	"32.017"	"27.134"	"26.221"	"25.777"	"24.749"	"21.076"	"19.615"
"1935"	"17.8"	"21.445"	"25.696"	"28.646"	"34.067"	"32.135"	"27.088"	"26.116"	"26.133"	"25.449"	"22.176"	"19.613"
"1936"	"18.565"	"21.38"	"25.948"	"30.029"	"34.756"	"30.133"	"27.642"	"26.568"	"26.588"	"25.613"	"22.259"	"18.62"
"1937"	"18.066"	"22.198"	"24.975"	"29.963"	"33.726"	"32.015"	"26.872"	"26.41"	"26.593"	"25.232"	"22.965"	"18.73"
"1938"	"20.644"	"19.809"	"28.11"	"31.732"	"34.261"	"28.039"	"26.866"	"26.953"	"27.728"	"25.835"	"20.974"	"19.623"
"1939"	"20.627"	"22.399"	"24.643"	"30.261"	"33.763"	"31.427"	"27.385"	"27.344"	"26.18"	"26.299"	"21.471"	"18.757"
"1940"	"19.671"	"21.849"	"24.397"	"30.329"	"34.129"	"31.767"	"27.229"	"26.081"	"26.725"	"25.888"	"21.863"	"18.947"
"1941"	"18.796"	"21.852"	"27.401"	"32.101"	"34.466"	"32.654"	"27.51"	"26.584"	"27.319"	"27.265"	"22.602"	"20.93"
"1942"	"18.386"	"21.87"	"27.19"	"32.54"	"34.485"	"33.207"	"26.585"	"26.397"	"26.109"	"25.625"	"21.42"	"18.832"
"1943"	"20.229"	"20.744"	"26.885"	"30.551"	"34.871"	"30.519"	"26.774"	"25.58"	"26.688"	"25.098"	"23.397"	"18.597"
"1944"	"18.921"	"20.954"	"25.331"	"30.232"	"34.387"	"31.385"	"27.031"	"26.161"	"26.924"	"24.702"	"21.982"	"20.905"
"1945"	"17.924"	"20.248"	"26.309"	"29.946"	"33.648"	"32.457"	"26.935"	"26.908"	"26.394"	"25.307"	"20.676"	"17.708"
"1946"	"19.795"	"23.107"	"26.276"	"32.738"	"33.705"	"30.407"	"27.106"	"25.842"	"26.651"	"26.185"	"19.32"	"20.872"
"1947"	"18.401"	"21.63"	"26.669"	"30.759"	"34.422"	"32.278"	"27.317"	"27.385"	"26.303"	"24.649"	"22.327"	"20.224"
"1948"	"19.698"	"21.139"	"26.546"	"32.424"	"35.353"	"31.427"	"27.574"	"26.384"	"26.204"	"26.908"	"22.078"	"18.776"
"1949"	"21.124"	"21.564"	"27.116"	"32.054"	"34.652"	"31.239"	"27.941"	"27.254"	"26.729"	"26.027"	"21.385"	"19.099"
"1950"	"20.505"	"20.119"	"25.57"	"30.763"	"33.928"	"32.452"	"27.454"	"26.848"	"26.563"	"25.207"	"20.224"	"18.688"
"1951"	"18.427"	"21.073"	"26.611"	"29.704"	"34.048"	"32.146"	"28.921"	"26.374"	"27.95"	"28.398"	"23.765"	"18.853"
"1952"	"20.451"	"23.493"	"26.065"	"32.403"	"35.007"	"31.593"	"27.631"	"25.754"	"27.353"	"26.829"	"21.896"	"21.274"
"1953"	"18.921"	"24.207"	"29.359"	"31.959"	"34.17"	"32.601"	"27.853"	"26.478"	"27.098"	"25.678"	"21.842"	"20.677"
"1954"	"18.541"	"22.891"	"26.641"	"31.815"	"35.267"	"32.41"	"28.055"	"26.952"	"25.302"	"24.148"	"22.048"	"19.673"
"1955"	"20.22"	"22.336"	"28.41"	"29.428"	"33.795"	"31.273"	"28.101"	"26.374"	"26.226"	"24.616"	"20.429"	"19.2"
"1956"	"20.075"	"21.881"	"27.557"	"31.677"	"34.178"	"29.983"	"26.262"	"25.773"	"26.381"	"25.046"	"20.815"	"19.853"
"1957"	"19.268"	"20.076"	"24.869"	"30.781"	"33.111"	"32.323"	"27.682"	"26.813"	"26.298"	"26.378"	"24.091"	"21.239"
"1958"	"21.046"	"21.981"	"27.177"	"32.677"	"34.663"	"33.179"	"27.383"	"27.388"	"26.068"	"25.378"	"22.495"	"20.204"
"1959"	"19.851"	"21.603"	"27.768"	"31.485"	"34.143"	"31.869"	"26.776"	"25.992"	"26.223"	"26.05"	"22.391"	"20.333"
"1960"	"18.066"	"23.475"	"25.643"	"31.073"	"33.828"	"32.03"	"28.262"	"25.535"	"27.339"	"25.752"	"21.914"	"21.516"
"1961"	"19.718"	"19.92"	"27.89"	"31.303"	"34.164"	"30.944"	"27.131"	"26.552"	"25.327"	"24.521"	"21.991"	"18.285"
"1962"	"17.854"	"21.479"	"26.028"	"30.82"	"34.076"	"32.125"	"27.857"	"26.507"	"26.081"	"24.273"	"22.528"	"20.082"
"1963"	"18.624"	"23.187"	"25.879"	"29.468"	"32.954"	"30.977"	"27.477"	"25.895"	"26.16"	"25.806"	"23.96"	"19.979"
"1964"	"18.355"	"21.854"	"28.331"	"32.806"	"33.611"	"31.368"	"27.793"	"26.562"	"26.759"	"26.749"	"21.568"	"19.984"
"1965"	"20.744"	"21.875"	"26.075"	"30.6"	"34.681"	"32.715"	"28.603"	"27.615"	"26.77"	"27.257"	"23.342"	"19.943"
"1966"	"19.989"	"23.881"	"26.186"	"31.102"	"33.104"	"31.923"	"29.499"	"26.441"	"27.155"	"27.775"	"24.181"	"19.823"
"1967"	"18.85"	"23.892"	"25.726"	"30.218"	"34.048"	"31.112"	"27.896"	"26.052"	"25.899"	"26.966"	"23.586"	"21.016"
"1968"	"18.618"	"20.628"	"26.451"	"30.441"	"32.643"	"32.023"	"27.533"	"25.734"	"27.897"	"25.911"	"22.639"	"19.962"
"1969"	"19.736"	"22.818"	"28.636"	"31.347"	"33.943"	"31.642"	"27.808"	"25.896"	"26.371"	"27.631"	"24.411"	"20.148"
"1970"	"20.018"	"21.971"	"26.796"	"32.951"	"35.221"	"30.19"	"28.251"	"26.675"	"26.213"	"26.387"	"21.406"	"19.489"
"1971"	"19.117"	"22.031"	"26.517"	"32.458"	"32.6"	"29.541"	"26.558"	"26.396"	"26.955"	"25.516"	"21.941"	"18.562"
"1972"	"19.83"	"20.332"	"28.154"	"30.537"	"34.272"	"32.252"	"28.691"	"26.43"	"26.545"	"26.831"	"22.8"	"20.608"
"1973"	"19.676"	"22.857"	"27.283"	"33.336"	"35.36"	"31.9"	"26.518"	"26.436"	"25.982"	"25.744"	"22.234"	"19.821"
"1974"	"19.031"	"21.323"	"28.073"	"32.043"	"33.242"	"32.202"	"28.272"	"26.482"	"28.186"	"26.274"	"21.236"	"19.221"
"1975"	"17.845"	"21.486"	"25.761"	"32.12"	"34.215"	"31.358"	"27.085"	"26.6"	"26.512"	"26.35"	"20.703"	"19.32"
"1976"	"20.087"	"22.513"	"27.28"	"31.282"	"33.947"	"29.937"	"27.999"	"26.204"	"26.536"	"27.089"	"25.225"	"21.143"
"1977"	"19.581"	"22.947"	"29.092"	"31.347"	"32.784"	"31.831"	"27.786"	"26.461"	"26.377"	"27.177"	"23.937"	"20.546"
"1978"	"19.15"	"21.455"	"25.695"	"31.609"	"35.245"	"30.99"	"26.938"	"25.638"	"27.261"	"26.847"	"24.127"	"19.153"
"1979"	"20.95"	"20.586"	"25.599"	"31.785"	"32.892"	"32.523"	"27.873"	"26.049"	"28.555"	"27.843"	"24.668"	"20.719"
"1980"	"20.651"	"22.789"	"27.213"	"32.918"	"34.167"	"29.795"	"27.451"	"26.317"	"27.762"	"27.673"	"24.208"	"19.694"
"1981"	"18.672"	"23.172"	"26.612"	"31.629"	"34.091"	"32.969"	"26.727"	"26.083"	"27.447"	"26.695"	"21.675"	"19.565"
"1982"	"20.413"	"21.059"	"25.306"	"30.506"	"32.588"	"32.677"	"28.875"	"26.354"	"27.443"	"27.513"	"22.864"	"21.653"
"1983"	"19.435"	"20.794"	"26.283"	"29.6"	"33.963"	"32.888"	"28.524"	"27.334"	"27.169"	"25.312"	"21.121"	"19.396"
"1984"	"19.256"	"19.727"	"27.838"	"32.048"	"35.153"	"31.603"	"28.205"	"25.482"	"26.229"	"26.399"	"22.487"	"20.874"
"1985"	"20.302"	"22.072"	"28.979"	"31.605"	"34.804"	"32.062"	"28.726"	"26.135"	"27.5"	"24.822"	"22.727"	"21.422"
"1986"	"20.385"	"22.013"	"27.026"	"31.819"	"34.032"	"32.01"	"26.94"	"26.115"	"28.115"	"26.571"	"23.619"	"19.521"
"1987"	"20.135"	"23.142"	"27.438"	"32.074"	"33.132"	"33.02"	"29.308"	"28"	"28.357"	"27.476"	"23.656"	"20.119"
"1988"	"21.426"	"23.925"	"27.289"	"32.695"	"35.499"	"32.258"	"27.779"	"27.418"	"28.437"	"25.997"	"22.714"	"20.334"
"1989"	"19.387"	"22.322"	"26.2"	"30.938"	"34.892"	"30.738"	"28.188"	"26.251"	"27.831"	"27.016"	"24.203"	"19.964"
"1990"	"22.023"	"22.347"	"25.56"	"31.738"	"32.982"	"30.175"	"26.797"	"27.064"	"26.575"	"26.755"	"23.422"	"20.494"
"1991"	"18.905"	"23.126"	"27.557"	"31.072"	"35.019"	"32.306"	"28.168"	"26.479"	"27.308"	"27.053"	"23.058"	"20.118"
"1992"	"20.475"	"21.147"	"27.593"	"31.482"	"33.93"	"33.237"	"29.341"	"26.708"	"26.544"	"26.465"	"22.653"	"20.614"
"1993"	"20.899"	"22.318"	"25.821"	"31.224"	"35.316"	"32.919"	"27.977"	"27.014"	"26.626"	"27.239"	"23.419"	"20.174"
"1994"	"21.083"	"21.228"	"27.484"	"30.452"	"35.209"	"30.67"	"26.83"	"26.017"	"26.231"	"26.629"	"22.926"	"19.959"
"1995"	"18.059"	"21.86"	"25.817"	"31.151"	"34.437"	"34.664"	"28.697"	"27.282"	"27.947"	"27.841"	"23.19"	"21.241"
"1996"	"20.944"	"23.289"	"28.674"	"31.879"	"34.729"	"33.254"	"28.938"	"26.515"	"27.475"	"26.073"	"23.212"	"20.054"
"1997"	"19.576"	"21.744"	"27.826"	"30.134"	"32.863"	"30.792"	"27.808"	"26.936"	"27.34"	"26.345"	"24.691"	"19.559"
"1998"	"19.727"	"22.368"	"26.413"	"32.504"	"35.709"	"33.299"	"28.236"	"27.856"	"27.97"	"27.998"	"23.784"	"21.116"
"1999"	"20.132"	"23.091"	"28.014"	"33.147"	"34.509"	"31.066"	"28.097"	"26.715"	"26.974"	"26.545"	"23.276"	"19.926"
"2000"	"20.957"	"21"	"26.825"	"33.753"	"32.677"	"31.031"	"27.008"	"27.808"	"27.495"	"28.313"	"25.127"	"21.47"
"2001"	"20.009"	"23.86"	"27.487"	"31.224"	"33.667"	"29.599"	"26.542"	"26.892"	"28.464"	"27.333"	"23.832"	"21.747"
"2002"	"19.431"	"22.822"	"27.812"	"32.689"	"35.104"	"31.521"	"29.097"	"25.991"	"26.85"	"27.575"	"24"	"22.555"
