
"Year"	"Jan"	"Feb"	"Mar"	"Apr"	"May"	"Jun"	"Jul"	"Aug"	"Sep"	"Oct"	"Nov"	"Dec"
"1901"	"20.068"	"21.162"	"27.194"	"31.455"	"34.294"	"32.998"	"28.251"	"25.872"	"27.294"	"27.36"	"22.508"	"20.525"
"1902"	"21.994"	"23.897"	"29.064"	"32.739"	"34.613"	"33.013"	"28.551"	"27.918"	"26.8"	"26.275"	"21.545"	"19.559"
"1903"	"21.047"	"21.351"	"25.986"	"30.933"	"32.936"	"33.202"	"28.359"	"26.844"	"26.559"	"25.464"	"20.472"	"19.208"
"1904"	"21.282"	"22.317"	"26.243"	"32.435"	"34.352"	"30.937"	"27.293"	"26.712"	"26.718"	"26.482"	"21.508"	"20.473"
"1905"	"19.895"	"19.5"	"25.694"	"29.616"	"35.615"	"32.912"	"27.555"	"27.273"	"26.679"	"26.134"	"23.066"	"19.531"
"1906"	"19.518"	"21.563"	"26.716"	"31.896"	"35.025"	"30.586"	"27.354"	"26.972"	"25.886"	"25.434"	"22.965"	"20.461"
"1907"	"21.114"	"22.111"	"26.258"	"29.831"	"32.714"	"31.945"	"29.139"	"25.58"	"27.366"	"27.81"	"23.811"	"19.084"
"1908"	"19.993"	"22.303"	"25.755"	"32.402"	"33.869"	"31.635"	"26.661"	"26.02"	"27.107"	"26.439"	"22.362"	"18.973"
"1909"	"21.6"	"23.063"	"28.386"	"30.477"	"34.062"	"30.763"	"27.025"	"26.694"	"26.277"	"25.63"	"22.426"	"20.484"
"1910"	"20.824"	"22.366"	"27.188"	"31.324"	"33.795"	"30.098"	"27.415"	"26.819"	"26.484"	"24.781"	"20.395"	"20.272"
"1911"	"21.942"	"21.741"	"25.353"	"31.173"	"34.893"	"30.223"	"28.515"	"26.677"	"26.559"	"27.077"	"23.601"	"21.425"
"1912"	"21.596"	"24.027"	"27.163"	"32.036"	"34.697"	"33.726"	"28.194"	"26.336"	"26.901"	"26.408"	"21.773"	"19.405"
"1913"	"20.168"	"23.553"	"26.017"	"32.907"	"33.353"	"30.251"	"27.421"	"26.19"	"27.186"	"27.232"	"22.838"	"20.805"
"1914"	"21.859"	"23.229"	"26.39"	"31.349"	"34.394"	"30.606"	"27.269"	"26.919"	"27.258"	"26.583"	"23.999"	"20.306"
"1915"	"20.863"	"21.991"	"26.972"	"31.101"	"34.701"	"34.04"	"29.163"	"26.756"	"27.738"	"26.908"	"23.922"	"20.133"
"1916"	"20.667"	"22.001"	"28.558"	"32.766"	"34.736"	"29.128"	"28.308"	"26.612"	"27.225"	"25.929"	"21.659"	"19.378"
"1917"	"21.091"	"21.928"	"26.512"	"29.976"	"31.919"	"29.96"	"26.807"	"26.963"	"26.323"	"25.201"	"20.704"	"20.194"
"1918"	"19.014"	"23.244"	"27.089"	"30.47"	"34.158"	"30.232"	"28.872"	"26.784"	"27.54"	"27.061"	"23.965"	"20.175"
"1919"	"21.723"	"22.919"	"28.098"	"31.3"	"34.06"	"30.392"	"27.094"	"26.371"	"27.034"	"25.511"	"23.735"	"20.021"
"1920"	"20.937"	"22.072"	"27.654"	"31.584"	"31.737"	"31.674"	"27.048"	"26.775"	"27.924"	"27.843"	"23.356"	"20.954"
"1921"	"21.648"	"22.646"	"29.123"	"33.224"	"34.87"	"30.845"	"29.023"	"26.721"	"25.88"	"25.731"	"21.379"	"21.319"
"1922"	"20.21"	"24.217"	"27.834"	"32.249"	"34.412"	"30.911"	"27.201"	"26.635"	"26.402"	"25.8"	"21.625"	"18.631"
"1923"	"20.801"	"21.846"	"27.625"	"31.695"	"33.447"	"33.785"	"27.649"	"26.017"	"26.885"	"25.153"	"22.16"	"21.524"
"1924"	"21.608"	"23.985"	"29.105"	"32.978"	"33.824"	"32.542"	"27.85"	"26.919"	"26.665"	"24.585"	"20.619"	"20.27"
"1925"	"18.631"	"21.228"	"27.392"	"33.177"	"32.961"	"29.762"	"26.842"	"26.898"	"27.561"	"27.707"	"23.267"	"19.81"
"1926"	"21.466"	"24.303"	"27.296"	"29.309"	"33.844"	"34.362"	"28.303"	"26.475"	"26.935"	"26.265"	"21.409"	"19.662"
"1927"	"20.73"	"22.253"	"26.536"	"31.542"	"33.76"	"31.393"	"26.943"	"26.38"	"27.059"	"25.839"	"19.848"	"20.534"
"1928"	"20.679"	"22.519"	"27.119"	"31.231"	"34.374"	"31.211"	"26.874"	"26.536"	"26.737"	"26.031"	"22.984"	"19.556"
"1929"	"19.766"	"21.776"	"28.352"	"31.532"	"34.68"	"30.694"	"27.255"	"26.617"	"27.123"	"25.994"	"23.113"	"19.955"
"1930"	"21.046"	"21.175"	"27.872"	"31.44"	"34.137"	"31.669"	"26.733"	"26.154"	"27.123"	"27.186"	"21.534"	"21.104"
"1931"	"22.199"	"23.247"	"27.003"	"32.897"	"34.656"	"33.311"	"27.938"	"26.491"	"26.464"	"25.184"	"21.939"	"20.012"
"1932"	"21.675"	"21.097"	"26.4"	"30.833"	"34.402"	"31.555"	"26.98"	"26.819"	"27.005"	"26.964"	"22.203"	"20.51"
"1933"	"20.763"	"23.554"	"27.799"	"31.208"	"31.852"	"30.037"	"27.721"	"26.371"	"26.239"	"25.544"	"22.569"	"19.95"
"1934"	"19.597"	"22.995"	"26.769"	"32.014"	"34.085"	"31.685"	"27.073"	"26.021"	"25.853"	"25.002"	"21.167"	"20.419"
"1935"	"19.203"	"22.475"	"26.389"	"29.419"	"34.22"	"31.616"	"26.699"	"26.119"	"25.962"	"26.041"	"22.501"	"20.88"
"1936"	"20.305"	"22.482"	"26.888"	"30.488"	"34.623"	"29.582"	"27.691"	"26.46"	"26.635"	"25.793"	"23.008"	"19.751"
"1937"	"19.158"	"23.341"	"26.068"	"30.355"	"33.821"	"31.611"	"26.541"	"26.57"	"26.588"	"25.516"	"23.311"	"19.765"
"1938"	"22.376"	"20.977"	"28.889"	"32.097"	"34.073"	"27.714"	"26.587"	"26.894"	"27.468"	"25.741"	"21.521"	"20.193"
"1939"	"21.76"	"23.904"	"25.813"	"30.959"	"33.801"	"31.215"	"27.283"	"27.16"	"26.421"	"26.486"	"21.663"	"19.385"
"1940"	"20.777"	"23.278"	"25.288"	"30.997"	"34.198"	"31.19"	"26.761"	"26.119"	"26.886"	"26.191"	"22.486"	"20.319"
"1941"	"20.271"	"22.92"	"28.352"	"32.604"	"34.603"	"32.722"	"27.214"	"26.585"	"27.432"	"27.409"	"23.006"	"21.58"
"1942"	"20.271"	"23.045"	"28.134"	"32.875"	"34.383"	"32.613"	"26.419"	"26.307"	"26.043"	"25.906"	"21.801"	"19.886"
"1943"	"21.668"	"21.422"	"27.428"	"31.139"	"34.569"	"30.183"	"26.64"	"25.814"	"26.484"	"25.112"	"23.11"	"18.906"
"1944"	"20.306"	"22.107"	"26.343"	"30.636"	"34.557"	"31.395"	"26.864"	"26.098"	"26.988"	"25.256"	"22.191"	"21.696"
"1945"	"19.555"	"21.349"	"26.928"	"30.539"	"33.983"	"32.112"	"26.794"	"26.826"	"26.399"	"25.798"	"21.067"	"18.732"
"1946"	"20.571"	"23.848"	"27.211"	"32.961"	"33.642"	"29.981"	"26.885"	"25.97"	"26.692"	"26.683"	"20.981"	"22.109"
"1947"	"20.118"	"23.03"	"27.424"	"31.137"	"34.539"	"32.195"	"27.384"	"27.487"	"26.463"	"24.85"	"22.819"	"21"
"1948"	"21.102"	"22.457"	"27.463"	"32.71"	"35.368"	"30.863"	"27.061"	"26.274"	"26.108"	"27.242"	"23.221"	"19.381"
"1949"	"21.679"	"22.27"	"28.032"	"32.501"	"34.575"	"30.412"	"27.659"	"27.392"	"26.376"	"26.327"	"21.812"	"20.246"
"1950"	"21.497"	"21.443"	"26.636"	"31.612"	"34.155"	"32.17"	"27.321"	"27.276"	"26.659"	"25.568"	"20.735"	"19.937"
"1951"	"19.718"	"22.33"	"27.668"	"30.468"	"34.374"	"31.64"	"28.651"	"26.323"	"27.992"	"28.188"	"23.931"	"19.583"
"1952"	"21.314"	"24.607"	"26.835"	"32.94"	"34.947"	"31.514"	"27.806"	"25.952"	"27.435"	"26.985"	"22.01"	"22.519"
"1953"	"20.526"	"25.484"	"29.91"	"32.329"	"34.281"	"32.235"	"27.695"	"26.292"	"27.334"	"25.951"	"22.172"	"21.005"
"1954"	"19.712"	"24.078"	"27.776"	"32.44"	"35.374"	"31.842"	"27.747"	"27.005"	"25.358"	"24.482"	"22.255"	"20.376"
"1955"	"21.621"	"23.881"	"29.182"	"29.968"	"34.087"	"30.808"	"27.915"	"26.231"	"26.34"	"25.267"	"20.917"	"19.943"
"1956"	"21.49"	"23.171"	"28.417"	"32.228"	"33.854"	"29.635"	"26.167"	"26.1"	"26.586"	"25.582"	"21.7"	"20.693"
"1957"	"20.876"	"21.482"	"26.296"	"31.274"	"33.436"	"32.196"	"27.671"	"26.698"	"26.79"	"26.692"	"24.584"	"22.548"
"1958"	"22.013"	"23.112"	"27.944"	"33.046"	"34.918"	"33.092"	"27.356"	"27.289"	"26.217"	"26.011"	"23.411"	"20.95"
"1959"	"21.441"	"23.194"	"28.514"	"32.125"	"34.729"	"31.864"	"26.675"	"25.937"	"26.277"	"26.389"	"23.118"	"21.212"
"1960"	"19.69"	"24.261"	"26.406"	"31.672"	"33.835"	"30.816"	"27.921"	"25.593"	"27.335"	"26.066"	"22.422"	"22.417"
"1961"	"21.506"	"21.257"	"28.835"	"32.023"	"34.194"	"30.709"	"26.997"	"26.642"	"25.416"	"24.888"	"22.772"	"19.421"
"1962"	"19.045"	"22.839"	"26.881"	"31.107"	"34.093"	"31.908"	"27.774"	"26.827"	"26.235"	"24.933"	"23.118"	"20.639"
"1963"	"19.913"	"24.178"	"27.102"	"30.491"	"33.486"	"30.939"	"27.822"	"26.066"	"26.624"	"26.288"	"24.398"	"20.973"
"1964"	"19.892"	"23.113"	"28.938"	"33.214"	"33.71"	"31.316"	"27.467"	"26.222"	"26.914"	"26.911"	"22.035"	"20.742"
"1965"	"21.75"	"22.903"	"27.097"	"31.15"	"35.057"	"32.1"	"27.887"	"27.235"	"26.661"	"27.209"	"23.379"	"20.708"
"1966"	"20.503"	"24.302"	"26.556"	"31.527"	"32.878"	"32.168"	"29.169"	"26.715"	"27.004"	"27.812"	"24.714"	"20.742"
"1967"	"20.224"	"24.597"	"26.995"	"30.944"	"34.145"	"31.068"	"27.841"	"26.217"	"26.44"	"27.026"	"24.047"	"22.038"
"1968"	"19.706"	"21.821"	"26.628"	"30.704"	"33.112"	"31.992"	"27.624"	"25.61"	"27.984"	"25.911"	"22.631"	"20.708"
"1969"	"21.082"	"24.152"	"29.717"	"32.476"	"34.447"	"31.891"	"27.431"	"25.867"	"26.08"	"26.958"	"24.711"	"20.838"
"1970"	"21.16"	"23.789"	"27.634"	"33.088"	"35.106"	"29.472"	"28.068"	"26.648"	"26.369"	"26.33"	"21.661"	"19.72"
"1971"	"20.32"	"23.138"	"27.217"	"33.084"	"33.089"	"29.452"	"27.085"	"26.847"	"27.295"	"25.804"	"22.152"	"19.298"
"1972"	"20.694"	"21.585"	"29.196"	"31.25"	"34.242"	"32.08"	"28.256"	"26.318"	"26.748"	"27.18"	"22.998"	"21.67"
"1973"	"21.092"	"24.054"	"28.29"	"34.058"	"35.55"	"31.735"	"26.373"	"26.185"	"26.002"	"26.009"	"22.32"	"21.104"
"1974"	"19.898"	"22.695"	"28.965"	"32.534"	"33.385"	"31.746"	"28.412"	"26.341"	"28.461"	"26.412"	"21.403"	"19.78"
"1975"	"18.995"	"22.668"	"26.978"	"32.682"	"34.169"	"30.651"	"27.056"	"26.347"	"26.285"	"26.608"	"20.874"	"19.535"
"1976"	"20.697"	"23.436"	"27.855"	"31.612"	"33.74"	"29.842"	"27.699"	"26.218"	"26.42"	"27.349"	"25.651"	"22.126"
"1977"	"20.42"	"23.971"	"29.865"	"31.856"	"33.159"	"31.303"	"27.695"	"26.239"	"26.226"	"27.157"	"24.67"	"20.679"
"1978"	"19.951"	"22.614"	"26.396"	"31.96"	"35.068"	"30.533"	"26.717"	"25.863"	"27.476"	"27.028"	"24.93"	"20.291"
"1979"	"22.455"	"21.921"	"26.604"	"32.039"	"33.156"	"32.49"	"27.935"	"26.172"	"28.318"	"27.995"	"25.149"	"21.391"
"1980"	"21.814"	"23.791"	"28.094"	"33.339"	"34.808"	"29.455"	"27.39"	"26.243"	"27.882"	"27.988"	"25.021"	"20.584"
"1981"	"19.464"	"24.208"	"27.207"	"32.097"	"34.075"	"32.447"	"26.936"	"26.177"	"27.429"	"26.845"	"22.058"	"20.305"
"1982"	"21.862"	"22.246"	"26.329"	"31.115"	"32.83"	"32.323"	"28.766"	"26.569"	"27.478"	"27.602"	"23.915"	"22.65"
"1983"	"20.914"	"22.292"	"27.351"	"30.459"	"34.447"	"32.701"	"28.674"	"27.289"	"27.016"	"25.4"	"21.373"	"19.921"
"1984"	"20.744"	"21.327"	"28.646"	"32.457"	"34.987"	"31.08"	"27.962"	"25.623"	"26.474"	"26.636"	"22.675"	"21.597"
"1985"	"21.901"	"23.072"	"29.608"	"31.854"	"34.624"	"31.361"	"28.132"	"26.315"	"27.909"	"25.18"	"22.994"	"22.153"
"1986"	"21.606"	"23.479"	"28.333"	"32.449"	"34.125"	"31.242"	"27.013"	"25.95"	"28.349"	"27.501"	"23.466"	"20.765"
"1987"	"21.791"	"24.206"	"28.233"	"32.402"	"33.25"	"32.382"	"29.152"	"27.654"	"28.504"	"27.442"	"24.408"	"20.952"
"1988"	"22.679"	"25.008"	"28.072"	"32.894"	"35.289"	"31.774"	"27.556"	"27.41"	"28.047"	"25.964"	"23.146"	"20.809"
"1989"	"20.624"	"23.175"	"26.848"	"31.372"	"34.615"	"30.378"	"27.784"	"25.789"	"27.216"	"26.791"	"24.717"	"20.655"
"1990"	"22.617"	"23.292"	"26.185"	"32.2"	"32.682"	"29.466"	"26.742"	"26.806"	"26.732"	"26.565"	"23.77"	"21.317"
"1991"	"20.101"	"24.237"	"28.179"	"31.426"	"34.942"	"31.275"	"27.774"	"26.464"	"27.528"	"27.106"	"23.611"	"20.731"
"1992"	"21.56"	"22.327"	"28.577"	"31.799"	"34.085"	"33.18"	"29.143"	"26.467"	"26.469"	"26.638"	"23.06"	"20.857"
"1993"	"21.861"	"23.001"	"26.639"	"31.83"	"35.149"	"33.051"	"27.699"	"26.872"	"26.872"	"27.285"	"23.688"	"20.435"
"1994"	"21.781"	"22.506"	"28.249"	"30.753"	"35.049"	"30.101"	"26.453"	"25.863"	"26.311"	"26.991"	"23.224"	"20.578"
"1995"	"18.891"	"23.053"	"26.816"	"31.699"	"34.149"	"34.071"	"28.414"	"27.511"	"27.855"	"27.721"	"23.95"	"22.691"
"1996"	"22.647"	"24.494"	"29.638"	"32.427"	"34.695"	"32.246"	"28.807"	"26.726"	"27.32"	"26.08"	"23.284"	"20.732"
"1997"	"19.978"	"22.173"	"28.183"	"30.08"	"32.915"	"30.287"	"27.442"	"26.894"	"26.97"	"26.48"	"25.499"	"21.352"
"1998"	"21.054"	"23.055"	"27.534"	"33.092"	"35.817"	"33.33"	"28.252"	"27.796"	"27.529"	"27.896"	"24.112"	"21.104"
"1999"	"20.673"	"24.292"	"28.611"	"33.332"	"34.108"	"30.332"	"27.772"	"26.694"	"26.773"	"26.466"	"23.32"	"20.361"
"2000"	"21.693"	"22.259"	"27.395"	"33.972"	"32.815"	"30.591"	"26.787"	"27.825"	"27.686"	"28.365"	"25.285"	"21.833"
"2001"	"21.211"	"24.739"	"28.316"	"31.345"	"33.977"	"29.581"	"26.896"	"26.692"	"28.451"	"27.073"	"23.985"	"22.775"
"2002"	"20.541"	"24.426"	"28.432"	"32.93"	"34.791"	"30.826"	"28.454"	"25.578"	"26.488"	"27.426"	"24.017"	"22.738"
