
"Year"	"Jan"	"Feb"	"Mar"	"Apr"	"May"	"Jun"	"Jul"	"Aug"	"Sep"	"Oct"	"Nov"	"Dec"
"1901"	"20.6"	"5.475"	"18.244"	"188.208"	"191.368"	"472.347"	"416.894"	"420.541"	"279.195"	"202.084"	"107.082"	"0.726"
"1902"	"0.242"	"0.011"	"114.366"	"291"	"368.53"	"585.258"	"538.633"	"465.556"	"365.904"	"44.41"	"0.273"	"0.143"
"1903"	"3.146"	"16.765"	"72.015"	"145.99"	"333.945"	"617.046"	"334.077"	"634.298"	"252.141"	"165.821"	"86.944"	"0"
"1904"	"0.444"	"30.8"	"30.098"	"295.516"	"639.405"	"704.275"	"524.091"	"451.962"	"158.851"	"100.739"	"39.221"	"1.037"
"1905"	"7.033"	"13.276"	"77.955"	"136.98"	"436.525"	"345.793"	"434.785"	"800.798"	"375.332"	"187.52"	"3.169"	"5.86"
"1906"	"9.597"	"49.435"	"49.679"	"143.053"	"254.159"	"413.113"	"598.122"	"486.89"	"312.267"	"231.534"	"25.734"	"0"
"1907"	"17.875"	"36.834"	"140.562"	"204.952"	"357.164"	"636.001"	"551.332"	"327.907"	"306.161"	"31.939"	"0.273"	"2.857"
"1908"	"5.421"	"11.975"	"7.262"	"106.839"	"507.151"	"549.478"	"387.434"	"348.557"	"285.011"	"39.782"	"1.397"	"0.246"
"1909"	"4.138"	"5.76"	"0.45"	"218.501"	"419.859"	"743.152"	"366.387"	"446.358"	"185.459"	"156.5"	"8.714"	"2.516"
"1910"	"2.547"	"19.337"	"70.115"	"192.8"	"336.2"	"553.12"	"675.637"	"435.658"	"136.413"	"161.737"	"31.849"	"0"
"1911"	"20.508"	"6.053"	"36.333"	"155.266"	"416.347"	"869.552"	"447.799"	"542.684"	"417.725"	"308.249"	"11.034"	"0"
"1912"	"1.414"	"33.162"	"73.576"	"254.231"	"369.601"	"629.573"	"532.959"	"537.166"	"147.448"	"174.251"	"44.417"	"7.678"
"1913"	"1.234"	"44.537"	"56.439"	"176.83"	"465.47"	"711.016"	"371.473"	"416.721"	"279.561"	"286.681"	"2.712"	"29.21"
"1914"	"0"	"34.672"	"15.165"	"179.357"	"379.381"	"491.28"	"591.424"	"616.427"	"230.642"	"39.763"	"2.353"	"3.449"
"1915"	"2.53"	"30.589"	"89.43"	"117.222"	"752.437"	"638.902"	"619.472"	"518.139"	"210.773"	"71.326"	"10.29"	"0"
"1916"	"1.336"	"7.821"	"34.316"	"169.145"	"266.181"	"519.153"	"410.719"	"476.968"	"274.064"	"431.26"	"85.075"	"0"
"1917"	"0.292"	"36.678"	"25.401"	"127.554"	"257.576"	"567.639"	"752.411"	"421.088"	"384.06"	"307.123"	"104.843"	"0"
"1918"	"0.583"	"7.087"	"36.078"	"104.406"	"492.487"	"778.653"	"603.195"	"725.986"	"328.218"	"78.676"	"0.277"	"0.333"
"1919"	"9.358"	"6.829"	"11.295"	"110.276"	"270.079"	"539.632"	"495.05"	"355.155"	"409.188"	"216.82"	"38.463"	"0"
"1920"	"4.958"	"16.948"	"108.186"	"125.015"	"284.292"	"435.712"	"478.13"	"433.185"	"439.031"	"78.855"	"0.282"	"0"
"1921"	"22.006"	"8.765"	"64.633"	"250.777"	"372.207"	"584.005"	"726.731"	"553.453"	"215.388"	"92.055"	"1.515"	"0.001"
"1922"	"5.722"	"2.267"	"2.325"	"114.446"	"290.227"	"832.373"	"480.574"	"510.271"	"245.974"	"186.009"	"0.346"	"4.989"
"1923"	"0.051"	"39.287"	"7.063"	"148.029"	"331.735"	"711.149"	"359.028"	"395.74"	"191.632"	"58.077"	"2.81"	"0.769"
"1924"	"4.036"	"9.893"	"0.876"	"162.414"	"367.593"	"612.78"	"650.792"	"494.279"	"419.212"	"57.213"	"136.309"	"0"
"1925"	"12.077"	"8.941"	"17.841"	"229.211"	"705.995"	"433.888"	"637.759"	"296.834"	"317.907"	"64.985"	"5.072"	"0"
"1926"	"13.58"	"4.029"	"147.319"	"103.238"	"312.93"	"410.018"	"585.16"	"351.181"	"190.666"	"189.279"	"0.448"	"7.021"
"1927"	"21.991"	"45.699"	"65.455"	"137.641"	"239.534"	"616.666"	"498.159"	"491.548"	"449.537"	"139.352"	"30.666"	"0"
"1928"	"12.564"	"5.986"	"6.195"	"87.042"	"623.282"	"574.745"	"466.574"	"443.57"	"233.864"	"296.33"	"6.896"	"0.367"
"1929"	"14.319"	"0.647"	"69.465"	"195.43"	"577.037"	"585.136"	"453.306"	"447.253"	"187.907"	"218.154"	"5.513"	"4.057"
"1930"	"5.867"	"18.835"	"44.684"	"135.668"	"217.501"	"616.184"	"428.684"	"616.813"	"270.335"	"121.531"	"117.473"	"2.321"
"1931"	"2.831"	"21.026"	"53.136"	"199.047"	"498.229"	"548.349"	"847.613"	"407.689"	"355.984"	"102.923"	"7.358"	"1.85"
"1932"	"1.583"	"23.293"	"34.718"	"125.431"	"479.732"	"477.332"	"462.602"	"448.368"	"289.215"	"98.119"	"111.136"	"3.63"
"1933"	"12.307"	"10.505"	"0.951"	"180.959"	"439.247"	"437.412"	"490.526"	"462.82"	"145.89"	"212.963"	"0.345"	"0"
"1934"	"13.591"	"41.43"	"1.227"	"189.409"	"588.104"	"865.833"	"594.084"	"394.566"	"263.113"	"358.398"	"14.846"	"1.37"
"1935"	"3.116"	"20.975"	"46.557"	"39.057"	"510.225"	"680.987"	"321.753"	"703.23"	"333.11"	"6.205"	"1"	"0.184"
"1936"	"5.641"	"31.252"	"27.557"	"86.691"	"547.767"	"488.332"	"477.591"	"408.642"	"423.721"	"209.599"	"2.204"	"10.586"
"1937"	"0"	"22.239"	"16.444"	"127.763"	"530.8"	"509.198"	"406.359"	"701.336"	"360.768"	"124.404"	"1.331"	"0.552"
"1938"	"8.594"	"9.297"	"89.072"	"132.471"	"493.02"	"623.218"	"549.395"	"571.913"	"421.806"	"110.183"	"31.711"	"0"
"1939"	"1.356"	"8.803"	"2.723"	"75.188"	"356.632"	"590.017"	"630.131"	"279.395"	"440.686"	"224.2"	"0.366"	"0.006"
"1940"	"0.275"	"31.748"	"63.576"	"48.041"	"453.286"	"580.824"	"442.78"	"406.672"	"450.847"	"92.714"	"3.233"	"1.843"
"1941"	"5.73"	"14.154"	"27.446"	"199.206"	"549.91"	"740.448"	"415.351"	"380.44"	"350.274"	"220.315"	"6.317"	"0.762"
"1942"	"5.838"	"23.67"	"77.412"	"124.381"	"274.34"	"527.378"	"391.722"	"595.528"	"595.502"	"37.132"	"5.695"	"0.21"
"1943"	"15.6"	"13.048"	"114.457"	"286.157"	"445.507"	"463.357"	"660.888"	"396.925"	"473.005"	"59.454"	"1.789"	"0.538"
"1944"	"23.622"	"12.172"	"48.272"	"82.381"	"496.168"	"346.302"	"368.692"	"392.857"	"298.809"	"65.97"	"0.929"	"0"
"1945"	"28.545"	"15.674"	"33.677"	"174.351"	"348.216"	"571.98"	"494.252"	"536.328"	"236.337"	"218.828"	"0.273"	"0.367"
"1946"	"0"	"11.805"	"59.446"	"122.524"	"422.992"	"529.413"	"484.793"	"346.504"	"337.521"	"505.769"	"13.63"	"0"
"1947"	"0.019"	"1.682"	"64.523"	"155.697"	"439.74"	"573.343"	"712.451"	"385.942"	"433.393"	"148.867"	"0.729"	"4.379"
"1948"	"1.774"	"4.532"	"23.247"	"224.395"	"794.366"	"377.276"	"405.06"	"461.498"	"257.343"	"349.317"	"50.095"	"0"
"1949"	"7.486"	"5.936"	"26.06"	"267.933"	"570.614"	"647.787"	"366.019"	"605.365"	"652.475"	"124.738"	"2.701"	"0"
"1950"	"0.069"	"18.943"	"52.32"	"21.364"	"227.793"	"676.536"	"396.126"	"574.568"	"96.651"	"229.035"	"35.62"	"0"
"1951"	"4.016"	"0.011"	"23.708"	"112.745"	"283.96"	"611.403"	"544.11"	"346.727"	"158.418"	"275.212"	"33.619"	"0.084"
"1952"	"0.096"	"4.432"	"82.043"	"292.046"	"500.192"	"450.085"	"460.037"	"521.338"	"480.088"	"344.468"	"66.218"	"0"
"1953"	"18.701"	"9.067"	"126.497"	"94.761"	"312.273"	"460.566"	"595.932"	"285.529"	"478.554"	"63.412"	"1.657"	"6.654"
"1954"	"14.571"	"18.321"	"2.374"	"83.801"	"606.322"	"968.942"	"682.428"	"431.354"	"199.495"	"115.398"	"0.273"	"5.29"
"1955"	"12.29"	"5.418"	"53.573"	"156.038"	"286.919"	"657.302"	"810.818"	"530.419"	"251.884"	"91.06"	"44.142"	"2.567"
"1956"	"12.118"	"1.075"	"48.93"	"88.352"	"658.094"	"1108.497"	"469.226"	"564.092"	"179.78"	"294.822"	"37.568"	"1.064"
"1957"	"27.306"	"6.96"	"5.819"	"79.736"	"476.743"	"501.318"	"502.383"	"416.298"	"133.539"	"46.818"	"1.268"	"4.348"
"1958"	"7.965"	"19.586"	"11.81"	"140.165"	"525.243"	"267.684"	"461.088"	"818.041"	"325.874"	"94.569"	"6.24"	"3.13"
"1959"	"28.009"	"4.103"	"48.702"	"182.595"	"610.866"	"735.272"	"370.955"	"360.822"	"178.86"	"323.174"	"1.034"	"0"
"1960"	"0"	"0.013"	"51.425"	"33.521"	"469.782"	"422.538"	"614.287"	"345.102"	"415.267"	"93.782"	"6.357"	"0.838"
"1961"	"1.157"	"16.937"	"45.333"	"104.821"	"317.782"	"640.909"	"443.494"	"401.401"	"252.873"	"248.033"	"7.688"	"1.864"
"1962"	"13.989"	"10.648"	"8.445"	"51.03"	"414.878"	"578.057"	"273.552"	"525.683"	"74.929"	"94.853"	"0.273"	"0.299"
"1963"	"0.255"	"0.624"	"67.421"	"134.575"	"358.442"	"613.131"	"614.684"	"447.648"	"306.932"	"103.709"	"13.391"	"1.172"
"1964"	"3.681"	"11.671"	"43.977"	"206.005"	"390.647"	"741.808"	"615.256"	"274.605"	"197.09"	"241.046"	"8.821"	"0"
"1965"	"0"	"21.674"	"61.857"	"150.955"	"469.591"	"496.144"	"447.362"	"576.016"	"216.232"	"47.055"	"42.757"	"0.389"
"1966"	"10.821"	"1.166"	"9.999"	"67.247"	"303.148"	"686.229"	"372.821"	"513.892"	"156.667"	"64.589"	"55.718"	"2.88"
"1967"	"4.775"	"4.599"	"136.554"	"217.245"	"250.993"	"317.442"	"498.317"	"273.905"	"364.269"	"107.244"	"9.526"	"0.183"
"1968"	"8.375"	"5.048"	"32.676"	"151.339"	"511.23"	"702.233"	"632.853"	"356.34"	"171.033"	"230.778"	"5.829"	"0.206"
"1969"	"16.226"	"0.528"	"63.136"	"134.612"	"266.925"	"603.867"	"627.692"	"544.137"	"252.99"	"72.711"	"61.189"	"0.149"
"1970"	"24.926"	"11.356"	"52.424"	"139.146"	"415.815"	"735.297"	"734.16"	"530.244"	"316.756"	"247.909"	"22.091"	"0"
"1971"	"12.356"	"3.059"	"19.437"	"76.64"	"215.999"	"363.493"	"417.862"	"540.572"	"269.218"	"235.556"	"118.203"	"1.058"
"1972"	"3.739"	"34.16"	"76.156"	"145.111"	"264.088"	"498.53"	"413.716"	"255.458"	"187.617"	"101.787"	"6.531"	"0"
"1973"	"7.496"	"27.406"	"13.486"	"172.918"	"513.798"	"776.658"	"364.365"	"194.111"	"438.849"	"181.795"	"80.296"	"16.626"
"1974"	"3.233"	"0.011"	"43.941"	"346.471"	"368.229"	"646.74"	"1361.888"	"653.141"	"1000.395"	"497.437"	"3.347"	"1.226"
"1975"	"2.935"	"6.044"	"7.128"	"255.578"	"516.34"	"310.437"	"653.695"	"264.739"	"300.624"	"243.564"	"5.539"	"0.183"
"1976"	"1.199"	"8.402"	"75.423"	"189.229"	"230.595"	"623.883"	"463.596"	"523.523"	"142.917"	"82.228"	"6.08"	"0"
"1977"	"2.953"	"8.156"	"64.182"	"351.631"	"512.891"	"649.67"	"578.194"	"532.312"	"122.101"	"271.259"	"20.847"	"7.111"
"1978"	"0.005"	"2.757"	"15.352"	"166.56"	"379.165"	"536.602"	"519.304"	"260.59"	"364.907"	"76.236"	"25.215"	"0"
"1979"	"0.853"	"10.743"	"13.175"	"75.732"	"370.02"	"371.335"	"744.448"	"405.517"	"320.779"	"297.303"	"9.909"	"27.859"
"1980"	"1.612"	"19.853"	"31.126"	"71.596"	"330.313"	"415.717"	"287.475"	"478.156"	"186.996"	"81.974"	"0.273"	"0"
"1981"	"21.648"	"10.606"	"34.101"	"150.581"	"434.558"	"113.658"	"243.107"	"375.349"	"253.761"	"4.737"	"0.282"	"29.611"
"1982"	"0"	"8.18"	"15.108"	"208.456"	"219.987"	"693.672"	"514.279"	"500.454"	"400.039"	"73.562"	"22.894"	"0.769"
"1983"	"6.141"	"18.57"	"58.52"	"120.395"	"350.837"	"393.76"	"618.053"	"478.781"	"390.725"	"273.22"	"0.273"	"15.305"
"1984"	"19.715"	"2.512"	"25.792"	"212.319"	"927.326"	"921.316"	"919.025"	"365.699"	"664.233"	"165.753"	"8.289"	"10.13"
"1985"	"1.274"	"27.989"	"103.967"	"326.228"	"399.901"	"627.092"	"801.463"	"369.838"	"350.525"	"80.516"	"1.265"	"12.905"
"1986"	"2.53"	"0.723"	"6.81"	"259.093"	"211.668"	"410.577"	"456.935"	"376.91"	"404.454"	"298.362"	"64.55"	"15.554"
"1987"	"4.979"	"16.373"	"108.113"	"205.487"	"221.52"	"429.324"	"1100.004"	"508.533"	"438.31"	"196.549"	"15.334"	"1.514"
"1988"	"3.893"	"32.588"	"54.046"	"218.46"	"618.522"	"516.8"	"618.944"	"881.182"	"432.335"	"154.276"	"107.762"	"12.171"
"1989"	"8.289"	"40.23"	"5.793"	"170.51"	"305.702"	"469.282"	"833.978"	"257.965"	"518.215"	"185.59"	"10.576"	"1.727"
"1990"	"3.997"	"39.709"	"89.018"	"317.812"	"303.675"	"412.161"	"604.003"	"281.832"	"437.565"	"327.439"	"4.881"	"0.282"
"1991"	"22.842"	"11.513"	"38.815"	"110.668"	"699.616"	"445.822"	"403.754"	"588.564"	"350.046"	"470.638"	"2.786"	"18.453"
"1992"	"7.503"	"13.578"	"16.889"	"104.613"	"463.344"	"535.867"	"645.453"	"563"	"301.564"	"94.45"	"6.657"	"8.581"
"1993"	"34.837"	"32.51"	"84.097"	"152.146"	"531.021"	"849.772"	"624.859"	"634.572"	"428.871"	"86.881"	"7.798"	"0"
"1994"	"14.351"	"24.568"	"95.756"	"192.842"	"339.075"	"564.114"	"400.696"	"543.382"	"163.435"	"55.012"	"18.265"	"0.109"
"1995"	"19.387"	"21.132"	"7.827"	"111.456"	"278.412"	"677.771"	"507.132"	"250.896"	"329.162"	"16.093"	"121.253"	"2.574"
"1996"	"6.102"	"18.682"	"29.593"	"191.236"	"635.903"	"338.242"	"664.649"	"468.361"	"200.405"	"125.113"	"0.273"	"0"
"1997"	"11.851"	"13.374"	"24.579"	"209.533"	"375.839"	"322.675"	"445.414"	"383.059"	"413.323"	"35.617"	"8.997"	"19.804"
"1998"	"4.273"	"33.903"	"74.311"	"164.499"	"279.972"	"326.948"	"428.536"	"460.992"	"356.301"	"390.357"	"25.962"	"0"
"1999"	"0.518"	"0.41"	"9.133"	"22.598"	"545.364"	"498.484"	"555.244"	"664.387"	"396.302"	"218.659"	"44.931"	"0.605"
"2000"	"12.552"	"16.774"	"31.646"	"91.249"	"646.321"	"587.055"	"330.703"	"588.789"	"268.915"	"83.473"	"7.037"	"2.002"
"2001"	"1.189"	"9.739"	"33.69"	"156.887"	"541.982"	"586.305"	"384.968"	"334.079"	"305.032"	"199.92"	"19.698"	"0"
"2002"	"10.865"	"1.826"	"61.184"	"286.171"	"352.275"	"645.127"	"470.03"	"375.572"	"222.556"	"80.727"	"42.015"	"0"
