
"Year"	"Jan"	"Feb"	"Mar"	"Apr"	"May"	"Jun"	"Jul"	"Aug"	"Sep"	"Oct"	"Nov"	"Dec"
"1901"	"29.6"	"3.711"	"12.941"	"54.162"	"91.568"	"500.353"	"381.504"	"446.026"	"302.161"	"80.268"	"29.181"	"6.432"
"1902"	"1.306"	"0.9"	"55.784"	"123.547"	"160.244"	"433.41"	"594.874"	"407.134"	"522.208"	"60.581"	"1.806"	"1.216"
"1903"	"6.211"	"18.26"	"32.424"	"77.643"	"215.593"	"720.435"	"323.266"	"486.751"	"382.161"	"140.711"	"3.689"	"1.216"
"1904"	"1.205"	"20.211"	"32.092"	"98.643"	"501.276"	"435.036"	"569.162"	"423.242"	"286.022"	"79.02"	"12.076"	"1.316"
"1905"	"7.884"	"16.897"	"44.313"	"83.997"	"223.146"	"213.234"	"650.011"	"664.254"	"389.62"	"63.863"	"4.079"	"7.637"
"1906"	"6.5"	"40.308"	"34.162"	"38.841"	"166.506"	"369.429"	"706.974"	"382.158"	"283.737"	"195.222"	"4.284"	"1.216"
"1907"	"16.608"	"30.411"	"60.016"	"101.806"	"159.758"	"579.059"	"509.208"	"364.485"	"422.836"	"58.252"	"1.205"	"4.727"
"1908"	"5.516"	"24.64"	"13.1"	"42.871"	"201.65"	"357.475"	"488.163"	"412.269"	"264.996"	"58.124"	"3.984"	"1.532"
"1909"	"2.311"	"5.511"	"0.295"	"135.917"	"168.388"	"604.654"	"647.531"	"324.533"	"352.619"	"93.488"	"2.2"	"3.36"
"1910"	"4.689"	"7.646"	"38.717"	"114.749"	"157.269"	"516.753"	"686.507"	"400.646"	"245.089"	"118.239"	"8.533"	"0.811"
"1911"	"21.035"	"3.59"	"28.021"	"64.246"	"196.241"	"607.867"	"538.269"	"440.237"	"432.139"	"156.649"	"18.641"	"0.811"
"1912"	"1.822"	"26.622"	"21.905"	"147.931"	"199.755"	"500.259"	"638.683"	"469.373"	"173.117"	"49.714"	"15.675"	"1.611"
"1913"	"1.005"	"46"	"47.762"	"46.841"	"228.247"	"763.72"	"462.818"	"448.009"	"360.75"	"110.615"	"1.606"	"38.295"
"1914"	"0.7"	"32.962"	"18.654"	"78.25"	"233.103"	"309.37"	"578.329"	"506.164"	"295.131"	"53.597"	"6.162"	"1.716"
"1915"	"1.306"	"51.281"	"34.078"	"98.922"	"306.98"	"604.441"	"628.637"	"460.199"	"315.33"	"64.946"	"7.686"	"1.216"
"1916"	"1.705"	"13.443"	"15.654"	"68.493"	"114.006"	"366.102"	"552.363"	"440.804"	"398.757"	"272.412"	"6.073"	"0.611"
"1917"	"1.111"	"26.708"	"15.152"	"71.376"	"213.192"	"492.456"	"833.034"	"395.099"	"561.167"	"266.69"	"10.946"	"0.811"
"1918"	"0.905"	"11.313"	"18.497"	"90.011"	"234.509"	"493.205"	"713.408"	"657.922"	"392.658"	"68.52"	"2.4"	"0.811"
"1919"	"14.092"	"5.268"	"6.216"	"51.203"	"227.701"	"351.535"	"589.343"	"496.468"	"416.87"	"125.916"	"6.668"	"0.611"
"1920"	"7.651"	"28.113"	"50.522"	"67.858"	"161.228"	"362.935"	"499.137"	"371.155"	"504.66"	"78.125"	"1.205"	"0.611"
"1921"	"22.057"	"11.714"	"20.741"	"98.801"	"168.003"	"433.507"	"736.704"	"520.78"	"330.124"	"79.171"	"4.678"	"1.617"
"1922"	"8.238"	"10.054"	"3.394"	"27.654"	"108.663"	"787.217"	"733.82"	"512.316"	"418.712"	"66.752"	"2.4"	"17.406"
"1923"	"1.306"	"46.824"	"6.295"	"43.082"	"145.666"	"460.184"	"386.02"	"462.943"	"249.752"	"108.952"	"4.784"	"6.938"
"1924"	"3.389"	"10.741"	"6.2"	"78.97"	"181.685"	"443.853"	"654.594"	"507.372"	"434.051"	"92.611"	"45.903"	"0.611"
"1925"	"4.438"	"2.889"	"14.662"	"171.101"	"283.189"	"261.285"	"634.289"	"371.87"	"399.625"	"79.189"	"3.937"	"1.216"
"1926"	"11.948"	"3.289"	"76.53"	"62.63"	"322.967"	"214.15"	"754.817"	"402.509"	"296.276"	"98.549"	"1.205"	"7.292"
"1927"	"22.189"	"44.505"	"49.225"	"48.738"	"164.243"	"359.394"	"528.264"	"665.529"	"272.499"	"77.817"	"30.313"	"1.216"
"1928"	"12.475"	"12.432"	"8.083"	"52.955"	"280.039"	"374.518"	"584.797"	"467.168"	"280.562"	"154.418"	"6.268"	"2.36"
"1929"	"13.284"	"2.3"	"21.779"	"79.071"	"263.121"	"594.105"	"557.063"	"471.381"	"186.217"	"299.744"	"3.09"	"7.229"
"1930"	"8.654"	"18.598"	"22.922"	"84.241"	"158.225"	"420.981"	"445.488"	"509.795"	"331.697"	"92.147"	"24.157"	"11.103"
"1931"	"1.606"	"14.875"	"31.186"	"38.666"	"194.031"	"308.518"	"1035.067"	"454.046"	"531.797"	"87.411"	"4.443"	"8.354"
"1932"	"1.306"	"15.83"	"15.065"	"76.727"	"208.52"	"481.21"	"348.905"	"392.795"	"388.114"	"79"	"44.348"	"18.97"
"1933"	"14.665"	"17.405"	"6.905"	"94.062"	"219.757"	"288.344"	"906.343"	"602.837"	"263.387"	"179.105"	"1.2"	"0.811"
"1934"	"15.992"	"39.822"	"3.8"	"91.057"	"258.593"	"654.071"	"731.445"	"418.874"	"377.163"	"146.396"	"12.84"	"1.216"
"1935"	"0.711"	"23.63"	"4.476"	"19.53"	"226.009"	"311.693"	"540.507"	"705.314"	"358.221"	"52.313"	"0"	"0.7"
"1936"	"2.1"	"18.124"	"25.767"	"83.833"	"297.649"	"410.631"	"878.42"	"447.688"	"633.526"	"122.25"	"0"	"19.411"
"1937"	"0"	"42.554"	"6.062"	"111.736"	"127.55"	"238.477"	"382.643"	"657.279"	"509.205"	"156.079"	"1.779"	"0"
"1938"	"5.033"	"58.009"	"34.19"	"73.678"	"246.996"	"847.515"	"876.83"	"480.959"	"279.849"	"74.876"	"8.551"	"0.811"
"1939"	"1.606"	"25.562"	"13.049"	"45.167"	"190.596"	"458.78"	"615.558"	"299.984"	"507.033"	"156.814"	"0.905"	"1.216"
"1940"	"0.2"	"47.543"	"32.062"	"37.402"	"192.806"	"496.154"	"781.912"	"432.218"	"416.121"	"74.905"	"4.478"	"11.546"
"1941"	"3.721"	"9.689"	"20.335"	"31.46"	"240.188"	"472.673"	"383.271"	"429.93"	"386.206"	"109.909"	"8.489"	"1.495"
"1942"	"11.463"	"21.443"	"30.916"	"85.832"	"101.877"	"479.461"	"404.623"	"624.664"	"654.462"	"20.944"	"0"	"0.927"
"1943"	"16.443"	"11.643"	"45.53"	"162.576"	"189.125"	"408.526"	"561.124"	"381.55"	"373.155"	"44.89"	"2.068"	"1.1"
"1944"	"17.273"	"8.67"	"60.359"	"81.092"	"84.05"	"500.453"	"291.855"	"465.807"	"330.463"	"71.878"	"0.495"	"0"
"1945"	"40.552"	"19.254"	"12.97"	"28.158"	"190.688"	"409.589"	"563.324"	"381.376"	"552.857"	"286.293"	"1.205"	"1.849"
"1946"	"0"	"24.449"	"65.057"	"73.43"	"213.29"	"312.94"	"707.585"	"329.367"	"346.221"	"255.285"	"18.429"	"0"
"1947"	"8.218"	"4.638"	"21.697"	"44.298"	"214.961"	"297.139"	"930.311"	"361.28"	"472.863"	"55.421"	"0"	"2.389"
"1948"	"2.022"	"8.243"	"16.97"	"102.557"	"386.535"	"263.353"	"709.239"	"422.068"	"564.892"	"178.426"	"14.641"	"0"
"1949"	"9.684"	"32.535"	"16.206"	"78.26"	"297.99"	"658.547"	"564.898"	"614.626"	"393.134"	"101.871"	"2.9"	"1.216"
"1950"	"2.117"	"11.394"	"58.808"	"42.097"	"86.898"	"598.719"	"511.597"	"458.272"	"275.538"	"130.528"	"10.246"	"0.811"
"1951"	"2.106"	"14.089"	"74.352"	"29.316"	"107.219"	"454.316"	"878.278"	"555.494"	"276.006"	"148.699"	"42.054"	"0"
"1952"	"1.306"	"23.616"	"28.227"	"129.946"	"114.471"	"863.961"	"551.886"	"545.092"	"504.699"	"96.964"	"15.094"	"0"
"1953"	"26.962"	"1.689"	"17.427"	"31.954"	"113.715"	"546.71"	"753.639"	"311.23"	"402.101"	"10.384"	"0"	"5.078"
"1954"	"23.341"	"4.57"	"9.627"	"31.967"	"255.02"	"556.791"	"740.968"	"358.588"	"437.45"	"92.278"	"0"	"13.83"
"1955"	"10.114"	"7.786"	"10.236"	"99.59"	"107.906"	"559.098"	"1133.676"	"597.613"	"299.144"	"57.54"	"2.173"	"2.181"
"1956"	"10.333"	"2.146"	"42.341"	"116.839"	"290.312"	"451.895"	"480.616"	"326.532"	"377.606"	"122.073"	"20.446"	"5.049"
"1957"	"49.554"	"2.784"	"16.787"	"30.125"	"167.14"	"199.788"	"546.536"	"302.187"	"195.992"	"43.005"	"4.573"	"7.132"
"1958"	"25.911"	"3.173"	"32.265"	"100.803"	"169.334"	"246.231"	"502.4"	"679.966"	"281.96"	"50.008"	"2.779"	"0"
"1959"	"27.562"	"0.389"	"5.802"	"50.998"	"197.773"	"274.101"	"659.342"	"425.871"	"615.59"	"219.987"	"0.284"	"0"
"1960"	"0.473"	"1.808"	"33.765"	"16.757"	"123.967"	"218.421"	"649.374"	"384.77"	"589.238"	"36.246"	"0"	"0"
"1961"	"0.773"	"33.994"	"8.214"	"43.549"	"94.706"	"357.212"	"488.7"	"300.451"	"353.522"	"116.605"	"12.952"	"2.349"
"1962"	"18.267"	"20.618"	"17.752"	"108.703"	"154.604"	"454.432"	"484.771"	"583.569"	"447.583"	"25.616"	"0"	"0.584"
"1963"	"1.041"	"0.579"	"95.829"	"63.382"	"253.093"	"319.867"	"593.453"	"361.199"	"342.148"	"129.712"	"8.257"	"0"
"1964"	"1.932"	"4.268"	"7.881"	"49.595"	"122.778"	"350.684"	"742.621"	"381.929"	"226.37"	"62.995"	"1.797"	"0"
"1965"	"0"	"17.641"	"17.035"	"104.625"	"130"	"201.665"	"514.833"	"532.792"	"157.332"	"24.254"	"28.128"	"1.516"
"1966"	"34.359"	"9.033"	"7.489"	"31.665"	"88.855"	"456.768"	"401.051"	"478.872"	"275.557"	"17.2"	"12.125"	"2.219"
"1967"	"0.522"	"1.903"	"64.676"	"141.489"	"46.939"	"246.418"	"539.518"	"357.173"	"399.713"	"85.096"	"5.975"	"0"
"1968"	"20.489"	"1.878"	"13.297"	"48.914"	"118.351"	"488.832"	"682.171"	"359.378"	"226.3"	"463.648"	"0.883"	"3.941"
"1969"	"9.635"	"0.511"	"30.862"	"61.563"	"191.629"	"268.588"	"540.178"	"504.383"	"354.077"	"49.219"	"20.875"	"0"
"1970"	"3.111"	"47.184"	"27.333"	"56.198"	"127.263"	"531.723"	"491.348"	"486.153"	"306.704"	"32.108"	"0.189"	"0"
"1971"	"2.649"	"7.581"	"36.21"	"104.803"	"163.41"	"541.804"	"653.582"	"429.519"	"384.774"	"214.302"	"21.125"	"0"
"1972"	"6.421"	"13.184"	"37.562"	"106.956"	"207.617"	"241.924"	"557.478"	"308.386"	"565.083"	"62.232"	"30.981"	"0"
"1973"	"9.316"	"25.046"	"16.435"	"67.301"	"220.275"	"633.676"	"634.91"	"449.724"	"353.759"	"483.857"	"27.808"	"0"
"1974"	"9.565"	"0.2"	"14.533"	"72.092"	"253.671"	"363.003"	"850.501"	"359.288"	"363.171"	"43.146"	"0.016"	"3.033"
"1975"	"8.965"	"8.47"	"7.736"	"70.414"	"139.36"	"497.919"	"775.84"	"249.866"	"627.865"	"74.826"	"0"	"0.189"
"1976"	"10.245"	"21.932"	"12.327"	"93.519"	"268.623"	"469.954"	"470.502"	"483.356"	"285.903"	"96.836"	"1.022"	"0.333"
"1977"	"2.437"	"5.587"	"28.149"	"119.946"	"309.201"	"272.996"	"576.945"	"435.595"	"236.234"	"180.754"	"31.471"	"20.383"
"1978"	"15.038"	"11.179"	"54.138"	"142.009"	"340.497"	"532.443"	"665.248"	"462.177"	"389.783"	"84.43"	"49.69"	"0.189"
"1979"	"3.356"	"22.354"	"2.789"	"86.183"	"125.587"	"369.692"	"652.255"	"525.985"	"366.227"	"135.97"	"28.919"	"45.494"
"1980"	"0.816"	"14.062"	"36.235"	"78.661"	"241.307"	"440.061"	"638.861"	"354.914"	"447.896"	"66.422"	"0"	"1.273"
"1981"	"34.468"	"8.722"	"30.943"	"103.846"	"306.493"	"406.78"	"751.751"	"454.621"	"418.301"	"5.403"	"10.481"	"9.606"
"1982"	"0.743"	"16.965"	"29.352"	"68.132"	"122.111"	"406.134"	"428.284"	"337.854"	"292.715"	"93.062"	"19.154"	"2.957"
"1983"	"8.049"	"23.038"	"24.265"	"63.368"	"263.979"	"267.332"	"647.531"	"287.507"	"371.641"	"51.846"	"0"	"23.098"
"1984"	"17.908"	"16.511"	"16.524"	"104.103"	"269.269"	"675.551"	"716.17"	"459.017"	"428.232"	"60.952"	"1.268"	"3.103"
"1985"	"2.292"	"12.413"	"8.519"	"58.42"	"193.998"	"330.522"	"802.379"	"429.207"	"377.174"	"310.211"	"9.816"	"30.095"
"1986"	"0"	"7.338"	"8.941"	"138.285"	"133.422"	"400.151"	"556.339"	"300.024"	"358.006"	"111.5"	"4.043"	"39.414"
"1987"	"7.097"	"16.152"	"48.64"	"142.084"	"143.396"	"352.986"	"577.76"	"589.334"	"453.817"	"346.216"	"0.427"	"4.473"
"1988"	"1.295"	"13.349"	"21.476"	"75.895"	"259.035"	"364.355"	"814.593"	"552.117"	"320.096"	"37.583"	"12.865"	"44.205"
"1989"	"38.787"	"58.441"	"26.392"	"45.054"	"395.895"	"713.082"	"873.769"	"265.95"	"554.238"	"45.252"	"17.297"	"4.165"
"1990"	"0.316"	"40.059"	"26.857"	"81.322"	"267.628"	"476.69"	"625.302"	"347.111"	"470.75"	"119.473"	"0"	"0"
"1991"	"51.451"	"19.773"	"37.468"	"14.849"	"98.477"	"490.133"	"460.906"	"668.78"	"612.731"	"22.544"	"1.435"	"11.621"
"1992"	"5.54"	"6"	"21.608"	"105.748"	"295.24"	"206.396"	"751.331"	"558.188"	"327.888"	"13.47"	"0.694"	"2.022"
"1993"	"55.252"	"17.828"	"43.228"	"101.338"	"231.537"	"319.629"	"306.653"	"518.612"	"452.561"	"25.651"	"2.921"	"0"
"1994"	"60"	"21.902"	"32.895"	"126.585"	"113.473"	"401.014"	"399.174"	"575.757"	"235.158"	"35.673"	"46.211"	"1.705"
"1995"	"45.762"	"28.74"	"12.078"	"65.617"	"150.055"	"315.165"	"512.235"	"358.139"	"413.544"	"6.062"	"49.394"	"8.835"
"1996"	"10.475"	"18.792"	"7.908"	"92.241"	"201.839"	"258.872"	"435.516"	"455.172"	"335.337"	"107.038"	"0"	"0"
"1997"	"12.132"	"44.905"	"20.184"	"77.554"	"324.958"	"292.685"	"369.963"	"411.779"	"459.426"	"71.9"	"28.07"	"13.603"
"1998"	"0.4"	"25.238"	"31.03"	"115.838"	"293.714"	"289.352"	"558.129"	"548.516"	"372.377"	"279.172"	"14.873"	"0"
"1999"	"6.898"	"5.844"	"6.263"	"1.367"	"362.874"	"378.691"	"621.367"	"490.462"	"406.261"	"65.647"	"2.176"	"0"
"2000"	"7.554"	"8.462"	"52.7"	"39.021"	"207.331"	"456.01"	"344.728"	"478.257"	"449.982"	"5.541"	"0"	"0"
"2001"	"1.3"	"2.735"	"29.821"	"80.173"	"247.445"	"347.284"	"522.352"	"390.252"	"201.842"	"133.671"	"0.757"	"0"
"2002"	"8.722"	"8.438"	"8.322"	"101.177"	"211.15"	"317.654"	"590.738"	"443.144"	"466.12"	"133.076"	"13.583"	"0"
