
"Year"	"Jan"	"Feb"	"Mar"	"Apr"	"May"	"Jun"	"Jul"	"Aug"	"Sep"	"Oct"	"Nov"	"Dec"
"1901"	"12.85"	"14.749"	"22.164"	"26.915"	"31.787"	"36.192"	"33.515"	"33.317"	"31.923"	"28.672"	"21.022"	"15.878"
"1902"	"14.629"	"17.524"	"23.549"	"28.592"	"33.013"	"34.341"	"33.865"	"33.97"	"31.116"	"27.249"	"20.794"	"14.476"
"1903"	"13.553"	"15.947"	"19.996"	"25.995"	"31.493"	"36.892"	"34.125"	"32.743"	"32.12"	"27.923"	"20.076"	"14.553"
"1904"	"12.652"	"16.47"	"20.42"	"28.441"	"32.947"	"36.016"	"34.09"	"33.342"	"31.516"	"27.524"	"20.296"	"15.853"
"1905"	"11.856"	"11.498"	"18.169"	"25.812"	"34.188"	"36.292"	"34.468"	"34.371"	"32.176"	"27.504"	"21.446"	"15.157"
"1906"	"12.43"	"14.348"	"19.298"	"26.894"	"34.494"	"34.994"	"34.844"	"32.659"	"30.369"	"27.873"	"21.646"	"16.653"
"1907"	"15.569"	"14.169"	"18.616"	"25.333"	"30.911"	"34.188"	"34.969"	"31.996"	"32.624"	"27.926"	"21.098"	"14.577"
"1908"	"14.323"	"16.792"	"21.496"	"28.365"	"32.669"	"36.071"	"32.371"	"30.139"	"30.075"	"26.555"	"19.773"	"14.858"
"1909"	"12.578"	"14.896"	"21.321"	"26.39"	"32.104"	"34.333"	"31.689"	"31.741"	"29.624"	"26.977"	"21.72"	"14.276"
"1910"	"13.077"	"15.942"	"20.971"	"26.096"	"32.994"	"34.769"	"32.117"	"31.367"	"31.444"	"26.798"	"19.699"	"14.528"
"1911"	"14.554"	"16.52"	"19.219"	"26.918"	"33.319"	"34.841"	"35.445"	"34.246"	"31.892"	"27.946"	"17.797"	"14.5"
"1912"	"14.276"	"16.98"	"21.098"	"27.317"	"33.068"	"36.392"	"33.541"	"31.716"	"30.509"	"27.253"	"19.402"	"14.88"
"1913"	"14.676"	"15.594"	"18.819"	"28.717"	"31.162"	"32.884"	"31.768"	"32.218"	"31.168"	"27.401"	"19.846"	"14.602"
"1914"	"15.178"	"14.874"	"20.399"	"26.893"	"32.696"	"34.612"	"31.843"	"32.244"	"30.644"	"25.095"	"20.404"	"14.279"
"1915"	"13.553"	"14.57"	"21.991"	"28.069"	"35.523"	"35.587"	"35.67"	"33.745"	"32.438"	"27.623"	"20.407"	"15.088"
"1916"	"14.777"	"15.447"	"24.221"	"29.198"	"31.599"	"34.988"	"32.011"	"31.316"	"30.793"	"26.805"	"18.426"	"14.482"
"1917"	"13.877"	"17.296"	"21.621"	"24.616"	"28.589"	"33.967"	"32.388"	"30.793"	"28.794"	"25.327"	"17.972"	"15.101"
"1918"	"13.081"	"16.497"	"20.721"	"24.794"	"34.745"	"34.815"	"35.397"	"33.793"	"31.499"	"27.28"	"20.125"	"14.657"
"1919"	"13.653"	"15.219"	"21.923"	"26.894"	"31.794"	"37.797"	"33.389"	"31.619"	"30.973"	"26.879"	"19.4"	"14.107"
"1920"	"13.453"	"15.118"	"20.971"	"26.796"	"28.896"	"34.072"	"34.017"	"32.672"	"32.692"	"28.374"	"21.697"	"15.531"
"1921"	"14.405"	"17.096"	"24.895"	"31.644"	"35.175"	"36.272"	"34.548"	"32.071"	"31.397"	"26.349"	"20.394"	"16.778"
"1922"	"13.179"	"16.82"	"22.825"	"28.592"	"32.426"	"34.591"	"34.088"	"33.04"	"30.294"	"25.972"	"19.845"	"15.086"
"1923"	"13.277"	"14.994"	"21.946"	"28.522"	"31.222"	"36.447"	"32.591"	"30.867"	"31.194"	"26.199"	"19.551"	"14.882"
"1924"	"12.807"	"15.743"	"22.394"	"28.22"	"28.847"	"36.499"	"34.641"	"32.316"	"29.415"	"26.747"	"19.647"	"15.428"
"1925"	"12.102"	"13.821"	"22.77"	"30.515"	"32.595"	"33.064"	"31.441"	"31.963"	"31.867"	"27.17"	"18.544"	"14.528"
"1926"	"14.203"	"17.539"	"20.046"	"24.538"	"29.394"	"35.895"	"33.916"	"30.94"	"30.021"	"26.199"	"18.125"	"14.606"
"1927"	"12.655"	"13.868"	"20.496"	"26.419"	"30.892"	"34.571"	"32.318"	"31.637"	"30.77"	"27.047"	"20.423"	"16.03"
"1928"	"12.776"	"16.965"	"21.319"	"27.519"	"34.246"	"35.219"	"33.718"	"32.998"	"30.523"	"27.453"	"20.395"	"14.457"
"1929"	"13.381"	"14.902"	"23.774"	"28.868"	"33.251"	"35.092"	"32.35"	"31.394"	"31.726"	"26.502"	"20.269"	"13.553"
"1930"	"12.377"	"16.066"	"21.996"	"26.396"	"32.224"	"33.891"	"30.968"	"32.171"	"30.115"	"26.848"	"19.298"	"14.751"
"1931"	"14.256"	"13.125"	"20.616"	"28.884"	"32.291"	"34.845"	"32.291"	"32.534"	"30.616"	"26.946"	"20.216"	"15.677"
"1932"	"15.404"	"16.017"	"22.321"	"28.311"	"31.017"	"36.665"	"32.819"	"31.39"	"31.493"	"26.753"	"19.696"	"14.78"
"1933"	"11.394"	"16.688"	"21.036"	"25.507"	"30.959"	"35.639"	"32.912"	"29.998"	"29.315"	"26.223"	"20.243"	"16.25"
"1934"	"11.653"	"17.77"	"20.616"	"27.511"	"31.271"	"34.715"	"33.215"	"31.589"	"31.994"	"25.855"	"19.845"	"16.227"
"1935"	"11.982"	"16.22"	"21.62"	"24.03"	"32.346"	"35.605"	"32.77"	"31.486"	"31.015"	"26.252"	"20.741"	"14.976"
"1936"	"12.176"	"16.589"	"20.197"	"26.891"	"35.36"	"33.434"	"32.141"	"31.918"	"30.693"	"26.821"	"19.92"	"15.068"
"1937"	"12.682"	"15.998"	"19.993"	"26.309"	"32.559"	"35.716"	"32.162"	"33.738"	"31.169"	"25.717"	"20.036"	"13.672"
"1938"	"12.878"	"14.396"	"22.199"	"28.712"	"35.085"	"33.589"	"34.418"	"33.191"	"32.328"	"27.278"	"19.319"	"15.178"
"1939"	"14.383"	"15.823"	"18.525"	"25.516"	"33.492"	"34.415"	"33.018"	"33.314"	"32.393"	"28.158"	"20.345"	"16.299"
"1940"	"14.273"	"15.79"	"20.441"	"26.508"	"33.165"	"34.988"	"33.332"	"31.393"	"30.694"	"27.274"	"21.543"	"15.499"
"1941"	"13.571"	"17.413"	"23.846"	"30.658"	"34.286"	"33.413"	"33.145"	"32.666"	"30.555"	"29.448"	"21.194"	"16.602"
"1942"	"13.061"	"16.075"	"23.017"	"29.411"	"32.893"	"35.242"	"32.518"	"30.717"	"29.69"	"26.67"	"21.917"	"14.451"
"1943"	"13.054"	"16.192"	"22.095"	"26.813"	"32.097"	"34.768"	"32.541"	"31.892"	"31.774"	"27.051"	"21.12"	"16.978"
"1944"	"12.757"	"14.781"	"20.396"	"27.016"	"33.348"	"35.072"	"32.298"	"31.58"	"30.03"	"26.16"	"20.702"	"15.096"
"1945"	"11.655"	"15.425"	"22.263"	"25.732"	"31.006"	"33.884"	"32.358"	"31.596"	"30.79"	"26.549"	"20.549"	"14.596"
"1946"	"14.728"	"19.021"	"20.997"	"31.204"	"33.467"	"35.111"	"32.908"	"32.305"	"31.774"	"27.968"	"20.073"	"13.905"
"1947"	"13.08"	"16.599"	"22.968"	"30.216"	"34.293"	"37.798"	"34.893"	"33.271"	"29.837"	"26.294"	"22.112"	"15.573"
"1948"	"15.231"	"15.969"	"21.07"	"29.541"	"33.366"	"35.479"	"32.941"	"31.419"	"31.5"	"27.928"	"19.012"	"15.053"
"1949"	"15.505"	"15.952"	"22.379"	"30.145"	"35.6"	"34.777"	"32.119"	"32.915"	"32.9"	"26.555"	"19.043"	"14.915"
"1950"	"14.879"	"13.995"	"20.35"	"26.725"	"33.98"	"36.542"	"32.847"	"31.985"	"28.975"	"25.923"	"19.421"	"12.956"
"1951"	"13.274"	"15.895"	"22.536"	"25.818"	"32.281"	"35.171"	"34.302"	"32.494"	"32.377"	"29.473"	"21.821"	"16.156"
"1952"	"14.979"	"18.203"	"22.575"	"30.52"	"33.749"	"34.738"	"32.745"	"31.86"	"32.077"	"27.846"	"20.687"	"15.157"
"1953"	"13.503"	"18.673"	"25.341"	"29.369"	"34.651"	"35.597"	"32.889"	"32.221"	"30.933"	"27.354"	"20.744"	"18.103"
"1954"	"13.08"	"17.06"	"21.925"	"28.951"	"34.502"	"36.123"	"33.397"	"34.17"	"31.126"	"24.898"	"20.326"	"15.379"
"1955"	"13.679"	"17.361"	"23.851"	"26.713"	"30.608"	"36.395"	"34.351"	"31.999"	"30.509"	"25.646"	"20.34"	"15.999"
"1956"	"14.179"	"17.271"	"22.128"	"29.296"	"35.731"	"35.113"	"31.849"	"31.369"	"32.378"	"25.747"	"19.663"	"15.853"
"1957"	"13.201"	"15.315"	"21.667"	"26.522"	"30.727"	"34.725"	"34.093"	"31.723"	"29.895"	"27.148"	"20.469"	"15.372"
"1958"	"15.674"	"16.869"	"23.399"	"31.393"	"33.198"	"35.994"	"33.115"	"32.421"	"29.747"	"27.075"	"21.575"	"15.754"
"1959"	"13.555"	"15.474"	"22.924"	"29.019"	"32.76"	"36.318"	"33.092"	"32.212"	"30.608"	"26.864"	"20.394"	"15.776"
"1960"	"13.056"	"19.616"	"21.247"	"27.575"	"34.228"	"36.394"	"33.67"	"32.963"	"31.619"	"27.026"	"19.695"	"14.58"
"1961"	"14.504"	"14.72"	"22.454"	"27.591"	"32.995"	"35.643"	"33.055"	"31.919"	"31.62"	"26.451"	"18.694"	"13.696"
"1962"	"12.669"	"17.173"	"21.62"	"29.421"	"32.849"	"35.262"	"33.569"	"32.541"	"28.967"	"28.079"	"19.716"	"14.377"
"1963"	"13.069"	"18.291"	"21.845"	"27.624"	"31.077"	"35.913"	"33.915"	"31.584"	"30.239"	"27.671"	"20.896"	"14.952"
"1964"	"11.703"	"15.413"	"22.313"	"28.359"	"30.744"	"35.716"	"31.54"	"32.191"	"30.515"	"26.052"	"19.016"	"14.652"
"1965"	"15.578"	"16.722"	"21.824"	"25.601"	"31.362"	"35.972"	"32.466"	"31.569"	"30.92"	"27.273"	"21.19"	"13.995"
"1966"	"14.043"	"18.166"	"21.692"	"27.904"	"32.782"	"34.668"	"33.592"	"32.214"	"29.931"	"26.55"	"19.348"	"14.279"
"1967"	"12.673"	"18.521"	"21.198"	"27.201"	"31.775"	"35.901"	"33.043"	"31.615"	"30.794"	"25.854"	"20.069"	"14.839"
"1968"	"12.706"	"14.7"	"22.124"	"28.294"	"32.103"	"35.971"	"32.862"	"32.414"	"32.423"	"25.918"	"20.721"	"15.679"
"1969"	"14.082"	"17.1"	"24.824"	"28.348"	"31.695"	"36.542"	"33.542"	"32.847"	"31.067"	"28.177"	"21.648"	"16.001"
"1970"	"14.378"	"16.597"	"22.229"	"29.692"	"34.497"	"34.288"	"34.472"	"32.168"	"31.268"	"28.049"	"19.898"	"15.65"
"1971"	"12.883"	"17.198"	"22.301"	"29.603"	"32.425"	"34.268"	"32.144"	"31.046"	"29.678"	"26.932"	"20.529"	"16.278"
"1972"	"14.308"	"14.455"	"22.726"	"27.128"	"32.661"	"35.333"	"33.508"	"31.35"	"30.445"	"26.143"	"21.074"	"15.505"
"1973"	"13.761"	"18.108"	"21.447"	"29.898"	"33.774"	"36.197"	"32.678"	"29.983"	"31.232"	"25.736"	"19.717"	"13.482"
"1974"	"12.984"	"14.596"	"23.258"	"30.032"	"32.648"	"33.276"	"31.811"	"32.307"	"31.505"	"26.04"	"19.693"	"13.625"
"1975"	"12.815"	"15.102"	"20.901"	"28.003"	"32.831"	"34.074"	"31.133"	"31.195"	"29.295"	"27.833"	"19.101"	"15.925"
"1976"	"13.653"	"16.497"	"20.092"	"27.519"	"33.067"	"33.488"	"32.774"	"29.619"	"29.796"	"27.074"	"20.357"	"14.981"
"1977"	"13.35"	"16.65"	"23.731"	"27.67"	"30.268"	"33.185"	"31.22"	"31.488"	"28.998"	"26.628"	"22.608"	"15.975"
"1978"	"12.92"	"15.346"	"19.84"	"28.466"	"36.171"	"35.429"	"31.103"	"31.216"	"29.677"	"26.627"	"20.61"	"15.183"
"1979"	"14.25"	"15.809"	"20.089"	"29.541"	"30.945"	"35.464"	"32.988"	"32.498"	"29.338"	"26.845"	"21.445"	"16.374"
"1980"	"13.548"	"17.637"	"20.718"	"30.369"	"34.58"	"35.271"	"32.564"	"31.415"	"30.556"	"27.76"	"20.293"	"15.099"
"1981"	"13.773"	"16.888"	"20.989"	"28.991"	"33.246"	"35.468"	"31.196"	"31.991"	"31.015"	"25.443"	"18.763"	"14.518"
"1982"	"13.812"	"14.826"	"18.851"	"26.546"	"30.274"	"35.171"	"34.249"	"31.671"	"30.977"	"27.3"	"20.499"	"15.603"
"1983"	"13.454"	"15.696"	"20.849"	"25.049"	"30.96"	"34.068"	"32.745"	"31.824"	"31.094"	"26.151"	"20.043"	"15.576"
"1984"	"12.958"	"14.474"	"24.082"	"27.887"	"35.467"	"36.638"	"31.762"	"31.488"	"29.021"	"25.095"	"20.306"	"14.371"
"1985"	"13.772"	"17.49"	"23.221"	"28.118"	"33.965"	"34.741"	"31.84"	"31.892"	"30.893"	"25.144"	"20.832"	"15.747"
"1986"	"13.203"	"15.872"	"20.693"	"27.363"	"30.63"	"34.337"	"31.563"	"31.745"	"30.508"	"26.449"	"20.715"	"14.348"
"1987"	"14.749"	"17.396"	"21.848"	"28.688"	"28.837"	"34.511"	"34.542"	"33.31"	"32.91"	"27.064"	"21.012"	"15.745"
"1988"	"15.367"	"17.193"	"21.114"	"29.966"	"35.113"	"35.506"	"31.664"	"31.286"	"30.512"	"26.442"	"20.893"	"15.557"
"1989"	"13.245"	"15.292"	"21.114"	"26.439"	"33.388"	"33.835"	"32.734"	"30.564"	"30.267"	"26.319"	"20.315"	"15.17"
"1990"	"15.373"	"15.821"	"20.241"	"28.014"	"33.368"	"34.816"	"31.586"	"31.212"	"30.862"	"26.21"	"20.962"	"15.047"
"1991"	"13.802"	"16.495"	"21.071"	"26.816"	"32.367"	"34.508"	"34.394"	"31.54"	"31.042"	"25.972"	"20.337"	"16.102"
"1992"	"14.774"	"15.795"	"21.323"	"27.617"	"31.82"	"35.261"	"31.919"	"31.49"	"30.27"	"26.525"	"20.397"	"17.527"
"1993"	"13.373"	"18.519"	"20.847"	"28.491"	"34.647"	"35.741"	"31.966"	"33.844"	"30.091"	"26.77"	"21.442"	"16.076"
"1994"	"15.075"	"16.199"	"23.618"	"27.117"	"34.092"	"36.241"	"32.288"	"31.268"	"29.544"	"26.025"	"21.095"	"16.278"
"1995"	"13.579"	"16.441"	"20.721"	"26.669"	"34.271"	"36.691"	"32.97"	"30.236"	"30.741"	"27.347"	"20.821"	"15.902"
"1996"	"14.077"	"17.199"	"22.865"	"28.97"	"32.666"	"32.694"	"32.717"	"31.04"	"30.242"	"26.198"	"20.22"	"15.078"
"1997"	"13.53"	"16.316"	"21.496"	"27.124"	"30.372"	"32.942"	"33.064"	"30.94"	"30.972"	"24.7"	"19.778"	"13.253"
"1998"	"13.85"	"16.9"	"20.396"	"28.694"	"33.97"	"35.319"	"32.543"	"32.34"	"30.518"	"26.928"	"21.222"	"15.157"
"1999"	"13.179"	"17.373"	"22.799"	"30.622"	"33.945"	"33.694"	"33.144"	"32.095"	"31.815"	"27.648"	"21.89"	"16.054"
"2000"	"13.802"	"15.542"	"21.741"	"30.671"	"35.445"	"34.14"	"31.691"	"31.996"	"30.617"	"27.978"	"21.323"	"16.156"
"2001"	"13.001"	"17.573"	"22.796"	"28.293"	"33.921"	"32.865"	"31.969"	"32.723"	"31.49"	"28.123"	"21.723"	"16.356"
"2002"	"15.759"	"15.645"	"20.189"	"30.923"	"34.896"	"34.814"	"34.097"	"32.714"	"29.565"	"26.577"	"21.999"	"16.554"
