
"Year"	"Jan"	"Feb"	"Mar"	"Apr"	"May"	"Jun"	"Jul"	"Aug"	"Sep"	"Oct"	"Nov"	"Dec"
"1901"	"29.913"	"8.438"	"14.673"	"2.351"	"22.475"	"17.647"	"203.662"	"146.33"	"23.589"	"0.135"	"0"	"2.609"
"1902"	"0.2"	"1.481"	"7.048"	"8.175"	"12.227"	"37.961"	"121.861"	"114.27"	"75.313"	"3.219"	"0.039"	"0"
"1903"	"11.443"	"1.904"	"11.174"	"1.331"	"11.668"	"11.184"	"102.95"	"128.32"	"60.78"	"5.786"	"0"	"3.597"
"1904"	"17.272"	"0.485"	"46.706"	"3.902"	"9.91"	"37.073"	"69.519"	"129.496"	"61.945"	"0.816"	"13.997"	"4.37"
"1905"	"43.15"	"26.075"	"7.297"	"2.397"	"4.488"	"16.061"	"89.286"	"38.798"	"200.942"	"2.668"	"0"	"8.052"
"1906"	"4.292"	"54.939"	"14.542"	"2.41"	"3.341"	"46.819"	"81.646"	"121.3"	"220.222"	"0.518"	"0"	"3.889"
"1907"	"12.766"	"39.347"	"22.086"	"27.25"	"4.278"	"33.866"	"81.394"	"135.718"	"1.673"	"1.254"	"0.2"	"0"
"1908"	"30.04"	"8.582"	"0.784"	"9.647"	"4.962"	"38.976"	"160.496"	"401.514"	"41.602"	"0.527"	"0.266"	"3.378"
"1909"	"16.262"	"12.011"	"0.29"	"36.551"	"6.247"	"124.181"	"237.95"	"117.11"	"148.689"	"0.39"	"0.031"	"35.923"
"1910"	"20.888"	"6.503"	"1.276"	"11.183"	"6.881"	"91.719"	"128.857"	"132.591"	"47.512"	"1.611"	"0.593"	"2.286"
"1911"	"46.89"	"1.916"	"47.574"	"6.474"	"6.447"	"61.556"	"31.758"	"104.756"	"63.845"	"3.931"	"32.538"	"0.016"
"1912"	"34.229"	"7.113"	"6.336"	"21.498"	"7.484"	"25.823"	"82.254"	"188.242"	"60.764"	"0.128"	"12.368"	"3.079"
"1913"	"1.642"	"28.847"	"18.765"	"2.321"	"45.347"	"75.66"	"137.251"	"165.231"	"10.79"	"1.021"	"2.811"	"10.606"
"1914"	"11.435"	"27.118"	"13.079"	"17.155"	"18.442"	"33.954"	"242.266"	"89.629"	"185.343"	"17.067"	"11.901"	"7.398"
"1915"	"8.789"	"46.349"	"28.473"	"10.911"	"3.585"	"36.553"	"56.326"	"117.877"	"80.958"	"10.925"	"0"	"2.832"
"1916"	"0.239"	"12.827"	"1.554"	"3.895"	"10.922"	"46.955"	"304.336"	"142.495"	"64.594"	"7.011"	"0.352"	"0"
"1917"	"4.347"	"8.908"	"11.111"	"21.922"	"24.128"	"85.978"	"123.804"	"207.736"	"182.727"	"15.865"	"0"	"2.972"
"1918"	"3.046"	"1.298"	"20.743"	"23.229"	"2.325"	"53.555"	"23.363"	"112.096"	"13.249"	"0.202"	"9.612"	"3.256"
"1919"	"47.944"	"12.361"	"8.138"	"11.327"	"12.773"	"13.022"	"200.062"	"136.27"	"35.571"	"1.286"	"1.929"	"8.518"
"1920"	"14.821"	"12.196"	"14.988"	"0.997"	"15.613"	"44.43"	"96.301"	"122.371"	"11.889"	"0.282"	"0"	"0.194"
"1921"	"14.057"	"0.971"	"0.76"	"1.634"	"2.071"	"35.549"	"185.179"	"180.567"	"77.376"	"7.793"	"0"	"4.815"
"1922"	"15.092"	"8.333"	"1.51"	"3.189"	"2.243"	"44.332"	"107.962"	"130.805"	"241.529"	"1.81"	"1.723"	"24.571"
"1923"	"21.078"	"38.288"	"3.182"	"15.911"	"17.095"	"5.026"	"113.091"	"176.3"	"37.885"	"8.328"	"6.748"	"21.139"
"1924"	"30.913"	"32.049"	"4.995"	"1.797"	"20.509"	"7.826"	"189.912"	"97.699"	"129.661"	"7.443"	"1.276"	"29.439"
"1925"	"10.322"	"1.19"	"3.245"	"2.806"	"17.23"	"134.442"	"178.81"	"143.396"	"12.995"	"1.704"	"21.685"	"0"
"1926"	"9.493"	"2.554"	"37.665"	"13.777"	"11.933"	"3.758"	"129.593"	"265.012"	"33.773"	"0.525"	"4.514"	"5.536"
"1927"	"0.466"	"18.584"	"7.408"	"5.61"	"18.578"	"17.523"	"116.939"	"163.672"	"22.805"	"9.379"	"0"	"20.487"
"1928"	"15.193"	"28.234"	"7.532"	"14.325"	"5.034"	"34.138"	"114.978"	"96.669"	"87.707"	"0.776"	"16.354"	"12.489"
"1929"	"14.769"	"2.135"	"2.434"	"8"	"2.55"	"109.956"	"91.808"	"267.701"	"15.912"	"3.378"	"0"	"35.064"
"1930"	"17.177"	"10.042"	"2.82"	"16.262"	"7.751"	"32.055"	"215.063"	"75.274"	"32.159"	"3.289"	"4.881"	"3.506"
"1931"	"19.112"	"22.629"	"11.845"	"3.796"	"13.316"	"5.025"	"203.17"	"187.993"	"110.337"	"17.494"	"0.593"	"0"
"1932"	"13.948"	"2.465"	"12.698"	"4.609"	"6.284"	"20.038"	"121.177"	"80.684"	"80.744"	"0.584"	"0.266"	"19.091"
"1933"	"5.455"	"13.119"	"7.962"	"11.237"	"15.094"	"63.983"	"126.062"	"236.955"	"115.576"	"9.14"	"6.34"	"0.024"
"1934"	"14.697"	"2.333"	"20.63"	"0.846"	"4.071"	"38.823"	"125.56"	"172.632"	"13.395"	"0"	"0"	"8.071"
"1935"	"48.538"	"43.231"	"5.849"	"15.814"	"3.221"	"9.556"	"86.923"	"90.931"	"59.864"	"0.201"	"12.766"	"4.368"
"1936"	"2.017"	"26.947"	"14.329"	"10.125"	"6.631"	"188.478"	"188.047"	"150.551"	"80.616"	"7.699"	"1.729"	"21.662"
"1937"	"0.747"	"69.255"	"2.318"	"24.634"	"6.779"	"24.909"	"200.926"	"39.617"	"67.388"	"2.646"	"0.466"	"11.948"
"1938"	"36.194"	"18.111"	"3.663"	"4.489"	"1.026"	"131.335"	"82.037"	"72.387"	"11.641"	"5.54"	"0.593"	"0.143"
"1939"	"6.416"	"37.258"	"15.06"	"4.58"	"4.438"	"56.019"	"85.57"	"66.598"	"57.262"	"3"	"0"	"0"
"1940"	"37.35"	"32.198"	"10.562"	"4.486"	"3.635"	"62.895"	"85.369"	"112.479"	"29.547"	"0.35"	"0"	"2.712"
"1941"	"27.045"	"6.273"	"4.137"	"0.781"	"17.838"	"54.121"	"71.438"	"69.754"	"101.238"	"0.525"	"0.601"	"7.894"
"1942"	"17.806"	"21.075"	"10.724"	"18.784"	"15.821"	"41.857"	"172.158"	"161.839"	"62.883"	"1.162"	"0.016"	"18.003"
"1943"	"19.615"	"1.473"	"3.694"	"12.683"	"6.991"	"76.566"	"99.391"	"101.946"	"24.758"	"0"	"0"	"0"
"1944"	"21.743"	"31.403"	"22.607"	"27.437"	"0.239"	"54.526"	"137.732"	"101.981"	"63.533"	"2.833"	"0.306"	"6.201"
"1945"	"33.897"	"0.208"	"6.859"	"29.586"	"7.789"	"45.639"	"150.774"	"125.997"	"126.115"	"5.026"	"0.2"	"0.35"
"1946"	"0.558"	"9.594"	"6.338"	"8.109"	"19.934"	"68.38"	"137.493"	"150.873"	"12.833"	"10.826"	"5.817"	"6.942"
"1947"	"10.799"	"12.49"	"10.11"	"0.483"	"2.675"	"7.019"	"57.004"	"175.36"	"90.868"	"8.374"	"0.593"	"6.02"
"1948"	"10.557"	"29.727"	"29.208"	"7.943"	"3.854"	"33.782"	"206.047"	"193.22"	"59.154"	"2.447"	"4.772"	"11.3"
"1949"	"3.971"	"28.946"	"12.07"	"5.123"	"5.22"	"11.121"	"340.056"	"76.572"	"83.706"	"2.564"	"0.274"	"0.668"
"1950"	"43.348"	"18.43"	"30.789"	"1.505"	"6.507"	"27.12"	"268.886"	"167.693"	"231.587"	"0.016"	"0.266"	"0.342"
"1951"	"19.636"	"5.999"	"25.279"	"18.038"	"13.28"	"19.32"	"119.682"	"98.685"	"34.62"	"1.597"	"19.245"	"0.024"
"1952"	"8.33"	"9.637"	"24.71"	"4.152"	"13.795"	"44.074"	"110.13"	"106.021"	"7.014"	"0.987"	"4.856"	"0.174"
"1953"	"36.099"	"1.726"	"0.978"	"6.691"	"4.083"	"25.79"	"173.629"	"190.468"	"104.987"	"0.143"	"2.62"	"3.282"
"1954"	"19.638"	"44.585"	"4.491"	"0.786"	"4.138"	"25.057"	"203.634"	"63.469"	"199.178"	"11.66"	"0"	"0.358"
"1955"	"17.372"	"1.704"	"16.83"	"12.346"	"11.181"	"31.355"	"110.531"	"118.775"	"213.224"	"19.793"	"0"	"2.64"
"1956"	"18.469"	"3.532"	"17.166"	"2.258"	"11.154"	"93.411"	"175.209"	"155.848"	"14.908"	"24.284"	"0.202"	"1.84"
"1957"	"57.572"	"1.277"	"25.026"	"20.098"	"10.518"	"21.769"	"125.948"	"206.732"	"59.053"	"4.058"	"10.634"	"9.411"
"1958"	"7.641"	"3.637"	"7.68"	"4.264"	"2.476"	"37.528"	"164.782"	"126.663"	"210.177"	"10.76"	"1.584"	"18.937"
"1959"	"27.751"	"10.546"	"9.207"	"2.497"	"14.646"	"8.625"	"191.129"	"222.676"	"58.627"	"8.856"	"24.718"	"0"
"1960"	"18.293"	"0.223"	"21.313"	"9.554"	"1.389"	"26.117"	"105.345"	"111.675"	"65.036"	"9.688"	"0"	"4.667"
"1961"	"52.297"	"27.624"	"2.98"	"11.479"	"10.451"	"31.354"	"205.129"	"185.926"	"115.227"	"16.582"	"0.609"	"7.788"
"1962"	"25.745"	"22.331"	"14.725"	"1.668"	"10.177"	"19.008"	"149.933"	"135.212"	"164.969"	"0.016"	"10.246"	"6.478"
"1963"	"2.616"	"9.223"	"15.232"	"6.501"	"22.257"	"32.046"	"92.33"	"112.813"	"94.214"	"1.239"	"5.524"	"12.351"
"1964"	"14.776"	"3.117"	"6.897"	"8.588"	"17.467"	"39.312"	"295.32"	"159.312"	"92.967"	"0"	"2.076"	"6.46"
"1965"	"7.92"	"20.209"	"11.278"	"27.315"	"13.63"	"4.526"	"142.653"	"111.87"	"22.066"	"3.462"	"7.559"	"0"
"1966"	"2.003"	"37.397"	"6.76"	"4.87"	"25.211"	"81.68"	"142.895"	"148.848"	"145.267"	"9.23"	"3.481"	"1.015"
"1967"	"0.274"	"11.205"	"41.028"	"4.207"	"3.035"	"13.941"	"116.391"	"327.505"	"48.098"	"3.454"	"4.602"	"32.265"
"1968"	"25.55"	"22.654"	"9.441"	"3.08"	"5.784"	"28.05"	"123.044"	"166.489"	"13.201"	"7.633"	"0"	"5.329"
"1969"	"7.326"	"8.259"	"18.133"	"16.161"	"18.819"	"20.919"	"192.023"	"99.627"	"118.523"	"0.885"	"0.585"	"0"
"1970"	"21.112"	"19.301"	"17.347"	"0.427"	"19.214"	"51.602"	"59.335"	"168.687"	"45.085"	"3.177"	"0"	"0"
"1971"	"5.95"	"13.32"	"5.954"	"15.73"	"31.289"	"64.839"	"151.622"	"268.577"	"55.78"	"8.925"	"5.003"	"0"
"1972"	"8.053"	"15.021"	"5.274"	"6.788"	"0.505"	"16.619"	"138.495"	"136.217"	"111.541"	"7.735"	"9.176"	"5.606"
"1973"	"15.884"	"13.456"	"9.886"	"0.82"	"14.928"	"37.032"	"123.026"	"212.153"	"73.114"	"6.413"	"0"	"9.485"
"1974"	"5.426"	"6.417"	"2.895"	"1.005"	"9.529"	"23.119"	"186.212"	"77.88"	"7.032"	"1.383"	"0"	"8.048"
"1975"	"22.977"	"19.721"	"17.087"	"2.31"	"1.203"	"91.871"	"221.747"	"144.857"	"158.668"	"3.075"	"0"	"0"
"1976"	"9.718"	"25.751"	"12.587"	"10.167"	"18.259"	"55.236"	"174.073"	"421.302"	"112.712"	"7.858"	"0"	"0.249"
"1977"	"22.459"	"0.874"	"1.222"	"26.652"	"36.966"	"73.858"	"190.869"	"124.402"	"56.866"	"14.665"	"0.691"	"7.066"
"1978"	"4.418"	"10.595"	"41.002"	"7.428"	"0.82"	"69.257"	"214.293"	"293.679"	"125.472"	"0.569"	"4.565"	"1.655"
"1979"	"12.361"	"34.001"	"28.464"	"6.062"	"22.457"	"40.108"	"118.156"	"86.872"	"54.589"	"4.034"	"10.282"	"2.056"
"1980"	"10.19"	"7.827"	"20.887"	"4.71"	"3.049"	"95.424"	"382.317"	"251.785"	"91.514"	"5.973"	"7.036"	"6.107"
"1981"	"60.946"	"15.867"	"31.859"	"0.489"	"5.839"	"29.046"	"341.707"	"84.366"	"19.237"	"4.525"	"35.445"	"1.821"
"1982"	"21.776"	"14.422"	"70.796"	"20.487"	"37.819"	"20.128"	"80.887"	"215.171"	"10.094"	"1.977"	"18.263"	"13.36"
"1983"	"42.199"	"20.062"	"23.968"	"30.164"	"58.368"	"36.259"	"147.72"	"200.793"	"96.105"	"14.633"	"0"	"2.935"
"1984"	"2.288"	"42.027"	"6.404"	"17.788"	"0.861"	"33.382"	"291.92"	"198.916"	"89.035"	"0.128"	"0"	"11.084"
"1985"	"5.688"	"1.173"	"3.172"	"17.019"	"18.398"	"53.998"	"213.514"	"174.155"	"102.039"	"16.618"	"1.343"	"17.202"
"1986"	"6.163"	"33.529"	"10.101"	"11.664"	"26.726"	"63.772"	"198.999"	"182.33"	"78.44"	"3.917"	"3.364"	"16.285"
"1987"	"19.072"	"20.369"	"14.891"	"6.405"	"24.793"	"40.613"	"71.718"	"83.644"	"14.209"	"8.434"	"0"	"2.217"
"1988"	"4.661"	"15.104"	"33.782"	"8.782"	"3.703"	"40.612"	"220.188"	"180.693"	"121.612"	"12.596"	"0.266"	"14.1"
"1989"	"39.751"	"5.654"	"18.833"	"1.665"	"7.888"	"34.519"	"181.606"	"126.948"	"59.192"	"0.591"	"8.483"	"2.1"
"1990"	"2.059"	"46.619"	"34.574"	"9.807"	"15.355"	"26.312"	"179.281"	"210.527"	"179.344"	"2.661"	"10.889"	"27.069"
"1991"	"0.525"	"25.135"	"10.815"	"29.016"	"21.771"	"77.339"	"41.373"	"177.712"	"51.255"	"1.721"	"6.425"	"8.219"
"1992"	"25.125"	"29.245"	"7.278"	"8.468"	"27.303"	"22.762"	"94.135"	"190.125"	"86.181"	"3.09"	"23.527"	"1.038"
"1993"	"10.782"	"11.316"	"13.057"	"14.94"	"16.3"	"51.978"	"183.05"	"53.908"	"117.51"	"0"	"0"	"0"
"1994"	"14.024"	"6.094"	"11.054"	"6.714"	"43.165"	"35.881"	"173.664"	"119.862"	"97.913"	"1.262"	"0"	"4.015"
"1995"	"27.209"	"57.38"	"28.503"	"5.299"	"0.661"	"51.676"	"122.117"	"274.048"	"117.682"	"1.362"	"9.192"	"0.827"
"1996"	"23.096"	"22.925"	"12.699"	"3.443"	"13.991"	"156.196"	"107.929"	"244.225"	"59.235"	"4.876"	"0"	"0.031"
"1997"	"17.742"	"8.003"	"13.174"	"33.754"	"23.316"	"102.219"	"205.637"	"262.477"	"49.984"	"17.928"	"17.6"	"3.528"
"1998"	"10.347"	"26.752"	"23.837"	"16.769"	"12.331"	"20.569"	"186.189"	"136.171"	"58.272"	"14.169"	"5.532"	"0.111"
"1999"	"11.558"	"4.164"	"5.156"	"0.094"	"12.436"	"61.856"	"61.169"	"100.432"	"72.194"	"3.067"	"0.024"	"1.744"
"2000"	"14.772"	"23.856"	"6.574"	"1.093"	"11.104"	"63.224"	"226.412"	"102.741"	"32.409"	"0"	"3.706"	"3.176"
"2001"	"6.165"	"5.393"	"10.916"	"11.014"	"25.818"	"60.861"	"231.986"	"37.069"	"29.245"	"0.369"	"0.031"	"0.584"
"2002"	"7.987"	"14.225"	"12.217"	"3.279"	"13.683"	"38.848"	"71.104"	"97.336"	"127.539"	"0.282"	"0"	"4.64"
