
"Year"	"Jan"	"Feb"	"Mar"	"Apr"	"May"	"Jun"	"Jul"	"Aug"	"Sep"	"Oct"	"Nov"	"Dec"
"1901"	"12.758"	"14.707"	"22.209"	"26.899"	"32.029"	"36.17"	"33.623"	"33.322"	"31.826"	"28.662"	"20.935"	"15.772"
"1902"	"14.541"	"17.457"	"23.41"	"28.542"	"33.306"	"34.35"	"33.96"	"33.878"	"31.111"	"27.138"	"20.764"	"14.378"
"1903"	"13.45"	"15.907"	"19.879"	"25.836"	"31.626"	"36.844"	"33.844"	"32.739"	"32.102"	"27.821"	"20.017"	"14.385"
"1904"	"12.532"	"16.45"	"20.344"	"28.41"	"33.237"	"35.907"	"34.239"	"33.472"	"31.623"	"27.537"	"20.339"	"15.621"
"1905"	"11.672"	"11.424"	"18.116"	"25.994"	"34.426"	"36.203"	"34.362"	"34.285"	"32.002"	"27.293"	"21.436"	"14.944"
"1906"	"12.306"	"14.185"	"19.122"	"26.795"	"34.514"	"34.995"	"34.847"	"33.051"	"30.379"	"27.635"	"21.618"	"16.472"
"1907"	"15.65"	"14.221"	"18.672"	"25.631"	"31.135"	"34.266"	"34.926"	"31.97"	"32.417"	"27.703"	"21.109"	"14.395"
"1908"	"14.318"	"16.794"	"21.282"	"28.386"	"32.656"	"35.849"	"32.269"	"30.211"	"29.823"	"26.293"	"19.733"	"14.572"
"1909"	"12.418"	"14.819"	"21.196"	"26.324"	"32.016"	"34.628"	"31.828"	"31.982"	"29.463"	"26.772"	"21.709"	"13.942"
"1910"	"13.001"	"15.915"	"20.783"	"25.939"	"33.057"	"34.879"	"32.207"	"31.472"	"31.496"	"26.73"	"19.7"	"14.211"
"1911"	"14.393"	"16.527"	"19.096"	"26.808"	"33.309"	"34.981"	"35.358"	"34.139"	"31.964"	"27.885"	"17.758"	"14.291"
"1912"	"14.2"	"16.598"	"20.898"	"27.241"	"33.149"	"36.337"	"33.641"	"31.832"	"30.61"	"27.12"	"19.24"	"14.716"
"1913"	"14.617"	"15.517"	"18.719"	"28.522"	"31.435"	"33.148"	"31.847"	"32.246"	"31.081"	"27.181"	"19.704"	"14.332"
"1914"	"15.075"	"14.712"	"20.168"	"26.833"	"32.884"	"34.76"	"31.921"	"32.244"	"30.681"	"25.069"	"20.33"	"13.94"
"1915"	"13.442"	"14.544"	"21.983"	"27.916"	"35.534"	"35.655"	"35.657"	"33.767"	"32.574"	"27.51"	"20.264"	"14.738"
"1916"	"14.677"	"15.331"	"24.087"	"28.983"	"31.488"	"35.03"	"32.205"	"31.471"	"30.804"	"26.508"	"18.232"	"14.27"
"1917"	"13.754"	"17.283"	"21.439"	"24.55"	"28.747"	"34.046"	"32.662"	"30.841"	"28.895"	"25.166"	"17.943"	"14.925"
"1918"	"12.935"	"16.385"	"20.472"	"24.669"	"34.735"	"34.843"	"35.189"	"33.791"	"31.398"	"27.039"	"20"	"14.294"
"1919"	"13.429"	"15.162"	"21.7"	"26.732"	"31.842"	"37.641"	"33.706"	"31.654"	"30.848"	"26.709"	"19.22"	"13.864"
"1920"	"13.376"	"15.05"	"20.759"	"26.526"	"28.912"	"33.961"	"34.269"	"32.596"	"32.682"	"28.252"	"21.563"	"15.114"
"1921"	"14.179"	"16.925"	"24.802"	"31.513"	"34.886"	"36.098"	"34.398"	"32.061"	"31.314"	"26.267"	"20.351"	"16.56"
"1922"	"13.03"	"16.69"	"22.563"	"28.439"	"32.205"	"34.542"	"34.331"	"33.185"	"30.366"	"25.908"	"19.762"	"15.027"
"1923"	"13.18"	"14.955"	"21.837"	"28.281"	"31.124"	"36.248"	"32.662"	"31.063"	"31.099"	"26.044"	"19.372"	"14.509"
"1924"	"12.596"	"15.703"	"22.277"	"27.996"	"28.771"	"36.222"	"34.74"	"32.396"	"29.487"	"26.701"	"19.484"	"15.134"
"1925"	"12.006"	"13.774"	"22.705"	"30.565"	"32.466"	"33.132"	"31.67"	"32.133"	"31.896"	"27.201"	"18.457"	"14.34"
"1926"	"14.034"	"17.583"	"19.831"	"24.488"	"29.465"	"35.713"	"34.035"	"31.051"	"29.934"	"26.069"	"17.966"	"14.291"
"1927"	"12.448"	"13.81"	"20.394"	"26.42"	"30.995"	"34.395"	"32.474"	"31.851"	"30.76"	"27.033"	"20.48"	"15.849"
"1928"	"12.738"	"16.971"	"21.246"	"27.363"	"34.19"	"35.135"	"33.746"	"32.825"	"30.254"	"27.208"	"20.326"	"14.238"
"1929"	"13.153"	"14.707"	"23.547"	"28.663"	"33.163"	"34.955"	"32.153"	"31.37"	"31.492"	"26.253"	"20.196"	"13.229"
"1930"	"12.277"	"16.131"	"21.899"	"26.211"	"32.162"	"33.898"	"30.989"	"32.152"	"30.4"	"26.744"	"19.193"	"14.528"
"1931"	"14.178"	"12.986"	"20.601"	"28.957"	"32.348"	"34.69"	"32.223"	"32.766"	"30.608"	"26.756"	"20.279"	"15.422"
"1932"	"15.304"	"15.957"	"22.207"	"28.44"	"31.186"	"36.591"	"32.938"	"31.563"	"31.54"	"26.64"	"19.717"	"14.486"
"1933"	"11.391"	"16.691"	"21.008"	"25.599"	"31.176"	"35.603"	"33.132"	"29.971"	"29.383"	"26.162"	"20.292"	"16.034"
"1934"	"11.391"	"17.771"	"20.606"	"27.524"	"31.266"	"34.724"	"33.28"	"31.744"	"31.964"	"25.62"	"19.825"	"15.959"
"1935"	"11.738"	"16.053"	"21.653"	"24.11"	"32.343"	"35.41"	"32.912"	"31.707"	"30.997"	"26.069"	"20.729"	"14.871"
"1936"	"12.037"	"16.61"	"20.119"	"26.836"	"35.52"	"33.606"	"32.276"	"32.01"	"30.745"	"26.75"	"19.808"	"14.723"
"1937"	"12.533"	"15.932"	"19.922"	"26.37"	"32.639"	"35.761"	"32.29"	"33.775"	"31.22"	"25.62"	"20.038"	"13.492"
"1938"	"12.629"	"14.338"	"21.975"	"28.66"	"35.221"	"33.606"	"34.476"	"33.346"	"32.074"	"26.966"	"19.21"	"14.922"
"1939"	"14.192"	"15.728"	"18.337"	"25.403"	"33.472"	"34.702"	"33.123"	"33.468"	"32.418"	"27.816"	"20.382"	"16.201"
"1940"	"14.269"	"15.773"	"20.353"	"26.536"	"33.257"	"34.997"	"33.671"	"31.563"	"30.612"	"27.252"	"21.595"	"15.314"
"1941"	"13.497"	"17.539"	"23.819"	"30.587"	"34.352"	"33.443"	"33.078"	"32.943"	"30.321"	"29.237"	"21.116"	"16.347"
"1942"	"13.131"	"15.98"	"22.952"	"29.456"	"32.864"	"35.222"	"32.909"	"30.983"	"29.752"	"26.71"	"21.965"	"14.267"
"1943"	"12.786"	"16.232"	"22.026"	"26.777"	"32.038"	"34.68"	"32.549"	"32.082"	"31.67"	"26.869"	"21.087"	"16.829"
"1944"	"12.51"	"14.539"	"20.251"	"27.088"	"33.295"	"34.8"	"32.361"	"31.46"	"29.801"	"25.735"	"20.518"	"14.791"
"1945"	"11.456"	"15.459"	"22.205"	"25.753"	"31.486"	"34.094"	"32.553"	"31.704"	"31.276"	"26.51"	"20.626"	"14.42"
"1946"	"14.566"	"18.759"	"20.872"	"31.354"	"33.614"	"35.346"	"33.247"	"32.649"	"31.587"	"27.942"	"19.891"	"13.59"
"1947"	"12.985"	"16.524"	"22.878"	"30.013"	"34.325"	"37.512"	"35.06"	"33.184"	"30.19"	"26.305"	"22.312"	"15.422"
"1948"	"15.237"	"15.858"	"20.894"	"29.348"	"33.669"	"35.119"	"32.959"	"31.497"	"31.461"	"27.778"	"18.965"	"14.874"
"1949"	"15.106"	"15.624"	"21.998"	"29.887"	"35.516"	"34.462"	"32.187"	"32.814"	"32.812"	"26.252"	"18.969"	"14.98"
"1950"	"14.556"	"13.721"	"20.075"	"26.411"	"33.727"	"36.363"	"32.648"	"32.008"	"28.949"	"25.856"	"19.287"	"12.733"
"1951"	"13.177"	"15.708"	"22.236"	"25.67"	"32.259"	"34.989"	"34.044"	"32.506"	"32.28"	"29.4"	"21.753"	"15.951"
"1952"	"14.731"	"17.957"	"22.135"	"30.329"	"33.637"	"34.872"	"32.702"	"32.132"	"31.832"	"27.578"	"20.668"	"14.944"
"1953"	"13.343"	"18.458"	"25.108"	"29.148"	"34.337"	"35.534"	"33.046"	"32"	"30.541"	"27.058"	"20.622"	"17.896"
"1954"	"12.856"	"16.761"	"21.712"	"28.582"	"34.268"	"35.881"	"33.461"	"34.147"	"31.044"	"24.752"	"20.365"	"15.014"
"1955"	"13.408"	"17.314"	"23.55"	"26.565"	"30.363"	"36.229"	"34.434"	"31.984"	"30.514"	"25.513"	"20.292"	"15.757"
"1956"	"13.9"	"16.996"	"21.706"	"28.927"	"35.407"	"35.045"	"31.699"	"31.278"	"32.105"	"25.646"	"19.658"	"15.652"
"1957"	"13.01"	"15.203"	"21.405"	"26.296"	"30.403"	"34.519"	"34.079"	"31.699"	"29.959"	"27.077"	"20.338"	"15.161"
"1958"	"15.539"	"16.635"	"23.057"	"31.157"	"33.019"	"35.762"	"33.184"	"32.466"	"29.654"	"26.87"	"21.236"	"15.621"
"1959"	"13.364"	"15.298"	"22.85"	"28.769"	"32.847"	"36.323"	"32.986"	"32.342"	"30.69"	"27.23"	"20.39"	"15.499"
"1960"	"12.847"	"19.498"	"21.024"	"27.079"	"33.602"	"36.147"	"33.452"	"33.009"	"31.672"	"26.894"	"19.692"	"14.453"
"1961"	"14.31"	"14.642"	"22.174"	"27.451"	"32.856"	"35.45"	"33.136"	"32.073"	"31.649"	"26.35"	"18.682"	"13.663"
"1962"	"12.71"	"17.035"	"21.56"	"29.154"	"32.716"	"35.261"	"33.534"	"32.621"	"29.068"	"27.349"	"19.805"	"14.205"
"1963"	"13.07"	"18.239"	"21.641"	"27.453"	"31.044"	"35.919"	"34.167"	"32.05"	"30.431"	"27.736"	"20.943"	"14.869"
"1964"	"11.568"	"15.441"	"22.549"	"28.465"	"30.945"	"35.565"	"31.719"	"32.229"	"30.518"	"25.957"	"19.06"	"14.518"
"1965"	"15.415"	"16.568"	"21.614"	"25.329"	"31.397"	"35.711"	"32.502"	"31.612"	"30.863"	"27.312"	"21.377"	"13.927"
"1966"	"14.197"	"18.238"	"21.722"	"27.481"	"32.496"	"34.599"	"33.515"	"32.307"	"29.647"	"26.416"	"19.215"	"13.975"
"1967"	"12.53"	"18.344"	"20.976"	"26.933"	"31.623"	"35.609"	"33.145"	"31.783"	"30.691"	"25.688"	"20.152"	"14.631"
"1968"	"12.496"	"14.47"	"21.853"	"28.022"	"31.771"	"35.941"	"33.033"	"32.567"	"32.353"	"25.959"	"20.674"	"15.359"
"1969"	"13.827"	"16.729"	"24.493"	"28.003"	"31.611"	"36.188"	"33.667"	"32.874"	"31.096"	"28.029"	"21.624"	"15.797"
"1970"	"14.197"	"16.381"	"21.863"	"29.563"	"34.44"	"34.411"	"34.365"	"32.284"	"31.17"	"27.877"	"19.781"	"15.329"
"1971"	"12.824"	"17.035"	"22.274"	"29.457"	"32.319"	"34.311"	"32.162"	"31.504"	"29.769"	"26.714"	"20.51"	"16.059"
"1972"	"14.058"	"14.041"	"22.474"	"26.929"	"32.753"	"35.188"	"33.345"	"31.617"	"30.183"	"25.793"	"21.009"	"15.476"
"1973"	"13.537"	"17.818"	"21.274"	"29.6"	"33.741"	"35.573"	"32.578"	"30.469"	"31.12"	"25.846"	"19.756"	"13.266"
"1974"	"13.242"	"14.569"	"23.221"	"29.851"	"32.65"	"33.097"	"32.207"	"32.469"	"31.501"	"26.047"	"19.557"	"13.622"
"1975"	"12.582"	"14.778"	"20.648"	"27.771"	"32.892"	"33.888"	"31.379"	"31.231"	"29.359"	"27.352"	"18.985"	"15.668"
"1976"	"13.672"	"16.363"	"20.168"	"27.137"	"33.225"	"33.661"	"32.851"	"29.781"	"29.706"	"26.877"	"20.22"	"14.696"
"1977"	"13.22"	"16.535"	"23.424"	"27.553"	"30.562"	"33.101"	"31.538"	"31.862"	"29.112"	"26.681"	"22.343"	"16.162"
"1978"	"12.691"	"15.177"	"19.768"	"28.514"	"36.017"	"35.448"	"31.015"	"31.54"	"29.764"	"26.556"	"20.498"	"15.446"
"1979"	"14.117"	"15.711"	"19.917"	"29.537"	"30.823"	"35.505"	"33.136"	"32.605"	"29.478"	"26.945"	"21.501"	"16.26"
"1980"	"13.569"	"17.57"	"20.679"	"30.267"	"34.69"	"35.477"	"32.853"	"31.544"	"30.731"	"27.685"	"20.364"	"15.161"
"1981"	"13.84"	"16.983"	"20.874"	"28.922"	"33.514"	"35.779"	"31.607"	"32.043"	"31.106"	"25.629"	"19.096"	"14.743"
"1982"	"13.768"	"14.573"	"18.686"	"26.509"	"30.226"	"35.064"	"34.304"	"31.572"	"30.765"	"27.099"	"20.391"	"15.198"
"1983"	"13.302"	"15.484"	"20.622"	"24.733"	"30.797"	"34.062"	"32.954"	"31.636"	"30.973"	"25.942"	"19.792"	"15.384"
"1984"	"12.654"	"14.2"	"23.745"	"28.021"	"35.428"	"36.332"	"31.817"	"31.627"	"28.979"	"25.217"	"20.122"	"14.415"
"1985"	"13.617"	"17.163"	"23.266"	"28.124"	"33.854"	"34.79"	"32.013"	"31.89"	"30.884"	"25.074"	"20.714"	"15.644"
"1986"	"13.016"	"15.696"	"20.843"	"27.539"	"30.868"	"34.557"	"31.695"	"31.761"	"30.243"	"26.411"	"20.789"	"13.811"
"1987"	"14.549"	"17.297"	"21.79"	"28.544"	"28.943"	"34.692"	"34.632"	"33.599"	"32.63"	"27.202"	"20.745"	"15.22"
"1988"	"15.043"	"17.239"	"20.994"	"29.941"	"34.937"	"35.621"	"31.921"	"31.525"	"30.549"	"26.306"	"20.677"	"15.426"
"1989"	"13.034"	"15.313"	"21.178"	"26.543"	"33.037"	"34.269"	"32.713"	"30.694"	"30.481"	"26.459"	"20.488"	"14.897"
"1990"	"15.394"	"15.807"	"20.362"	"27.854"	"33.438"	"34.986"	"31.958"	"31.396"	"30.81"	"26.051"	"21.155"	"15.101"
"1991"	"13.674"	"16.399"	"21.043"	"26.834"	"32.591"	"34.65"	"34.322"	"31.701"	"30.917"	"25.764"	"20.151"	"15.856"
"1992"	"14.523"	"15.713"	"21.11"	"27.567"	"32.003"	"35.411"	"32.1"	"31.46"	"30.146"	"26.413"	"20.313"	"17.231"
"1993"	"13.282"	"18.412"	"20.618"	"28.235"	"34.584"	"35.578"	"32.132"	"33.543"	"30.268"	"26.8"	"21.518"	"16.023"
"1994"	"14.998"	"16.197"	"23.476"	"26.912"	"34.295"	"36.258"	"32.481"	"31.389"	"29.408"	"25.856"	"21.14"	"16.061"
"1995"	"13.566"	"16.428"	"20.46"	"26.503"	"34.121"	"36.67"	"32.91"	"30.554"	"30.83"	"27.368"	"20.796"	"15.722"
"1996"	"13.999"	"17.135"	"23.002"	"28.824"	"32.416"	"32.714"	"32.645"	"31.014"	"30.34"	"26.153"	"20.116"	"14.956"
"1997"	"13.395"	"16.246"	"21.293"	"26.956"	"30.396"	"32.909"	"33.169"	"31.059"	"30.934"	"24.425"	"19.673"	"13.005"
"1998"	"13.692"	"16.82"	"20.276"	"28.56"	"34.013"	"35.314"	"32.611"	"32.583"	"30.526"	"26.817"	"21.223"	"14.981"
"1999"	"13.027"	"17.262"	"22.622"	"30.465"	"33.992"	"33.666"	"33.173"	"32.072"	"31.883"	"27.58"	"22.047"	"15.881"
"2000"	"13.709"	"15.54"	"21.672"	"30.578"	"35.596"	"34.194"	"31.839"	"32.088"	"30.563"	"27.803"	"21.276"	"15.94"
"2001"	"12.906"	"17.431"	"22.716"	"28.141"	"34.033"	"32.911"	"31.982"	"32.624"	"31.638"	"27.934"	"21.729"	"16.079"
"2002"	"15.568"	"15.557"	"20.119"	"30.701"	"34.927"	"34.966"	"34.098"	"32.79"	"29.708"	"26.497"	"22.005"	"16.274"
