
"Year"	"Jan"	"Feb"	"Mar"	"Apr"	"May"	"Jun"	"Jul"	"Aug"	"Sep"	"Oct"	"Nov"	"Dec"
"1901"	"22.14"	"23.208"	"26.197"	"28.849"	"30.138"	"30.308"	"27.646"	"27.113"	"27.762"	"26.848"	"23.494"	"20.932"
"1902"	"21.771"	"23.574"	"26.921"	"28.48"	"30.252"	"30.1"	"27.259"	"27.793"	"27.43"	"26.736"	"23.492"	"21.258"
"1903"	"22.042"	"22.952"	"26.663"	"28.987"	"30.091"	"29.087"	"27.513"	"27.491"	"27.141"	"26.158"	"22.816"	"20.359"
"1904"	"21.386"	"22.686"	"26.34"	"29.013"	"29.252"	"28.232"	"27.27"	"27.06"	"27.136"	"26.336"	"23.317"	"21.2"
"1905"	"21.41"	"22.432"	"25.997"	"27.713"	"29.173"	"30.732"	"27.471"	"27.504"	"26.927"	"26.326"	"23.531"	"20.748"
"1906"	"22.295"	"23.814"	"25.461"	"29.31"	"30.863"	"28.863"	"27.532"	"27.291"	"27.69"	"26.624"	"23.595"	"21.958"
"1907"	"21.66"	"23.752"	"25.787"	"27.299"	"29.272"	"28.422"	"27.614"	"26.232"	"27.472"	"26.714"	"24.173"	"20.558"
"1908"	"20.012"	"23.373"	"25.962"	"29.278"	"30.063"	"29.444"	"27.193"	"26.36"	"27.349"	"26.358"	"22.83"	"19.957"
"1909"	"22.171"	"23.5"	"26.421"	"26.71"	"29.54"	"27.831"	"27.001"	"26.981"	"27.018"	"26.264"	"23.737"	"21.468"
"1910"	"21.696"	"23.075"	"26.23"	"28.646"	"30.131"	"29.055"	"27.143"	"27.338"	"27.264"	"26.177"	"22.005"	"19.839"
"1911"	"22.159"	"22.622"	"25.874"	"28.256"	"29.867"	"27.764"	"27.848"	"26.845"	"27.133"	"26.169"	"23.89"	"20.63"
"1912"	"21.491"	"23.979"	"27.16"	"28.243"	"30.617"	"29.907"	"27.039"	"26.794"	"27.117"	"26.281"	"22.651"	"19.656"
"1913"	"20.504"	"23.499"	"26.085"	"28.735"	"29.495"	"27.912"	"27.126"	"27.271"	"27.558"	"25.862"	"22.739"	"20.97"
"1914"	"20.868"	"23.866"	"26.166"	"26.82"	"28.518"	"28.108"	"26.982"	"26.893"	"26.961"	"26.371"	"23.603"	"21.345"
"1915"	"21.387"	"23.378"	"25.971"	"28.547"	"30.062"	"29.39"	"27.953"	"27.585"	"27.126"	"26.861"	"24.48"	"20.45"
"1916"	"20.929"	"23.822"	"26.373"	"28.745"	"30.336"	"27.799"	"27.305"	"27.303"	"27.341"	"26.308"	"23.584"	"20.455"
"1917"	"20.826"	"22.718"	"25.195"	"28.187"	"28.069"	"27.86"	"27.343"	"27.214"	"27.137"	"26.036"	"23.073"	"20.533"
"1918"	"20.541"	"22.612"	"26.062"	"28.039"	"28.849"	"27.281"	"28.145"	"27.048"	"27.779"	"26.665"	"24.476"	"21.544"
"1919"	"22.466"	"23.865"	"26.771"	"28.842"	"29.99"	"27.951"	"27.539"	"27.379"	"27.551"	"26.259"	"23.583"	"20.89"
"1920"	"21.338"	"23.636"	"26.764"	"28.366"	"29.592"	"29.137"	"27.344"	"27.47"	"27.632"	"26.584"	"23.718"	"20.267"
"1921"	"21.404"	"22.857"	"26.866"	"28.47"	"32.093"	"29.166"	"27.493"	"27.182"	"26.979"	"25.493"	"21.862"	"20.93"
"1922"	"20.927"	"23.331"	"26.974"	"28.966"	"30.552"	"28.698"	"26.947"	"27.408"	"26.907"	"25.44"	"23.155"	"19.812"
"1923"	"20.154"	"22.743"	"25.052"	"28.4"	"30.421"	"30.925"	"27.393"	"27.221"	"27.039"	"25.948"	"22.828"	"20.766"
"1924"	"20.998"	"23.824"	"26.655"	"29.619"	"29.786"	"30.456"	"27.77"	"27.359"	"26.84"	"26.398"	"23.006"	"20.259"
"1925"	"20.718"	"22.73"	"26.373"	"28.537"	"29.845"	"28.606"	"26.604"	"27.256"	"27.44"	"25.797"	"23.519"	"19.993"
"1926"	"21.215"	"23.591"	"25.987"	"28.273"	"29.873"	"31.181"	"27.64"	"26.924"	"27.24"	"25.725"	"22.451"	"20.858"
"1927"	"22.192"	"23.946"	"26.687"	"29.514"	"30.738"	"29.554"	"27.28"	"27.167"	"27.454"	"26.268"	"22.915"	"21.052"
"1928"	"21.174"	"23.664"	"26.541"	"28.275"	"30.474"	"28.579"	"27.141"	"27.66"	"27.363"	"26.342"	"23.304"	"21.258"
"1929"	"22.073"	"22.511"	"26.358"	"28.746"	"30.802"	"29.007"	"27.044"	"27.037"	"27.262"	"25.483"	"22.713"	"21.314"
"1930"	"21.094"	"21.997"	"26.153"	"28.773"	"29.631"	"29"	"27.415"	"27.047"	"27.119"	"26.226"	"22.495"	"20.558"
"1931"	"21.248"	"23.506"	"26.44"	"29.308"	"30.231"	"30.635"	"27.061"	"27.44"	"27.422"	"26.07"	"22.896"	"20.943"
"1932"	"20.962"	"22.432"	"26.484"	"28.854"	"29.622"	"29.488"	"26.869"	"27.221"	"27.45"	"26.861"	"23.723"	"20.9"
"1933"	"20.998"	"23.13"	"26.063"	"28.362"	"28.784"	"28.033"	"27.185"	"27.002"	"27.15"	"26.145"	"23.207"	"21.011"
"1934"	"20.585"	"22.708"	"26.255"	"29.08"	"31.183"	"28.847"	"27.149"	"26.906"	"27.155"	"25.758"	"22.115"	"20.809"
"1935"	"20.967"	"23.456"	"26.318"	"28.063"	"31.286"	"29.683"	"27.011"	"27.217"	"27.252"	"26.57"	"22.891"	"21.414"
"1936"	"22.874"	"22.9"	"26.539"	"28.92"	"29.378"	"27.895"	"27.383"	"26.857"	"27.245"	"25.893"	"24.276"	"21.535"
"1937"	"20.531"	"23.483"	"26.066"	"27.881"	"30.046"	"29.224"	"27.248"	"27.246"	"27.154"	"25.859"	"23.404"	"20.218"
"1938"	"22.49"	"22.87"	"27.253"	"28.821"	"29.809"	"27.251"	"26.952"	"27.219"	"27.041"	"25.893"	"22.084"	"20.014"
"1939"	"21.155"	"23.059"	"25.753"	"28.898"	"30.701"	"29.535"	"26.816"	"27.415"	"27.371"	"26.448"	"22.702"	"20.569"
"1940"	"19.626"	"23.008"	"25.52"	"28.631"	"29.57"	"28.63"	"26.679"	"26.937"	"27.552"	"26.427"	"24.672"	"21.448"
"1941"	"22.184"	"23.569"	"26.853"	"29.801"	"30.252"	"28.509"	"27.482"	"28.045"	"27.542"	"26.057"	"22.115"	"21.723"
"1942"	"21.384"	"23.068"	"26.741"	"28.523"	"31.208"	"30.081"	"27.288"	"27.259"	"27.121"	"25.989"	"22.847"	"21.435"
"1943"	"21.978"	"21.732"	"26.143"	"28.138"	"29.916"	"28.897"	"27.514"	"26.971"	"27.362"	"26.427"	"23.496"	"20.651"
"1944"	"21.486"	"22.746"	"25.226"	"27.808"	"30.75"	"29.819"	"26.945"	"27.234"	"27.452"	"26.371"	"23.201"	"21.599"
"1945"	"20.707"	"23.121"	"26.821"	"28.623"	"31.237"	"30.448"	"27.357"	"27.711"	"27.135"	"25.787"	"22.698"	"19.74"
"1946"	"19.878"	"23.029"	"27.063"	"27.24"	"29.917"	"28.483"	"27.292"	"27.058"	"27.443"	"26.463"	"24.656"	"22.318"
"1947"	"22.149"	"22.977"	"26.879"	"30.19"	"31.145"	"29.746"	"26.857"	"27.316"	"27.495"	"25.958"	"23.091"	"20.904"
"1948"	"21.687"	"23.882"	"26.073"	"28.934"	"30.697"	"30.168"	"27.574"	"27.36"	"27.362"	"26.546"	"24.366"	"20.057"
"1949"	"21.24"	"23.018"	"26.619"	"28.211"	"29.774"	"29.486"	"27.426"	"27.361"	"27.163"	"26.449"	"22.591"	"20.439"
"1950"	"21.142"	"23.299"	"25.254"	"28.981"	"30.199"	"28.623"	"26.579"	"27.338"	"27.232"	"26.144"	"22.307"	"20.201"
"1951"	"20.593"	"23.059"	"26.012"	"28.521"	"29.928"	"28.886"	"27.461"	"27.335"	"28.139"	"27.251"	"23.818"	"21.227"
"1952"	"21.453"	"23.9"	"26.039"	"28.843"	"30.561"	"30.113"	"27.707"	"27.382"	"27.585"	"26.169"	"23.304"	"22.116"
"1953"	"21.406"	"24.123"	"28.306"	"29.904"	"31.912"	"29.884"	"27.858"	"27.155"	"27.568"	"26.649"	"23.027"	"21.096"
"1954"	"20.836"	"24.651"	"26.584"	"30.228"	"30.862"	"28.96"	"27.559"	"27.603"	"26.959"	"25.536"	"21.817"	"21.325"
"1955"	"21.12"	"24.279"	"26.987"	"29.05"	"29.418"	"29.722"	"27.737"	"27.229"	"27.03"	"25.762"	"22.404"	"20.711"
"1956"	"21.926"	"22.279"	"27.26"	"29.734"	"30.271"	"27.722"	"26.77"	"27.315"	"27.171"	"25.671"	"23.319"	"21.482"
"1957"	"22.173"	"23.392"	"25.806"	"28.918"	"31.389"	"30.526"	"27.389"	"27.214"	"27.774"	"27.173"	"23.805"	"22.098"
"1958"	"22.452"	"24.101"	"26.876"	"29.753"	"31.563"	"31.588"	"27.301"	"27.706"	"27.33"	"26.471"	"24.11"	"21.844"
"1959"	"21.862"	"24.023"	"26.962"	"29.246"	"31.25"	"29.218"	"27.113"	"26.793"	"27.242"	"26.182"	"22.825"	"20.635"
"1960"	"21.332"	"23.276"	"25.983"	"29.641"	"30.604"	"29.808"	"27.17"	"27.793"	"27.942"	"26.377"	"23.526"	"22.18"
"1961"	"21.512"	"22.443"	"27.631"	"29.649"	"30.884"	"28.719"	"26.641"	"27.526"	"26.647"	"25.673"	"22.325"	"19.625"
"1962"	"19.703"	"22.567"	"26.484"	"28.586"	"30.757"	"29.074"	"27.434"	"27.226"	"27.563"	"25.928"	"22.908"	"21.393"
"1963"	"20.106"	"23.333"	"26.44"	"28.148"	"29.984"	"29.275"	"27.27"	"27.333"	"27.611"	"26.384"	"24.35"	"21.537"
"1964"	"22.542"	"24.366"	"27.728"	"29.257"	"30.61"	"29.795"	"27.316"	"26.713"	"27.219"	"26.537"	"23.66"	"21.2"
"1965"	"21.769"	"23.776"	"26.265"	"28.576"	"30.761"	"30.85"	"27.415"	"27.763"	"27.462"	"26.77"	"23.89"	"21.97"
"1966"	"21.043"	"24.055"	"26.909"	"28.884"	"31.543"	"29.462"	"28.339"	"28.099"	"28.127"	"26.334"	"25.06"	"21.021"
"1967"	"21.33"	"24.353"	"25.597"	"28.68"	"31.231"	"30.399"	"27.957"	"27.335"	"27.794"	"26.567"	"23.56"	"23.479"
"1968"	"21.497"	"24.233"	"26.909"	"28.641"	"30.838"	"29.389"	"28.179"	"28.112"	"27.762"	"25.89"	"23.533"	"21.47"
"1969"	"21.756"	"25.221"	"28.462"	"30.068"	"29.439"	"29.829"	"27.458"	"27.537"	"27.744"	"27.009"	"24.581"	"21.332"
"1970"	"21.95"	"25.166"	"27.096"	"29.106"	"29.766"	"28.252"	"27.48"	"27.317"	"27.55"	"26.279"	"22.944"	"19.401"
"1971"	"21.534"	"23.925"	"25.683"	"26.67"	"27.855"	"27.408"	"27.016"	"26.472"	"27.364"	"26.257"	"23.254"	"20.297"
"1972"	"21.09"	"23.132"	"27.263"	"29.126"	"31.725"	"31.289"	"28.29"	"28.056"	"27.744"	"26.646"	"24.311"	"22.923"
"1973"	"23.327"	"25.166"	"26.765"	"30.455"	"31.136"	"30.554"	"27.589"	"27.446"	"27.879"	"26.562"	"23.158"	"21.077"
"1974"	"21.472"	"23.781"	"27.618"	"29.491"	"30.614"	"30.061"	"28.181"	"28.029"	"27.84"	"26.528"	"23.524"	"20.215"
"1975"	"20.394"	"23.924"	"27.154"	"29.384"	"31.3"	"28.866"	"27.216"	"27.338"	"26.716"	"26.627"	"22.293"	"19.955"
"1976"	"20.07"	"23.343"	"27.059"	"28.709"	"30.344"	"29.587"	"27.29"	"27.037"	"27.64"	"27.181"	"25.176"	"21.914"
"1977"	"21.486"	"23.781"	"27.543"	"28.199"	"28.915"	"29.039"	"27.462"	"27.448"	"27.381"	"26.122"	"24.806"	"20.763"
"1978"	"21.105"	"23.21"	"26.227"	"28.41"	"31.239"	"29.559"	"27.192"	"26.724"	"27.632"	"27.001"	"24.785"	"21.781"
"1979"	"22.062"	"23.766"	"26.519"	"29.173"	"30.46"	"29.456"	"28.693"	"28.047"	"27.587"	"27.07"	"25.152"	"22.058"
"1980"	"22.485"	"24.645"	"27.108"	"29.456"	"30.596"	"28.483"	"27.113"	"27.128"	"27.69"	"26.303"	"24.159"	"22.025"
"1981"	"21.184"	"24.495"	"26.399"	"28.914"	"29.818"	"29.752"	"27.882"	"27.434"	"27.566"	"27.145"	"24.002"	"21.857"
"1982"	"22.842"	"24.709"	"26.821"	"28.893"	"30.569"	"29.625"	"28.869"	"27.158"	"28.019"	"27.201"	"24.583"	"22.29"
"1983"	"22.251"	"24.457"	"27.631"	"29.124"	"30.209"	"30.545"	"28.093"	"27.748"	"27.552"	"26.578"	"23.848"	"21.355"
"1984"	"22.401"	"23.424"	"27.063"	"29.19"	"31.111"	"28.76"	"27.436"	"27.557"	"27.561"	"26.88"	"23.013"	"22.333"
"1985"	"22.367"	"23.83"	"27.41"	"29.315"	"30.185"	"28.911"	"26.543"	"26.629"	"27.452"	"24.947"	"22.731"	"21.461"
"1986"	"20.545"	"23.325"	"26.634"	"28.125"	"29.581"	"27.991"	"27.139"	"27.216"	"27.488"	"25.909"	"23.267"	"21.587"
"1987"	"20.747"	"22.348"	"25.353"	"28.027"	"28.997"	"30.011"	"27.783"	"27.283"	"27.927"	"26.239"	"23.157"	"20.939"
"1988"	"21.072"	"23.185"	"26.509"	"27.77"	"29.36"	"28.527"	"26.747"	"27.79"	"27.933"	"26.733"	"24.421"	"22.623"
"1989"	"21.51"	"24.219"	"26.763"	"29.619"	"30.697"	"28.776"	"27.782"	"27.66"	"27.542"	"27.149"	"24.018"	"21.118"
"1990"	"22.575"	"23.922"	"25.44"	"28.089"	"28.39"	"28.538"	"27.171"	"27.547"	"27.757"	"26.081"	"24.334"	"21.972"
"1991"	"22.069"	"25.102"	"27.897"	"29.097"	"30.752"	"29.012"	"28.088"	"28.307"	"28.158"	"26.79"	"23.307"	"21.118"
"1992"	"20.794"	"23.601"	"26.531"	"28.978"	"30.088"	"29.46"	"28.096"	"27.315"	"27.762"	"26.89"	"24.042"	"20.823"
"1993"	"22.084"	"23.391"	"26.506"	"28.789"	"30.209"	"29.667"	"28.1"	"28.198"	"27.251"	"27.078"	"24.023"	"21.224"
"1994"	"22.075"	"23.689"	"27.772"	"28.813"	"30.806"	"29.262"	"27.08"	"26.933"	"27.624"	"26.681"	"23.618"	"21.044"
"1995"	"20.917"	"23.632"	"26.914"	"29.183"	"29.181"	"30.347"	"27.595"	"28.347"	"27.862"	"26.371"	"24.092"	"21.848"
"1996"	"22.477"	"23.433"	"27.377"	"28.61"	"31.265"	"29.104"	"28.302"	"27.026"	"27.931"	"26.471"	"24.221"	"21.359"
"1997"	"21.016"	"23.409"	"26.899"	"27.406"	"29.795"	"30.343"	"28.403"	"27.547"	"27.571"	"26.57"	"25.297"	"23.149"
"1998"	"22.631"	"24.3"	"26.634"	"28.669"	"30.679"	"30.176"	"27.883"	"27.907"	"27.953"	"27.461"	"25.216"	"21.217"
"1999"	"21.221"	"24.999"	"27.918"	"30.445"	"29.798"	"28.976"	"28.037"	"27.646"	"27.585"	"27.102"	"23.736"	"21.1"
"2000"	"22.634"	"24.231"	"26.785"	"29.793"	"30.529"	"28.689"	"27.692"	"27.724"	"27.984"	"27.397"	"24.427"	"21.021"
"2001"	"21.697"	"24.741"	"27.594"	"28.895"	"30.928"	"28.609"	"28.042"	"27.535"	"28.686"	"27.28"	"25.085"	"21.666"
"2002"	"22.501"	"24.463"	"27.897"	"29.189"	"31.309"	"29.27"	"28.529"	"27.356"	"28.282"	"27.105"	"23.607"	"22.037"
