
"Year"	"Jan"	"Feb"	"Mar"	"Apr"	"May"	"Jun"	"Jul"	"Aug"	"Sep"	"Oct"	"Nov"	"Dec"
"1901"	"3.5"	"0"	"0"	"0.5"	"33.2"	"47"	"200.3"	"127.6"	"1.6"	"5.7"	"0"	"0"
"1902"	"0.2"	"0"	"0"	"0"	"14.6"	"6.4"	"107.4"	"217.3"	"292.9"	"0"	"0"	"7"
"1903"	"0"	"0"	"0"	"0"	"9.1"	"3.5"	"388.6"	"117.6"	"101.2"	"1.1"	"0"	"0"
"1904"	"0"	"15.8"	"5.7"	"0"	"11.4"	"17.5"	"182.7"	"20.7"	"56.6"	"4"	"0"	"1.3"
"1905"	"0"	"0"	"6"	"0"	"0"	"25.8"	"424.6"	"12.4"	"88.4"	"0"	"0"	"0.7"
"1906"	"0.2"	"7.5"	"0"	"0"	"0"	"220.7"	"307"	"207.3"	"114.8"	"3.5"	"0"	"0"
"1907"	"0"	"6.9"	"0"	"0.7"	"0"	"47.6"	"231.6"	"363.4"	"13"	"0"	"0"	"0"
"1908"	"3.7"	"0"	"0"	"0"	"0"	"53.7"	"330.3"	"320.3"	"4.4"	"0"	"0"	"0"
"1909"	"0.4"	"4.5"	"0"	"4.2"	"0.6"	"155.2"	"286.7"	"161.6"	"81.9"	"0"	"0"	"4.7"
"1910"	"5.3"	"0"	"0"	"0"	"1.9"	"201.8"	"243.9"	"208.1"	"15.3"	"24.2"	"14.3"	"0"
"1911"	"7.4"	"0"	"13"	"0"	"0"	"109.5"	"54.2"	"24.9"	"28.5"	"0"	"0.4"	"0"
"1912"	"0"	"0"	"0"	"3"	"5.9"	"66.7"	"426.6"	"285.7"	"31.2"	"0"	"12.1"	"0"
"1913"	"0"	"0"	"11.1"	"0"	"23.6"	"255.3"	"368.3"	"82"	"160.9"	"0"	"0"	"0"
"1914"	"0"	"4.1"	"0"	"0"	"20.9"	"107.4"	"387.4"	"122.9"	"214.5"	"13.2"	"0"	"0"
"1915"	"3"	"0"	"2.7"	"1"	"9.8"	"89.4"	"96.1"	"44.3"	"14.7"	"68.5"	"0"	"0"
"1916"	"0"	"0"	"0"	"0"	"5.1"	"102"	"109.1"	"255.5"	"96.4"	"28.5"	"0"	"0"
"1917"	"0"	"10.7"	"0"	"2.6"	"66"	"98.2"	"270.5"	"203.1"	"290.9"	"76"	"0"	"0"
"1918"	"0"	"0"	"0"	"0"	"34.3"	"28.7"	"37"	"116.4"	"30.3"	"0"	"0"	"0"
"1919"	"11.5"	"0"	"0"	"0.3"	"16.2"	"67.7"	"248.7"	"321.1"	"46.6"	"5.5"	"32.6"	"0"
"1920"	"0.8"	"0"	"0"	"0"	"82.3"	"163"	"329.3"	"36"	"4.3"	"0"	"0"	"0"
"1921"	"0"	"0"	"0"	"0"	"0"	"12.2"	"375.8"	"188.7"	"313.6"	"0"	"0"	"0"
"1922"	"0"	"0"	"0"	"0.2"	"0"	"68.7"	"337.1"	"84.6"	"265.5"	"0"	"1"	"0"
"1923"	"0"	"8.6"	"0"	"0.4"	"7.4"	"0.9"	"128"	"123.3"	"36.1"	"3.4"	"0"	"0"
"1924"	"1"	"0"	"0"	"0"	"36.3"	"56.6"	"241.7"	"127.8"	"137.9"	"5.1"	"0"	"1.3"
"1925"	"0"	"0"	"0"	"0"	"16.1"	"192.4"	"256.2"	"41.5"	"1.1"	"0.7"	"11.6"	"0"
"1926"	"4.6"	"0"	"0"	"4.2"	"13"	"24.6"	"378.7"	"341.4"	"320.6"	"0"	"0"	"0.3"
"1927"	"0"	"2.5"	"0"	"0"	"0"	"177.2"	"694.2"	"103.9"	"90.3"	"18.1"	"3.1"	"13.2"
"1928"	"0"	"0.7"	"0"	"0"	"0"	"37.4"	"381.3"	"167.6"	"125.1"	"32.6"	"28.9"	"0"
"1929"	"0.9"	"0"	"0"	"5"	"0"	"108.9"	"289.1"	"125.7"	"5.1"	"0"	"0"	"6.9"
"1930"	"0.3"	"0.2"	"0"	"0"	"1.1"	"65.6"	"435.3"	"115.6"	"88.5"	"18.7"	"0"	"1.5"
"1931"	"0"	"0"	"0"	"0.2"	"0.3"	"3.6"	"132.4"	"411.2"	"89.4"	"65.1"	"2.8"	"4.3"
"1932"	"0"	"0"	"0"	"0"	"0"	"47.4"	"498.2"	"101.2"	"76.3"	"10.7"	"0"	"0"
"1933"	"0"	"4.1"	"0"	"2.8"	"58.6"	"75.9"	"236.9"	"457.6"	"146.3"	"0.5"	"0"	"0"
"1934"	"0"	"0"	"0"	"0"	"0"	"135.1"	"300"	"246.4"	"29.8"	"0"	"2.6"	"0"
"1935"	"5.8"	"2.4"	"0"	"1.2"	"0"	"72.6"	"302.7"	"58.9"	"143.2"	"10.8"	"0"	"0"
"1936"	"0"	"1.2"	"11.9"	"0"	"0"	"176.3"	"126.1"	"43.9"	"149.5"	"0"	"32.7"	"0"
"1937"	"0"	"4.7"	"0"	"0"	"0"	"226.9"	"427.3"	"5.7"	"235.1"	"0"	"0"	"0.8"
"1938"	"0.3"	"0"	"0"	"0"	"36.5"	"193.7"	"284.5"	"57.9"	"8.4"	"11.6"	"0"	"0"
"1939"	"0"	"0.2"	"13.5"	"0"	"0"	"13.3"	"120.5"	"208.3"	"88.1"	"0"	"0"	"0"
"1940"	"4.2"	"0"	"0.8"	"1.6"	"0.9"	"97.3"	"137.9"	"143.3"	"15.2"	"9.1"	"20.1"	"0"
"1941"	"0.2"	"3"	"8.7"	"2.5"	"0"	"18.4"	"543"	"144"	"29.1"	"0"	"0"	"0"
"1942"	"2.5"	"4.2"	"0"	"0"	"21.5"	"71.4"	"469.9"	"294.6"	"166.2"	"0"	"0"	"0"
"1943"	"0"	"0"	"0"	"0"	"36.5"	"110.1"	"402.1"	"80.8"	"112.7"	"51.8"	"7.6"	"0"
"1944"	"3.4"	"0"	"1.4"	"2.6"	"3.3"	"125.4"	"444.7"	"324"	"39.5"	"17.6"	"0"	"0"
"1945"	"2.2"	"0"	"0"	"0.7"	"3.9"	"97.4"	"402.4"	"142.1"	"252.1"	"0"	"0"	"0"
"1946"	"0"	"0"	"0"	"0"	"0.6"	"124.3"	"259.6"	"263.2"	"24.3"	"0"	"15.3"	"12.5"
"1947"	"0.2"	"0"	"0"	"1"	"0"	"4.3"	"217.8"	"162.4"	"108.2"	"4.9"	"43.3"	"0"
"1948"	"7.8"	"0"	"0"	"0"	"1"	"42"	"133.6"	"69.7"	"33.4"	"25.5"	"10.2"	"0"
"1949"	"0"	"0"	"0"	"0"	"0"	"4.6"	"283.3"	"158.7"	"148.8"	"9.6"	"2.1"	"0"
"1950"	"0"	"0"	"0"	"0"	"0"	"0.9"	"515.1"	"50.4"	"257.2"	"0"	"0"	"0"
"1951"	"0"	"0"	"0"	"0"	"0"	"33.9"	"154.1"	"132.6"	"1.7"	"3.4"	"9.7"	"0"
"1952"	"0"	"0"	"0"	"0"	"0"	"47.8"	"421.5"	"143.8"	"1.5"	"0"	"0"	"0"
"1953"	"21.4"	"0"	"0"	"0"	"0.5"	"76.7"	"142.3"	"366.9"	"146.7"	"0"	"0"	"0"
"1954"	"0"	"0"	"15.1"	"0"	"0"	"78.1"	"254.1"	"150"	"448"	"6.7"	"0"	"0"
"1955"	"0"	"1.2"	"0"	"0"	"0"	"94.4"	"42.8"	"287.1"	"316.2"	"46.9"	"0"	"0"
"1956"	"0"	"3.1"	"2"	"0"	"0.5"	"53.6"	"539.3"	"197.6"	"146.5"	"86.9"	"2.7"	"0"
"1957"	"1.3"	"0"	"0"	"1.6"	"5.9"	"119.9"	"227.7"	"76.3"	"2.4"	"5.9"	"11.8"	"1.9"
"1958"	"0"	"0"	"0"	"0"	"0"	"85.9"	"202.8"	"135.7"	"418"	"89.1"	"0.8"	"0"
"1959"	"0"	"0"	"0"	"2.2"	"1.2"	"93"	"485.4"	"144"	"421.2"	"112.8"	"2.1"	"0"
"1960"	"2.3"	"0"	"0"	"0"	"2.9"	"107.5"	"99.7"	"133.4"	"43.6"	"10.3"	"0"	"1.5"
"1961"	"0"	"1.2"	"0"	"0"	"8.8"	"101"	"265.2"	"107.3"	"277.3"	"1.2"	"0"	"0"
"1962"	"0"	"0"	"1.6"	"0.8"	"0"	"84.9"	"272"	"141.5"	"212.8"	"0"	"1.6"	"0"
"1963"	"0"	"0"	"0.4"	"4.9"	"11.5"	"33.3"	"133.6"	"336.3"	"290.2"	"29.7"	"49.9"	"0"
"1964"	"0"	"0"	"0"	"0"	"7.7"	"41.8"	"322.5"	"141.9"	"120.5"	"0"	"0"	"0"
"1965"	"8.4"	"0"	"0"	"1.2"	"1.5"	"13.8"	"253.1"	"82.4"	"29.8"	"0"	"1.2"	"0"
"1966"	"2"	"0"	"0"	"0"	"0"	"82.8"	"245.3"	"41.7"	"168.7"	"0"	"0"	"0"
"1967"	"0"	"0"	"12.7"	"0"	"0"	"148.7"	"428.5"	"145.2"	"65.2"	"0"	"0"	"17.5"
"1968"	"0"	"0"	"5.8"	"0"	"0"	"10.2"	"141.1"	"143.8"	"13.7"	"0"	"0"	"0"
"1969"	"0"	"0"	"0"	"0"	"0"	"61.5"	"220.4"	"96.6"	"122.7"	"0"	"0.6"	"2.7"
"1970"	"0.3"	"6.3"	"0"	"0.7"	"1.3"	"268.4"	"191.1"	"306.7"	"225.9"	"9.2"	"0"	"0"
"1971"	"0"	"0"	"0"	"0"	"15"	"113"	"227.4"	"93.5"	"61.3"	"14"	"0"	"0"
"1972"	"0"	"6.5"	"0"	"0"	"0"	"38.8"	"135.7"	"102.9"	"3.3"	"0"	"0"	"0"
"1973"	"2.5"	"0.5"	"0"	"0"	"6.2"	"60.7"	"236.2"	"270.1"	"329.8"	"2.4"	"0"	"0.3"
"1974"	"0"	"0"	"0"	"0"	"62.5"	"68.8"	"100.7"	"49.8"	"37.7"	"41.2"	"0"	"5.5"
"1975"	"0"	"0"	"0"	"0"	"0"	"139"	"95.3"	"361"	"416"	"33.7"	"0"	"0"
"1976"	"5.8"	"0"	"0"	"0"	"0"	"200.2"	"420.5"	"328.8"	"84.8"	"0"	"55"	"0"
"1977"	"3.6"	"0.4"	"0"	"2.1"	"26.4"	"168.3"	"555.3"	"174.1"	"93.4"	"0"	"3"	"0"
"1978"	"0"	"2.6"	"0"	"2.9"	"0"	"59.5"	"197.2"	"268.7"	"26.1"	"6.7"	"30.9"	"15.7"
"1979"	"0"	"6.7"	"0"	"0"	"15.2"	"68.7"	"83.7"	"276.6"	"26"	"5.2"	"87.9"	"0"
"1980"	"0"	"0.4"	"0"	"0"	"0"	"216.6"	"168.4"	"173.3"	"19.6"	"0"	"3.2"	"23.4"
"1981"	"0"	"0"	"7.1"	"0"	"8.8"	"64.6"	"267.6"	"319.7"	"82"	"60.7"	"14.7"	"0"
"1982"	"2.6"	"0"	"1.2"	"5.9"	"49.7"	"20.2"	"236.6"	"156.5"	"3"	"17.4"	"105.8"	"0"
"1983"	"2.4"	"0"	"0"	"6"	"0"	"96.2"	"443"	"207.5"	"107.1"	"42.8"	"0"	"0"
"1984"	"0"	"0"	"0"	"0"	"0"	"11.8"	"216.6"	"366.1"	"47.9"	"0"	"0"	"0"
"1985"	"0"	"0"	"0"	"0.8"	"0.2"	"4.9"	"241.7"	"165.2"	"14"	"41.7"	"2.2"	"0"
"1986"	"0"	"0.2"	"0"	"0"	"11.9"	"229.6"	"72.8"	"105.9"	"5.6"	"0.5"	"0"	"1.1"
"1987"	"0.8"	"2.2"	"0.2"	"0"	"7.1"	"22.6"	"44.8"	"154.3"	"2"	"2.6"	"0.9"	"24.7"
"1988"	"0"	"0"	"0"	"4.2"	"0.2"	"39.8"	"376.5"	"152.5"	"93.1"	"3.8"	"0"	"0"
"1989"	"1.2"	"0"	"0.8"	"0"	"1"	"86.1"	"217.8"	"270.7"	"19.4"	"0"	"0"	"0"
"1990"	"0"	"3"	"0"	"0"	"33.7"	"24.5"	"209.3"	"459.4"	"121"	"15.7"	"1"	"28.3"
"1991"	"0"	"0"	"0"	"0"	"0.2"	"36"	"373.3"	"79.4"	"11.2"	"0"	"0.6"	"0"
"1992"	"0"	"0"	"0"	"0"	"1.9"	"39.6"	"193.3"	"105.3"	"192.2"	"1.5"	"2.9"	"0"
"1993"	"0"	"0"	"0"	"0"	"3.9"	"22.7"	"444.5"	"61.5"	"84.8"	"10"	"8.9"	"0.4"
"1994"	"5.8"	"0"	"0.9"	"0"	"0.8"	"87.2"	"354.5"	"272.7"	"417.5"	"0.8"	"0.2"	"0"
"1995"	"0.3"	"0"	"0.9"	"0.9"	"1.7"	"12.2"	"218.2"	"64.4"	"70.6"	"2"	"2.9"	"4.7"
"1996"	"0.3"	"0"	"0"	"0"	"1"	"79.3"	"358.6"	"198.8"	"83.1"	"52.2"	"0.2"	"0"
"1997"	"7.2"	"0"	"0"	"3.5"	"20.7"	"131.9"	"156.3"	"241.3"	"76.9"	"2.4"	"4.3"	"1.4"
"1998"	"0.2"	"1"	"0.2"	"0"	"1.2"	"94.2"	"392.7"	"160"	"186.1"	"50.7"	"1.2"	"0"
"1999"	"0"	"3.2"	"0"	"0"	"6.1"	"162.4"	"264.7"	"32.4"	"30.1"	"49.1"	"0"	"0"
"2000"	"0"	"0"	"0"	"0"	"19.6"	"57.9"	"416.4"	"92.9"	"7.2"	"0.8"	"0.3"	"0"
"2001"	"0"	"0"	"0"	"0.4"	"47.2"	"193.8"	"206.9"	"130.2"	"3.6"	"30.5"	"0.5"	"0"
"2002"	"0"	"0.5"	"0.3"	"0.6"	"0.3"	"138.4"	"56.4"	"95.8"	"61.4"	"0"	"0"	"0"
