
"Year"	"Jan"	"Feb"	"Mar"	"Apr"	"May"	"Jun"	"Jul"	"Aug"	"Sep"	"Oct"	"Nov"	"Dec"
"1901"	"18.6"	"20"	"27.3"	"31.3"	"34"	"34"	"31"	"28.8"	"29.2"	"29"	"25"	"21.9"
"1902"	"20.9"	"22.7"	"28.5"	"32.1"	"34"	"33.2"	"31.2"	"30"	"29.1"	"29"	"24.4"	"20.4"
"1903"	"19.7"	"20.7"	"25.2"	"29.6"	"33.6"	"33.8"	"30.9"	"29.3"	"29.3"	"28.3"	"22.5"	"19.9"
"1904"	"20"	"21.8"	"25.8"	"31.5"	"33.8"	"32.6"	"29.6"	"29"	"29.2"	"28.7"	"24.2"	"21"
"1905"	"18.8"	"18.5"	"24.6"	"29.1"	"34.7"	"33.2"	"30"	"29.6"	"29.7"	"29.1"	"25.4"	"20.8"
"1906"	"18.6"	"20.1"	"25.5"	"30.3"	"34.2"	"32.3"	"30.1"	"29.1"	"28.6"	"28.3"	"24.8"	"21.3"
"1907"	"20.8"	"21.5"	"26.2"	"30.2"	"32.7"	"32.8"	"31.7"	"27.9"	"28.7"	"28.3"	"25.2"	"19.8"
"1908"	"19.6"	"21.2"	"25.4"	"31.3"	"33.3"	"33"	"29.1"	"28.2"	"28.7"	"28.4"	"23.7"	"19.7"
"1909"	"19.4"	"21.6"	"27.3"	"30.2"	"33.2"	"32.4"	"29.2"	"28.2"	"28.2"	"27.6"	"24"	"20.1"
"1910"	"19.7"	"21.9"	"26.6"	"30.2"	"33.2"	"32.1"	"29.3"	"28.7"	"28.8"	"27.2"	"22.7"	"20.3"
"1911"	"20.6"	"21.5"	"25.1"	"30"	"34"	"31.7"	"30.5"	"28.9"	"28.5"	"28.3"	"23.7"	"21.6"
"1912"	"20.9"	"23.1"	"26.4"	"31.3"	"34"	"33.8"	"30.1"	"28.6"	"28.6"	"28.3"	"23.3"	"20.2"
"1913"	"19.8"	"21.7"	"24.6"	"31.3"	"33.1"	"32.3"	"29.7"	"28.3"	"28.7"	"28.8"	"24.4"	"20.6"
"1914"	"21.2"	"21.4"	"25.9"	"30.6"	"34.3"	"32.3"	"29.7"	"28.9"	"29.3"	"28.7"	"25.7"	"20"
"1915"	"19.7"	"20.7"	"27"	"30.3"	"34"	"34.1"	"31.2"	"29.4"	"30"	"29.4"	"24.8"	"21.1"
"1916"	"20.7"	"20.8"	"28"	"31.4"	"33.8"	"31.7"	"30.7"	"28.7"	"29.3"	"28.1"	"22.7"	"20.2"
"1917"	"20.8"	"22"	"26.6"	"29.6"	"32.2"	"31.8"	"29.2"	"28.6"	"28.3"	"27.4"	"23.1"	"20.1"
"1918"	"18.7"	"22"	"26.6"	"29.4"	"33.8"	"32"	"30.7"	"29.1"	"28.8"	"28.2"	"25.4"	"20"
"1919"	"20"	"21.6"	"26.8"	"30.3"	"33.6"	"32.4"	"29.6"	"28.3"	"28.7"	"28.1"	"25"	"20.3"
"1920"	"20.4"	"21.4"	"27.3"	"30.7"	"32"	"32"	"29.3"	"28.5"	"29.8"	"29.2"	"25.1"	"20.4"
"1921"	"20.4"	"21.7"	"28.3"	"32.1"	"34"	"33.2"	"31.1"	"28.9"	"28.4"	"28.1"	"24.1"	"21.8"
"1922"	"19.3"	"22.9"	"27.1"	"31.6"	"33.7"	"32.8"	"30"	"28.7"	"28.4"	"27.9"	"23.9"	"19.9"
"1923"	"20.2"	"21.1"	"27.4"	"30.9"	"33"	"33.6"	"29.9"	"28.2"	"29.2"	"27.4"	"23.3"	"21"
"1924"	"19.8"	"22.3"	"28.5"	"31.7"	"33.3"	"33.5"	"30.4"	"29"	"28.6"	"27.3"	"22.5"	"20.7"
"1925"	"18.1"	"20.1"	"27.3"	"32.4"	"33.6"	"31.8"	"29.3"	"29.4"	"29.4"	"29.7"	"25"	"21.1"
"1926"	"20.5"	"23.8"	"27"	"29.1"	"33"	"34.3"	"30.6"	"29"	"28.3"	"27.7"	"22.7"	"19.9"
"1927"	"18.4"	"20.7"	"25.6"	"30"	"32.8"	"32.7"	"29.2"	"28"	"28.9"	"28"	"22.3"	"20.9"
"1928"	"19.8"	"21.5"	"26.8"	"30.7"	"33.6"	"32.4"	"29.4"	"28.3"	"28.4"	"27.8"	"24.1"	"19.6"
"1929"	"18.9"	"20.9"	"27.8"	"31.2"	"34"	"32.6"	"29.8"	"28.1"	"28.8"	"28.1"	"25.4"	"19.5"
"1930"	"19.8"	"21"	"27"	"30.5"	"33.6"	"32.9"	"28.7"	"28.2"	"29.5"	"29.1"	"23.6"	"21"
"1931"	"21"	"20.9"	"26.2"	"31.6"	"34"	"34.1"	"30.6"	"29"	"28.7"	"27.4"	"24.2"	"21.1"
"1932"	"21.5"	"21.6"	"26.7"	"30.5"	"33.6"	"32.3"	"29.5"	"28.4"	"29"	"29.4"	"23.8"	"21.4"
"1933"	"19.6"	"22.3"	"26.9"	"30.4"	"32.4"	"32.2"	"29.6"	"27.9"	"28.5"	"28.2"	"24.4"	"20.7"
"1934"	"18.1"	"22.5"	"26.2"	"31"	"33.4"	"32.8"	"29.4"	"28.5"	"28.3"	"27.4"	"23.8"	"21.5"
"1935"	"18.2"	"21.7"	"26.3"	"29.2"	"33.3"	"33.1"	"29.3"	"28.2"	"28.2"	"27.9"	"24.3"	"21"
"1936"	"19.1"	"21.9"	"26.1"	"29.9"	"34.1"	"31.5"	"29.6"	"28.9"	"28.7"	"27.9"	"24.6"	"20.4"
"1937"	"19"	"22.4"	"25.8"	"30"	"33.2"	"32.9"	"29"	"28.6"	"28.7"	"27.8"	"24.7"	"20"
"1938"	"19.9"	"20.5"	"28"	"31.2"	"33.8"	"31.1"	"29.3"	"28.9"	"29.3"	"28.2"	"23.1"	"21"
"1939"	"20.6"	"22.4"	"25.3"	"29.7"	"33.1"	"32.6"	"29.8"	"29.4"	"28.6"	"28.3"	"24.3"	"21.3"
"1940"	"20.8"	"22.4"	"25.3"	"30"	"33.9"	"32.7"	"29.7"	"28.4"	"28.6"	"28.5"	"24.7"	"20.4"
"1941"	"19.5"	"23.2"	"27.3"	"31.3"	"33.6"	"33"	"28.4"	"28.4"	"28.9"	"29.3"	"24.4"	"22"
"1942"	"19.3"	"22.3"	"27.4"	"31.9"	"33"	"33.2"	"28.9"	"27.7"	"27.9"	"27.7"	"23.8"	"19.5"
"1943"	"19.4"	"22.2"	"27.1"	"30.2"	"34.4"	"31.1"	"28.3"	"27.9"	"27.9"	"27.5"	"24.7"	"21.1"
"1944"	"19.7"	"21.3"	"26.2"	"29.6"	"33.4"	"32.1"	"28.6"	"27.9"	"29"	"27.6"	"24.1"	"21.3"
"1945"	"18"	"21.3"	"27.2"	"30.1"	"32.7"	"32.7"	"28.3"	"28.4"	"28.1"	"27.2"	"22.8"	"19.3"
"1946"	"19.6"	"23.3"	"26.2"	"31.4"	"32.7"	"31.7"	"29.1"	"27.4"	"28.2"	"28.2"	"22.2"	"20.2"
"1947"	"19.2"	"22.4"	"27.1"	"30.1"	"33.6"	"33.2"	"29.9"	"29.6"	"27.9"	"26.4"	"23.6"	"20.3"
"1948"	"19.1"	"21.6"	"27.4"	"31.8"	"34.3"	"33.3"	"31.3"	"29.1"	"29.3"	"29.2"	"24.7"	"21.1"
"1949"	"21.9"	"22.2"	"27.9"	"32"	"34.5"	"33.1"	"30.2"	"29"	"29"	"28.4"	"23.5"	"19.9"
"1950"	"20.3"	"19.6"	"26.4"	"31"	"33.6"	"33.1"	"28.1"	"28.4"	"28.3"	"29.4"	"23.3"	"20.6"
"1951"	"18.7"	"21.6"	"27.2"	"29.1"	"33.3"	"32.9"	"31.2"	"28.5"	"30.3"	"30.6"	"25.9"	"20.9"
"1952"	"21"	"23.6"	"27"	"31.7"	"34.2"	"32.6"	"29.3"	"27.7"	"28.7"	"29.1"	"23.8"	"21.3"
"1953"	"19.7"	"24.5"	"29.1"	"31.5"	"33"	"32.8"	"29.6"	"27.5"	"28.3"	"27.7"	"23.5"	"21.8"
"1954"	"18.9"	"23.6"	"27.5"	"31.3"	"33.8"	"32.8"	"29.5"	"29.1"	"27.2"	"26.3"	"23.6"	"20.1"
"1955"	"20.5"	"23.2"	"28.8"	"29.2"	"33.3"	"32.2"	"30.6"	"28.1"	"28"	"27.5"	"22.4"	"20.3"
"1956"	"20.1"	"21.7"	"28.1"	"31.2"	"33.7"	"32"	"27.4"	"27.5"	"28.1"	"26"	"23"	"20.2"
"1957"	"19.3"	"20"	"25.4"	"30.2"	"32.5"	"32.4"	"30.2"	"28.9"	"29.2"	"29"	"26.2"	"21.9"
"1958"	"21.6"	"22.4"	"27.9"	"32.2"	"34.2"	"33.5"	"29.4"	"29.4"	"27.6"	"27.5"	"24.3"	"21.5"
"1959"	"19.7"	"22.3"	"28.1"	"31.4"	"34.3"	"32.8"	"28.1"	"27.6"	"27.5"	"27.5"	"24.1"	"20.8"
"1960"	"19.3"	"24"	"25.7"	"30.3"	"33"	"32"	"30"	"27.7"	"29.3"	"28.4"	"23.9"	"21.8"
"1961"	"20.1"	"20.8"	"28.2"	"30.7"	"33.6"	"31.8"	"28.7"	"28.7"	"27.6"	"27"	"24.4"	"19.8"
"1962"	"18.5"	"23.1"	"26.7"	"31"	"34.1"	"32.6"	"29.4"	"28.7"	"28.3"	"26.1"	"24.4"	"21.4"
"1963"	"20.6"	"24"	"27.3"	"30.4"	"32.9"	"32.8"	"29.8"	"28.2"	"27.6"	"28.2"	"25.3"	"21.9"
"1964"	"18.2"	"22.4"	"28.6"	"31.8"	"33.3"	"32.2"	"29"	"28.3"	"28.7"	"27.9"	"23.4"	"20.5"
"1965"	"22"	"22.6"	"26.5"	"30.4"	"32.9"	"33.2"	"29.7"	"29"	"28.9"	"29.2"	"25.6"	"21.6"
"1966"	"21.6"	"24.8"	"26.3"	"30.5"	"33.3"	"32.7"	"30.5"	"29.2"	"28.9"	"29.6"	"25.8"	"20.9"
"1967"	"18.6"	"24.1"	"26.8"	"30.4"	"33.7"	"31.7"	"29.1"	"28.1"	"28.4"	"28.7"	"25.2"	"22.4"
"1968"	"19.3"	"21.1"	"27"	"30.8"	"32.5"	"33.7"	"30.7"	"27.8"	"30.2"	"29.2"	"25.3"	"21.1"
"1969"	"20.6"	"23"	"29.4"	"32.2"	"33.9"	"33.2"	"30.7"	"28.4"	"29"	"29"	"26.8"	"22.2"
"1970"	"20.7"	"22.7"	"27.3"	"32.2"	"34.5"	"31.4"	"29.4"	"28.7"	"28.1"	"29.2"	"23.5"	"20.1"
"1971"	"19.5"	"22.3"	"27.4"	"32.5"	"33.1"	"30.9"	"28.7"	"28.2"	"29"	"27.6"	"23.8"	"20.4"
"1972"	"20.1"	"19.8"	"27.9"	"30.3"	"33.6"	"33.4"	"29.8"	"29.1"	"29.4"	"29.4"	"24.6"	"21"
"1973"	"18.7"	"23.4"	"27.5"	"32.5"	"34.1"	"32.8"	"28.5"	"28.1"	"26.8"	"27.6"	"23.4"	"20.5"
"1974"	"19.5"	"20.4"	"28.3"	"31.5"	"32.5"	"32.9"	"30.3"	"29.5"	"30.4"	"29.5"	"23.1"	"20.4"
"1975"	"18.6"	"22"	"25.8"	"28.6"	"33.8"	"32.1"	"29.9"	"28.4"	"28.1"	"28"	"23.1"	"20.6"
"1976"	"20.2"	"22.2"	"27"	"31.2"	"33.4"	"32"	"29.5"	"28.1"	"28.2"	"29.1"	"27.4"	"21.8"
"1977"	"19.5"	"22.7"	"29"	"32.6"	"33.8"	"32.1"	"29.4"	"29"	"28.8"	"30"	"26.9"	"22.2"
"1978"	"19.4"	"22.4"	"26"	"32.4"	"34.6"	"32.7"	"29.5"	"28.7"	"28.3"	"29"	"26.3"	"21.9"
"1979"	"20.7"	"21.1"	"26.3"	"30.8"	"33.6"	"34.3"	"30.6"	"28.4"	"30.3"	"29.5"	"26.7"	"22.2"
"1980"	"20.3"	"22.9"	"27.6"	"29.5"	"34.9"	"31.7"	"30.2"	"29"	"29.7"	"30"	"26.2"	"21.4"
"1981"	"20.7"	"22.6"	"27.7"	"32.5"	"34.3"	"34"	"29.8"	"28.3"	"29.6"	"28.7"	"22.7"	"20.9"
"1982"	"20.5"	"21.7"	"25.8"	"31"	"31.7"	"32.8"	"30.5"	"28.8"	"29.4"	"29.7"	"25"	"21.7"
"1983"	"19.2"	"20.5"	"25.8"	"29.7"	"33.8"	"32.9"	"30"	"28.5"	"29.3"	"27.1"	"22.3"	"19.9"
"1984"	"18.4"	"19.5"	"27.7"	"32.2"	"34.1"	"32.6"	"29.2"	"27.2"	"27.7"	"27.5"	"24"	"20.8"
"1985"	"19"	"21.2"	"28.5"	"31.4"	"33.8"	"32.9"	"29.9"	"28.2"	"29.3"	"27.6"	"25.2"	"22.4"
"1986"	"20.7"	"22.4"	"27.2"	"31.7"	"33.6"	"32.2"	"29.7"	"27.8"	"29.6"	"29.2"	"26"	"20.5"
"1987"	"21.1"	"23.3"	"27.8"	"31.7"	"33.6"	"33.6"	"31.6"	"31"	"31.3"	"31.1"	"26.9"	"22.7"
"1988"	"22.1"	"24.5"	"27.4"	"32.6"	"34.4"	"33.5"	"29.4"	"28.9"	"29.8"	"28.7"	"25"	"22.3"
"1989"	"19.3"	"22.3"	"26.6"	"31.3"	"33.9"	"31.9"	"29.4"	"28"	"29.4"	"28.9"	"26.5"	"21.6"
"1990"	"22.2"	"22.6"	"25.8"	"31.4"	"33.7"	"32.7"	"29.5"	"28"	"28.2"	"28.2"	"25.4"	"21.6"
"1991"	"19.3"	"22.3"	"27.5"	"31.3"	"33.9"	"33.9"	"29.8"	"28.4"	"28.7"	"27.7"	"25.3"	"21.3"
"1992"	"20.3"	"20"	"26.8"	"29.9"	"33.8"	"33.9"	"30.4"	"28.5"	"27.7"	"28.2"	"24.7"	"22.4"
"1993"	"21.1"	"23.2"	"26.6"	"31.2"	"34.2"	"33.8"	"29.7"	"29.9"	"29.4"	"29.7"	"26.2"	"22.7"
"1994"	"21.8"	"21.7"	"28.7"	"31"	"34.1"	"31.9"	"28.1"	"29.2"	"28.9"	"28"	"25.1"	"21.1"
"1995"	"19.3"	"22.4"	"26.1"	"30.6"	"34"	"34.5"	"30.6"	"29.4"	"29.6"	"30.2"	"25"	"22.3"
"1996"	"20.8"	"23.4"	"29.3"	"31.3"	"33.8"	"33"	"30.1"	"28.1"	"28.3"	"28.1"	"24.5"	"21.7"
"1997"	"19.8"	"21.8"	"27.6"	"29.7"	"32.6"	"32"	"29.6"	"28.3"	"28.8"	"27.8"	"26.2"	"21"
"1998"	"20.2"	"21.8"	"26.6"	"32.1"	"34.9"	"33.6"	"29.7"	"29.5"	"28.9"	"30.7"	"24.5"	"20.8"
"1999"	"19.4"	"23.4"	"27.1"	"31.8"	"33"	"31.8"	"29.6"	"28.6"	"29.7"	"27.8"	"25"	"20.9"
"2000"	"20.8"	"20.9"	"26.4"	"32.5"	"32.8"	"33"	"29.2"	"29.4"	"29.5"	"29.7"	"25.9"	"22.2"
"2001"	"19.8"	"22.3"	"27.3"	"31.3"	"33.4"	"30.4"	"28.2"	"28.6"	"30.2"	"29.6"	"25.5"	"21.8"
"2002"	"19.7"	"21.9"	"27.7"	"32"	"34.4"	"32.8"	"30.2"	"28.4"	"29"	"30.1"	"25.5"	"22.5"
