
"Year"	"Jan"	"Feb"	"Mar"	"Apr"	"May"	"Jun"	"Jul"	"Aug"	"Sep"	"Oct"	"Nov"	"Dec"
"1901"	"14.782"	"18.235"	"23.196"	"29.417"	"32.405"	"33.856"	"29.496"	"27.984"	"27.175"	"25.929"	"20.018"	"15.542"
"1902"	"16.753"	"18.636"	"26.13"	"29.371"	"33.497"	"34.038"	"29.065"	"28.994"	"27.622"	"25.261"	"19.618"	"15.268"
"1903"	"16.351"	"17.84"	"24.073"	"30.156"	"33.175"	"32.852"	"29.994"	"28.755"	"28.33"	"25.409"	"19.012"	"14.798"
"1904"	"16.112"	"18.126"	"24.313"	"30.831"	"32.088"	"30.874"	"27.747"	"27.687"	"27.622"	"25.249"	"19.311"	"16.509"
"1905"	"15.132"	"15.275"	"22.562"	"27.014"	"32.24"	"35.423"	"28.71"	"28.225"	"27.469"	"24.935"	"20.033"	"15.993"
"1906"	"15.531"	"18.478"	"22.694"	"29.896"	"34.049"	"32.725"	"29.051"	"28.208"	"28.117"	"25.386"	"20.374"	"16.448"
"1907"	"16.651"	"17.647"	"22.264"	"27.202"	"31.596"	"31.683"	"30.016"	"28.069"	"28.079"	"25.745"	"19.994"	"14.939"
"1908"	"14.302"	"18.761"	"23.645"	"31.562"	"33.776"	"33.55"	"29.2"	"28.468"	"28.393"	"25.214"	"19.314"	"14.899"
"1909"	"17.535"	"18.49"	"23.905"	"27.682"	"33.189"	"29.744"	"28.268"	"27.966"	"27.82"	"24.824"	"20.334"	"16.605"
"1910"	"15.416"	"18.396"	"24.274"	"30.128"	"32.927"	"31.01"	"28.811"	"28.085"	"28.062"	"25.387"	"19.561"	"15.4"
"1911"	"18.533"	"17.89"	"22.979"	"29.589"	"33.975"	"30.238"	"30.468"	"27.476"	"27.475"	"25.418"	"20.434"	"15.027"
"1912"	"16.261"	"19.687"	"24.086"	"29.243"	"32.775"	"33.511"	"29.165"	"28.046"	"27.567"	"25.388"	"19.539"	"15.094"
"1913"	"15.901"	"18.608"	"22.226"	"30.459"	"31.419"	"28.897"	"28.737"	"27.804"	"27.636"	"24.942"	"19.133"	"15.47"
"1914"	"16.318"	"19.369"	"23.269"	"28.273"	"31.398"	"31.482"	"28.753"	"28.357"	"27.622"	"24.412"	"21.099"	"16.202"
"1915"	"16.706"	"18.799"	"23.638"	"29.868"	"34.009"	"32.845"	"29.994"	"28.754"	"27.823"	"26.773"	"21.729"	"15.639"
"1916"	"15.046"	"19.202"	"25.478"	"30.929"	"34.248"	"29.738"	"28.853"	"27.985"	"27.92"	"25.949"	"20.33"	"14.54"
"1917"	"15.82"	"18.645"	"23.262"	"28.099"	"29.769"	"30.511"	"28.637"	"27.826"	"27.578"	"25.711"	"19.166"	"15.672"
"1918"	"14.967"	"18.607"	"24.392"	"28.721"	"32.72"	"29.043"	"30.304"	"27.261"	"27.711"	"24.72"	"19.569"	"15.227"
"1919"	"18.497"	"17.961"	"24.588"	"28.759"	"31.996"	"30.902"	"28.221"	"27.971"	"27.521"	"24.884"	"20.373"	"15.497"
"1920"	"15.803"	"18.701"	"24.218"	"29.727"	"31.267"	"33.574"	"28.449"	"28.027"	"27.834"	"25.884"	"20.569"	"15.684"
"1921"	"16.804"	"18.023"	"25.918"	"31.14"	"35.37"	"31.936"	"29.398"	"27.274"	"27.458"	"24.489"	"18.627"	"16.424"
"1922"	"15.982"	"19.176"	"24.69"	"29.704"	"34.026"	"29.636"	"27.811"	"27.095"	"26.753"	"23.568"	"19.19"	"15.075"
"1923"	"15.795"	"18.234"	"23.116"	"30.332"	"33.761"	"34.314"	"28.58"	"27.622"	"27.923"	"24.429"	"19.613"	"16.804"
"1924"	"16.015"	"18.951"	"25.685"	"30.745"	"33.048"	"34.506"	"28.19"	"28.142"	"27.334"	"25.382"	"19.985"	"15.891"
"1925"	"14.775"	"17.518"	"23.658"	"29.74"	"31.947"	"31.048"	"27.664"	"28.143"	"27.925"	"25.257"	"20.183"	"15.593"
"1926"	"16.062"	"19.4"	"23.332"	"27.123"	"31.331"	"34.811"	"29.411"	"28.139"	"27.313"	"24.718"	"18.298"	"15.585"
"1927"	"15.887"	"18.704"	"22.272"	"29.237"	"31.832"	"33.226"	"29.094"	"27.73"	"28.471"	"25.476"	"20.106"	"16.764"
"1928"	"16.358"	"18.848"	"24.844"	"28.774"	"32.998"	"30.703"	"28.319"	"28.447"	"28.495"	"26.342"	"20.596"	"16.614"
"1929"	"16.117"	"17.689"	"24.71"	"30.065"	"34.042"	"32.74"	"28.341"	"27.277"	"28.387"	"24.59"	"19.868"	"15.512"
"1930"	"15.483"	"18.026"	"24.573"	"29.126"	"32.168"	"32.731"	"28.176"	"27.845"	"28.08"	"26.061"	"20.035"	"15.563"
"1931"	"17.777"	"18.424"	"23.55"	"30.415"	"33.388"	"33.287"	"28.791"	"28.427"	"28.221"	"25.769"	"20.086"	"16.442"
"1932"	"17.413"	"18.148"	"24.454"	"29.445"	"32.706"	"33.782"	"29.115"	"28.124"	"28.249"	"25.833"	"20.321"	"15.864"
"1933"	"15.029"	"19.269"	"24.523"	"27.469"	"31.082"	"30.806"	"28.552"	"27.601"	"27.921"	"25.284"	"19.618"	"15.803"
"1934"	"15.518"	"18.356"	"23.927"	"29.901"	"33.174"	"32.135"	"28.677"	"28.085"	"28.064"	"24.678"	"19.783"	"16.509"
"1935"	"15.122"	"19.014"	"24.209"	"27.521"	"33.287"	"33.105"	"29.255"	"27.538"	"27.622"	"24.983"	"20.023"	"16.626"
"1936"	"15.279"	"18.329"	"24.768"	"28.821"	"32.896"	"30.081"	"28.357"	"27.974"	"27.517"	"24.326"	"20.623"	"16.509"
"1937"	"14.207"	"19.319"	"22.923"	"28.296"	"32.134"	"32.776"	"29.051"	"27.738"	"27.992"	"24.647"	"20.178"	"14.841"
"1938"	"17.018"	"17.351"	"25.769"	"30.251"	"32.381"	"30.128"	"28.813"	"27.749"	"28.15"	"25.782"	"19.719"	"15.146"
"1939"	"16.814"	"19.703"	"23.224"	"29.174"	"33.867"	"31.869"	"28.462"	"27.442"	"27.45"	"25.428"	"19.756"	"15.84"
"1940"	"15.117"	"18.691"	"22.774"	"28.409"	"32.823"	"32.865"	"28.457"	"27.928"	"27.622"	"25.717"	"21.222"	"16.508"
"1941"	"16.629"	"18.858"	"25.686"	"31.331"	"33.353"	"31.071"	"29.074"	"28.158"	"28.037"	"24.939"	"20.001"	"16.728"
"1942"	"15.834"	"18.471"	"24.241"	"29.198"	"33.988"	"33.675"	"28.46"	"27.685"	"26.886"	"24.947"	"21.178"	"16.308"
"1943"	"18.12"	"17.438"	"24.29"	"27.921"	"33.336"	"32.216"	"28.527"	"27.194"	"28.016"	"26.084"	"20.441"	"16.619"
"1944"	"16.225"	"18.809"	"22.888"	"27.201"	"33.871"	"32.504"	"28.487"	"27.637"	"28.535"	"24.527"	"20.341"	"17.77"
"1945"	"15.264"	"17.465"	"24.356"	"27.784"	"32.368"	"32.974"	"29.101"	"29.109"	"27.865"	"24.338"	"19.621"	"14.581"
"1946"	"16.014"	"19.973"	"23.706"	"28.333"	"32.183"	"31.34"	"28.066"	"28.014"	"27.524"	"25.297"	"20.709"	"17.937"
"1947"	"16.057"	"18.633"	"24.703"	"30.34"	"33.125"	"33.415"	"28.883"	"28.285"	"27.971"	"25.08"	"20.541"	"16.79"
"1948"	"17.507"	"19.217"	"23.536"	"30.435"	"33.731"	"33.286"	"28.397"	"27.935"	"27.374"	"25.22"	"21.201"	"15.636"
"1949"	"16.644"	"18.523"	"24.041"	"29.268"	"32.019"	"32.839"	"28.751"	"27.725"	"27.526"	"26.004"	"18.66"	"14.962"
"1950"	"16.534"	"18.36"	"23.106"	"28.641"	"33.362"	"31.004"	"28.473"	"27.647"	"27.54"	"24.762"	"19.294"	"16.02"
"1951"	"15.152"	"18.568"	"24.178"	"28.339"	"33.068"	"32.923"	"28.797"	"28.667"	"28.29"	"27.226"	"21.184"	"16.12"
"1952"	"17.182"	"20.812"	"23.667"	"29.927"	"33.896"	"32.476"	"29.348"	"28.07"	"27.645"	"25.642"	"20.242"	"16.54"
"1953"	"16.234"	"20.563"	"27.077"	"30.216"	"33.985"	"32.891"	"28.294"	"28.061"	"27.495"	"25.246"	"19.615"	"17.652"
"1954"	"15.275"	"20.943"	"24.164"	"31.116"	"33.97"	"32.058"	"29.318"	"28.382"	"27.713"	"23.847"	"18.685"	"16.209"
"1955"	"16.652"	"18.996"	"26.145"	"28.71"	"33.845"	"33.24"	"28.051"	"27.84"	"27.654"	"25.425"	"20.105"	"16.423"
"1956"	"16.847"	"18.936"	"25.637"	"31.005"	"33.919"	"29.458"	"28.431"	"27.458"	"26.785"	"24.411"	"19.183"	"17.636"
"1957"	"17.53"	"18.17"	"23.392"	"29.771"	"34.206"	"33.623"	"28.535"	"28.425"	"27.686"	"25.88"	"20.501"	"17.569"
"1958"	"17.87"	"20.022"	"26.073"	"31.405"	"34.177"	"34.974"	"29.623"	"28.113"	"27.622"	"26.079"	"21.625"	"17.714"
"1959"	"17.231"	"18.547"	"24.699"	"30.39"	"33.68"	"32.856"	"29.021"	"27.922"	"27.327"	"25.53"	"20.288"	"16.185"
"1960"	"16.586"	"20.289"	"23.732"	"30.053"	"33.129"	"33.469"	"28.481"	"28.314"	"27.742"	"25.658"	"19.514"	"16.992"
"1961"	"17.057"	"17.742"	"25.012"	"29.896"	"33.845"	"30.798"	"28.327"	"28.132"	"27.602"	"25.181"	"19.226"	"13.252"
"1962"	"14.246"	"18.657"	"23.057"	"29.411"	"32.303"	"32.373"	"29.636"	"27.854"	"27.28"	"23.881"	"20.371"	"16.819"
"1963"	"14.696"	"20.344"	"23.965"	"29.406"	"31.676"	"31.45"	"28.484"	"28.298"	"27.219"	"25.734"	"21.055"	"17.566"
"1964"	"16.135"	"18.228"	"25.314"	"30.404"	"31.732"	"31.682"	"26.567"	"28.031"	"27.622"	"25.605"	"19.963"	"16.809"
"1965"	"16.899"	"19.179"	"22.971"	"27.569"	"31.414"	"33.865"	"29.204"	"28.143"	"27.076"	"25.588"	"21.324"	"15.84"
"1966"	"16.223"	"20.699"	"24.594"	"31.075"	"33.742"	"32.732"	"30.065"	"28.067"	"28.133"	"25.96"	"22.815"	"16.302"
"1967"	"16.956"	"20.753"	"23.521"	"28.369"	"32.749"	"34.199"	"29.608"	"27.582"	"27.408"	"24.483"	"19.941"	"17.817"
"1968"	"16.217"	"18.303"	"23.957"	"28.934"	"32.647"	"31.046"	"28.4"	"27.588"	"28.459"	"24.887"	"20.256"	"16.165"
"1969"	"15.973"	"20.647"	"25.97"	"30.361"	"32.055"	"32.721"	"28.995"	"27.696"	"27.117"	"25.83"	"21.869"	"16.944"
"1970"	"17.488"	"18.669"	"23.921"	"30.737"	"32.977"	"30.435"	"28.275"	"27.884"	"27.123"	"25.165"	"19.519"	"15.384"
"1971"	"15.632"	"17.94"	"23.006"	"27.484"	"29.844"	"28.783"	"27.138"	"26.654"	"27.072"	"25.191"	"19.66"	"15.9"
"1972"	"15.379"	"16.626"	"24.05"	"29.284"	"33.484"	"33.717"	"29.091"	"28.268"	"26.566"	"24.404"	"20.522"	"16.273"
"1973"	"16.145"	"19.912"	"23.058"	"30.354"	"32.997"	"31.235"	"28.864"	"28.235"	"27.209"	"25.325"	"20.218"	"16.414"
"1974"	"15.03"	"18.108"	"24.247"	"30.171"	"32.412"	"32.934"	"28.554"	"28.105"	"27.933"	"26.371"	"20.074"	"14.67"
"1975"	"15.188"	"19.016"	"23.865"	"30.018"	"33.35"	"31.822"	"28.029"	"27.826"	"27.22"	"26.181"	"20.159"	"15.79"
"1976"	"16.184"	"19.866"	"24.508"	"28.931"	"32.091"	"32.456"	"28.832"	"27.854"	"27.123"	"25.82"	"22.308"	"17"
"1977"	"15.978"	"19.317"	"25.769"	"29.481"	"30.052"	"31.245"	"28.063"	"28.281"	"27.857"	"25.261"	"22.182"	"15.735"
"1978"	"15.174"	"18.666"	"22.299"	"28.684"	"33.233"	"31.27"	"28.29"	"28.168"	"27.578"	"25.208"	"21.767"	"16.331"
"1979"	"17.07"	"16.826"	"23.427"	"29.427"	"33.142"	"32.517"	"29.506"	"29.199"	"27.287"	"26.439"	"23.357"	"17.596"
"1980"	"16.828"	"19.633"	"23.552"	"31.11"	"33.034"	"30.818"	"28.359"	"27.625"	"27.457"	"25.66"	"21.358"	"17.009"
"1981"	"15.768"	"19.018"	"23.82"	"28.802"	"31.645"	"32.524"	"28.495"	"28.603"	"28.374"	"25.341"	"20.245"	"16.065"
"1982"	"18.194"	"18.867"	"23.041"	"29.311"	"31.938"	"31.505"	"30.96"	"28.387"	"28.317"	"25.707"	"20.891"	"16.986"
"1983"	"15.329"	"18.992"	"24.536"	"28.506"	"31.615"	"33.06"	"29.438"	"28.999"	"28.761"	"25.17"	"19.956"	"16.947"
"1984"	"16.732"	"17.999"	"24.618"	"30.538"	"33.653"	"29.81"	"28.101"	"27.578"	"27.327"	"25.92"	"19.544"	"16.909"
"1985"	"17.527"	"18.869"	"26.122"	"30.443"	"33.343"	"33.012"	"27.929"	"28.222"	"28.04"	"25.107"	"20.763"	"17.989"
"1986"	"16.203"	"18.835"	"23.752"	"29.847"	"31.374"	"31.875"	"27.912"	"27.433"	"27.233"	"24.583"	"21.871"	"16.793"
"1987"	"15.797"	"19.906"	"24.049"	"29.561"	"31.841"	"34.029"	"28.782"	"27.762"	"27.621"	"25.211"	"20.812"	"16.894"
"1988"	"16.821"	"19.879"	"24.103"	"29.93"	"33.406"	"30.386"	"28.67"	"28.551"	"29.161"	"25.848"	"20.711"	"17.876"
"1989"	"15.464"	"19.204"	"24.68"	"30.039"	"33.366"	"30.516"	"28.499"	"27.896"	"28.223"	"25.857"	"21.231"	"16.551"
"1990"	"17.42"	"19.767"	"22.961"	"29.736"	"30.85"	"31.597"	"27.516"	"28.124"	"28.256"	"24.585"	"21.512"	"17.247"
"1991"	"15.827"	"20.572"	"23.96"	"28.786"	"33.382"	"30.269"	"29.351"	"27.233"	"27.531"	"25.237"	"19.889"	"16.037"
"1992"	"15.411"	"17.16"	"25.002"	"29.823"	"31.472"	"31.797"	"30.072"	"28.194"	"28.026"	"25.973"	"21.942"	"16.962"
"1993"	"17.397"	"21.028"	"24.035"	"29.174"	"33.556"	"33.589"	"29.743"	"28.131"	"27.622"	"26.276"	"19.984"	"16.566"
"1994"	"17.714"	"18.961"	"25.228"	"28.705"	"33.116"	"31.954"	"28.106"	"27.575"	"27.615"	"26.16"	"21.626"	"17.07"
"1995"	"15.046"	"19.446"	"23.608"	"29.658"	"32.266"	"33.995"	"28.791"	"27.565"	"27.515"	"25.885"	"21.523"	"17.244"
"1996"	"17.047"	"18.144"	"25.525"	"28.091"	"33.589"	"30.525"	"28.557"	"27.313"	"28.264"	"25.671"	"21.27"	"16.175"
"1997"	"15.709"	"17.687"	"24.316"	"27.415"	"32.009"	"33.764"	"28.262"	"27.775"	"27.224"	"26.089"	"21.893"	"17.702"
"1998"	"16.104"	"19.393"	"21.524"	"28.019"	"31.575"	"34.53"	"28.03"	"28.39"	"28.065"	"27.866"	"21.873"	"17.884"
"1999"	"15.666"	"19.891"	"24.826"	"31.273"	"32.619"	"31.761"	"28.48"	"28.041"	"27.452"	"26.842"	"22.351"	"17.997"
"2000"	"16.348"	"18.438"	"23.551"	"30.717"	"32.595"	"30.819"	"29.494"	"28.399"	"27.082"	"27.287"	"23.142"	"17.101"
"2001"	"16.047"	"18.707"	"24.268"	"29.706"	"33.339"	"29.806"	"27.709"	"28.489"	"28.334"	"27.6"	"23.417"	"18.752"
"2002"	"16.173"	"20.089"	"25.173"	"29.902"	"33.813"	"32.9"	"30.079"	"27.944"	"27.622"	"25.692"	"21.383"	"18.199"
