
"Year"	"Jan"	"Feb"	"Mar"	"Apr"	"May"	"Jun"	"Jul"	"Aug"	"Sep"	"Oct"	"Nov"	"Dec"
"1901"	"12.807"	"15.383"	"22.723"	"27.985"	"32.132"	"35.376"	"32.5"	"30.016"	"30.151"	"27.901"	"21.048"	"15.864"
"1902"	"15.608"	"17.959"	"24.65"	"29.043"	"32.732"	"33.099"	"30.757"	"30.955"	"29.142"	"26.225"	"20.165"	"14.502"
"1903"	"14.297"	"16.001"	"21.352"	"27.197"	"31.789"	"35.43"	"32.961"	"29.816"	"30.128"	"26.032"	"19.62"	"14.379"
"1904"	"13.691"	"17.029"	"21.938"	"29.285"	"31.95"	"34.173"	"30.029"	"29.053"	"28.913"	"26.196"	"19.453"	"15.286"
"1905"	"12.352"	"12.191"	"18.897"	"25.827"	"33.35"	"35.149"	"31.863"	"30.274"	"30.805"	"26.971"	"21.496"	"15.502"
"1906"	"13.315"	"14.753"	"20.341"	"28.163"	"34.664"	"33.19"	"31.484"	"29.411"	"28.7"	"26.713"	"21.312"	"16.052"
"1907"	"15.759"	"14.494"	"19.319"	"25.792"	"30.798"	"33.843"	"33.219"	"29.311"	"30.625"	"27.071"	"20.666"	"14.265"
"1908"	"13.836"	"16.91"	"22.314"	"29.415"	"32.433"	"35.02"	"29.93"	"28.298"	"29.124"	"25.926"	"19.58"	"14.522"
"1909"	"13.309"	"15.395"	"22.59"	"26.595"	"31.867"	"32.105"	"29.48"	"29.055"	"28.834"	"26.521"	"21.388"	"14.48"
"1910"	"13.629"	"16.569"	"22.497"	"27.576"	"32.931"	"33.126"	"30.729"	"29.403"	"29.31"	"25.093"	"19.381"	"14.643"
"1911"	"15.439"	"16.993"	"20.264"	"28.171"	"34.081"	"33.965"	"32.876"	"30.863"	"28.933"	"26.698"	"18.23"	"14.525"
"1912"	"14.547"	"17.566"	"21.801"	"28.228"	"33.066"	"35.3"	"31.564"	"29.453"	"28.174"	"26.294"	"19.205"	"14.676"
"1913"	"14.779"	"16.112"	"20.046"	"29.554"	"30.811"	"31.68"	"30.768"	"30.726"	"30.807"	"27.297"	"19.911"	"14.738"
"1914"	"15.999"	"16.141"	"21.796"	"28.635"	"32.675"	"33.11"	"30.438"	"29.645"	"29.434"	"24.894"	"20.548"	"14.304"
"1915"	"14.086"	"14.857"	"22.123"	"28.226"	"34.867"	"34.048"	"32.946"	"30.783"	"30.655"	"27.933"	"20.612"	"15.545"
"1916"	"14.981"	"16.079"	"25.193"	"30.119"	"32.675"	"32.751"	"30.688"	"28.989"	"29.011"	"25.755"	"18.65"	"14.068"
"1917"	"14.497"	"16.829"	"22.009"	"25.222"	"28.436"	"32.625"	"29.819"	"28.762"	"27.797"	"24.739"	"17.873"	"14.858"
"1918"	"13.488"	"16.927"	"22.032"	"26.198"	"34.437"	"33.512"	"33.791"	"31.511"	"30.376"	"26.885"	"20.087"	"14.196"
"1919"	"14.154"	"15.646"	"22.803"	"27.566"	"31.94"	"35.717"	"30.106"	"29.05"	"29.311"	"25.945"	"19.548"	"14.231"
"1920"	"14.324"	"15.722"	"22.21"	"28.117"	"29.532"	"32.65"	"30.215"	"30.267"	"30.974"	"27.729"	"21.606"	"15.996"
"1921"	"15.055"	"17.66"	"25.447"	"31.556"	"35.722"	"34.718"	"32.959"	"29.252"	"28.694"	"25.415"	"20.083"	"16.571"
"1922"	"13.758"	"17.798"	"24.114"	"29.254"	"33.387"	"33.208"	"30.991"	"29.042"	"28.31"	"25.536"	"19.735"	"14.519"
"1923"	"14.054"	"15.594"	"23.007"	"29.414"	"32.195"	"36.031"	"31.368"	"28.667"	"29.347"	"25.312"	"19.78"	"14.927"
"1924"	"13.18"	"16.075"	"23.589"	"29.167"	"29.951"	"35.832"	"31.171"	"29.332"	"28.216"	"25.436"	"19.661"	"15.221"
"1925"	"12.279"	"14.597"	"22.674"	"30.405"	"32.335"	"30.697"	"28.998"	"29.912"	"30.073"	"26.292"	"18.87"	"14.633"
"1926"	"14.41"	"17.684"	"21.079"	"25.326"	"30.286"	"35.305"	"31.475"	"28.988"	"28.573"	"25.229"	"17.951"	"14.314"
"1927"	"12.651"	"14.583"	"21.119"	"27.481"	"31.319"	"33.905"	"30.326"	"28.616"	"29.009"	"26.042"	"19.58"	"16.029"
"1928"	"13.497"	"16.974"	"22.537"	"28.123"	"34.131"	"33.743"	"31.374"	"31.256"	"30.326"	"27.067"	"20.796"	"14.673"
"1929"	"13.942"	"15.276"	"24.453"	"29.44"	"33.712"	"33.844"	"30.724"	"28.946"	"30.572"	"26.318"	"20.539"	"13.82"
"1930"	"13.253"	"16.186"	"23.438"	"28.173"	"32.601"	"33.008"	"29.288"	"29.414"	"29.188"	"26.178"	"19.583"	"14.802"
"1931"	"15.177"	"14.791"	"21.416"	"29.754"	"32.748"	"34.874"	"31.235"	"29.698"	"28.543"	"25.59"	"19.161"	"15.242"
"1932"	"15.43"	"15.514"	"23.551"	"28.613"	"31.512"	"35.412"	"31.32"	"28.515"	"28.745"	"26.167"	"19.713"	"14.453"
"1933"	"12.108"	"16.956"	"22.505"	"26.895"	"29.48"	"32.43"	"29.279"	"27.677"	"27.774"	"25.143"	"19.353"	"15.531"
"1934"	"12.492"	"17.91"	"21.416"	"28.315"	"31.907"	"32.675"	"30.369"	"28.032"	"29.721"	"25.688"	"19.826"	"15.545"
"1935"	"12.232"	"16.955"	"22.219"	"25.399"	"33.257"	"35.024"	"30.213"	"28.82"	"28.655"	"25.831"	"20.536"	"14.69"
"1936"	"12.877"	"16.746"	"21.893"	"28.113"	"34.374"	"30.95"	"29.729"	"28.637"	"28.502"	"25.79"	"19.789"	"14.782"
"1937"	"13.094"	"16.429"	"20.832"	"26.348"	"32.267"	"33.733"	"30.142"	"30.874"	"29.447"	"25.36"	"19.43"	"13.941"
"1938"	"13.203"	"15.101"	"23.715"	"29.576"	"34.545"	"32.398"	"31.2"	"30.341"	"30.699"	"27.291"	"18.534"	"14.667"
"1939"	"14.615"	"16.618"	"19.875"	"27.341"	"34.484"	"31.941"	"30.775"	"30.796"	"29.676"	"27.007"	"19.642"	"15.427"
"1940"	"13.995"	"16.086"	"20.699"	"27.389"	"33.739"	"34.704"	"31.438"	"28.411"	"29.03"	"26.242"	"20.617"	"14.704"
"1941"	"12.947"	"17.482"	"24.839"	"31.614"	"34.366"	"32.293"	"33.199"	"30.13"	"29.65"	"28.416"	"20.113"	"16.125"
"1942"	"12.704"	"17.754"	"24.218"	"30.201"	"33.671"	"35.067"	"29.45"	"28.087"	"27.675"	"25.929"	"20.879"	"13.89"
"1943"	"13.948"	"16.892"	"23.225"	"26.943"	"32.606"	"33.421"	"29.937"	"28.324"	"29.551"	"25.875"	"20.91"	"15.962"
"1944"	"13.136"	"16.081"	"21.154"	"27.407"	"34.489"	"32.947"	"29.906"	"29.536"	"28.955"	"25.553"	"20.483"	"16.005"
"1945"	"11.913"	"15.683"	"23.175"	"27.384"	"32.306"	"34.889"	"30.675"	"29.723"	"28.208"	"25.482"	"20.186"	"13.653"
"1946"	"14.94"	"18.318"	"22.022"	"29.529"	"32.596"	"33.482"	"30.128"	"29.314"	"29.468"	"26.437"	"19.791"	"14.328"
"1947"	"13.197"	"16.828"	"23.364"	"30.161"	"33.474"	"36.023"	"32.051"	"30.16"	"28.845"	"25.33"	"21.101"	"15.125"
"1948"	"13.232"	"16.114"	"21.079"	"31.359"	"34.075"	"35.109"	"30.943"	"28.263"	"29.044"	"26.912"	"19.256"	"14.815"
"1949"	"15.935"	"16.839"	"22.881"	"29.867"	"33.65"	"34.691"	"30.228"	"29.561"	"30.106"	"26.245"	"18.941"	"14.267"
"1950"	"15.299"	"14.643"	"21.358"	"27.577"	"33.154"	"34.479"	"30.084"	"29.027"	"28.298"	"25.444"	"19.235"	"13.501"
"1951"	"13.33"	"16.536"	"22.562"	"26.532"	"32.524"	"33.715"	"32.677"	"30.014"	"29.675"	"28.879"	"21.574"	"15.634"
"1952"	"15.387"	"18.902"	"22.355"	"31.158"	"33.266"	"33.148"	"31.214"	"28.599"	"30.444"	"27.024"	"20.526"	"15.742"
"1953"	"13.616"	"19.124"	"26.366"	"29.731"	"33.707"	"34.612"	"30.479"	"28.911"	"29.538"	"26.611"	"20.297"	"17.591"
"1954"	"13.309"	"17.534"	"22.813"	"29.707"	"34.498"	"34.645"	"31.262"	"30.569"	"30.027"	"24.073"	"20.277"	"15.496"
"1955"	"13.985"	"17.549"	"25.056"	"27.121"	"31.226"	"34.927"	"31.607"	"28.661"	"28.74"	"24.763"	"19.651"	"15.301"
"1956"	"14.293"	"17.551"	"23.052"	"29.825"	"34.403"	"33.862"	"30.021"	"29.024"	"30.276"	"25.063"	"19.253"	"15.53"
"1957"	"13.43"	"15.641"	"21.518"	"27.416"	"31.636"	"33.453"	"30.969"	"29.804"	"27.92"	"26.165"	"20.867"	"15.543"
"1958"	"15.719"	"15.942"	"23.901"	"30.865"	"32.77"	"34.901"	"30.065"	"29.016"	"29.019"	"26.235"	"20.526"	"16.205"
"1959"	"14.001"	"16.11"	"23.637"	"28.973"	"32.341"	"34.621"	"30.672"	"29.681"	"29.58"	"27.103"	"20.467"	"16.04"
"1960"	"13.718"	"19.765"	"21.993"	"27.656"	"33.213"	"34.883"	"30.67"	"28.875"	"29.926"	"25.677"	"19.645"	"16.035"
"1961"	"14.824"	"15.005"	"23.247"	"28.429"	"32.64"	"33.713"	"31.029"	"28.806"	"29.507"	"25.294"	"18.577"	"12.738"
"1962"	"12.98"	"17.521"	"22.649"	"29.754"	"33.022"	"34.489"	"31.539"	"30.12"	"28.21"	"24.918"	"20.046"	"14.724"
"1963"	"13.236"	"18.582"	"22.481"	"28.146"	"31.418"	"33.532"	"32.351"	"28.902"	"28.094"	"26.671"	"21.311"	"15.045"
"1964"	"12.461"	"16.745"	"24.365"	"29.581"	"30.918"	"34.314"	"29.111"	"29.505"	"27.809"	"25.689"	"19.143"	"15.056"
"1965"	"15.647"	"16.554"	"21.893"	"26.508"	"31.496"	"35.3"	"31.03"	"29.43"	"28.593"	"26.206"	"21.012"	"14.52"
"1966"	"14.798"	"19.009"	"22.87"	"29.182"	"32.633"	"32.956"	"32.152"	"29.329"	"28.541"	"26.28"	"19.976"	"14.39"
"1967"	"13.032"	"18.962"	"21.559"	"27.751"	"32.296"	"34.83"	"30.727"	"28.679"	"28.264"	"25.47"	"19.633"	"15.172"
"1968"	"13.549"	"15.279"	"22.433"	"28.027"	"32.37"	"34.081"	"30.62"	"29.53"	"30.307"	"25.737"	"20.612"	"15.5"
"1969"	"14.304"	"17.671"	"25.135"	"29.358"	"31.364"	"34.982"	"30.868"	"30.06"	"28.742"	"27.02"	"21.488"	"15.654"
"1970"	"14.735"	"16.22"	"22.251"	"29.817"	"33.34"	"31.79"	"31.795"	"29.551"	"29.522"	"26.882"	"20.068"	"15.826"
"1971"	"13.193"	"17.561"	"22.947"	"29.606"	"30.631"	"32.135"	"29.912"	"28.365"	"28.6"	"25.885"	"20.196"	"15.914"
"1972"	"14.698"	"14.992"	"23.543"	"27.916"	"34.149"	"35.241"	"31.811"	"29.225"	"28.445"	"25.728"	"21.074"	"16.002"
"1973"	"14.33"	"18.874"	"22.655"	"30.444"	"33.582"	"34.252"	"31.331"	"29.391"	"29.54"	"26.081"	"20.201"	"13.836"
"1974"	"14.074"	"15.661"	"24.252"	"30.623"	"32.445"	"33.691"	"30.263"	"30.252"	"30.26"	"26.433"	"20.123"	"14.41"
"1975"	"13.378"	"15.977"	"22.529"	"29.837"	"34.017"	"32.179"	"30.03"	"29.236"	"27.719"	"26.555"	"19.303"	"15.786"
"1976"	"15.344"	"17.276"	"22.042"	"27.956"	"31.89"	"31.978"	"31.115"	"28.42"	"28.987"	"26.787"	"21.343"	"15.068"
"1977"	"13.977"	"17.149"	"24.306"	"28.041"	"30.479"	"32.226"	"29.176"	"29.633"	"27.958"	"26.538"	"22.173"	"17.399"
"1978"	"13.811"	"15.505"	"20.577"	"28.337"	"35.224"	"33.435"	"29.556"	"29.107"	"28.643"	"26.421"	"20.873"	"15.629"
"1979"	"15.086"	"16.012"	"20.77"	"29.544"	"31.124"	"33.466"	"30.813"	"30.133"	"29.161"	"27.328"	"22.431"	"16.577"
"1980"	"14.476"	"18.116"	"21.835"	"31.124"	"36.15"	"32.947"	"29.396"	"29.62"	"29.095"	"26.897"	"20.781"	"16.172"
"1981"	"14.49"	"17.879"	"21.663"	"29.349"	"32.564"	"34.3"	"29.603"	"29.661"	"30.095"	"26.344"	"20.013"	"15.465"
"1982"	"14.817"	"15.969"	"19.883"	"27.209"	"29.275"	"33.118"	"32.056"	"29.391"	"29.609"	"26.711"	"21.17"	"16.491"
"1983"	"13.69"	"15.931"	"21.759"	"25.551"	"30.472"	"32.52"	"30.627"	"28.939"	"29.312"	"25.738"	"20.053"	"15.828"
"1984"	"13.307"	"15.258"	"24.603"	"29.346"	"34.933"	"34.153"	"30.022"	"28.985"	"28.057"	"25.886"	"20.531"	"16.286"
"1985"	"14.25"	"17.787"	"24.912"	"29.608"	"33.47"	"33.795"	"29.657"	"29.432"	"28.745"	"24.906"	"20.735"	"16.69"
"1986"	"14.306"	"16.357"	"22.54"	"28.54"	"30.463"	"33.114"	"30.028"	"29.812"	"29.053"	"25.775"	"21.584"	"14.792"
"1987"	"15.093"	"18.583"	"23.62"	"29.641"	"29.811"	"34.644"	"33.74"	"30.685"	"30.788"	"27.671"	"21.41"	"16.352"
"1988"	"16.082"	"18.73"	"22.903"	"30.296"	"34.782"	"32.92"	"29.824"	"28.606"	"29.476"	"26.432"	"20.995"	"16.342"
"1989"	"13.59"	"16.473"	"22.443"	"27.627"	"32.984"	"32.716"	"31.392"	"29.412"	"29.082"	"26.612"	"20.87"	"15.053"
"1990"	"16.709"	"16.978"	"20.979"	"28.258"	"31.969"	"34.13"	"30"	"29.507"	"28.61"	"25.469"	"21.067"	"16.147"
"1991"	"13.653"	"17.75"	"22.639"	"27.81"	"32.828"	"32.881"	"32.768"	"29.362"	"29.44"	"25.546"	"19.905"	"15.852"
"1992"	"15.021"	"15.907"	"22.653"	"28.316"	"31.844"	"34.459"	"30.259"	"28.945"	"28.326"	"25.827"	"19.981"	"16.823"
"1993"	"14.314"	"18.988"	"20.866"	"28.36"	"33.553"	"33.847"	"30.283"	"30.148"	"27.8"	"25.751"	"21.253"	"15.708"
"1994"	"15.499"	"16.976"	"24.049"	"27.153"	"33.243"	"34.097"	"29.897"	"29.238"	"28.878"	"25.604"	"20.467"	"16.342"
"1995"	"13.789"	"17.299"	"21.617"	"28.321"	"34"	"35.287"	"31.221"	"27.857"	"28.961"	"26.784"	"20.666"	"15.886"
"1996"	"14.477"	"17.393"	"23.66"	"29.135"	"32.455"	"31.917"	"30.435"	"28.111"	"28.613"	"25.764"	"19.679"	"14.757"
"1997"	"13.38"	"16.582"	"22.222"	"27.11"	"30.611"	"31.419"	"31.204"	"29.032"	"29.111"	"23.921"	"19.634"	"13.339"
"1998"	"12.892"	"17.263"	"20.849"	"29.241"	"33.731"	"33.36"	"30.675"	"29.233"	"29.395"	"26.25"	"21.11"	"15.746"
"1999"	"13.685"	"18.054"	"24.234"	"31.163"	"33.337"	"32.922"	"31.603"	"30.47"	"29.29"	"26.441"	"21.512"	"15.909"
"2000"	"14.533"	"15.69"	"22.326"	"30.729"	"33.893"	"31.919"	"29.9"	"29.819"	"29.488"	"26.824"	"21.847"	"16.284"
"2001"	"13.655"	"17.723"	"23.113"	"28.762"	"32.421"	"31.247"	"30.899"	"30.429"	"30.076"	"27.358"	"21.507"	"16.601"
"2002"	"14.663"	"17.195"	"23.679"	"30.521"	"33.9"	"33.385"	"32.586"	"30.299"	"27.632"	"26.718"	"21.066"	"16.35"
