
"Year"	"Jan"	"Feb"	"Mar"	"Apr"	"May"	"Jun"	"Jul"	"Aug"	"Sep"	"Oct"	"Nov"	"Dec"
"1901"	"15.546"	"18.705"	"22.824"	"26.334"	"26.022"	"27.409"	"27.462"	"27.477"	"26.986"	"25.814"	"21.098"	"17.169"
"1902"	"17.018"	"18.714"	"24.126"	"24.33"	"26.13"	"26.711"	"27.266"	"27.869"	"26.734"	"24.533"	"20.527"	"16.764"
"1903"	"15.275"	"17.732"	"22.167"	"25.714"	"25.891"	"25.953"	"27.708"	"27.052"	"26.991"	"26.071"	"21.426"	"17.136"
"1904"	"16.177"	"18.323"	"23.402"	"24.982"	"24.813"	"26.649"	"26.864"	"27.578"	"26.928"	"25.016"	"20.566"	"16.978"
"1905"	"15.405"	"15.565"	"21.182"	"23.129"	"24.987"	"26.97"	"27.185"	"26.904"	"26.751"	"25.417"	"21.659"	"17.515"
"1906"	"15.695"	"17.74"	"21.387"	"25.74"	"25.954"	"26.73"	"27.668"	"26.867"	"27.713"	"25.097"	"21.607"	"17.733"
"1907"	"17.176"	"17.884"	"20.917"	"23.673"	"25.407"	"26.192"	"26.885"	"27.892"	"26.633"	"25.299"	"21.309"	"17.01"
"1908"	"15.79"	"18.205"	"22.931"	"27.238"	"25.716"	"26.89"	"27.441"	"27.475"	"26.951"	"25.409"	"20.843"	"16.827"
"1909"	"16.398"	"17.987"	"24.388"	"24.69"	"25.687"	"26.164"	"27.523"	"27.145"	"27.767"	"25.912"	"22.222"	"17.932"
"1910"	"16.382"	"18.465"	"22.444"	"24.819"	"25.252"	"26.213"	"26.3"	"27.296"	"27.312"	"25.15"	"21.201"	"17.171"
"1911"	"17.479"	"17.824"	"22.159"	"25.056"	"25.18"	"26.473"	"27.007"	"27.168"	"26.614"	"24.574"	"20.439"	"16.412"
"1912"	"16.711"	"18.894"	"21.728"	"23.081"	"25.582"	"26.551"	"26.745"	"27.188"	"26.892"	"24.999"	"20.957"	"17.336"
"1913"	"16.428"	"18.586"	"21.118"	"25.613"	"24.705"	"25.789"	"27.221"	"27.446"	"26.835"	"24.977"	"20.266"	"16.793"
"1914"	"16.294"	"18.424"	"22.504"	"23.215"	"25.733"	"26.935"	"27.518"	"27.149"	"26.549"	"23.912"	"20.929"	"17.837"
"1915"	"17.566"	"18.488"	"22.185"	"24.939"	"25.249"	"26.109"	"27.131"	"27.557"	"26.756"	"27.16"	"23.125"	"17.91"
"1916"	"16.434"	"18.604"	"24.048"	"24.895"	"26.372"	"26.965"	"26.587"	"27.412"	"27.027"	"25.142"	"21.727"	"16.892"
"1917"	"15.949"	"18.202"	"21.843"	"24.909"	"25.956"	"26.447"	"27.077"	"27.711"	"26.828"	"25.035"	"21.702"	"17.416"
"1918"	"15.689"	"18.025"	"22.89"	"24.708"	"26.646"	"25.803"	"26.791"	"26.79"	"26.956"	"25.122"	"21.031"	"16.81"
"1919"	"17.176"	"17.925"	"24.118"	"24.796"	"25.631"	"27.148"	"27.256"	"28.149"	"26.467"	"25.355"	"22.042"	"17.836"
"1920"	"17.173"	"17.928"	"22.081"	"24.498"	"25.145"	"26.654"	"27.88"	"27.267"	"26.655"	"25.734"	"21.665"	"18.875"
"1921"	"16.966"	"18.243"	"23.605"	"25.042"	"26.194"	"25.895"	"27.121"	"27.752"	"27.09"	"24.212"	"21.048"	"17.758"
"1922"	"16.989"	"19.167"	"24.169"	"27.49"	"26.677"	"26.166"	"27.143"	"27.477"	"26.886"	"24.992"	"21.607"	"17.553"
"1923"	"16.929"	"18.111"	"23.457"	"25.715"	"25.396"	"26.432"	"27.202"	"27.836"	"26.952"	"24.916"	"21.724"	"17.969"
"1924"	"16.769"	"18.424"	"24.725"	"26.517"	"25.475"	"26.999"	"27.121"	"27.309"	"26.331"	"26.191"	"21.338"	"17.869"
"1925"	"15.109"	"17.301"	"22.904"	"24.893"	"24.549"	"26.788"	"27.064"	"27.635"	"26.176"	"24.314"	"20.931"	"16.198"
"1926"	"16.269"	"18.52"	"21.679"	"24.469"	"25.584"	"26.737"	"26.918"	"27.457"	"27.057"	"25.474"	"20.361"	"18.056"
"1927"	"16.231"	"17.451"	"20.885"	"25.095"	"25.026"	"26.393"	"27.347"	"27.289"	"26.274"	"25.414"	"20.963"	"17.589"
"1928"	"16.328"	"19.219"	"23.408"	"25.789"	"25.32"	"26.562"	"27.302"	"27.233"	"27.654"	"24.997"	"20.525"	"17.439"
"1929"	"15.854"	"17.665"	"23.214"	"24.799"	"25.459"	"26.554"	"27.046"	"27.365"	"26.931"	"24.855"	"20.904"	"17.276"
"1930"	"15.134"	"18.08"	"22.483"	"24.814"	"25.915"	"25.611"	"27.443"	"27.468"	"26.986"	"24.737"	"20.865"	"17.13"
"1931"	"17.47"	"19.026"	"22.809"	"25.58"	"25.11"	"26.879"	"26.929"	"28.188"	"26.214"	"25.732"	"20.649"	"17.715"
"1932"	"16.351"	"16.504"	"23.152"	"25.615"	"25.465"	"26.412"	"27.441"	"27.654"	"27.409"	"25.717"	"22.239"	"17.848"
"1933"	"15.487"	"18.781"	"23.825"	"24.333"	"25.309"	"26.762"	"27.343"	"27.27"	"27.09"	"25.573"	"21.01"	"17.508"
"1934"	"16.307"	"18.41"	"22.923"	"25.654"	"25.012"	"25.671"	"27.162"	"27.469"	"27.75"	"24.619"	"20.585"	"17.055"
"1935"	"15.844"	"18.634"	"23.393"	"25.699"	"26.009"	"26.063"	"27.767"	"26.812"	"26.956"	"25.352"	"21.772"	"17.096"
"1936"	"15.197"	"17.657"	"23.286"	"25.739"	"25.874"	"26.649"	"27.345"	"27.91"	"26.928"	"24.561"	"22.268"	"17.836"
"1937"	"15.059"	"18.348"	"22.175"	"26.618"	"25.68"	"27.318"	"28.139"	"27.335"	"27.253"	"24.99"	"20.716"	"17.91"
"1938"	"17.295"	"17.65"	"23.994"	"27.13"	"25.817"	"26.911"	"27.062"	"27.656"	"27.328"	"25.888"	"20.03"	"17.691"
"1939"	"16.929"	"18.75"	"22.944"	"27.87"	"26.126"	"26.691"	"27.258"	"27.868"	"26.929"	"24.885"	"21.647"	"17.85"
"1940"	"16.237"	"18.209"	"20.644"	"25.774"	"25.993"	"26.789"	"27.337"	"27.906"	"26.87"	"25.582"	"21.642"	"18.053"
"1941"	"16.155"	"18.652"	"24.068"	"26.097"	"25.403"	"26.766"	"27.68"	"27.954"	"27.398"	"24.876"	"20.515"	"18.549"
"1942"	"16.77"	"19.128"	"23.224"	"24.893"	"25.843"	"27.154"	"28.103"	"27.471"	"26.81"	"25.826"	"22.282"	"17.165"
"1943"	"17.51"	"17.829"	"22.172"	"23.258"	"25.377"	"26.709"	"27.138"	"27.249"	"27.103"	"25.201"	"22.428"	"18.637"
"1944"	"16.305"	"18.1"	"23.339"	"24.94"	"26.814"	"27.435"	"27.82"	"28.128"	"27.034"	"25.884"	"21.619"	"18.733"
"1945"	"16.826"	"17.163"	"23.857"	"26.618"	"25.682"	"27.211"	"27.948"	"27.477"	"27.769"	"25.436"	"21.402"	"17.386"
"1946"	"17.269"	"19.592"	"23.03"	"24.061"	"25.429"	"26.602"	"27.224"	"28.046"	"27.081"	"24.548"	"22.03"	"18.2"
"1947"	"16.749"	"19.011"	"22.869"	"25.811"	"25.996"	"26.978"	"27.162"	"27.475"	"26.994"	"24.768"	"21.169"	"18.432"
"1948"	"17.089"	"18.409"	"22.879"	"25.014"	"25.138"	"26.442"	"27.008"	"27.519"	"27.379"	"24.474"	"21.523"	"17.235"
"1949"	"16.886"	"18.453"	"23.238"	"23.059"	"25.131"	"26.271"	"27.222"	"27.292"	"26.931"	"26.15"	"21.347"	"16.267"
"1950"	"16.73"	"18.304"	"22.696"	"25.938"	"26.482"	"26.26"	"27.624"	"26.832"	"27.454"	"25.293"	"21.239"	"17.957"
"1951"	"16.534"	"19.066"	"24.102"	"25.453"	"26.001"	"26.306"	"26.776"	"28.131"	"27.377"	"25.926"	"21.689"	"18.325"
"1952"	"17.26"	"19.621"	"21.642"	"26.037"	"24.721"	"27.325"	"27.154"	"27.472"	"26.866"	"26.132"	"21.918"	"18.05"
"1953"	"15.853"	"19.094"	"23.417"	"25.715"	"26.047"	"26.285"	"26.683"	"28.078"	"26.639"	"25.156"	"21.188"	"18.932"
"1954"	"15.673"	"19.731"	"23.751"	"26.56"	"26.257"	"25.636"	"26.562"	"27.228"	"27.69"	"24.517"	"20.926"	"17.98"
"1955"	"16.485"	"18.65"	"23.722"	"25.11"	"26.594"	"26.205"	"26.561"	"26.826"	"27.211"	"26.302"	"22.227"	"16.772"
"1956"	"17.264"	"18.362"	"23.598"	"26.634"	"27.789"	"26.587"	"26.944"	"27.192"	"27.4"	"25.573"	"21.924"	"17.124"
"1957"	"16.53"	"18.095"	"21.924"	"26.272"	"25.993"	"26.45"	"27.68"	"28.16"	"27.525"	"24.658"	"21.251"	"17.963"
"1958"	"17.875"	"18.08"	"23.957"	"26.404"	"27.087"	"27.333"	"28.032"	"27.468"	"27.556"	"26.416"	"22.37"	"17.99"
"1959"	"16.715"	"17.923"	"23.264"	"26.615"	"25.82"	"26.422"	"28"	"28.589"	"26.86"	"25.405"	"21.934"	"18.481"
"1960"	"17.165"	"20.984"	"22.737"	"28.213"	"27.372"	"27.09"	"27.093"	"28.131"	"26.867"	"26.111"	"21.765"	"19.004"
"1961"	"18.236"	"17.974"	"23.555"	"26.721"	"26.546"	"27.479"	"27.734"	"28.371"	"27.46"	"25.816"	"20.675"	"15.97"
"1962"	"15.17"	"19.559"	"23.482"	"27.735"	"26.72"	"28.259"	"28.292"	"27.984"	"28.001"	"25.49"	"21.013"	"17.689"
"1963"	"16.572"	"19.919"	"23.302"	"24.896"	"25.324"	"26.384"	"27.58"	"28.067"	"27.468"	"25.141"	"21.593"	"17.983"
"1964"	"16.055"	"18.259"	"24.339"	"25.499"	"25.724"	"26.657"	"26.762"	"27.693"	"27.199"	"25.864"	"22.182"	"18.152"
"1965"	"17.513"	"19.053"	"22.295"	"25.409"	"26.168"	"26.532"	"27.077"	"26.378"	"26.714"	"25.189"	"20.496"	"18.505"
"1966"	"15.733"	"20.467"	"23.946"	"26.052"	"27.178"	"26.436"	"27.456"	"27.447"	"26.45"	"23.939"	"22.062"	"17.918"
"1967"	"17.341"	"19.498"	"22.27"	"24.895"	"25.256"	"26.358"	"27.229"	"27.336"	"26.554"	"24.276"	"19.96"	"17.987"
"1968"	"16.406"	"18.21"	"23.426"	"24.693"	"25.542"	"25.326"	"26.787"	"27.501"	"26.942"	"24.613"	"21.391"	"17.678"
"1969"	"16.694"	"20.174"	"25.155"	"25.739"	"26.379"	"27.16"	"27.478"	"26.798"	"26.891"	"24.857"	"22.14"	"18.429"
"1970"	"16.228"	"18.73"	"22.216"	"25.809"	"26.462"	"26.815"	"26.607"	"26.876"	"27.265"	"25.229"	"20.873"	"18.031"
"1971"	"16.588"	"18.391"	"22.296"	"24.779"	"25.086"	"26.529"	"26.911"	"26.552"	"26.824"	"25.75"	"22.024"	"18.596"
"1972"	"17.992"	"17.772"	"24.099"	"24.689"	"26.237"	"26.608"	"27.716"	"27.245"	"26.675"	"25.658"	"21.192"	"18.05"
"1973"	"17.668"	"19.896"	"22.886"	"26.699"	"25.829"	"26.415"	"27.007"	"27.741"	"26.885"	"25.16"	"21.337"	"17.75"
"1974"	"16.153"	"18.553"	"22.709"	"25.391"	"25.804"	"26.335"	"26.661"	"27.35"	"26.332"	"26.735"	"22.538"	"17.015"
"1975"	"16.691"	"19.008"	"23.759"	"26.424"	"25.802"	"27.054"	"26.461"	"27.637"	"26.789"	"26.726"	"21.114"	"16.973"
"1976"	"16.376"	"19.751"	"23.442"	"25.691"	"25.159"	"26.029"	"26.883"	"26.597"	"26.712"	"25.119"	"22.974"	"17.632"
"1977"	"16.866"	"19.436"	"24.28"	"24.21"	"24.504"	"25.708"	"27.092"	"27.512"	"27.307"	"24.637"	"22.318"	"17.325"
"1978"	"14.526"	"18.498"	"21.702"	"25.047"	"25.896"	"25.828"	"26.79"	"27.977"	"27.083"	"26.664"	"22.092"	"18.634"
"1979"	"17.652"	"18.327"	"23.228"	"26.121"	"26.905"	"27.693"	"27.259"	"27.772"	"26.544"	"25.486"	"23.236"	"17.797"
"1980"	"16.099"	"18.675"	"22.999"	"26.226"	"25.162"	"27.183"	"27.383"	"27.379"	"27.383"	"24.94"	"22.025"	"19.174"
"1981"	"16.282"	"19.416"	"22.357"	"24.455"	"25.433"	"27.231"	"27.333"	"27.994"	"27.042"	"26.025"	"22.036"	"17.905"
"1982"	"17.98"	"18.377"	"22.635"	"24.721"	"26.41"	"26.783"	"27.761"	"27.916"	"27.044"	"24.882"	"21.328"	"17.885"
"1983"	"15.62"	"17.146"	"22.816"	"24.654"	"25.182"	"27.362"	"27.736"	"27.86"	"27.264"	"26.044"	"21.835"	"16.913"
"1984"	"16.009"	"19.367"	"24.46"	"25.922"	"25.764"	"27.14"	"26.316"	"27.634"	"25.668"	"26.248"	"20.986"	"17.993"
"1985"	"16.55"	"18.422"	"24.587"	"25.542"	"25.694"	"26.905"	"26.381"	"27.952"	"26.694"	"25.149"	"20.599"	"18.312"
"1986"	"17.18"	"19.325"	"23.303"	"24.34"	"25.141"	"27.074"	"26.588"	"27.787"	"26.534"	"24.533"	"21.88"	"17.805"
"1987"	"16.85"	"19.947"	"22.897"	"25.422"	"26.094"	"27.696"	"27.296"	"27.094"	"27.345"	"24.821"	"21.373"	"19.486"
"1988"	"18.112"	"20.38"	"23.402"	"26.319"	"26.239"	"26.854"	"27.315"	"26.799"	"26.894"	"25.954"	"22.424"	"19.169"
"1989"	"16.274"	"18.254"	"22.983"	"24.877"	"26.396"	"26.526"	"26.883"	"27.342"	"27.039"	"25.978"	"21.114"	"16.855"
"1990"	"18.192"	"18.76"	"21.42"	"23.979"	"25.905"	"27.041"	"27.09"	"27.526"	"26.89"	"24.994"	"22.798"	"18.088"
"1991"	"15.144"	"18.866"	"23.612"	"25.204"	"24.563"	"26.577"	"27.071"	"27.393"	"26.07"	"25.079"	"21.139"	"16.907"
"1992"	"16.192"	"16.913"	"23.214"	"25.584"	"24.873"	"26.718"	"26.017"	"27.271"	"26.397"	"25.151"	"21.563"	"16.528"
"1993"	"15.986"	"19.76"	"21.607"	"24.516"	"24.371"	"26.1"	"26.891"	"27.171"	"26.192"	"25.08"	"21.739"	"19.976"
"1994"	"18.344"	"18.648"	"23.961"	"25.536"	"27.173"	"27.161"	"28.524"	"28.417"	"27.74"	"25.688"	"22.253"	"17.957"
"1995"	"16.188"	"19.144"	"23.715"	"26.159"	"27.653"	"27.295"	"27.489"	"27.891"	"27.262"	"26.394"	"22.494"	"18.697"
"1996"	"17.201"	"19.698"	"24.144"	"26.052"	"26.451"	"26.758"	"27.268"	"27.519"	"27.485"	"25.603"	"22.259"	"19.348"
"1997"	"16.879"	"18.332"	"24.357"	"25.201"	"26.639"	"27.228"	"27.824"	"28.504"	"26.565"	"25.229"	"21.887"	"18.409"
"1998"	"16.51"	"20.323"	"22.481"	"27.218"	"27.701"	"27.653"	"27.599"	"28.1"	"27.679"	"27.033"	"23.204"	"19.321"
"1999"	"18.199"	"21.593"	"24.62"	"28.98"	"26.626"	"28.121"	"27.323"	"27.469"	"27.465"	"26.347"	"23.077"	"19.523"
"2000"	"17.467"	"19.807"	"22.568"	"25.01"	"26.366"	"27.84"	"28.034"	"27.478"	"26.834"	"26.193"	"22.15"	"18.16"
"2001"	"17.041"	"19.9"	"23.8"	"26.037"	"27.211"	"27.781"	"28.397"	"28.372"	"27.626"	"26.158"	"22.85"	"18.567"
"2002"	"17.344"	"20.504"	"24.147"	"25.536"	"26.529"	"27.114"	"28.179"	"27.743"	"27.266"	"25.797"	"22.407"	"18.558"
