
"Year"	"Jan"	"Feb"	"Mar"	"Apr"	"May"	"Jun"	"Jul"	"Aug"	"Sep"	"Oct"	"Nov"	"Dec"
"1901"	"57.882"	"11.234"	"3.511"	"5.293"	"13.426"	"83.053"	"182.768"	"297.474"	"251.192"	"11.496"	"2.693"	"0.814"
"1902"	"3.594"	"1.154"	"3.169"	"7.45"	"6.905"	"81.454"	"442.425"	"194.803"	"298.401"	"14.558"	"0.304"	"0"
"1903"	"5.601"	"1.409"	"2.127"	"3.532"	"19.219"	"156.077"	"139.337"	"353.1"	"171.401"	"84.08"	"0"	"0"
"1904"	"3.561"	"0.143"	"16.404"	"1.02"	"76.483"	"48.035"	"282.404"	"443.645"	"114.031"	"111.787"	"9.648"	"7.553"
"1905"	"15.407"	"17.592"	"16.273"	"5.854"	"6.392"	"21.036"	"437.8"	"259.849"	"340.353"	"5.68"	"0"	"0.685"
"1906"	"6.043"	"33.418"	"12.341"	"1.454"	"16.123"	"106.064"	"363.235"	"267.092"	"239.369"	"40.462"	"0"	"0"
"1907"	"1.282"	"40.814"	"16.546"	"17.646"	"10.995"	"108.012"	"226.398"	"336.413"	"103.181"	"13.087"	"0"	"0"
"1908"	"10.002"	"21.87"	"2.417"	"1.219"	"5.686"	"52.894"	"312.349"	"288.012"	"93.329"	"26.475"	"0.143"	"0.912"
"1909"	"5.605"	"4.946"	"0"	"28.497"	"3.812"	"217.878"	"481.014"	"328.196"	"182.588"	"5.698"	"0"	"9.92"
"1910"	"4.501"	"2.268"	"9.092"	"3.767"	"18.018"	"164.357"	"343.369"	"283.161"	"234.11"	"43.643"	"21.889"	"0.2"
"1911"	"16.574"	"0"	"17.713"	"6.381"	"6.161"	"160.088"	"197.672"	"276.456"	"279.465"	"117.139"	"22.861"	"0"
"1912"	"4.702"	"5.179"	"2.933"	"10.649"	"20.027"	"90.586"	"326.434"	"301.053"	"105.155"	"8.225"	"17.626"	"0.572"
"1913"	"0.388"	"37.232"	"19.26"	"1.542"	"29.94"	"275.84"	"208.339"	"260.283"	"123.743"	"40.561"	"1.621"	"12.253"
"1914"	"1.988"	"18.224"	"12.868"	"19.604"	"43.578"	"62.338"	"409.27"	"319.41"	"251.425"	"8.86"	"0"	"0"
"1915"	"6.553"	"46.449"	"29.705"	"4.246"	"6.642"	"132.587"	"334.7"	"261.781"	"270.03"	"100.748"	"3.713"	"1.401"
"1916"	"0"	"14.59"	"0.576"	"3.155"	"11.056"	"189.304"	"392.447"	"365.658"	"179.997"	"83.786"	"2.76"	"0"
"1917"	"3.364"	"26.044"	"5.917"	"2.408"	"45.872"	"194.924"	"297.725"	"386.496"	"222.205"	"98.624"	"0"	"3.399"
"1918"	"0.46"	"0"	"4.337"	"6.248"	"7.731"	"187.711"	"181.722"	"328.019"	"131.472"	"5.521"	"4.908"	"0.2"
"1919"	"30.61"	"5.683"	"7.958"	"6.703"	"21.95"	"62.423"	"322.287"	"384.414"	"199.392"	"72.079"	"0.459"	"0.529"
"1920"	"0.316"	"22.135"	"15.905"	"1.303"	"14.025"	"94.245"	"424.168"	"192.413"	"101.702"	"14.51"	"0"	"0"
"1921"	"27.104"	"0.538"	"0.718"	"1.639"	"2.776"	"108.548"	"249.934"	"296.832"	"156.27"	"10.392"	"0"	"0"
"1922"	"18.132"	"9.485"	"0.461"	"5.095"	"1.886"	"202.463"	"462.446"	"377.412"	"337.438"	"31.913"	"0.991"	"15.375"
"1923"	"1.263"	"35.006"	"0.633"	"0.941"	"4.869"	"58.287"	"249.688"	"420.361"	"215.904"	"49.16"	"4.117"	"2.544"
"1924"	"5.924"	"3.851"	"1.581"	"9.993"	"10.029"	"85.25"	"365.381"	"220.461"	"349.341"	"91.919"	"21.569"	"2.471"
"1925"	"6.74"	"0"	"3.107"	"2.158"	"41.288"	"107.312"	"496.571"	"446.885"	"341.561"	"13.47"	"11.763"	"0"
"1926"	"11.332"	"0.909"	"36.071"	"9.607"	"38.411"	"28.281"	"438.581"	"250.624"	"172.522"	"30.657"	"2.317"	"2.236"
"1927"	"15.202"	"21.777"	"20.758"	"2.005"	"9.061"	"59.921"	"331.596"	"419.362"	"136.472"	"88.8"	"31.456"	"0.334"
"1928"	"22.284"	"18.655"	"1.409"	"12.097"	"9.924"	"95.985"	"401.754"	"132.835"	"104.208"	"71.627"	"2.453"	"4.708"
"1929"	"36.898"	"0.903"	"2.596"	"4.628"	"6.401"	"140.637"	"441.89"	"333.286"	"73.223"	"139.929"	"0"	"17.286"
"1930"	"11.433"	"10.856"	"3.967"	"6.065"	"8.472"	"91.212"	"347.369"	"224.168"	"189.219"	"26.891"	"9.721"	"12.652"
"1931"	"0.757"	"20.12"	"9.66"	"1.391"	"6.299"	"68.012"	"451.14"	"267.938"	"263.137"	"88.475"	"2.026"	"0.556"
"1932"	"0"	"5.464"	"2.363"	"1.853"	"16.994"	"111.002"	"118.345"	"312.725"	"139.094"	"21.987"	"22.789"	"6.739"
"1933"	"14.841"	"17.341"	"2.018"	"18.208"	"26.025"	"124.83"	"446.552"	"348.226"	"137.249"	"52.71"	"0"	"0"
"1934"	"23.934"	"11.218"	"2.007"	"3.903"	"3.485"	"140.629"	"318.804"	"254.508"	"194.643"	"25.407"	"1.733"	"2.172"
"1935"	"8.386"	"17.914"	"1.907"	"6.807"	"6.351"	"128.659"	"269.701"	"411.578"	"194.672"	"13.087"	"2.317"	"4.004"
"1936"	"2.896"	"19.993"	"9.763"	"5.796"	"15.354"	"230.525"	"564.962"	"290.365"	"275.747"	"40.314"	"1.255"	"18.825"
"1937"	"0.214"	"39.511"	"1.818"	"16.787"	"14.604"	"83.787"	"255.67"	"286.049"	"201.491"	"70.984"	"0.143"	"1.2"
"1938"	"23.056"	"13.427"	"2.124"	"7.732"	"23.036"	"326.811"	"358.548"	"286.187"	"153.901"	"29.772"	"0.351"	"0"
"1939"	"7.047"	"23.474"	"6.966"	"5.72"	"6.085"	"161.547"	"324.803"	"234.248"	"197.94"	"26.285"	"0"	"0"
"1940"	"2.649"	"31.412"	"28.15"	"6.648"	"11.054"	"89.879"	"404.827"	"330.75"	"172.399"	"8.466"	"0"	"4.586"
"1941"	"13.056"	"5.184"	"5.836"	"1.391"	"14.699"	"93.129"	"219.107"	"331.382"	"176.663"	"31.287"	"0.351"	"0.979"
"1942"	"42.878"	"29.744"	"3.106"	"7.422"	"5.918"	"119.954"	"256.215"	"298.938"	"245.612"	"5.229"	"0"	"6.088"
"1943"	"12.463"	"8.722"	"1.725"	"21.144"	"15.835"	"78.197"	"227.901"	"508.672"	"249.697"	"20.951"	"0"	"0"
"1944"	"18.968"	"22.413"	"26.45"	"5.306"	"5.34"	"149.111"	"235.516"	"352.026"	"137.162"	"29.714"	"0.143"	"0.849"
"1945"	"37.749"	"10.2"	"1.189"	"5.016"	"7.433"	"69.621"	"265.274"	"150.715"	"182.688"	"96.768"	"0"	"8.204"
"1946"	"0"	"24.76"	"8.76"	"13.083"	"7.51"	"105.534"	"449.775"	"327.105"	"237.87"	"41.53"	"16.07"	"2.684"
"1947"	"17.543"	"9.286"	"12.011"	"0.941"	"8.057"	"55.129"	"469.552"	"255.991"	"322.232"	"39.727"	"1.961"	"0.271"
"1948"	"6.927"	"11.667"	"2.451"	"2.511"	"14.94"	"147.774"	"426.887"	"356.706"	"259.583"	"46.084"	"12.251"	"0.2"
"1949"	"2.689"	"45.015"	"6.314"	"6.57"	"32.16"	"168.369"	"430.306"	"397.337"	"201.043"	"90.407"	"0.302"	"0.143"
"1950"	"10.539"	"7.815"	"23.867"	"0.854"	"6.198"	"174.181"	"287.837"	"381.121"	"143.894"	"11.534"	"0.143"	"5.133"
"1951"	"8.364"	"7.08"	"19.843"	"15.423"	"7.064"	"129.659"	"387.612"	"367"	"186.084"	"19.644"	"15.709"	"0"
"1952"	"1.591"	"13.295"	"14.355"	"2.656"	"12.673"	"266.018"	"240.655"	"266.002"	"159.786"	"17.306"	"2.453"	"0"
"1953"	"41.076"	"10.634"	"0.905"	"4.621"	"3.402"	"169.117"	"441.786"	"318.246"	"201.307"	"4.611"	"0"	"2.013"
"1954"	"14.497"	"14.544"	"5.032"	"2.468"	"7.21"	"99.629"	"347.849"	"285.915"	"220.262"	"20.874"	"0"	"0"
"1955"	"18.682"	"16.215"	"2.22"	"5.374"	"3.494"	"140.453"	"610.261"	"185.509"	"141.286"	"103.816"	"0"	"2.07"
"1956"	"20.982"	"8.669"	"7.943"	"6.367"	"4.207"	"223.765"	"206.713"	"292.669"	"312.921"	"114.735"	"41.213"	"7.411"
"1957"	"11.129"	"1.427"	"25.806"	"1.801"	"1.997"	"123.569"	"339.437"	"287.528"	"106.45"	"0.987"	"0.991"	"5.212"
"1958"	"21.244"	"4.047"	"29.197"	"4.508"	"1.177"	"146.582"	"227.391"	"269.486"	"131.348"	"32.043"	"0.639"	"2.342"
"1959"	"62.737"	"3.281"	"0.229"	"0.372"	"43.806"	"79.508"	"217.523"	"347.58"	"240.49"	"151.932"	"3.478"	"0"
"1960"	"6.503"	"0"	"8.406"	"1.769"	"1.223"	"73.629"	"356.502"	"424.787"	"154.108"	"45.463"	"0"	"0.143"
"1961"	"17.289"	"19.218"	"0"	"0.314"	"5.116"	"124.09"	"299.967"	"355.989"	"227.728"	"57.048"	"5.184"	"2.789"
"1962"	"20.281"	"10.594"	"6.452"	"19.416"	"4.421"	"88.588"	"292.908"	"319.569"	"357.845"	"0.686"	"1.507"	"4.628"
"1963"	"10.404"	"4.236"	"22.237"	"9.411"	"29.439"	"132.707"	"468.349"	"326.425"	"183.136"	"31.874"	"12.159"	"1.457"
"1964"	"0.859"	"2.579"	"2.477"	"5.145"	"8.624"	"75.279"	"429.451"	"297.412"	"191.34"	"11.949"	"0"	"0.922"
"1965"	"1.756"	"3.058"	"15.042"	"24.936"	"4.106"	"35.868"	"295.303"	"163.048"	"109.788"	"31.024"	"3.187"	"1.112"
"1966"	"13.853"	"17.147"	"0"	"0"	"0.956"	"151.047"	"171.919"	"162.73"	"51.815"	"2.094"	"33.53"	"6.324"
"1967"	"1.011"	"0.316"	"21.36"	"6.474"	"5.861"	"47.78"	"289.993"	"469.842"	"198.444"	"4.444"	"1.715"	"16.787"
"1968"	"21.645"	"5.19"	"2.981"	"2.753"	"3.606"	"101.976"	"274.377"	"189.364"	"84.628"	"55.561"	"0.245"	"4.036"
"1969"	"10.292"	"6.226"	"1.56"	"4.964"	"36.871"	"66.548"	"518.935"	"224.989"	"158.849"	"2.19"	"11.322"	"0"
"1970"	"20.781"	"41.358"	"2.76"	"1.191"	"43.244"	"172.739"	"364.763"	"242.048"	"458.33"	"37.898"	"0.445"	"0"
"1971"	"8.5"	"10.746"	"4.181"	"24.782"	"56.637"	"246.393"	"233.672"	"373.201"	"181.111"	"99.584"	"0.351"	"0"
"1972"	"15.617"	"30.908"	"3.533"	"5.636"	"5.721"	"26.685"	"161.403"	"275.429"	"184.822"	"131.519"	"16.465"	"0"
"1973"	"16.938"	"7.62"	"2.693"	"1.921"	"8.656"	"75.975"	"374.298"	"422.309"	"212.961"	"104.229"	"2.02"	"0"
"1974"	"7.233"	"2.237"	"1.112"	"1.919"	"8.157"	"82.208"	"424.011"	"199.302"	"146.867"	"14.086"	"0.797"	"1.44"
"1975"	"22.177"	"9.6"	"13.857"	"5.536"	"7.113"	"185.026"	"384.157"	"267.483"	"235.259"	"36.073"	"0"	"0"
"1976"	"25.648"	"8.176"	"1.183"	"7.744"	"12.573"	"57.31"	"207.285"	"150.41"	"357.072"	"1.546"	"0.976"	"0"
"1977"	"14.926"	"13.737"	"1.013"	"13.537"	"20.155"	"120.562"	"381.779"	"180.978"	"124.075"	"72.587"	"5.107"	"8.721"
"1978"	"18.761"	"38.958"	"15.852"	"7.139"	"3.737"	"142.704"	"177.498"	"241.647"	"266.414"	"54.589"	"0.951"	"3.842"
"1979"	"17.371"	"9.325"	"1.56"	"8.497"	"3.348"	"118.605"	"336.017"	"192.443"	"82.913"	"6.388"	"43.368"	"4.665"
"1980"	"0.664"	"4.939"	"6.88"	"1.778"	"5.505"	"251.32"	"538.828"	"486.081"	"195.885"	"8.79"	"0.057"	"9.008"
"1981"	"21.126"	"3.405"	"7.287"	"4.04"	"14.738"	"135.028"	"439.108"	"410.084"	"229.577"	"1.708"	"19.997"	"2.659"
"1982"	"43.647"	"12.065"	"27.913"	"5.275"	"44.164"	"111.239"	"214.833"	"357.537"	"404.81"	"9.829"	"22.93"	"3.902"
"1983"	"10.421"	"3.219"	"4.634"	"17.941"	"47.7"	"111.646"	"331.572"	"200.461"	"195.455"	"71.595"	"0"	"3.78"
"1984"	"26.684"	"23.652"	"1.123"	"11.578"	"3.597"	"131.987"	"231.325"	"255.359"	"251.253"	"31.484"	"0.229"	"1.735"
"1985"	"17.148"	"1.796"	"0.621"	"12.088"	"7.241"	"75.231"	"280.864"	"229.15"	"306.117"	"119.725"	"0.351"	"8.398"
"1986"	"8.876"	"21.078"	"3.29"	"4.994"	"64.244"	"88.988"	"323.297"	"320.155"	"272.489"	"11.763"	"0.445"	"15.605"
"1987"	"13.164"	"12.551"	"8.017"	"5.997"	"19.587"	"58.983"	"241.658"	"241.534"	"132.955"	"111.521"	"0"	"2.821"
"1988"	"9.197"	"8.31"	"14.346"	"2.57"	"21.285"	"181.447"	"308.863"	"299.297"	"112.225"	"17.946"	"2.317"	"22.326"
"1989"	"10.237"	"9.596"	"5.324"	"3.39"	"26.877"	"112.343"	"346.632"	"167.975"	"181.425"	"25.891"	"5.131"	"5.293"
"1990"	"0.143"	"13.993"	"3.77"	"10.208"	"24.379"	"95.375"	"353.007"	"219.612"	"253.825"	"11.358"	"0"	"2.107"
"1991"	"13.162"	"7.978"	"7.035"	"10.016"	"17.113"	"35.446"	"88.641"	"172.038"	"132.715"	"0.956"	"1.507"	"14.613"
"1992"	"19.73"	"5.887"	"1.013"	"3.521"	"21.546"	"40.742"	"188.625"	"155.13"	"173.541"	"57.6"	"10.672"	"0"
"1993"	"10.748"	"0"	"7.989"	"4.588"	"28.632"	"39.438"	"141.669"	"192.039"	"309.447"	"30.683"	"0.057"	"0"
"1994"	"54.315"	"19.514"	"17.176"	"9.886"	"6.279"	"78.884"	"295.534"	"264.08"	"161.317"	"13.425"	"1.607"	"0"
"1995"	"27.233"	"18.65"	"14.032"	"9.098"	"8.792"	"29.309"	"199.008"	"308.536"	"197.329"	"2.554"	"22.006"	"10.205"
"1996"	"28.279"	"15.863"	"1.847"	"3.147"	"6.932"	"103.121"	"202.245"	"298.692"	"143.567"	"94.914"	"0"	"0"
"1997"	"12.475"	"2.141"	"3.547"	"10.596"	"43.18"	"135.117"	"163.468"	"229.74"	"239.633"	"28.921"	"16.409"	"9.835"
"1998"	"0.6"	"4.369"	"9.688"	"8.939"	"49.868"	"17.009"	"222.861"	"300.158"	"143.749"	"19.924"	"6.552"	"0"
"1999"	"30.585"	"25.584"	"0.576"	"0"	"21.211"	"44.015"	"228.211"	"197.568"	"164.402"	"28.28"	"0.348"	"1.264"
"2000"	"12.162"	"15.945"	"3.412"	"6.729"	"11.045"	"108.955"	"135.508"	"149.666"	"205.998"	"0.414"	"0"	"0.261"
"2001"	"2.982"	"2.378"	"12.439"	"8.727"	"12.377"	"105.923"	"263.14"	"212.923"	"50.05"	"76.873"	"0"	"0.684"
"2002"	"15.952"	"14.132"	"6.812"	"5.408"	"6.235"	"29.637"	"158.432"	"242.404"	"218.414"	"95.924"	"9.835"	"0.332"
