
"Year"	"Jan"	"Feb"	"Mar"	"Apr"	"May"	"Jun"	"Jul"	"Aug"	"Sep"	"Oct"	"Nov"	"Dec"
"1901"	"24.046"	"24.882"	"28.743"	"31.642"	"30.46"	"28.274"	"26.271"	"25.934"	"27.222"	"26.633"	"23.967"	"22.571"
"1902"	"23.699"	"25.398"	"29.807"	"31.536"	"32.711"	"29.318"	"27.722"	"27.444"	"26.28"	"26.797"	"22.938"	"22.953"
"1903"	"23.422"	"25.139"	"29.039"	"31.814"	"30.994"	"29.859"	"26.19"	"25.928"	"26.355"	"25.419"	"22.846"	"21.669"
"1904"	"22.892"	"24.642"	"28.493"	"31.817"	"31.266"	"27.929"	"26.7"	"26.972"	"26.358"	"26.228"	"22.675"	"21.787"
"1905"	"22.782"	"24.682"	"28.406"	"30.272"	"32.004"	"29.662"	"27.37"	"26.401"	"26.409"	"26.699"	"24.305"	"21.912"
"1906"	"23.753"	"25.437"	"28.539"	"32.688"	"32.883"	"28.135"	"26.807"	"26.48"	"25.907"	"25.996"	"24.082"	"22.902"
"1907"	"23.083"	"25.782"	"28.645"	"30.206"	"30.974"	"28.292"	"26.803"	"25.082"	"26.568"	"26.947"	"24.898"	"22.074"
"1908"	"22.809"	"25.27"	"28.521"	"32.55"	"32.096"	"29.484"	"26.168"	"25.762"	"26.19"	"26.16"	"22.816"	"20.834"
"1909"	"23.934"	"25.781"	"29.72"	"30.212"	"31.877"	"27.623"	"25.741"	"26.559"	"26.081"	"26.273"	"24.182"	"23.754"
"1910"	"23.36"	"25.202"	"29.303"	"32.334"	"32.144"	"28.572"	"27.304"	"26.462"	"25.719"	"25.665"	"22.02"	"21.108"
"1911"	"23.571"	"24.438"	"28.767"	"32.122"	"32.63"	"28.334"	"27.179"	"25.607"	"27.122"	"27.38"	"25.118"	"23.104"
"1912"	"23.625"	"26.408"	"29.661"	"32.013"	"32.499"	"30.588"	"26.897"	"26.138"	"26.955"	"26.619"	"23.492"	"21.722"
"1913"	"22.037"	"26.379"	"29.001"	"32.528"	"31.566"	"27.961"	"26.377"	"26.564"	"27.139"	"26.384"	"23.923"	"23.702"
"1914"	"22.79"	"26.357"	"28.987"	"31.03"	"31.926"	"28.507"	"26.143"	"25.777"	"26.056"	"26.148"	"24.238"	"23.138"
"1915"	"23.173"	"25.469"	"28.11"	"31.529"	"31.656"	"29.878"	"27.179"	"26.479"	"26.392"	"26.281"	"25.028"	"21.389"
"1916"	"23.395"	"25.689"	"29.504"	"31.781"	"31.826"	"27.212"	"27.114"	"26.481"	"26.453"	"26.033"	"23.778"	"21.12"
"1917"	"22.213"	"24.312"	"27.437"	"30.057"	"30.762"	"27.066"	"26.727"	"26.534"	"26.007"	"25.517"	"23.081"	"21.702"
"1918"	"21.868"	"24.82"	"28.122"	"30.971"	"29.777"	"28.209"	"28.199"	"26.667"	"27.059"	"27.142"	"25.229"	"23.184"
"1919"	"24.468"	"26.708"	"29.532"	"31.785"	"31.581"	"27.528"	"27.007"	"26.6"	"26.882"	"25.947"	"24.282"	"21.942"
"1920"	"23.275"	"25.124"	"29.382"	"31.096"	"31.322"	"29.013"	"26.858"	"27.234"	"27.136"	"27.133"	"24.33"	"22.501"
"1921"	"23.861"	"25.305"	"30.213"	"32.099"	"33.263"	"28.574"	"26.779"	"26.203"	"26.237"	"25.631"	"22.219"	"21.87"
"1922"	"23.234"	"25.274"	"29.385"	"32.199"	"31.704"	"28.576"	"26.443"	"26.698"	"26.057"	"25.868"	"23.66"	"21.151"
"1923"	"22.474"	"24.669"	"28.299"	"31.617"	"31.672"	"30.687"	"26.216"	"26.45"	"25.99"	"25.548"	"23.777"	"22.834"
"1924"	"23.758"	"26.378"	"29.68"	"32.81"	"32.633"	"29.419"	"27.337"	"26.998"	"26.201"	"25.266"	"22.544"	"21.755"
"1925"	"22.37"	"24.829"	"28.981"	"32.45"	"30.733"	"28.315"	"26.746"	"26.091"	"26.835"	"25.813"	"24.14"	"21.786"
"1926"	"23.853"	"26.086"	"29.307"	"30.17"	"31.371"	"30.795"	"27.497"	"26.555"	"26.613"	"26.635"	"23.695"	"22.61"
"1927"	"24.631"	"26.344"	"30.194"	"32.452"	"32.113"	"28.453"	"26.052"	"26.433"	"27.086"	"26.137"	"22.641"	"22.711"
"1928"	"23.934"	"25.849"	"29.127"	"31.656"	"32.634"	"28.897"	"26.78"	"26.623"	"26.358"	"26.236"	"24.321"	"22.871"
"1929"	"24.117"	"25.45"	"29.56"	"30.9"	"32.713"	"28.561"	"27.048"	"26.964"	"26.854"	"26.281"	"24.29"	"23.919"
"1930"	"24.19"	"24.488"	"29.384"	"31.086"	"32.092"	"29.42"	"26.789"	"26.608"	"26.639"	"26.336"	"23.208"	"23.506"
"1931"	"22.995"	"26.402"	"29.085"	"32.508"	"32.395"	"29.171"	"26.374"	"26.489"	"26.157"	"25.694"	"23.275"	"21.969"
"1932"	"22.042"	"24.465"	"27.756"	"31.057"	"31.15"	"28.581"	"26.133"	"26.87"	"26.273"	"26.801"	"24.33"	"22.217"
"1933"	"23.027"	"26.198"	"28.279"	"30.794"	"29.558"	"27.251"	"25.834"	"25.627"	"25.984"	"25.268"	"23.956"	"21.913"
"1934"	"22.283"	"25.041"	"28.384"	"31.736"	"32.272"	"28.941"	"26.297"	"25.834"	"26.258"	"26.347"	"22.641"	"21.518"
"1935"	"23.136"	"25.683"	"28.483"	"30.198"	"32.752"	"29.181"	"26.237"	"26.467"	"25.725"	"26.507"	"22.985"	"23.067"
"1936"	"24.479"	"25.191"	"28.331"	"31.263"	"31.907"	"27.415"	"26.848"	"26.2"	"27.128"	"26.422"	"24.17"	"22.64"
"1937"	"22.485"	"26.031"	"28.641"	"31.013"	"32.122"	"29.313"	"26.202"	"26.879"	"26.812"	"25.779"	"23.828"	"22.603"
"1938"	"24.555"	"25.532"	"29.843"	"31.887"	"31.664"	"26.326"	"25.826"	"26.054"	"25.761"	"24.87"	"22.678"	"21.714"
"1939"	"22.894"	"25.346"	"28.116"	"31.142"	"32.311"	"29.039"	"26.266"	"26.446"	"26.281"	"26.37"	"22.425"	"21.347"
"1940"	"21.634"	"25.343"	"28.301"	"31.041"	"31.229"	"28.598"	"25.628"	"25.739"	"26.578"	"25.986"	"24.643"	"22.879"
"1941"	"23.731"	"26.169"	"30.362"	"32.825"	"32.734"	"29.193"	"27.728"	"26.983"	"26.998"	"27.061"	"24.633"	"24.3"
"1942"	"23.906"	"26.027"	"29.952"	"31.689"	"32.447"	"28.883"	"26.19"	"25.853"	"25.729"	"25.986"	"23.64"	"23.208"
"1943"	"24.463"	"24.09"	"28.696"	"30.957"	"30.347"	"27.259"	"26.091"	"26.221"	"25.422"	"25.597"	"24.161"	"21.116"
"1944"	"23.747"	"25.168"	"27.07"	"30.599"	"32.458"	"28.985"	"26.376"	"26.746"	"26.633"	"26.044"	"23.772"	"22.688"
"1945"	"22.953"	"25.176"	"29.128"	"30.583"	"32.329"	"28.48"	"26.333"	"25.964"	"25.768"	"25.749"	"22.554"	"21.118"
"1946"	"21.7"	"24.729"	"29.207"	"31.009"	"31.408"	"27.582"	"26.518"	"26.138"	"26.481"	"27.159"	"24.508"	"23.698"
"1947"	"24.135"	"25.606"	"29.512"	"31.271"	"32.376"	"29.414"	"26.375"	"26.577"	"25.809"	"24.913"	"23.316"	"22.336"
"1948"	"23.921"	"25.738"	"28.499"	"31.175"	"32.387"	"28.985"	"26.974"	"26.377"	"25.847"	"26.543"	"25.267"	"20.789"
"1949"	"22.787"	"24.598"	"28.952"	"31.268"	"30.894"	"27.989"	"26.576"	"26.597"	"25.919"	"26.321"	"22.775"	"22.226"
"1950"	"22.802"	"24.852"	"27.901"	"31.434"	"31.693"	"28.402"	"26.406"	"27.021"	"25.906"	"25.456"	"23.118"	"21.996"
"1951"	"23.232"	"25.105"	"29.007"	"31.221"	"31.688"	"28.447"	"26.804"	"26.457"	"27.376"	"27.082"	"25.094"	"21.891"
"1952"	"23.495"	"26.124"	"28.453"	"32.171"	"32.408"	"29.198"	"27.526"	"26.303"	"26.681"	"26.277"	"22.567"	"23.685"
"1953"	"23.415"	"26.485"	"30.883"	"31.732"	"33.653"	"30.065"	"26.98"	"26.098"	"26.222"	"26.448"	"23.5"	"21.65"
"1954"	"22.986"	"26.448"	"28.908"	"32.164"	"33.014"	"28.894"	"26.217"	"26.467"	"25.583"	"25.116"	"22.599"	"23.091"
"1955"	"23.633"	"26.444"	"29.338"	"31.309"	"31.27"	"28.246"	"26.444"	"25.454"	"26.584"	"25.972"	"22.38"	"21.717"
"1956"	"23.124"	"24.71"	"29.802"	"32.093"	"30.876"	"27.843"	"25.16"	"25.725"	"25.746"	"25.319"	"24.004"	"22.291"
"1957"	"23.653"	"25.506"	"27.863"	"31.151"	"31.919"	"29.431"	"26.535"	"25.692"	"26.579"	"27.232"	"24.633"	"23.639"
"1958"	"23.703"	"25.97"	"29.357"	"31.91"	"32.338"	"30.82"	"26.123"	"26.444"	"26.242"	"26.301"	"24.983"	"22.973"
"1959"	"24.078"	"26.962"	"29.594"	"31.904"	"32.804"	"28.474"	"26.102"	"26.194"	"26.514"	"26.421"	"24.407"	"23.31"
"1960"	"24.375"	"25.782"	"29.042"	"31.576"	"31.809"	"28.558"	"27.328"	"27.201"	"26.684"	"26.097"	"24.338"	"23.41"
"1961"	"23.94"	"25.441"	"30.547"	"32.521"	"30.977"	"28.102"	"26.152"	"26.38"	"26.124"	"25.674"	"23.592"	"22.723"
"1962"	"22.109"	"25.63"	"28.829"	"30.969"	"31.44"	"29.209"	"26.65"	"26.446"	"26.105"	"26.469"	"23.463"	"22.111"
"1963"	"22.583"	"24.771"	"29.094"	"30.236"	"31.762"	"27.76"	"26.856"	"25.651"	"26.486"	"26.016"	"24.332"	"23.284"
"1964"	"23.668"	"26.502"	"30.217"	"32.259"	"32.443"	"28.95"	"26.646"	"25.721"	"25.671"	"26.137"	"23.247"	"21.751"
"1965"	"23.262"	"25.527"	"28.949"	"30.987"	"31.847"	"28.846"	"26.145"	"26.864"	"26.819"	"27.282"	"25.295"	"24.308"
"1966"	"24.315"	"26.944"	"30.334"	"32.33"	"31.921"	"29.637"	"27.719"	"27.292"	"26.493"	"26.608"	"25.131"	"22.723"
"1967"	"23.683"	"25.921"	"28.868"	"32.227"	"32.749"	"29.629"	"26.567"	"26.459"	"26.242"	"26.073"	"24.075"	"24.347"
"1968"	"22.839"	"26.461"	"28.699"	"31.356"	"32.263"	"29.157"	"26.801"	"26.642"	"26.513"	"25.534"	"24.122"	"23.887"
"1969"	"23.572"	"27.098"	"31.097"	"33.166"	"32.355"	"29.759"	"26.899"	"27.108"	"25.952"	"26.555"	"25.245"	"22.727"
"1970"	"24.015"	"26.95"	"30.442"	"32.486"	"32.325"	"27.74"	"27.139"	"25.958"	"26.337"	"26.372"	"23.58"	"21.007"
"1971"	"23.017"	"26.665"	"28.902"	"32.538"	"31.91"	"27.717"	"27.689"	"26.954"	"27.37"	"25.817"	"23.165"	"21.763"
"1972"	"22.963"	"25.675"	"30.283"	"32.136"	"32.401"	"30.639"	"27.731"	"27.432"	"28.029"	"27.429"	"24.84"	"24.155"
"1973"	"25.063"	"27.324"	"30.851"	"33.641"	"33.844"	"28.944"	"26.926"	"26.116"	"26.617"	"25.611"	"23.298"	"22.638"
"1974"	"23.53"	"26.614"	"30.113"	"32.71"	"30.901"	"28.178"	"27.515"	"26.547"	"26.663"	"25.734"	"23.721"	"21.782"
"1975"	"22.5"	"26.393"	"29.416"	"32.576"	"32.447"	"28.386"	"26.599"	"26.647"	"26.144"	"26.298"	"22.753"	"21.159"
"1976"	"21.842"	"25.048"	"29.751"	"31.368"	"32.336"	"28.785"	"26.662"	"25.971"	"26.833"	"27.832"	"25.775"	"23.854"
"1977"	"23.35"	"26.848"	"30.078"	"31.361"	"30.905"	"28.637"	"27.143"	"26.249"	"27.833"	"26.684"	"25.967"	"22.514"
"1978"	"23.969"	"25.452"	"29.018"	"31.38"	"31.961"	"27.783"	"26.074"	"25.243"	"26.247"	"26.452"	"25.368"	"23.537"
"1979"	"24.315"	"26.134"	"29.404"	"32.171"	"31.127"	"30.031"	"27.744"	"26.755"	"26.601"	"27.526"	"25.119"	"23.535"
"1980"	"24.376"	"27.527"	"29.971"	"31.284"	"32.998"	"28.05"	"27.002"	"25.609"	"27.286"	"28.467"	"25.865"	"23.542"
"1981"	"23.389"	"27.056"	"28.899"	"32.221"	"31.797"	"28.596"	"27.587"	"26.051"	"26.32"	"26.633"	"24.549"	"22.985"
"1982"	"24.453"	"27.76"	"30.237"	"31.625"	"31.567"	"29.135"	"27.205"	"27.089"	"27.03"	"27.254"	"25.004"	"23.531"
"1983"	"23.594"	"26.513"	"30.443"	"32.749"	"33.357"	"30.314"	"27.604"	"26.679"	"26.109"	"26.026"	"23.745"	"22.975"
"1984"	"24.48"	"25.959"	"30.018"	"32.251"	"34.312"	"29.113"	"26.66"	"26.501"	"27.197"	"26.715"	"23.868"	"24.14"
"1985"	"24.984"	"26.993"	"30.572"	"32.503"	"32.462"	"28.266"	"26.868"	"26.777"	"27.822"	"25.902"	"24.811"	"24.221"
"1986"	"23.2"	"26.484"	"30.759"	"32.942"	"32.926"	"28.551"	"27.633"	"26.469"	"28.088"	"28.583"	"25.986"	"24.294"
"1987"	"24.659"	"26.079"	"29.883"	"32.976"	"31.744"	"29.82"	"27.463"	"27.228"	"28.799"	"27.039"	"24.903"	"23.082"
"1988"	"24.13"	"27.453"	"30.461"	"32.023"	"33.387"	"29.544"	"26.777"	"26.596"	"26.735"	"27.184"	"24.717"	"23.149"
"1989"	"24.162"	"25.741"	"28.42"	"32.47"	"33.061"	"28.35"	"26.473"	"26.257"	"26.62"	"27.04"	"24.979"	"23.124"
"1990"	"24.239"	"26.1"	"29.061"	"32.274"	"29.123"	"27.138"	"26.688"	"26.449"	"27.3"	"26.14"	"25.514"	"23.53"
"1991"	"24.419"	"26.941"	"30.776"	"31.843"	"32.999"	"27.95"	"26.148"	"26.794"	"27.978"	"27.373"	"24.771"	"23.067"
"1992"	"22.568"	"25.323"	"29.918"	"32.277"	"32.756"	"29.606"	"27.997"	"26.48"	"27.424"	"27.417"	"25.308"	"22.478"
"1993"	"24.271"	"25.467"	"29.146"	"32.442"	"33.154"	"30.418"	"27.534"	"26.544"	"26.83"	"26.778"	"25.211"	"21.937"
"1994"	"23.965"	"26.213"	"30.934"	"31.083"	"33.164"	"28.657"	"26.531"	"26.725"	"27.901"	"26.512"	"24.045"	"22.04"
"1995"	"21.899"	"26.159"	"29.731"	"32.471"	"30.895"	"31.142"	"27.193"	"27.907"	"27.442"	"26.445"	"25.385"	"24.08"
"1996"	"25.032"	"26.936"	"30.984"	"31.749"	"33.465"	"29.804"	"27.702"	"26.579"	"26.904"	"26.079"	"24.884"	"23.129"
"1997"	"23.056"	"25.518"	"29.893"	"30.575"	"32.407"	"30.017"	"27.574"	"26.871"	"27.243"	"27.271"	"26.597"	"25.347"
"1998"	"25.264"	"27.009"	"30.711"	"33.475"	"33.671"	"30.889"	"28.092"	"27.202"	"27.18"	"26.802"	"25.218"	"22.432"
"1999"	"23.054"	"27.266"	"30.737"	"33.114"	"31.485"	"28.174"	"27.033"	"26.619"	"26.5"	"26.775"	"24.973"	"23.123"
"2000"	"24.615"	"26.432"	"29.523"	"33.155"	"31.527"	"27.746"	"26.5"	"26.637"	"27.058"	"27.542"	"25.403"	"22.959"
"2001"	"24.5"	"27.496"	"29.915"	"32.162"	"33.163"	"28.505"	"27.311"	"26.44"	"27.652"	"26.623"	"25.881"	"23.551"
"2002"	"23.784"	"27.137"	"30.957"	"33.393"	"32.94"	"28.88"	"27.836"	"26.176"	"27.245"	"27.301"	"24.761"	"23.805"
