
"Year"	"Jan"	"Feb"	"Mar"	"Apr"	"May"	"Jun"	"Jul"	"Aug"	"Sep"	"Oct"	"Nov"	"Dec"
"1901"	"9.597"	"24.571"	"0.107"	"24.075"	"19.639"	"53.779"	"112.206"	"71.32"	"56.357"	"88.132"	"72.899"	"10.693"
"1902"	"0.361"	"0"	"0.008"	"21.101"	"19.239"	"59.581"	"49.139"	"151.397"	"156.97"	"244.877"	"137.322"	"76.062"
"1903"	"3.179"	"0.044"	"0"	"1.233"	"105.82"	"87.595"	"135.746"	"238.224"	"180.653"	"248.863"	"287.042"	"22.467"
"1904"	"3.412"	"0"	"0.075"	"3.04"	"67.383"	"57.995"	"50.773"	"57.921"	"104.026"	"183.19"	"1.062"	"10.819"
"1905"	"0"	"1.34"	"2.943"	"8.624"	"49.148"	"75.905"	"32.905"	"164.122"	"59.703"	"118.219"	"1.299"	"0.067"
"1906"	"15.604"	"1.205"	"9.126"	"0.664"	"2.561"	"144.62"	"108.624"	"131.82"	"101.271"	"91.988"	"28.054"	"41.799"
"1907"	"5.846"	"0.633"	"20.464"	"42.577"	"5.367"	"83.029"	"115.483"	"56.665"	"85.758"	"13.221"	"32.942"	"31.887"
"1908"	"27.517"	"0.755"	"0.761"	"1.7"	"55.903"	"31.628"	"74.466"	"90.075"	"270.347"	"86.719"	"1.062"	"0.428"
"1909"	"2.209"	"0"	"0"	"35.664"	"45.702"	"51.567"	"111.541"	"131.635"	"135.65"	"21.129"	"1.403"	"0.31"
"1910"	"0"	"0.177"	"0.105"	"16.446"	"10.48"	"133.644"	"85.69"	"91.656"	"179.054"	"296.612"	"75.601"	"0.067"
"1911"	"0"	"0"	"0.019"	"21.137"	"32.676"	"55.226"	"117.995"	"46.297"	"118.346"	"133.044"	"152.27"	"17.222"
"1912"	"0"	"1.731"	"0"	"8.464"	"31.431"	"21.785"	"126.943"	"109.552"	"108.588"	"98.669"	"87.871"	"0.156"
"1913"	"0"	"9.053"	"0"	"0.15"	"66.431"	"48.7"	"127.567"	"83.326"	"108.811"	"154.752"	"1.214"	"14.359"
"1914"	"0"	"0"	"7.683"	"19.061"	"46.217"	"50.317"	"128.224"	"128.568"	"152.986"	"46.729"	"34.698"	"27.096"
"1915"	"4.638"	"12.318"	"11.041"	"17.513"	"27.238"	"98.262"	"86.746"	"177.447"	"147.01"	"180.616"	"171.963"	"0.067"
"1916"	"0"	"0"	"0"	"22.41"	"54.412"	"84.146"	"192.08"	"153.886"	"132.943"	"421.195"	"250.881"	"0.067"
"1917"	"8.94"	"11.848"	"2.754"	"3.072"	"109.306"	"169.039"	"73.586"	"137.857"	"203.703"	"182.848"	"203.548"	"2.807"
"1918"	"13.81"	"8.016"	"1.021"	"3.416"	"71.784"	"34.071"	"60.305"	"55.199"	"151.682"	"18.155"	"181.014"	"25.246"
"1919"	"14.679"	"0.04"	"13.65"	"19.988"	"87.073"	"58.617"	"100.439"	"48.216"	"105.052"	"127.526"	"188.184"	"65.863"
"1920"	"3.424"	"0.96"	"0.009"	"14.877"	"78.284"	"52.267"	"38.021"	"68.235"	"95.228"	"151.743"	"12.529"	"0.067"
"1921"	"3.54"	"0"	"0"	"20.081"	"4.002"	"66.916"	"133.408"	"83.286"	"164.164"	"134.565"	"94.093"	"0.067"
"1922"	"1.812"	"0"	"0"	"8.763"	"38.116"	"60.4"	"107.917"	"61.802"	"66.922"	"102.218"	"239.345"	"0.067"
"1923"	"0.049"	"18.318"	"0.622"	"12.292"	"17.129"	"15.539"	"64.947"	"22.264"	"236.647"	"164.168"	"96.022"	"0.067"
"1924"	"0"	"0"	"0.006"	"11.178"	"44.211"	"51.712"	"94.411"	"89.45"	"170.177"	"70.299"	"228.963"	"0.067"
"1925"	"0"	"0"	"0.079"	"20.482"	"131.469"	"73.444"	"111.794"	"170.109"	"87.243"	"225.028"	"102.844"	"25.45"
"1926"	"3.304"	"0"	"21.674"	"37.619"	"38.14"	"23.954"	"104.128"	"107.246"	"130.646"	"74.447"	"1.492"	"0.067"
"1927"	"1.055"	"0.007"	"0.143"	"1.035"	"27.488"	"83.951"	"97.646"	"109.826"	"178.34"	"98.452"	"337.387"	"0.067"
"1928"	"0"	"9.497"	"10.542"	"14.762"	"41.828"	"60.793"	"83.215"	"105.682"	"168.294"	"204.903"	"1.322"	"22.043"
"1929"	"3.575"	"6.728"	"0"	"12.732"	"21.824"	"74.765"	"36.918"	"67.988"	"168.218"	"107.102"	"27.506"	"34.92"
"1930"	"0"	"14.723"	"5.275"	"1.462"	"55.747"	"94.088"	"55.087"	"82.433"	"157.71"	"306.634"	"171.588"	"19.41"
"1931"	"0"	"0"	"0.32"	"0.214"	"61.667"	"69.668"	"117.565"	"48.229"	"220.33"	"202.983"	"224.411"	"0.067"
"1932"	"0"	"11.68"	"0"	"15.12"	"95.311"	"55.796"	"133.615"	"104.718"	"128.742"	"120.138"	"165.971"	"0.171"
"1933"	"0.023"	"2.142"	"1.251"	"2.391"	"29.838"	"75.181"	"146.629"	"139.067"	"72.451"	"203.035"	"218.598"	"46.518"
"1934"	"0"	"0"	"0"	"21.409"	"12.053"	"71.55"	"188.983"	"94.627"	"104.462"	"122.809"	"125.658"	"2.926"
"1935"	"7.762"	"0"	"0"	"12.124"	"9.458"	"58.679"	"80.587"	"111.82"	"154.448"	"149.188"	"1.214"	"2.071"
"1936"	"1.114"	"42.678"	"3.96"	"18.886"	"137.718"	"63.484"	"105.693"	"77.424"	"63.313"	"291.84"	"191.59"	"11.691"
"1937"	"0"	"32.405"	"4.643"	"41.966"	"17.894"	"19.033"	"105.758"	"82.091"	"126.938"	"181.023"	"16.494"	"0.067"
"1938"	"0"	"11.123"	"11.445"	"0.602"	"52.326"	"99.265"	"76.307"	"213.448"	"277.602"	"48.751"	"49.461"	"1.631"
"1939"	"1.971"	"0"	"7.59"	"15.404"	"7.494"	"46.255"	"78.655"	"78.573"	"178.561"	"438.453"	"88.921"	"3.066"
"1940"	"3.324"	"0.02"	"36.189"	"9.466"	"66.101"	"99.875"	"125.474"	"124.521"	"114.972"	"200.614"	"149.276"	"22.25"
"1941"	"7.633"	"3.645"	"0.157"	"1.885"	"18.417"	"59.061"	"23.447"	"72.123"	"215.945"	"164.653"	"45.763"	"40.021"
"1942"	"0"	"0"	"0"	"23.235"	"5.379"	"89.312"	"76.008"	"104.608"	"54.45"	"41.608"	"36.818"	"17.068"
"1943"	"0"	"4.685"	"0.573"	"51.133"	"57.638"	"58.096"	"87.015"	"45.576"	"178.883"	"151.052"	"51.874"	"7.267"
"1944"	"0"	"10.261"	"20.103"	"3.662"	"14.457"	"91.968"	"113.526"	"107.258"	"143.111"	"399.304"	"30.992"	"0.067"
"1945"	"0"	"0"	"0"	"26.099"	"54.925"	"40.574"	"120.117"	"152.275"	"141.115"	"176.256"	"42.727"	"9.803"
"1946"	"0"	"7.318"	"5.177"	"9.239"	"93.592"	"82.519"	"109.474"	"86.945"	"90.661"	"162.811"	"380.04"	"21.9"
"1947"	"0"	"7.998"	"0"	"1.223"	"9.695"	"57.635"	"110.595"	"173.703"	"206.532"	"136.987"	"12.508"	"91.557"
"1948"	"2.437"	"0.97"	"0.6"	"13.627"	"78.414"	"17.175"	"92.413"	"60.361"	"137.667"	"154.111"	"282.312"	"1.532"
"1949"	"0"	"0.001"	"0"	"7.439"	"96.945"	"80.756"	"154.943"	"96.611"	"242.199"	"277.63"	"55.97"	"0.067"
"1950"	"0"	"6.267"	"2.607"	"0.106"	"37.023"	"50.105"	"115.505"	"65.768"	"192.165"	"82.757"	"65.078"	"0.067"
"1951"	"0"	"0"	"2.709"	"38.116"	"46.633"	"68.553"	"131.223"	"74.128"	"53.058"	"149.428"	"12.323"	"4.53"
"1952"	"0"	"0.753"	"0"	"8.97"	"136.667"	"17.751"	"93.045"	"65.226"	"51.763"	"179.66"	"1.062"	"58.83"
"1953"	"0.398"	"0"	"0"	"16.083"	"16.765"	"58.466"	"79.178"	"109.919"	"188.293"	"266.831"	"1.062"	"0.067"
"1954"	"0"	"0.04"	"0.674"	"0.425"	"12.31"	"55.289"	"166.475"	"136.248"	"248.604"	"185.829"	"1.062"	"25.255"
"1955"	"0.144"	"0"	"2.346"	"3.049"	"103.072"	"66.094"	"92.606"	"150.068"	"113.996"	"212.433"	"135.519"	"2.741"
"1956"	"4.188"	"0.548"	"0"	"11.383"	"88.962"	"123.192"	"175.115"	"93.044"	"124.199"	"214.838"	"99.871"	"0.928"
"1957"	"0"	"0"	"2.282"	"25.666"	"36.26"	"124.837"	"86.788"	"182.698"	"110.524"	"60.397"	"42.59"	"0.067"
"1958"	"1.4"	"7.05"	"0.519"	"34.073"	"9.426"	"49.477"	"139.021"	"150.575"	"128.07"	"129.247"	"150.363"	"0.067"
"1959"	"0"	"9.915"	"0"	"52.644"	"19.591"	"82.633"	"153.872"	"97.221"	"103.851"	"117.719"	"4.234"	"0.096"
"1960"	"0.238"	"0"	"4.342"	"0.183"	"16.959"	"78.489"	"106.353"	"51.242"	"251.749"	"66.859"	"53.886"	"15.514"
"1961"	"12.417"	"9.04"	"1.24"	"0.415"	"18.627"	"164.589"	"125.434"	"147.567"	"89.09"	"233.058"	"42.055"	"0.98"
"1962"	"0"	"20.084"	"0.026"	"15.3"	"39.103"	"82.928"	"102.704"	"127.505"	"257.787"	"195.03"	"61.993"	"31.724"
"1963"	"0"	"0"	"0.059"	"64.944"	"16.463"	"73.104"	"89.152"	"142.224"	"70.959"	"299.781"	"1.062"	"0.401"
"1964"	"0"	"0"	"0"	"0.159"	"15.427"	"85.207"	"143.367"	"127.231"	"301.601"	"70.36"	"57.431"	"0.163"
"1965"	"0.477"	"0.926"	"0.594"	"24.504"	"31.88"	"89.244"	"105.399"	"133.405"	"156.473"	"30.529"	"26.2"	"16.251"
"1966"	"0.987"	"0"	"0"	"0.597"	"47.671"	"49.903"	"241.084"	"112.616"	"97.132"	"31.01"	"261.507"	"19.468"
"1967"	"1.59"	"0"	"17.708"	"5.443"	"4.955"	"83.499"	"134.865"	"46.587"	"140.333"	"26.986"	"6.848"	"60.927"
"1968"	"13.957"	"3.508"	"3.369"	"22.041"	"14.641"	"35.282"	"91.665"	"22.047"	"139.253"	"93.17"	"141.567"	"3.603"
"1969"	"1.362"	"0"	"0.007"	"0.78"	"157.921"	"42.05"	"138.325"	"75.923"	"108.057"	"285.211"	"180.818"	"88.997"
"1970"	"3.264"	"2.656"	"6.433"	"10.841"	"98.787"	"87.718"	"45.957"	"166.655"	"79.871"	"251.931"	"1.062"	"0.067"
"1971"	"0.22"	"3.288"	"23.001"	"64.771"	"54.134"	"76.758"	"54.499"	"109.139"	"139.779"	"172.223"	"17.591"	"0.067"
"1972"	"0"	"7.795"	"0"	"3.559"	"16.046"	"48.408"	"56.122"	"32.29"	"56.637"	"253.333"	"119.225"	"19.424"
"1973"	"0"	"0"	"0.013"	"0.425"	"17.378"	"65.906"	"53.085"	"138.664"	"132.496"	"245.135"	"73.7"	"18.528"
"1974"	"0"	"0"	"0.422"	"14.764"	"49.309"	"77.238"	"58.358"	"101.957"	"271.574"	"294.876"	"30.998"	"2.233"
"1975"	"4.053"	"0.846"	"2.82"	"4.451"	"32.798"	"80.906"	"155.977"	"95.795"	"206.788"	"255.917"	"40.641"	"1.167"
"1976"	"0"	"0"	"0"	"1.638"	"20.905"	"42.036"	"198.313"	"152.124"	"77.959"	"97.107"	"311.631"	"1.714"
"1977"	"4.155"	"0"	"1.973"	"35.489"	"66.672"	"57.031"	"65.033"	"147.3"	"44.475"	"212.926"	"378.587"	"3.128"
"1978"	"3.293"	"24.293"	"1.481"	"5.127"	"12.618"	"144.79"	"182.03"	"260.382"	"252.284"	"126.305"	"112.213"	"22.221"
"1979"	"3.047"	"21.138"	"0.001"	"16.388"	"167.589"	"53.611"	"55.523"	"58.466"	"179.029"	"56.002"	"276.154"	"8.022"
"1980"	"2.224"	"0"	"0.724"	"3.071"	"28.36"	"126.865"	"102.927"	"146.608"	"102.084"	"113.773"	"139.51"	"3.816"
"1981"	"14.074"	"0"	"12.818"	"17.748"	"36.759"	"56.466"	"158.9"	"110.528"	"167.815"	"194.843"	"34.136"	"3.58"
"1982"	"5.469"	"0"	"0"	"17.913"	"25.343"	"56.443"	"114.174"	"81.213"	"81.181"	"155.659"	"119.031"	"0.067"
"1983"	"0"	"3.259"	"0.143"	"4.658"	"38.857"	"92.179"	"162.439"	"211.302"	"251.087"	"154.921"	"48.762"	"10.079"
"1984"	"3.937"	"15.209"	"5.732"	"17.618"	"11.906"	"45.436"	"113.773"	"41.242"	"78.911"	"100.951"	"62.13"	"7.488"
"1985"	"16.619"	"0"	"4.644"	"7.781"	"8.236"	"70.878"	"113.55"	"82.71"	"104.077"	"176.712"	"64.358"	"48.667"
"1986"	"24.038"	"22.102"	"0"	"25.627"	"21.776"	"72.851"	"64.955"	"157.436"	"45.398"	"175.096"	"139.119"	"26.029"
"1987"	"3.13"	"0"	"21.56"	"40.978"	"11.966"	"56.114"	"82.637"	"142.28"	"59.689"	"216.366"	"180.902"	"36.916"
"1988"	"0"	"17.414"	"0"	"31.124"	"12.99"	"40.52"	"215.971"	"197.215"	"204.069"	"43.205"	"32.106"	"53.381"
"1989"	"0.305"	"0"	"17.771"	"0.28"	"22.296"	"97.943"	"251.453"	"74.365"	"160.794"	"112.631"	"56.238"	"9.73"
"1990"	"1.2"	"19.46"	"20.886"	"0.891"	"146.576"	"76.556"	"71.385"	"132.884"	"140.078"	"181.265"	"95.429"	"1.727"
"1991"	"2.076"	"0.216"	"0"	"4.592"	"20.722"	"161.232"	"74.993"	"129.799"	"176.694"	"119.064"	"184.216"	"5.306"
"1992"	"1.556"	"0"	"0"	"2.466"	"25.478"	"46.446"	"64.683"	"155.321"	"123.211"	"113.253"	"143.109"	"3.245"
"1993"	"0"	"0"	"0"	"4.592"	"44.867"	"53.756"	"96.973"	"113.618"	"85.197"	"270.365"	"32.029"	"22.581"
"1994"	"12.583"	"16.095"	"2.256"	"10.402"	"17.423"	"58.491"	"145.771"	"122.805"	"56.19"	"369.308"	"296.538"	"1.16"
"1995"	"16.807"	"0.569"	"8.544"	"1.981"	"54.429"	"69.591"	"147.225"	"161.494"	"185.572"	"382.235"	"73.303"	"0.4"
"1996"	"0"	"1.756"	"0"	"28.072"	"12.084"	"176.966"	"141.909"	"151.287"	"140.745"	"261.892"	"154.386"	"24.682"
"1997"	"5.214"	"0"	"4.395"	"28.53"	"8.573"	"46.011"	"122.274"	"100.913"	"207.935"	"136.091"	"195.067"	"71.515"
"1998"	"5.495"	"0"	"0"	"15.038"	"15.721"	"42.773"	"119.221"	"148.589"	"133.651"	"282.999"	"59.04"	"5.996"
"1999"	"0.028"	"0.501"	"0"	"7.966"	"63.585"	"58.089"	"100.242"	"89.45"	"99.852"	"114.174"	"11.259"	"1.898"
"2000"	"0"	"29.479"	"0"	"9.437"	"67.882"	"176.842"	"118.591"	"271.097"	"99.692"	"73.111"	"21.238"	"3.15"
"2001"	"6.674"	"0"	"8.937"	"15.005"	"52.741"	"103.833"	"57.88"	"147.989"	"107.489"	"228.64"	"58.284"	"5.954"
"2002"	"11.656"	"0.451"	"2.338"	"0.626"	"45.475"	"70.662"	"44.404"	"143.139"	"50.801"	"211.31"	"77.265"	"0.827"
