
"Year"	"Jan"	"Feb"	"Mar"	"Apr"	"May"	"Jun"	"Jul"	"Aug"	"Sep"	"Oct"	"Nov"	"Dec"
"1901"	"12.982"	"15.465"	"22.951"	"27.856"	"32.454"	"35.452"	"32.373"	"29.553"	"29.941"	"28.093"	"21.272"	"16.617"
"1902"	"15.883"	"18.093"	"25.052"	"29.205"	"32.993"	"33.191"	"30.781"	"30.684"	"28.824"	"26.464"	"20.472"	"14.979"
"1903"	"14.693"	"16.263"	"21.493"	"26.987"	"31.942"	"35.741"	"32.774"	"29.382"	"29.714"	"26.026"	"19.642"	"14.719"
"1904"	"14.093"	"17.123"	"22.003"	"29.156"	"32.323"	"34.114"	"29.721"	"28.454"	"28.544"	"26.233"	"19.82"	"15.831"
"1905"	"12.863"	"12.147"	"19.284"	"25.966"	"33.79"	"35.321"	"31.882"	"29.884"	"30.713"	"27.193"	"22.1"	"16.049"
"1906"	"13.614"	"15.004"	"20.711"	"27.845"	"34.862"	"33.272"	"31.283"	"29.381"	"28.371"	"26.913"	"21.521"	"16.588"
"1907"	"16.141"	"14.944"	"20.031"	"25.896"	"30.954"	"33.901"	"33.282"	"28.734"	"29.955"	"26.965"	"21.021"	"14.617"
"1908"	"14.062"	"16.914"	"22.294"	"29.054"	"32.674"	"34.882"	"29.473"	"27.794"	"28.712"	"25.874"	"19.882"	"15.068"
"1909"	"13.692"	"15.693"	"22.591"	"26.486"	"31.793"	"32.351"	"28.983"	"28.495"	"28.133"	"26.412"	"21.77"	"14.74"
"1910"	"13.711"	"16.854"	"22.553"	"27.177"	"33.163"	"33.222"	"30.465"	"28.945"	"28.982"	"25.143"	"19.562"	"15.249"
"1911"	"16.013"	"17.144"	"20.583"	"28.087"	"34.193"	"34.024"	"32.783"	"30.713"	"28.542"	"26.766"	"18.511"	"15.227"
"1912"	"15.103"	"17.894"	"21.823"	"28.385"	"33.294"	"35.622"	"31.334"	"29.015"	"27.791"	"26.364"	"19.542"	"15.348"
"1913"	"15.112"	"16.613"	"20.304"	"29.525"	"31.042"	"31.772"	"30.285"	"30.345"	"30.446"	"27.624"	"20.481"	"15.5"
"1914"	"16.503"	"16.464"	"22.073"	"28.736"	"33.3"	"33.183"	"30.222"	"29.214"	"29.163"	"25.323"	"21.081"	"14.72"
"1915"	"14.333"	"14.964"	"22.304"	"28.045"	"35.034"	"34.363"	"33.043"	"30.436"	"30.653"	"27.944"	"20.743"	"16.249"
"1916"	"15.361"	"16.036"	"25.055"	"29.845"	"32.693"	"32.695"	"30.555"	"28.353"	"28.574"	"25.505"	"18.442"	"14.52"
"1917"	"14.962"	"17.064"	"22.264"	"25.235"	"28.84"	"32.544"	"29.335"	"28.094"	"27.355"	"24.516"	"17.69"	"15.449"
"1918"	"13.632"	"17.172"	"22.201"	"26.055"	"34.662"	"33.583"	"33.625"	"31.138"	"29.883"	"26.993"	"20.52"	"14.741"
"1919"	"14.662"	"15.763"	"23.022"	"27.626"	"32.116"	"35.816"	"29.979"	"28.434"	"28.734"	"26.003"	"19.772"	"14.77"
"1920"	"14.295"	"16.045"	"22.683"	"27.877"	"29.504"	"32.236"	"29.824"	"29.686"	"30.795"	"27.904"	"21.892"	"16.14"
"1921"	"15.513"	"17.702"	"25.494"	"31.319"	"35.376"	"35.161"	"33.083"	"28.914"	"28.463"	"25.595"	"20.411"	"17.347"
"1922"	"14.314"	"18.074"	"23.934"	"29.157"	"33.185"	"33.193"	"30.933"	"28.683"	"28.011"	"25.594"	"19.971"	"15.288"
"1923"	"14.273"	"16.044"	"23.29"	"29.195"	"32.214"	"35.994"	"31.264"	"28.193"	"29.044"	"25.543"	"19.961"	"15.518"
"1924"	"13.503"	"16.331"	"23.79"	"28.925"	"30.213"	"35.565"	"31.063"	"28.835"	"27.714"	"25.186"	"19.663"	"15.551"
"1925"	"12.533"	"14.463"	"22.841"	"30.307"	"32.335"	"30.503"	"28.633"	"29.753"	"30.071"	"26.732"	"19.302"	"15.197"
"1926"	"14.812"	"18.171"	"21.422"	"25.356"	"30.522"	"35.321"	"31.451"	"28.594"	"27.963"	"25.243"	"18.24"	"14.69"
"1927"	"12.713"	"14.733"	"21.223"	"27.355"	"31.623"	"34.001"	"30.18"	"28.232"	"28.484"	"26.264"	"19.733"	"16.48"
"1928"	"13.96"	"17.162"	"22.844"	"28.124"	"34.333"	"33.971"	"31.233"	"30.805"	"29.745"	"27.114"	"21.183"	"15.07"
"1929"	"14.264"	"15.432"	"24.711"	"29.316"	"33.585"	"33.992"	"30.322"	"28.564"	"30.195"	"26.495"	"20.901"	"14.519"
"1930"	"13.793"	"16.444"	"23.493"	"27.897"	"32.488"	"32.975"	"28.952"	"28.934"	"29.161"	"26.523"	"19.823"	"15.297"
"1931"	"15.504"	"15.016"	"21.533"	"29.615"	"32.917"	"34.823"	"31.056"	"29.173"	"28.236"	"25.575"	"19.501"	"15.92"
"1932"	"16.198"	"15.922"	"23.603"	"28.306"	"31.792"	"35.344"	"31.024"	"28.043"	"28.711"	"26.342"	"19.631"	"15.167"
"1933"	"12.4"	"17.166"	"22.614"	"26.865"	"29.751"	"32.414"	"29.114"	"27.175"	"27.374"	"25.143"	"19.572"	"15.88"
"1934"	"12.754"	"18.022"	"21.533"	"28.054"	"31.993"	"32.752"	"30.152"	"27.723"	"29.273"	"25.503"	"19.91"	"16.278"
"1935"	"12.625"	"17.124"	"22.392"	"25.517"	"33.104"	"34.932"	"29.933"	"28.493"	"28.226"	"25.682"	"20.731"	"15.438"
"1936"	"13.141"	"17.232"	"21.965"	"28.124"	"34.713"	"31.393"	"29.672"	"28.326"	"28.273"	"26.044"	"20.184"	"15.438"
"1937"	"13.511"	"17.004"	"20.933"	"26.685"	"32.642"	"34.061"	"29.843"	"30.418"	"29.133"	"25.517"	"20.005"	"14.323"
"1938"	"13.575"	"15.354"	"24.013"	"29.376"	"34.893"	"32.363"	"31.264"	"30.043"	"30.507"	"27.504"	"18.964"	"15.052"
"1939"	"15.093"	"17.212"	"20.074"	"27.086"	"34.395"	"32.104"	"30.724"	"30.834"	"29.572"	"27.304"	"19.921"	"15.928"
"1940"	"14.511"	"16.363"	"21.093"	"27.315"	"33.972"	"34.605"	"31.322"	"27.982"	"28.575"	"26.264"	"21.061"	"15.517"
"1941"	"13.364"	"17.761"	"24.992"	"31.298"	"34.415"	"32.403"	"32.915"	"29.943"	"29.382"	"28.813"	"20.591"	"16.599"
"1942"	"13.031"	"17.933"	"24.273"	"30.275"	"33.885"	"35.053"	"29.133"	"27.641"	"27.213"	"25.864"	"21.062"	"14.382"
"1943"	"14.555"	"16.862"	"23.551"	"27.046"	"32.834"	"33.324"	"29.592"	"27.765"	"29.003"	"25.864"	"20.924"	"16.559"
"1944"	"13.632"	"16.542"	"21.463"	"27.473"	"34.326"	"32.943"	"29.631"	"29.055"	"28.545"	"25.316"	"20.782"	"16.429"
"1945"	"12.183"	"15.866"	"23.473"	"27.416"	"32.43"	"34.702"	"30.237"	"29.314"	"27.831"	"25.535"	"20.262"	"13.991"
"1946"	"14.896"	"18.375"	"22.172"	"30.034"	"33.131"	"33.562"	"30.001"	"28.773"	"28.735"	"26.663"	"19.903"	"14.822"
"1947"	"13.495"	"17.024"	"23.73"	"29.886"	"33.634"	"35.849"	"32.153"	"29.635"	"28.221"	"25.245"	"21.431"	"15.6"
"1948"	"13.494"	"16.314"	"21.433"	"30.999"	"34.44"	"35.104"	"30.81"	"28.01"	"28.851"	"27.279"	"19.583"	"15.629"
"1949"	"16.234"	"17.246"	"23.093"	"29.857"	"34.254"	"34.446"	"30.035"	"29.017"	"29.851"	"26.078"	"18.995"	"14.901"
"1950"	"15.645"	"14.648"	"21.705"	"27.297"	"33.284"	"34.625"	"29.775"	"28.487"	"27.951"	"25.462"	"19.134"	"13.829"
"1951"	"13.694"	"16.365"	"22.505"	"26.329"	"32.444"	"33.424"	"32.474"	"29.404"	"29.354"	"29.319"	"21.871"	"15.961"
"1952"	"15.554"	"18.957"	"22.635"	"30.919"	"33.613"	"33.284"	"30.983"	"28.133"	"29.876"	"26.888"	"20.586"	"16.103"
"1953"	"13.943"	"19.035"	"26.296"	"29.458"	"33.727"	"34.502"	"30.453"	"28.317"	"28.955"	"26.526"	"20.344"	"18.228"
"1954"	"13.591"	"17.783"	"22.752"	"29.277"	"34.504"	"34.674"	"31.014"	"30.133"	"29.453"	"24.011"	"20.56"	"16.049"
"1955"	"14.314"	"17.374"	"25.064"	"26.809"	"31.444"	"34.756"	"31.446"	"28.274"	"28.323"	"24.742"	"19.593"	"15.928"
"1956"	"14.396"	"17.245"	"23.025"	"29.38"	"34.525"	"33.935"	"29.464"	"28.336"	"29.844"	"24.885"	"19.142"	"16.16"
"1957"	"13.675"	"15.475"	"21.575"	"27.177"	"31.478"	"33.352"	"30.625"	"29.253"	"27.753"	"26.192"	"21.131"	"15.991"
"1958"	"16.184"	"16.234"	"24.033"	"30.718"	"32.795"	"34.812"	"29.782"	"28.731"	"28.326"	"25.985"	"20.525"	"16.807"
"1959"	"14.044"	"16.164"	"23.712"	"28.658"	"32.196"	"34.263"	"30.304"	"28.975"	"28.953"	"27.258"	"20.562"	"16.401"
"1960"	"13.983"	"19.467"	"22.085"	"27.24"	"32.931"	"34.677"	"30.35"	"28.273"	"29.521"	"25.723"	"19.694"	"16.219"
"1961"	"14.874"	"15.404"	"23.303"	"28.028"	"32.856"	"33.465"	"30.39"	"28.325"	"28.995"	"25.474"	"19.122"	"13.248"
"1962"	"13.302"	"17.845"	"22.891"	"29.745"	"33.015"	"34.326"	"31.516"	"29.604"	"27.872"	"24.62"	"20.361"	"15.709"
"1963"	"13.532"	"19.132"	"23.062"	"28.416"	"31.994"	"33.762"	"32.451"	"28.71"	"27.98"	"27.28"	"22.419"	"15.658"
"1964"	"12.735"	"16.924"	"24.878"	"29.814"	"31.402"	"34.087"	"29.341"	"29.236"	"27.73"	"25.684"	"19.233"	"15.819"
"1965"	"16.381"	"16.974"	"22.354"	"26.697"	"31.814"	"35.136"	"30.865"	"29.383"	"28.462"	"26.8"	"21.779"	"15.079"
"1966"	"15.332"	"19.644"	"22.895"	"28.997"	"32.805"	"32.553"	"32.285"	"28.834"	"28.394"	"26.922"	"20.603"	"14.911"
"1967"	"13.125"	"19.253"	"21.914"	"27.778"	"32.496"	"34.466"	"30.614"	"28.143"	"27.853"	"25.883"	"20.609"	"16.149"
"1968"	"13.854"	"15.396"	"22.493"	"27.926"	"32.197"	"34.422"	"30.212"	"29.311"	"30.012"	"26.162"	"20.784"	"16.07"
"1969"	"14.852"	"17.675"	"25.414"	"29.605"	"31.625"	"35.604"	"30.673"	"29.493"	"28.351"	"27.602"	"22.012"	"16.28"
"1970"	"15.164"	"16.325"	"22.305"	"29.704"	"33.402"	"32.18"	"31.626"	"29.353"	"29.003"	"26.983"	"20.315"	"16.35"
"1971"	"13.464"	"17.424"	"22.678"	"29.606"	"31.193"	"31.304"	"29.179"	"27.53"	"27.789"	"25.696"	"20.345"	"16.048"
"1972"	"14.911"	"14.866"	"23.659"	"27.876"	"33.672"	"34.531"	"31.695"	"28.551"	"27.648"	"25.669"	"21.312"	"16.559"
"1973"	"14.819"	"18.788"	"22.774"	"30.504"	"33.777"	"34.611"	"31.37"	"27.797"	"29.263"	"25.304"	"19.918"	"14.091"
"1974"	"14.044"	"15.715"	"24.492"	"30.458"	"32.525"	"32.877"	"29.943"	"29.025"	"29.866"	"26.65"	"20.155"	"14.998"
"1975"	"13.714"	"16.131"	"22.505"	"30.2"	"33.75"	"32.144"	"29.449"	"28.221"	"27.364"	"26.118"	"19.224"	"16.26"
"1976"	"15.445"	"17.689"	"21.986"	"27.541"	"31.925"	"31.273"	"29.283"	"27.344"	"28.308"	"26.993"	"21.087"	"15.408"
"1977"	"14.181"	"17.156"	"24.432"	"28.094"	"30.13"	"31.346"	"27.923"	"28.325"	"27.078"	"25.855"	"21.779"	"16.863"
"1978"	"13.835"	"14.991"	"20.437"	"28.028"	"35.619"	"32.58"	"28.787"	"27.447"	"27.583"	"25.614"	"20.451"	"15.356"
"1979"	"14.667"	"16.025"	"20.637"	"28.612"	"28.62"	"33.332"	"29.307"	"29.376"	"27.824"	"27.208"	"22.149"	"16.4"
"1980"	"14.387"	"18.204"	"22.271"	"30.422"	"32.964"	"32.239"	"28.311"	"28.016"	"28.388"	"27.067"	"20.724"	"15.648"
"1981"	"15.118"	"17.945"	"22.052"	"29.265"	"31.873"	"32.536"	"27.886"	"28.688"	"28.883"	"25.869"	"19.402"	"15.574"
"1982"	"14.587"	"15.618"	"20.193"	"27.007"	"29.489"	"32.894"	"31.744"	"28.061"	"29.55"	"26.546"	"21.165"	"16.116"
"1983"	"13.435"	"15.944"	"21.992"	"25.338"	"31.314"	"32.631"	"30.432"	"28.562"	"29.012"	"25.942"	"19.122"	"15.557"
"1984"	"13.553"	"15.057"	"23.376"	"29.395"	"35.546"	"34.033"	"29.437"	"28.652"	"27.583"	"24.547"	"19.684"	"15.892"
"1985"	"13.584"	"17.713"	"25.1"	"29.573"	"34.258"	"33.754"	"29.354"	"28.856"	"27.948"	"23.815"	"20.043"	"16.249"
"1986"	"14.672"	"16.393"	"23.059"	"28.841"	"31.278"	"33.618"	"30.151"	"29.533"	"29.053"	"26.055"	"22.663"	"15.525"
"1987"	"15.409"	"18.594"	"23.82"	"29.833"	"29.852"	"35.176"	"34.16"	"30.625"	"31.018"	"27.824"	"21.126"	"15.876"
"1988"	"16.299"	"18.665"	"22.931"	"30.028"	"35.181"	"32.984"	"29.445"	"28.45"	"29.331"	"26.026"	"21.063"	"16.542"
"1989"	"13.675"	"16.514"	"22.375"	"27.417"	"33.774"	"32.911"	"29.779"	"29.026"	"28.693"	"26.112"	"21.212"	"15.349"
"1990"	"16.385"	"17.036"	"21.274"	"28.425"	"32.371"	"33.982"	"29.714"	"29.015"	"28.164"	"25.564"	"21.163"	"16.411"
"1991"	"14.124"	"17.727"	"22.814"	"27.786"	"33.042"	"33.389"	"32.495"	"28.795"	"29.389"	"25.594"	"20.202"	"15.667"
"1992"	"14.936"	"16.419"	"22.712"	"28.324"	"32.399"	"34.931"	"30.569"	"28.782"	"27.913"	"25.913"	"20.203"	"16.557"
"1993"	"15.06"	"18.786"	"21.322"	"28.594"	"33.823"	"33.564"	"30.053"	"30.288"	"27.433"	"26.082"	"21.461"	"16"
"1994"	"16.413"	"16.904"	"24.27"	"27.213"	"33.481"	"33.944"	"29.589"	"28.455"	"28.195"	"25.692"	"20.692"	"16.551"
"1995"	"13.774"	"17.335"	"21.614"	"28.255"	"33.941"	"35.351"	"31.204"	"27.968"	"28.841"	"27.022"	"20.842"	"16.26"
"1996"	"14.111"	"17.464"	"24.023"	"29.035"	"32.428"	"31.824"	"30.542"	"28.102"	"28.233"	"26.121"	"19.9"	"15.11"
"1997"	"13.533"	"16.862"	"22.373"	"26.826"	"30.554"	"31.324"	"30.802"	"28.733"	"28.704"	"24.063"	"19.853"	"13.67"
"1998"	"14.013"	"17.363"	"21.033"	"29.226"	"33.894"	"33.203"	"30.515"	"29.17"	"29.062"	"26.248"	"21.182"	"15.94"
"1999"	"13.883"	"17.614"	"23.873"	"30.498"	"33.375"	"32.993"	"31.106"	"29.894"	"28.864"	"26.443"	"21.807"	"16.071"
"2000"	"14.761"	"15.841"	"22.561"	"30.597"	"34.022"	"32.093"	"29.552"	"29.455"	"29.034"	"26.763"	"22.001"	"16.599"
"2001"	"13.892"	"17.805"	"23.144"	"28.788"	"32.405"	"31.042"	"30.224"	"29.838"	"29.908"	"27.393"	"21.572"	"16.851"
"2002"	"14.664"	"17.183"	"23.888"	"30.458"	"33.894"	"33.481"	"32.306"	"29.843"	"27.71"	"26.824"	"21.382"	"17.021"
