
"Year"	"Jan"	"Feb"	"Mar"	"Apr"	"May"	"Jun"	"Jul"	"Aug"	"Sep"	"Oct"	"Nov"	"Dec"
"1901"	"29.284"	"6.033"	"5.489"	"0.274"	"6.876"	"25.454"	"219.499"	"309.555"	"36.75"	"11.548"	"0"	"4.711"
"1902"	"4.363"	"0.794"	"0"	"1.903"	"0.756"	"46.036"	"390.582"	"140.848"	"150.994"	"5.625"	"29.349"	"0.723"
"1903"	"4.056"	"1.067"	"3.563"	"0"	"6.242"	"10.057"	"219.195"	"272.23"	"132.149"	"34.635"	"0"	"0"
"1904"	"4.853"	"2.809"	"14.524"	"0"	"12.428"	"78.271"	"450.341"	"329.945"	"45.242"	"3.337"	"16.425"	"8.907"
"1905"	"12.785"	"11.405"	"5.103"	"0.013"	"2.182"	"20.943"	"203.617"	"61.47"	"130.613"	"0.199"	"0"	"1.126"
"1906"	"0.567"	"11.548"	"8.624"	"0"	"1.335"	"145.048"	"279.763"	"125.803"	"264.111"	"0.571"	"0"	"5.317"
"1907"	"11.004"	"30.821"	"2.883"	"17.301"	"7.388"	"30.376"	"145.35"	"431.941"	"3.707"	"0.199"	"2.285"	"0"
"1908"	"19.15"	"0.037"	"2.477"	"1.664"	"4.745"	"40.928"	"578.685"	"395.224"	"37.238"	"5.95"	"1.09"	"0.961"
"1909"	"16.35"	"3.755"	"0"	"7.908"	"12.898"	"83.874"	"411.043"	"209.951"	"117.739"	"0.199"	"0"	"11.905"
"1910"	"7.189"	"1.482"	"0"	"2.225"	"2.295"	"63.719"	"203.699"	"257.399"	"173.887"	"19.234"	"5.8"	"0"
"1911"	"18.034"	"0"	"7.668"	"0.02"	"0"	"52.035"	"93.76"	"116.45"	"288.436"	"2.797"	"76.813"	"5.614"
"1912"	"17.74"	"3.198"	"4.535"	"1.101"	"0.413"	"18.107"	"307.309"	"246.844"	"167.511"	"0.199"	"29.68"	"1.968"
"1913"	"0"	"22.385"	"1.115"	"0"	"19.938"	"79.824"	"164.112"	"73.397"	"45.655"	"0.199"	"0"	"4.098"
"1914"	"0.029"	"2.06"	"5.149"	"5.836"	"19.319"	"93.772"	"471.115"	"165.757"	"198.752"	"10.188"	"1.044"	"0.507"
"1915"	"8.855"	"14.916"	"25.494"	"6.866"	"6.322"	"53.336"	"227.303"	"223.358"	"81.814"	"38.891"	"0.563"	"0.454"
"1916"	"0"	"9.109"	"0"	"1.497"	"4.038"	"81.199"	"334.04"	"338.776"	"138.396"	"26.625"	"3.583"	"0"
"1917"	"4.14"	"9.237"	"7.253"	"10.864"	"33.671"	"48.346"	"480.598"	"329.368"	"283.917"	"42.509"	"0"	"1.946"
"1918"	"12.795"	"0.418"	"2.351"	"0"	"9.205"	"45.184"	"126.457"	"181.876"	"72.554"	"0.199"	"5.515"	"0.528"
"1919"	"27.229"	"0.05"	"0.952"	"12.494"	"8.099"	"38.82"	"320.733"	"502.451"	"74.649"	"16.636"	"10.696"	"5.017"
"1920"	"6.773"	"9.883"	"3.263"	"0"	"15.36"	"97.198"	"397.593"	"91.674"	"82.032"	"0.199"	"0"	"0"
"1921"	"23.328"	"0.689"	"0"	"0.352"	"0"	"75.255"	"149.531"	"177.784"	"312.642"	"0.401"	"0"	"0"
"1922"	"16.174"	"1.264"	"0.457"	"1.1"	"0.625"	"82.002"	"327.943"	"214.755"	"238.292"	"1.311"	"8.134"	"24.171"
"1923"	"1.143"	"5.472"	"1.885"	"1.296"	"4.583"	"5"	"323.92"	"325.104"	"262.45"	"7.293"	"0.617"	"5.81"
"1924"	"12.092"	"6.225"	"0"	"0"	"4.329"	"18.461"	"235.649"	"267.345"	"301.657"	"14.99"	"1.847"	"18.444"
"1925"	"0"	"0"	"0"	"0"	"25.372"	"150.792"	"638.419"	"135.809"	"49.074"	"2.148"	"72.858"	"0.058"
"1926"	"7.37"	"3.804"	"20.292"	"7.344"	"26.543"	"25.549"	"284.523"	"371.207"	"179.306"	"5.777"	"1.658"	"0.215"
"1927"	"0.044"	"12.331"	"4.421"	"4.169"	"3.201"	"32.244"	"338.529"	"281.157"	"109.548"	"18.51"	"67.306"	"11.368"
"1928"	"4.19"	"24.668"	"1.179"	"1.592"	"2.197"	"30.934"	"326.088"	"107.004"	"101.946"	"60.418"	"18.15"	"32.66"
"1929"	"2.777"	"4.024"	"0"	"7.876"	"0"	"63.35"	"268.859"	"163.192"	"34.257"	"5.183"	"0"	"14.795"
"1930"	"7.079"	"4.177"	"0.013"	"2.181"	"4.977"	"113.921"	"540.552"	"204.059"	"74.167"	"19.83"	"1.393"	"0.119"
"1931"	"0.44"	"4.201"	"0"	"0.352"	"1.711"	"32.865"	"238.349"	"266.605"	"313.628"	"64.868"	"24.243"	"0"
"1932"	"0"	"5.364"	"9.786"	"3.972"	"0.81"	"25.719"	"343.785"	"272.544"	"210.749"	"4.083"	"0.037"	"0"
"1933"	"0"	"2.957"	"2.294"	"8.143"	"20.834"	"251.927"	"187.635"	"290.848"	"308.97"	"20.184"	"1.044"	"1.876"
"1934"	"12.433"	"0"	"8.699"	"0"	"0"	"129.765"	"242.152"	"333.246"	"218.52"	"0.537"	"17.373"	"25.448"
"1935"	"17.43"	"2.95"	"0.329"	"15.892"	"2.053"	"41.355"	"462.999"	"194.337"	"142.842"	"10.904"	"0.425"	"7.604"
"1936"	"0.505"	"3.569"	"12.31"	"3.152"	"8.855"	"235.415"	"265.121"	"308.289"	"141.208"	"0.199"	"53.222"	"8.604"
"1937"	"0"	"27.273"	"0.364"	"6.763"	"5.983"	"75.273"	"192.655"	"141.469"	"140.561"	"9.447"	"10.274"	"15.999"
"1938"	"10.486"	"0.029"	"0.845"	"0.448"	"14.367"	"79.826"	"431.022"	"150.129"	"50.319"	"30.788"	"0"	"0"
"1939"	"13.074"	"4.638"	"2.465"	"0.84"	"0"	"85.411"	"429.674"	"105.046"	"114.372"	"1.313"	"0.761"	"0.903"
"1940"	"12.449"	"9.523"	"6.568"	"5.978"	"17.294"	"54.157"	"252.302"	"279.648"	"63.326"	"4.344"	"7.495"	"3.677"
"1941"	"17.611"	"7.656"	"3.71"	"0.274"	"8.551"	"32.041"	"235.962"	"153.319"	"69.541"	"0.199"	"0"	"0"
"1942"	"19.582"	"10.527"	"0.285"	"3.072"	"2.106"	"48.439"	"574.674"	"363.251"	"287.818"	"0.38"	"0"	"5.071"
"1943"	"21.212"	"0"	"0.661"	"14.387"	"18.271"	"90.964"	"218.069"	"364.186"	"180.172"	"8.403"	"0"	"0"
"1944"	"17.474"	"11.311"	"26.431"	"19.836"	"0.102"	"35.538"	"399.21"	"291.984"	"105.553"	"6.893"	"0"	"0.809"
"1945"	"24.39"	"0"	"0"	"9.391"	"12.922"	"63.003"	"278.049"	"335.174"	"275.32"	"1.474"	"0"	"0.174"
"1946"	"0"	"3.264"	"0"	"6.877"	"10.526"	"87.242"	"333.127"	"352.208"	"30.785"	"7.559"	"23.968"	"4.458"
"1947"	"12.974"	"5.098"	"3.597"	"1.663"	"1.079"	"39.47"	"448.793"	"371.163"	"386.414"	"39.706"	"0.268"	"4.093"
"1948"	"46.707"	"5.605"	"0"	"2.443"	"6.056"	"31.607"	"458.186"	"251.791"	"199.868"	"17.786"	"28.581"	"0"
"1949"	"0"	"7.053"	"1.281"	"0"	"3.718"	"28.534"	"440.283"	"358.185"	"323.276"	"17.206"	"0"	"0"
"1950"	"3.68"	"0.439"	"3.381"	"0"	"10.775"	"10.058"	"313.959"	"307.09"	"195.475"	"0.629"	"0.058"	"4.29"
"1951"	"7.048"	"4.801"	"9.906"	"4.919"	"6.508"	"52.012"	"237.097"	"269.703"	"239.337"	"11.481"	"41.796"	"0"
"1952"	"0"	"11.603"	"2.649"	"4.759"	"2.558"	"79.398"	"281.943"	"539.378"	"29.103"	"0.273"	"0"	"22.573"
"1953"	"28.449"	"0.108"	"0"	"1.064"	"0.296"	"11.75"	"293.058"	"236.411"	"67.14"	"4.393"	"0"	"0.049"
"1954"	"18.895"	"20.944"	"5.386"	"0"	"0"	"14.147"	"313.36"	"253.561"	"260.542"	"38.571"	"0"	"0"
"1955"	"24.684"	"0.101"	"0.337"	"0.058"	"0.721"	"142.407"	"317.012"	"449.353"	"243.317"	"76.456"	"0"	"0"
"1956"	"7.185"	"0.817"	"10.882"	"2.009"	"2.222"	"93.716"	"592.617"	"250.529"	"79.296"	"72.336"	"13.534"	"10.847"
"1957"	"21.953"	"0"	"20.219"	"6.147"	"8.673"	"34.357"	"459.921"	"183.201"	"197.094"	"9.591"	"7.464"	"2.923"
"1958"	"1.912"	"2.572"	"1.081"	"0.425"	"3.697"	"18.682"	"541.909"	"354.837"	"277.546"	"51.256"	"3.19"	"2.85"
"1959"	"13.992"	"0.928"	"0"	"3.195"	"33.613"	"44.462"	"318.426"	"311.273"	"166.918"	"13.579"	"13.433"	"0"
"1960"	"11.999"	"0"	"15.764"	"0.811"	"9.047"	"35.52"	"317.496"	"559.755"	"84.152"	"70.821"	"0"	"5.614"
"1961"	"29.662"	"14.604"	"0.433"	"1.925"	"6.35"	"68.723"	"263.803"	"549.455"	"116.56"	"61.304"	"14.445"	"1.061"
"1962"	"18.838"	"2.841"	"8.182"	"10.632"	"2.797"	"21.208"	"335.199"	"319.749"	"265.953"	"0.199"	"3.785"	"4.803"
"1963"	"13.601"	"3.178"	"2.854"	"4.212"	"5.996"	"50.103"	"248.662"	"262.476"	"354.396"	"3.181"	"16.935"	"7.776"
"1964"	"0"	"0.089"	"4.942"	"0.02"	"14.394"	"26.708"	"479.425"	"349.076"	"293.194"	"1.22"	"0"	"2.83"
"1965"	"5.459"	"3.643"	"1.092"	"9.403"	"1.8"	"15.214"	"370.142"	"173.086"	"146.218"	"28.072"	"0"	"2.846"
"1966"	"0.463"	"1.71"	"0"	"0"	"24.131"	"76.896"	"249.524"	"328.683"	"43.995"	"0.199"	"69.911"	"0.611"
"1967"	"0.068"	"0"	"19.617"	"0.294"	"0.796"	"43.655"	"318.441"	"521.618"	"152.504"	"0.479"	"0"	"33.341"
"1968"	"21.433"	"4.539"	"5.906"	"0.303"	"0"	"31.892"	"380.002"	"248.011"	"55.264"	"34.477"	"0"	"0.05"
"1969"	"2.886"	"6.238"	"0.285"	"0"	"13.7"	"18.327"	"454.732"	"291.956"	"150.184"	"0.199"	"46.04"	"0"
"1970"	"27.853"	"18.665"	"7.931"	"4.044"	"18.223"	"104.557"	"144.716"	"421.248"	"179.868"	"0.815"	"0"	"0"
"1971"	"12.876"	"5.242"	"0.013"	"1.927"	"9.765"	"165.278"	"344.997"	"216.232"	"131.809"	"52.272"	"3.612"	"0"
"1972"	"2.021"	"9.101"	"0"	"0"	"1.22"	"32.509"	"105.683"	"334.488"	"154.263"	"15.399"	"10.773"	"4.459"
"1973"	"8.575"	"10.75"	"0"	"0"	"1.969"	"16.363"	"375.74"	"405.342"	"181.374"	"43.791"	"0"	"3.152"
"1974"	"0"	"2.348"	"0.083"	"5.879"	"13.111"	"22.906"	"183.812"	"230.71"	"36.333"	"64.781"	"0"	"0"
"1975"	"3.429"	"2.661"	"0.076"	"0.266"	"1.409"	"94.515"	"391.249"	"245.332"	"197.484"	"22.589"	"0"	"0"
"1976"	"2.287"	"1.152"	"1.323"	"4.353"	"4.24"	"119.056"	"266.47"	"306.002"	"114.867"	"0.199"	"41.5"	"0.798"
"1977"	"15.568"	"0.585"	"2.737"	"9.272"	"7.07"	"73.895"	"462.308"	"250.977"	"227.577"	"29.656"	"17.358"	"0.056"
"1978"	"6.107"	"24.218"	"22.617"	"4.038"	"0"	"136.383"	"295.837"	"281.664"	"175.843"	"2.24"	"2.018"	"14.082"
"1979"	"15.96"	"28.323"	"1.314"	"0.373"	"18.956"	"28.621"	"269.672"	"115.266"	"15.269"	"4.23"	"13.547"	"4.579"
"1980"	"0.709"	"2.497"	"10.114"	"0.352"	"1.566"	"93.129"	"272.703"	"323.24"	"28.942"	"10.308"	"3.612"	"27.767"
"1981"	"8.786"	"0.424"	"13.524"	"0"	"17.366"	"199.412"	"357.075"	"223.94"	"82.65"	"2.117"	"10.767"	"2.302"
"1982"	"32.728"	"3.598"	"11.363"	"4.086"	"11.718"	"34.465"	"178.27"	"516.041"	"58.276"	"3.016"	"82.627"	"7.703"
"1983"	"10.801"	"2.298"	"0.053"	"19.882"	"22.018"	"72.919"	"182.244"	"446.957"	"255.032"	"29.531"	"0"	"1.96"
"1984"	"11.43"	"6.295"	"2.067"	"22.678"	"2.728"	"74.181"	"183.242"	"286.185"	"97.432"	"3.942"	"0.073"	"0"
"1985"	"5.881"	"0"	"3.172"	"12.804"	"10.341"	"43.826"	"520.292"	"333.115"	"170.537"	"88.275"	"0"	"12.027"
"1986"	"8.018"	"16.049"	"7.019"	"0"	"19.373"	"92.694"	"247.749"	"110.261"	"57.894"	"31.141"	"0"	"14.321"
"1987"	"18.361"	"10.651"	"1.338"	"0"	"29.459"	"23.01"	"137.736"	"207.671"	"87.067"	"5.198"	"0"	"6.708"
"1988"	"5.042"	"1.301"	"6.599"	"13.631"	"1.474"	"99.493"	"266.92"	"250.559"	"74.987"	"0.773"	"0"	"0.468"
"1989"	"9.127"	"0"	"10.25"	"0.329"	"0.421"	"20.799"	"234.123"	"327.866"	"92.232"	"3.14"	"10.925"	"4.305"
"1990"	"0"	"18.264"	"0.581"	"0.371"	"18.594"	"152.066"	"412.322"	"378.477"	"321.389"	"1.763"	"0"	"7.114"
"1991"	"0.375"	"8.783"	"4.211"	"7.218"	"18.328"	"28.137"	"75.348"	"372.99"	"93.856"	"0.199"	"13.669"	"18.38"
"1992"	"14.643"	"5.664"	"6.739"	"1.9"	"21.278"	"14.417"	"80.613"	"215.212"	"197.253"	"33.885"	"37.967"	"0"
"1993"	"4.591"	"1.455"	"5.877"	"1.733"	"10.692"	"99.959"	"287.216"	"167.664"	"185.315"	"7.714"	"0"	"0.226"
"1994"	"23.137"	"10.897"	"9.348"	"4.776"	"14.186"	"110.009"	"694.522"	"294.679"	"48.784"	"2.982"	"0"	"0"
"1995"	"27.069"	"1.936"	"8.146"	"8.979"	"0.557"	"44.999"	"254.541"	"257.843"	"161.92"	"6.978"	"1.43"	"2.441"
"1996"	"10.951"	"1.698"	"3.438"	"13.119"	"14.407"	"112.732"	"223.434"	"359.624"	"254.719"	"22.551"	"0"	"0"
"1997"	"3.313"	"0"	"1.574"	"1.928"	"17.973"	"89.757"	"186.193"	"227.167"	"164.464"	"41.401"	"73.522"	"17.865"
"1998"	"0"	"6.538"	"14.892"	"7.39"	"4.065"	"91.93"	"171.994"	"276.568"	"111.918"	"35.627"	"19.826"	"0.199"
"1999"	"7.683"	"18.814"	"0"	"0"	"3.969"	"134.432"	"277.798"	"316.832"	"272.071"	"59.717"	"0"	"0.431"
"2000"	"5.405"	"2.303"	"0.952"	"1.42"	"12.556"	"27.903"	"446.344"	"141.068"	"59.94"	"1.299"	"1.421"	"0"
"2001"	"7.334"	"3.351"	"2.612"	"9.314"	"33.483"	"156.922"	"239.443"	"230.403"	"36.672"	"16.985"	"0.993"	"0"
"2002"	"6.626"	"15.33"	"1.483"	"1.67"	"11.025"	"48.838"	"42.799"	"234.039"	"166.392"	"8.027"	"6.285"	"4.206"
