
"Year"	"Jan"	"Feb"	"Mar"	"Apr"	"May"	"Jun"	"Jul"	"Aug"	"Sep"	"Oct"	"Nov"	"Dec"
"1901"	"31.432"	"18.094"	"43.307"	"356.74"	"323.902"	"576.965"	"408.226"	"393.021"	"327.639"	"312.514"	"203.518"	"2.212"
"1902"	"3.251"	"10.481"	"56.128"	"313.21"	"318.819"	"807.721"	"638.465"	"546.241"	"330.657"	"58.621"	"12.798"	"3.12"
"1903"	"4.018"	"26.241"	"96.587"	"225.555"	"268.152"	"744.466"	"457.213"	"691.873"	"165.005"	"113.984"	"159.519"	"2.122"
"1904"	"6.755"	"95.88"	"60.844"	"655.338"	"430.076"	"420.525"	"412.241"	"476.389"	"187.888"	"105.84"	"74.926"	"2.643"
"1905"	"7.414"	"20.435"	"329.917"	"172.602"	"458.767"	"567.596"	"506.706"	"840.054"	"414.69"	"436.712"	"24.112"	"13.208"
"1906"	"10.916"	"120.738"	"60.417"	"330.71"	"241.664"	"407.231"	"762.301"	"735.745"	"310.297"	"162.087"	"58"	"0"
"1907"	"26.923"	"106.127"	"128.144"	"238.348"	"184.773"	"618.453"	"595.504"	"382.818"	"239.203"	"83.842"	"10.255"	"7.103"
"1908"	"10.438"	"20.381"	"12.122"	"197.124"	"366.277"	"525.425"	"463.792"	"273.794"	"396.037"	"112.914"	"10.933"	"2.36"
"1909"	"10.791"	"21.708"	"4.408"	"204.189"	"527.409"	"663.959"	"344.301"	"487.983"	"152.423"	"178.334"	"37.875"	"5.412"
"1910"	"6.742"	"45.222"	"229.692"	"239.453"	"362.258"	"747.925"	"740.697"	"553.438"	"219.159"	"191.807"	"60.741"	"2.097"
"1911"	"30.496"	"29.112"	"69.567"	"324.729"	"742.786"	"896.252"	"516.353"	"494.912"	"417.947"	"491.096"	"4.481"	"0.918"
"1912"	"6.129"	"89.308"	"127.23"	"230.232"	"214.823"	"594.65"	"429.605"	"465.498"	"270.657"	"365.548"	"150.09"	"17.837"
"1913"	"5.165"	"92.349"	"100.101"	"384.213"	"419.375"	"584.121"	"385.917"	"406.107"	"284.256"	"334.008"	"18.599"	"13.964"
"1914"	"2.127"	"73.807"	"61.788"	"120.483"	"478.094"	"679.912"	"371.47"	"663.426"	"173.13"	"61.143"	"13.427"	"8.815"
"1915"	"8.106"	"67.707"	"74.46"	"147.791"	"1164.917"	"467.113"	"678.452"	"587.009"	"203.93"	"165.878"	"26.334"	"4.088"
"1916"	"9.277"	"21.9"	"140.443"	"302.837"	"810.551"	"532.864"	"416.486"	"547.197"	"298.884"	"487.272"	"175.315"	"1.817"
"1917"	"1.396"	"104.453"	"26.473"	"126.861"	"431.193"	"659.877"	"445.95"	"427.384"	"213.206"	"289.169"	"209.754"	"4.149"
"1918"	"1.218"	"8.647"	"107.06"	"109.143"	"515.708"	"966.375"	"660.426"	"580.946"	"336.955"	"91.702"	"4.237"	"1.298"
"1919"	"13.108"	"3.81"	"8.075"	"107.357"	"340.171"	"595.969"	"503.201"	"286.135"	"404.84"	"440.478"	"79.432"	"1.022"
"1920"	"0.474"	"40.114"	"186.003"	"151.723"	"448.333"	"465.5"	"281.427"	"619.871"	"451.167"	"120.911"	"5.951"	"1.052"
"1921"	"23.164"	"10"	"77.36"	"240.383"	"928.009"	"682.538"	"665.152"	"502.905"	"299.958"	"99.598"	"7.017"	"0.061"
"1922"	"8.337"	"2.199"	"115.976"	"369.211"	"250.89"	"796.713"	"408.738"	"382.563"	"201.995"	"425.012"	"10.536"	"8.226"
"1923"	"2.999"	"102.759"	"13.886"	"293.334"	"491.335"	"853.475"	"404.792"	"271.991"	"254.799"	"108.3"	"9.073"	"0.416"
"1924"	"7.157"	"12.905"	"13"	"309.852"	"260.049"	"717.31"	"695.533"	"521.989"	"395.993"	"138.103"	"233.074"	"0"
"1925"	"20.753"	"32.745"	"64.691"	"298.196"	"687.054"	"372.266"	"433.372"	"397.942"	"317.974"	"96.261"	"10.019"	"2.322"
"1926"	"20.403"	"19.546"	"103.138"	"114.736"	"167.104"	"804.822"	"552.529"	"349.6"	"244.077"	"320.757"	"9.634"	"17.347"
"1927"	"31.971"	"46.881"	"48.206"	"316.07"	"324.718"	"722.6"	"447.623"	"340.447"	"646.402"	"333.551"	"29.428"	"0.081"
"1928"	"5.01"	"28.509"	"70.161"	"85.842"	"469.505"	"609.457"	"578.768"	"352.834"	"339.981"	"367.784"	"15.797"	"0"
"1929"	"16.857"	"1.932"	"47.321"	"393.549"	"903.14"	"695.917"	"438.114"	"355.863"	"317.815"	"112.497"	"14.926"	"7.366"
"1930"	"17.139"	"37.003"	"75.533"	"175.526"	"321.887"	"842.314"	"240.967"	"600.69"	"249.96"	"181.517"	"226.592"	"1.016"
"1931"	"1.273"	"28.005"	"27.758"	"427.886"	"423.287"	"837.282"	"726.283"	"221.545"	"243.149"	"64.887"	"12.243"	"3.528"
"1932"	"6.473"	"38.644"	"24.164"	"122.664"	"978.925"	"671.957"	"468.644"	"749.465"	"271.6"	"93.52"	"182.593"	"2.412"
"1933"	"2.072"	"26.924"	"17.4"	"210.645"	"419.884"	"562.907"	"440.671"	"516.597"	"197.416"	"66.283"	"3.183"	"0"
"1934"	"21.041"	"76.181"	"14.262"	"359.914"	"384.294"	"1094.807"	"647.082"	"399.348"	"277.168"	"485.487"	"27.74"	"4.017"
"1935"	"1.604"	"55.095"	"39.686"	"88.222"	"483.591"	"847.145"	"335.9"	"842.838"	"370.018"	"55.138"	"8.857"	"3.864"
"1936"	"14.163"	"54.531"	"50.848"	"167.707"	"571.795"	"530.335"	"556.563"	"332.086"	"368.666"	"327.909"	"5.106"	"14.713"
"1937"	"0.071"	"34.315"	"18.44"	"58.556"	"576.74"	"563.172"	"578.229"	"494.419"	"188.977"	"90.914"	"3.307"	"5.082"
"1938"	"32.843"	"9.85"	"128.996"	"209.104"	"547.372"	"946.521"	"610.695"	"664.484"	"613.551"	"127.266"	"70.754"	"0.191"
"1939"	"0.538"	"33.75"	"13.734"	"210.318"	"431.827"	"818.615"	"581.996"	"351.677"	"412.267"	"212.692"	"13.907"	"1.943"
"1940"	"0.143"	"85.492"	"223.668"	"33.699"	"542.689"	"564.12"	"469.827"	"386.716"	"544.27"	"147.67"	"5.669"	"3.166"
"1941"	"0.719"	"59.176"	"95.393"	"202.635"	"584.926"	"695.08"	"448.113"	"377.741"	"446.889"	"225.448"	"8.317"	"1.59"
"1942"	"22.415"	"25.59"	"180.544"	"164.625"	"596.555"	"1012.036"	"256.883"	"414.547"	"431.779"	"26.477"	"21.038"	"0.18"
"1943"	"17.695"	"65.561"	"123.672"	"176.9"	"569.064"	"626.333"	"438.042"	"440.049"	"459.662"	"34.914"	"13.861"	"0.913"
"1944"	"44.386"	"13.119"	"51.872"	"91.69"	"1001.407"	"504.795"	"327.012"	"343.215"	"410.501"	"151.426"	"11.886"	"5.24"
"1945"	"36.716"	"39.779"	"134.635"	"126.094"	"362.706"	"616.685"	"526.728"	"636.96"	"222.623"	"213.271"	"0.843"	"1.582"
"1946"	"2.171"	"47.305"	"102.428"	"175.563"	"417.208"	"581.551"	"569.916"	"430.788"	"324.364"	"551.198"	"9.852"	"0.061"
"1947"	"6.072"	"11.477"	"56.243"	"408.462"	"561.926"	"697.343"	"633.796"	"467.436"	"677.076"	"493.397"	"9.295"	"36.402"
"1948"	"4.711"	"109.941"	"97.135"	"466.929"	"728.487"	"763.264"	"1026.95"	"441.956"	"369.443"	"224.983"	"25.301"	"2.131"
"1949"	"21.308"	"11.911"	"238.039"	"605.41"	"337.408"	"1056.631"	"773.916"	"614.907"	"458.41"	"205.05"	"18.253"	"4.488"
"1950"	"3.695"	"56.568"	"78.354"	"98.993"	"235.539"	"673.545"	"417.526"	"578.133"	"279.698"	"329.323"	"99.07"	"2.32"
"1951"	"2.118"	"2.96"	"72.824"	"345.207"	"433.344"	"898.108"	"989.948"	"607.7"	"455.333"	"433.274"	"72.359"	"9.623"
"1952"	"18.202"	"2.041"	"71.641"	"651.634"	"384.21"	"1177.181"	"781.428"	"524.847"	"702.009"	"447.549"	"130.482"	"0.543"
"1953"	"6.402"	"8.073"	"111.575"	"73.166"	"579.862"	"983.578"	"782.326"	"424.603"	"544.249"	"228.634"	"3.392"	"0.901"
"1954"	"13.021"	"90.128"	"143.221"	"227.002"	"425.177"	"1323.742"	"554.624"	"486.228"	"377.645"	"295.608"	"0.583"	"7.311"
"1955"	"1.474"	"8.295"	"214.891"	"120.697"	"372.848"	"497.644"	"913.199"	"411.33"	"297.084"	"97.246"	"132.291"	"2.046"
"1956"	"19.939"	"6.063"	"187.692"	"176.131"	"593.425"	"1099.087"	"519.41"	"431.104"	"473.889"	"194.361"	"48.786"	"1.817"
"1957"	"40.005"	"100.486"	"26.296"	"152.437"	"427.858"	"668.678"	"530.313"	"832.212"	"437.629"	"76.485"	"15.318"	"6"
"1958"	"7.492"	"142.317"	"83.928"	"187.733"	"526.449"	"417.649"	"447.672"	"867.149"	"316.744"	"349.186"	"4.338"	"2.921"
"1959"	"30.498"	"115.788"	"310.667"	"197.879"	"617.133"	"960.472"	"516.051"	"608.872"	"278.001"	"364.676"	"11.007"	"3.833"
"1960"	"0"	"4.763"	"72.145"	"83.245"	"354.541"	"595.724"	"794.019"	"428.73"	"512.024"	"144.976"	"58.622"	"3.003"
"1961"	"4.844"	"23.371"	"98.433"	"225.328"	"193.049"	"842.968"	"525.704"	"627.073"	"198.398"	"205.024"	"14.084"	"2.41"
"1962"	"13.441"	"66.627"	"5.853"	"190.916"	"294.249"	"686.261"	"549.662"	"382.408"	"130.361"	"234.84"	"7.629"	"2.354"
"1963"	"0.317"	"16.755"	"111.5"	"288.681"	"396.774"	"619.707"	"501.139"	"418.812"	"273.163"	"176.974"	"14.243"	"0.939"
"1964"	"34.795"	"58.127"	"117.442"	"360.055"	"407.01"	"840.934"	"1040.748"	"516.778"	"495.372"	"536.115"	"26.25"	"6.651"
"1965"	"1.305"	"15.886"	"42.91"	"61.033"	"123.363"	"1059.996"	"736.211"	"856.3"	"351.175"	"76.051"	"136.712"	"36.595"
"1966"	"22.206"	"5.11"	"62.575"	"106.578"	"269.525"	"1025.556"	"454.268"	"500.079"	"573.958"	"336.812"	"42.148"	"62.068"
"1967"	"53.374"	"2.567"	"175.329"	"238.172"	"243.567"	"405.514"	"458.707"	"411.838"	"487.139"	"190.451"	"2.824"	"0.569"
"1968"	"23.262"	"23.28"	"95.463"	"225.634"	"518.443"	"569.822"	"862.605"	"682.598"	"271.956"	"91.718"	"25.01"	"0.18"
"1969"	"8.481"	"0.686"	"141.987"	"354.433"	"379.126"	"1034.655"	"724.005"	"660.145"	"392.014"	"58.676"	"29.507"	"0.732"
"1970"	"37.323"	"28.944"	"159.018"	"242.943"	"318.781"	"278.919"	"705.39"	"360.122"	"133.814"	"316.697"	"68.508"	"0.757"
"1971"	"12.855"	"22.533"	"7.577"	"61.183"	"110.391"	"308.018"	"459.392"	"403.973"	"245.977"	"277.62"	"75.897"	"3.069"
"1972"	"6.187"	"47.739"	"56.8"	"249.343"	"318.258"	"555.115"	"376.132"	"421.614"	"102.817"	"69.989"	"2.973"	"1.884"
"1973"	"19.393"	"54.27"	"104.498"	"188.153"	"583.178"	"871.666"	"419.953"	"248.329"	"258.125"	"213.417"	"153.8"	"3.816"
"1974"	"6.95"	"4.423"	"179.917"	"403.761"	"375.13"	"722.949"	"966.276"	"379.306"	"532.964"	"280.943"	"65.084"	"0.627"
"1975"	"2.412"	"74.713"	"28.366"	"163.282"	"351.106"	"419.591"	"647.424"	"294.294"	"315.578"	"203.546"	"119.321"	"2.65"
"1976"	"0.942"	"31.31"	"133.508"	"132.369"	"318.693"	"806.761"	"723.987"	"477.479"	"51.765"	"104.083"	"20.639"	"1.077"
"1977"	"2.832"	"132.503"	"41.846"	"590.115"	"486.239"	"683.18"	"611.549"	"282.612"	"208.314"	"182.153"	"45.838"	"19.556"
"1978"	"0.143"	"1.715"	"29.133"	"144.079"	"627.387"	"658.451"	"413.517"	"232.492"	"254.127"	"77.609"	"5.506"	"0.421"
"1979"	"12.499"	"13.782"	"76.441"	"47.501"	"233.496"	"320.169"	"325.012"	"536.991"	"427.811"	"243.12"	"31.377"	"30.566"
"1980"	"2.312"	"26.907"	"135.514"	"215.106"	"535.339"	"352.338"	"622.595"	"547.157"	"302.114"	"228.881"	"0.499"	"4.673"
"1981"	"28.455"	"30.879"	"221.598"	"646.775"	"672.504"	"552.873"	"680.654"	"386.4"	"244.968"	"35.669"	"3.654"	"66.899"
"1982"	"0.295"	"32.705"	"30.679"	"392.701"	"327.151"	"831.808"	"336.695"	"599.648"	"273.554"	"24.894"	"67.393"	"5.635"
"1983"	"12.447"	"47.925"	"199.501"	"184.034"	"382.997"	"422.36"	"606.751"	"577.084"	"493.514"	"242.104"	"20.576"	"44.359"
"1984"	"20.396"	"10.507"	"17.84"	"219.609"	"851.272"	"652.822"	"548.034"	"490.453"	"426.733"	"223.549"	"0.5"	"13.237"
"1985"	"6.342"	"14.31"	"181.413"	"295.348"	"238.803"	"548.04"	"373.112"	"408.759"	"329.766"	"53.837"	"6.303"	"2.419"
"1986"	"8.778"	"6.143"	"20.774"	"384.764"	"112.445"	"287.498"	"547.143"	"321.075"	"450.185"	"258.796"	"128.854"	"2.627"
"1987"	"0.759"	"8.608"	"122.366"	"344.392"	"180.604"	"280.953"	"590.537"	"421.95"	"471.271"	"163.271"	"54.821"	"33.69"
"1988"	"1.949"	"32.87"	"95.286"	"73.843"	"702.957"	"537.948"	"615.742"	"579.678"	"309.243"	"296.593"	"61.235"	"2.068"
"1989"	"1.76"	"44.795"	"47.495"	"147.325"	"376.687"	"544.827"	"491.43"	"172.082"	"342.707"	"290.689"	"12.151"	"2.986"
"1990"	"5.497"	"75.306"	"179.94"	"428.818"	"322.727"	"452.556"	"524.619"	"175.512"	"529.033"	"160.641"	"38.7"	"11.121"
"1991"	"16.975"	"55.044"	"112.722"	"87.221"	"688.374"	"443.885"	"398.737"	"506.265"	"286.235"	"554.158"	"10.854"	"37.016"
"1992"	"10.487"	"57.934"	"43.812"	"131.476"	"441.467"	"457.645"	"726.058"	"576.018"	"325.903"	"161.926"	"12.75"	"21.575"
"1993"	"49.41"	"77.806"	"131.694"	"130.839"	"450.757"	"832.681"	"680.239"	"533.014"	"400.266"	"79.536"	"9.572"	"0"
"1994"	"19.66"	"58.844"	"257.776"	"232.82"	"296.215"	"653.692"	"406.021"	"543.244"	"178.876"	"44.463"	"21.509"	"6.131"
"1995"	"19.832"	"38.52"	"19.259"	"123.287"	"402.244"	"667.399"	"581.939"	"433.479"	"326.724"	"63.417"	"147.47"	"0.789"
"1996"	"1.518"	"33.269"	"188.92"	"274.831"	"575.137"	"449.573"	"544.534"	"517.424"	"254.257"	"163.714"	"7.757"	"1.675"
"1997"	"7.587"	"16.812"	"108.598"	"128.879"	"259.731"	"427.06"	"722.119"	"380.355"	"480.465"	"45.568"	"14.862"	"34.542"
"1998"	"13.195"	"42.597"	"164.263"	"245.11"	"542.857"	"394.023"	"700.035"	"632.43"	"186.85"	"82.639"	"122.157"	"0"
"1999"	"6.859"	"5.034"	"31.774"	"66.587"	"537.243"	"366.921"	"547.466"	"389.873"	"142.27"	"245.297"	"10.055"	"3.634"
"2000"	"21.376"	"47.168"	"89.091"	"448.429"	"648.777"	"207.073"	"320.964"	"663.172"	"282.727"	"130.465"	"9.772"	"6.021"
"2001"	"4.045"	"21.006"	"92.22"	"228.827"	"516.457"	"523.459"	"433.348"	"669.506"	"293.77"	"240.385"	"36.083"	"1.466"
"2002"	"33.387"	"6.284"	"96.371"	"401.625"	"412.796"	"900.963"	"685.822"	"376.374"	"258.748"	"109.64"	"46.121"	"2.46"
