
"Year"	"Jan"	"Feb"	"Mar"	"Apr"	"May"	"Jun"	"Jul"	"Aug"	"Sep"	"Oct"	"Nov"	"Dec"
"1901"	"16.682"	"19.197"	"23.186"	"26.543"	"26.481"	"27.082"	"27.12"	"27.12"	"27.076"	"25.923"	"21.503"	"18.283"
"1902"	"17.392"	"18.956"	"24.085"	"24.685"	"26.429"	"26.487"	"27.02"	"27.12"	"27.034"	"24.723"	"20.954"	"17.845"
"1903"	"16.402"	"18.161"	"22.928"	"26.595"	"26.733"	"26.467"	"27.468"	"26.22"	"26.824"	"26.119"	"22.019"	"18.394"
"1904"	"16.802"	"19.197"	"24.205"	"25.364"	"25.913"	"26.982"	"26.81"	"26.82"	"27.124"	"25.272"	"21.456"	"17.603"
"1905"	"16.502"	"16.265"	"21.928"	"23.995"	"26.381"	"26.972"	"27.219"	"26.673"	"27.372"	"25.571"	"21.803"	"18.388"
"1906"	"16.934"	"18.665"	"22.028"	"26.174"	"27.181"	"26.872"	"27.569"	"26.272"	"27.924"	"25.161"	"21.903"	"18.545"
"1907"	"18.303"	"18.113"	"22.238"	"24.696"	"26.092"	"26.355"	"26.772"	"27.219"	"26.876"	"25.571"	"21.751"	"18.394"
"1908"	"17.103"	"18.561"	"23.842"	"27.312"	"26.286"	"26.625"	"26.82"	"27.13"	"27.235"	"25.272"	"21.404"	"18.503"
"1909"	"17.103"	"18.914"	"24.543"	"25.044"	"26.411"	"26.035"	"27.82"	"26.421"	"27.772"	"26.261"	"22.74"	"18.541"
"1910"	"16.892"	"18.461"	"22.675"	"24.165"	"26.381"	"26.045"	"26.272"	"26.73"	"27.224"	"25.061"	"21.893"	"17.33"
"1911"	"16.982"	"18.313"	"22.385"	"24.575"	"25.791"	"26.224"	"26.631"	"26.72"	"26.924"	"25.371"	"21.503"	"17.335"
"1912"	"16.993"	"19.323"	"23.138"	"24.137"	"26.381"	"26.487"	"26.93"	"26.73"	"26.625"	"24.971"	"21.999"	"18.141"
"1913"	"17.913"	"20.774"	"23.106"	"26.094"	"25.595"	"26.135"	"27.42"	"26.621"	"26.824"	"24.961"	"21.202"	"17.093"
"1914"	"16.892"	"18.866"	"23.028"	"24.338"	"25.838"	"26.272"	"27.12"	"26.182"	"26.976"	"24.07"	"21.504"	"18.384"
"1915"	"18.394"	"18.861"	"22.917"	"25.854"	"25.848"	"26.087"	"25.92"	"26.93"	"26.834"	"26.767"	"23.209"	"18.982"
"1916"	"16.839"	"19.113"	"23.89"	"25.002"	"26.643"	"26.683"	"26.573"	"26.72"	"26.972"	"25.272"	"22.15"	"17.645"
"1917"	"16.692"	"18.414"	"22.233"	"24.664"	"25.619"	"26.035"	"26.72"	"26.71"	"26.631"	"25.371"	"22.299"	"17.599"
"1918"	"16.903"	"18.613"	"23.196"	"24.944"	"26.361"	"25.035"	"26.972"	"26.473"	"27.024"	"25.266"	"21.361"	"18.13"
"1919"	"18.103"	"18.613"	"24.533"	"25.453"	"26.533"	"26.693"	"26.668"	"27.167"	"26.025"	"25.124"	"21.999"	"18.199"
"1920"	"18.04"	"18.508"	"22.848"	"24.896"	"26.154"	"26.335"	"27.367"	"26.621"	"26.982"	"25.282"	"21.757"	"18.451"
"1921"	"18.813"	"19.215"	"23.375"	"25.396"	"26.501"	"25.892"	"27.026"	"26.868"	"26.824"	"24.129"	"21.4"	"18.145"
"1922"	"18.203"	"19.46"	"24.143"	"26.569"	"26.833"	"26.403"	"27.173"	"26.968"	"26.82"	"24.967"	"22.052"	"18.441"
"1923"	"18.404"	"18.607"	"23.313"	"26.002"	"25.954"	"26.635"	"26.816"	"27.121"	"27.13"	"24.719"	"21.999"	"18.545"
"1924"	"17.602"	"18.813"	"25.302"	"26.306"	"25.901"	"26.683"	"27.125"	"26.868"	"26.473"	"26.025"	"22.198"	"17.94"
"1925"	"15.583"	"17.648"	"23.186"	"25.186"	"26.297"	"26.373"	"26.527"	"26.73"	"26.477"	"24.228"	"21.049"	"17.888"
"1926"	"17.293"	"18.813"	"22.637"	"25.054"	"26.182"	"25.992"	"26.826"	"27.016"	"26.725"	"25.319"	"20.898"	"18.982"
"1927"	"16.592"	"18.165"	"21.586"	"25.483"	"25.891"	"26.355"	"26.92"	"26.82"	"26.477"	"25.13"	"21.308"	"18.541"
"1928"	"17.944"	"19.908"	"23.649"	"25.981"	"25.723"	"26.093"	"27.016"	"26.92"	"27.124"	"25.023"	"20.954"	"18.841"
"1929"	"17.534"	"18.107"	"23.233"	"25.296"	"26.086"	"26.203"	"26.868"	"26.82"	"26.924"	"25.319"	"21.102"	"17.845"
"1930"	"15.545"	"19.303"	"22.986"	"25.354"	"26.429"	"25.744"	"26.968"	"26.82"	"27.725"	"24.633"	"22.083"	"18.278"
"1931"	"16.272"	"17.735"	"22.965"	"26.348"	"25.214"	"25.924"	"26.421"	"27.209"	"26.677"	"26.429"	"22.019"	"18.945"
"1932"	"17.745"	"18.876"	"24.095"	"25.933"	"27.048"	"26.025"	"26.72"	"26.878"	"27.271"	"26.129"	"22.419"	"18.535"
"1933"	"16.534"	"18.903"	"24.075"	"25.705"	"25.791"	"26.934"	"27.12"	"26.82"	"27.43"	"25.818"	"20.592"	"17.998"
"1934"	"17.434"	"18.551"	"23.884"	"25.996"	"25.617"	"25.477"	"26.511"	"26.469"	"27.024"	"25.824"	"20.64"	"18.245"
"1935"	"16.702"	"19.008"	"23.832"	"25.453"	"27.595"	"26.24"	"26.852"	"26.32"	"27.076"	"25.871"	"21.999"	"17.235"
"1936"	"15.834"	"18.155"	"23.775"	"25.854"	"26.171"	"26.888"	"26.968"	"27.172"	"27.072"	"25.282"	"22.251"	"18.545"
"1937"	"15.334"	"18.95"	"23.443"	"26.954"	"26.891"	"27.088"	"27.12"	"26.511"	"26.966"	"25.361"	"20.734"	"18.426"
"1938"	"17.955"	"18.203"	"25.811"	"26.795"	"25.934"	"26.583"	"26.72"	"26.772"	"26.866"	"25.861"	"20.592"	"18.593"
"1939"	"17.041"	"19.407"	"23.581"	"27.268"	"26.381"	"26.439"	"26.72"	"27.319"	"27.024"	"25.224"	"22.203"	"18.845"
"1940"	"16.34"	"18.446"	"21.996"	"26.695"	"26.14"	"26.683"	"26.836"	"27.319"	"26.515"	"25.671"	"22.171"	"18.94"
"1941"	"16.787"	"19.013"	"24.938"	"26.134"	"25.771"	"26.331"	"27.167"	"27.261"	"26.824"	"24.961"	"20.692"	"19.46"
"1942"	"17.376"	"19.56"	"23.811"	"25.392"	"25.818"	"26.293"	"27.474"	"27.278"	"26.557"	"26.029"	"22.161"	"17.825"
"1943"	"17.793"	"17.719"	"22.485"	"24.185"	"26.459"	"26.457"	"26.926"	"26.437"	"26.95"	"25.302"	"22.24"	"17.994"
"1944"	"16.566"	"17.845"	"23.166"	"24.533"	"27.258"	"26.277"	"27.41"	"26.978"	"26.293"	"25.445"	"21.091"	"18.814"
"1945"	"16.825"	"17.797"	"23.716"	"25.408"	"25.808"	"26.399"	"26.862"	"26.663"	"27.367"	"24.771"	"21.645"	"18.261"
"1946"	"17.609"	"20.76"	"23.543"	"24.297"	"25.913"	"26.583"	"26.878"	"27.378"	"27.056"	"24.861"	"22.351"	"19.135"
"1947"	"17.293"	"19.303"	"24.117"	"26.264"	"26.471"	"26.834"	"26.968"	"27.014"	"26.918"	"24.571"	"21.692"	"19.193"
"1948"	"17.86"	"18.791"	"22.944"	"24.981"	"25.202"	"26.902"	"26.621"	"27.114"	"27.13"	"24.981"	"22.318"	"18.203"
"1949"	"17.566"	"18.961"	"23.611"	"23.333"	"25.329"	"26.135"	"26.636"	"26.589"	"26.782"	"26.14"	"21.493"	"17.199"
"1950"	"17.103"	"18.571"	"23.044"	"25.344"	"26.733"	"26.403"	"26.936"	"26.331"	"27.508"	"25.655"	"21.609"	"18.824"
"1951"	"16.839"	"19.554"	"24.143"	"27.588"	"25.838"	"25.934"	"26.573"	"27.521"	"27.072"	"25.818"	"22.161"	"19.945"
"1952"	"17.85"	"20.718"	"22.533"	"25.891"	"26.081"	"27.44"	"27.167"	"27.372"	"26.577"	"26.213"	"22.351"	"18.998"
"1953"	"16.74"	"20.113"	"24.695"	"26.296"	"25.577"	"26.683"	"26.663"	"27.511"	"27.076"	"25.613"	"21.803"	"20.145"
"1954"	"16.141"	"20.923"	"23.665"	"26.557"	"26.801"	"25.724"	"26.525"	"26.625"	"27.377"	"24.912"	"20.908"	"18.845"
"1955"	"17.041"	"18.803"	"23.995"	"25.234"	"26.381"	"26.635"	"26.32"	"26.32"	"27.43"	"26.329"	"22.65"	"18.199"
"1956"	"17.103"	"19.167"	"23.937"	"26.033"	"25.997"	"25.94"	"27.167"	"26.968"	"26.83"	"26.081"	"22.103"	"18.535"
"1957"	"17.593"	"18.265"	"23.177"	"26.653"	"26.589"	"26.487"	"26.92"	"27.267"	"26.972"	"24.77"	"21.198"	"18.535"
"1958"	"17.383"	"18.866"	"23.391"	"26.533"	"26.112"	"28.078"	"27.516"	"26.32"	"27.473"	"25.786"	"21.557"	"18.613"
"1959"	"17.293"	"18.271"	"22.944"	"25.539"	"25.781"	"26.499"	"27.305"	"27.063"	"26.521"	"24.723"	"21.097"	"18.763"
"1960"	"17.093"	"19.64"	"22.722"	"27.159"	"27.844"	"26.972"	"26.416"	"27.726"	"26.824"	"25.577"	"21.493"	"18.552"
"1961"	"17.872"	"17.745"	"23.873"	"26.401"	"27.091"	"26.788"	"27.484"	"27.426"	"27.33"	"25.729"	"20.95"	"16.978"
"1962"	"16.097"	"18.874"	"23.381"	"26.439"	"26.272"	"26.182"	"27.511"	"26.262"	"27.583"	"25.23"	"21.192"	"18.072"
"1963"	"16.945"	"20.622"	"23.665"	"25.359"	"25.587"	"26.151"	"26.668"	"27.072"	"27.515"	"25.182"	"21.265"	"18.426"
"1964"	"16.845"	"19.275"	"24.157"	"24.644"	"25.991"	"25.987"	"26.13"	"27.229"	"27.473"	"26.219"	"22.823"	"18.456"
"1965"	"17.103"	"18.581"	"22.337"	"25.954"	"26.833"	"26.283"	"26.368"	"25.92"	"26.834"	"25.529"	"21.785"	"19.403"
"1966"	"17.803"	"20.523"	"24.064"	"26.495"	"26.865"	"25.435"	"27.12"	"26.573"	"26.834"	"24.513"	"22.783"	"18.283"
"1967"	"17.534"	"20.014"	"22.827"	"25.118"	"26.633"	"26.819"	"27.062"	"27.409"	"26.667"	"25.124"	"20.435"	"18.793"
"1968"	"16.982"	"18.197"	"23.569"	"25.595"	"25.633"	"26.073"	"27.02"	"27.052"	"26.719"	"25.467"	"21.745"	"17.976"
"1969"	"16.744"	"19.139"	"24.443"	"26.027"	"27.097"	"26.125"	"27.473"	"26.262"	"27.324"	"25.571"	"21.477"	"18.326"
"1970"	"16.245"	"18.966"	"23.485"	"26.411"	"26.685"	"26.934"	"26.511"	"27.02"	"26.593"	"25.071"	"21.693"	"18.436"
"1971"	"16.877"	"18.139"	"23.559"	"24.729"	"26.965"	"26.499"	"26.569"	"26.067"	"26.767"	"25.571"	"21.044"	"17.919"
"1972"	"17.367"	"17.892"	"23.437"	"25.2"	"26.875"	"26.667"	"27.319"	"26.968"	"27.008"	"25.571"	"22.145"	"18.709"
"1973"	"17.367"	"19.966"	"23.156"	"27.032"	"25.719"	"26.266"	"27.399"	"26.92"	"27.072"	"25.739"	"22.229"	"17.683"
"1974"	"16.634"	"18.593"	"23.343"	"25.106"	"25.929"	"26.283"	"25.421"	"26.81"	"26.272"	"26.177"	"22.783"	"17.014"
"1975"	"16.566"	"19.361"	"23.827"	"26.439"	"26.381"	"27.271"	"26.168"	"27.02"	"26.473"	"26.071"	"21.24"	"17.434"
"1976"	"17.293"	"19.907"	"23.779"	"25.675"	"26.14"	"25.031"	"26.368"	"26.362"	"26.872"	"24.971"	"22.702"	"18.051"
"1977"	"16.302"	"17.992"	"24.66"	"23.349"	"24.571"	"25.535"	"27.135"	"26.673"	"27.114"	"24.623"	"22.581"	"18.525"
"1978"	"15.924"	"19.606"	"22.986"	"25.901"	"25.619"	"26.373"	"26.92"	"28.027"	"26.683"	"26.539"	"22.633"	"19.003"
"1979"	"18.341"	"19.522"	"23.926"	"26.933"	"28.243"	"27.483"	"27.219"	"27.01"	"26.725"	"25.266"	"23.029"	"19.245"
"1980"	"17.187"	"19.113"	"23.395"	"26.747"	"25.262"	"27.24"	"27.72"	"27.229"	"27.271"	"24.871"	"22.297"	"19.76"
"1981"	"17.741"	"19.408"	"23.129"	"24.45"	"26.071"	"27.44"	"27.052"	"27.319"	"27.182"	"26.029"	"22.861"	"18.95"
"1982"	"18.351"	"19.423"	"23.327"	"24.896"	"27.224"	"26.583"	"27.02"	"27.209"	"27.082"	"25.991"	"21.603"	"18.394"
"1983"	"18.091"	"18.991"	"23.154"	"25.621"	"25.781"	"26.934"	"26.92"	"27.177"	"27.445"	"26.487"	"22.718"	"18.103"
"1984"	"16.193"	"18.719"	"24.533"	"26.327"	"25.14"	"26.804"	"26.772"	"27.378"	"26.235"	"25.944"	"22.114"	"18.494"
"1985"	"17.434"	"18.797"	"23.359"	"25.485"	"26.487"	"26.193"	"26.162"	"27.167"	"26.725"	"26.013"	"21.603"	"20.003"
"1986"	"17.444"	"20.077"	"24.679"	"24.685"	"26.697"	"27.229"	"26.611"	"27.172"	"26.367"	"24.455"	"21.977"	"18.763"
"1987"	"18.282"	"20.199"	"22.944"	"25.002"	"26.533"	"27.75"	"26.762"	"26.705"	"26.928"	"25.13"	"23.14"	"19.051"
"1988"	"18.197"	"20.313"	"23.18"	"27.091"	"25.886"	"26.73"	"27.12"	"26.367"	"26.729"	"25.814"	"23.051"	"20.331"
"1989"	"15.635"	"19.502"	"23.248"	"26.906"	"27.781"	"26.735"	"26.525"	"27.271"	"26.777"	"25.661"	"21.365"	"18.316"
"1990"	"17.491"	"19.569"	"21.586"	"23.73"	"26.701"	"26.739"	"26.72"	"27.452"	"26.713"	"25.131"	"23.755"	"19.243"
"1991"	"16.145"	"19.968"	"24.276"	"25.77"	"24.513"	"26.235"	"27.292"	"27.377"	"26.661"	"25.94"	"21.125"	"17.929"
"1992"	"16.881"	"17.022"	"24.582"	"26.751"	"25.776"	"27.33"	"26.007"	"27.481"	"27.224"	"25.206"	"22.083"	"17.169"
"1993"	"16.271"	"19.217"	"22.176"	"24.654"	"24.727"	"25.801"	"26.772"	"26.667"	"26.643"	"25.96"	"22.439"	"19.973"
"1994"	"18.231"	"18.585"	"23.745"	"25.297"	"26.886"	"26.635"	"27.684"	"27.548"	"28.082"	"24.981"	"22.774"	"18.545"
"1995"	"17.364"	"19.474"	"24.308"	"26.881"	"27.823"	"26.886"	"26.81"	"27.189"	"27.124"	"26.461"	"23.364"	"18.441"
"1996"	"17.052"	"19.588"	"23.649"	"26.924"	"26.286"	"26.631"	"26.904"	"26.715"	"27.735"	"25.613"	"22.672"	"20.092"
"1997"	"17.155"	"18.323"	"23.379"	"24.692"	"26.839"	"27.235"	"27.036"	"27.826"	"26.992"	"25.445"	"22.903"	"19.482"
"1998"	"17.283"	"19.618"	"22.181"	"26.533"	"27.729"	"27.445"	"27.72"	"27.277"	"28.078"	"26.96"	"23.698"	"20.008"
"1999"	"18.461"	"23.031"	"25.082"	"27.611"	"26.761"	"27.541"	"27.663"	"26.92"	"27.271"	"26.24"	"23.15"	"19.624"
"2000"	"16.656"	"19.508"	"22.543"	"25.611"	"26.429"	"26.946"	"28.01"	"26.778"	"26.641"	"25.677"	"22.114"	"18.992"
"2001"	"17.783"	"20.313"	"23.943"	"26.396"	"26.886"	"27.361"	"27.968"	"27.621"	"28.521"	"26.119"	"22.471"	"19.193"
"2002"	"18.04"	"20.57"	"24.243"	"25.943"	"26.481"	"26.583"	"27.72"	"27.167"	"26.982"	"25.719"	"22.551"	"19.534"
