
"Year"	"Jan"	"Feb"	"Mar"	"Apr"	"May"	"Jun"	"Jul"	"Aug"	"Sep"	"Oct"	"Nov"	"Dec"
"1901"	"19.307"	"20.657"	"26.876"	"31.569"	"34.808"	"33.648"	"28.529"	"25.806"	"27.263"	"27.159"	"22.2"	"20.058"
"1902"	"21.477"	"23.408"	"29.112"	"32.775"	"35.091"	"33.52"	"28.463"	"27.806"	"26.772"	"26.005"	"21.076"	"18.904"
"1903"	"20.579"	"21.054"	"25.887"	"31.013"	"33.269"	"33.895"	"28.733"	"26.802"	"26.572"	"25.128"	"20.251"	"18.771"
"1904"	"20.771"	"21.853"	"25.923"	"32.47"	"34.616"	"31.42"	"26.966"	"26.435"	"26.591"	"26.299"	"21.204"	"19.899"
"1905"	"19.374"	"18.758"	"25.247"	"29.664"	"36.014"	"33.662"	"27.713"	"27.274"	"26.762"	"25.907"	"22.842"	"19.132"
"1906"	"19.122"	"20.962"	"26.346"	"31.971"	"35.689"	"31.12"	"27.337"	"27.048"	"25.867"	"25.203"	"22.644"	"19.977"
"1907"	"20.773"	"21.415"	"25.938"	"29.796"	"33.114"	"32.446"	"29.359"	"25.576"	"27.416"	"27.605"	"23.375"	"18.476"
"1908"	"19.475"	"22.029"	"25.687"	"32.642"	"34.451"	"32.491"	"26.637"	"25.906"	"27.241"	"26.209"	"22.001"	"18.5"
"1909"	"20.954"	"22.385"	"28.12"	"30.296"	"34.377"	"30.874"	"26.867"	"26.58"	"26.263"	"25.508"	"22.243"	"19.705"
"1910"	"20.27"	"22.081"	"27.117"	"31.443"	"34.322"	"30.45"	"27.42"	"26.706"	"26.566"	"24.609"	"20.144"	"19.801"
"1911"	"21.602"	"21.575"	"25.144"	"31.348"	"35.486"	"30.349"	"28.467"	"26.532"	"26.37"	"26.627"	"22.68"	"20.579"
"1912"	"21.07"	"23.508"	"26.845"	"31.971"	"35.114"	"34.125"	"28.237"	"26.376"	"26.769"	"26.174"	"21.282"	"18.829"
"1913"	"19.842"	"22.785"	"25.62"	"32.974"	"33.615"	"30.275"	"27.411"	"26.18"	"27.37"	"27.206"	"22.496"	"20.031"
"1914"	"21.666"	"22.756"	"26.114"	"31.297"	"34.667"	"31.041"	"27.231"	"26.807"	"27.262"	"26.408"	"23.575"	"19.703"
"1915"	"20.468"	"21.211"	"26.567"	"31.1"	"35.207"	"34.373"	"29.089"	"26.628"	"27.723"	"26.729"	"23.278"	"19.697"
"1916"	"20.271"	"21.482"	"28.542"	"32.795"	"35.14"	"29.304"	"28.267"	"26.509"	"27.188"	"25.537"	"21.047"	"18.725"
"1917"	"20.595"	"21.404"	"26.166"	"29.965"	"32.112"	"30.341"	"26.767"	"26.734"	"26.394"	"25.103"	"20.345"	"19.775"
"1918"	"18.568"	"22.812"	"27.012"	"30.573"	"34.914"	"30.67"	"28.932"	"26.637"	"27.542"	"27.002"	"23.5"	"19.401"
"1919"	"21.002"	"22.115"	"27.742"	"31.296"	"34.243"	"31.043"	"26.865"	"26.13"	"26.964"	"25.299"	"23.03"	"19.405"
"1920"	"20.338"	"21.685"	"27.444"	"31.648"	"32.014"	"31.842"	"26.938"	"26.612"	"27.937"	"27.751"	"23.168"	"20.675"
"1921"	"21.247"	"22.349"	"29.021"	"33.372"	"35.486"	"31.271"	"29.135"	"26.435"	"25.936"	"25.604"	"21.172"	"20.997"
"1922"	"19.644"	"23.805"	"27.743"	"32.368"	"34.909"	"31.168"	"27.136"	"26.43"	"26.395"	"25.604"	"21.369"	"18.297"
"1923"	"20.265"	"21.48"	"27.448"	"31.934"	"33.845"	"34.346"	"27.735"	"25.808"	"26.894"	"24.998"	"21.878"	"20.762"
"1924"	"20.799"	"23.281"	"28.841"	"33.071"	"34.111"	"33.115"	"27.733"	"26.738"	"26.597"	"24.571"	"20.346"	"19.599"
"1925"	"18.177"	"20.884"	"27.317"	"33.2"	"33.138"	"29.978"	"26.492"	"26.836"	"27.395"	"27.188"	"22.357"	"19.085"
"1926"	"20.832"	"23.736"	"26.63"	"29.02"	"33.8"	"34.668"	"28.264"	"26.428"	"26.794"	"25.41"	"20.535"	"18.658"
"1927"	"19.68"	"21.215"	"25.802"	"31.299"	"34.184"	"31.924"	"27.005"	"26.285"	"27.14"	"25.501"	"19.475"	"19.835"
"1928"	"19.981"	"22.077"	"26.819"	"31.245"	"34.793"	"31.547"	"26.837"	"26.648"	"26.944"	"25.902"	"22.674"	"18.803"
"1929"	"19.347"	"21.08"	"28.148"	"31.466"	"35.084"	"31.15"	"27.132"	"26.215"	"27.171"	"25.61"	"22.768"	"19.205"
"1930"	"20.474"	"20.948"	"27.713"	"31.273"	"34.342"	"32.047"	"26.612"	"26.079"	"27.029"	"27.004"	"21.18"	"20.505"
"1931"	"21.876"	"22.39"	"26.792"	"33.142"	"35.088"	"33.746"	"28.135"	"26.578"	"26.472"	"24.758"	"21.479"	"19.434"
"1932"	"21.639"	"20.75"	"26.222"	"30.941"	"34.715"	"32.222"	"27.105"	"26.706"	"26.895"	"26.609"	"21.915"	"20.098"
"1933"	"20.103"	"23.083"	"27.542"	"31.066"	"32.038"	"30.544"	"27.81"	"26.381"	"26.168"	"25.209"	"22.072"	"19.473"
"1934"	"19.048"	"22.633"	"26.445"	"31.98"	"34.328"	"31.979"	"27.034"	"26.074"	"25.867"	"24.708"	"20.873"	"19.73"
"1935"	"18.578"	"22.009"	"26.318"	"29.276"	"34.687"	"32.119"	"26.74"	"26.007"	"26.135"	"25.68"	"22.247"	"20.175"
"1936"	"19.478"	"21.978"	"26.648"	"30.638"	"35.18"	"30.113"	"27.638"	"26.338"	"26.563"	"25.504"	"22.407"	"19.083"
"1937"	"18.816"	"22.71"	"25.72"	"30.235"	"34.214"	"32.047"	"26.708"	"26.481"	"26.635"	"25.135"	"22.905"	"19.105"
"1938"	"21.505"	"20.483"	"28.64"	"32.269"	"34.855"	"27.973"	"26.635"	"26.807"	"27.571"	"25.53"	"21.154"	"19.698"
"1939"	"21.348"	"23.216"	"25.447"	"31.048"	"34.314"	"31.375"	"27.068"	"27.029"	"26.274"	"26.308"	"21.476"	"18.903"
"1940"	"20.27"	"22.515"	"25.117"	"31.044"	"34.613"	"31.711"	"26.94"	"26.007"	"26.837"	"25.972"	"22.222"	"19.58"
"1941"	"19.745"	"22.313"	"28.197"	"32.816"	"35.091"	"32.85"	"27.378"	"26.505"	"27.446"	"27.277"	"22.743"	"21.176"
"1942"	"19.447"	"22.408"	"27.849"	"32.969"	"34.982"	"33.219"	"26.338"	"26.206"	"26.14"	"25.773"	"21.625"	"19.204"
"1943"	"21.072"	"21.199"	"27.347"	"31.073"	"35.142"	"30.718"	"26.71"	"25.678"	"26.635"	"24.903"	"23.489"	"18.673"
"1944"	"19.745"	"21.578"	"25.869"	"30.768"	"35.087"	"31.557"	"26.832"	"26.075"	"26.968"	"24.906"	"21.969"	"21.199"
"1945"	"18.772"	"21.024"	"26.92"	"30.565"	"34.328"	"32.547"	"26.91"	"26.802"	"26.368"	"25.332"	"20.749"	"18.177"
"1946"	"20.414"	"23.51"	"27.017"	"33.168"	"34.283"	"30.346"	"26.936"	"25.881"	"26.741"	"26.307"	"20.479"	"21.159"
"1947"	"19.204"	"22.31"	"27.245"	"31.412"	"35.087"	"32.521"	"27.238"	"27.303"	"26.373"	"24.6"	"22.446"	"20.403"
"1948"	"20.203"	"21.71"	"27.071"	"32.872"	"35.891"	"31.418"	"27.308"	"26.28"	"26.167"	"26.832"	"22.233"	"18.833"
"1949"	"21.301"	"21.911"	"27.818"	"32.742"	"35.086"	"31.186"	"27.627"	"27.207"	"26.496"	"25.928"	"21.302"	"19.574"
"1950"	"21.005"	"20.96"	"26.243"	"31.545"	"34.756"	"32.688"	"27.411"	"26.979"	"26.741"	"25.379"	"20.526"	"19.279"
"1951"	"19.17"	"21.857"	"27.42"	"30.544"	"34.789"	"32.224"	"28.813"	"26.28"	"27.726"	"28.03"	"23.603"	"19.072"
"1952"	"21.044"	"24.113"	"26.644"	"32.974"	"35.591"	"31.853"	"27.643"	"25.781"	"27.468"	"26.803"	"21.773"	"21.633"
"1953"	"19.699"	"24.913"	"29.917"	"32.547"	"34.861"	"32.966"	"27.636"	"26.379"	"27.268"	"25.774"	"21.875"	"20.697"
"1954"	"19.17"	"23.582"	"27.424"	"32.548"	"35.887"	"32.419"	"27.909"	"26.738"	"25.441"	"24.205"	"21.969"	"19.903"
"1955"	"20.902"	"23.43"	"29.021"	"30.141"	"34.492"	"31.387"	"27.764"	"26.275"	"26.341"	"24.633"	"20.548"	"19.473"
"1956"	"20.802"	"22.588"	"28.149"	"32.343"	"34.581"	"29.869"	"26.136"	"25.881"	"26.468"	"25.206"	"20.908"	"20.103"
"1957"	"20.181"	"20.956"	"25.645"	"31.266"	"33.716"	"32.517"	"27.437"	"26.71"	"26.565"	"26.336"	"24.171"	"21.706"
"1958"	"21.672"	"22.583"	"27.675"	"33.237"	"35.314"	"33.524"	"27.234"	"27.201"	"26.173"	"25.429"	"22.85"	"20.477"
"1959"	"20.777"	"22.481"	"28.413"	"32.239"	"34.917"	"32.223"	"26.783"	"25.909"	"26.263"	"26.105"	"22.581"	"20.609"
"1960"	"19.053"	"23.984"	"26.318"	"31.913"	"34.635"	"31.888"	"27.935"	"25.411"	"27.294"	"25.627"	"21.906"	"21.662"
"1961"	"20.604"	"20.51"	"28.472"	"31.967"	"34.609"	"31.115"	"26.795"	"26.438"	"25.373"	"24.432"	"22.004"	"18.774"
"1962"	"18.473"	"22.038"	"26.399"	"31.1"	"34.377"	"32.174"	"27.737"	"26.436"	"26.026"	"24.403"	"22.597"	"20.206"
"1963"	"19.207"	"23.461"	"26.302"	"29.853"	"33.435"	"30.724"	"27.2"	"25.732"	"26.301"	"25.91"	"23.975"	"20.214"
"1964"	"19.418"	"22.653"	"28.847"	"33.342"	"34.11"	"31.737"	"27.64"	"26.205"	"26.799"	"26.703"	"21.747"	"20.212"
"1965"	"21.2"	"22.481"	"26.646"	"31.065"	"35.071"	"32.546"	"27.987"	"27.231"	"26.593"	"26.93"	"22.931"	"20.099"
"1966"	"20.128"	"23.938"	"26.437"	"31.397"	"33.338"	"32.001"	"29.236"	"26.512"	"27.416"	"27.703"	"24.376"	"20.03"
"1967"	"19.917"	"24.307"	"26.297"	"30.87"	"34.859"	"31.495"	"27.741"	"26.111"	"26.24"	"27.144"	"23.671"	"21.154"
"1968"	"19.343"	"21.455"	"27.128"	"30.622"	"33.242"	"31.692"	"27.442"	"25.676"	"27.894"	"25.803"	"22.718"	"20.345"
"1969"	"20.337"	"23.652"	"29.177"	"31.902"	"34.539"	"31.631"	"27.358"	"25.634"	"26.093"	"27.513"	"24.374"	"20.407"
"1970"	"20.674"	"23.059"	"27.595"	"33.618"	"35.685"	"30.117"	"28.137"	"26.434"	"26.265"	"25.956"	"21.3"	"19.397"
"1971"	"19.943"	"22.854"	"27.043"	"32.825"	"32.894"	"29.501"	"26.91"	"26.683"	"27.036"	"25.6"	"21.948"	"18.798"
"1972"	"20.27"	"21.329"	"28.846"	"31.172"	"34.713"	"32.271"	"28.434"	"26.207"	"26.6"	"26.659"	"22.768"	"21.083"
"1973"	"20.472"	"23.336"	"28.014"	"33.794"	"35.737"	"32.117"	"26.411"	"26.347"	"26.144"	"25.805"	"22.073"	"19.965"
"1974"	"19.399"	"22.082"	"28.154"	"32.328"	"33.564"	"32.147"	"28.235"	"26.137"	"28.274"	"26.126"	"21.073"	"19.475"
"1975"	"18.301"	"22.354"	"26.621"	"32.674"	"34.613"	"31.07"	"26.786"	"26.337"	"26.297"	"26.162"	"20.423"	"19.219"
"1976"	"20.271"	"23.003"	"27.567"	"31.77"	"34.317"	"30.147"	"27.735"	"26.038"	"26.47"	"27"	"25.033"	"21.336"
"1977"	"20.142"	"23.503"	"29.575"	"31.796"	"33.17"	"31.992"	"27.704"	"26.209"	"26.371"	"26.683"	"23.831"	"20.201"
"1978"	"19.572"	"21.94"	"26.171"	"31.897"	"35.855"	"30.941"	"26.74"	"25.535"	"27.299"	"26.904"	"24.378"	"19.437"
"1979"	"21.703"	"21.313"	"26.178"	"32.035"	"33.337"	"32.576"	"27.496"	"25.762"	"28.393"	"27.903"	"24.771"	"20.902"
"1980"	"21.374"	"23.451"	"27.772"	"33.295"	"34.465"	"29.747"	"27.407"	"25.96"	"27.872"	"27.533"	"24.481"	"19.93"
"1981"	"18.999"	"23.787"	"26.894"	"31.898"	"34.377"	"32.695"	"26.324"	"26.084"	"27.221"	"26.604"	"21.743"	"19.729"
"1982"	"21.276"	"21.682"	"26.041"	"31.166"	"33.218"	"32.816"	"28.56"	"26.381"	"27.463"	"27.4"	"23.347"	"22.005"
"1983"	"20.28"	"21.831"	"27.051"	"30.521"	"34.608"	"33.193"	"28.434"	"27.201"	"26.821"	"25.199"	"21.147"	"19.575"
"1984"	"20.252"	"20.758"	"28.271"	"32.465"	"35.655"	"31.472"	"28.188"	"25.481"	"26.546"	"26.551"	"22.477"	"21.172"
"1985"	"21.495"	"22.827"	"29.439"	"31.981"	"35.111"	"31.841"	"28.266"	"26.109"	"27.838"	"24.978"	"22.679"	"21.677"
"1986"	"21.079"	"22.716"	"27.678"	"32.297"	"34.587"	"31.61"	"26.765"	"25.909"	"28.345"	"26.732"	"23.129"	"20.179"
"1987"	"20.977"	"23.713"	"27.867"	"32.638"	"33.54"	"32.949"	"28.818"	"27.606"	"28.473"	"27.23"	"23.95"	"20.403"
"1988"	"22.07"	"24.513"	"27.917"	"32.895"	"35.919"	"32.074"	"27.485"	"27.454"	"28.187"	"25.803"	"22.707"	"20.398"
"1989"	"20.079"	"22.634"	"26.57"	"31.465"	"35.28"	"30.672"	"27.835"	"25.732"	"27.387"	"26.733"	"24.198"	"19.96"
"1990"	"22.197"	"22.739"	"25.798"	"32.265"	"32.966"	"29.629"	"26.641"	"26.879"	"26.596"	"26.429"	"23.378"	"20.631"
"1991"	"19.57"	"23.886"	"28.113"	"31.496"	"35.512"	"31.636"	"27.909"	"26.234"	"27.714"	"27.149"	"22.998"	"20.13"
"1992"	"21.143"	"21.884"	"28.413"	"31.869"	"34.342"	"33.103"	"28.959"	"26.402"	"26.635"	"26.227"	"22.605"	"20.496"
"1993"	"21.369"	"22.529"	"26.025"	"31.944"	"35.858"	"33.322"	"27.735"	"26.664"	"26.527"	"26.958"	"23.128"	"19.777"
"1994"	"21.23"	"21.987"	"28.289"	"30.549"	"35.543"	"30.544"	"26.463"	"25.806"	"26.517"	"26.704"	"22.805"	"19.861"
"1995"	"18.325"	"22.336"	"26.053"	"31.52"	"34.635"	"34.476"	"28.435"	"27.234"	"27.725"	"27.46"	"23.305"	"21.739"
"1996"	"21.63"	"23.732"	"29.026"	"32.543"	"35.286"	"32.839"	"28.669"	"26.508"	"27.366"	"25.827"	"22.822"	"19.952"
"1997"	"19.555"	"21.832"	"27.995"	"30.121"	"33.167"	"30.641"	"27.363"	"26.807"	"27.023"	"26.053"	"24.489"	"19.894"
"1998"	"20.271"	"22.702"	"26.732"	"32.755"	"36.141"	"33.479"	"28.211"	"27.706"	"27.764"	"27.653"	"23.523"	"20.748"
"1999"	"20.327"	"23.532"	"28.293"	"33.464"	"34.565"	"30.703"	"27.832"	"26.434"	"26.55"	"26.225"	"23.25"	"19.901"
"2000"	"21.376"	"21.682"	"27.066"	"33.995"	"33.21"	"30.773"	"26.841"	"27.703"	"27.668"	"28.375"	"24.996"	"21.433"
"2001"	"20.678"	"24.377"	"28.049"	"31.322"	"34.457"	"29.744"	"26.712"	"26.778"	"28.376"	"27.171"	"23.846"	"22.351"
"2002"	"20.055"	"23.857"	"28.339"	"33.137"	"35.485"	"31.41"	"28.88"	"25.704"	"26.67"	"27.402"	"23.63"	"22.496"
