
"Year"	"Jan"	"Feb"	"Mar"	"Apr"	"May"	"Jun"	"Jul"	"Aug"	"Sep"	"Oct"	"Nov"	"Dec"
"1901"	"2.272"	"19.912"	"13.436"	"13.776"	"130.504"	"524.623"	"587.351"	"356.546"	"249.685"	"294.893"	"130.915"	"24.831"
"1902"	"5.535"	"1.362"	"8.166"	"57.536"	"130.776"	"734.455"	"724.63"	"238.041"	"153.291"	"317.189"	"71.876"	"47.291"
"1903"	"0"	"0"	"0"	"13.632"	"296.927"	"867.116"	"1145.931"	"521.973"	"393.56"	"216.299"	"235.413"	"85.454"
"1904"	"1.274"	"0"	"12.465"	"72.638"	"318.995"	"688.654"	"772.381"	"106.802"	"164.518"	"158.072"	"5.913"	"0.223"
"1905"	"0.006"	"0.25"	"17.013"	"27.989"	"203.826"	"341.321"	"866.775"	"405.422"	"65.765"	"179.141"	"31.993"	"0.235"
"1906"	"9.028"	"0.128"	"11.517"	"6.093"	"101.305"	"382.792"	"737.832"	"1308.468"	"173.321"	"218.786"	"20.444"	"58.677"
"1907"	"5.59"	"0"	"28.544"	"66.615"	"108.898"	"744.984"	"1637.521"	"661.18"	"219.122"	"78.399"	"144.093"	"13.015"
"1908"	"8.826"	"3.844"	"9.514"	"67.086"	"166.221"	"344.516"	"800.375"	"409.068"	"46.047"	"96.308"	"0.716"	"0.244"
"1909"	"9.005"	"1.898"	"19.572"	"84.305"	"328.228"	"676.558"	"779.176"	"839.294"	"142.317"	"153.293"	"61.851"	"39.691"
"1910"	"0"	"10.643"	"13.833"	"60.114"	"179.528"	"395.291"	"1337.371"	"980.529"	"174.597"	"322.607"	"79.526"	"0.217"
"1911"	"0.102"	"0"	"12.443"	"37.972"	"195.099"	"711.763"	"1553.368"	"299.708"	"126.354"	"201.027"	"43.588"	"9.497"
"1912"	"1.519"	"1.019"	"14.609"	"59.163"	"98.868"	"542.099"	"1065.233"	"508.27"	"215.688"	"244.362"	"55.59"	"0.217"
"1913"	"0"	"0"	"0"	"40.525"	"177.508"	"671.946"	"1044.412"	"332.993"	"290.814"	"139.618"	"1.276"	"0.217"
"1914"	"0.065"	"0.005"	"9.069"	"11.468"	"99.648"	"197.943"	"1108.816"	"568.264"	"175.237"	"179.639"	"159.114"	"51.103"
"1915"	"5.708"	"3.429"	"30.968"	"52.044"	"65.752"	"1239.583"	"949.296"	"355.167"	"244.054"	"187.859"	"109.458"	"17.772"
"1916"	"0"	"0"	"0.005"	"31.059"	"255.517"	"949.464"	"922.333"	"1011.308"	"168.698"	"265.607"	"199.247"	"14.314"
"1917"	"0"	"24.569"	"10.764"	"16.29"	"93.637"	"570.365"	"208.47"	"625.252"	"409.644"	"269.782"	"124.61"	"2.086"
"1918"	"4.3"	"0.042"	"23.823"	"56.869"	"208.118"	"169.923"	"117.117"	"329.454"	"135.542"	"104.028"	"258.035"	"9.279"
"1919"	"7.062"	"0"	"24.413"	"23.333"	"148.628"	"609.36"	"733.947"	"382.737"	"312.54"	"120.527"	"223.188"	"10.343"
"1920"	"2.898"	"1.445"	"9.549"	"52.313"	"105.745"	"682.379"	"608.407"	"359.075"	"218.418"	"165.478"	"100.274"	"0.217"
"1921"	"8.664"	"0"	"1.995"	"134.726"	"101.491"	"527.499"	"923.649"	"668.079"	"117.214"	"178.805"	"52.912"	"0.603"
"1922"	"6.98"	"2.388"	"1.39"	"31.501"	"228.545"	"570.289"	"577.066"	"503.189"	"89.676"	"221.314"	"171.915"	"2.648"
"1923"	"4.578"	"0.034"	"54.689"	"48.502"	"132.968"	"313.645"	"1744.124"	"565.247"	"150.642"	"35.29"	"29.11"	"4.878"
"1924"	"0.009"	"0.793"	"22.674"	"48.952"	"161.609"	"427.963"	"1949.147"	"388.584"	"148.081"	"95.774"	"78.45"	"43.566"
"1925"	"0"	"0"	"25.607"	"82.869"	"102.509"	"577.865"	"736.386"	"433.907"	"188.735"	"33.156"	"113.268"	"90.745"
"1926"	"11.344"	"0.102"	"16.066"	"25.967"	"103.419"	"300.535"	"1078.816"	"672.806"	"307.225"	"141.774"	"27.606"	"1.487"
"1927"	"0"	"2.067"	"46.627"	"13.047"	"106.368"	"464.399"	"997.047"	"391.237"	"247.443"	"20.229"	"115.377"	"0.217"
"1928"	"0"	"21.657"	"57.799"	"51.342"	"130.294"	"374.057"	"628.998"	"396.179"	"70.12"	"225.016"	"41.402"	"28.939"
"1929"	"5.935"	"8.138"	"0"	"157.276"	"197.308"	"719.531"	"595.507"	"265.294"	"313.834"	"111.536"	"79.904"	"8.213"
"1930"	"1.748"	"13.466"	"12.137"	"31.979"	"228.685"	"501.286"	"224.784"	"177.124"	"237.881"	"299.229"	"63.831"	"7.773"
"1931"	"0"	"0"	"4.781"	"72.536"	"154.374"	"431.74"	"727.213"	"606.503"	"432.604"	"27.027"	"114.483"	"38.564"
"1932"	"0"	"10.664"	"6.673"	"36.388"	"322.943"	"206.76"	"941.232"	"1218.41"	"143.66"	"307.12"	"130.098"	"3.038"
"1933"	"0"	"0.047"	"22.598"	"60.708"	"372.965"	"452.702"	"951.451"	"1340.259"	"269.983"	"298.006"	"4.337"	"37.774"
"1934"	"8.606"	"4.354"	"2.055"	"30.462"	"55.423"	"661.893"	"560.72"	"667.657"	"73.237"	"195.233"	"37.549"	"0.386"
"1935"	"9.175"	"1.149"	"30.402"	"34.6"	"96.652"	"648.002"	"518.106"	"752.221"	"113.043"	"307.39"	"11.399"	"13.928"
"1936"	"0.012"	"3.208"	"57.565"	"12.012"	"211.648"	"929.926"	"696.709"	"326.684"	"225.153"	"135.58"	"105.858"	"7.195"
"1937"	"0.006"	"10.035"	"49.18"	"107.835"	"128.777"	"277.288"	"1142.245"	"418.292"	"161.83"	"190.668"	"24.621"	"17.929"
"1938"	"0"	"1.657"	"47.468"	"46.583"	"48.938"	"443.581"	"515.431"	"1031.181"	"264.238"	"31.371"	"45.586"	"9.013"
"1939"	"1.88"	"0"	"19.31"	"93.471"	"85.292"	"338.173"	"519.188"	"502.975"	"137.553"	"349.731"	"93.668"	"0.217"
"1940"	"0"	"0"	"0.024"	"57.855"	"203.394"	"838.052"	"788.005"	"462.391"	"79.778"	"143.722"	"250.017"	"53.028"
"1941"	"3.306"	"2.738"	"0.488"	"71.811"	"186.351"	"689.435"	"748.076"	"782.591"	"227.481"	"202.133"	"25.962"	"63.692"
"1942"	"0"	"0.555"	"1.687"	"35.722"	"212.535"	"798.543"	"945.96"	"555.748"	"120.568"	"205.682"	"45.567"	"38.197"
"1943"	"6.574"	"0"	"4.2"	"31.015"	"281.19"	"390.179"	"945.383"	"219.945"	"341.202"	"352.94"	"105.78"	"0.217"
"1944"	"0"	"24.751"	"33.624"	"21.4"	"161.297"	"436.978"	"1020.333"	"270.192"	"206.731"	"261.672"	"105.866"	"12.537"
"1945"	"0.003"	"0"	"0"	"75.975"	"162.508"	"305.795"	"1665.158"	"519.974"	"157.144"	"102.831"	"48.622"	"0.217"
"1946"	"0"	"3.317"	"88.889"	"98.357"	"45.239"	"690.588"	"709.161"	"945.427"	"325.806"	"196.855"	"198.899"	"55.884"
"1947"	"2.923"	"0.682"	"19.24"	"36.201"	"106.138"	"751.353"	"627.881"	"657.723"	"278.158"	"197.125"	"13.976"	"25.067"
"1948"	"5.523"	"0"	"16.112"	"107.103"	"132.906"	"392.172"	"350.588"	"1235.291"	"138.226"	"91.373"	"116.12"	"6.586"
"1949"	"0.325"	"0.042"	"10.522"	"32.734"	"189.624"	"434.106"	"872.267"	"609.489"	"112.555"	"182.101"	"4.616"	"0.217"
"1950"	"1.037"	"6.886"	"2.353"	"5.998"	"200.393"	"224.645"	"1200.29"	"641.337"	"283.962"	"137.361"	"128.006"	"0.458"
"1951"	"0.529"	"0"	"14.739"	"77.14"	"297.145"	"344.938"	"944.329"	"363.859"	"419.443"	"94.569"	"65.105"	"0.217"
"1952"	"0"	"11.569"	"0"	"57.123"	"121.228"	"331.094"	"778.771"	"559.879"	"120.025"	"234.862"	"0.716"	"43.964"
"1953"	"0.536"	"0.698"	"0.752"	"106.048"	"89.701"	"705.816"	"1679.526"	"564.361"	"159.456"	"354.97"	"3.152"	"0.217"
"1954"	"1.758"	"0.203"	"5.251"	"82.655"	"298.714"	"614.751"	"1499.77"	"620.827"	"121.683"	"261.414"	"0.716"	"28.351"
"1955"	"0.032"	"1.895"	"42.083"	"53.287"	"333.884"	"436.573"	"493.104"	"337.093"	"312.239"	"296.13"	"74.562"	"1.88"
"1956"	"3.639"	"8.215"	"0.989"	"81.734"	"49.316"	"882.3"	"687.709"	"388.98"	"128.65"	"319.231"	"205.177"	"0.283"
"1957"	"0"	"1.562"	"30.185"	"38.772"	"316.216"	"875.737"	"725.31"	"410.825"	"44.307"	"266.118"	"176.948"	"1.618"
"1958"	"2.4"	"0"	"18.398"	"77.531"	"295.199"	"589.047"	"1185.446"	"676.284"	"168.853"	"238.246"	"104.923"	"1.901"
"1959"	"0"	"0"	"0"	"37.751"	"172.826"	"1151.99"	"1353.612"	"382.901"	"375.855"	"96.905"	"67.893"	"3.923"
"1960"	"1.718"	"0"	"42.581"	"44.793"	"199.684"	"201.005"	"842.394"	"275.766"	"287.296"	"241.553"	"110.23"	"0.217"
"1961"	"0.988"	"0.663"	"9.786"	"91.53"	"283.974"	"1166.868"	"2359.532"	"644.262"	"126.079"	"315.991"	"18.409"	"5.535"
"1962"	"1.07"	"8.232"	"6.051"	"97.601"	"230.226"	"291.904"	"975.476"	"649.415"	"88.664"	"388.721"	"38.765"	"88.122"
"1963"	"0.066"	"1.281"	"18.32"	"77.941"	"137.417"	"274.418"	"736.626"	"619.242"	"225.258"	"301.537"	"50.453"	"45.23"
"1964"	"0"	"0"	"2.511"	"67.174"	"157.22"	"1043.113"	"956.231"	"1356.024"	"249.567"	"227.088"	"155.726"	"4.499"
"1965"	"5.219"	"0.01"	"5.652"	"33.07"	"94.889"	"403.491"	"631.121"	"744.309"	"116.601"	"30.549"	"42.957"	"29.911"
"1966"	"5.02"	"0"	"18.194"	"27.071"	"199.12"	"209.943"	"678.106"	"246.601"	"319.091"	"198.194"	"153.962"	"31.408"
"1967"	"7.208"	"0"	"0.593"	"26.781"	"112.688"	"809.676"	"1175.109"	"303.613"	"35.377"	"123.877"	"29.257"	"24.56"
"1968"	"0.041"	"21.751"	"11.794"	"61.142"	"136.805"	"443.467"	"492.813"	"395.133"	"258.842"	"124.876"	"32.95"	"2.803"
"1969"	"0"	"0"	"11.233"	"51.518"	"144.831"	"287.824"	"945.362"	"631.928"	"102.631"	"165.842"	"80.864"	"24.426"
"1970"	"3.803"	"3.729"	"17.487"	"57.683"	"131.983"	"198.695"	"659.145"	"379.916"	"148.328"	"344.894"	"48.617"	"0.826"
"1971"	"0"	"0.024"	"8.129"	"55.58"	"149.26"	"776.595"	"360.144"	"1034.672"	"398.196"	"100.306"	"25.867"	"24.764"
"1972"	"0"	"0.386"	"0"	"18.853"	"307.432"	"774.588"	"647.518"	"207.866"	"325.714"	"153.038"	"29.122"	"40.587"
"1973"	"0"	"0"	"0"	"68.083"	"151.765"	"657.823"	"900.79"	"502.76"	"83.757"	"96.933"	"45.94"	"14.12"
"1974"	"0"	"0"	"5.48"	"33.009"	"151.141"	"230.541"	"960.307"	"397.184"	"276.681"	"108.385"	"18.473"	"0.217"
"1975"	"4.464"	"0.587"	"31.296"	"18.379"	"124.766"	"884.79"	"1226.297"	"735.447"	"275.882"	"127.047"	"69.914"	"0.671"
"1976"	"0"	"0"	"1.033"	"110.714"	"34.408"	"437.177"	"475.017"	"443.211"	"143.179"	"73.907"	"141.143"	"0.494"
"1977"	"0"	"0.596"	"33.012"	"92.755"	"192.035"	"533.441"	"530.933"	"546.451"	"310.202"	"313.243"	"157.426"	"0.217"
"1978"	"2.846"	"15.816"	"6.792"	"30.66"	"219.164"	"644.241"	"1085.975"	"455.2"	"178.246"	"126.824"	"130.88"	"79.828"
"1979"	"0"	"11.467"	"36.937"	"70.432"	"123.235"	"764.621"	"392.477"	"772.32"	"321.6"	"171.767"	"170.906"	"0.217"
"1980"	"0"	"0"	"3.289"	"63.384"	"146.738"	"600.982"	"1189.377"	"361.143"	"400.32"	"139.857"	"137.266"	"1.079"
"1981"	"0.971"	"0"	"63.125"	"34.752"	"193.392"	"237.735"	"548.654"	"884.56"	"304.396"	"128.94"	"42.237"	"12.229"
"1982"	"0"	"0"	"0"	"30.971"	"183.592"	"560.647"	"466.725"	"469.3"	"160.858"	"137.685"	"47.211"	"2.564"
"1983"	"0"	"0"	"0"	"0.547"	"113.785"	"1121.384"	"688.714"	"699.294"	"201.213"	"179.423"	"41.945"	"34.029"
"1984"	"0.118"	"7.881"	"65.389"	"80.076"	"64.004"	"440.655"	"600.491"	"325.713"	"404.596"	"134.488"	"1.482"	"18.876"
"1985"	"1.35"	"0"	"18.311"	"38.961"	"103.89"	"648.414"	"529.87"	"402.347"	"132.482"	"205.431"	"80.55"	"3.253"
"1986"	"8.206"	"6.38"	"1.749"	"11.037"	"92.925"	"760.069"	"460.888"	"496.761"	"357.048"	"112.632"	"107.049"	"7.872"
"1987"	"0"	"0.31"	"14.82"	"44.574"	"108.167"	"523.247"	"394.973"	"516.465"	"157.42"	"200.44"	"33.166"	"58.954"
"1988"	"0"	"0"	"4.188"	"98.558"	"184.923"	"461.065"	"1227.586"	"812.094"	"415.049"	"34.902"	"30.508"	"17.594"
"1989"	"0"	"0"	"12.398"	"46.674"	"107.896"	"665.967"	"991.689"	"303.815"	"215.051"	"190.074"	"13.593"	"2.223"
"1990"	"0.235"	"0"	"1.515"	"32.117"	"258.25"	"408.269"	"501.134"	"408.941"	"90.047"	"164.273"	"56.618"	"3.698"
"1991"	"0"	"0"	"2.003"	"63.61"	"160.881"	"1002.815"	"759.684"	"518.255"	"136.181"	"213.713"	"24.171"	"0.217"
"1992"	"0"	"0"	"0"	"35.846"	"136.418"	"955.721"	"1011.41"	"532.294"	"251.241"	"225.026"	"131.665"	"0.217"
"1993"	"0"	"0"	"27.383"	"35.392"	"125.625"	"728.492"	"783.879"	"475.805"	"138.364"	"217.632"	"46.513"	"54.061"
"1994"	"0"	"0"	"8.835"	"66.812"	"74.906"	"599.875"	"1148.318"	"431.568"	"116.172"	"275.956"	"26.789"	"5.858"
"1995"	"6.78"	"0"	"8.469"	"42.326"	"156.159"	"509.576"	"707.788"	"686.281"	"236.011"	"190.941"	"18.688"	"0.217"
"1996"	"0"	"0.31"	"12.122"	"70.144"	"89.121"	"1096.26"	"571.629"	"762.678"	"278.493"	"212.344"	"5.12"	"22.349"
"1997"	"3.319"	"0"	"23.349"	"48.994"	"66.977"	"699.097"	"705.755"	"787.927"	"184.67"	"270.782"	"141.521"	"44.537"
"1998"	"0"	"2.595"	"3.302"	"59.067"	"149.074"	"652.342"	"1209.64"	"978.209"	"294.279"	"226.523"	"54.656"	"34.118"
"1999"	"0"	"5.351"	"7.934"	"56.983"	"242.272"	"568.647"	"806.066"	"323.728"	"93.017"	"302.609"	"39.712"	"1.064"
"2000"	"0"	"4.536"	"0"	"72.844"	"88.637"	"524.653"	"684.492"	"769.96"	"226.733"	"260.445"	"37.498"	"23.125"
"2001"	"0"	"1.304"	"1.001"	"123.811"	"115.041"	"317.993"	"838.94"	"392.594"	"188.965"	"178.449"	"50.309"	"4.644"
"2002"	"0"	"0.582"	"1.299"	"21.087"	"220.162"	"838.303"	"305.619"	"399.989"	"81.835"	"289.839"	"39.929"	"1.705"
