
"Year"	"Jan"	"Feb"	"Mar"	"Apr"	"May"	"Jun"	"Jul"	"Aug"	"Sep"	"Oct"	"Nov"	"Dec"
"1901"	"28.902"	"4.71"	"46.238"	"38.9"	"21.855"	"140.49"	"227.503"	"274.827"	"89.508"	"117.658"	"0.199"	"0"
"1902"	"0.883"	"0"	"0.409"	"8.949"	"1.048"	"60.619"	"161.556"	"115.84"	"177.242"	"74.049"	"58.798"	"47.192"
"1903"	"4.666"	"1.544"	"0"	"0.454"	"50.548"	"156.782"	"325.422"	"336.921"	"219.867"	"120.118"	"0.242"	"30.4"
"1904"	"0"	"0.646"	"17.339"	"0.009"	"10.326"	"114.761"	"124.389"	"55.748"	"398.336"	"97.549"	"0.199"	"0"
"1905"	"0.27"	"1.886"	"0"	"6.157"	"7.923"	"71.358"	"99.592"	"198.74"	"286.09"	"13.636"	"0.772"	"0"
"1906"	"7.975"	"0.001"	"0.182"	"0"	"0.548"	"201.898"	"276.997"	"156.257"	"92.266"	"12.123"	"6.217"	"18.414"
"1907"	"1.337"	"9.138"	"0.11"	"39.286"	"0.064"	"113.655"	"193.24"	"172.727"	"40.976"	"1.955"	"5.935"	"2.374"
"1908"	"0"	"1.544"	"11.138"	"4.035"	"0.782"	"134.607"	"178.551"	"243.08"	"320.634"	"0.732"	"0.199"	"0.005"
"1909"	"1.403"	"0.6"	"11.789"	"13.517"	"15.773"	"165.335"	"232.077"	"161.355"	"186.957"	"3.368"	"0.199"	"29.403"
"1910"	"0"	"0"	"0.855"	"0"	"5.804"	"278.2"	"120.846"	"224.816"	"467.626"	"89.679"	"69.433"	"0"
"1911"	"2.79"	"0"	"0.001"	"0"	"5.632"	"93.434"	"175.913"	"176.173"	"99.62"	"0.733"	"20.191"	"0"
"1912"	"0"	"15.22"	"0"	"9.665"	"15.675"	"40.146"	"235.487"	"210.288"	"73.877"	"16.13"	"16.589"	"0.249"
"1913"	"0"	"7.832"	"0"	"3.731"	"35.587"	"126.899"	"292.865"	"117.322"	"73.975"	"34.446"	"0.199"	"12.204"
"1914"	"0"	"18.003"	"10.489"	"2.4"	"9.537"	"241.584"	"217.226"	"152.613"	"374.833"	"13.022"	"31.166"	"41.003"
"1915"	"25.19"	"0.642"	"62.467"	"18.16"	"3.795"	"168.062"	"92.77"	"145.392"	"375.006"	"151.639"	"7.156"	"8.378"
"1916"	"0"	"1.998"	"1.463"	"0.195"	"19.053"	"160.81"	"282.541"	"137.231"	"277.774"	"128.554"	"39.24"	"0"
"1917"	"0.349"	"25.729"	"13.681"	"8.964"	"30.929"	"159.214"	"213.702"	"239.755"	"359.484"	"80.629"	"10.024"	"0"
"1918"	"1.196"	"0.001"	"0.727"	"0.959"	"55.788"	"142.372"	"106.753"	"100.33"	"95.529"	"1.162"	"18.383"	"49.305"
"1919"	"13.47"	"0.555"	"0.908"	"4.295"	"16.789"	"146.294"	"143.189"	"134.859"	"320.908"	"48.516"	"18.152"	"0.491"
"1920"	"20.805"	"0"	"0.861"	"4.45"	"1.62"	"110.839"	"74.716"	"125.669"	"97.518"	"2.198"	"0.199"	"0"
"1921"	"3.464"	"0"	"0"	"4.603"	"0.064"	"233.558"	"143.201"	"132.972"	"141.708"	"38.801"	"3.236"	"0"
"1922"	"31.457"	"0.806"	"0"	"7.169"	"1.57"	"213.059"	"119.734"	"50.742"	"294.183"	"55.763"	"49.783"	"0.383"
"1923"	"0"	"0.405"	"35.429"	"14.193"	"0.351"	"26.717"	"310.754"	"104.281"	"331.742"	"0.732"	"0.199"	"0.001"
"1924"	"1.857"	"0"	"16.215"	"9.582"	"0.069"	"27.848"	"187.718"	"189.455"	"202.903"	"91.088"	"13.343"	"47.163"
"1925"	"0"	"0"	"0.002"	"0"	"33.211"	"175.664"	"103.24"	"164.257"	"92.654"	"40.428"	"35.725"	"2.785"
"1926"	"40.55"	"2.286"	"0"	"1.938"	"35.238"	"39.794"	"172.214"	"253.049"	"94.119"	"0.777"	"14.963"	"2.617"
"1927"	"0"	"4.838"	"8.871"	"16.151"	"0.064"	"147.367"	"112.932"	"110.564"	"161.55"	"73.356"	"98.422"	"2.777"
"1928"	"0"	"21.385"	"25.559"	"1.389"	"0.064"	"160.409"	"149.503"	"151.744"	"284.056"	"72.423"	"0.199"	"8.64"
"1929"	"0.002"	"32.778"	"0.295"	"13.79"	"0.426"	"131.436"	"132.45"	"76.903"	"196.987"	"47.134"	"0.199"	"17.755"
"1930"	"0"	"1.873"	"1.56"	"13.093"	"1.348"	"147.926"	"52.445"	"87.716"	"376.304"	"61.186"	"7.447"	"0.135"
"1931"	"0.001"	"0"	"9.459"	"5.208"	"6.714"	"93.083"	"367.015"	"167.607"	"292.943"	"220.403"	"38.852"	"20.317"
"1932"	"0"	"9.507"	"15.679"	"12.516"	"15.803"	"110.966"	"257.72"	"256.896"	"187.13"	"79.527"	"14.6"	"0.345"
"1933"	"8.57"	"8.735"	"12.834"	"22.319"	"57.248"	"246.137"	"265.596"	"209.214"	"334.182"	"54.689"	"5.454"	"51.439"
"1934"	"6.207"	"0"	"0"	"9.504"	"0.533"	"100.472"	"234.131"	"310.665"	"167.7"	"14.485"	"86.039"	"0"
"1935"	"15.152"	"0"	"0"	"10.368"	"0.691"	"200.781"	"230.543"	"245.7"	"262.736"	"51.925"	"2.005"	"8.415"
"1936"	"1.179"	"25.74"	"15.035"	"1.614"	"25.895"	"158.172"	"126"	"144.875"	"165.958"	"12.334"	"88.279"	"10.384"
"1937"	"0"	"29.536"	"8.967"	"41.106"	"1.577"	"110.622"	"244.619"	"47.549"	"195.709"	"116.274"	"0.199"	"39.476"
"1938"	"0.001"	"4.388"	"10.686"	"12.752"	"23.871"	"302.439"	"304.524"	"156.899"	"274.271"	"62.078"	"0.199"	"0.439"
"1939"	"0"	"0"	"3.935"	"13.345"	"0.064"	"103.486"	"137.431"	"246.824"	"97.328"	"13.011"	"12.421"	"0.227"
"1940"	"0"	"2.256"	"0"	"15.708"	"9.543"	"202.711"	"255.018"	"234.272"	"144.661"	"70.005"	"24.324"	"4.832"
"1941"	"6.143"	"7.592"	"4.154"	"6.672"	"0.064"	"41.706"	"101.447"	"180.415"	"186.032"	"8.519"	"0.199"	"0"
"1942"	"0"	"22.275"	"0"	"10.731"	"15.379"	"180.108"	"200.033"	"391.147"	"150.162"	"6.58"	"0.199"	"67.728"
"1943"	"17.208"	"0.873"	"5.098"	"0.162"	"37.888"	"205.98"	"132.516"	"57.509"	"377.71"	"127.165"	"0.699"	"0"
"1944"	"0.395"	"15.956"	"23.118"	"0"	"1.268"	"89.61"	"227.782"	"170.053"	"242.531"	"94.032"	"39.209"	"0"
"1945"	"1.061"	"0"	"0"	"10.401"	"0.533"	"176.349"	"162.406"	"195.65"	"219.375"	"35.271"	"0.738"	"0.003"
"1946"	"0"	"13.888"	"0"	"16.895"	"10.426"	"231.744"	"208.901"	"147.484"	"105.61"	"2.604"	"74.882"	"5.734"
"1947"	"28.225"	"16.281"	"2.975"	"12.401"	"2.48"	"70.861"	"160.337"	"319.538"	"347.878"	"5.697"	"0.805"	"14.729"
"1948"	"6.188"	"3.335"	"3.469"	"4.859"	"0.699"	"181.85"	"199.43"	"140.299"	"313.319"	"35.034"	"113.543"	"0"
"1949"	"10.515"	"1.843"	"0.267"	"2.725"	"40.718"	"223.699"	"252.792"	"126.259"	"429.746"	"62.66"	"0.199"	"0"
"1950"	"0"	"30.834"	"9.567"	"2.077"	"14.952"	"62.157"	"162.642"	"109.872"	"359.189"	"19.129"	"0.267"	"11.37"
"1951"	"1.588"	"0"	"0.052"	"14.434"	"17.099"	"142.351"	"253.695"	"156.819"	"129.441"	"110.568"	"0.962"	"0"
"1952"	"0"	"29.819"	"0.002"	"11.231"	"22.886"	"117.098"	"171.871"	"127.148"	"194.328"	"112.885"	"0.199"	"0.655"
"1953"	"0"	"0"	"0"	"29.144"	"0.332"	"182.501"	"232.47"	"206.463"	"307.007"	"78.766"	"0.199"	"0"
"1954"	"0"	"0.043"	"7.591"	"26.819"	"2.678"	"216.058"	"275.14"	"145.315"	"285.545"	"6.288"	"0.199"	"3.282"
"1955"	"9.644"	"0"	"10.497"	"5.738"	"15.646"	"190.946"	"211.672"	"387.941"	"217.44"	"86.196"	"0.884"	"0"
"1956"	"0.609"	"0"	"0"	"0.913"	"48.788"	"125.138"	"306.801"	"184.128"	"284.243"	"93.158"	"75.616"	"2.462"
"1957"	"0.135"	"0"	"20.357"	"29.724"	"12.586"	"127.977"	"249.945"	"330.53"	"109.152"	"36.991"	"0.199"	"0"
"1958"	"0"	"0"	"5.533"	"35.004"	"17.187"	"91.852"	"466.162"	"433.889"	"152.244"	"33.479"	"37.848"	"0"
"1959"	"4.24"	"0"	"1.116"	"30.76"	"8.337"	"172.65"	"273.388"	"257.645"	"419.942"	"184.525"	"6.602"	"0"
"1960"	"3.726"	"0"	"51.72"	"3.407"	"29.381"	"179.329"	"181.175"	"116.21"	"200.02"	"70.887"	"27.444"	"0.567"
"1961"	"0"	"2.309"	"24.495"	"16.436"	"50.994"	"134.529"	"319.496"	"228.317"	"161.777"	"298.354"	"3.397"	"1.604"
"1962"	"1.563"	"0.001"	"5.004"	"19.47"	"15.948"	"78.418"	"194.424"	"250.847"	"368.287"	"50.634"	"78.808"	"69.759"
"1963"	"0"	"11.749"	"13.71"	"21.17"	"9.563"	"217.237"	"172.612"	"552.62"	"118.775"	"130.713"	"0.199"	"0"
"1964"	"0"	"0"	"7.363"	"2.727"	"0.102"	"101.46"	"197.545"	"217.445"	"236.464"	"15.631"	"0.399"	"0"
"1965"	"10.501"	"1.254"	"0.182"	"11.915"	"0.794"	"149.365"	"365.207"	"162.239"	"85.626"	"9.066"	"0.232"	"12.252"
"1966"	"25.693"	"0"	"15.092"	"14.869"	"19.742"	"49.64"	"209.548"	"88.224"	"284.685"	"2.376"	"55.354"	"38.34"
"1967"	"3.423"	"5.493"	"8.976"	"6.542"	"12.746"	"138.43"	"209.56"	"174.148"	"207"	"43.003"	"16.579"	"38.38"
"1968"	"14.028"	"5.454"	"64.081"	"18.571"	"0.065"	"99.369"	"291.319"	"81.732"	"234.51"	"15.06"	"14.934"	"0.274"
"1969"	"0"	"0"	"0.811"	"0.945"	"21.293"	"151.545"	"222.88"	"132.581"	"267.642"	"20.603"	"39.968"	"0.13"
"1970"	"2.934"	"0"	"0"	"6.723"	"21.53"	"216.264"	"122.933"	"348.753"	"265.195"	"10.237"	"0.199"	"0"
"1971"	"2.135"	"0.159"	"0.005"	"0"	"13.358"	"136.029"	"52.517"	"187.991"	"136.704"	"175.341"	"0.199"	"0"
"1972"	"0"	"0"	"0"	"1.687"	"11.524"	"114.786"	"72.074"	"106.42"	"62.569"	"1.101"	"18.425"	"0"
"1973"	"0"	"1.697"	"0"	"12.869"	"1.866"	"88.658"	"184.631"	"461.335"	"158.653"	"163.514"	"0.436"	"0.384"
"1974"	"0"	"1.412"	"0.665"	"8.776"	"34.948"	"108.791"	"98.867"	"153.4"	"143.301"	"141.665"	"0.199"	"0"
"1975"	"2.968"	"20.98"	"21.157"	"0"	"12.919"	"112.873"	"267.045"	"231.672"	"479.218"	"111.575"	"0.331"	"0"
"1976"	"0"	"0"	"5.249"	"12.592"	"1.536"	"77.8"	"241.278"	"211.982"	"87.052"	"1.312"	"13.208"	"0"
"1977"	"0"	"5.186"	"3.227"	"3.293"	"14.784"	"99.838"	"178.326"	"172.998"	"111.011"	"49.266"	"81.911"	"4.504"
"1978"	"17.447"	"20.749"	"13.058"	"25.917"	"10.434"	"201.855"	"218.919"	"150.683"	"51.577"	"97.722"	"41.447"	"2.433"
"1979"	"2.499"	"30.172"	"4.883"	"1.259"	"24.93"	"197.032"	"188.992"	"155.322"	"203.576"	"16.617"	"38.298"	"1.807"
"1980"	"0.279"	"0"	"3.646"	"6.171"	"1.006"	"204.343"	"99.604"	"310.738"	"122.45"	"0.732"	"0.204"	"56.752"
"1981"	"17.721"	"0.973"	"38.146"	"1.27"	"16.438"	"101.907"	"211.687"	"229.269"	"413.496"	"69.488"	"20.693"	"32.727"
"1982"	"12.917"	"0.699"	"1.306"	"27.325"	"39.326"	"66.563"	"320.211"	"93.146"	"272.63"	"34.631"	"36.616"	"0"
"1983"	"0.27"	"0"	"1.547"	"0"	"3.8"	"168.387"	"234.608"	"446.849"	"358.627"	"171.896"	"0.199"	"10.181"
"1984"	"6.751"	"8.687"	"0"	"0.064"	"0.064"	"53.628"	"94.153"	"128.909"	"102.464"	"128.046"	"0.716"	"0.259"
"1985"	"17.316"	"0"	"6.052"	"15.573"	"0.548"	"223.084"	"218.12"	"147.065"	"58.309"	"84.075"	"14.149"	"2.27"
"1986"	"2.358"	"23.117"	"0"	"12.19"	"4.572"	"190.114"	"278.739"	"246.564"	"71.304"	"4.684"	"7.18"	"20.324"
"1987"	"18.542"	"7.222"	"8.337"	"1.2"	"29.597"	"169.343"	"85.71"	"110.074"	"87.571"	"91.496"	"44.817"	"14.056"
"1988"	"0"	"3.621"	"0"	"12.356"	"21.254"	"106.8"	"370.599"	"227.576"	"248.786"	"121.97"	"3.839"	"3.407"
"1989"	"0"	"0"	"41.181"	"2.747"	"18.107"	"140.813"	"194.683"	"186.336"	"202.227"	"19.859"	"0.74"	"15.63"
"1990"	"0.684"	"0.797"	"5.213"	"0.055"	"73.045"	"142.711"	"194.666"	"314.898"	"56.678"	"138.71"	"10.907"	"8.439"
"1991"	"0.513"	"3.28"	"0.699"	"18.865"	"3.761"	"173.77"	"165.617"	"132.351"	"65.48"	"7.164"	"15.465"	"0"
"1992"	"0"	"0.333"	"0"	"1.042"	"27.12"	"71.538"	"83.885"	"277.099"	"263.058"	"41.054"	"3.724"	"0"
"1993"	"0"	"4.077"	"4.468"	"1.508"	"1.144"	"71.449"	"218.618"	"165.041"	"183.598"	"175.911"	"0.797"	"13.707"
"1994"	"8.174"	"5.259"	"9.716"	"35.591"	"6.676"	"172.138"	"169.872"	"161.479"	"196.645"	"85.93"	"17.74"	"0"
"1995"	"21.46"	"0"	"33.958"	"1.334"	"29.487"	"122.051"	"329.988"	"80.823"	"292.417"	"82.757"	"6.122"	"0"
"1996"	"2.111"	"3.114"	"5.729"	"5.801"	"2.037"	"67.664"	"214.459"	"279.277"	"326.431"	"194.65"	"13.931"	"0"
"1997"	"19.347"	"0"	"3.431"	"26.267"	"4.436"	"120.321"	"145.71"	"239.048"	"55.541"	"38.361"	"127.789"	"29.987"
"1998"	"0.335"	"1.046"	"2.872"	"0.463"	"2.364"	"70.795"	"183.235"	"232.429"	"444.069"	"93.693"	"48.342"	"0"
"1999"	"0"	"19.887"	"0"	"0.849"	"55.638"	"154.736"	"162.181"	"217.103"	"284.803"	"117.825"	"0.199"	"0"
"2000"	"0"	"3.857"	"0"	"1.229"	"14.169"	"159.343"	"175.134"	"254.783"	"70.859"	"10.181"	"2.421"	"2.724"
"2001"	"12.522"	"0"	"34.783"	"6.57"	"5.015"	"159.835"	"49.673"	"185.946"	"51.915"	"45.912"	"3.186"	"0"
"2002"	"15.933"	"0.798"	"5.529"	"9.57"	"5.752"	"217.389"	"43.103"	"250.762"	"157.848"	"58.852"	"3.526"	"0"
