
"Year"	"Jan"	"Feb"	"Mar"	"Apr"	"May"	"Jun"	"Jul"	"Aug"	"Sep"	"Oct"	"Nov"	"Dec"
"1901"	"22.871"	"23.611"	"28.276"	"31.775"	"32.91"	"30.502"	"26.637"	"25.485"	"27.108"	"26.828"	"22.746"	"21.11"
"1902"	"23.571"	"25.365"	"29.817"	"32.857"	"34.313"	"31.596"	"27.776"	"27.673"	"26.548"	"26.86"	"22.408"	"21.458"
"1903"	"22.927"	"23.615"	"28.083"	"32.021"	"32.066"	"31.761"	"26.737"	"26.293"	"26.453"	"25.528"	"21.771"	"20.693"
"1904"	"22.868"	"24.371"	"28.144"	"32.664"	"33.721"	"29.609"	"27.221"	"26.785"	"26.108"	"26.429"	"21.639"	"21.36"
"1905"	"21.859"	"22.601"	"27.728"	"30.127"	"34.564"	"31.583"	"27.375"	"26.766"	"26.112"	"26.388"	"23.612"	"20.404"
"1906"	"22.191"	"24.383"	"28.318"	"32.653"	"34.335"	"29.146"	"27.044"	"26.72"	"25.713"	"25.788"	"23.68"	"21.992"
"1907"	"22.7"	"24.368"	"28.004"	"30.175"	"32.239"	"30.088"	"27.578"	"25.226"	"27.39"	"27.936"	"24.78"	"20.799"
"1908"	"21.932"	"24.65"	"27.703"	"32.754"	"33.563"	"30.285"	"26.244"	"25.557"	"26.742"	"26.595"	"22.548"	"19.767"
"1909"	"23.941"	"25.444"	"29.86"	"30.816"	"33.461"	"29.281"	"26.332"	"26.799"	"25.98"	"26.039"	"23.139"	"22.525"
"1910"	"22.8"	"24.11"	"28.604"	"32.207"	"33.363"	"29.279"	"27.476"	"26.478"	"25.853"	"25.338"	"21.084"	"21.002"
"1911"	"22.925"	"23.09"	"27.275"	"31.987"	"34.335"	"29.399"	"27.764"	"25.967"	"26.813"	"27.433"	"25.273"	"22.173"
"1912"	"23.298"	"25.676"	"29.077"	"32.569"	"34.057"	"32.661"	"27.484"	"26.126"	"27.074"	"26.734"	"22.935"	"20.551"
"1913"	"21.698"	"26.172"	"28.177"	"33.415"	"33.057"	"29.115"	"26.91"	"26.331"	"26.813"	"26.896"	"23.139"	"22.43"
"1914"	"22.426"	"25.582"	"28.082"	"31.443"	"33.262"	"29.279"	"26.537"	"26.288"	"26.442"	"26.595"	"24.373"	"21.825"
"1915"	"22.158"	"24.503"	"27.866"	"31.406"	"33.526"	"32.122"	"27.878"	"26.205"	"26.548"	"26.502"	"25.175"	"20.564"
"1916"	"22.163"	"24.341"	"29.197"	"32.683"	"33.731"	"27.899"	"27.393"	"26.286"	"26.407"	"26.296"	"23.211"	"20.219"
"1917"	"21.894"	"23.43"	"27.165"	"30.148"	"31.821"	"28.414"	"26.424"	"26.771"	"25.611"	"25.36"	"21.939"	"21.087"
"1918"	"20.758"	"24.643"	"28.217"	"31.053"	"32.265"	"28.61"	"28.176"	"26.484"	"27.548"	"27.009"	"24.365"	"22.051"
"1919"	"23.631"	"25.709"	"29.372"	"31.586"	"33.403"	"28.545"	"26.876"	"26.265"	"26.68"	"25.586"	"24.467"	"21.114"
"1920"	"22.479"	"23.911"	"28.898"	"31.961"	"31.927"	"30.562"	"26.849"	"27.132"	"27.548"	"28.165"	"23.781"	"21.788"
"1921"	"23.399"	"24.531"	"30.117"	"33.115"	"34.447"	"29.01"	"27.604"	"26.326"	"25.766"	"25.654"	"21.555"	"21.655"
"1922"	"22.357"	"25.361"	"28.703"	"32.547"	"33.457"	"29.553"	"26.717"	"26.459"	"25.834"	"25.855"	"22.272"	"19.558"
"1923"	"22.024"	"23.756"	"28.411"	"31.949"	"32.868"	"32.192"	"26.665"	"26.085"	"26.154"	"25.066"	"22.739"	"22.362"
"1924"	"23.671"	"26.044"	"30.032"	"33.368"	"33.869"	"31.06"	"27.548"	"26.831"	"26.108"	"24.693"	"21.517"	"21.382"
"1925"	"20.863"	"23.269"	"28.43"	"33.29"	"32.429"	"28.88"	"26.475"	"26.08"	"27.002"	"26.958"	"23.759"	"20.551"
"1926"	"23.059"	"25.603"	"28.748"	"29.954"	"33.129"	"32.661"	"27.643"	"25.964"	"26.534"	"26.532"	"22.693"	"21.324"
"1927"	"24.006"	"25.355"	"28.842"	"32.528"	"33.614"	"29.989"	"26.343"	"26.572"	"27.012"	"26.16"	"21.103"	"21.894"
"1928"	"22.965"	"24.568"	"28.87"	"32.047"	"34.209"	"30.047"	"26.697"	"26.777"	"26.255"	"26.128"	"23.638"	"21.557"
"1929"	"22.3"	"24.335"	"29.598"	"31.716"	"34.609"	"29.426"	"27.077"	"27.172"	"26.807"	"26.429"	"23.566"	"22.162"
"1930"	"23.064"	"22.922"	"29.099"	"31.984"	"33.689"	"30.526"	"26.895"	"26.238"	"26.58"	"26.995"	"22.535"	"22.794"
"1931"	"23.038"	"26.023"	"28.839"	"33.316"	"34.136"	"31.47"	"26.91"	"26.159"	"25.98"	"25.433"	"22.78"	"20.871"
"1932"	"21.966"	"23.043"	"27.665"	"31.322"	"33.499"	"30.021"	"26.415"	"26.657"	"26.548"	"27.274"	"23.512"	"21.292"
"1933"	"22.599"	"25.484"	"28.802"	"31.583"	"31.055"	"28.224"	"27.114"	"26.021"	"25.885"	"25.795"	"23.432"	"21.193"
"1934"	"21.599"	"24.137"	"28.245"	"32.589"	"34.009"	"30.294"	"26.61"	"25.631"	"25.713"	"25.647"	"21.593"	"21.26"
"1935"	"21.669"	"24.341"	"27.75"	"30.276"	"34.042"	"30.299"	"26.076"	"26.063"	"25.479"	"26.801"	"22.947"	"22.661"
"1936"	"23.144"	"24.256"	"28.339"	"31.153"	"33.731"	"28.252"	"27.39"	"26.057"	"26.545"	"26.093"	"23.98"	"21.62"
"1937"	"21.234"	"25.111"	"27.899"	"31.232"	"33.435"	"30.426"	"26.076"	"26.804"	"26.413"	"25.761"	"23.748"	"21.452"
"1938"	"24.444"	"23.501"	"29.913"	"32.32"	"33.382"	"26.678"	"25.969"	"26.42"	"26.415"	"25.268"	"22.375"	"20.914"
"1939"	"23.16"	"25.807"	"27.67"	"31.743"	"33.541"	"30.148"	"26.643"	"26.598"	"26.381"	"26.729"	"22.074"	"20.393"
"1940"	"21.861"	"25.218"	"27.21"	"31.644"	"33.296"	"29.747"	"25.938"	"25.899"	"26.68"	"26.424"	"24.04"	"22.435"
"1941"	"22.738"	"24.94"	"30.15"	"33.221"	"34.335"	"31.522"	"27.233"	"26.585"	"27.248"	"27.496"	"23.807"	"23.031"
"1942"	"23.131"	"25.036"	"29.672"	"32.942"	"33.74"	"30.854"	"26.076"	"25.931"	"25.685"	"26.323"	"22.935"	"21.703"
"1943"	"23.609"	"22.591"	"28.571"	"31.494"	"33.018"	"29.01"	"26.343"	"26.106"	"25.674"	"25.194"	"23.465"	"19.897"
"1944"	"22.665"	"24.138"	"27.507"	"30.947"	"34.308"	"30.492"	"26.443"	"26.169"	"26.68"	"26.128"	"22.798"	"22.655"
"1945"	"22.008"	"23.814"	"28.403"	"31.088"	"34.009"	"30.555"	"26.543"	"26.293"	"25.901"	"26.151"	"21.927"	"20.314"
"1946"	"21.693"	"24.865"	"28.949"	"32.534"	"33.081"	"28.746"	"26.543"	"26.032"	"26.48"	"27.328"	"24.305"	"23.587"
"1947"	"22.897"	"25.204"	"28.931"	"31.628"	"34.231"	"31.31"	"27.151"	"27.193"	"26.122"	"25.028"	"23.596"	"21.987"
"1948"	"23.059"	"24.664"	"28.543"	"32.612"	"34.671"	"29.839"	"26.608"	"26.131"	"25.734"	"27.296"	"24.86"	"20.24"
"1949"	"22.452"	"23.641"	"29.366"	"32.729"	"33.494"	"28.878"	"26.869"	"27.12"	"25.613"	"26.46"	"22.333"	"21.882"
"1950"	"22.693"	"23.911"	"28.06"	"32.409"	"33.804"	"30.722"	"26.91"	"27.566"	"26.42"	"25.992"	"22.143"	"21.755"
"1951"	"21.917"	"24.503"	"29.213"	"31.499"	"34.098"	"30.192"	"27.95"	"26.286"	"27.508"	"27.524"	"24.338"	"20.924"
"1952"	"22.804"	"26.066"	"28.144"	"33.189"	"34.303"	"30.566"	"27.817"	"26.132"	"27.048"	"26.896"	"22.3"	"23.922"
"1953"	"22.831"	"27.106"	"30.872"	"32.694"	"34.447"	"31.372"	"27.221"	"26.053"	"27.041"	"26.46"	"22.966"	"21.332"
"1954"	"21.763"	"26.003"	"29.284"	"33.116"	"34.908"	"30.266"	"26.91"	"26.726"	"25.313"	"24.982"	"22.475"	"21.83"
"1955"	"23.325"	"26.368"	"30.107"	"31.012"	"33.726"	"29.72"	"27.188"	"25.82"	"26.308"	"25.956"	"21.833"	"21.186"
"1956"	"23.27"	"24.935"	"29.718"	"32.748"	"32.835"	"28.61"	"25.71"	"26.266"	"26.348"	"25.897"	"23.139"	"21.96"
"1957"	"23.303"	"24.143"	"28.139"	"31.575"	"33.362"	"31.188"	"27.011"	"26.193"	"26.948"	"27.161"	"24.942"	"23.896"
"1958"	"23.42"	"25.178"	"29.145"	"33.083"	"34.57"	"32.389"	"26.804"	"26.725"	"26.186"	"26.628"	"24.879"	"22.32"
"1959"	"23.726"	"25.908"	"29.74"	"32.748"	"34.802"	"30.849"	"26.443"	"25.931"	"26.013"	"26.697"	"24.131"	"22.62"
"1960"	"22.801"	"25.598"	"28.131"	"32.419"	"33.636"	"29.01"	"27.276"	"26.004"	"26.826"	"26.129"	"23.338"	"23.282"
"1961"	"23.767"	"23.674"	"30.178"	"32.821"	"33.27"	"29.62"	"26.443"	"26.453"	"25.612"	"25.261"	"23.601"	"21.578"
"1962"	"20.984"	"24.875"	"28.204"	"31.273"	"33.255"	"30.587"	"27.243"	"26.693"	"25.88"	"25.86"	"23.574"	"21.588"
"1963"	"21.983"	"25.107"	"28.769"	"31.06"	"33.408"	"29.51"	"27.506"	"25.773"	"26.726"	"26.722"	"24.713"	"22.52"
"1964"	"22.639"	"25.383"	"30.044"	"33.415"	"33.401"	"30.021"	"26.938"	"25.531"	"26.415"	"26.796"	"22.929"	"21.683"
"1965"	"23.071"	"24.882"	"28.645"	"31.548"	"34.143"	"30.32"	"26.47"	"26.563"	"26.341"	"26.961"	"23.803"	"22.444"
"1966"	"21.961"	"25.402"	"28.038"	"32.009"	"32.406"	"31.267"	"28.285"	"27.031"	"26.674"	"27.491"	"25.375"	"22.069"
"1967"	"22.665"	"25.571"	"28.672"	"31.913"	"33.968"	"30.548"	"27.311"	"26.305"	"26.619"	"26.864"	"24.387"	"23.424"
"1968"	"21.563"	"24.474"	"27.803"	"30.913"	"33.167"	"30.642"	"27.311"	"25.696"	"27.242"	"25.696"	"23.139"	"22.314"
"1969"	"22.932"	"26.378"	"31.112"	"33.554"	"34.13"	"31.065"	"26.707"	"26.051"	"25.493"	"26.362"	"25.201"	"22.112"
"1970"	"23.086"	"26.678"	"29.537"	"33.147"	"34.303"	"28.211"	"27.589"	"26.1"	"26.214"	"26.114"	"22.313"	"20.094"
"1971"	"22.204"	"25.442"	"28.319"	"33.162"	"32.429"	"28.447"	"27.845"	"27.224"	"27.149"	"26.03"	"22.422"	"20.525"
"1972"	"21.561"	"24.086"	"30.48"	"32.18"	"33.726"	"31.157"	"27.675"	"26.374"	"27.23"	"27.485"	"23.743"	"23.493"
"1973"	"23.492"	"26.142"	"29.95"	"34.521"	"35.2"	"30.615"	"26.279"	"25.722"	"25.96"	"26.202"	"22.635"	"22.633"
"1974"	"21.807"	"25.423"	"30.03"	"32.858"	"32.284"	"30.088"	"28.09"	"26.196"	"27.957"	"26.202"	"22.329"	"20.819"
"1975"	"21.075"	"25.014"	"28.843"	"33.56"	"33.8"	"29.065"	"26.78"	"25.837"	"25.639"	"26.628"	"21.374"	"19.824"
"1976"	"21.272"	"24.777"	"28.963"	"31.702"	"33.219"	"29.178"	"26.889"	"25.977"	"26.272"	"27.713"	"25.874"	"23.355"
"1977"	"22.249"	"25.74"	"30.76"	"32.095"	"32.732"	"30.026"	"27.379"	"26.063"	"26.178"	"26.786"	"25.539"	"21.224"
"1978"	"21.629"	"24.488"	"27.634"	"32.082"	"34.356"	"28.994"	"26.402"	"25.858"	"27.048"	"27.128"	"25.844"	"22.103"
"1979"	"23.96"	"24.606"	"28.278"	"32.226"	"32.895"	"31.678"	"27.808"	"26.207"	"27.301"	"27.648"	"25.522"	"22.499"
"1980"	"23.682"	"26.202"	"29.379"	"33.241"	"34.819"	"28.531"	"27.109"	"25.631"	"27.422"	"28.154"	"26.047"	"22.158"
"1981"	"21.255"	"26.21"	"28.241"	"32.355"	"33.541"	"30.415"	"26.781"	"26.205"	"26.468"	"26.828"	"23.099"	"21.758"
"1982"	"23.952"	"25.017"	"28.549"	"31.728"	"32.482"	"30.934"	"28.01"	"26.863"	"27.207"	"27.626"	"25.215"	"23.729"
"1983"	"23.131"	"25.42"	"29.39"	"32.038"	"34.49"	"31.793"	"28.384"	"26.826"	"26.186"	"25.72"	"22.53"	"21.437"
"1984"	"23.465"	"24.42"	"29.718"	"32.621"	"34.832"	"29.771"	"27.357"	"25.996"	"26.845"	"27.06"	"23.364"	"23.256"
"1985"	"24.604"	"25.602"	"30.678"	"32.518"	"34.001"	"29.442"	"26.917"	"26.563"	"28.08"	"25.761"	"23.84"	"23.438"
"1986"	"23.172"	"25.731"	"30.151"	"33.081"	"34.075"	"29.452"	"27.108"	"25.863"	"28.421"	"28.687"	"24.305"	"22.969"
"1987"	"24.231"	"25.745"	"29.25"	"32.931"	"32.637"	"30.946"	"28.047"	"27.077"	"28.639"	"27.156"	"25.314"	"22.318"
"1988"	"24.114"	"26.804"	"29.71"	"32.567"	"34.806"	"30.247"	"26.636"	"27.068"	"26.985"	"26.121"	"23.754"	"21.857"
"1989"	"22.871"	"24.841"	"27.829"	"32.118"	"34.133"	"29.021"	"26.943"	"25.287"	"26.272"	"26.651"	"25.278"	"21.911"
"1990"	"23.562"	"25.274"	"27.86"	"32.76"	"31.129"	"27.684"	"26.675"	"26.229"	"26.712"	"25.829"	"24.617"	"22.598"
"1991"	"22.56"	"26.13"	"29.716"	"31.86"	"34.374"	"29.183"	"26.884"	"26.265"	"27.934"	"27.541"	"24.359"	"21.857"
"1992"	"22.936"	"24.716"	"30.197"	"32.319"	"34.085"	"31.629"	"28.397"	"25.989"	"26.443"	"26.86"	"24.185"	"21.505"
"1993"	"23.544"	"24.422"	"28.048"	"32.621"	"34.567"	"32.102"	"27.276"	"26.432"	"26.558"	"27.055"	"24.072"	"20.679"
"1994"	"22.869"	"25.048"	"30.209"	"30.815"	"34.24"	"29.017"	"26.008"	"25.769"	"26.454"	"27.2"	"23.574"	"21.26"
"1995"	"20.428"	"25.141"	"28.269"	"31.927"	"32.799"	"32.287"	"27.764"	"27.684"	"27.306"	"27.101"	"25.084"	"24.322"
"1996"	"24.957"	"26.396"	"30.772"	"32.658"	"34.396"	"30.569"	"28.083"	"26.572"	"26.785"	"25.961"	"23.498"	"21.984"
"1997"	"20.929"	"23.381"	"28.809"	"29.74"	"32.528"	"29.356"	"27.04"	"26.604"	"26.278"	"26.425"	"26.261"	"23.836"
"1998"	"23.434"	"24.908"	"29.147"	"33.427"	"35.264"	"32.334"	"28.195"	"27.399"	"26.717"	"27.223"	"24.516"	"21.224"
"1999"	"21.669"	"26.115"	"29.642"	"33.327"	"32.636"	"28.679"	"27.022"	"26.359"	"25.886"	"26.29"	"23.946"	"21.457"
"2000"	"23.169"	"24.78"	"28.283"	"33.796"	"32.568"	"28.892"	"26.475"	"27.367"	"27.448"	"28.269"	"25.275"	"22.24"
"2001"	"23.296"	"26.338"	"29.792"	"31.445"	"34.17"	"28.952"	"27.344"	"26.331"	"28.222"	"26.656"	"24.645"	"24.069"
"2002"	"22.834"	"26.945"	"29.688"	"33.331"	"34.047"	"29.452"	"27.776"	"25.295"	"26.2"	"27.186"	"23.961"	"23.066"
