
"Year"	"Jan"	"Feb"	"Mar"	"Apr"	"May"	"Jun"	"Jul"	"Aug"	"Sep"	"Oct"	"Nov"	"Dec"
"1901"	"11.912"	"13.522"	"20.681"	"25.395"	"30.381"	"34.506"	"32.027"	"31.293"	"29.49"	"26.901"	"19.674"	"14.462"
"1902"	"14.147"	"16.93"	"21.528"	"26.592"	"31.619"	"33.069"	"31.729"	"31.282"	"29.324"	"25.191"	"19.028"	"13.736"
"1903"	"12.652"	"14.889"	"18.339"	"24.718"	"30.043"	"35.016"	"32.422"	"30.74"	"30.105"	"26.184"	"18.877"	"14.175"
"1904"	"11.692"	"16.061"	"19.252"	"27"	"31.256"	"34.119"	"32.047"	"31.128"	"29.52"	"25.673"	"18.529"	"14.362"
"1905"	"10.67"	"10.552"	"16.424"	"24.357"	"32.309"	"34.729"	"32.075"	"32.266"	"29.952"	"25.764"	"19.509"	"13.634"
"1906"	"11.517"	"12.915"	"17.881"	"25.723"	"32.777"	"33.529"	"32.575"	"30.716"	"28.945"	"25.805"	"20.165"	"15.359"
"1907"	"14.813"	"12.867"	"16.715"	"24.3"	"29.741"	"33.039"	"32.765"	"30.478"	"30.646"	"26.52"	"19.917"	"13.888"
"1908"	"13.814"	"15.603"	"19.993"	"26.868"	"31.168"	"34.738"	"31.263"	"29.264"	"28.885"	"25.186"	"18.206"	"13.393"
"1909"	"11.212"	"13.715"	"20.422"	"25.019"	"30.826"	"32.518"	"30.691"	"30.377"	"28.736"	"25.558"	"19.956"	"12.896"
"1910"	"12.46"	"14.664"	"19.544"	"24.923"	"31.481"	"33.224"	"30.805"	"30.231"	"30.056"	"25.413"	"18.056"	"12.94"
"1911"	"13.029"	"15.505"	"17.368"	"25.607"	"32.109"	"33.575"	"33.403"	"32.36"	"29.978"	"25.978"	"16.887"	"13.316"
"1912"	"13.136"	"16.538"	"19.518"	"25.506"	"31.238"	"34.591"	"32.084"	"30.273"	"29.076"	"25.708"	"17.693"	"13.591"
"1913"	"13.78"	"14.316"	"17.241"	"26.766"	"29.763"	"31.443"	"30.515"	"30.498"	"29.427"	"25.488"	"17.857"	"12.647"
"1914"	"14.402"	"13.956"	"18.782"	"25.091"	"30.821"	"33.386"	"30.897"	"30.312"	"29.196"	"23.351"	"18.589"	"12.923"
"1915"	"12.764"	"13.676"	"20.537"	"26.294"	"33.825"	"33.898"	"33.345"	"31.672"	"30.577"	"26.546"	"19.14"	"13.622"
"1916"	"13.481"	"14.33"	"22.614"	"27.341"	"30.399"	"32.956"	"30.519"	"30.091"	"29.486"	"25.506"	"17.738"	"13.188"
"1917"	"12.748"	"15.727"	"19.379"	"22.657"	"27.049"	"32.202"	"31.2"	"29.838"	"28.252"	"24.276"	"17.603"	"13.397"
"1918"	"11.953"	"15.392"	"19.122"	"23.507"	"33.2"	"33.023"	"32.783"	"31.493"	"29.611"	"25.389"	"18.304"	"12.633"
"1919"	"12.187"	"14.187"	"19.801"	"24.904"	"29.934"	"35.439"	"31.809"	"30.18"	"29.286"	"25.358"	"18.14"	"12.708"
"1920"	"13.526"	"13.491"	"18.761"	"25.186"	"27.467"	"32.704"	"32.393"	"30.712"	"30.21"	"26.459"	"19.787"	"14.808"
"1921"	"12.871"	"16.087"	"23.116"	"29.604"	"33.793"	"34.42"	"32.601"	"30.259"	"29.337"	"24.386"	"18.502"	"14.704"
"1922"	"11.833"	"16.073"	"21.252"	"26.217"	"31.054"	"32.76"	"32.128"	"31.054"	"29.059"	"24.49"	"18.318"	"13.069"
"1923"	"12.594"	"13.888"	"20.795"	"27.242"	"30.033"	"34.693"	"31.074"	"29.982"	"29.35"	"24.241"	"18.034"	"13.301"
"1924"	"11.637"	"14.69"	"20.958"	"26.684"	"27.331"	"35.161"	"32.6"	"30.446"	"28.286"	"25.655"	"18.14"	"14.242"
"1925"	"11.062"	"13.45"	"20.903"	"28.681"	"30.615"	"31.681"	"30.522"	"30.266"	"29.786"	"25.467"	"17.076"	"13.823"
"1926"	"13.02"	"16.14"	"18.006"	"22.88"	"28.24"	"34.431"	"32.51"	"29.939"	"29.14"	"25.029"	"16.516"	"13.415"
"1927"	"11.867"	"12.688"	"18.869"	"25.087"	"29.613"	"33.331"	"31.371"	"30.26"	"29.514"	"25.546"	"18.859"	"15.038"
"1928"	"12.05"	"15.805"	"19.958"	"25.78"	"33.471"	"33.646"	"32.291"	"31.207"	"29.301"	"26.033"	"18.396"	"13.308"
"1929"	"12.146"	"13.658"	"22.041"	"27.079"	"31.895"	"33.548"	"31.085"	"29.854"	"29.797"	"24.8"	"18.741"	"11.448"
"1930"	"11.396"	"14.913"	"20.679"	"25.02"	"30.757"	"32.51"	"30.217"	"30.464"	"29.142"	"24.965"	"17.934"	"14.073"
"1931"	"14.236"	"12.281"	"19.522"	"27.562"	"30.844"	"34.046"	"30.948"	"31.115"	"29.105"	"25.48"	"18.75"	"14.475"
"1932"	"14.667"	"14.526"	"20.789"	"26.752"	"29.67"	"35.178"	"31.762"	"30.125"	"29.977"	"25.521"	"18.876"	"13.607"
"1933"	"11.051"	"15.413"	"19.66"	"23.74"	"29.307"	"34.028"	"31.54"	"29.092"	"28.189"	"24.989"	"18.65"	"15.119"
"1934"	"10.539"	"17.591"	"19.332"	"26.361"	"29.963"	"33.522"	"31.84"	"30.021"	"30.782"	"25.043"	"18.472"	"13.729"
"1935"	"10.692"	"14.973"	"20.224"	"22.275"	"31.06"	"34.413"	"31.784"	"30.016"	"29.492"	"25.022"	"18.795"	"13.314"
"1936"	"11.442"	"14.999"	"19.299"	"25.423"	"33.576"	"31.972"	"31.082"	"30.791"	"29.455"	"25.42"	"18.588"	"12.969"
"1937"	"12.244"	"14.752"	"19.061"	"24.752"	"31.086"	"34.398"	"30.915"	"31.817"	"29.769"	"24.597"	"17.898"	"12.674"
"1938"	"11.873"	"13.351"	"20.68"	"27.096"	"33.41"	"32.25"	"32.535"	"31.228"	"30.071"	"25.783"	"17.321"	"14.726"
"1939"	"13.465"	"14.594"	"17.221"	"24.121"	"32.222"	"32.505"	"31.606"	"31.285"	"30.111"	"26.198"	"18.924"	"15.007"
"1940"	"13.255"	"14.588"	"18.164"	"24.661"	"31.707"	"33.477"	"31.936"	"30.046"	"29.077"	"25.635"	"19.576"	"13.314"
"1941"	"12.078"	"16.064"	"22.242"	"28.68"	"32.439"	"32.613"	"31.751"	"31.171"	"29.207"	"27.282"	"19.361"	"15.627"
"1942"	"11.674"	"15.164"	"21.806"	"27.5"	"31.175"	"34.333"	"30.962"	"29.815"	"28.684"	"25.512"	"20.056"	"13.366"
"1943"	"11.854"	"15.777"	"20.747"	"25.091"	"30.6"	"33.297"	"31.212"	"30.532"	"30.46"	"25.711"	"19.905"	"15.387"
"1944"	"11.554"	"13.415"	"18.941"	"25.536"	"32.536"	"33.163"	"31.546"	"30.457"	"28.919"	"25.274"	"19.112"	"14.306"
"1945"	"10.75"	"13.8"	"20.378"	"23.974"	"30.77"	"33.832"	"31.175"	"30.347"	"29.203"	"24.85"	"19.139"	"12.987"
"1946"	"14.745"	"17.661"	"19.649"	"28.76"	"31.65"	"33.658"	"31.897"	"30.966"	"30.329"	"25.764"	"18.459"	"12.655"
"1947"	"11.753"	"15.538"	"21.299"	"28.071"	"32.57"	"36.381"	"33.638"	"30.814"	"29.254"	"24.737"	"19.836"	"14.18"
"1948"	"13.42"	"14.074"	"18.861"	"28.099"	"33.06"	"34.061"	"31.569"	"29.754"	"29.801"	"25.862"	"17.55"	"13.242"
"1949"	"14.319"	"13.953"	"20.443"	"28"	"33.314"	"33.457"	"30.966"	"30.653"	"30.84"	"25.38"	"17.601"	"12.801"
"1950"	"13.448"	"13.562"	"18.972"	"25.2"	"32.022"	"34.745"	"31.977"	"30.362"	"27.586"	"24.298"	"18.402"	"12.369"
"1951"	"12.122"	"15.431"	"22.045"	"23.755"	"30.873"	"33.932"	"32.344"	"31.088"	"30.823"	"27.397"	"20.189"	"15.278"
"1952"	"13.883"	"17.224"	"19.537"	"28.461"	"32.273"	"33.472"	"31.443"	"30.681"	"30.463"	"25.624"	"19.024"	"14.121"
"1953"	"11.828"	"17.823"	"23.089"	"27.047"	"32.802"	"34.492"	"31.907"	"30.372"	"29.339"	"25.715"	"18.97"	"16.249"
"1954"	"11.639"	"15.828"	"20.841"	"27.657"	"32.176"	"34.098"	"31.996"	"31.86"	"29.681"	"23.458"	"18.308"	"13.307"
"1955"	"12.425"	"16.095"	"22.275"	"24.367"	"28.965"	"35.052"	"31.826"	"30.18"	"29.105"	"24.197"	"18.924"	"13.811"
"1956"	"12.671"	"16.129"	"20.184"	"27.59"	"33.785"	"33.322"	"30.475"	"29.914"	"30.436"	"24.349"	"18.085"	"13.662"
"1957"	"11.826"	"14.214"	"19.2"	"24.563"	"29.179"	"33.256"	"32.595"	"30.217"	"28.864"	"25.547"	"18.853"	"14.154"
"1958"	"14.647"	"15.449"	"20.976"	"28.69"	"31.116"	"34.382"	"31.732"	"30.707"	"28.786"	"25.554"	"19.636"	"15.049"
"1959"	"12.939"	"14.335"	"21.705"	"27.075"	"30.682"	"34.929"	"31.02"	"30.826"	"29.473"	"26.231"	"18.689"	"14.804"
"1960"	"12.203"	"19.062"	"19.328"	"25.193"	"31.995"	"34.502"	"31.859"	"30.746"	"30.027"	"25.695"	"18.325"	"14.775"
"1961"	"13.365"	"13.71"	"21.005"	"26.132"	"31.484"	"34.445"	"31.745"	"30.581"	"30.898"	"25.946"	"18.092"	"12.385"
"1962"	"12.184"	"16.34"	"20.143"	"27.526"	"30.786"	"33.756"	"32.104"	"30.758"	"28.316"	"25.422"	"18.833"	"12.955"
"1963"	"12.236"	"16.493"	"19.928"	"26.054"	"30.096"	"34.259"	"31.873"	"29.642"	"28.649"	"26.029"	"19.354"	"13.402"
"1964"	"11.295"	"14.137"	"20.203"	"26.254"	"29.309"	"33.839"	"30.116"	"30.849"	"29.339"	"25.35"	"17.924"	"14.206"
"1965"	"13.806"	"15.334"	"20.271"	"24.575"	"30.098"	"33.923"	"31.138"	"29.623"	"29.27"	"25.688"	"19.59"	"12.692"
"1966"	"12.058"	"16.325"	"19.894"	"26.461"	"31.512"	"33.597"	"31.907"	"30.546"	"28.892"	"24.636"	"18.056"	"13.259"
"1967"	"11.871"	"17.075"	"19.909"	"25.982"	"30.359"	"34.364"	"31.959"	"30.237"	"29.606"	"24.2"	"18.36"	"13.801"
"1968"	"11.285"	"13.154"	"20.66"	"26.698"	"30.902"	"34.562"	"31.325"	"30.343"	"30.756"	"24.027"	"18.736"	"14.153"
"1969"	"12.803"	"15.994"	"23.104"	"26.659"	"30.498"	"34.471"	"31.794"	"31.54"	"29.535"	"26.501"	"20.289"	"14.443"
"1970"	"13.568"	"15.595"	"20.892"	"27.963"	"33.148"	"32.852"	"32.654"	"30.602"	"30.097"	"26.35"	"18.746"	"14.278"
"1971"	"12.678"	"15.959"	"21.511"	"27.337"	"30.373"	"33.592"	"30.799"	"29.802"	"28.735"	"25.475"	"19.266"	"14.827"
"1972"	"13.581"	"13.397"	"21.412"	"25.602"	"31.834"	"34.534"	"31.777"	"30.213"	"28.286"	"23.963"	"19.36"	"14.516"
"1973"	"12.891"	"16.639"	"19.797"	"28.563"	"32.015"	"34.218"	"31.29"	"30.485"	"29.052"	"24.773"	"18.752"	"12.622"
"1974"	"12.472"	"13.697"	"21.35"	"28.321"	"31.291"	"32.775"	"31.368"	"30.047"	"28.845"	"24.922"	"17.924"	"12.693"
"1975"	"12.705"	"14.149"	"19.34"	"27.304"	"31.95"	"33.381"	"30.305"	"29.887"	"28.627"	"25.866"	"17.607"	"14.35"
"1976"	"13.275"	"15.003"	"19.507"	"25.57"	"31.354"	"32.469"	"31.596"	"29.162"	"28.718"	"25.391"	"19.201"	"13.582"
"1977"	"12.569"	"14.79"	"20.964"	"25.975"	"28.654"	"31.579"	"30.952"	"29.737"	"28.451"	"25.846"	"20.273"	"14.081"
"1978"	"11.452"	"14.404"	"18.834"	"25.654"	"32.623"	"33.369"	"30.181"	"29.699"	"28.366"	"25.456"	"19.263"	"14.496"
"1979"	"12.996"	"14.694"	"19.047"	"28.288"	"30.315"	"34.027"	"31.104"	"31.211"	"28.247"	"26.376"	"20.086"	"15.313"
"1980"	"13.396"	"15.671"	"19.967"	"28.731"	"32.735"	"33.169"	"30.786"	"30.362"	"28.332"	"25.519"	"18.443"	"13.219"
"1981"	"13.014"	"16.003"	"21.201"	"26.963"	"32.05"	"33.547"	"30.409"	"29.892"	"29.174"	"24.551"	"18.525"	"13.691"
"1982"	"13.84"	"14.188"	"17.976"	"24.686"	"28.593"	"33.385"	"31.779"	"29.936"	"29.192"	"25.037"	"18.881"	"14.507"
"1983"	"12.222"	"14.593"	"18.782"	"24.277"	"29.303"	"32.343"	"30.985"	"30.048"	"29.722"	"24.362"	"18.214"	"14.065"
"1984"	"11.917"	"13.546"	"21.851"	"26.606"	"33.629"	"34.173"	"30.679"	"30.698"	"27.845"	"24.555"	"18.359"	"14.029"
"1985"	"12.881"	"16.217"	"22.288"	"27.19"	"32.394"	"33.749"	"30.663"	"30.177"	"29.279"	"24.37"	"19.031"	"15.104"
"1986"	"11.177"	"15.11"	"19.726"	"26.034"	"29.238"	"33.058"	"30.308"	"30.275"	"28.722"	"24.511"	"19.438"	"12.617"
"1987"	"12.488"	"16.568"	"20.87"	"27.034"	"27.851"	"33.348"	"33.19"	"31.577"	"30.863"	"26.051"	"19.415"	"14.648"
"1988"	"14.565"	"16.533"	"20.008"	"28.399"	"32.885"	"33.197"	"30.673"	"29.55"	"28.932"	"24.876"	"19.38"	"14.671"
"1989"	"12.294"	"14.93"	"19.77"	"25.07"	"30.867"	"32.198"	"31.107"	"28.269"	"28.808"	"25.292"	"18.715"	"14.126"
"1990"	"14.859"	"15.811"	"18.967"	"26.11"	"31.574"	"34.451"	"30.443"	"29.844"	"28.638"	"24.327"	"18.765"	"13.82"
"1991"	"11.524"	"15.395"	"19.985"	"24.69"	"30.918"	"32.389"	"32.087"	"29.936"	"28.929"	"24.266"	"18.158"	"14.444"
"1992"	"13.391"	"14.616"	"19.809"	"26.058"	"30.172"	"33.407"	"30.399"	"29.65"	"28.509"	"24.786"	"19.255"	"15.163"
"1993"	"12.517"	"17.146"	"18.685"	"26.548"	"32.549"	"33.619"	"30.669"	"31.217"	"28.377"	"24.619"	"19.654"	"14.209"
"1994"	"13.376"	"15.448"	"21.908"	"25.076"	"31.885"	"34.279"	"30.789"	"30.018"	"28.253"	"24.223"	"19.356"	"14.974"
"1995"	"12.073"	"15.09"	"19.355"	"25.185"	"32.708"	"34.962"	"31.375"	"29.147"	"28.761"	"25.64"	"19.307"	"14.668"
"1996"	"12.84"	"16.497"	"21.125"	"27.116"	"30.515"	"32.284"	"31.389"	"29.186"	"28.765"	"24.694"	"18.388"	"13.367"
"1997"	"12.972"	"15.527"	"20.267"	"25.935"	"29.464"	"31.732"	"31.748"	"29.497"	"29.694"	"23.488"	"18.483"	"12.625"
"1998"	"11.342"	"16.029"	"18.873"	"26.885"	"32.448"	"34.28"	"31.287"	"30.594"	"29.411"	"25.843"	"19.524"	"14.447"
"1999"	"12.497"	"17.536"	"21.993"	"30.17"	"32.568"	"32.324"	"32.038"	"30.673"	"30.466"	"26.278"	"20.498"	"15.111"
"2000"	"13.512"	"14.272"	"20.069"	"28.845"	"33.578"	"32.602"	"30.716"	"30.478"	"29.613"	"27.02"	"20.489"	"15.504"
"2001"	"13.028"	"16.552"	"21.556"	"26.681"	"32.857"	"31.851"	"31.304"	"31.372"	"29.699"	"26.898"	"20.46"	"15.411"
"2002"	"14.916"	"15.086"	"19.654"	"28.63"	"33.606"	"33.552"	"32.784"	"30.946"	"27.852"	"25.673"	"20.634"	"14.974"
