
"Year"	"Jan"	"Feb"	"Mar"	"Apr"	"May"	"Jun"	"Jul"	"Aug"	"Sep"	"Oct"	"Nov"	"Dec"
"1901"	"23.709"	"24.585"	"27.739"	"31.086"	"30.354"	"28.423"	"26.077"	"25.554"	"27.254"	"26.231"	"23.585"	"22.008"
"1902"	"23.085"	"24.562"	"29.039"	"31.086"	"33.354"	"29.7"	"27.877"	"27.354"	"26.054"	"26.408"	"22.208"	"22.486"
"1903"	"23.085"	"24.785"	"28.839"	"31.562"	"30.932"	"30.477"	"25.777"	"25.355"	"25.954"	"25.054"	"22.208"	"21.009"
"1904"	"22.208"	"23.763"	"27.862"	"31.985"	"31.331"	"27.923"	"26.777"	"26.777"	"26.054"	"25.731"	"22.131"	"21.009"
"1905"	"22.286"	"23.863"	"28.186"	"30.085"	"31.908"	"30.023"	"27.7"	"25.977"	"26.177"	"26.031"	"23.986"	"21.385"
"1906"	"23.485"	"25.085"	"27.762"	"32.363"	"33.331"	"28.277"	"27.177"	"26.054"	"25.977"	"25.731"	"23.385"	"22.286"
"1907"	"22.286"	"25.163"	"27.839"	"29.786"	"31.177"	"28.4"	"26.877"	"24.7"	"26.477"	"26.609"	"24.585"	"21.685"
"1908"	"22.062"	"24.762"	"27.662"	"32.363"	"32.754"	"29.923"	"26.3"	"25.4"	"25.531"	"25.509"	"22.085"	"20.185"
"1909"	"23.362"	"25.163"	"28.54"	"29.486"	"32.031"	"27.5"	"25.577"	"26.323"	"25.954"	"26.077"	"23.709"	"23.308"
"1910"	"22.785"	"24.562"	"28.517"	"32.062"	"32.455"	"28.7"	"27.454"	"26.354"	"25.377"	"25.454"	"21.308"	"20.408"
"1911"	"22.609"	"23.562"	"28.263"	"31.985"	"33.054"	"28.7"	"27.177"	"25.1"	"27.154"	"26.909"	"24.385"	"22.185"
"1912"	"23.008"	"25.64"	"28.962"	"31.063"	"32.654"	"31.223"	"26.6"	"25.677"	"26.454"	"26.231"	"22.908"	"20.909"
"1913"	"21.208"	"25.563"	"28.263"	"31.962"	"31.631"	"28.423"	"26.3"	"26.5"	"27.054"	"26.031"	"23.385"	"23.062"
"1914"	"21.908"	"25.54"	"28.34"	"30.439"	"31.731"	"28.3"	"25.977"	"25.177"	"25.432"	"25.531"	"23.485"	"22.486"
"1915"	"22.185"	"24.562"	"26.863"	"30.863"	"31.754"	"30.177"	"27.077"	"25.977"	"25.931"	"26.077"	"24.485"	"20.608"
"1916"	"23.062"	"25.263"	"28.34"	"30.963"	"31.731"	"27.1"	"26.655"	"26.077"	"26.077"	"25.531"	"22.985"	"20.208"
"1917"	"21.208"	"23.185"	"26.162"	"29.285"	"30.831"	"26.877"	"26.377"	"26.054"	"25.531"	"25.355"	"22.486"	"21.009"
"1918"	"21.009"	"23.74"	"27.262"	"30.785"	"29.655"	"28.4"	"28.377"	"26.477"	"26.854"	"26.308"	"24.262"	"22.263"
"1919"	"23.986"	"26.162"	"28.839"	"31.385"	"31.754"	"27.4"	"27.177"	"26.4"	"26.755"	"25.332"	"23.285"	"21.109"
"1920"	"22.185"	"24.285"	"28.639"	"30.462"	"31.554"	"29.6"	"27.2"	"27.577"	"27.054"	"27.031"	"24.009"	"21.985"
"1921"	"23.108"	"24.562"	"29.54"	"31.462"	"34.277"	"28.6"	"26.554"	"25.977"	"26.154"	"24.831"	"21.086"	"20.986"
"1922"	"22.185"	"24.063"	"28.54"	"31.985"	"31.954"	"28.823"	"26.7"	"26.8"	"25.654"	"25.232"	"23.208"	"20.608"
"1923"	"21.608"	"24.185"	"27.162"	"31.585"	"32.345"	"31.523"	"26.123"	"26.169"	"25.677"	"24.931"	"23.108"	"21.985"
"1924"	"22.785"	"25.962"	"28.44"	"32.563"	"33.031"	"29.923"	"27.377"	"26.777"	"25.831"	"24.954"	"21.985"	"20.786"
"1925"	"21.785"	"24.063"	"27.94"	"31.862"	"30.554"	"28.8"	"27.177"	"25.477"	"26.531"	"25.031"	"23.185"	"20.786"
"1926"	"23.085"	"24.839"	"28.54"	"29.886"	"31.254"	"31.477"	"27.477"	"26.277"	"26.454"	"26.231"	"22.985"	"21.985"
"1927"	"24.385"	"25.862"	"29.74"	"32.386"	"32.555"	"28.9"	"26"	"26.477"	"27.054"	"25.754"	"22.008"	"22.185"
"1928"	"23.385"	"25.263"	"28.263"	"30.963"	"33.277"	"29.3"	"26.678"	"26.577"	"26.354"	"25.931"	"23.986"	"22.486"
"1929"	"23.986"	"24.439"	"28.44"	"30.285"	"33.454"	"29.3"	"27.377"	"26.954"	"26.331"	"26.031"	"23.986"	"23.809"
"1930"	"23.686"	"24.086"	"28.662"	"30.585"	"32.5"	"30.077"	"27.3"	"26.8"	"26.554"	"25.908"	"22.785"	"22.985"
"1931"	"22.085"	"25.962"	"28.463"	"31.862"	"32.532"	"28.9"	"26.177"	"26.385"	"25.954"	"25.454"	"22.386"	"21.408"
"1932"	"21.186"	"23.863"	"26.485"	"30.462"	"31.032"	"28.9"	"26.077"	"26.554"	"25.977"	"26.508"	"23.986"	"21.585"
"1933"	"22.486"	"25.862"	"27.262"	"29.985"	"29.154"	"27.968"	"25.4"	"25.177"	"26.3"	"24.731"	"23.162"	"21.208"
"1934"	"21.485"	"24.262"	"27.662"	"31.385"	"32.954"	"29.5"	"26.277"	"25.577"	"26.154"	"25.931"	"21.908"	"20.909"
"1935"	"23.062"	"25.24"	"27.862"	"29.686"	"33.454"	"29.6"	"26.2"	"26.377"	"25.577"	"26.031"	"22.509"	"22.586"
"1936"	"24.608"	"24.685"	"27.262"	"30.785"	"31.731"	"27.6"	"27.1"	"25.977"	"27.054"	"26.231"	"23.285"	"22.008"
"1937"	"21.685"	"25.563"	"27.762"	"30.685"	"32.455"	"30.1"	"26.377"	"26.877"	"26.854"	"25.332"	"23.485"	"21.962"
"1938"	"23.986"	"25.263"	"29.062"	"31.385"	"32.077"	"26.2"	"25.677"	"25.677"	"25.477"	"24.577"	"21.785"	"20.786"
"1939"	"21.885"	"24.339"	"27.262"	"30.685"	"33.054"	"29.522"	"26.5"	"26.3"	"26.177"	"25.931"	"21.508"	"20.631"
"1940"	"20.585"	"24.562"	"27.585"	"30.385"	"31.154"	"28.8"	"25.3"	"25.4"	"26.354"	"25.531"	"24.108"	"22.509"
"1941"	"23.408"	"25.34"	"29.763"	"32.486"	"32.954"	"29.477"	"28.1"	"26.6"	"26.554"	"26.431"	"23.763"	"23.663"
"1942"	"23.362"	"25.263"	"28.916"	"31.385"	"32.654"	"29.2"	"26.4"	"25.777"	"25.577"	"25.031"	"23.008"	"22.785"
"1943"	"23.986"	"22.962"	"27.862"	"30.408"	"30.254"	"27.323"	"26.077"	"26.077"	"25.077"	"25.232"	"23.408"	"20.308"
"1944"	"23.262"	"24.785"	"25.985"	"30.008"	"32.632"	"29.3"	"26.277"	"26.755"	"26.354"	"25.631"	"22.985"	"21.785"
"1945"	"22.586"	"24.462"	"28.263"	"30.108"	"32.877"	"28.623"	"26.254"	"25.377"	"25.531"	"25.232"	"21.608"	"20.285"
"1946"	"20.585"	"23.663"	"28.485"	"30.608"	"31.977"	"27.723"	"26.678"	"25.977"	"26.454"	"26.832"	"24.086"	"22.985"
"1947"	"23.809"	"25.062"	"28.962"	"31.331"	"32.854"	"29.723"	"26.154"	"26.054"	"25.477"	"24.331"	"22.509"	"21.508"
"1948"	"23.085"	"25.286"	"27.385"	"30.608"	"32.877"	"29.346"	"27.077"	"25.977"	"25.677"	"26.231"	"24.685"	"19.908"
"1949"	"21.785"	"23.763"	"28.063"	"30.909"	"30.978"	"27.977"	"26.354"	"26.323"	"25.654"	"26.077"	"22.008"	"21.485"
"1950"	"21.862"	"24.262"	"26.786"	"30.986"	"32.054"	"28.423"	"26.477"	"26.954"	"25.554"	"25.154"	"22.409"	"21.086"
"1951"	"22.486"	"24.14"	"28.286"	"31.109"	"31.754"	"28.723"	"26.678"	"26.277"	"26.931"	"26.832"	"24.385"	"21.408"
"1952"	"22.586"	"25.363"	"27.885"	"31.785"	"32.632"	"29.723"	"27.877"	"26.477"	"26.6"	"25.831"	"21.731"	"22.785"
"1953"	"23.085"	"25.894"	"30.062"	"31.939"	"34.677"	"30.7"	"27.077"	"25.9"	"25.877"	"26.031"	"22.708"	"20.886"
"1954"	"22.309"	"25.663"	"28.086"	"32.008"	"33.777"	"29.323"	"26.277"	"26.377"	"25.577"	"24.631"	"21.785"	"22.486"
"1955"	"22.586"	"25.64"	"28.562"	"31.086"	"31.531"	"28.6"	"26.277"	"25.077"	"26.131"	"25.531"	"21.685"	"21.009"
"1956"	"22.386"	"23.863"	"28.962"	"31.585"	"31.6"	"28.223"	"25.077"	"25.577"	"25.654"	"24.731"	"23.385"	"21.685"
"1957"	"23.085"	"24.862"	"26.963"	"30.485"	"32.054"	"29.7"	"26.454"	"25.154"	"26.377"	"26.909"	"24.086"	"22.686"
"1958"	"23.062"	"25.486"	"28.585"	"31.286"	"32.555"	"31.6"	"25.877"	"25.954"	"26.177"	"25.931"	"24.285"	"22.108"
"1959"	"23.285"	"26.462"	"28.662"	"31.485"	"33.131"	"28.6"	"26.177"	"25.877"	"26.377"	"26.331"	"23.986"	"22.486"
"1960"	"23.863"	"24.739"	"28.34"	"30.986"	"32.154"	"28.8"	"27.554"	"27.5"	"26.755"	"25.754"	"23.663"	"22.785"
"1961"	"23.185"	"25.085"	"29.863"	"32.185"	"31.377"	"28.5"	"26.377"	"26.385"	"26.154"	"25.255"	"22.586"	"21.762"
"1962"	"21.385"	"24.562"	"27.963"	"30.285"	"31.354"	"29.477"	"26.777"	"26.385"	"25.831"	"25.908"	"22.708"	"21.285"
"1963"	"21.186"	"23.562"	"28.163"	"29.586"	"32.054"	"27.9"	"26.877"	"25.377"	"26.377"	"25.554"	"23.485"	"22.286"
"1964"	"23.285"	"25.962"	"29.663"	"31.785"	"33.1"	"29.3"	"26.655"	"25.577"	"25.355"	"25.754"	"22.509"	"20.909"
"1965"	"22.486"	"24.885"	"28.263"	"30.385"	"32.231"	"29.3"	"26.2"	"26.755"	"26.454"	"26.732"	"24.662"	"23.786"
"1966"	"23.886"	"26.239"	"29.94"	"31.985"	"32.6"	"30"	"27.877"	"27.154"	"26.031"	"25.931"	"24.608"	"21.885"
"1967"	"23.085"	"25.039"	"27.94"	"31.831"	"32.931"	"29.877"	"26.477"	"26.323"	"25.954"	"25.531"	"23.285"	"23.562"
"1968"	"22.062"	"25.862"	"27.762"	"30.662"	"32.409"	"29.3"	"26.8"	"26.6"	"25.931"	"25.031"	"23.585"	"23.562"
"1969"	"23.016"	"26.439"	"30.539"	"32.885"	"32.208"	"30.2"	"27.1"	"27.154"	"25.577"	"25.908"	"24.485"	"21.562"
"1970"	"23.285"	"26.362"	"30.162"	"31.962"	"32.654"	"27.777"	"27.354"	"25.654"	"26.254"	"25.908"	"22.885"	"20.262"
"1971"	"23.085"	"26.262"	"28.063"	"32.085"	"31.754"	"27.577"	"28.2"	"27.377"	"27.231"	"25.831"	"22.363"	"20.963"
"1972"	"21.962"	"25.463"	"29.262"	"31.785"	"32.777"	"31.2"	"27.777"	"27.277"	"27.877"	"26.586"	"24.086"	"23.686"
"1973"	"24.462"	"26.886"	"30.162"	"33.685"	"34.477"	"29.423"	"27.1"	"26.477"	"26.954"	"25.754"	"22.908"	"22.108"
"1974"	"22.563"	"26.062"	"29.385"	"32.486"	"31.631"	"28.8"	"28.2"	"26.7"	"26.755"	"25.754"	"22.785"	"20.909"
"1975"	"22.008"	"25.894"	"28.562"	"32.185"	"33.4"	"28.7"	"26.877"	"26.577"	"25.754"	"26.077"	"22.185"	"20.385"
"1976"	"21.208"	"24.662"	"29.385"	"31.485"	"33.008"	"29.5"	"26.655"	"25.877"	"26.709"	"27.185"	"25.163"	"23.139"
"1977"	"22.663"	"26.039"	"29.44"	"31.677"	"31.277"	"29.522"	"27.477"	"26.431"	"27.431"	"26.431"	"25.586"	"22.008"
"1978"	"23.608"	"25.286"	"28.985"	"31.931"	"32.777"	"28.4"	"26.3"	"25.4"	"26.277"	"26.354"	"25.186"	"23.208"
"1979"	"23.709"	"26.108"	"28.962"	"32.108"	"31.854"	"30.877"	"28.223"	"26.923"	"27.077"	"27.131"	"25.209"	"23.331"
"1980"	"24.308"	"27.485"	"29.786"	"32.331"	"34.277"	"28.8"	"27.177"	"25.8"	"27.031"	"27.485"	"24.962"	"23.208"
"1981"	"23.085"	"26.663"	"28.785"	"32.486"	"33.077"	"29.146"	"27.777"	"25.777"	"26.354"	"26.231"	"24.063"	"22.708"
"1982"	"24.086"	"27.439"	"30.085"	"31.508"	"31.731"	"29.5"	"27.5"	"26.977"	"26.954"	"26.709"	"24.485"	"22.885"
"1983"	"23.208"	"27.031"	"30.585"	"32.763"	"33.408"	"31"	"27.977"	"26.454"	"26.154"	"25.831"	"23.108"	"22.486"
"1984"	"24.508"	"25.731"	"29.216"	"31.885"	"34.808"	"29.5"	"26.678"	"26.723"	"27.277"	"26.531"	"23.308"	"23.786"
"1985"	"24.685"	"27.063"	"30.462"	"32.709"	"33.377"	"28.2"	"27.077"	"26.777"	"27.954"	"25.531"	"24.086"	"23.663"
"1986"	"22.486"	"25.939"	"30.239"	"32.563"	"33.855"	"29.3"	"27.677"	"26.377"	"28.277"	"28.186"	"25.563"	"24.086"
"1987"	"23.786"	"25.34"	"28.939"	"32.786"	"32.131"	"30.423"	"27.354"	"26.954"	"28.531"	"26.931"	"24.585"	"23.108"
"1988"	"23.909"	"27.162"	"30.362"	"31.485"	"34.677"	"30.223"	"27.1"	"26.678"	"26.854"	"26.531"	"24.185"	"22.708"
"1989"	"23.809"	"25.939"	"28.263"	"32.463"	"33.955"	"28.8"	"26.678"	"26.377"	"26.854"	"26.854"	"24.485"	"22.785"
"1990"	"23.585"	"26.508"	"29.509"	"32.808"	"29.354"	"27.423"	"27.177"	"26.377"	"27.154"	"25.731"	"25.085"	"23.408"
"1991"	"24.285"	"26.886"	"30.639"	"32.208"	"33.955"	"28.5"	"26.7"	"26.577"	"27.931"	"27.108"	"23.763"	"22.586"
"1992"	"22.409"	"25.908"	"30.085"	"32.285"	"33.231"	"30.077"	"28.177"	"26.077"	"26.755"	"26.909"	"24.885"	"21.785"
"1993"	"23.786"	"25.062"	"29.385"	"32.062"	"33.809"	"30.877"	"27.677"	"26.6"	"26.777"	"26.732"	"24.485"	"21.308"
"1994"	"23.608"	"26.285"	"30.562"	"31.209"	"33.855"	"29.323"	"26.577"	"26.277"	"27.131"	"26.231"	"23.162"	"21.186"
"1995"	"21.708"	"26.062"	"29.362"	"31.862"	"31.132"	"31.055"	"27.177"	"27.477"	"27.154"	"26.231"	"25.085"	"23.485"
"1996"	"24.685"	"26.439"	"30.216"	"30.963"	"33.932"	"30.177"	"27.854"	"26.277"	"26.877"	"25.931"	"24.285"	"22.686"
"1997"	"22.586"	"25.363"	"29.262"	"30.085"	"32.754"	"30.7"	"27.877"	"27"	"27.154"	"26.832"	"26.162"	"24.962"
"1998"	"25.209"	"27.185"	"30.462"	"33.262"	"34.154"	"31.5"	"28.577"	"26.977"	"27.054"	"26.632"	"24.908"	"21.908"
"1999"	"22.785"	"26.563"	"30.262"	"33.085"	"31.554"	"28.5"	"27.277"	"26.477"	"26.354"	"26.531"	"24.685"	"22.708"
"2000"	"24.185"	"26.385"	"29.062"	"33.085"	"31.754"	"27.577"	"26.577"	"26.377"	"26.777"	"27.431"	"25.085"	"22.586"
"2001"	"24.086"	"27.239"	"29.786"	"31.893"	"33.855"	"28.577"	"27.8"	"26.431"	"27.754"	"26.331"	"25.586"	"23.008"
"2002"	"23.608"	"26.339"	"30.339"	"33.285"	"33.354"	"29.3"	"28.2"	"25.9"	"27.177"	"26.832"	"23.986"	"23.262"
