
"Year"	"Jan"	"Feb"	"Mar"	"Apr"	"May"	"Jun"	"Jul"	"Aug"	"Sep"	"Oct"	"Nov"	"Dec"
"1901"	"20.648"	"17.485"	"61.29"	"179.907"	"217.89"	"407.682"	"219.052"	"188.474"	"222.36"	"179.659"	"275.698"	"47.356"
"1902"	"41.251"	"1.63"	"98.36"	"104.745"	"103.494"	"460.725"	"363.325"	"243.972"	"311.57"	"436.857"	"162.898"	"130.596"
"1903"	"25.668"	"3.666"	"0.383"	"69.344"	"260.805"	"131.729"	"364.214"	"209.264"	"301.481"	"347.056"	"251.916"	"87.036"
"1904"	"94.75"	"2.585"	"14.366"	"50.791"	"126.159"	"387.124"	"366.528"	"141.367"	"152.046"	"349.528"	"5.17"	"28.937"
"1905"	"0.226"	"3.551"	"5.552"	"105.738"	"172.602"	"538.936"	"228.68"	"192.862"	"133.641"	"308.263"	"66.269"	"0.654"
"1906"	"26.327"	"7.789"	"13.891"	"66.858"	"92.214"	"225.946"	"365.27"	"295.874"	"96.304"	"232.501"	"153.358"	"104.132"
"1907"	"58.182"	"1.855"	"64.678"	"228.988"	"77.602"	"319.069"	"394.37"	"245.608"	"237.412"	"275.513"	"155.378"	"102.782"
"1908"	"8.103"	"71.342"	"86.955"	"109.352"	"146.763"	"309.652"	"352.145"	"216.169"	"256.9"	"381.578"	"26.043"	"20.469"
"1909"	"47.959"	"27.924"	"38.682"	"105.943"	"291.999"	"259.13"	"278.813"	"329.792"	"210.834"	"167.94"	"121.36"	"46.587"
"1910"	"18.559"	"51.172"	"3.567"	"177.733"	"139.217"	"397.912"	"430.016"	"411.062"	"155.576"	"353.117"	"266.341"	"0.684"
"1911"	"1.339"	"35.118"	"6.121"	"127.679"	"151.235"	"661.973"	"287.366"	"80.289"	"118.258"	"304.988"	"154.27"	"131.303"
"1912"	"1.597"	"16.022"	"12.507"	"107.441"	"199.832"	"838.393"	"231.493"	"305.569"	"226.488"	"550.824"	"191.553"	"28.982"
"1913"	"13.373"	"3.426"	"11.468"	"94.377"	"169.277"	"229.783"	"318.13"	"119.221"	"123.714"	"411.779"	"76.419"	"32.828"
"1914"	"2.302"	"3.163"	"30.984"	"36.093"	"176.681"	"304.047"	"352.984"	"185.19"	"165.751"	"447.111"	"109.878"	"107.784"
"1915"	"15.866"	"14.232"	"74.12"	"161.961"	"133.391"	"324.248"	"407.849"	"215.146"	"405.979"	"100.163"	"343.639"	"44.714"
"1916"	"0.157"	"10.089"	"11.013"	"120.511"	"276.478"	"274.474"	"699.83"	"247.886"	"350.197"	"292.615"	"175.824"	"5.197"
"1917"	"1.6"	"24.24"	"103.473"	"36.508"	"268.678"	"375.591"	"156.908"	"368.624"	"409.312"	"182.865"	"277.784"	"58.508"
"1918"	"47.986"	"11.242"	"45.921"	"58.454"	"428.106"	"212.259"	"179.638"	"195.212"	"49.791"	"258.99"	"328.578"	"96.129"
"1919"	"49.074"	"7.093"	"47.962"	"24.122"	"227.317"	"400.685"	"285.704"	"182.41"	"320.098"	"233.871"	"272.836"	"88.129"
"1920"	"107.994"	"1.752"	"32.19"	"162.706"	"51.687"	"500.308"	"350.186"	"200.205"	"119.577"	"392.898"	"337.728"	"12.433"
"1921"	"36.182"	"3.163"	"4.109"	"218.03"	"74.953"	"538.014"	"233.632"	"408.034"	"212.068"	"392.638"	"231.896"	"26.924"
"1922"	"19.987"	"27.86"	"6.429"	"94.302"	"313.798"	"547.227"	"337.297"	"171.707"	"114.259"	"303.478"	"253.765"	"45.914"
"1923"	"49.979"	"5.345"	"137.835"	"30.282"	"59.186"	"257.95"	"315.159"	"348.71"	"174.971"	"239.356"	"47.19"	"30.858"
"1924"	"29.772"	"0.257"	"64.377"	"111.577"	"140.242"	"495.507"	"486.366"	"253.318"	"230.753"	"246.693"	"212.805"	"58.003"
"1925"	"12.466"	"13.42"	"136.259"	"100.134"	"129.967"	"420.435"	"184.564"	"283.906"	"112.827"	"266.711"	"243.287"	"73.9"
"1926"	"69.504"	"0.957"	"14.828"	"26.851"	"216.63"	"204.074"	"285.449"	"202.437"	"225.212"	"286.451"	"91.502"	"13.685"
"1927"	"10.556"	"91.022"	"61.461"	"192.509"	"200.662"	"598.854"	"336.038"	"199.711"	"261.343"	"163.824"	"117.343"	"12.101"
"1928"	"9.569"	"168.796"	"11.819"	"127.598"	"78.057"	"228.745"	"343.217"	"218.347"	"181.102"	"288.667"	"211.406"	"76.169"
"1929"	"10.39"	"60.675"	"50.247"	"305.091"	"163.752"	"563.685"	"365.486"	"112.199"	"220.966"	"410.013"	"179.519"	"42.614"
"1930"	"13.801"	"52.012"	"56.859"	"140.276"	"408.678"	"440.426"	"122.105"	"186.896"	"309.789"	"440.29"	"241.735"	"99.736"
"1931"	"21.98"	"0.257"	"1.511"	"118.76"	"97.314"	"306.856"	"315.007"	"392.624"	"135.603"	"143.983"	"160.7"	"184.722"
"1932"	"0.157"	"4.87"	"20.936"	"150.753"	"356.034"	"231.257"	"210.828"	"300.985"	"208.744"	"488.204"	"273.059"	"38.484"
"1933"	"0.451"	"16.382"	"43.499"	"164.537"	"453.119"	"461.008"	"355.881"	"401.49"	"318.176"	"321.872"	"116.773"	"47.644"
"1934"	"136.861"	"0.257"	"34.741"	"115.333"	"71.872"	"424.803"	"162.215"	"163.182"	"21.666"	"294.036"	"96.913"	"0.73"
"1935"	"123.638"	"7.643"	"26.5"	"168.895"	"42.964"	"831.623"	"270.651"	"255.473"	"187.327"	"283.411"	"278.083"	"13.956"
"1936"	"1.391"	"59.687"	"91.177"	"61.015"	"280.814"	"296.573"	"380.981"	"139.421"	"305.105"	"134.015"	"265.618"	"13.714"
"1937"	"12.302"	"24.572"	"69.966"	"226.494"	"114.986"	"147.308"	"337.001"	"238.347"	"145.051"	"329.465"	"181.051"	"17.39"
"1938"	"0.47"	"68.598"	"64.363"	"79.65"	"111.643"	"232.472"	"460.009"	"206.655"	"142.347"	"175.106"	"55.445"	"29.527"
"1939"	"64.976"	"21.272"	"21.975"	"273.96"	"258.677"	"308.009"	"267.954"	"276.783"	"132.121"	"282.578"	"324.68"	"25.26"
"1940"	"0.437"	"0.681"	"9.978"	"213.242"	"213.546"	"289.315"	"390.514"	"229.751"	"120.721"	"291.867"	"329.709"	"48.943"
"1941"	"32.942"	"7.969"	"1.495"	"219.875"	"212.325"	"522.951"	"183.955"	"268.036"	"207.999"	"294.648"	"182.063"	"113.844"
"1942"	"0.204"	"0.315"	"28.204"	"190.669"	"180.967"	"349.069"	"298.185"	"238.877"	"104.306"	"386.289"	"106.271"	"229.632"
"1943"	"67.836"	"12.335"	"30.046"	"170.702"	"319.274"	"435.734"	"260.907"	"92.253"	"102.234"	"354.973"	"242.322"	"41.72"
"1944"	"2.747"	"95.957"	"119.181"	"83.137"	"288.319"	"803.996"	"276.579"	"170.335"	"231.232"	"303.922"	"169.747"	"80.545"
"1945"	"6.808"	"11.509"	"8.383"	"152.367"	"73.186"	"163.973"	"231.223"	"164.786"	"64.151"	"260.505"	"277.595"	"6.879"
"1946"	"2.105"	"1.355"	"102.892"	"133.044"	"130.667"	"632.99"	"183.335"	"301.964"	"246.829"	"252.228"	"292.836"	"225.34"
"1947"	"34.314"	"17.015"	"125.966"	"264.822"	"97.471"	"272.336"	"573.506"	"343.904"	"261.795"	"225.373"	"25.538"	"46.556"
"1948"	"25.035"	"8.958"	"65.911"	"57.693"	"249.558"	"335.811"	"375.472"	"263.861"	"116.301"	"203.417"	"267.018"	"42.996"
"1949"	"12.226"	"0.398"	"0.391"	"105.996"	"335.661"	"317.543"	"437.396"	"345.077"	"195.73"	"157.759"	"130.329"	"0.904"
"1950"	"0.604"	"77.651"	"33.544"	"68.978"	"173.306"	"260.775"	"236.842"	"375.276"	"196.212"	"252.567"	"114.701"	"3.236"
"1951"	"1.737"	"0.315"	"22.574"	"333.182"	"98.794"	"336.288"	"390.629"	"206.742"	"288.523"	"264.717"	"181.157"	"4.948"
"1952"	"95.914"	"125.732"	"28.717"	"127.905"	"267.222"	"311.942"	"239.221"	"240.27"	"40.001"	"303.751"	"70.533"	"59.141"
"1953"	"8.551"	"21.191"	"15.674"	"259.228"	"76.037"	"382.054"	"457.464"	"130.623"	"182.243"	"396.576"	"117.415"	"2.253"
"1954"	"55.678"	"3.578"	"95.673"	"248.614"	"215.624"	"292.834"	"257.346"	"436.466"	"131.786"	"218.324"	"29.641"	"88.946"
"1955"	"3.949"	"10.628"	"6.246"	"213.476"	"449.045"	"524.456"	"262.082"	"141.906"	"330.007"	"379.153"	"221.472"	"57.266"
"1956"	"36.712"	"48.611"	"1.867"	"190.029"	"161.922"	"848.204"	"157.881"	"340.081"	"152.64"	"394.311"	"217.106"	"6.868"
"1957"	"1.173"	"8.556"	"19.052"	"69.24"	"388.583"	"1009.215"	"551.657"	"172.905"	"102.885"	"236.97"	"206.037"	"16.291"
"1958"	"3.785"	"43.171"	"50.209"	"124.948"	"445.454"	"387.814"	"146.129"	"276.388"	"75.399"	"193.603"	"199.187"	"12.809"
"1959"	"1.856"	"12.014"	"5.699"	"272.05"	"242.67"	"550.303"	"385.158"	"161.905"	"234.531"	"273.493"	"197.928"	"67.089"
"1960"	"0.315"	"13.727"	"32.001"	"160.045"	"297.213"	"161.648"	"534.122"	"110.816"	"207.484"	"243.075"	"372.326"	"11.763"
"1961"	"44.29"	"89.568"	"38.268"	"96.262"	"396.643"	"425.229"	"358.81"	"292.21"	"262.207"	"266.206"	"65.553"	"21.328"
"1962"	"49.947"	"107.617"	"30.429"	"84.731"	"515.577"	"66.182"	"319.332"	"305.775"	"215.575"	"426.751"	"44.221"	"87.147"
"1963"	"36.812"	"11.89"	"135.715"	"78.029"	"66.736"	"430.001"	"522.248"	"255.541"	"211.62"	"192.906"	"203.306"	"71.482"
"1964"	"0.356"	"4.476"	"139.169"	"25.957"	"92.244"	"188.898"	"618.137"	"244.998"	"222.301"	"271.782"	"146.108"	"86.768"
"1965"	"1.67"	"26.211"	"32.403"	"97.675"	"220.641"	"191.834"	"173.051"	"275.823"	"215.912"	"209.577"	"180.908"	"142.372"
"1966"	"8.189"	"16.406"	"28.765"	"126.691"	"91.99"	"429.494"	"144.425"	"343.449"	"264.326"	"449.162"	"244.036"	"143.737"
"1967"	"46.117"	"0.44"	"114.623"	"31.702"	"235.306"	"515.809"	"229.24"	"264.115"	"85.068"	"254.262"	"74.308"	"62.161"
"1968"	"0.31"	"43.023"	"97.232"	"352.885"	"38.293"	"226.5"	"457.338"	"168.553"	"163.691"	"139.141"	"159.574"	"21.742"
"1969"	"19.486"	"9.292"	"14.285"	"137.916"	"174.661"	"258.01"	"331.148"	"197.337"	"136.006"	"316.834"	"72.654"	"44.092"
"1970"	"83.399"	"16.122"	"29.305"	"251.18"	"214.66"	"303.555"	"273.673"	"316.18"	"184.291"	"260.595"	"198.554"	"5.453"
"1971"	"23.346"	"33.061"	"26.523"	"101.797"	"200.789"	"392.242"	"291.264"	"433.771"	"265.859"	"184.081"	"26.956"	"128.031"
"1972"	"8.66"	"0.709"	"0.507"	"67.971"	"472.289"	"763.383"	"295.049"	"168.645"	"251.823"	"374.649"	"176.101"	"245.983"
"1973"	"0.157"	"2.994"	"5.496"	"123.705"	"95.172"	"303.256"	"418.636"	"177.351"	"102.793"	"249.447"	"94.049"	"42.473"
"1974"	"0.157"	"36.179"	"19.734"	"133.304"	"223.712"	"107.864"	"363.588"	"235.682"	"366.877"	"112.517"	"84.536"	"12.031"
"1975"	"1.277"	"23.023"	"115.829"	"162.286"	"157.353"	"297.619"	"875.201"	"305.38"	"312.767"	"373.353"	"245.189"	"23.443"
"1976"	"0.734"	"0.257"	"29.716"	"209.174"	"82.846"	"217.689"	"193.988"	"241.745"	"173.338"	"257.359"	"315.212"	"60.025"
"1977"	"0.157"	"30.513"	"56.551"	"98.523"	"369.608"	"347.081"	"227.527"	"261.07"	"241.873"	"459.793"	"356.259"	"24.797"
"1978"	"1.282"	"48.24"	"8.247"	"90.272"	"185.454"	"211.671"	"338.931"	"186.48"	"159.79"	"153.439"	"224.68"	"30.569"
"1979"	"20.311"	"109.621"	"29.532"	"69.618"	"116.587"	"383.747"	"305.538"	"167.044"	"228.441"	"223.686"	"383.937"	"47.789"
"1980"	"0.486"	"8.124"	"25.759"	"160.268"	"164.603"	"384.576"	"333.196"	"216.173"	"98.973"	"304.722"	"151.284"	"117.659"
"1981"	"8.406"	"8.578"	"50.708"	"97.917"	"218.147"	"407.366"	"526.896"	"263.444"	"335.886"	"311.023"	"162.364"	"17.696"
"1982"	"0.157"	"0.257"	"11.999"	"67.186"	"230.315"	"496.061"	"247.713"	"200.825"	"75.998"	"129.647"	"184.42"	"13.073"
"1983"	"0.157"	"0.257"	"0.383"	"47.247"	"184.279"	"341.402"	"335.583"	"298.357"	"255.605"	"129.005"	"204.587"	"151.877"
"1984"	"52.179"	"103.685"	"83.686"	"142.303"	"50.488"	"291.341"	"481.472"	"112.389"	"169.711"	"242.049"	"52.039"	"39.754"
"1985"	"57.354"	"32.717"	"32.272"	"67.761"	"178.523"	"263.917"	"292.566"	"199.618"	"156.198"	"165.308"	"207.887"	"27.44"
"1986"	"54.873"	"50.423"	"4.323"	"128.835"	"141.007"	"272.76"	"342.251"	"262.706"	"218.46"	"142.123"	"212.201"	"30.12"
"1987"	"1.105"	"0.257"	"30.185"	"130.274"	"197.321"	"268.632"	"106.56"	"426.253"	"126.688"	"396.111"	"154.684"	"241.197"
"1988"	"0.157"	"8.984"	"25.77"	"195.491"	"121.883"	"682.94"	"540.962"	"350.995"	"478.3"	"24.182"	"142.549"	"42.745"
"1989"	"34.235"	"0.257"	"17.204"	"93.261"	"127.852"	"441.253"	"514.114"	"145.246"	"206.507"	"321.914"	"65.709"	"14.088"
"1990"	"9.43"	"12.77"	"17.61"	"32.302"	"288.029"	"324.423"	"322.418"	"118.706"	"85.431"	"334.715"	"229.536"	"28.338"
"1991"	"4.965"	"16.233"	"26.388"	"94.418"	"158.782"	"863.566"	"386.97"	"216.507"	"61.12"	"402.628"	"90.345"	"6.861"
"1992"	"8.619"	"0.257"	"0.383"	"31.763"	"198.264"	"648.905"	"425.351"	"217.704"	"150.067"	"332.699"	"238.896"	"17.65"
"1993"	"0.72"	"3.996"	"36.469"	"65.604"	"129.185"	"535.417"	"392.65"	"143.864"	"101.675"	"370.271"	"360.748"	"161.616"
"1994"	"12.06"	"52.143"	"25.894"	"105.678"	"190.402"	"231.815"	"401.114"	"214.656"	"91.774"	"378.643"	"106.647"	"24.009"
"1995"	"52.809"	"7.877"	"23.182"	"163.291"	"323.677"	"303.721"	"275.738"	"215.368"	"153.568"	"235.903"	"147.504"	"1.289"
"1996"	"16.464"	"16.064"	"2.071"	"280.031"	"76.799"	"622.32"	"328.176"	"319.149"	"203.729"	"347.219"	"65.375"	"60.774"
"1997"	"13.853"	"0.257"	"46.099"	"100.906"	"119.897"	"323.801"	"319.406"	"231.53"	"383.145"	"363.185"	"364.353"	"74.275"
"1998"	"3.301"	"1.685"	"0.797"	"149.714"	"259.446"	"256.55"	"458.415"	"444.988"	"332.959"	"388.369"	"232.953"	"139.916"
"1999"	"7.754"	"76.277"	"30.291"	"161.382"	"322.071"	"339.023"	"278.996"	"132.721"	"84.529"	"412.453"	"138.576"	"12.336"
"2000"	"2.842"	"70.11"	"20.325"	"173.538"	"35.012"	"285.638"	"191.509"	"604.035"	"257.829"	"292.497"	"86.93"	"64.771"
"2001"	"10.848"	"19.739"	"4.381"	"333.61"	"156.057"	"449.42"	"469.779"	"270.865"	"398.652"	"256.628"	"118.229"	"22.929"
"2002"	"0.518"	"12.41"	"24.675"	"56.282"	"274.097"	"359.869"	"87.745"	"126.865"	"67.853"	"454.044"	"190.838"	"9.773"
