
"Year"	"Jan"	"Feb"	"Mar"	"Apr"	"May"	"Jun"	"Jul"	"Aug"	"Sep"	"Oct"	"Nov"	"Dec"
"1901"	"9.03"	"0.025"	"3.181"	"1.444"	"11.182"	"72.355"	"253.918"	"202.664"	"41.631"	"36.102"	"0.216"	"0"
"1902"	"4.064"	"0"	"0"	"0.87"	"1.992"	"50.603"	"223.015"	"129.912"	"153.055"	"30.41"	"51.43"	"16.337"
"1903"	"0.604"	"0"	"0"	"0"	"10.145"	"113.353"	"376.721"	"195.47"	"211.383"	"12.637"	"0.216"	"0"
"1904"	"0"	"1.53"	"2.848"	"0"	"14.917"	"70.421"	"135.021"	"59.587"	"129.707"	"15.222"	"0.216"	"2.873"
"1905"	"0"	"0.286"	"0"	"0"	"7.429"	"48.744"	"386.232"	"102.506"	"184.145"	"0.44"	"0.365"	"0"
"1906"	"0"	"1.172"	"0.578"	"0"	"0.342"	"216.907"	"320.08"	"199.498"	"204.351"	"1.837"	"0.216"	"4.109"
"1907"	"5.404"	"2.87"	"0"	"3.258"	"0.592"	"74.4"	"292.276"	"179.983"	"23.635"	"0.301"	"11.505"	"0.035"
"1908"	"1.884"	"0"	"3.484"	"1.765"	"0"	"140.764"	"305.785"	"149.002"	"50.232"	"1.547"	"0.83"	"0.082"
"1909"	"1.509"	"0.058"	"0.451"	"3.616"	"11.265"	"89.338"	"225.017"	"171.953"	"196.326"	"0.488"	"0.216"	"31.183"
"1910"	"0.072"	"0"	"0"	"0.083"	"4.886"	"211.049"	"141.445"	"179.925"	"179.808"	"56.174"	"43.088"	"0"
"1911"	"0.508"	"0"	"0.514"	"0"	"0.031"	"114.344"	"88.459"	"125.338"	"114.996"	"3.209"	"49.19"	"0"
"1912"	"0"	"1.762"	"0"	"0.07"	"1.758"	"67.888"	"304.418"	"167.12"	"48.298"	"4.643"	"82.96"	"0.058"
"1913"	"0"	"0.456"	"0.763"	"0"	"17.141"	"151.113"	"353.604"	"167.419"	"127.137"	"0.942"	"0.227"	"5.576"
"1914"	"0"	"1.333"	"0.755"	"2.451"	"29.584"	"158.687"	"248.871"	"119.464"	"244.351"	"7.149"	"16.55"	"2.775"
"1915"	"2.494"	"5.515"	"13.083"	"4.927"	"4.199"	"119.08"	"197.244"	"112.135"	"162.434"	"97.615"	"2.538"	"8.87"
"1916"	"0"	"2.513"	"0"	"0.237"	"15.188"	"175.406"	"273.436"	"242.255"	"196.934"	"44.751"	"28.215"	"0"
"1917"	"1.58"	"4.29"	"1.187"	"0.811"	"34.037"	"128.183"	"157.024"	"155.438"	"310.11"	"81.936"	"0.216"	"0"
"1918"	"0"	"0.061"	"2.05"	"0"	"22.22"	"102.014"	"92.059"	"112.28"	"32.459"	"1.147"	"19.447"	"0.547"
"1919"	"7.785"	"0.049"	"0.002"	"0.07"	"15.376"	"240.857"	"228.952"	"265.852"	"96.592"	"48.227"	"22.837"	"0.407"
"1920"	"6.516"	"0.021"	"0.756"	"0.528"	"16.849"	"98.747"	"296.672"	"85.148"	"80.655"	"0.301"	"0.216"	"0"
"1921"	"4.033"	"0.222"	"0"	"0"	"0"	"187.867"	"239.366"	"134.328"	"228.681"	"7.665"	"0.216"	"0"
"1922"	"5.024"	"0.662"	"0"	"0.108"	"1.658"	"126.862"	"244.773"	"41.681"	"297.089"	"4.24"	"56.444"	"3.272"
"1923"	"0.025"	"0.611"	"5.014"	"0.604"	"1.589"	"9.119"	"430.573"	"176.806"	"197.701"	"0.854"	"0.983"	"0.667"
"1924"	"6.241"	"0.002"	"0.451"	"0.377"	"17.21"	"58.72"	"217.109"	"200.398"	"174.321"	"75.619"	"0.216"	"11.913"
"1925"	"0"	"0"	"0"	"0"	"21.585"	"116.463"	"133.142"	"106.928"	"59.542"	"0.972"	"57.285"	"1.562"
"1926"	"2.062"	"0.097"	"1.014"	"1.659"	"9.455"	"20.577"	"193.325"	"291.761"	"68.14"	"3.258"	"3.563"	"0.526"
"1927"	"0"	"0.505"	"1.652"	"0.343"	"3.027"	"102.483"	"248.484"	"116.969"	"108.573"	"26.802"	"97.862"	"10.393"
"1928"	"0.497"	"5.729"	"2.562"	"0"	"1.921"	"93.619"	"296.259"	"200.705"	"113.098"	"54.729"	"3.532"	"42.391"
"1929"	"1.04"	"4.485"	"0"	"5.522"	"0.024"	"154.717"	"214.958"	"99.523"	"84.613"	"3.67"	"0.216"	"0.834"
"1930"	"0.372"	"0"	"0"	"0.421"	"9.227"	"150.663"	"322.242"	"136.173"	"354.094"	"7.746"	"7.601"	"0.003"
"1931"	"0.894"	"0.044"	"0.025"	"0.079"	"0.563"	"79.886"	"299.253"	"293.673"	"186.432"	"113.802"	"38.03"	"7.517"
"1932"	"0"	"1.788"	"7.102"	"0.334"	"0"	"79.841"	"456.495"	"116.848"	"270.945"	"23.489"	"0.278"	"0"
"1933"	"0.071"	"1.673"	"0.485"	"0.627"	"18.283"	"219.59"	"240.254"	"276.686"	"322.674"	"16.412"	"12.204"	"10.565"
"1934"	"3.361"	"0"	"0.319"	"0"	"0"	"208.798"	"258.314"	"411.701"	"317.396"	"2.102"	"61.59"	"0.404"
"1935"	"0.682"	"0.058"	"0"	"7.157"	"4.517"	"120.08"	"336.09"	"115.774"	"197.244"	"62.16"	"2.48"	"0.031"
"1936"	"0.046"	"0.488"	"7.452"	"1.522"	"26.605"	"216.766"	"70.981"	"86.949"	"234.171"	"0.305"	"126.181"	"0"
"1937"	"0"	"0.647"	"2.703"	"0.831"	"0"	"165.783"	"325.644"	"53.702"	"252.051"	"32.169"	"0.216"	"4.647"
"1938"	"0.93"	"0"	"3.326"	"0.202"	"41.178"	"353.749"	"367.395"	"161.477"	"127.223"	"98.687"	"0.35"	"0"
"1939"	"0.201"	"0.086"	"5.57"	"0.252"	"0"	"36.421"	"265.895"	"281.167"	"115.526"	"7.606"	"11.956"	"1.346"
"1940"	"2.417"	"0.787"	"4.212"	"1.15"	"17.337"	"192.953"	"342.161"	"220.307"	"91.933"	"53.739"	"38.343"	"1.094"
"1941"	"8.808"	"4.726"	"2.457"	"0.705"	"0"	"19.692"	"275.588"	"210.694"	"125.638"	"0.301"	"0.216"	"0"
"1942"	"7.316"	"1.651"	"0.002"	"0.254"	"1.383"	"87.688"	"396.673"	"283.395"	"127.422"	"0.301"	"0.216"	"12.156"
"1943"	"5.977"	"0"	"0"	"1.9"	"10.689"	"133.532"	"219.063"	"67.667"	"207.02"	"47.608"	"0.216"	"0"
"1944"	"2.525"	"0.35"	"7.96"	"1.429"	"0.712"	"76.893"	"401.129"	"464.519"	"176.055"	"69.155"	"0.421"	"0"
"1945"	"8.1"	"0"	"0"	"0.071"	"0.675"	"54.125"	"256.53"	"219.962"	"290.03"	"5.004"	"0.231"	"0"
"1946"	"0"	"1.379"	"0"	"0.53"	"6.14"	"320.81"	"285.905"	"232.525"	"85.534"	"0.802"	"122.525"	"11.327"
"1947"	"2.58"	"0.738"	"0.851"	"4.115"	"1.364"	"37.226"	"239.154"	"271.343"	"244.094"	"22.14"	"0.216"	"10.934"
"1948"	"9.3"	"1.702"	"1.77"	"1.339"	"2.749"	"230.609"	"256.689"	"178.968"	"148.552"	"7.945"	"66.307"	"1.653"
"1949"	"0"	"0"	"0"	"0.356"	"7.277"	"139.215"	"190.978"	"138.701"	"309.086"	"67.663"	"4.122"	"0"
"1950"	"0.036"	"0.004"	"2.299"	"0.046"	"5.461"	"36.376"	"322.394"	"69.225"	"269.81"	"2.058"	"0.259"	"8.93"
"1951"	"0.116"	"0.296"	"0.426"	"2.523"	"3.403"	"99.948"	"217.181"	"136.099"	"62.933"	"22.217"	"0.262"	"0"
"1952"	"0"	"0.346"	"0.026"	"1.374"	"1.491"	"145.498"	"211.572"	"80.718"	"47.671"	"0.701"	"0.216"	"0.878"
"1953"	"5.565"	"0"	"0"	"0.453"	"0.209"	"75.099"	"237.93"	"201.883"	"113.37"	"17.733"	"0.216"	"0"
"1954"	"8.022"	"0.371"	"1.144"	"0.077"	"0.046"	"40.15"	"270.49"	"164.556"	"462.199"	"23.993"	"0.216"	"0"
"1955"	"11.013"	"0"	"0.108"	"0.097"	"0.527"	"168.314"	"111.9"	"280.949"	"279.967"	"88.825"	"0.216"	"0"
"1956"	"5.632"	"0"	"0"	"1.224"	"11.549"	"158.922"	"246.388"	"133.922"	"150.276"	"21.312"	"28.945"	"1.113"
"1957"	"0.189"	"0"	"5.478"	"1.192"	"5.83"	"98.468"	"181.04"	"212.608"	"77.495"	"12.839"	"8.483"	"0.029"
"1958"	"8.095"	"0"	"1.279"	"1.69"	"10.391"	"109.665"	"241.393"	"277.441"	"224.606"	"33.139"	"59.077"	"0"
"1959"	"13.067"	"0"	"0"	"2.83"	"3.625"	"110.707"	"454.501"	"264.889"	"355.943"	"87.257"	"34.026"	"0"
"1960"	"19.254"	"0"	"5.454"	"1.007"	"10.612"	"179.123"	"173.424"	"238.177"	"78.393"	"36.406"	"0.216"	"0.561"
"1961"	"3.362"	"0.138"	"0.197"	"0.268"	"15.204"	"90.335"	"233.628"	"155.336"	"449.961"	"84.805"	"17.755"	"5.679"
"1962"	"3.544"	"0"	"8.324"	"3.437"	"2.26"	"33.964"	"305.515"	"115.344"	"340.718"	"0.364"	"43.684"	"39.143"
"1963"	"8.492"	"4.778"	"1.503"	"0.046"	"5.904"	"86.883"	"266.321"	"207.718"	"104.207"	"43.732"	"28.78"	"1.247"
"1964"	"0"	"0"	"5.228"	"0"	"2.694"	"227.485"	"226.677"	"213.704"	"193.653"	"10.652"	"0.216"	"0"
"1965"	"7.156"	"0"	"0.774"	"0.827"	"0.516"	"45.267"	"186.685"	"186.463"	"71.591"	"3.76"	"1.087"	"9.357"
"1966"	"4.816"	"0"	"2.4"	"0.002"	"14.995"	"47.323"	"221.947"	"120.97"	"162.766"	"3.519"	"46.573"	"3.893"
"1967"	"0"	"0"	"10.261"	"1.735"	"0.625"	"192.864"	"193.761"	"199.679"	"81.632"	"2.793"	"0.216"	"50.043"
"1968"	"0.433"	"1.991"	"9.713"	"0.538"	"0"	"34.675"	"282.501"	"299.095"	"103.132"	"21.152"	"0.216"	"0.047"
"1969"	"5.262"	"0"	"0"	"0"	"0.21"	"74.694"	"295.849"	"212.284"	"269.589"	"0.301"	"56.123"	"0"
"1970"	"4.924"	"1.624"	"0.684"	"2.593"	"20.405"	"286.696"	"101.477"	"226.288"	"258.113"	"0.99"	"0.216"	"0"
"1971"	"0.024"	"0.312"	"0.063"	"0.038"	"27.777"	"81.576"	"239.984"	"157.171"	"165.407"	"18.797"	"0.216"	"0"
"1972"	"0"	"0.234"	"0"	"0.384"	"3.674"	"88.976"	"102.935"	"262.027"	"89.916"	"0.32"	"15.986"	"0.224"
"1973"	"0"	"1.77"	"0"	"0"	"3.244"	"80.813"	"461.598"	"316.028"	"279.505"	"51.161"	"0.216"	"3.604"
"1974"	"0"	"1.16"	"0"	"3.494"	"25.599"	"64.69"	"171.067"	"315.61"	"109.454"	"69.669"	"0.216"	"0"
"1975"	"0.476"	"0.465"	"0.745"	"0"	"7.001"	"137.543"	"259.597"	"282.988"	"156.532"	"57.014"	"0.216"	"0"
"1976"	"0.645"	"0.262"	"2.172"	"1.58"	"1.763"	"174.538"	"229.468"	"194.731"	"136.024"	"0.301"	"72.291"	"3.105"
"1977"	"0"	"1.988"	"3.546"	"1.23"	"5.73"	"166.95"	"201.715"	"195.735"	"183.728"	"18.231"	"88.113"	"1.861"
"1978"	"4.873"	"5.828"	"2.357"	"4.227"	"0"	"136.731"	"230.838"	"304.459"	"50.773"	"14.68"	"22.076"	"24.807"
"1979"	"14.02"	"2.604"	"1.386"	"0"	"1.545"	"152.223"	"195.472"	"277.458"	"44.359"	"24.501"	"62.912"	"6.41"
"1980"	"0.227"	"0.024"	"0"	"0.003"	"0"	"279.317"	"167.968"	"250.249"	"60.125"	"0.312"	"0.216"	"21.465"
"1981"	"5.67"	"0.033"	"1.647"	"0.238"	"11.331"	"92.962"	"208.893"	"327.048"	"131.918"	"22.486"	"32.212"	"2.116"
"1982"	"14.396"	"3.108"	"1.866"	"1.145"	"11.983"	"84.92"	"198.21"	"134.638"	"93.874"	"32.629"	"40.319"	"0"
"1983"	"0"	"0"	"0.038"	"1.128"	"2.075"	"113.52"	"298.248"	"230.683"	"236.575"	"53.921"	"0.216"	"0.934"
"1984"	"2.217"	"2.868"	"0"	"0"	"0"	"55.503"	"168.422"	"386.416"	"24.398"	"62.933"	"0.761"	"4.101"
"1985"	"0.668"	"0"	"0.245"	"7.299"	"4.036"	"43.628"	"178.43"	"209.308"	"95.414"	"144.558"	"0.216"	"0"
"1986"	"0.663"	"2.851"	"0.571"	"0.031"	"3.265"	"88.699"	"309.731"	"260.476"	"63.514"	"14.314"	"0.216"	"2.243"
"1987"	"3.509"	"2.639"	"3.156"	"0"	"16.195"	"122.007"	"152.047"	"268.571"	"28.322"	"39.073"	"16.057"	"22.194"
"1988"	"0.309"	"0"	"0.013"	"4.234"	"1.021"	"133.76"	"254.708"	"219.267"	"153.27"	"64.986"	"1.818"	"0.078"
"1989"	"0.236"	"0"	"11.647"	"0"	"7.613"	"189.64"	"64.008"	"164.275"	"154.126"	"0.301"	"0.216"	"2.659"
"1990"	"0.468"	"3.646"	"0.036"	"0"	"42.792"	"134.146"	"243.573"	"352.706"	"188.728"	"6.081"	"4.134"	"18.168"
"1991"	"0"	"0.074"	"1.06"	"0.49"	"2.898"	"192.272"	"285.752"	"118.929"	"19.56"	"1.679"	"5.278"	"0.58"
"1992"	"0.271"	"0.284"	"0"	"0"	"20.983"	"86.446"	"104.514"	"159.584"	"263.248"	"34.228"	"0.217"	"0"
"1993"	"0"	"0.109"	"2.097"	"0"	"5.06"	"140.607"	"303.799"	"172.855"	"169.808"	"9.342"	"1.766"	"1.771"
"1994"	"19.977"	"0.129"	"3.754"	"1.385"	"5.542"	"263.002"	"219.153"	"283.969"	"176.508"	"1.711"	"1.129"	"0"
"1995"	"7.017"	"0.047"	"7.269"	"1.253"	"14.286"	"66.968"	"397.562"	"138.57"	"147.481"	"43.746"	"0.805"	"1.193"
"1996"	"8.501"	"0.429"	"2.487"	"2.262"	"9.96"	"67.712"	"488.917"	"190.829"	"140.355"	"39.947"	"1.698"	"0"
"1997"	"4.155"	"0"	"0"	"4.777"	"2.298"	"160.31"	"345.496"	"245.282"	"40.089"	"31.179"	"49.861"	"23.83"
"1998"	"4.068"	"0.182"	"4.088"	"0.531"	"9.237"	"67.697"	"168.991"	"167.147"	"230.471"	"17.885"	"18.428"	"0"
"1999"	"0.304"	"5.801"	"0"	"0"	"2.114"	"197.935"	"138.61"	"111.14"	"280.829"	"80.688"	"0.216"	"2.319"
"2000"	"0"	"0.47"	"0"	"0"	"25.594"	"102.153"	"267.638"	"116.745"	"18.357"	"13.527"	"0.34"	"0"
"2001"	"1.194"	"0"	"2.647"	"0.085"	"16.315"	"284.939"	"141.214"	"77.996"	"8.721"	"40.135"	"0.591"	"0"
"2002"	"0.127"	"6.815"	"5.335"	"7.439"	"3.144"	"198.411"	"28.125"	"223.25"	"104.069"	"1.535"	"5.384"	"0.408"
