
"Year"	"Jan"	"Feb"	"Mar"	"Apr"	"May"	"Jun"	"Jul"	"Aug"	"Sep"	"Oct"	"Nov"	"Dec"
"1901"	"21.861"	"23.66"	"26.697"	"29.355"	"29.818"	"31.899"	"28.927"	"28.597"	"28.779"	"28.697"	"24.453"	"21.662"
"1902"	"22.273"	"24.155"	"27.985"	"28.462"	"29.901"	"30.726"	"28.53"	"29.192"	"29.192"	"28.382"	"24.552"	"21.959"
"1903"	"22.736"	"23.264"	"27.673"	"29.851"	"30.89"	"29.934"	"29.124"	"28.878"	"28.581"	"27.805"	"24.254"	"20.969"
"1904"	"21.762"	"23.363"	"27.192"	"29.437"	"29.123"	"28.663"	"28.134"	"28.299"	"28.581"	"28.102"	"24.354"	"22.257"
"1905"	"21.745"	"22.653"	"26.483"	"27.472"	"28.827"	"32.295"	"28.431"	"29.29"	"28.581"	"27.92"	"24.651"	"21.464"
"1906"	"22.34"	"24.04"	"25.904"	"30.048"	"30.609"	"29.934"	"29.025"	"28.976"	"29.076"	"28.184"	"24.75"	"22.554"
"1907"	"22.175"	"24.52"	"26.302"	"27.192"	"28.744"	"29.257"	"28.911"	"27.92"	"28.795"	"28.283"	"25.411"	"21.167"
"1908"	"20.291"	"24.139"	"26.516"	"30.032"	"29.718"	"29.636"	"28.134"	"27.722"	"28.581"	"27.805"	"23.759"	"20.589"
"1909"	"23.066"	"23.957"	"27.275"	"26.416"	"29.421"	"28.365"	"27.755"	"28.581"	"28.481"	"27.789"	"24.947"	"22.042"
"1910"	"21.861"	"23.841"	"26.681"	"28.76"	"29.999"	"29.257"	"28.332"	"28.497"	"28.382"	"27.326"	"23.379"	"20.87"
"1911"	"22.967"	"23.165"	"26.4"	"28.149"	"29.504"	"28.167"	"29.208"	"28.118"	"28.399"	"27.789"	"25.229"	"21.266"
"1912"	"22.257"	"24.453"	"27.787"	"28.562"	"30.396"	"29.95"	"28.332"	"28.299"	"28.614"	"27.789"	"23.577"	"20.308"
"1913"	"21.002"	"23.759"	"26.4"	"28.86"	"28.942"	"28.265"	"28.216"	"28.299"	"28.779"	"27.309"	"23.56"	"21.464"
"1914"	"21.58"	"24.354"	"26.499"	"27.192"	"27.754"	"28.663"	"28.035"	"28.299"	"28.2"	"27.789"	"24.734"	"21.959"
"1915"	"22.075"	"23.957"	"26.599"	"28.66"	"29.504"	"30.033"	"29.025"	"29.274"	"28.481"	"28.415"	"25.74"	"20.985"
"1916"	"21.068"	"24.04"	"27.176"	"28.545"	"30.412"	"28.562"	"28.811"	"28.497"	"28.581"	"27.903"	"24.734"	"21.068"
"1917"	"21.068"	"22.984"	"25.294"	"28.249"	"27.555"	"28.365"	"28.513"	"28.464"	"28.382"	"27.789"	"24.354"	"21.364"
"1918"	"20.392"	"23.264"	"26.697"	"28.149"	"28.529"	"27.673"	"29.604"	"28.299"	"28.993"	"28.399"	"25.707"	"21.845"
"1919"	"22.753"	"23.743"	"27.275"	"28.942"	"29.818"	"28.562"	"28.53"	"28.118"	"28.779"	"27.789"	"24.651"	"21.282"
"1920"	"21.48"	"23.66"	"26.895"	"28.166"	"29.139"	"29.636"	"27.474"	"28.299"	"28.581"	"27.805"	"24.651"	"20.788"
"1921"	"21.381"	"22.884"	"27.375"	"28.562"	"31.964"	"29.041"	"28.249"	"28.003"	"28.003"	"26.632"	"22.884"	"21.58"
"1922"	"20.902"	"23.56"	"27.292"	"28.86"	"30.131"	"28.265"	"27.375"	"27.722"	"27.425"	"26.236"	"23.577"	"20.209"
"1923"	"20.209"	"22.868"	"24.931"	"28.182"	"30.115"	"31.106"	"28.134"	"27.624"	"28.299"	"27.309"	"23.593"	"21.199"
"1924"	"21.199"	"23.66"	"27.094"	"29.851"	"28.744"	"31.106"	"28.614"	"28.299"	"28.086"	"27.607"	"23.957"	"20.589"
"1925"	"20.491"	"22.852"	"26.995"	"28.562"	"30.181"	"29.339"	"27.358"	"28.332"	"28.481"	"26.913"	"24.155"	"20.11"
"1926"	"20.788"	"24.04"	"26.102"	"28.446"	"29.619"	"31.685"	"28.713"	"27.903"	"28.481"	"26.83"	"23.165"	"21.564"
"1927"	"22.142"	"24.321"	"26.863"	"29.619"	"30.396"	"30.726"	"28.216"	"28.299"	"28.581"	"27.805"	"24.155"	"21.861"
"1928"	"22.058"	"24.354"	"27.375"	"28.265"	"29.802"	"28.265"	"28.216"	"28.497"	"28.795"	"27.903"	"24.569"	"21.975"
"1929"	"22.455"	"22.868"	"27.275"	"29.255"	"30.99"	"29.72"	"27.557"	"27.92"	"28.481"	"26.83"	"24.155"	"21.943"
"1930"	"21.348"	"22.769"	"27.176"	"28.86"	"29.52"	"29.836"	"28.134"	"28.019"	"28.581"	"28.003"	"23.775"	"21.068"
"1931"	"22.455"	"24.536"	"27.275"	"30.032"	"30.099"	"31.899"	"28.035"	"28.299"	"28.779"	"27.508"	"24.155"	"21.48"
"1932"	"22.026"	"22.967"	"26.895"	"28.843"	"29.636"	"30.132"	"27.854"	"28.184"	"28.581"	"28.399"	"24.75"	"21.861"
"1933"	"21.068"	"23.181"	"26.995"	"28.644"	"28.644"	"28.959"	"27.936"	"28.299"	"28.382"	"27.805"	"24.453"	"21.662"
"1934"	"20.886"	"23.264"	"27.176"	"29.734"	"31.7"	"29.257"	"28.216"	"28.102"	"28.481"	"27.409"	"23.462"	"21.762"
"1935"	"21.266"	"24.155"	"27.078"	"28.265"	"31.584"	"30.132"	"27.838"	"28.2"	"28.497"	"27.903"	"24.354"	"22.159"
"1936"	"22.919"	"23.446"	"27.375"	"29.339"	"28.843"	"29.141"	"28.019"	"28.003"	"28.168"	"27.111"	"25.526"	"22.241"
"1937"	"20.573"	"23.759"	"26.599"	"27.687"	"29.718"	"29.339"	"28.216"	"28.299"	"28.184"	"27.326"	"24.552"	"20.886"
"1938"	"22.852"	"22.769"	"28.068"	"29.355"	"28.811"	"27.886"	"27.838"	"28.003"	"28.382"	"27.309"	"23.281"	"20.985"
"1939"	"21.762"	"24.155"	"26.499"	"29.453"	"30.412"	"29.538"	"27.541"	"28.299"	"28.283"	"28.102"	"23.89"	"21.282"
"1940"	"19.995"	"23.264"	"25.805"	"29.339"	"28.942"	"29.225"	"27.557"	"28.019"	"28.581"	"27.903"	"26.22"	"21.959"
"1941"	"22.538"	"24.057"	"27.689"	"30.131"	"29.917"	"29.157"	"28.134"	"28.795"	"28.581"	"27.607"	"23.281"	"22.554"
"1942"	"21.893"	"23.857"	"27.474"	"28.446"	"30.758"	"30.298"	"28.019"	"27.986"	"27.986"	"27.789"	"24.171"	"21.861"
"1943"	"22.356"	"22.075"	"26.599"	"27.671"	"29.901"	"29.587"	"28.134"	"27.706"	"28.481"	"27.887"	"24.782"	"21.877"
"1944"	"22.026"	"23.082"	"25.921"	"27.274"	"30.396"	"30.017"	"27.92"	"28.2"	"28.862"	"27.789"	"24.437"	"22.72"
"1945"	"21.183"	"23.643"	"27.656"	"28.446"	"30.577"	"30.709"	"28.415"	"28.68"	"28.779"	"27.309"	"24.04"	"20.804"
"1946"	"21.085"	"24.75"	"27.673"	"26.91"	"28.942"	"28.86"	"28.134"	"28.2"	"28.399"	"27.789"	"25.823"	"22.951"
"1947"	"22.241"	"23.726"	"27.49"	"30.428"	"30.791"	"29.934"	"28.134"	"28.118"	"28.581"	"27.508"	"24.947"	"21.778"
"1948"	"22.159"	"24.057"	"26.499"	"28.744"	"29.901"	"30.709"	"28.332"	"28.299"	"28.399"	"27.805"	"25.542"	"20.886"
"1949"	"21.861"	"23.643"	"27.176"	"28.446"	"29.206"	"30.215"	"28.614"	"28.003"	"28.184"	"27.903"	"23.478"	"21.845"
"1950"	"21.861"	"23.743"	"26.004"	"29.239"	"29.917"	"28.959"	"27.738"	"28.2"	"28.497"	"27.624"	"23.676"	"21.068"
"1951"	"20.87"	"23.726"	"26.78"	"28.066"	"30.115"	"29.737"	"28.348"	"28.597"	"29.274"	"28.299"	"24.75"	"21.959"
"1952"	"22.058"	"24.437"	"26.118"	"28.562"	"30.115"	"30.429"	"28.332"	"28.003"	"28.481"	"27.524"	"24.634"	"22.836"
"1953"	"21.861"	"25.213"	"28.959"	"30.428"	"31.469"	"30.132"	"28.614"	"28.299"	"28.581"	"28.003"	"24.254"	"22.257"
"1954"	"21.085"	"25.428"	"26.796"	"30.444"	"30.23"	"28.464"	"28.828"	"28.697"	"28.102"	"27.013"	"23.379"	"22.159"
"1955"	"21.364"	"24.634"	"27.573"	"29.172"	"29.52"	"30.132"	"28.134"	"28.497"	"28.283"	"27.226"	"23.873"	"21.646"
"1956"	"22.736"	"22.868"	"27.689"	"29.95"	"29.603"	"27.308"	"27.838"	"28.299"	"28.299"	"27.111"	"24.271"	"22.34"
"1957"	"22.852"	"23.925"	"26.02"	"29.371"	"31.897"	"31.403"	"28.332"	"28.597"	"28.779"	"28.299"	"25.147"	"23.132"
"1958"	"23.544"	"24.717"	"27.192"	"30.048"	"31.386"	"31.998"	"28.035"	"28.795"	"28.497"	"28.019"	"25.147"	"22.653"
"1959"	"22.356"	"24.321"	"27.49"	"29.271"	"31.007"	"29.653"	"28.415"	"28.102"	"28.366"	"27.21"	"24.04"	"21.364"
"1960"	"21.266"	"24.354"	"26.416"	"30.048"	"30.807"	"30.314"	"27.936"	"28.299"	"29.456"	"27.986"	"24.453"	"23.132"
"1961"	"22.075"	"22.091"	"28.167"	"29.851"	"30.412"	"29.339"	"27.738"	"28.68"	"27.706"	"26.913"	"23.775"	"20.291"
"1962"	"19.995"	"23.56"	"26.995"	"28.562"	"30.609"	"29.257"	"28.646"	"28.299"	"28.878"	"27.309"	"24.354"	"22.356"
"1963"	"20.788"	"24.75"	"27.094"	"28.347"	"29.107"	"29.339"	"28.134"	"28.697"	"28.581"	"27.772"	"25.823"	"22.241"
"1964"	"23.132"	"24.931"	"28.167"	"29.057"	"29.619"	"30.611"	"27.838"	"28.102"	"28.581"	"28.003"	"25.147"	"22.257"
"1965"	"22.142"	"24.155"	"26.499"	"28.166"	"30.296"	"30.792"	"27.821"	"28.299"	"28.382"	"27.772"	"25.048"	"22.175"
"1966"	"20.902"	"24.75"	"26.995"	"28.166"	"31.188"	"29.339"	"29.208"	"29.473"	"29.754"	"28.086"	"26.517"	"22.075"
"1967"	"21.48"	"25.213"	"26.201"	"28.462"	"30.692"	"31.007"	"28.811"	"28.299"	"28.565"	"28.086"	"25.131"	"24.503"
"1968"	"22.438"	"24.42"	"27.375"	"28.843"	"30.494"	"29.025"	"28.911"	"28.299"	"28.779"	"27.013"	"24.37"	"22.058"
"1969"	"22.241"	"26.187"	"28.746"	"29.818"	"29.222"	"30.412"	"28.431"	"28.299"	"28.862"	"28.862"	"26.02"	"22.455"
"1970"	"22.637"	"25.51"	"27.275"	"28.86"	"29.504"	"28.844"	"28.216"	"28.68"	"28.581"	"27.772"	"23.857"	"20.689"
"1971"	"21.861"	"23.66"	"26.004"	"26.299"	"26.564"	"27.275"	"27.045"	"26.731"	"28.283"	"27.805"	"25.51"	"21.464"
"1972"	"22.637"	"23.346"	"27.968"	"29.355"	"31.485"	"31.8"	"28.713"	"28.878"	"28.878"	"28.382"	"25.74"	"23.726"
"1973"	"24.008"	"25.609"	"26.978"	"30.23"	"29.52"	"30.809"	"28.332"	"28.497"	"28.581"	"27.789"	"24.171"	"21.447"
"1974"	"22.538"	"24.139"	"27.094"	"28.86"	"29.52"	"30.033"	"28.431"	"29.176"	"28.96"	"28.003"	"24.667"	"20.985"
"1975"	"20.772"	"24.155"	"27.209"	"28.562"	"30.016"	"29.339"	"27.722"	"28.118"	"27.805"	"27.986"	"23.462"	"20.87"
"1976"	"21.167"	"24.139"	"27.49"	"28.379"	"28.942"	"29.538"	"28.2"	"27.903"	"28.779"	"28.565"	"26.302"	"22.159"
"1977"	"21.679"	"24.122"	"27.689"	"27.852"	"27.952"	"28.365"	"28.035"	"28.464"	"28.878"	"27.789"	"25.74"	"21.778"
"1978"	"21.348"	"23.743"	"26.4"	"27.869"	"29.934"	"29.339"	"27.936"	"27.821"	"28.399"	"28.2"	"25.823"	"22.373"
"1979"	"22.455"	"23.478"	"26.78"	"28.676"	"30.313"	"29.058"	"29.39"	"29.059"	"28.102"	"28.382"	"26.45"	"22.554"
"1980"	"22.455"	"24.999"	"26.812"	"29.156"	"29.323"	"28.265"	"27.458"	"27.706"	"28.976"	"27.409"	"24.734"	"22.356"
"1981"	"21.464"	"25.131"	"26.796"	"28.149"	"28.644"	"29.737"	"28.713"	"28.795"	"28.581"	"28.481"	"25.245"	"22.058"
"1982"	"23.429"	"24.817"	"26.599"	"28.76"	"30.329"	"29.636"	"29.918"	"28.102"	"29.258"	"28.976"	"26.12"	"23.33"
"1983"	"22.836"	"23.941"	"27.573"	"28.363"	"29.222"	"30.709"	"28.927"	"28.597"	"28.779"	"27.789"	"25.048"	"21.762"
"1984"	"22.159"	"23.363"	"27.573"	"29.255"	"30.213"	"28.844"	"28.431"	"28.299"	"28.779"	"28.283"	"24.453"	"22.852"
"1985"	"22.455"	"23.957"	"27.407"	"28.379"	"27.952"	"28.546"	"26.566"	"26.55"	"28.581"	"25.361"	"23.363"	"21.877"
"1986"	"20.209"	"23.363"	"26.302"	"27.208"	"27.373"	"27.771"	"27.259"	"27.722"	"27.706"	"26.136"	"23.676"	"21.381"
"1987"	"20.028"	"22.29"	"24.947"	"27.01"	"28.265"	"29.141"	"27.176"	"27.441"	"27.903"	"26.731"	"23.198"	"20.126"
"1988"	"20.209"	"22.487"	"25.442"	"26.514"	"27.192"	"26.599"	"26.978"	"29.176"	"29.076"	"28.299"	"25.444"	"23.446"
"1989"	"21.861"	"24.734"	"27.458"	"29.405"	"29.619"	"28.762"	"28.614"	"28.497"	"28.581"	"28.283"	"25.131"	"21.662"
"1990"	"23.232"	"24.337"	"25.327"	"27.687"	"28.149"	"29.173"	"28.051"	"28.697"	"28.497"	"27.029"	"24.964"	"22.058"
"1991"	"21.679"	"25.609"	"28.084"	"28.86"	"29.917"	"29.141"	"28.927"	"29.29"	"29.341"	"27.805"	"24.155"	"21.464"
"1992"	"21.381"	"23.925"	"26.796"	"28.876"	"29.107"	"29.737"	"28.431"	"28.332"	"28.862"	"28.283"	"24.75"	"21.548"
"1993"	"22.356"	"24.42"	"26.499"	"27.901"	"29.123"	"29.339"	"28.63"	"29.009"	"28.283"	"28.102"	"25.245"	"22.159"
"1994"	"22.356"	"23.857"	"27.656"	"28.265"	"30.213"	"29.388"	"28.035"	"28.216"	"28.993"	"27.903"	"24.947"	"21.959"
"1995"	"21.381"	"23.941"	"27.209"	"29.271"	"29.437"	"29.852"	"28.216"	"29.176"	"28.779"	"27.805"	"25.048"	"22.455"
"1996"	"22.554"	"24.04"	"27.656"	"28.363"	"30.494"	"28.595"	"29.041"	"27.821"	"28.976"	"27.524"	"25.147"	"22.075"
"1997"	"21.548"	"23.941"	"27.292"	"26.977"	"29.437"	"30.231"	"28.713"	"28.497"	"28.481"	"27.805"	"26.037"	"22.736"
"1998"	"21.91"	"24.536"	"26.185"	"28.281"	"29.917"	"30.215"	"28.348"	"28.713"	"28.878"	"28.697"	"26.22"	"22.455"
"1999"	"22.159"	"25.526"	"28.464"	"30.131"	"29.222"	"29.241"	"28.513"	"28.68"	"28.581"	"28.2"	"25.048"	"22.373"
"2000"	"22.637"	"24.139"	"27.243"	"29.239"	"29.603"	"29.041"	"28.249"	"28.811"	"28.976"	"28.2"	"25.74"	"21.778"
"2001"	"21.762"	"25.229"	"27.59"	"29.255"	"29.901"	"28.844"	"28.614"	"28.811"	"29.771"	"28.597"	"26.136"	"22.356"
"2002"	"23.049"	"25.031"	"27.985"	"28.66"	"30.197"	"29.339"	"28.927"	"28.497"	"29.258"	"28.184"	"24.947"	"22.356"
