
"Year"	"Jan"	"Feb"	"Mar"	"Apr"	"May"	"Jun"	"Jul"	"Aug"	"Sep"	"Oct"	"Nov"	"Dec"
"1901"	"33.114"	"11.204"	"57.958"	"394.103"	"354.635"	"852.425"	"542.652"	"500.462"	"453.192"	"367.423"	"162.045"	"0.799"
"1902"	"2.782"	"6.657"	"90.605"	"378.258"	"383.527"	"1131.948"	"909.062"	"737.094"	"511.27"	"49.961"	"4.804"	"0.476"
"1903"	"4.12"	"25.975"	"150.958"	"262.411"	"306.847"	"1001.618"	"643.331"	"945.971"	"188.71"	"128.98"	"134.363"	"0.702"
"1904"	"5.264"	"97.92"	"82.869"	"821.506"	"531.668"	"516.699"	"534.175"	"662.378"	"226.183"	"102.916"	"59.392"	"2.122"
"1905"	"6.007"	"16.618"	"213.213"	"165.576"	"521.176"	"750.385"	"692.67"	"1114.727"	"564.533"	"534.24"	"14.35"	"12.944"
"1906"	"10.355"	"130.326"	"85.225"	"467.65"	"299.803"	"519.131"	"1096.26"	"1035.757"	"416.534"	"175.839"	"43.905"	"0.044"
"1907"	"27.813"	"115.964"	"140.092"	"293.396"	"218.131"	"815.379"	"866.723"	"476.539"	"340.415"	"76.454"	"2.669"	"5.506"
"1908"	"9.613"	"18.706"	"14.135"	"215.631"	"466.65"	"722.207"	"611.294"	"328.414"	"568.156"	"120.92"	"3.522"	"0.773"
"1909"	"12.284"	"22.341"	"5.579"	"237.478"	"685.724"	"947.904"	"426.486"	"655.387"	"187.892"	"201.475"	"19.095"	"4.141"
"1910"	"4.267"	"50.913"	"354.507"	"276.665"	"355.292"	"1112.464"	"1059.176"	"730.63"	"262.232"	"246.321"	"47.078"	"2.732"
"1911"	"36.275"	"33.461"	"80.592"	"422.843"	"953.135"	"1200.899"	"774.202"	"676.403"	"504.752"	"606.441"	"9.771"	"0.701"
"1912"	"6.928"	"97.579"	"208.233"	"275.372"	"195.667"	"768.293"	"648.545"	"604.723"	"354.244"	"434.253"	"110.897"	"16.999"
"1913"	"6.164"	"101.648"	"146.804"	"496.582"	"608.093"	"798.958"	"535.951"	"548.722"	"384.873"	"399.813"	"8.365"	"13.655"
"1914"	"0.57"	"82.044"	"90.8"	"145.426"	"546.615"	"906.085"	"511.313"	"871.66"	"247.54"	"77.011"	"2.959"	"9.28"
"1915"	"8.202"	"73.702"	"104.8"	"137.553"	"1466.306"	"664.415"	"1035.882"	"806.76"	"307.671"	"193.805"	"12.958"	"0.864"
"1916"	"6.129"	"24.802"	"227.839"	"370.106"	"1147.019"	"655.295"	"597.27"	"687.608"	"390.27"	"552.437"	"136.347"	"1.863"
"1917"	"0.829"	"117.565"	"36.111"	"169.214"	"550.476"	"932.957"	"669.859"	"548.672"	"252.041"	"312.751"	"164.166"	"0.612"
"1918"	"1.882"	"6.491"	"132.949"	"131.845"	"619.749"	"1422.406"	"931.538"	"754.41"	"456.989"	"106.164"	"0.82"	"0.593"
"1919"	"13"	"4.883"	"12.231"	"136.827"	"463.1"	"765.194"	"693.739"	"356.542"	"597.754"	"514.973"	"63.974"	"0.853"
"1920"	"0.681"	"40.87"	"256.689"	"189.716"	"492.259"	"660.84"	"401.399"	"826.294"	"627.458"	"129.646"	"1.237"	"0.666"
"1921"	"24.819"	"11.936"	"109.737"	"284.897"	"1327.525"	"938.242"	"937.619"	"667.311"	"411.091"	"131.814"	"3.812"	"0.84"
"1922"	"8.839"	"2.722"	"194.382"	"443.375"	"371.25"	"1074.845"	"606.824"	"502.768"	"258.602"	"493.971"	"6.827"	"5.339"
"1923"	"0.568"	"114.004"	"22.661"	"323.188"	"624.608"	"1105.62"	"630.153"	"357.828"	"380.929"	"68.358"	"4.1"	"0.93"
"1924"	"7.364"	"16.059"	"14.922"	"339.728"	"339.103"	"1002.995"	"1015.137"	"673.903"	"570.26"	"128.416"	"178.881"	"0.044"
"1925"	"16.248"	"38.181"	"96.022"	"341.305"	"960.165"	"489.596"	"588.229"	"540.627"	"433.172"	"99.056"	"7.987"	"0.777"
"1926"	"20.962"	"24.194"	"123.569"	"148.101"	"253.098"	"1057.154"	"864.24"	"453.63"	"331.558"	"336.585"	"10.379"	"12.851"
"1927"	"32.417"	"37.44"	"52.574"	"393.296"	"317.648"	"974.15"	"602.293"	"462.78"	"972.994"	"392.347"	"24.418"	"0.044"
"1928"	"5.048"	"22.429"	"105.271"	"91.233"	"650.271"	"762.437"	"769.022"	"487.48"	"514.021"	"456.076"	"11.753"	"0.249"
"1929"	"16.549"	"2.855"	"73.742"	"445.195"	"1134.874"	"934.88"	"577.208"	"465.916"	"404.538"	"142.614"	"18.785"	"5.894"
"1930"	"16.158"	"39.599"	"105.588"	"242.416"	"274.504"	"1098.537"	"298.894"	"815.59"	"356.386"	"258.193"	"178.064"	"0.925"
"1931"	"1.904"	"33.589"	"28.277"	"561.653"	"546.787"	"1224.446"	"1080.332"	"273.875"	"371.837"	"91.608"	"11.944"	"6.014"
"1932"	"7.384"	"42.528"	"30.686"	"143.348"	"1347.999"	"961.713"	"550.719"	"1027.708"	"357.447"	"97.18"	"148.503"	"2.473"
"1933"	"2.601"	"18.368"	"22.524"	"272.406"	"420.645"	"829.478"	"536.417"	"668.718"	"238.759"	"62.478"	"2.206"	"0.252"
"1934"	"20.852"	"85.87"	"19.377"	"423.155"	"572.616"	"1506.775"	"863.272"	"493.654"	"369.959"	"585.742"	"26.274"	"3.335"
"1935"	"1.851"	"38.287"	"57.086"	"110.904"	"672.447"	"1224.665"	"465.736"	"1157.565"	"493.23"	"34.32"	"6.091"	"0.717"
"1936"	"14.958"	"59.602"	"79.826"	"226.901"	"697.764"	"665.296"	"752.1"	"436.995"	"545.937"	"397.268"	"7.245"	"14.442"
"1937"	"0.615"	"39.356"	"21.946"	"92.728"	"717.487"	"730.346"	"642.116"	"717.494"	"225.147"	"96.823"	"1.579"	"2.511"
"1938"	"33.761"	"11.88"	"209.455"	"227.731"	"511.431"	"1293.272"	"804.242"	"867.977"	"880.04"	"159.6"	"60.391"	"0.65"
"1939"	"0.883"	"32.256"	"17.019"	"272.441"	"500.45"	"1175.012"	"741.965"	"426.918"	"566.955"	"247.55"	"3.594"	"0.676"
"1940"	"0.377"	"73.605"	"194.005"	"44.853"	"617.481"	"774.697"	"601.244"	"469.87"	"751.583"	"178.304"	"5.768"	"4.888"
"1941"	"1.841"	"64.4"	"131.504"	"244.791"	"773.583"	"955.391"	"636.387"	"502.904"	"657.121"	"227.347"	"6.276"	"2.441"
"1942"	"20.929"	"28.916"	"217.703"	"162.238"	"769.799"	"1287.047"	"332.072"	"454.427"	"598.368"	"14.818"	"12.597"	"0.044"
"1943"	"15.567"	"54.23"	"169.668"	"217.874"	"770.016"	"856.539"	"593.169"	"557.34"	"634.912"	"63.669"	"4.415"	"1.142"
"1944"	"42.992"	"16.764"	"69.621"	"123.996"	"1394.845"	"653.713"	"429.288"	"419.875"	"607.086"	"159.668"	"6.754"	"4.886"
"1945"	"38.232"	"42.963"	"173.339"	"136.816"	"466.657"	"809.549"	"753.732"	"842.054"	"290.01"	"275.789"	"0.369"	"2.48"
"1946"	"0.796"	"35.926"	"117.5"	"182.125"	"518.456"	"849.782"	"850.702"	"584.623"	"463.072"	"625.411"	"6.459"	"0.051"
"1947"	"3.323"	"7.324"	"66.572"	"471.701"	"728.377"	"858.573"	"944.655"	"384.503"	"655.593"	"474.385"	"4.154"	"9.986"
"1948"	"2.882"	"68.568"	"67.17"	"486.24"	"1176.755"	"1078.751"	"896.915"	"590.562"	"444.001"	"222.432"	"48.203"	"2.4"
"1949"	"9.499"	"12.208"	"122.21"	"500.229"	"547.955"	"1125.207"	"717.992"	"560.062"	"617.536"	"225.619"	"10.41"	"2.881"
"1950"	"5.987"	"83.069"	"109.762"	"235.689"	"393.257"	"648.739"	"555.316"	"769.559"	"261.74"	"289.033"	"96.178"	"1.477"
"1951"	"2.684"	"2.828"	"103.863"	"340.132"	"629.739"	"1028.84"	"1071.044"	"725.379"	"484.099"	"519.963"	"42.451"	"8.357"
"1952"	"12.528"	"1.202"	"129.672"	"191.948"	"555.955"	"630.231"	"989.32"	"637.502"	"611.15"	"406.487"	"82.229"	"0.454"
"1953"	"10.538"	"15.604"	"252.19"	"297.301"	"822.774"	"1043.387"	"603.695"	"511.91"	"653.595"	"269.411"	"16.687"	"0.371"
"1954"	"7.112"	"107.658"	"84.798"	"345.927"	"794.658"	"1240.92"	"874.483"	"586.907"	"378.116"	"266.694"	"0.731"	"12.411"
"1955"	"6.542"	"15.329"	"200.806"	"246.243"	"522.916"	"913.848"	"934.04"	"657.395"	"540.18"	"173.758"	"137.567"	"1.778"
"1956"	"12.313"	"3.23"	"220.879"	"375.788"	"923.655"	"1438.783"	"748.59"	"699.726"	"210.951"	"116.961"	"37.575"	"9.209"
"1957"	"35.218"	"27.033"	"22.909"	"278.302"	"736.964"	"995.25"	"543.266"	"575.748"	"419.345"	"104.575"	"11.613"	"3.219"
"1958"	"10.281"	"132.796"	"19.841"	"220.697"	"847.47"	"652.953"	"661.11"	"834.361"	"551.875"	"364.333"	"2.175"	"12.207"
"1959"	"24.364"	"52.929"	"144.176"	"269.953"	"941.077"	"1198.811"	"652.454"	"534.374"	"453.427"	"372.26"	"8.095"	"3.229"
"1960"	"0"	"3.905"	"59.542"	"91.338"	"527.646"	"605.545"	"994.964"	"406.984"	"467.842"	"79.43"	"17.571"	"3.168"
"1961"	"3.353"	"6.137"	"115.049"	"174.697"	"293.087"	"690.301"	"621.937"	"540.06"	"421.202"	"183.421"	"12.538"	"1.648"
"1962"	"28.918"	"49.426"	"7.932"	"163.121"	"384.717"	"832.319"	"444.319"	"657.391"	"64.262"	"141.459"	"5.537"	"1.932"
"1963"	"0.659"	"14.839"	"100.208"	"283.854"	"491.683"	"917.721"	"757.923"	"542.788"	"424.747"	"167.777"	"19.962"	"1.083"
"1964"	"12.59"	"78.894"	"173.786"	"497.701"	"463.395"	"1239.782"	"1053.249"	"502.662"	"363.444"	"300.468"	"28.719"	"5.383"
"1965"	"1.053"	"90.43"	"107.375"	"163.165"	"331.399"	"976.766"	"643.258"	"641.803"	"461.369"	"119.554"	"90.103"	"5.399"
"1966"	"4.225"	"4.856"	"94.598"	"197.421"	"365.212"	"1115.585"	"813.608"	"860.572"	"362.396"	"210.793"	"29.598"	"29.191"
"1967"	"35.22"	"9.12"	"173.943"	"216.67"	"354.497"	"622.647"	"645.64"	"463.495"	"547.538"	"148.437"	"6.325"	"0.454"
"1968"	"19.492"	"28.048"	"101.161"	"253.739"	"786.161"	"894.731"	"1092.976"	"758.102"	"374.638"	"120.404"	"12.048"	"0.044"
"1969"	"18.575"	"0.702"	"100.027"	"339.174"	"391.021"	"782.045"	"781.906"	"824.945"	"167.869"	"94.87"	"35.149"	"0.861"
"1970"	"37.873"	"58.54"	"204.81"	"390.121"	"570.605"	"937.375"	"1285.626"	"617.6"	"538.345"	"380.062"	"25.231"	"0.044"
"1971"	"14.989"	"14.599"	"47.417"	"105.627"	"148.188"	"747.807"	"614.137"	"600.584"	"294.781"	"367.134"	"108.581"	"2.818"
"1972"	"7.754"	"58.203"	"139.66"	"372.208"	"432.03"	"861.532"	"739.48"	"355.051"	"261.867"	"169.288"	"0.418"	"1.45"
"1973"	"8.039"	"119.638"	"24.091"	"460.446"	"615.906"	"1140.856"	"684.31"	"403.26"	"417.859"	"122.106"	"114.315"	"38.72"
"1974"	"6.332"	"4.18"	"76.956"	"537.293"	"425.774"	"987.633"	"1488.846"	"786.896"	"953.393"	"675.725"	"17.423"	"0.454"
"1975"	"3.022"	"16.461"	"22.169"	"326.788"	"520.943"	"551.652"	"786.263"	"607.612"	"382.4"	"283.855"	"66.115"	"2.228"
"1976"	"0.122"	"23.545"	"183.557"	"197.002"	"353.61"	"1071.5"	"935.145"	"549.287"	"152.089"	"145.797"	"32.679"	"0.85"
"1977"	"2.677"	"56.123"	"195.336"	"747.988"	"722.309"	"831.045"	"644.803"	"753.33"	"219.296"	"319.643"	"65.344"	"10.954"
"1978"	"0.987"	"14.057"	"48.79"	"155.484"	"618.457"	"858.209"	"618.065"	"221.662"	"251.552"	"102.646"	"35.045"	"0.044"
"1979"	"3.556"	"8.278"	"56.925"	"104.896"	"458.452"	"700.997"	"1122.291"	"367.854"	"565.097"	"344.97"	"20.124"	"48.675"
"1980"	"2.122"	"45.759"	"107.701"	"332.523"	"456.498"	"352.79"	"409.077"	"333.373"	"363.993"	"275.697"	"0.369"	"0.272"
"1981"	"25.011"	"37.856"	"127.893"	"288.05"	"702.307"	"396.415"	"746.52"	"642.356"	"354.557"	"58.325"	"0.372"	"35.997"
"1982"	"0.253"	"30.446"	"45.946"	"473.012"	"420.875"	"833.517"	"727.476"	"772.622"	"484.237"	"72.248"	"38.184"	"16.724"
"1983"	"9.73"	"65.765"	"258.844"	"305.492"	"453.099"	"692.378"	"976.045"	"692.515"	"561.293"	"212.325"	"2.858"	"21.703"
"1984"	"10.764"	"11.791"	"67.558"	"262.751"	"1131.104"	"707.66"	"1039.574"	"534.525"	"860.932"	"226.891"	"3.699"	"22.157"
"1985"	"6.25"	"44.052"	"280.533"	"439.028"	"385.491"	"1049.161"	"820.31"	"449.719"	"405.882"	"68.485"	"4.346"	"15.275"
"1986"	"6.138"	"7.029"	"45.237"	"409.817"	"137.833"	"577.285"	"576.01"	"500.171"	"450.961"	"422.303"	"125.913"	"2.106"
"1987"	"8.752"	"27.447"	"135.471"	"413.198"	"303.907"	"453.087"	"878.294"	"706.695"	"519.685"	"116.679"	"29.745"	"13.404"
"1988"	"4.398"	"47.665"	"197.373"	"197.985"	"900.005"	"699.101"	"1037.515"	"1198.461"	"576.99"	"460.96"	"123.603"	"55.185"
"1989"	"11.365"	"79.98"	"21.166"	"442.974"	"350.3"	"923.758"	"1041.682"	"494.941"	"809.869"	"416.814"	"15.302"	"3.376"
"1990"	"11.384"	"62.743"	"150.673"	"559.431"	"346.127"	"694.814"	"804.987"	"213.114"	"816.175"	"218.976"	"19.181"	"3.819"
"1991"	"10.463"	"43.575"	"128.925"	"260.383"	"1010.595"	"570.347"	"533.135"	"731.062"	"412.308"	"715.885"	"5.273"	"35.031"
"1992"	"10.696"	"60.214"	"54.771"	"180.079"	"573.483"	"786.902"	"944.535"	"824.84"	"452.62"	"174.809"	"6.257"	"20.303"
"1993"	"42.434"	"94.347"	"168.2"	"149.217"	"611.599"	"1171.486"	"991.211"	"786.853"	"569.092"	"80.698"	"3.789"	"0.044"
"1994"	"19.733"	"66.616"	"269.284"	"283.816"	"373.221"	"896.145"	"518.164"	"726.563"	"242.75"	"61.73"	"14.021"	"3.232"
"1995"	"15.311"	"44.075"	"29.991"	"138.009"	"418.116"	"920.891"	"741.622"	"241.037"	"497.822"	"51.163"	"163.367"	"0.736"
"1996"	"3.946"	"36.606"	"299.661"	"306.045"	"811.986"	"576.258"	"998.037"	"617.176"	"190.364"	"158.165"	"2.779"	"0.625"
"1997"	"5.799"	"29.578"	"63.122"	"109.238"	"400.519"	"649.506"	"714.85"	"484.66"	"600.171"	"30.024"	"9.206"	"34.448"
"1998"	"11.727"	"92.718"	"207.186"	"156.432"	"719.529"	"488.237"	"969.603"	"753.174"	"223.668"	"68.397"	"128.69"	"0.044"
"1999"	"1.257"	"1.092"	"28.726"	"86.458"	"635.207"	"489.367"	"811.26"	"538.928"	"201.234"	"295.939"	"8.941"	"1.859"
"2000"	"21.939"	"40.322"	"106.923"	"498.447"	"826.683"	"204.104"	"489.094"	"904.61"	"416.691"	"135.672"	"4.531"	"5.047"
"2001"	"3.099"	"24.84"	"52.351"	"286.356"	"653.148"	"722.067"	"593.346"	"848.115"	"435.8"	"273.808"	"25.502"	"0.32"
"2002"	"33.105"	"2.853"	"128.636"	"493.442"	"514.742"	"1229.307"	"1025.618"	"474.619"	"323.075"	"108.053"	"36.445"	"1.096"
