
"Year"	"Jan"	"Feb"	"Mar"	"Apr"	"May"	"Jun"	"Jul"	"Aug"	"Sep"	"Oct"	"Nov"	"Dec"
"1901"	"26.059"	"71.296"	"5.568"	"13.857"	"89.967"	"101.897"	"219.501"	"218.856"	"335.441"	"76.091"	"125.408"	"0.166"
"1902"	"11.658"	"0.902"	"17.225"	"50.411"	"95.797"	"166.71"	"312.352"	"360.619"	"198.303"	"63.245"	"1.127"	"23.714"
"1903"	"6.817"	"43.687"	"9.254"	"13.571"	"25.199"	"155.194"	"404.417"	"222.364"	"278.205"	"167.307"	"15.967"	"1.142"
"1904"	"0.23"	"17.2"	"34.524"	"2.654"	"154.036"	"238.45"	"342.279"	"369.053"	"181.835"	"90.645"	"1.707"	"4.757"
"1905"	"8.922"	"23.183"	"62.893"	"122.167"	"159.716"	"58.706"	"420.985"	"263.327"	"386.004"	"79.029"	"0.618"	"0.166"
"1906"	"12.676"	"86.693"	"29.521"	"0.334"	"29.814"	"169.855"	"309.703"	"205.306"	"185.327"	"130.749"	"26.575"	"1.006"
"1907"	"0.23"	"14.301"	"65.583"	"102.603"	"65.233"	"208.733"	"159.22"	"266.799"	"86.192"	"30.939"	"1.867"	"19.74"
"1908"	"18.79"	"3.888"	"1.014"	"9.788"	"73.018"	"402.444"	"364.483"	"357.454"	"230.924"	"44.802"	"0.923"	"0.023"
"1909"	"0.63"	"31.358"	"0.3"	"93.853"	"35.321"	"218.406"	"230.723"	"297.383"	"199.289"	"55.226"	"1.954"	"14.031"
"1910"	"19.126"	"5.306"	"10.267"	"16.043"	"38.88"	"226.269"	"366.26"	"450.139"	"211.914"	"177.422"	"2.319"	"0.017"
"1911"	"0.037"	"3.097"	"30.972"	"15.795"	"39.117"	"330.584"	"119.016"	"233.658"	"311.456"	"66.736"	"6.472"	"0.155"
"1912"	"0.23"	"38.952"	"49.628"	"27.51"	"48.056"	"178.406"	"250.765"	"303.71"	"192.828"	"105.161"	"129.876"	"0"
"1913"	"0.467"	"52.774"	"15.189"	"12.003"	"72.631"	"218.451"	"358.326"	"231.388"	"127.674"	"184.67"	"24.042"	"2.718"
"1914"	"0"	"60.158"	"9.198"	"82.36"	"91.552"	"213.139"	"302.143"	"196.306"	"322.985"	"12.121"	"0.377"	"12.568"
"1915"	"4.296"	"26.267"	"77.259"	"44.962"	"52.116"	"201.376"	"221.012"	"460.303"	"276.741"	"158.392"	"80.663"	"0.166"
"1916"	"0.23"	"0.95"	"0.3"	"14.394"	"32.618"	"430.139"	"220.521"	"346.915"	"247.507"	"314.161"	"99.668"	"0.017"
"1917"	"0.053"	"126.21"	"25.26"	"23.462"	"99.48"	"262.649"	"203.875"	"429.603"	"173.95"	"316.738"	"13.438"	"0.166"
"1918"	"0.296"	"0.333"	"19.193"	"37.158"	"100.461"	"287.614"	"206.412"	"292.305"	"233.812"	"14.326"	"0.912"	"2.851"
"1919"	"53.531"	"22.256"	"8.358"	"33.843"	"51.753"	"236.848"	"372.838"	"498.096"	"89.459"	"88.984"	"77.884"	"0.16"
"1920"	"0.236"	"23.195"	"92.949"	"0.402"	"41.363"	"135.909"	"281.304"	"380.527"	"186.062"	"144.66"	"0.606"	"0.011"
"1921"	"56.129"	"3.646"	"8.334"	"39.448"	"20.26"	"223.317"	"268.599"	"311.789"	"234.39"	"79.603"	"0.762"	"0.166"
"1922"	"7.439"	"8.136"	"0.3"	"10.501"	"26.463"	"304.403"	"235.402"	"376.057"	"370.317"	"60.634"	"23.246"	"0.023"
"1923"	"0.304"	"116.423"	"13.952"	"21.56"	"12.544"	"107.95"	"272.359"	"294.722"	"218.726"	"152.878"	"49.459"	"8.629"
"1924"	"21.197"	"12.965"	"0.313"	"5.824"	"33.488"	"66.659"	"191.892"	"317.658"	"293.377"	"108.494"	"74.895"	"0.017"
"1925"	"4.354"	"2.356"	"6.771"	"68.252"	"146.058"	"452.423"	"375.318"	"273.809"	"135.026"	"308.331"	"5.737"	"19.391"
"1926"	"6.64"	"9.038"	"92.322"	"40.579"	"52.823"	"123.683"	"387.471"	"386.716"	"263.784"	"100.541"	"0.618"	"3.175"
"1927"	"1.986"	"13.841"	"110.449"	"16.941"	"43.606"	"134.864"	"293.502"	"334.603"	"204.971"	"58.156"	"9.449"	"0.16"
"1928"	"2.231"	"0.897"	"1.562"	"72.769"	"108.19"	"276.968"	"388.2"	"353.27"	"256.393"	"236.816"	"5.876"	"0"
"1929"	"5.609"	"34.203"	"30.027"	"40.154"	"49.432"	"130.211"	"190.282"	"407.516"	"157.671"	"298.444"	"0.463"	"8.519"
"1930"	"0.356"	"17.483"	"5.154"	"30.486"	"124.43"	"200.633"	"488.841"	"310.669"	"208.306"	"70.753"	"82.618"	"0.266"
"1931"	"3.275"	"24.712"	"19.457"	"12.839"	"61.991"	"130.084"	"227.599"	"287.542"	"280.773"	"248.639"	"36.279"	"5.031"
"1932"	"0.017"	"17.852"	"7.922"	"70.24"	"107.724"	"74.819"	"219.962"	"263.056"	"223.941"	"83.696"	"117.528"	"0.017"
"1933"	"25.067"	"15.807"	"1.612"	"39.68"	"78.506"	"291.046"	"387.622"	"302.268"	"261.784"	"213.028"	"4.784"	"0"
"1934"	"0.316"	"12.921"	"4.448"	"16.333"	"19.34"	"220.945"	"269.911"	"365.271"	"213.872"	"112.942"	"11.531"	"1.281"
"1935"	"3.163"	"14.814"	"11.628"	"40.01"	"8.717"	"129.196"	"184.446"	"230.048"	"160.213"	"64.798"	"0.532"	"0.832"
"1936"	"5.736"	"53.697"	"7.144"	"10.565"	"156.361"	"427.791"	"377.993"	"268.579"	"280.938"	"149.689"	"18.509"	"5.517"
"1937"	"0.236"	"94.387"	"7.086"	"52.068"	"57.115"	"233.36"	"264.503"	"283.485"	"206.545"	"189.858"	"1.515"	"0.658"
"1938"	"7.404"	"12.801"	"5.971"	"0.673"	"209.665"	"190.54"	"135.363"	"232.963"	"327.014"	"125.577"	"4.404"	"0.011"
"1939"	"9.374"	"9.741"	"23.121"	"13.576"	"30.629"	"141.419"	"282.307"	"400.108"	"298.435"	"212.123"	"9.067"	"2.204"
"1940"	"0"	"27.511"	"156.59"	"20.345"	"119.428"	"269.489"	"274.02"	"371.766"	"288.973"	"101.518"	"2.661"	"2.113"
"1941"	"27.044"	"0.698"	"1.717"	"7.354"	"64.316"	"246.127"	"241.197"	"384.899"	"222.138"	"281.963"	"54.57"	"0.155"
"1942"	"1.095"	"19.959"	"5.576"	"52.825"	"14.176"	"99.265"	"306.657"	"329.712"	"322.057"	"149.499"	"34.975"	"0.029"
"1943"	"30.618"	"8.163"	"8.724"	"106.795"	"13.974"	"174.952"	"357.193"	"348.101"	"145.056"	"159.698"	"10.059"	"0.017"
"1944"	"26.609"	"77.539"	"105.94"	"61.029"	"38.109"	"177.153"	"263.549"	"349.69"	"172.951"	"124.187"	"2.742"	"0.155"
"1945"	"8.989"	"4.252"	"6.169"	"119.98"	"46.975"	"93.669"	"298.214"	"159.811"	"267.669"	"275.604"	"0.687"	"14.514"
"1946"	"0.236"	"2.892"	"5.949"	"31.524"	"72.141"	"288.378"	"320.233"	"349.903"	"264.252"	"192.53"	"101.08"	"0.166"
"1947"	"23.033"	"68.256"	"17.627"	"12.625"	"39.69"	"259.614"	"392.466"	"317.116"	"303.001"	"81.544"	"0.618"	"18.102"
"1948"	"17.774"	"106.174"	"56.623"	"78.678"	"39.582"	"163.801"	"238.759"	"329.654"	"219.673"	"114.328"	"86.076"	"0"
"1949"	"0.426"	"8.63"	"16.315"	"59.752"	"98.446"	"143.159"	"244.103"	"241.101"	"343.467"	"167.79"	"0.762"	"0"
"1950"	"0"	"15.471"	"33.513"	"43.035"	"40.49"	"207.475"	"240.759"	"154.206"	"105.884"	"141.041"	"109.997"	"0.106"
"1951"	"0.168"	"0.321"	"51.433"	"54.398"	"36.459"	"159.683"	"383.448"	"361.583"	"292.564"	"71.274"	"69.607"	"0.975"
"1952"	"0.91"	"2.055"	"30.997"	"98.136"	"32.918"	"235.574"	"334.949"	"255.896"	"172.133"	"207.836"	"1.367"	"0.026"
"1953"	"24.297"	"2.512"	"0.3"	"1.759"	"14.218"	"129.938"	"100.695"	"397.477"	"314.022"	"95.241"	"102.207"	"0"
"1954"	"3.078"	"36.164"	"0.379"	"3.049"	"76.682"	"302.511"	"70.076"	"132.461"	"294.406"	"147.278"	"0.762"	"12.552"
"1955"	"0.984"	"0.912"	"28.621"	"34.03"	"126.203"	"180.869"	"157.365"	"325.709"	"424.282"	"365.694"	"87.132"	"0.011"
"1956"	"1.32"	"59.267"	"20.585"	"30.777"	"119.279"	"400.287"	"558.999"	"452.133"	"359.001"	"208.637"	"31.331"	"0.073"
"1957"	"18.617"	"22.792"	"16.279"	"17.346"	"2.718"	"95.104"	"316.686"	"353.54"	"127.48"	"116.402"	"0.762"	"0"
"1958"	"20.286"	"71.649"	"5.407"	"88.518"	"5.981"	"161.301"	"457.396"	"225.894"	"245.299"	"155.785"	"105.801"	"0.166"
"1959"	"13.431"	"19.105"	"4.506"	"26.316"	"109.676"	"207.053"	"263.209"	"159.729"	"205.477"	"298.339"	"0.28"	"7.124"
"1960"	"0.236"	"0.321"	"23.339"	"1.533"	"50.786"	"163.834"	"509.016"	"320.724"	"124.661"	"105.952"	"2.256"	"4.092"
"1961"	"36.221"	"92.854"	"2.261"	"5.675"	"82.336"	"166.847"	"133.802"	"400.367"	"419.919"	"140.641"	"0.612"	"0.085"
"1962"	"1.405"	"12.967"	"1.403"	"15.549"	"10.839"	"167.206"	"400.084"	"164.057"	"267.535"	"316.222"	"0.28"	"0.026"
"1963"	"0.026"	"0.496"	"11.566"	"115.398"	"135.054"	"153.644"	"215.238"	"208.204"	"235.754"	"256.895"	"10.188"	"0"
"1964"	"0.68"	"31.621"	"15.941"	"46.115"	"80.85"	"66.481"	"382.125"	"392.254"	"259.449"	"96.25"	"6.008"	"0"
"1965"	"6.025"	"32.218"	"38.267"	"34.176"	"9.967"	"109.344"	"495.215"	"346.704"	"265.74"	"106.28"	"0.463"	"3.421"
"1966"	"55.648"	"23.408"	"2.739"	"2.483"	"7.299"	"204.093"	"137.948"	"236.974"	"287.654"	"108.104"	"99.562"	"1.689"
"1967"	"43.3"	"0.321"	"111.545"	"18.813"	"11.297"	"219.604"	"249.782"	"284.437"	"339.79"	"76.295"	"0.28"	"1.266"
"1968"	"18.2"	"53.942"	"14.058"	"6.415"	"14.256"	"288.291"	"430.651"	"324.552"	"279.78"	"177.196"	"55.382"	"0.026"
"1969"	"1.807"	"0.622"	"40.656"	"43.994"	"37.731"	"82.875"	"357.981"	"263.253"	"216.787"	"76.229"	"51.521"	"0.992"
"1970"	"2.749"	"64.537"	"90.411"	"11.969"	"87.241"	"347.855"	"227.168"	"308.139"	"57.606"	"159.933"	"18.308"	"0"
"1971"	"26.353"	"114.236"	"1.519"	"106.045"	"74.218"	"479.179"	"298.081"	"372.318"	"177.401"	"172.344"	"4.822"	"0"
"1972"	"0.221"	"21.543"	"0.59"	"16.711"	"5.324"	"68.717"	"209.374"	"370.678"	"318.597"	"133.136"	"13.967"	"0"
"1973"	"0.691"	"5.067"	"31.262"	"16.161"	"87.309"	"82.836"	"233.624"	"358.313"	"172.563"	"190.439"	"33.718"	"39.933"
"1974"	"0.535"	"0.333"	"124.606"	"4.617"	"42.128"	"114.127"	"251.471"	"291.015"	"195.524"	"274.469"	"21.096"	"0"
"1975"	"1.055"	"6.916"	"4.042"	"3.771"	"28.088"	"276.091"	"316.278"	"317.72"	"248.3"	"266.34"	"50.078"	"0.986"
"1976"	"0.026"	"6.447"	"7.512"	"84.422"	"78.813"	"92.866"	"448.211"	"372.687"	"212.554"	"54.959"	"50.122"	"0"
"1977"	"0.535"	"8.624"	"0.3"	"43.01"	"125.498"	"219.003"	"351.564"	"323.411"	"264.629"	"98.372"	"55.219"	"4.863"
"1978"	"0.064"	"18.437"	"32.762"	"30.221"	"88.543"	"127.94"	"423.599"	"361.151"	"245.585"	"127.061"	"19.069"	"40.558"
"1979"	"3.216"	"30.434"	"6.851"	"32.483"	"6.257"	"118.636"	"269.01"	"189.927"	"163.824"	"60.332"	"1.598"	"9.816"
"1980"	"45.791"	"56.335"	"52.533"	"6.231"	"49.265"	"271.504"	"331.035"	"347.844"	"268.176"	"135.596"	"0.4"	"15.737"
"1981"	"13.81"	"30.168"	"82.561"	"46.712"	"78.564"	"125.398"	"301.143"	"322.239"	"361.853"	"17.961"	"0.981"	"5.096"
"1982"	"0.233"	"13.526"	"24.631"	"67.867"	"17.037"	"102.276"	"295.141"	"347.426"	"153.819"	"96.278"	"26.417"	"0.023"
"1983"	"1.062"	"77.689"	"41.149"	"13.499"	"69.398"	"184.445"	"240.285"	"346.652"	"137.165"	"183.482"	"3.353"	"3.089"
"1984"	"19.255"	"26.42"	"0.988"	"26.621"	"74.769"	"448.064"	"295.286"	"371.544"	"107.758"	"74.25"	"1.98"	"1.195"
"1985"	"19.45"	"4.032"	"1.574"	"17.674"	"29.678"	"222.892"	"376.323"	"262.169"	"181.266"	"209.769"	"4.918"	"0.466"
"1986"	"21.76"	"24.691"	"3.024"	"28.457"	"58.567"	"168.698"	"333.945"	"334.523"	"492.971"	"109.905"	"126.699"	"5.267"
"1987"	"3.451"	"8.214"	"43.354"	"41.995"	"58.799"	"71.558"	"299.007"	"396.635"	"118.397"	"121.801"	"78.639"	"4.803"
"1988"	"0.174"	"24.721"	"7.026"	"26.558"	"83.681"	"77.702"	"373.302"	"337.519"	"298.765"	"123.297"	"11.801"	"3.04"
"1989"	"0.168"	"2.071"	"35.367"	"3.295"	"177.346"	"271.981"	"383.958"	"253.343"	"166.156"	"188.048"	"0.849"	"0.504"
"1990"	"0"	"51.646"	"88.473"	"23.489"	"122.497"	"223.002"	"547.159"	"329.308"	"195.209"	"210.847"	"37.312"	"6.417"
"1991"	"17.407"	"7.378"	"30.189"	"7.599"	"25.402"	"153.3"	"310.662"	"329.672"	"188.699"	"170.798"	"20.287"	"18.731"
"1992"	"11.285"	"10.341"	"0.3"	"4.735"	"217.838"	"176.859"	"403.499"	"253.311"	"213.443"	"84.506"	"29.88"	"0"
"1993"	"1.681"	"0.653"	"46.74"	"55.645"	"60.572"	"362.648"	"332.73"	"314.581"	"238.597"	"244.197"	"19.742"	"0"
"1994"	"2.12"	"40.214"	"60.239"	"32.088"	"26.942"	"180.466"	"405.276"	"317.272"	"270.257"	"261.949"	"15.73"	"0"
"1995"	"16.789"	"18.924"	"33.836"	"16.742"	"71.664"	"122.54"	"349.558"	"223.157"	"252.969"	"281.204"	"50.814"	"0"
"1996"	"3.924"	"11.883"	"9.33"	"38.435"	"42.594"	"197.175"	"178.54"	"399.407"	"84.702"	"182.461"	"9.243"	"2.636"
"1997"	"23.672"	"14.565"	"77.305"	"58.084"	"26.351"	"190.152"	"435.175"	"316.789"	"322.776"	"69.455"	"30.984"	"16.921"
"1998"	"25.428"	"104.552"	"18.789"	"29.606"	"41.773"	"235.257"	"308.933"	"218.679"	"306.876"	"333.905"	"81.915"	"0"
"1999"	"0.195"	"0.346"	"0.3"	"0.328"	"171.118"	"210.462"	"216.153"	"478.828"	"235.943"	"119.705"	"28.6"	"0.442"
"2000"	"0.507"	"85.731"	"0.3"	"40.984"	"100.057"	"315.016"	"215.834"	"302.319"	"106.215"	"75.74"	"17.92"	"1.061"
"2001"	"0.075"	"4.006"	"36.253"	"22.925"	"99.665"	"424.569"	"208.039"	"312.776"	"166.004"	"183.015"	"45.767"	"0.842"
"2002"	"34.669"	"13.451"	"3.27"	"61.545"	"108.985"	"217.897"	"279.254"	"391.837"	"228.69"	"58.636"	"25.465"	"0"
