
"Year"	"Jan"	"Feb"	"Mar"	"Apr"	"May"	"Jun"	"Jul"	"Aug"	"Sep"	"Oct"	"Nov"	"Dec"
"1901"	"12.469"	"14.256"	"21.407"	"26.084"	"31.015"	"35.346"	"32.687"	"32.19"	"30.581"	"27.75"	"20.428"	"15.133"
"1902"	"14.509"	"17.394"	"22.512"	"27.448"	"32.277"	"33.692"	"32.646"	"32.478"	"30.152"	"26.18"	"19.893"	"14.079"
"1903"	"13.231"	"15.558"	"19.214"	"25.356"	"30.781"	"35.978"	"33.295"	"31.622"	"30.959"	"27.047"	"19.623"	"14.445"
"1904"	"12.296"	"16.459"	"19.857"	"27.654"	"32.073"	"35.044"	"32.974"	"32.108"	"30.442"	"26.577"	"19.389"	"15.071"
"1905"	"11.336"	"11.133"	"17.341"	"25.035"	"33.175"	"35.577"	"33.12"	"33.412"	"31.019"	"26.627"	"20.427"	"14.436"
"1906"	"12.22"	"13.726"	"18.59"	"26.352"	"33.709"	"34.306"	"33.61"	"31.416"	"29.568"	"26.788"	"20.867"	"15.941"
"1907"	"15.201"	"13.497"	"17.579"	"24.714"	"30.343"	"33.616"	"33.867"	"31.192"	"31.768"	"27.35"	"20.566"	"14.276"
"1908"	"14.198"	"16.26"	"20.785"	"27.607"	"32.009"	"35.518"	"31.804"	"29.608"	"29.686"	"25.987"	"18.996"	"14.138"
"1909"	"12.024"	"14.482"	"21.019"	"25.627"	"31.557"	"33.243"	"31.214"	"30.956"	"29.292"	"26.385"	"20.794"	"13.542"
"1910"	"12.874"	"15.329"	"20.321"	"25.523"	"32.313"	"33.888"	"31.451"	"30.697"	"30.75"	"26.148"	"18.893"	"13.645"
"1911"	"13.951"	"16.181"	"18.25"	"26.256"	"32.757"	"34.092"	"34.412"	"33.41"	"30.878"	"26.915"	"17.402"	"13.874"
"1912"	"13.734"	"17.129"	"20.381"	"26.316"	"32.142"	"35.479"	"32.694"	"30.89"	"29.778"	"26.52"	"18.594"	"14.203"
"1913"	"14.394"	"14.967"	"17.987"	"27.71"	"30.443"	"31.989"	"31.03"	"31.227"	"30.285"	"26.42"	"18.857"	"13.415"
"1914"	"14.872"	"14.536"	"19.621"	"25.914"	"31.642"	"33.891"	"31.332"	"31.159"	"29.801"	"24.125"	"19.488"	"13.606"
"1915"	"13.477"	"14.318"	"21.314"	"27.149"	"34.775"	"34.589"	"34.468"	"32.71"	"31.351"	"27.066"	"19.869"	"14.216"
"1916"	"14.133"	"15.058"	"23.478"	"28.314"	"31.153"	"33.875"	"31.032"	"30.563"	"30.124"	"26.262"	"18.271"	"13.839"
"1917"	"13.331"	"16.494"	"20.477"	"23.487"	"27.663"	"32.923"	"31.718"	"30.3"	"28.537"	"24.861"	"17.91"	"14.135"
"1918"	"12.692"	"16.028"	"19.983"	"24.154"	"34.046"	"33.788"	"34.072"	"32.516"	"30.607"	"26.352"	"19.198"	"13.595"
"1919"	"12.966"	"14.826"	"20.881"	"25.847"	"30.849"	"36.574"	"32.45"	"30.796"	"30.213"	"26.186"	"18.894"	"13.344"
"1920"	"13.858"	"14.351"	"19.815"	"26.048"	"28.221"	"33.516"	"33.175"	"31.684"	"31.312"	"27.414"	"20.787"	"15.311"
"1921"	"13.76"	"16.699"	"24.101"	"30.665"	"34.743"	"35.348"	"33.585"	"31.058"	"30.285"	"25.377"	"19.48"	"15.63"
"1922"	"12.506"	"16.568"	"22.181"	"27.306"	"31.859"	"33.588"	"32.946"	"31.917"	"29.599"	"25.22"	"19.126"	"14.025"
"1923"	"13.066"	"14.438"	"21.424"	"27.866"	"30.755"	"35.585"	"31.757"	"30.365"	"30.25"	"25.216"	"18.865"	"14.043"
"1924"	"12.335"	"15.294"	"21.624"	"27.482"	"28.156"	"35.894"	"33.42"	"31.164"	"28.856"	"26.193"	"18.932"	"14.782"
"1925"	"11.605"	"13.776"	"21.814"	"29.509"	"31.644"	"32.29"	"30.837"	"30.895"	"30.713"	"26.217"	"17.769"	"14.212"
"1926"	"13.7"	"16.734"	"18.926"	"23.588"	"28.793"	"35.16"	"33.184"	"30.278"	"29.694"	"25.661"	"17.363"	"14.013"
"1927"	"12.436"	"13.3"	"19.712"	"25.693"	"30.285"	"34.022"	"31.827"	"30.852"	"30.217"	"26.253"	"19.72"	"15.542"
"1928"	"12.501"	"16.454"	"20.684"	"26.53"	"34.05"	"34.479"	"32.989"	"32.062"	"29.935"	"26.731"	"19.298"	"13.937"
"1929"	"12.897"	"14.486"	"22.893"	"27.949"	"32.715"	"34.324"	"31.734"	"30.533"	"30.727"	"25.689"	"19.497"	"12.339"
"1930"	"11.995"	"15.553"	"21.384"	"25.694"	"31.616"	"33.276"	"30.572"	"31.26"	"29.556"	"25.885"	"18.667"	"14.475"
"1931"	"14.538"	"12.743"	"20.063"	"28.182"	"31.618"	"34.592"	"31.593"	"31.602"	"29.793"	"26.134"	"19.429"	"15.044"
"1932"	"15.258"	"15.262"	"21.554"	"27.413"	"30.349"	"35.98"	"32.228"	"30.723"	"30.746"	"26.221"	"19.395"	"14.205"
"1933"	"11.34"	"16.03"	"20.318"	"24.416"	"30.022"	"34.909"	"32.094"	"29.536"	"28.755"	"25.658"	"19.366"	"15.643"
"1934"	"11.171"	"17.864"	"19.986"	"26.856"	"30.714"	"34.209"	"32.397"	"30.629"	"31.425"	"25.531"	"19.133"	"14.74"
"1935"	"11.467"	"15.633"	"20.889"	"22.889"	"31.719"	"35.151"	"32.351"	"30.591"	"30.223"	"25.693"	"19.655"	"14.004"
"1936"	"11.907"	"15.725"	"19.946"	"26.053"	"34.471"	"32.584"	"31.53"	"31.417"	"30.12"	"26.059"	"19.237"	"13.927"
"1937"	"12.67"	"15.462"	"19.502"	"25.387"	"31.748"	"34.987"	"31.428"	"32.808"	"30.547"	"25.278"	"18.886"	"13.206"
"1938"	"12.592"	"14.024"	"21.635"	"27.818"	"34.154"	"32.796"	"33.41"	"32.086"	"31.31"	"26.559"	"18.292"	"15.099"
"1939"	"14.159"	"15.201"	"17.953"	"24.726"	"32.948"	"33.185"	"32.255"	"32.149"	"31.084"	"27.22"	"19.598"	"15.6"
"1940"	"13.798"	"15.165"	"19.151"	"25.417"	"32.418"	"34.304"	"32.486"	"30.717"	"29.86"	"26.388"	"20.397"	"14.161"
"1941"	"12.768"	"16.723"	"23.047"	"29.454"	"33.222"	"32.966"	"32.455"	"31.852"	"29.963"	"28.226"	"20.291"	"16.172"
"1942"	"12.205"	"15.793"	"22.42"	"28.281"	"32.02"	"34.883"	"31.427"	"30.253"	"29.194"	"26.06"	"20.894"	"13.938"
"1943"	"12.569"	"16.254"	"21.48"	"25.912"	"31.478"	"34.052"	"31.769"	"31.246"	"31.159"	"26.487"	"20.593"	"16.166"
"1944"	"12.297"	"14.226"	"19.688"	"26.125"	"33.18"	"34.087"	"31.932"	"31.098"	"29.717"	"25.868"	"19.961"	"14.819"
"1945"	"11.337"	"14.41"	"21.249"	"24.593"	"31.039"	"34.138"	"31.63"	"30.895"	"29.6"	"25.595"	"19.861"	"13.643"
"1946"	"15.068"	"18.405"	"20.417"	"29.676"	"32.484"	"34.313"	"32.289"	"31.431"	"31.155"	"26.624"	"19.236"	"13.275"
"1947"	"12.582"	"16.284"	"22.146"	"29.05"	"33.416"	"37.28"	"34.223"	"31.825"	"29.768"	"25.574"	"20.816"	"14.866"
"1948"	"14.373"	"15.115"	"19.913"	"28.82"	"33.499"	"34.8"	"32.251"	"30.398"	"30.682"	"26.819"	"18.263"	"14.037"
"1949"	"14.977"	"15.022"	"21.456"	"28.986"	"34.473"	"34.225"	"31.464"	"31.656"	"31.849"	"26.063"	"18.334"	"13.569"
"1950"	"14.357"	"14.064"	"19.88"	"26.174"	"33.262"	"35.711"	"32.655"	"31.118"	"28.321"	"24.996"	"19.095"	"12.684"
"1951"	"12.799"	"16.021"	"23.314"	"24.714"	"31.713"	"34.59"	"33.289"	"31.695"	"31.746"	"28.288"	"21.056"	"15.806"
"1952"	"14.687"	"17.9"	"20.888"	"29.417"	"33.239"	"34.054"	"32.029"	"31.219"	"31.448"	"26.686"	"19.794"	"14.583"
"1953"	"12.723"	"18.46"	"23.998"	"27.993"	"33.881"	"35.213"	"32.389"	"31.198"	"30.2"	"26.563"	"19.797"	"17.039"
"1954"	"12.427"	"16.748"	"21.522"	"28.481"	"33.378"	"35.145"	"32.78"	"32.948"	"30.393"	"24.16"	"19.167"	"14.203"
"1955"	"13.131"	"16.673"	"23.152"	"25.32"	"29.92"	"35.909"	"32.786"	"30.869"	"29.784"	"24.798"	"19.597"	"14.703"
"1956"	"13.529"	"16.711"	"21.188"	"28.484"	"34.793"	"34.06"	"31.04"	"30.716"	"31.393"	"25.029"	"18.833"	"14.661"
"1957"	"12.627"	"14.802"	"20.283"	"25.485"	"30.093"	"34.202"	"33.382"	"30.895"	"29.514"	"26.408"	"19.629"	"14.742"
"1958"	"15.237"	"15.987"	"22.057"	"29.787"	"32.298"	"35.187"	"32.296"	"31.517"	"29.3"	"26.264"	"20.603"	"15.501"
"1959"	"13.525"	"15.085"	"22.415"	"28.016"	"31.618"	"35.68"	"31.867"	"31.429"	"29.994"	"26.578"	"19.559"	"15.308"
"1960"	"12.796"	"19.59"	"20.316"	"26.296"	"33.194"	"35.423"	"32.726"	"31.503"	"30.781"	"26.42"	"19.059"	"14.849"
"1961"	"14.096"	"14.302"	"21.85"	"26.884"	"32.377"	"35.213"	"32.325"	"31.16"	"31.332"	"26.332"	"18.503"	"12.879"
"1962"	"12.474"	"16.899"	"20.853"	"28.479"	"31.873"	"34.454"	"32.821"	"31.491"	"28.608"	"26.875"	"19.299"	"13.542"
"1963"	"12.609"	"17.264"	"20.885"	"26.851"	"30.749"	"34.983"	"32.556"	"30.131"	"29.256"	"26.689"	"19.938"	"13.914"
"1964"	"11.672"	"14.669"	"20.734"	"26.889"	"29.921"	"34.877"	"30.629"	"31.491"	"29.861"	"25.861"	"18.468"	"14.483"
"1965"	"14.536"	"16.09"	"21.122"	"25.221"	"30.879"	"35.068"	"31.76"	"30.422"	"29.993"	"26.296"	"20.137"	"12.987"
"1966"	"12.7"	"17.028"	"20.684"	"27.413"	"32.537"	"34.286"	"32.749"	"31.229"	"29.715"	"25.551"	"18.89"	"13.841"
"1967"	"12.402"	"17.861"	"20.875"	"26.815"	"31.338"	"35.312"	"32.466"	"30.827"	"30.288"	"25.025"	"19.193"	"14.498"
"1968"	"12.096"	"14.057"	"21.517"	"27.551"	"31.874"	"35.382"	"31.954"	"31.058"	"31.619"	"24.822"	"19.655"	"14.9"
"1969"	"13.437"	"16.692"	"24.076"	"27.612"	"31.276"	"35.441"	"32.523"	"32.318"	"30.286"	"27.32"	"20.934"	"15.103"
"1970"	"14.1"	"16.26"	"21.777"	"28.847"	"34.012"	"33.264"	"33.487"	"31.222"	"30.626"	"27.123"	"19.462"	"14.813"
"1971"	"13.17"	"16.756"	"22.317"	"28.331"	"30.954"	"33.668"	"31.368"	"30.467"	"29.482"	"26.142"	"20.185"	"15.443"
"1972"	"14.08"	"14.13"	"22.192"	"26.423"	"32.813"	"35.313"	"32.725"	"31.14"	"28.952"	"25.004"	"20.166"	"15.179"
"1973"	"13.457"	"17.29"	"20.592"	"29.497"	"32.857"	"34.742"	"31.668"	"31.069"	"29.373"	"25.37"	"19.291"	"12.927"
"1974"	"12.809"	"14.386"	"21.958"	"29.062"	"32.017"	"33.533"	"32.198"	"30.625"	"29.494"	"25.416"	"18.602"	"13.374"
"1975"	"13.3"	"14.894"	"20.312"	"28.235"	"32.841"	"34.177"	"31.152"	"30.739"	"29.093"	"26.917"	"18.503"	"15.131"
"1976"	"13.763"	"15.853"	"20.303"	"26.365"	"32.241"	"33.072"	"32.126"	"29.605"	"29.356"	"26.161"	"19.962"	"14.149"
"1977"	"12.978"	"15.575"	"22.245"	"26.607"	"29.12"	"32.34"	"31.178"	"30.482"	"28.835"	"26.545"	"21.233"	"14.916"
"1978"	"12.08"	"15.079"	"19.416"	"26.681"	"33.98"	"33.867"	"30.702"	"30.236"	"29.184"	"25.968"	"20.102"	"15.136"
"1979"	"13.729"	"15.218"	"19.64"	"29.101"	"31.008"	"34.748"	"31.637"	"31.957"	"28.912"	"26.819"	"20.735"	"15.96"
"1980"	"13.821"	"16.484"	"20.518"	"29.609"	"33.841"	"33.968"	"31.573"	"30.676"	"29.174"	"26.587"	"19.319"	"14.215"
"1981"	"13.403"	"16.557"	"21.136"	"27.842"	"32.668"	"34.547"	"30.781"	"30.783"	"30.138"	"25.083"	"19.075"	"14.402"
"1982"	"14.431"	"14.798"	"18.508"	"25.288"	"29.266"	"34.311"	"32.886"	"30.485"	"30.247"	"25.991"	"19.639"	"15.042"
"1983"	"12.775"	"15.421"	"19.908"	"24.983"	"29.79"	"33.31"	"31.885"	"30.646"	"30.393"	"25.157"	"18.89"	"14.77"
"1984"	"12.323"	"14.105"	"22.755"	"27.399"	"34.637"	"34.987"	"31.123"	"31.034"	"28.461"	"25.05"	"19.201"	"14.456"
"1985"	"13.485"	"16.814"	"22.913"	"27.721"	"33.294"	"34.411"	"31.126"	"30.827"	"30.02"	"24.828"	"19.933"	"15.658"
"1986"	"12.368"	"15.605"	"20.528"	"26.893"	"29.904"	"33.863"	"30.857"	"31.052"	"29.408"	"25.29"	"20.215"	"13.355"
"1987"	"13.726"	"17.187"	"21.395"	"27.869"	"28.315"	"34.344"	"34.191"	"32.441"	"31.826"	"26.863"	"20.206"	"15.16"
"1988"	"14.96"	"16.997"	"20.743"	"29.207"	"33.83"	"34.221"	"31.006"	"30.253"	"29.652"	"25.64"	"20.118"	"15.193"
"1989"	"12.79"	"15.361"	"20.573"	"25.836"	"31.903"	"33.21"	"31.966"	"29.028"	"29.639"	"26.071"	"19.546"	"14.566"
"1990"	"15.174"	"16.009"	"19.829"	"27.003"	"32.285"	"34.971"	"30.981"	"30.425"	"29.446"	"25.099"	"20.078"	"14.549"
"1991"	"12.797"	"16.127"	"20.531"	"25.55"	"31.622"	"33.121"	"32.985"	"30.53"	"29.815"	"24.965"	"19.03"	"15.045"
"1992"	"14.033"	"15.234"	"20.586"	"26.879"	"31.011"	"34.216"	"31.087"	"30.39"	"29.351"	"25.585"	"19.987"	"15.979"
"1993"	"12.945"	"17.861"	"19.8"	"27.409"	"33.604"	"34.515"	"31.323"	"32.431"	"29.086"	"25.516"	"20.4"	"14.999"
"1994"	"14.096"	"16.001"	"22.778"	"25.952"	"32.903"	"35.238"	"31.419"	"30.532"	"28.862"	"25.081"	"20.192"	"15.64"
"1995"	"13.044"	"15.828"	"19.997"	"25.768"	"33.608"	"35.75"	"31.938"	"29.51"	"29.649"	"26.512"	"20.156"	"15.399"
"1996"	"13.559"	"16.911"	"21.98"	"28.045"	"31.573"	"32.576"	"31.905"	"29.898"	"29.301"	"25.394"	"19.29"	"14.229"
"1997"	"13.403"	"15.972"	"20.893"	"26.526"	"30.085"	"32.355"	"32.292"	"30.096"	"30.327"	"24.04"	"19.257"	"12.859"
"1998"	"12.215"	"16.537"	"19.681"	"27.719"	"33.34"	"35.035"	"31.739"	"31.229"	"29.871"	"26.431"	"20.662"	"15.114"
"1999"	"12.97"	"17.889"	"22.768"	"30.802"	"33.438"	"32.929"	"32.532"	"31.298"	"31.093"	"27.018"	"21.188"	"15.699"
"2000"	"13.84"	"14.926"	"20.884"	"29.834"	"34.508"	"33.285"	"31.068"	"31.22"	"30.13"	"27.715"	"20.972"	"15.969"
"2001"	"13.121"	"17.227"	"22.282"	"27.423"	"33.515"	"32.386"	"31.578"	"32.152"	"30.451"	"27.619"	"21.311"	"16.001"
"2002"	"15.774"	"15.41"	"19.572"	"29.922"	"34.62"	"34.183"	"33.639"	"31.628"	"28.619"	"26.075"	"21.361"	"15.768"
