
"Year"	"Jan"	"Feb"	"Mar"	"Apr"	"May"	"Jun"	"Jul"	"Aug"	"Sep"	"Oct"	"Nov"	"Dec"
"1901"	"15.946"	"19.232"	"24.332"	"29.782"	"31.277"	"31.622"	"27.513"	"26.562"	"26.124"	"25.172"	"19.872"	"16.386"
"1902"	"17.487"	"19.538"	"26.616"	"28.876"	"31.72"	"31.309"	"27.063"	"27.267"	"26.474"	"24.475"	"19.572"	"16.193"
"1903"	"17.342"	"18.582"	"25.078"	"30.18"	"32.426"	"30.265"	"27.716"	"27.014"	"26.712"	"24.468"	"18.978"	"15.587"
"1904"	"16.783"	"18.932"	"25.277"	"30.676"	"30.676"	"28.818"	"26.075"	"26.268"	"26.367"	"24.374"	"19.278"	"17.234"
"1905"	"16.291"	"16.549"	"23.485"	"27.036"	"30.416"	"32.815"	"26.817"	"26.777"	"26.121"	"24.225"	"19.872"	"16.626"
"1906"	"16.593"	"19.037"	"23.282"	"30.137"	"32.518"	"30.518"	"27.22"	"26.622"	"26.822"	"24.522"	"20.021"	"17.136"
"1907"	"17.534"	"18.797"	"23.232"	"27.181"	"30.628"	"29.668"	"27.706"	"26.366"	"26.617"	"24.721"	"20.027"	"15.837"
"1908"	"15.384"	"19.382"	"24.677"	"31.524"	"32.316"	"30.657"	"27.108"	"26.41"	"26.811"	"24.524"	"19.173"	"15.581"
"1909"	"18.236"	"19.381"	"25.279"	"27.371"	"31.871"	"28.125"	"26.514"	"26.219"	"26.367"	"24.124"	"20.471"	"17.131"
"1910"	"16.439"	"19.083"	"24.976"	"29.972"	"31.672"	"29.122"	"26.813"	"26.417"	"26.559"	"24.416"	"19.115"	"15.831"
"1911"	"18.876"	"18.628"	"23.977"	"29.373"	"32.311"	"28.368"	"28.257"	"26.119"	"26.116"	"24.418"	"20.224"	"15.586"
"1912"	"17.186"	"20.276"	"25.031"	"28.726"	"31.477"	"30.86"	"26.963"	"26.468"	"26.367"	"24.422"	"19.217"	"15.676"
"1913"	"16.577"	"19.281"	"23.383"	"30.47"	"30.278"	"27.284"	"26.964"	"26.121"	"26.367"	"23.917"	"18.92"	"16.036"
"1914"	"16.982"	"19.88"	"24.229"	"27.723"	"30.018"	"29.114"	"26.709"	"26.564"	"26.262"	"23.675"	"20.416"	"16.881"
"1915"	"17.433"	"19.481"	"24.276"	"29.573"	"32.01"	"30.215"	"28.013"	"27.27"	"26.367"	"25.714"	"21.568"	"16.38"
"1916"	"16.236"	"19.877"	"26.07"	"30.217"	"33.416"	"28.13"	"27.117"	"26.57"	"26.567"	"24.864"	"20.021"	"15.492"
"1917"	"16.431"	"19.171"	"23.871"	"28.484"	"28.98"	"28.668"	"26.964"	"26.373"	"26.218"	"24.566"	"19.228"	"16.231"
"1918"	"15.783"	"19.276"	"25.322"	"28.578"	"30.865"	"27.424"	"28.413"	"25.974"	"26.571"	"24.28"	"19.934"	"16.292"
"1919"	"18.671"	"18.735"	"25.527"	"28.987"	"31.278"	"28.968"	"26.719"	"26.514"	"26.367"	"24.124"	"20.12"	"16.281"
"1920"	"16.884"	"19.377"	"24.776"	"29.467"	"30.78"	"31.256"	"26.708"	"26.468"	"26.367"	"24.868"	"20.268"	"16.182"
"1921"	"17.42"	"18.825"	"26.168"	"30.514"	"34.026"	"30.061"	"27.408"	"26.018"	"26.167"	"23.468"	"18.522"	"17.225"
"1922"	"16.774"	"19.774"	"25.573"	"29.976"	"32.764"	"27.925"	"26.259"	"25.719"	"25.512"	"22.871"	"19.169"	"15.83"
"1923"	"16.573"	"18.926"	"23.966"	"29.97"	"32.467"	"31.812"	"26.864"	"25.968"	"26.556"	"23.724"	"19.413"	"17.223"
"1924"	"16.978"	"19.675"	"26.315"	"30.676"	"31.869"	"32.161"	"26.719"	"26.562"	"25.964"	"24.566"	"19.616"	"16.277"
"1925"	"15.688"	"18.281"	"24.58"	"29.122"	"31.133"	"29.425"	"26.014"	"26.766"	"26.463"	"24.065"	"19.821"	"16.069"
"1926"	"16.727"	"20.08"	"24.125"	"27.794"	"30.835"	"32.863"	"27.362"	"26.462"	"26.168"	"23.866"	"18.474"	"16.684"
"1927"	"17.089"	"19.583"	"23.388"	"29.787"	"30.983"	"31.067"	"27.16"	"26.418"	"26.912"	"24.719"	"20.017"	"17.376"
"1928"	"17.424"	"19.781"	"25.873"	"28.979"	"31.719"	"28.668"	"26.569"	"26.869"	"26.963"	"25.112"	"20.17"	"17.131"
"1929"	"17.088"	"18.427"	"25.325"	"29.78"	"32.876"	"30.915"	"26.457"	"25.92"	"26.811"	"23.568"	"19.522"	"16.19"
"1930"	"16.237"	"18.68"	"25.277"	"29.18"	"31.274"	"30.567"	"26.515"	"26.268"	"26.607"	"25.018"	"19.564"	"16.03"
"1931"	"18.226"	"19.287"	"24.234"	"30.728"	"31.922"	"31.78"	"26.811"	"26.762"	"26.665"	"24.615"	"19.715"	"16.929"
"1932"	"17.931"	"18.728"	"25.421"	"29.38"	"31.821"	"31.206"	"26.908"	"26.562"	"26.716"	"25.02"	"19.922"	"16.885"
"1933"	"15.789"	"19.668"	"25.172"	"27.792"	"30.725"	"29.068"	"26.66"	"26.023"	"26.463"	"24.368"	"19.472"	"16.586"
"1934"	"16.233"	"18.88"	"24.778"	"29.882"	"32.336"	"29.767"	"26.964"	"26.415"	"26.607"	"23.774"	"19.312"	"17.081"
"1935"	"16.139"	"19.781"	"25.378"	"28.188"	"33.081"	"31.363"	"27.159"	"25.97"	"26.268"	"24.221"	"19.772"	"17.085"
"1936"	"16.55"	"19.131"	"25.724"	"29.634"	"30.867"	"28.38"	"26.569"	"26.514"	"26.222"	"23.624"	"20.427"	"17.28"
"1937"	"15.342"	"19.574"	"23.933"	"28.325"	"30.732"	"29.913"	"27.064"	"26.367"	"26.367"	"23.868"	"19.817"	"15.686"
"1938"	"18.184"	"18.181"	"26.721"	"30.677"	"30.32"	"28.318"	"26.807"	"26.268"	"26.813"	"24.809"	"19.316"	"16.031"
"1939"	"17.727"	"20.376"	"24.181"	"29.833"	"32.421"	"30.167"	"26.457"	"25.974"	"26.214"	"24.669"	"19.471"	"16.732"
"1940"	"16.129"	"19.379"	"23.576"	"29.193"	"31.616"	"30.81"	"26.51"	"26.414"	"26.618"	"24.919"	"21.728"	"17.382"
"1941"	"17.587"	"19.628"	"26.421"	"30.827"	"32.22"	"29.02"	"27.012"	"26.767"	"26.716"	"24.021"	"19.661"	"17.736"
"1942"	"17.135"	"19.532"	"25.479"	"29.329"	"33.179"	"31.716"	"26.714"	"25.921"	"25.772"	"24.221"	"20.759"	"16.935"
"1943"	"18.425"	"18.126"	"25.121"	"27.931"	"32.273"	"29.821"	"26.669"	"25.868"	"26.662"	"25.267"	"20.419"	"17.676"
"1944"	"17.437"	"19.47"	"24.077"	"27.385"	"33.373"	"30.82"	"26.517"	"26.22"	"26.817"	"24.124"	"20.267"	"18.582"
"1945"	"16.482"	"18.637"	"25.684"	"28.137"	"31.636"	"30.873"	"27.164"	"27.361"	"26.766"	"23.724"	"19.673"	"15.688"
"1946"	"17.028"	"20.98"	"25.234"	"27.32"	"30.916"	"29.264"	"26.367"	"26.367"	"26.366"	"24.468"	"20.926"	"18.28"
"1947"	"17.333"	"19.578"	"25.626"	"30.882"	"32.322"	"31.008"	"26.959"	"26.669"	"26.621"	"24.319"	"20.52"	"17.478"
"1948"	"18.425"	"20.024"	"24.183"	"30.17"	"31.919"	"30.774"	"26.366"	"26.071"	"26.218"	"24.468"	"20.97"	"15.93"
"1949"	"17.48"	"19.277"	"25.233"	"28.527"	"30.025"	"30.72"	"26.966"	"26.417"	"26.273"	"25.166"	"18.723"	"16.239"
"1950"	"17.678"	"19.385"	"24.074"	"29.286"	"32.021"	"29.075"	"26.563"	"26.068"	"26.367"	"23.77"	"19.169"	"16.88"
"1951"	"16.235"	"19.483"	"24.823"	"28.528"	"31.875"	"30.518"	"26.964"	"27.115"	"27.22"	"26.211"	"20.618"	"17.333"
"1952"	"17.978"	"21.421"	"25.269"	"28.227"	"32.014"	"30.471"	"27.057"	"26.218"	"26.315"	"24.615"	"20.173"	"17.587"
"1953"	"17.083"	"21.13"	"27.771"	"30.386"	"32.827"	"30.365"	"26.519"	"26.316"	"26.121"	"24.572"	"19.624"	"18.175"
"1954"	"16.135"	"21.478"	"24.975"	"31.376"	"32.621"	"29.159"	"27.012"	"26.567"	"26.112"	"23.174"	"18.375"	"16.982"
"1955"	"17.18"	"19.885"	"26.665"	"29.132"	"32.617"	"30.813"	"26.469"	"26.369"	"26.556"	"24.661"	"20.017"	"17.077"
"1956"	"17.883"	"19.219"	"26.219"	"30.679"	"32.216"	"27.417"	"26.358"	"26.024"	"25.724"	"23.868"	"19.377"	"18.074"
"1957"	"18.232"	"18.987"	"24.222"	"29.831"	"33.932"	"31.421"	"26.664"	"26.716"	"26.367"	"24.974"	"20.322"	"18.23"
"1958"	"18.934"	"20.381"	"26.362"	"31.124"	"33.775"	"32.917"	"27.652"	"26.613"	"26.367"	"25.512"	"20.914"	"18.475"
"1959"	"18.077"	"19.536"	"25.426"	"30.175"	"32.823"	"30.361"	"27.014"	"26.418"	"26.168"	"24.913"	"19.816"	"16.782"
"1960"	"17.028"	"21.174"	"24.373"	"30.287"	"32.128"	"30.817"	"26.459"	"26.468"	"26.573"	"24.673"	"19.326"	"17.638"
"1961"	"17.832"	"18.072"	"26.029"	"30.281"	"32.719"	"29.079"	"26.464"	"26.668"	"26.163"	"24.015"	"19.067"	"14.39"
"1962"	"15.33"	"19.378"	"24.28"	"29.175"	"31.633"	"30.113"	"27.708"	"26.468"	"26.32"	"23.48"	"20.068"	"17.582"
"1963"	"15.884"	"20.976"	"24.976"	"29.125"	"30.428"	"29.521"	"26.864"	"26.767"	"26.468"	"24.866"	"21.427"	"18.122"
"1964"	"17.495"	"19.694"	"26.281"	"30.124"	"30.779"	"30.481"	"25.625"	"26.468"	"26.367"	"24.72"	"20.077"	"17.628"
"1965"	"17.978"	"20.032"	"23.929"	"28.339"	"31.688"	"31.817"	"27.103"	"26.562"	"26.269"	"24.768"	"21.067"	"16.737"
"1966"	"17.022"	"21.377"	"25.521"	"30.758"	"33.125"	"30.91"	"28.009"	"26.974"	"27.073"	"24.917"	"22.216"	"17.133"
"1967"	"17.821"	"21.43"	"24.126"	"28.133"	"31.929"	"31.712"	"27.562"	"26.22"	"26.319"	"24.181"	"20.079"	"18.939"
"1968"	"17.289"	"19.391"	"25.132"	"29.334"	"32.481"	"28.769"	"26.723"	"26.319"	"27.167"	"23.962"	"19.768"	"18.481"
"1969"	"17.039"	"21.287"	"26.877"	"30.376"	"30.628"	"30.571"	"27.06"	"26.023"	"25.974"	"24.923"	"21.472"	"17.58"
"1970"	"18.127"	"19.897"	"24.928"	"30.419"	"32.173"	"28.778"	"26.714"	"26.514"	"25.972"	"24.273"	"19.272"	"15.981"
"1971"	"16.786"	"18.983"	"23.827"	"26.623"	"28.571"	"27.422"	"25.417"	"25.018"	"25.868"	"24.274"	"19.583"	"16.581"
"1972"	"16.695"	"17.638"	"25.036"	"29.235"	"32.431"	"31.371"	"27.113"	"26.768"	"25.179"	"23.88"	"19.927"	"17.143"
"1973"	"17.156"	"20.342"	"23.737"	"29.836"	"31.071"	"28.789"	"26.864"	"26.716"	"25.816"	"24.468"	"20.014"	"17.026"
"1974"	"16.005"	"19.087"	"24.976"	"29.675"	"31.021"	"30.667"	"26.618"	"26.723"	"26.476"	"25.211"	"19.772"	"15.386"
"1975"	"16.231"	"19.781"	"24.78"	"29.625"	"32.076"	"29.829"	"26.266"	"26.266"	"25.868"	"25.267"	"20.044"	"16.38"
"1976"	"17.026"	"20.579"	"25.426"	"28.77"	"30.571"	"30.26"	"27.01"	"26.512"	"25.968"	"25.274"	"22.482"	"17.783"
"1977"	"16.933"	"19.793"	"26.665"	"28.914"	"28.436"	"29.168"	"26.569"	"26.956"	"26.662"	"24.522"	"21.716"	"15.616"
"1978"	"16.032"	"19.481"	"23.327"	"28.126"	"31.677"	"28.935"	"26.563"	"26.657"	"26.117"	"24.379"	"21.327"	"17.126"
"1979"	"18.039"	"17.726"	"24.47"	"29.117"	"31.919"	"30.744"	"27.918"	"27.355"	"25.717"	"25.27"	"23.076"	"17.683"
"1980"	"17.683"	"20.195"	"24.271"	"30.719"	"31.47"	"28.306"	"26.153"	"25.862"	"26.468"	"24.611"	"20.918"	"17.727"
"1981"	"16.633"	"19.894"	"24.379"	"27.778"	"29.67"	"30.216"	"26.765"	"27.018"	"26.713"	"24.673"	"20.274"	"17.033"
"1982"	"18.931"	"19.734"	"23.481"	"28.98"	"31.935"	"29.674"	"29.159"	"26.66"	"27.268"	"25.073"	"21.022"	"17.839"
"1983"	"16.801"	"19.531"	"25.376"	"28.383"	"30.525"	"31.518"	"27.664"	"27.212"	"27.112"	"24.32"	"20.129"	"17.276"
"1984"	"17.483"	"18.631"	"25.329"	"30.371"	"32.618"	"28.08"	"26.719"	"26.324"	"26.273"	"24.968"	"19.422"	"17.583"
"1985"	"18.131"	"19.332"	"26.066"	"30.02"	"30.906"	"30.455"	"25.952"	"26.251"	"26.716"	"23.897"	"20.456"	"18.469"
"1986"	"17.067"	"19.626"	"24.325"	"29.062"	"29.612"	"29.954"	"26.26"	"25.862"	"25.963"	"23.56"	"20.756"	"17.469"
"1987"	"16.771"	"20.159"	"24.459"	"28.765"	"30.617"	"31.3"	"26.606"	"25.912"	"26.209"	"24.61"	"20.651"	"17.814"
"1988"	"17.716"	"20.06"	"24.465"	"29.352"	"31.445"	"28.204"	"26.752"	"27.272"	"27.762"	"25.571"	"20.974"	"19.133"
"1989"	"17.035"	"20.932"	"25.576"	"30.629"	"31.718"	"28.622"	"26.968"	"26.718"	"26.862"	"25.37"	"21.016"	"17.376"
"1990"	"18.384"	"20.425"	"23.571"	"28.969"	"29.824"	"29.568"	"26.271"	"27.069"	"26.961"	"23.668"	"21.313"	"17.926"
"1991"	"16.54"	"21.528"	"25.135"	"28.833"	"31.862"	"28.78"	"27.663"	"26.124"	"26.577"	"24.221"	"19.465"	"16.688"
"1992"	"16.585"	"18.439"	"25.67"	"29.728"	"30.482"	"29.818"	"27.956"	"26.814"	"26.762"	"24.968"	"21.412"	"17.517"
"1993"	"18.177"	"21.365"	"24.619"	"28.728"	"31.864"	"31"	"27.708"	"26.767"	"26.362"	"25.064"	"19.922"	"17.28"
"1994"	"18.377"	"19.63"	"25.825"	"28.53"	"31.971"	"29.813"	"26.514"	"26.218"	"26.367"	"25.163"	"21.111"	"17.774"
"1995"	"16.187"	"19.777"	"24.482"	"29.679"	"31.121"	"31.41"	"26.964"	"26.529"	"26.274"	"24.864"	"21.011"	"17.881"
"1996"	"17.986"	"19.037"	"26.223"	"28.187"	"32.573"	"28.681"	"27.122"	"26.023"	"27.072"	"24.562"	"20.815"	"16.887"
"1997"	"16.632"	"18.732"	"25.227"	"27.027"	"31.122"	"31.515"	"26.569"	"26.371"	"26.068"	"25.165"	"21.721"	"18.182"
"1998"	"16.584"	"20.081"	"22.487"	"28.238"	"30.785"	"32.256"	"26.621"	"26.974"	"26.767"	"26.51"	"21.569"	"18.468"
"1999"	"16.63"	"20.833"	"25.927"	"31.076"	"31.172"	"29.718"	"26.664"	"26.562"	"26.115"	"25.611"	"21.607"	"18.723"
"2000"	"17.491"	"19.133"	"24.579"	"30.373"	"31.172"	"28.868"	"27.507"	"27.072"	"26.073"	"25.807"	"22.454"	"17.517"
"2001"	"16.728"	"19.89"	"25.129"	"29.721"	"31.767"	"27.925"	"26.016"	"27.119"	"27.22"	"26.305"	"22.76"	"18.913"
"2002"	"17.484"	"20.879"	"25.926"	"29.572"	"32.322"	"30.46"	"27.96"	"26.468"	"26.367"	"24.768"	"20.918"	"18.524"
