
"Year"	"Jan"	"Feb"	"Mar"	"Apr"	"May"	"Jun"	"Jul"	"Aug"	"Sep"	"Oct"	"Nov"	"Dec"
"1901"	"1.296"	"0"	"3.372"	"1.069"	"14.267"	"47.409"	"273.08"	"209.325"	"25.778"	"19.17"	"0.245"	"0"
"1902"	"2.271"	"0"	"0"	"0.771"	"3.585"	"41.89"	"262.527"	"257.136"	"254.192"	"11.346"	"19.896"	"7.382"
"1903"	"0.088"	"0"	"0"	"0"	"11.2"	"69.313"	"534.873"	"179.192"	"292.626"	"2.573"	"0.245"	"0"
"1904"	"0"	"3.658"	"9.492"	"0.011"	"7.623"	"95.571"	"213.097"	"58.055"	"151.727"	"5.777"	"0.245"	"1.698"
"1905"	"0"	"0.08"	"0.318"	"0"	"2.847"	"50.637"	"574.797"	"70.397"	"120.173"	"0.197"	"0.259"	"0"
"1906"	"0"	"1.821"	"0"	"0"	"0"	"245.406"	"445.448"	"286.469"	"258.928"	"1.065"	"0.245"	"0.171"
"1907"	"0.551"	"0.851"	"0"	"2.104"	"0"	"61.837"	"413.505"	"293.258"	"23.431"	"0.197"	"4.619"	"0"
"1908"	"3.849"	"0.364"	"1.054"	"0.784"	"0"	"117.53"	"470.615"	"277.098"	"21.779"	"0.197"	"0.245"	"0"
"1909"	"0.093"	"1.083"	"0.56"	"10.308"	"2.565"	"126.204"	"319.454"	"221.852"	"171.938"	"0.657"	"0.245"	"20.435"
"1910"	"5.802"	"0"	"0"	"2.426"	"1.476"	"326.117"	"310.244"	"323.315"	"111.897"	"34.133"	"37.624"	"0"
"1911"	"5.714"	"0"	"12.403"	"0"	"0"	"159.343"	"83.268"	"78.805"	"112.238"	"1.314"	"27.21"	"0"
"1912"	"0"	"0.249"	"0"	"1.815"	"3.427"	"96.794"	"505.916"	"238.349"	"39.911"	"14.642"	"70.641"	"0"
"1913"	"0"	"0.087"	"0.56"	"0"	"22.081"	"249.675"	"499.655"	"213.139"	"121.634"	"0.441"	"0.982"	"1.393"
"1914"	"0"	"1.558"	"0"	"1.386"	"10.441"	"196.015"	"308.505"	"139.859"	"211.582"	"12.564"	"16.733"	"0.129"
"1915"	"2.571"	"1.049"	"16.374"	"6.633"	"4.883"	"105.518"	"166.532"	"127.876"	"110.6"	"67.067"	"1.564"	"3.513"
"1916"	"0"	"0.607"	"0"	"0.197"	"7.136"	"198.693"	"243.035"	"385.225"	"216.119"	"26.784"	"19.566"	"0"
"1917"	"0.635"	"1.35"	"0.015"	"7.84"	"32.218"	"196.201"	"246.598"	"285.451"	"408.144"	"75.505"	"0.269"	"0"
"1918"	"0"	"0"	"2.91"	"0"	"14.829"	"81.325"	"122.112"	"188.403"	"24.371"	"0.259"	"4.976"	"0"
"1919"	"7.324"	"0"	"0"	"3.832"	"14.969"	"200.725"	"339.462"	"470.581"	"90.547"	"38.042"	"21.946"	"0.47"
"1920"	"2.363"	"0.812"	"1.188"	"0.533"	"27.413"	"195.222"	"446.564"	"107.171"	"65.848"	"0.197"	"0.245"	"0"
"1921"	"1.351"	"0"	"0"	"0"	"0"	"124.53"	"401.166"	"197.869"	"448.051"	"6.087"	"0.245"	"0"
"1922"	"1.062"	"0.053"	"0"	"0"	"1.018"	"121.719"	"347.54"	"85.314"	"332.654"	"4.05"	"41.396"	"1.095"
"1923"	"0"	"1.361"	"3.901"	"0.062"	"3.099"	"2.308"	"388.529"	"157.095"	"140.683"	"0.197"	"1.001"	"0.265"
"1924"	"1.563"	"0"	"0.563"	"0.197"	"9.954"	"73.969"	"289.745"	"258.86"	"251.763"	"26.061"	"0.245"	"7.223"
"1925"	"0"	"0"	"0"	"0"	"11.215"	"256.882"	"186.334"	"84.427"	"36.629"	"0.197"	"35.138"	"0.623"
"1926"	"9.079"	"0.027"	"1.203"	"6.188"	"2.345"	"17.305"	"338.378"	"390.698"	"198.98"	"0.197"	"1.354"	"0.502"
"1927"	"0"	"0.577"	"0.156"	"0"	"2.834"	"130.2"	"424.893"	"218.665"	"103.524"	"18.346"	"81.599"	"9.975"
"1928"	"0.062"	"1.115"	"3.526"	"0"	"1.251"	"118.45"	"380.192"	"286.663"	"105.046"	"38.172"	"33.072"	"16.611"
"1929"	"3.333"	"0.88"	"0"	"3.839"	"0"	"176.044"	"362.048"	"155.488"	"58.102"	"3.805"	"0.245"	"3.047"
"1930"	"4.074"	"0"	"0"	"0.197"	"2.175"	"147.713"	"475.533"	"185.169"	"313.069"	"29.068"	"0.401"	"0"
"1931"	"0.208"	"0"	"0"	"0"	"0"	"23.835"	"298.258"	"396.465"	"131.137"	"115.316"	"14.832"	"8.586"
"1932"	"0"	"0.185"	"5.907"	"0.037"	"0"	"72.843"	"562.611"	"111.379"	"256.457"	"17.181"	"0.245"	"0"
"1933"	"0"	"0.68"	"0"	"6.671"	"19.657"	"204.057"	"348.613"	"453.254"	"270.826"	"13.4"	"5.591"	"2.724"
"1934"	"0.682"	"0"	"0.297"	"0"	"0"	"275.433"	"296.927"	"457.48"	"300.114"	"2.187"	"29.68"	"0.225"
"1935"	"2.921"	"0.797"	"0"	"5.102"	"2.752"	"107.319"	"437.444"	"114.547"	"256.478"	"28.631"	"1.475"	"0"
"1936"	"0"	"0.613"	"14.438"	"1.584"	"9.519"	"264.056"	"109.512"	"63.947"	"259.914"	"0.197"	"104.161"	"0"
"1937"	"0"	"0.915"	"1.825"	"0.197"	"0"	"224.067"	"416.259"	"59.588"	"312.137"	"4.927"	"0.245"	"3.148"
"1938"	"0.088"	"0"	"3.136"	"0"	"18.196"	"362.286"	"415.85"	"168.815"	"50.269"	"54.297"	"0.259"	"0"
"1939"	"0"	"0.791"	"10.869"	"0.197"	"0"	"27.178"	"283.016"	"321.42"	"178.988"	"0.688"	"3.661"	"0.23"
"1940"	"2.329"	"0.703"	"4.188"	"3.837"	"5.791"	"198.026"	"295.091"	"250.581"	"107.581"	"74.064"	"51.02"	"0.063"
"1941"	"2.283"	"2.326"	"0.342"	"5.154"	"0.004"	"25.427"	"457.368"	"371.622"	"111.437"	"0.202"	"0.245"	"0"
"1942"	"2.517"	"1.447"	"0"	"0"	"5.444"	"87.89"	"612.796"	"370.094"	"123.651"	"0.197"	"0.245"	"1.896"
"1943"	"1.285"	"0"	"0"	"1.399"	"16.831"	"138.326"	"338.464"	"98.073"	"228.325"	"50.587"	"0.245"	"0"
"1944"	"0.674"	"0"	"7.8"	"0.576"	"0.2"	"134.765"	"538.478"	"609.834"	"152.384"	"57.684"	"0.245"	"0"
"1945"	"3.02"	"0"	"0"	"0.007"	"4.739"	"174.037"	"468.813"	"180.928"	"403.243"	"1.806"	"0.262"	"0"
"1946"	"0"	"0.316"	"0"	"0.255"	"2.962"	"336.123"	"366.051"	"319.426"	"126.088"	"0.441"	"94.137"	"11.064"
"1947"	"0.04"	"0.04"	"0.289"	"6.101"	"0.479"	"15.758"	"300.09"	"330.539"	"328.173"	"31.589"	"0.245"	"2.788"
"1948"	"6.334"	"0.398"	"1.748"	"0.867"	"0.735"	"180.798"	"269.152"	"171.398"	"140.783"	"15.746"	"75.145"	"0.974"
"1949"	"0"	"0"	"0"	"0.197"	"2.455"	"93.058"	"306.696"	"194.303"	"289.099"	"34.421"	"4.402"	"0"
"1950"	"0"	"0"	"2.952"	"0"	"2.117"	"27.178"	"529.253"	"67.11"	"376.307"	"0.715"	"0.285"	"0.738"
"1951"	"0"	"0"	"0.128"	"1.614"	"2.226"	"86.672"	"314.655"	"158.746"	"30.873"	"9.153"	"0.334"	"0"
"1952"	"0"	"0.053"	"0"	"1.053"	"0.12"	"180.379"	"354.507"	"152.948"	"40.868"	"0.267"	"0.245"	"0.04"
"1953"	"12.166"	"0"	"0"	"0.242"	"0"	"85.201"	"263.448"	"360.995"	"109.139"	"3.858"	"0.245"	"0"
"1954"	"1.856"	"0.394"	"1.42"	"0.004"	"0"	"107.959"	"369.199"	"186.085"	"596.141"	"19.149"	"0.245"	"0.491"
"1955"	"2.731"	"0.364"	"0"	"0"	"0.221"	"166.938"	"88.698"	"449.213"	"394.787"	"73.205"	"0.245"	"0"
"1956"	"1.306"	"0"	"0"	"0.296"	"8.209"	"150.725"	"378.583"	"269.809"	"210.658"	"74.513"	"10.57"	"0.63"
"1957"	"0.026"	"0"	"2.663"	"1.74"	"3.021"	"167.548"	"266.997"	"255.86"	"43.189"	"18.597"	"10.304"	"0.237"
"1958"	"2.095"	"0"	"1.776"	"1.314"	"1.04"	"121.334"	"354.804"	"336.316"	"381.71"	"53.468"	"38.281"	"0"
"1959"	"3.306"	"0"	"0"	"2.025"	"1.359"	"114.071"	"682.508"	"289.095"	"427.599"	"110.261"	"14.121"	"0"
"1960"	"4.746"	"0"	"5.261"	"0.247"	"6.154"	"206.198"	"215.535"	"278.727"	"105.214"	"10.183"	"0.245"	"0.161"
"1961"	"0.505"	"1.769"	"0"	"0.199"	"6.818"	"84.224"	"342.206"	"205.584"	"517.477"	"31.233"	"19.102"	"0.953"
"1962"	"1.387"	"0"	"10.019"	"2.749"	"1.83"	"28.295"	"354.739"	"177.419"	"397.861"	"0.197"	"16.35"	"13.339"
"1963"	"2.787"	"1.035"	"1.818"	"0"	"1.807"	"83.793"	"329.351"	"402.621"	"222.897"	"59.945"	"32.395"	"0.498"
"1964"	"0"	"0"	"7.663"	"0"	"2.189"	"187.615"	"352.912"	"238.403"	"213.058"	"3.694"	"0.624"	"0"
"1965"	"2.694"	"0"	"4.953"	"1.068"	"0.221"	"19.414"	"290.104"	"175.304"	"66.484"	"1.97"	"2.145"	"4.361"
"1966"	"1.848"	"0"	"0.385"	"0"	"4.052"	"91.274"	"260.023"	"101.024"	"169.683"	"2.168"	"21.255"	"0.182"
"1967"	"0"	"0"	"22.27"	"1.835"	"0.221"	"208.98"	"310.492"	"231.765"	"156.24"	"0.681"	"0.245"	"16.096"
"1968"	"0"	"0.29"	"17.4"	"0.027"	"0"	"39.062"	"294.081"	"268.231"	"88.252"	"16.585"	"0.245"	"0"
"1969"	"0.92"	"0"	"0"	"0"	"0"	"138.984"	"323.126"	"205.128"	"191.001"	"0.197"	"50.614"	"0"
"1970"	"0.379"	"0.398"	"0.805"	"1.154"	"11.395"	"323.799"	"195.07"	"293.603"	"288.483"	"0.656"	"0.245"	"0"
"1971"	"0"	"0"	"0"	"0"	"13.914"	"151.818"	"347.883"	"232.561"	"157.974"	"11.488"	"0.245"	"0"
"1972"	"0"	"0.083"	"0"	"0.344"	"2.951"	"63.678"	"197.164"	"275.837"	"37.956"	"0.31"	"2.273"	"0"
"1973"	"2.98"	"1.579"	"0"	"0"	"2.495"	"92.394"	"552.064"	"390.773"	"457.451"	"20.166"	"0.245"	"2.77"
"1974"	"0"	"0.132"	"0"	"0.786"	"38.85"	"33.693"	"164.47"	"260.036"	"95.249"	"54.847"	"0.245"	"4.92"
"1975"	"0"	"0.121"	"0.141"	"0"	"2.697"	"188.186"	"281.722"	"368.604"	"289.667"	"84.719"	"0.245"	"0"
"1976"	"5.355"	"0"	"0.796"	"0.085"	"0"	"237.668"	"286.211"	"368.273"	"138.192"	"0.197"	"101.269"	"0.455"
"1977"	"0"	"0.536"	"1.855"	"5.054"	"9.423"	"182.958"	"372.63"	"237.253"	"211.121"	"1.294"	"39.379"	"0.822"
"1978"	"0.317"	"2.093"	"0.555"	"10.481"	"0.015"	"156.171"	"267.849"	"380.703"	"44.776"	"19.042"	"32.527"	"19.994"
"1979"	"3.235"	"2.259"	"1.02"	"0"	"0.219"	"138.937"	"155.735"	"375.941"	"31.941"	"14.314"	"99.292"	"1.905"
"1980"	"0.04"	"0.602"	"0"	"0"	"0"	"384.709"	"275.682"	"311.356"	"33.827"	"0.197"	"1.763"	"22.423"
"1981"	"0.787"	"0"	"2.347"	"0.197"	"4.835"	"116.712"	"320.804"	"431.303"	"154.289"	"24.22"	"50.884"	"0.072"
"1982"	"2.895"	"0.607"	"0.342"	"1.273"	"16.157"	"55.227"	"278.248"	"152.349"	"83.351"	"16.549"	"119.506"	"0"
"1983"	"0"	"0"	"0"	"1.273"	"1.251"	"141.691"	"385.278"	"334.161"	"207.914"	"62.462"	"0.245"	"0"
"1984"	"0.128"	"0.267"	"0"	"0"	"0"	"43.483"	"244.76"	"505.91"	"92.501"	"19.15"	"0.299"	"1.44"
"1985"	"0"	"0"	"0.169"	"7.294"	"1.293"	"31.856"	"240.081"	"239.722"	"77.077"	"93.831"	"8.233"	"0"
"1986"	"0.088"	"0.533"	"0"	"0"	"3.15"	"188.168"	"295.656"	"281.692"	"59.408"	"6.625"	"0.282"	"2.279"
"1987"	"2.111"	"0.884"	"4.04"	"0"	"9.279"	"107.431"	"150.215"	"314.741"	"10.644"	"23.536"	"13.079"	"18.432"
"1988"	"0.092"	"0"	"0.06"	"6.801"	"0.486"	"115.246"	"392.135"	"260.565"	"204.125"	"34.631"	"1.396"	"0"
"1989"	"0.419"	"0"	"14.965"	"0.269"	"4.065"	"198.635"	"146.029"	"251.588"	"150.743"	"0.529"	"0.245"	"0.66"
"1990"	"0.088"	"1.24"	"0"	"0"	"26.418"	"93.007"	"290.598"	"511.094"	"199.097"	"11.606"	"6.298"	"16.603"
"1991"	"0"	"0"	"0.981"	"0.341"	"0.786"	"180.712"	"416.859"	"121.839"	"27.852"	"0.893"	"5.228"	"0.183"
"1992"	"0.026"	"0.026"	"0"	"0"	"9.15"	"94.811"	"181.509"	"196.989"	"309.111"	"18.923"	"1.891"	"0"
"1993"	"0"	"0"	"2.619"	"0"	"2.99"	"127.013"	"459.938"	"171.923"	"180.792"	"12.067"	"7.298"	"0.838"
"1994"	"7.951"	"0"	"4.271"	"1.246"	"2.186"	"251.916"	"317.833"	"365.566"	"362.988"	"2.482"	"1.366"	"0"
"1995"	"2.207"	"0"	"8.689"	"1.887"	"7.542"	"54.788"	"446.568"	"151.389"	"156.071"	"23.563"	"1.803"	"1.522"
"1996"	"2.576"	"0.131"	"2.601"	"1.515"	"4.889"	"101.799"	"600.32"	"239.759"	"163.997"	"46.285"	"1.679"	"0"
"1997"	"3.723"	"0"	"0"	"6.797"	"3.856"	"198.698"	"373.557"	"339.592"	"68.24"	"14.585"	"23.683"	"9.135"
"1998"	"1.324"	"0.265"	"4.04"	"0.536"	"5.098"	"97.774"	"321.861"	"217.731"	"280.967"	"34.338"	"7.802"	"0"
"1999"	"0.079"	"1.663"	"0"	"0"	"1.64"	"246.939"	"210.927"	"91.066"	"236.482"	"60.605"	"0.245"	"1.002"
"2000"	"0"	"0.079"	"0"	"0"	"17.504"	"111.417"	"363.615"	"146.683"	"22.355"	"7.623"	"1.339"	"0.017"
"2001"	"0.263"	"0"	"2.864"	"0.169"	"14.825"	"299.127"	"197.15"	"126.833"	"16.874"	"35.749"	"1.79"	"0"
"2002"	"0"	"1.612"	"6.885"	"8.359"	"0.89"	"231.727"	"45.163"	"228.619"	"113.601"	"0.368"	"2.267"	"0.276"
