
"Year"	"Jan"	"Feb"	"Mar"	"Apr"	"May"	"Jun"	"Jul"	"Aug"	"Sep"	"Oct"	"Nov"	"Dec"
"1901"	"12.877"	"15.266"	"22.505"	"27.571"	"32.095"	"35.296"	"32.379"	"30.14"	"30.25"	"28.073"	"21.089"	"16.24"
"1902"	"15.6"	"17.889"	"24.7"	"28.971"	"32.695"	"33.096"	"31.169"	"31.24"	"29.157"	"26.472"	"20.378"	"14.629"
"1903"	"14.4"	"16.178"	"21.088"	"26.753"	"31.7"	"35.703"	"33.056"	"29.94"	"30.139"	"26.345"	"19.583"	"14.436"
"1904"	"13.712"	"16.889"	"21.594"	"28.878"	"32.196"	"34.256"	"30.352"	"29.217"	"28.944"	"26.361"	"19.701"	"15.706"
"1905"	"12.682"	"12.054"	"18.894"	"25.671"	"33.697"	"35.272"	"32.269"	"30.63"	"31.05"	"27.261"	"21.807"	"15.817"
"1906"	"13.383"	"14.865"	"20.317"	"27.571"	"34.767"	"33.285"	"31.847"	"29.574"	"28.674"	"27.068"	"21.394"	"16.418"
"1907"	"15.817"	"14.683"	"19.523"	"25.395"	"30.684"	"33.602"	"33.467"	"29.234"	"30.509"	"27.151"	"20.895"	"14.417"
"1908"	"14.001"	"16.778"	"22.082"	"28.765"	"32.578"	"34.961"	"30.041"	"28.057"	"29.05"	"25.968"	"19.689"	"14.917"
"1909"	"13.489"	"15.489"	"22.212"	"26.366"	"31.874"	"32.214"	"29.256"	"28.839"	"28.444"	"26.479"	"21.589"	"14.511"
"1910"	"13.506"	"16.589"	"22.2"	"26.954"	"33.072"	"33.179"	"30.644"	"29.157"	"29.35"	"25.351"	"19.471"	"15.018"
"1911"	"15.7"	"16.889"	"20.2"	"27.772"	"33.983"	"33.778"	"33.169"	"31.352"	"29.052"	"26.861"	"18.201"	"14.847"
"1912"	"14.806"	"17.778"	"21.589"	"28.072"	"33.166"	"35.49"	"31.556"	"29.339"	"28.157"	"26.461"	"19.478"	"15.029"
"1913"	"14.989"	"16.382"	"19.893"	"29.354"	"30.89"	"31.584"	"30.355"	"30.543"	"30.548"	"27.567"	"20.206"	"15.205"
"1914"	"16.206"	"16.171"	"21.693"	"28.271"	"32.918"	"33.072"	"30.361"	"29.651"	"29.356"	"25.095"	"20.8"	"14.518"
"1915"	"14.106"	"14.789"	"22.095"	"28.05"	"35.061"	"34.285"	"33.362"	"30.941"	"30.778"	"27.778"	"20.595"	"15.929"
"1916"	"15.189"	"15.954"	"24.788"	"29.743"	"32.395"	"32.856"	"30.656"	"28.739"	"28.932"	"25.832"	"18.466"	"14.406"
"1917"	"14.618"	"17.066"	"22.088"	"24.977"	"28.601"	"32.555"	"29.639"	"28.445"	"27.537"	"24.644"	"17.678"	"15.211"
"1918"	"13.571"	"16.907"	"21.818"	"25.682"	"34.578"	"33.478"	"33.932"	"31.522"	"30.227"	"27.062"	"20.389"	"14.607"
"1919"	"14.488"	"15.589"	"22.789"	"27.454"	"32.056"	"36.039"	"30.281"	"28.933"	"29.222"	"26.239"	"19.588"	"14.511"
"1920"	"14.089"	"15.782"	"22.294"	"27.653"	"29.361"	"32.433"	"30.423"	"30.217"	"31.044"	"27.949"	"21.772"	"16.001"
"1921"	"15.371"	"17.571"	"25.289"	"31.338"	"35.52"	"35.185"	"33.267"	"29.351"	"29.034"	"25.654"	"20.288"	"17.028"
"1922"	"14.082"	"17.789"	"23.766"	"28.953"	"33.155"	"33.261"	"31.263"	"29.347"	"28.356"	"25.566"	"19.795"	"15.118"
"1923"	"13.999"	"15.7"	"22.917"	"29.06"	"32.067"	"35.866"	"31.355"	"28.456"	"29.438"	"25.579"	"19.871"	"15.317"
"1924"	"13.395"	"16.189"	"23.411"	"28.766"	"29.977"	"35.65"	"31.558"	"29.334"	"27.937"	"25.351"	"19.654"	"15.406"
"1925"	"12.389"	"14.289"	"22.701"	"30.25"	"32.354"	"30.756"	"28.963"	"29.874"	"30.268"	"26.59"	"18.999"	"14.847"
"1926"	"14.695"	"17.906"	"21.1"	"25.072"	"30.195"	"35.19"	"31.674"	"28.85"	"28.339"	"25.368"	"18.095"	"14.607"
"1927"	"12.767"	"14.476"	"20.989"	"27.071"	"31.384"	"33.896"	"30.367"	"28.563"	"28.833"	"26.273"	"19.76"	"16.211"
"1928"	"13.611"	"16.989"	"22.4"	"27.96"	"34.279"	"33.985"	"31.556"	"31.139"	"29.938"	"27.156"	"20.883"	"14.811"
"1929"	"14.172"	"15.377"	"24.507"	"29.16"	"33.555"	"33.978"	"30.656"	"28.944"	"30.532"	"26.472"	"20.6"	"14.123"
"1930"	"13.411"	"16.271"	"23.088"	"27.559"	"32.361"	"32.873"	"29.174"	"29.44"	"29.083"	"26.472"	"19.582"	"15.029"
"1931"	"15.095"	"14.475"	"21.094"	"29.183"	"32.571"	"34.571"	"31.055"	"29.546"	"28.45"	"25.661"	"19.289"	"15.611"
"1932"	"15.847"	"15.884"	"23.288"	"28.154"	"31.495"	"35.368"	"31.144"	"28.445"	"29.069"	"26.372"	"19.489"	"14.935"
"1933"	"12.011"	"16.971"	"22.104"	"26.565"	"29.774"	"32.652"	"29.451"	"27.357"	"27.568"	"25.268"	"19.395"	"15.806"
"1934"	"12.395"	"17.984"	"21.199"	"27.871"	"31.777"	"32.785"	"30.634"	"28.247"	"29.745"	"25.762"	"19.895"	"16.117"
"1935"	"12.477"	"16.971"	"22.106"	"25.083"	"32.967"	"34.968"	"30.156"	"28.75"	"28.538"	"25.861"	"20.589"	"15.123"
"1936"	"12.9"	"17.089"	"21.488"	"27.871"	"34.679"	"31.196"	"29.785"	"28.556"	"28.556"	"26.251"	"19.882"	"15.211"
"1937"	"13.313"	"16.594"	"20.511"	"26.283"	"32.407"	"33.903"	"30.051"	"30.821"	"29.45"	"25.361"	"19.487"	"13.809"
"1938"	"13.289"	"15.083"	"23.512"	"29.154"	"34.684"	"32.468"	"31.562"	"30.446"	"30.833"	"27.473"	"18.688"	"14.711"
"1939"	"14.8"	"16.901"	"19.7"	"26.758"	"34.26"	"31.979"	"30.868"	"30.968"	"29.957"	"27.361"	"19.795"	"15.641"
"1940"	"14.312"	"16.277"	"20.889"	"26.982"	"33.778"	"34.46"	"31.379"	"28.351"	"28.938"	"26.285"	"20.901"	"15.228"
"1941"	"13.278"	"17.595"	"24.706"	"31.243"	"34.355"	"32.183"	"32.943"	"30.156"	"29.643"	"28.862"	"20.389"	"16.311"
"1942"	"12.895"	"17.593"	"23.899"	"30.072"	"33.571"	"34.883"	"29.362"	"27.962"	"27.443"	"25.961"	"21.066"	"14.01"
"1943"	"14.087"	"16.682"	"23.112"	"26.771"	"32.399"	"33.527"	"29.863"	"28.241"	"29.534"	"26.05"	"20.778"	"16.407"
"1944"	"13.406"	"16.194"	"21.011"	"27.277"	"34.16"	"33.163"	"29.963"	"29.339"	"28.826"	"25.444"	"20.685"	"16.017"
"1945"	"12.078"	"15.666"	"23.005"	"26.976"	"32.018"	"34.382"	"30.344"	"29.645"	"28.157"	"25.75"	"20.178"	"13.8"
"1946"	"14.772"	"18.26"	"21.795"	"29.889"	"32.99"	"33.591"	"30.173"	"29.152"	"29.399"	"26.868"	"19.772"	"14.217"
"1947"	"13.466"	"16.771"	"23.311"	"29.932"	"33.668"	"36.033"	"32.373"	"30.311"	"28.456"	"25.362"	"21.383"	"15.311"
"1948"	"13.472"	"16.172"	"21.106"	"30.937"	"34.023"	"34.972"	"30.896"	"28.368"	"29.262"	"27.283"	"19.187"	"15.14"
"1949"	"15.976"	"16.876"	"22.789"	"29.838"	"34.274"	"34.355"	"30.068"	"29.427"	"30.452"	"26.22"	"18.765"	"14.612"
"1950"	"15.471"	"14.265"	"21.204"	"27.054"	"33.35"	"34.554"	"30.04"	"28.822"	"28.161"	"25.472"	"19.06"	"13.422"
"1951"	"13.489"	"16.248"	"22.371"	"26.16"	"32.373"	"33.64"	"32.757"	"29.934"	"29.838"	"29.202"	"21.772"	"15.889"
"1952"	"15.371"	"18.854"	"22.554"	"31.014"	"33.379"	"33.179"	"31.267"	"28.551"	"30.315"	"26.937"	"20.536"	"15.699"
"1953"	"13.984"	"19.054"	"26.171"	"29.42"	"33.739"	"34.561"	"30.656"	"28.823"	"29.421"	"26.726"	"20.277"	"18.099"
"1954"	"13.577"	"17.667"	"22.483"	"29.231"	"34.543"	"34.75"	"31.346"	"30.733"	"30.033"	"24.256"	"20.395"	"15.912"
"1955"	"14.172"	"17.449"	"24.882"	"26.725"	"31.078"	"34.85"	"31.739"	"28.74"	"28.633"	"24.95"	"19.56"	"15.806"
"1956"	"14.354"	"17.342"	"22.872"	"29.42"	"34.745"	"33.961"	"29.927"	"28.721"	"30.321"	"25.044"	"19.16"	"15.912"
"1957"	"13.66"	"15.454"	"21.566"	"26.954"	"31.332"	"33.461"	"31.045"	"29.645"	"27.885"	"26.367"	"20.883"	"15.605"
"1958"	"15.889"	"16.072"	"23.877"	"30.833"	"32.744"	"34.867"	"30.157"	"29.37"	"28.627"	"26.227"	"20.549"	"16.517"
"1959"	"13.96"	"16.054"	"23.495"	"28.726"	"32.25"	"34.634"	"30.744"	"29.427"	"29.237"	"27.201"	"20.566"	"16.012"
"1960"	"13.878"	"19.449"	"21.877"	"27.221"	"33.104"	"34.832"	"30.716"	"28.929"	"29.957"	"25.867"	"19.571"	"15.728"
"1961"	"14.967"	"15.083"	"23.095"	"27.836"	"32.666"	"33.633"	"30.697"	"28.757"	"29.339"	"25.478"	"18.612"	"13.024"
"1962"	"13"	"17.671"	"22.505"	"29.56"	"32.956"	"34.256"	"31.461"	"30.134"	"28.062"	"25.105"	"19.911"	"14.767"
"1963"	"13.118"	"18.605"	"22.422"	"28.072"	"31.506"	"33.596"	"32.578"	"28.997"	"28.274"	"27.018"	"21.645"	"15.24"
"1964"	"12.293"	"16.487"	"24.057"	"29.293"	"31.013"	"34.044"	"29.108"	"29.35"	"27.885"	"25.483"	"18.982"	"15.146"
"1965"	"15.935"	"16.878"	"22"	"26.176"	"31.395"	"34.949"	"30.962"	"29.379"	"28.674"	"26.714"	"21.335"	"14.439"
"1966"	"14.828"	"19.022"	"22.483"	"28.648"	"32.388"	"32.757"	"32.172"	"29.245"	"28.373"	"26.513"	"19.916"	"14.334"
"1967"	"12.693"	"18.9"	"21.5"	"27.372"	"32.072"	"34.716"	"30.857"	"28.74"	"28.157"	"25.602"	"20.128"	"15.451"
"1968"	"13.771"	"15.254"	"22.288"	"27.766"	"32.056"	"34.385"	"30.84"	"29.668"	"30.356"	"25.908"	"20.595"	"15.622"
"1969"	"14.499"	"17.472"	"25"	"29.265"	"31.473"	"35.112"	"31.145"	"30.223"	"29.04"	"27.49"	"21.706"	"15.929"
"1970"	"14.995"	"16.266"	"22.184"	"29.56"	"33.657"	"32.013"	"31.84"	"29.557"	"29.432"	"27.168"	"19.982"	"15.833"
"1971"	"13.295"	"17.548"	"22.637"	"29.549"	"31.096"	"31.858"	"29.603"	"27.898"	"28.014"	"25.844"	"19.887"	"16.095"
"1972"	"14.7"	"14.836"	"23.413"	"27.653"	"33.413"	"34.307"	"31.761"	"28.627"	"28.292"	"25.543"	"21.083"	"16.034"
"1973"	"14.518"	"18.819"	"22.483"	"30.107"	"33.46"	"34.863"	"31.379"	"28.517"	"29.35"	"25.567"	"19.83"	"13.894"
"1974"	"14.054"	"15.288"	"24.206"	"30.349"	"32.373"	"32.767"	"30.15"	"29.829"	"30.216"	"26.307"	"19.965"	"14.533"
"1975"	"13.483"	"16.077"	"22.176"	"29.256"	"33.619"	"32.274"	"29.515"	"28.686"	"27.562"	"26.517"	"19.16"	"16.018"
"1976"	"15.266"	"17.394"	"21.304"	"27.709"	"32.156"	"31.586"	"30.542"	"27.674"	"28.52"	"26.973"	"21.037"	"15.217"
"1977"	"14.178"	"17.06"	"24.1"	"27.967"	"30.398"	"31.378"	"28.559"	"29.105"	"27.403"	"25.972"	"22.197"	"17.255"
"1978"	"13.665"	"15.108"	"20.436"	"28.127"	"35.685"	"33.352"	"29.11"	"28.406"	"27.962"	"26.146"	"20.69"	"15.632"
"1979"	"14.446"	"16.043"	"20.56"	"29.063"	"29.689"	"33.646"	"30.584"	"29.91"	"28.445"	"26.941"	"22.119"	"16.519"
"1980"	"14.354"	"18.16"	"21.729"	"30.484"	"34.545"	"33.059"	"29.065"	"29.196"	"28.897"	"27.139"	"20.932"	"15.902"
"1981"	"15.095"	"17.86"	"21.611"	"29.26"	"32.269"	"33.537"	"28.901"	"29.666"	"29.641"	"26.198"	"19.59"	"15.742"
"1982"	"14.642"	"15.53"	"19.989"	"26.948"	"29.679"	"33.251"	"32.144"	"28.876"	"29.88"	"26.915"	"21.331"	"16.325"
"1983"	"13.713"	"16.049"	"21.795"	"25.339"	"30.959"	"32.685"	"30.396"	"28.773"	"29.444"	"25.972"	"19.828"	"15.908"
"1984"	"13.56"	"15.043"	"24.034"	"29.065"	"35.325"	"34.629"	"29.91"	"28.868"	"27.755"	"25.211"	"20.15"	"16.091"
"1985"	"14.05"	"17.849"	"24.628"	"29.372"	"34.019"	"33.761"	"29.557"	"29.416"	"28.593"	"24.517"	"20.639"	"16.786"
"1986"	"14.305"	"16.265"	"22.53"	"28.595"	"30.748"	"33.596"	"30.097"	"29.667"	"29.168"	"25.972"	"21.962"	"15.14"
"1987"	"15.2"	"18.359"	"23.222"	"29.401"	"29.584"	"34.837"	"34.285"	"31.051"	"31.203"	"27.861"	"21.225"	"16.126"
"1988"	"16.1"	"18.554"	"22.689"	"29.866"	"35.274"	"33.074"	"29.65"	"28.496"	"29.278"	"26.048"	"21.06"	"16.566"
"1989"	"13.654"	"16.378"	"22.082"	"27.349"	"33.548"	"33.067"	"30.872"	"29.144"	"28.944"	"26.392"	"21.089"	"15.2"
"1990"	"16.442"	"16.848"	"20.901"	"28.266"	"32.398"	"34.256"	"29.855"	"29.333"	"28.538"	"25.466"	"21.154"	"16.27"
"1991"	"14.167"	"17.459"	"22.4"	"27.471"	"32.89"	"33.208"	"33.016"	"29.228"	"29.661"	"25.661"	"20.356"	"16.104"
"1992"	"15.132"	"16.2"	"22.394"	"27.989"	"32.119"	"34.79"	"30.224"	"29.222"	"28.333"	"25.866"	"20.077"	"16.908"
"1993"	"14.723"	"18.931"	"21"	"28.572"	"33.963"	"33.933"	"30.161"	"30.699"	"27.667"	"25.908"	"21.371"	"15.799"
"1994"	"15.686"	"16.765"	"24.007"	"27.173"	"33.485"	"34.162"	"29.597"	"28.739"	"28.526"	"25.584"	"20.577"	"16.476"
"1995"	"13.76"	"17.254"	"21.477"	"27.971"	"34.068"	"35.391"	"31.539"	"27.825"	"28.978"	"26.795"	"20.771"	"16.1"
"1996"	"14.397"	"17.46"	"23.612"	"28.966"	"32.544"	"31.779"	"31.051"	"28.557"	"28.639"	"25.908"	"19.877"	"14.993"
"1997"	"13.395"	"16.695"	"22"	"26.742"	"30.466"	"31.368"	"31.156"	"28.868"	"29.033"	"24.049"	"19.582"	"13.411"
"1998"	"13.889"	"17.278"	"20.707"	"29.06"	"33.773"	"33.179"	"30.75"	"29.48"	"29.255"	"26.239"	"20.995"	"15.605"
"1999"	"13.689"	"17.56"	"23.583"	"30.261"	"33.362"	"32.89"	"31.439"	"30.15"	"29.351"	"26.567"	"21.718"	"15.9"
"2000"	"14.417"	"15.884"	"22.306"	"30.548"	"34.344"	"32.092"	"29.863"	"29.65"	"29.244"	"26.772"	"21.693"	"16.223"
"2001"	"13.606"	"17.761"	"22.895"	"28.643"	"32.563"	"31.174"	"30.622"	"30.033"	"30.191"	"27.372"	"21.477"	"16.505"
"2002"	"14.666"	"16.989"	"23.34"	"30.349"	"33.862"	"33.485"	"32.166"	"30.251"	"27.797"	"26.684"	"21.278"	"16.522"
