
"Year"	"Jan"	"Feb"	"Mar"	"Apr"	"May"	"Jun"	"Jul"	"Aug"	"Sep"	"Oct"	"Nov"	"Dec"
"1901"	"20.239"	"56.395"	"10.28"	"12.618"	"18.818"	"104.984"	"222.897"	"286.631"	"235.916"	"20.138"	"12.191"	"0"
"1902"	"9.009"	"2.024"	"1.242"	"7.023"	"11.572"	"110.036"	"337.096"	"373.911"	"297.24"	"8.203"	"1.074"	"15.855"
"1903"	"3.965"	"20.765"	"3.343"	"1.781"	"19.917"	"143.57"	"537.864"	"274.357"	"201.344"	"56.984"	"1.638"	"0.6"
"1904"	"0.646"	"5.507"	"37.132"	"0.2"	"80.67"	"216.16"	"332.722"	"711.824"	"150.91"	"47.098"	"0.341"	"3.22"
"1905"	"5.118"	"16.088"	"48.544"	"54.652"	"32.007"	"83.907"	"393.38"	"473.605"	"482.881"	"5.843"	"0"	"0.668"
"1906"	"4.022"	"54.88"	"28.781"	"0.2"	"4.288"	"251.704"	"554.937"	"308.424"	"208.48"	"41.195"	"2.894"	"1.856"
"1907"	"0.005"	"40.103"	"39.57"	"91.055"	"13.282"	"306.959"	"202.791"	"434.507"	"104.097"	"4.729"	"1.435"	"11.382"
"1908"	"12.04"	"21.203"	"7.96"	"4.817"	"14.149"	"295.239"	"297.46"	"527.326"	"176.829"	"48.813"	"0"	"0.427"
"1909"	"0.849"	"16.507"	"0.206"	"62.393"	"5.738"	"224.725"	"440.778"	"307.792"	"168.714"	"1.695"	"0"	"3.669"
"1910"	"7.893"	"3.46"	"20.121"	"10.624"	"7.288"	"195.947"	"422.339"	"629.96"	"203.189"	"51.817"	"8.8"	"0"
"1911"	"2.601"	"0.498"	"34.352"	"0.652"	"11.484"	"419.328"	"147.603"	"413.876"	"338.58"	"50.412"	"15.68"	"0.118"
"1912"	"0.201"	"42.979"	"4.369"	"14.996"	"15.978"	"71.34"	"380.414"	"436.497"	"164.568"	"16.351"	"10.098"	"0"
"1913"	"0"	"54.54"	"39.362"	"2.363"	"20.043"	"238.635"	"416.638"	"378.361"	"153.399"	"57.524"	"2.175"	"6.347"
"1914"	"0.867"	"19.326"	"27.512"	"53.745"	"26.075"	"202.15"	"253.094"	"436.918"	"259.344"	"4.041"	"0"	"7.033"
"1915"	"10.182"	"53.457"	"35.605"	"16.862"	"12.014"	"115.851"	"282.551"	"519.64"	"278.804"	"45.425"	"15.762"	"0"
"1916"	"0"	"13.433"	"0.2"	"4.087"	"4.311"	"254.068"	"373.316"	"426.978"	"139.767"	"74.694"	"6.09"	"0"
"1917"	"0.665"	"63.204"	"10.504"	"9.048"	"37.402"	"223.173"	"285.071"	"698.572"	"188.969"	"144.267"	"0.698"	"0.363"
"1918"	"5.01"	"0.366"	"13.718"	"2.772"	"19.644"	"313.868"	"244.381"	"569.091"	"221.085"	"3.579"	"0.366"	"2.973"
"1919"	"41.595"	"33.66"	"26.14"	"12.931"	"25.515"	"275.812"	"492.277"	"658.603"	"159.538"	"81.381"	"7.49"	"1.822"
"1920"	"1.274"	"14.092"	"48.276"	"3.363"	"12.928"	"99.181"	"532.197"	"491.794"	"123.873"	"18.614"	"0"	"0"
"1921"	"33.454"	"9.521"	"0.358"	"10.325"	"0.319"	"291.023"	"403.3"	"532.296"	"186.36"	"21.746"	"0"	"0"
"1922"	"7.167"	"1.699"	"0.2"	"6.911"	"5.36"	"270.665"	"416.688"	"457.315"	"325.097"	"41.909"	"7.945"	"0.363"
"1923"	"0"	"62.294"	"1.418"	"10.54"	"1.8"	"106.58"	"394.254"	"551.194"	"258.646"	"27.949"	"7.628"	"1.795"
"1924"	"18.446"	"14.563"	"1.016"	"18.413"	"11.215"	"79.772"	"356.302"	"356.835"	"298.278"	"55.335"	"16.255"	"0.008"
"1925"	"0.004"	"2.761"	"5.689"	"19.812"	"45.223"	"285.904"	"444.569"	"629.522"	"125.728"	"50.321"	"4.33"	"4.459"
"1926"	"3.238"	"1.688"	"80.717"	"20.998"	"32.644"	"122.461"	"374.616"	"513.723"	"296.441"	"33.117"	"1.693"	"5.201"
"1927"	"2.166"	"23.344"	"111.814"	"1.149"	"9.874"	"156.379"	"524.416"	"667.593"	"165.406"	"29.364"	"6.492"	"0.005"
"1928"	"2.407"	"7.932"	"3.212"	"33.958"	"26.085"	"161.866"	"512.404"	"341.544"	"242.555"	"109.163"	"0.162"	"1.043"
"1929"	"9.739"	"26.282"	"4.072"	"17.227"	"14.13"	"169.691"	"401.755"	"642.072"	"112.174"	"129.725"	"0"	"11.782"
"1930"	"0.61"	"2.767"	"10.417"	"24.193"	"21.781"	"134.913"	"478.171"	"328.544"	"251.798"	"24.161"	"18.613"	"4.852"
"1931"	"1.32"	"36.61"	"21.11"	"5.731"	"6.441"	"61.321"	"387.476"	"575.905"	"232.921"	"76.763"	"12.434"	"2.505"
"1932"	"0"	"27.246"	"0.378"	"28.665"	"20.687"	"77.049"	"558.112"	"494.218"	"195.657"	"19.109"	"14.307"	"0.726"
"1933"	"11.179"	"17.602"	"4.736"	"31.318"	"23.131"	"253.127"	"371.992"	"473.333"	"216.301"	"54.732"	"3"	"3.533"
"1934"	"2.609"	"3.989"	"2.465"	"8.52"	"0.857"	"209.074"	"431.876"	"662.369"	"212.984"	"38.422"	"9.68"	"0.368"
"1935"	"1.732"	"4.344"	"2.808"	"23.824"	"2.417"	"125.638"	"420.439"	"542.437"	"207.362"	"12.789"	"0"	"0"
"1936"	"2.463"	"63.28"	"19.796"	"4.879"	"49.315"	"412.769"	"578.72"	"501.491"	"235.871"	"89.052"	"4.12"	"5.072"
"1937"	"0"	"68.247"	"12.401"	"45.998"	"11.244"	"107.034"	"498.198"	"384.778"	"179.105"	"71.195"	"0"	"0"
"1938"	"9.667"	"24.177"	"5.751"	"5.371"	"46.929"	"201.079"	"258.359"	"397.95"	"338.598"	"57.288"	"2.961"	"0"
"1939"	"7.532"	"10.489"	"27.349"	"8.244"	"3.344"	"172.425"	"455.486"	"392.229"	"275.403"	"49.809"	"2.271"	"0.454"
"1940"	"0.2"	"38.047"	"119.749"	"16.3"	"21.566"	"171.351"	"367.464"	"617.965"	"174.054"	"22.984"	"2.465"	"3.35"
"1941"	"14.981"	"4.186"	"16.638"	"0.872"	"21.955"	"272.003"	"240.576"	"426.854"	"212.742"	"55.762"	"4.116"	"0"
"1942"	"8.78"	"53.665"	"24.313"	"29.321"	"5.734"	"131.644"	"479.584"	"579.597"	"288.502"	"13.682"	"3.933"	"0"
"1943"	"17.325"	"5.218"	"2.585"	"56.088"	"17.699"	"130.639"	"484.325"	"687.538"	"186.989"	"52.981"	"0.899"	"0"
"1944"	"13.555"	"74.553"	"126.252"	"31.113"	"12.276"	"103.97"	"481.021"	"556.743"	"183.097"	"63.136"	"0.965"	"0"
"1945"	"9.052"	"13.557"	"0.28"	"44.478"	"16.014"	"166.015"	"437.851"	"236.347"	"320.181"	"78.482"	"3.346"	"5.838"
"1946"	"0"	"9.27"	"17.212"	"26.363"	"21.804"	"261.284"	"550.705"	"653.233"	"254.914"	"63.28"	"11.335"	"0.726"
"1947"	"15.58"	"17.995"	"25.959"	"5.83"	"3.396"	"173.478"	"487.415"	"366.936"	"333.506"	"43.582"	"2.68"	"7.268"
"1948"	"9.674"	"30.859"	"12.973"	"33.785"	"12.903"	"192.007"	"357.157"	"403.064"	"311.281"	"28.998"	"20.772"	"0.726"
"1949"	"0"	"10.798"	"12.847"	"10.925"	"27.433"	"120.731"	"284.391"	"590.877"	"243.658"	"99.916"	"0"	"0"
"1950"	"2.704"	"27.155"	"68.736"	"12.767"	"4.224"	"153.492"	"385.127"	"433.094"	"78.137"	"18.745"	"6.275"	"4.168"
"1951"	"1.997"	"1.764"	"55.886"	"41.306"	"9.091"	"137.745"	"438.522"	"468.591"	"242.501"	"37.854"	"3.138"	"0"
"1952"	"0.443"	"8.893"	"37.862"	"29.36"	"10.225"	"191.246"	"298.718"	"349.456"	"279.111"	"52.603"	"0"	"6.638"
"1953"	"15.52"	"0.2"	"0.2"	"6.64"	"4.043"	"144.498"	"284.365"	"646.259"	"249.709"	"23.584"	"5.133"	"0"
"1954"	"2.101"	"15.227"	"4.721"	"3.361"	"13.133"	"157.424"	"153.831"	"284.867"	"338.23"	"38.25"	"0"	"2.61"
"1955"	"5.768"	"6.353"	"25.31"	"15.863"	"11.898"	"103.943"	"264.692"	"390.775"	"214.217"	"94.121"	"3.812"	"0"
"1956"	"4.501"	"20.268"	"5.903"	"10.919"	"45.928"	"287.991"	"688.988"	"724.785"	"307.288"	"47.537"	"1.864"	"3.121"
"1957"	"5.447"	"5.818"	"27.876"	"5.175"	"7.146"	"128.314"	"518.146"	"505.461"	"117.188"	"21.939"	"0"	"0"
"1958"	"12.665"	"19.708"	"23.199"	"47.316"	"11.44"	"90.371"	"679.671"	"380.396"	"273.579"	"107.117"	"6.157"	"0"
"1959"	"11.768"	"3.819"	"0.24"	"1.399"	"19.004"	"189.323"	"447.598"	"295.073"	"221.867"	"96.357"	"0"	"2.277"
"1960"	"1.738"	"0.2"	"35.754"	"9.367"	"19.326"	"168.857"	"516.283"	"509.668"	"163.814"	"39.937"	"0"	"0.869"
"1961"	"20.385"	"64.764"	"10.027"	"4.328"	"18.84"	"231.056"	"289.832"	"528.251"	"273.611"	"69.391"	"3.752"	"3.86"
"1962"	"3.155"	"23.772"	"4.11"	"6.293"	"5.303"	"162.455"	"514.972"	"311.575"	"250.375"	"62.067"	"0.777"	"10.468"
"1963"	"2.704"	"2.479"	"31.34"	"45.007"	"39.92"	"114.775"	"285.664"	"466.419"	"219.235"	"91.458"	"1.446"	"0"
"1964"	"0.338"	"31.308"	"11.591"	"34.281"	"18.545"	"159.446"	"332.582"	"680.194"	"246.991"	"46.623"	"7.219"	"0"
"1965"	"4.385"	"4.163"	"28.08"	"31.338"	"11.173"	"100.281"	"607.248"	"301.801"	"205.204"	"24.088"	"0"	"1.719"
"1966"	"34.005"	"5.674"	"0.724"	"2.883"	"3.703"	"200.303"	"160.931"	"280.579"	"174.195"	"17.771"	"5.782"	"10.757"
"1967"	"19.016"	"0.2"	"99.169"	"7.952"	"4.838"	"202.542"	"362.39"	"521.867"	"296.058"	"14.686"	"0"	"16.245"
"1968"	"11.758"	"21.113"	"8.382"	"7.403"	"7.321"	"156.49"	"405.715"	"307.015"	"238.067"	"48.189"	"4.16"	"1.941"
"1969"	"0.206"	"2.059"	"15.283"	"9.446"	"24.937"	"99.312"	"602.489"	"350.991"	"269.916"	"11.052"	"8.72"	"18.932"
"1970"	"5.944"	"24.913"	"50.207"	"6.42"	"16.752"	"287.3"	"318.065"	"468.87"	"232.006"	"26.077"	"0.572"	"0"
"1971"	"10.173"	"30.73"	"2.463"	"44.963"	"49.249"	"410.781"	"399.137"	"601.873"	"146.207"	"52.04"	"0"	"0"
"1972"	"3.27"	"49.468"	"0.943"	"29.604"	"4.387"	"88.985"	"335.386"	"441.524"	"235.853"	"90.587"	"12.674"	"0.726"
"1973"	"0.887"	"0.2"	"3.447"	"7.641"	"6.733"	"165.142"	"216.046"	"456.623"	"163.253"	"101.955"	"1.466"	"7.77"
"1974"	"0.004"	"2.859"	"34.577"	"1.323"	"16.124"	"171.814"	"438.051"	"310.846"	"125.332"	"71.864"	"4.089"	"0"
"1975"	"0.811"	"11.888"	"25.794"	"2.743"	"14.844"	"248.54"	"568.46"	"313.168"	"236.552"	"79.622"	"4.669"	"0"
"1976"	"4.034"	"2.961"	"2.141"	"52.157"	"12.358"	"81.026"	"545.901"	"423.974"	"372.967"	"11.333"	"5.456"	"0.906"
"1977"	"2.964"	"2.261"	"0.214"	"50.479"	"60.247"	"182.572"	"517.761"	"478.658"	"214.134"	"36.478"	"21.675"	"7.575"
"1978"	"6.462"	"48.443"	"42.071"	"44.193"	"12.755"	"303.873"	"419.694"	"522.293"	"298.856"	"35.538"	"4.486"	"19.191"
"1979"	"3.431"	"19.59"	"0.54"	"17.82"	"1.367"	"207.695"	"364.21"	"251.008"	"177.135"	"15.875"	"6.506"	"4.302"
"1980"	"21.764"	"23.952"	"23.109"	"6.371"	"10.169"	"320.098"	"470.174"	"423.738"	"179.262"	"24.647"	"0"	"4.092"
"1981"	"15.381"	"6.381"	"62.877"	"11.571"	"18.188"	"86.14"	"382.688"	"369.174"	"283.574"	"8.492"	"2.369"	"2.69"
"1982"	"7.525"	"11.956"	"56.339"	"23.816"	"19.659"	"150.933"	"352.497"	"551.688"	"244.534"	"6.945"	"7.74"	"1.423"
"1983"	"0.966"	"30.826"	"23.326"	"15.944"	"31.741"	"165.111"	"385.586"	"351.401"	"160.763"	"53.253"	"0.442"	"2.355"
"1984"	"12.683"	"21.178"	"2.512"	"18.174"	"17.681"	"349.334"	"367.779"	"406.013"	"131.075"	"29.55"	"0.274"	"0"
"1985"	"22.863"	"1.858"	"2.611"	"3.672"	"9.484"	"203.681"	"450.48"	"440.238"	"186.677"	"91.279"	"0"	"0.362"
"1986"	"18.951"	"38.497"	"2.525"	"15.412"	"11.97"	"183.547"	"426.474"	"487.028"	"181.341"	"15.545"	"12.023"	"5.948"
"1987"	"4.539"	"6.632"	"14.388"	"7.75"	"19.218"	"76.484"	"345.785"	"535.832"	"307.328"	"33.25"	"8.946"	"1.964"
"1988"	"1.436"	"18.199"	"27.25"	"15.641"	"27.825"	"186.116"	"434.864"	"310.416"	"181.762"	"25.261"	"0.777"	"0.626"
"1989"	"0.005"	"0.2"	"31.374"	"2.125"	"39.332"	"240.654"	"333.858"	"420.692"	"177.04"	"34.743"	"2.788"	"13.442"
"1990"	"0.505"	"70.677"	"54.283"	"5.415"	"41.378"	"303.388"	"629.526"	"515.96"	"190.926"	"94.706"	"3.751"	"1.492"
"1991"	"9.188"	"5.293"	"41.185"	"14.396"	"6.528"	"188.894"	"411.714"	"559.622"	"158.794"	"28.477"	"2.784"	"14.152"
"1992"	"8.555"	"3.273"	"0.2"	"5.317"	"24.123"	"123.881"	"378.246"	"296.66"	"130.05"	"36.717"	"3.212"	"0"
"1993"	"1.654"	"0.22"	"24.477"	"7.778"	"23.081"	"151.552"	"337.741"	"278.681"	"246.578"	"80.071"	"0.807"	"0"
"1994"	"10.072"	"10.682"	"24.496"	"14.736"	"19.011"	"268.097"	"474.588"	"460.158"	"138.066"	"81.885"	"1.899"	"0"
"1995"	"6.183"	"7.604"	"54.378"	"5.115"	"25.671"	"121.692"	"452.992"	"302.287"	"217.847"	"51.795"	"4.894"	"0"
"1996"	"8.714"	"7.288"	"8.416"	"13.911"	"4.518"	"212.304"	"350.337"	"417.889"	"110.607"	"64.003"	"3.174"	"0"
"1997"	"15.073"	"1.896"	"47.309"	"18.982"	"19.193"	"71.005"	"320.162"	"398.325"	"167.897"	"12.605"	"15.228"	"18.132"
"1998"	"5.994"	"35.089"	"6.206"	"12.427"	"35.988"	"106.051"	"283.989"	"246.382"	"190.635"	"113.938"	"18.607"	"0"
"1999"	"4.594"	"4.232"	"0.2"	"0.2"	"29.613"	"171.449"	"279.276"	"654.509"	"146.476"	"31.645"	"1.063"	"0"
"2000"	"2.131"	"57.552"	"0.2"	"16.538"	"14.105"	"297.451"	"227.953"	"309.251"	"160.614"	"19.606"	"0.611"	"0"
"2001"	"0.564"	"0.596"	"38.584"	"15.906"	"21.556"	"190.013"	"361.141"	"491.503"	"90.693"	"48.122"	"7.455"	"0"
"2002"	"35.924"	"5.854"	"9.148"	"14.687"	"18.217"	"117.735"	"264.525"	"496.691"	"137.293"	"39.938"	"6.075"	"0"
