
"Year"	"Jan"	"Feb"	"Mar"	"Apr"	"May"	"Jun"	"Jul"	"Aug"	"Sep"	"Oct"	"Nov"	"Dec"
"1901"	"12.532"	"15.559"	"22.698"	"28.28"	"32.347"	"35.5"	"32.519"	"29.969"	"29.871"	"27.892"	"21.29"	"15.84"
"1902"	"15.797"	"18.306"	"24.289"	"28.923"	"32.894"	"33.403"	"30.57"	"30.602"	"29.15"	"25.832"	"20.275"	"14.956"
"1903"	"14.32"	"16.015"	"20.984"	"27.616"	"32.286"	"35.157"	"32.748"	"29.795"	"30.043"	"25.938"	"20.054"	"15.002"
"1904"	"14.038"	"17.678"	"22.034"	"29.589"	"31.802"	"33.96"	"30.028"	"29.125"	"28.768"	"26.209"	"19.464"	"15.134"
"1905"	"12.003"	"12.476"	"18.589"	"25.822"	"33.151"	"34.936"	"31.454"	"30.203"	"30.363"	"26.808"	"21.418"	"15.332"
"1906"	"13.242"	"14.575"	"20.272"	"28.592"	"34.589"	"33.19"	"31.27"	"29.486"	"28.947"	"26.582"	"21.616"	"16.298"
"1907"	"16.16"	"14.41"	"18.836"	"26.061"	"31.031"	"34.179"	"32.794"	"29.511"	"30.521"	"27.271"	"20.776"	"14.75"
"1908"	"14.199"	"17.218"	"22.397"	"30.057"	"32.457"	"35.024"	"29.963"	"28.651"	"29.26"	"26.087"	"19.8"	"14.616"
"1909"	"13.48"	"15.721"	"23.081"	"26.78"	"32.101"	"32.212"	"29.876"	"29.517"	"29.269"	"26.906"	"21.248"	"15.09"
"1910"	"14.228"	"16.676"	"22.679"	"28.131"	"32.895"	"33.081"	"30.517"	"29.68"	"29.339"	"25.15"	"19.568"	"14.788"
"1911"	"15.18"	"17.336"	"20.004"	"28.385"	"34.253"	"33.831"	"32.565"	"30.652"	"28.933"	"26.471"	"18.568"	"14.794"
"1912"	"14.452"	"17.68"	"21.784"	"28.191"	"32.931"	"34.911"	"31.359"	"29.584"	"28.284"	"26.308"	"19.008"	"14.788"
"1913"	"14.774"	"15.885"	"19.934"	"29.522"	"30.935"	"31.816"	"30.876"	"30.862"	"30.728"	"26.947"	"19.666"	"14.345"
"1914"	"16.084"	"16.099"	"21.463"	"28.556"	"32.546"	"33.203"	"30.618"	"29.812"	"29.348"	"24.798"	"20.608"	"14.509"
"1915"	"14.447"	"15.236"	"21.916"	"28.381"	"34.525"	"33.878"	"32.508"	"30.644"	"30.385"	"28.124"	"20.913"	"15.658"
"1916"	"14.991"	"16.303"	"25.439"	"30.164"	"33.09"	"32.694"	"30.671"	"29.496"	"29.056"	"25.851"	"19.422"	"14.2"
"1917"	"14.563"	"16.82"	"21.579"	"25.239"	"28.44"	"32.581"	"29.96"	"29.194"	"27.981"	"24.956"	"18.879"	"14.885"
"1918"	"13.599"	"17.359"	"22.181"	"26.611"	"34.169"	"33.111"	"33.161"	"31.186"	"30.319"	"26.789"	"20.028"	"13.912"
"1919"	"13.772"	"15.864"	"22.544"	"27.271"	"31.655"	"34.968"	"30.129"	"29.475"	"29.147"	"25.938"	"19.789"	"14.286"
"1920"	"15.093"	"15.622"	"21.599"	"28.382"	"29.541"	"32.609"	"30.038"	"30.245"	"30.552"	"27.328"	"21.426"	"16.439"
"1921"	"14.665"	"17.955"	"25.484"	"31.279"	"35.745"	"34.155"	"32.227"	"29.156"	"28.306"	"25.263"	"20.062"	"16.296"
"1922"	"13.398"	"18.064"	"24.172"	"29.222"	"33.675"	"33.06"	"30.783"	"28.969"	"28.365"	"25.571"	"19.859"	"14.065"
"1923"	"14.433"	"15.523"	"22.98"	"29.709"	"32.488"	"35.962"	"31.145"	"29.051"	"29.13"	"25.205"	"19.997"	"14.967"
"1924"	"13.19"	"16.502"	"23.705"	"29.41"	"30.032"	"35.916"	"30.903"	"29.399"	"28.24"	"25.668"	"19.775"	"15.325"
"1925"	"12.274"	"15.438"	"22.656"	"30.343"	"32.426"	"30.855"	"29.282"	"29.958"	"29.693"	"26.18"	"18.968"	"15.025"
"1926"	"14.331"	"17.903"	"20.638"	"25.322"	"30.448"	"35.414"	"31.368"	"29.249"	"28.723"	"25.351"	"17.972"	"14.64"
"1927"	"12.858"	"14.753"	"21.192"	"27.789"	"31.411"	"33.964"	"30.412"	"28.807"	"29.094"	"25.922"	"19.554"	"16.093"
"1928"	"13.574"	"17.164"	"22.642"	"28.104"	"34.102"	"33.56"	"31.252"	"31.136"	"30.477"	"27.126"	"20.714"	"14.792"
"1929"	"13.861"	"15.565"	"24.234"	"29.33"	"33.839"	"33.631"	"30.62"	"29.07"	"30.134"	"26.125"	"20.668"	"13.651"
"1930"	"13.138"	"16.377"	"23.586"	"28.381"	"32.631"	"33.084"	"29.497"	"29.59"	"29.483"	"25.98"	"19.754"	"15.226"
"1931"	"15.444"	"14.919"	"21.72"	"30.092"	"32.814"	"34.998"	"31.1"	"30.056"	"28.582"	"25.613"	"19.545"	"15.412"
"1932"	"15.783"	"15.668"	"23.299"	"28.625"	"31.84"	"35.29"	"31.31"	"28.973"	"28.982"	"26.192"	"20.375"	"14.731"
"1933"	"12.441"	"16.95"	"22.685"	"26.899"	"29.523"	"32.558"	"29.606"	"28.435"	"28.145"	"25.343"	"19.94"	"15.692"
"1934"	"12.605"	"18.243"	"21.454"	"28.732"	"32.245"	"32.622"	"30.305"	"28.359"	"29.659"	"25.615"	"19.978"	"14.873"
"1935"	"12.025"	"16.957"	"22.265"	"25.421"	"33.556"	"35.015"	"30.255"	"28.996"	"28.786"	"25.699"	"20.243"	"14.298"
"1936"	"12.871"	"16.263"	"21.998"	"28.017"	"33.824"	"30.793"	"29.616"	"28.734"	"28.464"	"25.444"	"19.984"	"14.668"
"1937"	"13.204"	"16.299"	"20.973"	"26.21"	"32.184"	"33.702"	"30.364"	"30.581"	"29.43"	"25.318"	"19.336"	"14.121"
"1938"	"13.071"	"15.124"	"23.663"	"29.755"	"34.016"	"32.169"	"30.72"	"30.09"	"30.276"	"26.932"	"18.547"	"15.245"
"1939"	"14.592"	"16.376"	"19.708"	"27.542"	"34.397"	"32.029"	"30.667"	"30.616"	"29.412"	"26.556"	"19.939"	"15.617"
"1940"	"14.107"	"16.03"	"20.157"	"27.441"	"33.442"	"34.418"	"31.254"	"28.894"	"28.88"	"26.23"	"20.784"	"14.379"
"1941"	"12.896"	"17.655"	"24.758"	"31.617"	"34.015"	"32.567"	"32.706"	"30.305"	"29.669"	"27.895"	"20.295"	"16.473"
"1942"	"12.917"	"17.96"	"24.295"	"29.978"	"33.525"	"35.081"	"29.802"	"28.573"	"28.041"	"26.069"	"21.085"	"14.102"
"1943"	"13.737"	"17.322"	"23.242"	"26.816"	"32.966"	"33.394"	"30.169"	"28.637"	"29.661"	"26.069"	"21.452"	"15.997"
"1944"	"12.926"	"15.909"	"21.146"	"27.342"	"34.71"	"32.906"	"30.178"	"29.81"	"29.106"	"25.876"	"20.682"	"16.462"
"1945"	"11.883"	"15.873"	"23.026"	"27.31"	"32.682"	"34.86"	"30.636"	"29.901"	"28.52"	"25.374"	"20.63"	"13.942"
"1946"	"15.601"	"18.639"	"22.089"	"29.192"	"32.116"	"33.398"	"30.262"	"29.777"	"29.682"	"26.141"	"20.117"	"14.896"
"1947"	"13.06"	"17.35"	"23.126"	"30.23"	"33.502"	"35.542"	"31.52"	"30.17"	"28.986"	"25.195"	"21.127"	"15.44"
"1948"	"13.723"	"16.234"	"21.064"	"30.963"	"34.132"	"35.255"	"30.9"	"28.761"	"29.051"	"26.383"	"19.473"	"14.83"
"1949"	"16.101"	"16.848"	"22.889"	"29.712"	"33.142"	"34.685"	"30.329"	"29.603"	"29.784"	"26.472"	"19.419"	"14.011"
"1950"	"15.163"	"15.209"	"21.121"	"27.944"	"33.155"	"34.019"	"30.143"	"29.234"	"28.474"	"25.666"	"19.768"	"13.963"
"1951"	"13.127"	"17.048"	"22.454"	"26.608"	"32.744"	"33.732"	"32.349"	"30.183"	"29.418"	"28.642"	"21.442"	"15.814"
"1952"	"15.532"	"18.969"	"21.775"	"30.611"	"33.219"	"32.862"	"30.957"	"28.956"	"30.239"	"26.983"	"20.602"	"15.894"
"1953"	"13.075"	"19.27"	"26.004"	"29.835"	"33.703"	"34.691"	"30.64"	"29.511"	"29.564"	"26.5"	"20.643"	"17.299"
"1954"	"13.036"	"17.578"	"23.162"	"29.985"	"34.703"	"34.452"	"31.063"	"30.342"	"29.699"	"24.259"	"20.406"	"14.94"
"1955"	"13.753"	"17.902"	"24.82"	"27.134"	"31.675"	"34.648"	"31.249"	"28.943"	"28.951"	"24.834"	"20.013"	"15.03"
"1956"	"14.161"	"17.955"	"22.846"	"29.979"	"34.189"	"33.55"	"29.865"	"29.474"	"29.993"	"25.101"	"19.644"	"14.977"
"1957"	"13.263"	"16.132"	"21.212"	"27.643"	"31.952"	"33.339"	"30.909"	"30.105"	"28.338"	"26.209"	"21.224"	"15.703"
"1958"	"15.672"	"16.627"	"23.727"	"30.745"	"33.079"	"34.782"	"30.251"	"29.275"	"29.201"	"26.209"	"20.935"	"16.304"
"1959"	"14.451"	"16.508"	"23.79"	"29.16"	"32.769"	"34.385"	"30.366"	"29.908"	"29.69"	"26.849"	"20.566"	"16.462"
"1960"	"13.679"	"20.488"	"21.939"	"27.999"	"33.468"	"34.772"	"30.634"	"29.509"	"29.844"	"25.65"	"19.896"	"16.811"
"1961"	"14.675"	"15.057"	"23.288"	"28.74"	"32.726"	"33.449"	"30.969"	"29.267"	"29.606"	"25.308"	"18.672"	"12.919"
"1962"	"13.239"	"17.419"	"22.635"	"29.494"	"32.992"	"34.467"	"31.517"	"30.065"	"28.47"	"25.163"	"20.68"	"15.169"
"1963"	"14.058"	"19.025"	"22.33"	"27.979"	"31.57"	"33.389"	"32.008"	"29.187"	"28.332"	"26.73"	"21.202"	"15.416"
"1964"	"12.894"	"17.193"	"24.664"	"29.739"	"31.005"	"34.344"	"29.359"	"29.835"	"28.147"	"26.349"	"19.648"	"15.419"
"1965"	"15.823"	"16.409"	"21.605"	"26.689"	"31.786"	"35.41"	"30.841"	"29.587"	"28.832"	"26.185"	"21.001"	"14.894"
"1966"	"15.147"	"19.274"	"23.105"	"29.476"	"33.015"	"33.168"	"31.872"	"29.596"	"28.845"	"26.354"	"20.311"	"14.991"
"1967"	"13.634"	"19.336"	"21.368"	"27.989"	"32.583"	"34.655"	"30.574"	"28.678"	"28.46"	"25.523"	"19.501"	"15.156"
"1968"	"13.208"	"15.464"	"22.355"	"28.192"	"32.573"	"33.605"	"30.239"	"29.563"	"30.142"	"25.796"	"20.341"	"15.602"
"1969"	"14.145"	"18.136"	"25.321"	"29.044"	"31.328"	"34.726"	"30.553"	"29.81"	"28.492"	"26.66"	"21.433"	"15.956"
"1970"	"14.525"	"16.496"	"22.067"	"30.126"	"33.204"	"31.806"	"31.334"	"29.688"	"29.446"	"26.582"	"20.17"	"16.144"
"1971"	"13.363"	"17.63"	"22.964"	"29.144"	"30.268"	"31.769"	"29.755"	"28.461"	"28.625"	"25.921"	"20.229"	"16.238"
"1972"	"15.165"	"15.269"	"23.794"	"27.808"	"34.315"	"34.954"	"31.446"	"29.186"	"28.293"	"25.471"	"20.909"	"16.098"
"1973"	"14.388"	"18.469"	"22.614"	"30.927"	"33.357"	"33.559"	"31.149"	"29.412"	"29.299"	"25.679"	"20.434"	"14.201"
"1974"	"14.056"	"16.238"	"24.461"	"30.66"	"32.512"	"33.405"	"30.199"	"29.988"	"29.844"	"26.794"	"20.158"	"14.242"
"1975"	"12.864"	"16.219"	"22.309"	"30.33"	"33.867"	"32.08"	"29.871"	"29.193"	"27.857"	"26.692"	"19.716"	"16.006"
"1976"	"15.28"	"17.36"	"21.994"	"27.922"	"31.831"	"31.955"	"30.761"	"28.482"	"28.904"	"26.688"	"21.786"	"15.663"
"1977"	"14.256"	"17.603"	"24.499"	"28.156"	"30.067"	"32.327"	"29.123"	"29.556"	"27.947"	"26.349"	"22.051"	"16.577"
"1978"	"13.804"	"15.9"	"20.187"	"28.388"	"35.059"	"33.167"	"29.532"	"29.18"	"28.507"	"26.501"	"20.692"	"16.066"
"1979"	"15.227"	"15.869"	"20.661"	"29.531"	"31.131"	"33.494"	"30.674"	"30.2"	"29.366"	"27.309"	"22.534"	"16.179"
"1980"	"14.509"	"18.259"	"21.647"	"30.882"	"35.585"	"32.618"	"29.428"	"29.648"	"29.03"	"26.565"	"20.914"	"16.38"
"1981"	"14.056"	"18.027"	"21.438"	"29.187"	"32.23"	"34.145"	"29.717"	"29.632"	"29.776"	"26.514"	"20.045"	"15.237"
"1982"	"14.922"	"16.156"	"19.501"	"27.349"	"29.584"	"33.127"	"31.868"	"29.433"	"29.415"	"26.558"	"21.012"	"16.559"
"1983"	"13.784"	"15.717"	"21.541"	"25.564"	"30.789"	"32.506"	"30.647"	"29.496"	"29.1"	"25.57"	"20.116"	"15.607"
"1984"	"13.137"	"15.573"	"24.68"	"29.163"	"34.913"	"33.802"	"29.9"	"29.268"	"28.285"	"26.069"	"20.193"	"16.193"
"1985"	"13.818"	"18.068"	"25.204"	"29.542"	"33.228"	"33.6"	"29.721"	"29.465"	"28.39"	"24.693"	"20.758"	"16.396"
"1986"	"14.515"	"16.719"	"22.084"	"28.343"	"30.303"	"32.99"	"29.865"	"29.855"	"29.002"	"25.563"	"21.396"	"14.554"
"1987"	"15.162"	"18.735"	"23.898"	"29.751"	"30.162"	"34.678"	"32.967"	"30.524"	"30.496"	"27.497"	"21.7"	"16.87"
"1988"	"16.669"	"19.098"	"23.118"	"30.483"	"34.537"	"32.898"	"29.9"	"28.943"	"29.422"	"26.914"	"21.012"	"16.204"
"1989"	"13.665"	"16.901"	"22.66"	"27.96"	"32.999"	"32.309"	"30.89"	"29.417"	"29.148"	"26.609"	"20.645"	"15.289"
"1990"	"17.392"	"16.817"	"20.576"	"28.226"	"31.647"	"33.981"	"29.871"	"29.556"	"28.623"	"25.484"	"21.13"	"16.022"
"1991"	"13.033"	"17.964"	"22.785"	"27.703"	"33.026"	"32.842"	"32.274"	"29.206"	"29.31"	"25.747"	"19.678"	"15.597"
"1992"	"14.826"	"15.927"	"22.642"	"28.593"	"31.586"	"33.756"	"30.197"	"28.924"	"28.222"	"25.604"	"20.163"	"16.382"
"1993"	"13.941"	"19.256"	"20.36"	"27.856"	"33.151"	"34.005"	"30.18"	"29.953"	"28.328"	"25.981"	"21.242"	"15.926"
"1994"	"16.035"	"17.112"	"24.081"	"27.143"	"33.319"	"34.24"	"30.399"	"29.425"	"28.761"	"25.76"	"20.563"	"16.234"
"1995"	"13.892"	"17.365"	"21.664"	"28.542"	"34.415"	"35.306"	"30.557"	"28.22"	"29.051"	"26.92"	"20.748"	"16.098"
"1996"	"14.064"	"17.473"	"23.435"	"29.029"	"32.662"	"32.125"	"29.738"	"27.804"	"28.667"	"26.035"	"19.885"	"14.725"
"1997"	"13.788"	"16.784"	"22.255"	"27.415"	"30.75"	"31.631"	"31.478"	"29.474"	"29.147"	"23.776"	"19.792"	"13.743"
"1998"	"11.492"	"17.593"	"20.86"	"29.1"	"33.717"	"33.841"	"30.561"	"29.459"	"29.567"	"26.245"	"21.686"	"16.893"
"1999"	"14.017"	"19.187"	"24.89"	"32.196"	"33.426"	"32.852"	"31.621"	"30.581"	"29.284"	"26.675"	"22.083"	"16.498"
"2000"	"15.1"	"16.216"	"22.14"	"30.858"	"33.52"	"31.907"	"30.156"	"30"	"29.715"	"27.239"	"22.367"	"16.901"
"2001"	"14.084"	"17.976"	"23.184"	"28.478"	"32.472"	"31.598"	"31.124"	"30.697"	"30.398"	"27.642"	"22.077"	"17.034"
"2002"	"14.996"	"17.626"	"23.85"	"30.321"	"34.294"	"33.645"	"32.823"	"30.386"	"27.763"	"26.947"	"21.176"	"16.265"
