
"Year"	"Jan"	"Feb"	"Mar"	"Apr"	"May"	"Jun"	"Jul"	"Aug"	"Sep"	"Oct"	"Nov"	"Dec"
"1901"	"14.133"	"16.905"	"20.672"	"23.89"	"24.104"	"25.656"	"25.777"	"25.733"	"25.298"	"24.013"	"19.548"	"15.713"
"1902"	"15.183"	"16.829"	"21.883"	"21.839"	"24.263"	"24.878"	"25.682"	"26.135"	"25.096"	"22.73"	"18.948"	"15.193"
"1903"	"13.635"	"15.981"	"19.9"	"23.488"	"23.875"	"24.232"	"26.012"	"25.164"	"25.273"	"24.459"	"20.097"	"15.717"
"1904"	"14.572"	"16.608"	"21.452"	"22.457"	"23.015"	"25.226"	"25.333"	"25.687"	"25.274"	"23.296"	"19.168"	"15.235"
"1905"	"13.904"	"13.938"	"18.994"	"20.901"	"23.379"	"25.024"	"25.688"	"25.193"	"25.29"	"23.684"	"20.046"	"15.928"
"1906"	"14.088"	"16.08"	"19.231"	"23.417"	"24.162"	"24.996"	"26.135"	"25.036"	"26.107"	"23.315"	"20.086"	"16.155"
"1907"	"15.7"	"16.077"	"18.882"	"21.517"	"23.622"	"24.45"	"25.227"	"26.144"	"24.941"	"23.587"	"19.803"	"15.736"
"1908"	"14.457"	"16.452"	"20.934"	"24.828"	"23.7"	"25.031"	"25.673"	"25.762"	"25.341"	"23.514"	"19.419"	"15.595"
"1909"	"14.615"	"16.314"	"22.368"	"22.418"	"23.819"	"24.505"	"26.132"	"25.413"	"26.152"	"24.32"	"20.911"	"16.437"
"1910"	"14.725"	"16.652"	"20.095"	"21.694"	"23.437"	"24.498"	"24.633"	"25.565"	"25.673"	"23.342"	"19.878"	"15.494"
"1911"	"15.421"	"16.098"	"19.874"	"22.245"	"23.175"	"24.754"	"25.151"	"25.419"	"24.972"	"22.998"	"18.986"	"14.844"
"1912"	"14.958"	"17.05"	"19.623"	"20.599"	"23.79"	"24.703"	"25.212"	"25.486"	"25.091"	"23.207"	"19.761"	"15.916"
"1913"	"15.177"	"17.473"	"19.591"	"23.316"	"22.872"	"24.388"	"25.727"	"25.702"	"25.1"	"23.24"	"18.931"	"15.112"
"1914"	"14.673"	"16.62"	"20.276"	"20.98"	"23.872"	"25.188"	"25.936"	"25.281"	"24.924"	"22.118"	"19.425"	"16.218"
"1915"	"16.081"	"16.685"	"19.939"	"22.754"	"23.379"	"24.372"	"25.02"	"25.756"	"25.022"	"25.429"	"21.624"	"16.514"
"1916"	"14.83"	"16.732"	"21.723"	"22.385"	"24.04"	"25.43"	"24.778"	"25.641"	"25.379"	"23.464"	"20.383"	"15.294"
"1917"	"14.3"	"16.37"	"19.701"	"22.476"	"24.079"	"24.723"	"25.383"	"25.756"	"25.207"	"23.411"	"20.386"	"15.921"
"1918"	"14.281"	"16.235"	"20.626"	"22.374"	"24.738"	"23.97"	"25.028"	"25.148"	"25.229"	"23.297"	"19.522"	"15.469"
"1919"	"15.619"	"16.288"	"22.081"	"22.594"	"23.722"	"25.452"	"25.521"	"26.478"	"24.514"	"23.453"	"20.485"	"16.437"
"1920"	"15.733"	"16.009"	"20.016"	"21.941"	"23.305"	"24.624"	"26.286"	"25.466"	"25.123"	"23.868"	"20.327"	"17.373"
"1921"	"15.709"	"16.953"	"21.098"	"22.513"	"24.037"	"24.048"	"25.49"	"26.034"	"25.291"	"22.459"	"19.731"	"16.117"
"1922"	"15.565"	"17.502"	"21.993"	"25.051"	"24.475"	"24.75"	"25.712"	"25.871"	"25.348"	"23.447"	"20.531"	"16.071"
"1923"	"15.606"	"16.204"	"21.113"	"23.326"	"23.419"	"24.601"	"25.63"	"26.4"	"25.334"	"23.258"	"20.315"	"16.471"
"1924"	"15.133"	"16.62"	"22.851"	"23.951"	"23.509"	"25.017"	"25.612"	"25.681"	"24.705"	"24.665"	"20.036"	"16.175"
"1925"	"13.281"	"15.284"	"20.699"	"22.426"	"22.8"	"24.942"	"25.383"	"25.729"	"24.436"	"22.569"	"19.448"	"14.927"
"1926"	"14.673"	"16.632"	"19.605"	"22.295"	"23.631"	"24.464"	"25.332"	"25.942"	"25.256"	"23.844"	"19.013"	"16.562"
"1927"	"14.471"	"15.542"	"18.775"	"22.849"	"23.28"	"24.619"	"25.604"	"25.59"	"24.473"	"23.546"	"19.466"	"16.081"
"1928"	"14.91"	"17.635"	"21.23"	"23.42"	"23.224"	"24.861"	"25.864"	"25.495"	"25.763"	"23.029"	"18.85"	"16.08"
"1929"	"14.344"	"15.757"	"21.028"	"22.393"	"23.211"	"24.692"	"25.403"	"25.647"	"25.274"	"23.324"	"19.33"	"15.606"
"1930"	"13.281"	"16.527"	"20.22"	"22.462"	"23.984"	"23.832"	"25.826"	"25.671"	"25.524"	"22.752"	"19.48"	"15.613"
"1931"	"15.738"	"17.313"	"20.532"	"23.28"	"23.368"	"24.769"	"25.301"	"26.46"	"24.396"	"24.129"	"19.162"	"16.113"
"1932"	"14.575"	"14.658"	"20.928"	"23.335"	"23.432"	"24.699"	"25.577"	"25.688"	"25.531"	"23.915"	"20.947"	"16.238"
"1933"	"14.13"	"16.826"	"21.776"	"22.15"	"23.298"	"24.988"	"25.665"	"25.64"	"25.306"	"23.944"	"19.454"	"15.814"
"1934"	"14.633"	"16.639"	"20.781"	"23.264"	"23.213"	"23.827"	"25.396"	"25.703"	"26.063"	"22.963"	"18.928"	"15.34"
"1935"	"14.001"	"16.531"	"21.153"	"23.288"	"24.098"	"24.149"	"25.908"	"25.117"	"25.172"	"23.515"	"20.187"	"15.492"
"1936"	"13.451"	"15.701"	"21.113"	"23.437"	"23.901"	"24.903"	"25.577"	"26.01"	"25.16"	"22.81"	"20.628"	"16.068"
"1937"	"13.237"	"16.428"	"20.212"	"24.038"	"23.517"	"25.259"	"26.308"	"25.644"	"25.444"	"23.526"	"18.84"	"16.521"
"1938"	"15.591"	"15.885"	"21.879"	"24.829"	"24.001"	"25.186"	"25.283"	"25.732"	"25.44"	"24.189"	"18.506"	"16.211"
"1939"	"15.152"	"17.023"	"20.976"	"25.425"	"24.01"	"24.807"	"25.328"	"26.115"	"25.119"	"23.245"	"20.077"	"16.163"
"1940"	"14.37"	"16.281"	"18.309"	"23.714"	"23.824"	"24.861"	"25.395"	"25.967"	"24.992"	"23.705"	"19.974"	"16.569"
"1941"	"14.423"	"16.75"	"21.795"	"23.759"	"23.536"	"24.948"	"25.93"	"26.16"	"25.413"	"23.393"	"18.904"	"16.931"
"1942"	"15.108"	"17.512"	"20.826"	"22.661"	"23.652"	"24.994"	"26.484"	"25.719"	"25.1"	"24.217"	"20.676"	"15.592"
"1943"	"15.613"	"16.003"	"19.626"	"21.075"	"23.723"	"24.977"	"25.588"	"25.465"	"25.321"	"23.458"	"21.006"	"16.926"
"1944"	"14.597"	"16.146"	"21.155"	"22.753"	"24.512"	"25.329"	"26.283"	"26.512"	"25.114"	"24.214"	"19.848"	"16.919"
"1945"	"15.322"	"15.285"	"21.647"	"24.225"	"23.698"	"25.359"	"26.195"	"25.531"	"25.966"	"23.628"	"19.949"	"16.03"
"1946"	"15.503"	"18.096"	"21.097"	"22.167"	"23.486"	"24.812"	"25.428"	"26.149"	"25.224"	"22.945"	"20.429"	"16.468"
"1947"	"14.829"	"17.078"	"20.458"	"23.41"	"23.945"	"24.808"	"25.375"	"25.74"	"25.301"	"22.769"	"19.632"	"16.892"
"1948"	"15.259"	"16.325"	"20.37"	"22.687"	"23.241"	"24.531"	"25.308"	"25.599"	"25.452"	"22.697"	"19.815"	"15.589"
"1949"	"15.124"	"16.387"	"20.791"	"20.655"	"23.369"	"24.433"	"25.36"	"25.436"	"25.227"	"24.341"	"19.727"	"14.487"
"1950"	"14.925"	"16.505"	"20.551"	"23.43"	"24.449"	"24.475"	"25.637"	"25.092"	"25.645"	"23.74"	"19.686"	"16.333"
"1951"	"14.846"	"17.22"	"21.863"	"22.651"	"23.899"	"24.429"	"24.943"	"26.166"	"25.423"	"23.991"	"20.019"	"17.08"
"1952"	"15.619"	"18.059"	"19.769"	"23.928"	"22.732"	"25.531"	"25.639"	"25.738"	"25.168"	"24.493"	"20.216"	"16.379"
"1953"	"14.287"	"17.2"	"21.121"	"23.314"	"23.76"	"24.49"	"25.058"	"26.322"	"24.876"	"23.259"	"19.682"	"17.261"
"1954"	"14.076"	"17.682"	"21.648"	"23.471"	"23.947"	"23.937"	"24.881"	"25.385"	"25.817"	"22.943"	"19.377"	"16.607"
"1955"	"15.023"	"17.111"	"21.491"	"22.901"	"24.41"	"24.346"	"24.961"	"25.145"	"25.285"	"24.489"	"20.655"	"15.147"
"1956"	"15.347"	"17.355"	"21.892"	"24.499"	"25.171"	"24.459"	"25.588"	"25.661"	"26.052"	"24.039"	"20.454"	"16.452"
"1957"	"15.335"	"15.992"	"20.405"	"24.357"	"23.569"	"24.789"	"26.009"	"26.615"	"26.02"	"23.133"	"20.045"	"16.38"
"1958"	"16.386"	"16.456"	"22.455"	"23.849"	"24.445"	"25.783"	"26.522"	"25.713"	"25.857"	"24.456"	"20.529"	"16.778"
"1959"	"14.927"	"15.922"	"20.909"	"24.226"	"24.005"	"25.04"	"26.592"	"26.823"	"25.246"	"23.177"	"20.019"	"16.569"
"1960"	"15.669"	"19.391"	"20.781"	"25.746"	"25.16"	"25.337"	"25.395"	"26.492"	"25.267"	"24.24"	"20.22"	"17.69"
"1961"	"16.579"	"16.159"	"21.164"	"24.225"	"24.301"	"25.563"	"26.301"	"26.497"	"25.85"	"24.238"	"19.513"	"15.339"
"1962"	"13.989"	"17.216"	"21.731"	"25.36"	"24.162"	"25.964"	"26.675"	"25.931"	"26.311"	"23.621"	"19.141"	"16.213"
"1963"	"14.838"	"18.076"	"21.345"	"22.976"	"23.411"	"24.756"	"25.958"	"26.07"	"25.904"	"23.385"	"19.57"	"16.538"
"1964"	"14.531"	"16.726"	"21.887"	"22.76"	"23.901"	"24.536"	"25.025"	"25.722"	"25.441"	"24.077"	"20.706"	"16.572"
"1965"	"15.669"	"17.076"	"20.076"	"23.148"	"23.97"	"24.656"	"25.38"	"24.619"	"25.022"	"23.464"	"18.988"	"17.006"
"1966"	"15.44"	"18.863"	"21.987"	"23.986"	"25.199"	"24.113"	"25.614"	"25.426"	"24.916"	"22.421"	"20.669"	"16.462"
"1967"	"15.832"	"17.744"	"19.972"	"22.545"	"23.321"	"24.306"	"25.45"	"25.703"	"24.78"	"22.84"	"18.244"	"16.112"
"1968"	"15.273"	"16.163"	"21.294"	"22.496"	"23.429"	"23.685"	"24.984"	"25.832"	"25.067"	"23.133"	"19.993"	"16.596"
"1969"	"15.243"	"18.121"	"22.895"	"24.024"	"24.735"	"25.068"	"25.733"	"24.952"	"25.18"	"23.34"	"19.937"	"16.83"
"1970"	"14.47"	"17.014"	"20.58"	"23.543"	"24.197"	"25.364"	"24.849"	"25.223"	"25.429"	"23.29"	"19.786"	"16.656"
"1971"	"15.08"	"16.671"	"20.069"	"22.464"	"23.657"	"24.916"	"25.384"	"24.901"	"25.297"	"23.871"	"19.755"	"16.493"
"1972"	"15.918"	"15.88"	"21.579"	"21.83"	"23.525"	"24.638"	"25.739"	"25.553"	"25.024"	"23.861"	"19.818"	"16.532"
"1973"	"15.769"	"18.038"	"21.015"	"24.268"	"24.144"	"24.567"	"25.277"	"26.048"	"24.881"	"23.98"	"20.167"	"16.176"
"1974"	"14.362"	"16.207"	"20.662"	"22.87"	"23.899"	"24.543"	"24.904"	"25.55"	"24.504"	"24.673"	"21.225"	"15.304"
"1975"	"14.893"	"17.273"	"21.836"	"24.115"	"23.724"	"25.292"	"24.764"	"25.98"	"24.992"	"24.36"	"19.56"	"15.292"
"1976"	"15.078"	"17.719"	"21.925"	"23.774"	"23.44"	"24.155"	"25.333"	"24.977"	"25.301"	"23.134"	"20.726"	"16.176"
"1977"	"14.64"	"17.329"	"22.052"	"21.15"	"22.578"	"23.825"	"25.523"	"25.135"	"25.997"	"22.328"	"19.829"	"16.242"
"1978"	"13.572"	"16.819"	"20.55"	"23.146"	"23.82"	"24.187"	"24.989"	"26.29"	"25.26"	"24.629"	"19.767"	"16.661"
"1979"	"15.709"	"16.732"	"21.08"	"24.46"	"24.679"	"26.052"	"25.249"	"26.094"	"24.674"	"23.124"	"21.123"	"16.347"
"1980"	"14.581"	"16.611"	"20.642"	"23.845"	"23.106"	"25.482"	"25.868"	"25.577"	"25.82"	"23.085"	"20.373"	"17.06"
"1981"	"15.331"	"17.384"	"20.588"	"22.051"	"23.775"	"25.687"	"25.338"	"26.098"	"25.497"	"24.218"	"20.819"	"16.691"
"1982"	"16.463"	"16.723"	"20.699"	"22.065"	"24.725"	"24.878"	"25.753"	"26.217"	"25.222"	"23.59"	"19.545"	"15.936"
"1983"	"13.989"	"15.503"	"20.321"	"22.303"	"23.055"	"25.54"	"25.901"	"25.755"	"24.914"	"24.193"	"20.505"	"15.349"
"1984"	"13.926"	"16.899"	"21.893"	"23.918"	"23.196"	"25.538"	"24.613"	"25.964"	"23.935"	"23.97"	"19.492"	"16.03"
"1985"	"15.037"	"16.386"	"21.641"	"23.133"	"23.841"	"24.999"	"24.628"	"26.147"	"25.053"	"23.876"	"19.368"	"17.003"
"1986"	"15.543"	"17.509"	"21.585"	"22.298"	"23.766"	"25.567"	"25.049"	"26.126"	"24.74"	"22.486"	"19.866"	"16.687"
"1987"	"15.839"	"18.416"	"20.602"	"23.099"	"24.522"	"25.847"	"25.253"	"25.344"	"25.328"	"23.608"	"20.87"	"17.965"
"1988"	"16.038"	"18.581"	"21.058"	"23.801"	"23.949"	"25.215"	"25.652"	"24.914"	"25.104"	"24.162"	"20.936"	"18.044"
"1989"	"14.551"	"16.256"	"20.938"	"22.584"	"24.575"	"24.887"	"25.029"	"25.572"	"25.028"	"24.119"	"19.425"	"15.604"
"1990"	"16.19"	"17.129"	"19.25"	"21.111"	"24.239"	"25.124"	"25.458"	"25.978"	"25.2"	"23.19"	"21.2"	"16.895"
"1991"	"14.566"	"17.579"	"21.846"	"22.786"	"22.218"	"24.858"	"25.563"	"25.834"	"24.886"	"23.596"	"19.593"	"15.608"
"1992"	"14.648"	"15.349"	"20.783"	"23.848"	"23.199"	"25.256"	"24.504"	"25.769"	"25.031"	"23.196"	"19.974"	"15.129"
"1993"	"14.409"	"17.654"	"19.751"	"22.262"	"22.775"	"24.185"	"25.355"	"25.46"	"24.777"	"23.614"	"20.319"	"18.089"
"1994"	"16.584"	"17.038"	"21.257"	"23.741"	"25.455"	"25.526"	"26.757"	"26.532"	"26.234"	"23.364"	"20.509"	"16.426"
"1995"	"15.206"	"17.636"	"22.549"	"24.332"	"25.579"	"25.362"	"25.587"	"25.872"	"25.392"	"24.535"	"21.318"	"17.219"
"1996"	"15.699"	"18.421"	"22.303"	"25.376"	"24.333"	"25.458"	"25.587"	"25.647"	"25.948"	"23.825"	"20.813"	"17.769"
"1997"	"15.276"	"16.445"	"22.214"	"22.614"	"24.823"	"25.526"	"26.344"	"26.747"	"25.05"	"23.515"	"20.134"	"16.919"
"1998"	"14.994"	"18.64"	"20.319"	"24.897"	"25.936"	"25.72"	"25.885"	"26.292"	"25.82"	"25.104"	"21.833"	"18.018"
"1999"	"16.434"	"20.448"	"22.67"	"26.412"	"24.767"	"26.556"	"25.816"	"25.74"	"25.857"	"24.533"	"21.525"	"18.242"
"2000"	"15.613"	"18.087"	"20.407"	"22.092"	"24.501"	"26.08"	"26.383"	"25.757"	"25.304"	"24.414"	"20.392"	"16.562"
"2001"	"15.349"	"18.306"	"21.703"	"23.563"	"25.243"	"26.213"	"26.747"	"26.709"	"26.189"	"24.231"	"21.095"	"16.773"
"2002"	"15.852"	"18.79"	"21.937"	"23.218"	"24.486"	"25.24"	"26.402"	"26.123"	"25.574"	"24.06"	"20.836"	"16.861"
