
"Year"	"Jan"	"Feb"	"Mar"	"Apr"	"May"	"Jun"	"Jul"	"Aug"	"Sep"	"Oct"	"Nov"	"Dec"
"1901"	"4.522"	"4.693"	"4.933"	"5.19"	"5.036"	"4.659"	"4.59"	"4.573"	"4.659"	"4.659"	"4.522"	"4.368"
"1902"	"4.436"	"4.624"	"5.018"	"5.207"	"5.121"	"4.744"	"4.556"	"4.676"	"4.573"	"4.676"	"4.59"	"4.47"
"1903"	"4.522"	"4.642"	"4.933"	"5.155"	"4.967"	"4.693"	"4.487"	"4.556"	"4.522"	"4.59"	"4.419"	"4.231"
"1904"	"4.333"	"4.539"	"4.813"	"5.087"	"4.916"	"4.505"	"4.436"	"4.556"	"4.607"	"4.676"	"4.453"	"4.35"
"1905"	"4.368"	"4.693"	"4.83"	"5.001"	"4.967"	"4.727"	"4.59"	"4.59"	"4.659"	"4.676"	"4.607"	"4.299"
"1906"	"4.453"	"4.59"	"4.881"	"5.224"	"5.07"	"4.607"	"4.47"	"4.539"	"4.556"	"4.659"	"4.556"	"4.385"
"1907"	"4.419"	"4.624"	"4.898"	"4.933"	"4.95"	"4.624"	"4.505"	"4.402"	"4.607"	"4.676"	"4.556"	"4.35"
"1908"	"4.436"	"4.59"	"4.813"	"5.121"	"4.916"	"4.624"	"4.368"	"4.487"	"4.607"	"4.676"	"4.419"	"4.265"
"1909"	"4.299"	"4.556"	"4.916"	"5.036"	"4.95"	"4.607"	"4.402"	"4.522"	"4.539"	"4.642"	"4.487"	"4.35"
"1910"	"4.402"	"4.607"	"4.898"	"5.087"	"4.984"	"4.539"	"4.522"	"4.47"	"4.505"	"4.556"	"4.385"	"4.248"
"1911"	"4.419"	"4.453"	"4.864"	"5.087"	"4.95"	"4.573"	"4.47"	"4.539"	"4.676"	"4.659"	"4.607"	"4.453"
"1912"	"4.35"	"4.71"	"4.967"	"5.173"	"5.053"	"4.624"	"4.522"	"4.522"	"4.642"	"4.624"	"4.505"	"4.299"
"1913"	"4.368"	"4.624"	"4.864"	"5.155"	"5.087"	"4.624"	"4.487"	"4.573"	"4.659"	"4.659"	"4.539"	"4.419"
"1914"	"4.402"	"4.624"	"4.916"	"5.104"	"5.07"	"4.71"	"4.539"	"4.522"	"4.693"	"4.744"	"4.642"	"4.419"
"1915"	"4.47"	"4.624"	"4.864"	"5.155"	"5.036"	"4.761"	"4.573"	"4.59"	"4.642"	"4.693"	"4.556"	"4.316"
"1916"	"4.35"	"4.556"	"4.967"	"5.173"	"5.018"	"4.539"	"4.59"	"4.556"	"4.573"	"4.573"	"4.505"	"4.299"
"1917"	"4.419"	"4.607"	"4.813"	"5.104"	"4.916"	"4.522"	"4.642"	"4.539"	"4.539"	"4.505"	"4.419"	"4.265"
"1918"	"4.35"	"4.385"	"4.83"	"5.087"	"4.779"	"4.624"	"4.607"	"4.59"	"4.642"	"4.779"	"4.676"	"4.368"
"1919"	"4.505"	"4.642"	"4.847"	"5.19"	"4.984"	"4.607"	"4.505"	"4.522"	"4.642"	"4.71"	"4.505"	"4.402"
"1920"	"4.453"	"4.642"	"5.018"	"5.087"	"5.053"	"4.59"	"4.539"	"4.522"	"4.624"	"4.693"	"4.522"	"4.316"
"1921"	"4.47"	"4.573"	"4.984"	"5.053"	"5.053"	"4.659"	"4.487"	"4.47"	"4.556"	"4.659"	"4.505"	"4.316"
"1922"	"4.402"	"4.607"	"4.916"	"5.155"	"4.916"	"4.573"	"4.419"	"4.47"	"4.556"	"4.642"	"4.487"	"4.248"
"1923"	"4.368"	"4.505"	"4.847"	"5.121"	"5.001"	"4.676"	"4.419"	"4.47"	"4.556"	"4.659"	"4.539"	"4.453"
"1924"	"4.402"	"4.659"	"4.984"	"5.19"	"5.053"	"4.607"	"4.453"	"4.556"	"4.607"	"4.624"	"4.47"	"4.333"
"1925"	"4.35"	"4.539"	"4.864"	"5.155"	"4.933"	"4.556"	"4.522"	"4.539"	"4.676"	"4.744"	"4.573"	"4.35"
"1926"	"4.453"	"4.659"	"4.967"	"5.087"	"5.053"	"4.727"	"4.642"	"4.642"	"4.642"	"4.659"	"4.539"	"4.385"
"1927"	"4.453"	"4.659"	"4.967"	"5.155"	"4.933"	"4.573"	"4.419"	"4.556"	"4.624"	"4.642"	"4.453"	"4.419"
"1928"	"4.522"	"4.59"	"4.864"	"5.155"	"5.087"	"4.676"	"4.556"	"4.487"	"4.624"	"4.624"	"4.59"	"4.402"
"1929"	"4.402"	"4.607"	"4.933"	"5.053"	"5.036"	"4.539"	"4.539"	"4.573"	"4.659"	"4.642"	"4.624"	"4.419"
"1930"	"4.419"	"4.607"	"4.916"	"5.087"	"4.916"	"4.607"	"4.573"	"4.556"	"4.642"	"4.693"	"4.573"	"4.436"
"1931"	"4.505"	"4.659"	"4.95"	"5.19"	"5.138"	"4.744"	"4.539"	"4.539"	"4.59"	"4.693"	"4.59"	"4.419"
"1932"	"4.35"	"4.573"	"4.813"	"5.121"	"4.881"	"4.659"	"4.453"	"4.556"	"4.59"	"4.659"	"4.556"	"4.368"
"1933"	"4.436"	"4.624"	"4.847"	"5.07"	"4.796"	"4.487"	"4.436"	"4.436"	"4.487"	"4.522"	"4.59"	"4.35"
"1934"	"4.402"	"4.505"	"4.796"	"5.07"	"4.984"	"4.607"	"4.505"	"4.522"	"4.676"	"4.693"	"4.402"	"4.299"
"1935"	"4.453"	"4.624"	"4.916"	"5.036"	"5.087"	"4.659"	"4.436"	"4.436"	"4.487"	"4.642"	"4.453"	"4.402"
"1936"	"4.487"	"4.659"	"4.83"	"5.104"	"4.967"	"4.453"	"4.453"	"4.47"	"4.59"	"4.642"	"4.573"	"4.47"
"1937"	"4.436"	"4.71"	"4.933"	"5.036"	"4.967"	"4.59"	"4.402"	"4.556"	"4.642"	"4.607"	"4.522"	"4.333"
"1938"	"4.47"	"4.693"	"4.967"	"5.087"	"5.018"	"4.522"	"4.419"	"4.436"	"4.522"	"4.487"	"4.47"	"4.436"
"1939"	"4.385"	"4.539"	"4.813"	"5.001"	"5.001"	"4.607"	"4.385"	"4.47"	"4.573"	"4.659"	"4.522"	"4.368"
"1940"	"4.316"	"4.556"	"4.864"	"4.967"	"5.001"	"4.607"	"4.47"	"4.47"	"4.642"	"4.676"	"4.539"	"4.402"
"1941"	"4.47"	"4.659"	"5.018"	"5.241"	"5.087"	"4.659"	"4.642"	"4.607"	"4.59"	"4.727"	"4.676"	"4.402"
"1942"	"4.333"	"4.693"	"5.018"	"5.19"	"5.104"	"4.624"	"4.47"	"4.47"	"4.59"	"4.676"	"4.505"	"4.505"
"1943"	"4.453"	"4.573"	"4.967"	"5.07"	"4.847"	"4.453"	"4.368"	"4.522"	"4.419"	"4.505"	"4.505"	"4.419"
"1944"	"4.47"	"4.573"	"4.83"	"5.018"	"5.001"	"4.607"	"4.453"	"4.573"	"4.642"	"4.676"	"4.607"	"4.436"
"1945"	"4.385"	"4.693"	"4.967"	"5.104"	"5.053"	"4.659"	"4.487"	"4.487"	"4.573"	"4.642"	"4.556"	"4.385"
"1946"	"4.282"	"4.624"	"4.933"	"5.104"	"5.018"	"4.556"	"4.47"	"4.385"	"4.539"	"4.693"	"4.556"	"4.453"
"1947"	"4.539"	"4.607"	"4.933"	"4.967"	"5.121"	"4.624"	"4.419"	"4.487"	"4.505"	"4.539"	"4.487"	"4.453"
"1948"	"4.505"	"4.642"	"4.984"	"5.155"	"5.001"	"4.659"	"4.453"	"4.453"	"4.522"	"4.676"	"4.659"	"4.385"
"1949"	"4.385"	"4.573"	"5.001"	"5.173"	"4.898"	"4.539"	"4.436"	"4.522"	"4.522"	"4.659"	"4.522"	"4.299"
"1950"	"4.385"	"4.556"	"4.864"	"5.121"	"5.07"	"4.59"	"4.35"	"4.522"	"4.436"	"4.539"	"4.419"	"4.316"
"1951"	"4.453"	"4.607"	"4.95"	"5.036"	"5.036"	"4.539"	"4.436"	"4.59"	"4.676"	"4.727"	"4.71"	"4.333"
"1952"	"4.505"	"4.727"	"4.898"	"5.155"	"5.053"	"4.59"	"4.522"	"4.522"	"4.573"	"4.556"	"4.436"	"4.453"
"1953"	"4.436"	"4.59"	"5.087"	"5.07"	"5.138"	"4.813"	"4.385"	"4.573"	"4.59"	"4.676"	"4.556"	"4.419"
"1954"	"4.539"	"4.693"	"4.916"	"5.155"	"5.001"	"4.607"	"4.368"	"4.453"	"4.522"	"4.539"	"4.453"	"4.436"
"1955"	"4.505"	"4.744"	"4.933"	"5.087"	"4.847"	"4.539"	"4.47"	"4.419"	"4.642"	"4.624"	"4.436"	"4.333"
"1956"	"4.368"	"4.59"	"5.018"	"5.207"	"4.779"	"4.522"	"4.316"	"4.47"	"4.522"	"4.522"	"4.556"	"4.402"
"1957"	"4.419"	"4.659"	"4.813"	"5.155"	"5.053"	"4.624"	"4.522"	"4.522"	"4.607"	"4.71"	"4.607"	"4.573"
"1958"	"4.505"	"4.71"	"4.967"	"5.155"	"4.95"	"4.71"	"4.539"	"4.522"	"4.573"	"4.573"	"4.607"	"4.505"
"1959"	"4.539"	"4.693"	"5.018"	"5.207"	"5.018"	"4.59"	"4.419"	"4.522"	"4.573"	"4.642"	"4.624"	"4.47"
"1960"	"4.539"	"4.693"	"4.933"	"5.121"	"4.881"	"4.659"	"4.522"	"4.573"	"4.487"	"4.624"	"4.505"	"4.436"
"1961"	"4.539"	"4.642"	"5.001"	"5.19"	"4.881"	"4.539"	"4.316"	"4.522"	"4.522"	"4.573"	"4.607"	"4.487"
"1962"	"4.436"	"4.693"	"4.916"	"5.121"	"4.933"	"4.864"	"4.573"	"4.522"	"4.624"	"4.676"	"4.71"	"4.539"
"1963"	"4.573"	"4.642"	"4.967"	"5.07"	"5.07"	"4.659"	"4.59"	"4.522"	"4.71"	"4.693"	"4.761"	"4.505"
"1964"	"4.402"	"4.71"	"5.001"	"5.327"	"5.207"	"4.693"	"4.522"	"4.487"	"4.522"	"4.659"	"4.453"	"4.385"
"1965"	"4.436"	"4.659"	"4.933"	"5.104"	"5.036"	"4.573"	"4.436"	"4.419"	"4.522"	"4.761"	"4.71"	"4.505"
"1966"	"4.522"	"4.779"	"5.001"	"5.121"	"5.001"	"4.744"	"4.59"	"4.693"	"4.693"	"4.693"	"4.573"	"4.419"
"1967"	"4.419"	"4.59"	"4.847"	"5.173"	"5.07"	"4.727"	"4.453"	"4.556"	"4.624"	"4.676"	"4.659"	"4.556"
"1968"	"4.419"	"4.659"	"4.916"	"4.984"	"4.984"	"4.624"	"4.368"	"4.59"	"4.59"	"4.71"	"4.676"	"4.453"
"1969"	"4.487"	"4.727"	"5.07"	"5.207"	"5.104"	"4.761"	"4.419"	"4.573"	"4.505"	"4.624"	"4.556"	"4.47"
"1970"	"4.47"	"4.624"	"4.847"	"5.036"	"4.864"	"4.539"	"4.453"	"4.402"	"4.487"	"4.522"	"4.436"	"4.299"
"1971"	"4.453"	"4.607"	"4.847"	"5.104"	"4.916"	"4.402"	"4.436"	"4.453"	"4.59"	"4.539"	"4.47"	"4.35"
"1972"	"4.316"	"4.487"	"4.847"	"5.155"	"4.864"	"4.779"	"4.522"	"4.539"	"4.676"	"4.71"	"4.642"	"4.505"
"1973"	"4.47"	"4.727"	"5.001"	"5.292"	"5.104"	"4.659"	"4.522"	"4.385"	"4.59"	"4.659"	"4.59"	"4.419"
"1974"	"4.419"	"4.642"	"4.984"	"5.19"	"4.898"	"4.624"	"4.419"	"4.436"	"4.642"	"4.573"	"4.522"	"4.419"
"1975"	"4.385"	"4.744"	"4.933"	"5.173"	"4.916"	"4.659"	"4.402"	"4.453"	"4.47"	"4.539"	"4.487"	"4.299"
"1976"	"4.265"	"4.607"	"5.001"	"5.053"	"5.018"	"4.71"	"4.47"	"4.487"	"4.624"	"4.796"	"4.642"	"4.522"
"1977"	"4.453"	"4.744"	"5.053"	"5.224"	"4.967"	"4.659"	"4.487"	"4.573"	"4.676"	"4.71"	"4.659"	"4.487"
"1978"	"4.522"	"4.693"	"4.95"	"5.087"	"4.881"	"4.487"	"4.402"	"4.47"	"4.573"	"4.71"	"4.676"	"4.556"
"1979"	"4.659"	"4.796"	"4.984"	"5.104"	"5.018"	"4.796"	"4.419"	"4.556"	"4.624"	"4.727"	"4.642"	"4.624"
"1980"	"4.487"	"4.71"	"5.018"	"5.173"	"5.087"	"4.59"	"4.522"	"4.539"	"4.556"	"4.642"	"4.59"	"4.453"
"1981"	"4.453"	"4.624"	"4.881"	"5.07"	"5.001"	"4.624"	"4.522"	"4.385"	"4.522"	"4.693"	"4.539"	"4.505"
"1982"	"4.505"	"4.727"	"5.001"	"5.19"	"4.984"	"4.727"	"4.556"	"4.573"	"4.659"	"4.847"	"4.744"	"4.556"
"1983"	"4.505"	"4.693"	"4.967"	"5.173"	"5.241"	"4.916"	"4.642"	"4.573"	"4.607"	"4.71"	"4.573"	"4.556"
"1984"	"4.539"	"4.779"	"4.984"	"5.07"	"5.224"	"4.573"	"4.436"	"4.522"	"4.607"	"4.642"	"4.659"	"4.487"
"1985"	"4.659"	"4.779"	"5.121"	"5.224"	"5.018"	"4.522"	"4.539"	"4.522"	"4.676"	"4.642"	"4.624"	"4.607"
"1986"	"4.556"	"4.693"	"5.121"	"5.258"	"5.121"	"4.693"	"4.642"	"4.487"	"4.676"	"4.796"	"4.676"	"4.642"
"1987"	"4.556"	"4.624"	"4.984"	"5.155"	"5.087"	"4.693"	"4.761"	"4.59"	"4.83"	"4.779"	"4.761"	"4.607"
"1988"	"4.539"	"4.847"	"5.07"	"5.19"	"5.087"	"4.779"	"4.607"	"4.59"	"4.607"	"4.761"	"4.659"	"4.522"
"1989"	"4.556"	"4.642"	"4.916"	"5.155"	"5.053"	"4.607"	"4.487"	"4.539"	"4.624"	"4.727"	"4.693"	"4.522"
"1990"	"4.539"	"4.693"	"4.933"	"5.19"	"4.898"	"4.693"	"4.539"	"4.522"	"4.659"	"4.727"	"4.607"	"4.539"
"1991"	"4.642"	"4.761"	"5.053"	"5.155"	"5.19"	"4.744"	"4.47"	"4.453"	"4.744"	"4.676"	"4.624"	"4.368"
"1992"	"4.385"	"4.624"	"4.984"	"5.207"	"5.07"	"4.796"	"4.505"	"4.539"	"4.642"	"4.624"	"4.659"	"4.385"
"1993"	"4.487"	"4.693"	"4.898"	"5.19"	"5.104"	"4.693"	"4.487"	"4.59"	"4.642"	"4.676"	"4.659"	"4.47"
"1994"	"4.522"	"4.693"	"5.07"	"5.053"	"5.104"	"4.659"	"4.487"	"4.539"	"4.676"	"4.676"	"4.642"	"4.419"
"1995"	"4.505"	"4.779"	"4.95"	"5.155"	"5.018"	"4.898"	"4.642"	"4.624"	"4.676"	"4.779"	"4.71"	"4.487"
"1996"	"4.573"	"4.761"	"5.07"	"5.155"	"5.207"	"4.779"	"4.59"	"4.556"	"4.642"	"4.642"	"4.693"	"4.385"
"1997"	"4.505"	"4.693"	"5.001"	"5.001"	"5.104"	"4.83"	"4.624"	"4.59"	"4.727"	"4.813"	"4.813"	"4.727"
"1998"	"4.659"	"4.864"	"5.087"	"5.275"	"5.173"	"4.813"	"4.607"	"4.642"	"4.624"	"4.71"	"4.71"	"4.539"
"1999"	"4.539"	"4.779"	"5.121"	"5.155"	"4.83"	"4.59"	"4.522"	"4.607"	"4.727"	"4.744"	"4.693"	"4.505"
"2000"	"4.607"	"4.727"	"4.967"	"5.155"	"4.95"	"4.573"	"4.522"	"4.522"	"4.659"	"4.71"	"4.744"	"4.47"
"2001"	"4.624"	"4.881"	"5.001"	"5.155"	"5.036"	"4.693"	"4.59"	"4.539"	"4.727"	"4.676"	"4.727"	"4.556"
"2002"	"4.624"	"4.727"	"5.138"	"5.224"	"5.087"	"4.693"	"4.642"	"4.624"	"4.813"	"4.813"	"4.744"	"4.607"
