
"Year"	"Jan"	"Feb"	"Mar"	"Apr"	"May"	"Jun"	"Jul"	"Aug"	"Sep"	"Oct"	"Nov"	"Dec"
"1901"	"13.91"	"17.049"	"23.675"	"29.646"	"34.178"	"37.025"	"32.955"	"29.583"	"29.38"	"27.464"	"20.957"	"16.072"
"1902"	"16.684"	"18.818"	"26.207"	"30.781"	"34.49"	"34.921"	"30.509"	"30.155"	"28.888"	"26.034"	"19.796"	"14.88"
"1903"	"15.663"	"17.061"	"23.208"	"29.162"	"33.974"	"36.115"	"32.728"	"29.652"	"29.592"	"25.414"	"19.431"	"14.772"
"1904"	"15.619"	"17.972"	"23.855"	"30.678"	"33.491"	"34.646"	"29.367"	"28.518"	"28.677"	"25.951"	"19.517"	"15.956"
"1905"	"13.993"	"13.675"	"21.192"	"27.29"	"33.919"	"36.654"	"31.29"	"29.505"	"29.957"	"26.264"	"21.344"	"15.763"
"1906"	"14.924"	"16.682"	"22.444"	"30.032"	"35.806"	"34.418"	"30.757"	"29.309"	"28.718"	"26.446"	"21.11"	"16.416"
"1907"	"16.934"	"16.709"	"21.668"	"27.981"	"32.88"	"35.24"	"33.836"	"29.123"	"30.286"	"27.27"	"20.945"	"14.547"
"1908"	"14.438"	"18.104"	"23.684"	"31.565"	"34.763"	"36.033"	"30.215"	"28.977"	"29.47"	"25.969"	"20.046"	"15.004"
"1909"	"16.679"	"16.513"	"24.533"	"28.134"	"33.71"	"31.828"	"29.476"	"29.124"	"28.739"	"26.137"	"21.203"	"15.425"
"1910"	"14.67"	"17.949"	"23.989"	"29.564"	"34.136"	"33.643"	"31.096"	"29.307"	"29.217"	"25.163"	"19.284"	"14.93"
"1911"	"17.464"	"17.819"	"22.033"	"29.554"	"35.436"	"34.426"	"32.11"	"29.625"	"28.227"	"26.457"	"19.112"	"14.816"
"1912"	"15.825"	"18.981"	"23.089"	"29.699"	"34.474"	"35.995"	"31.215"	"29.383"	"28.37"	"25.986"	"19.591"	"14.987"
"1913"	"15.496"	"18.079"	"21.861"	"30.989"	"32.416"	"31.99"	"31.194"	"30.482"	"30.284"	"27.6"	"20.177"	"15.8"
"1914"	"17.187"	"18.685"	"23.441"	"30.077"	"33.917"	"34.69"	"30.327"	"29.197"	"29.472"	"25.523"	"21.035"	"15.305"
"1915"	"15.71"	"16.595"	"22.98"	"29.367"	"36.066"	"34.888"	"31.821"	"29.713"	"29.496"	"27.464"	"20.607"	"15.887"
"1916"	"15.594"	"17.576"	"25.768"	"31.164"	"34.44"	"32.093"	"30.687"	"28.828"	"28.887"	"26.06"	"18.747"	"14.216"
"1917"	"15.407"	"17.783"	"23.039"	"27.071"	"30.171"	"32.981"	"30.136"	"29.117"	"28.355"	"25.625"	"17.981"	"15.395"
"1918"	"14.307"	"18.23"	"23.98"	"28.427"	"35.219"	"32.854"	"33.533"	"30.576"	"30.077"	"26.766"	"20.494"	"14.832"
"1919"	"15.689"	"16.422"	"24.233"	"29.231"	"33.823"	"35.708"	"29.649"	"29.115"	"29.087"	"25.675"	"20.046"	"15.144"
"1920"	"15.276"	"17.514"	"23.983"	"29.831"	"31.78"	"34.285"	"29.842"	"29.774"	"30.551"	"27.795"	"21.598"	"15.955"
"1921"	"16.498"	"18.384"	"26.331"	"32.334"	"36.818"	"34.959"	"32.822"	"28.768"	"28.553"	"25.613"	"19.761"	"17.24"
"1922"	"15.457"	"19.274"	"25.031"	"30.524"	"35.307"	"34.075"	"30.166"	"28.487"	"28.393"	"25.622"	"20.142"	"15.202"
"1923"	"15.241"	"17.513"	"24.296"	"30.764"	"34.404"	"37.084"	"30.981"	"28.924"	"29.266"	"25.353"	"20.245"	"15.851"
"1924"	"14.733"	"17.797"	"25.576"	"30.836"	"32.74"	"36.966"	"30.055"	"29.062"	"28.766"	"25.986"	"20.039"	"15.517"
"1925"	"13.78"	"16.238"	"23.59"	"30.856"	"33.155"	"32.145"	"28.875"	"30.041"	"29.259"	"26.686"	"19.331"	"14.752"
"1926"	"15.26"	"19.014"	"22.798"	"26.913"	"32.416"	"36.427"	"31.789"	"29.449"	"28.316"	"25.293"	"18.443"	"14.827"
"1927"	"13.732"	"16.829"	"22.42"	"29.43"	"33.394"	"35.003"	"30.569"	"28.994"	"29.369"	"26.336"	"19.445"	"16.587"
"1928"	"15.154"	"18.203"	"24.261"	"29.426"	"35.321"	"34.145"	"30.632"	"30.775"	"30.356"	"27.144"	"21.458"	"15.842"
"1929"	"15.249"	"16.625"	"25.102"	"30.811"	"35.514"	"34.608"	"30.393"	"28.503"	"30.541"	"26.028"	"20.375"	"14.88"
"1930"	"14.837"	"17.571"	"24.907"	"29.748"	"34.289"	"34.404"	"29.728"	"28.998"	"29.308"	"26.694"	"19.862"	"15.222"
"1931"	"16.878"	"17.108"	"23.389"	"31.346"	"34.595"	"35.959"	"31.468"	"29.998"	"28.952"	"25.669"	"19.842"	"16.286"
"1932"	"17.472"	"17.076"	"24.395"	"29.671"	"33.71"	"36.021"	"32.163"	"28.998"	"29.288"	"26.269"	"19.65"	"15.211"
"1933"	"13.5"	"18.535"	"24.488"	"27.629"	"31.294"	"33.186"	"30.215"	"29.182"	"28.61"	"25.763"	"19.805"	"15.449"
"1934"	"14.822"	"18.467"	"22.883"	"29.691"	"34.099"	"33.562"	"30.348"	"28.956"	"29.025"	"24.697"	"19.692"	"16.313"
"1935"	"14.014"	"18.259"	"23.987"	"27.38"	"34.831"	"35.947"	"30.36"	"28.805"	"28.792"	"25.282"	"20.527"	"15.501"
"1936"	"14.164"	"17.869"	"23.962"	"29.288"	"35.053"	"32.288"	"29.695"	"28.877"	"28.673"	"25.888"	"20.527"	"15.977"
"1937"	"14.089"	"18.208"	"22.377"	"28.556"	"33.796"	"34.609"	"30.958"	"29.112"	"29.005"	"25.164"	"20.894"	"14.692"
"1938"	"15.42"	"16.157"	"25.432"	"30.91"	"34.998"	"32.157"	"30.365"	"29.38"	"29.691"	"26.922"	"19.396"	"15.172"
"1939"	"16.428"	"18.399"	"22.481"	"28.735"	"35.422"	"33.315"	"30.394"	"29.678"	"28.695"	"26.821"	"19.869"	"15.342"
"1940"	"15.187"	"17.152"	"22.211"	"28.534"	"34.596"	"35.321"	"31.571"	"29.199"	"28.961"	"26.178"	"21.324"	"15.428"
"1941"	"15.117"	"18.484"	"26.154"	"32.276"	"35.08"	"33.448"	"32.574"	"30.354"	"29.939"	"28.289"	"20.627"	"16.637"
"1942"	"14.404"	"18.98"	"25.2"	"30.834"	"35.637"	"35.811"	"30.245"	"29.09"	"28.481"	"26.269"	"21.551"	"15.646"
"1943"	"17.218"	"18.036"	"25.062"	"28.483"	"34.905"	"34.82"	"31.021"	"28.394"	"29.387"	"26.101"	"21.214"	"16.787"
"1944"	"15.19"	"17.619"	"22.657"	"28.329"	"35.578"	"33.923"	"30.606"	"29.716"	"29.396"	"25.503"	"21.254"	"17.283"
"1945"	"13.82"	"17.477"	"24.841"	"28.596"	"34.151"	"35.274"	"31.494"	"30.264"	"29.05"	"25.348"	"20.186"	"14.516"
"1946"	"16.196"	"20.073"	"23.96"	"30.757"	"33.867"	"33.59"	"30.324"	"29.617"	"29.795"	"26.8"	"20.675"	"16.949"
"1947"	"14.641"	"19.16"	"25.601"	"31.54"	"35.102"	"35.935"	"30.809"	"29.71"	"29.189"	"25.514"	"21.513"	"16.295"
"1948"	"16.063"	"17.777"	"23.241"	"31.448"	"35.688"	"35.976"	"30.64"	"29.182"	"28.896"	"26.762"	"20.114"	"15.874"
"1949"	"17.001"	"18.823"	"24.673"	"31.026"	"34.726"	"35.438"	"31.023"	"29.206"	"29.472"	"26.657"	"19.005"	"14.759"
"1950"	"16.349"	"17.067"	"22.962"	"28.798"	"34.589"	"34.505"	"30.338"	"29.205"	"28.993"	"25.77"	"19.794"	"15.18"
"1951"	"14.554"	"17.629"	"23.66"	"28.231"	"33.912"	"34.544"	"31.898"	"29.503"	"28.987"	"28.727"	"21.901"	"15.854"
"1952"	"16.904"	"20.62"	"23.98"	"31.394"	"35.364"	"33.051"	"30.316"	"28.795"	"29.705"	"26.79"	"20.481"	"16.385"
"1953"	"14.801"	"19.818"	"27.463"	"30.849"	"35.474"	"35.339"	"30.255"	"28.64"	"28.934"	"25.885"	"19.896"	"17.683"
"1954"	"14.271"	"19.625"	"24.35"	"31.171"	"35.859"	"35.039"	"31.394"	"29.584"	"28.984"	"24.573"	"20.461"	"15.645"
"1955"	"15.436"	"18.323"	"26.171"	"28.87"	"34.161"	"34.662"	"30.213"	"29.062"	"28.996"	"25.327"	"19.966"	"16.342"
"1956"	"15.912"	"18.272"	"24.767"	"30.969"	"35.498"	"32.884"	"29.827"	"29.092"	"28.916"	"25.63"	"19.472"	"16.597"
"1957"	"15.72"	"17.336"	"23.222"	"29.406"	"33.872"	"34.426"	"30.808"	"29.979"	"28.503"	"26.242"	"21.552"	"16.958"
"1958"	"17.621"	"19.329"	"25.539"	"32.126"	"35.269"	"35.916"	"30.721"	"29.301"	"28.941"	"26.099"	"20.985"	"17.273"
"1959"	"16.074"	"17.894"	"25.408"	"30.707"	"34.231"	"35.302"	"30.606"	"29.33"	"29.393"	"26.829"	"21.026"	"16.995"
"1960"	"15.656"	"20.98"	"24.315"	"29.807"	"34.371"	"35.806"	"30.393"	"29.221"	"29.399"	"25.942"	"19.851"	"16.809"
"1961"	"16.145"	"16.75"	"25.07"	"29.954"	"34.469"	"33.92"	"30.379"	"28.816"	"28.957"	"25.565"	"19.589"	"13.458"
"1962"	"14.593"	"18.759"	"24.081"	"30.508"	"34.204"	"36.563"	"31.813"	"29.209"	"28.233"	"24.888"	"20.689"	"16.764"
"1963"	"14.682"	"19.818"	"24.27"	"29.805"	"33.131"	"33.584"	"31.03"	"29.212"	"28.414"	"26.883"	"22.997"	"16.292"
"1964"	"14.94"	"18.377"	"26.097"	"31.119"	"32.784"	"34.665"	"29.643"	"29.716"	"28.486"	"26.426"	"19.972"	"16.768"
"1965"	"17.363"	"18.779"	"23.703"	"28.421"	"33.707"	"36.517"	"31.19"	"30.049"	"28.724"	"26.719"	"21.963"	"16.225"
"1966"	"16.491"	"21.146"	"24.703"	"30.959"	"34.73"	"33.679"	"32.289"	"29.224"	"29.658"	"27.489"	"21.848"	"15.518"
"1967"	"14.733"	"20.109"	"23.163"	"29.361"	"34.116"	"35.241"	"30.242"	"27.922"	"28.024"	"25.915"	"20.834"	"16.83"
"1968"	"14.728"	"16.88"	"23.769"	"29.34"	"33.665"	"33.761"	"29.827"	"29.105"	"30.06"	"25.872"	"20.909"	"16.455"
"1969"	"15.932"	"19.493"	"27.092"	"30.769"	"33.003"	"35.999"	"29.853"	"28.634"	"28.39"	"27.178"	"22.177"	"16.279"
"1970"	"16.224"	"17.477"	"23.663"	"31.43"	"34.231"	"32.633"	"31.106"	"29.497"	"28.418"	"26.642"	"20.454"	"16.588"
"1971"	"14.805"	"18.01"	"23.093"	"28.951"	"31.681"	"30.954"	"28.996"	"27.669"	"28.794"	"25.943"	"20.372"	"16.349"
"1972"	"15.411"	"16.375"	"24.857"	"29.688"	"35.185"	"35.336"	"31.917"	"28.698"	"28.158"	"25.29"	"21.249"	"16.62"
"1973"	"15.856"	"19.328"	"23.91"	"31.579"	"35.435"	"34.049"	"30.482"	"29.4"	"28.908"	"26.246"	"20.056"	"15.144"
"1974"	"14.888"	"17.395"	"25.366"	"31.999"	"34.674"	"34.812"	"29.935"	"28.442"	"29.363"	"27.619"	"20.665"	"15.288"
"1975"	"15.195"	"18.339"	"23.733"	"31.528"	"35.861"	"33.485"	"29.552"	"28.867"	"27.988"	"27.251"	"19.55"	"15.943"
"1976"	"15.945"	"18.596"	"24.208"	"28.89"	"32.802"	"33.127"	"30.332"	"27.652"	"28.665"	"27.084"	"22.279"	"16.307"
"1977"	"15.028"	"18.59"	"25.698"	"29.333"	"32.106"	"34.088"	"29.379"	"28.922"	"28.1"	"26.701"	"22.674"	"16.73"
"1978"	"15.231"	"17.294"	"21.957"	"29.012"	"36.036"	"33.342"	"29.47"	"28.487"	"27.601"	"26.565"	"22.062"	"15.899"
"1979"	"16.515"	"17.162"	"22.668"	"29.519"	"32.396"	"33.598"	"29.839"	"29.735"	"30.154"	"27.995"	"23.667"	"16.971"
"1980"	"15.882"	"19.038"	"24.036"	"31.215"	"33.804"	"31.467"	"27.921"	"27.858"	"28.482"	"26.919"	"21.383"	"16.677"
"1981"	"15.901"	"19.052"	"23.439"	"29.422"	"33.147"	"33.762"	"28.884"	"28.938"	"28.383"	"26.315"	"20.119"	"15.708"
"1982"	"16.572"	"17.332"	"21.924"	"29.007"	"32.663"	"33.129"	"32.478"	"28.837"	"28.841"	"26.796"	"21.508"	"16.895"
"1983"	"14.376"	"17.464"	"23.698"	"27.897"	"32.756"	"34.627"	"30.959"	"29.394"	"29.041"	"25.929"	"19.941"	"16.32"
"1984"	"15.775"	"16.18"	"24.902"	"30.815"	"35.784"	"33.176"	"30.314"	"28.82"	"28.326"	"26.3"	"20.211"	"17.016"
"1985"	"15.942"	"18.717"	"26.219"	"30.984"	"35.113"	"35.19"	"29.609"	"29.197"	"28.435"	"25.299"	"21.429"	"17.781"
"1986"	"15.772"	"18.114"	"24.482"	"30.127"	"32.757"	"34.984"	"29.714"	"29.61"	"29.097"	"25.889"	"21.334"	"15.972"
"1987"	"15.408"	"19.715"	"24.788"	"30.669"	"32.956"	"36.903"	"32.111"	"30.949"	"29.864"	"27.096"	"21.21"	"16.309"
"1988"	"16.855"	"19.222"	"24.223"	"31.351"	"35.624"	"33.852"	"29.971"	"29.128"	"30.344"	"26.17"	"21.055"	"17.056"
"1989"	"14.59"	"17.843"	"23.679"	"29.785"	"34.699"	"32.636"	"30.322"	"27.445"	"28.899"	"26.409"	"20.666"	"15.702"
"1990"	"16.953"	"18.356"	"22.8"	"30.129"	"33.421"	"34.415"	"29.412"	"29.561"	"28.802"	"26.124"	"21.4"	"16.289"
"1991"	"15.168"	"19.715"	"24.362"	"29.762"	"35.584"	"34.44"	"32.66"	"28.547"	"29.267"	"25.718"	"20.106"	"16.434"
"1992"	"16.22"	"17.109"	"24.428"	"30.594"	"33.231"	"35.269"	"30.883"	"29.273"	"28.766"	"26.013"	"21.285"	"15.974"
"1993"	"15.901"	"19.252"	"22.101"	"29.19"	"33.933"	"33.821"	"31.432"	"29.965"	"27.734"	"26.521"	"21.695"	"16.519"
"1994"	"16.917"	"18.114"	"25.218"	"29.197"	"35.263"	"34.532"	"30.048"	"28.932"	"28.822"	"25.843"	"21.12"	"16.792"
"1995"	"14.813"	"18.795"	"23.56"	"30.812"	"36.374"	"35.795"	"31.168"	"28.897"	"29.061"	"27.241"	"21.553"	"17.472"
"1996"	"16.088"	"18.402"	"25.273"	"30.194"	"35.213"	"34.099"	"30.796"	"28.496"	"29.345"	"25.868"	"20.697"	"15.43"
"1997"	"15.092"	"17.513"	"24.128"	"28.671"	"32.843"	"34.328"	"32.327"	"29.189"	"28.6"	"25.149"	"20.601"	"15.925"
"1998"	"14.306"	"19.43"	"22.487"	"30.486"	"35.093"	"34.648"	"30.396"	"29.464"	"29.293"	"27.401"	"22.913"	"16.68"
"1999"	"14.905"	"19.467"	"24.796"	"31.579"	"34.149"	"33.427"	"30.752"	"29.436"	"28.624"	"26.966"	"23.016"	"16.836"
"2000"	"15.735"	"18.257"	"23.933"	"31.651"	"34.109"	"32.34"	"30.236"	"29.797"	"28.097"	"27.528"	"23.545"	"16.577"
"2001"	"14.829"	"18.979"	"24.023"	"29.431"	"33.427"	"32.091"	"30.014"	"29.992"	"29.629"	"27.383"	"22.061"	"16.648"
"2002"	"16.029"	"16.859"	"25.085"	"31.123"	"35.344"	"34.255"	"33.121"	"29.63"	"28.262"	"26.842"	"21.613"	"16.775"
