
"Year"	"Jan"	"Feb"	"Mar"	"Apr"	"May"	"Jun"	"Jul"	"Aug"	"Sep"	"Oct"	"Nov"	"Dec"
"1901"	"41.482"	"19.813"	"5.225"	"11.988"	"25.074"	"106.037"	"268.502"	"334.629"	"152.471"	"47.625"	"17.945"	"0"
"1902"	"0"	"0.15"	"16.93"	"34.98"	"27.863"	"122.256"	"370.703"	"232.249"	"430.187"	"38.191"	"0.151"	"2.974"
"1903"	"5.474"	"11.276"	"12.403"	"34.438"	"57.659"	"205.53"	"141.621"	"305.167"	"173.036"	"141.148"	"3.242"	"0"
"1904"	"0.1"	"3.534"	"31.31"	"4.196"	"208.677"	"360.034"	"344.551"	"279.36"	"101.621"	"14.683"	"6.709"	"0.001"
"1905"	"17.795"	"44.25"	"38.987"	"18.276"	"78.203"	"49.461"	"408.618"	"419.315"	"262.624"	"27.419"	"0.001"	"0.427"
"1906"	"31.81"	"83.959"	"28.339"	"1.932"	"42.068"	"218.499"	"263.567"	"235.932"	"124.973"	"173.992"	"2.279"	"0"
"1907"	"1.037"	"37.835"	"41.393"	"28.117"	"37.697"	"251.833"	"216.219"	"228.556"	"250.119"	"33.206"	"0"	"2.649"
"1908"	"12.595"	"41.252"	"6.223"	"1.282"	"34.509"	"300.403"	"325.877"	"271.58"	"132.22"	"19.901"	"0.15"	"0.449"
"1909"	"15.242"	"6.621"	"0.15"	"65.803"	"29.097"	"324.543"	"201.302"	"471.393"	"224.236"	"18.489"	"1.151"	"4"
"1910"	"0.277"	"34.883"	"24.445"	"36.894"	"32.643"	"205.232"	"376.007"	"361.054"	"192.409"	"83.828"	"3.656"	"0"
"1911"	"2.513"	"0.201"	"26.414"	"1.961"	"38.955"	"572.886"	"187.714"	"295.61"	"277.146"	"145.977"	"10.828"	"0"
"1912"	"0.574"	"4.212"	"15.15"	"40.073"	"55.731"	"201.322"	"345.314"	"283.129"	"52.817"	"38.114"	"14.557"	"0.678"
"1913"	"0"	"37.246"	"37.361"	"0.735"	"84.127"	"550.097"	"170.173"	"360.207"	"217.013"	"57.122"	"2.25"	"13.381"
"1914"	"0"	"33.793"	"18.891"	"22.723"	"81.066"	"117.699"	"516.639"	"363.546"	"113.334"	"40.811"	"0"	"5.724"
"1915"	"2.798"	"25.92"	"24.372"	"7.971"	"63.494"	"246.696"	"276.281"	"322.68"	"225.195"	"53.225"	"13.654"	"0"
"1916"	"0.001"	"8.997"	"4.326"	"16.573"	"19.203"	"382.238"	"338.991"	"287.656"	"307.309"	"283.887"	"7.342"	"0"
"1917"	"2.048"	"28.57"	"8.499"	"11.995"	"91.461"	"199.295"	"333.189"	"150.981"	"360.863"	"273.064"	"5.345"	"0"
"1918"	"2.623"	"0.43"	"9.974"	"28.12"	"69.13"	"256.851"	"124.017"	"555.282"	"204.248"	"17.972"	"0.15"	"2.224"
"1919"	"18.194"	"21.139"	"15.693"	"7.981"	"76.659"	"209.87"	"293.392"	"401.287"	"197.486"	"134.665"	"9.157"	"0"
"1920"	"0.507"	"29.611"	"45.712"	"7.993"	"39.268"	"111.679"	"484.244"	"252.095"	"382.057"	"11.369"	"0"	"0"
"1921"	"33.546"	"2.229"	"9.176"	"9.804"	"23.065"	"210.744"	"308.552"	"420.736"	"200"	"37.105"	"0"	"0"
"1922"	"9.922"	"6.547"	"0.15"	"4.402"	"18.609"	"494.301"	"326.037"	"330.464"	"278.901"	"42.552"	"0"	"6.826"
"1923"	"0.875"	"52.354"	"1.8"	"3.283"	"19.915"	"149.294"	"210.247"	"329.031"	"149.266"	"84.578"	"2.8"	"0.949"
"1924"	"5.424"	"9.525"	"0.675"	"20.661"	"31.999"	"270.524"	"373.438"	"362.658"	"261.286"	"88.692"	"32.781"	"0"
"1925"	"55.018"	"11.569"	"6.649"	"54.752"	"50.066"	"253.068"	"482.542"	"293.196"	"246.725"	"22.067"	"2.876"	"0"
"1926"	"33.76"	"0.201"	"64.456"	"13.619"	"100.224"	"60.63"	"458.223"	"324.978"	"245.168"	"48.671"	"0"	"4.951"
"1927"	"24.423"	"90.016"	"42.184"	"1.96"	"50.297"	"245.109"	"305.572"	"325.134"	"91.802"	"51.211"	"18.609"	"0"
"1928"	"55.645"	"3.75"	"1.425"	"10.408"	"73.486"	"422.78"	"453.534"	"180.056"	"261.171"	"129.722"	"0.226"	"0.9"
"1929"	"36.813"	"1.925"	"13.576"	"20.432"	"48.975"	"187.103"	"385.669"	"188.057"	"68.772"	"306.638"	"0.201"	"5.121"
"1930"	"2.3"	"12.076"	"7.401"	"11.17"	"43.881"	"163.71"	"398.036"	"241.263"	"174.661"	"72.394"	"17.422"	"5.349"
"1931"	"16.84"	"69.46"	"21.944"	"0.981"	"39.231"	"139.861"	"480.947"	"196.384"	"453.514"	"44.934"	"10.527"	"0.55"
"1932"	"0"	"42.831"	"5.177"	"18.628"	"72.567"	"95.849"	"331.532"	"268.056"	"252.116"	"43.219"	"23.402"	"4.474"
"1933"	"50.501"	"14.894"	"1.899"	"31.748"	"66.34"	"255.266"	"350.111"	"441.231"	"141.815"	"64.202"	"0"	"0"
"1934"	"14.899"	"33.247"	"0.898"	"34.914"	"36.17"	"209.439"	"279.544"	"321.637"	"276.939"	"58.397"	"4.552"	"1.551"
"1935"	"16.989"	"14.401"	"8.675"	"5.471"	"18.889"	"178.767"	"201.599"	"582.909"	"339.289"	"14.703"	"0"	"0.949"
"1936"	"6.698"	"6.014"	"16.593"	"6.164"	"110.971"	"217.663"	"346.75"	"246.035"	"480.186"	"93.916"	"0.001"	"13.875"
"1937"	"0"	"35.86"	"5.923"	"48.116"	"54.045"	"204.811"	"148.09"	"411.589"	"289.82"	"141.118"	"0.624"	"0.474"
"1938"	"2.723"	"24.561"	"7.578"	"3.763"	"93.702"	"352.652"	"199.16"	"277.27"	"123.196"	"50.079"	"1.505"	"0"
"1939"	"8.92"	"18.889"	"9.594"	"10.111"	"32.512"	"203.029"	"497.387"	"294.125"	"332.643"	"126.574"	"1.426"	"0.15"
"1940"	"0.001"	"35.89"	"59.842"	"7.032"	"45.483"	"133.436"	"306.493"	"328.348"	"132.501"	"41.378"	"0.001"	"2.224"
"1941"	"34.381"	"1.526"	"12.147"	"12.937"	"41.566"	"304.383"	"338.435"	"356.23"	"274.473"	"152.357"	"14.275"	"0"
"1942"	"5.095"	"61.144"	"10.962"	"9.962"	"16.283"	"128.904"	"414.789"	"572.638"	"445.176"	"51.179"	"1.476"	"0.449"
"1943"	"40.182"	"14.768"	"16.83"	"70.244"	"63.87"	"171.399"	"650.104"	"341.857"	"252.769"	"65.129"	"0"	"0"
"1944"	"14.878"	"48.796"	"57.047"	"28.083"	"43.163"	"214.423"	"373.734"	"478.012"	"146.213"	"58.761"	"0"	"0"
"1945"	"39.116"	"28.111"	"4.751"	"41.561"	"52.346"	"189.99"	"267.391"	"367.203"	"324.031"	"167.687"	"0"	"0.9"
"1946"	"0"	"6.325"	"20.196"	"29.377"	"64.966"	"164.805"	"350.662"	"301.453"	"229.453"	"170.341"	"15.229"	"0"
"1947"	"3.72"	"7.271"	"25.094"	"3.859"	"35.951"	"178.259"	"371.048"	"277.998"	"344.475"	"60.089"	"0.051"	"1.924"
"1948"	"3.727"	"7.476"	"6.874"	"70.712"	"66.566"	"169.349"	"339.532"	"270.126"	"160.987"	"104.188"	"16.397"	"0"
"1949"	"1.827"	"24.608"	"14.544"	"22.259"	"103.616"	"370.745"	"357.858"	"487.783"	"141.56"	"48.27"	"0"	"0"
"1950"	"0.475"	"8.326"	"48.777"	"6.739"	"17.571"	"412.77"	"296.41"	"318.649"	"163.387"	"59.497"	"5.408"	"0"
"1951"	"7.151"	"0.15"	"37.083"	"7.944"	"21.158"	"196.452"	"526.086"	"349.74"	"313.402"	"111.218"	"20.686"	"0"
"1952"	"0"	"12.611"	"29.463"	"29.2"	"23.807"	"298.728"	"325.922"	"292.316"	"240.439"	"110.839"	"20.352"	"0"
"1953"	"53.377"	"12.768"	"19.829"	"2.899"	"23.288"	"221.801"	"450.127"	"249.448"	"296.39"	"5.903"	"0.575"	"0"
"1954"	"19.705"	"4.796"	"1.073"	"1.953"	"34.887"	"245.523"	"346.046"	"305.693"	"300.538"	"67.974"	"0"	"3.549"
"1955"	"38.437"	"10.542"	"7.92"	"21.138"	"20.243"	"193.837"	"434.865"	"158.985"	"161.021"	"81.349"	"14.557"	"0.501"
"1956"	"14.824"	"37.035"	"13.864"	"45.184"	"107.941"	"333.553"	"227.92"	"364.277"	"326.339"	"159.478"	"26.67"	"5.103"
"1957"	"14.962"	"12.044"	"15.812"	"0.306"	"9.501"	"129.331"	"254.907"	"152.861"	"255.029"	"75.289"	"0"	"0.676"
"1958"	"11.326"	"23.89"	"14.842"	"14.137"	"18.534"	"134.458"	"317.426"	"547.958"	"219.291"	"149.121"	"1.352"	"0"
"1959"	"14.463"	"0.15"	"6.151"	"4.044"	"51.198"	"157.372"	"278.48"	"331.982"	"307.66"	"338.371"	"0"	"0.275"
"1960"	"0.924"	"0.15"	"35.34"	"1.649"	"26.648"	"130.859"	"265.927"	"238.457"	"229.777"	"59.308"	"1.278"	"0"
"1961"	"10.366"	"84.84"	"1.877"	"0.285"	"30.308"	"216.592"	"177.546"	"338.258"	"287.879"	"119.516"	"1.175"	"3.774"
"1962"	"14.689"	"16.424"	"3.973"	"2.052"	"43.254"	"159.8"	"216.647"	"461.993"	"168.4"	"60.337"	"0"	"2.1"
"1963"	"1.472"	"2.949"	"33.471"	"49.577"	"96.719"	"263.666"	"294.159"	"131.998"	"215.553"	"235.133"	"11.236"	"0.076"
"1964"	"0.002"	"0.153"	"8.373"	"41.61"	"40.284"	"181.282"	"268.594"	"261.904"	"164.538"	"59.711"	"3.471"	"0"
"1965"	"0"	"13.744"	"11.928"	"23.038"	"32.331"	"102.265"	"268.074"	"333.015"	"197.308"	"33.916"	"4.607"	"1.599"
"1966"	"44.495"	"5.289"	"0.35"	"6.108"	"21.683"	"152.406"	"135.931"	"297.622"	"137.581"	"28.184"	"28.565"	"13.4"
"1967"	"8.27"	"0.974"	"56.153"	"44.769"	"19.815"	"142.701"	"256.9"	"395.419"	"117.28"	"33.908"	"0"	"0.973"
"1968"	"18.319"	"3.15"	"7.877"	"10.337"	"16.602"	"387.13"	"354.62"	"291.741"	"90.872"	"161.498"	"6.825"	"2.949"
"1969"	"2.386"	"8.812"	"19.851"	"20.693"	"73.893"	"182.5"	"300.937"	"374.266"	"203.863"	"62.941"	"10.924"	"0"
"1970"	"20.792"	"10.111"	"9.519"	"0.962"	"39.36"	"210.734"	"314.083"	"230.991"	"306.444"	"152.604"	"4.175"	"0"
"1971"	"25.512"	"23.429"	"7.976"	"106.218"	"81.43"	"350.963"	"424.038"	"537.379"	"287.118"	"90.379"	"3.982"	"0"
"1972"	"8.971"	"32.751"	"1.073"	"13.986"	"18.312"	"74.131"	"151.183"	"337.256"	"200.161"	"71.287"	"4.564"	"0.2"
"1973"	"12.585"	"5.051"	"16.328"	"3.403"	"69.514"	"406.703"	"285.2"	"248.061"	"473.318"	"230.407"	"24.813"	"9.407"
"1974"	"3.479"	"0.275"	"34.059"	"16.799"	"62.442"	"119.944"	"315.183"	"205.147"	"344.54"	"60.264"	"4.279"	"1.052"
"1975"	"16.343"	"7.119"	"7.084"	"8.716"	"60.567"	"130.681"	"350.74"	"126.635"	"259.62"	"71.141"	"4.759"	"0"
"1976"	"0.755"	"17.974"	"2.301"	"20.734"	"69.574"	"91.547"	"330.927"	"278.888"	"302.01"	"24.136"	"0.625"	"0"
"1977"	"3.797"	"23.612"	"1.401"	"32.626"	"107.994"	"310.261"	"617.497"	"158.685"	"142.326"	"104.25"	"19.076"	"17.66"
"1978"	"3.073"	"55.293"	"45.516"	"44.222"	"66.141"	"252.295"	"331.276"	"301.065"	"479.405"	"152.229"	"17.628"	"3.893"
"1979"	"35.552"	"31.824"	"2.024"	"28.678"	"16.257"	"80.015"	"288.767"	"243.404"	"194.802"	"93.492"	"7.995"	"21.969"
"1980"	"20.014"	"9.398"	"39.301"	"1.478"	"71.577"	"284.177"	"266.403"	"242.243"	"136.502"	"53.766"	"5.534"	"0.2"
"1981"	"14.871"	"12.271"	"34.164"	"55.285"	"80.638"	"132.97"	"361.755"	"200.254"	"169.734"	"0.975"	"2.522"	"12.585"
"1982"	"4.838"	"8.747"	"25.045"	"43.707"	"31.586"	"115.782"	"166.797"	"225.22"	"235.544"	"40.509"	"7.654"	"0.423"
"1983"	"15.576"	"13.344"	"16.198"	"22.382"	"89.666"	"187.846"	"390.025"	"209.99"	"133.425"	"131.8"	"0.151"	"5.429"
"1984"	"26.814"	"15.617"	"5.402"	"31.203"	"43.299"	"431.324"	"368.431"	"257.083"	"460.065"	"47.492"	"0"	"0"
"1985"	"9.111"	"7.975"	"1.725"	"10.313"	"46.577"	"117.546"	"387.331"	"156.462"	"187.535"	"73.867"	"1.253"	"15.064"
"1986"	"7.021"	"7.761"	"0.548"	"34.854"	"72.48"	"184.192"	"276.249"	"225.114"	"316.465"	"70.261"	"18.87"	"4.325"
"1987"	"0.875"	"5.849"	"16.6"	"24.822"	"49.039"	"122.017"	"232.164"	"270.534"	"190.441"	"84.009"	"10.526"	"2"
"1988"	"6.344"	"31.111"	"25.511"	"8.13"	"51.861"	"141.288"	"265.516"	"462.831"	"131.24"	"50.996"	"15.422"	"3.102"
"1989"	"7.993"	"4.565"	"4.923"	"0.428"	"78.555"	"238.474"	"216.845"	"293.191"	"287.154"	"56.427"	"7.655"	"4.665"
"1990"	"0"	"11.817"	"16.669"	"20.869"	"137.751"	"252.206"	"402.744"	"266.092"	"274.069"	"237.868"	"3.88"	"0.301"
"1991"	"4.822"	"1.985"	"26.758"	"10.3"	"39.735"	"152.24"	"268.711"	"469.504"	"217.799"	"72.109"	"1.625"	"8.253"
"1992"	"12.713"	"4.9"	"2.153"	"8.066"	"44.981"	"120.843"	"307.625"	"204.193"	"160.492"	"43.052"	"0.352"	"0.051"
"1993"	"13.747"	"2.732"	"25.675"	"27.423"	"62.15"	"196.624"	"202.732"	"290.849"	"307.961"	"96.865"	"5.603"	"0"
"1994"	"35.522"	"20.297"	"18.25"	"35.269"	"36.85"	"102.059"	"240.352"	"338.924"	"100.775"	"149.104"	"4.619"	"0.051"
"1995"	"19.889"	"21.423"	"15.391"	"11.097"	"46.35"	"111.971"	"234.834"	"221.852"	"326.172"	"50.272"	"17.701"	"0.551"
"1996"	"13.719"	"12.647"	"4.526"	"21.965"	"42.978"	"108.328"	"159.15"	"379.484"	"142.834"	"140.883"	"0"	"0"
"1997"	"19.918"	"7.575"	"17.23"	"19.777"	"108.709"	"57.967"	"222.036"	"334.383"	"222.614"	"64.957"	"15.581"	"11.752"
"1998"	"11.046"	"35.748"	"14.051"	"21.776"	"104.5"	"70.708"	"182.25"	"253.652"	"224.056"	"269.339"	"16.855"	"0"
"1999"	"9.942"	"4.896"	"1.201"	"1.253"	"70.651"	"157.771"	"268.435"	"342.052"	"223.085"	"72.719"	"6.008"	"0.051"
"2000"	"7.002"	"21.317"	"4.127"	"22.918"	"51.149"	"192.354"	"126.718"	"221.625"	"239.468"	"22.142"	"1.35"	"0.676"
"2001"	"1.6"	"5.101"	"30.686"	"19.671"	"67.637"	"109.694"	"211.087"	"255.71"	"119.256"	"128.874"	"2.978"	"0"
"2002"	"19.992"	"5.623"	"12"	"27.692"	"31.169"	"129.351"	"182.433"	"279.187"	"177.824"	"113.123"	"12.836"	"0"
