
"Year"	"Jan"	"Feb"	"Mar"	"Apr"	"May"	"Jun"	"Jul"	"Aug"	"Sep"	"Oct"	"Nov"	"Dec"
"1901"	"75.697"	"33.438"	"24.561"	"6.45"	"16.014"	"40.102"	"358.891"	"420.086"	"209.104"	"8.174"	"0.094"	"0.083"
"1902"	"18.052"	"2.554"	"0.092"	"2.118"	"5.074"	"42.905"	"414.719"	"248.899"	"178.947"	"8.978"	"13.554"	"5.834"
"1903"	"6.449"	"2.083"	"0.208"	"0.459"	"21.457"	"114.286"	"283.88"	"512.291"	"287.79"	"66.258"	"0.008"	"0.083"
"1904"	"4.165"	"15.114"	"31.861"	"0.059"	"6.762"	"71.226"	"278.725"	"453.425"	"161.271"	"59.899"	"5.947"	"35.328"
"1905"	"16.373"	"13.528"	"16.857"	"7.054"	"15.019"	"55.425"	"307.425"	"365.953"	"306.983"	"0.494"	"0.008"	"0.395"
"1906"	"3.401"	"28.62"	"22.703"	"0"	"4.896"	"184.443"	"485.049"	"342.245"	"160.509"	"5.319"	"0.01"	"10.439"
"1907"	"1.53"	"114.934"	"6.135"	"19.38"	"2.04"	"118.728"	"248.242"	"501.804"	"15.099"	"0.302"	"12.889"	"0.948"
"1908"	"28.326"	"18.021"	"11.426"	"3.75"	"0"	"78.661"	"393.62"	"516.486"	"107.807"	"6.9"	"0.258"	"7.799"
"1909"	"8.322"	"13.959"	"4.135"	"37.587"	"21.266"	"250.258"	"378.904"	"225.62"	"178.841"	"0.302"	"0.008"	"52.661"
"1910"	"8.126"	"1.125"	"1.35"	"0.505"	"5.013"	"220.788"	"220.841"	"350.879"	"297.632"	"51.493"	"83.629"	"0.083"
"1911"	"28.451"	"1.254"	"41.218"	"1.68"	"0.221"	"236.375"	"91.251"	"332.925"	"286.878"	"71.941"	"44.092"	"0.083"
"1912"	"17.261"	"28.178"	"4.617"	"2.586"	"3.049"	"56.512"	"349.635"	"408.652"	"153.424"	"0.436"	"48.16"	"4.903"
"1913"	"0.201"	"59.738"	"31.636"	"0"	"32.049"	"213.937"	"240.883"	"434.229"	"83.235"	"3.035"	"0.342"	"30.65"
"1914"	"3.847"	"16.331"	"30.834"	"21.535"	"18.888"	"129.173"	"508.072"	"288.243"	"135.123"	"8.77"	"0.038"	"13.981"
"1915"	"31.527"	"41.457"	"62.346"	"9.328"	"7.409"	"140.944"	"361.844"	"384.602"	"265.508"	"91.399"	"10.202"	"5.569"
"1916"	"0.201"	"29.611"	"0.091"	"1.359"	"15.387"	"178.03"	"263.924"	"557.298"	"249.36"	"92.63"	"15.643"	"0.083"
"1917"	"4.276"	"82.156"	"24.476"	"2.057"	"53.496"	"225.748"	"351.099"	"338.249"	"278.132"	"57.764"	"0.008"	"10.325"
"1918"	"3.498"	"7.192"	"1.783"	"2.176"	"37.092"	"389.13"	"92.034"	"363.854"	"49.47"	"1.565"	"6.667"	"16.755"
"1919"	"103.551"	"44.47"	"12.861"	"4.892"	"15.876"	"161.76"	"323.927"	"589.947"	"173.919"	"48.73"	"35.922"	"11.17"
"1920"	"26.124"	"7.011"	"31.946"	"0"	"10.013"	"76.52"	"499.237"	"307.215"	"95.939"	"0.535"	"0.008"	"0.083"
"1921"	"34.063"	"3.053"	"0.091"	"0.599"	"0"	"208.236"	"338.195"	"332.317"	"302.622"	"2.383"	"0.008"	"0.083"
"1922"	"44.887"	"2.856"	"0.121"	"2.213"	"0.154"	"174.555"	"316.156"	"417.058"	"264.366"	"4.389"	"46.608"	"14.76"
"1923"	"1.566"	"13.887"	"26.423"	"5.692"	"1.708"	"43.728"	"424.821"	"520.093"	"244.816"	"18.314"	"1.059"	"6.175"
"1924"	"57.73"	"10.557"	"13.99"	"1.854"	"1.8"	"23.554"	"381.342"	"401.991"	"155.565"	"21.391"	"11.146"	"16.259"
"1925"	"0.201"	"0.455"	"0.374"	"0"	"22.432"	"131.804"	"504.881"	"352.523"	"244.536"	"3.834"	"42.911"	"0.083"
"1926"	"15.565"	"3.717"	"82.515"	"15.026"	"43.142"	"35.117"	"312.601"	"509.646"	"340.965"	"76.478"	"2.771"	"3.471"
"1927"	"15.986"	"28.635"	"34.427"	"1.009"	"0.995"	"145.792"	"519.252"	"237.744"	"104.735"	"64.81"	"69.225"	"10.37"
"1928"	"17.125"	"70.078"	"5.337"	"6.782"	"6.322"	"103.988"	"474.15"	"144.02"	"81.611"	"92.29"	"0.008"	"68.572"
"1929"	"50.027"	"21.535"	"0.285"	"2.86"	"0.663"	"104.398"	"682.93"	"417.262"	"207.892"	"26.824"	"0.008"	"52.731"
"1930"	"2.828"	"13.496"	"2.167"	"10.799"	"10.139"	"157.29"	"452.83"	"279.582"	"126.222"	"37.179"	"10.096"	"18.701"
"1931"	"4.34"	"32.129"	"14.134"	"2.205"	"7.184"	"88.957"	"425.18"	"351.052"	"268.55"	"126.202"	"16.08"	"3.45"
"1932"	"0.201"	"22.058"	"11.511"	"1.886"	"8.474"	"112.812"	"372.648"	"303.521"	"201.763"	"18.416"	"12.119"	"0.225"
"1933"	"0.31"	"16.876"	"22.73"	"37.191"	"43.433"	"168.084"	"313.383"	"420.873"	"170.129"	"60.902"	"0.679"	"4.306"
"1934"	"20.835"	"0.468"	"20.619"	"2.071"	"0"	"191.204"	"300.585"	"464.975"	"270.092"	"17.522"	"42.313"	"9.871"
"1935"	"9.376"	"19.445"	"0.223"	"12.493"	"1.43"	"176.838"	"401.271"	"360.586"	"204.96"	"3.652"	"0.069"	"13.471"
"1936"	"5.108"	"59.26"	"23.12"	"4.118"	"11.965"	"212.232"	"346.177"	"351.205"	"245.099"	"42.168"	"17.719"	"24.705"
"1937"	"0.201"	"62.099"	"26.969"	"25.895"	"4.124"	"222.38"	"421.638"	"273.31"	"177.824"	"71.763"	"0.782"	"0.083"
"1938"	"40.826"	"13.07"	"0.533"	"6.618"	"10.347"	"336.004"	"356.427"	"426.247"	"239.092"	"83.669"	"0.008"	"0.083"
"1939"	"17.239"	"15.522"	"37.127"	"11.188"	"0"	"142.788"	"365.256"	"596.673"	"165.221"	"18.53"	"0.008"	"0.23"
"1940"	"1.364"	"19.176"	"34.46"	"11.404"	"9.35"	"111.015"	"485.283"	"456.03"	"116.024"	"32.334"	"13.268"	"14.339"
"1941"	"46.605"	"24.453"	"11.65"	"1.801"	"6.15"	"149.778"	"221.415"	"280.601"	"101.528"	"1.426"	"0.205"	"0.083"
"1942"	"44.597"	"72.588"	"1.652"	"9.663"	"0.305"	"113.481"	"431.453"	"361.599"	"190.582"	"13.485"	"0.008"	"16.955"
"1943"	"76.364"	"1.884"	"0.12"	"8.683"	"19.766"	"62.622"	"308.489"	"525.322"	"301.103"	"73.863"	"2.927"	"0.083"
"1944"	"27.975"	"62.941"	"78.257"	"4.429"	"0.406"	"102.42"	"573.51"	"629.407"	"140.929"	"59.571"	"0.819"	"3.618"
"1945"	"74.96"	"2.249"	"0.091"	"14.584"	"7.553"	"184.95"	"461.313"	"317.276"	"174.492"	"32.125"	"0.008"	"26.883"
"1946"	"0.201"	"40.071"	"1.093"	"10.114"	"11.091"	"228.773"	"355.975"	"389.177"	"59.501"	"19.938"	"38.156"	"8.386"
"1947"	"69.441"	"28.616"	"32.608"	"4.555"	"0.142"	"66.845"	"544.031"	"452.035"	"257.953"	"5.228"	"3.344"	"1.906"
"1948"	"55.715"	"11.679"	"15.536"	"4.304"	"2.31"	"299.834"	"359.368"	"561.684"	"223.956"	"24.205"	"86.85"	"0.225"
"1949"	"0.201"	"33.912"	"0.844"	"3.129"	"32.688"	"160.094"	"352.875"	"544.324"	"264.504"	"129.879"	"0.172"	"0.083"
"1950"	"13.914"	"43.489"	"49.687"	"1.329"	"3.753"	"109.845"	"430.238"	"291.647"	"123.308"	"0.49"	"0.658"	"25.399"
"1951"	"19.568"	"17.647"	"38.961"	"6.659"	"15.455"	"181.616"	"337.378"	"420.014"	"166.471"	"40.021"	"0.008"	"0.083"
"1952"	"0.527"	"31.503"	"35.038"	"2.89"	"8.743"	"164.168"	"206.827"	"368.725"	"123.029"	"4.354"	"0.008"	"1.57"
"1953"	"16.26"	"18.999"	"0.091"	"10.411"	"0.031"	"127.812"	"427.002"	"369.369"	"215.726"	"11.419"	"0.008"	"7.23"
"1954"	"12.47"	"11.427"	"8.997"	"0.471"	"2.268"	"136.972"	"350.365"	"372.101"	"275.285"	"6.729"	"0.008"	"0.112"
"1955"	"57.616"	"17.559"	"6.712"	"2.965"	"3.089"	"135.372"	"464.091"	"592.026"	"328.013"	"103.958"	"0.01"	"1.045"
"1956"	"20.432"	"15.15"	"8.656"	"0.351"	"30.554"	"265.034"	"503.139"	"332.988"	"281.607"	"50.56"	"102.371"	"15.911"
"1957"	"13.511"	"0.622"	"49.348"	"22.621"	"4.396"	"159.151"	"366.758"	"371.381"	"144.024"	"4.186"	"0.008"	"6.638"
"1958"	"19.397"	"18.01"	"36.473"	"6.677"	"0"	"66.87"	"365.405"	"381.815"	"176.47"	"56.872"	"31.833"	"3.103"
"1959"	"32.327"	"20.233"	"0.091"	"10.507"	"54.837"	"97.312"	"257.766"	"464.633"	"181.622"	"75.03"	"0.008"	"0.083"
"1960"	"50.788"	"0.201"	"9.562"	"9.203"	"13.561"	"145.992"	"489.884"	"500.391"	"71.242"	"70.844"	"0.008"	"0.083"
"1961"	"36.877"	"22.081"	"3.762"	"2.411"	"12.85"	"49.117"	"417.662"	"564.703"	"351.504"	"63.869"	"8.581"	"28.786"
"1962"	"11.724"	"38.471"	"23.727"	"13.218"	"11.995"	"65.388"	"306.993"	"450.445"	"314.84"	"2.584"	"14.799"	"60.017"
"1963"	"13.747"	"23.789"	"15.22"	"12.293"	"13.222"	"133.336"	"471.974"	"410.321"	"272.462"	"43.258"	"1.645"	"3.28"
"1964"	"0.201"	"18.795"	"11.687"	"2.54"	"5.492"	"107.566"	"380.599"	"458.849"	"160.54"	"13.286"	"2.105"	"0.083"
"1965"	"13.455"	"0.747"	"35.192"	"14.044"	"4.207"	"97.652"	"226.726"	"236.696"	"194.124"	"12.264"	"0.008"	"6.221"
"1966"	"10.653"	"5.067"	"10.224"	"3.012"	"25.971"	"319.268"	"265.152"	"222.355"	"66.317"	"5.623"	"63.095"	"18.206"
"1967"	"1.183"	"0.201"	"53.21"	"5.651"	"10.041"	"132.451"	"360.003"	"630.589"	"179.61"	"1.419"	"0.008"	"107.346"
"1968"	"33.735"	"18.056"	"16.962"	"8.995"	"0"	"128.232"	"298.711"	"315.381"	"232.482"	"16.827"	"0.008"	"6.716"
"1969"	"4.126"	"2.881"	"5.52"	"0.225"	"18.992"	"68.794"	"594.005"	"390.946"	"162.719"	"0.303"	"15.959"	"0.083"
"1970"	"44.273"	"56.077"	"19.036"	"0.192"	"34.043"	"164.215"	"417.201"	"519.513"	"411.762"	"14.272"	"0.008"	"0.083"
"1971"	"17.92"	"15.011"	"11.432"	"13.034"	"19.679"	"336.123"	"217.139"	"480.043"	"188.942"	"102.434"	"0.008"	"0.083"
"1972"	"14.627"	"31.363"	"0.093"	"3.834"	"0.266"	"58.033"	"176.492"	"509.111"	"122.835"	"45.504"	"23.564"	"2.473"
"1973"	"4.965"	"22.626"	"0.092"	"0.782"	"0.432"	"44.841"	"626.797"	"573.71"	"206.689"	"40.681"	"0.12"	"2.715"
"1974"	"0.201"	"2.173"	"1.847"	"0.57"	"4.656"	"116.403"	"370.326"	"391.067"	"90.14"	"86.848"	"1.097"	"0.083"
"1975"	"15.121"	"32.799"	"30.675"	"1.998"	"0.265"	"258.304"	"288.495"	"328.062"	"172.522"	"42.911"	"0.062"	"0.083"
"1976"	"21.989"	"0.585"	"7.272"	"23.392"	"17.67"	"60.944"	"274.352"	"391.955"	"305.472"	"0.302"	"36.384"	"0.083"
"1977"	"15.093"	"13.932"	"6.809"	"4.657"	"17.461"	"255.406"	"367.876"	"336.286"	"203.797"	"40.884"	"41.399"	"38.2"
"1978"	"34.891"	"79.463"	"34.967"	"18.221"	"6.809"	"232.317"	"211.82"	"420.635"	"168.203"	"13.038"	"5.701"	"37.573"
"1979"	"70.19"	"36.273"	"0.399"	"2.293"	"9.888"	"143.584"	"294.554"	"387.132"	"70.671"	"18.59"	"57.033"	"4.543"
"1980"	"1.519"	"7.867"	"2.816"	"0.154"	"0.222"	"230.511"	"338.529"	"637.402"	"109.966"	"4.827"	"0.008"	"34.741"
"1981"	"15.311"	"1.379"	"26.825"	"4.172"	"10.777"	"161.801"	"439.926"	"430.675"	"265.367"	"4.504"	"11.093"	"24.649"
"1982"	"76.021"	"15.905"	"24.459"	"2.038"	"15.946"	"136.334"	"298.266"	"460.697"	"287.262"	"15.961"	"33.59"	"7.413"
"1983"	"5.83"	"3.324"	"0.526"	"6.764"	"14.453"	"145.359"	"284.263"	"400.628"	"261.198"	"42.375"	"0.062"	"7.446"
"1984"	"66.372"	"50.799"	"0.122"	"6.047"	"0.723"	"197.9"	"288.457"	"300.122"	"107.333"	"14.154"	"0.008"	"0.083"
"1985"	"29.608"	"2.494"	"0.091"	"12.374"	"7.113"	"120.365"	"354.001"	"461.611"	"183.146"	"131.452"	"0.008"	"2.432"
"1986"	"31.521"	"57.943"	"4.317"	"0.057"	"35.892"	"125.725"	"242.205"	"446.406"	"147.914"	"7.926"	"6.116"	"54.805"
"1987"	"22.292"	"24.214"	"21.919"	"0"	"10.248"	"54.511"	"186.786"	"356.331"	"47.162"	"54.141"	"28.035"	"21.022"
"1988"	"7.414"	"2.48"	"19.977"	"9.264"	"4.571"	"205.152"	"222.85"	"379.706"	"166.956"	"8.609"	"10.118"	"28.681"
"1989"	"0.998"	"0.201"	"37.088"	"0.376"	"1.3"	"149.238"	"321.171"	"259.817"	"82.618"	"10.339"	"5.943"	"38.336"
"1990"	"0.26"	"30.262"	"9.524"	"5.958"	"33.59"	"456.112"	"399.174"	"486.932"	"217.274"	"19.37"	"0.008"	"14.019"
"1991"	"16.918"	"13.143"	"10.095"	"12.812"	"6.545"	"158.489"	"169.846"	"238.986"	"71.803"	"0.805"	"3.267"	"40.483"
"1992"	"22.035"	"12.291"	"0.091"	"2.856"	"14.528"	"45.373"	"82.178"	"239.402"	"274.137"	"38.169"	"1.441"	"0.083"
"1993"	"4.125"	"16.212"	"13.34"	"0.129"	"17.754"	"100.198"	"205.622"	"188.805"	"155.76"	"27.822"	"0.008"	"1.001"
"1994"	"48.5"	"54.351"	"41.378"	"6.878"	"5.157"	"336.103"	"574.791"	"405.924"	"234.03"	"41.025"	"0.008"	"0.083"
"1995"	"54.592"	"21.098"	"53.701"	"9.26"	"2.171"	"112.849"	"329.383"	"339.758"	"222.876"	"9.957"	"19.125"	"32.905"
"1996"	"33.217"	"24.961"	"4.486"	"23.606"	"1.819"	"174.3"	"272.758"	"452.629"	"128.668"	"57.743"	"9.351"	"0.083"
"1997"	"24.791"	"0.201"	"2.305"	"7.253"	"10.528"	"119.549"	"157.903"	"294.816"	"232.112"	"37.099"	"59.714"	"77.12"
"1998"	"19.345"	"25.839"	"42.665"	"2.053"	"20.458"	"137.126"	"303.635"	"510.259"	"216.347"	"16.664"	"46.926"	"0.083"
"1999"	"29.51"	"61.874"	"0.091"	"0"	"22.416"	"45.838"	"420.323"	"377.191"	"268.673"	"53.428"	"0.008"	"0.115"
"2000"	"4.325"	"9.472"	"0.091"	"0.085"	"20.879"	"137.726"	"410.907"	"202.856"	"209.668"	"3.3"	"0.008"	"0.083"
"2001"	"6.873"	"2.009"	"15.751"	"11.293"	"19.009"	"246.124"	"285.798"	"323.419"	"107.996"	"74.577"	"7.179"	"0.083"
"2002"	"19.681"	"33.899"	"1.043"	"2.332"	"13.486"	"158.316"	"121.18"	"412.056"	"159.04"	"46.505"	"16.182"	"6.767"
