
"Year"	"Jan"	"Feb"	"Mar"	"Apr"	"May"	"Jun"	"Jul"	"Aug"	"Sep"	"Oct"	"Nov"	"Dec"
"1901"	"87.849"	"27.418"	"14.274"	"0.265"	"1.715"	"3.853"	"191.945"	"389.139"	"221.119"	"0.817"	"0.011"	"0.399"
"1902"	"16.051"	"2.702"	"0.003"	"0.457"	"8.838"	"35.862"	"497.915"	"288.46"	"203.454"	"0.969"	"4.833"	"0.146"
"1903"	"1.157"	"1.513"	"0.507"	"1.054"	"1.823"	"28.781"	"125.761"	"557.255"	"145.69"	"64.766"	"0"	"0"
"1904"	"9.249"	"0.84"	"14.092"	"0.399"	"1.661"	"36.12"	"340.174"	"550.696"	"63.654"	"108.006"	"16.178"	"33.15"
"1905"	"22.161"	"6.236"	"21.78"	"3.543"	"0.61"	"19.15"	"310.572"	"310.936"	"114.091"	"0.303"	"0"	"0.157"
"1906"	"7.233"	"13.402"	"3.57"	"0.002"	"6.293"	"82.049"	"283.156"	"273.862"	"136.854"	"0.533"	"0"	"0.549"
"1907"	"1.232"	"81.274"	"8.174"	"15.561"	"1.365"	"25.408"	"212.043"	"456.708"	"2.245"	"0.312"	"0.826"	"0.008"
"1908"	"17.427"	"11.102"	"0.746"	"0.243"	"0.305"	"10.789"	"367.748"	"531.986"	"54.972"	"8.348"	"0.142"	"1.532"
"1909"	"7.479"	"6.375"	"0.146"	"25.314"	"2.046"	"306.748"	"558.189"	"157.975"	"152.634"	"0.304"	"0"	"33.262"
"1910"	"12.832"	"1.466"	"0.073"	"0.451"	"8.867"	"96.09"	"174.193"	"283.512"	"212.776"	"44.343"	"99.886"	"0"
"1911"	"28.349"	"0.099"	"59.289"	"4.138"	"0.015"	"69.521"	"78.532"	"295.966"	"316.63"	"108.525"	"59.934"	"0.346"
"1912"	"4.648"	"2.037"	"8.227"	"0.37"	"1.753"	"45.541"	"287.966"	"297.522"	"125.294"	"0.303"	"48.224"	"1.337"
"1913"	"0.2"	"46.453"	"32.055"	"0.003"	"15.684"	"124.952"	"187.92"	"265.111"	"62.633"	"0.447"	"0.374"	"23.602"
"1914"	"8.353"	"5.647"	"19.712"	"6.968"	"26.637"	"56.386"	"583.69"	"279.924"	"96.754"	"3.149"	"0"	"0.355"
"1915"	"24.108"	"50.463"	"66.087"	"8.965"	"0.65"	"74.271"	"363.419"	"382.099"	"242.019"	"92.229"	"0.544"	"4.802"
"1916"	"0.2"	"21.284"	"0"	"0.251"	"1.211"	"136.957"	"328.182"	"560.157"	"170.814"	"60.939"	"14.495"	"0"
"1917"	"7.268"	"54.259"	"31.685"	"0.991"	"33.573"	"201.709"	"298.59"	"308.17"	"246.741"	"40.703"	"0"	"13.17"
"1918"	"1.437"	"0.342"	"0.327"	"0.859"	"2.153"	"244.155"	"38.172"	"406.419"	"59.908"	"0.302"	"3.23"	"0.484"
"1919"	"70.88"	"16.527"	"0.616"	"4.689"	"2.586"	"44.548"	"308.829"	"435.841"	"129.796"	"35.575"	"2.257"	"2.271"
"1920"	"1.973"	"10.407"	"22.082"	"0"	"6.141"	"40.867"	"650.069"	"162.637"	"53.42"	"1.617"	"0"	"0"
"1921"	"60.896"	"1.136"	"0"	"0.002"	"0"	"112.905"	"182.038"	"345.82"	"164.612"	"6.546"	"0"	"0"
"1922"	"38.459"	"4.503"	"0"	"3.496"	"0"	"24.01"	"429.128"	"479.483"	"249.548"	"0.852"	"2.929"	"20.319"
"1923"	"1.386"	"14.853"	"1.075"	"0.34"	"0.487"	"11.396"	"278.644"	"497.37"	"170.135"	"41.355"	"1.837"	"7.416"
"1924"	"23.078"	"1.508"	"0.45"	"0.042"	"0.265"	"19.542"	"394.266"	"467.424"	"165.911"	"20.12"	"10.085"	"6.381"
"1925"	"0.463"	"0.107"	"0.021"	"0.005"	"23.102"	"104.708"	"809.021"	"219.463"	"381.269"	"0.559"	"44.887"	"0"
"1926"	"4.784"	"1.195"	"69.161"	"9.645"	"6.413"	"9.991"	"227.448"	"278.703"	"286.144"	"26.996"	"0.632"	"1.474"
"1927"	"13.962"	"25.102"	"30.698"	"0.927"	"1.926"	"42.582"	"530.342"	"192.323"	"166.759"	"45.339"	"72.403"	"2.115"
"1928"	"24.468"	"30.951"	"0.442"	"14.798"	"0.878"	"24.976"	"281.331"	"76.372"	"44.094"	"74.149"	"1.4"	"28.933"
"1929"	"91.478"	"3.143"	"0.016"	"1.579"	"0.017"	"53.094"	"605.973"	"437.251"	"75.957"	"36.967"	"0"	"37.43"
"1930"	"6.971"	"22.459"	"3.699"	"1.448"	"1.962"	"70.397"	"529.002"	"263.527"	"118.504"	"17.153"	"18.94"	"22.217"
"1931"	"0.394"	"21.916"	"0.568"	"0.101"	"1.36"	"76.875"	"222.001"	"258.05"	"292.623"	"104.563"	"3.409"	"0.107"
"1932"	"0.2"	"6.16"	"1.566"	"0.482"	"3.054"	"32.781"	"167.174"	"467.315"	"102.196"	"25.358"	"7.566"	"0.168"
"1933"	"0.504"	"21.993"	"11.495"	"32.681"	"27.278"	"134.178"	"171.69"	"304.218"	"102.573"	"42.426"	"0.394"	"0.491"
"1934"	"26.655"	"0.125"	"31.559"	"0.109"	"0.003"	"97.64"	"201.532"	"288.357"	"189.753"	"2.474"	"8.438"	"5.527"
"1935"	"15.026"	"21.016"	"0.109"	"4.736"	"0.349"	"136.716"	"348.998"	"421.587"	"190.431"	"0.506"	"0.508"	"14.721"
"1936"	"4.908"	"57.244"	"6.615"	"0.685"	"0.806"	"160.888"	"469.103"	"363.664"	"271.835"	"3.593"	"5.852"	"28.966"
"1937"	"0.2"	"44.911"	"10.714"	"2.289"	"2.481"	"83.252"	"349.511"	"330.067"	"163.879"	"50.586"	"0.776"	"1.142"
"1938"	"65.51"	"8.347"	"0.005"	"5.584"	"0.71"	"229.256"	"367.553"	"348.74"	"327.74"	"42.604"	"0.002"	"0"
"1939"	"24.572"	"12.086"	"1.874"	"7.712"	"0.006"	"152.889"	"328.128"	"454.787"	"287.096"	"13.8"	"0"	"0"
"1940"	"3.429"	"13.095"	"48.544"	"6.168"	"7.205"	"71.556"	"164.048"	"421.674"	"147.763"	"4.792"	"0.98"	"6.745"
"1941"	"36.965"	"4.032"	"1.009"	"0.097"	"5.398"	"70.124"	"178.498"	"194.683"	"125.98"	"0.459"	"0.012"	"0.152"
"1942"	"84.434"	"34.77"	"0.061"	"5.972"	"0.155"	"74.537"	"280.106"	"360.086"	"183.978"	"0.701"	"0"	"17.961"
"1943"	"19.419"	"2.084"	"0.156"	"14.571"	"1.616"	"10.686"	"245.188"	"654.212"	"230.727"	"7.317"	"0.146"	"0"
"1944"	"20.312"	"34.336"	"55.861"	"7.327"	"0.017"	"15.632"	"403.583"	"642.031"	"18.584"	"14.579"	"0"	"4.101"
"1945"	"39.74"	"0.976"	"0.003"	"12.942"	"0.918"	"42.901"	"208.234"	"415.085"	"124.298"	"24.562"	"0"	"33.71"
"1946"	"0.2"	"34.622"	"0.062"	"2.532"	"1.026"	"140.939"	"366.83"	"468.956"	"5.509"	"26.54"	"32.076"	"8.907"
"1947"	"11.463"	"12.019"	"11.517"	"3.275"	"0.111"	"45.95"	"442.376"	"357.614"	"103.393"	"9.789"	"8.496"	"0.21"
"1948"	"23.472"	"11.81"	"0.815"	"0.294"	"0.334"	"257.19"	"449.023"	"617.345"	"170.63"	"21.677"	"55.803"	"0.004"
"1949"	"0.204"	"31.682"	"0.245"	"0.312"	"1.328"	"14.416"	"354.764"	"527.822"	"92.614"	"78.042"	"0.547"	"0"
"1950"	"27.221"	"8.066"	"57.691"	"0.397"	"0.7"	"82.296"	"335.295"	"502.292"	"62.17"	"0.321"	"0.004"	"24.606"
"1951"	"20.815"	"19.014"	"40.678"	"6.621"	"1.037"	"185.028"	"215.613"	"527.024"	"151.868"	"5.078"	"3.175"	"0"
"1952"	"1.355"	"19.802"	"44.177"	"0.546"	"3.685"	"168.673"	"233.099"	"424.724"	"99.977"	"0.363"	"0.558"	"1.629"
"1953"	"22.157"	"31.737"	"0"	"3.383"	"0.003"	"168.036"	"378.929"	"359.884"	"160.477"	"1.388"	"0"	"9.156"
"1954"	"23.145"	"16.833"	"6.623"	"0.003"	"0.016"	"81.74"	"279.139"	"356.125"	"210.981"	"16.116"	"0"	"0"
"1955"	"60.23"	"28.23"	"3.146"	"0.255"	"1.758"	"104.03"	"495.347"	"339.576"	"122.982"	"98.568"	"0"	"1.338"
"1956"	"43.618"	"23.937"	"15.568"	"0.008"	"1.418"	"224.125"	"298.931"	"396.413"	"290.81"	"99.697"	"101.883"	"8.935"
"1957"	"17.042"	"0.901"	"50.359"	"2.864"	"1.189"	"87.984"	"289.801"	"422.947"	"120.576"	"1.286"	"0.55"	"2.04"
"1958"	"27.983"	"6.063"	"51.17"	"1.063"	"0"	"36.945"	"249.556"	"349.418"	"114.437"	"29.445"	"1.673"	"4.311"
"1959"	"60.008"	"7.027"	"0.101"	"0.774"	"28.596"	"8.1"	"204.245"	"454.02"	"51.086"	"137.649"	"1.208"	"0"
"1960"	"21.201"	"0.099"	"13.467"	"1.942"	"1.299"	"53.474"	"486.362"	"616.274"	"69.309"	"47.042"	"0"	"0.346"
"1961"	"39.091"	"10.989"	"0.194"	"0.338"	"2.904"	"64.101"	"291.816"	"546.993"	"186.028"	"57.028"	"5.731"	"6.108"
"1962"	"23.055"	"13.258"	"9.923"	"16.232"	"2.66"	"28.271"	"347.15"	"393.583"	"311.375"	"0.326"	"0.992"	"6.915"
"1963"	"28.008"	"12.461"	"15.696"	"10.088"	"11.39"	"92.217"	"587.975"	"447.591"	"190.024"	"2.938"	"4.621"	"4.553"
"1964"	"0.25"	"7.459"	"5.552"	"4.258"	"5.514"	"53.217"	"350.297"	"328.245"	"211.62"	"11.525"	"0.112"	"0.3"
"1965"	"4.522"	"1.498"	"31.182"	"21.575"	"1.865"	"11.88"	"202.008"	"195.481"	"135.886"	"29.63"	"0.009"	"5.687"
"1966"	"1.73"	"8.313"	"0.297"	"0.146"	"1.742"	"332.312"	"134.761"	"169.571"	"21.608"	"2.15"	"88.516"	"14.665"
"1967"	"2.467"	"0.099"	"42.359"	"5.089"	"0.315"	"45.99"	"298.301"	"685.012"	"215.096"	"0.869"	"0.156"	"48.022"
"1968"	"31.247"	"7.803"	"6.812"	"0.396"	"0.003"	"70.979"	"200.713"	"118.637"	"51.461"	"15.94"	"0"	"7.93"
"1969"	"3.113"	"5"	"0.346"	"0.165"	"22.411"	"21.232"	"571.906"	"240.182"	"119.229"	"0.299"	"21.417"	"0"
"1970"	"48.364"	"61.671"	"1.765"	"0.002"	"30.292"	"102.348"	"322.328"	"287.646"	"622.091"	"35.468"	"0.002"	"0"
"1971"	"18.209"	"13.182"	"4.745"	"25.63"	"33.772"	"253.177"	"205.231"	"536.298"	"204.637"	"90.903"	"0.798"	"0"
"1972"	"31.976"	"36.599"	"0.008"	"0.982"	"0.1"	"4.599"	"112.163"	"350.412"	"148.124"	"93.947"	"32.249"	"0.395"
"1973"	"9.228"	"1.474"	"0.155"	"0.003"	"0.298"	"20.583"	"490.098"	"593.99"	"137.184"	"76.38"	"0.012"	"0.569"
"1974"	"0.315"	"0.216"	"0.098"	"0.098"	"2.671"	"48.991"	"398.125"	"268.215"	"50.16"	"12.577"	"1.065"	"0.202"
"1975"	"6.503"	"7.878"	"23.853"	"4.985"	"0.018"	"192.053"	"317.664"	"255.683"	"120.072"	"36.789"	"0.023"	"0"
"1976"	"39.168"	"0.567"	"0.537"	"5.314"	"4.658"	"26.039"	"221.411"	"170.652"	"302.594"	"0.299"	"7.842"	"0"
"1977"	"30.393"	"19.442"	"0.39"	"6.471"	"1.973"	"118.083"	"419.313"	"252.518"	"118.509"	"73.262"	"4.164"	"10.117"
"1978"	"36.134"	"61.778"	"27.05"	"2.806"	"0.205"	"185.724"	"141.981"	"297.401"	"273.532"	"11.069"	"0.496"	"7.591"
"1979"	"37.84"	"11.122"	"0.347"	"3.658"	"1.692"	"150.859"	"234.457"	"170.088"	"52.937"	"0.856"	"95.192"	"1.701"
"1980"	"0.331"	"3.28"	"2.723"	"0.003"	"0.113"	"191.009"	"529.562"	"738.152"	"186.084"	"9.168"	"0.247"	"25.828"
"1981"	"18.289"	"1.118"	"8.182"	"0.207"	"4.537"	"159.648"	"460.357"	"526.093"	"128.053"	"0.347"	"25.449"	"5.532"
"1982"	"87.568"	"10.515"	"34.731"	"3.348"	"21.593"	"90.106"	"222.058"	"466.282"	"390.067"	"3.231"	"62.906"	"8.483"
"1983"	"8.933"	"0.39"	"0.134"	"14.922"	"23.256"	"90.908"	"258.216"	"214.975"	"145.111"	"45.351"	"0"	"2.98"
"1984"	"46.473"	"34.355"	"0.002"	"11.376"	"0.703"	"142.398"	"181.579"	"242.349"	"166.337"	"24.14"	"0"	"0.005"
"1985"	"24.035"	"0.108"	"0.198"	"13.17"	"0.835"	"56.481"	"271.547"	"320.849"	"208.967"	"88.585"	"0"	"2.494"
"1986"	"24.569"	"36.799"	"1.168"	"0.165"	"40.452"	"49.46"	"215.293"	"438.157"	"162.611"	"10.812"	"0.673"	"27.975"
"1987"	"26.357"	"13.83"	"16.428"	"0.008"	"5.663"	"3.35"	"97.658"	"198.97"	"9.739"	"75.45"	"1.251"	"7.31"
"1988"	"14.014"	"2.243"	"21.226"	"1.378"	"6.03"	"155.183"	"256.536"	"330.511"	"80.875"	"10.714"	"0.456"	"26.571"
"1989"	"2.663"	"0.215"	"9.647"	"0.75"	"0.169"	"96.274"	"362.666"	"144.745"	"125.882"	"19.162"	"16.821"	"25.407"
"1990"	"0.2"	"21.171"	"3.47"	"10.666"	"13.71"	"208.723"	"365.398"	"365.644"	"231.315"	"2.021"	"0.548"	"4.903"
"1991"	"11.602"	"11.84"	"8.281"	"10.017"	"8.428"	"79.633"	"102.062"	"35.094"	"110.536"	"0.305"	"1.297"	"38.209"
"1992"	"38.323"	"8.426"	"0.745"	"1.46"	"10.658"	"21.253"	"100.885"	"194.891"	"181.333"	"61.418"	"25.794"	"0"
"1993"	"10.216"	"2.31"	"11.85"	"1.297"	"14.309"	"36.45"	"143.283"	"184.536"	"238.053"	"26.004"	"0"	"0"
"1994"	"56.095"	"23.613"	"34.937"	"6.735"	"0.973"	"189.189"	"363.705"	"356.226"	"167.856"	"6.984"	"0.006"	"0"
"1995"	"39.139"	"22.882"	"15.381"	"9.447"	"0.675"	"40.016"	"241.727"	"296.944"	"143.846"	"0.888"	"36.094"	"26.963"
"1996"	"52.329"	"20.288"	"0.536"	"2.942"	"1.344"	"214.426"	"238.803"	"370.344"	"121.033"	"79.191"	"0.397"	"0"
"1997"	"15.952"	"0.103"	"3.148"	"9.42"	"7.717"	"116.906"	"29.267"	"239.394"	"224.081"	"20.299"	"33.441"	"26.709"
"1998"	"0.955"	"1.28"	"20.481"	"6.497"	"21.969"	"119.597"	"356.088"	"489.264"	"171.375"	"9.415"	"4.013"	"0"
"1999"	"52.992"	"44.279"	"0"	"0"	"13.685"	"13.913"	"468.23"	"240.501"	"229.877"	"37.734"	"0"	"1.537"
"2000"	"11.615"	"7.989"	"0.152"	"0.123"	"8.676"	"87.628"	"276.167"	"191.274"	"285.84"	"0.299"	"0"	"0"
"2001"	"5.018"	"2.593"	"9.016"	"7.218"	"6.07"	"131.991"	"225.865"	"247.055"	"111.517"	"64.397"	"12.852"	"0.002"
"2002"	"29.352"	"19.602"	"0.425"	"0.208"	"1.132"	"38.613"	"103.144"	"308.161"	"158.773"	"72.547"	"16.005"	"6.276"
