
"Year"	"Jan"	"Feb"	"Mar"	"Apr"	"May"	"Jun"	"Jul"	"Aug"	"Sep"	"Oct"	"Nov"	"Dec"
"1901"	"25.5"	"87.439"	"7.373"	"18.028"	"75.519"	"95.153"	"194.714"	"236.995"	"287.302"	"44.251"	"60.407"	"0"
"1902"	"10.57"	"1.754"	"14.194"	"48.884"	"75.716"	"157.308"	"274.488"	"331.184"	"225.711"	"31.287"	"0.631"	"9.535"
"1903"	"6.104"	"52.1"	"9.183"	"13.16"	"35.095"	"151.082"	"337.762"	"222.079"	"234.851"	"116.331"	"7.294"	"0.406"
"1904"	"0.114"	"11.008"	"47.084"	"2.296"	"188.513"	"263.518"	"302.671"	"438.074"	"147.687"	"68.547"	"1.113"	"2.182"
"1905"	"7.245"	"34.065"	"70.529"	"122.187"	"130.972"	"57.543"	"365.502"	"293.025"	"385.39"	"40.871"	"0.097"	"0.23"
"1906"	"9.524"	"120.745"	"37.406"	"0.38"	"25.249"	"191.969"	"333.364"	"211.129"	"185.868"	"88.647"	"13.145"	"0.683"
"1907"	"0"	"40.589"	"69.271"	"128.969"	"56.952"	"249.283"	"149.145"	"284.27"	"89.709"	"15.699"	"0.54"	"8.457"
"1908"	"16.062"	"27.881"	"4.714"	"9.81"	"59.983"	"370.819"	"309.382"	"383.118"	"183.583"	"60.861"	"0.115"	"0"
"1909"	"1.519"	"36.881"	"0.295"	"114.658"	"27.324"	"239.765"	"253.399"	"286.339"	"176.532"	"26.838"	"0.587"	"3.67"
"1910"	"12.816"	"13.733"	"19.685"	"19.17"	"33.391"	"245.225"	"302.423"	"468.109"	"196.298"	"100.505"	"9.597"	"0"
"1911"	"0.797"	"3.245"	"41.037"	"14.06"	"36.437"	"437.613"	"93.558"	"262.907"	"289.223"	"63.202"	"19.57"	"0"
"1912"	"0.229"	"44.825"	"39.678"	"31.767"	"49.665"	"176.982"	"237.468"	"301.41"	"150.518"	"55.646"	"66.586"	"0"
"1913"	"0.03"	"70.996"	"34.718"	"10.469"	"75.678"	"243.835"	"316.608"	"270.802"	"120.691"	"119.512"	"13.001"	"2.593"
"1914"	"0.074"	"77.455"	"20.458"	"99.793"	"87.567"	"207.703"	"239.896"	"260.167"	"240.638"	"6.879"	"0.097"	"5.43"
"1915"	"3.064"	"44.119"	"72.575"	"43.287"	"44.888"	"197.516"	"201.846"	"438.12"	"263.243"	"95.737"	"50.697"	"0"
"1916"	"0"	"8.856"	"0.295"	"14.434"	"25.862"	"458.949"	"225.452"	"360.055"	"199.834"	"185.11"	"48.204"	"0"
"1917"	"0.348"	"158.958"	"24.291"	"24.495"	"106.322"	"267.888"	"193.685"	"497.581"	"145.311"	"232.195"	"6.308"	"0.044"
"1918"	"0.23"	"0.4"	"20.074"	"33.413"	"84.076"	"321.08"	"176.438"	"348.839"	"214.905"	"7.492"	"0.115"	"1.032"
"1919"	"50.327"	"28.977"	"17.269"	"39.123"	"64.443"	"263.593"	"342.914"	"530.409"	"104.915"	"87.727"	"35.497"	"0"
"1920"	"0"	"31.598"	"96.939"	"0.38"	"41.376"	"137.105"	"317.4"	"405.359"	"155.339"	"73.696"	"0.097"	"0"
"1921"	"49.115"	"7.326"	"6.677"	"37.68"	"15.148"	"258.969"	"265.092"	"375.451"	"188.177"	"42.672"	"0.097"	"0"
"1922"	"7.705"	"9.91"	"0.295"	"14.222"	"20.992"	"326.813"	"248.257"	"389.366"	"345.848"	"54.905"	"15.112"	"0.044"
"1923"	"0.005"	"147.521"	"10.551"	"21.669"	"8.294"	"122.965"	"281.504"	"379.113"	"216.366"	"81.263"	"26.112"	"3.593"
"1924"	"19.345"	"21.081"	"0.527"	"17.575"	"31.131"	"80.964"	"217.298"	"308.654"	"261.694"	"84.312"	"49.039"	"0"
"1925"	"5.911"	"5.562"	"7.976"	"64.369"	"128.264"	"473.738"	"328.654"	"353.349"	"122.735"	"165.424"	"7.75"	"8.327"
"1926"	"7.243"	"7.589"	"109.362"	"41.635"	"73.71"	"115.953"	"339.293"	"391.586"	"238.967"	"67.3"	"2.338"	"2.254"
"1927"	"3.566"	"42.366"	"126.45"	"15.207"	"39.288"	"134.037"	"295.787"	"388.58"	"177.305"	"41.137"	"11.015"	"0"
"1928"	"6.521"	"4.314"	"1.722"	"80.279"	"101.071"	"292.849"	"359.022"	"327.588"	"217.972"	"175.528"	"2.586"	"0.23"
"1929"	"6.263"	"37.414"	"25.879"	"40.423"	"45.863"	"137.894"	"203.868"	"422.743"	"127.305"	"232.88"	"0.097"	"4.316"
"1930"	"1.014"	"17.34"	"5"	"38.65"	"99.338"	"193.444"	"418.94"	"303.457"	"203.195"	"41.415"	"51.549"	"1.123"
"1931"	"3.958"	"49.65"	"26.302"	"11.291"	"48.621"	"131.774"	"247.632"	"340.635"	"245.656"	"151.701"	"22.757"	"2.45"
"1932"	"0"	"35.381"	"6.296"	"70.908"	"98.268"	"68.569"	"273.213"	"304.339"	"195.655"	"51.819"	"60.145"	"0.152"
"1933"	"25.38"	"19.743"	"2.116"	"56.052"	"75.462"	"302.824"	"320.761"	"342.707"	"224.431"	"134.765"	"2.118"	"0"
"1934"	"2.829"	"21.942"	"4.352"	"19.478"	"14.543"	"232.75"	"253.189"	"420.534"	"200.214"	"71.471"	"14.759"	"0.492"
"1935"	"2.675"	"15.603"	"10.631"	"48.829"	"6.78"	"149.906"	"212.491"	"325.923"	"163.186"	"34.236"	"0.097"	"0.255"
"1936"	"4.528"	"63.909"	"15.386"	"11.095"	"154.773"	"457.065"	"355.06"	"303.543"	"258.657"	"131.37"	"9.505"	"3.319"
"1937"	"0"	"120.666"	"8.021"	"67.194"	"51.579"	"216.261"	"282.772"	"307.728"	"191.226"	"139.712"	"0.428"	"0.058"
"1938"	"6.561"	"18.449"	"4.75"	"2.053"	"191.941"	"219.337"	"144.901"	"268.675"	"292.665"	"79.923"	"1.914"	"0"
"1939"	"9.205"	"11.513"	"24.632"	"15.38"	"24.373"	"153.532"	"294.357"	"392.494"	"269.05"	"117.995"	"4.143"	"0.873"
"1940"	"0"	"45.703"	"174.431"	"25.867"	"83.819"	"263.65"	"255.386"	"420.466"	"241.561"	"53.739"	"1.078"	"1.436"
"1941"	"24.208"	"2.312"	"7.989"	"6.584"	"61.904"	"264.58"	"218.427"	"403.86"	"207.324"	"163.071"	"26.062"	"0"
"1942"	"3.536"	"51.309"	"17.935"	"56.725"	"11.722"	"118.254"	"304.079"	"383.563"	"307.789"	"76.081"	"16.648"	"0"
"1943"	"24.011"	"8.115"	"8.05"	"121.898"	"25.205"	"174.781"	"344.465"	"442.586"	"152.832"	"101.202"	"4.658"	"0"
"1944"	"21.213"	"109.273"	"131.422"	"64.479"	"34.442"	"181.365"	"275.719"	"412.982"	"154.338"	"95.778"	"1.053"	"0"
"1945"	"11.497"	"15.65"	"4.955"	"119.178"	"50.826"	"125.215"	"277.628"	"162.511"	"256.808"	"179.652"	"0.139"	"6.535"
"1946"	"0"	"4.743"	"14.048"	"39.493"	"71.414"	"321.072"	"314.83"	"417.178"	"260.929"	"138.974"	"57.831"	"0.152"
"1947"	"21.598"	"80.129"	"26.091"	"12.327"	"32.363"	"264.899"	"344.793"	"311.887"	"295.302"	"64.27"	"0.13"	"6.792"
"1948"	"15.164"	"123.213"	"49.528"	"79.87"	"40.525"	"182.426"	"241.138"	"340.806"	"230.95"	"74.383"	"56.217"	"0.152"
"1949"	"0.403"	"17.338"	"20.143"	"57.259"	"97.744"	"154.133"	"228.577"	"327.05"	"279.005"	"133.87"	"0.097"	"0"
"1950"	"0.371"	"16.281"	"60.366"	"41.762"	"31.292"	"238.318"	"240.01"	"231.931"	"97.611"	"75.626"	"48.08"	"1.123"
"1951"	"0.945"	"1.011"	"66.371"	"70.985"	"28.335"	"170.067"	"313.466"	"368.139"	"263.178"	"59.501"	"35.048"	"0"
"1952"	"0.61"	"7.349"	"44.011"	"94.743"	"28.631"	"259.074"	"258.46"	"269.106"	"159.791"	"123.419"	"0.458"	"0.369"
"1953"	"27.006"	"4.945"	"0.295"	"4.785"	"8.088"	"139.445"	"138.06"	"429.298"	"288.676"	"50.155"	"48.438"	"0"
"1954"	"2.855"	"43.048"	"1.032"	"2.736"	"69.588"	"312.805"	"63.526"	"160.407"	"281.847"	"83.994"	"0.097"	"5.248"
"1955"	"4.141"	"5.377"	"26.671"	"34.12"	"97.884"	"177.315"	"161.199"	"305.244"	"345.222"	"220.997"	"38.934"	"0"
"1956"	"2.658"	"78.975"	"19.607"	"30.171"	"121.421"	"420.341"	"486.283"	"483.32"	"338.461"	"122.677"	"15.093"	"0.827"
"1957"	"18.912"	"26.175"	"21.044"	"16.567"	"1.725"	"100.196"	"322.454"	"356.635"	"125.672"	"58.961"	"0.097"	"0"
"1958"	"19.51"	"84.624"	"15.795"	"97.724"	"5.547"	"161.735"	"448.457"	"249.429"	"234.51"	"141.21"	"50.708"	"0"
"1959"	"13.359"	"18.075"	"3.599"	"23.183"	"94.705"	"201.096"	"261.941"	"188.25"	"169.124"	"205.682"	"0.097"	"2.197"
"1960"	"0.144"	"0.377"	"36.123"	"6.634"	"36.425"	"168.934"	"439.655"	"366.747"	"121.743"	"70.034"	"0.561"	"1.691"
"1961"	"31.212"	"132.843"	"1.795"	"5.574"	"69.468"	"197.081"	"142.887"	"423.799"	"358.095"	"101.88"	"0.147"	"0.998"
"1962"	"3.19"	"17.625"	"3.336"	"13.438"	"8.631"	"170.627"	"359.418"	"186.964"	"247.741"	"176.789"	"0.097"	"0.377"
"1963"	"0.638"	"2.268"	"26.026"	"113.531"	"134.093"	"164.927"	"201.42"	"267.784"	"206.985"	"166.748"	"9.301"	"0"
"1964"	"0.598"	"37.921"	"20.1"	"65.462"	"74.541"	"102.18"	"329.527"	"446.336"	"240.489"	"70.064"	"13.221"	"0"
"1965"	"5.256"	"28.062"	"39.082"	"50.623"	"8.68"	"96.448"	"441.661"	"316.681"	"235.374"	"66.336"	"0.097"	"0.525"
"1966"	"50.554"	"27.451"	"2.195"	"2.186"	"5.771"	"210.339"	"110.3"	"230.202"	"228.608"	"57.315"	"49.244"	"3.009"
"1967"	"33.458"	"0.415"	"119.088"	"20.312"	"12.221"	"235.036"	"236.514"	"354.416"	"288.328"	"50.265"	"0.097"	"1.063"
"1968"	"14.481"	"60.242"	"11.188"	"5.713"	"7.784"	"289.323"	"358.616"	"333.477"	"227.458"	"101.346"	"28.094"	"0.361"
"1969"	"1.196"	"2.721"	"35.883"	"44.837"	"51.098"	"91.949"	"354.013"	"286.726"	"191.371"	"38.375"	"31.453"	"0.439"
"1970"	"3.882"	"74.244"	"84.174"	"10.908"	"76.806"	"349.199"	"218.785"	"315.236"	"98.055"	"93.715"	"9.225"	"0"
"1971"	"24.067"	"133.002"	"1.677"	"114.781"	"95.223"	"522.804"	"304.474"	"428.344"	"174.644"	"116.463"	"2.373"	"0"
"1972"	"1.41"	"42.688"	"0.993"	"34.24"	"3.291"	"71.391"	"203.443"	"390.745"	"270.051"	"128.069"	"14.639"	"0.152"
"1973"	"4.719"	"3.085"	"25.231"	"19.23"	"74.48"	"123.684"	"198.983"	"370.9"	"192.217"	"155.913"	"15.989"	"17.55"
"1974"	"0.779"	"1.62"	"106.963"	"3.548"	"37.75"	"106.263"	"278.506"	"287.293"	"184.475"	"173.01"	"10.566"	"0"
"1975"	"5.86"	"9.452"	"18.058"	"3.36"	"27.799"	"268.98"	"345.702"	"285.931"	"224.273"	"161.085"	"22.347"	"0"
"1976"	"0.798"	"7.948"	"5.804"	"100.071"	"62.566"	"88.424"	"405.556"	"356.419"	"270.489"	"30.063"	"21.079"	"0"
"1977"	"0.818"	"10.939"	"0.295"	"66.523"	"158.283"	"239.321"	"354.308"	"346.39"	"243.061"	"68.196"	"39.839"	"3.564"
"1978"	"1.232"	"51.34"	"50.492"	"55.024"	"71.979"	"194.188"	"355.452"	"378.767"	"255.582"	"83.343"	"11.002"	"19.27"
"1979"	"5.44"	"44.161"	"5.573"	"39.046"	"6.697"	"122.968"	"257.995"	"189.608"	"153.582"	"33.149"	"8.569"	"5.752"
"1980"	"40.377"	"60.179"	"56.76"	"11.038"	"51.851"	"309.265"	"309.786"	"354.95"	"215.729"	"76.649"	"0.097"	"6.522"
"1981"	"19.41"	"33.681"	"89.874"	"44.963"	"73.495"	"114.03"	"290.304"	"304.176"	"304.85"	"14.184"	"2.095"	"2.468"
"1982"	"3.282"	"20.753"	"50.261"	"67.058"	"31.302"	"132.51"	"226.636"	"429.837"	"159.146"	"13.995"	"20.514"	"0.253"
"1983"	"1.116"	"69.997"	"49.294"	"22.021"	"85.313"	"176.162"	"262.438"	"297.905"	"142.941"	"115.845"	"1.521"	"1.259"
"1984"	"20.342"	"20.762"	"2.785"	"36.041"	"63.616"	"470.146"	"264.674"	"361.606"	"105.189"	"60.694"	"0.884"	"0.03"
"1985"	"22.421"	"5.151"	"2.821"	"18.14"	"33.802"	"218.997"	"345.372"	"297.11"	"180.505"	"149.352"	"0.172"	"0.083"
"1986"	"22.722"	"41.48"	"2.409"	"31.331"	"51.856"	"184.801"	"338.045"	"276.749"	"373.526"	"61.383"	"64.231"	"1.71"
"1987"	"3.194"	"4.53"	"17.421"	"41.327"	"56.151"	"65.761"	"298.361"	"422.278"	"156.368"	"69.621"	"43.454"	"2.255"
"1988"	"1.34"	"33.703"	"17.102"	"30.099"	"79.94"	"91.117"	"313.243"	"310.381"	"250.579"	"68.649"	"8.254"	"0.044"
"1989"	"1.097"	"1.198"	"32.34"	"4.54"	"167.199"	"292.493"	"252.929"	"272.582"	"152.343"	"115.973"	"3.962"	"3.523"
"1990"	"0"	"68.798"	"79.328"	"19.022"	"125.578"	"264.14"	"537.682"	"317.025"	"186.893"	"175.168"	"20.06"	"1.025"
"1991"	"13.453"	"10.453"	"43.953"	"16.325"	"26.731"	"183.42"	"308.809"	"399.03"	"170.687"	"89.568"	"10.112"	"8.793"
"1992"	"10.95"	"10.715"	"0.295"	"7.808"	"181.268"	"170.722"	"345.32"	"227.126"	"175.988"	"50.913"	"8.519"	"0"
"1993"	"0.744"	"0.732"	"51.667"	"50.537"	"53.918"	"338.149"	"319.111"	"287.586"	"221.632"	"157.908"	"9.771"	"0"
"1994"	"5.568"	"47.079"	"52.038"	"32.631"	"25.679"	"239.797"	"350.392"	"343.281"	"207.684"	"179.642"	"7.137"	"0"
"1995"	"10.907"	"23.635"	"53.734"	"15.397"	"80.852"	"112.108"	"340.362"	"239.541"	"232.071"	"142.366"	"26.617"	"0"
"1996"	"6.934"	"16.26"	"12.628"	"38.422"	"29.704"	"235.192"	"215.368"	"386.015"	"80.823"	"104.917"	"8.196"	"0.045"
"1997"	"23.611"	"14.877"	"73.378"	"59.1"	"48.243"	"170.647"	"335.712"	"320.018"	"254.787"	"35.727"	"30.556"	"8.7"
"1998"	"15.342"	"94.407"	"18.059"	"29.777"	"63.437"	"214.261"	"229.438"	"183.529"	"263.159"	"233.045"	"57.548"	"0"
"1999"	"1.848"	"2.325"	"0.295"	"0.38"	"153.383"	"210.212"	"215.486"	"534.875"	"191.962"	"68.854"	"14.097"	"0"
"2000"	"1.251"	"109.257"	"0.295"	"47.183"	"83.361"	"313.065"	"193.92"	"271.482"	"121.843"	"38.924"	"8.803"	"0.351"
"2001"	"0.372"	"4.458"	"48.506"	"27.61"	"82.409"	"384.696"	"235.77"	"325.19"	"131.366"	"110.699"	"28.922"	"0"
"2002"	"42.179"	"17.056"	"7.31"	"47.185"	"93.69"	"197.652"	"250.574"	"396.32"	"199.31"	"50.957"	"17.64"	"0"
