
"Year"	"Jan"	"Feb"	"Mar"	"Apr"	"May"	"Jun"	"Jul"	"Aug"	"Sep"	"Oct"	"Nov"	"Dec"
"1901"	"53.186"	"10.925"	"4.747"	"10.075"	"17.227"	"132.386"	"206.072"	"272.903"	"179.028"	"37.759"	"13.297"	"0"
"1902"	"0.061"	"0.038"	"12.125"	"18.061"	"15.829"	"121.335"	"363.253"	"193.115"	"399.33"	"30.197"	"0.081"	"1.604"
"1903"	"6.261"	"6.189"	"8.791"	"17.812"	"54.926"	"242.806"	"134.523"	"237.229"	"174.847"	"118.335"	"2.433"	"0"
"1904"	"0.487"	"2.184"	"25.109"	"4.402"	"195.394"	"190.39"	"292.895"	"291.975"	"116.689"	"36.362"	"7.98"	"0"
"1905"	"14.568"	"31.343"	"28.914"	"12.365"	"52.104"	"34.855"	"445.382"	"332.061"	"316.778"	"24.358"	"0"	"0.32"
"1906"	"24.183"	"60.92"	"22.177"	"2.67"	"32.49"	"164.624"	"325.047"	"206.171"	"171.562"	"135.834"	"1.506"	"0"
"1907"	"1.402"	"30.722"	"28.248"	"29.68"	"28.26"	"216.914"	"197.755"	"221.699"	"212.808"	"31.642"	"0"	"1.427"
"1908"	"11.643"	"33.858"	"6.202"	"2.402"	"23.798"	"185.065"	"299.691"	"238.702"	"127.581"	"59.725"	"0"	"0.588"
"1909"	"11.386"	"5.058"	"0"	"45.755"	"19.8"	"244.35"	"264.266"	"378.332"	"206.562"	"17.225"	"0.673"	"2.881"
"1910"	"0.807"	"17.088"	"19.675"	"21.894"	"24.903"	"199.381"	"375.637"	"308.804"	"203.528"	"70.075"	"4.488"	"0"
"1911"	"6.361"	"0.072"	"20.808"	"3.67"	"32.33"	"393.995"	"222.717"	"250.944"	"273.308"	"121.73"	"13.596"	"0"
"1912"	"1.913"	"5.906"	"6.635"	"26.612"	"47.751"	"158.334"	"334.782"	"258.854"	"63.284"	"30.19"	"11.668"	"0.48"
"1913"	"0"	"36.5"	"31.876"	"1.458"	"68.907"	"453.552"	"182.819"	"306.817"	"199.83"	"73.322"	"1.318"	"13.018"
"1914"	"0"	"27.785"	"16.311"	"27.582"	"69.997"	"81.863"	"398.172"	"321.157"	"118.678"	"31.38"	"0"	"3.139"
"1915"	"2.349"	"35.893"	"14.451"	"7.835"	"48.563"	"210.756"	"282.883"	"266.994"	"235.773"	"53.625"	"11.289"	"0"
"1916"	"0"	"10.983"	"3.378"	"9.95"	"13.182"	"247.793"	"343.855"	"257.606"	"255.247"	"221.322"	"4.745"	"0"
"1917"	"2.148"	"20.664"	"5.878"	"8.679"	"82.665"	"180.795"	"305.859"	"197.782"	"280.887"	"233.16"	"3.72"	"0"
"1918"	"1.847"	"0.359"	"7.355"	"13.012"	"48.875"	"198.2"	"186.868"	"423.846"	"205.095"	"18.171"	"0"	"1.192"
"1919"	"23.784"	"10.084"	"12.131"	"10.139"	"73.094"	"132.893"	"294.58"	"365.194"	"195.868"	"131.508"	"5.476"	"0"
"1920"	"0.669"	"29.677"	"31.521"	"5.787"	"35.054"	"95.35"	"384.811"	"250.931"	"297.264"	"20.072"	"0"	"0"
"1921"	"31.275"	"1.392"	"5.131"	"6.326"	"17.744"	"166.262"	"286.875"	"365.563"	"171.531"	"27.333"	"0"	"0"
"1922"	"12.027"	"8.731"	"0.503"	"6.012"	"12.285"	"429.843"	"364.593"	"290.068"	"296.18"	"63.925"	"0.031"	"8.907"
"1923"	"0.609"	"47.849"	"0.809"	"3.128"	"15.967"	"123.451"	"210.338"	"335.235"	"169.259"	"47.534"	"1.633"	"0.476"
"1924"	"3.96"	"6.23"	"1.29"	"21.283"	"28.171"	"202.535"	"350.686"	"278.926"	"250.561"	"91.569"	"36.835"	"0"
"1925"	"41.679"	"5.476"	"5.734"	"27.124"	"40.388"	"148.474"	"384.535"	"320.112"	"215.312"	"28.161"	"2.928"	"0"
"1926"	"30.951"	"0.072"	"48.16"	"9.655"	"99.772"	"52.67"	"481.547"	"282.006"	"232.884"	"51.202"	"0.015"	"3.808"
"1927"	"26.509"	"53.343"	"35.867"	"2.734"	"39.438"	"150.193"	"264.997"	"313.594"	"122.482"	"51.058"	"24.709"	"0"
"1928"	"48.447"	"7.596"	"1.69"	"11.92"	"58.903"	"277.744"	"445.434"	"172.251"	"224.525"	"155.239"	"0.064"	"1.174"
"1929"	"33.36"	"0.948"	"6.864"	"10.933"	"41.872"	"192.983"	"363.416"	"203.203"	"71.952"	"280.329"	"0.064"	"6.154"
"1930"	"7.91"	"8.385"	"5.609"	"9.001"	"31.303"	"131.924"	"313.723"	"208.937"	"198.769"	"56.431"	"13.795"	"7.045"
"1931"	"12.097"	"42.1"	"16.974"	"1.783"	"25.27"	"101.362"	"518.038"	"223.686"	"385.363"	"55.248"	"8.123"	"0.691"
"1932"	"0"	"23.367"	"3.209"	"10.518"	"54.327"	"138.552"	"226.433"	"265.907"	"224.306"	"41.351"	"31.924"	"5.915"
"1933"	"45.051"	"13.907"	"2.27"	"26.621"	"54.155"	"177.517"	"437.042"	"370.356"	"157.645"	"73.484"	"0"	"0"
"1934"	"22.703"	"25.8"	"0.978"	"20.222"	"28.302"	"195.757"	"315.649"	"306.897"	"259.03"	"55.618"	"3.344"	"0.847"
"1935"	"12.6"	"16.189"	"3.621"	"9.922"	"18.117"	"160.341"	"191.313"	"473.665"	"245.71"	"21.861"	"0"	"0.512"
"1936"	"5.906"	"4.158"	"14.535"	"7.753"	"95.136"	"175.857"	"405.261"	"235.041"	"411.268"	"116.04"	"0"	"13.5"
"1937"	"0"	"35.485"	"4.107"	"32.413"	"35.088"	"135.489"	"145.088"	"331.831"	"261.353"	"145.828"	"0.345"	"0.24"
"1938"	"4.642"	"18.327"	"5.342"	"5.238"	"73.086"	"374.322"	"244.257"	"252.3"	"169.156"	"54.264"	"1.053"	"0"
"1939"	"6.646"	"24.477"	"9.185"	"8.261"	"25.359"	"179.247"	"418.149"	"252.081"	"300.614"	"93.273"	"0.821"	"0"
"1940"	"0"	"37.329"	"44.106"	"6.819"	"33.434"	"119.871"	"400.414"	"301.543"	"140.902"	"31.725"	"0"	"2.975"
"1941"	"26.286"	"3.659"	"10.655"	"7.981"	"38.02"	"202.883"	"297.577"	"307.992"	"250.422"	"89.469"	"8.242"	"0"
"1942"	"18.136"	"40.634"	"11.774"	"12.355"	"11.866"	"137.054"	"302.887"	"437.779"	"400.441"	"17.819"	"0.882"	"0.588"
"1943"	"33.639"	"13.645"	"11.363"	"44.027"	"55.071"	"137.272"	"464.679"	"354.199"	"242.404"	"53.545"	"0"	"0"
"1944"	"20.313"	"29.422"	"49.216"	"16.463"	"25.963"	"224.734"	"265.204"	"393.54"	"158.948"	"75.699"	"0"	"0"
"1945"	"53.047"	"21.979"	"2.889"	"9.447"	"46.892"	"145.735"	"253.38"	"195.561"	"303.822"	"173.798"	"0"	"1.174"
"1946"	"0"	"14.007"	"20.51"	"20.924"	"54.094"	"119.403"	"393.391"	"309.696"	"286.92"	"129.925"	"15.468"	"0"
"1947"	"13.448"	"6.759"	"17.581"	"3.132"	"27.543"	"117.473"	"414.203"	"210.325"	"337.871"	"66.43"	"0.064"	"1.068"
"1948"	"5.232"	"8.911"	"6.678"	"32.719"	"61.848"	"122.873"	"362.375"	"241.638"	"298.943"	"97.521"	"11.468"	"0"
"1949"	"3.419"	"39.255"	"9.994"	"11.502"	"84.36"	"338.576"	"371.536"	"401.51"	"152.945"	"81.816"	"0"	"0"
"1950"	"1.522"	"9.14"	"40.309"	"4.51"	"8.561"	"308.34"	"246.675"	"303.078"	"156.153"	"47.701"	"3.348"	"0.023"
"1951"	"6.757"	"0.019"	"37.398"	"14.489"	"14.945"	"139.812"	"502.52"	"286.743"	"280.046"	"94.543"	"21.421"	"0"
"1952"	"0"	"10.88"	"22.963"	"16.404"	"19.324"	"334.402"	"278.255"	"255.473"	"237.933"	"87.551"	"12.559"	"0.008"
"1953"	"61.935"	"6.542"	"6.26"	"5.952"	"14.745"	"193.02"	"428.013"	"262.609"	"278.595"	"5.96"	"0.34"	"0"
"1954"	"19.217"	"6.539"	"2.405"	"3.67"	"34.543"	"185.878"	"339.961"	"258.336"	"270.114"	"53.804"	"0"	"1.88"
"1955"	"29.061"	"11.075"	"2.423"	"10.027"	"11.207"	"185.666"	"527.189"	"143.426"	"132.916"	"88.097"	"8.598"	"1.338"
"1956"	"18.065"	"18.35"	"9.987"	"24.632"	"109.941"	"284.887"	"186.038"	"307.729"	"350.392"	"106.799"	"35.275"	"6.087"
"1957"	"12.386"	"6.725"	"10.249"	"0.492"	"17.483"	"139.8"	"294.404"	"154.589"	"185.035"	"33.003"	"0"	"1.817"
"1958"	"18.446"	"12.938"	"16.589"	"16.826"	"17.531"	"181.839"	"266.621"	"348.248"	"228.367"	"148.123"	"0.842"	"0"
"1959"	"43.164"	"0.011"	"1.953"	"1.439"	"34.534"	"145.318"	"232.831"	"275.987"	"355.717"	"231.727"	"0"	"0.14"
"1960"	"0.673"	"0.008"	"25.206"	"3.876"	"12.966"	"106.852"	"257.65"	"263.784"	"226.67"	"45.748"	"0.833"	"0"
"1961"	"11.892"	"54.712"	"1.275"	"0.137"	"20.721"	"187.543"	"204.666"	"276.478"	"269.271"	"90.449"	"2.819"	"3.92"
"1962"	"19.049"	"12.856"	"4.642"	"6.549"	"22.353"	"134.632"	"221.111"	"330.16"	"247.898"	"37.089"	"0"	"2.867"
"1963"	"3.209"	"1.472"	"39.413"	"18.569"	"94.683"	"204.393"	"323.146"	"197.016"	"196.605"	"173.655"	"14.255"	"0.064"
"1964"	"0"	"0.065"	"5.065"	"22.422"	"27.594"	"136.781"	"323.414"	"302.572"	"168.979"	"50.297"	"1.9"	"0"
"1965"	"0.031"	"6.786"	"9.256"	"26.776"	"27.583"	"77.104"	"294.106"	"218.766"	"160.135"	"33.18"	"5.6"	"0.863"
"1966"	"40.582"	"12.631"	"0.073"	"2.156"	"13.792"	"87.027"	"156.72"	"234.597"	"116.755"	"17.767"	"34.429"	"8.793"
"1967"	"6.178"	"0.476"	"41.22"	"23.876"	"14.112"	"83.096"	"282.187"	"350.395"	"126.355"	"25.239"	"0"	"0.867"
"1968"	"25.897"	"2.036"	"4.543"	"7.898"	"7.455"	"292.935"	"336.994"	"263.589"	"95.531"	"143.489"	"3.947"	"3.977"
"1969"	"3.874"	"13.784"	"8.928"	"15.88"	"68.979"	"199.442"	"292.12"	"305.397"	"201.631"	"40.041"	"13.998"	"0"
"1970"	"17.688"	"10.724"	"7.567"	"1.619"	"33.167"	"210.223"	"358.461"	"212.934"	"261.188"	"104.935"	"2.373"	"0"
"1971"	"20.562"	"16.829"	"7.311"	"54.183"	"79.027"	"345.481"	"348.067"	"321.036"	"176.47"	"133.154"	"2.236"	"0"
"1972"	"9.348"	"37.352"	"1.019"	"19.802"	"16.927"	"52.264"	"140.305"	"191.518"	"281.466"	"108.928"	"8.06"	"0.368"
"1973"	"35.822"	"4.881"	"7.72"	"2.293"	"35.314"	"291.804"	"302.156"	"301.417"	"268.549"	"302.351"	"24.468"	"2.031"
"1974"	"6.788"	"0.946"	"14.696"	"11.468"	"49.562"	"155.856"	"412.505"	"228.699"	"207.463"	"95.658"	"5.544"	"1.29"
"1975"	"41.863"	"6.949"	"8.701"	"6.027"	"53.525"	"100.441"	"305.392"	"89.837"	"326.543"	"55.617"	"1.807"	"0"
"1976"	"3.379"	"23.509"	"0.442"	"26.946"	"48.458"	"127.139"	"273.178"	"302.239"	"268.6"	"5.445"	"0.109"	"0"
"1977"	"3.008"	"12.415"	"1.26"	"36.737"	"118.894"	"166.059"	"444.883"	"193.434"	"152.035"	"111.834"	"23.28"	"13.429"
"1978"	"7.644"	"39.401"	"37.527"	"33.302"	"45.848"	"160.285"	"306.074"	"218.542"	"348.994"	"96.04"	"16.144"	"5.784"
"1979"	"32.252"	"20.945"	"0.402"	"20.103"	"12.045"	"68.666"	"383.161"	"249.325"	"144.46"	"112.782"	"12.851"	"17.194"
"1980"	"14.679"	"5.486"	"25.729"	"0.938"	"58.417"	"225.297"	"293.028"	"201.804"	"134.408"	"24.052"	"6.665"	"0.396"
"1981"	"16.548"	"4.689"	"25.381"	"21.683"	"59.326"	"102.216"	"361.601"	"169.678"	"143.456"	"0.8"	"3.966"	"4.405"
"1982"	"10.371"	"8.734"	"23.531"	"24.562"	"37.884"	"101.671"	"174.96"	"162.667"	"284.868"	"41.844"	"9.359"	"0.79"
"1983"	"22.478"	"5.509"	"7.356"	"17.319"	"82.977"	"152.382"	"427.521"	"164.165"	"135.498"	"111.773"	"0"	"6.024"
"1984"	"29.313"	"17.398"	"4.839"	"21.116"	"34.276"	"292.915"	"377.448"	"191.547"	"528.249"	"37.253"	"0"	"0"
"1985"	"10.463"	"7.017"	"1.555"	"4.154"	"41.158"	"81.766"	"382.19"	"136.179"	"185.502"	"67.911"	"1.544"	"17.28"
"1986"	"5.019"	"9.805"	"0.659"	"25.059"	"60.515"	"152.038"	"249.646"	"215.821"	"183.893"	"49.552"	"13.418"	"5.791"
"1987"	"0.624"	"8.904"	"14.279"	"11.05"	"41.021"	"189.137"	"257.947"	"525.812"	"392.327"	"194.886"	"8.933"	"1.687"
"1988"	"7.266"	"24.895"	"24.672"	"12.673"	"48.064"	"123.124"	"216.428"	"421.789"	"173.711"	"33.244"	"9.549"	"3.719"
"1989"	"11.18"	"11.323"	"4.91"	"0.835"	"73.983"	"215.286"	"246.982"	"240.799"	"282.928"	"52.33"	"10.212"	"7.225"
"1990"	"0"	"10.986"	"9.321"	"14.888"	"112.428"	"141.907"	"288.633"	"253.968"	"234.435"	"101.373"	"0.989"	"0"
"1991"	"11.585"	"1.048"	"24.007"	"9.188"	"36.932"	"94.725"	"206.702"	"434.885"	"191.615"	"46.621"	"0.966"	"4.74"
"1992"	"15.298"	"4.125"	"1.856"	"5.953"	"33.923"	"59.192"	"273.373"	"187.318"	"142.56"	"43.618"	"0.232"	"0.064"
"1993"	"15.638"	"1.606"	"15.675"	"10.577"	"52.084"	"81.936"	"139.545"	"225.995"	"281.393"	"77.565"	"4.084"	"0"
"1994"	"52.962"	"12.614"	"17.334"	"23.79"	"21.111"	"56.381"	"210.955"	"304.661"	"77.181"	"124.941"	"3.307"	"0"
"1995"	"20.177"	"18.658"	"14.136"	"6.345"	"36.345"	"71.526"	"205.409"	"194.648"	"256.387"	"16.968"	"19.289"	"0.352"
"1996"	"22.319"	"10.49"	"2.496"	"12.325"	"29.894"	"50.781"	"153.966"	"309.762"	"154.071"	"136.106"	"0"	"0"
"1997"	"18.769"	"12.535"	"9.839"	"9.728"	"105.535"	"50.115"	"182.899"	"293.008"	"189.48"	"56.008"	"20.741"	"9.481"
"1998"	"5.458"	"22.648"	"9.343"	"16.2"	"105.034"	"46.856"	"190.352"	"244.229"	"198.474"	"232.286"	"16.383"	"0"
"1999"	"16.654"	"5.701"	"1.151"	"0.433"	"62.622"	"121.464"	"270.863"	"261.936"	"165.287"	"45.77"	"2.002"	"0"
"2000"	"10.848"	"12.438"	"8.218"	"13.345"	"29.741"	"154.229"	"117.343"	"175.785"	"260.344"	"6.398"	"0.073"	"0"
"2001"	"2.55"	"2.151"	"24.31"	"14.307"	"45.974"	"61.836"	"221.335"	"239.097"	"86.065"	"107.478"	"0.659"	"0"
"2002"	"21.328"	"6.289"	"6.687"	"14.489"	"27.682"	"74.811"	"181.899"	"249.865"	"198.253"	"118.446"	"13.344"	"0"
