
"Year"	"Jan"	"Feb"	"Mar"	"Apr"	"May"	"Jun"	"Jul"	"Aug"	"Sep"	"Oct"	"Nov"	"Dec"
"1901"	"1.565"	"3.586"	"9.988"	"13.918"	"16.688"	"20.666"	"19.716"	"18.068"	"16.326"	"15.054"	"10.519"	"6.85"
"1902"	"5.705"	"6.598"	"10.317"	"13.777"	"17.487"	"18.992"	"17.939"	"17.836"	"16.457"	"12.609"	"9.356"	"6.974"
"1903"	"3.672"	"3.816"	"7.064"	"13.241"	"17.124"	"19.913"	"20.115"	"17.733"	"16.889"	"13.629"	"9.655"	"6.986"
"1904"	"3.438"	"6.817"	"9.375"	"15.163"	"16.941"	"19.075"	"18.072"	"17.581"	"16.059"	"13.521"	"8.523"	"6.442"
"1905"	"1.349"	"0.966"	"4.905"	"11.361"	"17.999"	"19.83"	"18.314"	"18"	"16.657"	"14.108"	"10.097"	"5.454"
"1906"	"2.838"	"2.355"	"7.463"	"14.471"	"18.811"	"19.126"	"18.772"	"17.314"	"16.632"	"13.742"	"10.875"	"7.818"
"1907"	"6.216"	"2.476"	"5.453"	"12.213"	"16.052"	"19.401"	"19.517"	"18.058"	"16.92"	"14.573"	"10.482"	"6.761"
"1908"	"5.037"	"5.242"	"9.372"	"15.754"	"17.599"	"20.625"	"18.582"	"17.403"	"16.779"	"13.689"	"8.809"	"5.763"
"1909"	"2.812"	"4.199"	"11.044"	"12.939"	"17.811"	"17.772"	"18.262"	"17.806"	"17.232"	"14.441"	"10.268"	"6.678"
"1910"	"5.374"	"4.913"	"9.437"	"13.853"	"17.674"	"18.891"	"17.806"	"17.957"	"16.899"	"13.108"	"8.277"	"5.674"
"1911"	"4.125"	"6.219"	"6.975"	"14.598"	"19.023"	"19.192"	"20.025"	"18.658"	"16.457"	"13.307"	"8.166"	"6.341"
"1912"	"3.761"	"6.521"	"9.452"	"13.91"	"17.18"	"19.847"	"18.682"	"17.823"	"16.388"	"13.908"	"7.946"	"6.077"
"1913"	"4.705"	"3.405"	"6.652"	"14.394"	"15.932"	"17.449"	"18.283"	"18.326"	"17.208"	"13.728"	"7.901"	"4.121"
"1914"	"5.88"	"4.157"	"8.088"	"13.329"	"16.868"	"19.246"	"18.617"	"17.815"	"16.656"	"11.735"	"8.953"	"5.628"
"1915"	"4.768"	"3.832"	"8.655"	"14.27"	"18.81"	"19.249"	"19.205"	"18.247"	"17.2"	"15.632"	"10.613"	"6.707"
"1916"	"4.769"	"4.397"	"12.697"	"15.42"	"18.054"	"18.15"	"18.249"	"18.198"	"16.621"	"13.59"	"9.15"	"5.061"
"1917"	"4.222"	"5.2"	"8.04"	"10.474"	"13.567"	"17.8"	"18.247"	"18.08"	"15.923"	"13.01"	"10.052"	"5.611"
"1918"	"3.496"	"5.953"	"9.018"	"12.175"	"18.646"	"18.024"	"18.773"	"18.25"	"16.966"	"13.84"	"8.585"	"4.548"
"1919"	"1.892"	"4.434"	"8.73"	"12.354"	"15.91"	"19.698"	"18.216"	"18.058"	"16.156"	"13.872"	"9.318"	"5.198"
"1920"	"6.039"	"3.39"	"7.508"	"13.73"	"14.387"	"18.26"	"18.239"	"17.79"	"16.476"	"14.273"	"10.018"	"7.853"
"1921"	"3.563"	"6.289"	"12.153"	"16.675"	"20.31"	"19.289"	"18.715"	"17.225"	"15.624"	"12.4"	"8.853"	"6.377"
"1922"	"2.416"	"6.6"	"10.728"	"13.652"	"18.043"	"18.183"	"18.216"	"17.324"	"16.386"	"13.009"	"9.143"	"4.407"
"1923"	"4.342"	"3.562"	"10.708"	"15.785"	"17.275"	"20.646"	"18.275"	"18.082"	"16.08"	"12.666"	"9.255"	"5.574"
"1924"	"3.046"	"5.319"	"10.941"	"15.222"	"14.491"	"21.202"	"18.806"	"17.757"	"15.626"	"14.175"	"9.052"	"6.943"
"1925"	"2.314"	"4.447"	"9.986"	"15.941"	"16.879"	"17.349"	"17.806"	"17.967"	"16.632"	"13.704"	"8.077"	"7.366"
"1926"	"4.162"	"6.284"	"7.121"	"10.852"	"15.32"	"20.79"	"19.125"	"17.927"	"16.822"	"13.679"	"7.068"	"6.04"
"1927"	"3.149"	"2.522"	"8.088"	"13.662"	"16.211"	"19.502"	"18.616"	"17.424"	"16.714"	"13.704"	"9.074"	"7.454"
"1928"	"3.236"	"5.533"	"9.316"	"13.438"	"19.746"	"19.126"	"18.758"	"18.4"	"17.244"	"14.54"	"8.973"	"5.619"
"1929"	"2.968"	"4.32"	"11.287"	"14.73"	"18.321"	"19.098"	"18.417"	"17.235"	"16.621"	"12.992"	"9.743"	"2.852"
"1930"	"2.403"	"4.632"	"10.385"	"13.552"	"17.063"	"18.336"	"18.058"	"17.734"	"16.897"	"12.817"	"8.754"	"6.693"
"1931"	"5.502"	"2.063"	"9.152"	"15.821"	"17.142"	"20.46"	"18.684"	"18.867"	"16.304"	"13.501"	"9.245"	"6.706"
"1932"	"6.405"	"4.038"	"10.43"	"14.619"	"16.585"	"20.793"	"18.897"	"17.602"	"16.514"	"13.875"	"10.477"	"5.996"
"1933"	"2.759"	"5.164"	"9.621"	"12.077"	"14.788"	"19.083"	"18.14"	"17.737"	"15.967"	"13.118"	"9.664"	"7.297"
"1934"	"1.611"	"7.967"	"8.895"	"14.783"	"16.81"	"19.02"	"18.262"	"17.324"	"17.29"	"13.918"	"9.341"	"4.973"
"1935"	"1.238"	"5.344"	"9.719"	"10.686"	"18.477"	"20.902"	"18.473"	"17.6"	"16.371"	"13.518"	"8.809"	"4.43"
"1936"	"2.66"	"3.909"	"9.219"	"13.487"	"18.345"	"16.993"	"17.916"	"17.494"	"16.103"	"13.319"	"9.474"	"4.479"
"1937"	"3.429"	"4.009"	"8.217"	"11.996"	"16.945"	"19.439"	"18.34"	"18.091"	"16.656"	"12.968"	"7.634"	"5.261"
"1938"	"3.128"	"3.374"	"10.561"	"15.342"	"18.767"	"18.003"	"18.428"	"17.881"	"16.363"	"14.194"	"7.622"	"7.533"
"1939"	"4.487"	"4.387"	"6.687"	"12.976"	"19.074"	"18.007"	"18.407"	"18.205"	"16.457"	"13.883"	"10.012"	"7.764"
"1940"	"4.404"	"4.355"	"6.763"	"12.86"	"17.755"	"19.168"	"18.684"	"17.757"	"15.823"	"14.151"	"9.999"	"5.133"
"1941"	"3.001"	"6.155"	"11.821"	"17.052"	"18.423"	"18.569"	"18.948"	"18.257"	"16.733"	"14.599"	"9.543"	"8.647"
"1942"	"3.071"	"5.198"	"11.629"	"15.187"	"17.61"	"20.679"	"18.458"	"17.349"	"16.123"	"14.175"	"10.119"	"5.487"
"1943"	"2.475"	"6.299"	"10.052"	"12.572"	"17.602"	"19.197"	"18.494"	"17.293"	"17.132"	"14.031"	"10.674"	"7.154"
"1944"	"1.953"	"3.489"	"8.277"	"13.23"	"19.3"	"18.625"	"18.826"	"18.05"	"16.491"	"14.008"	"9.576"	"7.151"
"1945"	"1.203"	"4.108"	"9.921"	"12.386"	"17.925"	"20.424"	"18.417"	"17.98"	"16.457"	"12.745"	"9.975"	"5.475"
"1946"	"6.564"	"7.787"	"9.132"	"15.33"	"16.755"	"18.849"	"18.484"	"18.448"	"17.079"	"13.13"	"9.386"	"5.838"
"1947"	"3.027"	"6.032"	"10.187"	"15.73"	"18.481"	"21.025"	"19.016"	"18.08"	"16.513"	"12.644"	"10.076"	"6.55"
"1948"	"4.75"	"3.888"	"8.254"	"16.486"	"19.022"	"20.368"	"18.483"	"17.358"	"16.367"	"12.874"	"8.275"	"5.23"
"1949"	"5.889"	"4.565"	"9.944"	"15.389"	"18.012"	"19.77"	"18.014"	"17.753"	"16.781"	"14.228"	"8.81"	"4.832"
"1950"	"4.591"	"3.907"	"8.079"	"13.428"	"17.542"	"19.058"	"18.285"	"17.459"	"15.423"	"12.917"	"9.451"	"5.329"
"1951"	"2.649"	"6.2"	"9.792"	"11.741"	"17.545"	"20.214"	"19.783"	"18.824"	"17.258"	"15.342"	"10.332"	"7.731"
"1952"	"5.614"	"7.242"	"8.187"	"15.82"	"18.144"	"19.02"	"18.684"	"18.068"	"17.091"	"13.461"	"10.176"	"6.798"
"1953"	"2.581"	"8.233"	"12.745"	"15.03"	"18.587"	"20.1"	"18.627"	"17.982"	"16.806"	"13.68"	"9.976"	"7.729"
"1954"	"2.639"	"5.641"	"10.876"	"15.861"	"18.242"	"19.358"	"18.626"	"18.202"	"17.045"	"12.198"	"9.011"	"4.654"
"1955"	"3.148"	"6.606"	"11.724"	"12.278"	"15.841"	"20.467"	"18.616"	"17.532"	"16.457"	"12.809"	"9.899"	"5.998"
"1956"	"3.426"	"7.333"	"9.699"	"15.764"	"19.577"	"19.052"	"18.094"	"17.737"	"16.779"	"12.787"	"9.133"	"5.009"
"1957"	"2.937"	"4.578"	"8.587"	"12.852"	"16.242"	"18.827"	"19.041"	"17.977"	"16.032"	"13.832"	"10.265"	"6.843"
"1958"	"5.431"	"5.963"	"10.598"	"16.64"	"17.353"	"20.59"	"18.458"	"17.923"	"16.946"	"14.228"	"10.539"	"7.888"
"1959"	"4.84"	"4.913"	"11.267"	"14.997"	"16.843"	"20.167"	"18.072"	"18.458"	"17.212"	"14.064"	"9.366"	"7.711"
"1960"	"3.685"	"10.218"	"8.742"	"13.092"	"18.364"	"20.392"	"18.961"	"18.514"	"17.265"	"13.85"	"9.02"	"9.052"
"1961"	"4.905"	"4.488"	"11.133"	"14.704"	"18.29"	"20.825"	"19.216"	"18.658"	"19.092"	"15.542"	"9.708"	"4.866"
"1962"	"4.032"	"6.766"	"9.934"	"15.877"	"17.641"	"19.859"	"19.561"	"18.804"	"17.261"	"15.034"	"10.633"	"5.566"
"1963"	"3.959"	"6.675"	"9.011"	"14.53"	"17.392"	"20.312"	"19.513"	"17.985"	"16.558"	"15.045"	"11.568"	"6.945"
"1964"	"4.729"	"5.734"	"10.566"	"15.378"	"15.978"	"19.2"	"17.716"	"18.481"	"17.704"	"14.655"	"10.335"	"7.729"
"1965"	"6.948"	"5.776"	"9.167"	"13.532"	"16.743"	"19.468"	"18.438"	"17.403"	"16.744"	"14.772"	"11.532"	"6.987"
"1966"	"4.089"	"6.879"	"9.521"	"14.028"	"17.178"	"19.126"	"18.769"	"18.06"	"16.431"	"12.917"	"8.3"	"5.885"
"1967"	"3.582"	"6.775"	"8.694"	"13.596"	"15.943"	"19.457"	"18.927"	"17.72"	"16.755"	"12.57"	"8.477"	"6.085"
"1968"	"2.84"	"3.35"	"9.42"	"14.298"	"16.897"	"19.993"	"18.382"	"17.448"	"17.331"	"12.594"	"9.453"	"6.933"
"1969"	"5.084"	"6.199"	"11.897"	"14.361"	"17.099"	"19.277"	"18.284"	"18.404"	"16.53"	"14.543"	"11.491"	"7.42"
"1970"	"4.785"	"4.798"	"9.788"	"15.217"	"18.924"	"19.125"	"19.26"	"17.926"	"17.766"	"14.986"	"9.346"	"7.366"
"1971"	"4.074"	"5.49"	"10.034"	"14.656"	"16.341"	"19.442"	"18.34"	"17.059"	"15.859"	"14.133"	"9.597"	"7.919"
"1972"	"5.84"	"3.611"	"11.053"	"13.542"	"18.054"	"20.257"	"18.598"	"17.545"	"15.235"	"12.432"	"9.584"	"7.374"
"1973"	"4.436"	"6.374"	"9.197"	"16.033"	"17.888"	"19.33"	"18.673"	"17.989"	"17.346"	"13.366"	"9.732"	"5.467"
"1974"	"4.272"	"4.241"	"11.202"	"16.108"	"17.222"	"18.293"	"17.952"	"17.538"	"16.042"	"14.275"	"9.45"	"5.423"
"1975"	"3.171"	"4.588"	"8.307"	"14.57"	"17.473"	"18.126"	"16.982"	"17.179"	"15.994"	"14.4"	"8.041"	"6.842"
"1976"	"4.737"	"5.219"	"9.43"	"13.433"	"17.178"	"17.951"	"18.285"	"17.066"	"16.049"	"13.588"	"10.42"	"6.907"
"1977"	"4.682"	"4.758"	"11.512"	"14.322"	"15.735"	"16.832"	"18.261"	"17.753"	"15.894"	"13.852"	"11.103"	"6.421"
"1978"	"3.831"	"4.589"	"7.011"	"13.586"	"19.075"	"20.091"	"18.173"	"17.324"	"15.88"	"13.743"	"7.503"	"6.245"
"1979"	"2.576"	"4.903"	"8.268"	"15.601"	"16.443"	"19.151"	"17.4"	"18.069"	"14.484"	"14.408"	"11.001"	"7.514"
"1980"	"4.338"	"5.918"	"9.113"	"15.737"	"18.312"	"19.025"	"17.907"	"17.751"	"15.99"	"13.492"	"9.25"	"6.215"
"1981"	"3.642"	"6.077"	"9.914"	"14.461"	"18.517"	"18.993"	"18.416"	"17.511"	"15.989"	"12.903"	"7.792"	"5.11"
"1982"	"5.595"	"4.585"	"8.265"	"13.008"	"15.312"	"18.355"	"18.382"	"17.601"	"15.364"	"13.06"	"9.702"	"6.65"
"1983"	"3.403"	"2.997"	"7.84"	"12.009"	"16.258"	"17.077"	"17.615"	"17.724"	"17.103"	"12.753"	"8.431"	"6.097"
"1984"	"3.416"	"4.011"	"11.84"	"14.767"	"19.823"	"20.784"	"17.304"	"17.767"	"15.41"	"13.305"	"9.264"	"7.519"
"1985"	"3.683"	"6.043"	"12.05"	"15.298"	"18.063"	"19.319"	"17.369"	"18.182"	"16.667"	"13.391"	"8.589"	"7.733"
"1986"	"3.618"	"5.033"	"9.414"	"14.243"	"15.8"	"18.714"	"17.516"	"17.528"	"15.833"	"12.671"	"10.779"	"4.563"
"1987"	"3.113"	"6.452"	"10.697"	"14.696"	"14.92"	"18.856"	"19.587"	"18.294"	"17.292"	"14.362"	"10.281"	"5.707"
"1988"	"6.012"	"6.906"	"9.814"	"15.727"	"18.765"	"18.709"	"18.385"	"17.401"	"16.459"	"12.936"	"9.393"	"6.731"
"1989"	"1.398"	"4.976"	"9.432"	"12.817"	"17.211"	"17.884"	"18.251"	"16.412"	"16.075"	"13.36"	"9.534"	"6.008"
"1990"	"7.157"	"6.11"	"7.893"	"13.476"	"18.638"	"20.505"	"17.692"	"17.458"	"16.441"	"12.786"	"9.825"	"7.022"
"1991"	"2.252"	"5.83"	"10.232"	"12.879"	"17.564"	"18.568"	"19.561"	"17.358"	"16.483"	"12.994"	"9.225"	"6.739"
"1992"	"5.635"	"4.031"	"9.763"	"14.475"	"16.514"	"18.539"	"17.16"	"17.735"	"16.055"	"13.742"	"9.743"	"7.134"
"1993"	"4.498"	"7.085"	"7.723"	"14.265"	"18.278"	"18.881"	"18.028"	"18.309"	"15.879"	"13.831"	"10.724"	"7.209"
"1994"	"5.361"	"5.051"	"11.654"	"12.633"	"18.211"	"20.357"	"18.976"	"17.768"	"16.399"	"13.473"	"9.91"	"7.035"
"1995"	"2.11"	"4.898"	"9.131"	"13.505"	"19.482"	"20.596"	"17.555"	"16.361"	"16.177"	"14.073"	"10.402"	"7.38"
"1996"	"4.954"	"6.729"	"11.141"	"15.122"	"17.241"	"18.57"	"17.361"	"15.604"	"16.193"	"13.331"	"9.786"	"6.053"
"1997"	"4.783"	"5.585"	"9.878"	"13.965"	"16.433"	"17.929"	"19.533"	"17.726"	"16.98"	"11.767"	"9.228"	"5.567"
"1998"	"0.301"	"6.59"	"8.165"	"14.697"	"18.454"	"20.29"	"18.582"	"17.765"	"17.433"	"14.332"	"11.022"	"8.996"
"1999"	"4.393"	"9.076"	"12.576"	"18.907"	"18.621"	"18.623"	"19.506"	"18.666"	"17.305"	"14.798"	"11.72"	"8.305"
"2000"	"6.106"	"4.498"	"9.302"	"16.508"	"18.756"	"18.193"	"18.616"	"18.291"	"17.566"	"15.578"	"11.953"	"8.554"
"2001"	"5.304"	"6.575"	"11.023"	"14.106"	"18.611"	"18.525"	"19.407"	"18.78"	"17.733"	"15.531"	"11.902"	"8.164"
"2002"	"5.392"	"6.343"	"11.597"	"15.442"	"19.645"	"19.958"	"19.77"	"18.749"	"15.188"	"15.121"	"11.043"	"6.81"
