
"Year"	"Jan"	"Feb"	"Mar"	"Apr"	"May"	"Jun"	"Jul"	"Aug"	"Sep"	"Oct"	"Nov"	"Dec"
"1901"	"15.64"	"19.025"	"23.231"	"26.762"	"26.553"	"28.197"	"28.175"	"28.346"	"27.533"	"26.307"	"21.463"	"17.536"
"1902"	"17.561"	"19.319"	"24.46"	"24.762"	"26.843"	"27.477"	"28.114"	"28.726"	"27.393"	"24.963"	"20.971"	"17.179"
"1903"	"15.534"	"18.203"	"22.415"	"25.991"	"26.315"	"26.805"	"28.484"	"27.927"	"27.723"	"26.664"	"21.998"	"17.58"
"1904"	"16.521"	"18.684"	"23.66"	"25.216"	"25.417"	"27.497"	"27.722"	"28.426"	"27.588"	"25.533"	"20.894"	"17.392"
"1905"	"15.581"	"15.963"	"21.415"	"23.465"	"25.689"	"27.639"	"28.021"	"27.607"	"27.449"	"25.933"	"22.139"	"17.973"
"1906"	"16.047"	"18.107"	"21.85"	"26.023"	"26.468"	"27.433"	"28.52"	"27.677"	"28.399"	"25.634"	"22.141"	"18.186"
"1907"	"17.517"	"18.309"	"21.139"	"24.087"	"25.948"	"26.909"	"27.703"	"28.813"	"27.33"	"25.899"	"21.785"	"17.464"
"1908"	"16.023"	"18.602"	"23.232"	"27.529"	"26.216"	"27.818"	"28.315"	"28.404"	"27.632"	"25.908"	"21.265"	"17.179"
"1909"	"16.588"	"18.308"	"24.8"	"25.201"	"26.092"	"27.034"	"28.321"	"28.06"	"28.526"	"26.566"	"22.66"	"18.416"
"1910"	"16.706"	"18.902"	"22.843"	"25.33"	"25.754"	"27.067"	"27.031"	"28.229"	"28.049"	"25.665"	"21.641"	"17.751"
"1911"	"17.799"	"18.201"	"22.478"	"25.543"	"25.674"	"27.423"	"27.762"	"27.99"	"27.278"	"25.014"	"20.655"	"16.951"
"1912"	"16.974"	"19.316"	"21.973"	"23.474"	"26.149"	"27.328"	"27.546"	"28.027"	"27.588"	"25.533"	"21.282"	"17.806"
"1913"	"16.638"	"18.725"	"21.26"	"25.671"	"25.185"	"26.724"	"27.925"	"28.257"	"27.59"	"25.597"	"20.658"	"17.324"
"1914"	"16.648"	"18.776"	"22.847"	"23.662"	"26.474"	"27.948"	"28.389"	"28.02"	"27.154"	"24.433"	"21.295"	"18.342"
"1915"	"17.839"	"18.826"	"22.629"	"25.261"	"25.832"	"26.965"	"27.92"	"28.315"	"27.475"	"27.791"	"23.52"	"18.341"
"1916"	"16.739"	"18.855"	"24.513"	"25.288"	"26.663"	"27.854"	"27.349"	"28.209"	"27.68"	"25.57"	"22.235"	"17.38"
"1917"	"16.238"	"18.595"	"22.161"	"25.138"	"26.652"	"27.296"	"27.85"	"28.575"	"27.506"	"25.482"	"22.209"	"17.949"
"1918"	"15.887"	"18.299"	"23.168"	"25.093"	"27.527"	"26.804"	"27.426"	"27.584"	"27.676"	"25.703"	"21.395"	"17.108"
"1919"	"17.368"	"18.251"	"24.391"	"25.084"	"26.104"	"28.068"	"28.05"	"29.001"	"27.154"	"25.933"	"22.527"	"18.235"
"1920"	"17.431"	"18.301"	"22.361"	"24.804"	"25.445"	"27.224"	"28.649"	"28.089"	"27.33"	"26.301"	"22.065"	"19.4"
"1921"	"17.082"	"18.476"	"24.113"	"25.414"	"26.654"	"26.468"	"27.793"	"28.575"	"27.767"	"24.733"	"21.521"	"18.023"
"1922"	"17.213"	"19.521"	"24.626"	"27.878"	"27.266"	"27.022"	"27.85"	"28.257"	"27.582"	"25.571"	"21.977"	"17.993"
"1923"	"17.138"	"18.495"	"24"	"26.074"	"25.823"	"27.148"	"27.925"	"28.747"	"27.517"	"25.459"	"22.184"	"18.258"
"1924"	"16.892"	"18.739"	"24.973"	"26.904"	"25.744"	"27.679"	"27.85"	"28.089"	"26.978"	"26.694"	"21.697"	"18.416"
"1925"	"15.41"	"17.624"	"23.337"	"25.476"	"24.941"	"27.513"	"27.887"	"28.47"	"26.818"	"24.807"	"21.295"	"16.563"
"1926"	"16.545"	"18.806"	"21.89"	"24.644"	"26.009"	"27.306"	"27.633"	"28.246"	"27.85"	"26.034"	"20.681"	"18.41"
"1927"	"16.397"	"17.738"	"21.3"	"25.227"	"25.486"	"27.064"	"28.151"	"28.075"	"26.885"	"25.794"	"21.225"	"17.923"
"1928"	"16.384"	"19.423"	"23.692"	"26.159"	"25.957"	"27.434"	"28.121"	"27.989"	"28.425"	"25.514"	"20.875"	"17.862"
"1929"	"15.987"	"18.094"	"23.732"	"25.201"	"25.931"	"27.094"	"27.85"	"28.184"	"27.588"	"25.353"	"21.409"	"17.78"
"1930"	"15.443"	"18.402"	"22.843"	"25.194"	"26.448"	"26.239"	"28.271"	"28.264"	"27.632"	"25.195"	"21.265"	"17.51"
"1931"	"17.599"	"19.377"	"23.257"	"25.717"	"25.563"	"27.551"	"27.721"	"28.949"	"26.615"	"26.093"	"20.968"	"18.079"
"1932"	"16.469"	"16.796"	"23.361"	"25.828"	"25.253"	"27.185"	"28.163"	"28.348"	"27.947"	"26.162"	"22.703"	"18.094"
"1933"	"15.653"	"19.272"	"24.293"	"24.73"	"25.568"	"27.598"	"28.17"	"28.146"	"27.773"	"26.107"	"21.535"	"17.979"
"1934"	"16.638"	"18.898"	"23.324"	"26.042"	"25.373"	"26.42"	"27.925"	"28.271"	"28.519"	"25.178"	"21.109"	"17.633"
"1935"	"16.452"	"19.328"	"24.011"	"26.138"	"26.942"	"27.24"	"28.589"	"27.716"	"27.88"	"25.933"	"22.258"	"17.697"
"1936"	"15.8"	"18.015"	"23.797"	"26.283"	"26.664"	"27.377"	"28.208"	"28.801"	"27.662"	"25.116"	"22.835"	"18.362"
"1937"	"15.837"	"18.759"	"22.877"	"27.214"	"26.482"	"28.402"	"29.079"	"28.223"	"27.841"	"25.59"	"21.535"	"18.259"
"1938"	"17.614"	"18.021"	"24.511"	"27.443"	"26.442"	"27.888"	"27.831"	"28.742"	"27.819"	"26.364"	"20.187"	"18.078"
"1939"	"17.22"	"19.234"	"23.334"	"28.063"	"26.596"	"27.355"	"27.853"	"28.611"	"27.491"	"25.359"	"21.924"	"18.209"
"1940"	"16.57"	"18.672"	"20.915"	"25.947"	"26.29"	"27.507"	"27.991"	"28.704"	"27.517"	"26.062"	"21.969"	"18.465"
"1941"	"16.279"	"18.887"	"24.513"	"26.362"	"25.999"	"27.24"	"28.372"	"28.704"	"28.163"	"25.205"	"21.126"	"18.839"
"1942"	"16.993"	"19.514"	"23.606"	"25.262"	"26.806"	"28.114"	"28.83"	"28.29"	"27.48"	"26.197"	"22.599"	"17.604"
"1943"	"17.699"	"18.391"	"22.627"	"23.719"	"26.048"	"27.534"	"27.71"	"28.197"	"27.972"	"25.831"	"22.928"	"18.79"
"1944"	"16.427"	"18.352"	"23.701"	"25.032"	"27.417"	"28.513"	"28.507"	"28.893"	"27.85"	"26.436"	"22.079"	"19.316"
"1945"	"16.946"	"17.544"	"24.177"	"26.876"	"26.124"	"28.092"	"28.679"	"28.544"	"28.5"	"25.815"	"21.712"	"17.503"
"1946"	"17.456"	"19.853"	"23.417"	"24.362"	"26.131"	"27.602"	"28.06"	"28.882"	"28.07"	"25.187"	"22.568"	"18.758"
"1947"	"16.936"	"19.351"	"23.41"	"26.574"	"26.543"	"28.087"	"27.8"	"28.278"	"27.68"	"25.614"	"21.717"	"19.016"
"1948"	"17.108"	"18.782"	"23.403"	"25.532"	"25.868"	"27.555"	"27.903"	"28.532"	"28.31"	"25.168"	"22.258"	"17.617"
"1949"	"17.284"	"18.927"	"23.764"	"23.754"	"25.901"	"27.096"	"28.006"	"28.16"	"27.524"	"26.551"	"21.725"	"16.693"
"1950"	"17.025"	"18.703"	"23.062"	"26.183"	"27.004"	"26.908"	"28.451"	"27.659"	"28.035"	"25.664"	"21.612"	"18.479"
"1951"	"16.614"	"19.365"	"24.523"	"25.822"	"26.683"	"27.469"	"27.98"	"28.912"	"28.223"	"26.873"	"22.043"	"18.252"
"1952"	"17.259"	"19.773"	"21.792"	"26.203"	"25.427"	"27.921"	"27.728"	"28.297"	"27.471"	"26.659"	"22.329"	"18.172"
"1953"	"16.139"	"19.441"	"24.105"	"26.161"	"26.831"	"27.096"	"27.38"	"29.022"	"27.432"	"25.734"	"21.642"	"19.234"
"1954"	"15.996"	"20.331"	"24.295"	"27.467"	"27.084"	"26.568"	"27.28"	"27.975"	"28.394"	"25.245"	"21.382"	"18.173"
"1955"	"16.943"	"19.25"	"24.144"	"25.477"	"27.541"	"26.977"	"27.406"	"27.645"	"28.033"	"27.068"	"22.595"	"17.179"
"1956"	"17.577"	"18.936"	"24.062"	"27.339"	"28.473"	"27.597"	"27.487"	"28.061"	"27.807"	"26.33"	"22.585"	"17.509"
"1957"	"16.797"	"18.611"	"22.477"	"26.509"	"26.63"	"27.176"	"28.425"	"28.604"	"28.09"	"25.277"	"21.908"	"18.713"
"1958"	"18.019"	"18.551"	"23.968"	"26.813"	"27.194"	"28.085"	"28.763"	"28.251"	"28.219"	"27.116"	"23.132"	"18.683"
"1959"	"17.102"	"18.268"	"23.811"	"27.131"	"26.617"	"27.55"	"28.483"	"29.13"	"27.475"	"26.127"	"22.462"	"18.876"
"1960"	"16.975"	"21.225"	"23.047"	"28.16"	"27.821"	"27.981"	"27.92"	"28.857"	"27.568"	"26.58"	"22.105"	"19.858"
"1961"	"18.427"	"18.708"	"23.887"	"27.018"	"27.295"	"28.111"	"28.432"	"29.131"	"28.209"	"26.422"	"20.888"	"16.129"
"1962"	"15.895"	"19.593"	"23.622"	"27.59"	"26.668"	"28.414"	"28.844"	"28.427"	"28.303"	"25.801"	"21.749"	"17.965"
"1963"	"16.699"	"19.991"	"23.526"	"25.147"	"25.923"	"27.322"	"28.267"	"28.791"	"27.966"	"25.933"	"21.756"	"18.39"
"1964"	"16.391"	"18.93"	"24.641"	"26.242"	"26.143"	"27.562"	"27.551"	"28.552"	"27.894"	"26.856"	"22.518"	"18.459"
"1965"	"17.615"	"18.984"	"22.359"	"25.692"	"26.814"	"27.309"	"27.767"	"27.38"	"27.258"	"25.422"	"20.8"	"18.661"
"1966"	"15.273"	"20.566"	"24.352"	"26.505"	"27.818"	"27.386"	"28.232"	"28.43"	"27.004"	"24.492"	"22.553"	"18.19"
"1967"	"17.491"	"20.138"	"22.646"	"25.256"	"26.066"	"27.3"	"27.894"	"28.141"	"27.232"	"24.645"	"20.031"	"18.312"
"1968"	"16.274"	"18.514"	"23.857"	"25.287"	"26.344"	"26.514"	"27.635"	"28.271"	"27.913"	"24.671"	"20.915"	"17.255"
"1969"	"16.635"	"20.2"	"25.229"	"26.163"	"27.083"	"27.798"	"28.142"	"27.857"	"27.588"	"25.289"	"22.669"	"18.714"
"1970"	"16.461"	"18.746"	"22.585"	"26.4"	"27.352"	"27.745"	"27.773"	"28.09"	"27.928"	"25.931"	"21.229"	"18.274"
"1971"	"16.852"	"18.795"	"22.713"	"25.303"	"25.705"	"27.51"	"27.609"	"27.471"	"27.45"	"26.273"	"21.958"	"18.84"
"1972"	"18.579"	"18.418"	"24.485"	"25.182"	"27"	"27.325"	"28.371"	"27.94"	"27.124"	"26.002"	"21.359"	"18.422"
"1973"	"18.195"	"20.061"	"23.1"	"26.99"	"26.664"	"27.298"	"27.762"	"28.39"	"27.591"	"25.039"	"21.338"	"18.179"
"1974"	"16.521"	"19.393"	"23.589"	"26.237"	"26.435"	"27.127"	"27.528"	"28.234"	"27.048"	"27.692"	"22.581"	"17.326"
"1975"	"16.849"	"19.326"	"23.918"	"26.707"	"26.489"	"27.795"	"27.173"	"28.253"	"27.447"	"27.59"	"21.769"	"17.463"
"1976"	"16.523"	"20.248"	"24.18"	"26.178"	"26.005"	"26.915"	"27.608"	"27.581"	"27.259"	"25.805"	"23.814"	"18.17"
"1977"	"17.425"	"20.153"	"24.88"	"24.937"	"25.053"	"26.47"	"28.012"	"28.25"	"27.936"	"25.292"	"23.051"	"17.777"
"1978"	"14.767"	"18.703"	"21.912"	"25.379"	"26.734"	"27.012"	"27.635"	"28.448"	"27.626"	"27.039"	"22.629"	"18.73"
"1979"	"17.816"	"18.608"	"23.63"	"26.589"	"27.555"	"28.178"	"27.939"	"28.545"	"27.065"	"26.117"	"23.999"	"18.129"
"1980"	"16.358"	"19.333"	"23.324"	"26.74"	"25.905"	"27.888"	"28.144"	"28.364"	"28.036"	"25.517"	"22.325"	"19.668"
"1981"	"16.156"	"20.006"	"22.968"	"25.199"	"26.196"	"27.979"	"28.117"	"28.844"	"27.658"	"26.672"	"22.257"	"18.092"
"1982"	"18.145"	"18.681"	"22.833"	"25.373"	"26.745"	"27.435"	"28.441"	"28.454"	"27.743"	"25.186"	"21.841"	"18.638"
"1983"	"15.723"	"17.388"	"23.168"	"24.848"	"25.758"	"27.93"	"28.39"	"28.597"	"27.977"	"26.407"	"21.869"	"17.164"
"1984"	"16.284"	"19.676"	"25.039"	"26.32"	"26.761"	"27.805"	"27.293"	"28.293"	"26.485"	"27.096"	"21.349"	"18.861"
"1985"	"16.848"	"19.276"	"25.519"	"26.342"	"26.312"	"27.595"	"27.131"	"28.825"	"27.489"	"25.489"	"20.927"	"18.918"
"1986"	"17.682"	"19.721"	"23.842"	"24.916"	"25.495"	"27.843"	"27.474"	"28.518"	"27.118"	"25.051"	"22.469"	"17.823"
"1987"	"16.891"	"20.207"	"23.385"	"25.797"	"26.534"	"28.302"	"28.008"	"28.022"	"28.04"	"24.999"	"21.002"	"19.345"
"1988"	"18.609"	"21.044"	"24.098"	"26.636"	"26.807"	"27.415"	"28.189"	"28.047"	"27.763"	"26.38"	"22.377"	"19.365"
"1989"	"16.855"	"18.757"	"23.656"	"25.537"	"27.038"	"27.292"	"27.721"	"28.224"	"27.902"	"26.617"	"21.717"	"17.302"
"1990"	"19.43"	"19.098"	"21.845"	"24.494"	"26.8"	"28.129"	"27.986"	"28.506"	"27.871"	"25.629"	"23.283"	"18.775"
"1991"	"15.406"	"19.86"	"24.193"	"25.925"	"25.672"	"27.464"	"28.225"	"28.456"	"27.166"	"26.101"	"21.509"	"17.543"
"1992"	"17.092"	"17.676"	"24.485"	"26.298"	"25.386"	"27.302"	"26.968"	"28.22"	"27.321"	"25.959"	"21.788"	"17.151"
"1993"	"17.06"	"20.325"	"22.121"	"25.102"	"25.601"	"27.045"	"27.97"	"28.364"	"27.106"	"26.389"	"22.677"	"20.183"
"1994"	"18.205"	"18.639"	"24.511"	"25.769"	"27.581"	"28.061"	"28.882"	"28.974"	"28.397"	"26.174"	"21.938"	"18.092"
"1995"	"15.765"	"19.033"	"24.439"	"26.196"	"28.402"	"28.334"	"28.15"	"28.59"	"27.851"	"26.976"	"22.513"	"19.316"
"1996"	"17.526"	"19.819"	"24.202"	"26.489"	"27.15"	"27.263"	"28.223"	"28.475"	"27.931"	"26.355"	"22.764"	"19.557"
"1997"	"16.901"	"18.485"	"24.59"	"25.873"	"27.095"	"27.927"	"28.567"	"28.934"	"27.177"	"25.212"	"21.879"	"18.777"
"1998"	"16.966"	"20.826"	"22.994"	"26.952"	"28.335"	"28.395"	"28.017"	"28.735"	"28.5"	"27.617"	"23.525"	"19.537"
"1999"	"18.171"	"21.777"	"25.076"	"29.747"	"27.596"	"28.749"	"28.048"	"28.277"	"28.078"	"26.769"	"23.469"	"19.66"
"2000"	"17.75"	"19.925"	"23.153"	"24.629"	"26.87"	"28.456"	"28.755"	"28.207"	"27.466"	"26.778"	"22.654"	"18.655"
"2001"	"17.492"	"20.404"	"23.938"	"26.442"	"27.875"	"28.489"	"29.035"	"29.202"	"28.349"	"26.583"	"23.349"	"19.133"
"2002"	"17.484"	"20.844"	"24.6"	"25.925"	"26.938"	"27.973"	"28.854"	"28.482"	"27.884"	"26.256"	"22.865"	"19.063"
