
"Year"	"Jan"	"Feb"	"Mar"	"Apr"	"May"	"Jun"	"Jul"	"Aug"	"Sep"	"Oct"	"Nov"	"Dec"
"1901"	"0"	"0.034"	"1.667"	"34.101"	"106.226"	"554.047"	"496.636"	"507.657"	"221.539"	"90.735"	"9.116"	"0.452"
"1902"	"0.06"	"0"	"0.08"	"10.43"	"22.794"	"631.349"	"695.063"	"190.669"	"226.533"	"165.822"	"26.796"	"79.399"
"1903"	"0.023"	"0"	"0"	"2.654"	"148.21"	"401.541"	"888.294"	"312.045"	"171.996"	"139.391"	"11.652"	"1.655"
"1904"	"0"	"0"	"0.372"	"11.508"	"53.738"	"810.76"	"493.977"	"214.229"	"129.053"	"93.931"	"0.352"	"0.082"
"1905"	"0"	"0.181"	"0"	"0.564"	"43.2"	"209.363"	"519.815"	"174.519"	"70.504"	"135.735"	"22.069"	"0.082"
"1906"	"5.665"	"0.135"	"0"	"0.974"	"40.174"	"506.976"	"612.508"	"608.291"	"162.887"	"57.658"	"24.93"	"12.064"
"1907"	"0.384"	"0.12"	"0.263"	"21.981"	"2.099"	"444.063"	"554.048"	"838.541"	"357.192"	"11.455"	"7.006"	"1.13"
"1908"	"0"	"0.199"	"1.424"	"5.567"	"25.953"	"473.121"	"953.664"	"550.617"	"232.43"	"45.932"	"2.868"	"0.082"
"1909"	"0"	"0"	"0.425"	"0.243"	"32.69"	"596.527"	"913.37"	"156.194"	"196.309"	"33.794"	"8.126"	"0.099"
"1910"	"0"	"0"	"1.412"	"0.586"	"21.065"	"823.803"	"343.316"	"709.668"	"229.468"	"87.484"	"32.803"	"0.082"
"1911"	"0"	"0"	"0.089"	"0.1"	"31.093"	"470.505"	"377.82"	"443.707"	"63.083"	"68.987"	"17.495"	"7.873"
"1912"	"0"	"0.04"	"0"	"8.849"	"72.728"	"407.477"	"1182.364"	"554.226"	"145.248"	"103.374"	"74.913"	"0.082"
"1913"	"0"	"0.011"	"0"	"7.301"	"45.715"	"737.123"	"474.015"	"253.089"	"129.256"	"96.887"	"6.978"	"0.534"
"1914"	"0"	"0.181"	"0"	"6.166"	"9.296"	"611.895"	"1443.526"	"999.808"	"296.314"	"18.977"	"33.547"	"31.532"
"1915"	"0.533"	"0.294"	"2.531"	"19.377"	"29.222"	"820.099"	"795.702"	"271.085"	"429.915"	"79.182"	"43.869"	"20.011"
"1916"	"0"	"0"	"0"	"1.854"	"176.182"	"699.259"	"454.653"	"463.257"	"320.548"	"182.52"	"127.929"	"0.082"
"1917"	"0"	"1.884"	"0.787"	"1.476"	"7.388"	"1016.28"	"307.121"	"406.599"	"298.514"	"269.313"	"72.248"	"0.082"
"1918"	"1.935"	"0"	"0.029"	"1.556"	"181.795"	"254.314"	"136.996"	"292.98"	"74.906"	"12.567"	"59.006"	"0.138"
"1919"	"0.029"	"0"	"0.126"	"2.452"	"69.531"	"515.195"	"519.261"	"314.631"	"248.4"	"107.6"	"30.748"	"13.25"
"1920"	"4.388"	"0.199"	"0"	"13.956"	"23.712"	"584.792"	"556.255"	"295.433"	"137.182"	"56.779"	"0.45"	"0.082"
"1921"	"0"	"0"	"0.173"	"12.143"	"23.21"	"550.319"	"595.089"	"339.424"	"137.296"	"123.762"	"39.145"	"0.082"
"1922"	"0.142"	"0.076"	"0"	"17.924"	"49.22"	"620.88"	"735.139"	"206.729"	"68.632"	"49.032"	"147.122"	"0.082"
"1923"	"4.29"	"0.215"	"4.627"	"5.28"	"40.144"	"152.247"	"1108.195"	"343.192"	"184.011"	"10.749"	"0.352"	"1.711"
"1924"	"0"	"0"	"0.16"	"12.113"	"13.444"	"476.98"	"683.573"	"487.89"	"210.409"	"62.396"	"2.908"	"0.903"
"1925"	"0"	"0"	"0.074"	"24.119"	"110.708"	"619.263"	"546.298"	"265.516"	"95.773"	"63.739"	"27.718"	"9.992"
"1926"	"1.334"	"0"	"0"	"0.1"	"41.134"	"354.273"	"728.913"	"887.504"	"165.228"	"26.437"	"0.405"	"0.184"
"1927"	"0"	"0.113"	"0"	"1.687"	"44.221"	"608.016"	"628.629"	"219.292"	"240.876"	"163.194"	"71.534"	"0.082"
"1928"	"0"	"1.142"	"1.27"	"22.49"	"3.734"	"556.406"	"637.238"	"338.333"	"175.425"	"102.808"	"1.409"	"5.683"
"1929"	"0.703"	"0.115"	"4.881"	"34.491"	"14.597"	"597.671"	"570.061"	"195.406"	"279.587"	"120.23"	"9.845"	"26.102"
"1930"	"0"	"0"	"0.091"	"0.93"	"47.944"	"818.563"	"491.798"	"230.202"	"246.066"	"184.253"	"20.357"	"0.906"
"1931"	"0"	"0"	"1.284"	"14.415"	"15.243"	"522.573"	"1035.306"	"515.428"	"174.08"	"208.565"	"91.237"	"75.906"
"1932"	"0"	"0"	"0"	"20.2"	"114.887"	"283.113"	"1053.872"	"797.58"	"238.173"	"306.835"	"21.275"	"0.382"
"1933"	"0"	"0.011"	"0.916"	"9.836"	"194.792"	"743.828"	"678.561"	"600.638"	"189.444"	"193.122"	"47.195"	"33.767"
"1934"	"0.065"	"0"	"0"	"10.604"	"7.027"	"552.338"	"711.707"	"505.276"	"173.507"	"81.026"	"56.908"	"0.082"
"1935"	"0"	"0.44"	"0"	"1.389"	"4.983"	"455.044"	"542.291"	"477.619"	"188.199"	"134.837"	"9.187"	"3.353"
"1936"	"0"	"0.16"	"0"	"2.109"	"50.285"	"1006.842"	"314.91"	"316.463"	"241.266"	"58.068"	"77.96"	"0.256"
"1937"	"0"	"0.294"	"0.779"	"41.032"	"13.158"	"589.78"	"755.7"	"144.229"	"263.991"	"193.168"	"0.352"	"7.684"
"1938"	"0"	"0.113"	"2.372"	"22.586"	"76.52"	"602.403"	"540.503"	"459.131"	"326.382"	"226.042"	"45.173"	"7.272"
"1939"	"0"	"0"	"1.086"	"8.176"	"2.361"	"790.41"	"917.366"	"595.562"	"144.146"	"66.91"	"22.761"	"0.082"
"1940"	"0"	"0.199"	"0"	"8.63"	"51.038"	"689.827"	"613.975"	"405.73"	"117.341"	"135.508"	"20.083"	"14.907"
"1941"	"2.38"	"0"	"0.527"	"7.33"	"12.743"	"564.422"	"730.493"	"193.181"	"108.318"	"80.142"	"0.352"	"6.04"
"1942"	"0"	"0"	"0.023"	"18.107"	"31.072"	"1029.844"	"842.152"	"334.229"	"74.382"	"69.718"	"3.346"	"21.758"
"1943"	"0.191"	"0"	"0"	"5.044"	"229.565"	"427.153"	"847.831"	"197.273"	"210.395"	"165.514"	"12.497"	"0.082"
"1944"	"0"	"0.017"	"0.36"	"0.1"	"83.188"	"703.222"	"1080.563"	"236.093"	"207.923"	"187.491"	"21.23"	"0.082"
"1945"	"0.529"	"0"	"0"	"2.246"	"29.613"	"478.289"	"721.538"	"442.112"	"144.761"	"62.561"	"3.965"	"0.082"
"1946"	"0"	"0.029"	"0"	"22.74"	"123.224"	"542.05"	"778.086"	"589.452"	"225.057"	"26.16"	"145.529"	"16.697"
"1947"	"5.14"	"0"	"1.868"	"5.995"	"68.864"	"219.583"	"723.204"	"780.656"	"179.39"	"42.987"	"14.022"	"35.44"
"1948"	"1.301"	"0.269"	"5.121"	"7.207"	"21.956"	"450.554"	"474.106"	"659.72"	"307.262"	"133.423"	"94.047"	"0.441"
"1949"	"0"	"0"	"0.83"	"4.194"	"174.958"	"313.277"	"488.798"	"501.482"	"387.975"	"84.685"	"3.546"	"0.082"
"1950"	"0"	"0.011"	"0.115"	"3.027"	"70.185"	"248.751"	"990.753"	"433.099"	"293.028"	"119.594"	"3.13"	"0.136"
"1951"	"0"	"0"	"0.052"	"18.128"	"33.261"	"772.746"	"427.661"	"321.958"	"95.251"	"219.363"	"22.841"	"0.082"
"1952"	"0"	"0.464"	"0"	"17.146"	"41.756"	"622.858"	"698.763"	"347.435"	"59.849"	"184.621"	"0.352"	"0.083"
"1953"	"0"	"0"	"0.001"	"27.189"	"1.238"	"942.579"	"863.085"	"768.903"	"133.665"	"265.417"	"0.352"	"0.082"
"1954"	"0"	"0.131"	"6.389"	"12.658"	"31.031"	"316.132"	"869.583"	"687.094"	"221.244"	"88.627"	"0.352"	"21.174"
"1955"	"0"	"0"	"0.192"	"15.581"	"70.4"	"792.61"	"513.113"	"642.217"	"327.26"	"304.392"	"17.845"	"0.082"
"1956"	"0"	"0.456"	"0.276"	"21.143"	"164.041"	"689.919"	"867.881"	"588.982"	"189.385"	"191.05"	"71.789"	"0.082"
"1957"	"0"	"0"	"2.54"	"38.395"	"96.321"	"678.71"	"648.908"	"520.626"	"106.594"	"199.602"	"71.842"	"0.082"
"1958"	"0"	"0"	"5.524"	"13.204"	"70.387"	"477.467"	"846.84"	"845.69"	"102.816"	"85.549"	"18.169"	"0.082"
"1959"	"0"	"0"	"0.103"	"12.523"	"65.071"	"1008.117"	"963.214"	"367.952"	"317.575"	"53.283"	"50.608"	"0.082"
"1960"	"0"	"0"	"0.566"	"5.855"	"178.343"	"661.227"	"706.166"	"314.146"	"234.876"	"38.789"	"31.423"	"1.44"
"1961"	"0"	"0"	"0.304"	"7.753"	"252.223"	"534.273"	"1329.35"	"423.134"	"191.798"	"159.26"	"8.218"	"0.082"
"1962"	"0.054"	"0.029"	"0.245"	"5.204"	"145.655"	"163.861"	"894.829"	"442.248"	"192.295"	"92.35"	"42.439"	"92.243"
"1963"	"0.054"	"0.255"	"0.941"	"9.164"	"67.123"	"480.402"	"838.361"	"843.998"	"80.196"	"196.444"	"11.875"	"0.082"
"1964"	"0"	"0"	"4.791"	"11.055"	"10.965"	"433.204"	"659.141"	"763.249"	"366.783"	"283.117"	"37.603"	"1.268"
"1965"	"0.745"	"0"	"0"	"17.142"	"46.86"	"397.216"	"1127.496"	"403.567"	"118.054"	"33.26"	"4.902"	"60.727"
"1966"	"0.087"	"0.275"	"1.534"	"1.58"	"174.172"	"378.176"	"862.19"	"138.238"	"253.555"	"67.236"	"192.628"	"31.215"
"1967"	"0"	"0"	"0"	"14.558"	"34.15"	"759.061"	"962.645"	"363.37"	"274.214"	"108.956"	"8.671"	"18.081"
"1968"	"0"	"0.448"	"4.613"	"36.687"	"46.617"	"466.626"	"487.93"	"233.58"	"133.311"	"81.345"	"13.134"	"1.73"
"1969"	"0"	"0.195"	"0.492"	"6.053"	"19.371"	"343.937"	"889.411"	"675.768"	"301.643"	"61.732"	"33.235"	"6.913"
"1970"	"0"	"0"	"0"	"9.888"	"139.23"	"697.629"	"634.068"	"544.763"	"156.994"	"179.87"	"0.352"	"0.082"
"1971"	"0"	"0"	"0"	"5.595"	"97.919"	"948.635"	"362.193"	"411.212"	"219.636"	"77.679"	"0.352"	"0.082"
"1972"	"0"	"0.294"	"0.132"	"16.323"	"40.612"	"469.96"	"528.432"	"119.159"	"181.383"	"9.331"	"38.732"	"0.099"
"1973"	"0"	"0"	"0"	"4.154"	"42.442"	"518.712"	"698.115"	"583.946"	"175.641"	"165.355"	"8.042"	"0.22"
"1974"	"0"	"0"	"3.78"	"26.498"	"188.571"	"387.607"	"686.569"	"440.294"	"290.441"	"189.274"	"0.369"	"0.082"
"1975"	"0.011"	"0.044"	"0.029"	"0.959"	"47.073"	"850.24"	"752.528"	"476.236"	"406.205"	"214.108"	"19.858"	"0.082"
"1976"	"0"	"0"	"1.045"	"11"	"24.724"	"772.422"	"772.523"	"454.243"	"140.831"	"6.951"	"84.055"	"4.367"
"1977"	"0"	"0"	"5.699"	"12.166"	"71.527"	"819.212"	"788.579"	"289.182"	"160.358"	"131.805"	"123.36"	"6.091"
"1978"	"0"	"1.414"	"0.024"	"28.597"	"181.349"	"683.511"	"537.887"	"490.667"	"272.005"	"62.161"	"41.82"	"0.104"
"1979"	"0"	"0.08"	"0.129"	"2.858"	"14.249"	"616.605"	"415.037"	"627.298"	"349.255"	"26.582"	"72.862"	"0.082"
"1980"	"0.054"	"0"	"2.939"	"28.651"	"15.476"	"1040.46"	"584.034"	"514.895"	"179.972"	"46.466"	"17.58"	"29.941"
"1981"	"0.221"	"0"	"0.62"	"13.622"	"16.07"	"777.329"	"684.144"	"451.709"	"472.846"	"54.078"	"10.978"	"0.082"
"1982"	"0"	"0"	"0"	"11.62"	"192.074"	"581.317"	"544.602"	"473.398"	"162.079"	"57.59"	"56.911"	"0.082"
"1983"	"0"	"0"	"0"	"0.1"	"10.845"	"923.788"	"582.129"	"734.647"	"311.525"	"43.721"	"9.314"	"21.397"
"1984"	"0.669"	"0.453"	"5.443"	"17.764"	"6.223"	"477.151"	"724.223"	"332.507"	"200.476"	"136.764"	"2.699"	"0.707"
"1985"	"0"	"0"	"0.255"	"9.275"	"43.671"	"474.973"	"386.989"	"433.289"	"103.221"	"143.649"	"52.693"	"0.306"
"1986"	"0.022"	"0.057"	"0"	"6.52"	"15.389"	"720.323"	"324.823"	"424.921"	"52.859"	"22.701"	"49.413"	"25.826"
"1987"	"0.63"	"0.537"	"0.863"	"2.686"	"115.449"	"395.869"	"300.485"	"392.653"	"202.206"	"140.012"	"18.979"	"63.313"
"1988"	"0"	"0"	"0"	"30.57"	"14.071"	"590.759"	"843.961"	"450.486"	"520.213"	"25.233"	"0.352"	"9.185"
"1989"	"0"	"0"	"4.263"	"24.112"	"36.266"	"618.187"	"611.282"	"225.37"	"258.4"	"18.508"	"1.75"	"1.024"
"1990"	"0"	"0"	"0.187"	"6.51"	"96.975"	"563.845"	"550.843"	"455.876"	"79.251"	"111.455"	"42.441"	"0.294"
"1991"	"0"	"0"	"0.167"	"32.334"	"68.714"	"618.579"	"737.549"	"356.498"	"244.319"	"31.942"	"15.458"	"0.082"
"1992"	"0"	"0"	"0"	"5.921"	"35.005"	"763.151"	"451.215"	"506.932"	"380.703"	"109.386"	"81.02"	"0.082"
"1993"	"0"	"0"	"3.24"	"5.721"	"37.313"	"558.437"	"744.609"	"315.456"	"87.192"	"185.965"	"8.835"	"51.924"
"1994"	"0.047"	"0.023"	"1.325"	"21.853"	"46.321"	"1077.877"	"1068.362"	"410.459"	"124.709"	"198.399"	"5.669"	"0.082"
"1995"	"0.5"	"0"	"0.296"	"16.433"	"35.152"	"254.976"	"572.614"	"238.663"	"254.502"	"154.159"	"6.231"	"0.082"
"1996"	"0.029"	"0.185"	"0"	"5.772"	"12.718"	"741.074"	"561.475"	"239.46"	"245.859"	"203.25"	"4.689"	"1.898"
"1997"	"0.631"	"0"	"1.354"	"13.506"	"8.836"	"1078.442"	"577.048"	"756.447"	"43.879"	"82.156"	"49.12"	"50.969"
"1998"	"0"	"0.137"	"0"	"0.151"	"41.33"	"750.4"	"606.675"	"439.592"	"226.457"	"94.148"	"51.66"	"2.651"
"1999"	"0"	"0"	"0"	"0.209"	"74.452"	"792.757"	"603.166"	"155.687"	"124.8"	"257.201"	"2.409"	"0.082"
"2000"	"0"	"0.011"	"0"	"8.312"	"67.771"	"566.924"	"519.603"	"301.917"	"303.73"	"83.601"	"13.943"	"6.005"
"2001"	"0"	"0"	"0.403"	"4.721"	"25.198"	"378.051"	"362.91"	"273.178"	"159.576"	"131.129"	"39.05"	"1.753"
"2002"	"0"	"0.1"	"0.034"	"27.488"	"33.687"	"826.978"	"140.215"	"437.269"	"47.66"	"122.019"	"0.642"	"0.082"
