
"Year"	"Jan"	"Feb"	"Mar"	"Apr"	"May"	"Jun"	"Jul"	"Aug"	"Sep"	"Oct"	"Nov"	"Dec"
"1901"	"8.01"	"8.302"	"8.366"	"8.783"	"8.635"	"8.325"	"8.14"	"8.212"	"8.184"	"8.14"	"7.968"	"7.852"
"1902"	"7.699"	"8.083"	"8.619"	"8.844"	"8.846"	"8.488"	"8.082"	"8.343"	"8.152"	"8.089"	"8.007"	"7.971"
"1903"	"8.162"	"8.317"	"8.559"	"8.895"	"8.626"	"8.404"	"8.094"	"8.182"	"8.063"	"8.112"	"7.915"	"7.671"
"1904"	"7.662"	"7.822"	"8.271"	"8.665"	"8.607"	"7.979"	"7.982"	"8.11"	"8.091"	"8.2"	"7.989"	"7.789"
"1905"	"7.862"	"8.074"	"8.501"	"8.571"	"8.555"	"8.243"	"8.2"	"8.191"	"8.252"	"8.079"	"8.056"	"7.834"
"1906"	"7.962"	"8.249"	"8.583"	"9.029"	"8.656"	"8.267"	"7.991"	"8.049"	"8.212"	"8.098"	"7.894"	"7.759"
"1907"	"7.78"	"8.032"	"8.471"	"8.564"	"8.677"	"8.264"	"8.031"	"7.909"	"8.152"	"8.068"	"7.873"	"7.759"
"1908"	"7.841"	"7.929"	"8.399"	"8.686"	"8.564"	"8.112"	"7.841"	"8.07"	"8.079"	"8.077"	"7.785"	"7.722"
"1909"	"7.731"	"7.952"	"8.387"	"8.686"	"8.522"	"8.225"	"8.036"	"8.019"	"8.058"	"8.119"	"7.855"	"7.801"
"1910"	"7.862"	"8.044"	"8.41"	"8.635"	"8.626"	"8.145"	"7.97"	"8"	"8.01"	"7.989"	"7.977"	"7.738"
"1911"	"7.862"	"7.904"	"8.492"	"8.744"	"8.782"	"8.197"	"7.973"	"8.133"	"8.243"	"8.119"	"8.047"	"7.88"
"1912"	"7.68"	"8.225"	"8.601"	"8.846"	"8.656"	"8.163"	"8.112"	"8.082"	"8.212"	"8.11"	"7.925"	"7.72"
"1913"	"7.75"	"8.125"	"8.471"	"8.814"	"8.804"	"8.346"	"8.052"	"8.161"	"8.212"	"8.098"	"8.005"	"7.92"
"1914"	"7.883"	"8.093"	"8.562"	"8.929"	"8.674"	"8.355"	"8.182"	"8.161"	"8.304"	"8.167"	"8.146"	"7.88"
"1915"	"8.014"	"8.225"	"8.543"	"8.816"	"8.767"	"8.536"	"8.058"	"8.234"	"8.212"	"8.209"	"7.989"	"7.843"
"1916"	"7.834"	"8.086"	"8.583"	"8.92"	"8.746"	"8.133"	"8.119"	"8.2"	"8.079"	"7.989"	"7.925"	"7.646"
"1917"	"7.799"	"8.062"	"8.246"	"8.744"	"8.573"	"8.163"	"8.23"	"8.152"	"8.021"	"7.936"	"7.834"	"7.628"
"1918"	"7.646"	"7.72"	"8.308"	"8.732"	"8.301"	"8.203"	"8.194"	"8.182"	"8.191"	"8.219"	"8.137"	"7.799"
"1919"	"8.053"	"8.216"	"8.392"	"8.925"	"8.656"	"8.216"	"8.042"	"8.082"	"8.161"	"8.209"	"7.876"	"7.88"
"1920"	"7.841"	"8.174"	"8.629"	"8.61"	"8.704"	"8.133"	"8.07"	"8.042"	"8.121"	"8.119"	"7.834"	"7.75"
"1921"	"8.016"	"7.952"	"8.589"	"8.605"	"8.777"	"8.369"	"8.115"	"8.124"	"8.194"	"8.119"	"7.977"	"7.689"
"1922"	"7.822"	"8.032"	"8.441"	"8.714"	"8.452"	"8.237"	"7.921"	"8.063"	"8.073"	"8.058"	"7.794"	"7.637"
"1923"	"7.801"	"7.931"	"8.359"	"8.856"	"8.614"	"8.194"	"7.973"	"7.982"	"8.121"	"8.11"	"8.026"	"7.868"
"1924"	"7.841"	"8.174"	"8.478"	"8.753"	"8.674"	"8.173"	"7.942"	"8.133"	"8.182"	"8.089"	"7.946"	"7.738"
"1925"	"7.771"	"8.041"	"8.299"	"8.695"	"8.522"	"8.237"	"8.094"	"8.091"	"8.273"	"8.219"	"7.925"	"7.813"
"1926"	"7.901"	"8.102"	"8.601"	"8.837"	"8.693"	"8.348"	"8.212"	"8.313"	"8.243"	"8.161"	"8.056"	"7.922"
"1927"	"7.941"	"8.235"	"8.457"	"8.732"	"8.422"	"8.103"	"7.924"	"8.203"	"8.112"	"8.14"	"7.998"	"8.023"
"1928"	"8.001"	"8.125"	"8.431"	"8.765"	"8.867"	"8.397"	"8.237"	"8.115"	"8.264"	"8.1"	"8.056"	"7.91"
"1929"	"7.862"	"8.114"	"8.471"	"8.501"	"8.662"	"8.133"	"8.112"	"8.154"	"8.182"	"8.089"	"8.065"	"7.899"
"1930"	"7.871"	"8.174"	"8.478"	"8.725"	"8.431"	"8.246"	"8.255"	"8.194"	"8.161"	"8.079"	"8.098"	"7.992"
"1931"	"8.023"	"8.256"	"8.644"	"8.716"	"8.828"	"8.406"	"8.173"	"8.073"	"8.112"	"8.184"	"8.047"	"7.941"
"1932"	"7.81"	"7.88"	"8.387"	"8.583"	"8.404"	"8.355"	"8.112"	"8.161"	"8.131"	"7.958"	"7.873"	"7.768"
"1933"	"8.056"	"8.153"	"8.489"	"8.662"	"8.32"	"8.14"	"8.04"	"7.979"	"7.979"	"7.936"	"7.936"	"7.892"
"1934"	"7.859"	"7.913"	"8.246"	"8.656"	"8.716"	"8.203"	"8.154"	"8.225"	"8.225"	"8.1"	"7.897"	"7.862"
"1935"	"8.014"	"8.072"	"8.501"	"8.644"	"8.858"	"8.318"	"8.063"	"8"	"8.07"	"8.1"	"7.925"	"7.88"
"1936"	"7.931"	"8.198"	"8.531"	"8.798"	"8.626"	"8.194"	"8.082"	"8.073"	"8.264"	"8.191"	"8.047"	"8.023"
"1937"	"8.014"	"8.286"	"8.51"	"8.686"	"8.819"	"8.258"	"7.984"	"8.318"	"8.327"	"8.131"	"8.007"	"7.783"
"1938"	"8.077"	"8.156"	"8.51"	"8.583"	"8.737"	"8.175"	"8.015"	"8.154"	"8.133"	"8.061"	"7.949"	"7.995"
"1939"	"7.862"	"8.114"	"8.473"	"8.595"	"8.616"	"8.136"	"8.073"	"8.091"	"8.237"	"8.194"	"7.873"	"7.904"
"1940"	"7.75"	"8.137"	"8.568"	"8.716"	"8.677"	"8.355"	"8.124"	"8.031"	"8.346"	"8.23"	"8.068"	"7.922"
"1941"	"8.135"	"8.286"	"8.662"	"8.895"	"8.865"	"8.325"	"8.264"	"8.243"	"8.221"	"8.271"	"8.146"	"7.952"
"1942"	"7.983"	"8.286"	"8.598"	"8.714"	"8.737"	"8.285"	"8.054"	"8.082"	"8.173"	"8.121"	"7.989"	"7.85"
"1943"	"7.883"	"8.044"	"8.399"	"8.504"	"8.494"	"7.973"	"7.899"	"8.01"	"8.021"	"7.906"	"7.846"	"7.931"
"1944"	"7.931"	"8.144"	"8.368"	"8.647"	"8.637"	"8.255"	"8.163"	"8.285"	"8.234"	"8.212"	"7.955"	"7.768"
"1945"	"7.841"	"8.144"	"8.541"	"8.605"	"8.849"	"8.355"	"8.054"	"8.152"	"8.225"	"8.121"	"7.968"	"7.759"
"1946"	"7.63"	"8.104"	"8.359"	"8.628"	"8.761"	"8.297"	"8.154"	"8.045"	"8.173"	"8.179"	"7.977"	"7.808"
"1947"	"8.01"	"8.074"	"8.441"	"8.522"	"8.756"	"8.285"	"8.194"	"8.049"	"8.01"	"7.989"	"8.089"	"7.98"
"1948"	"8.114"	"8.183"	"8.547"	"8.704"	"8.674"	"8.203"	"8.063"	"8.042"	"8.173"	"8.158"	"8.107"	"7.922"
"1949"	"7.88"	"8.065"	"8.589"	"8.674"	"8.586"	"8.212"	"8.073"	"8.191"	"8.119"	"8.131"	"8.037"	"7.892"
"1950"	"7.871"	"8.095"	"8.562"	"8.635"	"8.807"	"8.182"	"7.994"	"8.07"	"8.019"	"7.989"	"7.946"	"7.901"
"1951"	"7.931"	"7.971"	"8.499"	"8.564"	"8.725"	"8.031"	"8.063"	"8.255"	"8.234"	"8.289"	"8.014"	"7.862"
"1952"	"8.001"	"8.235"	"8.531"	"8.704"	"8.744"	"8.243"	"8.142"	"8.082"	"8.216"	"8.01"	"7.968"	"7.91"
"1953"	"7.931"	"8.001"	"8.641"	"8.647"	"8.91"	"8.476"	"8"	"8.264"	"8.203"	"8.128"	"8.016"	"7.901"
"1954"	"8.032"	"8.204"	"8.399"	"8.758"	"8.753"	"8.301"	"8.021"	"8.061"	"8.149"	"7.979"	"7.989"	"7.959"
"1955"	"8.099"	"8.253"	"8.531"	"8.605"	"8.341"	"7.97"	"8.052"	"8.161"	"8.179"	"8.079"	"7.876"	"7.85"
"1956"	"7.847"	"8.148"	"8.598"	"8.653"	"8.394"	"8"	"7.963"	"8.11"	"8.058"	"7.998"	"8.137"	"8.023"
"1957"	"8.019"	"8.223"	"8.489"	"8.795"	"8.586"	"8.31"	"8.173"	"8.161"	"8.252"	"8.209"	"8.091"	"8.083"
"1958"	"8.093"	"8.235"	"8.605"	"8.774"	"8.504"	"8.343"	"8.264"	"8.07"	"8.294"	"8.073"	"8.098"	"8.102"
"1959"	"8.153"	"8.283"	"8.617"	"8.744"	"8.693"	"8.191"	"8.079"	"8.221"	"8.221"	"8.1"	"8.116"	"7.938"
"1960"	"8.081"	"8.253"	"8.468"	"8.562"	"8.443"	"8.285"	"8.103"	"8.152"	"8.019"	"8.089"	"7.822"	"8.019"
"1961"	"8.06"	"8.102"	"8.58"	"8.725"	"8.534"	"8.091"	"8.11"	"8.11"	"8.1"	"8.182"	"8.262"	"8.041"
"1962"	"7.989"	"8.193"	"8.42"	"8.632"	"8.434"	"8.415"	"8.073"	"8.154"	"8.17"	"8.019"	"8.11"	"8.023"
"1963"	"7.975"	"8.074"	"8.378"	"8.662"	"8.725"	"8.385"	"8.194"	"8.212"	"8.23"	"8.14"	"8.095"	"7.95"
"1964"	"7.883"	"8.235"	"8.58"	"8.886"	"8.858"	"8.367"	"8.003"	"8.133"	"7.991"	"7.989"	"7.855"	"7.822"
"1965"	"7.925"	"8.098"	"8.362"	"8.583"	"8.492"	"8.243"	"8.184"	"8.133"	"8.234"	"8.249"	"8.17"	"7.862"
"1966"	"8.102"	"8.378"	"8.552"	"8.725"	"8.758"	"8.234"	"8.115"	"8.264"	"8.152"	"8.1"	"8.07"	"7.971"
"1967"	"7.883"	"8.074"	"8.392"	"8.795"	"8.568"	"8.234"	"8.033"	"8.003"	"8.152"	"8.152"	"8.007"	"7.952"
"1968"	"7.98"	"8.032"	"8.378"	"8.55"	"8.607"	"8.163"	"7.841"	"8.091"	"8.07"	"8.209"	"8.016"	"7.88"
"1969"	"7.952"	"8.144"	"8.641"	"8.846"	"8.616"	"8.206"	"7.984"	"8.124"	"8.163"	"8.1"	"8.077"	"7.95"
"1970"	"8.023"	"8.158"	"8.462"	"8.607"	"8.598"	"8.267"	"8.045"	"8.003"	"8.121"	"8.019"	"8.119"	"7.72"
"1971"	"7.91"	"8.014"	"8.389"	"8.605"	"8.425"	"7.973"	"7.884"	"7.982"	"8.063"	"7.979"	"7.936"	"7.607"
"1972"	"7.683"	"7.968"	"8.329"	"8.744"	"8.304"	"8.39"	"8.066"	"8.221"	"8.304"	"8.037"	"8.049"	"8.123"
"1973"	"8.032"	"8.401"	"8.641"	"8.823"	"8.774"	"8.276"	"8.264"	"7.982"	"8.221"	"8.14"	"7.979"	"7.868"
"1974"	"7.757"	"7.998"	"8.499"	"8.641"	"8.504"	"8.352"	"8.091"	"7.942"	"8.068"	"8.11"	"8.089"	"8.083"
"1975"	"7.862"	"8.262"	"8.517"	"8.732"	"8.504"	"7.954"	"8.131"	"7.961"	"8"	"7.979"	"8.001"	"7.789"
"1976"	"7.82"	"7.925"	"8.42"	"8.555"	"8.744"	"8.457"	"8.136"	"8.133"	"8.23"	"8.119"	"7.986"	"8.041"
"1977"	"7.92"	"8.253"	"8.541"	"8.795"	"8.392"	"8.292"	"8.005"	"8.292"	"8.145"	"8.116"	"8.028"	"7.904"
"1978"	"7.962"	"8.198"	"8.541"	"8.835"	"8.43"	"8.194"	"8.024"	"7.952"	"8.161"	"8.14"	"8.035"	"8.044"
"1979"	"8.132"	"8.375"	"8.638"	"8.846"	"8.649"	"8.339"	"8.057"	"8.082"	"8.033"	"8.163"	"7.927"	"8.162"
"1980"	"8.044"	"8.274"	"8.583"	"8.71"	"8.773"	"8.062"	"7.841"	"8.005"	"8.206"	"8.082"	"8.186"	"8.123"
"1981"	"8.062"	"8.202"	"8.632"	"8.767"	"8.679"	"7.884"	"7.95"	"7.978"	"7.963"	"8.121"	"7.906"	"7.971"
"1982"	"7.989"	"8.232"	"8.552"	"8.966"	"8.637"	"8.383"	"8.203"	"8.221"	"8.404"	"8.41"	"8.347"	"7.971"
"1983"	"8.123"	"8.408"	"8.674"	"9.068"	"9.057"	"8.795"	"8.457"	"8.322"	"8.182"	"8.394"	"8.237"	"8.172"
"1984"	"8.162"	"8.232"	"8.438"	"8.592"	"8.904"	"8.184"	"8.131"	"8.237"	"8.212"	"8.098"	"8.256"	"8.023"
"1985"	"8.181"	"8.314"	"8.711"	"8.925"	"8.756"	"8.07"	"8.221"	"8.225"	"8.304"	"8.28"	"8.053"	"8.144"
"1986"	"8.162"	"8.253"	"8.651"	"8.953"	"8.856"	"8.446"	"8.352"	"8.061"	"8.212"	"8.422"	"8.186"	"8.354"
"1987"	"8.323"	"8.304"	"8.711"	"8.984"	"8.978"	"8.497"	"8.595"	"8.364"	"8.573"	"8.359"	"8.359"	"8.251"
"1988"	"8.232"	"8.545"	"8.765"	"8.735"	"8.989"	"8.492"	"8.304"	"8.313"	"8.252"	"8.494"	"8.198"	"8.086"
"1989"	"8.072"	"8.023"	"8.459"	"8.835"	"8.756"	"8.179"	"8.262"	"8.119"	"8.142"	"8.14"	"8.329"	"8.256"
"1990"	"7.962"	"8.408"	"8.714"	"9.059"	"8.762"	"8.422"	"8.173"	"8.173"	"8.427"	"8.443"	"8.228"	"8.329"
"1991"	"8.135"	"8.304"	"8.653"	"8.886"	"9.068"	"8.331"	"8.262"	"8.161"	"8.504"	"8.191"	"8.237"	"8.005"
"1992"	"7.913"	"8.195"	"8.52"	"8.947"	"8.756"	"8.473"	"8.112"	"8.091"	"8.212"	"8.11"	"8.086"	"7.843"
"1993"	"7.855"	"8.128"	"8.601"	"8.856"	"8.819"	"8.473"	"8.021"	"8.221"	"8.373"	"7.998"	"8.083"	"7.941"
"1994"	"8.074"	"8.283"	"8.499"	"8.674"	"8.837"	"8.355"	"8.206"	"8.234"	"8.434"	"7.998"	"8.267"	"8.216"
"1995"	"8.235"	"8.405"	"8.58"	"8.711"	"8.704"	"8.577"	"8.346"	"8.285"	"8.364"	"8.371"	"8.277"	"8.104"
"1996"	"8.151"	"8.262"	"8.629"	"8.72"	"8.947"	"8.455"	"8.264"	"8.212"	"8.212"	"8.271"	"8.246"	"8.016"
"1997"	"8.153"	"8.265"	"8.662"	"8.777"	"8.807"	"8.689"	"8.367"	"8.346"	"8.304"	"8.352"	"8.267"	"8.408"
"1998"	"8.447"	"8.598"	"8.883"	"9.15"	"8.867"	"8.658"	"8.357"	"8.355"	"8.212"	"8.2"	"8.237"	"8.072"
"1999"	"8.032"	"8.286"	"8.711"	"8.704"	"8.373"	"8.285"	"8.237"	"8.306"	"8.455"	"8.149"	"8.289"	"8.174"
"2000"	"8.253"	"8.387"	"8.672"	"8.786"	"9.001"	"8.376"	"8.469"	"8.133"	"8.304"	"8.262"	"8.35"	"8.174"
"2001"	"8.274"	"8.375"	"8.732"	"8.674"	"8.767"	"8.325"	"8.246"	"8.173"	"8.283"	"8.322"	"8.32"	"8.144"
"2002"	"8.223"	"8.265"	"8.619"	"8.795"	"8.746"	"8.589"	"8.509"	"8.234"	"8.434"	"8.24"	"8.177"	"8.153"
