
"Year"	"Jan"	"Feb"	"Mar"	"Apr"	"May"	"Jun"	"Jul"	"Aug"	"Sep"	"Oct"	"Nov"	"Dec"
"1901"	"18.272"	"19.158"	"19.567"	"20.249"	"20.113"	"19.158"	"19.158"	"19.022"	"18.817"	"18.749"	"17.931"	"17.59"
"1902"	"17.658"	"18.408"	"19.704"	"20.454"	"20.522"	"19.431"	"18.681"	"19.295"	"18.681"	"18.613"	"18.34"	"18.136"
"1903"	"18.408"	"18.817"	"19.772"	"20.317"	"19.976"	"19.431"	"18.545"	"18.817"	"18.34"	"18.408"	"17.863"	"17.181"
"1904"	"17.181"	"17.863"	"18.817"	"19.772"	"19.635"	"18.476"	"18.272"	"18.885"	"18.749"	"18.749"	"17.999"	"17.726"
"1905"	"17.658"	"18.408"	"19.431"	"19.84"	"19.84"	"19.158"	"19.09"	"18.954"	"19.022"	"18.681"	"18.476"	"17.454"
"1906"	"17.999"	"18.408"	"19.499"	"20.658"	"20.113"	"18.885"	"18.408"	"18.681"	"18.681"	"18.749"	"18.067"	"17.658"
"1907"	"17.522"	"18.408"	"19.363"	"19.499"	"19.976"	"19.022"	"18.613"	"18.136"	"18.681"	"18.749"	"18.204"	"17.658"
"1908"	"17.726"	"18.34"	"19.158"	"19.976"	"19.704"	"18.817"	"17.931"	"18.613"	"18.681"	"18.749"	"17.795"	"17.386"
"1909"	"17.249"	"18.204"	"19.431"	"19.772"	"19.772"	"18.885"	"18.204"	"18.545"	"18.613"	"18.749"	"17.931"	"17.658"
"1910"	"17.726"	"18.204"	"19.226"	"19.772"	"19.908"	"18.613"	"18.545"	"18.408"	"18.476"	"18.34"	"18.067"	"17.454"
"1911"	"17.59"	"17.795"	"19.295"	"20.181"	"19.772"	"18.681"	"18.34"	"18.817"	"19.09"	"18.681"	"18.476"	"17.863"
"1912"	"17.181"	"18.681"	"19.704"	"20.249"	"20.181"	"18.817"	"18.681"	"18.613"	"18.885"	"18.545"	"18.136"	"17.454"
"1913"	"17.522"	"18.476"	"19.363"	"20.317"	"20.385"	"19.022"	"18.545"	"18.885"	"18.954"	"18.681"	"18.34"	"18.067"
"1914"	"17.59"	"18.476"	"19.567"	"20.249"	"20.249"	"19.226"	"18.749"	"18.681"	"19.09"	"19.022"	"18.476"	"17.931"
"1915"	"17.931"	"18.545"	"19.158"	"20.045"	"20.113"	"19.635"	"18.817"	"18.885"	"18.954"	"18.885"	"18.136"	"17.658"
"1916"	"17.386"	"18.272"	"19.567"	"20.249"	"20.113"	"18.613"	"19.022"	"18.954"	"18.613"	"18.34"	"18.136"	"17.522"
"1917"	"17.726"	"18.408"	"19.022"	"20.045"	"19.84"	"18.681"	"19.226"	"18.817"	"18.476"	"18.272"	"17.931"	"17.386"
"1918"	"17.454"	"17.59"	"18.954"	"20.181"	"19.09"	"19.022"	"19.09"	"18.817"	"18.885"	"19.158"	"18.681"	"17.863"
"1919"	"18.136"	"18.613"	"19.158"	"20.454"	"19.976"	"18.885"	"18.476"	"18.613"	"18.817"	"18.885"	"17.795"	"17.931"
"1920"	"17.726"	"18.545"	"19.908"	"19.976"	"20.249"	"18.681"	"18.817"	"18.476"	"18.681"	"18.681"	"17.931"	"17.522"
"1921"	"17.931"	"18.204"	"19.772"	"19.704"	"20.181"	"19.022"	"18.476"	"18.476"	"18.613"	"18.749"	"18.204"	"17.454"
"1922"	"17.522"	"18.34"	"19.295"	"20.045"	"19.499"	"18.749"	"18.204"	"18.408"	"18.476"	"18.613"	"17.795"	"17.249"
"1923"	"17.454"	"17.999"	"19.022"	"20.249"	"20.113"	"18.954"	"18.272"	"18.34"	"18.613"	"18.681"	"18.408"	"18.067"
"1924"	"17.658"	"18.613"	"19.567"	"20.249"	"20.249"	"18.681"	"18.204"	"18.681"	"18.749"	"18.681"	"18.136"	"17.658"
"1925"	"17.59"	"18.408"	"19.022"	"19.976"	"19.635"	"18.817"	"18.613"	"18.613"	"19.022"	"18.885"	"18.136"	"17.386"
"1926"	"17.795"	"18.545"	"19.704"	"20.181"	"20.317"	"19.158"	"19.09"	"19.295"	"18.885"	"18.749"	"18.408"	"17.931"
"1927"	"17.999"	"18.749"	"19.704"	"20.249"	"19.567"	"18.681"	"18.136"	"18.885"	"18.749"	"18.613"	"18.204"	"18.067"
"1928"	"18.204"	"18.545"	"19.226"	"20.181"	"20.454"	"19.226"	"18.885"	"18.476"	"18.885"	"18.545"	"18.408"	"17.931"
"1929"	"17.658"	"18.476"	"19.363"	"19.567"	"20.181"	"18.681"	"18.817"	"18.817"	"18.885"	"18.749"	"18.476"	"18.136"
"1930"	"17.863"	"18.545"	"19.567"	"19.976"	"19.567"	"18.885"	"19.022"	"18.817"	"18.954"	"18.749"	"18.476"	"17.999"
"1931"	"18.204"	"18.681"	"19.567"	"19.976"	"20.317"	"19.295"	"18.817"	"18.476"	"18.613"	"18.545"	"18.476"	"18.136"
"1932"	"17.59"	"18.067"	"19.363"	"19.772"	"19.363"	"19.295"	"18.681"	"18.954"	"18.817"	"18.34"	"18.067"	"17.795"
"1933"	"18.067"	"18.613"	"19.431"	"19.908"	"19.431"	"18.954"	"18.749"	"18.545"	"18.408"	"18.34"	"18.136"	"17.863"
"1934"	"17.931"	"17.863"	"19.09"	"19.704"	"20.113"	"18.885"	"18.749"	"18.817"	"18.817"	"18.613"	"17.999"	"17.863"
"1935"	"17.999"	"18.545"	"19.431"	"19.908"	"20.385"	"19.022"	"18.545"	"18.476"	"18.613"	"18.613"	"18.136"	"17.931"
"1936"	"17.999"	"18.476"	"19.363"	"20.181"	"19.908"	"18.817"	"18.545"	"18.545"	"18.954"	"18.817"	"18.408"	"18.408"
"1937"	"18.136"	"18.817"	"19.567"	"19.772"	"20.181"	"18.749"	"18.067"	"18.749"	"18.954"	"18.613"	"18.408"	"17.59"
"1938"	"17.931"	"18.545"	"19.567"	"19.704"	"19.976"	"18.681"	"18.272"	"18.613"	"18.476"	"18.34"	"17.931"	"17.863"
"1939"	"17.658"	"18.476"	"19.09"	"19.567"	"19.772"	"18.613"	"18.545"	"18.545"	"18.613"	"18.545"	"17.999"	"17.863"
"1940"	"17.454"	"18.272"	"18.954"	"19.84"	"19.976"	"19.226"	"18.613"	"18.476"	"19.022"	"18.817"	"18.408"	"17.931"
"1941"	"18.272"	"18.681"	"19.772"	"20.385"	"20.454"	"19.022"	"19.022"	"19.022"	"18.817"	"18.954"	"18.749"	"17.863"
"1942"	"17.863"	"18.681"	"19.84"	"19.976"	"19.976"	"19.022"	"18.408"	"18.613"	"18.681"	"18.613"	"18.136"	"17.931"
"1943"	"17.658"	"18.272"	"19.295"	"19.431"	"19.431"	"18.34"	"18.204"	"18.545"	"18.204"	"18.136"	"17.795"	"17.931"
"1944"	"17.931"	"18.545"	"19.226"	"19.635"	"19.84"	"18.954"	"18.749"	"18.954"	"18.817"	"18.817"	"18.272"	"17.658"
"1945"	"17.726"	"18.613"	"19.567"	"19.635"	"20.181"	"19.295"	"18.476"	"18.749"	"18.749"	"18.545"	"18.136"	"17.658"
"1946"	"16.976"	"18.34"	"19.09"	"19.431"	"19.976"	"18.885"	"18.681"	"18.272"	"18.613"	"18.817"	"18.204"	"17.795"
"1947"	"18.204"	"18.408"	"19.363"	"19.431"	"20.317"	"19.022"	"18.817"	"18.613"	"18.408"	"18.408"	"18.34"	"18.136"
"1948"	"18.272"	"18.613"	"19.567"	"20.181"	"19.976"	"18.885"	"18.476"	"18.408"	"18.681"	"18.885"	"18.476"	"17.931"
"1949"	"17.795"	"18.34"	"19.772"	"19.976"	"19.772"	"19.022"	"18.613"	"18.885"	"18.681"	"18.613"	"18.272"	"17.726"
"1950"	"17.658"	"18.34"	"19.431"	"19.84"	"20.317"	"18.954"	"18.136"	"18.613"	"18.408"	"18.408"	"18.204"	"17.658"
"1951"	"18.067"	"18.34"	"19.567"	"19.635"	"20.249"	"18.545"	"18.476"	"18.954"	"18.954"	"19.158"	"18.613"	"17.795"
"1952"	"18.204"	"18.817"	"19.499"	"19.976"	"20.181"	"19.022"	"18.817"	"18.613"	"18.681"	"18.34"	"18.204"	"17.931"
"1953"	"17.999"	"18.272"	"19.976"	"19.635"	"20.317"	"19.704"	"18.545"	"18.954"	"18.749"	"18.885"	"18.408"	"17.999"
"1954"	"18.272"	"18.613"	"19.295"	"19.84"	"20.454"	"19.431"	"18.476"	"18.545"	"18.817"	"18.34"	"18.136"	"18.272"
"1955"	"18.681"	"18.885"	"19.431"	"19.772"	"19.363"	"18.476"	"18.545"	"18.817"	"18.954"	"18.476"	"17.863"	"17.795"
"1956"	"17.931"	"18.954"	"19.84"	"19.772"	"19.09"	"18.476"	"18.272"	"18.817"	"18.749"	"18.34"	"18.476"	"18.136"
"1957"	"18.204"	"18.885"	"19.499"	"20.045"	"19.84"	"19.431"	"18.817"	"18.885"	"19.09"	"18.817"	"18.136"	"18.408"
"1958"	"18.272"	"18.749"	"19.567"	"20.181"	"19.635"	"19.295"	"19.022"	"18.681"	"18.885"	"18.34"	"18.476"	"18.408"
"1959"	"18.408"	"18.954"	"20.113"	"20.181"	"20.317"	"19.022"	"18.681"	"19.022"	"18.885"	"18.613"	"18.749"	"18.136"
"1960"	"18.408"	"18.885"	"19.567"	"19.704"	"19.431"	"19.158"	"18.817"	"18.817"	"18.545"	"18.613"	"18.067"	"18.136"
"1961"	"18.34"	"18.681"	"19.704"	"20.181"	"19.635"	"18.817"	"18.749"	"18.749"	"18.681"	"18.613"	"18.476"	"18.34"
"1962"	"18.272"	"18.749"	"19.226"	"19.84"	"19.431"	"19.499"	"18.613"	"18.545"	"18.749"	"18.476"	"18.408"	"18.136"
"1963"	"18.476"	"18.34"	"19.363"	"20.045"	"20.317"	"19.226"	"18.749"	"18.749"	"19.022"	"18.749"	"18.681"	"18.136"
"1964"	"17.726"	"18.749"	"19.704"	"20.385"	"20.317"	"19.158"	"18.408"	"18.681"	"18.272"	"18.408"	"17.863"	"17.522"
"1965"	"17.522"	"18.136"	"19.022"	"19.704"	"19.772"	"19.022"	"18.749"	"18.613"	"18.817"	"19.158"	"18.476"	"17.658"
"1966"	"18.34"	"19.022"	"19.431"	"19.976"	"20.113"	"18.954"	"18.545"	"19.022"	"18.681"	"18.613"	"18.136"	"17.999"
"1967"	"17.59"	"18.34"	"18.954"	"20.181"	"19.567"	"19.022"	"18.34"	"18.272"	"18.681"	"18.681"	"18.272"	"17.999"
"1968"	"17.999"	"18.34"	"19.431"	"19.772"	"19.84"	"18.749"	"17.863"	"18.613"	"18.476"	"18.817"	"18.34"	"17.863"
"1969"	"17.863"	"18.681"	"19.772"	"20.181"	"19.84"	"18.749"	"18.272"	"18.613"	"18.476"	"18.613"	"18.408"	"18.136"
"1970"	"18.067"	"18.272"	"19.295"	"19.567"	"19.635"	"18.885"	"18.408"	"18.34"	"18.613"	"18.408"	"18.476"	"17.59"
"1971"	"17.999"	"18.272"	"19.09"	"19.772"	"19.295"	"18.272"	"17.863"	"18.204"	"18.34"	"18.272"	"17.999"	"17.249"
"1972"	"16.976"	"17.931"	"18.954"	"20.045"	"19.022"	"19.022"	"18.272"	"18.954"	"19.022"	"18.681"	"18.204"	"18.34"
"1973"	"18.204"	"18.681"	"19.772"	"20.385"	"20.522"	"19.158"	"19.022"	"18.204"	"18.817"	"18.681"	"17.999"	"17.999"
"1974"	"17.726"	"18.408"	"19.567"	"20.181"	"19.635"	"19.499"	"18.613"	"18.067"	"18.749"	"18.613"	"18.476"	"18.136"
"1975"	"17.658"	"18.817"	"19.772"	"20.181"	"19.567"	"18.067"	"18.885"	"18.34"	"18.34"	"18.136"	"18.476"	"17.658"
"1976"	"17.59"	"17.726"	"19.363"	"19.363"	"20.317"	"19.363"	"18.476"	"18.476"	"18.954"	"18.817"	"18.34"	"18.136"
"1977"	"17.999"	"18.817"	"19.567"	"20.181"	"19.499"	"19.226"	"18.34"	"19.226"	"18.476"	"18.817"	"18.204"	"17.726"
"1978"	"17.863"	"18.34"	"19.499"	"20.249"	"18.885"	"18.34"	"17.795"	"18.204"	"18.749"	"18.749"	"18.476"	"18.136"
"1979"	"18.545"	"19.09"	"19.976"	"20.317"	"19.772"	"18.817"	"18.204"	"18.613"	"18.408"	"18.545"	"17.863"	"18.476"
"1980"	"17.931"	"18.817"	"19.499"	"19.635"	"19.772"	"17.726"	"17.317"	"17.999"	"18.749"	"18.408"	"18.885"	"18.408"
"1981"	"18.204"	"18.885"	"19.704"	"19.908"	"19.84"	"17.999"	"17.726"	"17.999"	"18.067"	"18.545"	"17.999"	"18.067"
"1982"	"18.136"	"18.885"	"19.567"	"20.726"	"19.84"	"19.499"	"18.954"	"19.022"	"19.226"	"19.363"	"19.295"	"18.272"
"1983"	"18.272"	"19.158"	"19.908"	"20.794"	"21.204"	"20.522"	"19.363"	"19.09"	"18.749"	"19.158"	"18.817"	"18.476"
"1984"	"18.476"	"18.885"	"19.363"	"19.704"	"20.863"	"18.749"	"18.817"	"18.749"	"18.885"	"18.613"	"19.09"	"18.136"
"1985"	"18.613"	"19.09"	"20.181"	"20.59"	"20.317"	"18.749"	"19.09"	"18.749"	"19.09"	"19.022"	"18.749"	"18.476"
"1986"	"18.476"	"18.817"	"19.908"	"20.863"	"20.726"	"19.431"	"19.499"	"18.613"	"18.885"	"19.295"	"18.817"	"18.954"
"1987"	"18.817"	"18.885"	"19.976"	"20.931"	"20.863"	"19.499"	"20.113"	"19.09"	"19.772"	"19.499"	"19.158"	"18.885"
"1988"	"18.613"	"19.635"	"20.045"	"20.045"	"20.726"	"19.84"	"19.226"	"19.09"	"18.885"	"19.363"	"18.749"	"18.136"
"1989"	"18.204"	"18.204"	"19.363"	"20.249"	"20.317"	"19.022"	"19.158"	"19.022"	"18.476"	"18.817"	"19.022"	"18.34"
"1990"	"17.931"	"19.022"	"19.772"	"20.658"	"20.317"	"19.635"	"18.817"	"18.817"	"18.954"	"19.022"	"18.681"	"18.34"
"1991"	"18.272"	"18.954"	"19.772"	"20.454"	"21.135"	"19.295"	"19.158"	"18.681"	"19.363"	"18.613"	"18.817"	"18.067"
"1992"	"17.658"	"18.613"	"19.499"	"20.522"	"20.249"	"19.635"	"18.749"	"18.749"	"18.817"	"18.613"	"18.476"	"17.931"
"1993"	"17.386"	"18.136"	"19.567"	"20.385"	"20.249"	"19.704"	"18.613"	"19.09"	"19.226"	"18.681"	"18.681"	"18.136"
"1994"	"18.204"	"18.954"	"19.567"	"19.772"	"20.317"	"19.295"	"18.749"	"18.954"	"19.295"	"18.817"	"18.954"	"18.272"
"1995"	"18.476"	"19.295"	"19.567"	"20.249"	"19.976"	"19.908"	"19.226"	"19.022"	"19.09"	"19.363"	"18.954"	"18.136"
"1996"	"18.545"	"19.022"	"19.908"	"20.181"	"20.794"	"19.635"	"19.09"	"18.885"	"18.749"	"18.885"	"19.09"	"17.658"
"1997"	"18.408"	"18.885"	"19.704"	"19.84"	"20.249"	"19.976"	"19.09"	"19.022"	"18.954"	"19.158"	"19.09"	"19.022"
"1998"	"18.954"	"19.499"	"20.385"	"20.863"	"20.317"	"19.908"	"19.09"	"19.158"	"18.749"	"18.749"	"18.817"	"18.34"
"1999"	"18.272"	"18.817"	"19.976"	"19.84"	"19.158"	"19.022"	"18.817"	"19.022"	"19.363"	"18.749"	"18.954"	"18.408"
"2000"	"18.749"	"19.022"	"19.84"	"19.976"	"20.385"	"19.022"	"19.226"	"18.613"	"19.022"	"18.954"	"19.09"	"18.408"
"2001"	"18.817"	"19.363"	"20.045"	"19.976"	"19.976"	"19.158"	"18.954"	"18.749"	"19.022"	"18.954"	"19.022"	"18.476"
"2002"	"18.681"	"18.613"	"19.772"	"20.181"	"19.976"	"19.635"	"19.431"	"18.954"	"19.499"	"19.022"	"18.817"	"18.613"
