
"Year"	"Jan"	"Feb"	"Mar"	"Apr"	"May"	"Jun"	"Jul"	"Aug"	"Sep"	"Oct"	"Nov"	"Dec"
"1901"	"5.409"	"7.405"	"14.431"	"18.67"	"22.333"	"26.341"	"24.897"	"23.465"	"21.264"	"20.034"	"14.589"	"10.157"
"1902"	"9.843"	"11.221"	"15.096"	"19.129"	"23.134"	"24.635"	"23.367"	"23.149"	"21.673"	"17.846"	"13.464"	"10.18"
"1903"	"7.389"	"8.624"	"11.759"	"18.194"	"22.212"	"26.302"	"25.27"	"23.1"	"22.078"	"19.166"	"13.632"	"10.778"
"1904"	"6.795"	"11.026"	"13.496"	"20.295"	"22.701"	"25.094"	"23.298"	"22.894"	"21.417"	"18.561"	"12.793"	"9.801"
"1905"	"5.281"	"5.037"	"9.728"	"16.99"	"23.732"	"25.929"	"23.578"	"23.475"	"22.051"	"19.275"	"14"	"9.135"
"1906"	"6.498"	"6.534"	"11.891"	"19.414"	"24.481"	"25.067"	"24.151"	"22.496"	"21.765"	"18.85"	"14.964"	"11.192"
"1907"	"9.88"	"6.688"	"10.063"	"17.391"	"21.701"	"25.154"	"24.756"	"23.166"	"22.111"	"19.77"	"14.646"	"10.213"
"1908"	"8.844"	"9.434"	"13.796"	"20.014"	"23.075"	"26.73"	"23.969"	"22.812"	"22.108"	"18.878"	"12.63"	"8.911"
"1909"	"5.937"	"8.111"	"15.2"	"18.19"	"23.337"	"23.635"	"23.323"	"22.888"	"22.234"	"19.219"	"14.368"	"8.951"
"1910"	"8.097"	"8.994"	"13.732"	"18.601"	"23.368"	"24.828"	"22.999"	"23.093"	"22.198"	"18.476"	"12.431"	"8.871"
"1911"	"7.439"	"10.267"	"11.062"	"19.266"	"24.778"	"25.225"	"25.272"	"23.811"	"21.744"	"18.687"	"12.162"	"9.567"
"1912"	"7.739"	"10.866"	"13.502"	"18.609"	"22.92"	"26.007"	"24.2"	"23.13"	"21.526"	"19.172"	"12.133"	"9.568"
"1913"	"8.715"	"8.195"	"11.093"	"19.637"	"21.504"	"23.07"	"23.241"	"23.241"	"22.277"	"18.975"	"12.236"	"7.769"
"1914"	"9.577"	"8.402"	"12.633"	"18.136"	"22.504"	"25.041"	"23.787"	"22.907"	"21.865"	"16.691"	"12.964"	"8.862"
"1915"	"8.094"	"8.133"	"13.964"	"19.137"	"25.067"	"25.301"	"24.418"	"23.308"	"22.601"	"20.704"	"14.369"	"9.801"
"1916"	"8.253"	"8.338"	"16.543"	"20.083"	"22.943"	"23.743"	"23.274"	"23.32"	"22.033"	"18.766"	"13.249"	"8.918"
"1917"	"7.591"	"9.408"	"12.444"	"15.402"	"18.924"	"23.591"	"23.357"	"23.148"	"21.449"	"18.203"	"13.89"	"8.97"
"1918"	"6.992"	"9.876"	"13.16"	"16.956"	"24.67"	"23.987"	"23.788"	"23.346"	"22.015"	"18.816"	"12.704"	"7.694"
"1919"	"6.194"	"8.709"	"13.138"	"17.413"	"21.478"	"25.833"	"23.561"	"23.225"	"21.509"	"18.982"	"13.269"	"8.629"
"1920"	"9.805"	"7.445"	"12.243"	"18.478"	"19.609"	"24.046"	"23.628"	"22.835"	"21.657"	"19.553"	"14.105"	"11.529"
"1921"	"7.398"	"10.529"	"16.631"	"21.841"	"26.013"	"25.844"	"24.477"	"22.564"	"21.177"	"17.357"	"12.837"	"9.805"
"1922"	"6.196"	"10.82"	"15.135"	"18.611"	"23.553"	"24.073"	"23.533"	"22.599"	"21.72"	"18.048"	"13.226"	"7.903"
"1923"	"7.895"	"8.024"	"15.218"	"20.861"	"22.63"	"26.181"	"23.573"	"23.155"	"21.418"	"17.551"	"13.036"	"8.958"
"1924"	"6.567"	"9.285"	"15.465"	"20.111"	"19.678"	"27.274"	"24.27"	"22.896"	"21.028"	"19.503"	"13.227"	"10.468"
"1925"	"6.054"	"8.463"	"14.628"	"21.463"	"22.245"	"23.364"	"23.088"	"23.13"	"22.07"	"18.783"	"12.09"	"10.645"
"1926"	"7.901"	"10.344"	"11.636"	"16.096"	"20.728"	"26.474"	"24.664"	"23.349"	"22.161"	"18.979"	"11.196"	"9.561"
"1927"	"6.853"	"6.692"	"12.626"	"18.561"	"21.829"	"25.469"	"23.957"	"22.813"	"22.01"	"18.848"	"13.325"	"10.87"
"1928"	"7.02"	"9.864"	"13.957"	"18.728"	"25.998"	"25.067"	"24.209"	"23.535"	"22.33"	"19.581"	"12.931"	"9.287"
"1929"	"6.793"	"8.177"	"15.943"	"19.846"	"23.878"	"25.304"	"23.702"	"22.432"	"22.042"	"18.247"	"13.791"	"6.14"
"1930"	"6.319"	"8.9"	"14.638"	"18.366"	"22.504"	"24.001"	"23.314"	"22.767"	"22.123"	"17.912"	"12.656"	"10.286"
"1931"	"9.538"	"6.356"	"13.685"	"20.926"	"22.672"	"26.207"	"23.977"	"24.094"	"21.672"	"18.8"	"13.524"	"10.323"
"1932"	"10.125"	"8.341"	"14.861"	"19.869"	"21.997"	"26.905"	"24.258"	"22.821"	"21.934"	"19.139"	"14.444"	"9.726"
"1933"	"6.638"	"9.437"	"13.86"	"16.807"	"20.665"	"25.37"	"23.589"	"22.654"	"21.092"	"18.274"	"13.394"	"10.801"
"1934"	"4.952"	"12.4"	"13.388"	"19.897"	"21.977"	"25.075"	"23.803"	"22.696"	"23.029"	"19.236"	"13.577"	"8.676"
"1935"	"5.064"	"9.255"	"14.222"	"15.689"	"23.838"	"27.003"	"24.121"	"22.895"	"21.679"	"18.747"	"13.233"	"8.341"
"1936"	"6.541"	"8.476"	"13.727"	"18.873"	"24.774"	"23.494"	"23.658"	"23.163"	"21.683"	"18.842"	"13.689"	"7.743"
"1937"	"7.413"	"8.689"	"13.07"	"17.759"	"22.904"	"25.86"	"23.656"	"23.539"	"21.908"	"18.153"	"12.096"	"8.791"
"1938"	"6.997"	"7.601"	"14.811"	"20.395"	"25.173"	"24.298"	"24.266"	"23.236"	"21.396"	"19.649"	"11.698"	"11.444"
"1939"	"8.489"	"9.044"	"11.365"	"17.84"	"24.729"	"23.968"	"23.86"	"23.531"	"21.745"	"19.285"	"14.225"	"11.16"
"1940"	"8.273"	"8.654"	"11.399"	"17.661"	"23.543"	"24.946"	"24.132"	"22.832"	"21.2"	"19.277"	"14.1"	"8.645"
"1941"	"6.696"	"10.348"	"16.41"	"22.1"	"24.27"	"24.482"	"24.165"	"23.399"	"22.044"	"19.917"	"13.611"	"11.963"
"1942"	"6.718"	"9.373"	"16.29"	"20.575"	"23.135"	"26.572"	"23.623"	"22.418"	"21.52"	"19.443"	"14.388"	"9.229"
"1943"	"6.258"	"10.633"	"14.568"	"18.028"	"22.643"	"25.236"	"23.766"	"22.351"	"22.537"	"19.377"	"14.885"	"10.903"
"1944"	"5.789"	"7.583"	"12.72"	"18.655"	"24.766"	"24.64"	"24.219"	"23.157"	"21.739"	"19.342"	"13.662"	"10.381"
"1945"	"5.311"	"8.188"	"14.462"	"17.274"	"23.261"	"26.251"	"23.757"	"23.189"	"21.889"	"17.944"	"13.858"	"8.8"
"1946"	"10.113"	"12.13"	"13.497"	"21.172"	"22.905"	"24.929"	"24.111"	"23.714"	"22.5"	"18.475"	"13.489"	"8.936"
"1947"	"6.693"	"10.157"	"14.672"	"20.944"	"24.342"	"27.601"	"24.803"	"23.265"	"21.726"	"17.816"	"13.901"	"9.87"
"1948"	"8.337"	"7.522"	"12.573"	"21.915"	"24.97"	"26.104"	"23.974"	"22.496"	"21.739"	"18.37"	"12.321"	"8.439"
"1949"	"9.591"	"8.22"	"14.565"	"20.947"	"24.483"	"25.539"	"23.355"	"22.897"	"22.448"	"19.243"	"12.656"	"8.431"
"1950"	"7.965"	"8.162"	"12.542"	"18.273"	"23.089"	"25.536"	"23.934"	"22.832"	"20.437"	"17.973"	"13.493"	"8.85"
"1951"	"6.482"	"10.367"	"14.459"	"16.665"	"22.937"	"26.244"	"25.042"	"24.064"	"22.772"	"20.385"	"14.629"	"11.291"
"1952"	"8.893"	"11.641"	"12.721"	"21.272"	"23.909"	"25.136"	"23.969"	"23.324"	"22.351"	"18.281"	"14.459"	"10.356"
"1953"	"6.268"	"12.474"	"17.675"	"20.209"	"24.243"	"26.03"	"23.992"	"23.169"	"21.946"	"18.939"	"13.992"	"11.765"
"1954"	"6.318"	"9.729"	"15.347"	"20.837"	"23.589"	"25.142"	"23.933"	"23.362"	"22.388"	"17.242"	"12.943"	"8.364"
"1955"	"7.137"	"10.723"	"16.262"	"17.342"	"21.05"	"26.489"	"23.868"	"22.73"	"21.72"	"17.908"	"14.061"	"9.172"
"1956"	"7.189"	"11.434"	"14.037"	"20.706"	"25.74"	"25.158"	"23.201"	"22.631"	"22.146"	"17.939"	"13.062"	"8.464"
"1957"	"6.522"	"8.875"	"12.972"	"17.655"	"21.461"	"24.782"	"24.495"	"23.126"	"21.196"	"18.95"	"14.132"	"10.06"
"1958"	"9.346"	"10.327"	"15.012"	"21.801"	"22.85"	"26.481"	"23.783"	"23.343"	"22.13"	"19.308"	"14.663"	"11.323"
"1959"	"8.397"	"8.766"	"15.924"	"20.075"	"22.313"	"26.399"	"23.313"	"23.62"	"22.298"	"19.329"	"13.235"	"11.024"
"1960"	"7.359"	"14.329"	"13.063"	"18.206"	"23.953"	"26.414"	"24.3"	"23.597"	"22.536"	"19.108"	"13.026"	"12.21"
"1961"	"8.429"	"8.405"	"15.367"	"19.622"	"23.748"	"26.504"	"24.363"	"23.66"	"24.191"	"20.326"	"13.632"	"8.221"
"1962"	"7.65"	"10.896"	"14.305"	"20.78"	"22.938"	"25.603"	"24.645"	"23.702"	"22.092"	"19.269"	"14.443"	"8.796"
"1963"	"7.463"	"10.669"	"13.543"	"19.432"	"22.801"	"26.191"	"24.562"	"22.99"	"21.724"	"19.939"	"15.185"	"9.904"
"1964"	"7.652"	"9.338"	"14.732"	"20.107"	"21.605"	"24.98"	"22.863"	"23.592"	"22.727"	"19.477"	"13.889"	"10.811"
"1965"	"9.761"	"9.834"	"13.833"	"18.301"	"22.239"	"25.156"	"23.628"	"22.304"	"21.902"	"19.664"	"15.287"	"9.793"
"1966"	"7.398"	"10.805"	"13.924"	"19.11"	"22.913"	"25.068"	"24.004"	"23.203"	"21.472"	"17.917"	"12.497"	"9.133"
"1967"	"7.059"	"10.937"	"13.455"	"18.803"	"21.744"	"25.472"	"24.355"	"22.895"	"22.104"	"17.548"	"12.83"	"9.497"
"1968"	"6.239"	"7.311"	"14.168"	"19.527"	"22.507"	"26.032"	"23.688"	"22.642"	"22.803"	"17.513"	"13.461"	"10.099"
"1969"	"8.318"	"10.21"	"16.537"	"19.491"	"22.727"	"25.339"	"23.771"	"23.763"	"21.961"	"19.684"	"15.454"	"10.496"
"1970"	"8.522"	"9.302"	"14.465"	"20.567"	"24.837"	"25.017"	"24.661"	"23.193"	"23.026"	"19.969"	"13.466"	"10.443"
"1971"	"7.889"	"9.809"	"14.899"	"19.777"	"22.297"	"25.782"	"23.534"	"22.361"	"21.204"	"19.178"	"13.597"	"10.91"
"1972"	"9.088"	"7.612"	"15.531"	"18.607"	"23.677"	"26.239"	"23.618"	"22.407"	"20.734"	"17.156"	"13.925"	"10.399"
"1973"	"8.049"	"10.828"	"13.767"	"21.312"	"23.702"	"25.562"	"24.057"	"23.193"	"22.524"	"18.411"	"13.985"	"9.051"
"1974"	"7.925"	"8.103"	"15.663"	"21.306"	"23.112"	"24.246"	"23.184"	"22.914"	"21.564"	"19.232"	"13.289"	"8.408"
"1975"	"7.282"	"8.578"	"12.813"	"19.686"	"23.282"	"24.013"	"22.146"	"22.3"	"21.384"	"19.27"	"12.191"	"10.061"
"1976"	"8.391"	"9.009"	"13.734"	"18.539"	"22.978"	"23.999"	"23.93"	"22.259"	"21.304"	"18.733"	"14.225"	"9.937"
"1977"	"8.216"	"8.987"	"15.913"	"19.435"	"21.645"	"22.955"	"23.754"	"22.876"	"21.163"	"19.044"	"15.161"	"9.87"
"1978"	"7.67"	"8.853"	"11.642"	"18.897"	"24.919"	"26.109"	"23.555"	"22.815"	"21.261"	"18.877"	"12.338"	"10.615"
"1979"	"6.464"	"9.099"	"12.928"	"21.007"	"22.112"	"25.242"	"23.089"	"23.339"	"20.072"	"19.643"	"14.964"	"10.868"
"1980"	"8.124"	"9.911"	"13.79"	"21.166"	"24.146"	"25.013"	"23.26"	"22.896"	"21.134"	"18.583"	"13.359"	"9.202"
"1981"	"7.779"	"10.296"	"15.022"	"19.767"	"24.332"	"24.906"	"23.426"	"22.563"	"21.344"	"17.975"	"12.396"	"8.739"
"1982"	"9.087"	"8.574"	"12.597"	"18.187"	"21.022"	"24.375"	"23.674"	"22.695"	"20.836"	"18.182"	"13.692"	"10.035"
"1983"	"7.185"	"7.772"	"12.281"	"17.328"	"21.832"	"23.239"	"22.873"	"22.873"	"22.395"	"17.9"	"12.724"	"9.567"
"1984"	"7.147"	"8.098"	"16.157"	"19.804"	"25.412"	"26.557"	"22.794"	"23.16"	"20.603"	"18.242"	"13.288"	"10.607"
"1985"	"7.521"	"10.261"	"16.461"	"20.497"	"23.987"	"25.235"	"22.886"	"23.16"	"21.996"	"18.371"	"12.648"	"10.968"
"1986"	"6.596"	"9.34"	"13.832"	"19.205"	"21.471"	"24.545"	"22.79"	"22.664"	"21.199"	"17.912"	"14.594"	"8.261"
"1987"	"6.669"	"10.665"	"15.133"	"19.872"	"20.43"	"24.619"	"24.819"	"23.571"	"22.773"	"19.291"	"14.255"	"9.44"
"1988"	"9.655"	"11.002"	"14.169"	"21.038"	"24.547"	"24.659"	"23.588"	"22.452"	"21.734"	"18.052"	"13.886"	"10.173"
"1989"	"5.886"	"9.234"	"13.832"	"17.995"	"22.837"	"23.796"	"23.314"	"21.328"	"21.333"	"18.517"	"13.532"	"9.624"
"1990"	"10.516"	"10.388"	"12.597"	"18.738"	"24.285"	"26.339"	"23.02"	"22.625"	"21.682"	"17.876"	"13.569"	"10.032"
"1991"	"5.87"	"9.74"	"14.499"	"17.963"	"23.075"	"24.4"	"24.572"	"22.563"	"21.726"	"17.882"	"13.193"	"10.199"
"1992"	"9.049"	"8.532"	"14.053"	"19.316"	"22.169"	"24.554"	"22.563"	"22.662"	"21.162"	"18.733"	"13.828"	"10.858"
"1993"	"7.755"	"11.104"	"12.234"	"19.375"	"23.883"	"24.744"	"23.004"	"23.308"	"21.331"	"18.708"	"14.722"	"10.361"
"1994"	"9.041"	"9.368"	"16.124"	"17.705"	"23.871"	"26.199"	"24.347"	"23.052"	"21.397"	"18.399"	"14.057"	"10.176"
"1995"	"5.941"	"9.047"	"13.617"	"18.473"	"25.038"	"26.438"	"22.751"	"21.786"	"21.238"	"19.047"	"14.324"	"10.539"
"1996"	"8.352"	"10.996"	"15.471"	"20.227"	"22.544"	"24.078"	"22.424"	"20.58"	"21.56"	"18.216"	"13.365"	"8.851"
"1997"	"8.324"	"9.866"	"14.361"	"19.063"	"21.977"	"23.732"	"24.561"	"22.533"	"22.326"	"17.069"	"13.32"	"9.21"
"1998"	"4.789"	"10.637"	"12.729"	"19.839"	"24.175"	"25.971"	"23.993"	"23.092"	"22.598"	"19.568"	"14.214"	"11.209"
"1999"	"7.855"	"12.925"	"16.538"	"23.867"	"24.306"	"24.364"	"24.824"	"23.59"	"22.833"	"19.747"	"15.619"	"11.265"
"2000"	"9.358"	"8.565"	"13.896"	"21.578"	"24.839"	"24.199"	"23.884"	"23.196"	"22.672"	"20.611"	"15.986"	"11.799"
"2001"	"9.132"	"10.771"	"15.568"	"19.618"	"24.668"	"24.158"	"24.593"	"23.776"	"22.481"	"20.477"	"15.506"	"11.493"
"2002"	"9.188"	"10.388"	"15.925"	"20.521"	"25.176"	"25.604"	"24.844"	"23.662"	"20.344"	"19.944"	"15.285"	"10.309"
