
"Year"	"Jan"	"Feb"	"Mar"	"Apr"	"May"	"Jun"	"Jul"	"Aug"	"Sep"	"Oct"	"Nov"	"Dec"
"1901"	"72.893"	"52.611"	"8.794"	"13.686"	"8.078"	"69.211"	"242.735"	"302.411"	"208.112"	"15.54"	"2.218"	"0"
"1902"	"16.132"	"7.655"	"0.786"	"5.807"	"1.062"	"23.416"	"287.228"	"164.191"	"312.673"	"6.347"	"2.52"	"2.148"
"1903"	"6.365"	"8.11"	"3.161"	"1.669"	"22.286"	"90.112"	"194.97"	"219.19"	"166.43"	"104.185"	"0.14"	"0.002"
"1904"	"4.162"	"11.264"	"39.607"	"0.006"	"67.041"	"122.223"	"320.846"	"541.506"	"89.39"	"63.202"	"2.319"	"2.846"
"1905"	"14.284"	"23.875"	"37.311"	"10.064"	"7.621"	"34.1"	"351.816"	"324.197"	"409.115"	"5.492"	"0"	"2.826"
"1906"	"9.174"	"86.466"	"31.186"	"0.002"	"4.151"	"186.626"	"581.948"	"266.185"	"205.844"	"55.667"	"0.845"	"3.863"
"1907"	"0.2"	"101.936"	"27.521"	"51.461"	"5.746"	"413.306"	"206.608"	"365.684"	"109.078"	"0.609"	"2.019"	"3.695"
"1908"	"20.618"	"75.667"	"9.22"	"1.241"	"1.188"	"66.837"	"321.58"	"411.98"	"81.214"	"95.627"	"0"	"0.686"
"1909"	"2.941"	"8.333"	"0.631"	"50.69"	"7.906"	"263.326"	"473.811"	"218.297"	"143.987"	"0.704"	"0"	"9.585"
"1910"	"15.898"	"8.413"	"20.278"	"6.405"	"4.801"	"182.756"	"201.701"	"370.558"	"220.875"	"51.541"	"35.905"	"0"
"1911"	"14.138"	"0.323"	"31.638"	"0.325"	"5.612"	"539.915"	"70.115"	"311.674"	"252.876"	"95.361"	"54.401"	"0"
"1912"	"1.967"	"20.171"	"3.461"	"10.41"	"13.101"	"51.442"	"344.949"	"363.267"	"64.32"	"5.576"	"18.952"	"0.443"
"1913"	"0.2"	"87.414"	"43.408"	"0.346"	"26.991"	"336.485"	"300.058"	"394.208"	"122.164"	"65.487"	"4.459"	"17.985"
"1914"	"3.804"	"21.273"	"27.522"	"39.505"	"23.879"	"89.34"	"201.231"	"432.506"	"111.284"	"5.244"	"0"	"7.594"
"1915"	"12.521"	"63.417"	"20.938"	"3.711"	"8.875"	"55.271"	"273.228"	"267.304"	"251.263"	"61.4"	"36.473"	"0.354"
"1916"	"0.2"	"35.869"	"0.002"	"2.985"	"5.349"	"252.779"	"336.551"	"382.056"	"143.483"	"123.648"	"2.832"	"0"
"1917"	"3.466"	"59.042"	"8.103"	"4.848"	"40.369"	"159.473"	"314.677"	"562.604"	"130.445"	"198.069"	"0.002"	"1.343"
"1918"	"0.2"	"2.591"	"6.859"	"1.856"	"16.36"	"391.66"	"130.871"	"457.725"	"160.161"	"1.084"	"0.942"	"2.147"
"1919"	"77.627"	"27.127"	"22.353"	"13.272"	"26.898"	"279.79"	"346.996"	"538.245"	"173.306"	"119.135"	"7.033"	"1.312"
"1920"	"0.2"	"26.546"	"41.411"	"0.52"	"10.031"	"63.335"	"669.067"	"408.335"	"95.093"	"1.65"	"0"	"0"
"1921"	"69.765"	"22.857"	"0.002"	"1.991"	"0.002"	"351.172"	"371.875"	"517.784"	"115.069"	"2.084"	"0"	"0"
"1922"	"24.657"	"1.084"	"0.002"	"7.257"	"0.489"	"293.506"	"439.377"	"371.977"	"327.797"	"62.07"	"19.128"	"1.557"
"1923"	"0.413"	"74.219"	"5.367"	"3.669"	"0.444"	"121.405"	"484.895"	"609.566"	"228.515"	"12.66"	"7.945"	"0.248"
"1924"	"25.105"	"33.188"	"3.642"	"18.072"	"4.614"	"58.253"	"435.099"	"236.645"	"210.49"	"77.071"	"29.746"	"1.454"
"1925"	"2.612"	"6.71"	"5.501"	"0.396"	"14.4"	"158.154"	"335.564"	"552.877"	"129.957"	"8.854"	"20.911"	"0.005"
"1926"	"9.602"	"2.503"	"68.021"	"10.596"	"42.479"	"42.735"	"376.763"	"401.729"	"220.513"	"69.054"	"6.724"	"14.409"
"1927"	"12.871"	"58.657"	"50.701"	"0.075"	"6.278"	"64.578"	"441.439"	"437.907"	"113.041"	"54.569"	"27.345"	"0.922"
"1928"	"17.8"	"28.548"	"2.103"	"16.01"	"14.511"	"138.729"	"487.241"	"187.553"	"121.422"	"154.638"	"0"	"6.225"
"1929"	"47.019"	"17.709"	"3.174"	"3.759"	"5.933"	"106.344"	"458.993"	"363.146"	"115.438"	"203.072"	"0"	"26.469"
"1930"	"7.446"	"2.978"	"3.218"	"15.691"	"2.947"	"63.375"	"332.297"	"230.721"	"202.816"	"27.007"	"37.079"	"12.263"
"1931"	"2.335"	"87.905"	"21.545"	"1.591"	"4.201"	"58.185"	"496.144"	"446.943"	"186.708"	"99.889"	"19.147"	"4.1"
"1932"	"0.2"	"31.429"	"2.008"	"1.575"	"16.906"	"86.782"	"617.257"	"370.321"	"156.12"	"28.894"	"17.173"	"1.933"
"1933"	"24.2"	"41.06"	"6.391"	"38.95"	"25.371"	"197.614"	"237.837"	"427.677"	"144.82"	"90.622"	"0.545"	"0.944"
"1934"	"20.331"	"5.108"	"2.755"	"7.826"	"0.002"	"153.433"	"327.044"	"529.857"	"217.929"	"47.554"	"35.394"	"1.621"
"1935"	"6.688"	"9.388"	"2.386"	"19.042"	"0.481"	"138.887"	"429.571"	"574.703"	"197.614"	"1.783"	"0"	"0.441"
"1936"	"6.063"	"33.088"	"21.562"	"2.892"	"32.458"	"362.522"	"376.313"	"349.248"	"259.684"	"152.841"	"4.651"	"14.348"
"1937"	"0.2"	"68.673"	"10.527"	"33.523"	"8.497"	"99.889"	"486.404"	"332.684"	"192.828"	"130.656"	"0"	"0"
"1938"	"35.196"	"25.888"	"0.93"	"5.053"	"24.586"	"227.658"	"283.705"	"358.69"	"177.462"	"71.776"	"0.485"	"0"
"1939"	"17.627"	"20.549"	"20.627"	"8.965"	"0.004"	"218.349"	"495.495"	"348.996"	"201.584"	"41.569"	"0.346"	"0"
"1940"	"0.736"	"54.73"	"74.508"	"11.813"	"8.07"	"61.581"	"349.6"	"470.427"	"126.836"	"20.854"	"2.435"	"6.835"
"1941"	"34.29"	"15.547"	"14.491"	"0.896"	"11.404"	"263.133"	"262.857"	"413.315"	"165.147"	"46.084"	"2.901"	"0"
"1942"	"48.531"	"88.02"	"23.474"	"11.086"	"0.661"	"150.856"	"458.854"	"476.445"	"305.672"	"10.293"	"0.075"	"0.779"
"1943"	"25.815"	"12.669"	"1.555"	"31.772"	"20.681"	"79.353"	"456.218"	"662.442"	"224.963"	"71.38"	"0.562"	"0"
"1944"	"30.09"	"81.22"	"79.624"	"6.463"	"5.832"	"94.43"	"502.217"	"586.014"	"132.983"	"106.783"	"0.197"	"0.081"
"1945"	"37.87"	"32.656"	"0.002"	"6.656"	"15.336"	"249.892"	"328.024"	"160.367"	"259.92"	"108.217"	"0.588"	"4.176"
"1946"	"0.2"	"23.81"	"16.588"	"19.214"	"17.497"	"294.823"	"410.97"	"501.021"	"286.293"	"73.956"	"27.054"	"2.289"
"1947"	"28.339"	"18.388"	"27.342"	"1.888"	"2.657"	"111.803"	"377.136"	"272.754"	"325.003"	"62.619"	"0.609"	"5.337"
"1948"	"21.265"	"15.987"	"11.471"	"2.942"	"10.894"	"237.344"	"366.482"	"325.679"	"285.531"	"54.598"	"46.742"	"1.933"
"1949"	"1.432"	"28.158"	"12.537"	"5.295"	"33.506"	"85.616"	"316.475"	"569.068"	"161.089"	"164.352"	"0.001"	"0"
"1950"	"12.629"	"34.101"	"58.766"	"0.785"	"1.231"	"162.897"	"405.982"	"444.812"	"112.227"	"12.027"	"1.952"	"12.587"
"1951"	"9.919"	"6.238"	"50.79"	"26.658"	"6.28"	"128.508"	"244.241"	"312.436"	"202.652"	"75.248"	"0.072"	"0"
"1952"	"1.042"	"21.11"	"34.953"	"5.378"	"5.794"	"221.153"	"120.104"	"265.071"	"212.294"	"41.156"	"0"	"4.587"
"1953"	"43.088"	"1.989"	"0.002"	"8.985"	"0.899"	"108.044"	"395.323"	"432.639"	"230.644"	"11.028"	"0.11"	"0.295"
"1954"	"12.765"	"23.44"	"3.345"	"0.727"	"4.823"	"135.289"	"175.854"	"307.807"	"242.79"	"20.493"	"0"	"0.933"
"1955"	"26.679"	"14.331"	"3.656"	"1.839"	"0.922"	"60.223"	"311.796"	"225.395"	"127.649"	"121.157"	"0.741"	"0.031"
"1956"	"25.131"	"19.345"	"6.153"	"0.205"	"46.492"	"278.813"	"365.743"	"431.103"	"381.431"	"55.329"	"14.293"	"9.744"
"1957"	"36.906"	"1.946"	"21.421"	"10.718"	"2.15"	"104.658"	"505.18"	"280.817"	"148.956"	"5.706"	"0"	"0.607"
"1958"	"34.825"	"18.437"	"24.38"	"16.544"	"0.84"	"72.23"	"534.606"	"281.912"	"244.29"	"165.238"	"5.225"	"0.081"
"1959"	"58.937"	"6.942"	"0.002"	"4.474"	"19.457"	"87.191"	"363.329"	"308.22"	"173.248"	"152.009"	"0"	"0.173"
"1960"	"7.708"	"0.234"	"32.484"	"11.494"	"5.11"	"119.856"	"407.689"	"451.663"	"127.444"	"66.392"	"0"	"0"
"1961"	"41.691"	"58.045"	"2.34"	"1.369"	"6.644"	"226.366"	"306.049"	"421.12"	"235.078"	"100.133"	"1.535"	"13.116"
"1962"	"16.024"	"18.967"	"8.015"	"3.913"	"4.188"	"138.937"	"303.418"	"273.479"	"272.554"	"22.045"	"2.428"	"11.103"
"1963"	"13.599"	"10.529"	"31.845"	"6.331"	"37.083"	"122.785"	"326.144"	"429.743"	"186.383"	"72.233"	"7.114"	"0.081"
"1964"	"0.532"	"17.173"	"8.186"	"16.732"	"11.933"	"218.21"	"360.806"	"507.532"	"211.881"	"58.064"	"27.51"	"0"
"1965"	"6.115"	"0.242"	"14.227"	"29.889"	"5.387"	"66.824"	"342.667"	"171.71"	"181.673"	"32.068"	"0"	"4.957"
"1966"	"47.203"	"3.808"	"2.194"	"1.77"	"7.799"	"252.514"	"112.896"	"180.035"	"58.332"	"3.167"	"10.579"	"25.93"
"1967"	"29.652"	"0.234"	"47.348"	"6.723"	"8.012"	"141.525"	"324.122"	"539.748"	"228.408"	"11.692"	"0"	"22.098"
"1968"	"31.75"	"13.295"	"4.195"	"5.124"	"0.492"	"99.919"	"255.395"	"353.222"	"102.273"	"28.566"	"0.315"	"4.127"
"1969"	"2.793"	"5.275"	"1.351"	"7.711"	"26.878"	"104.999"	"513.131"	"363.002"	"201.69"	"4.874"	"17.757"	"2.759"
"1970"	"23.445"	"32.847"	"16.211"	"0.831"	"17.999"	"254.577"	"340.183"	"324.475"	"352.804"	"37.773"	"0"	"0"
"1971"	"28.494"	"6.434"	"4.495"	"25.643"	"40.937"	"468.552"	"490.397"	"560.644"	"114.492"	"109.457"	"0"	"0"
"1972"	"16.549"	"84.621"	"0.922"	"28.458"	"0.315"	"56.538"	"307.33"	"424.457"	"92.704"	"153.09"	"26.906"	"2.057"
"1973"	"24.746"	"1.939"	"1.096"	"1.963"	"0.863"	"139.156"	"232.473"	"360.427"	"216.83"	"156.303"	"1.507"	"0.01"
"1974"	"2.866"	"7.276"	"0.564"	"0.368"	"8.046"	"68.593"	"526.232"	"257.224"	"101.031"	"120.385"	"4.887"	"0"
"1975"	"26.329"	"18.879"	"30.386"	"0.755"	"6.995"	"125.643"	"550.443"	"146.339"	"155.518"	"75.318"	"4.791"	"0"
"1976"	"19.82"	"7.208"	"1.716"	"32.629"	"6.367"	"58.053"	"387.635"	"247.929"	"449.102"	"0.542"	"5.575"	"0.138"
"1977"	"13.167"	"7.107"	"1.309"	"39.043"	"70.779"	"197.574"	"535.053"	"350.991"	"250.455"	"53.149"	"45.798"	"12.689"
"1978"	"20.107"	"101.026"	"38.138"	"48.38"	"3.735"	"407.414"	"239.066"	"364.359"	"354.804"	"50.994"	"1.543"	"31.345"
"1979"	"21.015"	"21.149"	"0.002"	"13.182"	"1.002"	"159.498"	"366.774"	"212.981"	"127.213"	"17.142"	"29.025"	"8.229"
"1980"	"33.801"	"18.301"	"14.724"	"0.978"	"6.854"	"309.562"	"367.534"	"339.759"	"63.925"	"20.647"	"0"	"4.202"
"1981"	"25.108"	"10.934"	"36.752"	"7.78"	"17.634"	"55.885"	"429.932"	"189.431"	"186.35"	"1.979"	"11.734"	"7.964"
"1982"	"49.721"	"23.199"	"57.032"	"13.998"	"26.385"	"140.494"	"253.092"	"443.369"	"322.271"	"4.895"	"25.048"	"5.169"
"1983"	"5.227"	"19.804"	"10.647"	"21.909"	"33.566"	"156.223"	"308.611"	"236.784"	"127.209"	"83.039"	"0.247"	"2.944"
"1984"	"45.842"	"41.24"	"0.319"	"19.205"	"2.688"	"346.991"	"322.362"	"296.876"	"150.751"	"46.236"	"0"	"0"
"1985"	"21.654"	"4.115"	"0.105"	"5.422"	"4.872"	"115.449"	"449.043"	"362.091"	"125.74"	"126.853"	"0"	"0.226"
"1986"	"29.105"	"54.092"	"1.687"	"8.45"	"15.21"	"164.155"	"351.12"	"393.962"	"136.753"	"2.537"	"8.2"	"16.761"
"1987"	"13.354"	"18.777"	"11.166"	"0.906"	"9.635"	"42.781"	"288.836"	"495.621"	"462.363"	"60.378"	"22.044"	"4.065"
"1988"	"9.904"	"23.012"	"35.35"	"9.766"	"17.044"	"260.657"	"270.9"	"208.6"	"141.664"	"37.675"	"2.072"	"2.708"
"1989"	"3.701"	"0.234"	"14.668"	"0.103"	"24.675"	"244.822"	"273.558"	"305.82"	"130.954"	"54.87"	"11.334"	"37.992"
"1990"	"0.2"	"63.736"	"17.285"	"3.067"	"26.722"	"385.678"	"600.966"	"320.678"	"181.107"	"70.713"	"0.282"	"1.659"
"1991"	"28.483"	"13.027"	"37.492"	"13.251"	"7.398"	"237.897"	"239.709"	"547.424"	"150.049"	"17.55"	"2.441"	"35.555"
"1992"	"31.72"	"6.9"	"0.005"	"5.175"	"2.887"	"54.097"	"152.389"	"144.199"	"106.643"	"85.245"	"1.535"	"0"
"1993"	"9.541"	"4.161"	"16.245"	"0.393"	"18.956"	"43.399"	"213.877"	"190.691"	"240.403"	"81.816"	"0.011"	"0"
"1994"	"66.804"	"24.209"	"29.802"	"14.921"	"4.445"	"380.37"	"402.033"	"365.401"	"64.136"	"133.963"	"0.175"	"0"
"1995"	"19.971"	"15.312"	"33.612"	"2.881"	"10.151"	"54.531"	"283.458"	"252.101"	"204.642"	"15.539"	"6.599"	"1.757"
"1996"	"34.106"	"17.112"	"1.596"	"2.794"	"1.985"	"283.035"	"309.521"	"365.812"	"117.334"	"142.736"	"2.172"	"0"
"1997"	"30.439"	"0.234"	"1.937"	"5.56"	"34.229"	"31.389"	"224.733"	"386.536"	"100.708"	"33.561"	"34.107"	"25.242"
"1998"	"17.292"	"25.643"	"11.081"	"8.951"	"38.799"	"36.894"	"210.502"	"276.636"	"156.369"	"157.546"	"30.525"	"0"
"1999"	"32.131"	"19.819"	"0.002"	"0.002"	"18.646"	"112.21"	"327.658"	"306.74"	"125.823"	"36.676"	"0.002"	"0.006"
"2000"	"10.392"	"27.612"	"0.002"	"10.559"	"8.349"	"188.301"	"166.248"	"122.087"	"218.563"	"4.219"	"0"	"0"
"2001"	"2.455"	"0.376"	"35.811"	"11.767"	"7.34"	"56.469"	"249.768"	"329.434"	"45.249"	"95.652"	"1.341"	"0"
"2002"	"45.291"	"15.244"	"5.449"	"5.733"	"7.299"	"71.027"	"154.841"	"337.836"	"145.284"	"102.636"	"15.997"	"0.382"
