
"Year"	"Jan"	"Feb"	"Mar"	"Apr"	"May"	"Jun"	"Jul"	"Aug"	"Sep"	"Oct"	"Nov"	"Dec"
"1901"	"12.606"	"14.527"	"21.46"	"26.797"	"31.156"	"35.01"	"32.21"	"30.974"	"30.172"	"27.461"	"20.82"	"15.406"
"1902"	"15.085"	"17.446"	"23.161"	"27.871"	"31.859"	"32.976"	"31.366"	"31.594"	"29.442"	"25.686"	"20.08"	"14.439"
"1903"	"13.577"	"15.406"	"19.658"	"26.214"	"31.313"	"35.249"	"33.072"	"30.645"	"30.365"	"26.365"	"19.857"	"14.731"
"1904"	"13.067"	"16.709"	"20.537"	"28.244"	"31.436"	"34.149"	"31.302"	"30.416"	"29.397"	"26.057"	"19.327"	"15.153"
"1905"	"11.692"	"11.618"	"17.451"	"24.556"	"32.811"	"34.65"	"32.281"	"31.953"	"30.702"	"26.714"	"20.893"	"15.086"
"1906"	"12.505"	"13.845"	"19.212"	"27.128"	"33.915"	"33.21"	"32.34"	"29.633"	"29.132"	"26.643"	"21.313"	"16.229"
"1907"	"15.453"	"13.531"	"17.612"	"24.363"	"30.048"	"33.27"	"32.915"	"30.085"	"30.958"	"27.196"	"20.587"	"14.61"
"1908"	"14.092"	"16.486"	"21.422"	"28.406"	"31.932"	"35.073"	"30.851"	"28.63"	"29.444"	"26.083"	"19.255"	"14.715"
"1909"	"12.774"	"14.865"	"21.829"	"25.942"	"32.028"	"32.077"	"29.933"	"29.49"	"29.165"	"26.678"	"20.977"	"14.629"
"1910"	"13.691"	"15.82"	"21.415"	"26.535"	"32.335"	"32.99"	"30.198"	"29.498"	"29.568"	"25.272"	"19.148"	"14.5"
"1911"	"14.431"	"16.5"	"18.824"	"27.017"	"33.325"	"33.147"	"33.32"	"31.937"	"29.699"	"26.396"	"17.929"	"14.486"
"1912"	"13.939"	"17.162"	"20.982"	"26.863"	"32.191"	"34.754"	"31.394"	"29.601"	"28.562"	"26.247"	"18.839"	"14.497"
"1913"	"14.517"	"15.12"	"18.545"	"28.389"	"30.152"	"31.134"	"30.381"	"30.514"	"30.165"	"26.525"	"19.272"	"13.958"
"1914"	"15.441"	"14.938"	"20.186"	"26.556"	"31.589"	"32.764"	"30.348"	"30.368"	"29.202"	"24.093"	"19.941"	"14.271"
"1915"	"13.904"	"14.499"	"21.309"	"27.648"	"34.396"	"33.718"	"33.067"	"31.394"	"30.341"	"27.411"	"20.612"	"15.282"
"1916"	"14.627"	"15.492"	"24.373"	"29.088"	"32.049"	"32.839"	"30.381"	"29.538"	"29.169"	"26.073"	"19.063"	"14.214"
"1917"	"13.827"	"16.549"	"20.913"	"24.137"	"27.738"	"32.242"	"30.021"	"29.32"	"27.604"	"24.608"	"18.533"	"14.624"
"1918"	"13.293"	"16.657"	"20.982"	"25.019"	"33.817"	"32.786"	"33.367"	"31.386"	"30.193"	"26.514"	"19.663"	"14.064"
"1919"	"13.495"	"15.233"	"21.589"	"26.278"	"30.98"	"35.453"	"30.748"	"29.798"	"29.484"	"26.024"	"19.341"	"13.981"
"1920"	"14.369"	"14.739"	"20.498"	"27.026"	"28.571"	"32.638"	"30.899"	"30.704"	"30.535"	"27.101"	"21.088"	"16.166"
"1921"	"14.278"	"17.187"	"24.575"	"30.66"	"35.306"	"34.409"	"32.503"	"29.809"	"29.197"	"25.04"	"19.834"	"16.047"
"1922"	"12.898"	"17.016"	"23.088"	"28.025"	"32.922"	"33.066"	"31.295"	"30.076"	"28.637"	"25.101"	"19.448"	"14.176"
"1923"	"13.729"	"14.557"	"21.994"	"28.663"	"31.541"	"35.423"	"30.892"	"29.028"	"29.459"	"25.14"	"19.618"	"14.856"
"1924"	"13.022"	"15.758"	"22.526"	"28.369"	"28.896"	"35.735"	"31.94"	"29.997"	"27.951"	"25.626"	"19.516"	"15.358"
"1925"	"11.972"	"14.53"	"22.223"	"29.575"	"32.181"	"31.312"	"29.559"	"29.828"	"29.918"	"25.725"	"18.298"	"14.667"
"1926"	"14.156"	"17.113"	"19.636"	"24.056"	"29.273"	"35.077"	"31.662"	"29.239"	"28.967"	"25.386"	"17.8"	"14.707"
"1927"	"12.878"	"13.727"	"20.204"	"26.414"	"30.452"	"33.73"	"30.471"	"29.135"	"29.286"	"25.802"	"19.593"	"15.716"
"1928"	"12.792"	"16.363"	"21.235"	"27.107"	"33.717"	"33.586"	"31.618"	"31.345"	"30.021"	"26.836"	"19.989"	"14.396"
"1929"	"13.539"	"14.962"	"23.592"	"28.335"	"33.152"	"33.669"	"31.035"	"29.491"	"30.304"	"25.787"	"20.047"	"12.963"
"1930"	"12.385"	"15.543"	"22.038"	"26.748"	"31.94"	"32.54"	"29.636"	"30.194"	"28.662"	"25.628"	"19.08"	"14.777"
"1931"	"14.942"	"13.575"	"20.467"	"28.637"	"31.796"	"34.428"	"31.251"	"30.405"	"28.913"	"25.748"	"19.284"	"15.366"
"1932"	"15.6"	"15.271"	"22.317"	"27.707"	"30.649"	"35.382"	"31.202"	"29.257"	"29.243"	"26.043"	"19.621"	"14.657"
"1933"	"11.94"	"16.301"	"21.056"	"25.213"	"29.264"	"33.328"	"30.139"	"28.498"	"27.928"	"25.088"	"19.314"	"15.732"
"1934"	"11.667"	"17.925"	"20.309"	"27.328"	"30.936"	"33.038"	"30.884"	"29.082"	"30.31"	"25.629"	"19.537"	"15.213"
"1935"	"11.864"	"16.275"	"21.204"	"23.876"	"32.374"	"35.166"	"30.793"	"29.403"	"29.15"	"25.624"	"19.957"	"14.405"
"1936"	"12.464"	"15.94"	"20.645"	"26.921"	"33.992"	"31.396"	"30.287"	"29.65"	"28.864"	"25.797"	"19.641"	"14.309"
"1937"	"13.032"	"15.807"	"19.82"	"25.687"	"31.653"	"33.949"	"30.415"	"31.241"	"29.504"	"24.997"	"19.089"	"13.807"
"1938"	"13.137"	"14.442"	"22.434"	"28.445"	"34.133"	"32.402"	"31.792"	"30.757"	"30.787"	"26.957"	"18.413"	"15.372"
"1939"	"14.585"	"16.015"	"18.733"	"25.869"	"33.556"	"32.13"	"31.032"	"31.062"	"29.921"	"27.025"	"19.854"	"15.749"
"1940"	"14.012"	"15.428"	"19.515"	"25.964"	"32.718"	"33.799"	"31.259"	"29.202"	"29.081"	"26.071"	"20.519"	"14.569"
"1941"	"12.906"	"16.985"	"23.727"	"30.428"	"33.548"	"32.167"	"32.278"	"30.375"	"29.703"	"27.978"	"20.109"	"16.524"
"1942"	"12.586"	"16.57"	"23.14"	"28.977"	"32.578"	"34.641"	"29.989"	"28.554"	"28.143"	"25.955"	"20.804"	"14.133"
"1943"	"13.213"	"16.56"	"21.934"	"26.173"	"31.713"	"33.572"	"30.496"	"29.047"	"29.95"	"26.088"	"20.806"	"16.247"
"1944"	"12.659"	"15.064"	"20.014"	"26.493"	"33.474"	"33.412"	"30.388"	"30.02"	"29.119"	"25.854"	"20.228"	"15.714"
"1945"	"11.658"	"15.169"	"22.021"	"25.686"	"30.953"	"33.832"	"30.658"	"29.987"	"28.531"	"25.216"	"19.913"	"13.936"
"1946"	"15.089"	"18.638"	"20.812"	"29.334"	"32.121"	"33.252"	"30.538"	"29.979"	"30.019"	"26.13"	"19.776"	"14.178"
"1947"	"13.019"	"16.625"	"22.224"	"29.467"	"33.254"	"36.385"	"32.411"	"30.866"	"28.456"	"24.96"	"20.646"	"15.133"
"1948"	"14.048"	"15.296"	"20.248"	"30.168"	"33.104"	"34.864"	"31.158"	"29.065"	"29.428"	"26.454"	"18.668"	"14.391"
"1949"	"15.825"	"16.044"	"22.218"	"29.436"	"33.925"	"34.263"	"30.304"	"30.34"	"30.616"	"26.12"	"18.715"	"14.109"
"1950"	"14.941"	"14.52"	"20.326"	"27.189"	"33.43"	"34.558"	"31.096"	"29.768"	"28.096"	"25.141"	"19.496"	"13.324"
"1951"	"13.03"	"16.44"	"21.856"	"25.322"	"31.816"	"34.141"	"32.924"	"30.706"	"30.379"	"28.175"	"21.278"	"16.002"
"1952"	"15.142"	"18.497"	"21.539"	"30.144"	"32.962"	"33.211"	"31.237"	"29.473"	"30.714"	"26.482"	"20.438"	"15.509"
"1953"	"13.243"	"18.886"	"25.492"	"28.869"	"33.552"	"34.385"	"30.73"	"30.038"	"29.81"	"26.442"	"20.195"	"17.652"
"1954"	"13.03"	"17.057"	"22.07"	"28.872"	"33.613"	"34.452"	"31.416"	"31.25"	"30.032"	"24.02"	"19.741"	"14.949"
"1955"	"13.656"	"17.226"	"23.99"	"25.996"	"30.329"	"35.056"	"31.834"	"29.591"	"28.867"	"24.67"	"19.783"	"15.099"
"1956"	"14.011"	"17.606"	"21.981"	"29.053"	"34.765"	"33.742"	"30.311"	"29.517"	"30.453"	"24.852"	"19.116"	"14.935"
"1957"	"13.134"	"15.333"	"20.826"	"26.285"	"30.816"	"33.484"	"31.658"	"30.14"	"28.233"	"26.028"	"20.368"	"15.27"
"1958"	"15.523"	"16.355"	"23.033"	"30.485"	"32.303"	"35.029"	"30.582"	"30.031"	"29.101"	"26.171"	"20.975"	"16.027"
"1959"	"13.993"	"15.585"	"22.867"	"28.333"	"31.672"	"34.734"	"31.019"	"30.215"	"29.41"	"25.991"	"19.885"	"15.957"
"1960"	"13.369"	"19.979"	"20.902"	"27.074"	"33.473"	"35.14"	"31.537"	"30.19"	"30.066"	"25.901"	"19.221"	"15.811"
"1961"	"14.552"	"14.58"	"22.655"	"27.682"	"32.668"	"34.148"	"31.249"	"29.871"	"30.175"	"25.399"	"18.164"	"12.932"
"1962"	"12.575"	"16.819"	"21.464"	"28.982"	"32.701"	"34.01"	"32"	"30.447"	"28.003"	"27.601"	"19.483"	"14.298"
"1963"	"13.391"	"18.165"	"21.566"	"27.204"	"30.845"	"33.816"	"31.631"	"28.943"	"28.526"	"26.371"	"20.11"	"14.635"
"1964"	"12.341"	"15.681"	"21.945"	"27.804"	"30.003"	"34.657"	"29.584"	"30.185"	"28.762"	"25.817"	"18.94"	"14.635"
"1965"	"15.506"	"16.147"	"21.268"	"25.787"	"31.284"	"35.195"	"30.786"	"29.583"	"29.376"	"25.855"	"20.195"	"13.591"
"1966"	"13.819"	"17.85"	"21.654"	"28.451"	"32.992"	"33.557"	"31.976"	"30.085"	"29.21"	"25.717"	"19.455"	"14.557"
"1967"	"13.195"	"18.667"	"21.064"	"27.246"	"31.815"	"34.726"	"31.032"	"29.369"	"29.342"	"25.059"	"19.09"	"14.802"
"1968"	"12.809"	"14.845"	"21.859"	"27.889"	"32.419"	"34.076"	"30.682"	"29.953"	"30.851"	"24.989"	"20.011"	"15.439"
"1969"	"13.97"	"17.46"	"24.704"	"28.195"	"31.103"	"34.733"	"31.212"	"30.7"	"29.152"	"26.835"	"21.074"	"15.754"
"1970"	"14.184"	"16.38"	"21.93"	"29.343"	"33.622"	"32.038"	"32.12"	"29.85"	"29.669"	"26.725"	"19.744"	"15.583"
"1971"	"13.449"	"17.073"	"21.885"	"28.67"	"30.547"	"32.079"	"30.332"	"28.479"	"28.669"	"26.102"	"19.96"	"16.127"
"1972"	"14.614"	"14.662"	"22.981"	"26.947"	"33.459"	"35.098"	"32.12"	"29.801"	"28.66"	"25.641"	"20.557"	"15.361"
"1973"	"14.39"	"18.292"	"21.348"	"29.78"	"32.508"	"33.417"	"30.156"	"28.939"	"28.959"	"24.856"	"19.487"	"13.521"
"1974"	"13.307"	"14.707"	"22.563"	"29.535"	"31.834"	"32.383"	"29.927"	"29.769"	"29.419"	"25.427"	"19.613"	"13.656"
"1975"	"13.662"	"15.908"	"21.143"	"29.182"	"33.449"	"33.262"	"30.261"	"29.703"	"27.885"	"27.24"	"19.121"	"15.747"
"1976"	"14.255"	"16.378"	"21.479"	"27.018"	"31.88"	"31.626"	"30.915"	"28.299"	"28.565"	"26.195"	"20.405"	"14.669"
"1977"	"13.573"	"15.758"	"22.131"	"26.865"	"29.099"	"30.981"	"29.777"	"29.264"	"27.965"	"26.028"	"21.366"	"15.648"
"1978"	"12.386"	"14.889"	"19.802"	"26.629"	"33.45"	"32.433"	"29.315"	"28.927"	"28.043"	"25.854"	"20.6"	"15.509"
"1979"	"14.491"	"15.211"	"20.053"	"29.168"	"31.351"	"33.829"	"30.235"	"30.954"	"28.651"	"26.819"	"21.435"	"16.653"
"1980"	"14.333"	"17.067"	"21.051"	"30.151"	"33.937"	"32.63"	"29.794"	"30.1"	"28.488"	"26.349"	"19.507"	"14.949"
"1981"	"13.535"	"16.865"	"21.102"	"28.05"	"32.061"	"33.745"	"29.747"	"29.768"	"29.541"	"25.345"	"19.544"	"15.02"
"1982"	"14.814"	"15.391"	"19.047"	"25.504"	"28.784"	"33.609"	"31.876"	"29.455"	"29.929"	"25.944"	"20.324"	"16.002"
"1983"	"12.98"	"15.395"	"20.728"	"25.07"	"29.841"	"32.695"	"31.155"	"29.442"	"29.531"	"24.905"	"19.167"	"15.152"
"1984"	"12.47"	"14.514"	"23.045"	"28.042"	"34.871"	"33.591"	"30.062"	"29.778"	"28.061"	"25.125"	"19.495"	"15.381"
"1985"	"13.825"	"17.012"	"23.63"	"28.456"	"33.276"	"33.895"	"29.758"	"29.587"	"28.877"	"24.718"	"19.986"	"16.466"
"1986"	"13.501"	"15.81"	"21.203"	"27.614"	"29.888"	"33.143"	"29.861"	"30.031"	"28.836"	"24.73"	"20.868"	"14.181"
"1987"	"14.481"	"17.821"	"22.23"	"28.532"	"28.729"	"34.259"	"33.907"	"31.381"	"31.134"	"27.328"	"20.75"	"15.958"
"1988"	"15.532"	"17.621"	"21.733"	"29.664"	"33.982"	"32.892"	"29.853"	"28.944"	"29.03"	"25.715"	"20.483"	"15.89"
"1989"	"12.977"	"15.793"	"21.153"	"26.359"	"31.959"	"32.062"	"31.266"	"28.238"	"28.815"	"26.055"	"20.022"	"14.897"
"1990"	"15.862"	"16.419"	"19.951"	"27.385"	"31.457"	"34.331"	"29.525"	"29.382"	"28.087"	"24.517"	"20.48"	"15.345"
"1991"	"13.398"	"16.893"	"21.333"	"26.022"	"32.279"	"32.095"	"32.22"	"29.354"	"28.882"	"24.929"	"19.128"	"15.347"
"1992"	"14.315"	"15.356"	"21.362"	"27.563"	"31.124"	"33.895"	"29.938"	"29.061"	"28.477"	"25.236"	"20.051"	"16.251"
"1993"	"13.834"	"18.088"	"19.969"	"27.378"	"33.382"	"33.484"	"30.573"	"31"	"27.812"	"25.152"	"20.681"	"15.368"
"1994"	"14.354"	"16.542"	"23.202"	"26.291"	"32.807"	"34.224"	"29.84"	"29.335"	"28.377"	"24.854"	"20.241"	"16.245"
"1995"	"13.711"	"16.509"	"20.441"	"26.715"	"33.794"	"35.184"	"30.95"	"28.104"	"28.936"	"26.351"	"20.497"	"16.117"
"1996"	"14.076"	"17.072"	"22.488"	"28.357"	"31.783"	"32.02"	"30.86"	"28.551"	"28.407"	"25.355"	"19.453"	"14.49"
"1997"	"13.505"	"16.332"	"21.299"	"26.56"	"30.145"	"31.544"	"31.318"	"29.287"	"29.46"	"23.543"	"19.415"	"13.284"
"1998"	"11.825"	"16.887"	"19.885"	"28.118"	"33.3"	"34.106"	"30.662"	"29.797"	"29.389"	"26.02"	"21.216"	"16.2"
"1999"	"13.433"	"18.393"	"23.656"	"31.362"	"33.263"	"32.422"	"31.653"	"30.498"	"29.929"	"26.601"	"21.615"	"16.231"
"2000"	"14.51"	"15.194"	"21.242"	"30.137"	"33.768"	"32.177"	"30.109"	"30.148"	"29.653"	"27.264"	"21.547"	"16.538"
"2001"	"13.592"	"17.391"	"22.537"	"27.653"	"32.799"	"31.604"	"30.872"	"31.015"	"30.178"	"27.405"	"21.778"	"16.578"
"2002"	"15.602"	"16.327"	"21.199"	"29.98"	"34.31"	"33.513"	"32.637"	"30.553"	"27.868"	"26.169"	"21.167"	"16.161"
