
"Year"	"Jan"	"Feb"	"Mar"	"Apr"	"May"	"Jun"	"Jul"	"Aug"	"Sep"	"Oct"	"Nov"	"Dec"
"1901"	"14.849"	"18.48"	"24.071"	"30.149"	"32.038"	"33.542"	"30.226"	"29.214"	"28.826"	"27.664"	"22.238"	"17.555"
"1902"	"17.554"	"19.483"	"25.697"	"28.981"	"32.058"	"32.369"	"29.327"	"29.495"	"28.826"	"25.925"	"21.537"	"16.559"
"1903"	"16.314"	"18.178"	"23.332"	"29.894"	"33.165"	"32.342"	"30.871"	"29.095"	"29.293"	"26.566"	"21.513"	"16.959"
"1904"	"16.48"	"19.238"	"24.451"	"31.039"	"31.085"	"31.452"	"29.047"	"28.816"	"28.826"	"26.545"	"20.919"	"17.281"
"1905"	"14.676"	"14.746"	"21.232"	"26.815"	"31.125"	"33.428"	"29.527"	"28.479"	"28.746"	"26.799"	"21.893"	"16.8"
"1906"	"15.695"	"17.673"	"22.271"	"30.495"	"33.205"	"32.122"	"29.846"	"28.661"	"29.326"	"26.565"	"22.479"	"17.819"
"1907"	"17.819"	"17.773"	"21.032"	"27.37"	"31.253"	"32.375"	"30.092"	"29.716"	"29.492"	"27.365"	"21.692"	"17.047"
"1908"	"14.985"	"18.663"	"24.67"	"32.394"	"32.765"	"32.842"	"29.526"	"29.75"	"29.227"	"27.144"	"21.239"	"16.42"
"1909"	"17"	"18.253"	"25.925"	"28.036"	"32.683"	"30.85"	"29.646"	"29.034"	"29.6"	"27.385"	"21.973"	"17.64"
"1910"	"15.94"	"18.698"	"24.77"	"30.193"	"32.184"	"31.297"	"29.073"	"29.415"	"29.193"	"26.246"	"21.041"	"16.675"
"1911"	"17.186"	"18.283"	"22.487"	"29.714"	"33.43"	"31.317"	"30.736"	"29.261"	"28.646"	"26.391"	"20.354"	"16.221"
"1912"	"16.315"	"19.724"	"24.096"	"28.442"	"31.54"	"32.421"	"29.491"	"29.097"	"28.826"	"26.645"	"20.374"	"16.555"
"1913"	"16.02"	"18.183"	"22.151"	"30.873"	"30.886"	"30.072"	"29.626"	"29.26"	"29.546"	"26.266"	"20.373"	"16.341"
"1914"	"17.045"	"18.767"	"23.252"	"28.015"	"31.294"	"31.418"	"29.445"	"28.882"	"28.826"	"25.245"	"21.518"	"17.535"
"1915"	"16.881"	"18.199"	"23.372"	"29.596"	"32.584"	"31.644"	"30.472"	"29.335"	"29.227"	"28.365"	"23.22"	"17.22"
"1916"	"16.02"	"18.445"	"26.936"	"30.507"	"34.276"	"30.951"	"29.406"	"29.034"	"29.027"	"26.791"	"21.941"	"16.274"
"1917"	"15.8"	"18.243"	"23.051"	"27.71"	"29.249"	"31.096"	"29.526"	"29.261"	"28.426"	"26.192"	"21.814"	"16.854"
"1918"	"14.9"	"18.628"	"24.851"	"28.449"	"32.146"	"30.452"	"30.751"	"28.626"	"29.426"	"26.845"	"21.373"	"15.86"
"1919"	"16.154"	"17.417"	"24.651"	"28.376"	"31.6"	"31.65"	"29.561"	"29.315"	"28.825"	"26.499"	"21.639"	"16.835"
"1920"	"16.641"	"18.204"	"22.933"	"29.84"	"30.932"	"32.461"	"29.726"	"29.261"	"29.027"	"26.946"	"22.059"	"17.812"
"1921"	"16.675"	"19.01"	"26.455"	"31.14"	"34.91"	"32.034"	"29.751"	"28.915"	"28.426"	"25.644"	"21.093"	"16.256"
"1922"	"16.295"	"19.643"	"25.89"	"30.55"	"33.917"	"30.87"	"29.479"	"28.715"	"28.381"	"25.553"	"21.393"	"16.749"
"1923"	"16.354"	"18.138"	"24.691"	"30.98"	"32.844"	"33.667"	"29.56"	"29.568"	"28.986"	"25.899"	"21.592"	"17.182"
"1924"	"15.561"	"18.744"	"26.252"	"31.015"	"31.759"	"34.266"	"29.626"	"28.996"	"28.207"	"26.866"	"21.274"	"17.555"
"1925"	"14.662"	"17.182"	"24.29"	"29.853"	"31.918"	"31.011"	"29.128"	"29.042"	"28.825"	"26.091"	"20.955"	"16.594"
"1926"	"15.88"	"19.144"	"22.612"	"27.331"	"31.353"	"34.66"	"29.79"	"29.096"	"28.867"	"26.365"	"20.072"	"17.208"
"1927"	"15.2"	"18.038"	"22.971"	"29.874"	"31.186"	"32.602"	"29.725"	"28.895"	"29.253"	"26.725"	"21.498"	"17.6"
"1928"	"15.261"	"18.709"	"25.131"	"29.349"	"32.904"	"31.351"	"29.546"	"29.885"	"29.993"	"27.39"	"21.517"	"17.635"
"1929"	"16.181"	"17.863"	"25.239"	"29.661"	"33.644"	"32.636"	"29.445"	"28.817"	"28.986"	"25.865"	"21.537"	"16.74"
"1930"	"15.16"	"18.243"	"25.217"	"29.596"	"32.338"	"32.014"	"29.346"	"29.015"	"29.293"	"26.524"	"21.138"	"16.739"
"1931"	"17.145"	"18.039"	"24.126"	"31.056"	"32.364"	"33.496"	"29.626"	"29.88"	"29.07"	"26.779"	"21.439"	"17.834"
"1932"	"17.48"	"17.843"	"25.025"	"29.735"	"32.702"	"33.266"	"30.126"	"29.215"	"29.427"	"27.046"	"22.359"	"16.754"
"1933"	"14.6"	"19.425"	"24.825"	"27.77"	"30.966"	"31.432"	"29.326"	"28.895"	"28.826"	"26.446"	"21.759"	"17.36"
"1934"	"15.793"	"19.149"	"23.952"	"30.316"	"32.644"	"31.457"	"29.526"	"29.196"	"29.347"	"26.312"	"21.359"	"17.243"
"1935"	"15.075"	"19.125"	"24.726"	"27.759"	"33.38"	"32.921"	"29.96"	"28.595"	"28.829"	"26.346"	"21.493"	"16.815"
"1936"	"15.315"	"18.792"	"24.651"	"29.125"	"32.138"	"30.267"	"29.162"	"29.13"	"28.559"	"25.599"	"21.874"	"17.46"
"1937"	"14.801"	"18.505"	"23.372"	"28.395"	"31.694"	"32.557"	"30.028"	"28.488"	"29.327"	"25.69"	"20.9"	"16.41"
"1938"	"16.214"	"16.998"	"25.751"	"30.824"	"31.904"	"30.805"	"29.36"	"28.996"	"29.58"	"26.946"	"20.553"	"17.294"
"1939"	"16.66"	"18.92"	"22.666"	"29.934"	"33.385"	"31.511"	"29.68"	"29.07"	"29.048"	"26.425"	"21.849"	"17.595"
"1940"	"16.181"	"18.48"	"22.077"	"28.925"	"32.696"	"32.556"	"29.68"	"29.215"	"28.761"	"27.226"	"22.373"	"16.914"
"1941"	"16.008"	"19.498"	"26.47"	"31.76"	"32.404"	"31.722"	"30.473"	"29.161"	"29.127"	"26.711"	"21.739"	"18.529"
"1942"	"16.05"	"19.043"	"25.356"	"29.715"	"33.62"	"33.376"	"29.926"	"29.097"	"28.148"	"26.565"	"22.719"	"17.182"
"1943"	"17.715"	"18.429"	"25.062"	"27.749"	"33.186"	"32.457"	"29.571"	"28.77"	"29.247"	"26.946"	"22.399"	"18.235"
"1944"	"15.575"	"18.36"	"23.424"	"27.715"	"34.103"	"32.33"	"29.725"	"29.315"	"30.141"	"26.32"	"21.692"	"18.319"
"1945"	"15.149"	"17.489"	"24.771"	"28.171"	"32.204"	"33.222"	"30.486"	"29.542"	"28.829"	"25.565"	"21.405"	"16.02"
"1946"	"16.784"	"20.644"	"24.29"	"28.156"	"30.841"	"32.075"	"29.526"	"29.633"	"29.148"	"26.045"	"21.46"	"17.879"
"1947"	"15.714"	"19.243"	"25.15"	"31.015"	"32.484"	"33.476"	"29.672"	"29.648"	"29.073"	"26.345"	"21.939"	"17.654"
"1948"	"16.66"	"18.979"	"24.15"	"30.881"	"33.005"	"34.122"	"29.346"	"29.15"	"28.829"	"25.945"	"21.627"	"16.934"
"1949"	"17.299"	"18.57"	"24.311"	"28.755"	"30.834"	"32.332"	"29.406"	"29.215"	"28.825"	"27.138"	"21.167"	"16.116"
"1950"	"16.78"	"18.298"	"23.425"	"29.387"	"32.584"	"31.522"	"29.626"	"28.816"	"28.471"	"26.435"	"20.695"	"17.534"
"1951"	"15.514"	"19.085"	"24.826"	"29.085"	"32.848"	"32.576"	"29.89"	"29.534"	"29.127"	"28.345"	"22.821"	"16.919"
"1952"	"17.079"	"20.423"	"23.797"	"30.114"	"32.584"	"32.075"	"29.58"	"28.916"	"28.826"	"27.518"	"21.893"	"17.519"
"1953"	"15.455"	"20.107"	"27.518"	"30.79"	"33.441"	"32.576"	"29.001"	"28.99"	"28.867"	"26.267"	"21.158"	"18.68"
"1954"	"15.514"	"20.66"	"25.512"	"31.715"	"34.06"	"32.175"	"29.704"	"28.816"	"29.147"	"25.902"	"21.259"	"16.76"
"1955"	"16.14"	"19.115"	"26.371"	"29.15"	"32.319"	"32.094"	"29.148"	"28.981"	"28.626"	"26.882"	"22.315"	"17.46"
"1956"	"16.407"	"19.17"	"25.605"	"31.289"	"33.939"	"30.972"	"29.626"	"29.216"	"28.346"	"26.981"	"21.714"	"17.307"
"1957"	"16.675"	"18.298"	"23.532"	"29.849"	"33.429"	"32.556"	"30.027"	"29.613"	"29.58"	"26.779"	"22.659"	"18.013"
"1958"	"17.793"	"19.057"	"24.851"	"31.061"	"32.938"	"33.502"	"29.805"	"28.814"	"29.247"	"27.2"	"22.559"	"18.435"
"1959"	"16.514"	"18.379"	"24.937"	"30.316"	"32.512"	"32.4"	"29.839"	"29.068"	"28.826"	"26.912"	"22.059"	"17.919"
"1960"	"15.893"	"20.882"	"23.716"	"29.349"	"32.378"	"32.801"	"29.346"	"29.369"	"29.127"	"26.545"	"21.313"	"18.905"
"1961"	"16.795"	"17.96"	"24.883"	"29.934"	"32.82"	"32.075"	"30.047"	"29.169"	"29.147"	"26.58"	"20.974"	"14.73"
"1962"	"15.2"	"19.024"	"24.236"	"29.58"	"32.104"	"33.239"	"30.472"	"28.7"	"28.38"	"26.12"	"21.692"	"17.498"
"1963"	"15.559"	"19.863"	"23.917"	"28.942"	"31.159"	"31.649"	"29.565"	"29.115"	"28.526"	"27.145"	"22.591"	"17.888"
"1964"	"15.813"	"18.743"	"25.836"	"30.28"	"31.039"	"32.896"	"29.147"	"29.215"	"28.826"	"28.121"	"21.795"	"17.179"
"1965"	"16.859"	"18.818"	"23.351"	"28.517"	"32.46"	"33.366"	"29.617"	"28.72"	"28.291"	"26.625"	"22.364"	"16.812"
"1966"	"16.969"	"20.756"	"25.09"	"30.314"	"33.14"	"32.73"	"30.337"	"28.986"	"28.918"	"26.435"	"22.859"	"16.816"
"1967"	"15.697"	"20.147"	"23.172"	"28.741"	"32.111"	"32.696"	"29.541"	"28.644"	"28.826"	"25.971"	"20.723"	"17.735"
"1968"	"15.345"	"17.843"	"24.125"	"29.13"	"32.033"	"31.202"	"29.488"	"29.275"	"29.855"	"26.1"	"22.33"	"17.576"
"1969"	"16.341"	"19.934"	"26.637"	"30.556"	"31.69"	"33.162"	"29.556"	"28.715"	"28.711"	"27.161"	"23.584"	"17.976"
"1970"	"16.583"	"18.44"	"24.214"	"30.516"	"32.65"	"31.498"	"29.825"	"29.415"	"28.829"	"27.584"	"21.856"	"17.764"
"1971"	"15.899"	"18.067"	"24.052"	"28.114"	"29.879"	"30.168"	"28.649"	"28.015"	"28.792"	"26.265"	"21.076"	"17.388"
"1972"	"16.34"	"17.102"	"24.629"	"28.734"	"32.76"	"32.68"	"30.149"	"28.854"	"28.093"	"25.464"	"21.604"	"17.318"
"1973"	"16.661"	"19.582"	"23.716"	"30.795"	"32.07"	"31.762"	"29.946"	"28.835"	"28.826"	"26.504"	"21.177"	"16.306"
"1974"	"15.669"	"18.257"	"24.755"	"30.601"	"32.003"	"32.142"	"29.007"	"28.709"	"28.506"	"27.904"	"21.477"	"16.086"
"1975"	"15.4"	"18.484"	"24.098"	"30.219"	"32.569"	"31.756"	"28.546"	"28.648"	"28.545"	"27.55"	"20.679"	"16.64"
"1976"	"16.181"	"19.199"	"24.383"	"29.051"	"31.233"	"31.315"	"29.447"	"28.169"	"28.326"	"26.685"	"22.937"	"16.537"
"1977"	"15.477"	"19.483"	"25.39"	"28.807"	"30.165"	"31.462"	"29.282"	"28.995"	"29.242"	"26.21"	"23.463"	"17.641"
"1978"	"15.242"	"17.416"	"22.507"	"28.474"	"32.788"	"31.736"	"29.161"	"29.05"	"28.574"	"26.712"	"22.717"	"17.854"
"1979"	"17.026"	"17.89"	"24.008"	"29.67"	"32.871"	"31.63"	"29.522"	"29.228"	"29.049"	"27.27"	"24.142"	"17.934"
"1980"	"16.261"	"19.144"	"24.092"	"31.312"	"32.5"	"31.281"	"29.326"	"28.765"	"28.752"	"26.269"	"22.059"	"17.919"
"1981"	"15.906"	"19.535"	"23.75"	"28.357"	"30.937"	"32.191"	"28.862"	"29.096"	"29.023"	"26.545"	"21.118"	"17"
"1982"	"17.481"	"17.853"	"22.655"	"29.171"	"32.533"	"31.386"	"30.785"	"29.396"	"28.64"	"26.39"	"22.305"	"17.764"
"1983"	"15.414"	"19.479"	"23.49"	"28.426"	"30.653"	"32.304"	"29.966"	"29.628"	"29.861"	"26.699"	"21.393"	"17.834"
"1984"	"15.444"	"17.831"	"25.546"	"30.251"	"32.904"	"31.797"	"29.066"	"28.782"	"28.427"	"27.68"	"20.919"	"17.946"
"1985"	"16.676"	"18.762"	"26.771"	"30.497"	"32.283"	"32.776"	"28.862"	"29.234"	"28.806"	"26.099"	"21.857"	"18.565"
"1986"	"16.379"	"18.309"	"24.331"	"29.295"	"30.535"	"31.961"	"29.241"	"28.962"	"27.694"	"25.763"	"22.633"	"16.725"
"1987"	"15.699"	"19.931"	"24.017"	"29.515"	"31.723"	"33.265"	"30.011"	"29.073"	"29.546"	"26.912"	"22.257"	"17.062"
"1988"	"16.872"	"19.562"	"24.27"	"30.252"	"32.884"	"31.602"	"29.301"	"28.882"	"29.992"	"27.661"	"22.481"	"18.595"
"1989"	"15.708"	"18.37"	"24.179"	"29.436"	"32.974"	"31.512"	"29.4"	"28.756"	"29.527"	"27.76"	"22.067"	"17.007"
"1990"	"18"	"18.548"	"23.207"	"30.313"	"31.122"	"32.556"	"29.022"	"29.255"	"29.26"	"27.008"	"22.373"	"18.243"
"1991"	"15.827"	"20.13"	"25.006"	"29.256"	"32.445"	"31.42"	"30.076"	"28.634"	"29.427"	"26.782"	"21.405"	"17.601"
"1992"	"16.124"	"17.658"	"26.026"	"30.338"	"30.92"	"31.561"	"29.666"	"29.203"	"29.202"	"27.421"	"22.337"	"17.46"
"1993"	"16.895"	"20.359"	"23.086"	"28.669"	"31.932"	"31.671"	"30.387"	"29.285"	"28.768"	"27.5"	"22.648"	"18.501"
"1994"	"17.46"	"18.343"	"26.172"	"29.298"	"33.01"	"32.496"	"29.781"	"29.116"	"29.508"	"26.534"	"22.021"	"17.431"
"1995"	"15.428"	"19.18"	"24.354"	"29.821"	"33.831"	"32.853"	"29.705"	"28.935"	"29.188"	"27.33"	"22.56"	"18.481"
"1996"	"16.459"	"19.525"	"25.625"	"29.395"	"32.725"	"31.643"	"29.465"	"28.542"	"29.706"	"26.855"	"22.79"	"17.742"
"1997"	"15.665"	"18.064"	"24.706"	"29.993"	"31.154"	"32.429"	"31.591"	"29.315"	"28.445"	"25.44"	"22.086"	"17.66"
"1998"	"15.84"	"19.97"	"23.592"	"29.528"	"32.872"	"33.231"	"29.526"	"29.395"	"29.527"	"28.816"	"23.457"	"19.351"
"1999"	"16.756"	"20.969"	"25.617"	"32.791"	"32.715"	"31.777"	"29.331"	"28.954"	"28.711"	"27.699"	"23.883"	"18.866"
"2000"	"17.275"	"19.343"	"24.472"	"30.601"	"32.139"	"31.685"	"29.88"	"29.215"	"28.999"	"28.064"	"24.319"	"18.26"
"2001"	"16.91"	"20.099"	"24.736"	"29.723"	"32.774"	"31.318"	"29.567"	"29.6"	"30.113"	"28.152"	"24.518"	"19.499"
"2002"	"16.519"	"20.063"	"25.644"	"30.034"	"33.404"	"32.876"	"31.192"	"29.182"	"28.607"	"26.966"	"22.739"	"17.78"
