
"Year"	"Jan"	"Feb"	"Mar"	"Apr"	"May"	"Jun"	"Jul"	"Aug"	"Sep"	"Oct"	"Nov"	"Dec"
"1901"	"16.505"	"18.97"	"22.165"	"25.147"	"26.31"	"28.292"	"28.234"	"28.37"	"27.729"	"26.005"	"21.466"	"17.68"
"1902"	"17.127"	"18.828"	"23.082"	"23.046"	"26.848"	"27.389"	"28.334"	"28.289"	"27.348"	"24.428"	"20.665"	"16.846"
"1903"	"15.639"	"18.408"	"21.727"	"24.603"	"26.063"	"27.508"	"28.815"	"27.774"	"27.988"	"26.39"	"21.766"	"17.607"
"1904"	"16.182"	"18.828"	"22.312"	"23.419"	"25.749"	"28.35"	"28.297"	"28.274"	"27.707"	"25.59"	"20.62"	"16.804"
"1905"	"15.661"	"16.427"	"20.603"	"22.446"	"26.367"	"28.493"	"28.515"	"27.329"	"28.13"	"25.529"	"21.565"	"17.327"
"1906"	"16.403"	"18.084"	"21.109"	"23.58"	"26.443"	"28.215"	"28.938"	"27.193"	"28.608"	"25.471"	"21.766"	"17.604"
"1907"	"17.28"	"18.328"	"20.565"	"22.707"	"25.544"	"26.887"	"27.394"	"28.593"	"26.949"	"25.793"	"21.882"	"17.522"
"1908"	"16.525"	"18.909"	"22.761"	"25.6"	"25.668"	"27.935"	"27.953"	"28.211"	"27.466"	"25.486"	"21.161"	"17.003"
"1909"	"16.162"	"18.646"	"23.777"	"23.644"	"25.037"	"27.05"	"28.391"	"27.711"	"28.689"	"26.694"	"23.066"	"18.285"
"1910"	"16.705"	"18.828"	"21.804"	"23.735"	"25.986"	"26.788"	"26.972"	"27.892"	"28.131"	"25.468"	"21.92"	"17.647"
"1911"	"17.648"	"18.151"	"21.505"	"23.913"	"25.241"	"27.454"	"27.534"	"27.734"	"27.533"	"25.21"	"21.145"	"16.785"
"1912"	"16.805"	"18.885"	"21.266"	"22.226"	"25.944"	"27.369"	"27.473"	"27.711"	"27.51"	"25.112"	"21.685"	"17.703"
"1913"	"16.7"	"18.883"	"20.957"	"23.16"	"24.303"	"27.07"	"27.991"	"28.074"	"27.43"	"25.471"	"20.688"	"16.964"
"1914"	"16.543"	"18.464"	"22.028"	"22.646"	"25.804"	"28.113"	"28.535"	"27.154"	"27.268"	"24.112"	"21.37"	"18.122"
"1915"	"17.863"	"19.17"	"22.086"	"24.233"	"25.363"	"26.69"	"27.334"	"27.531"	"27.249"	"27.491"	"23.525"	"18.481"
"1916"	"16.928"	"18.851"	"23.143"	"23.566"	"25.586"	"28.074"	"26.976"	"28.093"	"28.108"	"25.509"	"22.627"	"17.444"
"1917"	"15.967"	"18.344"	"21.524"	"23.024"	"26.426"	"27.273"	"27.853"	"28.354"	"27.707"	"25.97"	"22.545"	"17.885"
"1918"	"16.165"	"18.549"	"22.14"	"23.849"	"27.349"	"26.374"	"27.55"	"27.711"	"27.732"	"25.929"	"21.565"	"17.322"
"1919"	"17.261"	"18.65"	"23.862"	"23.888"	"26.006"	"27.77"	"28.096"	"29.435"	"26.749"	"25.21"	"22.786"	"18.385"
"1920"	"17.921"	"18.308"	"21.181"	"23.106"	"25.105"	"27.17"	"28.752"	"27.793"	"27.629"	"26.066"	"22.185"	"19.363"
"1921"	"17.597"	"18.647"	"22.605"	"23.684"	"25.763"	"26.389"	"27.793"	"28.034"	"27.507"	"24.486"	"21.766"	"18.147"
"1922"	"17.258"	"19.568"	"23.158"	"25.243"	"26.429"	"27.089"	"27.809"	"27.853"	"28.007"	"25.49"	"22.325"	"17.908"
"1923"	"17.458"	"18.527"	"23.449"	"24.584"	"24.979"	"27.291"	"27.875"	"29.031"	"27.288"	"25.287"	"22.551"	"18.407"
"1924"	"16.759"	"18.75"	"24.277"	"24.786"	"25.021"	"27.773"	"27.69"	"27.631"	"27.149"	"26.89"	"22.065"	"18.505"
"1925"	"15.486"	"17.89"	"22.223"	"24.004"	"24.606"	"27.935"	"28.096"	"27.831"	"26.292"	"24.948"	"21.366"	"16.402"
"1926"	"16.543"	"18.848"	"21.065"	"23.385"	"25.826"	"27.07"	"27.573"	"28.408"	"28.25"	"26.069"	"21.247"	"18.303"
"1927"	"16.504"	"17.369"	"20.343"	"23.08"	"25.363"	"26.989"	"28.315"	"28.014"	"26.691"	"25.79"	"21.647"	"17.567"
"1928"	"16.484"	"19.688"	"22.94"	"25.289"	"25.51"	"27.55"	"28.472"	"27.93"	"27.85"	"24.627"	"20.565"	"17.564"
"1929"	"15.983"	"18.186"	"22.805"	"23.765"	"24.687"	"26.829"	"28.115"	"28.355"	"27.549"	"25.128"	"21.347"	"17.105"
"1930"	"15.388"	"18.306"	"21.765"	"23.607"	"26.406"	"26.408"	"29.076"	"28.392"	"27.605"	"24.409"	"21.004"	"17.203"
"1931"	"17.277"	"18.781"	"22.467"	"24.118"	"25.276"	"27.173"	"27.653"	"28.734"	"26.852"	"26.489"	"21.447"	"17.827"
"1932"	"16.627"	"17.052"	"22.742"	"24.946"	"24.696"	"27.291"	"28.215"	"27.914"	"27.546"	"25.809"	"22.5"	"18.001"
"1933"	"16.239"	"18.931"	"23.443"	"23.569"	"25.144"	"27.669"	"28.231"	"28.093"	"28.119"	"26.147"	"21.182"	"17.767"
"1934"	"16.808"	"18.931"	"22.804"	"24.376"	"24.898"	"26.092"	"28.297"	"28.373"	"28.053"	"25.17"	"21.208"	"17.27"
"1935"	"15.951"	"18.469"	"22.947"	"24.272"	"25.708"	"26.251"	"28.516"	"27.511"	"27.268"	"25.955"	"22.689"	"17.043"
"1936"	"15.428"	"17.746"	"23.024"	"24.401"	"26.566"	"27.653"	"28.235"	"28.235"	"27.995"	"24.909"	"22.548"	"17.989"
"1937"	"15.347"	"18.728"	"22.169"	"25.253"	"26.175"	"28.316"	"28.757"	"28.193"	"27.771"	"25.975"	"21.11"	"18.385"
"1938"	"17.063"	"18.507"	"22.46"	"25.436"	"26.767"	"27.672"	"27.734"	"28.116"	"27.671"	"26.213"	"20.406"	"17.823"
"1939"	"17.223"	"18.965"	"22.885"	"24.816"	"26.109"	"27.35"	"27.934"	"28.796"	"27.533"	"25.309"	"21.808"	"17.904"
"1940"	"16.405"	"18.689"	"20.234"	"24.9"	"25.764"	"27.736"	"28.219"	"28.757"	"27.411"	"25.871"	"21.584"	"18.666"
"1941"	"16.139"	"18.844"	"23.265"	"24.9"	"25.845"	"28.008"	"28.776"	"28.493"	"27.553"	"25.573"	"20.971"	"18.605"
"1942"	"17.043"	"19.852"	"22.507"	"24.598"	"25.545"	"27.451"	"29.13"	"28.557"	"27.631"	"26.474"	"22.365"	"17.389"
"1943"	"17.246"	"18.327"	"21.507"	"22.85"	"25.302"	"27.781"	"28.41"	"27.875"	"27.649"	"25.148"	"22.945"	"18.48"
"1944"	"16.423"	"18.312"	"23.066"	"24.105"	"26.124"	"27.955"	"28.931"	"28.811"	"26.969"	"26.171"	"21.687"	"19.033"
"1945"	"17.22"	"17.453"	"23.016"	"25.767"	"25.683"	"28.332"	"28.352"	"27.978"	"28.292"	"25.29"	"21.663"	"17.401"
"1946"	"17.601"	"20.662"	"22.742"	"24.667"	"26.154"	"27.569"	"27.854"	"28.958"	"27.755"	"25.328"	"22.646"	"18.385"
"1947"	"16.746"	"19.407"	"22.873"	"23.987"	"25.887"	"27.914"	"27.918"	"28.373"	"27.93"	"24.953"	"21.883"	"18.724"
"1948"	"17.147"	"18.246"	"21.846"	"24.712"	"24.616"	"27.273"	"27.835"	"28.193"	"28.219"	"24.97"	"22.297"	"17.2"
"1949"	"17.128"	"18.896"	"22.127"	"22.532"	"25.71"	"27.131"	"27.816"	"27.715"	"27.649"	"26.31"	"21.543"	"16.743"
"1950"	"16.872"	"18.549"	"22.142"	"24.373"	"25.998"	"27.009"	"28.199"	"27.511"	"27.745"	"25.628"	"21.986"	"18.366"
"1951"	"17.007"	"19.084"	"23.14"	"23.299"	"25.741"	"26.992"	"27.375"	"28.75"	"27.927"	"26.195"	"22.15"	"18.537"
"1952"	"17.523"	"20.529"	"22.001"	"25.605"	"25.613"	"28.593"	"28.512"	"28.253"	"27.329"	"26.288"	"22.774"	"18.971"
"1953"	"16.608"	"19.631"	"23.008"	"24.673"	"26.15"	"27.897"	"27.656"	"28.973"	"27.531"	"25.252"	"21.743"	"19.104"
"1954"	"16.143"	"20.096"	"23.223"	"24.288"	"25.814"	"26.835"	"27.096"	"27.349"	"27.953"	"24.933"	"21.424"	"18.005"
"1955"	"17.143"	"19.241"	"22.52"	"24.331"	"26.514"	"26.891"	"27.614"	"27.592"	"28.473"	"26.232"	"22.825"	"17.466"
"1956"	"16.97"	"20.125"	"22.778"	"25.802"	"26.476"	"27.336"	"28.504"	"28.435"	"28.497"	"25.971"	"22.166"	"18.469"
"1957"	"17.386"	"17.888"	"22.55"	"24.9"	"25.525"	"28.131"	"28.811"	"29.005"	"28.346"	"25.012"	"22.467"	"18.325"
"1958"	"17.938"	"18.35"	"23.933"	"25.708"	"25.456"	"29.559"	"29.591"	"27.731"	"28.631"	"26.152"	"22.605"	"18.825"
"1959"	"17.189"	"17.864"	"22.339"	"25.625"	"25.988"	"28.098"	"29.589"	"29.553"	"27.806"	"25.29"	"21.764"	"18.706"
"1960"	"16.988"	"21.173"	"22.901"	"26.442"	"27.771"	"28.436"	"28.473"	"29.432"	"27.806"	"26.705"	"22.038"	"19.72"
"1961"	"18.419"	"18.404"	"21.921"	"25.544"	"26.345"	"28.751"	"29.395"	"29.196"	"28.429"	"26.109"	"21.061"	"15.993"
"1962"	"15.982"	"18.154"	"21.493"	"24.713"	"25.829"	"27.594"	"29.054"	"27.7"	"28.099"	"25.427"	"21.436"	"18.149"
"1963"	"16.439"	"19.606"	"22.836"	"24.245"	"25.785"	"27.615"	"28.35"	"27.95"	"28.423"	"24.928"	"20.639"	"18.252"
"1964"	"16.185"	"18.691"	"21.935"	"23.667"	"25.664"	"26.409"	"27.154"	"27.934"	"27.21"	"26.114"	"22.208"	"17.462"
"1965"	"16.674"	"18.46"	"21.055"	"24.188"	"26.028"	"27.736"	"27.914"	"27.196"	"27.169"	"25.486"	"20.241"	"18.439"
"1966"	"17.501"	"20.403"	"23.882"	"24.923"	"27.042"	"26.389"	"28.334"	"27.454"	"27.329"	"24.648"	"23.113"	"18.195"
"1967"	"17.718"	"19.727"	"21.605"	"24.305"	"26.032"	"27.077"	"28.115"	"28.858"	"27.252"	"24.969"	"20.485"	"18.395"
"1968"	"17.055"	"17.984"	"22.464"	"23.908"	"25.407"	"27.604"	"27.918"	"28.574"	"28.253"	"24.12"	"21.659"	"17.67"
"1969"	"16.493"	"19.455"	"23.528"	"25.32"	"27.071"	"27.788"	"28.414"	"27.653"	"27.91"	"25.567"	"21.663"	"18.317"
"1970"	"16.122"	"18.597"	"22.406"	"24.75"	"25.767"	"28.031"	"28.021"	"28.322"	"27.188"	"25.293"	"21.882"	"17.84"
"1971"	"16.66"	"18.355"	"22.65"	"24.667"	"26.254"	"27.92"	"28.112"	"27.656"	"27.726"	"25.263"	"20.67"	"17.451"
"1972"	"17.559"	"18.775"	"22.382"	"22.768"	"25.81"	"27.751"	"28.279"	"28.576"	"27.326"	"25.824"	"21.643"	"18.194"
"1973"	"17.726"	"19.584"	"23.164"	"25.927"	"26.927"	"27.55"	"28.78"	"28.612"	"27.814"	"25.529"	"21.603"	"17.537"
"1974"	"16.505"	"19.268"	"22.444"	"23.428"	"26.187"	"27.654"	"27.169"	"28.297"	"27.207"	"26.894"	"23.206"	"17.187"
"1975"	"16.906"	"19.523"	"23.058"	"25.724"	"25.807"	"28.794"	"27.615"	"28.226"	"27.607"	"26.376"	"21.774"	"17.106"
"1976"	"17.004"	"19.542"	"22.829"	"24.943"	"25.978"	"26.849"	"28.111"	"27.917"	"27.83"	"25.09"	"22.578"	"17.887"
"1977"	"16.267"	"19.33"	"23.708"	"22.954"	"24.981"	"26.266"	"28.5"	"27.615"	"28.222"	"24.312"	"21.289"	"18.121"
"1978"	"15.948"	"18.665"	"22.202"	"24.347"	"26.547"	"27.947"	"27.814"	"29.075"	"27.527"	"26.347"	"21.211"	"17.78"
"1979"	"17.232"	"18.95"	"22.62"	"26.088"	"26.894"	"29.131"	"27.852"	"28.75"	"27.168"	"24.909"	"22.909"	"18.173"
"1980"	"16.504"	"18.851"	"22.082"	"24.792"	"25.945"	"28.631"	"28.615"	"28.28"	"28.127"	"25.167"	"22.004"	"18.755"
"1981"	"17.301"	"19.893"	"22.128"	"23.793"	"26.53"	"28.654"	"28.137"	"28.676"	"28.032"	"26.213"	"22.484"	"18.172"
"1982"	"18.224"	"18.749"	"22.339"	"23.274"	"26.818"	"27.569"	"28.169"	"28.893"	"27.55"	"25.509"	"21.35"	"17.793"
"1983"	"15.571"	"17.632"	"21.662"	"23.129"	"25.43"	"27.828"	"28.135"	"28.417"	"27.178"	"26.509"	"22.365"	"17.128"
"1984"	"15.952"	"19.089"	"23.635"	"24.892"	"25.369"	"28.557"	"27.402"	"28.592"	"26.696"	"26.22"	"20.811"	"18.012"
"1985"	"17.086"	"18.793"	"23.022"	"24.532"	"26.452"	"27.573"	"27.23"	"28.892"	"27.592"	"26.349"	"21.447"	"18.975"
"1986"	"17.544"	"19.568"	"22.881"	"23.643"	"26.647"	"28.715"	"28.079"	"28.369"	"27.106"	"24.409"	"21.673"	"18.297"
"1987"	"17.639"	"20.438"	"21.963"	"24.224"	"26.303"	"28.492"	"27.671"	"27.869"	"27.527"	"25.636"	"22.688"	"18.813"
"1988"	"17.444"	"20.464"	"22.468"	"24.606"	"25.764"	"28.79"	"28.134"	"27.842"	"27.692"	"26.206"	"22.519"	"19.881"
"1989"	"16.809"	"18.516"	"23.106"	"24.019"	"27.277"	"27.936"	"27.634"	"28.454"	"27.634"	"26.371"	"21.366"	"17.401"
"1990"	"18.69"	"19.046"	"21.125"	"22.35"	"26.753"	"28.017"	"28.296"	"28.85"	"27.191"	"25.393"	"23.288"	"19.363"
"1991"	"17.004"	"20.431"	"23.544"	"24.09"	"24.876"	"27.729"	"28.434"	"28.33"	"27.472"	"26.109"	"21.524"	"17.505"
"1992"	"16.901"	"17.442"	"22.144"	"24.661"	"25.583"	"27.788"	"28.016"	"28.747"	"28.092"	"25.49"	"21.924"	"17.161"
"1993"	"16.647"	"20.085"	"21.724"	"24.809"	"25.669"	"27.31"	"28.357"	"28.216"	"27.788"	"26.232"	"22.927"	"19.705"
"1994"	"18.306"	"19.304"	"22.025"	"24.862"	"27.845"	"28.891"	"28.657"	"29.429"	"28.931"	"24.91"	"21.684"	"17.919"
"1995"	"16.743"	"19.523"	"23.616"	"25.264"	"26.925"	"28.432"	"28.296"	"28.855"	"27.668"	"26.508"	"23.16"	"18.624"
"1996"	"17.502"	"20.443"	"23.182"	"26.216"	"26.238"	"28.867"	"28.292"	"28.577"	"28.772"	"26.171"	"22.866"	"19.225"
"1997"	"16.962"	"18.003"	"22.454"	"24.027"	"26.622"	"28.246"	"28.853"	"29.411"	"27.304"	"25.601"	"22.29"	"18.144"
"1998"	"17.105"	"20.239"	"21.998"	"25.658"	"28.565"	"27.835"	"28.73"	"28.528"	"28.73"	"27.575"	"23.784"	"19.476"
"1999"	"17.978"	"22.966"	"24.705"	"26.89"	"27.533"	"29.328"	"28.814"	"28.373"	"28.608"	"26.232"	"23.362"	"19.292"
"2000"	"17.06"	"19.723"	"21.942"	"23.545"	"26.506"	"28.785"	"29.273"	"28.392"	"27.564"	"26.569"	"22.247"	"18.404"
"2001"	"18.068"	"20.546"	"23.602"	"24.664"	"26.844"	"29.302"	"28.61"	"29.368"	"28.329"	"25.951"	"23.047"	"18.709"
"2002"	"17.643"	"21.205"	"23.361"	"24.747"	"25.885"	"28.833"	"28.752"	"28.795"	"28.029"	"25.826"	"22.869"	"18.706"
