
"Year"	"Jan"	"Feb"	"Mar"	"Apr"	"May"	"Jun"	"Jul"	"Aug"	"Sep"	"Oct"	"Nov"	"Dec"
"1901"	"55.609"	"6.108"	"11.317"	"0"	"5.579"	"30.025"	"326.375"	"476.539"	"83.564"	"9.618"	"0.199"	"3.997"
"1902"	"7.424"	"3.201"	"0"	"2.532"	"1.089"	"39.359"	"415.987"	"157.922"	"212.066"	"5.233"	"95.795"	"0.805"
"1903"	"5.821"	"0.702"	"2.027"	"0"	"10.054"	"26.298"	"233.443"	"286.528"	"316.749"	"55.859"	"0.199"	"0"
"1904"	"3.623"	"6.644"	"27.551"	"0"	"8.861"	"102.087"	"525.238"	"291.757"	"60.748"	"6.967"	"10.844"	"16.288"
"1905"	"11.182"	"9.575"	"5.029"	"0"	"0.414"	"22.329"	"184.035"	"171.581"	"182.124"	"0.254"	"0.199"	"1.732"
"1906"	"0.668"	"12.503"	"6.435"	"0"	"2.213"	"156.102"	"427.032"	"143.083"	"378.475"	"1.407"	"0.199"	"4.339"
"1907"	"10.55"	"38.532"	"2.636"	"9.246"	"5.343"	"63.727"	"188.12"	"513.704"	"5.583"	"0.254"	"7.714"	"0"
"1908"	"21.464"	"0.443"	"7.34"	"1.436"	"1.387"	"41.484"	"514.182"	"515.116"	"54.468"	"3.513"	"4.206"	"0.91"
"1909"	"12.171"	"8.877"	"0"	"5.957"	"5.275"	"188.583"	"309.557"	"299.166"	"114.088"	"0.254"	"0.199"	"19.497"
"1910"	"6.245"	"0.916"	"0"	"1.6"	"1.346"	"97.212"	"195.712"	"320.797"	"245.398"	"13.705"	"25.907"	"0"
"1911"	"21.574"	"0"	"14.276"	"0.071"	"0"	"137.329"	"161.678"	"163.296"	"331.275"	"12.178"	"84.791"	"4.77"
"1912"	"12.403"	"9.116"	"2.871"	"1.323"	"0.131"	"23.12"	"323.555"	"299.302"	"165.843"	"0.254"	"74.551"	"2.171"
"1913"	"0.181"	"19.838"	"3.862"	"0"	"20.44"	"148"	"146.157"	"132.515"	"40.734"	"0.254"	"0.199"	"13.629"
"1914"	"0.447"	"2.17"	"15.165"	"2.596"	"14.237"	"106.495"	"457.134"	"202.938"	"151.048"	"5.481"	"1.17"	"0.293"
"1915"	"8.333"	"21.724"	"34.414"	"9"	"6.897"	"63.945"	"251.936"	"416.981"	"132.952"	"41.388"	"1.721"	"0.63"
"1916"	"0.181"	"17.126"	"0"	"1.395"	"2.041"	"118.82"	"271.282"	"397.229"	"194.126"	"63.759"	"8.44"	"0"
"1917"	"15.085"	"23.639"	"7.025"	"3.696"	"28.207"	"104.427"	"447.875"	"430.187"	"286.182"	"26.677"	"0.199"	"2.632"
"1918"	"8.594"	"1.764"	"1.247"	"0"	"6.838"	"111.914"	"194.078"	"249.897"	"103.837"	"0.254"	"12.875"	"3.306"
"1919"	"58.225"	"0.679"	"0.555"	"14.501"	"12.88"	"54.273"	"371.617"	"725.935"	"75.752"	"41.722"	"12.044"	"6.012"
"1920"	"7.871"	"6.207"	"2.564"	"0"	"23.965"	"144.461"	"461.692"	"131.404"	"91.763"	"0.254"	"0.199"	"0"
"1921"	"24.955"	"2.695"	"0"	"0.008"	"0"	"177.566"	"137.322"	"316.943"	"311.525"	"1.618"	"0.199"	"0"
"1922"	"32.071"	"2.236"	"0.618"	"0.306"	"1.243"	"138.281"	"454.817"	"247.593"	"247.713"	"0.554"	"19.815"	"23.465"
"1923"	"5.278"	"4.914"	"4.852"	"1.322"	"7.065"	"14.064"	"485.428"	"510.629"	"290.888"	"19.581"	"2.612"	"13.012"
"1924"	"15.21"	"3.654"	"0"	"0"	"3.071"	"35.149"	"290.329"	"352.918"	"286.274"	"11.231"	"1.81"	"18.446"
"1925"	"0.181"	"0"	"0"	"0"	"26.01"	"160.153"	"648.797"	"270.616"	"96.103"	"6.083"	"67.147"	"0.073"
"1926"	"9.805"	"3.269"	"23.871"	"5.455"	"26.593"	"27.234"	"299.65"	"470.014"	"300.505"	"21.85"	"0.73"	"1.506"
"1927"	"0.684"	"13.41"	"14.1"	"5.132"	"0.957"	"56.239"	"462.964"	"222.37"	"116.789"	"49.768"	"131.88"	"17.319"
"1928"	"7.336"	"40.227"	"3.435"	"2.798"	"1.71"	"50.673"	"446.806"	"142.934"	"115.603"	"45.615"	"10.857"	"71.592"
"1929"	"8.965"	"5.655"	"0"	"5.779"	"0"	"70.262"	"444.757"	"392.642"	"68.355"	"4.123"	"0.199"	"27.87"
"1930"	"5.435"	"4.857"	"0.118"	"3.199"	"1.753"	"118.177"	"598.969"	"214.147"	"112.466"	"13.406"	"5.637"	"1.784"
"1931"	"2.073"	"8.583"	"0"	"0.008"	"2.113"	"41.998"	"290.651"	"364.756"	"415.825"	"93.103"	"93.81"	"0"
"1932"	"0.181"	"10.608"	"12.737"	"4.064"	"0.367"	"27.339"	"658.496"	"258.051"	"231.606"	"11.985"	"0.609"	"0"
"1933"	"0.181"	"4.86"	"5.009"	"8.65"	"17.252"	"271.769"	"249.223"	"290.804"	"365.493"	"18.948"	"1.17"	"1.06"
"1934"	"14.64"	"0"	"8.754"	"0"	"0"	"214.381"	"355.219"	"537.377"	"472.693"	"1.89"	"42.712"	"36.858"
"1935"	"17.59"	"8.624"	"0.141"	"15.171"	"3.23"	"108.729"	"501.21"	"326.213"	"239.372"	"7.083"	"1.681"	"27.405"
"1936"	"0.543"	"9.694"	"11.068"	"4.882"	"4.222"	"245.597"	"319.685"	"273.467"	"243.505"	"0.254"	"61.012"	"9.442"
"1937"	"0.181"	"39.258"	"0.551"	"8.385"	"3.906"	"200.071"	"319.095"	"261.97"	"134.079"	"27.904"	"16.191"	"13.575"
"1938"	"28.429"	"0.324"	"1.082"	"0.167"	"11.062"	"212.575"	"400.483"	"215.686"	"77.66"	"87.378"	"0.199"	"0"
"1939"	"22.65"	"3.978"	"2.515"	"1.395"	"0"	"118.823"	"526.463"	"185.892"	"134.455"	"3.104"	"0.404"	"0.923"
"1940"	"13.334"	"11.29"	"6.47"	"3.625"	"18.997"	"86.836"	"454.292"	"365.331"	"111.83"	"3.215"	"7.103"	"11.665"
"1941"	"23.575"	"11.734"	"9.445"	"0"	"3.709"	"71.47"	"221.181"	"227.029"	"94.604"	"0.254"	"0.199"	"0"
"1942"	"40.305"	"23.95"	"0.89"	"2.871"	"0.61"	"104.574"	"691.494"	"387.702"	"236.983"	"1.358"	"0.199"	"12.476"
"1943"	"44.178"	"0.057"	"0.381"	"7.887"	"15.087"	"113.187"	"342.014"	"410.195"	"165.766"	"22.512"	"0.199"	"0"
"1944"	"22.946"	"20.048"	"33.519"	"13.261"	"0"	"69.927"	"665.682"	"442.966"	"119.153"	"20.405"	"0.199"	"5.017"
"1945"	"47.846"	"0"	"0"	"9.801"	"6.886"	"190.852"	"477.941"	"311.73"	"269.129"	"3.724"	"0.199"	"2.733"
"1946"	"0.181"	"4.844"	"0"	"9.945"	"4.515"	"153.786"	"368.252"	"509.592"	"43.376"	"21.714"	"62.754"	"9.132"
"1947"	"36.041"	"12.79"	"5.595"	"1.454"	"0.871"	"79.145"	"622.024"	"538.273"	"403.195"	"27.831"	"1.431"	"3.13"
"1948"	"74.295"	"4.141"	"0"	"1.578"	"2.563"	"103.793"	"453.691"	"352.325"	"204.426"	"18.801"	"75.432"	"0"
"1949"	"0.181"	"5.38"	"0.719"	"0"	"2.435"	"78.806"	"365.314"	"327.558"	"458.515"	"47.444"	"0.199"	"0"
"1950"	"17.869"	"2.06"	"6.708"	"0"	"3.592"	"30.778"	"347.957"	"409.793"	"160.051"	"0.377"	"0.199"	"17.435"
"1951"	"10.008"	"19.828"	"8.735"	"1.09"	"10.253"	"65.472"	"393.806"	"317.943"	"259.726"	"4.153"	"24.996"	"0"
"1952"	"0.181"	"18.679"	"4.106"	"2.184"	"0.84"	"169.651"	"375.48"	"516.586"	"44.86"	"0.254"	"0.199"	"28.043"
"1953"	"27.404"	"1.36"	"0"	"1.318"	"0.593"	"22.167"	"388.876"	"278.177"	"116.509"	"7.983"	"0.199"	"0.748"
"1954"	"36.549"	"22.672"	"7.393"	"0"	"0"	"54.629"	"251.19"	"291.231"	"378.643"	"35.95"	"0.199"	"0"
"1955"	"32.733"	"1.241"	"0.284"	"0"	"0.793"	"180.197"	"262.581"	"542.217"	"343.279"	"81.405"	"0.199"	"0.108"
"1956"	"10.901"	"1.436"	"6.423"	"0.343"	"3.213"	"156.753"	"736.599"	"379.524"	"155.229"	"55.188"	"47.159"	"12.232"
"1957"	"29.52"	"0"	"24.799"	"3.542"	"7.661"	"61.723"	"363.847"	"281.004"	"203.42"	"6.956"	"4.435"	"2.968"
"1958"	"2.84"	"1.708"	"3.48"	"0.065"	"0.734"	"51.343"	"566.883"	"372.532"	"257.668"	"114.942"	"1.3"	"2.715"
"1959"	"25.511"	"3.828"	"0"	"3.818"	"28.693"	"80.439"	"320.089"	"529.705"	"285.245"	"21.119"	"7.049"	"0"
"1960"	"41.007"	"0"	"13.625"	"1.246"	"2.497"	"52.265"	"322.681"	"802.769"	"71.418"	"96.969"	"0.199"	"4.77"
"1961"	"41.248"	"8.968"	"1.355"	"1.259"	"7.222"	"97.074"	"367.588"	"532.739"	"232.393"	"113.501"	"32.516"	"1.427"
"1962"	"20.221"	"11.568"	"5.918"	"14.099"	"2.322"	"32.444"	"377.978"	"591.391"	"387.149"	"0.254"	"1.496"	"9.989"
"1963"	"25.874"	"8.472"	"2.864"	"5.323"	"3.72"	"88.645"	"317.577"	"301.987"	"387.337"	"2.698"	"12.44"	"8.128"
"1964"	"0.181"	"0.719"	"14.901"	"0.071"	"17.442"	"68.815"	"373.492"	"411.981"	"249.238"	"0.982"	"0.199"	"2.401"
"1965"	"12.681"	"3.31"	"2.656"	"8.958"	"1.634"	"36.28"	"284.718"	"197.221"	"206.013"	"19.634"	"0.199"	"14.861"
"1966"	"1.668"	"2.079"	"0"	"0"	"6.513"	"115.331"	"296.623"	"267.856"	"33.442"	"0.254"	"82.454"	"1.456"
"1967"	"0.628"	"0"	"28.702"	"0.071"	"0.194"	"55.873"	"313.538"	"483.135"	"209.911"	"0.337"	"0.199"	"78.656"
"1968"	"21.771"	"2.221"	"7.356"	"0"	"0"	"71.7"	"496.664"	"221.014"	"53.259"	"50.616"	"0.199"	"1.107"
"1969"	"2.94"	"3.832"	"0.89"	"0"	"11.138"	"15.167"	"548.057"	"454.376"	"149.719"	"0.254"	"107.593"	"0"
"1970"	"36.295"	"22.84"	"19.476"	"0.685"	"7.156"	"123.599"	"161.533"	"470.233"	"206.021"	"4.08"	"0.199"	"0"
"1971"	"17.814"	"3.986"	"0.178"	"1.861"	"9.09"	"291.376"	"380.55"	"280.701"	"154.477"	"106.774"	"2.161"	"0"
"1972"	"2.705"	"6.764"	"0"	"0"	"2.459"	"33.572"	"107.219"	"491.99"	"178.23"	"59.077"	"22.091"	"7.281"
"1973"	"6.063"	"5.405"	"0"	"0"	"3.999"	"9.486"	"558.345"	"519.811"	"211.875"	"30.169"	"0.199"	"19.159"
"1974"	"0.181"	"1.723"	"0.446"	"1.64"	"6.17"	"68.702"	"260.414"	"445.255"	"39.369"	"64.537"	"0.199"	"0"
"1975"	"7.582"	"10.82"	"0.891"	"0.195"	"0.286"	"151.169"	"343.575"	"347.812"	"242.903"	"28.553"	"0.199"	"0"
"1976"	"11.638"	"0.656"	"2.958"	"6.626"	"7.278"	"136.946"	"294.952"	"416.29"	"169.686"	"0.254"	"62.634"	"1.406"
"1977"	"16.137"	"1.198"	"4.525"	"3.481"	"7.993"	"252.191"	"398.142"	"374.739"	"208.231"	"25.939"	"41.16"	"1.106"
"1978"	"6.305"	"54.548"	"28.583"	"5.339"	"0"	"206.837"	"317.37"	"537.788"	"208.676"	"1.256"	"2.102"	"44.74"
"1979"	"43.938"	"29.039"	"2.381"	"0.115"	"20.888"	"52.993"	"361.656"	"178.844"	"14.626"	"1.505"	"28.185"	"4"
"1980"	"0.877"	"2.566"	"6.059"	"0.008"	"0.458"	"191.158"	"341.711"	"388.043"	"39.549"	"6.175"	"2.161"	"36.196"
"1981"	"6.501"	"1.8"	"10.906"	"0"	"9.756"	"147.289"	"231.589"	"246.251"	"96.246"	"1.099"	"7.767"	"12.784"
"1982"	"97.152"	"5.867"	"7.573"	"3.132"	"4.679"	"46.616"	"215.419"	"813.988"	"133.497"	"3.945"	"111.129"	"7.938"
"1983"	"14.242"	"1.705"	"0.441"	"6.218"	"10.963"	"103.083"	"384.343"	"458.559"	"450.258"	"53.608"	"0.199"	"1.845"
"1984"	"49.859"	"19.731"	"0.697"	"5.843"	"3.441"	"109.725"	"136.458"	"388.351"	"83.393"	"2.542"	"0.199"	"0"
"1985"	"14.95"	"0"	"1.52"	"8.305"	"10.36"	"78.671"	"468.171"	"425.111"	"210.879"	"112.582"	"0.199"	"10.654"
"1986"	"12.131"	"27.814"	"11.245"	"0"	"12.737"	"131.033"	"287.401"	"151.108"	"62.213"	"26.12"	"0.199"	"31.565"
"1987"	"25.147"	"25.879"	"1.368"	"0"	"15.941"	"42.254"	"181.124"	"337.571"	"147.124"	"10.623"	"0.199"	"17.347"
"1988"	"3.387"	"2.323"	"4.425"	"6.275"	"0.663"	"165.288"	"254.135"	"243.856"	"83.233"	"1.385"	"0.199"	"3.614"
"1989"	"7.202"	"0"	"15.231"	"0.01"	"0.63"	"66.171"	"236.671"	"381.105"	"74.967"	"2.717"	"7.903"	"10.946"
"1990"	"0.181"	"21.541"	"1.839"	"0.285"	"16.152"	"326.437"	"563.645"	"483.247"	"365.996"	"4.674"	"0.199"	"5.905"
"1991"	"0.891"	"8.339"	"9.668"	"11.303"	"9.278"	"73.683"	"100.754"	"441.508"	"68.248"	"0.254"	"1.276"	"18.563"
"1992"	"18.812"	"7.054"	"3.876"	"0.495"	"21.906"	"13.957"	"62.555"	"251.037"	"285.849"	"21.393"	"24.616"	"0"
"1993"	"3.542"	"6.647"	"4.783"	"0.455"	"8.28"	"104.747"	"208.342"	"167.721"	"141.401"	"14.435"	"0.199"	"1.003"
"1994"	"23.473"	"14.768"	"15.883"	"2.696"	"13.675"	"224.179"	"715.741"	"354.345"	"73.726"	"8.21"	"0.199"	"0"
"1995"	"39.986"	"6.485"	"18.611"	"5.445"	"0.694"	"87.68"	"283.91"	"207.005"	"220.087"	"11.65"	"6.097"	"17.964"
"1996"	"28.468"	"5.546"	"5.853"	"14.27"	"7.691"	"100.895"	"235.1"	"422.241"	"175.233"	"28.211"	"0.199"	"0"
"1997"	"3.756"	"0"	"1.007"	"1.682"	"11.644"	"82.416"	"277.547"	"278.188"	"145.772"	"48.933"	"120.671"	"51.643"
"1998"	"0.181"	"3.162"	"23.124"	"1.827"	"2.213"	"107.733"	"183.025"	"364.875"	"189.32"	"25.742"	"55.449"	"0.136"
"1999"	"8.232"	"44.019"	"0"	"0"	"6.872"	"102.315"	"362.202"	"378.525"	"294.808"	"70.317"	"0.199"	"0.916"
"2000"	"4.17"	"1.384"	"0.555"	"0.341"	"11.841"	"71"	"603.836"	"152.69"	"72.939"	"0.589"	"0.616"	"0"
"2001"	"11.542"	"2.422"	"4.182"	"2.681"	"26.043"	"283.662"	"308.015"	"211.062"	"29.786"	"27.86"	"3.59"	"0"
"2002"	"5.842"	"29.753"	"2.543"	"1.429"	"11.817"	"81.006"	"68.305"	"351.555"	"155.526"	"15.185"	"13.877"	"5.187"
