
"Year"	"Jan"	"Feb"	"Mar"	"Apr"	"May"	"Jun"	"Jul"	"Aug"	"Sep"	"Oct"	"Nov"	"Dec"
"1901"	"14.087"	"17.092"	"23.584"	"29.888"	"33.886"	"36.71"	"32.626"	"29.868"	"29.165"	"27.229"	"21.025"	"16.027"
"1902"	"16.838"	"18.909"	"26.073"	"30.609"	"34.229"	"34.951"	"30.718"	"30.016"	"29.143"	"25.649"	"19.916"	"15.392"
"1903"	"15.77"	"16.965"	"23.129"	"29.692"	"34.331"	"35.435"	"32.595"	"29.987"	"29.745"	"25.752"	"19.963"	"15.57"
"1904"	"16.007"	"18.403"	"24.113"	"31.014"	"33.193"	"34.002"	"29.914"	"29.071"	"28.982"	"26.078"	"19.542"	"16.082"
"1905"	"13.96"	"13.837"	"21.307"	"27.153"	"33.396"	"36.06"	"31.018"	"29.513"	"29.503"	"26.128"	"20.972"	"15.751"
"1906"	"14.947"	"16.511"	"22.8"	"30.405"	"35.316"	"34.192"	"30.906"	"29.406"	"29.328"	"26.438"	"21.418"	"16.76"
"1907"	"17.374"	"16.598"	"21.453"	"28.067"	"32.689"	"34.733"	"33.361"	"29.614"	"30.46"	"27.642"	"21.007"	"15.205"
"1908"	"14.969"	"18.421"	"24.148"	"32.299"	"34.86"	"35.779"	"30.818"	"29.477"	"29.884"	"26.346"	"20.184"	"15.459"
"1909"	"17.31"	"16.666"	"25.321"	"28.488"	"34.098"	"31.41"	"30.039"	"29.658"	"29.437"	"26.59"	"20.839"	"16.263"
"1910"	"15.415"	"17.932"	"24.482"	"30.199"	"33.816"	"33.128"	"30.865"	"29.471"	"29.562"	"25.541"	"19.467"	"15.193"
"1911"	"17.273"	"17.91"	"22.11"	"29.737"	"35.224"	"33.379"	"32.294"	"30.037"	"28.683"	"26.29"	"19.305"	"15.038"
"1912"	"15.738"	"19.135"	"23.555"	"29.603"	"33.882"	"35.078"	"30.93"	"29.43"	"28.881"	"26.084"	"19.455"	"15.16"
"1913"	"15.634"	"17.766"	"21.951"	"30.884"	"32.236"	"31.394"	"31.074"	"30.275"	"29.956"	"27.124"	"19.742"	"15.441"
"1914"	"17.289"	"18.485"	"23.228"	"29.44"	"33.234"	"34.285"	"30.388"	"29.514"	"29.418"	"25.307"	"20.957"	"15.867"
"1915"	"16.289"	"16.981"	"23.142"	"29.769"	"35.538"	"34.277"	"31.376"	"29.647"	"29.136"	"27.389"	"21.138"	"16.026"
"1916"	"15.611"	"17.733"	"26.276"	"31.237"	"34.519"	"31.485"	"30.461"	"29.298"	"29.107"	"26.558"	"19.756"	"14.545"
"1917"	"15.375"	"17.733"	"22.952"	"27.197"	"29.987"	"32.405"	"30.424"	"29.733"	"28.655"	"26.078"	"19.198"	"15.572"
"1918"	"14.534"	"18.629"	"24.505"	"28.845"	"34.615"	"31.746"	"33.07"	"30.009"	"29.956"	"26.568"	"20.35"	"14.869"
"1919"	"15.46"	"16.426"	"24.173"	"28.914"	"33.251"	"34.441"	"29.982"	"29.671"	"29.219"	"25.879"	"20.309"	"15.364"
"1920"	"15.976"	"17.335"	"23.574"	"30.048"	"31.6"	"34.151"	"30.103"	"29.769"	"30.028"	"27.268"	"21.245"	"16.438"
"1921"	"16.172"	"18.559"	"26.67"	"32.086"	"36.623"	"33.917"	"31.874"	"28.861"	"28.725"	"25.478"	"19.633"	"16.98"
"1922"	"15.26"	"19.232"	"25.343"	"30.378"	"35.403"	"33.354"	"29.986"	"28.821"	"28.713"	"25.358"	"20.203"	"15.029"
"1923"	"15.716"	"17.286"	"24.48"	"31.181"	"34.39"	"36.424"	"30.442"	"29.415"	"29.405"	"25.358"	"20.435"	"16.182"
"1924"	"15.061"	"18.132"	"26.059"	"31.288"	"32.724"	"36.655"	"30.032"	"29.295"	"28.824"	"26.557"	"20.244"	"15.892"
"1925"	"14.101"	"16.981"	"24.05"	"30.763"	"33.025"	"32.355"	"29.396"	"29.926"	"28.944"	"26.501"	"19.428"	"15.192"
"1926"	"15.252"	"19.076"	"22.682"	"26.841"	"32.209"	"36.185"	"31.794"	"29.778"	"28.814"	"25.714"	"18.594"	"15.503"
"1927"	"14.401"	"16.958"	"22.85"	"29.744"	"33.111"	"34.691"	"30.795"	"29.381"	"29.786"	"26.358"	"19.579"	"16.778"
"1928"	"15.306"	"18.346"	"24.516"	"29.404"	"34.934"	"33.475"	"30.438"	"30.986"	"30.671"	"27.283"	"21.107"	"16.213"
"1929"	"15.34"	"17.022"	"25.231"	"30.736"	"35.391"	"33.992"	"30.653"	"28.713"	"30.182"	"25.637"	"20.316"	"15.435"
"1930"	"14.661"	"17.575"	"25.15"	"29.837"	"33.988"	"33.995"	"30.173"	"29.37"	"29.444"	"26.572"	"19.917"	"15.649"
"1931"	"17.02"	"17.011"	"23.855"	"31.637"	"34.393"	"35.767"	"31.153"	"30.269"	"29.175"	"26.054"	"20.089"	"16.503"
"1932"	"17.394"	"17.026"	"24.701"	"30.011"	"33.686"	"35.485"	"31.728"	"29.255"	"29.462"	"26.502"	"20.563"	"15.66"
"1933"	"14.065"	"18.748"	"24.804"	"27.573"	"30.828"	"32.77"	"30.424"	"29.789"	"29.226"	"26.277"	"20.275"	"16.099"
"1934"	"15.232"	"18.905"	"23.562"	"30.446"	"34.255"	"33.436"	"30.461"	"29.286"	"29.507"	"25.754"	"20.416"	"15.946"
"1935"	"14.005"	"18.225"	"24.261"	"27.357"	"35.009"	"35.412"	"30.395"	"28.929"	"28.842"	"25.604"	"20.365"	"15.266"
"1936"	"14.501"	"17.391"	"24.298"	"29.148"	"34.151"	"31.483"	"29.667"	"28.985"	"28.722"	"25.668"	"20.434"	"16.372"
"1937"	"14.338"	"17.723"	"22.885"	"28.274"	"33.245"	"33.745"	"30.949"	"28.575"	"28.989"	"24.916"	"20.572"	"14.915"
"1938"	"15.526"	"15.965"	"25.497"	"30.938"	"33.926"	"31.538"	"30.033"	"29.331"	"29.4"	"26.817"	"19.345"	"15.806"
"1939"	"16.394"	"17.948"	"22.605"	"29.091"	"35.211"	"32.872"	"30.338"	"29.099"	"28.838"	"26.5"	"20.273"	"15.88"
"1940"	"15.327"	"17.188"	"22.066"	"28.86"	"34.126"	"34.627"	"31.022"	"29.594"	"29.004"	"26.403"	"21.173"	"15.298"
"1941"	"15.201"	"18.512"	"26.374"	"32.538"	"34.403"	"32.96"	"31.858"	"30.062"	"29.719"	"27.506"	"20.52"	"16.754"
"1942"	"14.846"	"18.881"	"25.339"	"30.497"	"35.188"	"35.281"	"30.424"	"29.48"	"28.857"	"26.569"	"21.644"	"15.837"
"1943"	"17.105"	"18.429"	"25.362"	"28.459"	"35.09"	"34.61"	"31.068"	"28.77"	"29.711"	"26.451"	"21.494"	"16.864"
"1944"	"15.159"	"17.3"	"22.961"	"28.324"	"35.692"	"33.784"	"30.549"	"29.707"	"29.599"	"25.899"	"21.275"	"17.678"
"1945"	"13.793"	"17.438"	"24.761"	"28.328"	"33.979"	"34.957"	"31.361"	"30.5"	"29.319"	"25.334"	"20.342"	"14.792"
"1946"	"17.03"	"20.208"	"24.204"	"29.934"	"32.893"	"33.05"	"30.155"	"29.98"	"29.925"	"26.46"	"20.838"	"17.238"
"1947"	"14.988"	"18.869"	"25.379"	"31.647"	"34.687"	"35.535"	"30.461"	"29.87"	"29.562"	"26.032"	"21.4"	"16.571"
"1948"	"16.371"	"17.874"	"23.668"	"31.724"	"35.358"	"35.457"	"30.35"	"29.295"	"28.998"	"26.361"	"20.155"	"15.72"
"1949"	"17.334"	"18.513"	"24.854"	"30.842"	"33.651"	"35.083"	"31.017"	"29.351"	"29.516"	"27.166"	"19.381"	"14.782"
"1950"	"16.435"	"17.301"	"23.173"	"29.324"	"34.304"	"33.609"	"30.366"	"29.331"	"29.219"	"26.078"	"20.24"	"15.99"
"1951"	"14.714"	"18.173"	"24.007"	"28.672"	"33.72"	"34.28"	"31.542"	"29.746"	"29.163"	"28.393"	"21.732"	"16.256"
"1952"	"17.241"	"20.379"	"23.718"	"31.084"	"34.769"	"33.125"	"30.339"	"29.05"	"29.644"	"26.852"	"20.654"	"16.718"
"1953"	"15.178"	"20.471"	"27.748"	"30.869"	"34.771"	"34.406"	"29.699"	"28.752"	"29.151"	"25.922"	"20.38"	"17.83"
"1954"	"14.627"	"19.387"	"24.972"	"31.594"	"35.618"	"34.165"	"31.208"	"29.419"	"29.263"	"25.027"	"20.317"	"15.892"
"1955"	"15.712"	"18.83"	"26.337"	"29.007"	"34.041"	"33.906"	"29.867"	"29.275"	"29.058"	"25.619"	"20.465"	"16.392"
"1956"	"16.045"	"18.609"	"25.016"	"31.406"	"35.171"	"31.941"	"30.218"	"29.351"	"28.636"	"25.917"	"19.88"	"16.404"
"1957"	"15.884"	"17.622"	"23.272"	"29.704"	"34.192"	"34.315"	"30.906"	"30.068"	"29.008"	"26.438"	"21.553"	"17.118"
"1958"	"17.415"	"18.979"	"25.515"	"32.043"	"35.189"	"35.909"	"30.863"	"29.489"	"29.472"	"26.415"	"21.529"	"17.162"
"1959"	"16.347"	"17.713"	"25.505"	"30.948"	"34.391"	"34.834"	"30.873"	"29.658"	"29.608"	"26.557"	"21.053"	"17.094"
"1960"	"15.567"	"21.149"	"24.108"	"29.948"	"34.476"	"35.36"	"30.438"	"29.682"	"29.612"	"26.158"	"20.034"	"17.438"
"1961"	"16.2"	"16.679"	"25.575"	"30.7"	"34.44"	"33.881"	"30.973"	"29.422"	"29.351"	"25.764"	"19.484"	"13.554"
"1962"	"14.721"	"18.579"	"24.461"	"30.448"	"34.197"	"36.574"	"32.081"	"29.257"	"28.452"	"25.404"	"20.828"	"16.63"
"1963"	"15.112"	"19.865"	"24.217"	"29.777"	"32.78"	"33.07"	"30.787"	"29.682"	"28.862"	"26.907"	"22.366"	"16.472"
"1964"	"15.198"	"18.506"	"26.394"	"31.195"	"32.642"	"34.532"	"29.905"	"29.718"	"28.706"	"27.094"	"20.381"	"16.825"
"1965"	"17.148"	"18.501"	"23.571"	"28.603"	"33.734"	"36.35"	"31.292"	"29.934"	"29.005"	"26.668"	"21.759"	"16.158"
"1966"	"16.539"	"20.975"	"25.369"	"31.479"	"34.901"	"34.086"	"32.225"	"29.671"	"29.818"	"27.22"	"21.767"	"15.873"
"1967"	"15.287"	"20.164"	"23.121"	"29.342"	"33.872"	"35.167"	"30.461"	"28.513"	"28.915"	"26.055"	"20.373"	"16.692"
"1968"	"14.717"	"16.924"	"23.973"	"29.537"	"33.91"	"32.959"	"30.424"	"29.695"	"30.605"	"26.152"	"20.953"	"16.471"
"1969"	"15.797"	"19.771"	"27.306"	"30.971"	"32.695"	"35.347"	"30.162"	"28.969"	"28.619"	"27.124"	"22.307"	"16.571"
"1970"	"16.117"	"17.673"	"23.761"	"31.432"	"33.979"	"32.476"	"30.866"	"29.758"	"28.665"	"26.782"	"20.54"	"16.803"
"1971"	"15.274"	"17.969"	"23.452"	"28.753"	"31.296"	"31.056"	"29.251"	"28.009"	"29.227"	"26.146"	"20.612"	"16.772"
"1972"	"15.776"	"16.526"	"24.984"	"29.599"	"34.785"	"34.699"	"31.752"	"29.109"	"28.496"	"25.383"	"21.158"	"16.948"
"1973"	"16.174"	"19.389"	"23.958"	"31.507"	"34.809"	"33.479"	"30.872"	"29.643"	"29.2"	"26.471"	"20.258"	"15.458"
"1974"	"15.16"	"17.686"	"25.507"	"31.881"	"34.322"	"34.415"	"30.096"	"28.808"	"29.332"	"27.887"	"20.877"	"15.458"
"1975"	"15.541"	"18.283"	"23.875"	"31.495"	"35.297"	"33.23"	"29.526"	"29.058"	"28.57"	"27.619"	"19.733"	"15.948"
"1976"	"16.114"	"18.657"	"24.486"	"28.76"	"32.421"	"33.15"	"30.404"	"27.896"	"28.898"	"27.151"	"22.449"	"16.48"
"1977"	"15.408"	"18.666"	"25.842"	"29.442"	"31.902"	"33.814"	"29.708"	"29.368"	"28.654"	"26.902"	"22.785"	"16.788"
"1978"	"15.306"	"17.181"	"22.002"	"29.039"	"35.606"	"33.22"	"29.866"	"28.977"	"28.066"	"26.746"	"22.09"	"16.043"
"1979"	"16.798"	"17.368"	"23.016"	"29.628"	"32.692"	"33.257"	"29.875"	"30.037"	"30.101"	"27.849"	"23.757"	"17.126"
"1980"	"16.044"	"18.845"	"24.176"	"31.24"	"33.379"	"31.447"	"28.165"	"28.152"	"28.741"	"26.748"	"21.441"	"17.048"
"1981"	"16.002"	"19.157"	"23.632"	"29.458"	"32.805"	"33.275"	"29.222"	"29.249"	"28.389"	"26.233"	"20.043"	"15.885"
"1982"	"16.873"	"17.375"	"22.104"	"29.03"	"32.654"	"32.513"	"32.329"	"29.248"	"29.007"	"26.628"	"21.612"	"17.143"
"1983"	"14.648"	"17.527"	"23.785"	"28.056"	"32.493"	"34.238"	"30.938"	"29.73"	"29.394"	"26.177"	"20.155"	"16.674"
"1984"	"16.097"	"16.546"	"25.142"	"30.771"	"35.26"	"32.667"	"30.215"	"29.188"	"28.564"	"26.582"	"20.237"	"17.182"
"1985"	"16.17"	"18.596"	"26.402"	"30.985"	"34.645"	"34.802"	"29.567"	"29.598"	"28.809"	"25.685"	"21.548"	"18.09"
"1986"	"16.083"	"18.389"	"24.697"	"30.107"	"32.404"	"34.604"	"29.906"	"29.664"	"29.339"	"25.845"	"21.419"	"16.218"
"1987"	"15.48"	"19.687"	"24.743"	"30.416"	"32.802"	"36.416"	"31.878"	"30.906"	"29.975"	"27.089"	"21.441"	"16.515"
"1988"	"17.069"	"19.21"	"24.269"	"31.306"	"35.157"	"33.421"	"30.027"	"29.275"	"30.581"	"26.362"	"21.202"	"17.405"
"1989"	"14.822"	"17.879"	"23.942"	"29.936"	"34.413"	"32.448"	"30.402"	"27.603"	"29.119"	"26.561"	"20.902"	"15.921"
"1990"	"17.291"	"18.436"	"22.975"	"30.189"	"33.352"	"34.319"	"29.532"	"29.721"	"29.251"	"26.242"	"21.51"	"16.489"
"1991"	"15.543"	"19.794"	"24.49"	"29.887"	"35.146"	"33.989"	"32.413"	"28.858"	"29.364"	"25.915"	"20.266"	"16.731"
"1992"	"16.517"	"17.02"	"24.843"	"30.748"	"32.858"	"34.251"	"30.706"	"29.53"	"29.116"	"26.177"	"21.509"	"16.133"
"1993"	"16.257"	"19.458"	"22.352"	"29.237"	"33.462"	"33.22"	"31.369"	"30.075"	"28.153"	"26.724"	"21.77"	"17.05"
"1994"	"17.08"	"18.12"	"25.699"	"29.375"	"35.001"	"34.165"	"30.279"	"29.224"	"29.287"	"25.999"	"21.13"	"17.038"
"1995"	"15.015"	"18.752"	"23.879"	"30.86"	"36.246"	"35.35"	"31.033"	"29.169"	"29.192"	"27.335"	"21.578"	"17.657"
"1996"	"16.453"	"18.611"	"25.452"	"30.337"	"35.084"	"33.832"	"30.807"	"28.862"	"29.655"	"25.991"	"21.002"	"16.08"
"1997"	"15.778"	"17.618"	"24.353"	"29.18"	"32.606"	"33.941"	"32.866"	"29.493"	"28.751"	"25.02"	"20.855"	"16.548"
"1998"	"13.311"	"19.454"	"22.905"	"30.346"	"34.797"	"34.833"	"30.362"	"29.682"	"29.602"	"27.676"	"23.481"	"18.058"
"1999"	"15.483"	"20.515"	"25.705"	"32.689"	"34.001"	"33.182"	"30.831"	"29.647"	"28.947"	"27.359"	"23.559"	"17.672"
"2000"	"16.467"	"18.735"	"24.053"	"31.779"	"33.552"	"32.131"	"30.542"	"30.024"	"28.612"	"28.006"	"23.664"	"17.301"
"2001"	"15.424"	"19.075"	"24.54"	"29.199"	"33.425"	"32.218"	"30.268"	"30.257"	"30.11"	"27.728"	"22.808"	"17.373"
"2002"	"16.602"	"17.355"	"25.451"	"30.972"	"35.464"	"34.227"	"33.121"	"29.814"	"28.574"	"27.042"	"21.729"	"16.777"
