
"Year"	"Jan"	"Feb"	"Mar"	"Apr"	"May"	"Jun"	"Jul"	"Aug"	"Sep"	"Oct"	"Nov"	"Dec"
"1901"	"56.315"	"7.554"	"5.217"	"11.77"	"22.479"	"160.417"	"196.156"	"276.243"	"170.585"	"40.265"	"13.745"	"0.007"
"1902"	"0.035"	"0"	"14.678"	"22.507"	"24.061"	"141.28"	"364.644"	"203.987"	"390.777"	"34.625"	"0.007"	"1.077"
"1903"	"6.96"	"6.303"	"10.004"	"23.509"	"67.497"	"280.741"	"138.555"	"248.53"	"175.061"	"115.519"	"5.214"	"0"
"1904"	"0.679"	"4.219"	"25.046"	"8.141"	"229.446"	"174.785"	"291.132"	"271.86"	"125.044"	"32.179"	"9.136"	"0.066"
"1905"	"13.936"	"25.307"	"29.06"	"15.663"	"70.022"	"40.977"	"450.089"	"340.237"	"296.647"	"27.352"	"0.049"	"0.775"
"1906"	"20.659"	"50.595"	"22.387"	"4.119"	"44.374"	"167.449"	"350.921"	"208.02"	"163.357"	"141.6"	"1.958"	"0"
"1907"	"5.942"	"27.142"	"29.191"	"29.047"	"36.613"	"232.557"	"210.26"	"218.15"	"217.494"	"37.88"	"0"	"1.202"
"1908"	"10.978"	"28.452"	"6.596"	"3.785"	"33.229"	"176.312"	"293.372"	"238.352"	"130.329"	"48.939"	"0.007"	"0.706"
"1909"	"9.241"	"4.216"	"0"	"51.382"	"27.805"	"254.685"	"293.708"	"348.022"	"209.904"	"20.823"	"0.744"	"2.689"
"1910"	"1.722"	"12.046"	"20.276"	"27.958"	"33.073"	"217.844"	"387.572"	"306.932"	"199.429"	"73.831"	"5.446"	"0"
"1911"	"12.18"	"0.233"	"20.755"	"5.735"	"42.432"	"373.34"	"244.906"	"250.496"	"268.425"	"120.933"	"13.478"	"0"
"1912"	"2.188"	"8.589"	"7.328"	"32.605"	"59.176"	"173.884"	"343.157"	"255.948"	"68.635"	"30.847"	"11.512"	"1.141"
"1913"	"0.035"	"36.05"	"32.087"	"2.332"	"82.838"	"456.901"	"197.158"	"304.499"	"205.444"	"71.5"	"0.864"	"15.235"
"1914"	"0.035"	"26.155"	"16.064"	"30.782"	"84.659"	"88.42"	"373.264"	"312.943"	"120.951"	"36.149"	"0.01"	"2.487"
"1915"	"2.037"	"36.46"	"15.17"	"11.801"	"63.591"	"231.846"	"300.093"	"274.509"	"226.751"	"55.398"	"9.36"	"0"
"1916"	"0.103"	"10.488"	"4.036"	"13.062"	"18.828"	"229.184"	"345.328"	"253.126"	"265.775"	"219.871"	"6.392"	"0"
"1917"	"2.005"	"18.732"	"6.432"	"11.082"	"97.627"	"197.544"	"333.659"	"162.71"	"297.333"	"224.012"	"6.614"	"0"
"1918"	"1.423"	"1.463"	"7.896"	"16.861"	"64.64"	"205.598"	"233.991"	"419.911"	"202.516"	"22.543"	"0"	"0.828"
"1919"	"25.196"	"6.849"	"11.193"	"10.885"	"87.933"	"130.677"	"305.732"	"355.709"	"194.15"	"127.74"	"4.78"	"0"
"1920"	"2.839"	"27.277"	"31.646"	"8.328"	"44.097"	"108.757"	"353.311"	"240.234"	"313.61"	"25.369"	"0"	"0"
"1921"	"32.735"	"2.124"	"5.748"	"8.393"	"25.964"	"173.576"	"306.302"	"349.839"	"182.259"	"31.52"	"0.007"	"0"
"1922"	"12.747"	"8.393"	"0.75"	"6.766"	"17.237"	"447.852"	"384.856"	"287.48"	"279.832"	"62.124"	"0"	"10.315"
"1923"	"0.452"	"43.224"	"1.305"	"4.389"	"22.766"	"143.884"	"212.934"	"310.656"	"157.425"	"49.797"	"1.002"	"0.333"
"1924"	"3.643"	"5.73"	"1.694"	"25.582"	"37.306"	"206.228"	"354.705"	"290.533"	"247.003"	"90.014"	"39.585"	"0"
"1925"	"33.865"	"3.693"	"6.245"	"36.351"	"52.292"	"136.208"	"370.164"	"307.036"	"222.382"	"32.815"	"2.784"	"0"
"1926"	"29.005"	"0.233"	"48.326"	"12.18"	"120.954"	"60.337"	"490.38"	"279.749"	"231.819"	"50.248"	"0"	"4.006"
"1927"	"29.718"	"43.348"	"35.586"	"4.172"	"51.782"	"145.464"	"265.109"	"325.71"	"123.319"	"52.58"	"25.733"	"0"
"1928"	"43.255"	"8.008"	"2.196"	"12.589"	"73.892"	"258.823"	"435.153"	"178.166"	"232.387"	"153.29"	"0.275"	"1.331"
"1929"	"32.838"	"0.548"	"7.462"	"14.024"	"54.886"	"218.913"	"357.516"	"196.573"	"76.868"	"274.137"	"0.266"	"6.069"
"1930"	"9.945"	"8.404"	"6.592"	"12.379"	"44.323"	"145.809"	"294.007"	"213.007"	"192.691"	"62.51"	"15.021"	"8.017"
"1931"	"9.46"	"31.329"	"17.402"	"2.832"	"34.722"	"106.331"	"549.081"	"207.257"	"400.271"	"51.466"	"6.09"	"0.829"
"1932"	"0.035"	"17.722"	"3.837"	"14.234"	"66.546"	"168.414"	"201.834"	"262.473"	"229.419"	"42.226"	"37.148"	"6.781"
"1933"	"41.215"	"12.965"	"2.65"	"29.176"	"66.819"	"168.42"	"473.968"	"371.199"	"159.287"	"69.162"	"0"	"0"
"1934"	"26.755"	"25.265"	"1.238"	"25.539"	"40.416"	"223.778"	"344.067"	"289.884"	"257.751"	"55.497"	"2.788"	"0.732"
"1935"	"10.106"	"17.269"	"3.258"	"9.982"	"26.781"	"165.408"	"192.958"	"460.847"	"234.301"	"27.312"	"0"	"0.329"
"1936"	"5.635"	"7.116"	"15.003"	"11.256"	"113.6"	"182.681"	"424.266"	"230.326"	"414.679"	"101.824"	"0.069"	"14.465"
"1937"	"0.035"	"33.193"	"4.036"	"37.855"	"41.472"	"135.431"	"156.807"	"334.335"	"260.927"	"142.921"	"0.179"	"0.177"
"1938"	"5.062"	"16.894"	"6.46"	"7.193"	"88.009"	"402.239"	"278.414"	"248.448"	"169.819"	"55.15"	"1.898"	"0"
"1939"	"5.219"	"23.197"	"9.331"	"10.441"	"36.436"	"190.837"	"400.556"	"254.17"	"301.494"	"98.758"	"0.472"	"0"
"1940"	"0.069"	"36.048"	"41.322"	"7.525"	"43.421"	"142.115"	"434.027"	"289.196"	"140.219"	"35.597"	"0.014"	"3.378"
"1941"	"21.409"	"4.287"	"10.999"	"10.909"	"47.683"	"203.195"	"283.875"	"299.567"	"251.391"	"86.115"	"4.968"	"0.007"
"1942"	"21.064"	"32.474"	"10.939"	"16.114"	"16.729"	"153.879"	"269.279"	"432.307"	"392.491"	"16.449"	"0.756"	"0.706"
"1943"	"30.264"	"12.398"	"12.928"	"50.884"	"65.576"	"143.563"	"410.777"	"325.282"	"239.583"	"50.639"	"0.007"	"0"
"1944"	"24.981"	"21.538"	"48.533"	"20.913"	"29.489"	"243.121"	"230.738"	"373.099"	"163.408"	"68.739"	"0"	"0"
"1945"	"59.13"	"18.686"	"3.414"	"9.33"	"57.286"	"156.818"	"260.988"	"192.079"	"297.799"	"179.601"	"0"	"1.331"
"1946"	"0.035"	"15.165"	"23.292"	"24.242"	"66.407"	"125.316"	"404.454"	"294.108"	"275.516"	"130.158"	"14.285"	"0"
"1947"	"15.357"	"5.819"	"17.078"	"4.575"	"38.468"	"122.076"	"446.978"	"208.509"	"326.781"	"62.734"	"0.151"	"0.949"
"1948"	"6.048"	"8.9"	"7.062"	"42.74"	"81.891"	"118.248"	"362.284"	"242.63"	"307.859"	"102.038"	"8.626"	"0"
"1949"	"5.347"	"37.998"	"10.241"	"14.184"	"102.455"	"369.786"	"367.514"	"392.31"	"153.884"	"68.967"	"0.045"	"0"
"1950"	"1.84"	"12.782"	"40.845"	"6.379"	"12.961"	"309.199"	"205.054"	"290.6"	"159.192"	"52.334"	"3.405"	"0"
"1951"	"7.302"	"0"	"39.326"	"13.669"	"20.16"	"143.614"	"463.17"	"290.04"	"278.055"	"94.067"	"20.962"	"0"
"1952"	"0.035"	"8.544"	"22.658"	"21.19"	"25.322"	"387.45"	"256.492"	"262.715"	"232.838"	"90.73"	"11.894"	"0"
"1953"	"63.175"	"4.682"	"6.156"	"7.573"	"20.031"	"195.33"	"425.902"	"252.627"	"275.575"	"6.507"	"0.36"	"0.303"
"1954"	"23.293"	"5.834"	"3.031"	"5.728"	"47.51"	"225.635"	"359.887"	"259.982"	"264.697"	"57.766"	"0"	"1.301"
"1955"	"26.786"	"9.813"	"2.907"	"13.521"	"16.453"	"218.285"	"595.328"	"148.167"	"136.86"	"81.907"	"6.115"	"1.721"
"1956"	"20.798"	"13.768"	"12.629"	"33.627"	"130.616"	"287.012"	"196.74"	"295.731"	"329.817"	"108.209"	"36.655"	"7.041"
"1957"	"18.947"	"5.347"	"10.806"	"0.505"	"26.086"	"142.525"	"305.827"	"147.699"	"174.168"	"33.854"	"0.014"	"2.361"
"1958"	"22.502"	"10.004"	"17.656"	"20.591"	"25.776"	"187.336"	"269.743"	"349.228"	"217.676"	"134.05"	"0.917"	"0"
"1959"	"34.987"	"0"	"1.875"	"1.783"	"42.254"	"131.547"	"274.227"	"280.655"	"388.581"	"223.507"	"0"	"0.01"
"1960"	"0.715"	"0"	"24.771"	"3.418"	"16.453"	"106.394"	"275.14"	"253.209"	"236.137"	"41.116"	"0.777"	"0"
"1961"	"11.011"	"50.509"	"1.32"	"0.203"	"25.734"	"178.337"	"217.473"	"264.101"	"270.311"	"81.361"	"3.864"	"3.953"
"1962"	"19.88"	"11.609"	"5.267"	"11.084"	"28.153"	"138.615"	"241.219"	"339.993"	"247.094"	"35.012"	"0"	"3.07"
"1963"	"2.664"	"1.296"	"45.452"	"22.442"	"111.501"	"189.601"	"312.035"	"183.409"	"187.864"	"181.543"	"14.641"	"0.165"
"1964"	"0.035"	"0"	"4.745"	"25.331"	"30.883"	"134.47"	"340.524"	"295.078"	"153.083"	"44.037"	"0.497"	"0"
"1965"	"0.035"	"6.034"	"9.018"	"30.725"	"33.842"	"74.83"	"306.563"	"221.916"	"145.846"	"30.663"	"7.172"	"0.5"
"1966"	"35.117"	"9.749"	"0.041"	"2.618"	"17.442"	"128.637"	"162.972"	"243.281"	"126.798"	"18.869"	"34.857"	"7.544"
"1967"	"6.316"	"0.405"	"41.697"	"31.503"	"15.614"	"92.664"	"282.575"	"333.393"	"118.035"	"24.996"	"0.056"	"0.688"
"1968"	"29.191"	"1.649"	"5.269"	"10.046"	"9.437"	"310.098"	"341.028"	"253.457"	"104.925"	"159.547"	"2.708"	"4.314"
"1969"	"3.375"	"9.851"	"10.196"	"18.99"	"79.613"	"173.665"	"288.107"	"303.357"	"196.57"	"42.569"	"15.852"	"0"
"1970"	"16.502"	"13.346"	"7.346"	"2.86"	"38.548"	"224.516"	"362.313"	"215.997"	"230.851"	"105.627"	"1.634"	"0"
"1971"	"15.538"	"11.033"	"8.692"	"65.035"	"84.425"	"324.168"	"325.445"	"272.657"	"169.509"	"141.988"	"2.357"	"0"
"1972"	"11.015"	"24.661"	"1.183"	"20.308"	"24.969"	"96.758"	"187.865"	"152.226"	"321.643"	"92.188"	"5.989"	"0.258"
"1973"	"37.009"	"7.176"	"8.544"	"3.105"	"46.424"	"290.629"	"261.165"	"317.92"	"239.809"	"328.064"	"28.482"	"1.99"
"1974"	"11.183"	"0.618"	"16.02"	"16.259"	"65.727"	"162.901"	"483.218"	"241.164"	"201.9"	"93.802"	"5.93"	"1.718"
"1975"	"39.146"	"7.625"	"6.744"	"8.571"	"72.441"	"163.699"	"341.733"	"88.653"	"372.796"	"48.124"	"1.249"	"0"
"1976"	"2.591"	"24.329"	"0.381"	"32.252"	"67.48"	"165.536"	"273.152"	"331.747"	"212.974"	"3.984"	"0.041"	"0"
"1977"	"2.302"	"8.479"	"1.579"	"41.491"	"120.801"	"151.671"	"366.394"	"186.093"	"127.456"	"122.046"	"21.153"	"16.596"
"1978"	"9.33"	"27.663"	"40.314"	"32.997"	"63.327"	"166.148"	"306.406"	"200.511"	"306.772"	"94.769"	"18.792"	"4.579"
"1979"	"25.644"	"21.108"	"0.393"	"24.052"	"16.157"	"97.62"	"390.62"	"273.423"	"136.851"	"135.385"	"12.537"	"22.102"
"1980"	"11.069"	"9.094"	"27.92"	"1.23"	"76.781"	"227.635"	"314.606"	"192.617"	"145.507"	"19.327"	"8.04"	"0.293"
"1981"	"17.311"	"3.092"	"25.392"	"25.743"	"72.024"	"121.23"	"381.678"	"177.023"	"133.136"	"0.805"	"3.459"	"4.093"
"1982"	"7.921"	"7.432"	"20.238"	"29.178"	"40.83"	"106.302"	"182.595"	"130.088"	"279.948"	"48.837"	"9.069"	"0.622"
"1983"	"27.159"	"3.453"	"6.446"	"18.804"	"99.434"	"163.324"	"483.804"	"157.791"	"134.678"	"110.882"	"0"	"7.726"
"1984"	"29.629"	"15.936"	"5.944"	"24.239"	"47.476"	"292.646"	"418.671"	"179.101"	"587.101"	"32.456"	"0"	"0"
"1985"	"9.439"	"7.16"	"1.961"	"4.585"	"57.334"	"83.848"	"400.414"	"112.138"	"192.911"	"53.397"	"1.84"	"23.253"
"1986"	"3.731"	"6.445"	"0.614"	"32.802"	"80.694"	"162.795"	"250.284"	"203.052"	"169.355"	"56.776"	"13.769"	"6.507"
"1987"	"0.452"	"15.474"	"16.414"	"14.452"	"53.825"	"195.38"	"269.576"	"584.125"	"373.467"	"235.068"	"7.302"	"1.906"
"1988"	"7.266"	"29.608"	"25.291"	"17.487"	"57.051"	"120.988"	"265.185"	"470.238"	"183.031"	"27.911"	"10.301"	"4.981"
"1989"	"20.504"	"13.034"	"5.126"	"1.41"	"88.927"	"226.932"	"276.837"	"236.577"	"300.723"	"46.421"	"10.497"	"5.709"
"1990"	"0.035"	"14.068"	"8.388"	"20.636"	"142.905"	"133.239"	"256.99"	"260.199"	"230.258"	"87.201"	"0.723"	"0.029"
"1991"	"18.899"	"0.889"	"23.635"	"11.139"	"44.287"	"110.302"	"230.767"	"429.561"	"191.634"	"46.056"	"0.705"	"5.236"
"1992"	"14.634"	"3.857"	"2.452"	"8.623"	"47.8"	"47.957"	"295.651"	"206.386"	"147.366"	"34.374"	"0.488"	"0.242"
"1993"	"25.89"	"3.087"	"16.68"	"13.693"	"66.516"	"85.499"	"141.878"	"234.272"	"275.339"	"69.713"	"4.258"	"0"
"1994"	"61.745"	"11.601"	"18.468"	"28.85"	"26.378"	"70.13"	"215.176"	"309.023"	"83.334"	"112.05"	"6.397"	"0.084"
"1995"	"27.84"	"18.263"	"13.858"	"8.585"	"44.579"	"98.421"	"217.999"	"196.035"	"248.633"	"13.299"	"22.475"	"0.908"
"1996"	"24.046"	"9.826"	"2.689"	"16.667"	"39.064"	"38.342"	"177.352"	"308.67"	"160.343"	"124.821"	"0"	"0"
"1997"	"18.815"	"15.206"	"11.436"	"12.647"	"126.633"	"64.515"	"189.961"	"286.5"	"201.867"	"60.106"	"20.804"	"10.125"
"1998"	"3.569"	"21.348"	"10.356"	"20.975"	"124.754"	"60.274"	"211.682"	"256"	"198.415"	"226.806"	"15.647"	"0"
"1999"	"17.239"	"5.187"	"1.495"	"0.455"	"82.68"	"131.714"	"286.753"	"262.124"	"175.292"	"44.554"	"1.615"	"0.003"
"2000"	"11.991"	"10.345"	"11.572"	"15.337"	"39.559"	"164.475"	"130.049"	"187.94"	"259.925"	"5.25"	"0.012"	"0.005"
"2001"	"2.801"	"1.802"	"23.966"	"17.219"	"62.255"	"75.398"	"240.114"	"237.827"	"87.318"	"106.132"	"0.516"	"0"
"2002"	"21.389"	"5.956"	"6.145"	"18.114"	"38.602"	"84.101"	"206.789"	"251.604"	"210.163"	"118.027"	"12.499"	"0"
