
"Year"	"Jan"	"Feb"	"Mar"	"Apr"	"May"	"Jun"	"Jul"	"Aug"	"Sep"	"Oct"	"Nov"	"Dec"
"1901"	"24.41"	"25.509"	"28.37"	"31.782"	"30.817"	"29.004"	"26.813"	"26.41"	"27.827"	"26.781"	"24.34"	"22.608"
"1902"	"23.668"	"25.273"	"29.609"	"31.709"	"33.387"	"30.103"	"28.412"	"28.021"	"26.71"	"26.806"	"23.164"	"23.141"
"1903"	"23.674"	"25.6"	"29.395"	"32.1"	"31.29"	"30.642"	"26.603"	"26.236"	"26.608"	"25.696"	"23.015"	"21.709"
"1904"	"22.822"	"24.532"	"28.532"	"32.281"	"31.524"	"28.432"	"27.268"	"27.416"	"26.777"	"26.378"	"23.048"	"21.807"
"1905"	"22.937"	"24.911"	"28.806"	"30.776"	"32.134"	"30.408"	"28.228"	"26.892"	"26.934"	"26.636"	"24.596"	"22.105"
"1906"	"24.126"	"25.999"	"28.423"	"32.979"	"33.533"	"28.85"	"27.682"	"26.847"	"26.484"	"26.301"	"24.187"	"22.921"
"1907"	"22.993"	"25.878"	"28.523"	"30.542"	"31.537"	"28.951"	"27.524"	"25.631"	"27.154"	"27.101"	"25.154"	"22.397"
"1908"	"22.856"	"25.464"	"28.305"	"32.865"	"32.811"	"30.328"	"26.92"	"26.31"	"26.359"	"26.199"	"23.014"	"21.095"
"1909"	"23.939"	"25.907"	"29.24"	"30.327"	"32.132"	"28.248"	"26.331"	"27.024"	"26.546"	"26.612"	"24.553"	"23.92"
"1910"	"23.502"	"25.327"	"29.147"	"32.591"	"32.681"	"29.233"	"27.974"	"26.999"	"26.036"	"26.036"	"22.414"	"21.223"
"1911"	"23.341"	"24.336"	"28.85"	"32.461"	"33.075"	"29.201"	"27.732"	"26.079"	"27.732"	"27.299"	"25.082"	"22.924"
"1912"	"23.528"	"26.468"	"29.617"	"31.807"	"32.99"	"31.356"	"27.276"	"26.522"	"27.152"	"26.706"	"23.696"	"21.691"
"1913"	"22.046"	"26.274"	"29.018"	"32.6"	"31.993"	"28.974"	"26.96"	"27.233"	"27.712"	"26.49"	"24.128"	"23.695"
"1914"	"22.638"	"26.279"	"29.037"	"31.155"	"32.135"	"29.092"	"26.754"	"26.113"	"26.267"	"26.191"	"24.314"	"23.21"
"1915"	"23.068"	"25.528"	"27.783"	"31.562"	"32.098"	"30.506"	"27.749"	"26.987"	"26.745"	"26.695"	"25.123"	"21.428"
"1916"	"23.457"	"25.981"	"29.037"	"31.765"	"32.002"	"27.783"	"27.332"	"26.822"	"26.736"	"26.175"	"23.794"	"21.109"
"1917"	"22.005"	"24.148"	"27.054"	"30.241"	"31.21"	"27.534"	"27.171"	"26.885"	"26.223"	"25.875"	"23.433"	"21.835"
"1918"	"21.856"	"24.501"	"27.927"	"31.367"	"30.066"	"28.865"	"28.916"	"27.078"	"27.474"	"27.001"	"25.082"	"23.007"
"1919"	"24.599"	"26.863"	"29.379"	"32.127"	"32.009"	"28.118"	"27.739"	"27.159"	"27.349"	"26.041"	"24.154"	"22.013"
"1920"	"22.907"	"25.254"	"29.296"	"31.186"	"31.92"	"29.993"	"27.795"	"28.08"	"27.609"	"27.45"	"24.709"	"22.583"
"1921"	"23.886"	"25.358"	"30.031"	"31.977"	"34.252"	"29.148"	"27.225"	"26.8"	"26.723"	"25.553"	"22.135"	"21.751"
"1922"	"23.006"	"24.941"	"29.233"	"32.382"	"32.159"	"29.287"	"27.294"	"27.492"	"26.487"	"25.901"	"23.952"	"21.365"
"1923"	"22.306"	"24.911"	"27.852"	"32.032"	"32.399"	"31.6"	"26.808"	"26.911"	"26.414"	"25.643"	"24.02"	"22.72"
"1924"	"23.531"	"26.483"	"29.07"	"33.063"	"33.146"	"30.21"	"27.873"	"27.482"	"26.487"	"25.675"	"22.886"	"21.583"
"1925"	"22.594"	"24.866"	"28.583"	"32.491"	"30.918"	"29.264"	"27.648"	"26.377"	"27.219"	"25.699"	"23.904"	"21.608"
"1926"	"23.684"	"25.68"	"29.219"	"30.692"	"31.752"	"31.657"	"28.193"	"27.119"	"27.064"	"26.712"	"23.827"	"22.68"
"1927"	"24.873"	"26.564"	"30.293"	"32.943"	"32.723"	"29.368"	"26.757"	"27.047"	"27.555"	"26.333"	"22.912"	"22.87"
"1928"	"23.999"	"25.967"	"28.879"	"31.687"	"33.437"	"29.604"	"27.42"	"27.215"	"27.065"	"26.43"	"24.531"	"22.978"
"1929"	"24.482"	"25.305"	"28.981"	"30.974"	"33.354"	"29.468"	"27.954"	"27.667"	"27.098"	"26.528"	"24.503"	"24.221"
"1930"	"24.252"	"24.903"	"29.223"	"31.336"	"32.498"	"30.326"	"27.836"	"27.461"	"27.186"	"26.435"	"23.584"	"23.58"
"1931"	"22.892"	"26.574"	"29.167"	"32.52"	"32.868"	"29.555"	"26.962"	"27.055"	"26.664"	"26.155"	"23.368"	"22.17"
"1932"	"21.957"	"24.721"	"27.361"	"31.274"	"31.334"	"29.413"	"26.78"	"27.345"	"26.675"	"26.962"	"24.669"	"22.306"
"1933"	"23.188"	"26.504"	"28.046"	"30.833"	"29.71"	"28.367"	"26.251"	"26.061"	"26.781"	"25.354"	"24.007"	"21.98"
"1934"	"22.369"	"25.005"	"28.334"	"31.941"	"33.045"	"29.874"	"26.987"	"26.43"	"26.916"	"26.57"	"22.815"	"21.621"
"1935"	"23.589"	"25.939"	"28.597"	"30.558"	"33.561"	"29.982"	"26.934"	"27.019"	"26.275"	"26.583"	"23.271"	"23.144"
"1936"	"25.027"	"25.59"	"28.018"	"31.564"	"32.043"	"28.103"	"27.666"	"26.697"	"27.583"	"26.657"	"24.078"	"22.774"
"1937"	"22.529"	"26.334"	"28.562"	"31.305"	"32.667"	"30.314"	"26.991"	"27.561"	"27.431"	"25.977"	"24.102"	"22.595"
"1938"	"24.516"	"26.072"	"29.719"	"32.02"	"32.335"	"26.991"	"26.453"	"26.48"	"26.213"	"25.261"	"22.801"	"21.713"
"1939"	"22.637"	"25.089"	"27.98"	"31.321"	"33.12"	"29.91"	"27.028"	"27.116"	"26.802"	"26.497"	"22.547"	"21.473"
"1940"	"21.467"	"25.307"	"28.388"	"31.073"	"31.511"	"29.261"	"26.174"	"26.282"	"27.041"	"26.214"	"24.704"	"23.105"
"1941"	"24.031"	"26.058"	"30.258"	"32.992"	"33.115"	"29.833"	"28.626"	"27.426"	"27.176"	"26.963"	"24.561"	"24.093"
"1942"	"23.916"	"26.007"	"29.492"	"31.957"	"32.921"	"29.643"	"27.082"	"26.522"	"26.355"	"25.82"	"23.824"	"23.401"
"1943"	"24.517"	"23.982"	"28.607"	"31.117"	"30.612"	"27.943"	"26.714"	"26.816"	"25.8"	"25.699"	"24.178"	"21.201"
"1944"	"23.86"	"25.503"	"26.889"	"30.766"	"32.827"	"29.666"	"26.912"	"27.447"	"26.985"	"26.276"	"23.851"	"22.521"
"1945"	"23.263"	"25.423"	"28.918"	"30.889"	"32.999"	"29.207"	"26.954"	"26.26"	"26.227"	"25.935"	"22.635"	"21.261"
"1946"	"21.548"	"24.601"	"29.162"	"31.286"	"32.155"	"28.39"	"27.314"	"26.714"	"27.018"	"27.295"	"24.717"	"23.531"
"1947"	"24.355"	"25.648"	"29.466"	"31.77"	"33.046"	"30.128"	"26.84"	"26.885"	"26.187"	"25.076"	"23.394"	"22.315"
"1948"	"23.793"	"26.074"	"28.216"	"31.347"	"32.921"	"29.76"	"27.693"	"26.766"	"26.376"	"26.696"	"25.374"	"20.894"
"1949"	"22.532"	"24.66"	"28.805"	"31.572"	"31.297"	"28.515"	"26.984"	"27.037"	"26.26"	"26.612"	"22.89"	"22.166"
"1950"	"22.634"	"25.119"	"27.716"	"31.676"	"32.337"	"28.957"	"27.072"	"27.523"	"26.214"	"25.708"	"23.27"	"21.847"
"1951"	"23.211"	"25.009"	"29.014"	"31.727"	"32.024"	"29.126"	"27.263"	"27.109"	"27.572"	"27.289"	"25.149"	"22.097"
"1952"	"23.393"	"26.166"	"28.695"	"32.428"	"32.791"	"30.064"	"28.338"	"27.079"	"27.203"	"26.314"	"22.732"	"23.366"
"1953"	"23.6"	"26.29"	"30.646"	"32.159"	"34.663"	"30.964"	"27.67"	"26.733"	"26.572"	"26.568"	"23.554"	"21.66"
"1954"	"23.121"	"26.511"	"28.799"	"32.625"	"33.736"	"29.715"	"26.865"	"27.024"	"26.218"	"25.284"	"22.652"	"23.115"
"1955"	"23.315"	"26.329"	"29.192"	"31.671"	"31.603"	"28.993"	"26.965"	"25.833"	"26.821"	"26.196"	"22.594"	"21.684"
"1956"	"23.066"	"24.734"	"29.633"	"32.367"	"31.782"	"28.668"	"25.757"	"26.331"	"26.289"	"25.419"	"24.134"	"22.309"
"1957"	"23.548"	"25.69"	"27.727"	"31.202"	"32.344"	"29.988"	"27.067"	"26.031"	"26.984"	"27.338"	"24.756"	"23.402"
"1958"	"23.677"	"26.351"	"29.345"	"31.955"	"32.669"	"31.732"	"26.657"	"26.817"	"26.782"	"26.464"	"25.011"	"22.791"
"1959"	"23.974"	"27.094"	"29.367"	"32.143"	"33.239"	"29.035"	"26.772"	"26.701"	"27.013"	"26.841"	"24.616"	"23.175"
"1960"	"24.42"	"25.585"	"29.089"	"31.76"	"32.344"	"29.327"	"28.047"	"28.156"	"27.145"	"26.378"	"24.295"	"23.327"
"1961"	"23.854"	"25.972"	"30.474"	"32.76"	"31.622"	"28.912"	"26.869"	"27"	"26.732"	"25.941"	"23.49"	"22.481"
"1962"	"22.258"	"25.465"	"28.725"	"30.998"	"31.604"	"29.881"	"27.424"	"27.018"	"26.506"	"26.451"	"23.592"	"22.13"
"1963"	"22.094"	"24.487"	"28.833"	"30.404"	"32.315"	"28.514"	"27.678"	"26.265"	"27.061"	"26.191"	"24.346"	"23.021"
"1964"	"23.833"	"26.664"	"30.208"	"32.548"	"33.354"	"29.759"	"27.382"	"26.351"	"26.066"	"26.422"	"23.313"	"21.739"
"1965"	"23.121"	"25.635"	"28.976"	"31.103"	"32.537"	"29.731"	"26.916"	"27.353"	"27.153"	"27.395"	"25.369"	"24.296"
"1966"	"24.512"	"26.98"	"30.498"	"32.589"	"32.765"	"30.363"	"28.369"	"27.866"	"26.708"	"26.45"	"25.23"	"22.66"
"1967"	"23.684"	"25.716"	"28.625"	"32.409"	"33.125"	"30.219"	"27.035"	"26.902"	"26.615"	"25.998"	"24.028"	"24.104"
"1968"	"22.848"	"26.6"	"28.557"	"31.336"	"32.721"	"29.766"	"27.451"	"27.378"	"26.681"	"25.702"	"24.375"	"24.044"
"1969"	"23.614"	"27.127"	"31.017"	"33.387"	"32.507"	"30.581"	"27.667"	"27.778"	"26.342"	"26.471"	"25.159"	"22.359"
"1970"	"23.972"	"27.004"	"30.624"	"32.598"	"32.749"	"28.414"	"27.849"	"26.412"	"26.848"	"26.458"	"23.68"	"21.105"
"1971"	"23.37"	"26.815"	"28.705"	"32.498"	"31.848"	"28.096"	"28.475"	"27.754"	"27.651"	"26.159"	"23.333"	"21.719"
"1972"	"22.648"	"26.121"	"29.646"	"32.258"	"32.646"	"31.302"	"28.261"	"28.125"	"28.275"	"27.054"	"24.905"	"24.174"
"1973"	"24.976"	"27.395"	"30.593"	"34.032"	"34.378"	"29.729"	"27.876"	"26.839"	"27.504"	"26.352"	"23.625"	"22.597"
"1974"	"23.231"	"26.527"	"29.906"	"32.96"	"31.888"	"29.142"	"28.441"	"27.338"	"27.191"	"26.242"	"23.809"	"21.72"
"1975"	"22.728"	"26.582"	"29.295"	"32.837"	"33.32"	"29.162"	"27.298"	"27.288"	"26.392"	"26.49"	"23.155"	"21.232"
"1976"	"22.109"	"25.289"	"29.85"	"31.835"	"32.604"	"30.019"	"27.081"	"26.468"	"26.914"	"28.046"	"25.774"	"23.9"
"1977"	"23.341"	"26.647"	"29.822"	"31.989"	"30.633"	"29.134"	"27.675"	"26.561"	"28.462"	"26.661"	"25.851"	"22.605"
"1978"	"23.989"	"25.584"	"29.352"	"31.964"	"32.454"	"28.547"	"26.742"	"25.653"	"26.722"	"26.73"	"25.585"	"23.777"
"1979"	"24.013"	"26.601"	"29.488"	"32.407"	"31.759"	"30.752"	"28.463"	"27.599"	"27.434"	"27.529"	"25.165"	"23.723"
"1980"	"24.463"	"27.883"	"30.194"	"32.163"	"34.009"	"29.055"	"27.693"	"26.429"	"27.742"	"28.238"	"25.728"	"23.822"
"1981"	"23.877"	"27.354"	"29.16"	"32.577"	"32.955"	"29.207"	"28.372"	"26.515"	"26.915"	"26.73"	"24.931"	"22.992"
"1982"	"24.447"	"28.167"	"30.675"	"32.042"	"32.423"	"29.89"	"27.959"	"27.781"	"27.75"	"27.295"	"25.204"	"23.407"
"1983"	"23.722"	"27.345"	"31.028"	"33.341"	"33.519"	"30.958"	"28.47"	"27.121"	"26.734"	"26.341"	"23.927"	"23.118"
"1984"	"24.665"	"26.091"	"29.797"	"32.277"	"34.771"	"29.658"	"27.192"	"27.462"	"27.864"	"26.999"	"24.222"	"24.247"
"1985"	"25.08"	"27.528"	"30.454"	"33.011"	"33.067"	"28.984"	"27.66"	"27.414"	"28.502"	"25.937"	"24.848"	"24.265"
"1986"	"23.021"	"26.578"	"30.625"	"33.132"	"33.645"	"29.595"	"28.416"	"27.229"	"28.82"	"28.32"	"25.993"	"24.497"
"1987"	"24.578"	"25.965"	"29.694"	"33.248"	"32.37"	"30.658"	"28.031"	"27.775"	"29.127"	"27.137"	"24.901"	"23.496"
"1988"	"24.172"	"27.655"	"31.023"	"31.849"	"34.149"	"30.674"	"27.313"	"27.067"	"27.183"	"27.11"	"24.915"	"23.33"
"1989"	"24.134"	"26.279"	"28.541"	"32.763"	"33.478"	"29.1"	"27.201"	"27.154"	"27.27"	"27.273"	"24.909"	"23.244"
"1990"	"24.183"	"26.786"	"29.717"	"32.958"	"29.447"	"28.092"	"27.615"	"27.023"	"27.823"	"26.233"	"25.582"	"23.686"
"1991"	"24.64"	"27.202"	"31.074"	"32.358"	"33.87"	"28.766"	"27.068"	"27.314"	"28.466"	"27.542"	"24.533"	"23.111"
"1992"	"22.807"	"26.427"	"30.151"	"32.709"	"33.131"	"30.49"	"28.617"	"26.905"	"27.858"	"27.326"	"25.588"	"22.529"
"1993"	"24.316"	"25.731"	"29.911"	"32.727"	"33.738"	"31.25"	"28.475"	"27.382"	"27.489"	"26.975"	"25.231"	"22.119"
"1994"	"24.186"	"26.754"	"31.018"	"31.687"	"33.883"	"29.85"	"27.32"	"27.223"	"28.553"	"26.67"	"24.077"	"22.072"
"1995"	"22.596"	"26.752"	"30.035"	"32.743"	"31.455"	"31.696"	"27.866"	"28.147"	"27.79"	"26.622"	"25.825"	"23.94"
"1996"	"25.117"	"27.001"	"30.913"	"31.725"	"34.057"	"30.179"	"28.44"	"26.917"	"27.379"	"26.222"	"25.109"	"23.034"
"1997"	"23.377"	"26.128"	"29.863"	"30.799"	"32.998"	"31.073"	"28.453"	"27.7"	"27.79"	"27.377"	"26.668"	"25.209"
"1998"	"25.671"	"27.816"	"31.02"	"33.804"	"34.22"	"31.765"	"28.974"	"27.689"	"27.62"	"27.113"	"25.567"	"22.692"
"1999"	"23.565"	"27.187"	"30.799"	"33.422"	"31.755"	"29.018"	"27.775"	"27.238"	"27.15"	"27.071"	"25.292"	"23.326"
"2000"	"24.791"	"27.085"	"29.66"	"33.46"	"32.011"	"28.255"	"27.246"	"27.099"	"27.473"	"27.77"	"25.726"	"23.162"
"2001"	"24.694"	"27.933"	"30.414"	"32.419"	"33.877"	"29.16"	"28.317"	"27.09"	"28.267"	"26.816"	"26.152"	"23.618"
"2002"	"24.302"	"26.957"	"30.873"	"33.696"	"33.456"	"29.597"	"28.772"	"26.815"	"27.943"	"27.38"	"24.835"	"23.89"
