
"Year"	"Jan"	"Feb"	"Mar"	"Apr"	"May"	"Jun"	"Jul"	"Aug"	"Sep"	"Oct"	"Nov"	"Dec"
"1901"	"11.562"	"5.725"	"3.654"	"0"	"11.146"	"20.402"	"161.594"	"149.201"	"0.762"	"0.548"	"0"	"3.245"
"1902"	"0"	"0"	"0.746"	"3.268"	"6.439"	"93.379"	"162.616"	"109.035"	"51.858"	"1.15"	"0"	"0"
"1903"	"1.449"	"0.035"	"0.943"	"0"	"7.678"	"3.536"	"178.977"	"98.084"	"70.768"	"4.289"	"0"	"1.462"
"1904"	"2.947"	"1.182"	"18.077"	"0.335"	"18.962"	"34.09"	"113.212"	"112.742"	"129.275"	"2.358"	"25.888"	"16.143"
"1905"	"16.843"	"11.201"	"2.346"	"5.002"	"0.871"	"15.202"	"89.828"	"1.719"	"50.905"	"0"	"0"	"0.697"
"1906"	"0"	"71.291"	"9.75"	"0"	"1.178"	"72.545"	"142.607"	"90.692"	"146.33"	"0"	"0"	"15.868"
"1907"	"6.53"	"33.316"	"3.579"	"30.646"	"3.585"	"6.351"	"74.677"	"165.969"	"0.71"	"0"	"0"	"0"
"1908"	"18.719"	"6.004"	"0"	"6.36"	"7.426"	"7.342"	"348.823"	"396.424"	"86.156"	"0.052"	"1.079"	"0"
"1909"	"9.535"	"9.291"	"0"	"39.091"	"23.588"	"114.65"	"284.358"	"108.546"	"146.968"	"0.391"	"0"	"17.307"
"1910"	"7.742"	"5.781"	"0.57"	"6.242"	"0.58"	"33.57"	"130.331"	"187.669"	"89.639"	"5.669"	"0"	"0"
"1911"	"18.461"	"0"	"20.284"	"1.008"	"0.201"	"52.802"	"25.093"	"26.136"	"136.366"	"9.369"	"51.498"	"0.138"
"1912"	"13.332"	"9.483"	"1.132"	"17.279"	"9"	"32.805"	"143.992"	"183.741"	"119.05"	"5.502"	"8.34"	"0.351"
"1913"	"0.662"	"20.454"	"3.899"	"2.637"	"19.08"	"89.113"	"73.623"	"45.246"	"24.867"	"0"	"2.975"	"5.191"
"1914"	"3.775"	"5.555"	"0.372"	"14.45"	"15.263"	"40.472"	"223.597"	"71.41"	"163.837"	"4.339"	"20.439"	"0"
"1915"	"13.568"	"26.956"	"25.982"	"19.65"	"0.542"	"19.141"	"60.064"	"51.792"	"56.808"	"14.666"	"0"	"0.147"
"1916"	"0.248"	"16.784"	"0.372"	"6.697"	"16.591"	"41.53"	"143.804"	"273.405"	"101.19"	"11.457"	"0"	"0"
"1917"	"5.157"	"12.157"	"2.729"	"23.35"	"42.071"	"94.928"	"204.875"	"214.797"	"187.052"	"18.715"	"0"	"10.569"
"1918"	"2.735"	"0"	"4.189"	"3.414"	"2.274"	"14.314"	"17.015"	"120.351"	"5.97"	"0"	"0"	"2.157"
"1919"	"27.285"	"2.115"	"1.67"	"19.012"	"7.607"	"0.592"	"111.08"	"198.871"	"74.203"	"0"	"6.691"	"5.233"
"1920"	"4.51"	"6.023"	"6.362"	"7.742"	"22.045"	"105.682"	"232.405"	"67.842"	"1.981"	"0.187"	"0"	"0"
"1921"	"9.415"	"0"	"0"	"2.351"	"0.201"	"11.677"	"132.331"	"218.442"	"102.645"	"3.995"	"0"	"0.697"
"1922"	"6.337"	"0.764"	"0.173"	"2.332"	"1.421"	"32.471"	"134.154"	"95.454"	"118.65"	"3.015"	"0"	"11.129"
"1923"	"4.829"	"33.125"	"0.667"	"0.335"	"11.083"	"9.215"	"235.946"	"227.998"	"16.088"	"2.512"	"0"	"10.492"
"1924"	"18.675"	"11.106"	"0.951"	"0.676"	"13.677"	"22.962"	"83.11"	"173.241"	"169.14"	"12.099"	"2.863"	"17.632"
"1925"	"2.08"	"0"	"0"	"0"	"16.458"	"76.897"	"193.279"	"69.341"	"3.481"	"0.311"	"36.937"	"0"
"1926"	"9.59"	"0.104"	"19.083"	"10.305"	"13.222"	"2.477"	"232.125"	"209.903"	"73.189"	"0"	"3.921"	"3.701"
"1927"	"0"	"18.071"	"6.729"	"2.445"	"17.09"	"12.973"	"186.775"	"186.845"	"14.584"	"13.431"	"0.707"	"17.347"
"1928"	"7.775"	"22.302"	"3.736"	"9.904"	"4.241"	"26.766"	"84.505"	"110.397"	"33.699"	"9.487"	"25.281"	"6.39"
"1929"	"1.742"	"0"	"0"	"14.824"	"5.576"	"12.589"	"147.489"	"94.493"	"5.105"	"0.408"	"0"	"18.844"
"1930"	"16.6"	"12.463"	"0"	"4.878"	"15.5"	"70.078"	"250.811"	"39.839"	"17.714"	"7.169"	"3.021"	"0.595"
"1931"	"1.228"	"10.711"	"3.116"	"3.562"	"6.539"	"5.842"	"194.995"	"187.859"	"57.135"	"20.916"	"0"	"0"
"1932"	"0"	"0.665"	"6.705"	"6.218"	"4.94"	"9.785"	"101.466"	"153.823"	"125.123"	"0"	"0"	"0"
"1933"	"0.391"	"16.319"	"3.3"	"9.562"	"37.478"	"140.031"	"109.953"	"406.527"	"142.718"	"8.834"	"0"	"0"
"1934"	"9.028"	"0"	"17.956"	"0"	"3.241"	"63.594"	"213.022"	"212.715"	"8.3"	"0"	"0"	"10.306"
"1935"	"16.255"	"18.434"	"4.372"	"22.418"	"0.947"	"33.855"	"176.741"	"96.627"	"130.14"	"3.757"	"5.942"	"2.986"
"1936"	"0.763"	"13.888"	"7.996"	"0.817"	"0.42"	"175.447"	"122.348"	"114.638"	"84.72"	"0.292"	"19.438"	"21.421"
"1937"	"0"	"53.563"	"0"	"10.529"	"2.239"	"22.953"	"223.407"	"7.982"	"96.865"	"0.531"	"0.138"	"4.978"
"1938"	"17.498"	"1.154"	"4.394"	"1.65"	"0.806"	"57.475"	"96.549"	"52.255"	"16.2"	"0.701"	"0"	"1.462"
"1939"	"0.155"	"20.378"	"5.711"	"0.418"	"0.282"	"58.845"	"49.577"	"91.037"	"44.187"	"0"	"0"	"0"
"1940"	"14.833"	"28.903"	"4.739"	"0.173"	"0.944"	"14.527"	"169.257"	"183.671"	"3.613"	"1.155"	"0.678"	"0.326"
"1941"	"20.064"	"2.78"	"1.432"	"0"	"14.24"	"49.153"	"27.343"	"87.799"	"33.548"	"0.708"	"0"	"3.575"
"1942"	"7.656"	"12.941"	"0.196"	"12.213"	"12.975"	"32.578"	"377.512"	"128.67"	"119.574"	"0"	"0"	"5.914"
"1943"	"3.923"	"0"	"0"	"18.253"	"2.052"	"24.256"	"245.549"	"59.414"	"93.66"	"0"	"0"	"0"
"1944"	"20.353"	"28.535"	"25.987"	"33.164"	"0.556"	"40.938"	"292.355"	"177.474"	"83.06"	"18.493"	"0"	"0"
"1945"	"13.356"	"0"	"0"	"9.812"	"17.576"	"29.053"	"211.404"	"209.838"	"119.045"	"2.144"	"0"	"0"
"1946"	"0"	"4.782"	"0"	"0"	"6.842"	"75.447"	"154.421"	"168.18"	"25.465"	"1.656"	"0"	"1.63"
"1947"	"2.984"	"4.945"	"2.984"	"0.484"	"3.426"	"1.974"	"67.178"	"96.737"	"175.803"	"16.435"	"0"	"2.751"
"1948"	"22.402"	"20.921"	"7.653"	"0.37"	"3.227"	"12.599"	"169.825"	"212.258"	"90.842"	"3.139"	"0.173"	"1.462"
"1949"	"7.313"	"11.479"	"1.217"	"0.182"	"6.579"	"8.727"	"373.575"	"73.299"	"67.922"	"1.824"	"0"	"0"
"1950"	"5.402"	"1.231"	"6.84"	"0"	"8.064"	"12.379"	"394.625"	"151.467"	"93.047"	"0"	"0"	"0"
"1951"	"6.324"	"0.391"	"13.978"	"14.211"	"7.318"	"22.251"	"95.843"	"113.438"	"40.825"	"1.952"	"38.446"	"0"
"1952"	"2.451"	"8.304"	"12.298"	"3.35"	"16.511"	"29.988"	"118.167"	"233.084"	"0.71"	"0"	"0"	"1.598"
"1953"	"24.801"	"0"	"0"	"3.103"	"3.04"	"27.626"	"175.315"	"212.729"	"45.604"	"0.484"	"0"	"0"
"1954"	"9.873"	"42.699"	"3.23"	"0"	"1.048"	"22.312"	"185.306"	"32.319"	"123.654"	"10.875"	"3.823"	"0"
"1955"	"10.157"	"0.641"	"3.488"	"12.012"	"7.955"	"38.035"	"69.486"	"248.271"	"125.714"	"22.249"	"0"	"2.543"
"1956"	"14.677"	"0.408"	"11.006"	"1.969"	"0.201"	"20.584"	"295.828"	"163.873"	"8.913"	"32.171"	"1.529"	"2.707"
"1957"	"23.668"	"0"	"13.185"	"1.784"	"10.038"	"35"	"182.998"	"114.498"	"87.647"	"9.89"	"19.205"	"6.424"
"1958"	"13.659"	"0.477"	"4.626"	"0.566"	"4.952"	"5.813"	"290.34"	"116.316"	"209.966"	"1.599"	"24.435"	"9.158"
"1959"	"11.72"	"1.969"	"1.603"	"0.755"	"16.186"	"31.146"	"167.141"	"169.609"	"126.269"	"0"	"9.856"	"0"
"1960"	"3.979"	"0"	"6.503"	"3.915"	"0.874"	"37.618"	"170.357"	"197.65"	"5.545"	"23.217"	"0"	"2.469"
"1961"	"6.495"	"29.04"	"0"	"6.629"	"19.587"	"54.633"	"154.494"	"316.445"	"103.533"	"21.258"	"6.931"	"3.554"
"1962"	"9.914"	"5.686"	"6.887"	"0.418"	"2.213"	"14.916"	"199.038"	"75.614"	"108.909"	"0"	"3.121"	"9.238"
"1963"	"0.155"	"6.639"	"1.403"	"2.819"	"8.666"	"52.991"	"44.094"	"193.706"	"118.338"	"1.514"	"5.096"	"8.63"
"1964"	"0.248"	"0.391"	"1.059"	"2.785"	"20.373"	"21.518"	"375.549"	"302.428"	"73.399"	"0.985"	"0"	"8.299"
"1965"	"6.152"	"5.067"	"1.5"	"8.286"	"3.508"	"5.702"	"201.997"	"105.475"	"76.2"	"0.645"	"0.76"	"0"
"1966"	"1.511"	"18.326"	"0.275"	"0.566"	"43.186"	"84.159"	"103.521"	"188.444"	"53.919"	"11.414"	"5.655"	"0"
"1967"	"0"	"0.862"	"28.452"	"1.169"	"2.421"	"31.373"	"177.633"	"317.61"	"106.462"	"14.7"	"22.289"	"26.12"
"1968"	"4.54"	"5.388"	"4.681"	"0.566"	"6.702"	"10.797"	"217.438"	"121.352"	"1.038"	"0.482"	"0"	"0"
"1969"	"3.626"	"4.192"	"4.396"	"3.109"	"17.742"	"27.712"	"171.237"	"92.679"	"85.679"	"1.597"	"0.086"	"0"
"1970"	"16.683"	"33.465"	"16.898"	"2.28"	"32.628"	"72.874"	"53.813"	"186.714"	"117.918"	"1.249"	"0"	"0"
"1971"	"4.635"	"10.05"	"0.196"	"11.533"	"44.41"	"70.481"	"139.805"	"226.007"	"74.664"	"4.675"	"0.069"	"0"
"1972"	"5.294"	"5.249"	"0.275"	"10.558"	"2.387"	"42.03"	"173.148"	"271.334"	"20.461"	"8.304"	"3.256"	"0.801"
"1973"	"8.623"	"3.59"	"0.196"	"0"	"19.385"	"20.935"	"132.61"	"297.047"	"45.241"	"10.8"	"0"	"3.254"
"1974"	"0"	"0"	"1.125"	"3.471"	"22.613"	"35.547"	"332.698"	"53.798"	"8.223"	"9.418"	"0"	"8.494"
"1975"	"7.256"	"2.878"	"3.967"	"0"	"2.334"	"85.294"	"358.604"	"216.394"	"165.437"	"15.024"	"0"	"1.043"
"1976"	"5.02"	"15.625"	"3.164"	"8.302"	"40.395"	"42.506"	"257.671"	"269.41"	"114.934"	"1.089"	"2.936"	"0.473"
"1977"	"17.728"	"0.391"	"0"	"28.065"	"20.153"	"101.424"	"357.746"	"70.206"	"125.378"	"8.059"	"2.975"	"4.894"
"1978"	"0.161"	"14.867"	"6.713"	"14.442"	"0.201"	"69.923"	"280.346"	"217.844"	"108.142"	"0.168"	"8.777"	"0.979"
"1979"	"7.604"	"34.926"	"7.157"	"3.216"	"18.262"	"57.813"	"159.672"	"88.197"	"34.012"	"8.453"	"2.775"	"4.599"
"1980"	"1.475"	"4.199"	"9.06"	"0.584"	"9.369"	"51.976"	"275.733"	"56.128"	"39.441"	"2.9"	"10.152"	"8.535"
"1981"	"9.467"	"7.107"	"8.72"	"0"	"8.082"	"98.298"	"180.167"	"56.667"	"57.736"	"0.245"	"60.256"	"5.94"
"1982"	"14.715"	"4.006"	"19.663"	"40.411"	"74.4"	"51.15"	"302.054"	"197.888"	"0.796"	"14.52"	"6.483"	"7.966"
"1983"	"15.976"	"9.976"	"4.187"	"38.159"	"56.592"	"47.544"	"274.887"	"233.979"	"72.819"	"15.711"	"0"	"2.537"
"1984"	"0.275"	"3.075"	"2.472"	"19.145"	"1.686"	"16.973"	"118.747"	"208.771"	"84.734"	"0"	"0"	"0"
"1985"	"0.556"	"0"	"1.454"	"17.11"	"20.315"	"31.443"	"305.918"	"190.581"	"27.905"	"19.618"	"0"	"11.968"
"1986"	"8.052"	"22.07"	"3.551"	"3.351"	"25.155"	"42.369"	"125.516"	"106.065"	"35.371"	"1.241"	"0"	"9.229"
"1987"	"15.096"	"13.193"	"7.363"	"2.212"	"41.68"	"18.865"	"32.483"	"85.229"	"10.699"	"2.319"	"0"	"4.115"
"1988"	"3.958"	"8.503"	"18.459"	"5.11"	"2.858"	"47.656"	"174.152"	"271.599"	"101.688"	"5.287"	"0"	"0.945"
"1989"	"31.146"	"1.717"	"9.913"	"0"	"1.635"	"12.453"	"78.12"	"133.832"	"58.281"	"0.993"	"9.618"	"1.889"
"1990"	"0"	"26.08"	"1.023"	"2.55"	"38.054"	"34.176"	"124.386"	"199.276"	"128.948"	"0.248"	"3.573"	"15.489"
"1991"	"0"	"20.766"	"1.023"	"1.637"	"28.846"	"37.562"	"102.458"	"167.615"	"49.344"	"0.255"	"17.107"	"16.907"
"1992"	"9.863"	"21.677"	"0.688"	"4.568"	"5.417"	"5.927"	"84.117"	"145.755"	"79.574"	"7.462"	"35.212"	"0"
"1993"	"4.152"	"4.887"	"2.557"	"3.863"	"10.048"	"93.154"	"297.326"	"95.106"	"115.761"	"4.681"	"0.668"	"0"
"1994"	"19.78"	"2.561"	"6.099"	"6.507"	"15.02"	"35.52"	"355.291"	"207.657"	"21.787"	"0"	"0"	"0.315"
"1995"	"25.764"	"18.641"	"11.919"	"2.774"	"0.546"	"24.257"	"182.371"	"305.864"	"82.192"	"4.701"	"1.529"	"0.299"
"1996"	"4.353"	"9.967"	"4.553"	"3.32"	"19.581"	"160.629"	"161.076"	"263.005"	"63.931"	"6.122"	"0"	"0"
"1997"	"5.628"	"1.45"	"3.188"	"27.239"	"38.875"	"108.562"	"69.027"	"173.693"	"45.321"	"23.926"	"26.747"	"10.475"
"1998"	"0"	"22.025"	"8.446"	"18.314"	"8.212"	"92.696"	"148.565"	"132.786"	"150.359"	"20.628"	"23.428"	"2.448"
"1999"	"23.847"	"7.661"	"0"	"0"	"19.097"	"46.473"	"113.704"	"70.589"	"35.407"	"9.712"	"0"	"0"
"2000"	"9.915"	"29.842"	"5.43"	"1.033"	"11.69"	"63.199"	"275.643"	"83.296"	"11.555"	"0"	"4.432"	"13.345"
"2001"	"3.898"	"6.603"	"1.734"	"25.351"	"62.223"	"87.423"	"124.87"	"167.024"	"35.774"	"5.007"	"0"	"0"
"2002"	"5.489"	"7.613"	"1.603"	"2.122"	"2.619"	"26.971"	"4.242"	"73.26"	"79.906"	"0.292"	"5.872"	"15.702"
