
"Year"	"Jan"	"Feb"	"Mar"	"Apr"	"May"	"Jun"	"Jul"	"Aug"	"Sep"	"Oct"	"Nov"	"Dec"
"1901"	"13.885"	"17.096"	"23.564"	"29.311"	"33.689"	"35.866"	"30.896"	"27.387"	"27.716"	"26.673"	"20.569"	"16.547"
"1902"	"16.893"	"19.127"	"26.335"	"30.415"	"34.01"	"34.25"	"28.995"	"28.41"	"27.193"	"25.35"	"19.268"	"15.195"
"1903"	"15.998"	"17.399"	"23.14"	"28.786"	"33.037"	"35.32"	"30.898"	"27.763"	"27.614"	"24.441"	"18.952"	"15.186"
"1904"	"15.883"	"18.106"	"23.413"	"30.212"	"32.989"	"33.419"	"27.479"	"26.663"	"26.975"	"25.347"	"19.338"	"16.308"
"1905"	"14.47"	"13.907"	"21.412"	"27.027"	"33.923"	"35.682"	"29.434"	"27.824"	"28.033"	"25.473"	"21.085"	"16.125"
"1906"	"14.986"	"16.986"	"22.518"	"29.703"	"35.236"	"33.174"	"28.804"	"27.701"	"26.863"	"25.328"	"20.78"	"16.699"
"1907"	"16.907"	"17.087"	"21.938"	"27.496"	"32.269"	"34.113"	"31.803"	"26.986"	"28.48"	"26.63"	"20.986"	"14.993"
"1908"	"14.693"	"18.474"	"23.332"	"31"	"34.051"	"34.983"	"28.243"	"26.981"	"27.876"	"25.323"	"19.909"	"15.299"
"1909"	"16.71"	"17.126"	"24.517"	"27.595"	"33.232"	"30.874"	"27.609"	"27.263"	"26.97"	"25.256"	"20.867"	"15.684"
"1910"	"14.992"	"18.397"	"24.063"	"29.187"	"33.607"	"32.229"	"29.118"	"27.417"	"27.505"	"24.245"	"18.747"	"15.636"
"1911"	"17.657"	"18.213"	"22.04"	"29.232"	"34.906"	"32.446"	"30.088"	"27.576"	"26.506"	"25.562"	"19.014"	"15.503"
"1912"	"16.195"	"19.373"	"23.161"	"29.407"	"34.005"	"35.123"	"29.449"	"27.488"	"26.776"	"25.256"	"19.223"	"15.322"
"1913"	"15.695"	"18.295"	"21.935"	"30.698"	"31.91"	"30.76"	"29.118"	"28.139"	"28.549"	"27.048"	"20.155"	"16.107"
"1914"	"17.514"	"18.97"	"23.249"	"29.445"	"33.328"	"33.187"	"28.429"	"27.381"	"27.801"	"25.24"	"21.057"	"15.869"
"1915"	"15.974"	"16.691"	"22.965"	"28.911"	"35.112"	"34.327"	"30.045"	"27.625"	"28.048"	"26.485"	"20.429"	"16.315"
"1916"	"15.817"	"17.694"	"25.773"	"30.641"	"33.89"	"30.568"	"29.111"	"27.079"	"27.391"	"25.009"	"18.345"	"14.624"
"1917"	"15.718"	"17.816"	"22.872"	"26.994"	"29.998"	"31.736"	"28.187"	"27.246"	"26.897"	"24.82"	"17.835"	"16.014"
"1918"	"14.308"	"18.603"	"24.018"	"28.208"	"34.722"	"31.797"	"31.222"	"28.234"	"28.303"	"26.269"	"20.617"	"15.299"
"1919"	"15.886"	"16.918"	"24.171"	"28.911"	"33.083"	"34.131"	"27.704"	"26.956"	"27.406"	"24.835"	"19.936"	"15.6"
"1920"	"15.586"	"17.973"	"24.162"	"29.482"	"31.076"	"32.98"	"27.904"	"27.609"	"28.804"	"27.156"	"21.434"	"16.752"
"1921"	"16.798"	"18.646"	"26.264"	"31.748"	"35.779"	"33.458"	"30.928"	"26.792"	"26.855"	"25.025"	"19.555"	"17.794"
"1922"	"15.464"	"19.698"	"24.966"	"30.206"	"34.475"	"32.604"	"28.329"	"26.685"	"26.876"	"24.947"	"19.818"	"15.506"
"1923"	"15.497"	"17.874"	"24.362"	"30.212"	"33.458"	"36.028"	"29.223"	"26.785"	"27.671"	"24.627"	"20.109"	"16.47"
"1924"	"15.073"	"18.272"	"25.516"	"30.573"	"32.363"	"35.483"	"28.316"	"27.215"	"27.106"	"25"	"19.436"	"15.799"
"1925"	"13.96"	"16.763"	"23.92"	"30.544"	"32.179"	"31.042"	"26.983"	"28.002"	"27.613"	"25.927"	"19.139"	"15.115"
"1926"	"15.616"	"19.402"	"22.654"	"26.298"	"31.774"	"35.404"	"29.801"	"27.478"	"26.791"	"24.039"	"17.908"	"14.704"
"1927"	"13.782"	"16.692"	"21.942"	"28.774"	"32.981"	"33.796"	"28.526"	"27.148"	"27.776"	"25.225"	"18.619"	"16.702"
"1928"	"15.278"	"18.382"	"24.029"	"29.012"	"34.4"	"32.947"	"28.527"	"28.439"	"28.497"	"26.054"	"21.118"	"15.706"
"1929"	"15.286"	"16.695"	"25.057"	"29.892"	"34.563"	"33.221"	"28.497"	"26.496"	"28.594"	"25.065"	"20.371"	"15.195"
"1930"	"15.293"	"17.803"	"24.771"	"28.998"	"33.474"	"33.296"	"27.759"	"27.092"	"27.618"	"26.153"	"19.518"	"16.001"
"1931"	"17.315"	"17.488"	"23.441"	"31.103"	"34.089"	"34.887"	"29.726"	"27.993"	"27.193"	"24.505"	"19.51"	"16.378"
"1932"	"17.908"	"17.303"	"23.942"	"29.169"	"33.261"	"34.628"	"29.805"	"27.187"	"27.484"	"25.532"	"19.405"	"15.998"
"1933"	"14.177"	"18.978"	"24.346"	"27.543"	"30.618"	"32.127"	"28.505"	"27.339"	"26.86"	"24.8"	"19.539"	"15.899"
"1934"	"14.845"	"18.801"	"22.918"	"29.409"	"33.306"	"32.674"	"28.383"	"27.098"	"27.084"	"23.89"	"19.373"	"16.495"
"1935"	"14.092"	"18.382"	"23.822"	"26.896"	"34.054"	"34.435"	"28.513"	"26.888"	"27.096"	"24.627"	"20.425"	"15.993"
"1936"	"14.256"	"18.111"	"23.755"	"28.811"	"34.531"	"31.42"	"28.111"	"27.092"	"26.999"	"25.018"	"20.147"	"15.991"
"1937"	"14.393"	"18.507"	"22.311"	"28.096"	"33.219"	"33.382"	"28.893"	"27.18"	"27.259"	"24.286"	"20.731"	"15.194"
"1938"	"15.775"	"16.497"	"25.37"	"30.41"	"34.526"	"30.337"	"28.437"	"27.517"	"28.232"	"25.829"	"19.243"	"15.735"
"1939"	"16.772"	"18.781"	"22.308"	"28.593"	"34.479"	"32.212"	"28.321"	"27.667"	"26.829"	"25.961"	"19.729"	"15.629"
"1940"	"15.401"	"17.602"	"22.218"	"28.395"	"33.898"	"33.9"	"29.422"	"27.176"	"27.219"	"25.34"	"20.867"	"15.708"
"1941"	"15.262"	"18.52"	"25.829"	"31.504"	"34.415"	"32.644"	"30.16"	"28.039"	"28.221"	"27.36"	"20.576"	"17.253"
"1942"	"14.37"	"18.832"	"24.874"	"30.551"	"34.882"	"34.807"	"28.096"	"27.176"	"26.876"	"25.438"	"21.022"	"15.797"
"1943"	"17.138"	"17.808"	"24.925"	"28.303"	"34.467"	"33.293"	"28.897"	"26.372"	"27.678"	"25.023"	"21.832"	"16.729"
"1944"	"15.271"	"17.716"	"22.421"	"28.218"	"34.803"	"32.674"	"28.492"	"27.596"	"27.678"	"24.446"	"20.831"	"17.698"
"1945"	"13.864"	"17.681"	"24.67"	"28.136"	"33.48"	"34.092"	"29.296"	"28.19"	"27.182"	"24.441"	"19.552"	"14.802"
"1946"	"16.47"	"20.194"	"23.942"	"30.737"	"33.597"	"32.165"	"28.335"	"27.316"	"27.913"	"25.849"	"19.602"	"17.164"
"1947"	"14.455"	"18.828"	"25.141"	"30.617"	"34.491"	"34.405"	"28.535"	"27.823"	"27.225"	"24.48"	"21.022"	"16.699"
"1948"	"15.761"	"17.707"	"23.316"	"31.016"	"35.182"	"34.237"	"28.926"	"27.323"	"27.101"	"25.94"	"19.437"	"16.015"
"1949"	"17.199"	"18.916"	"24.735"	"30.733"	"34.231"	"34.005"	"29.089"	"27.5"	"27.706"	"25.509"	"18.825"	"15.319"
"1950"	"16.571"	"17.286"	"22.826"	"28.597"	"34.076"	"33.73"	"28.574"	"27.223"	"27.47"	"24.932"	"19.322"	"15.525"
"1951"	"14.657"	"17.903"	"23.741"	"27.992"	"33.5"	"33.696"	"30.215"	"27.423"	"27.422"	"27.857"	"21.73"	"16.007"
"1952"	"17.149"	"20.624"	"23.851"	"30.906"	"34.976"	"32.294"	"28.5"	"26.701"	"28.095"	"26.061"	"20.238"	"16.897"
"1953"	"14.825"	"20.274"	"27.425"	"30.526"	"34.623"	"34.56"	"28.562"	"27.011"	"27.411"	"25.148"	"19.821"	"17.998"
"1954"	"14.462"	"19.816"	"24.149"	"30.689"	"35.215"	"33.953"	"29.604"	"27.517"	"26.898"	"23.715"	"20.254"	"16.296"
"1955"	"15.731"	"18.793"	"26.137"	"28.394"	"33.596"	"33.365"	"28.439"	"27.215"	"27.209"	"24.017"	"19.307"	"16.635"
"1956"	"16.057"	"18.432"	"24.84"	"30.49"	"34.7"	"31.366"	"27.772"	"26.88"	"27.019"	"24.629"	"18.732"	"16.891"
"1957"	"15.723"	"17.392"	"22.527"	"28.986"	"32.963"	"33.391"	"28.817"	"27.997"	"26.685"	"25.532"	"21.547"	"17.4"
"1958"	"17.707"	"19.291"	"25.162"	"31.52"	"34.553"	"34.871"	"28.521"	"27.606"	"27.063"	"24.747"	"20.593"	"17.503"
"1959"	"16.065"	"18.032"	"25.37"	"30.217"	"33.473"	"33.905"	"28.526"	"27.293"	"27.368"	"25.77"	"20.623"	"17.225"
"1960"	"15.291"	"21.028"	"24.15"	"29.602"	"34.089"	"34.882"	"28.809"	"26.886"	"27.701"	"24.925"	"19.539"	"17.32"
"1961"	"15.88"	"16.704"	"25.017"	"29.471"	"33.774"	"32.666"	"28.272"	"26.898"	"26.801"	"24.246"	"19.243"	"14.395"
"1962"	"14.394"	"18.484"	"23.526"	"29.606"	"33.473"	"34.71"	"29.582"	"27.004"	"26.409"	"23.634"	"20.339"	"17.123"
"1963"	"14.632"	"19.628"	"23.364"	"28.176"	"32.013"	"31.717"	"28.321"	"26.783"	"26.497"	"25.662"	"22.532"	"16.694"
"1964"	"14.991"	"18.609"	"26.042"	"30.898"	"32.483"	"33.51"	"28.308"	"27.63"	"26.892"	"25.738"	"19.809"	"17.107"
"1965"	"17.19"	"18.993"	"23.45"	"28.203"	"33.066"	"34.889"	"29.479"	"28.293"	"27.092"	"26.032"	"21.522"	"16.557"
"1966"	"16.481"	"21.125"	"24.309"	"29.951"	"33.572"	"32.257"	"30.575"	"27.198"	"28.384"	"27.018"	"21.901"	"15.915"
"1967"	"15.186"	"20.519"	"22.663"	"28.719"	"33.897"	"33.658"	"28.575"	"26.355"	"26.261"	"25.944"	"21.026"	"17.087"
"1968"	"15.071"	"17.417"	"24.455"	"28.691"	"32.566"	"32.158"	"28.154"	"27.082"	"28.36"	"25.231"	"21.122"	"17.015"
"1969"	"15.895"	"19.687"	"26.45"	"29.658"	"32.513"	"33.612"	"28.195"	"26.507"	"26.771"	"27.343"	"22.114"	"16.806"
"1970"	"16.386"	"17.988"	"24.07"	"31.555"	"34.113"	"31.703"	"29.4"	"27.387"	"26.629"	"25.626"	"19.931"	"16.736"
"1971"	"14.95"	"18.625"	"22.259"	"29.582"	"31.48"	"29.545"	"26.851"	"26.18"	"26.953"	"25.206"	"19.339"	"16.222"
"1972"	"15.898"	"16.702"	"25.106"	"29.429"	"34.602"	"35.37"	"30.405"	"26.706"	"26.689"	"24.62"	"21.013"	"16.797"
"1973"	"16.369"	"19.331"	"24.05"	"31.417"	"35.201"	"34.328"	"28.099"	"27.652"	"27.035"	"24.809"	"19.936"	"15.732"
"1974"	"15.178"	"17.348"	"25.415"	"31.642"	"34.056"	"33.059"	"27.736"	"26.426"	"28.198"	"26.679"	"20.034"	"15.6"
"1975"	"14.541"	"18.376"	"23.518"	"30.299"	"35.291"	"32.493"	"27.576"	"27.233"	"26.663"	"26.033"	"19.272"	"16.148"
"1976"	"16.198"	"19.013"	"23.872"	"29.423"	"32.749"	"31.323"	"28.634"	"26.744"	"26.974"	"25.78"	"22.647"	"16.969"
"1977"	"15.375"	"19.238"	"26.12"	"29.077"	"31.436"	"32.421"	"27.59"	"26.365"	"26.303"	"25.401"	"22.537"	"17.29"
"1978"	"15.197"	"17.618"	"22.035"	"28.34"	"35.407"	"31.981"	"26.799"	"25.905"	"26.382"	"25.587"	"22.199"	"16.289"
"1979"	"16.586"	"17.136"	"22.455"	"29.131"	"31.233"	"32.446"	"28.365"	"27.697"	"28.898"	"27.63"	"24.318"	"17.419"
"1980"	"16.275"	"20.075"	"24.232"	"30.908"	"34.106"	"29.975"	"27.16"	"26.136"	"27.293"	"26.829"	"21.372"	"17.277"
"1981"	"16.052"	"19.616"	"23.635"	"29.047"	"32.776"	"33.153"	"26.812"	"27.084"	"28.009"	"26.157"	"20.296"	"16.286"
"1982"	"17.044"	"17.874"	"22.065"	"29.01"	"31.697"	"33.272"	"30.78"	"26.691"	"27.563"	"26.722"	"21.43"	"17.456"
"1983"	"15.096"	"17.613"	"24.004"	"27.612"	"32.121"	"33.477"	"29.164"	"27.754"	"27.501"	"24.846"	"19.465"	"16.418"
"1984"	"15.591"	"16.523"	"24.982"	"30.406"	"35.686"	"33.422"	"29.181"	"26.49"	"26.791"	"25.946"	"20.363"	"17.948"
"1985"	"15.762"	"19.441"	"26.776"	"30.989"	"34.59"	"33.804"	"28.157"	"26.986"	"27.066"	"24.471"	"20.973"	"17.799"
"1986"	"16.033"	"17.576"	"23.921"	"29.894"	"32.261"	"33.291"	"27.284"	"27.699"	"26.392"	"25.514"	"21.346"	"16.092"
"1987"	"15.883"	"19.498"	"25.028"	"30.969"	"32.057"	"35.337"	"30.27"	"29.415"	"28.215"	"26.095"	"21.135"	"16.316"
"1988"	"16.619"	"19.74"	"24.498"	"31.006"	"35.344"	"33.139"	"28.395"	"27.926"	"28.842"	"25.437"	"20.694"	"17.216"
"1989"	"14.707"	"18.415"	"23.54"	"29.294"	"34.089"	"31.325"	"29.035"	"26.779"	"27.507"	"25.968"	"20.923"	"16.685"
"1990"	"17.85"	"18.828"	"22.958"	"30.027"	"32.342"	"31.902"	"27.407"	"27.9"	"26.864"	"25.889"	"21.304"	"17.032"
"1991"	"14.965"	"20.052"	"24.533"	"29.313"	"35.239"	"33.165"	"31.176"	"26.709"	"28.323"	"25.245"	"20.296"	"16.723"
"1992"	"16.378"	"17.443"	"24.712"	"30.071"	"32.513"	"35.459"	"29.827"	"27.585"	"27.143"	"25.597"	"21.191"	"16.919"
"1993"	"16.173"	"19.498"	"22.284"	"28.854"	"34.482"	"34.048"	"30.315"	"28.526"	"26.383"	"26.209"	"21.854"	"16.516"
"1994"	"17.816"	"18.238"	"24.895"	"28.738"	"35.03"	"33.269"	"28.093"	"26.997"	"27.203"	"25.152"	"21.013"	"17.009"
"1995"	"14.878"	"18.63"	"23.092"	"29.691"	"34.218"	"34.998"	"30.144"	"27.184"	"27.974"	"26.579"	"20.956"	"17.612"
"1996"	"16.262"	"18.395"	"25.181"	"29.194"	"33.657"	"33.323"	"29.122"	"26.589"	"27.93"	"25.518"	"20.734"	"15.277"
"1997"	"15.283"	"18.017"	"24.432"	"28.118"	"32.08"	"32.828"	"29.877"	"27.393"	"27.187"	"24.695"	"20.606"	"15.557"
"1998"	"14.794"	"19.478"	"22.348"	"29.92"	"34.678"	"33.673"	"28.809"	"27.904"	"28.098"	"26.807"	"22.075"	"17.191"
"1999"	"15.483"	"19.301"	"24.664"	"31.129"	"33.607"	"32.191"	"29.014"	"27.232"	"26.808"	"25.996"	"22.578"	"16.991"
"2000"	"16.398"	"18.249"	"23.754"	"31.418"	"32.937"	"31.306"	"28.309"	"28.013"	"26.941"	"27.238"	"23.222"	"17.328"
"2001"	"15.384"	"19.71"	"24.343"	"29.028"	"33.093"	"30.705"	"27.842"	"28.088"	"28.428"	"26.849"	"22.02"	"17.71"
"2002"	"16.248"	"17.878"	"25.136"	"30.914"	"34.903"	"33.204"	"31.284"	"27.5"	"27.083"	"26.459"	"21.601"	"18.029"
