
"Year"	"Jan"	"Feb"	"Mar"	"Apr"	"May"	"Jun"	"Jul"	"Aug"	"Sep"	"Oct"	"Nov"	"Dec"
"1901"	"29.46"	"10.463"	"5.666"	"0"	"5.652"	"18.479"	"109.12"	"270.752"	"47.737"	"4.394"	"0"	"7.637"
"1902"	"2.134"	"0.392"	"0.108"	"1.088"	"2.774"	"48.423"	"323.234"	"160.747"	"133.535"	"2.055"	"0.845"	"0"
"1903"	"4.744"	"1.714"	"6.405"	"0.224"	"1.823"	"6.697"	"114.044"	"301.694"	"55.886"	"63.099"	"0"	"0"
"1904"	"7.092"	"0.127"	"7.578"	"0.108"	"5.034"	"73.782"	"337.797"	"410.911"	"36.442"	"16.973"	"10.267"	"19.403"
"1905"	"19.428"	"13.996"	"9.661"	"0.741"	"0.965"	"22.586"	"137.621"	"67.026"	"87.522"	"0.203"	"0"	"1.82"
"1906"	"1.833"	"16.039"	"14.131"	"0.108"	"2.031"	"138.222"	"147.913"	"136.547"	"201.822"	"0.532"	"0"	"7.312"
"1907"	"5.772"	"40.579"	"6.06"	"20.672"	"7.876"	"18.188"	"97.486"	"400.792"	"1.368"	"0.203"	"0.033"	"0"
"1908"	"23.521"	"1.444"	"0.138"	"1.18"	"6.53"	"30.179"	"441.383"	"372.623"	"26.338"	"10.261"	"0.013"	"1.669"
"1909"	"19.398"	"3.402"	"0"	"12.415"	"14.802"	"90.39"	"375.756"	"159.201"	"89.248"	"0.42"	"0"	"23.512"
"1910"	"10.054"	"2.396"	"0"	"2.189"	"2.57"	"54.113"	"169.994"	"220.921"	"148.712"	"27.829"	"6.412"	"0.108"
"1911"	"23.275"	"0"	"12.54"	"0.906"	"0"	"27.6"	"39.789"	"118.096"	"307.903"	"17.95"	"36.973"	"8.707"
"1912"	"22.767"	"1.966"	"8.731"	"0.972"	"1.386"	"17.862"	"214.568"	"234.435"	"184.578"	"0.203"	"8.535"	"3.265"
"1913"	"0.108"	"33.629"	"3.957"	"0.162"	"19.31"	"72.525"	"101.328"	"77.268"	"18.349"	"0.312"	"0.433"	"7.246"
"1914"	"0.769"	"3.749"	"3.472"	"8.643"	"14.074"	"83.756"	"382.687"	"173.764"	"181.416"	"16.582"	"0"	"0"
"1915"	"10.937"	"18.373"	"34.803"	"2.512"	"2.647"	"48.751"	"180.726"	"213.962"	"65.708"	"43.078"	"0.006"	"0.935"
"1916"	"0"	"10.357"	"0"	"1.234"	"2.414"	"86.352"	"269.346"	"360.879"	"108.656"	"21.698"	"0.978"	"0"
"1917"	"2.319"	"10.869"	"14.851"	"15.177"	"30.386"	"56.29"	"396.937"	"308.498"	"260.947"	"61.895"	"0"	"5.241"
"1918"	"16.101"	"0.01"	"3.49"	"0.65"	"1.093"	"51.7"	"59.069"	"199.087"	"60.028"	"0.312"	"1.329"	"0.131"
"1919"	"24.839"	"1.663"	"1.863"	"7.402"	"3.798"	"24.168"	"236.358"	"431.614"	"75.879"	"6.962"	"3.117"	"7.603"
"1920"	"6.138"	"14.721"	"7.696"	"0"	"7.156"	"90.943"	"342.665"	"90.961"	"74.079"	"0.477"	"0"	"0"
"1921"	"31.786"	"0.135"	"0"	"0.532"	"0"	"46.016"	"101.024"	"163.44"	"296.501"	"4.24"	"0"	"0"
"1922"	"16.36"	"0.757"	"0.578"	"2.225"	"0.01"	"61.203"	"238.274"	"280.426"	"223.765"	"2.247"	"0.428"	"40.579"
"1923"	"0.419"	"9.31"	"0.04"	"0.019"	"2.164"	"3.212"	"153.365"	"291.457"	"231.913"	"14.442"	"1.046"	"8.856"
"1924"	"15.518"	"9.064"	"0.108"	"0.108"	"0.466"	"10.294"	"188.759"	"277.754"	"312.749"	"15.17"	"1.663"	"29.092"
"1925"	"0.596"	"0"	"0"	"0.217"	"17.797"	"159.713"	"563.419"	"109.371"	"77.778"	"1.248"	"35.498"	"0"
"1926"	"7.229"	"4.272"	"30.162"	"7.786"	"20.989"	"24.008"	"219.149"	"304.005"	"154.266"	"4.529"	"0.596"	"0.299"
"1927"	"1.257"	"17.093"	"3.62"	"2.01"	"5.541"	"24.542"	"227.273"	"317.624"	"103.765"	"18.032"	"25.291"	"14.886"
"1928"	"7.253"	"21.052"	"0.192"	"2.932"	"2.334"	"24.564"	"209.789"	"84.573"	"66.699"	"84.955"	"10.316"	"37.672"
"1929"	"10.515"	"0.868"	"0.162"	"1.699"	"0.217"	"54.561"	"192.872"	"146.433"	"22.38"	"12.957"	"0"	"26.026"
"1930"	"9.681"	"7.481"	"0.535"	"0.999"	"2.667"	"106.864"	"424.433"	"216.857"	"63.641"	"33.162"	"1.897"	"3.989"
"1931"	"0.01"	"6.328"	"0.217"	"0.532"	"1.664"	"26.634"	"149.072"	"197.047"	"276.331"	"79.613"	"0.942"	"0"
"1932"	"0"	"0.793"	"10.353"	"2.31"	"1.921"	"24.256"	"121.597"	"309.909"	"180.106"	"4.517"	"0.484"	"0.487"
"1933"	"0.596"	"5.783"	"1.358"	"10.904"	"21.782"	"242.227"	"130.247"	"281.167"	"224.846"	"40.085"	"0"	"0"
"1934"	"13.584"	"0"	"15.165"	"0"	"0.271"	"104.706"	"117.675"	"217.667"	"94.108"	"0.277"	"0.692"	"36.309"
"1935"	"22.383"	"3.821"	"0.643"	"9.728"	"0.708"	"33.21"	"332.749"	"183.801"	"99.296"	"4.994"	"0.602"	"8.811"
"1936"	"1.185"	"8.462"	"13.624"	"0.588"	"4.375"	"251.365"	"253.716"	"359.132"	"108.194"	"0.748"	"19.181"	"18.98"
"1937"	"0"	"34.108"	"1.652"	"4.091"	"7.189"	"47.888"	"114.84"	"147.386"	"122.18"	"8.948"	"4.034"	"25.27"
"1938"	"13.92"	"1.183"	"0"	"1.419"	"1.841"	"51.195"	"322.686"	"158.854"	"50.761"	"11.401"	"0.108"	"0"
"1939"	"14.584"	"7.536"	"1.437"	"1.542"	"0.162"	"95.452"	"288.21"	"92.354"	"151.504"	"3.593"	"0"	"0"
"1940"	"14.845"	"12.792"	"9.58"	"7.441"	"8.38"	"39.412"	"106.577"	"269.586"	"49.455"	"0.825"	"2.953"	"4.116"
"1941"	"17.753"	"0.689"	"1.355"	"0"	"12.012"	"29.899"	"151.686"	"139.597"	"62.396"	"0.582"	"0.108"	"0.487"
"1942"	"23.526"	"10.334"	"0"	"3.466"	"2.931"	"37.319"	"387.487"	"311.321"	"306.891"	"0.207"	"0"	"6.632"
"1943"	"18.888"	"0.228"	"1.27"	"17.525"	"14.383"	"77.059"	"124.811"	"437.61"	"174.17"	"1.05"	"0"	"0"
"1944"	"19.771"	"14.371"	"32.252"	"21.233"	"0"	"26.206"	"165.426"	"263.642"	"72.544"	"2.508"	"0"	"0.725"
"1945"	"21.189"	"0"	"0.162"	"8.348"	"14.71"	"30.778"	"146.227"	"325.608"	"252.1"	"8.175"	"0"	"5.263"
"1946"	"0"	"5.139"	"0.108"	"1.743"	"11.808"	"56.718"	"260.828"	"311.474"	"7.396"	"9.231"	"3.114"	"6.202"
"1947"	"8.137"	"4.219"	"5.481"	"1.075"	"1.288"	"31.889"	"306.152"	"308.576"	"339.749"	"58.905"	"0.64"	"4.483"
"1948"	"36.837"	"9.074"	"0.65"	"1.126"	"4.415"	"29.736"	"328.892"	"291.584"	"200.607"	"27.931"	"8.697"	"0.108"
"1949"	"0"	"13.178"	"2.328"	"0.433"	"1.561"	"6.1"	"364.486"	"398.489"	"233.158"	"15.837"	"0"	"0"
"1950"	"3.386"	"0.975"	"9.534"	"0"	"13.271"	"19.42"	"227.886"	"333.119"	"165.749"	"0.203"	"0"	"5.448"
"1951"	"9.653"	"2.386"	"18.921"	"3.33"	"2.775"	"67.495"	"128.543"	"305.394"	"234.505"	"3.203"	"23.683"	"0"
"1952"	"0.44"	"12.391"	"8.509"	"5.999"	"4.047"	"63.952"	"179.799"	"574.865"	"21.627"	"0.203"	"0.596"	"32.095"
"1953"	"35.648"	"3.108"	"0"	"0.706"	"0.114"	"24.613"	"212.518"	"235.52"	"55.682"	"0.305"	"0"	"1.472"
"1954"	"13.186"	"27.375"	"6.38"	"0"	"0"	"10.619"	"260.599"	"251.793"	"161.626"	"57.907"	"0"	"0"
"1955"	"32.031"	"2.788"	"1.064"	"0.433"	"1.07"	"132.502"	"307.574"	"398.183"	"165.937"	"109.224"	"0"	"0.176"
"1956"	"5.611"	"3.467"	"17.792"	"0"	"1.286"	"87.921"	"395.254"	"224.055"	"69.156"	"123.442"	"6.528"	"17.509"
"1957"	"22.014"	"0"	"23.007"	"5.852"	"6.255"	"29.188"	"378.992"	"180.305"	"197.484"	"14.131"	"4.121"	"5.839"
"1958"	"4.882"	"4.212"	"6.4"	"0.325"	"0"	"7.035"	"386.293"	"337.831"	"262.81"	"40.584"	"0.162"	"5.689"
"1959"	"17.968"	"0.931"	"0.217"	"0.364"	"36.926"	"27.959"	"222.479"	"249.554"	"54.24"	"23.986"	"5.722"	"0"
"1960"	"2.765"	"0"	"25.269"	"0.493"	"9.546"	"16.38"	"280.46"	"503.108"	"87.939"	"85.312"	"0"	"8.761"
"1961"	"31.441"	"21.822"	"0.01"	"2.352"	"2.059"	"61.097"	"165.4"	"587.911"	"67.406"	"45.885"	"4.407"	"1.526"
"1962"	"24.324"	"1.607"	"7.958"	"3.183"	"0.926"	"19.119"	"246.434"	"268.348"	"216.418"	"0.203"	"0.379"	"1.236"
"1963"	"14.923"	"1.376"	"6.11"	"3.597"	"9.197"	"42.952"	"212.108"	"278.306"	"353.933"	"1.026"	"7.815"	"12.528"
"1964"	"0.217"	"0.753"	"1.02"	"0.783"	"11.03"	"7.364"	"409.397"	"298.503"	"313.755"	"1.691"	"0"	"4.808"
"1965"	"0.682"	"5.244"	"3.739"	"10.705"	"2.182"	"7.278"	"291.994"	"144.367"	"133.613"	"46.287"	"0"	"0.993"
"1966"	"0.292"	"3.261"	"0"	"0"	"24.727"	"105.929"	"151.475"	"350.327"	"20.268"	"1.452"	"35.323"	"2.359"
"1967"	"0.182"	"0.108"	"18.707"	"0.898"	"1.062"	"32.173"	"241.322"	"582.188"	"148.498"	"0.42"	"0.162"	"38.484"
"1968"	"28.736"	"3.15"	"4.791"	"0.217"	"0"	"31.287"	"242.27"	"172.18"	"49.47"	"40.506"	"0"	"1.364"
"1969"	"4.247"	"9.17"	"0.217"	"0.433"	"18.243"	"10.87"	"341.182"	"228.242"	"128.505"	"0.312"	"4.799"	"0"
"1970"	"27.676"	"27.687"	"2.622"	"0"	"24.954"	"84.677"	"138.747"	"374.332"	"219.134"	"7.782"	"0"	"0"
"1971"	"15.366"	"8.585"	"0.701"	"6.175"	"12.582"	"158.225"	"265.742"	"239.717"	"134.591"	"60.209"	"2.673"	"0"
"1972"	"5.44"	"16.244"	"0.108"	"0.487"	"0.033"	"23.846"	"80.462"	"277.922"	"144.891"	"16.627"	"4.267"	"5.944"
"1973"	"12.037"	"9.869"	"0.325"	"0"	"0.564"	"16.176"	"251.739"	"386.917"	"161.978"	"71.1"	"0"	"0.251"
"1974"	"0.325"	"0.168"	"0.108"	"0.01"	"6.55"	"9.79"	"126.616"	"125.999"	"18.363"	"80.25"	"0"	"0.758"
"1975"	"4.611"	"1.177"	"2.886"	"1.862"	"0.108"	"98.095"	"323.983"	"181.448"	"173.847"	"26.991"	"0"	"0"
"1976"	"3.633"	"2.306"	"1.046"	"2.171"	"2.679"	"110.315"	"170.615"	"276.343"	"117.457"	"0.42"	"16.102"	"0"
"1977"	"21.215"	"2.403"	"0.023"	"13.312"	"6.762"	"24.553"	"393.651"	"204.581"	"227.198"	"48.658"	"0.366"	"1.963"
"1978"	"3.336"	"14.233"	"28.493"	"1.997"	"0.108"	"127.361"	"196.501"	"188.531"	"190.864"	"2.114"	"0.277"	"13.174"
"1979"	"7.987"	"35.204"	"1.507"	"1.273"	"14.378"	"33.112"	"159.25"	"72.966"	"8.654"	"0.839"	"14.584"	"6.259"
"1980"	"0.162"	"3.587"	"16.049"	"0.586"	"2.129"	"77.815"	"257.02"	"360.595"	"49.258"	"18.747"	"2.023"	"40.321"
"1981"	"7.767"	"0.291"	"20.663"	"0"	"19.407"	"227.108"	"343.394"	"213.245"	"77.8"	"0.203"	"6.952"	"0.77"
"1982"	"23.699"	"4.376"	"20.377"	"4.685"	"18.739"	"24.668"	"137.214"	"442.265"	"79.681"	"1.204"	"38.477"	"13.287"
"1983"	"13.516"	"3.199"	"0.271"	"30.75"	"31.756"	"73.881"	"61.987"	"394.064"	"155.791"	"29.588"	"0"	"3.592"
"1984"	"4.699"	"4.693"	"0.108"	"34.593"	"1.772"	"79.646"	"145.218"	"259.973"	"119.279"	"3.799"	"0"	"0.217"
"1985"	"5.256"	"0"	"3.328"	"10.284"	"1.498"	"39.91"	"434.28"	"297.093"	"171.71"	"113.401"	"0"	"21.708"
"1986"	"10.203"	"16.635"	"6.382"	"0.487"	"27.328"	"85.636"	"168.252"	"147.043"	"84.596"	"46.229"	"0.487"	"24.546"
"1987"	"17.965"	"5.501"	"4.03"	"0.108"	"33.586"	"9.248"	"85.159"	"154.781"	"24.118"	"16.86"	"0"	"6.916"
"1988"	"4.743"	"1.667"	"12.873"	"13.504"	"3.667"	"90.026"	"264.469"	"281.972"	"52.517"	"3.724"	"0"	"4.604"
"1989"	"10.693"	"0.162"	"12.23"	"0.631"	"0.385"	"15.72"	"213.281"	"269.102"	"118.944"	"9.952"	"7.861"	"10.692"
"1990"	"0"	"17.886"	"0.816"	"2.378"	"17.224"	"90.806"	"284.948"	"320.6"	"285.547"	"1.164"	"0.596"	"10.607"
"1991"	"2.344"	"13.078"	"3.441"	"3.863"	"22.862"	"7.614"	"12.631"	"247.573"	"112.42"	"0.203"	"9.896"	"35.02"
"1992"	"16.603"	"7.229"	"11.696"	"3.166"	"13.802"	"20.13"	"80.131"	"217.387"	"130.935"	"65.874"	"23.377"	"0"
"1993"	"7.435"	"0.184"	"10.908"	"2.837"	"12.792"	"93.17"	"243.381"	"157.126"	"236.082"	"9.132"	"0"	"0"
"1994"	"20.408"	"13.797"	"12.558"	"5.916"	"5.03"	"80.989"	"502.242"	"282.638"	"45.715"	"0.969"	"0"	"0"
"1995"	"28.159"	"2.801"	"1.988"	"10.627"	"0.175"	"26.572"	"144.588"	"317.783"	"145.658"	"0.328"	"3.075"	"4.345"
"1996"	"9.884"	"3.017"	"0.819"	"1.454"	"14.205"	"149.496"	"175.52"	"287.609"	"318.672"	"45.078"	"0"	"0"
"1997"	"3.143"	"0.108"	"3.099"	"2.54"	"19.258"	"108.995"	"46.938"	"199.355"	"191.573"	"50.779"	"24.943"	"16.841"
"1998"	"0.217"	"5.437"	"18.518"	"9.919"	"13.827"	"96.327"	"185.98"	"290.089"	"43.204"	"49.672"	"0.736"	"0.3"
"1999"	"11.565"	"9.779"	"0"	"0"	"4.984"	"147.978"	"208.006"	"272.066"	"246.635"	"71.589"	"0"	"2.793"
"2000"	"9.095"	"2.781"	"1.755"	"2.123"	"7.522"	"20.166"	"225.904"	"159.097"	"97.385"	"0.203"	"0.169"	"0"
"2001"	"6.193"	"4.825"	"3.354"	"14.474"	"22.611"	"101.077"	"141.952"	"257.15"	"64.154"	"28.071"	"0.858"	"0.108"
"2002"	"12.873"	"9.862"	"0.993"	"0.536"	"8.472"	"34.196"	"35.704"	"193.345"	"181.317"	"25.843"	"2.495"	"7.343"
