
"Year"	"Jan"	"Feb"	"Mar"	"Apr"	"May"	"Jun"	"Jul"	"Aug"	"Sep"	"Oct"	"Nov"	"Dec"
"1901"	"15.67"	"19.754"	"24.729"	"30.027"	"29.84"	"30.386"	"28.69"	"28.286"	"27.847"	"27.079"	"21.698"	"17.425"
"1902"	"17.608"	"19.83"	"26.352"	"28.039"	"29.618"	"29.838"	"28.187"	"28.541"	"27.929"	"25.901"	"21.299"	"16.955"
"1903"	"16.698"	"18.859"	"24.678"	"29.668"	"31.044"	"29.069"	"29.294"	"28.062"	"28.052"	"26.498"	"21.167"	"16.862"
"1904"	"16.627"	"19.459"	"25.47"	"30.113"	"28.841"	"28.773"	"27.667"	"28.087"	"28.074"	"26.081"	"21.165"	"17.865"
"1905"	"16.062"	"16.365"	"23.022"	"26.523"	"28.309"	"30.935"	"28.187"	"27.752"	"27.623"	"26.375"	"21.824"	"17.484"
"1906"	"16.25"	"18.678"	"22.977"	"29.95"	"30.412"	"29.837"	"28.639"	"27.815"	"28.477"	"26.179"	"21.818"	"17.885"
"1907"	"17.751"	"18.859"	"22.723"	"26.998"	"29.482"	"29.583"	"28.345"	"28.417"	"27.98"	"26.358"	"21.617"	"17.133"
"1908"	"15.734"	"19.23"	"25.271"	"31.683"	"30.52"	"29.639"	"28.367"	"28.147"	"28.127"	"26.712"	"21.247"	"16.721"
"1909"	"17.596"	"19.424"	"26.429"	"27.576"	"30.439"	"28.477"	"28.457"	"27.466"	"28.301"	"26.499"	"22.5"	"17.886"
"1910"	"16.393"	"19.208"	"24.987"	"29.446"	"29.815"	"28.828"	"27.843"	"27.918"	"28.225"	"26.179"	"21.207"	"16.839"
"1911"	"18.206"	"18.848"	"23.951"	"29.108"	"30.374"	"28.706"	"28.948"	"28.01"	"27.622"	"26.002"	"21.421"	"16.21"
"1912"	"17.103"	"20.386"	"24.527"	"27.361"	"29.237"	"29.785"	"28.009"	"28.011"	"28.108"	"26.179"	"21.03"	"16.986"
"1913"	"16.535"	"19.409"	"23.306"	"30.547"	"28.765"	"27.573"	"28.509"	"27.763"	"28.104"	"25.755"	"20.683"	"16.785"
"1914"	"16.851"	"19.706"	"24.433"	"26.905"	"29.085"	"28.834"	"28.164"	"27.811"	"27.852"	"25.184"	"21.564"	"17.914"
"1915"	"17.592"	"19.481"	"24.027"	"28.892"	"29.694"	"28.81"	"29.129"	"28.634"	"28.074"	"27.956"	"23.564"	"17.703"
"1916"	"16.722"	"19.851"	"26.493"	"29.261"	"32.306"	"28.653"	"28.214"	"28.291"	"28.127"	"26.503"	"21.818"	"16.762"
"1917"	"16.25"	"19.353"	"23.951"	"28.444"	"28.308"	"28.81"	"28.392"	"28.245"	"27.723"	"26.098"	"21.59"	"17.161"
"1918"	"15.787"	"19.357"	"25.509"	"28.104"	"29.467"	"27.863"	"29.294"	"27.51"	"28.229"	"26.461"	"21.669"	"17.148"
"1919"	"17.761"	"18.648"	"25.951"	"28.544"	"30.087"	"29.252"	"28.49"	"28.559"	"27.762"	"26.156"	"22.089"	"17.481"
"1920"	"17.439"	"19.288"	"24.17"	"29.178"	"29.86"	"30.635"	"28.885"	"28.173"	"27.847"	"26.78"	"22.164"	"17.905"
"1921"	"17.611"	"19.419"	"26.044"	"29.883"	"31.826"	"29.835"	"28.731"	"28.106"	"28.074"	"25.379"	"21.142"	"17.922"
"1922"	"17.297"	"20.148"	"26.129"	"30.669"	"31.502"	"28.325"	"28.41"	"27.888"	"27.576"	"25.522"	"21.731"	"17.585"
"1923"	"17.267"	"19.335"	"25.158"	"29.879"	"30.544"	"30.441"	"28.49"	"28.142"	"28.251"	"25.926"	"21.789"	"18.229"
"1924"	"17.274"	"19.804"	"26.971"	"30.456"	"30.685"	"31.246"	"28.41"	"28.19"	"27.427"	"26.776"	"21.513"	"17.645"
"1925"	"15.62"	"18.234"	"24.806"	"28.263"	"29.387"	"29.404"	"28.085"	"28.415"	"27.851"	"25.631"	"21.535"	"17.002"
"1926"	"16.839"	"20.109"	"23.974"	"27.916"	"29.887"	"31.898"	"28.415"	"28.305"	"28.004"	"26.226"	"20.834"	"18.224"
"1927"	"16.947"	"19.209"	"23.134"	"29.591"	"29.164"	"30.113"	"28.591"	"28.133"	"28.131"	"26.683"	"21.992"	"18.248"
"1928"	"17.036"	"20.069"	"26.227"	"29.275"	"30.098"	"28.805"	"28.257"	"28.463"	"28.704"	"26.712"	"21.575"	"17.857"
"1929"	"16.774"	"18.63"	"25.24"	"28.855"	"30.997"	"30.66"	"28.168"	"27.888"	"28.127"	"25.645"	"21.295"	"16.963"
"1930"	"15.751"	"19.1"	"25.239"	"28.826"	"30.194"	"29.555"	"28.338"	"28.088"	"28.122"	"26.454"	"21.266"	"16.98"
"1931"	"18.016"	"19.406"	"24.537"	"30.36"	"29.713"	"31.118"	"28.249"	"28.765"	"28.211"	"26.827"	"21.357"	"18.08"
"1932"	"17.869"	"18.438"	"25.906"	"29.433"	"31.637"	"30.118"	"28.846"	"28.529"	"28.681"	"27.026"	"21.938"	"18.191"
"1933"	"15.587"	"20.007"	"25.425"	"27.517"	"30.165"	"29.11"	"28.239"	"27.588"	"28.075"	"26.327"	"21.424"	"17.666"
"1934"	"16.394"	"19.108"	"24.83"	"29.456"	"30.215"	"28.955"	"28.514"	"28.145"	"28.353"	"25.754"	"21.028"	"17.842"
"1935"	"16.635"	"20.072"	"25.868"	"29.051"	"31.539"	"30.223"	"29.219"	"27.488"	"28.1"	"26.256"	"21.966"	"17.508"
"1936"	"15.897"	"19.697"	"25.71"	"29.549"	"29.519"	"29.166"	"28.534"	"28.734"	"27.724"	"25.879"	"22.489"	"18.383"
"1937"	"15.747"	"19.648"	"24.106"	"29.742"	"29.803"	"30.253"	"29.214"	"28.206"	"28.505"	"25.507"	"21.551"	"17.321"
"1938"	"18.066"	"18.588"	"26.793"	"30.95"	"28.954"	"29.242"	"28.496"	"28.307"	"28.957"	"26.884"	"21.293"	"17.681"
"1939"	"17.778"	"20.214"	"24.332"	"31.108"	"30.727"	"29.813"	"28.793"	"28.214"	"28.328"	"26.302"	"22.179"	"18.403"
"1940"	"17.064"	"19.687"	"23.361"	"29.373"	"31.09"	"30.337"	"28.734"	"28.511"	"28.305"	"27.032"	"23.001"	"18.197"
"1941"	"17.349"	"20.154"	"26.568"	"30.537"	"29.657"	"29.726"	"28.773"	"28.577"	"28.695"	"25.908"	"21.703"	"19.032"
"1942"	"17.491"	"19.786"	"25.904"	"28.795"	"31.1"	"31.146"	"29.158"	"27.908"	"27.651"	"26.279"	"22.98"	"17.264"
"1943"	"18.303"	"18.512"	"25.367"	"27.12"	"30.214"	"29.188"	"28.442"	"27.805"	"28.451"	"26.741"	"22.48"	"19.088"
"1944"	"17.104"	"19.449"	"24.622"	"27.49"	"31.967"	"30.617"	"28.61"	"28.265"	"28.193"	"26.255"	"21.879"	"18.849"
"1945"	"16.821"	"18.366"	"25.845"	"28.471"	"29.602"	"30.167"	"29.121"	"28.444"	"28.557"	"25.843"	"21.634"	"17.13"
"1946"	"17.997"	"21.271"	"25.123"	"26.319"	"29.288"	"29.6"	"28.581"	"28.669"	"28.429"	"26.084"	"22.656"	"18.788"
"1947"	"17.814"	"20.259"	"25.868"	"30.677"	"30.831"	"30.786"	"28.811"	"28.633"	"28.104"	"26.371"	"22.122"	"18.839"
"1948"	"18.677"	"20.186"	"25.255"	"29.053"	"29.686"	"30.123"	"28.029"	"28.128"	"28.447"	"26.23"	"22.174"	"17.252"
"1949"	"17.816"	"19.554"	"25.58"	"26.722"	"27.835"	"29.412"	"28.457"	"28.412"	"28.175"	"27.376"	"21.415"	"16.864"
"1950"	"17.677"	"19.331"	"24.498"	"29.513"	"30.941"	"29.596"	"28.898"	"27.763"	"28.612"	"26.404"	"21.301"	"17.932"
"1951"	"17.055"	"20.318"	"25.948"	"29.47"	"30.893"	"29.807"	"28.49"	"29.186"	"29.04"	"27.478"	"22.519"	"18.576"
"1952"	"18.078"	"20.701"	"24.477"	"27.536"	"29.428"	"29.928"	"28.134"	"28.255"	"27.693"	"26.899"	"22.053"	"17.806"
"1953"	"16.52"	"20.875"	"26.757"	"29.456"	"30.479"	"29.163"	"27.815"	"28.385"	"27.776"	"26.421"	"21.818"	"19.525"
"1954"	"16.215"	"21.358"	"25.378"	"31.968"	"31.024"	"28.335"	"27.745"	"28.078"	"28.449"	"25.193"	"20.652"	"17.683"
"1955"	"17.294"	"19.502"	"26.246"	"28.56"	"30.976"	"29.532"	"27.609"	"27.49"	"28.523"	"27.058"	"22.741"	"17.53"
"1956"	"17.153"	"19.61"	"26.204"	"29.643"	"30.441"	"28.406"	"28.33"	"27.935"	"27.816"	"26.097"	"21.554"	"18.212"
"1957"	"17.132"	"18.433"	"24.608"	"29.744"	"33.09"	"29.906"	"28.591"	"28.158"	"28.2"	"25.71"	"21.565"	"18.831"
"1958"	"18.909"	"20.111"	"25.804"	"30.931"	"32.627"	"31.89"	"29.642"	"28.005"	"28.771"	"27.678"	"22.772"	"19.234"
"1959"	"17.625"	"19.307"	"24.879"	"29.985"	"30.925"	"29.638"	"28.898"	"28.772"	"28.206"	"26.211"	"21.747"	"18.317"
"1960"	"16.966"	"21.941"	"24.134"	"31.038"	"31.692"	"29.992"	"28.221"	"28.784"	"27.68"	"26.998"	"21.638"	"18.843"
"1961"	"18.451"	"18.412"	"26.393"	"30.465"	"31.631"	"29.481"	"28.796"	"28.838"	"28.46"	"26.442"	"21.314"	"16.063"
"1962"	"16.353"	"20.737"	"25.338"	"30.534"	"30.179"	"29.734"	"29.096"	"27.79"	"28.358"	"25.974"	"21.848"	"18.266"
"1963"	"16.79"	"21.095"	"24.832"	"28.427"	"28.936"	"29.823"	"28.638"	"28.459"	"28.616"	"26.594"	"22.555"	"18.837"
"1964"	"16.805"	"20.1"	"26.441"	"29.732"	"29.207"	"30.605"	"27.887"	"28.529"	"28.342"	"26.981"	"22.561"	"18.483"
"1965"	"18.224"	"20.287"	"24.176"	"29.128"	"31.295"	"30.514"	"28.242"	"27.706"	"28.101"	"26.683"	"22.142"	"17.881"
"1966"	"17.706"	"21.769"	"26.209"	"31.077"	"31.682"	"30.586"	"28.914"	"28.277"	"28.155"	"25.75"	"22.616"	"18.403"
"1967"	"17.872"	"20.99"	"23.886"	"27.09"	"30.109"	"30.2"	"28.82"	"28.295"	"28.18"	"25.981"	"21.246"	"18.826"
"1968"	"16.924"	"18.647"	"25.351"	"29.241"	"31.481"	"28.562"	"28.211"	"28.431"	"28.832"	"25.755"	"22.014"	"19.119"
"1969"	"16.749"	"20.544"	"26.749"	"29.765"	"29.386"	"29.933"	"28.457"	"27.471"	"27.622"	"26.203"	"22.85"	"18.191"
"1970"	"17.307"	"19.819"	"24.846"	"30.226"	"31.43"	"29.094"	"28.468"	"28.305"	"27.772"	"26.357"	"21.273"	"17.316"
"1971"	"16.666"	"19.129"	"24.243"	"26.362"	"27.751"	"28.363"	"27.251"	"26.812"	"27.468"	"26.238"	"20.941"	"17.939"
"1972"	"17.248"	"17.746"	"25.138"	"29.099"	"31.896"	"29.792"	"28.642"	"28.021"	"26.34"	"25.805"	"20.837"	"17.587"
"1973"	"17.135"	"20.219"	"23.574"	"29.467"	"28.995"	"28.203"	"28.533"	"28.286"	"27.705"	"26.422"	"21.913"	"18.084"
"1974"	"15.742"	"19.55"	"24.182"	"29.155"	"29.17"	"29.542"	"27.848"	"27.962"	"27.734"	"27.4"	"21.685"	"16.052"
"1975"	"17.08"	"19.947"	"25.101"	"29.755"	"30.112"	"29.516"	"26.819"	"28.281"	"27.576"	"27.422"	"22.348"	"17.512"
"1976"	"17.094"	"20.694"	"25.816"	"29.139"	"28.913"	"29.888"	"28.618"	"27.925"	"27.536"	"26.765"	"23.783"	"18.108"
"1977"	"17.059"	"19.969"	"26.881"	"28.877"	"27.133"	"28.451"	"28.255"	"28.714"	"28.334"	"25.754"	"23.009"	"16.356"
"1978"	"15.719"	"19.224"	"23.751"	"27.979"	"28.972"	"28.571"	"28.208"	"28.504"	"27.852"	"26.471"	"23.065"	"18.648"
"1979"	"17.939"	"19.102"	"24.914"	"29.546"	"31.554"	"30.731"	"28.647"	"29.274"	"27.761"	"26.974"	"24.359"	"18.391"
"1980"	"17.267"	"19.907"	"25.114"	"30.822"	"28.966"	"29.438"	"28.587"	"28.254"	"28.251"	"26.226"	"22.612"	"19.315"
"1981"	"16.403"	"20.043"	"24.195"	"26.563"	"27.706"	"29.688"	"28.157"	"28.606"	"27.962"	"26.721"	"21.97"	"17.935"
"1982"	"18.323"	"19.452"	"23.065"	"28.51"	"31.419"	"29.485"	"30.15"	"28.288"	"28.851"	"26.449"	"22.275"	"18.32"
"1983"	"16.515"	"19.032"	"25.262"	"27.808"	"29.003"	"31.223"	"29.06"	"28.721"	"28.588"	"26.456"	"22.08"	"17.807"
"1984"	"16.972"	"19.044"	"25.73"	"29.95"	"31.254"	"28.387"	"28.296"	"28.246"	"27.651"	"27.405"	"21.119"	"18.531"
"1985"	"17.666"	"19.451"	"26.44"	"30.004"	"28.986"	"30.166"	"27.66"	"28.507"	"27.604"	"26.37"	"22.295"	"19.598"
"1986"	"17.82"	"20.218"	"24.746"	"28.473"	"28.113"	"30.59"	"28.196"	"27.772"	"27.644"	"25.678"	"22.676"	"18.34"
"1987"	"17.367"	"20.962"	"25.095"	"28.569"	"29.736"	"30.719"	"28.302"	"27.476"	"28.158"	"26.954"	"22.689"	"19.915"
"1988"	"18.881"	"20.953"	"25.036"	"29.702"	"30.403"	"28.818"	"28.656"	"28.843"	"29.319"	"28.039"	"23.03"	"20.284"
"1989"	"17.299"	"21.394"	"25.574"	"30.55"	"30.225"	"28.678"	"28.508"	"28.504"	"28.487"	"27.593"	"22.548"	"18.069"
"1990"	"18.612"	"20.206"	"23.662"	"28.339"	"29.145"	"29.804"	"28.457"	"29.049"	"28.732"	"25.802"	"23.625"	"19.112"
"1991"	"16.315"	"21.685"	"25.605"	"29.065"	"31.095"	"28.86"	"29.091"	"28.67"	"27.821"	"27.286"	"23.516"	"17.946"
"1992"	"16.39"	"18.347"	"26.401"	"30.015"	"28.964"	"30.469"	"28.058"	"28.504"	"28.43"	"26.647"	"22.815"	"17.916"
"1993"	"17.088"	"21.511"	"23.838"	"27.862"	"28.573"	"29.792"	"29.214"	"28.076"	"28.074"	"27.297"	"23.132"	"19.416"
"1994"	"18.243"	"19.276"	"25.541"	"28.43"	"30.558"	"29.61"	"29.299"	"28.67"	"28.3"	"26.636"	"22.792"	"18.623"
"1995"	"16.126"	"20.606"	"25.032"	"29.28"	"31.199"	"30.071"	"28.043"	"27.905"	"28.154"	"27.021"	"23.236"	"18.866"
"1996"	"17.171"	"19.85"	"25.864"	"28.672"	"30.363"	"28.977"	"28.392"	"27.675"	"28.728"	"26.462"	"22.701"	"18.832"
"1997"	"17.017"	"18.26"	"25.629"	"28.479"	"29.763"	"29.956"	"28.537"	"28.8"	"27.622"	"26.114"	"22.684"	"18.401"
"1998"	"16.797"	"20.529"	"23.839"	"28.666"	"30.547"	"31.147"	"28.596"	"28.616"	"28.793"	"28.661"	"23.564"	"19.605"
"1999"	"18.263"	"21.713"	"26.247"	"31.645"	"30.517"	"29.782"	"28.386"	"28.286"	"28.153"	"27.256"	"23.294"	"19.824"
"2000"	"17.558"	"20.069"	"24.336"	"28.977"	"30.14"	"29.71"	"28.573"	"28.434"	"27.716"	"26.948"	"23.585"	"18.589"
"2001"	"17.732"	"20.341"	"25.522"	"29.956"	"30.795"	"29.499"	"28.81"	"28.91"	"28.728"	"27.661"	"24.105"	"19.552"
"2002"	"17.532"	"21.247"	"26.029"	"29.138"	"30.75"	"30.144"	"29.619"	"28.286"	"28.224"	"26.828"	"22.864"	"19.341"
