
"Year"	"Jan"	"Feb"	"Mar"	"Apr"	"May"	"Jun"	"Jul"	"Aug"	"Sep"	"Oct"	"Nov"	"Dec"
"1901"	"16.382"	"18.337"	"25.671"	"29.906"	"33.864"	"33.686"	"29.763"	"26.128"	"27.788"	"28.243"	"22.334"	"19.515"
"1902"	"19.086"	"21.029"	"27.746"	"31.28"	"33.598"	"32.666"	"28.994"	"28.051"	"26.594"	"26.122"	"21.083"	"17.839"
"1903"	"17.923"	"18.795"	"23.759"	"28.651"	"32.369"	"33.655"	"29.369"	"26.612"	"26.5"	"25.889"	"19.9"	"17.392"
"1904"	"17.91"	"19.731"	"24.194"	"31.193"	"33.337"	"31.176"	"27.081"	"26.149"	"27.237"	"26.535"	"21.517"	"18.656"
"1905"	"16.663"	"15.724"	"22.962"	"27.984"	"34.882"	"33.121"	"28.31"	"27.589"	"27.956"	"27.262"	"23.26"	"18.77"
"1906"	"16.447"	"18.096"	"24.351"	"30.182"	"34.674"	"31.261"	"27.519"	"27.268"	"25.975"	"25.813"	"22.319"	"18.784"
"1907"	"18.854"	"19.129"	"23.958"	"28.588"	"31.631"	"32.521"	"30.532"	"25.655"	"26.885"	"27.314"	"22.578"	"17.3"
"1908"	"17.403"	"19.64"	"23.983"	"30.938"	"33.071"	"32.117"	"26.544"	"25.792"	"26.399"	"25.991"	"21.498"	"17.578"
"1909"	"17.833"	"19.791"	"26.549"	"28.691"	"32.697"	"30.934"	"26.93"	"25.802"	"26.077"	"25.958"	"22.254"	"17.873"
"1910"	"17.43"	"20.147"	"25.285"	"29.202"	"32.968"	"29.717"	"26.97"	"26.576"	"26.533"	"24.728"	"20.093"	"18.512"
"1911"	"19.485"	"20.049"	"23.312"	"29.549"	"34.131"	"30.788"	"29.589"	"27.742"	"26.29"	"27.248"	"21.315"	"19.532"
"1912"	"18.938"	"21.634"	"24.795"	"30.511"	"33.813"	"33.435"	"28.291"	"26.145"	"26.174"	"26.24"	"20.619"	"18.064"
"1913"	"17.8"	"20.069"	"23.505"	"31.342"	"32.239"	"30.368"	"27.823"	"26.399"	"27.42"	"27.756"	"22.129"	"18.649"
"1914"	"19.685"	"19.984"	"24.486"	"30.171"	"34.071"	"30.829"	"27.551"	"26.744"	"27.437"	"26.57"	"23.259"	"18.227"
"1915"	"17.954"	"18.413"	"25.386"	"29.931"	"34.246"	"33.761"	"30.474"	"27.407"	"29.201"	"27.693"	"22.467"	"19.253"
"1916"	"18.718"	"19.32"	"27.38"	"31.325"	"33.423"	"29.658"	"29.049"	"26.329"	"27.222"	"25.444"	"20.082"	"17.694"
"1917"	"18.782"	"20.033"	"24.914"	"28.22"	"30.789"	"29.748"	"26.636"	"26.07"	"25.874"	"24.428"	"19.324"	"18.156"
"1918"	"16.219"	"20.618"	"25.037"	"28.358"	"33.925"	"30.978"	"29.456"	"27.336"	"27.273"	"27.321"	"22.887"	"17.627"
"1919"	"18.33"	"19.501"	"25.981"	"29.618"	"32.876"	"31.547"	"27.256"	"26.122"	"26.509"	"25.856"	"22.051"	"17.966"
"1920"	"18.184"	"19.601"	"25.851"	"29.616"	"30.249"	"30.519"	"26.704"	"26.187"	"28.197"	"27.681"	"22.871"	"19.053"
"1921"	"18.454"	"20.151"	"27.623"	"31.893"	"34.088"	"32.256"	"30.101"	"26.548"	"25.645"	"25.965"	"21.446"	"20.019"
"1922"	"17.224"	"21.578"	"26.234"	"30.826"	"33.32"	"31.283"	"27.657"	"26.333"	"26.137"	"25.869"	"21.32"	"17.721"
"1923"	"18.054"	"19.275"	"25.834"	"30.315"	"32.418"	"33.76"	"27.945"	"25.422"	"26.802"	"25.62"	"21.388"	"19.059"
"1924"	"17.575"	"20.54"	"27.131"	"31.173"	"31.806"	"32.455"	"28.173"	"26.415"	"26.138"	"24.634"	"19.957"	"18.182"
"1925"	"15.767"	"18.203"	"25.824"	"31.979"	"32.249"	"29.295"	"26.675"	"27.621"	"28.445"	"28.201"	"22.258"	"18.715"
"1926"	"18.733"	"22.334"	"24.729"	"27.322"	"32.082"	"34.054"	"28.548"	"26.518"	"26.171"	"25.977"	"19.817"	"17.396"
"1927"	"16.171"	"18.306"	"23.942"	"29.384"	"32.331"	"31.769"	"27.372"	"25.683"	"26.375"	"25.945"	"19.191"	"18.521"
"1928"	"17.401"	"20.028"	"25.276"	"29.644"	"33.352"	"31.586"	"27.406"	"26.38"	"26.663"	"26.151"	"22.068"	"17.467"
"1929"	"16.738"	"18.524"	"26.664"	"30.278"	"33.412"	"31.551"	"27.44"	"26.074"	"27.242"	"26.315"	"22.752"	"17.541"
"1930"	"17.92"	"19.386"	"26.044"	"29.473"	"32.689"	"31.726"	"26.786"	"26.288"	"28.203"	"27.685"	"20.995"	"19.007"
"1931"	"19.565"	"19.157"	"24.76"	"31.349"	"33.575"	"33.587"	"28.556"	"26.499"	"26.639"	"25.241"	"21.351"	"18.799"
"1932"	"20.399"	"19.14"	"24.96"	"29.34"	"33.02"	"32.031"	"27.828"	"26.489"	"27.504"	"27.068"	"20.777"	"18.898"
"1933"	"17.021"	"20.57"	"25.411"	"28.859"	"30.87"	"30.576"	"27.627"	"25.832"	"25.755"	"25.293"	"21.473"	"18.299"
"1934"	"16.38"	"21.211"	"24.452"	"30.126"	"32.744"	"31.576"	"27.246"	"26.042"	"25.729"	"25.162"	"21.05"	"18.86"
"1935"	"15.759"	"20.021"	"24.659"	"27.297"	"33.178"	"32.166"	"27.022"	"25.839"	"25.927"	"25.254"	"21.844"	"18.245"
"1936"	"16.435"	"19.75"	"24.512"	"28.897"	"34.138"	"29.65"	"27.418"	"26.407"	"26.688"	"26.197"	"21.566"	"17.793"
"1937"	"16.702"	"20.718"	"23.69"	"29.154"	"33.018"	"32.144"	"26.698"	"26.447"	"26.804"	"25.734"	"22.52"	"17.261"
"1938"	"18.076"	"18.32"	"26.971"	"30.631"	"33.673"	"28.225"	"27.191"	"26.928"	"28.135"	"26.909"	"20.465"	"18.641"
"1939"	"19.039"	"19.9"	"22.986"	"28.532"	"32.768"	"30.961"	"27.596"	"28.213"	"26.815"	"27.185"	"21.628"	"18.478"
"1940"	"18.257"	"20.192"	"23.619"	"29.015"	"33.482"	"31.621"	"27.905"	"25.824"	"26.797"	"26.448"	"22.003"	"18.127"
"1941"	"17.179"	"20.727"	"26.77"	"31.234"	"33.56"	"32.248"	"28.078"	"26.884"	"27.896"	"28.516"	"22.572"	"20.081"
"1942"	"16.493"	"20.56"	"26.453"	"31.715"	"33.457"	"32.999"	"26.404"	"25.808"	"26.032"	"26.053"	"21.532"	"17.388"
"1943"	"17.964"	"19.761"	"25.998"	"29.519"	"33.731"	"30.599"	"26.858"	"25.569"	"26.456"	"25.659"	"22.386"	"18.542"
"1944"	"17.231"	"19.459"	"24.323"	"29.129"	"33.169"	"30.697"	"26.555"	"25.748"	"26.779"	"24.782"	"21.558"	"19.512"
"1945"	"15.832"	"19.062"	"25.612"	"28.899"	"32.357"	"31.813"	"26.565"	"26.509"	"26.103"	"25.267"	"20.666"	"16.654"
"1946"	"17.916"	"21.467"	"24.709"	"31.75"	"32.941"	"30.715"	"27.151"	"25.487"	"26.362"	"26.572"	"19.537"	"19.009"
"1947"	"16.576"	"19.818"	"25.87"	"30.002"	"33.645"	"32.457"	"27.893"	"27.141"	"25.826"	"24.985"	"22.138"	"19.018"
"1948"	"17.62"	"19.41"	"25.235"	"31.331"	"34.638"	"31.822"	"27.931"	"26.26"	"26.193"	"27.125"	"21.493"	"18.43"
"1949"	"19.778"	"20.248"	"25.954"	"31.408"	"34.433"	"31.234"	"27.996"	"27.19"	"27.195"	"26.54"	"20.923"	"17.969"
"1950"	"18.957"	"18.105"	"24.426"	"29.116"	"33.084"	"31.911"	"27.163"	"26.358"	"26.286"	"25.549"	"19.975"	"17.111"
"1951"	"16.738"	"19.285"	"25.175"	"28.38"	"32.83"	"31.028"	"29.219"	"26.641"	"28.915"	"29.306"	"23.514"	"18.245"
"1952"	"19.067"	"21.875"	"25.266"	"31.414"	"34.354"	"30.866"	"27.245"	"25.648"	"27.489"	"26.73"	"21.963"	"19.46"
"1953"	"17.383"	"22.469"	"27.822"	"30.62"	"33.273"	"32.006"	"28.373"	"26.516"	"27.249"	"26.151"	"21.9"	"20.564"
"1954"	"17.504"	"21.467"	"25.636"	"30.758"	"34.5"	"32.413"	"27.99"	"27.492"	"25.604"	"24.346"	"22.085"	"18.506"
"1955"	"17.991"	"20.333"	"27.459"	"28.236"	"32.63"	"31.29"	"28.598"	"26.34"	"26.133"	"24.792"	"20.173"	"18.426"
"1956"	"18.115"	"19.879"	"26.174"	"30.377"	"33.843"	"30.509"	"26.027"	"25.739"	"26.707"	"24.702"	"20.364"	"18.871"
"1957"	"17.224"	"18.536"	"23.921"	"29.425"	"31.933"	"32.346"	"27.885"	"27.181"	"26.638"	"26.577"	"23.564"	"19.475"
"1958"	"19.44"	"20.564"	"26.429"	"31.813"	"33.617"	"32.61"	"26.953"	"27.462"	"25.716"	"25.521"	"22.722"	"19.58"
"1959"	"17.924"	"19.823"	"26.898"	"30.362"	"32.972"	"31.615"	"26.783"	"25.799"	"26.055"	"26.154"	"21.758"	"19.053"
"1960"	"16.728"	"22.074"	"24.48"	"29.158"	"32.415"	"31.687"	"28.352"	"25.353"	"27.473"	"25.738"	"21.17"	"19.077"
"1961"	"17.052"	"18.037"	"26.183"	"29.869"	"33.309"	"30.864"	"27.601"	"26.561"	"25.669"	"24.827"	"21.778"	"17.244"
"1962"	"16.518"	"20.562"	"25.342"	"30.177"	"32.165"	"31.062"	"27.038"	"25.562"	"25.201"	"24.222"	"21.088"	"19.268"
"1963"	"17.646"	"22.416"	"25.985"	"30.061"	"33.122"	"31.734"	"28.724"	"25.715"	"26.6"	"26.513"	"24.136"	"19.332"
"1964"	"16.933"	"20.354"	"27.007"	"32.24"	"32.63"	"30.093"	"27.474"	"26.639"	"26.82"	"26.99"	"21.249"	"18.843"
"1965"	"19.682"	"20.92"	"25.602"	"29.719"	"33.501"	"32.655"	"28.557"	"27.682"	"26.838"	"27.77"	"23.8"	"18.995"
"1966"	"18.986"	"23.287"	"25.56"	"30.801"	"33.213"	"31.53"	"29.272"	"25.927"	"26.353"	"27.275"	"23.017"	"18.202"
"1967"	"16.08"	"22.068"	"24.203"	"28.646"	"31.982"	"30.371"	"27.385"	"24.988"	"24.91"	"25.629"	"22.669"	"19.854"
"1968"	"17.125"	"18.866"	"25.007"	"29.585"	"31.607"	"32.779"	"27.598"	"25.256"	"27.928"	"25.847"	"22.052"	"18.641"
"1969"	"17.876"	"20.872"	"27.739"	"30.31"	"32.327"	"31.998"	"28.012"	"25.955"	"26.812"	"27.389"	"23.98"	"19.451"
"1970"	"18.626"	"19.848"	"25.061"	"30.975"	"33.987"	"30.166"	"28.073"	"26.411"	"25.925"	"26.454"	"21.144"	"18.577"
"1971"	"16.977"	"19.951"	"24.883"	"31.193"	"31.664"	"29.123"	"25.744"	"25.952"	"26.293"	"25.174"	"21.54"	"17.987"
"1972"	"18.223"	"18.105"	"26.611"	"29.184"	"32.848"	"32.029"	"28.516"	"27.293"	"26.493"	"26.544"	"22.455"	"19.519"
"1973"	"17.9"	"21.243"	"25.475"	"31.923"	"34.028"	"31.164"	"26.734"	"25.909"	"25.694"	"26.013"	"21.66"	"18.414"
"1974"	"16.979"	"19.295"	"27.509"	"30.975"	"32.6"	"31.69"	"28.248"	"26.924"	"28.279"	"26.137"	"21.119"	"17.856"
"1975"	"17.361"	"19.331"	"23.481"	"30.317"	"33.82"	"30.834"	"26.382"	"26.269"	"26.008"	"25.694"	"20.438"	"19.034"
"1976"	"18.702"	"20.658"	"26.087"	"29.345"	"32.624"	"29.841"	"27.896"	"25.896"	"26.031"	"27.014"	"24.284"	"19.556"
"1977"	"17.353"	"21.323"	"27.852"	"30.255"	"32.081"	"31.023"	"26.511"	"25.669"	"25.655"	"27.298"	"23.501"	"21.588"
"1978"	"17.479"	"19.073"	"23.406"	"29.235"	"33.628"	"29.761"	"25.89"	"25.135"	"26.424"	"26.475"	"23.639"	"17.166"
"1979"	"18.967"	"18.689"	"23.982"	"30.85"	"30.82"	"31.811"	"27.942"	"26.309"	"28.338"	"27.694"	"23.481"	"19.362"
"1980"	"18.665"	"22.412"	"25.285"	"31.997"	"34.021"	"30.209"	"27.549"	"26.916"	"27.833"	"28.121"	"23.424"	"17.824"
"1981"	"17.902"	"21.689"	"25.026"	"31.127"	"33.409"	"32.535"	"27.264"	"25.869"	"27.6"	"26.905"	"21.09"	"17.713"
"1982"	"18.428"	"18.838"	"23.092"	"28.626"	"30.691"	"32.338"	"29.232"	"26.228"	"27.811"	"27.749"	"22.054"	"20.418"
"1983"	"17.728"	"19.098"	"25.091"	"27.467"	"32.291"	"31.861"	"28.514"	"27.037"	"27.165"	"25.443"	"20.982"	"18.808"
"1984"	"17.35"	"17.413"	"27.242"	"31.476"	"34.633"	"31.482"	"27.96"	"25.331"	"25.871"	"26.295"	"21.998"	"19.854"
"1985"	"17.967"	"21.405"	"28.168"	"30.601"	"33.918"	"32.059"	"28.268"	"25.81"	"27.243"	"24.698"	"22.661"	"21.212"
"1986"	"18.17"	"19.818"	"25.687"	"30.99"	"32.685"	"31.996"	"26.99"	"25.894"	"28.254"	"26.996"	"23.564"	"18.432"
"1987"	"18.395"	"21.612"	"26.464"	"31.196"	"31.52"	"32.274"	"29.88"	"28.56"	"28.882"	"27.798"	"23.043"	"19.46"
"1988"	"19.201"	"22.172"	"25.92"	"31.572"	"34.854"	"31.585"	"27.066"	"26.809"	"28.165"	"26.523"	"22.458"	"19.744"
"1989"	"17.42"	"20.559"	"24.983"	"29.815"	"33.851"	"30.458"	"27.638"	"25.754"	"28.006"	"27.11"	"23.924"	"19.157"
"1990"	"20.516"	"20.259"	"24.561"	"30.523"	"32.748"	"31.094"	"26.61"	"26.821"	"26.403"	"26.411"	"23.172"	"19.28"
"1991"	"17.182"	"21.043"	"26.026"	"29.542"	"31.468"	"32.802"	"28.585"	"26.307"	"26.932"	"26.782"	"22.264"	"19.58"
"1992"	"19.2"	"19.525"	"25.893"	"30.165"	"32.547"	"33.568"	"29.343"	"26.399"	"26.102"	"26.015"	"21.981"	"19.945"
"1993"	"19.223"	"21.465"	"24.634"	"30.011"	"34.066"	"31.777"	"27.587"	"27.298"	"26.369"	"27.427"	"23.412"	"19.993"
"1994"	"19.387"	"19.911"	"26.957"	"29.644"	"34.414"	"30.721"	"26.398"	"25.872"	"25.934"	"26.472"	"22.575"	"19.48"
"1995"	"16.87"	"20.602"	"24.349"	"30.017"	"33.377"	"34.591"	"28.344"	"26.57"	"27.722"	"28.168"	"22.841"	"20.19"
"1996"	"18.833"	"21.47"	"27.526"	"30.703"	"33.388"	"32.601"	"28.521"	"25.692"	"26.904"	"26.265"	"22.749"	"19.323"
"1997"	"17.744"	"20.346"	"26.168"	"28.884"	"31.254"	"30.28"	"27.938"	"26.687"	"27.213"	"25.096"	"23.24"	"18.122"
"1998"	"18.155"	"20.861"	"24.931"	"31.286"	"34.675"	"32.768"	"28.233"	"28.133"	"27.698"	"27.826"	"23.485"	"20.6"
"1999"	"17.95"	"21.342"	"26.581"	"32.523"	"33.806"	"31.079"	"27.935"	"26.956"	"27.076"	"26.622"	"23.381"	"19.047"
"2000"	"19.313"	"19.271"	"25.555"	"32.607"	"32.501"	"31.527"	"27.122"	"27.757"	"27.654"	"27.766"	"24.491"	"20.585"
"2001"	"18.116"	"21.425"	"26.187"	"30.224"	"32.663"	"29.323"	"26.246"	"27.075"	"28.802"	"27.501"	"23.302"	"20.416"
"2002"	"17.916"	"20.354"	"26.457"	"32.101"	"34.555"	"31.938"	"29.55"	"26.535"	"27.781"	"27.529"	"23.852"	"21.751"
