
"Year"	"Jan"	"Feb"	"Mar"	"Apr"	"May"	"Jun"	"Jul"	"Aug"	"Sep"	"Oct"	"Nov"	"Dec"
"1901"	"9.541"	"11.598"	"18.815"	"23.749"	"28.011"	"32.101"	"29.926"	"28.481"	"26.434"	"24.753"	"18.299"	"13.315"
"1902"	"13.431"	"15.496"	"19.776"	"24.434"	"28.904"	"30.37"	"28.699"	"28.262"	"26.718"	"22.587"	"17.324"	"13.157"
"1903"	"11.115"	"13.027"	"16.424"	"23.258"	"27.791"	"32.26"	"30.365"	"28.125"	"27.249"	"23.906"	"17.442"	"13.801"
"1904"	"10.381"	"15.01"	"17.796"	"25.475"	"28.433"	"31.033"	"28.621"	"27.919"	"26.63"	"23.293"	"16.676"	"12.978"
"1905"	"9.007"	"9.126"	"14.399"	"22.241"	"29.517"	"31.78"	"28.945"	"28.741"	"27.188"	"23.887"	"17.742"	"12.457"
"1906"	"10.092"	"10.836"	"16.304"	"24.424"	"30.248"	"30.804"	"29.469"	"27.54"	"26.718"	"23.586"	"18.745"	"14.293"
"1907"	"13.507"	"10.957"	"14.652"	"22.479"	"27.306"	"30.807"	"29.956"	"27.974"	"27.423"	"24.479"	"18.395"	"13.354"
"1908"	"12.483"	"13.754"	"18.347"	"25.072"	"28.734"	"32.432"	"29.004"	"27.442"	"27.005"	"23.522"	"16.407"	"12.098"
"1909"	"9.594"	"12.145"	"19.483"	"23.24"	"28.848"	"29.472"	"28.334"	"27.72"	"26.994"	"23.819"	"18.181"	"11.915"
"1910"	"11.448"	"13.101"	"18.178"	"23.629"	"29.054"	"30.583"	"28.119"	"27.888"	"27.309"	"23.169"	"16.328"	"11.968"
"1911"	"11.129"	"14.263"	"15.454"	"24.132"	"30.238"	"30.905"	"30.476"	"29.005"	"26.922"	"23.554"	"15.728"	"12.496"
"1912"	"11.477"	"14.98"	"17.827"	"23.564"	"28.544"	"31.838"	"29.354"	"27.938"	"26.48"	"23.776"	"15.915"	"12.644"
"1913"	"12.412"	"12.538"	"15.579"	"24.915"	"27.165"	"28.749"	"28.218"	"28.068"	"27.241"	"23.605"	"16.162"	"11.135"
"1914"	"13.171"	"12.475"	"17.076"	"23.206"	"28.195"	"30.684"	"28.724"	"27.78"	"26.797"	"21.321"	"16.836"	"11.974"
"1915"	"11.625"	"12.309"	"18.75"	"24.287"	"30.951"	"31.078"	"29.882"	"28.402"	"27.725"	"25.173"	"17.958"	"12.824"
"1916"	"11.922"	"12.554"	"20.949"	"25.265"	"28.368"	"29.582"	"28.221"	"27.993"	"27.02"	"23.41"	"16.967"	"12.219"
"1917"	"11.254"	"13.66"	"17.111"	"20.59"	"24.432"	"29.354"	"28.431"	"27.762"	"26.309"	"22.695"	"17.265"	"12.222"
"1918"	"10.614"	"14.023"	"17.62"	"21.975"	"30.453"	"29.787"	"29.246"	"28.361"	"27.038"	"23.407"	"16.631"	"11.083"
"1919"	"10.281"	"12.848"	"17.758"	"22.692"	"27.174"	"31.871"	"28.749"	"27.971"	"26.665"	"23.53"	"16.9"	"11.673"
"1920"	"13.04"	"11.673"	"16.912"	"23.56"	"25.142"	"29.853"	"28.973"	"27.829"	"26.947"	"24.255"	"17.957"	"14.611"
"1921"	"11.181"	"14.701"	"21.291"	"27.211"	"31.704"	"31.735"	"29.757"	"27.506"	"26.365"	"22.004"	"16.706"	"13.053"
"1922"	"9.987"	"14.9"	"19.627"	"23.918"	"29.1"	"29.887"	"28.897"	"27.678"	"26.663"	"22.566"	"16.9"	"11.209"
"1923"	"11.493"	"12.228"	"19.573"	"25.887"	"28.146"	"31.96"	"28.654"	"27.804"	"26.634"	"22.151"	"16.701"	"12.13"
"1924"	"10.207"	"13.352"	"19.896"	"25.181"	"25.25"	"32.983"	"29.505"	"27.731"	"25.937"	"23.996"	"16.903"	"13.498"
"1925"	"9.693"	"12.499"	"19.183"	"26.734"	"27.981"	"29.056"	"28.11"	"27.871"	"27.123"	"23.346"	"15.778"	"13.53"
"1926"	"11.581"	"14.55"	"16.141"	"21.163"	"26.193"	"32.14"	"29.841"	"28.044"	"27.018"	"23.518"	"14.987"	"12.625"
"1927"	"10.471"	"10.901"	"17.152"	"23.574"	"27.364"	"31.106"	"28.973"	"27.629"	"27.042"	"23.465"	"17.105"	"14.038"
"1928"	"10.721"	"14.071"	"18.471"	"23.938"	"31.51"	"30.804"	"29.453"	"28.482"	"27.295"	"24.186"	"16.738"	"12.37"
"1929"	"10.647"	"12.302"	"20.53"	"25.035"	"29.568"	"31.063"	"28.759"	"27.324"	"27.139"	"22.906"	"17.497"	"9.607"
"1930"	"10.061"	"13.128"	"19.193"	"23.46"	"28.195"	"29.704"	"28.193"	"27.731"	"26.999"	"22.632"	"16.377"	"13.357"
"1931"	"13.156"	"10.66"	"18.167"	"25.998"	"28.353"	"31.859"	"28.952"	"28.872"	"26.677"	"23.435"	"17.296"	"13.489"
"1932"	"13.636"	"12.662"	"19.251"	"25.002"	"27.518"	"32.674"	"29.273"	"27.72"	"27.091"	"23.746"	"18.013"	"12.816"
"1933"	"10.204"	"13.679"	"18.311"	"21.857"	"26.4"	"31.179"	"28.751"	"27.24"	"25.959"	"22.901"	"17.126"	"13.963"
"1934"	"8.728"	"16.487"	"17.838"	"24.999"	"27.638"	"30.804"	"29.075"	"27.553"	"28.169"	"23.711"	"17.274"	"12.041"
"1935"	"8.908"	"13.408"	"18.641"	"20.749"	"29.361"	"32.553"	"29.24"	"27.705"	"26.798"	"23.304"	"17.135"	"11.82"
"1936"	"10.172"	"12.888"	"18.132"	"23.997"	"30.694"	"29.248"	"28.699"	"28.131"	"26.813"	"23.427"	"17.329"	"11.118"
"1937"	"11.065"	"12.966"	"17.628"	"23.001"	"28.613"	"31.716"	"28.695"	"28.629"	"26.994"	"22.735"	"16.039"	"11.86"
"1938"	"10.568"	"11.779"	"19.241"	"25.478"	"30.924"	"29.973"	"29.505"	"28.248"	"26.69"	"24.18"	"15.485"	"14.401"
"1939"	"12.192"	"13.252"	"15.855"	"22.852"	"30.238"	"29.749"	"28.955"	"28.467"	"26.933"	"23.993"	"17.828"	"14.139"
"1940"	"11.843"	"12.806"	"15.99"	"22.738"	"29.242"	"30.65"	"29.282"	"27.709"	"26.302"	"23.804"	"17.905"	"11.854"
"1941"	"10.376"	"14.464"	"20.851"	"27.181"	"29.946"	"30.104"	"29.251"	"28.318"	"27.026"	"24.692"	"17.485"	"14.987"
"1942"	"10.344"	"13.653"	"20.669"	"25.778"	"28.772"	"32.184"	"28.57"	"27.199"	"26.467"	"23.918"	"18.305"	"12.393"
"1943"	"10.093"	"14.755"	"19.09"	"23.206"	"28.219"	"30.928"	"28.806"	"27.289"	"27.669"	"24.001"	"18.693"	"14.19"
"1944"	"9.651"	"11.752"	"17.159"	"23.755"	"30.364"	"30.471"	"29.152"	"27.953"	"26.741"	"23.88"	"17.483"	"13.598"
"1945"	"9.126"	"12.438"	"18.981"	"22.382"	"28.679"	"31.743"	"28.818"	"28.009"	"26.855"	"22.587"	"17.516"	"11.919"
"1946"	"13.653"	"16.266"	"18"	"26.468"	"28.702"	"30.745"	"29.238"	"28.565"	"27.652"	"23.219"	"17.165"	"12.032"
"1947"	"10.286"	"14.193"	"19.195"	"26.197"	"30.049"	"33.552"	"30.291"	"28.191"	"26.687"	"22.495"	"17.683"	"13.087"
"1948"	"12.015"	"11.83"	"17.114"	"26.983"	"30.65"	"31.859"	"29.143"	"27.324"	"26.853"	"23.237"	"16.049"	"11.655"
"1949"	"13.258"	"12.329"	"19.118"	"26.223"	"30.41"	"31.252"	"28.449"	"27.843"	"27.737"	"23.797"	"16.307"	"11.602"
"1950"	"11.657"	"12.319"	"17.08"	"23.467"	"29.001"	"31.581"	"29.173"	"27.72"	"25.393"	"22.594"	"17.193"	"11.889"
"1951"	"10.275"	"14.361"	"19.177"	"21.843"	"28.47"	"31.873"	"30.091"	"28.818"	"27.881"	"25.1"	"18.524"	"14.413"
"1952"	"12.49"	"15.859"	"17.407"	"26.495"	"29.644"	"30.874"	"29.026"	"28.155"	"27.548"	"23.118"	"18.105"	"13.513"
"1953"	"10.034"	"16.602"	"22.169"	"25.411"	"29.962"	"31.793"	"29.068"	"28.034"	"26.986"	"23.668"	"17.706"	"15.153"
"1954"	"10.074"	"14.032"	"19.777"	"25.911"	"29.393"	"31.017"	"29.12"	"28.459"	"27.442"	"21.775"	"16.689"	"11.785"
"1955"	"10.927"	"14.833"	"20.782"	"22.397"	"26.634"	"32.322"	"29.085"	"27.546"	"26.722"	"22.424"	"17.732"	"12.266"
"1956"	"11.088"	"15.414"	"18.565"	"25.841"	"31.449"	"30.866"	"28.132"	"27.441"	"27.34"	"22.482"	"16.708"	"11.785"
"1957"	"10.225"	"13.053"	"17.421"	"22.813"	"27.053"	"30.583"	"29.727"	"27.947"	"26.239"	"23.591"	"17.751"	"13.111"
"1958"	"13.092"	"14.37"	"19.493"	"26.985"	"28.635"	"32.178"	"28.874"	"28.238"	"26.992"	"23.856"	"18.467"	"14.329"
"1959"	"11.932"	"12.845"	"20.436"	"25.201"	"28.128"	"32.227"	"28.44"	"28.446"	"27.141"	"23.922"	"17.023"	"14.135"
"1960"	"10.918"	"18.29"	"17.541"	"23.489"	"29.731"	"32.169"	"29.377"	"28.389"	"27.588"	"23.723"	"16.749"	"14.962"
"1961"	"12.125"	"12.476"	"19.763"	"24.654"	"29.376"	"32.129"	"29.366"	"28.298"	"28.954"	"24.557"	"17.008"	"11.3"
"1962"	"11.012"	"14.969"	"18.704"	"25.989"	"28.688"	"31.256"	"29.711"	"28.523"	"26.656"	"24.149"	"17.801"	"11.889"
"1963"	"10.92"	"14.928"	"18.164"	"24.552"	"28.207"	"31.821"	"29.548"	"27.532"	"26.519"	"24.366"	"18.591"	"12.813"
"1964"	"10.858"	"13.246"	"18.923"	"24.979"	"27.09"	"31.009"	"27.796"	"28.348"	"27.435"	"23.772"	"17.189"	"13.575"
"1965"	"13.294"	"13.977"	"18.441"	"23.254"	"27.87"	"31.146"	"28.693"	"27.218"	"26.941"	"24.067"	"18.65"	"12.43"
"1966"	"10.947"	"14.949"	"18.371"	"24.469"	"28.826"	"30.808"	"29.306"	"28.049"	"26.567"	"22.607"	"16.305"	"12.193"
"1967"	"10.598"	"15.284"	"18.079"	"24.013"	"27.6"	"31.409"	"29.351"	"27.72"	"27.1"	"22.184"	"16.609"	"12.668"
"1968"	"10.026"	"11.638"	"18.757"	"24.768"	"28.37"	"31.831"	"28.743"	"27.664"	"28.026"	"22.079"	"17.252"	"13.242"
"1969"	"11.913"	"14.43"	"21.205"	"24.809"	"28.297"	"31.387"	"28.999"	"28.743"	"27.023"	"24.383"	"19.027"	"13.562"
"1970"	"12.144"	"13.584"	"19.079"	"25.812"	"30.622"	"30.424"	"29.934"	"27.971"	"27.844"	"24.531"	"17.198"	"13.458"
"1971"	"11.497"	"14.128"	"19.476"	"24.865"	"27.617"	"31.056"	"28.441"	"27.116"	"26.292"	"23.617"	"17.28"	"13.992"
"1972"	"12.414"	"11.831"	"20.047"	"23.782"	"29.492"	"32.196"	"28.877"	"27.358"	"25.8"	"21.78"	"17.756"	"13.445"
"1973"	"11.599"	"15.079"	"18.301"	"26.735"	"29.395"	"31.178"	"29.069"	"28.074"	"27.165"	"22.924"	"17.64"	"11.986"
"1974"	"11.483"	"12.231"	"19.991"	"26.514"	"28.762"	"30.148"	"28.45"	"27.748"	"26.766"	"23.639"	"16.947"	"11.497"
"1975"	"11.218"	"12.809"	"17.531"	"25.225"	"29.299"	"29.948"	"27.476"	"27.271"	"26.207"	"24.026"	"16.024"	"13.253"
"1976"	"11.948"	"13.21"	"18.171"	"23.641"	"28.698"	"29.681"	"29.052"	"27.112"	"26.343"	"23.357"	"17.8"	"12.897"
"1977"	"11.619"	"13.06"	"20.079"	"24.363"	"26.946"	"28.552"	"28.688"	"27.539"	"26.016"	"23.626"	"18.781"	"13.015"
"1978"	"11.005"	"12.827"	"16.318"	"23.929"	"30.455"	"31.311"	"28.363"	"27.54"	"26.118"	"23.423"	"16.72"	"13.594"
"1979"	"10.778"	"13.122"	"17.383"	"26.217"	"27.895"	"31.087"	"28.173"	"28.433"	"25.377"	"24.302"	"18.653"	"14.123"
"1980"	"11.874"	"14.125"	"18.278"	"26.546"	"29.996"	"30.503"	"28.221"	"27.799"	"26.043"	"23.355"	"16.955"	"12.284"
"1981"	"11.375"	"14.353"	"19.375"	"24.941"	"29.764"	"30.792"	"28.222"	"27.393"	"26.547"	"22.554"	"16.436"	"12.146"
"1982"	"12.689"	"12.728"	"16.84"	"23.045"	"26.382"	"30.362"	"29.005"	"27.513"	"26.236"	"22.925"	"17.442"	"13.298"
"1983"	"10.77"	"12.262"	"17.058"	"22.434"	"27.211"	"29.261"	"28.205"	"27.659"	"27.322"	"22.424"	"16.479"	"12.817"
"1984"	"10.592"	"12.108"	"20.419"	"24.908"	"31.221"	"31.888"	"27.931"	"28.017"	"25.575"	"22.724"	"16.903"	"13.51"
"1985"	"11.221"	"14.38"	"20.875"	"25.582"	"29.873"	"31.031"	"27.971"	"27.842"	"26.893"	"22.745"	"16.498"	"14.145"
"1986"	"10.194"	"13.452"	"18.256"	"24.334"	"27.015"	"30.332"	"27.803"	"27.66"	"26.22"	"22.451"	"18.222"	"11.661"
"1987"	"10.706"	"14.908"	"19.521"	"25.086"	"25.856"	"30.609"	"30.388"	"28.704"	"28.104"	"24.104"	"17.952"	"12.932"
"1988"	"13.213"	"15.072"	"18.609"	"26.339"	"30.339"	"30.373"	"28.398"	"27.141"	"26.718"	"22.732"	"17.761"	"13.401"
"1989"	"9.933"	"13.352"	"18.23"	"23.141"	"28.466"	"29.426"	"28.552"	"25.996"	"26.32"	"23.252"	"17.253"	"12.791"
"1990"	"13.838"	"14.382"	"17.152"	"24.039"	"29.508"	"32.001"	"27.919"	"27.394"	"26.38"	"22.301"	"17.341"	"13.02"
"1991"	"9.853"	"13.93"	"18.757"	"22.981"	"28.745"	"29.892"	"29.673"	"27.39"	"26.569"	"22.379"	"16.774"	"13.273"
"1992"	"12.412"	"12.781"	"18.445"	"24.432"	"27.799"	"30.558"	"27.727"	"27.338"	"26.074"	"23.14"	"17.605"	"14.068"
"1993"	"11.176"	"15.209"	"16.78"	"24.434"	"29.601"	"30.44"	"28.079"	"28.304"	"26.21"	"23.114"	"18.276"	"13.34"
"1994"	"12.485"	"13.683"	"20.521"	"22.891"	"29.497"	"31.868"	"29.088"	"27.762"	"26.187"	"22.812"	"17.733"	"13.384"
"1995"	"10.062"	"13.403"	"17.903"	"23.553"	"30.665"	"32.23"	"27.89"	"26.52"	"26.221"	"23.676"	"17.954"	"13.718"
"1996"	"11.81"	"15.046"	"19.799"	"25.315"	"28.187"	"29.553"	"27.599"	"25.514"	"26.371"	"22.78"	"16.853"	"11.846"
"1997"	"11.768"	"13.977"	"18.728"	"24.108"	"27.415"	"29.326"	"29.491"	"27.267"	"27.288"	"21.471"	"16.982"	"12.139"
"1998"	"8.663"	"14.671"	"17.181"	"24.937"	"29.922"	"31.678"	"28.969"	"27.97"	"27.438"	"24.045"	"17.882"	"14.044"
"1999"	"11.319"	"16.842"	"20.899"	"29.021"	"30.017"	"29.926"	"29.843"	"28.364"	"27.846"	"24.302"	"19.255"	"14.266"
"2000"	"12.742"	"12.679"	"18.378"	"26.834"	"30.593"	"29.878"	"28.745"	"27.95"	"27.563"	"25.175"	"19.594"	"14.887"
"2001"	"12.481"	"14.955"	"19.997"	"24.707"	"30.298"	"29.6"	"29.461"	"28.717"	"27.42"	"25.005"	"19.152"	"14.596"
"2002"	"13.034"	"14.323"	"19.775"	"25.975"	"30.95"	"31.173"	"30.106"	"28.416"	"25.345"	"24.285"	"18.977"	"13.6"
