
"Year"	"Jan"	"Feb"	"Mar"	"Apr"	"May"	"Jun"	"Jul"	"Aug"	"Sep"	"Oct"	"Nov"	"Dec"
"1901"	"8.633"	"0.152"	"0.734"	"0.652"	"6.724"	"64.803"	"363.492"	"288.436"	"48.465"	"49.892"	"0.277"	"2.554"
"1902"	"5.448"	"0"	"0"	"0"	"0.364"	"67.982"	"245.947"	"166.585"	"164.915"	"26.693"	"77.292"	"4.303"
"1903"	"0.477"	"0"	"0"	"0"	"7.286"	"26.999"	"462.184"	"330.307"	"184.537"	"4.633"	"0.277"	"0"
"1904"	"0.194"	"2.16"	"8.178"	"0"	"26.552"	"60.507"	"176.498"	"136.671"	"140.659"	"22.204"	"5.438"	"3.769"
"1905"	"1.252"	"2.967"	"0.604"	"0.597"	"7.808"	"15.37"	"428.828"	"64.807"	"240.274"	"0.194"	"0.799"	"0.125"
"1906"	"0"	"5.236"	"0"	"0"	"0.118"	"151.447"	"356.04"	"227.045"	"251.103"	"1.333"	"0.277"	"10.554"
"1907"	"12.09"	"6.022"	"0"	"4.68"	"0.835"	"62.493"	"240.421"	"401.477"	"16.735"	"0.194"	"4.678"	"0"
"1908"	"3.23"	"0"	"4.026"	"0.449"	"0.615"	"121.129"	"508.313"	"415.667"	"196.21"	"0.79"	"3.082"	"0.125"
"1909"	"6.498"	"0.026"	"0"	"2.161"	"5.065"	"94.399"	"429.819"	"269.631"	"397.746"	"0.28"	"0.277"	"5.972"
"1910"	"1.24"	"0.026"	"0"	"1.087"	"8.527"	"188.105"	"148.386"	"377.017"	"183.49"	"32.234"	"8.249"	"0"
"1911"	"2.04"	"0"	"4.097"	"0"	"0"	"114.298"	"117.17"	"197.799"	"104.285"	"0.194"	"74.244"	"0.823"
"1912"	"0.863"	"0"	"0"	"0"	"0.118"	"81.69"	"374.14"	"299.738"	"64.341"	"10.156"	"105.886"	"0.223"
"1913"	"0"	"0.76"	"0.322"	"0"	"2.639"	"106.508"	"363.183"	"131.336"	"248.455"	"0.194"	"0.337"	"4"
"1914"	"0"	"0.482"	"0.362"	"0.435"	"37.267"	"172.671"	"419.718"	"177.368"	"404.44"	"2.346"	"30.809"	"3.342"
"1915"	"4.055"	"7.411"	"16.841"	"2.517"	"7.416"	"118.992"	"233.538"	"109.044"	"201.842"	"107.816"	"2.052"	"2.888"
"1916"	"0"	"0.152"	"0"	"0"	"12.349"	"72.616"	"373.852"	"315.528"	"273.845"	"33.721"	"25.885"	"0"
"1917"	"0.231"	"2.563"	"0.026"	"1.435"	"35.567"	"136.118"	"189.509"	"292.768"	"448.961"	"57.754"	"0.277"	"5.9"
"1918"	"0.633"	"0"	"0.779"	"0"	"26.944"	"73.134"	"115.721"	"136.697"	"44.895"	"0.532"	"36.29"	"0"
"1919"	"10.593"	"0"	"0"	"2.324"	"1.395"	"160.804"	"269.37"	"286.432"	"145.782"	"38.819"	"57.502"	"0.719"
"1920"	"1.771"	"0.699"	"0.482"	"0"	"6.362"	"102.172"	"231.637"	"79.136"	"64.652"	"0.194"	"0.277"	"0"
"1921"	"3.127"	"0"	"0"	"0"	"0"	"129.72"	"312.827"	"187.963"	"247.346"	"0.194"	"0.277"	"0"
"1922"	"3.816"	"1.344"	"0"	"0"	"0.109"	"84.529"	"261.067"	"71.139"	"339.204"	"5.335"	"49.816"	"5.216"
"1923"	"0.419"	"0.828"	"3.679"	"1.171"	"0.903"	"14.448"	"526.72"	"269.915"	"272.118"	"0.932"	"0.277"	"1.192"
"1924"	"3.482"	"0.386"	"0"	"0"	"14.816"	"69.388"	"233.516"	"203.765"	"222.906"	"57.289"	"0.635"	"8.945"
"1925"	"0"	"0"	"0"	"0"	"24.628"	"106.279"	"242.625"	"148.231"	"70.275"	"0.194"	"108.896"	"0.847"
"1926"	"20.276"	"1.005"	"5.86"	"2.568"	"5.783"	"25.676"	"218.265"	"462.813"	"187.649"	"0.196"	"24.043"	"0"
"1927"	"0"	"1.803"	"1.615"	"0.001"	"0.926"	"69.495"	"423.09"	"253.141"	"189.212"	"25.088"	"70.705"	"7.919"
"1928"	"0.349"	"7.918"	"0.084"	"0"	"0.11"	"50.363"	"270.608"	"193.77"	"219.213"	"70.811"	"20.076"	"27.833"
"1929"	"2.152"	"4.046"	"0"	"9.445"	"0.211"	"159.889"	"271.997"	"143.883"	"59.865"	"12.327"	"0.277"	"3.334"
"1930"	"1.61"	"0.097"	"0"	"0.244"	"15.293"	"171.393"	"279.476"	"172.007"	"224.166"	"10.081"	"3.355"	"0"
"1931"	"0"	"0.097"	"0"	"0"	"0.468"	"124.54"	"298.017"	"523.035"	"275.047"	"92.884"	"3.379"	"0.05"
"1932"	"0"	"4.82"	"7.43"	"0.666"	"0.229"	"69.027"	"338.786"	"346.362"	"261.273"	"8.271"	"0.277"	"0"
"1933"	"0"	"1.013"	"1.673"	"1.547"	"15.316"	"250.467"	"162.835"	"445.547"	"463.706"	"5.668"	"12.573"	"12.466"
"1934"	"5.196"	"0"	"2.018"	"0"	"0"	"189.266"	"358.239"	"603.301"	"278.645"	"0.396"	"103.946"	"3.295"
"1935"	"3.029"	"0.097"	"0"	"5.13"	"0.789"	"54.098"	"387.113"	"166.627"	"241.8"	"49.078"	"0.277"	"0.532"
"1936"	"0"	"0.737"	"9.358"	"0.307"	"21.422"	"210.04"	"113.353"	"144.689"	"237.394"	"0.194"	"112.774"	"1.221"
"1937"	"0"	"1.858"	"0"	"0.059"	"0.479"	"55.622"	"327.944"	"33.251"	"348.336"	"17.018"	"2.435"	"1.531"
"1938"	"0.659"	"0"	"2.902"	"0.136"	"36.046"	"290.818"	"439.737"	"184.259"	"233.651"	"37.801"	"0.799"	"0"
"1939"	"0.752"	"0.663"	"5.503"	"0"	"0"	"36.017"	"299.211"	"356.768"	"131.355"	"3.958"	"10.924"	"5.605"
"1940"	"1.204"	"1.873"	"7.167"	"0.59"	"18.898"	"148.056"	"285.458"	"285.949"	"97.031"	"27.31"	"21.531"	"0.717"
"1941"	"7.906"	"8.792"	"3.097"	"0.652"	"1.28"	"13.53"	"359.668"	"158.817"	"139.348"	"1.818"	"0.277"	"0.514"
"1942"	"4.472"	"2.122"	"0"	"1.354"	"2.595"	"73.824"	"389.228"	"534.602"	"158.983"	"0.194"	"0.277"	"12.311"
"1943"	"1.705"	"0"	"0"	"3.765"	"7.149"	"116.866"	"321.158"	"125.772"	"328.573"	"19.297"	"0.277"	"0"
"1944"	"5.541"	"0.477"	"12.047"	"0.609"	"0.766"	"67.177"	"477.846"	"456.386"	"191.613"	"14.118"	"0.277"	"0"
"1945"	"8.243"	"0"	"0"	"0.233"	"2.921"	"33.208"	"305.565"	"451.512"	"308.59"	"1.423"	"0.277"	"0"
"1946"	"0"	"2.454"	"0"	"0.757"	"6.557"	"283.687"	"240.554"	"330.206"	"122.282"	"0.348"	"123.801"	"5.727"
"1947"	"1.811"	"0.831"	"2.458"	"1.185"	"0.039"	"29.418"	"236.52"	"373.479"	"382.433"	"18.271"	"0.277"	"9.123"
"1948"	"19.425"	"0.746"	"0"	"2.208"	"10.285"	"127.3"	"541.906"	"228.77"	"122.57"	"2.826"	"49.515"	"0"
"1949"	"1.265"	"0.278"	"0"	"0"	"8.919"	"105.965"	"369.593"	"274.423"	"276.647"	"32.527"	"0.277"	"0"
"1950"	"0.204"	"0"	"1.248"	"0"	"3.428"	"10.305"	"372.626"	"94.468"	"351.319"	"3.958"	"1.511"	"6.158"
"1951"	"0.236"	"0"	"2.449"	"8.02"	"1.674"	"73.523"	"180.753"	"217.182"	"112.096"	"67.783"	"41.657"	"0"
"1952"	"0"	"1.763"	"0.279"	"0.383"	"2.699"	"80.32"	"301.515"	"210.68"	"98.389"	"1.609"	"0.277"	"4.212"
"1953"	"2.42"	"0"	"0"	"0.794"	"0.362"	"79.937"	"279.008"	"309.15"	"127.828"	"15.707"	"0.277"	"0"
"1954"	"10.727"	"1.167"	"1.939"	"0"	"0.008"	"37.623"	"313.572"	"272.031"	"534.28"	"14.679"	"10.753"	"0"
"1955"	"1.453"	"0"	"0"	"0.234"	"0.786"	"131.624"	"165.783"	"425.695"	"380.226"	"56.053"	"0.277"	"1.861"
"1956"	"10.859"	"0"	"2.827"	"4.593"	"1.888"	"166.13"	"382.789"	"256.487"	"148.341"	"36.291"	"44.706"	"1.555"
"1957"	"2.086"	"0"	"7.113"	"2.731"	"6.62"	"102.035"	"271.893"	"261.175"	"121.875"	"4.278"	"13.213"	"0.461"
"1958"	"0.348"	"0.026"	"0.486"	"1.003"	"16.224"	"88.543"	"326.233"	"369.469"	"332.663"	"33.534"	"84.568"	"2.281"
"1959"	"7.536"	"0"	"0"	"2.158"	"5.69"	"93.619"	"367.541"	"301.47"	"478.628"	"66.573"	"73.898"	"0"
"1960"	"11.93"	"0"	"0.377"	"0"	"9.418"	"213.631"	"215.805"	"294.135"	"91.666"	"36.297"	"0.277"	"0.215"
"1961"	"7.753"	"1.869"	"0"	"0.778"	"10.595"	"103.655"	"304.428"	"253.649"	"282.659"	"97.189"	"2.439"	"6.305"
"1962"	"0.85"	"0"	"13.717"	"4.694"	"8.316"	"55.132"	"328.952"	"99.61"	"322.881"	"0.194"	"54.271"	"23.875"
"1963"	"0.46"	"2.231"	"1.093"	"0.001"	"1.686"	"97.302"	"242.462"	"283.851"	"124.305"	"23.948"	"63.976"	"1.125"
"1964"	"0"	"0"	"0.955"	"0"	"2.736"	"139.996"	"322.207"	"429.504"	"176.458"	"9.98"	"0.277"	"2.281"
"1965"	"7.182"	"0.209"	"3.666"	"0.331"	"0.097"	"37.565"	"352.307"	"315.047"	"34.074"	"3.861"	"0.277"	"3.258"
"1966"	"0.228"	"0"	"3.181"	"0"	"26.282"	"46.53"	"322.166"	"234.971"	"234.912"	"0.194"	"79.023"	"3.684"
"1967"	"0"	"0"	"12.226"	"0.589"	"0.755"	"170.602"	"333.231"	"356.266"	"141.081"	"14.66"	"0.277"	"30.123"
"1968"	"0.947"	"4.954"	"6.756"	"0.717"	"0.414"	"18.012"	"246.132"	"544.366"	"90.595"	"3.725"	"0.277"	"0"
"1969"	"1.411"	"0.181"	"0"	"0"	"0.934"	"112.439"	"335.858"	"262.609"	"335.379"	"0.194"	"39.68"	"0"
"1970"	"11.794"	"0.662"	"1.256"	"9.303"	"19.271"	"293.51"	"112.59"	"461.41"	"295.173"	"0.435"	"0.277"	"0"
"1971"	"0.501"	"0.827"	"0"	"0.234"	"16.048"	"96.395"	"148.167"	"267.186"	"169.218"	"17.995"	"1.213"	"0"
"1972"	"0.084"	"0.341"	"0"	"0.186"	"0.754"	"107.614"	"160.313"	"366.987"	"176.959"	"0.2"	"40.686"	"0.53"
"1973"	"0.621"	"6.342"	"0"	"0"	"2.6"	"124.482"	"252.226"	"511.635"	"198.921"	"42.649"	"0.277"	"0.125"
"1974"	"0"	"3.389"	"0"	"12.331"	"35.07"	"103.964"	"329.197"	"372.008"	"150.828"	"44.072"	"0.277"	"1.861"
"1975"	"0.097"	"0"	"1.196"	"0"	"6.549"	"141.341"	"407.748"	"442.811"	"219.14"	"37.744"	"0.277"	"0"
"1976"	"1.083"	"0.883"	"2.824"	"0.281"	"0.04"	"98.007"	"340.13"	"242.811"	"197.41"	"0.194"	"41.443"	"3.833"
"1977"	"2.84"	"0.025"	"5.819"	"1.455"	"0.668"	"197.341"	"287.731"	"233.308"	"153.128"	"21.82"	"109.134"	"0.089"
"1978"	"11.202"	"11.711"	"8.143"	"1.031"	"0"	"146.804"	"298.1"	"336.736"	"91.46"	"14.948"	"48.281"	"3.91"
"1979"	"9.144"	"2.397"	"1.337"	"0"	"2.244"	"105.687"	"372.361"	"350.224"	"90.224"	"36.351"	"54.263"	"5.552"
"1980"	"1.176"	"0.097"	"0.788"	"0"	"0.64"	"171.838"	"152.76"	"328.484"	"106.503"	"1.329"	"2.714"	"17.232"
"1981"	"9.081"	"0"	"1.627"	"0"	"6.513"	"77.509"	"291.343"	"461.323"	"156.16"	"13.413"	"62.702"	"1.958"
"1982"	"8.034"	"0.233"	"5.553"	"1.301"	"11.822"	"160.776"	"173.301"	"223.662"	"47.295"	"23.031"	"44.954"	"2.944"
"1983"	"0.621"	"0.097"	"0"	"1.95"	"3.311"	"60.687"	"366.739"	"418.578"	"302.636"	"46.975"	"0.277"	"0.814"
"1984"	"2.198"	"2.82"	"3.858"	"1.144"	"0.097"	"54.996"	"248.712"	"164.69"	"93.909"	"25.028"	"1.807"	"0"
"1985"	"0.916"	"0"	"3.357"	"8.758"	"15.726"	"31.708"	"196.348"	"275.796"	"97.544"	"73.946"	"0.277"	"0"
"1986"	"0.744"	"3.043"	"1.427"	"0"	"10.202"	"61.574"	"342.178"	"243.833"	"42.726"	"11.816"	"0.277"	"1.864"
"1987"	"6.78"	"2.904"	"1.492"	"0"	"13.236"	"106.054"	"132.854"	"255.974"	"47.64"	"13.668"	"8.952"	"12.702"
"1988"	"4.298"	"0.084"	"1.125"	"4.801"	"0.238"	"120.758"	"310.552"	"276.281"	"218.735"	"21.051"	"0.991"	"0.239"
"1989"	"3.231"	"0"	"5.364"	"0"	"3.2"	"107.729"	"122.051"	"311.52"	"123.628"	"0.194"	"0.277"	"1.579"
"1990"	"0.246"	"7.613"	"0"	"0"	"21.409"	"129.962"	"242.176"	"453.265"	"278.109"	"2.498"	"2.508"	"16.305"
"1991"	"0"	"0.21"	"0.507"	"0"	"5.708"	"160.886"	"324.743"	"159.169"	"53.977"	"0.569"	"4.056"	"5.369"
"1992"	"1.704"	"0.662"	"0"	"0"	"14.575"	"39.653"	"147.1"	"232.024"	"296.578"	"12.809"	"0.281"	"0"
"1993"	"0"	"0.246"	"1.16"	"0.113"	"4.674"	"142.753"	"344.163"	"209.796"	"225.006"	"24.449"	"5.445"	"0.676"
"1994"	"20.761"	"0.541"	"3.204"	"1.441"	"5.945"	"170.616"	"374.439"	"447.785"	"162.851"	"2.013"	"0.518"	"0"
"1995"	"7.864"	"0.331"	"8.968"	"1.538"	"6.329"	"56.081"	"519.429"	"181.955"	"126.026"	"31.14"	"2.064"	"0.044"
"1996"	"6.798"	"0.802"	"4.76"	"4.875"	"11.985"	"236.206"	"422.838"	"525.546"	"92.032"	"15.541"	"0.991"	"0"
"1997"	"4.438"	"0"	"0"	"3.53"	"5.407"	"147.944"	"317.333"	"434.356"	"91.756"	"28.424"	"107.423"	"13.165"
"1998"	"2.057"	"4.279"	"1.909"	"4.148"	"3.784"	"175.192"	"140.62"	"229.79"	"335.869"	"38.965"	"35.21"	"0"
"1999"	"3.826"	"7.399"	"0"	"0"	"1.561"	"152.312"	"193.489"	"240.538"	"248.83"	"55.014"	"0.277"	"0.757"
"2000"	"0"	"1.889"	"0"	"0.136"	"17.475"	"66.254"	"435.434"	"107.922"	"19.986"	"4.389"	"4.257"	"0"
"2001"	"1.006"	"0"	"2.621"	"1.832"	"19.864"	"256.794"	"262.668"	"168.48"	"18.948"	"31.753"	"1.534"	"0"
"2002"	"0"	"5.411"	"2.519"	"5.227"	"4.322"	"125.128"	"27.287"	"209.794"	"85.875"	"0.284"	"12.388"	"6.057"
