
"Year"	"Jan"	"Feb"	"Mar"	"Apr"	"May"	"Jun"	"Jul"	"Aug"	"Sep"	"Oct"	"Nov"	"Dec"
"1901"	"55.469"	"14.711"	"20.159"	"5.857"	"30.35"	"42.063"	"355.993"	"225.163"	"68.421"	"0.641"	"0"	"8.27"
"1902"	"0.324"	"6.632"	"18.963"	"25.597"	"23.843"	"92.5"	"273.847"	"174.56"	"107.343"	"8.504"	"6.605"	"0.057"
"1903"	"33.649"	"13.893"	"23.686"	"4.679"	"13.105"	"39.022"	"430.003"	"178.743"	"67.414"	"16.608"	"0"	"4.796"
"1904"	"35.55"	"3.927"	"48.197"	"7.526"	"28.581"	"88.449"	"200.682"	"206.133"	"109.365"	"7.741"	"27.527"	"9.552"
"1905"	"92.906"	"48.698"	"13.975"	"8.68"	"11.169"	"42.313"	"137.188"	"181.018"	"192.327"	"3.229"	"0"	"19.612"
"1906"	"16.932"	"97.272"	"19.19"	"9.424"	"44.508"	"79.149"	"114.057"	"294.269"	"220.281"	"1.741"	"0"	"3.966"
"1907"	"23.043"	"57.117"	"53.08"	"36.401"	"9.591"	"129.35"	"164.601"	"246.421"	"14.235"	"2.279"	"0.151"	"0.057"
"1908"	"45.289"	"23.172"	"2.203"	"17.165"	"35.962"	"77.386"	"167.291"	"384.449"	"275.614"	"0.696"	"0.814"	"4.944"
"1909"	"39.425"	"15.781"	"4.496"	"46.713"	"7.3"	"174.493"	"387.389"	"230.64"	"249.017"	"1.274"	"5.59"	"50.986"
"1910"	"40.63"	"16.903"	"7.028"	"28.085"	"20.878"	"158.391"	"267.827"	"251.731"	"104.433"	"3.205"	"1.654"	"8"
"1911"	"77.976"	"6.9"	"80.325"	"12.21"	"6.156"	"80.247"	"147.839"	"204.019"	"185.07"	"5.435"	"47.558"	"2.82"
"1912"	"55.218"	"19.554"	"15.1"	"25.842"	"28.177"	"54.338"	"151.271"	"199.845"	"99.463"	"0.711"	"29.077"	"14.163"
"1913"	"27.04"	"51.791"	"41.777"	"19.26"	"51.144"	"132.918"	"171.956"	"229.493"	"47.396"	"2.275"	"8.173"	"23.265"
"1914"	"25.563"	"52.293"	"37.523"	"23.115"	"21.055"	"76.124"	"302.041"	"198.791"	"308.213"	"22.082"	"18.801"	"11.214"
"1915"	"10.271"	"80.641"	"32.023"	"12.256"	"14.972"	"81.031"	"101.373"	"364.967"	"108.918"	"25.929"	"0"	"5.968"
"1916"	"4.459"	"14.175"	"3.264"	"10.805"	"22.593"	"134.154"	"402.847"	"202.368"	"140.668"	"13.116"	"0.3"	"0.061"
"1917"	"10.539"	"21.378"	"25.665"	"33.514"	"40.669"	"184.374"	"202.536"	"408.09"	"291.273"	"27.406"	"0"	"12.73"
"1918"	"4.012"	"1.78"	"32.823"	"35.534"	"5.144"	"89.653"	"108.862"	"112.9"	"46.923"	"0.977"	"25.922"	"14.182"
"1919"	"79.409"	"20.693"	"23.17"	"24.957"	"18.341"	"41.182"	"236.654"	"153.82"	"89.413"	"5.87"	"3.068"	"9.909"
"1920"	"30.591"	"26.315"	"30.261"	"18.059"	"24.802"	"107.649"	"133.886"	"115.299"	"105.211"	"1.649"	"0"	"0.819"
"1921"	"32.658"	"2.656"	"4.81"	"6.377"	"25.208"	"94.825"	"210.888"	"267.763"	"118.171"	"21.349"	"0"	"19.787"
"1922"	"36.371"	"33.016"	"12.902"	"8.862"	"17.89"	"68.285"	"185.313"	"248.027"	"303.501"	"8.091"	"4.934"	"50.594"
"1923"	"30.884"	"63.927"	"6.127"	"16.339"	"20.514"	"16.974"	"372.351"	"261.983"	"104.054"	"21.607"	"19.655"	"28.764"
"1924"	"47.044"	"59.045"	"13.724"	"6.856"	"27.01"	"18.211"	"272.241"	"128.089"	"305.34"	"20.724"	"2.444"	"49.884"
"1925"	"21.513"	"4.239"	"5.85"	"7.506"	"24.992"	"191.625"	"300.157"	"302.278"	"54.089"	"3.114"	"24.583"	"0.057"
"1926"	"20.336"	"9.016"	"54.451"	"23.611"	"19.157"	"37.489"	"218.593"	"261.217"	"107.557"	"2.137"	"11.855"	"12.909"
"1927"	"2.652"	"35.415"	"21.577"	"10.23"	"32.541"	"45.505"	"118.51"	"340.221"	"80.658"	"28.703"	"0.223"	"22.21"
"1928"	"37.198"	"53.199"	"14.502"	"23.341"	"4.722"	"46.548"	"197.486"	"148.535"	"254.464"	"0.34"	"23.687"	"24.433"
"1929"	"46.899"	"3.15"	"7.419"	"14.044"	"8.156"	"150.105"	"201.461"	"289.784"	"27.763"	"10.958"	"0"	"56.487"
"1930"	"46.912"	"14.93"	"8.312"	"20.929"	"9.793"	"48.887"	"278.711"	"163.682"	"41.851"	"8.669"	"13.904"	"13.658"
"1931"	"33.369"	"52.099"	"19.538"	"20.157"	"26.861"	"33.321"	"452.611"	"220.033"	"221.134"	"33.868"	"1.654"	"0.057"
"1932"	"16.724"	"5.927"	"19.746"	"10.202"	"10.682"	"87.882"	"131.794"	"159.546"	"129.635"	"2.063"	"0.814"	"29.768"
"1933"	"21.067"	"33.113"	"19.834"	"19.471"	"22.494"	"88.879"	"217.089"	"379.689"	"163.59"	"28.409"	"9.786"	"1.45"
"1934"	"28.544"	"9.555"	"19.825"	"2.222"	"8.774"	"57.986"	"255.645"	"338.36"	"33.913"	"0"	"0"	"22.877"
"1935"	"72.293"	"49.303"	"14.252"	"27.771"	"17.096"	"6.386"	"139.619"	"145.121"	"87.426"	"1.778"	"22.668"	"15.326"
"1936"	"11.647"	"48.129"	"48.052"	"23.841"	"19.054"	"318.306"	"494.359"	"221.615"	"106.412"	"15.262"	"4.097"	"43.375"
"1937"	"11.236"	"82.949"	"13.626"	"30.638"	"20.495"	"67.885"	"361.056"	"86.632"	"134.886"	"15.565"	"1.541"	"22.251"
"1938"	"63.869"	"31.302"	"2.861"	"6.688"	"2.429"	"203.036"	"200.415"	"220.214"	"34.82"	"8.705"	"1.827"	"3.002"
"1939"	"27.077"	"52.367"	"32.484"	"17.463"	"8.012"	"76.227"	"176.306"	"106.837"	"58.457"	"13.671"	"0"	"0.057"
"1940"	"39.409"	"56.367"	"32.65"	"17.458"	"18.093"	"126.773"	"141.156"	"223.585"	"106.709"	"2.144"	"1.878"	"10.918"
"1941"	"33.401"	"22.341"	"8.811"	"12.341"	"33.698"	"75.869"	"138.651"	"96.119"	"237.004"	"1.892"	"3.741"	"17.927"
"1942"	"58.756"	"61.652"	"11.554"	"28.417"	"25.556"	"84.731"	"373.026"	"207.653"	"115.899"	"3.416"	"2.868"	"29.916"
"1943"	"29.995"	"5.36"	"14.641"	"24.492"	"6.594"	"118.647"	"100.043"	"184.528"	"126.697"	"0"	"0"	"0.057"
"1944"	"45.771"	"41.139"	"25.483"	"19.911"	"5.13"	"121.141"	"166.335"	"219.512"	"127.439"	"1.797"	"7.22"	"9.76"
"1945"	"35.721"	"3.055"	"28.357"	"41.919"	"13.327"	"112.364"	"363.393"	"135.058"	"252.768"	"23.265"	"0.151"	"5.103"
"1946"	"3.594"	"20.026"	"9.895"	"21.355"	"31.464"	"95.083"	"211.409"	"145.458"	"45.967"	"16.756"	"16.828"	"15.153"
"1947"	"22.289"	"28.677"	"26.55"	"2.76"	"15.023"	"40.602"	"201.211"	"292.069"	"117.022"	"14.237"	"1.827"	"19.498"
"1948"	"7.41"	"45.887"	"61.649"	"13.839"	"17.049"	"117.499"	"340.82"	"328.12"	"118.159"	"7.889"	"1.724"	"12.29"
"1949"	"15.439"	"62.537"	"17.667"	"19.66"	"20.391"	"63.3"	"315.183"	"158.613"	"143.67"	"11.673"	"1.461"	"3.099"
"1950"	"104.068"	"28.611"	"46.794"	"10.111"	"22.827"	"96.658"	"369.754"	"228.826"	"322.575"	"1.454"	"1.038"	"1.714"
"1951"	"33.918"	"39.049"	"33.55"	"18.69"	"26.524"	"105.039"	"139.407"	"212.374"	"101.641"	"8.664"	"33.081"	"4.046"
"1952"	"30.382"	"29.538"	"40.939"	"11.314"	"24.764"	"74.206"	"127.067"	"151.893"	"15.683"	"1.048"	"12.868"	"14.99"
"1953"	"54.609"	"19.105"	"22.44"	"14.673"	"4.779"	"82.365"	"438.374"	"218.434"	"198.318"	"9.749"	"2.82"	"14.918"
"1954"	"42.151"	"85.589"	"9.375"	"2.77"	"21.167"	"64.354"	"251.124"	"128.258"	"410.177"	"15.807"	"0"	"3.494"
"1955"	"38.123"	"3.377"	"44.855"	"19.568"	"24.264"	"58.592"	"182.327"	"228.251"	"230.378"	"37.743"	"0"	"3.748"
"1956"	"28.861"	"21.578"	"33.823"	"24.31"	"29.126"	"150.527"	"206.817"	"216.061"	"34.89"	"42.164"	"0"	"9.28"
"1957"	"93.346"	"10.654"	"34.929"	"43.412"	"17.588"	"69.861"	"141.49"	"400.635"	"114.857"	"22.529"	"20.321"	"36.706"
"1958"	"20.885"	"10.958"	"17.573"	"14.612"	"11.192"	"62"	"173.57"	"255.969"	"245.978"	"29.748"	"3.279"	"37.257"
"1959"	"39.985"	"22.635"	"23.181"	"10.474"	"58.756"	"25.443"	"523.795"	"190.993"	"72.331"	"19.574"	"36.038"	"1.524"
"1960"	"29.331"	"5.175"	"30.236"	"16.117"	"18.671"	"82.33"	"255.245"	"198.629"	"94.047"	"22.385"	"0"	"8.275"
"1961"	"120.556"	"42.518"	"17.139"	"18.323"	"11.931"	"32.294"	"319.907"	"169.014"	"165.37"	"21.678"	"3.96"	"25.221"
"1962"	"56.152"	"31.393"	"27.535"	"1.47"	"11.931"	"12.482"	"185.508"	"144.841"	"263.113"	"0.046"	"13.861"	"24.512"
"1963"	"2.578"	"45.428"	"81.834"	"8.839"	"29.062"	"25.038"	"131.503"	"140.825"	"122.927"	"1.496"	"3.668"	"25.368"
"1964"	"35.694"	"10.881"	"15.598"	"13.917"	"20.412"	"76.063"	"352.314"	"203.145"	"100.107"	"0"	"3.507"	"12.259"
"1965"	"13.461"	"43.43"	"28.619"	"48.985"	"19.772"	"10.049"	"203.047"	"188.762"	"8.673"	"26.34"	"12.31"	"0.057"
"1966"	"5.162"	"69.524"	"47.81"	"26.355"	"26.397"	"158.939"	"165.355"	"219.956"	"214.245"	"24.867"	"29.118"	"0.987"
"1967"	"0.393"	"34.357"	"56.733"	"8.946"	"4.761"	"11.255"	"131.214"	"366.268"	"48.066"	"5.121"	"2.974"	"56.477"
"1968"	"39.11"	"44.35"	"15.033"	"6.94"	"7.334"	"28.098"	"215.967"	"246.501"	"8.557"	"15.278"	"0.012"	"11.244"
"1969"	"10.614"	"16.993"	"35.545"	"65.644"	"38.381"	"20.555"	"262.626"	"227.776"	"246.433"	"5.779"	"0.383"	"0.057"
"1970"	"33.902"	"31.193"	"12.676"	"0.749"	"14.109"	"70.923"	"75.501"	"251.71"	"86.616"	"3.378"	"0"	"0.391"
"1971"	"7.023"	"22.313"	"7.337"	"28.194"	"84.102"	"121.261"	"239.369"	"301.925"	"83.811"	"22.594"	"3.391"	"0.057"
"1972"	"21.939"	"22.78"	"8.456"	"8.413"	"10.943"	"26.586"	"116.931"	"174.026"	"326.176"	"34.084"	"20.957"	"11.522"
"1973"	"25.055"	"18.632"	"13.221"	"1.787"	"19.213"	"122.987"	"228.89"	"347.008"	"110.171"	"15.995"	"0"	"18.353"
"1974"	"20.067"	"24.225"	"2.854"	"1.351"	"33.671"	"55.274"	"234.531"	"122.861"	"52.662"	"2.042"	"0.008"	"10.71"
"1975"	"45.063"	"33.743"	"42.872"	"5.219"	"1.703"	"157.714"	"243.322"	"247.208"	"260.347"	"9.072"	"0"	"0.091"
"1976"	"19.097"	"43.004"	"16.805"	"13.785"	"19.053"	"274.904"	"221.909"	"575.836"	"166.418"	"16.524"	"0"	"0.158"
"1977"	"58.809"	"4.378"	"1.77"	"66.651"	"53.541"	"252.871"	"267.744"	"172.249"	"95.073"	"28.415"	"1.157"	"11.316"
"1978"	"7.071"	"11.309"	"77.942"	"18.685"	"0.643"	"127.859"	"398.188"	"443.68"	"289.432"	"0.505"	"19.738"	"1.949"
"1979"	"19.011"	"72.183"	"40.749"	"7.588"	"29.417"	"57.75"	"239.177"	"91.18"	"161.437"	"10.618"	"10.542"	"1.592"
"1980"	"17.566"	"34.093"	"27.305"	"7.458"	"19.933"	"143.326"	"519.549"	"335.489"	"127.308"	"9.714"	"10.804"	"12.844"
"1981"	"100.6"	"25.71"	"47.341"	"16.845"	"19.558"	"17.647"	"420.389"	"146.655"	"14.172"	"9.724"	"54.374"	"1.072"
"1982"	"31.12"	"23.439"	"101.337"	"27.542"	"46.384"	"17.674"	"69.653"	"226.059"	"6.609"	"2.018"	"28.637"	"27.603"
"1983"	"57.428"	"31.288"	"71.559"	"59.114"	"76.402"	"125.169"	"253.568"	"268.088"	"103.081"	"29.216"	"0"	"2.799"
"1984"	"1.607"	"80.152"	"10.275"	"22.003"	"1.037"	"37.369"	"501.86"	"289.729"	"229.302"	"0.082"	"0.015"	"24.673"
"1985"	"28.723"	"1.681"	"15.467"	"42.047"	"22.235"	"130.385"	"506.77"	"229.071"	"137.124"	"30.149"	"2.2"	"26.468"
"1986"	"4.326"	"44.561"	"26.334"	"14.998"	"39.265"	"102.707"	"321.357"	"235.926"	"206.266"	"12.676"	"4.231"	"47.879"
"1987"	"55.835"	"28.958"	"23.333"	"15.804"	"28.244"	"75.207"	"102.564"	"156.294"	"9.306"	"19.644"	"0"	"23.169"
"1988"	"9.412"	"17.232"	"71.834"	"13.687"	"3.234"	"100.238"	"399.133"	"211.393"	"173.463"	"29.094"	"0.161"	"35.572"
"1989"	"75.966"	"10.13"	"19.927"	"4.441"	"10.217"	"43.544"	"313.078"	"140.809"	"71.016"	"1.471"	"10.37"	"5.821"
"1990"	"7.436"	"96.784"	"78.283"	"15.758"	"65.965"	"32.401"	"231.208"	"281.527"	"266.404"	"4.399"	"16.662"	"44.324"
"1991"	"3.268"	"27.437"	"14.862"	"51.911"	"30.749"	"146.805"	"31.946"	"202.883"	"107.044"	"3.967"	"2.553"	"10.894"
"1992"	"64.5"	"60.371"	"30.64"	"12.429"	"41.714"	"49.923"	"188.566"	"214.775"	"119.772"	"5.087"	"41.172"	"2.33"
"1993"	"17.37"	"24.905"	"26.087"	"26.134"	"17.606"	"94.477"	"173.069"	"34.556"	"196.321"	"0"	"0"	"0.057"
"1994"	"34.433"	"20.251"	"10.607"	"7.729"	"64.546"	"48.175"	"245.322"	"178.351"	"148.962"	"2.773"	"0"	"8.774"
"1995"	"55.111"	"125.527"	"24.018"	"6.561"	"0.865"	"119.692"	"209.565"	"386.536"	"133.44"	"3.551"	"36.437"	"1.514"
"1996"	"63.516"	"59.09"	"36.093"	"19.697"	"36.224"	"248.464"	"172.589"	"420.87"	"95.2"	"14.364"	"0.057"	"5.044"
"1997"	"25.06"	"13.71"	"21.938"	"58.808"	"26.597"	"179.068"	"226.921"	"301.862"	"96.217"	"17.17"	"24.912"	"7.801"
"1998"	"43.178"	"48.724"	"51.876"	"37.124"	"28.832"	"24.176"	"219.31"	"193.343"	"138.126"	"24.368"	"5.723"	"5.142"
"1999"	"28.819"	"21.569"	"10.345"	"16.352"	"24.404"	"87.214"	"136.729"	"208.619"	"103.934"	"6.835"	"4.97"	"5.766"
"2000"	"26.028"	"49.793"	"16.367"	"5.736"	"25.561"	"120.049"	"184.521"	"164.051"	"80.74"	"0"	"2.957"	"1.826"
"2001"	"11.439"	"16.565"	"13.394"	"21.079"	"38.124"	"86.018"	"276.809"	"111.552"	"80.254"	"2.025"	"5.169"	"3.789"
"2002"	"26.852"	"53.754"	"50.628"	"13.16"	"12.05"	"85.964"	"99.208"	"178.226"	"234.21"	"1.841"	"0"	"2.413"
