
"Year"	"Jan"	"Feb"	"Mar"	"Apr"	"May"	"Jun"	"Jul"	"Aug"	"Sep"	"Oct"	"Nov"	"Dec"
"1901"	"66.72"	"15.67"	"3.532"	"3.924"	"8.882"	"63.67"	"156.203"	"292.92"	"230.748"	"10.599"	"4.414"	"0.109"
"1902"	"6.049"	"1.529"	"2.21"	"4.796"	"3.672"	"63.78"	"420.505"	"183.566"	"292.758"	"10.963"	"0.909"	"0"
"1903"	"3.846"	"1.5"	"2.112"	"2.037"	"15.392"	"123.779"	"121.115"	"316.576"	"155.726"	"78.79"	"0"	"0"
"1904"	"3.878"	"0.369"	"19.742"	"0.518"	"63.449"	"34.481"	"276.749"	"466.365"	"93.629"	"94.295"	"14.754"	"7.71"
"1905"	"11.528"	"15.304"	"19.583"	"3.847"	"4.357"	"16.776"	"410.572"	"266.667"	"338.975"	"4.8"	"0"	"0.219"
"1906"	"5.733"	"32.727"	"15.101"	"0.706"	"10.001"	"86.49"	"354.283"	"259.173"	"223.352"	"40.007"	"0.039"	"0.11"
"1907"	"0.371"	"52.503"	"18.483"	"15.708"	"7.756"	"98.062"	"194.175"	"332.424"	"100.526"	"8.736"	"0"	"0.11"
"1908"	"9.947"	"24.174"	"3.058"	"0.573"	"3.372"	"37.515"	"307.051"	"316.998"	"77.246"	"38.444"	"0"	"0.713"
"1909"	"3.64"	"4.975"	"0"	"21.103"	"2.23"	"183.735"	"461.567"	"278.937"	"162.88"	"3.791"	"0"	"8.754"
"1910"	"5.604"	"1.671"	"10.998"	"2.711"	"11.618"	"128.124"	"277.051"	"296.967"	"214.321"	"38.579"	"51.629"	"0"
"1911"	"15.385"	"0.039"	"19.697"	"3.417"	"4.821"	"144.144"	"170.409"	"279.174"	"258.672"	"103.213"	"44.963"	"0"
"1912"	"3.161"	"4.513"	"2.933"	"6.752"	"15.118"	"70.784"	"304.177"	"309.351"	"84.131"	"6.081"	"30.64"	"0.28"
"1913"	"0.131"	"43.491"	"22.979"	"0.845"	"23.289"	"219.808"	"199.046"	"282.265"	"114.414"	"42.563"	"1.113"	"10.02"
"1914"	"3.053"	"16.18"	"14.677"	"15.005"	"32.272"	"46.253"	"394.412"	"341.932"	"205.914"	"6.299"	"0"	"0.24"
"1915"	"8.96"	"51.009"	"27.88"	"2.256"	"5.461"	"105.502"	"323.672"	"258.629"	"253.328"	"81.452"	"10.253"	"1.177"
"1916"	"0.09"	"17.755"	"0.345"	"1.974"	"6.456"	"165.981"	"348.211"	"367.159"	"156.357"	"87.396"	"6.418"	"0"
"1917"	"3.544"	"32.996"	"5.772"	"1.735"	"35.005"	"168.295"	"273.031"	"424.522"	"180.425"	"105.294"	"0"	"3.189"
"1918"	"0.131"	"0.039"	"4.62"	"3.509"	"5.685"	"185.875"	"151.554"	"358.196"	"134.065"	"3.541"	"2.33"	"0"
"1919"	"39.959"	"7.686"	"10.212"	"5.331"	"18.728"	"54.723"	"303.063"	"414.636"	"182.445"	"73.341"	"0.19"	"0.426"
"1920"	"0.131"	"22.919"	"19.676"	"0.58"	"10.434"	"53.407"	"466.41"	"237.578"	"91.836"	"9.871"	"0"	"0"
"1921"	"33.192"	"1.465"	"0.496"	"1.053"	"1.298"	"112.042"	"224.73"	"351.637"	"126.469"	"7.424"	"0"	"0"
"1922"	"20.334"	"8.565"	"0.27"	"3.636"	"0.977"	"164.07"	"430.931"	"375.608"	"323.166"	"33.815"	"1.782"	"10.781"
"1923"	"0.537"	"35.358"	"0.345"	"0.516"	"2.803"	"47.628"	"250.363"	"465.718"	"205.402"	"37.28"	"2.713"	"1.738"
"1924"	"8.112"	"3.59"	"1.315"	"7.845"	"6.861"	"67.478"	"361.941"	"216.379"	"302.795"	"82.023"	"38.658"	"1.341"
"1925"	"5.132"	"0.305"	"3.449"	"1.166"	"26.284"	"77.018"	"513.407"	"470.82"	"277.576"	"10.361"	"23.1"	"0"
"1926"	"11.367"	"0.54"	"40.735"	"5.978"	"31.626"	"22.373"	"378.097"	"269.721"	"165.842"	"30.055"	"1.58"	"2.114"
"1927"	"16.988"	"24.571"	"25.331"	"1.008"	"6.695"	"45.812"	"363.876"	"428.403"	"124.782"	"71.78"	"57.828"	"0.259"
"1928"	"22.294"	"18.142"	"1.215"	"8.658"	"9.205"	"75.428"	"364.405"	"138.322"	"98.221"	"78.202"	"0.864"	"3.297"
"1929"	"44.026"	"1.519"	"2.642"	"2.806"	"5.129"	"106.295"	"461.772"	"334.313"	"73.415"	"144.286"	"0"	"13.692"
"1930"	"10.915"	"12.961"	"3.411"	"5.145"	"4.621"	"71.658"	"353.485"	"221.138"	"184.838"	"21.367"	"18.949"	"10.634"
"1931"	"0.684"	"23.639"	"11.277"	"0.672"	"4.009"	"64.298"	"402.238"	"303.05"	"235"	"77.821"	"4.869"	"0.542"
"1932"	"0.09"	"6.646"	"1.808"	"1.007"	"13.739"	"86.578"	"135.344"	"326.331"	"129.159"	"20.753"	"38.64"	"4.237"
"1933"	"14.322"	"19.419"	"2.017"	"13.602"	"19.211"	"108.171"	"365.217"	"361.361"	"127.395"	"52.852"	"0.051"	"0"
"1934"	"25.685"	"10.714"	"1.724"	"2.864"	"1.796"	"117.884"	"284.074"	"311.049"	"186.341"	"25.584"	"7.216"	"1.016"
"1935"	"6.481"	"19.699"	"1.813"	"5.664"	"3.33"	"125.493"	"264.029"	"458.449"	"185.827"	"8.736"	"0.789"	"3.378"
"1936"	"3.46"	"27.211"	"11.08"	"3.211"	"16.893"	"148.978"	"489.146"	"300.061"	"260.436"	"55.891"	"1.527"	"14.373"
"1937"	"0.09"	"42.651"	"2.368"	"12.332"	"10.705"	"67.492"	"254.496"	"297.679"	"189.445"	"74.945"	"0"	"0.164"
"1938"	"27.761"	"14.51"	"1.579"	"4.519"	"19.951"	"274.229"	"330.658"	"297.298"	"148.312"	"28.975"	"0.13"	"0"
"1939"	"9.33"	"23.518"	"7.932"	"3.739"	"3.209"	"143.635"	"322.419"	"249.672"	"190.847"	"24.894"	"0"	"0"
"1940"	"1.07"	"30.262"	"36.515"	"4.658"	"7.976"	"75.626"	"344.39"	"360.912"	"155.461"	"6.564"	"0"	"3.775"
"1941"	"16.633"	"4.999"	"6.779"	"0.672"	"11.196"	"85.15"	"212.473"	"351.48"	"167.836"	"32.348"	"0.46"	"0.13"
"1942"	"50.352"	"36.498"	"6.576"	"4.96"	"3.204"	"97.675"	"218.359"	"340.623"	"253.237"	"4.215"	"0"	"4.751"
"1943"	"13.253"	"8.859"	"1.535"	"15.834"	"13.651"	"48.505"	"236.178"	"550.925"	"228.143"	"24.052"	"0"	"0"
"1944"	"20.006"	"29.876"	"34.474"	"3.604"	"4.641"	"103.969"	"258.549"	"408.76"	"123.855"	"38.266"	"0"	"0.956"
"1945"	"45.674"	"11.274"	"0.896"	"2.953"	"7.987"	"64.935"	"219.568"	"144.507"	"190.555"	"91.417"	"0"	"8.879"
"1946"	"0.09"	"28.47"	"9.807"	"9.281"	"8.24"	"105.821"	"415.042"	"376.049"	"252.07"	"44.398"	"29.271"	"2.186"
"1947"	"18.039"	"9.408"	"13.695"	"0.451"	"5.052"	"48.903"	"444.692"	"249.722"	"310.252"	"40.908"	"3.99"	"0.195"
"1948"	"9.564"	"11.791"	"3.258"	"1.335"	"11.528"	"163.29"	"422.17"	"340.371"	"253.756"	"43.28"	"30.994"	"0.039"
"1949"	"2.62"	"46.307"	"7.36"	"4.049"	"25.671"	"126.984"	"377.561"	"440.068"	"174.129"	"90.739"	"0.312"	"0"
"1950"	"11.599"	"8.421"	"29.415"	"0.346"	"3.425"	"134.019"	"272.55"	"401.54"	"126.827"	"10.198"	"0.039"	"6.137"
"1951"	"9.503"	"8.575"	"24.414"	"11.77"	"4.362"	"127.97"	"349.725"	"354.106"	"182.572"	"25.662"	"18.276"	"0"
"1952"	"0.717"	"14.845"	"17.701"	"1.867"	"8.279"	"229.38"	"220.02"	"261.322"	"164.759"	"19.589"	"0.864"	"0.156"
"1953"	"41.247"	"15.077"	"0.59"	"3.129"	"1.984"	"155.106"	"394.456"	"345.952"	"196.569"	"3.548"	"0"	"2.157"
"1954"	"14.423"	"13.206"	"4.329"	"1.217"	"4.929"	"90.569"	"296.944"	"284.957"	"211.232"	"18.507"	"0"	"0"
"1955"	"23.51"	"20.295"	"1.899"	"2.747"	"1.861"	"116.085"	"562.822"	"175.111"	"115.273"	"94.667"	"0.039"	"1.503"
"1956"	"25.875"	"12.337"	"8.041"	"3.335"	"11.259"	"211.866"	"198.725"	"326.366"	"324.968"	"94.807"	"79.627"	"5.911"
"1957"	"21.604"	"1.547"	"25.807"	"0.976"	"1.171"	"105.05"	"325.399"	"289.294"	"106.671"	"0.4"	"0.356"	"2.261"
"1958"	"24.569"	"4.781"	"29.735"	"3.898"	"0.592"	"112.415"	"225.418"	"264.713"	"145.768"	"47.064"	"0.226"	"1.141"
"1959"	"69.837"	"3.184"	"0"	"0"	"30.609"	"60.045"	"186.661"	"345.063"	"198.764"	"147.719"	"1.2"	"0"
"1960"	"6.699"	"0.039"	"11.816"	"1.689"	"0.629"	"62.392"	"362.497"	"443.93"	"133.704"	"38.364"	"0"	"0"
"1961"	"19.944"	"21.704"	"0"	"0"	"3.489"	"105.451"	"267.164"	"371.253"	"211.216"	"54.962"	"7.471"	"2.944"
"1962"	"20.216"	"11.163"	"6.234"	"12.076"	"2.63"	"64.514"	"283.841"	"307.537"	"323.531"	"3.536"	"0.507"	"3.5"
"1963"	"12.89"	"5.642"	"22.419"	"5.982"	"25.91"	"110.512"	"475.463"	"348.503"	"169.214"	"32.302"	"17.012"	"1.032"
"1964"	"0.241"	"3.776"	"3.095"	"4.652"	"6.914"	"71.257"	"377.196"	"334.982"	"188.05"	"18.055"	"3.429"	"0.13"
"1965"	"1.692"	"0.954"	"15.798"	"18.289"	"3.232"	"27.906"	"269.612"	"158.681"	"121.279"	"30.294"	"4.859"	"1.437"
"1966"	"15.573"	"16.207"	"0"	"0"	"0.068"	"172.473"	"150.265"	"158.674"	"45.867"	"1.52"	"68.914"	"6.14"
"1967"	"2.33"	"0.08"	"25.036"	"4.153"	"4.666"	"36.224"	"301.607"	"489.711"	"185.047"	"5.114"	"0.582"	"12.039"
"1968"	"27.338"	"4.604"	"2.58"	"1.346"	"1.93"	"109.976"	"249.191"	"218.405"	"69.757"	"42.487"	"0.041"	"4.586"
"1969"	"5.298"	"12.293"	"1.171"	"3.502"	"29.025"	"93.324"	"443.922"	"249.418"	"159.167"	"2.12"	"23.724"	"0"
"1970"	"21.646"	"37.281"	"4.164"	"0.598"	"29.306"	"148.712"	"368.851"	"244.228"	"431.645"	"35.886"	"0.151"	"0"
"1971"	"11.746"	"12.623"	"3.802"	"17.161"	"45.131"	"265.092"	"234.347"	"422.031"	"155.639"	"90.069"	"0.13"	"0"
"1972"	"16.222"	"44.189"	"2.819"	"6.686"	"3.02"	"11.727"	"124.563"	"303.817"	"148.857"	"127.04"	"28.245"	"0.039"
"1973"	"36.173"	"3.385"	"2.132"	"0.65"	"4.806"	"82.929"	"392.877"	"403.839"	"200.852"	"106.528"	"2.877"	"0"
"1974"	"5.573"	"1.468"	"0.836"	"0.928"	"6.48"	"92.982"	"464.335"	"207.002"	"122.941"	"27.568"	"1.219"	"1.456"
"1975"	"40.552"	"7.713"	"16.348"	"3.092"	"5.69"	"125.47"	"303.392"	"224.391"	"219.979"	"38.792"	"0.149"	"0"
"1976"	"20.744"	"14.819"	"0.862"	"7.36"	"7.336"	"64.5"	"210.249"	"159.812"	"372.786"	"1.035"	"1.598"	"0"
"1977"	"12.42"	"11.845"	"0.762"	"12.387"	"31.186"	"80.724"	"339.044"	"217.758"	"151.261"	"63.771"	"6.961"	"10.147"
"1978"	"20.814"	"46.358"	"17.931"	"9.413"	"2.383"	"132.729"	"195.319"	"263.339"	"291.829"	"47.304"	"0.905"	"5.275"
"1979"	"22.636"	"9.842"	"1.171"	"6.438"	"1.916"	"102.272"	"366.623"	"180.7"	"89.084"	"5.663"	"87.111"	"5.522"
"1980"	"2.46"	"2.615"	"7.785"	"0.403"	"6.569"	"185.307"	"448.385"	"450.279"	"152.85"	"10.533"	"0.199"	"5.942"
"1981"	"17.272"	"4.379"	"11.421"	"2.74"	"12.607"	"95.232"	"400.476"	"351.402"	"195.796"	"0.639"	"22.383"	"2.578"
"1982"	"43.604"	"12.827"	"33.086"	"4.493"	"30.081"	"87.423"	"203.424"	"295.966"	"380.513"	"11.803"	"42.246"	"2.883"
"1983"	"14.952"	"1.178"	"2.023"	"11.475"	"35.81"	"94.602"	"343.03"	"173.131"	"143.706"	"61.369"	"0"	"3.715"
"1984"	"31.212"	"26.946"	"1.649"	"8.886"	"2.585"	"140.941"	"223.879"	"207.58"	"312.395"	"28.008"	"0.3"	"0.362"
"1985"	"19.902"	"1.874"	"0.453"	"7.122"	"4.776"	"71.763"	"291.826"	"254.222"	"241.382"	"88.213"	"0.13"	"6.911"
"1986"	"9.924"	"20.992"	"2.764"	"3.628"	"40.73"	"79.628"	"303.064"	"333.579"	"220.903"	"8.531"	"0.942"	"11.372"
"1987"	"10.348"	"11.866"	"8.18"	"3.044"	"12.905"	"90.627"	"205.412"	"294.943"	"225.307"	"90.182"	"2.068"	"2.06"
"1988"	"9.633"	"10.778"	"17.76"	"2.013"	"17.067"	"133.291"	"270.019"	"265.88"	"108.546"	"20.047"	"0.789"	"12.428"
"1989"	"7.028"	"9.732"	"5.484"	"1.746"	"21.588"	"100.437"	"324.248"	"193.36"	"159.936"	"30.584"	"12.434"	"9.941"
"1990"	"0.09"	"16.315"	"5.507"	"5.987"	"25.244"	"125.903"	"278.89"	"237.116"	"225.262"	"19.69"	"0"	"1.121"
"1991"	"14.54"	"6.257"	"12.267"	"6.909"	"9.962"	"63.657"	"108.793"	"254.706"	"133.28"	"2.384"	"0.727"	"11.005"
"1992"	"23.027"	"5.582"	"0.762"	"3.258"	"12.531"	"17.925"	"155.978"	"140.195"	"143.553"	"57.165"	"15.925"	"0"
"1993"	"10.101"	"0.039"	"8.47"	"2.286"	"20.808"	"34.26"	"90.399"	"184.738"	"278.608"	"37.757"	"0.199"	"0"
"1994"	"58.639"	"17.671"	"22.156"	"7.137"	"4.257"	"120.553"	"258.857"	"284.056"	"119.508"	"33.676"	"0.562"	"0"
"1995"	"21.746"	"20.04"	"15.934"	"5.072"	"7.438"	"23.271"	"198.227"	"283.326"	"184.998"	"3.488"	"33.466"	"6.871"
"1996"	"33.466"	"15.098"	"1.588"	"1.692"	"4.515"	"113.821"	"195.727"	"310.035"	"133.78"	"96.991"	"0"	"0"
"1997"	"14.133"	"1.595"	"2.822"	"6.315"	"34.855"	"104.187"	"162.971"	"264.387"	"186.867"	"24.887"	"32.901"	"9.024"
"1998"	"0.156"	"5.871"	"8.926"	"5.988"	"39.183"	"11.069"	"195.004"	"280.805"	"135.611"	"33.281"	"17.143"	"0"
"1999"	"33.149"	"23.375"	"0.345"	"0"	"15.703"	"43.384"	"224.275"	"210.508"	"136.109"	"24.032"	"0.345"	"0.74"
"2000"	"11.261"	"16.565"	"2.265"	"5.045"	"7.169"	"94.915"	"115.368"	"136.829"	"200.331"	"0.4"	"0"	"0.102"
"2001"	"2.825"	"1.812"	"16.518"	"6.05"	"7.713"	"72.422"	"231.253"	"232.098"	"39.962"	"70.957"	"0"	"0.342"
"2002"	"20.019"	"13.231"	"6.602"	"3.48"	"4.232"	"22.706"	"139.019"	"256.655"	"191.936"	"89.681"	"19.32"	"0.141"
