
"Year"	"Jan"	"Feb"	"Mar"	"Apr"	"May"	"Jun"	"Jul"	"Aug"	"Sep"	"Oct"	"Nov"	"Dec"
"1901"	"30.374"	"80.779"	"5.775"	"25.403"	"98.824"	"102.634"	"195.844"	"258.132"	"344.935"	"47.846"	"52.261"	"0"
"1902"	"9.258"	"0.527"	"20.385"	"76.999"	"111.185"	"155.837"	"261.121"	"324.343"	"230.973"	"41.048"	"0.701"	"14.022"
"1903"	"6.732"	"48.209"	"12.151"	"21.111"	"43.067"	"164.553"	"252.024"	"224.476"	"271.71"	"144.646"	"4.643"	"0.477"
"1904"	"0.003"	"19.78"	"54.935"	"3.844"	"235.177"	"294.487"	"306.857"	"384.25"	"151.804"	"64.244"	"1.573"	"2.557"
"1905"	"12.372"	"47.987"	"78.001"	"132.961"	"167.037"	"57.164"	"369.28"	"252.288"	"383.286"	"60.281"	"0.067"	"0.358"
"1906"	"19.984"	"134.188"	"43.652"	"0.446"	"41.819"	"191.785"	"290.892"	"205.566"	"202.644"	"106.338"	"9.987"	"0.845"
"1907"	"0"	"34.552"	"79.921"	"123.454"	"78.546"	"238.592"	"141.415"	"268.416"	"101.108"	"18.588"	"0.319"	"12.224"
"1908"	"18.802"	"26.414"	"4.063"	"9.532"	"76.56"	"410.042"	"330.993"	"369.83"	"192.429"	"66.806"	"0.269"	"0"
"1909"	"4.541"	"31.849"	"0.303"	"137.157"	"45.639"	"272.683"	"223.113"	"302.592"	"198.124"	"42.901"	"1.395"	"7.277"
"1910"	"15.926"	"26.295"	"20.625"	"24.162"	"53.33"	"228.41"	"254.923"	"406.345"	"237.151"	"121.461"	"7.213"	"0"
"1911"	"0.195"	"2.837"	"45.428"	"23.484"	"48.876"	"424.498"	"89.066"	"245.369"	"278.978"	"75.666"	"16.973"	"0"
"1912"	"0.027"	"38.623"	"56.587"	"42.361"	"70.661"	"192.921"	"217.773"	"289.425"	"149.282"	"69.331"	"59.169"	"0"
"1913"	"0.166"	"71.924"	"34.716"	"17.464"	"113.431"	"320.857"	"283.626"	"284.74"	"132.397"	"138.356"	"11.051"	"3.906"
"1914"	"0"	"76.099"	"19.453"	"107.873"	"123.89"	"203.415"	"242.724"	"253.527"	"234.654"	"7.453"	"0.067"	"11.707"
"1915"	"4.251"	"35.167"	"82.265"	"45.828"	"68.433"	"220.072"	"188.491"	"413.7"	"276.967"	"101.378"	"45.136"	"0"
"1916"	"0"	"5.054"	"0.303"	"22.811"	"41.334"	"454.577"	"190.709"	"381.933"	"265.678"	"240.059"	"35.486"	"0"
"1917"	"0.561"	"137.596"	"27.811"	"32.742"	"142.365"	"260.332"	"192.517"	"453.867"	"164.416"	"263.332"	"5.999"	"0.052"
"1918"	"0.817"	"0.361"	"20.754"	"55.311"	"115.801"	"302.608"	"155.085"	"324.237"	"229.893"	"7.677"	"0.269"	"3.369"
"1919"	"46.648"	"35.329"	"17.685"	"58.051"	"84.192"	"252.84"	"288.719"	"533.172"	"103.698"	"80.502"	"32.043"	"0"
"1920"	"0"	"37.285"	"116.082"	"0.474"	"52.137"	"134.829"	"294.01"	"413.308"	"180.012"	"91.753"	"0.091"	"0"
"1921"	"54.884"	"5.493"	"9.739"	"48.453"	"27.421"	"240.387"	"226.957"	"384.222"	"187.186"	"36.059"	"0.067"	"0"
"1922"	"8.314"	"9.479"	"0.303"	"19.864"	"30.501"	"353.962"	"242.879"	"397.386"	"409.359"	"61.142"	"9.919"	"0.052"
"1923"	"0.275"	"141.552"	"15.391"	"23.18"	"12.23"	"122.284"	"274.234"	"387.884"	"208.848"	"96.12"	"20.104"	"5.064"
"1924"	"18.83"	"19.072"	"0.468"	"19.471"	"34.41"	"123.432"	"201.674"	"317.807"	"270.949"	"91.302"	"41.639"	"0"
"1925"	"18.798"	"9.328"	"9.437"	"73.73"	"141.863"	"434.58"	"308.346"	"311.849"	"144.018"	"183.081"	"7.196"	"9.664"
"1926"	"14.083"	"9.264"	"114.675"	"44.955"	"94.877"	"114.087"	"355.445"	"418.621"	"230.378"	"79.688"	"1.755"	"5.937"
"1927"	"7.614"	"66.945"	"98.096"	"24.651"	"59.707"	"176.116"	"241.533"	"327.145"	"184.85"	"51.75"	"8.966"	"0"
"1928"	"16.612"	"1.454"	"2.181"	"88.744"	"128.508"	"340.365"	"352.919"	"338.014"	"226.362"	"166.912"	"1.617"	"0.358"
"1929"	"14.828"	"32.143"	"36.497"	"46.359"	"50.914"	"143.759"	"195.493"	"375.68"	"165.377"	"266.885"	"0.067"	"6.676"
"1930"	"0.228"	"21.472"	"6.644"	"35.275"	"113.073"	"199.839"	"378.567"	"311.484"	"208.541"	"40.217"	"46.147"	"1.501"
"1931"	"7.33"	"67.825"	"29.637"	"15.72"	"79.792"	"139.306"	"238.966"	"305.14"	"273.349"	"160.969"	"17.77"	"2.963"
"1932"	"0"	"43.296"	"9.226"	"66.528"	"147.157"	"74.077"	"238.803"	"278.491"	"218.918"	"64.844"	"54.765"	"0.24"
"1933"	"34.031"	"26.031"	"2.158"	"69.778"	"106.86"	"306.627"	"298.258"	"344.325"	"242.486"	"168.315"	"1.298"	"0"
"1934"	"3.02"	"29.074"	"4.332"	"28.661"	"24.88"	"224.343"	"214.496"	"397.048"	"237.358"	"90.478"	"15.023"	"1.981"
"1935"	"7.406"	"21.093"	"14.598"	"57.097"	"8.147"	"146.119"	"178.404"	"318.977"	"174.402"	"32.76"	"0.067"	"1.244"
"1936"	"6.441"	"55.227"	"15.611"	"11.082"	"193.222"	"405.624"	"290.416"	"258.588"	"328.805"	"142.504"	"5.981"	"9.721"
"1937"	"0"	"112.359"	"8.852"	"61.432"	"74.199"	"244.59"	"247.111"	"314.245"	"235.185"	"164.837"	"1.028"	"0.543"
"1938"	"6.62"	"25.261"	"6.937"	"2.194"	"248.476"	"228.088"	"129.606"	"257.991"	"248.951"	"88.272"	"1.729"	"0"
"1939"	"10.088"	"17.827"	"19.415"	"22.702"	"34.848"	"166.564"	"275.379"	"420.958"	"282.774"	"150.672"	"4.325"	"1.127"
"1940"	"0"	"37.895"	"175.397"	"23.513"	"108.631"	"247.452"	"224.396"	"383.067"	"280.529"	"64.626"	"0.666"	"1.821"
"1941"	"31.83"	"0.615"	"6.933"	"10.953"	"72.673"	"286.285"	"225.421"	"452.207"	"215.456"	"194.538"	"34.404"	"0"
"1942"	"1.139"	"55.265"	"15.812"	"58.529"	"14.308"	"105.654"	"279.813"	"358.643"	"360.794"	"103.244"	"11.912"	"0"
"1943"	"36.149"	"15.184"	"10.096"	"137.976"	"33.612"	"183.412"	"320.597"	"419.789"	"167.138"	"98.919"	"2.899"	"0"
"1944"	"25.823"	"85.999"	"112.937"	"62.77"	"46.212"	"188.83"	"243.382"	"434.132"	"159.161"	"104.128"	"0.666"	"0"
"1945"	"16.67"	"19.58"	"7.237"	"123.554"	"68.932"	"126.35"	"220.005"	"159.002"	"274.322"	"215.964"	"0.067"	"7.651"
"1946"	"0"	"4.155"	"13.938"	"44.645"	"97.331"	"278.835"	"252.598"	"368.775"	"329.682"	"165.462"	"45.986"	"0.24"
"1947"	"18.69"	"67.521"	"29.607"	"13.142"	"56.636"	"255.514"	"310.08"	"322.108"	"325.868"	"74.565"	"0.067"	"12.642"
"1948"	"15.957"	"105.662"	"69.03"	"72.183"	"56.999"	"184.208"	"219.408"	"340.309"	"230.094"	"102.768"	"55.222"	"0.24"
"1949"	"0.511"	"15.675"	"24.353"	"83.281"	"142.73"	"195.715"	"226.24"	"289.488"	"301.03"	"136.377"	"0.067"	"0"
"1950"	"0.019"	"12.79"	"50.176"	"47.681"	"47.298"	"280.304"	"220.613"	"223.32"	"132.737"	"97.799"	"52.736"	"1.501"
"1951"	"1.881"	"0.412"	"79.024"	"71.121"	"40.828"	"181.93"	"271.512"	"348.609"	"289.523"	"71.692"	"31.884"	"0.002"
"1952"	"0.529"	"6.389"	"44.455"	"113.289"	"42.218"	"245.176"	"252.638"	"265.042"	"180.384"	"136.238"	"1.086"	"0.484"
"1953"	"33.437"	"12.214"	"0.303"	"5.423"	"18.121"	"165.121"	"122.808"	"386.19"	"318.997"	"57.323"	"32.728"	"0"
"1954"	"7.466"	"37.149"	"0.896"	"4.544"	"101.307"	"303.968"	"69.725"	"178.925"	"303.79"	"90.478"	"0.067"	"9.624"
"1955"	"11.25"	"5.747"	"22.046"	"32.381"	"95.151"	"186.629"	"153.208"	"286.155"	"349.64"	"267.835"	"40.989"	"0"
"1956"	"4.376"	"79.687"	"26.355"	"29.24"	"131.411"	"411.855"	"377.561"	"408.917"	"354.086"	"144.411"	"10.286"	"1.107"
"1957"	"33.191"	"29.233"	"17.445"	"23.569"	"4.325"	"105.199"	"295.927"	"313.571"	"169.076"	"76.153"	"0.067"	"0"
"1958"	"18.735"	"88.22"	"14.948"	"92.602"	"15.499"	"148.708"	"368.443"	"225.946"	"256.488"	"140.334"	"36.354"	"0"
"1959"	"11.359"	"16.71"	"5.275"	"38.662"	"108.984"	"211.952"	"209.392"	"202.219"	"233.334"	"251.776"	"0.067"	"2.9"
"1960"	"0.258"	"0.361"	"40.206"	"6.807"	"52.958"	"155.451"	"408.164"	"360.012"	"167.529"	"83.117"	"1.361"	"1.956"
"1961"	"33.679"	"137.145"	"2.627"	"5.869"	"90.888"	"191.483"	"118.92"	"413.48"	"382.565"	"113.659"	"0.067"	"1.351"
"1962"	"6.569"	"18.278"	"3.306"	"21.016"	"22.918"	"172.525"	"288.814"	"180.177"	"240.158"	"182.967"	"0.067"	"0.484"
"1963"	"0.355"	"2.212"	"26.155"	"113.985"	"154.647"	"193.014"	"194.046"	"251.802"	"244.752"	"178.32"	"7.69"	"0"
"1964"	"0.528"	"30.33"	"23.242"	"75.582"	"97.908"	"99.23"	"345.017"	"397.098"	"240.733"	"80.109"	"15.192"	"0"
"1965"	"4.741"	"33.962"	"36.582"	"59.516"	"19.027"	"117.848"	"362.777"	"329.079"	"265.098"	"81.151"	"0.067"	"0.854"
"1966"	"55.762"	"22.228"	"3.149"	"3.647"	"9.17"	"209.106"	"98.661"	"234.156"	"245.543"	"63.92"	"37.852"	"6.031"
"1967"	"32.522"	"0.689"	"102.452"	"29.339"	"25.51"	"213.931"	"201.826"	"353.389"	"291.73"	"64.131"	"0.067"	"1.515"
"1968"	"14.646"	"54.41"	"16.334"	"9.549"	"10.181"	"343.098"	"335.021"	"393.468"	"225.04"	"110.289"	"26.128"	"0.484"
"1969"	"4.069"	"3.484"	"36.624"	"70.501"	"64.58"	"100.764"	"295.451"	"318.054"	"219.924"	"53.335"	"23.767"	"0.477"
"1970"	"7.651"	"60.062"	"83.849"	"15.519"	"81.764"	"335.193"	"202.561"	"297.486"	"158.522"	"128.063"	"11.172"	"0"
"1971"	"33.13"	"123.014"	"1.448"	"144.836"	"127.097"	"461.524"	"315.682"	"433.765"	"226.453"	"149.439"	"5.712"	"0"
"1972"	"2.36"	"45.782"	"1.062"	"34.532"	"5.897"	"71.789"	"195.817"	"418.288"	"283.654"	"137.066"	"10.193"	"0.24"
"1973"	"2.162"	"7.532"	"36.479"	"22.6"	"125.113"	"173.233"	"175.446"	"358.62"	"277.815"	"178.397"	"18.909"	"31.627"
"1974"	"0.786"	"0.489"	"118.853"	"5.9"	"62.015"	"107.846"	"264.591"	"296.901"	"251.7"	"213.35"	"6.83"	"0"
"1975"	"4.564"	"14.627"	"15.889"	"5.624"	"43.891"	"248.558"	"293.329"	"288.309"	"243.472"	"183.518"	"21.782"	"0.002"
"1976"	"0.124"	"20.561"	"8.485"	"99.779"	"93.852"	"87.198"	"359.106"	"343.543"	"279.52"	"26.937"	"14.043"	"0"
"1977"	"1.962"	"25.871"	"0.303"	"71.758"	"191.35"	"278.018"	"333.562"	"334.781"	"240.74"	"74.845"	"31.984"	"13.8"
"1978"	"0.518"	"51.131"	"55.258"	"65.542"	"101.185"	"179.619"	"321.667"	"351.812"	"374.634"	"103.277"	"14.971"	"23.559"
"1979"	"15.009"	"46.237"	"7.742"	"49.103"	"15.188"	"112.074"	"253.383"	"204.781"	"178.952"	"43.516"	"6.45"	"16.778"
"1980"	"43.123"	"61.568"	"70.674"	"10.141"	"75.261"	"302.685"	"275.134"	"346.579"	"200.06"	"94.411"	"0.067"	"7.609"
"1981"	"20.946"	"43.479"	"89.208"	"70.282"	"116.398"	"114.914"	"284.989"	"278.779"	"316.991"	"11.369"	"1.77"	"5.133"
"1982"	"3.465"	"23.53"	"51.739"	"89.151"	"37.569"	"123.563"	"187.52"	"432.624"	"158.981"	"12.672"	"16.826"	"0.321"
"1983"	"1.52"	"70.129"	"57.529"	"30.059"	"115.76"	"180.137"	"230.776"	"299.67"	"148.234"	"142.512"	"1.129"	"2.012"
"1984"	"26.82"	"16.746"	"2.03"	"48.901"	"75.91"	"528.355"	"250.282"	"377.007"	"112.56"	"73.673"	"0.533"	"0.03"
"1985"	"20.737"	"6.143"	"2.116"	"26.719"	"44.004"	"207.769"	"331.698"	"281.706"	"191.584"	"157.073"	"0.135"	"0.126"
"1986"	"23.397"	"32.709"	"2.184"	"37.951"	"76.158"	"183.317"	"321.367"	"237.339"	"494.441"	"76.803"	"60.888"	"2.348"
"1987"	"2.86"	"3.34"	"16.095"	"58.255"	"72.644"	"83.207"	"291.485"	"441.078"	"122.122"	"83.905"	"36.507"	"3.702"
"1988"	"1.764"	"34.368"	"18.256"	"33.572"	"95.67"	"124.427"	"273.922"	"326.076"	"256.261"	"88.337"	"19.86"	"0.058"
"1989"	"1.605"	"4.151"	"24.639"	"4.791"	"186.937"	"259.011"	"230.741"	"250.069"	"200.145"	"158.718"	"3.013"	"5.051"
"1990"	"0"	"57.077"	"77.4"	"25.096"	"181.426"	"250.329"	"535.541"	"267.576"	"234.556"	"179.272"	"18.469"	"1.542"
"1991"	"16.397"	"12.255"	"47.73"	"16.31"	"39.082"	"200.519"	"272.095"	"408.42"	"215.3"	"110.981"	"8.32"	"17.239"
"1992"	"13.541"	"12.575"	"0.303"	"9.021"	"187.668"	"205.398"	"320.877"	"206.321"	"191.313"	"60.568"	"5.388"	"0"
"1993"	"0.793"	"0.893"	"59.759"	"72.428"	"76.398"	"364.589"	"303.085"	"309.004"	"285.207"	"174.071"	"10.755"	"0"
"1994"	"6.64"	"56.804"	"59.575"	"44.236"	"53.39"	"230.221"	"315.193"	"337.92"	"203.982"	"215.342"	"5.625"	"0"
"1995"	"13.709"	"28.426"	"45.074"	"18.646"	"100.086"	"108.42"	"301.174"	"241.414"	"325.046"	"160.746"	"26.009"	"0"
"1996"	"6.921"	"18.8"	"11.951"	"45.73"	"34.825"	"256.676"	"185.145"	"414.929"	"103.666"	"132.429"	"5.033"	"0.057"
"1997"	"28.62"	"18.279"	"68.109"	"74.839"	"72.056"	"139.824"	"339.112"	"339.167"	"298.815"	"47.789"	"21.566"	"13.368"
"1998"	"21.551"	"99.028"	"23.191"	"38.524"	"76.523"	"218.326"	"210.982"	"188.14"	"280.975"	"281.035"	"47.903"	"0"
"1999"	"2.033"	"2.24"	"0.303"	"0.443"	"188.285"	"208.461"	"210.917"	"511.562"	"325.047"	"74.681"	"15.412"	"0.002"
"2000"	"1.502"	"101.091"	"0.303"	"64.277"	"123.575"	"280.709"	"177.94"	"261.825"	"145.229"	"44.621"	"9.699"	"0.906"
"2001"	"0.314"	"5.48"	"53.923"	"32.042"	"114.137"	"354.377"	"198.577"	"294.65"	"135.475"	"139.164"	"23.449"	"0.012"
"2002"	"42.15"	"20.402"	"5.827"	"61.069"	"105.01"	"209.773"	"242.452"	"390.992"	"232.304"	"63.062"	"15.005"	"0"
