
"Year"	"Jan"	"Feb"	"Mar"	"Apr"	"May"	"Jun"	"Jul"	"Aug"	"Sep"	"Oct"	"Nov"	"Dec"
"1901"	"13.069"	"14.884"	"21.774"	"26.646"	"31.374"	"36.115"	"33.244"	"33.227"	"31.913"	"28.614"	"21.256"	"15.986"
"1902"	"14.856"	"17.599"	"23.586"	"28.345"	"32.588"	"34.314"	"33.558"	"33.914"	"30.943"	"27.299"	"20.884"	"14.5"
"1903"	"13.768"	"16.084"	"20.085"	"25.915"	"31.329"	"36.984"	"34.442"	"32.628"	"32.028"	"27.914"	"20.353"	"14.685"
"1904"	"12.87"	"16.414"	"20.401"	"28.231"	"32.574"	"36.014"	"33.772"	"32.986"	"31.258"	"27.429"	"20.299"	"16.071"
"1905"	"12.239"	"11.67"	"18.114"	"25.218"	"33.858"	"36.313"	"34.414"	"34.485"	"32.37"	"27.756"	"21.656"	"15.611"
"1906"	"12.754"	"14.569"	"19.386"	"26.815"	"34.499"	"34.842"	"34.727"	"31.945"	"30.314"	"27.985"	"21.769"	"16.785"
"1907"	"15.514"	"14.114"	"18.429"	"24.632"	"30.488"	"33.943"	"34.913"	"31.927"	"32.797"	"28.169"	"21.27"	"14.685"
"1908"	"14.399"	"16.799"	"21.585"	"28.058"	"32.615"	"36.27"	"32.485"	"29.942"	"30.439"	"26.854"	"19.884"	"15.241"
"1909"	"12.855"	"14.985"	"21.385"	"26.229"	"32.271"	"33.802"	"31.372"	"31.386"	"29.699"	"27.255"	"21.869"	"14.47"
"1910"	"13.355"	"15.985"	"21.156"	"26.015"	"33"	"34.544"	"31.943"	"31.072"	"31.257"	"26.559"	"19.87"	"14.842"
"1911"	"14.94"	"16.415"	"19.2"	"26.816"	"33.3"	"34.558"	"35.414"	"34.299"	"31.742"	"27.914"	"17.97"	"14.671"
"1912"	"14.384"	"17.523"	"21.271"	"27.129"	"32.929"	"36.399"	"33.343"	"31.372"	"30.172"	"27.299"	"19.74"	"14.986"
"1913"	"14.87"	"15.685"	"18.715"	"28.615"	"30.773"	"32.388"	"31.458"	"32.043"	"31.114"	"27.571"	"20.139"	"14.856"
"1914"	"15.455"	"15.156"	"20.571"	"26.646"	"32.275"	"34.273"	"31.642"	"32.129"	"30.529"	"25.015"	"20.316"	"14.556"
"1915"	"13.853"	"14.599"	"21.999"	"28.014"	"35.599"	"35.343"	"35.543"	"33.628"	"32.073"	"27.686"	"20.827"	"15.017"
"1916"	"14.97"	"15.669"	"24.285"	"29.371"	"31.77"	"34.757"	"31.574"	"30.972"	"30.643"	"27.239"	"18.825"	"14.756"
"1917"	"13.814"	"17.3"	"21.685"	"24.43"	"28.344"	"33.744"	"31.901"	"30.643"	"28.643"	"25.399"	"18.156"	"15.186"
"1918"	"13.441"	"16.585"	"20.871"	"24.715"	"34.713"	"34.643"	"35.584"	"33.728"	"31.513"	"27.47"	"20.439"	"14.956"
"1919"	"14.039"	"15.285"	"22.156"	"26.9"	"31.799"	"37.899"	"32.901"	"31.444"	"31.098"	"27.07"	"19.74"	"14.356"
"1920"	"13.67"	"15.1"	"21.156"	"26.885"	"28.9"	"34.283"	"33.686"	"32.713"	"32.542"	"28.484"	"21.954"	"16.012"
"1921"	"14.826"	"17.27"	"24.899"	"31.613"	"35.54"	"36.384"	"34.683"	"31.942"	"31.413"	"26.314"	"20.315"	"16.969"
"1922"	"13.456"	"16.969"	"23.141"	"28.43"	"32.742"	"34.599"	"33.687"	"32.771"	"30.141"	"25.914"	"20.055"	"15.016"
"1923"	"13.47"	"14.999"	"22.071"	"28.586"	"31.371"	"36.669"	"32.429"	"30.572"	"31.214"	"26.286"	"19.926"	"15.242"
"1924"	"13.227"	"15.785"	"22.386"	"28.285"	"28.971"	"36.84"	"34.358"	"32.058"	"29.243"	"26.629"	"19.941"	"15.741"
"1925"	"12.27"	"13.97"	"22.786"	"30.159"	"32.685"	"32.844"	"31.073"	"31.573"	"31.729"	"26.944"	"18.669"	"14.672"
"1926"	"14.541"	"17.415"	"20.17"	"24.33"	"29.229"	"36.07"	"33.658"	"30.658"	"30.098"	"26.286"	"18.44"	"14.941"
"1927"	"13.04"	"13.898"	"20.5"	"26.23"	"30.729"	"34.769"	"32.058"	"31.201"	"30.728"	"26.929"	"20.57"	"16.185"
"1928"	"12.885"	"16.828"	"21.3"	"27.5"	"34.299"	"35.298"	"33.628"	"33.098"	"30.77"	"27.67"	"20.556"	"14.756"
"1929"	"13.825"	"15.156"	"23.957"	"28.815"	"33.384"	"35.185"	"32.57"	"31.328"	"31.968"	"26.755"	"20.456"	"13.769"
"1930"	"12.57"	"15.929"	"22"	"26.4"	"32.469"	"33.828"	"30.914"	"32.213"	"29.602"	"26.899"	"19.555"	"14.97"
"1931"	"14.64"	"13.285"	"20.6"	"28.559"	"32.299"	"34.983"	"32.214"	"32.087"	"30.529"	"27.083"	"20.198"	"15.87"
"1932"	"15.655"	"15.999"	"22.385"	"27.874"	"30.83"	"36.698"	"32.558"	"31.157"	"31.343"	"26.884"	"19.785"	"14.971"
"1933"	"11.485"	"16.614"	"20.83"	"24.99"	"30.658"	"35.698"	"32.572"	"29.927"	"29.058"	"26.214"	"20.285"	"16.385"
"1934"	"12.04"	"17.714"	"20.515"	"27.159"	"31.3"	"34.629"	"32.958"	"31.273"	"32.012"	"25.986"	"19.885"	"16.456"
"1935"	"12.425"	"16.371"	"21.515"	"23.489"	"32.216"	"35.856"	"32.642"	"31.002"	"30.928"	"26.385"	"20.785"	"15"
"1936"	"12.454"	"16.429"	"20.284"	"26.561"	"35.143"	"33.072"	"31.858"	"31.755"	"30.628"	"26.559"	"20.07"	"15.015"
"1937"	"13.041"	"16.17"	"20"	"25.958"	"32.173"	"35.543"	"31.858"	"33.64"	"31.128"	"25.714"	"20.085"	"13.869"
"1938"	"13.325"	"14.57"	"22.37"	"28.444"	"34.844"	"33.429"	"34.243"	"32.957"	"32.655"	"27.47"	"19.555"	"15.031"
"1939"	"14.826"	"15.885"	"18.67"	"25.33"	"33.414"	"33.887"	"32.844"	"32.973"	"32.243"	"28.54"	"20.385"	"16.3"
"1940"	"14.299"	"15.714"	"20.401"	"26.159"	"33.028"	"34.842"	"32.802"	"31.157"	"30.713"	"27.214"	"21.499"	"15.077"
"1941"	"13.684"	"17.229"	"23.801"	"30.345"	"34.044"	"33.241"	"33.113"	"32.286"	"30.856"	"29.5"	"21.37"	"16.856"
"1942"	"12.914"	"16.27"	"22.915"	"28.974"	"32.899"	"35.129"	"31.816"	"30.301"	"29.542"	"26.529"	"21.984"	"14.67"
"1943"	"13.441"	"16.199"	"22.1"	"26.63"	"32.185"	"34.799"	"32.428"	"31.67"	"31.812"	"27.185"	"21.271"	"17.169"
"1944"	"13.226"	"15.056"	"20.486"	"26.66"	"33.484"	"35.269"	"32.144"	"31.783"	"30.354"	"26.457"	"21.041"	"15.697"
"1945"	"12.04"	"15.3"	"22.2"	"25.274"	"30.416"	"33.572"	"31.973"	"31.358"	"29.947"	"26.514"	"20.599"	"14.685"
"1946"	"15.14"	"19.426"	"21.085"	"30.603"	"33.243"	"34.771"	"32.317"	"31.802"	"31.983"	"27.744"	"20.426"	"14.156"
"1947"	"13.271"	"16.77"	"22.914"	"30.2"	"34.215"	"38.154"	"34.658"	"33.213"	"29.401"	"26.143"	"21.929"	"15.686"
"1948"	"15.199"	"16.169"	"21.171"	"29.5"	"32.987"	"35.842"	"32.744"	"31.158"	"31.513"	"27.999"	"19"	"15.185"
"1949"	"16.012"	"16.327"	"22.812"	"30.186"	"35.685"	"35.14"	"31.943"	"32.913"	"32.999"	"26.854"	"19.255"	"14.73"
"1950"	"15.325"	"14.255"	"20.557"	"26.955"	"34.256"	"36.683"	"32.984"	"31.756"	"28.914"	"25.914"	"19.74"	"13.171"
"1951"	"13.555"	"16.24"	"23.223"	"25.8"	"32.301"	"35.284"	"34.471"	"32.258"	"32.583"	"29.415"	"22.054"	"16.456"
"1952"	"15.424"	"18.625"	"22.927"	"30.585"	"33.969"	"34.543"	"32.629"	"31.401"	"32.453"	"28.07"	"20.77"	"15.37"
"1953"	"13.755"	"18.955"	"25.372"	"29.386"	"35.04"	"35.699"	"32.657"	"32.299"	"31.425"	"27.655"	"20.956"	"18.271"
"1954"	"13.356"	"17.525"	"22.156"	"29.255"	"34.755"	"36.369"	"33.327"	"34.128"	"31.199"	"24.985"	"20.386"	"15.57"
"1955"	"14.04"	"17.385"	"24.142"	"26.529"	"31.027"	"36.583"	"33.959"	"31.842"	"30.258"	"25.529"	"20.47"	"16.085"
"1956"	"14.626"	"17.541"	"22.527"	"29.471"	"36.127"	"35.1"	"31.899"	"31.328"	"32.669"	"25.799"	"19.77"	"16.071"
"1957"	"13.541"	"15.383"	"21.686"	"26.586"	"31.212"	"34.969"	"34.028"	"31.627"	"29.829"	"27.115"	"20.571"	"15.569"
"1958"	"15.955"	"16.971"	"23.642"	"31.302"	"33.369"	"36.17"	"32.858"	"32.243"	"29.799"	"27.185"	"22.096"	"15.885"
"1959"	"13.854"	"15.669"	"22.9"	"29.085"	"32.615"	"36.314"	"33.099"	"31.957"	"30.358"	"26.316"	"20.57"	"15.971"
"1960"	"13.356"	"19.77"	"21.456"	"27.928"	"34.966"	"36.654"	"33.87"	"32.658"	"31.359"	"27.098"	"19.785"	"14.77"
"1961"	"14.926"	"14.87"	"22.742"	"27.515"	"33.169"	"35.869"	"32.843"	"31.657"	"31.613"	"26.5"	"18.784"	"13.615"
"1962"	"12.699"	"17.37"	"21.6"	"29.485"	"32.971"	"35.213"	"33.514"	"32.258"	"28.828"	"28.852"	"19.7"	"14.485"
"1963"	"13.099"	"18.3"	"21.97"	"27.601"	"31.185"	"35.743"	"33.487"	"30.761"	"29.788"	"27.444"	"20.899"	"15"
"1964"	"12.041"	"15.315"	"21.803"	"27.803"	"30.458"	"35.87"	"31.173"	"32.043"	"30.258"	"26.185"	"19.17"	"14.87"
"1965"	"15.771"	"16.785"	"22.055"	"25.771"	"31.3"	"36.255"	"32.328"	"31.358"	"30.829"	"27.044"	"21.028"	"13.927"
"1966"	"13.843"	"18.029"	"21.614"	"28.241"	"33.225"	"34.698"	"33.515"	"31.958"	"30.255"	"26.599"	"19.641"	"14.641"
"1967"	"12.955"	"18.669"	"21.442"	"27.456"	"31.969"	"36.255"	"32.929"	"31.358"	"30.813"	"26.071"	"20.17"	"15.31"
"1968"	"13.211"	"15.126"	"22.271"	"28.385"	"32.441"	"36.17"	"32.473"	"31.817"	"32.499"	"25.73"	"20.785"	"15.871"
"1969"	"14.271"	"17.101"	"24.886"	"28.387"	"31.699"	"36.089"	"33.343"	"32.814"	"30.929"	"28.2"	"21.685"	"16.085"
"1970"	"14.57"	"16.685"	"22.371"	"29.784"	"34.585"	"33.717"	"34.428"	"31.617"	"30.972"	"28.014"	"20.239"	"15.615"
"1971"	"13.495"	"17.455"	"22.895"	"29.868"	"32.258"	"34.228"	"32.029"	"31.282"	"29.982"	"27.268"	"21.123"	"16.47"
"1972"	"14.825"	"14.939"	"23.041"	"27.37"	"33.733"	"35.937"	"33.953"	"31.766"	"30.342"	"26.823"	"21.27"	"15.414"
"1973"	"14.565"	"18.624"	"21.571"	"29.999"	"33.799"	"34.173"	"31.254"	"29.912"	"30.121"	"25.359"	"19.615"	"13.671"
"1974"	"12.29"	"14.769"	"22.591"	"29.235"	"32.53"	"33.752"	"31.543"	"31.378"	"30.477"	"25.574"	"19.615"	"13.529"
"1975"	"13.665"	"15.525"	"21.326"	"28.609"	"33.409"	"34.539"	"31.893"	"31.056"	"29.313"	"28.24"	"19.78"	"16.157"
"1976"	"14.025"	"16.67"	"21.39"	"27.5"	"32.929"	"33.171"	"32.558"	"29.202"	"29.814"	"27.1"	"20.825"	"15.34"
"1977"	"13.556"	"17.039"	"24.239"	"27.941"	"30.455"	"33.921"	"31.467"	"31.087"	"29.013"	"26.798"	"21.665"	"15.487"
"1978"	"12.404"	"15.159"	"19.46"	"28.159"	"36.285"	"34.719"	"31.553"	"31.042"	"29.982"	"26.614"	"20.005"	"14.661"
"1979"	"14.469"	"15.12"	"19.504"	"29.344"	"31.085"	"35.329"	"32.489"	"32.683"	"29.058"	"26.644"	"21.485"	"16.315"
"1980"	"13.514"	"17.09"	"20.615"	"30.314"	"35.038"	"35.554"	"32.017"	"30.974"	"29.663"	"26.948"	"20.213"	"15.1"
"1981"	"13.714"	"16.729"	"20.319"	"28.489"	"33.553"	"35.754"	"31.538"	"31.756"	"30.842"	"24.989"	"18.457"	"14.087"
"1982"	"14.736"	"15.226"	"19.396"	"27.01"	"30.47"	"35.284"	"34.554"	"31.784"	"31.256"	"27.47"	"20.827"	"15.772"
"1983"	"13.67"	"16.04"	"21.141"	"25.256"	"30.234"	"34.185"	"32.883"	"31.983"	"31.198"	"26.2"	"20.51"	"15.771"
"1984"	"13.426"	"14.841"	"22.825"	"27.474"	"35.415"	"36.274"	"31.203"	"31.087"	"29.014"	"24.858"	"19.365"	"14.144"
"1985"	"13.63"	"16.736"	"23.114"	"27.93"	"33.319"	"34.629"	"31.388"	"31.657"	"30.658"	"25.029"	"20.035"	"15.715"
"1986"	"13.456"	"16.07"	"20.444"	"26.888"	"29.92"	"33.973"	"31.173"	"31.641"	"29.579"	"26.245"	"20.615"	"13.975"
"1987"	"14.545"	"17.315"	"21.885"	"28.19"	"28.205"	"34.172"	"34.343"	"32.802"	"31.978"	"26.589"	"20.405"	"15.206"
"1988"	"14.804"	"17.114"	"21.015"	"29.574"	"34.336"	"34.662"	"31.444"	"30.801"	"30.258"	"25.819"	"20.56"	"15.09"
"1989"	"12.874"	"15.299"	"20.93"	"25.988"	"32.806"	"33.146"	"32.202"	"30.174"	"29.971"	"26.143"	"20.13"	"14.69"
"1990"	"15.398"	"15.885"	"19.958"	"27.489"	"33.059"	"34.643"	"31.017"	"30.872"	"30.147"	"25.193"	"20.403"	"14.844"
"1991"	"13.8"	"16.755"	"21.171"	"26.546"	"32.215"	"34.073"	"34.06"	"31.173"	"30.758"	"25.915"	"20.3"	"16.101"
"1992"	"14.885"	"15.885"	"21.386"	"27.6"	"31.714"	"35.114"	"31.657"	"31.173"	"30.142"	"26.429"	"20.315"	"17.515"
"1993"	"13.556"	"18.584"	"20.814"	"28.246"	"34.529"	"35.544"	"31.829"	"33.573"	"29.772"	"26.544"	"21.485"	"16.1"
"1994"	"15.1"	"16.37"	"23.6"	"26.93"	"33.844"	"36.128"	"31.972"	"31.057"	"29.514"	"26.014"	"21.185"	"16.47"
"1995"	"13.854"	"16.57"	"20.786"	"26.602"	"34.3"	"36.614"	"32.744"	"29.957"	"30.543"	"27.314"	"21.055"	"16.241"
"1996"	"14.355"	"17.37"	"22.8"	"28.914"	"32.53"	"32.87"	"32.53"	"30.758"	"30.043"	"26.2"	"20.369"	"15.27"
"1997"	"13.768"	"16.299"	"21.585"	"27.115"	"30.399"	"32.914"	"32.759"	"30.658"	"30.928"	"24.885"	"20.055"	"13.47"
"1998"	"14.068"	"16.984"	"20.401"	"28.615"	"33.914"	"35.314"	"32.343"	"31.888"	"30.429"	"27.083"	"21.37"	"15.286"
"1999"	"13.456"	"17.57"	"22.971"	"30.615"	"33.914"	"33.7"	"33.028"	"32.028"	"31.642"	"27.614"	"21.716"	"16.27"
"2000"	"14.055"	"15.5"	"21.7"	"30.53"	"35.329"	"33.943"	"31.359"	"31.841"	"30.529"	"28.099"	"21.555"	"16.371"
"2001"	"13.255"	"17.77"	"22.8"	"28.299"	"33.829"	"32.729"	"31.914"	"32.812"	"31.074"	"28.199"	"21.869"	"16.655"
"2002"	"16.154"	"15.686"	"20.003"	"30.915"	"34.912"	"34.629"	"34.113"	"32.372"	"29.344"	"26.6"	"22.17"	"16.856"
