
"Year"	"Jan"	"Feb"	"Mar"	"Apr"	"May"	"Jun"	"Jul"	"Aug"	"Sep"	"Oct"	"Nov"	"Dec"
"1901"	"32.527"	"25.817"	"5.755"	"29.713"	"72.579"	"117.948"	"286.177"	"344.002"	"204.904"	"66.896"	"33.448"	"0"
"1902"	"0.046"	"0.156"	"34.34"	"85.402"	"103.478"	"139.546"	"365.344"	"290.393"	"329.959"	"42.036"	"0.414"	"6.245"
"1903"	"4.167"	"13.71"	"21.701"	"57.698"	"71.541"	"191.082"	"158.04"	"341.621"	"180.095"	"145.69"	"8.616"	"0"
"1904"	"0.033"	"21.696"	"46.725"	"22.276"	"266.057"	"360.094"	"371.194"	"279.067"	"95.222"	"13.287"	"8.014"	"0.177"
"1905"	"16.542"	"41.584"	"63.292"	"50.924"	"166.766"	"68.871"	"415.481"	"415.579"	"239.756"	"76.658"	"0.151"	"1.192"
"1906"	"31.243"	"91.188"	"42.132"	"10.172"	"79.648"	"202.671"	"273.505"	"281.223"	"131.677"	"164.138"	"5.127"	"0"
"1907"	"3.83"	"35.678"	"74.602"	"38.246"	"84.51"	"282.791"	"228.623"	"238.07"	"200.98"	"30.455"	"0"	"5.601"
"1908"	"13.162"	"29.928"	"5.622"	"4.189"	"82.107"	"374.865"	"369.839"	"289.882"	"154.13"	"15.662"	"0.315"	"0.372"
"1909"	"11.055"	"6.962"	"0.226"	"112.583"	"73.045"	"368.581"	"179.752"	"467.063"	"193.982"	"43.039"	"2.376"	"7.262"
"1910"	"8.617"	"34.415"	"30.232"	"56.455"	"74.699"	"192.848"	"354.489"	"363.091"	"190.044"	"104.177"	"4.645"	"0"
"1911"	"4.639"	"2.462"	"38.498"	"19.837"	"70.634"	"525.116"	"175.332"	"300.926"	"234.901"	"157.924"	"10.187"	"0"
"1912"	"0.671"	"12.38"	"48.251"	"65.548"	"95.124"	"212.129"	"317.293"	"295.322"	"72.049"	"74.247"	"29.472"	"1.774"
"1913"	"0.828"	"46.426"	"41.013"	"18.673"	"149.138"	"553.309"	"205.302"	"363.264"	"186.877"	"88.459"	"4.422"	"14.466"
"1914"	"0"	"34.275"	"19.075"	"37.614"	"141.218"	"160.352"	"483.578"	"362.357"	"117.246"	"34.264"	"0"	"12.123"
"1915"	"4.819"	"19.612"	"57.845"	"17.357"	"122.506"	"237.845"	"280.326"	"370.377"	"201.737"	"63.365"	"21.538"	"0"
"1916"	"0.479"	"6.586"	"6.27"	"37.025"	"53.576"	"394.755"	"286.863"	"350.47"	"307.173"	"313.552"	"16.383"	"0"
"1917"	"1.212"	"34.684"	"19.399"	"27.203"	"143.393"	"215.286"	"317.936"	"205.589"	"290.31"	"268.937"	"13.046"	"0"
"1918"	"1.914"	"0.466"	"17.005"	"64.802"	"142.772"	"307.353"	"142.664"	"516.421"	"195.337"	"17.635"	"0.293"	"4.682"
"1919"	"14.278"	"23.31"	"17.253"	"30.521"	"103.039"	"247.435"	"283.039"	"427.256"	"171.404"	"123.801"	"18.537"	"0"
"1920"	"0.124"	"28.281"	"90.492"	"12.696"	"62.248"	"120.045"	"443.336"	"324.15"	"338.234"	"38.439"	"0.178"	"0"
"1921"	"33.979"	"4.773"	"18.191"	"33.071"	"55.072"	"246.888"	"302.445"	"432.677"	"179.549"	"34.115"	"0"	"0"
"1922"	"7.355"	"3.433"	"0.313"	"18.49"	"44.679"	"477.411"	"300.637"	"361.686"	"283.124"	"61.889"	"0"	"5.398"
"1923"	"0.658"	"60.098"	"10.484"	"13.88"	"37.045"	"163.609"	"249.701"	"330.635"	"135.703"	"96.84"	"5.457"	"1.872"
"1924"	"5.708"	"11.437"	"0.607"	"26.781"	"48.371"	"267.547"	"352.267"	"388.877"	"245.394"	"78.227"	"40.571"	"0"
"1925"	"42.179"	"13.106"	"10.281"	"94.543"	"98.558"	"252.946"	"463.256"	"261.81"	"218.81"	"57.645"	"3.856"	"0"
"1926"	"26.539"	"5.089"	"96.594"	"26.564"	"124.14"	"104.671"	"461.781"	"374.044"	"200.312"	"69.631"	"0"	"8.897"
"1927"	"19.802"	"78.435"	"40.559"	"19.806"	"92.494"	"277.843"	"282.773"	"284.517"	"143.1"	"67.316"	"15.695"	"0"
"1928"	"37.344"	"2.162"	"2.546"	"27.827"	"135.777"	"432.203"	"447.714"	"241.575"	"238.945"	"116.353"	"0.462"	"0.655"
"1929"	"30.939"	"4.692"	"35.781"	"45.852"	"74.298"	"174.125"	"344.174"	"212.514"	"115.794"	"275.24"	"0.456"	"5.102"
"1930"	"1.952"	"15.596"	"12.851"	"16.48"	"88.114"	"189.414"	"404.435"	"306.764"	"149.121"	"69.65"	"31.934"	"3.955"
"1931"	"11.944"	"70.31"	"31.702"	"17.429"	"107.192"	"170.237"	"425.35"	"187.281"	"373.317"	"59.871"	"11.194"	"0.607"
"1932"	"0.791"	"38.885"	"12.174"	"31.187"	"162.042"	"105.925"	"325.416"	"294.778"	"229.702"	"52.408"	"37.801"	"3.375"
"1933"	"36.413"	"22.9"	"1.989"	"56.058"	"125.409"	"291.658"	"311.086"	"436.853"	"144.403"	"89.778"	"0"	"0"
"1934"	"9.576"	"29.819"	"1.928"	"61.697"	"71.825"	"221.068"	"255.09"	"327.724"	"252.979"	"103.065"	"8.085"	"3.239"
"1935"	"14.368"	"16.471"	"18.191"	"16.859"	"35.222"	"179.329"	"189.462"	"563.455"	"295.587"	"11.09"	"0.032"	"1.965"
"1936"	"8.081"	"13.133"	"18.671"	"9.572"	"180.28"	"248.28"	"298.559"	"226.525"	"437.831"	"103.918"	"0.168"	"19.086"
"1937"	"0"	"39.318"	"8.957"	"57.898"	"104.666"	"261.716"	"182.201"	"420.203"	"259.025"	"134.552"	"1.144"	"0.97"
"1938"	"7.032"	"23.735"	"15.777"	"6.637"	"200.179"	"295.205"	"182.855"	"302.176"	"130.697"	"55.664"	"3.653"	"0"
"1939"	"6.359"	"18.485"	"8.083"	"24.422"	"64.304"	"245.222"	"462.228"	"354.222"	"297.035"	"154.716"	"2.722"	"0.322"
"1940"	"0"	"27.886"	"96.379"	"7.723"	"102.747"	"147.44"	"252.653"	"324.219"	"200.496"	"58.23"	"0.151"	"1.642"
"1941"	"29.275"	"4.702"	"12.132"	"25.673"	"70.533"	"355.936"	"345.9"	"419.337"	"250.649"	"188.48"	"27.58"	"0.027"
"1942"	"2.792"	"49.495"	"10.091"	"18.19"	"29.739"	"132.429"	"397.359"	"514.607"	"408.738"	"81.872"	"2.962"	"0.323"
"1943"	"41.642"	"19.117"	"27.721"	"117.208"	"80.551"	"191.912"	"604.622"	"336.115"	"229.601"	"61.434"	"0"	"0"
"1944"	"23.135"	"41.992"	"61.221"	"43.155"	"75.813"	"187.187"	"354.88"	"481.245"	"150.945"	"58.376"	"0"	"0"
"1945"	"30.289"	"24.727"	"10.573"	"86.503"	"84.523"	"196.599"	"248.208"	"396.073"	"269.13"	"177.477"	"0"	"0.655"
"1946"	"0"	"5.788"	"23.626"	"43.536"	"114.431"	"187.315"	"299.701"	"288.684"	"245.633"	"207.684"	"19.559"	"0"
"1947"	"1.347"	"7.578"	"35.129"	"15.72"	"88.769"	"205.534"	"354.568"	"294.223"	"363.627"	"74.996"	"0.29"	"6.104"
"1948"	"6.129"	"10.811"	"25.547"	"103.079"	"107.174"	"192.293"	"284.298"	"341.397"	"139.92"	"148.176"	"27.766"	"0"
"1949"	"1.723"	"12.132"	"26.957"	"58.346"	"190.834"	"341.36"	"316.62"	"420.417"	"218.985"	"47.341"	"0"	"0"
"1950"	"0.026"	"16.332"	"56.209"	"15.709"	"61.203"	"389.257"	"255.591"	"366.653"	"146.353"	"91.256"	"21.79"	"0"
"1951"	"5.252"	"0.156"	"48.167"	"8.882"	"48.776"	"214.608"	"455.797"	"331.165"	"252.831"	"112.832"	"26.855"	"0"
"1952"	"0"	"8.234"	"40.249"	"79.816"	"49.028"	"247.971"	"333.982"	"312.859"	"251.868"	"126.388"	"33.799"	"0"
"1953"	"34.608"	"15.183"	"56.367"	"6.299"	"52.557"	"224.667"	"470.129"	"298.632"	"285.98"	"23.991"	"2.173"	"0"
"1954"	"23.231"	"8.152"	"0.779"	"6.761"	"73.379"	"325.041"	"307.841"	"338.935"	"247.279"	"81.842"	"0"	"7.339"
"1955"	"25.394"	"7.111"	"26.259"	"41.457"	"59.168"	"173.215"	"359.668"	"234.436"	"158.478"	"96.668"	"29.032"	"0.034"
"1956"	"12.162"	"33.512"	"46.197"	"61.175"	"116.078"	"338.9"	"252.88"	"396.84"	"283.869"	"157.882"	"23.72"	"5.969"
"1957"	"25.464"	"23.292"	"35.079"	"7.197"	"4.698"	"174.75"	"287.954"	"182.468"	"215.908"	"84.255"	"0"	"0.043"
"1958"	"8.215"	"38.642"	"11.162"	"30.82"	"41.738"	"95.096"	"295.125"	"502.15"	"193.21"	"113.656"	"4.627"	"0"
"1959"	"14.32"	"2.99"	"18.067"	"27.759"	"96.328"	"176.214"	"247.306"	"426.288"	"271.541"	"408.828"	"0"	"0.563"
"1960"	"0.548"	"0.156"	"48.814"	"0.582"	"67.342"	"115.605"	"356.327"	"251.987"	"236.089"	"69.75"	"2.894"	"0"
"1961"	"16.128"	"75.866"	"1.706"	"4.886"	"61.403"	"235.6"	"162.606"	"394.461"	"222.986"	"121.074"	"2.668"	"2.055"
"1962"	"11.071"	"18.662"	"3.141"	"11.415"	"91.36"	"172.67"	"253.327"	"441.788"	"149.273"	"95.727"	"0"	"1.268"
"1963"	"0.548"	"2.271"	"28.796"	"84.671"	"127.32"	"292.926"	"299.616"	"139.749"	"227.839"	"218.815"	"11.375"	"0.399"
"1964"	"1.686"	"2.421"	"16.598"	"86.643"	"86.388"	"183.906"	"338.329"	"229.203"	"155.826"	"161.531"	"6.03"	"0"
"1965"	"0.068"	"17.028"	"9.784"	"25.806"	"24.956"	"195.851"	"281.114"	"419.81"	"230.254"	"34.984"	"5.85"	"2.24"
"1966"	"32.084"	"0.87"	"1.763"	"21.704"	"26.794"	"183.567"	"144.363"	"325.764"	"135.433"	"67.278"	"29.412"	"20.146"
"1967"	"10.48"	"0.761"	"62.652"	"69.8"	"40.26"	"150.656"	"253.316"	"363.117"	"159.405"	"45.115"	"0"	"1.329"
"1968"	"9.715"	"4.79"	"19.029"	"18.588"	"37.561"	"380.658"	"364.189"	"320.191"	"110.242"	"128.281"	"13.183"	"1.805"
"1969"	"3.2"	"3.799"	"49.089"	"47.784"	"75.451"	"159.861"	"290.212"	"417.671"	"259.494"	"63.385"	"8.696"	"0"
"1970"	"21.46"	"10.622"	"24.084"	"8.371"	"53.693"	"218.28"	"354.896"	"253.999"	"363.961"	"195.646"	"7.925"	"0"
"1971"	"30.469"	"21.954"	"9.866"	"145.411"	"117.707"	"315.818"	"401.728"	"598.05"	"306.467"	"85.675"	"11.553"	"0"
"1972"	"5.471"	"40.974"	"3.759"	"22.572"	"33.885"	"103.294"	"176.182"	"411.052"	"165.846"	"58.566"	"0.405"	"0.01"
"1973"	"4.837"	"16.76"	"36.707"	"32.729"	"170.297"	"414.665"	"258.354"	"283.523"	"485.759"	"159.548"	"33.419"	"26.566"
"1974"	"1.843"	"0.156"	"88.243"	"40.548"	"116.455"	"127.263"	"363.687"	"215.992"	"314.508"	"88.119"	"3.371"	"1.475"
"1975"	"5.892"	"11.416"	"5.863"	"23.752"	"100.519"	"128.253"	"398.013"	"180.553"	"216.33"	"117.466"	"12.802"	"0"
"1976"	"0.053"	"18"	"10.581"	"28.363"	"136.458"	"116.988"	"400.241"	"292.529"	"260.887"	"40.432"	"1.8"	"0"
"1977"	"6.34"	"25.619"	"1.716"	"58.227"	"106.446"	"405.753"	"558.748"	"164.507"	"150.609"	"100.737"	"21.215"	"30.905"
"1978"	"1.08"	"42.953"	"60.862"	"67.804"	"144.732"	"297.461"	"323.419"	"301.57"	"426.558"	"128.896"	"23.425"	"1.656"
"1979"	"31.699"	"30.845"	"7.488"	"44.559"	"35.191"	"130.051"	"298.932"	"322.674"	"236.751"	"81.933"	"6.474"	"35.059"
"1980"	"18.347"	"31.103"	"68.681"	"10.178"	"112.641"	"280.372"	"271.393"	"276.286"	"134.992"	"102.883"	"5.305"	"0.01"
"1981"	"19.511"	"23.468"	"53.853"	"123.901"	"153.77"	"152.573"	"361.554"	"237.522"	"199.647"	"1.076"	"0.939"	"18.708"
"1982"	"0.331"	"12.175"	"29.436"	"87.612"	"30.676"	"119.61"	"177.826"	"289.976"	"152.408"	"30.737"	"10.793"	"0.122"
"1983"	"10.786"	"20.803"	"40.405"	"31.486"	"141.24"	"186.62"	"337.348"	"260.997"	"140.945"	"166.476"	"0.84"	"9.389"
"1984"	"24.941"	"12.17"	"7.063"	"53.347"	"95.545"	"534.8"	"364.303"	"322.199"	"350.255"	"68.419"	"0"	"0"
"1985"	"4.477"	"7.881"	"2.166"	"30.157"	"84.283"	"174.477"	"375.166"	"170.601"	"197.369"	"76.966"	"1.446"	"14.477"
"1986"	"8.585"	"2.988"	"0.462"	"64.399"	"123.883"	"185.176"	"322.834"	"225.904"	"445.184"	"129.633"	"36.238"	"5.533"
"1987"	"0.552"	"3.779"	"22.415"	"57.546"	"86.496"	"132.834"	"285.345"	"273.061"	"175.206"	"24.661"	"16.248"	"3.337"
"1988"	"3.404"	"33.249"	"27.537"	"23.727"	"85.024"	"245.251"	"282.155"	"396.785"	"134.214"	"66.565"	"36.342"	"2.953"
"1989"	"3.244"	"4.366"	"4.526"	"9.921"	"133.572"	"213.958"	"229.258"	"242.391"	"264.022"	"103.298"	"5.492"	"1.912"
"1990"	"0.026"	"22.4"	"36.185"	"38.92"	"241.437"	"284.427"	"493.198"	"256.311"	"284.132"	"248.087"	"9.296"	"0.7"
"1991"	"6.433"	"9.41"	"32.232"	"19.557"	"45.852"	"226.466"	"285.233"	"468.852"	"260.118"	"95.587"	"3.213"	"18.184"
"1992"	"10.321"	"7.61"	"5.335"	"23.849"	"94.925"	"184.627"	"368.62"	"227.501"	"172.239"	"38.736"	"0.914"	"0.309"
"1993"	"15.781"	"5.512"	"53.747"	"83.502"	"111.218"	"334.788"	"292.012"	"362.996"	"315.937"	"109.948"	"9.388"	"0"
"1994"	"23.546"	"32.204"	"45.976"	"63.166"	"93.595"	"169.431"	"285.37"	"357.456"	"126.739"	"142.193"	"11.635"	"0.282"
"1995"	"22.872"	"23.459"	"15.628"	"25.501"	"88.186"	"181.093"	"283.944"	"245.331"	"380.45"	"98.003"	"24.724"	"1.462"
"1996"	"7.092"	"14.409"	"8.894"	"50.49"	"71.704"	"168.926"	"175.163"	"437.367"	"133.702"	"128.857"	"0"	"0"
"1997"	"21.653"	"12.229"	"37.048"	"60.837"	"134.072"	"77.107"	"323.315"	"358.116"	"255.814"	"68.121"	"12.415"	"15.265"
"1998"	"15.908"	"45.327"	"27.704"	"43.499"	"110.471"	"153.228"	"214.699"	"255.09"	"234.392"	"289.109"	"25.486"	"0"
"1999"	"4.272"	"2.691"	"1.734"	"2.116"	"147.829"	"194.608"	"278.409"	"426.653"	"359.208"	"88.814"	"13.557"	"0.149"
"2000"	"5.737"	"31.289"	"5.985"	"55.917"	"141.133"	"215.97"	"166.709"	"273.874"	"192.319"	"39.079"	"5.545"	"1.673"
"2001"	"0.933"	"6.396"	"44.446"	"32.906"	"145.239"	"210.693"	"205.2"	"249.723"	"128.673"	"146.024"	"8.78"	"0"
"2002"	"19.621"	"7.114"	"14.802"	"67.159"	"67.056"	"207.4"	"245.985"	"327.075"	"194.218"	"88.798"	"13.638"	"0"
