
"Year"	"Jan"	"Feb"	"Mar"	"Apr"	"May"	"Jun"	"Jul"	"Aug"	"Sep"	"Oct"	"Nov"	"Dec"
"1901"	"12.537"	"14.946"	"22.065"	"27.345"	"31.508"	"34.958"	"32.321"	"30.366"	"29.924"	"27.542"	"20.99"	"15.49"
"1902"	"15.318"	"17.76"	"23.734"	"28.248"	"32.144"	"32.823"	"30.889"	"31.052"	"29.163"	"25.675"	"20.127"	"14.57"
"1903"	"13.797"	"15.598"	"20.317"	"26.767"	"31.541"	"34.954"	"32.82"	"30.124"	"30.14"	"26.045"	"19.9"	"14.718"
"1904"	"13.423"	"17.075"	"21.252"	"28.745"	"31.417"	"33.771"	"30.573"	"29.692"	"28.98"	"26.047"	"19.327"	"15.051"
"1905"	"11.76"	"11.956"	"17.981"	"25.048"	"32.754"	"34.479"	"31.815"	"30.965"	"30.45"	"26.654"	"21.118"	"15.11"
"1906"	"12.723"	"14.145"	"19.711"	"27.667"	"34.043"	"32.929"	"31.725"	"29.478"	"28.922"	"26.512"	"21.401"	"16.122"
"1907"	"15.717"	"13.853"	"18.182"	"25.01"	"30.343"	"33.42"	"32.766"	"29.688"	"30.641"	"27.164"	"20.626"	"14.537"
"1908"	"14.039"	"16.717"	"21.848"	"29.046"	"31.902"	"34.751"	"30.339"	"28.523"	"29.239"	"25.993"	"19.49"	"14.557"
"1909"	"13.021"	"15.161"	"22.383"	"26.216"	"31.845"	"31.827"	"29.791"	"29.41"	"29.088"	"26.666"	"21.107"	"14.741"
"1910"	"13.825"	"16.146"	"21.952"	"27.165"	"32.381"	"32.711"	"30.228"	"29.496"	"29.32"	"25.104"	"19.31"	"14.546"
"1911"	"14.707"	"16.799"	"19.374"	"27.569"	"33.526"	"33.149"	"32.891"	"31.263"	"29.208"	"26.349"	"18.165"	"14.545"
"1912"	"14.068"	"17.338"	"21.383"	"27.372"	"32.365"	"34.564"	"31.287"	"29.52"	"28.314"	"26.148"	"18.914"	"14.529"
"1913"	"14.495"	"15.427"	"19.221"	"28.844"	"30.322"	"31.201"	"30.507"	"30.568"	"30.379"	"26.683"	"19.419"	"14.039"
"1914"	"15.62"	"15.39"	"20.78"	"27.425"	"31.831"	"32.675"	"30.33"	"29.988"	"29.177"	"24.346"	"20.197"	"14.299"
"1915"	"14.03"	"14.753"	"21.618"	"27.911"	"34.218"	"33.519"	"32.758"	"30.988"	"30.274"	"27.73"	"20.701"	"15.367"
"1916"	"14.694"	"15.801"	"24.861"	"29.504"	"32.341"	"32.47"	"30.486"	"29.425"	"29.005"	"25.887"	"19.158"	"14.118"
"1917"	"14.12"	"16.55"	"21.25"	"24.582"	"27.879"	"32.177"	"29.858"	"29.125"	"27.634"	"24.634"	"18.611"	"14.667"
"1918"	"13.289"	"16.911"	"21.547"	"25.649"	"33.777"	"32.678"	"33.225"	"31.226"	"30.173"	"26.538"	"19.794"	"13.904"
"1919"	"13.615"	"15.473"	"22.027"	"26.686"	"31.088"	"34.975"	"30.347"	"29.501"	"29.242"	"25.945"	"19.49"	"14.028"
"1920"	"14.602"	"15.088"	"21.039"	"27.569"	"28.852"	"32.312"	"30.33"	"30.379"	"30.474"	"27.14"	"21.217"	"16.143"
"1921"	"14.383"	"17.473"	"24.986"	"30.822"	"35.32"	"34.012"	"32.269"	"29.467"	"28.636"	"25.057"	"19.928"	"16.093"
"1922"	"13.026"	"17.421"	"23.587"	"28.545"	"33.077"	"32.789"	"30.955"	"29.536"	"28.362"	"25.29"	"19.593"	"14.03"
"1923"	"13.954"	"14.971"	"22.411"	"28.986"	"31.765"	"35.426"	"30.935"	"28.94"	"29.185"	"25.111"	"19.731"	"14.825"
"1924"	"12.996"	"16.012"	"23.068"	"28.779"	"29.192"	"35.533"	"31.348"	"29.59"	"27.953"	"25.503"	"19.531"	"15.29"
"1925"	"11.996"	"14.849"	"22.357"	"29.841"	"32.054"	"30.796"	"29.254"	"29.809"	"29.732"	"25.875"	"18.562"	"14.705"
"1926"	"14.173"	"17.401"	"20.129"	"24.548"	"29.608"	"34.976"	"31.421"	"29.118"	"28.758"	"25.263"	"17.85"	"14.556"
"1927"	"12.745"	"14.145"	"20.687"	"26.944"	"30.668"	"33.588"	"30.378"	"28.854"	"29.081"	"25.714"	"19.504"	"15.789"
"1928"	"13.021"	"16.585"	"21.858"	"27.46"	"33.638"	"33.314"	"31.355"	"31.201"	"30.134"	"26.852"	"20.326"	"14.489"
"1929"	"13.596"	"15.119"	"23.901"	"28.706"	"33.279"	"33.354"	"30.753"	"29.174"	"30.133"	"25.86"	"20.352"	"13.168"
"1930"	"12.628"	"15.88"	"22.758"	"27.41"	"32.061"	"32.558"	"29.44"	"29.788"	"28.922"	"25.74"	"19.334"	"14.863"
"1931"	"15.124"	"14.211"	"20.952"	"29.221"	"32.051"	"34.554"	"31.181"	"30.086"	"28.563"	"25.51"	"19.229"	"15.324"
"1932"	"15.498"	"15.278"	"22.868"	"28.095"	"30.913"	"35.124"	"31.204"	"28.953"	"28.904"	"26.065"	"19.892"	"14.562"
"1933"	"12.147"	"16.615"	"21.817"	"26.05"	"29.056"	"32.477"	"29.555"	"28.231"	"27.867"	"25.034"	"19.321"	"15.623"
"1934"	"11.919"	"18.102"	"20.888"	"27.92"	"31.279"	"32.579"	"30.449"	"28.523"	"29.874"	"25.748"	"19.773"	"15"
"1935"	"11.816"	"16.558"	"21.665"	"24.608"	"32.69"	"34.859"	"30.404"	"29.127"	"28.738"	"25.666"	"20.113"	"14.396"
"1936"	"12.65"	"16.235"	"21.346"	"27.533"	"33.784"	"30.89"	"29.945"	"29.098"	"28.559"	"25.692"	"19.726"	"14.303"
"1937"	"13.062"	"16.013"	"20.309"	"25.866"	"31.717"	"33.554"	"30.218"	"30.889"	"29.382"	"25.227"	"19.13"	"13.923"
"1938"	"13.044"	"14.752"	"23.048"	"28.946"	"33.984"	"32.178"	"31.222"	"30.411"	"30.485"	"27.04"	"18.311"	"15.148"
"1939"	"14.424"	"16.304"	"19.225"	"26.648"	"33.84"	"31.764"	"30.755"	"30.848"	"29.524"	"26.747"	"19.763"	"15.533"
"1940"	"13.923"	"15.715"	"19.83"	"26.612"	"33.02"	"34.017"	"31.276"	"28.791"	"28.884"	"25.97"	"20.492"	"14.458"
"1941"	"12.73"	"17.214"	"24.248"	"30.942"	"33.655"	"32.092"	"32.669"	"30.278"	"29.582"	"27.89"	"20.032"	"16.351"
"1942"	"12.531"	"17.21"	"23.705"	"29.498"	"32.848"	"34.744"	"29.657"	"28.474"	"27.919"	"25.988"	"20.755"	"13.976"
"1943"	"13.42"	"16.889"	"22.552"	"26.414"	"31.917"	"33.224"	"30.057"	"28.598"	"29.622"	"25.97"	"20.896"	"16.017"
"1944"	"12.658"	"15.539"	"20.493"	"26.896"	"33.873"	"32.768"	"30.111"	"29.754"	"28.908"	"25.648"	"20.296"	"15.878"
"1945"	"11.668"	"15.379"	"22.525"	"26.485"	"31.804"	"34.445"	"30.62"	"29.937"	"28.378"	"25.196"	"20.06"	"13.723"
"1946"	"15.087"	"18.327"	"21.353"	"29.134"	"31.951"	"33.152"	"30.313"	"29.729"	"29.567"	"26.032"	"19.735"	"14.25"
"1947"	"12.987"	"16.712"	"22.625"	"29.623"	"33.038"	"35.796"	"32.011"	"30.297"	"28.783"	"25.076"	"20.799"	"15.092"
"1948"	"13.424"	"15.552"	"20.434"	"30.769"	"33.617"	"34.697"	"30.954"	"28.616"	"29.023"	"26.394"	"18.98"	"14.469"
"1949"	"15.772"	"16.287"	"22.352"	"29.389"	"33.238"	"34.254"	"30.184"	"29.735"	"30.041"	"26.138"	"18.859"	"14.056"
"1950"	"14.993"	"14.71"	"20.725"	"27.448"	"33.041"	"34.003"	"30.441"	"29.506"	"28.133"	"25.316"	"19.539"	"13.528"
"1951"	"12.992"	"16.609"	"22.069"	"25.754"	"31.949"	"33.698"	"32.557"	"30.384"	"29.789"	"28.305"	"21.352"	"15.829"
"1952"	"15.159"	"18.711"	"21.51"	"30.436"	"32.755"	"32.978"	"31.139"	"29.083"	"30.38"	"26.49"	"20.527"	"15.682"
"1953"	"13.189"	"19.09"	"25.761"	"29.088"	"33.161"	"34.229"	"30.554"	"29.408"	"29.449"	"26.354"	"20.279"	"17.456"
"1954"	"12.992"	"17.194"	"22.428"	"29.185"	"33.649"	"34.058"	"31.156"	"30.655"	"29.942"	"23.974"	"19.939"	"15.03"
"1955"	"13.692"	"17.383"	"24.408"	"26.353"	"30.499"	"34.661"	"31.44"	"28.995"	"28.705"	"24.67"	"19.729"	"14.99"
"1956"	"13.896"	"17.629"	"22.296"	"29.309"	"34.066"	"33.521"	"29.996"	"29.245"	"30.048"	"24.87"	"19.198"	"14.93"
"1957"	"13.094"	"15.516"	"20.843"	"26.675"	"30.924"	"33.156"	"31.094"	"29.996"	"28.011"	"26.047"	"20.659"	"15.388"
"1958"	"15.486"	"16.025"	"23.232"	"30.36"	"32.194"	"34.663"	"30.158"	"29.531"	"29.044"	"25.986"	"20.614"	"16.191"
"1959"	"14.047"	"15.878"	"23.223"	"28.423"	"31.699"	"34.438"	"30.599"	"29.954"	"29.529"	"26.713"	"20.223"	"16.062"
"1960"	"13.486"	"20.021"	"21.291"	"27.037"	"32.813"	"34.61"	"30.811"	"29.42"	"29.899"	"25.7"	"19.459"	"16.279"
"1961"	"14.515"	"14.678"	"22.933"	"28.101"	"32.426"	"33.523"	"31.04"	"29.495"	"29.773"	"25.189"	"18.292"	"12.781"
"1962"	"12.72"	"17.005"	"22.028"	"29.139"	"32.615"	"33.958"	"31.652"	"30.18"	"28.055"	"26.169"	"19.918"	"14.553"
"1963"	"13.561"	"18.478"	"21.825"	"27.443"	"30.978"	"33.208"	"31.818"	"28.984"	"28.303"	"26.436"	"20.569"	"14.852"
"1964"	"12.429"	"16.278"	"23.276"	"28.642"	"30.287"	"34.239"	"29.311"	"29.848"	"28.228"	"25.925"	"19.152"	"14.852"
"1965"	"15.45"	"16.136"	"21.356"	"26.077"	"31.273"	"35.026"	"30.746"	"29.448"	"28.973"	"25.893"	"20.501"	"14.083"
"1966"	"14.348"	"18.471"	"22.373"	"28.838"	"32.721"	"33.133"	"31.886"	"29.688"	"28.892"	"25.936"	"19.756"	"14.621"
"1967"	"13.283"	"18.913"	"21.135"	"27.428"	"31.977"	"34.506"	"30.735"	"28.991"	"28.81"	"25.235"	"19.195"	"14.815"
"1968"	"12.923"	"15.038"	"22.054"	"27.863"	"32.269"	"33.567"	"30.524"	"29.732"	"30.475"	"25.343"	"20.156"	"15.324"
"1969"	"13.892"	"17.651"	"24.914"	"28.508"	"30.956"	"34.455"	"30.855"	"30.191"	"28.717"	"26.674"	"21.193"	"15.722"
"1970"	"14.258"	"16.283"	"21.927"	"29.549"	"33.143"	"31.567"	"31.676"	"29.661"	"29.482"	"26.572"	"19.892"	"15.729"
"1971"	"13.295"	"17.275"	"22.198"	"28.707"	"30.094"	"31.671"	"30.031"	"28.332"	"28.569"	"25.87"	"19.956"	"16.021"
"1972"	"14.519"	"14.813"	"23.184"	"27.333"	"33.512"	"35.04"	"31.735"	"29.5"	"28.346"	"25.414"	"20.732"	"15.773"
"1973"	"14.225"	"18.508"	"21.872"	"30.041"	"32.734"	"33.629"	"30.912"	"29.458"	"29.386"	"25.519"	"19.963"	"13.669"
"1974"	"13.849"	"15.254"	"23.365"	"30.1"	"31.881"	"32.967"	"30.108"	"30.085"	"29.913"	"26.069"	"20.006"	"14.129"
"1975"	"13.479"	"16.044"	"21.75"	"29.288"	"33.441"	"32.156"	"29.979"	"29.459"	"27.727"	"26.872"	"19.046"	"15.723"
"1976"	"14.769"	"16.768"	"21.635"	"27.301"	"31.584"	"31.614"	"30.958"	"28.67"	"28.755"	"26.379"	"20.835"	"14.883"
"1977"	"13.799"	"16.561"	"23.388"	"27.347"	"29.776"	"31.722"	"29.448"	"29.6"	"27.886"	"26.216"	"21.774"	"16.593"
"1978"	"13.378"	"15.185"	"19.843"	"27.379"	"34.162"	"32.903"	"29.563"	"29.153"	"28.379"	"26.124"	"20.609"	"15.646"
"1979"	"14.941"	"15.483"	"20.259"	"29.166"	"31.185"	"33.359"	"30.483"	"30.486"	"28.918"	"27.021"	"21.987"	"16.339"
"1980"	"14.313"	"17.55"	"21.284"	"30.421"	"34.774"	"32.397"	"29.517"	"29.773"	"28.785"	"26.418"	"20.176"	"15.632"
"1981"	"13.703"	"17.328"	"21.196"	"28.546"	"31.939"	"33.738"	"29.622"	"29.622"	"29.638"	"25.894"	"19.775"	"15.093"
"1982"	"14.729"	"15.68"	"19.239"	"26.278"	"28.839"	"33.215"	"31.808"	"29.254"	"29.641"	"26.187"	"20.701"	"16.188"
"1983"	"13.304"	"15.496"	"21.124"	"25.153"	"30.047"	"32.364"	"30.81"	"29.28"	"29.266"	"25.208"	"19.645"	"15.363"
"1984"	"12.724"	"14.944"	"23.859"	"28.491"	"34.627"	"33.462"	"29.919"	"29.52"	"28.128"	"25.567"	"19.864"	"15.519"
"1985"	"14.098"	"17.294"	"24.315"	"28.942"	"32.555"	"33.655"	"29.624"	"29.515"	"28.595"	"24.766"	"20.057"	"16.369"
"1986"	"13.961"	"16.182"	"21.692"	"27.974"	"29.839"	"32.768"	"29.851"	"29.837"	"28.81"	"25.153"	"21.137"	"14.53"
"1987"	"14.72"	"18.185"	"22.861"	"28.987"	"29.171"	"34.157"	"33.397"	"30.888"	"30.678"	"27.337"	"21.22"	"16.374"
"1988"	"15.94"	"18.273"	"22.351"	"29.915"	"34.043"	"32.629"	"29.783"	"28.818"	"29.16"	"26.226"	"20.753"	"15.992"
"1989"	"13.221"	"16.219"	"21.852"	"27.004"	"32.188"	"31.985"	"31.165"	"28.849"	"28.908"	"26.301"	"20.343"	"14.965"
"1990"	"16.509"	"16.579"	"20.262"	"27.624"	"31.318"	"33.887"	"29.655"	"29.41"	"28.278"	"24.95"	"20.758"	"15.638"
"1991"	"13.149"	"17.345"	"21.975"	"26.802"	"32.378"	"32.16"	"32.233"	"29.22"	"29.054"	"25.241"	"19.385"	"15.493"
"1992"	"14.523"	"15.518"	"21.936"	"27.876"	"31.123"	"33.636"	"29.949"	"28.899"	"28.396"	"25.629"	"19.927"	"16.392"
"1993"	"14.061"	"18.378"	"20.295"	"27.764"	"33.049"	"33.154"	"30.309"	"30.477"	"27.775"	"25.519"	"20.957"	"15.569"
"1994"	"14.94"	"16.632"	"23.587"	"26.464"	"32.719"	"33.949"	"30.007"	"29.223"	"28.571"	"25.319"	"20.292"	"16.126"
"1995"	"13.666"	"16.882"	"20.971"	"27.477"	"33.698"	"34.993"	"30.705"	"27.809"	"28.869"	"26.501"	"20.527"	"15.803"
"1996"	"14.244"	"17.132"	"22.892"	"28.464"	"31.849"	"31.595"	"30.132"	"27.964"	"28.375"	"25.444"	"19.569"	"14.447"
"1997"	"13.408"	"16.455"	"21.688"	"26.719"	"30.255"	"31.232"	"31.169"	"29.228"	"29.201"	"23.539"	"19.496"	"13.326"
"1998"	"11.641"	"17.135"	"20.227"	"28.484"	"33.28"	"33.634"	"30.551"	"29.459"	"29.369"	"25.97"	"21.344"	"16.355"
"1999"	"13.553"	"18.603"	"24.181"	"31.6"	"33.071"	"32.361"	"31.584"	"30.506"	"29.474"	"26.469"	"21.72"	"16.218"
"2000"	"14.649"	"15.427"	"21.63"	"30.34"	"33.388"	"31.764"	"29.98"	"29.959"	"29.589"	"27.1"	"21.851"	"16.617"
"2001"	"13.749"	"17.513"	"22.757"	"28.01"	"32.36"	"31.264"	"30.886"	"30.755"	"30.167"	"27.369"	"21.821"	"16.685"
"2002"	"15.107"	"16.905"	"22.577"	"29.992"	"33.98"	"33.272"	"32.416"	"30.42"	"27.705"	"26.459"	"21.043"	"16.131"
