
"Year"	"Jan"	"Feb"	"Mar"	"Apr"	"May"	"Jun"	"Jul"	"Aug"	"Sep"	"Oct"	"Nov"	"Dec"
"1901"	"19.798"	"12.428"	"15.383"	"56.346"	"233.47"	"396.604"	"438.361"	"299.57"	"326.773"	"252.468"	"149.739"	"15.129"
"1902"	"14.659"	"2.899"	"28.463"	"102.096"	"233.234"	"667.441"	"975.085"	"268.835"	"123.726"	"334.122"	"76.493"	"77.236"
"1903"	"0.337"	"0.323"	"0.179"	"17.544"	"299.842"	"770.423"	"639.864"	"590.457"	"305.038"	"304.096"	"322.155"	"36.521"
"1904"	"2.304"	"0"	"1.889"	"73.728"	"318.967"	"573.153"	"738.687"	"152.345"	"146.144"	"132.113"	"6.543"	"1.437"
"1905"	"0.374"	"5.329"	"11.197"	"49.091"	"233.904"	"643.054"	"655.962"	"388.894"	"65.918"	"220.051"	"43.485"	"0.549"
"1906"	"15.123"	"2.529"	"36.422"	"17.948"	"119.921"	"535.908"	"711.603"	"1251.689"	"146.92"	"195.94"	"38.862"	"57"
"1907"	"8.392"	"0"	"57.4"	"113.544"	"158.984"	"694.368"	"1357.862"	"455.728"	"120.923"	"115.495"	"141.52"	"21.195"
"1908"	"22.765"	"6.931"	"26.466"	"69.246"	"253"	"267.355"	"574.282"	"314.551"	"105.87"	"201.126"	"8.265"	"0.713"
"1909"	"15.978"	"2.683"	"1.888"	"139.11"	"398.884"	"703.086"	"493.703"	"995.56"	"113.575"	"190.384"	"66.067"	"14.962"
"1910"	"0"	"4.758"	"6.181"	"58.254"	"108.331"	"317.455"	"1225.25"	"960.822"	"128.763"	"333.274"	"99.996"	"0.295"
"1911"	"0.649"	"0.704"	"49.169"	"38.482"	"221.614"	"1297.017"	"1465.131"	"227.652"	"84.211"	"206.986"	"106.191"	"25.003"
"1912"	"2.742"	"1.678"	"23.625"	"62.11"	"108.332"	"541.235"	"769.072"	"321.321"	"242.043"	"223.36"	"123.374"	"0.329"
"1913"	"0"	"0"	"0.511"	"42.766"	"158.111"	"611.216"	"979.49"	"274.964"	"262.632"	"137.067"	"37.054"	"14.881"
"1914"	"0.425"	"0"	"3.525"	"42.863"	"151.425"	"270.309"	"879.71"	"430.745"	"177.445"	"228.705"	"174.296"	"12.3"
"1915"	"5.613"	"4.714"	"47.18"	"55.473"	"94.08"	"1629.519"	"758.342"	"458.352"	"297.965"	"139.583"	"203.026"	"12.054"
"1916"	"0"	"0.45"	"0.179"	"32.673"	"276.882"	"767.867"	"1068.421"	"1299.785"	"170.953"	"287.062"	"245.085"	"24.556"
"1917"	"1.061"	"25.18"	"7.6"	"43.797"	"81.46"	"517.886"	"167.651"	"662.028"	"267.717"	"184.083"	"142.062"	"4.55"
"1918"	"11.932"	"0.554"	"42.798"	"78.34"	"286.472"	"187.773"	"72.43"	"443.371"	"103.063"	"126.205"	"371.847"	"13.33"
"1919"	"8.729"	"0"	"30.097"	"58.516"	"167.331"	"464.518"	"488.999"	"353.324"	"333.448"	"130.745"	"289.853"	"14.614"
"1920"	"8.331"	"4.732"	"18.232"	"89.751"	"106.032"	"737.545"	"395.32"	"345.647"	"164.436"	"174.946"	"186.879"	"0.295"
"1921"	"15.209"	"0"	"1.383"	"158.332"	"155.085"	"456.391"	"831.047"	"661.455"	"87.217"	"193.772"	"110.005"	"1.721"
"1922"	"15.435"	"0.787"	"1.936"	"36.694"	"205.906"	"633.772"	"627.562"	"374.001"	"84.721"	"271.512"	"161.112"	"17.868"
"1923"	"6.594"	"0.003"	"64.986"	"62.326"	"141.031"	"497.363"	"825.026"	"679.751"	"140.529"	"79.33"	"50.989"	"4.905"
"1924"	"1.789"	"1.702"	"31.282"	"82.674"	"145.713"	"982.981"	"1271.786"	"397.208"	"178.099"	"110.746"	"111.77"	"16.873"
"1925"	"5.021"	"2.263"	"32.515"	"81.037"	"127.914"	"496.968"	"502.106"	"489.611"	"214.445"	"73.678"	"198.852"	"69.64"
"1926"	"20.419"	"0.195"	"37.766"	"29.715"	"90.694"	"284.781"	"944.952"	"436.097"	"242.442"	"156.413"	"55.365"	"10.103"
"1927"	"0.033"	"5.359"	"51.192"	"31.857"	"115.899"	"525.182"	"844.207"	"343.266"	"175.21"	"53.691"	"116.595"	"3.337"
"1928"	"2.266"	"27.098"	"67.092"	"56.127"	"121.391"	"421.549"	"563.397"	"335.407"	"38.783"	"261.169"	"102.07"	"16.605"
"1929"	"2.025"	"19.134"	"0.179"	"216.072"	"90.792"	"555.413"	"375.864"	"247.1"	"253.595"	"148.63"	"62.154"	"24.019"
"1930"	"3.168"	"3.582"	"18.665"	"49.995"	"288.482"	"503.661"	"214.288"	"257.423"	"173.576"	"356.143"	"151.4"	"33.177"
"1931"	"0.155"	"0"	"5.957"	"69.897"	"179.406"	"154.306"	"649.349"	"352.051"	"212.826"	"67.65"	"156.126"	"50.982"
"1932"	"0"	"18.511"	"10.629"	"71.405"	"345.188"	"271.795"	"729.369"	"943.773"	"116.567"	"271.274"	"170.838"	"1.892"
"1933"	"0.995"	"0.766"	"28.631"	"102.37"	"328.22"	"310.978"	"1452.443"	"1126.829"	"194.904"	"231.213"	"27.11"	"47.636"
"1934"	"15.963"	"5.023"	"3.712"	"91.692"	"141.536"	"701.062"	"592.976"	"402.261"	"51.995"	"248.387"	"85.491"	"3.733"
"1935"	"21.898"	"2.498"	"15.804"	"43.365"	"101.92"	"550.947"	"374.86"	"715.967"	"78.408"	"291.153"	"14.588"	"17.117"
"1936"	"0"	"16.036"	"57.5"	"15.139"	"317.597"	"619.641"	"888.953"	"347.929"	"202.091"	"105.709"	"129.842"	"2.219"
"1937"	"0.295"	"10.895"	"42.333"	"152.819"	"128.349"	"389.192"	"749.036"	"486.573"	"153.596"	"189.686"	"110.654"	"18.743"
"1938"	"0"	"4.041"	"25.941"	"86.398"	"53.475"	"382.451"	"581.815"	"862.274"	"223.828"	"59.029"	"22.2"	"16.289"
"1939"	"8.877"	"0.05"	"28.964"	"138.779"	"128.664"	"254.871"	"365.751"	"553.186"	"104.133"	"327.791"	"124.811"	"0.295"
"1940"	"0"	"0"	"1.853"	"102.397"	"252.669"	"760.432"	"609.529"	"289.653"	"102.859"	"156.305"	"370.421"	"40.49"
"1941"	"3.666"	"0"	"0.949"	"89.273"	"236.418"	"462.876"	"532.797"	"656.961"	"153.435"	"137.793"	"94.72"	"75.209"
"1942"	"0"	"0.625"	"3.03"	"73.365"	"284.739"	"519.345"	"660.836"	"656.958"	"154.832"	"266.733"	"93.169"	"39.464"
"1943"	"19.117"	"6.794"	"2.227"	"83.233"	"257.964"	"396.102"	"936.429"	"85.978"	"257.454"	"358.212"	"177.996"	"2.055"
"1944"	"6.775"	"24.311"	"44.45"	"42.753"	"149.673"	"349.904"	"657.567"	"343.442"	"254.105"	"205.799"	"210.821"	"22.527"
"1945"	"0.033"	"0.704"	"0.179"	"127.78"	"160.269"	"294.551"	"1405.738"	"452.646"	"72.946"	"192.468"	"114.15"	"0.342"
"1946"	"1.412"	"2.39"	"76.711"	"122.75"	"121.784"	"538.509"	"471.688"	"698.111"	"179.229"	"168.283"	"224.076"	"93.818"
"1947"	"5.516"	"0"	"23.853"	"86.097"	"119.81"	"833.193"	"386.143"	"378.885"	"237.814"	"217.236"	"35.765"	"19.626"
"1948"	"12.134"	"0.133"	"12.348"	"85.214"	"174.134"	"520.807"	"408.019"	"738.771"	"120.364"	"111.466"	"141.915"	"8.32"
"1949"	"0.052"	"0.592"	"0.949"	"66.064"	"215.927"	"333.733"	"981.967"	"632.951"	"97.168"	"224.663"	"11.681"	"0.295"
"1950"	"1.473"	"11.852"	"3.445"	"7.181"	"188.86"	"268.072"	"809.002"	"686.529"	"174.401"	"185.369"	"149.231"	"4.401"
"1951"	"0.856"	"0.05"	"15.86"	"129.299"	"200.03"	"407.991"	"914.872"	"245.107"	"292.588"	"108.41"	"130.488"	"0.981"
"1952"	"0.463"	"14.556"	"2.825"	"68.457"	"106.965"	"381.785"	"676.699"	"420.52"	"133.444"	"171.175"	"2.743"	"114.25"
"1953"	"0.21"	"5.215"	"1.401"	"134.011"	"156.517"	"780.914"	"1101.894"	"355.835"	"158.307"	"331.507"	"15.738"	"0.427"
"1954"	"5.679"	"0.968"	"35.654"	"103.799"	"306.387"	"464.063"	"1673.28"	"419.284"	"95.602"	"313.14"	"30.471"	"45.043"
"1955"	"2.463"	"2.271"	"5.474"	"109.107"	"324.565"	"403.289"	"497.976"	"262.558"	"261.87"	"319.591"	"121.01"	"10.635"
"1956"	"2.29"	"1.887"	"0.312"	"81.09"	"44.477"	"868.038"	"509.66"	"169.54"	"101.426"	"366.638"	"216.915"	"3.271"
"1957"	"0"	"1.762"	"34.898"	"57.347"	"397.166"	"603.557"	"606.807"	"205.299"	"34.895"	"307.503"	"161.008"	"6.519"
"1958"	"5.861"	"1.939"	"17.732"	"121.039"	"363.8"	"437.657"	"627.469"	"561.601"	"116.496"	"193.862"	"173.802"	"2.884"
"1959"	"0"	"3.504"	"0.179"	"38.236"	"283.349"	"1395.69"	"811.409"	"265.485"	"278.77"	"182.679"	"124.387"	"13.092"
"1960"	"1.058"	"0.704"	"18.961"	"72.217"	"224.864"	"118.647"	"1029.887"	"248.38"	"259.532"	"190.55"	"167.927"	"2.004"
"1961"	"3.851"	"3.538"	"2.283"	"98.145"	"350.952"	"1334.851"	"1766.546"	"497.694"	"81.912"	"327.374"	"45.297"	"18.115"
"1962"	"6.34"	"13.453"	"18.138"	"121.432"	"246.356"	"293.185"	"929.564"	"546.307"	"156.012"	"374.251"	"21.398"	"61.077"
"1963"	"6.927"	"2.703"	"12.115"	"104.323"	"161.324"	"212.842"	"592.784"	"548.931"	"168.47"	"327.313"	"73.992"	"61.795"
"1964"	"0"	"0"	"4.499"	"52.336"	"219.593"	"836.016"	"1390.285"	"935.429"	"238.539"	"273.369"	"238.863"	"6.291"
"1965"	"0.497"	"0"	"2.214"	"43.395"	"138.325"	"252.125"	"310.461"	"754.207"	"125.544"	"60.108"	"50.078"	"49.881"
"1966"	"9.243"	"0"	"12.72"	"52.775"	"174.59"	"319.889"	"692.165"	"214.139"	"277.099"	"222.308"	"227.99"	"27.421"
"1967"	"12.416"	"0"	"3.996"	"22.854"	"124.172"	"1006.029"	"1007.138"	"218.907"	"37.409"	"83.753"	"52.46"	"39.575"
"1968"	"0.01"	"14.988"	"18.301"	"73.172"	"143.223"	"384.654"	"404.691"	"335.434"	"283.329"	"125.561"	"48.515"	"13.525"
"1969"	"0"	"1.957"	"2.598"	"51.836"	"153.208"	"266.886"	"561.914"	"753.317"	"96.333"	"184.085"	"132.885"	"44.712"
"1970"	"6.127"	"13.123"	"30.841"	"56.213"	"233.593"	"285.273"	"446.999"	"403.686"	"104.626"	"350.785"	"102.287"	"2.01"
"1971"	"0.357"	"0.353"	"14.922"	"40.372"	"168.14"	"411.022"	"284.762"	"851.079"	"353.196"	"175.058"	"36.081"	"26.871"
"1972"	"0.155"	"0.822"	"0.179"	"38.621"	"352.787"	"807.812"	"662.214"	"160.99"	"373.767"	"177.957"	"78.652"	"100.057"
"1973"	"0"	"0"	"0.179"	"84.116"	"195.968"	"450.392"	"804.38"	"440.454"	"135.991"	"200.6"	"76.589"	"26.308"
"1974"	"0"	"0"	"1.128"	"56.792"	"169.924"	"186.203"	"796.68"	"234.308"	"322.666"	"135.481"	"20.449"	"0.495"
"1975"	"0.202"	"1.289"	"45.489"	"22.541"	"179.679"	"884.779"	"1139.541"	"642.885"	"271.55"	"153.635"	"84.982"	"2.651"
"1976"	"0"	"0"	"5.16"	"137.486"	"120.396"	"144.04"	"454.944"	"410.399"	"130.735"	"108.573"	"167.118"	"2.83"
"1977"	"0"	"4.449"	"39.038"	"100.085"	"236.87"	"646.872"	"471.147"	"448.198"	"290.265"	"399.794"	"188.151"	"0.295"
"1978"	"4.026"	"4.99"	"1.069"	"49.268"	"190.817"	"593.051"	"875.903"	"317.351"	"102.278"	"134.032"	"192.459"	"39.335"
"1979"	"0"	"17.204"	"25.44"	"69.899"	"165.631"	"772.009"	"493.124"	"449.924"	"308.922"	"172.074"	"241.099"	"0.342"
"1980"	"0.033"	"0"	"17.18"	"74.327"	"165.691"	"590.504"	"830.508"	"286.435"	"290.907"	"165.937"	"113.549"	"9.115"
"1981"	"1.02"	"0"	"82.21"	"53.56"	"226.777"	"415.565"	"603.102"	"607.917"	"319.543"	"146.442"	"65.438"	"18.045"
"1982"	"0"	"0"	"0.526"	"71.488"	"144.775"	"645.807"	"413.491"	"425.779"	"120.039"	"150.958"	"94.123"	"6.259"
"1983"	"0.084"	"0"	"0.179"	"6.459"	"208.788"	"914.664"	"625.858"	"580.02"	"175.162"	"170.806"	"83.408"	"87.489"
"1984"	"1.688"	"17.553"	"103.401"	"83.509"	"111.338"	"387.65"	"723.965"	"158.57"	"290.409"	"228.779"	"21.75"	"39.465"
"1985"	"2.883"	"0"	"28.399"	"30.013"	"139.58"	"584.855"	"467.545"	"317.173"	"136.19"	"147.477"	"134.707"	"6.989"
"1986"	"17.499"	"8.611"	"4.224"	"13.156"	"131.476"	"789.894"	"407.083"	"415.926"	"375.247"	"150.636"	"145.479"	"12.821"
"1987"	"0"	"0.024"	"17.802"	"59.875"	"103.426"	"546.808"	"350.963"	"479.981"	"107.143"	"252.423"	"43.748"	"67.212"
"1988"	"0"	"0.007"	"7.774"	"127.463"	"261.94"	"406.974"	"1114.336"	"667.601"	"367.159"	"33.674"	"58.498"	"22.288"
"1989"	"0.084"	"0"	"8.705"	"37.526"	"136.823"	"681.82"	"896.366"	"271.039"	"214.544"	"263.257"	"25.472"	"3.11"
"1990"	"0.602"	"0.009"	"2.153"	"28.216"	"380.931"	"399.931"	"477.004"	"323.472"	"87.033"	"200.108"	"85.022"	"6.303"
"1991"	"0"	"0.011"	"3.805"	"66.602"	"174.852"	"1049"	"655.514"	"429.315"	"78.704"	"265.052"	"41.599"	"0.295"
"1992"	"0.007"	"0"	"0.179"	"50.057"	"170.923"	"917.423"	"981.761"	"440.745"	"178.934"	"248.564"	"144.025"	"0.349"
"1993"	"0"	"0"	"24.321"	"36.708"	"140.812"	"723.666"	"660.818"	"373.412"	"131.423"	"245.549"	"87.615"	"69.099"
"1994"	"0.007"	"0.096"	"10.219"	"81.712"	"90.507"	"532.761"	"994.488"	"336.56"	"106.745"	"294.162"	"52.327"	"9.678"
"1995"	"12.77"	"0"	"11.669"	"53.538"	"209.605"	"560.254"	"658.913"	"609.995"	"212.723"	"181.341"	"31.485"	"0.295"
"1996"	"0.043"	"0.033"	"22.236"	"88.882"	"110.451"	"1016.329"	"547.962"	"684.648"	"250.213"	"233.674"	"11.362"	"42.163"
"1997"	"4.447"	"0"	"27.137"	"53.342"	"88.493"	"626.549"	"692.302"	"613.973"	"203.239"	"312.206"	"224.01"	"38.978"
"1998"	"0"	"4.663"	"6.072"	"77.015"	"199.529"	"590.919"	"1152.933"	"842.457"	"302.905"	"293.692"	"65.635"	"59.938"
"1999"	"0"	"7.755"	"14.739"	"80.783"	"327.006"	"511.959"	"694.406"	"278.577"	"87.448"	"307.062"	"67.076"	"3.787"
"2000"	"0"	"6.083"	"0.261"	"86.088"	"93.234"	"524.761"	"583.767"	"685.314"	"155.105"	"303.512"	"68.79"	"44.43"
"2001"	"0.007"	"2.354"	"1.379"	"167.369"	"168.505"	"317.621"	"747.705"	"337.124"	"176.636"	"205.579"	"56.452"	"6.358"
"2002"	"0"	"0.131"	"2.591"	"19.686"	"309.725"	"807.456"	"304.932"	"294.114"	"88.757"	"332.166"	"79.987"	"2.833"
