
"Year"	"Jan"	"Feb"	"Mar"	"Apr"	"May"	"Jun"	"Jul"	"Aug"	"Sep"	"Oct"	"Nov"	"Dec"
"1901"	"15.197"	"18.873"	"24.247"	"30.866"	"32.961"	"34.106"	"30.258"	"28.973"	"28.507"	"27.049"	"21.286"	"16.628"
"1902"	"17.135"	"19.174"	"26.439"	"29.919"	"33.313"	"33.735"	"29.62"	"29.735"	"28.671"	"25.976"	"20.788"	"16.031"
"1903"	"16.597"	"18.375"	"24.477"	"31.055"	"34.196"	"32.97"	"30.916"	"29.397"	"29.095"	"26.274"	"20.287"	"15.828"
"1904"	"16.298"	"18.773"	"25.112"	"31.892"	"32.286"	"31.679"	"28.793"	"28.71"	"28.671"	"26.113"	"20.389"	"17.134"
"1905"	"15.24"	"15.381"	"22.641"	"27.855"	"32.073"	"35.036"	"29.555"	"28.799"	"28.433"	"26.148"	"21.09"	"16.633"
"1906"	"15.836"	"18.661"	"22.9"	"31.227"	"34.248"	"33.146"	"29.857"	"28.936"	"29.133"	"26.213"	"21.351"	"17.131"
"1907"	"17.173"	"18.174"	"22.401"	"28.191"	"32.398"	"32.656"	"30.285"	"29.27"	"29.072"	"26.612"	"20.95"	"16.066"
"1908"	"14.577"	"18.901"	"24.846"	"33.026"	"34.086"	"33.531"	"29.76"	"29.532"	"29.135"	"26.426"	"20.487"	"15.73"
"1909"	"17.501"	"18.876"	"25.619"	"28.691"	"33.822"	"31.052"	"29.43"	"28.794"	"28.97"	"26.244"	"21.351"	"17.254"
"1910"	"15.637"	"18.798"	"25.072"	"31.094"	"33.323"	"31.818"	"29.42"	"29.132"	"29.033"	"26.175"	"20.452"	"16.153"
"1911"	"18.167"	"18.238"	"23.475"	"30.592"	"34.384"	"31.415"	"30.922"	"28.67"	"28.433"	"26.175"	"20.798"	"15.654"
"1912"	"16.461"	"19.939"	"24.674"	"29.544"	"32.751"	"33.51"	"29.621"	"29.033"	"28.671"	"26.274"	"20.253"	"15.931"
"1913"	"16.099"	"18.839"	"22.912"	"31.866"	"32.022"	"30.114"	"29.694"	"28.733"	"28.967"	"25.774"	"19.992"	"16.093"
"1914"	"16.597"	"19.5"	"23.974"	"28.781"	"32.059"	"31.905"	"29.457"	"29.035"	"28.671"	"25.176"	"21.38"	"17.031"
"1915"	"16.898"	"19.001"	"23.998"	"30.556"	"33.813"	"32.633"	"30.757"	"29.574"	"28.871"	"27.81"	"22.789"	"16.531"
"1916"	"15.574"	"19.241"	"26.607"	"31.38"	"35.472"	"31.052"	"29.657"	"28.973"	"28.872"	"26.675"	"21.251"	"15.529"
"1917"	"15.901"	"18.839"	"23.776"	"29.231"	"30.498"	"31.516"	"29.594"	"28.909"	"28.435"	"26.238"	"20.624"	"16.392"
"1918"	"15.139"	"18.839"	"25.31"	"29.456"	"32.849"	"30.45"	"31.057"	"28.212"	"29.009"	"26.145"	"20.826"	"15.872"
"1919"	"17.83"	"18.102"	"25.374"	"29.694"	"32.898"	"31.917"	"29.469"	"29.072"	"28.571"	"25.949"	"21.252"	"16.33"
"1920"	"16.275"	"18.939"	"24.203"	"30.753"	"32.434"	"33.946"	"29.729"	"29.072"	"28.673"	"26.713"	"21.491"	"16.728"
"1921"	"17.038"	"18.673"	"26.435"	"31.916"	"35.883"	"32.955"	"30.156"	"28.547"	"28.511"	"25.413"	"20.124"	"16.6"
"1922"	"16.277"	"19.635"	"25.807"	"31.264"	"34.859"	"30.951"	"29.267"	"28.369"	"28.008"	"24.947"	"20.626"	"16.206"
"1923"	"16.175"	"18.637"	"24.483"	"31.49"	"34.185"	"34.47"	"29.594"	"28.967"	"28.971"	"25.55"	"20.826"	"17.258"
"1924"	"16.178"	"19.239"	"26.61"	"31.791"	"33.761"	"35.044"	"29.429"	"29.073"	"28.234"	"26.389"	"20.852"	"16.829"
"1925"	"14.939"	"17.641"	"24.509"	"30.279"	"32.758"	"31.957"	"28.968"	"29.073"	"28.796"	"25.877"	"20.856"	"16.234"
"1926"	"16.239"	"19.579"	"23.738"	"28.468"	"32.533"	"35.618"	"30.02"	"29.073"	"28.568"	"25.849"	"19.664"	"16.668"
"1927"	"15.94"	"18.939"	"23.07"	"30.764"	"32.323"	"33.645"	"29.896"	"28.81"	"29.236"	"26.512"	"21.228"	"17.334"
"1928"	"16.203"	"19.177"	"25.848"	"30.127"	"33.66"	"31.618"	"29.392"	"29.471"	"29.73"	"27.075"	"21.255"	"17.392"
"1929"	"16.337"	"18.075"	"25.335"	"30.618"	"34.721"	"33.717"	"29.392"	"28.508"	"29.096"	"25.474"	"20.752"	"16.291"
"1930"	"15.5"	"18.438"	"25.372"	"30.29"	"33.195"	"33.146"	"29.293"	"28.871"	"29.033"	"26.676"	"20.714"	"16.194"
"1931"	"17.603"	"18.738"	"24.371"	"31.451"	"33.587"	"34.041"	"29.694"	"29.471"	"29.172"	"26.712"	"20.951"	"17.252"
"1932"	"17.499"	"18.399"	"25.31"	"30.454"	"33.697"	"34.106"	"30.192"	"29.171"	"29.37"	"26.813"	"21.351"	"16.572"
"1933"	"15.001"	"19.698"	"25.173"	"28.591"	"32.509"	"31.815"	"29.395"	"28.571"	"28.872"	"26.114"	"20.788"	"16.73"
"1934"	"15.836"	"18.797"	"24.535"	"30.951"	"33.822"	"32.446"	"29.694"	"29.132"	"29.072"	"25.711"	"20.652"	"17.133"
"1935"	"15.438"	"19.435"	"25.11"	"28.866"	"34.02"	"33.543"	"30.234"	"28.473"	"28.671"	"26.011"	"21.09"	"17.095"
"1936"	"15.439"	"19.072"	"25.375"	"29.93"	"33.285"	"31.194"	"29.432"	"29.11"	"28.571"	"25.351"	"21.59"	"17.134"
"1937"	"14.576"	"19.361"	"23.711"	"29.667"	"32.762"	"33.52"	"30.132"	"28.672"	"29.17"	"25.512"	"20.954"	"15.829"
"1938"	"17.178"	"17.678"	"26.374"	"31.39"	"32.884"	"31.353"	"29.695"	"28.771"	"29.309"	"26.712"	"20.493"	"16.267"
"1939"	"16.978"	"19.939"	"23.814"	"30.704"	"34.285"	"32.58"	"29.669"	"28.668"	"28.67"	"26.312"	"20.987"	"16.906"
"1940"	"15.713"	"19.136"	"23.178"	"29.628"	"33.658"	"33.482"	"29.631"	"28.971"	"28.671"	"26.85"	"22.052"	"17.211"
"1941"	"16.602"	"19.512"	"26.748"	"32.391"	"33.449"	"32.391"	"30.389"	"28.777"	"28.935"	"26.147"	"21.188"	"17.707"
"1942"	"15.879"	"18.778"	"25.249"	"30.331"	"35.035"	"34.184"	"29.988"	"28.732"	"27.811"	"25.951"	"22.29"	"16.994"
"1943"	"18.26"	"17.975"	"25.408"	"28.754"	"34.098"	"33.199"	"29.593"	"28.212"	"28.874"	"26.715"	"21.291"	"18.003"
"1944"	"16.143"	"18.842"	"23.85"	"28.292"	"34.875"	"33.318"	"29.69"	"28.77"	"30.124"	"25.491"	"21.094"	"18.136"
"1945"	"15.479"	"17.777"	"25.25"	"28.93"	"32.961"	"33.838"	"30.686"	"29.698"	"28.675"	"25.153"	"20.53"	"15.707"
"1946"	"16.613"	"20.711"	"24.786"	"28.741"	"32.19"	"32.475"	"29.428"	"29.269"	"28.571"	"25.916"	"20.998"	"18.159"
"1947"	"16.356"	"19.174"	"25.807"	"31.668"	"33.563"	"34.14"	"29.794"	"29.331"	"28.933"	"26.149"	"21.393"	"17.57"
"1948"	"17.443"	"19.676"	"24.766"	"31.492"	"33.908"	"34.534"	"29.217"	"29.029"	"28.509"	"25.817"	"21.62"	"16.491"
"1949"	"17.036"	"18.541"	"24.614"	"29.208"	"31.636"	"33.009"	"29.556"	"29.009"	"28.67"	"26.775"	"20.026"	"15.139"
"1950"	"16.284"	"18.578"	"24.01"	"30.066"	"33.784"	"32.016"	"29.79"	"28.632"	"28.435"	"25.987"	"19.994"	"16.633"
"1951"	"15.516"	"19.114"	"25.208"	"30.081"	"34.134"	"33.976"	"29.596"	"29.908"	"29.074"	"27.837"	"21.954"	"17.148"
"1952"	"17.613"	"21.276"	"24.233"	"30.619"	"33.811"	"33.043"	"30.117"	"29.132"	"28.375"	"26.512"	"21.093"	"16.838"
"1953"	"16.204"	"20.601"	"27.636"	"30.994"	"34.286"	"32.893"	"29.353"	"29.329"	"28.433"	"26.054"	"20.728"	"18.865"
"1954"	"15.4"	"21.101"	"24.775"	"32.468"	"34.225"	"32.959"	"29.979"	"29.332"	"28.929"	"24.912"	"19.453"	"16.932"
"1955"	"16.74"	"19.14"	"26.774"	"29.89"	"34.362"	"33.211"	"28.798"	"28.871"	"28.512"	"26.017"	"21.13"	"16.737"
"1956"	"16.346"	"19.238"	"25.802"	"31.915"	"34.186"	"30.477"	"29.751"	"29.005"	"27.771"	"25.885"	"20.13"	"17.86"
"1957"	"16.673"	"18.338"	"24.31"	"31.028"	"35.511"	"34.143"	"29.85"	"29.63"	"29.304"	"27.109"	"21.352"	"18.096"
"1958"	"17.841"	"20.16"	"26.399"	"31.958"	"35.274"	"35.483"	"30.791"	"28.738"	"28.671"	"26.855"	"22.414"	"18.037"
"1959"	"16.253"	"18.343"	"25.138"	"31.353"	"34.064"	"33.502"	"30.252"	"29.206"	"28.371"	"25.959"	"21.153"	"17.129"
"1960"	"17.628"	"20.084"	"24.038"	"31.822"	"34.156"	"34.3"	"29.592"	"29.726"	"28.671"	"26.711"	"20.649"	"17.396"
"1961"	"17.338"	"18.196"	"25.615"	"30.931"	"34.362"	"31.815"	"29.491"	"29.27"	"28.671"	"26.173"	"20.29"	"14.169"
"1962"	"14.774"	"19.176"	"24.048"	"30.57"	"32.961"	"32.943"	"30.495"	"28.674"	"28.409"	"25.285"	"21.252"	"17.258"
"1963"	"15.076"	"20.538"	"24.574"	"30.057"	"32.183"	"32.278"	"29.533"	"29.134"	"28.251"	"26.751"	"22.031"	"18.432"
"1964"	"16.279"	"19.051"	"26.072"	"31.255"	"32.223"	"32.893"	"28.105"	"29.17"	"28.671"	"26.947"	"21.09"	"17.531"
"1965"	"17.176"	"19.576"	"23.673"	"28.945"	"32.751"	"34.285"	"29.858"	"29.073"	"28.051"	"26.513"	"22.092"	"16.098"
"1966"	"16.34"	"20.742"	"25.412"	"31.796"	"34.439"	"33.657"	"30.62"	"28.814"	"28.974"	"26.479"	"23.278"	"17.13"
"1967"	"17.04"	"20.939"	"24.036"	"29.215"	"33.4"	"34.37"	"30.319"	"28.77"	"28.608"	"25.589"	"20.693"	"18.434"
"1968"	"16.34"	"18.637"	"24.75"	"30.031"	"33.576"	"31.603"	"29.354"	"28.77"	"29.511"	"25.812"	"21.35"	"17.343"
"1969"	"16.039"	"20.327"	"26.673"	"31.293"	"32.682"	"33.342"	"29.956"	"28.534"	"28.21"	"26.672"	"22.652"	"17.595"
"1970"	"17.067"	"18.977"	"24.711"	"31.655"	"33.836"	"31.554"	"29.43"	"29.01"	"28.369"	"26.387"	"20.786"	"16.329"
"1971"	"15.779"	"17.608"	"23.91"	"28.237"	"30.56"	"30.13"	"28.33"	"27.532"	"28.171"	"26.015"	"20.414"	"16.829"
"1972"	"15.736"	"16.837"	"24.673"	"30.094"	"34.101"	"33.907"	"29.957"	"29.272"	"27.492"	"25.313"	"21.076"	"16.696"
"1973"	"16.238"	"19.962"	"23.635"	"31.177"	"33.071"	"31.764"	"29.655"	"29.172"	"28.37"	"26.312"	"21.093"	"17.093"
"1974"	"15.495"	"18.476"	"24.873"	"30.977"	"32.786"	"33.344"	"29.357"	"28.935"	"28.872"	"27.373"	"20.891"	"15.095"
"1975"	"15.614"	"19.201"	"24.573"	"30.815"	"33.586"	"32.481"	"28.679"	"28.871"	"28.272"	"27.113"	"21.032"	"16.533"
"1976"	"16.357"	"20.099"	"25.174"	"29.992"	"32.446"	"32.884"	"29.733"	"28.674"	"28.171"	"26.614"	"22.855"	"17.259"
"1977"	"16.039"	"19.422"	"26.374"	"30.256"	"30.583"	"31.842"	"29.132"	"29.211"	"29.01"	"25.976"	"22.953"	"16.415"
"1978"	"15.301"	"18.701"	"23.112"	"29.516"	"33.487"	"31.94"	"29.294"	"29.21"	"28.571"	"26.113"	"22.455"	"17.132"
"1979"	"17.14"	"17.275"	"24.31"	"30.492"	"34.097"	"33.22"	"30.258"	"30.468"	"28.232"	"27.136"	"23.916"	"18.353"
"1980"	"16.703"	"19.761"	"24.371"	"32.053"	"33.345"	"31.777"	"29.551"	"28.671"	"28.61"	"26.276"	"22.015"	"17.634"
"1981"	"15.84"	"19.239"	"24.336"	"29.101"	"31.77"	"33.042"	"29.356"	"29.336"	"29.196"	"26.312"	"21.093"	"16.772"
"1982"	"17.904"	"19.099"	"23.496"	"30.155"	"33.348"	"32.318"	"31.598"	"29.332"	"29.272"	"26.356"	"21.95"	"16.667"
"1983"	"15.577"	"19.535"	"24.937"	"29.491"	"32.123"	"33.76"	"30.395"	"29.835"	"29.771"	"26.211"	"21.029"	"17.494"
"1984"	"16.285"	"18.299"	"25.47"	"31.394"	"34.163"	"31.052"	"29.133"	"28.611"	"28.409"	"27.049"	"20.392"	"17.532"
"1985"	"17.403"	"18.963"	"26.755"	"31.355"	"33.371"	"33.641"	"28.992"	"29.172"	"28.795"	"26.053"	"21.593"	"18.535"
"1986"	"16.356"	"18.98"	"24.473"	"30.479"	"31.784"	"32.735"	"29.17"	"28.471"	"27.976"	"25.512"	"22.674"	"17.137"
"1987"	"16.018"	"20.634"	"24.674"	"30.315"	"32.658"	"34.248"	"29.694"	"28.436"	"28.868"	"26.428"	"21.807"	"18.084"
"1988"	"17.351"	"20.139"	"24.735"	"30.892"	"33.824"	"31.515"	"29.732"	"29.177"	"30.113"	"27.226"	"21.867"	"18.809"
"1989"	"15.519"	"19.2"	"25.374"	"31.071"	"33.844"	"31.516"	"29.533"	"28.675"	"29.369"	"27.125"	"21.993"	"16.838"
"1990"	"16.77"	"19.605"	"23.673"	"30.714"	"31.56"	"32.577"	"28.906"	"29.15"	"29.37"	"25.808"	"22.491"	"17.933"
"1991"	"16.274"	"20.445"	"24.948"	"29.891"	"34.002"	"31.256"	"30.097"	"28.447"	"28.67"	"26.466"	"21.186"	"16.871"
"1992"	"15.165"	"17.28"	"25.911"	"30.989"	"32.023"	"32.58"	"30.522"	"29.014"	"29.17"	"27.01"	"22.456"	"17.456"
"1993"	"17.361"	"21.26"	"24.438"	"29.916"	"33.57"	"33.807"	"30.595"	"28.738"	"28.671"	"27.212"	"21.327"	"17.607"
"1994"	"17.702"	"19.04"	"25.934"	"29.753"	"33.525"	"32.876"	"29.468"	"28.71"	"28.868"	"26.973"	"22.354"	"17.496"
"1995"	"14.941"	"20.527"	"24.608"	"30.555"	"33.394"	"34.208"	"29.655"	"28.571"	"28.67"	"26.813"	"22.392"	"18.169"
"1996"	"16.902"	"18.773"	"26.134"	"29.329"	"33.925"	"31.516"	"29.494"	"28.036"	"29.37"	"26.612"	"22.349"	"17.562"
"1997"	"15.741"	"18.214"	"25.112"	"29.299"	"32.564"	"33.869"	"29.414"	"28.948"	"28.272"	"26.402"	"22.554"	"17.92"
"1998"	"16.298"	"19.836"	"22.883"	"29.406"	"32.773"	"34.906"	"29.27"	"29.372"	"29.171"	"28.812"	"22.752"	"18.436"
"1999"	"16.352"	"20.277"	"25.611"	"32.392"	"33.458"	"32.579"	"29.494"	"28.973"	"28.67"	"27.575"	"23.076"	"18.497"
"2000"	"17.051"	"18.74"	"24.549"	"31.455"	"33.123"	"32.091"	"30.317"	"29.234"	"28.171"	"27.936"	"23.816"	"17.832"
"2001"	"16.711"	"19.235"	"24.836"	"30.929"	"33.922"	"31.192"	"29.069"	"29.511"	"29.469"	"28.336"	"24.115"	"19.295"
"2002"	"16.339"	"20.377"	"25.972"	"30.754"	"34.087"	"33.58"	"30.956"	"28.872"	"28.672"	"26.711"	"22.252"	"18.735"
