
"Year"	"Jan"	"Feb"	"Mar"	"Apr"	"May"	"Jun"	"Jul"	"Aug"	"Sep"	"Oct"	"Nov"	"Dec"
"1901"	"14.763"	"17.927"	"21.825"	"25.014"	"25.382"	"27.187"	"27.254"	"27.187"	"26.67"	"25.142"	"20.492"	"16.395"
"1902"	"16.135"	"17.896"	"22.965"	"22.976"	"25.638"	"26.387"	"27.213"	"27.687"	"26.374"	"23.879"	"19.892"	"15.891"
"1903"	"14.136"	"16.905"	"21.03"	"24.396"	"24.868"	"25.665"	"27.454"	"26.815"	"26.67"	"25.674"	"21.002"	"16.357"
"1904"	"15.227"	"17.473"	"22.37"	"23.302"	"24.152"	"26.553"	"26.817"	"27.363"	"26.574"	"24.442"	"19.937"	"15.96"
"1905"	"14.436"	"14.957"	"20.162"	"21.852"	"24.419"	"26.455"	"27.118"	"26.628"	"26.505"	"24.842"	"21.146"	"16.749"
"1906"	"14.728"	"16.877"	"20.482"	"24.303"	"25.105"	"26.455"	"27.618"	"26.586"	"27.47"	"24.537"	"21.002"	"16.889"
"1907"	"16.172"	"17.069"	"19.928"	"22.486"	"24.726"	"25.803"	"26.687"	"27.687"	"26.243"	"24.645"	"20.755"	"16.176"
"1908"	"15"	"17.373"	"21.81"	"25.733"	"24.86"	"26.678"	"27.34"	"27.282"	"26.612"	"24.738"	"20.238"	"16.041"
"1909"	"15.206"	"17.077"	"23.37"	"23.636"	"24.71"	"26.049"	"27.459"	"27.045"	"27.534"	"25.409"	"21.822"	"17.19"
"1910"	"15.549"	"17.727"	"21.261"	"23.376"	"24.398"	"26.082"	"26.054"	"27.119"	"27.07"	"24.6"	"20.727"	"16.504"
"1911"	"16.5"	"17.005"	"21.178"	"23.722"	"24.142"	"26.441"	"26.682"	"26.89"	"26.273"	"23.892"	"19.764"	"15.648"
"1912"	"15.936"	"17.942"	"20.417"	"21.677"	"24.926"	"26.223"	"26.559"	"26.96"	"26.565"	"24.438"	"20.5"	"16.653"
"1913"	"15.545"	"17.715"	"20.034"	"23.952"	"23.927"	"25.853"	"27"	"27.228"	"26.47"	"24.5"	"19.7"	"16.044"
"1914"	"15.327"	"17.542"	"21.52"	"21.98"	"25.212"	"27"	"27.476"	"26.952"	"26.116"	"23.338"	"20.297"	"17.108"
"1915"	"16.695"	"17.668"	"21.182"	"23.594"	"24.4"	"25.887"	"26.8"	"27.249"	"26.37"	"26.7"	"22.593"	"17.194"
"1916"	"15.553"	"17.668"	"22.893"	"23.419"	"25.096"	"27.045"	"26.313"	"27.187"	"26.674"	"24.484"	"21.259"	"16.15"
"1917"	"14.991"	"17.402"	"20.767"	"23.613"	"25.752"	"26.32"	"26.912"	"27.533"	"26.57"	"24.473"	"21.259"	"16.749"
"1918"	"14.799"	"17.136"	"21.666"	"23.477"	"26.292"	"25.773"	"26.3"	"26.591"	"26.57"	"24.537"	"20.397"	"15.941"
"1919"	"16.232"	"17.198"	"23.097"	"23.522"	"24.827"	"27.115"	"27.113"	"28.076"	"26.035"	"24.771"	"21.609"	"17.19"
"1920"	"16.298"	"17.001"	"21.039"	"22.987"	"24.269"	"26.124"	"27.813"	"26.986"	"26.315"	"25.196"	"21.1"	"18.333"
"1921"	"15.89"	"17.31"	"22.39"	"23.492"	"25.005"	"25.37"	"26.854"	"27.588"	"26.798"	"23.642"	"20.596"	"17.103"
"1922"	"16.015"	"18.314"	"23.099"	"26.272"	"25.814"	"26.095"	"26.925"	"27.199"	"26.674"	"24.604"	"21.146"	"16.79"
"1923"	"16.041"	"17.263"	"22.537"	"24.377"	"24.406"	"25.906"	"26.995"	"27.726"	"26.49"	"24.442"	"21.281"	"17.19"
"1924"	"15.908"	"17.51"	"23.616"	"25.146"	"24.479"	"26.37"	"26.92"	"27.033"	"25.973"	"25.745"	"20.8"	"17.134"
"1925"	"14.146"	"16.487"	"21.92"	"23.636"	"23.552"	"26.604"	"26.912"	"27.396"	"25.712"	"23.672"	"20.393"	"15.244"
"1926"	"15.295"	"17.536"	"20.597"	"23.222"	"24.823"	"25.903"	"26.659"	"27.236"	"26.824"	"25.005"	"19.827"	"17.29"
"1927"	"15.287"	"16.411"	"19.77"	"23.51"	"24.269"	"25.969"	"27.208"	"27.028"	"25.712"	"24.641"	"20.264"	"16.637"
"1928"	"15.34"	"18.414"	"22.324"	"24.576"	"24.454"	"26.445"	"27.221"	"26.832"	"27.298"	"24.212"	"19.792"	"16.514"
"1929"	"14.745"	"16.827"	"22.228"	"23.419"	"24.334"	"26.007"	"26.912"	"27.187"	"26.574"	"24.346"	"20.352"	"16.545"
"1930"	"14.113"	"17.218"	"21.239"	"23.423"	"25.122"	"25.073"	"27.401"	"27.187"	"26.62"	"24.007"	"20.297"	"16.32"
"1931"	"16.369"	"18.211"	"21.784"	"23.852"	"24.213"	"26.26"	"26.755"	"27.929"	"25.495"	"25.114"	"19.964"	"16.732"
"1932"	"15.074"	"15.415"	"21.87"	"24.242"	"23.76"	"26.005"	"27.113"	"27.217"	"26.881"	"25.042"	"21.796"	"16.959"
"1933"	"14.571"	"17.864"	"22.923"	"23.181"	"24.364"	"26.604"	"27.271"	"27.187"	"26.766"	"25.105"	"20.451"	"16.649"
"1934"	"15.417"	"17.689"	"21.924"	"24.319"	"23.956"	"25.324"	"26.912"	"27.282"	"27.497"	"24.046"	"20.046"	"16.15"
"1935"	"14.755"	"17.654"	"22.254"	"24.319"	"24.852"	"25.625"	"27.509"	"26.623"	"26.597"	"24.801"	"21.277"	"16.282"
"1936"	"14.313"	"16.484"	"22.282"	"24.392"	"25.298"	"26.328"	"27.145"	"27.557"	"26.655"	"23.915"	"21.803"	"16.945"
"1937"	"14.014"	"17.342"	"21.165"	"25.305"	"24.871"	"26.973"	"27.941"	"27.065"	"26.807"	"24.73"	"20.095"	"17.279"
"1938"	"16.323"	"16.798"	"22.717"	"25.733"	"25.274"	"26.745"	"26.813"	"27.399"	"26.711"	"25.341"	"19.206"	"16.831"
"1939"	"15.923"	"17.873"	"22.186"	"26.525"	"25.154"	"26.383"	"26.85"	"27.592"	"26.411"	"24.31"	"20.934"	"16.922"
"1940"	"15.218"	"17.326"	"19.488"	"24.41"	"24.805"	"26.413"	"26.965"	"27.646"	"26.466"	"24.938"	"20.893"	"17.29"
"1941"	"14.973"	"17.61"	"22.897"	"24.448"	"24.627"	"26.396"	"27.539"	"27.724"	"26.897"	"24.357"	"19.824"	"17.658"
"1942"	"15.908"	"18.43"	"21.898"	"23.552"	"24.945"	"26.551"	"27.86"	"27.217"	"26.47"	"25.432"	"21.687"	"16.508"
"1943"	"16.456"	"17.244"	"20.763"	"21.927"	"24.546"	"26.487"	"26.83"	"27.115"	"26.606"	"24.516"	"22.013"	"17.755"
"1944"	"15.328"	"17.263"	"22.663"	"24.081"	"25.947"	"27.227"	"27.659"	"28.113"	"26.752"	"25.623"	"21.258"	"18.215"
"1945"	"16.021"	"16.422"	"22.919"	"25.9"	"25.077"	"26.982"	"27.75"	"27.316"	"27.525"	"24.996"	"20.893"	"16.758"
"1946"	"16.132"	"18.563"	"22.286"	"23.238"	"24.839"	"26.32"	"26.886"	"27.809"	"26.634"	"23.887"	"21.45"	"17.248"
"1947"	"15.433"	"18.1"	"21.624"	"24.202"	"25.001"	"26.415"	"26.723"	"27.286"	"26.67"	"24.091"	"20.554"	"17.527"
"1948"	"15.884"	"17.364"	"21.531"	"23.898"	"24.175"	"25.992"	"26.845"	"27.214"	"27.018"	"23.746"	"21.064"	"16.387"
"1949"	"15.923"	"17.581"	"22.116"	"21.868"	"24.797"	"26.14"	"27.03"	"27.018"	"26.512"	"25.383"	"20.846"	"15.383"
"1950"	"15.824"	"17.469"	"21.724"	"24.673"	"25.527"	"25.712"	"27.367"	"26.56"	"26.974"	"24.655"	"20.809"	"17.248"
"1951"	"15.532"	"18.142"	"23.095"	"23.999"	"24.996"	"26.047"	"26.535"	"27.782"	"26.802"	"25.361"	"20.934"	"17.418"
"1952"	"16.173"	"18.844"	"20.668"	"25.229"	"23.943"	"27.15"	"27.053"	"27.286"	"26.57"	"25.642"	"21.589"	"17.556"
"1953"	"15.017"	"18.078"	"22.254"	"24.477"	"25.326"	"26.075"	"26.517"	"27.945"	"26.232"	"24.595"	"20.592"	"18.028"
"1954"	"14.67"	"18.759"	"22.882"	"24.718"	"25.437"	"25.545"	"26.439"	"26.828"	"27.266"	"24.163"	"20.509"	"17.39"
"1955"	"15.566"	"18.063"	"22.694"	"24.007"	"26.021"	"25.861"	"26.572"	"26.745"	"26.729"	"25.828"	"21.592"	"15.891"
"1956"	"16.627"	"18.726"	"23.304"	"25.985"	"26.31"	"26.084"	"26.925"	"27.4"	"27.316"	"25.3"	"21.635"	"17.554"
"1957"	"16.238"	"16.943"	"21.876"	"25.513"	"24.825"	"26.191"	"27.487"	"27.842"	"27.401"	"24.342"	"21.26"	"17.462"
"1958"	"17.095"	"17.712"	"23.463"	"24.945"	"25.137"	"27.338"	"28.076"	"27.217"	"27.264"	"25.739"	"21.678"	"17.917"
"1959"	"15.884"	"16.842"	"22.194"	"25.435"	"25.562"	"26.983"	"27.959"	"28.476"	"26.542"	"24.319"	"20.994"	"17.228"
"1960"	"16.078"	"20.06"	"21.954"	"27.104"	"26.444"	"26.945"	"26.912"	"27.933"	"26.644"	"25.539"	"21.166"	"18.833"
"1961"	"17.23"	"17.376"	"22.203"	"25.377"	"25.427"	"26.869"	"27.774"	"27.923"	"27.27"	"25.501"	"20.427"	"16.023"
"1962"	"15.181"	"18.591"	"22.738"	"26.524"	"24.928"	"26.661"	"28.277"	"26.983"	"27.363"	"24.505"	"20.331"	"16.894"
"1963"	"15.47"	"18.767"	"22.338"	"24.125"	"24.68"	"26.445"	"27.417"	"27.375"	"27.142"	"24.574"	"20.133"	"17.321"
"1964"	"15.127"	"18.077"	"23.068"	"24.166"	"25.18"	"26.184"	"26.609"	"27.219"	"26.77"	"25.327"	"21.56"	"17.327"
"1965"	"16.369"	"17.989"	"21.171"	"24.256"	"25.154"	"26.186"	"26.912"	"26.148"	"26.37"	"24.456"	"19.653"	"17.599"
"1966"	"16.111"	"19.681"	"23.213"	"25.299"	"26.481"	"25.63"	"27.048"	"27.02"	"26.241"	"23.605"	"21.831"	"17.19"
"1967"	"16.554"	"18.961"	"21.342"	"23.522"	"24.797"	"25.915"	"26.822"	"27.361"	"26.228"	"23.882"	"19.165"	"17.209"
"1968"	"15.745"	"16.959"	"22.52"	"23.855"	"24.898"	"25.584"	"26.487"	"27.401"	"26.618"	"23.909"	"20.679"	"16.954"
"1969"	"15.897"	"18.678"	"23.698"	"25.296"	"26.228"	"26.37"	"27.09"	"26.699"	"26.57"	"24.415"	"20.932"	"17.561"
"1970"	"15.19"	"17.756"	"21.917"	"24.894"	"25.858"	"27.071"	"26.746"	"27.066"	"26.839"	"24.627"	"20.818"	"17.422"
"1971"	"15.824"	"17.604"	"21.187"	"23.636"	"24.974"	"26.604"	"26.822"	"26.572"	"26.638"	"24.953"	"20.001"	"16.896"
"1972"	"16.911"	"17.069"	"22.667"	"23.074"	"24.852"	"26.028"	"27.15"	"26.957"	"26.401"	"24.825"	"20.701"	"17.322"
"1973"	"16.682"	"18.942"	"22.132"	"25.318"	"25.624"	"26.144"	"26.685"	"27.395"	"26.144"	"25.019"	"20.873"	"16.831"
"1974"	"15.11"	"17.376"	"21.914"	"24.254"	"25.271"	"26.049"	"26.483"	"27.119"	"25.902"	"25.997"	"22.191"	"16.277"
"1975"	"15.782"	"18.206"	"23.089"	"25.218"	"25.051"	"26.755"	"26.218"	"27.337"	"26.311"	"25.757"	"20.768"	"16.177"
"1976"	"15.891"	"18.829"	"23.61"	"25.124"	"25.018"	"25.719"	"26.817"	"26.703"	"26.604"	"24.311"	"22.034"	"17.283"
"1977"	"15.612"	"18.646"	"23.41"	"22.465"	"23.786"	"25.324"	"27.256"	"26.535"	"27.4"	"23.455"	"20.902"	"17.174"
"1978"	"14.556"	"17.709"	"21.82"	"24.334"	"25.267"	"26.116"	"26.513"	"27.478"	"26.453"	"25.594"	"20.726"	"17.059"
"1979"	"16.305"	"17.667"	"22.282"	"25.818"	"26.039"	"27.438"	"26.539"	"27.65"	"25.852"	"24.255"	"22.184"	"17.116"
"1980"	"15.412"	"17.595"	"21.64"	"25.13"	"24.387"	"26.927"	"27.316"	"27.363"	"27.232"	"24.216"	"21.292"	"17.92"
"1981"	"15.962"	"18.614"	"22.094"	"23.425"	"25.261"	"27.217"	"26.882"	"27.683"	"26.837"	"25.496"	"21.606"	"17.065"
"1982"	"16.907"	"17.667"	"21.606"	"23.363"	"25.798"	"26.233"	"27.032"	"27.474"	"26.442"	"24.612"	"20.588"	"16.973"
"1983"	"14.605"	"16.411"	"21.431"	"23.201"	"24.255"	"26.837"	"27.35"	"27.139"	"26.246"	"25.093"	"21.142"	"16.08"
"1984"	"14.657"	"17.745"	"23.063"	"25.165"	"24.707"	"26.99"	"26.362"	"27.369"	"25.486"	"25.357"	"20.43"	"17.281"
"1985"	"15.912"	"17.862"	"23.198"	"24.67"	"25.169"	"26.487"	"26.06"	"27.719"	"26.586"	"25.004"	"20.44"	"18.088"
"1986"	"16.502"	"18.505"	"22.726"	"23.625"	"24.946"	"27.144"	"26.734"	"27.629"	"26.011"	"23.52"	"20.985"	"17.299"
"1987"	"16.487"	"19.314"	"21.853"	"24.314"	"25.779"	"27.111"	"26.661"	"26.893"	"26.709"	"24.696"	"21.678"	"18.326"
"1988"	"16.978"	"19.686"	"22.319"	"24.826"	"25.092"	"26.468"	"27.245"	"26.911"	"26.719"	"25.152"	"21.43"	"18.532"
"1989"	"15.608"	"17.385"	"22.18"	"24.106"	"25.965"	"26.417"	"26.582"	"27.15"	"26.524"	"25.396"	"20.457"	"16.357"
"1990"	"17.762"	"18.131"	"20.456"	"22.337"	"25.787"	"26.906"	"26.985"	"27.528"	"26.727"	"24.342"	"22.224"	"17.835"
"1991"	"15.355"	"18.902"	"23.08"	"24.099"	"23.854"	"26.423"	"27.259"	"27.453"	"26.509"	"24.928"	"20.425"	"16.511"
"1992"	"15.721"	"16.519"	"22.27"	"25.124"	"24.442"	"26.631"	"26.255"	"27.301"	"26.551"	"24.468"	"20.834"	"16.047"
"1993"	"15.637"	"18.759"	"21.038"	"23.497"	"24.411"	"25.782"	"27.059"	"27.279"	"26.321"	"25.112"	"21.57"	"18.767"
"1994"	"17.225"	"17.81"	"22.434"	"24.902"	"26.712"	"27.171"	"28.104"	"27.929"	"27.659"	"24.482"	"21.03"	"17.074"
"1995"	"15.586"	"18.383"	"23.898"	"25.258"	"26.972"	"27.009"	"27.089"	"27.325"	"26.739"	"25.711"	"22.106"	"18.047"
"1996"	"16.549"	"19.473"	"23.425"	"26.659"	"25.735"	"26.884"	"27.176"	"27.187"	"27.238"	"25.064"	"21.816"	"18.344"
"1997"	"15.958"	"17.342"	"23.219"	"23.872"	"26.022"	"26.899"	"27.78"	"27.974"	"26.25"	"24.239"	"20.839"	"17.627"
"1998"	"15.72"	"19.765"	"21.524"	"25.398"	"27.212"	"27.256"	"27.041"	"27.728"	"27.011"	"26.337"	"22.696"	"18.445"
"1999"	"16.915"	"20.988"	"23.788"	"27.988"	"26.357"	"27.959"	"27.189"	"27.286"	"27.2"	"25.616"	"22.491"	"18.613"
"2000"	"16.361"	"19.136"	"21.656"	"22.468"	"25.722"	"27.432"	"27.855"	"27.224"	"26.574"	"25.638"	"21.42"	"17.322"
"2001"	"16.17"	"19.327"	"22.829"	"24.65"	"26.614"	"27.659"	"28.192"	"28.26"	"27.315"	"25.283"	"22.12"	"17.549"
"2002"	"16.495"	"19.795"	"23.067"	"24.281"	"25.664"	"26.845"	"27.855"	"27.592"	"26.969"	"25.184"	"21.85"	"17.623"
