
"Year"	"Jan"	"Feb"	"Mar"	"Apr"	"May"	"Jun"	"Jul"	"Aug"	"Sep"	"Oct"	"Nov"	"Dec"
"1901"	"9.53"	"25.895"	"2.642"	"45.838"	"24.216"	"70.883"	"129.317"	"100.885"	"51.307"	"54.319"	"20.591"	"0.272"
"1902"	"0.009"	"0.106"	"0.009"	"42.47"	"11.305"	"88.091"	"49.221"	"130.922"	"140.28"	"101.551"	"88.014"	"10.823"
"1903"	"5.142"	"0.106"	"0"	"2.551"	"57.241"	"60.082"	"252.53"	"237.387"	"179.574"	"283.522"	"85.099"	"5.319"
"1904"	"0.974"	"0.155"	"1.754"	"7.694"	"55.878"	"122.121"	"94.589"	"41.733"	"134.027"	"116.294"	"0.616"	"0.61"
"1905"	"0.001"	"1.668"	"3.777"	"26.532"	"38.419"	"87.682"	"56.753"	"208.906"	"89.104"	"80.145"	"0.364"	"0"
"1906"	"20.327"	"0.107"	"0.896"	"4.872"	"12.81"	"174.112"	"117.422"	"179.536"	"136.559"	"79.058"	"11.119"	"16.367"
"1907"	"1.714"	"2.803"	"6.716"	"54.565"	"7.676"	"87.662"	"107.767"	"118.301"	"98.47"	"1.338"	"9.628"	"9.718"
"1908"	"8.438"	"6.64"	"9.882"	"3.296"	"15.002"	"85.492"	"92.206"	"152.237"	"425.051"	"12.208"	"0.616"	"0.004"
"1909"	"1.334"	"0.211"	"0.029"	"38.257"	"21.821"	"95.824"	"168.629"	"141.259"	"158.725"	"6.102"	"0.616"	"0.003"
"1910"	"0.057"	"0.106"	"0.958"	"18.201"	"11.506"	"170.032"	"81.997"	"131.936"	"186.565"	"168.874"	"58.819"	"0"
"1911"	"0"	"0.106"	"0.01"	"22.141"	"38.706"	"64.023"	"130.598"	"97.265"	"112.458"	"29.713"	"15.706"	"2.107"
"1912"	"0"	"17.733"	"0"	"24.165"	"18.754"	"20.837"	"181.88"	"136.469"	"74.111"	"50.388"	"49.063"	"0.075"
"1913"	"0"	"10.972"	"0"	"1.176"	"55.258"	"46.592"	"162.056"	"105.672"	"114.998"	"108.162"	"0.43"	"0.118"
"1914"	"0.057"	"0.106"	"4.205"	"13.975"	"50.501"	"110.725"	"211.92"	"200.46"	"187.976"	"58.909"	"6.074"	"24.446"
"1915"	"5.005"	"14.49"	"27.005"	"12.405"	"31.902"	"178.413"	"104.431"	"155.871"	"177.465"	"256.834"	"65.287"	"0"
"1916"	"0.084"	"0.579"	"0"	"21.526"	"39.9"	"122.175"	"295.511"	"157.396"	"247.846"	"299.033"	"114.025"	"0"
"1917"	"3.977"	"16.616"	"3.635"	"12.659"	"62.062"	"140.095"	"111.157"	"163.786"	"254.072"	"136.562"	"50.141"	"0.588"
"1918"	"8.143"	"2.332"	"13.034"	"4.492"	"81.665"	"23.804"	"81.424"	"57.099"	"197.083"	"6.416"	"50.658"	"23.369"
"1919"	"10.118"	"0.691"	"6.455"	"25.544"	"47.482"	"132.674"	"84.366"	"56.456"	"119.455"	"96.044"	"78.34"	"51.122"
"1920"	"4.317"	"0.106"	"0.011"	"22.459"	"50.446"	"71.691"	"105.894"	"137.739"	"87.166"	"50.335"	"0.835"	"0"
"1921"	"2.714"	"0"	"0"	"18.489"	"5.25"	"105.877"	"150.208"	"49.562"	"152.487"	"69.934"	"77.687"	"0"
"1922"	"6.332"	"0.106"	"0"	"1.104"	"35.173"	"94.563"	"117.477"	"103.511"	"135.327"	"74.983"	"35.423"	"0"
"1923"	"0.058"	"10.401"	"2.293"	"27.206"	"38.781"	"14.116"	"158.035"	"34.328"	"197.491"	"58.014"	"12.597"	"0"
"1924"	"0.333"	"0"	"0.1"	"22.154"	"28.459"	"84.217"	"130.49"	"103.522"	"208.414"	"70.015"	"108.125"	"0"
"1925"	"0.057"	"0.106"	"0"	"10.211"	"140.116"	"52.217"	"98.833"	"138.329"	"92.184"	"237.108"	"13.768"	"7.007"
"1926"	"12.935"	"0.042"	"20.746"	"29"	"43.994"	"41.146"	"92.888"	"109.97"	"156.625"	"24.799"	"0.708"	"0"
"1927"	"0.373"	"0.489"	"0.967"	"3.639"	"35.753"	"138.361"	"172.013"	"105.099"	"168.951"	"59.695"	"143.879"	"0"
"1928"	"0.057"	"9.093"	"7.51"	"7.171"	"15.777"	"132.701"	"93.991"	"100.028"	"291.291"	"107.977"	"0.364"	"24.896"
"1929"	"0.989"	"4.231"	"0"	"21.715"	"23.418"	"107.632"	"52.768"	"86.822"	"160.465"	"116.526"	"0.787"	"4.822"
"1930"	"0"	"4.36"	"4.53"	"12.302"	"11.41"	"90.465"	"87.066"	"79.622"	"167.118"	"141.601"	"80.004"	"0.145"
"1931"	"0"	"0.107"	"3.971"	"0.56"	"89.492"	"113.507"	"115.049"	"54.334"	"287.703"	"77.128"	"95.066"	"0"
"1932"	"0"	"9.759"	"0"	"10.969"	"35.046"	"91.294"	"155.459"	"102.572"	"200.291"	"42.88"	"65.53"	"0"
"1933"	"0.093"	"4.04"	"6.781"	"12.779"	"55.524"	"144.063"	"136.805"	"151.927"	"136.02"	"159.816"	"90.781"	"43.138"
"1934"	"0.109"	"0.106"	"0"	"15.547"	"9.214"	"91.828"	"215.985"	"101.748"	"136.145"	"44.1"	"77.232"	"0"
"1935"	"9.884"	"0.545"	"0.533"	"30.702"	"10.846"	"66.482"	"141.081"	"126.159"	"157.521"	"82.138"	"0.364"	"0.018"
"1936"	"0.015"	"31.969"	"9.074"	"12.407"	"131.968"	"72.833"	"118.672"	"82.962"	"134.584"	"193.101"	"97.798"	"5.661"
"1937"	"0"	"17.496"	"20.752"	"42.812"	"20.519"	"43.196"	"120.041"	"103.713"	"175.849"	"103.198"	"0.471"	"0.163"
"1938"	"0"	"16.408"	"11.975"	"1.845"	"64.735"	"132.545"	"98.321"	"209.409"	"264.419"	"60.615"	"4.111"	"0.521"
"1939"	"0.015"	"0"	"10.246"	"3.021"	"5.336"	"44.453"	"113.296"	"101.348"	"181.571"	"190.769"	"38.703"	"0.026"
"1940"	"0.024"	"0"	"9.279"	"25.957"	"85.649"	"73.63"	"124.176"	"126.241"	"116.278"	"83.912"	"29.903"	"2.458"
"1941"	"13.021"	"8.541"	"0.402"	"2.626"	"19.678"	"66.182"	"31.888"	"86.867"	"160.133"	"67.976"	"7.885"	"8.698"
"1942"	"0"	"0.679"	"0.045"	"28.036"	"13.275"	"113.11"	"91.904"	"127.825"	"48.921"	"30.172"	"3.727"	"6.197"
"1943"	"0.605"	"0.046"	"1.482"	"25.877"	"36.654"	"89.044"	"88.915"	"43.335"	"277.78"	"70.282"	"46.974"	"0.061"
"1944"	"0"	"8.199"	"33.175"	"5.114"	"15.697"	"89.799"	"107.118"	"119.845"	"181.022"	"215.919"	"7.818"	"0"
"1945"	"0.007"	"0"	"0"	"17.992"	"22.082"	"58.307"	"184.78"	"155.522"	"141.564"	"139.649"	"28.756"	"0.701"
"1946"	"0"	"11.375"	"4.086"	"19.331"	"51.075"	"75.711"	"115.737"	"128.305"	"109.673"	"67.28"	"136.356"	"2.737"
"1947"	"0"	"12.729"	"0.326"	"2.001"	"6.938"	"89.011"	"175.286"	"207.403"	"217.158"	"138.865"	"0.847"	"35.848"
"1948"	"0.021"	"0.298"	"1.35"	"47.783"	"30.883"	"23.655"	"118.788"	"93.579"	"182.696"	"106.907"	"154.77"	"0.008"
"1949"	"0"	"0.001"	"0.019"	"11.263"	"47.605"	"87.194"	"140.418"	"165.915"	"175.298"	"124.948"	"11.633"	"0"
"1950"	"0"	"8.344"	"4.616"	"0.201"	"16.731"	"54.11"	"163.2"	"105.704"	"282.998"	"44.66"	"38.163"	"0"
"1951"	"0"	"0"	"14.371"	"31.99"	"55.169"	"61.523"	"192.107"	"79.254"	"73.656"	"135.862"	"1.53"	"0.022"
"1952"	"0"	"0.425"	"0"	"15.704"	"106.994"	"20.928"	"83.807"	"93.757"	"103.618"	"184.919"	"0.364"	"18.611"
"1953"	"2.39"	"0"	"0"	"26.934"	"5.763"	"99.66"	"132.372"	"130.894"	"231.634"	"207.891"	"0.364"	"0"
"1954"	"0"	"0"	"4.939"	"1.468"	"7.956"	"92.09"	"206.672"	"128.368"	"300.233"	"64.719"	"0.364"	"6.735"
"1955"	"0"	"0"	"20.884"	"3.114"	"87.916"	"102.805"	"129.718"	"207.953"	"152.121"	"145.141"	"30.858"	"0.023"
"1956"	"0.03"	"0.197"	"0"	"3.375"	"73.629"	"140.591"	"267.968"	"76.224"	"150.483"	"105.665"	"45.421"	"5.025"
"1957"	"0"	"0.121"	"10.172"	"45.815"	"52.789"	"118.2"	"107.316"	"212.312"	"82.728"	"35.457"	"3.29"	"0"
"1958"	"9.74"	"7.478"	"3.666"	"36.375"	"17.643"	"78.135"	"182.202"	"163.315"	"131.982"	"97.575"	"74.601"	"0"
"1959"	"0"	"2.184"	"0"	"36.478"	"47.741"	"131.956"	"203.039"	"184.845"	"116.37"	"73.603"	"2.14"	"0.097"
"1960"	"0"	"0"	"19.556"	"0.368"	"57.948"	"118.929"	"110.114"	"68.895"	"272.963"	"51.698"	"8.864"	"3.611"
"1961"	"16.981"	"4.989"	"2.787"	"3.108"	"19.332"	"130.32"	"227.488"	"166.467"	"89.715"	"264.626"	"6.99"	"0"
"1962"	"0"	"18.811"	"2.936"	"41.105"	"22.738"	"111.003"	"126.157"	"188.046"	"265.79"	"68.899"	"40.897"	"9.357"
"1963"	"0"	"0"	"0.459"	"50.406"	"9.309"	"140.873"	"128.639"	"220.997"	"88.905"	"165.582"	"0.364"	"0.001"
"1964"	"0.09"	"0"	"0"	"3.2"	"6.23"	"106.834"	"137.85"	"117.879"	"326.206"	"88.486"	"16.736"	"0"
"1965"	"0.095"	"0"	"4.998"	"6.31"	"11.642"	"65.43"	"207.456"	"92.405"	"179.5"	"7.386"	"2.972"	"0.165"
"1966"	"2.94"	"0.868"	"0"	"6.419"	"12.685"	"37.626"	"155.96"	"154.326"	"137.306"	"31.588"	"74.108"	"23.654"
"1967"	"0.036"	"0"	"30.942"	"13.598"	"6.93"	"79.368"	"254.51"	"77.912"	"176.388"	"14.252"	"0.398"	"20.41"
"1968"	"17.435"	"8.887"	"10.125"	"11.525"	"10.205"	"69.518"	"152.264"	"13.025"	"283.167"	"94.426"	"19.335"	"0.235"
"1969"	"0.988"	"0"	"0.267"	"4.664"	"127.13"	"53.582"	"134.583"	"116.578"	"187.496"	"95.458"	"73.48"	"44.567"
"1970"	"0.658"	"0.633"	"16.746"	"33.581"	"52.202"	"132.595"	"56.924"	"210.769"	"104.501"	"109.801"	"0.364"	"0"
"1971"	"0.516"	"16.079"	"10.759"	"52.249"	"69.133"	"98.537"	"52.997"	"149.725"	"159.873"	"124.262"	"3.02"	"0"
"1972"	"0"	"2.438"	"0"	"8.047"	"10.244"	"73.397"	"66.38"	"48.369"	"58.243"	"111.588"	"76.666"	"4.702"
"1973"	"0"	"0"	"0.015"	"2.354"	"17.793"	"102.806"	"75.111"	"171.277"	"112.498"	"188.359"	"48.433"	"11.203"
"1974"	"0"	"0"	"2.845"	"14.746"	"58.059"	"47.262"	"42.428"	"114.62"	"193.524"	"269.334"	"3.365"	"0.019"
"1975"	"7.349"	"6.248"	"9.126"	"7.731"	"33.521"	"100.36"	"153.292"	"153.079"	"273.292"	"216.749"	"26.295"	"0.009"
"1976"	"0"	"0"	"0"	"10.649"	"11.493"	"101.645"	"303.183"	"168.757"	"72.387"	"35.124"	"85.553"	"0.015"
"1977"	"0.03"	"0"	"4.082"	"20.64"	"40.07"	"77.553"	"107.729"	"163.528"	"47.49"	"144.815"	"145.147"	"1.086"
"1978"	"18.369"	"15.115"	"4.721"	"11.427"	"53.239"	"117.377"	"192.583"	"294.348"	"271.828"	"82.556"	"59.724"	"4.617"
"1979"	"5.6"	"14.824"	"0.001"	"14.94"	"148.957"	"76.19"	"58.527"	"51.033"	"272.596"	"32.87"	"94.951"	"3.342"
"1980"	"1.128"	"0"	"9.623"	"10.403"	"30.923"	"142.048"	"107.172"	"177.171"	"131.31"	"28.769"	"13.904"	"4.922"
"1981"	"8.819"	"0"	"20.111"	"41.455"	"44.836"	"75.718"	"160.791"	"133.911"	"235.978"	"188.15"	"9.634"	"0.611"
"1982"	"0.316"	"0"	"0.133"	"19.59"	"37.915"	"82.825"	"148.605"	"89.979"	"121.834"	"112.083"	"42.273"	"0"
"1983"	"0"	"0.503"	"0.703"	"8.745"	"40.18"	"90.879"	"105.622"	"268.788"	"221.302"	"137.103"	"9.582"	"6.077"
"1984"	"1.422"	"4.088"	"10.377"	"43.15"	"3.985"	"57.951"	"147.097"	"79.438"	"95.26"	"94.421"	"12.902"	"1.9"
"1985"	"9.879"	"0"	"13.014"	"4.876"	"4.559"	"96.292"	"134.163"	"68.878"	"61.539"	"126.011"	"8.46"	"15.494"
"1986"	"20.256"	"13.192"	"0.007"	"40.183"	"9.692"	"119.521"	"86.995"	"204.307"	"59.289"	"95.848"	"57.586"	"21.966"
"1987"	"6.287"	"0"	"28.192"	"29.438"	"20.751"	"68.687"	"120.651"	"170.608"	"67.523"	"153.407"	"66.917"	"10.725"
"1988"	"0"	"25.82"	"0.025"	"38.631"	"5.761"	"62.515"	"244.768"	"206.417"	"216.482"	"33.291"	"4.554"	"24.74"
"1989"	"0.069"	"0"	"24.399"	"0.753"	"10.322"	"110.274"	"326.639"	"96.453"	"159.165"	"101.704"	"11.863"	"5.055"
"1990"	"1.718"	"8.13"	"22.769"	"1.166"	"160.813"	"107.839"	"91.255"	"190.212"	"120.7"	"121.476"	"44.035"	"1.956"
"1991"	"2.139"	"0.042"	"0.11"	"10.064"	"19.215"	"173.3"	"103.405"	"178.917"	"177.107"	"67.542"	"52.688"	"1.129"
"1992"	"0.655"	"0"	"0"	"5.308"	"35.906"	"78.947"	"78.33"	"226.533"	"119.151"	"60.318"	"37.458"	"0.535"
"1993"	"0"	"0.018"	"0.288"	"9.883"	"24.832"	"71.187"	"135.838"	"151.914"	"108.517"	"196.889"	"4.424"	"10.942"
"1994"	"17.43"	"8.98"	"4.92"	"21.654"	"9.57"	"80.025"	"138.524"	"171.796"	"60.295"	"274.11"	"85.836"	"0.173"
"1995"	"18.016"	"0.223"	"19.824"	"2.412"	"65.229"	"103.128"	"179.546"	"168.2"	"178.093"	"335.165"	"40.058"	"0.045"
"1996"	"0.091"	"0.709"	"0.094"	"43.425"	"10.271"	"124.31"	"170.369"	"260.061"	"139.007"	"151.231"	"87.644"	"4.871"
"1997"	"6.464"	"0"	"7.315"	"44.712"	"13.238"	"34.395"	"154.639"	"143.466"	"156.641"	"104.442"	"70.482"	"32.442"
"1998"	"3.242"	"0.187"	"0.054"	"11.764"	"15.289"	"44.071"	"166.042"	"221.469"	"150.005"	"249.273"	"18.573"	"1.056"
"1999"	"0"	"0.798"	"0"	"8.495"	"76.122"	"47.747"	"126.68"	"114.244"	"113.736"	"58.675"	"1.675"	"0.317"
"2000"	"0"	"19.202"	"0"	"11.5"	"64.638"	"199.678"	"123.639"	"396.94"	"76.508"	"38.527"	"5.514"	"1.848"
"2001"	"13.354"	"0"	"24.415"	"15.224"	"23.346"	"160.668"	"50.446"	"198.508"	"100.13"	"162.098"	"12.337"	"0.988"
"2002"	"16.67"	"0.125"	"6.567"	"1.614"	"49.39"	"116.905"	"55.744"	"173.151"	"46.176"	"128.856"	"14.664"	"0.137"
