
"Year"	"Jan"	"Feb"	"Mar"	"Apr"	"May"	"Jun"	"Jul"	"Aug"	"Sep"	"Oct"	"Nov"	"Dec"
"1901"	"23.012"	"23.885"	"28.11"	"31.434"	"32.252"	"29.827"	"26.267"	"25.304"	"27.031"	"26.494"	"22.781"	"21.214"
"1902"	"23.342"	"25.146"	"29.65"	"32.329"	"34.167"	"30.968"	"27.608"	"27.405"	"26.297"	"26.544"	"22.136"	"21.559"
"1903"	"22.838"	"23.903"	"28.314"	"31.776"	"31.738"	"31.336"	"26.246"	"25.851"	"26.205"	"25.171"	"21.616"	"20.597"
"1904"	"22.595"	"24.188"	"28.096"	"32.348"	"33.106"	"28.969"	"26.817"	"26.595"	"25.944"	"26.043"	"21.576"	"21.13"
"1905"	"21.889"	"22.862"	"27.871"	"29.979"	"33.86"	"31.093"	"27.219"	"26.366"	"25.991"	"26.054"	"23.474"	"20.514"
"1906"	"22.431"	"24.603"	"28.131"	"32.454"	"34.156"	"28.761"	"26.769"	"26.402"	"25.688"	"25.629"	"23.313"	"21.883"
"1907"	"22.464"	"24.579"	"27.928"	"29.891"	"31.996"	"29.532"	"27.174"	"24.902"	"27.034"	"27.377"	"24.518"	"20.879"
"1908"	"21.837"	"24.695"	"27.686"	"32.545"	"33.49"	"30.11"	"26.026"	"25.35"	"26.281"	"26.061"	"22.183"	"19.681"
"1909"	"23.682"	"25.356"	"29.496"	"30.244"	"33.098"	"28.644"	"25.855"	"26.52"	"25.842"	"25.842"	"23.074"	"22.582"
"1910"	"22.737"	"24.165"	"28.588"	"32.109"	"33.185"	"28.957"	"27.249"	"26.276"	"25.617"	"25.21"	"20.918"	"20.679"
"1911"	"22.789"	"23.204"	"27.558"	"31.903"	"34.103"	"29.045"	"27.377"	"25.514"	"26.766"	"27.078"	"24.775"	"21.989"
"1912"	"23.107"	"25.607"	"29.088"	"31.921"	"33.736"	"32.197"	"27.049"	"25.801"	"26.755"	"26.413"	"22.724"	"20.462"
"1913"	"21.459"	"25.963"	"28.216"	"32.913"	"32.671"	"28.779"	"26.515"	"26.192"	"26.785"	"26.477"	"22.993"	"22.428"
"1914"	"22.185"	"25.587"	"28.148"	"31.018"	"32.854"	"28.831"	"26.139"	"25.788"	"26.026"	"26.127"	"23.94"	"21.808"
"1915"	"22.01"	"24.485"	"27.541"	"31.097"	"33.071"	"31.509"	"27.439"	"25.949"	"26.25"	"26.227"	"24.78"	"20.383"
"1916"	"22.265"	"24.583"	"28.937"	"32.096"	"33.182"	"27.489"	"27.015"	"26.133"	"26.18"	"25.894"	"22.889"	"20.018"
"1917"	"21.577"	"23.275"	"26.853"	"29.736"	"31.6"	"27.818"	"26.164"	"26.387"	"25.422"	"25.242"	"21.86"	"20.968"
"1918"	"20.693"	"24.365"	"27.97"	"30.867"	"31.578"	"28.368"	"28.013"	"26.189"	"27.242"	"26.553"	"24.095"	"21.864"
"1919"	"23.641"	"25.744"	"29.234"	"31.377"	"32.978"	"28.069"	"26.719"	"26.137"	"26.591"	"25.267"	"23.875"	"20.9"
"1920"	"22.244"	"23.981"	"28.807"	"31.404"	"31.845"	"30.258"	"26.727"	"27.131"	"27.308"	"27.735"	"23.639"	"21.682"
"1921"	"23.223"	"24.533"	"29.978"	"32.567"	"34.551"	"28.743"	"27.077"	"26.156"	"25.76"	"25.249"	"21.18"	"21.305"
"1922"	"22.143"	"24.954"	"28.672"	"32.201"	"33.132"	"29.203"	"26.484"	"26.43"	"25.682"	"25.503"	"22.322"	"19.705"
"1923"	"21.782"	"23.88"	"28.035"	"31.788"	"32.825"	"32.008"	"26.277"	"25.896"	"25.926"	"24.773"	"22.636"	"22.016"
"1924"	"23.305"	"25.996"	"29.582"	"33.032"	"33.722"	"30.697"	"27.249"	"26.628"	"25.894"	"24.61"	"21.411"	"21.043"
"1925"	"20.978"	"23.483"	"28.28"	"32.775"	"31.907"	"28.713"	"26.368"	"25.727"	"26.74"	"26.185"	"23.362"	"20.399"
"1926"	"22.882"	"25.357"	"28.671"	"29.782"	"32.6"	"32.288"	"27.379"	"25.893"	"26.399"	"26.202"	"22.507"	"21.315"
"1927"	"24.043"	"25.496"	"29.091"	"32.415"	"33.393"	"29.595"	"26.024"	"26.324"	"26.93"	"25.858"	"21.147"	"21.8"
"1928"	"22.986"	"24.754"	"28.698"	"31.581"	"34.075"	"29.655"	"26.467"	"26.602"	"26.214"	"25.852"	"23.478"	"21.65"
"1929"	"22.685"	"24.268"	"29.259"	"31.187"	"34.413"	"29.183"	"26.953"	"26.934"	"26.505"	"26.151"	"23.448"	"22.451"
"1930"	"23.127"	"23.25"	"28.998"	"31.467"	"33.431"	"30.284"	"26.9"	"26.257"	"26.46"	"26.55"	"22.409"	"22.672"
"1931"	"22.662"	"26.067"	"28.747"	"32.782"	"33.838"	"30.63"	"26.456"	"26"	"25.913"	"25.289"	"22.429"	"20.863"
"1932"	"21.636"	"23.244"	"27.307"	"30.955"	"32.872"	"29.693"	"26.066"	"26.487"	"26.288"	"26.915"	"23.459"	"21.24"
"1933"	"22.501"	"25.631"	"28.375"	"30.947"	"30.461"	"27.941"	"26.341"	"25.61"	"25.887"	"25.314"	"23.113"	"21.053"
"1934"	"21.416"	"24.172"	"28.114"	"32.225"	"33.832"	"29.985"	"26.279"	"25.467"	"25.696"	"25.515"	"21.453"	"21.031"
"1935"	"21.937"	"24.583"	"27.823"	"29.946"	"33.999"	"29.973"	"25.853"	"26.041"	"25.402"	"26.382"	"22.661"	"22.502"
"1936"	"23.51"	"24.364"	"28.058"	"30.944"	"33.257"	"27.889"	"27.111"	"25.886"	"26.534"	"25.912"	"23.542"	"21.576"
"1937"	"21.213"	"25.229"	"27.81"	"30.974"	"33.276"	"30.244"	"25.935"	"26.677"	"26.432"	"25.477"	"23.45"	"21.424"
"1938"	"24.273"	"23.982"	"29.706"	"31.926"	"33.114"	"26.326"	"25.618"	"26.068"	"26.064"	"24.909"	"21.994"	"20.693"
"1939"	"22.685"	"25.381"	"27.567"	"31.326"	"33.538"	"29.839"	"26.371"	"26.329"	"26.237"	"26.328"	"21.708"	"20.316"
"1940"	"21.397"	"25.045"	"27.315"	"31.195"	"32.771"	"29.362"	"25.517"	"25.597"	"26.494"	"26.04"	"23.838"	"22.288"
"1941"	"22.868"	"24.977"	"30.056"	"32.909"	"34.043"	"30.85"	"27.262"	"26.426"	"26.951"	"27.034"	"23.575"	"23.032"
"1942"	"23.061"	"25.046"	"29.465"	"32.366"	"33.546"	"30.286"	"25.896"	"25.752"	"25.561"	"25.733"	"22.734"	"21.818"
"1943"	"23.659"	"22.641"	"28.354"	"31.087"	"32.346"	"28.401"	"26.073"	"25.897"	"25.414"	"25.011"	"23.183"	"19.789"
"1944"	"22.707"	"24.289"	"27.015"	"30.585"	"33.924"	"30.047"	"26.145"	"26.19"	"26.457"	"25.777"	"22.606"	"22.267"
"1945"	"22.061"	"23.95"	"28.359"	"30.652"	"33.791"	"29.899"	"26.207"	"25.872"	"25.672"	"25.675"	"21.587"	"20.117"
"1946"	"21.263"	"24.479"	"28.819"	"31.864"	"32.853"	"28.283"	"26.35"	"25.855"	"26.315"	"27.025"	"24.014"	"23.257"
"1947"	"23.047"	"25.088"	"28.929"	"31.467"	"33.955"	"30.793"	"26.583"	"26.684"	"25.796"	"24.638"	"23.079"	"21.71"
"1948"	"22.953"	"24.813"	"28.188"	"31.917"	"34.318"	"29.598"	"26.513"	"25.903"	"25.597"	"26.803"	"24.573"	"19.947"
"1949"	"22.114"	"23.631"	"29.006"	"32.12"	"32.878"	"28.418"	"26.478"	"26.718"	"25.514"	"26.175"	"21.954"	"21.634"
"1950"	"22.332"	"23.961"	"27.653"	"31.878"	"33.467"	"29.946"	"26.551"	"27.219"	"26.061"	"25.596"	"22.004"	"21.375"
"1951"	"21.941"	"24.358"	"28.951"	"31.282"	"33.505"	"29.715"	"27.389"	"26.132"	"27.184"	"27.176"	"24.111"	"20.924"
"1952"	"22.601"	"25.868"	"28.108"	"32.719"	"33.973"	"30.231"	"27.627"	"25.949"	"26.805"	"26.434"	"21.924"	"23.428"
"1953"	"22.772"	"26.717"	"30.666"	"32.312"	"34.649"	"31.142"	"26.993"	"25.85"	"26.608"	"26.143"	"22.669"	"21.047"
"1954"	"21.813"	"25.94"	"28.991"	"32.76"	"34.769"	"29.925"	"26.52"	"26.508"	"25.286"	"24.671"	"22.037"	"21.855"
"1955"	"23.003"	"26.126"	"29.726"	"30.893"	"33.159"	"29.275"	"26.661"	"25.46"	"26.102"	"25.66"	"21.556"	"20.96"
"1956"	"22.913"	"24.58"	"29.555"	"32.348"	"32.625"	"28.335"	"25.275"	"25.919"	"26.034"	"25.431"	"22.963"	"21.747"
"1957"	"23.08"	"24.305"	"27.768"	"31.094"	"33.029"	"30.689"	"26.602"	"25.711"	"26.695"	"26.888"	"24.5"	"23.397"
"1958"	"23.181"	"25.254"	"28.998"	"32.457"	"34.082"	"32.087"	"26.297"	"26.361"	"26.07"	"26.266"	"24.488"	"22.054"
"1959"	"23.473"	"26"	"29.443"	"32.274"	"34.398"	"30.059"	"26.15"	"25.728"	"25.99"	"26.435"	"23.841"	"22.399"
"1960"	"22.94"	"25.31"	"28.153"	"31.828"	"33.387"	"28.842"	"27.118"	"26.248"	"26.685"	"25.83"	"23.202"	"22.97"
"1961"	"23.494"	"24.062"	"30.12"	"32.494"	"32.797"	"29.159"	"26.169"	"26.212"	"25.615"	"25.067"	"23.042"	"21.39"
"1962"	"20.97"	"24.718"	"28.135"	"30.863"	"32.759"	"30.175"	"26.977"	"26.376"	"25.738"	"25.683"	"23.1"	"21.311"
"1963"	"21.568"	"24.636"	"28.564"	"30.505"	"33.059"	"28.883"	"27.104"	"25.519"	"26.504"	"26.234"	"24.153"	"22.261"
"1964"	"22.732"	"25.54"	"29.945"	"32.869"	"33.453"	"29.714"	"26.624"	"25.369"	"26.043"	"26.35"	"22.569"	"21.326"
"1965"	"22.82"	"24.837"	"28.566"	"31.103"	"33.791"	"29.915"	"26.185"	"26.448"	"26.217"	"26.724"	"23.81"	"22.658"
"1966"	"22.396"	"25.659"	"28.624"	"31.92"	"32.531"	"30.795"	"28.012"	"26.902"	"26.354"	"26.864"	"25"	"21.818"
"1967"	"22.713"	"25.389"	"28.409"	"31.735"	"33.735"	"30.254"	"26.901"	"26.15"	"26.295"	"26.282"	"23.872"	"23.281"
"1968"	"21.58"	"24.823"	"27.72"	"30.639"	"33.005"	"30.146"	"26.985"	"25.788"	"26.767"	"25.304"	"23.061"	"22.548"
"1969"	"22.821"	"26.394"	"31.002"	"33.269"	"33.64"	"30.715"	"26.588"	"26.193"	"25.412"	"26.036"	"24.782"	"21.769"
"1970"	"23.044"	"26.613"	"29.728"	"32.71"	"33.928"	"27.896"	"27.297"	"25.812"	"26.119"	"25.899"	"22.216"	"19.998"
"1971"	"22.33"	"25.634"	"28.223"	"32.733"	"32.315"	"27.998"	"27.73"	"27.176"	"27.07"	"25.86"	"22.207"	"20.475"
"1972"	"21.646"	"24.466"	"30.152"	"32.005"	"33.561"	"31.119"	"27.448"	"26.41"	"27.24"	"26.969"	"23.602"	"23.382"
"1973"	"23.657"	"26.362"	"30.07"	"34.242"	"35.107"	"30.205"	"26.271"	"25.689"	"26.16"	"25.92"	"22.477"	"22.335"
"1974"	"21.809"	"25.553"	"29.875"	"32.675"	"32.125"	"29.655"	"27.955"	"26.158"	"27.567"	"25.938"	"22.14"	"20.653"
"1975"	"21.203"	"25.138"	"28.744"	"32.953"	"33.81"	"28.832"	"26.572"	"25.933"	"25.59"	"26.315"	"21.36"	"19.779"
"1976"	"21.213"	"24.801"	"29.079"	"31.567"	"33.275"	"29.173"	"26.601"	"25.839"	"26.219"	"27.318"	"25.546"	"23.202"
"1977"	"22.194"	"25.85"	"30.462"	"31.857"	"32.363"	"29.847"	"27.196"	"25.968"	"26.349"	"26.55"	"25.376"	"21.293"
"1978"	"22.066"	"24.731"	"28.066"	"31.946"	"34.054"	"28.631"	"26.09"	"25.546"	"26.79"	"26.789"	"25.535"	"22.209"
"1979"	"23.869"	"24.999"	"28.506"	"32.078"	"32.561"	"31.314"	"27.649"	"26.248"	"27.178"	"27.383"	"25.36"	"22.6"
"1980"	"23.84"	"26.602"	"29.536"	"32.947"	"34.743"	"28.339"	"26.876"	"25.484"	"27.168"	"27.692"	"25.528"	"22.247"
"1981"	"21.555"	"26.306"	"28.397"	"32.262"	"33.333"	"29.966"	"26.711"	"25.867"	"26.292"	"26.483"	"23.074"	"21.882"
"1982"	"23.946"	"25.678"	"28.986"	"31.576"	"32.291"	"30.457"	"27.727"	"26.68"	"26.964"	"27.09"	"24.813"	"23.361"
"1983"	"23.09"	"25.871"	"29.794"	"32.114"	"34.198"	"31.519"	"28.063"	"26.637"	"26.07"	"25.542"	"22.403"	"21.484"
"1984"	"23.687"	"24.764"	"29.581"	"32.309"	"34.889"	"29.548"	"26.987"	"26.047"	"26.871"	"26.764"	"23.054"	"23.211"
"1985"	"24.579"	"25.973"	"30.695"	"32.489"	"33.952"	"28.92"	"26.838"	"26.464"	"27.973"	"25.514"	"23.648"	"23.345"
"1986"	"22.865"	"25.758"	"30.203"	"32.794"	"34.121"	"29.211"	"27.055"	"25.897"	"28.257"	"28.337"	"24.277"	"23.139"
"1987"	"23.955"	"25.641"	"29.189"	"32.774"	"32.52"	"30.727"	"27.662"	"26.888"	"28.49"	"26.951"	"24.918"	"22.441"
"1988"	"23.972"	"26.877"	"29.901"	"32.278"	"34.942"	"30.169"	"26.514"	"26.86"	"26.852"	"26.003"	"23.632"	"21.966"
"1989"	"23.019"	"25.052"	"28.003"	"32.081"	"34.192"	"28.857"	"26.662"	"25.356"	"26.309"	"26.49"	"24.828"	"21.98"
"1990"	"23.421"	"25.566"	"28.257"	"32.679"	"30.611"	"27.372"	"26.514"	"26.126"	"26.699"	"25.631"	"24.564"	"22.682"
"1991"	"22.88"	"26.397"	"29.928"	"31.86"	"34.321"	"28.799"	"26.665"	"26.178"	"27.776"	"27.152"	"23.919"	"21.856"
"1992"	"22.711"	"24.997"	"30.244"	"32.169"	"33.916"	"31.137"	"28.157"	"25.821"	"26.376"	"26.635"	"24.072"	"21.318"
"1993"	"23.451"	"24.595"	"28.482"	"32.364"	"34.455"	"31.657"	"27.135"	"26.309"	"26.535"	"26.786"	"23.913"	"20.606"
"1994"	"22.933"	"25.396"	"30.291"	"30.817"	"34.269"	"28.878"	"25.868"	"25.672"	"26.432"	"26.8"	"23.22"	"21.057"
"1995"	"20.605"	"25.328"	"28.554"	"31.78"	"32.373"	"31.8"	"27.359"	"27.579"	"27.146"	"26.629"	"24.794"	"23.981"
"1996"	"24.791"	"26.369"	"30.552"	"32.053"	"34.376"	"30.334"	"27.806"	"26.396"	"26.702"	"25.795"	"23.519"	"21.947"
"1997"	"21.255"	"23.935"	"28.942"	"29.668"	"32.671"	"29.631"	"27.07"	"26.571"	"26.442"	"26.336"	"26.05"	"23.924"
"1998"	"23.815"	"25.535"	"29.449"	"33.219"	"35.018"	"31.972"	"28.102"	"27.108"	"26.728"	"26.889"	"24.429"	"21.211"
"1999"	"21.849"	"26.221"	"29.835"	"33.198"	"32.446"	"28.469"	"26.926"	"26.238"	"25.89"	"26.17"	"23.958"	"21.649"
"2000"	"23.335"	"25.234"	"28.538"	"33.49"	"32.397"	"28.304"	"26.254"	"26.912"	"27.123"	"27.88"	"25.05"	"22.202"
"2001"	"23.399"	"26.623"	"29.81"	"31.351"	"34.182"	"28.643"	"27.223"	"26.157"	"27.976"	"26.419"	"24.764"	"23.598"
"2002"	"22.931"	"26.739"	"29.897"	"33.213"	"33.952"	"29.165"	"27.7"	"25.297"	"26.386"	"26.879"	"23.77"	"23.001"
