
"Year"	"Jan"	"Feb"	"Mar"	"Apr"	"May"	"Jun"	"Jul"	"Aug"	"Sep"	"Oct"	"Nov"	"Dec"
"1901"	"20.301"	"20.41"	"26.054"	"28.502"	"29.705"	"29.076"	"26.607"	"25.295"	"26.006"	"26.751"	"23.537"	"22.147"
"1902"	"22.176"	"22.951"	"26.898"	"28.9"	"30.355"	"29.145"	"27.074"	"26.644"	"25.674"	"26.518"	"22.619"	"21.3"
"1903"	"21.007"	"20.835"	"24.015"	"27.82"	"29.486"	"29.403"	"26.721"	"25.941"	"25.747"	"25.28"	"22.043"	"20.717"
"1904"	"21.357"	"21.902"	"24.522"	"28.545"	"30.108"	"28.167"	"26.063"	"26.108"	"25.844"	"26.401"	"22.441"	"21.575"
"1905"	"20.145"	"20.245"	"23.613"	"26.529"	"31.036"	"29.316"	"26.065"	"25.969"	"25.78"	"26.699"	"23.948"	"20.987"
"1906"	"20.073"	"20.744"	"24.895"	"28.693"	"30.566"	"27.739"	"25.92"	"25.897"	"24.983"	"25.523"	"23.996"	"21.919"
"1907"	"21.453"	"22.137"	"24.93"	"26.866"	"28.946"	"28.595"	"27.005"	"24.652"	"25.636"	"26.894"	"24.313"	"20.467"
"1908"	"20.637"	"21.511"	"24.671"	"29.069"	"29.603"	"28.731"	"25.301"	"25.119"	"26.051"	"26.282"	"22.903"	"20.011"
"1909"	"21.513"	"22.312"	"26.81"	"27.353"	"30.233"	"27.714"	"25.46"	"25.698"	"25.312"	"25.496"	"23.313"	"21.975"
"1910"	"21.052"	"21.968"	"25.654"	"28.412"	"29.711"	"27.751"	"26.072"	"25.737"	"25.489"	"24.824"	"21.357"	"20.85"
"1911"	"22.136"	"21.705"	"24.306"	"28.048"	"30.672"	"27.495"	"26.98"	"25.584"	"25.566"	"27.334"	"24.733"	"23.099"
"1912"	"21.903"	"23.295"	"25.569"	"29.312"	"30.512"	"30.148"	"26.775"	"25.697"	"26.201"	"26.361"	"22.872"	"21.197"
"1913"	"20.421"	"22.963"	"24.547"	"29.416"	"29.57"	"27.118"	"25.989"	"25.387"	"26.068"	"26.737"	"23.76"	"22.46"
"1914"	"21.93"	"22.665"	"24.827"	"28.03"	"30.684"	"28.203"	"25.83"	"25.807"	"26.066"	"26.332"	"24.616"	"21.913"
"1915"	"21.557"	"21.745"	"25.476"	"28.461"	"30.317"	"30.18"	"27.287"	"25.933"	"26.4"	"26.191"	"24.714"	"21.3"
"1916"	"21.372"	"21.562"	"27.049"	"29.324"	"30.734"	"27.088"	"27.206"	"25.872"	"26.31"	"25.891"	"23.201"	"20.857"
"1917"	"21.481"	"21.976"	"25.048"	"27.109"	"28.541"	"27.259"	"26.096"	"26.057"	"25.684"	"24.984"	"22.092"	"21.013"
"1918"	"19.969"	"22.796"	"25.247"	"27.158"	"29.523"	"27.796"	"27.335"	"26.229"	"26.232"	"27.311"	"25.414"	"22.261"
"1919"	"22.047"	"22.728"	"26.111"	"28.242"	"30.018"	"27.688"	"25.944"	"25.64"	"26.054"	"25.855"	"24.739"	"21.326"
"1920"	"22.069"	"21.83"	"25.914"	"28.159"	"28.544"	"28.095"	"25.426"	"25.502"	"26.519"	"26.78"	"23.931"	"21.88"
"1921"	"21.845"	"22.086"	"27.053"	"29.773"	"30.281"	"28.539"	"27.131"	"25.488"	"25.165"	"25.954"	"22.709"	"22.176"
"1922"	"21.266"	"23.438"	"26.133"	"29.145"	"30.11"	"28.257"	"25.557"	"25.437"	"25.5"	"25.953"	"23.004"	"20.163"
"1923"	"21.277"	"21.127"	"26.051"	"28.036"	"29.232"	"29.943"	"26.065"	"25.327"	"25.71"	"25.511"	"23.227"	"22.736"
"1924"	"22.092"	"23.038"	"27.482"	"29.462"	"30.041"	"29.126"	"26.658"	"26.138"	"25.8"	"24.595"	"21.817"	"21.662"
"1925"	"19.425"	"21.19"	"26.135"	"29.788"	"29.472"	"27.105"	"25.657"	"26.111"	"26.422"	"27.109"	"24.807"	"21.804"
"1926"	"22.274"	"24.167"	"25.784"	"26.515"	"29.921"	"30.404"	"26.711"	"25.763"	"25.834"	"26.526"	"22.907"	"21.361"
"1927"	"21.076"	"21.878"	"25.45"	"28.132"	"29.544"	"27.927"	"25.425"	"25.144"	"26.026"	"25.946"	"21.495"	"21.727"
"1928"	"21.365"	"22.206"	"25.594"	"28.435"	"29.834"	"28.466"	"25.78"	"25.359"	"25.173"	"25.938"	"23.924"	"21.32"
"1929"	"20.506"	"22.037"	"26.985"	"28.301"	"30.355"	"27.925"	"25.882"	"25.409"	"26.322"	"25.835"	"24.145"	"21.575"
"1930"	"21.587"	"20.64"	"26.069"	"27.919"	"30.116"	"28.446"	"24.931"	"24.984"	"25.842"	"26.625"	"22.383"	"22.243"
"1931"	"21.953"	"22.517"	"25.006"	"29.544"	"30.329"	"30.003"	"26.184"	"25.666"	"25.419"	"24.971"	"23.07"	"21.208"
"1932"	"21.425"	"20.912"	"25.157"	"27.736"	"30.12"	"28.258"	"25.57"	"26.02"	"25.826"	"26.601"	"23.275"	"21.706"
"1933"	"20.959"	"22.488"	"25.604"	"28.029"	"28.433"	"27.3"	"26.016"	"25.242"	"25.265"	"25.429"	"23.728"	"21.184"
"1934"	"19.919"	"22.487"	"24.925"	"28.546"	"29.529"	"28.266"	"25.587"	"25.03"	"24.924"	"25.483"	"22.381"	"21.322"
"1935"	"19.667"	"21.956"	"24.596"	"26.522"	"29.949"	"28.568"	"25.562"	"25.34"	"24.805"	"26.091"	"22.875"	"21.941"
"1936"	"20.61"	"21.593"	"25.331"	"27.523"	"30.704"	"27.047"	"25.819"	"25.597"	"26.009"	"25.978"	"24.249"	"21.186"
"1937"	"20.053"	"22.513"	"24.689"	"27.509"	"29.765"	"28.331"	"25.165"	"25.402"	"25.509"	"25.484"	"23.723"	"20.945"
"1938"	"22.411"	"20.776"	"26.722"	"28.851"	"29.627"	"25.835"	"25.332"	"25.78"	"25.657"	"24.977"	"22.472"	"21.425"
"1939"	"21.818"	"23.102"	"24.43"	"27.693"	"29.422"	"28.367"	"25.66"	"25.917"	"25.244"	"26.252"	"22.606"	"20.745"
"1940"	"20.893"	"22.664"	"24.008"	"27.973"	"30.017"	"28.351"	"25.497"	"25.113"	"25.725"	"25.87"	"23.883"	"21.325"
"1941"	"20.706"	"23.209"	"26.687"	"29.215"	"30.368"	"29.047"	"25.775"	"26.041"	"26.353"	"27.033"	"23.989"	"23.401"
"1942"	"21.081"	"22.826"	"26.779"	"29.823"	"30.255"	"29.101"	"25.165"	"25.321"	"25.195"	"26.322"	"22.986"	"21.405"
"1943"	"21.777"	"21.477"	"26.108"	"27.857"	"30.312"	"27.19"	"25.068"	"24.924"	"25.317"	"25.208"	"24.344"	"20.673"
"1944"	"21.108"	"21.568"	"24.777"	"27.669"	"30.659"	"28.477"	"25.531"	"25.233"	"26.013"	"25.49"	"23.721"	"22.935"
"1945"	"20.05"	"21.467"	"25.77"	"27.341"	"29.707"	"28.736"	"25.434"	"25.821"	"25.274"	"25.772"	"22.302"	"20.081"
"1946"	"20.821"	"23.157"	"25.755"	"28.953"	"29.221"	"27.524"	"25.476"	"24.922"	"25.489"	"26.653"	"22.809"	"23.524"
"1947"	"21.185"	"22.8"	"26.097"	"27.481"	"30.229"	"29.242"	"26.145"	"26.679"	"25.236"	"24.864"	"23.852"	"22.183"
"1948"	"21.987"	"22.368"	"26.089"	"29.383"	"30.787"	"28.555"	"26.268"	"25.726"	"25.438"	"26.886"	"24.912"	"20.985"
"1949"	"22.515"	"22.218"	"26.618"	"28.969"	"30.215"	"28.073"	"26.514"	"26.151"	"25.56"	"26.164"	"23.102"	"21.291"
"1950"	"21.54"	"20.901"	"25.083"	"28.199"	"29.66"	"28.85"	"25.668"	"25.915"	"25.576"	"25.118"	"22.203"	"21.097"
"1951"	"20.684"	"22.071"	"25.796"	"27.296"	"30.003"	"28.556"	"26.588"	"25.434"	"27.173"	"27.408"	"25.005"	"21.216"
"1952"	"21.813"	"23.508"	"24.93"	"29.224"	"30.467"	"28.301"	"26.012"	"25.053"	"25.868"	"26.502"	"22.861"	"23.651"
"1953"	"21.194"	"24.344"	"27.879"	"28.932"	"29.803"	"28.554"	"26.09"	"25.233"	"25.932"	"26.175"	"23.555"	"22.074"
"1954"	"20.626"	"23.543"	"26.167"	"28.825"	"30.557"	"28.236"	"25.772"	"25.759"	"24.37"	"24.831"	"23.135"	"22"
"1955"	"22.316"	"23.138"	"26.791"	"27.359"	"30.026"	"28.117"	"26.4"	"25.176"	"25.711"	"25.407"	"22.153"	"21.413"
"1956"	"21.792"	"22.396"	"26.734"	"29.049"	"29.375"	"27.452"	"24.774"	"24.979"	"25.38"	"25.491"	"23.383"	"21.836"
"1957"	"21.57"	"21.15"	"24.557"	"28.374"	"29.835"	"29.194"	"25.987"	"25.546"	"25.727"	"26.778"	"25.045"	"23.49"
"1958"	"22.438"	"22.499"	"26.141"	"29.442"	"30.582"	"29.45"	"25.82"	"25.976"	"25.466"	"26.117"	"24.664"	"22.743"
"1959"	"22.102"	"22.781"	"26.678"	"29.076"	"30.802"	"28.589"	"25.079"	"25.134"	"25.325"	"25.636"	"24.001"	"22.93"
"1960"	"21.073"	"23.958"	"25.218"	"28.744"	"30.079"	"27.978"	"26.404"	"24.829"	"26.024"	"25.875"	"23.82"	"23.466"
"1961"	"21.967"	"20.991"	"27.044"	"28.878"	"29.649"	"27.727"	"25.379"	"25.764"	"24.799"	"24.998"	"24.159"	"21.894"
"1962"	"19.923"	"22.83"	"25.653"	"28.564"	"30.533"	"28.633"	"25.966"	"25.581"	"25.368"	"25.168"	"23.822"	"22.26"
"1963"	"22.138"	"23.418"	"25.936"	"27.435"	"29.687"	"28.121"	"25.995"	"24.936"	"25.38"	"26.263"	"24.82"	"22.814"
"1964"	"20.438"	"22.447"	"27.012"	"29.921"	"29.61"	"28.024"	"25.73"	"25.012"	"25.43"	"26.282"	"23.216"	"21.82"
"1965"	"22.279"	"22.663"	"25.39"	"28.277"	"30.029"	"28.726"	"26.163"	"26.109"	"26.257"	"27.262"	"24.913"	"22.99"
"1966"	"21.812"	"24.063"	"25.662"	"28.804"	"29.168"	"29.057"	"27.069"	"25.861"	"26.022"	"27.475"	"25.552"	"22.566"
"1967"	"20.934"	"23.884"	"26.013"	"28.495"	"30.253"	"28.127"	"26.098"	"25.201"	"25.504"	"26.481"	"24.346"	"23.969"
"1968"	"20.375"	"21.777"	"25.411"	"28.416"	"29.408"	"29.269"	"26.246"	"25.112"	"26.88"	"25.714"	"23.464"	"22.192"
"1969"	"21.487"	"23.541"	"27.724"	"29.815"	"30.809"	"28.881"	"26.249"	"25.405"	"25.679"	"26.794"	"25.901"	"22.997"
"1970"	"21.788"	"23.496"	"26.1"	"29.72"	"30.828"	"27.289"	"26.084"	"25.519"	"25.49"	"26.575"	"22.53"	"20.691"
"1971"	"20.609"	"22.704"	"25.821"	"29.345"	"29.231"	"27.155"	"25.908"	"25.315"	"26.035"	"25.123"	"22.647"	"20.666"
"1972"	"20.64"	"20.786"	"26.552"	"28.287"	"30.122"	"29.006"	"26.332"	"25.73"	"26.595"	"27.404"	"23.787"	"22.676"
"1973"	"20.837"	"23.211"	"26.276"	"30.316"	"30.998"	"28.79"	"25.334"	"25.221"	"24.681"	"25.876"	"23.457"	"22.214"
"1974"	"21.118"	"22.423"	"27.069"	"29.41"	"29.411"	"28.872"	"26.032"	"25.628"	"26.715"	"25.796"	"22.765"	"20.94"
"1975"	"20.277"	"22.34"	"25.296"	"29.118"	"30.041"	"27.992"	"26.101"	"25.387"	"25.606"	"26.263"	"22.49"	"20.855"
"1976"	"20.818"	"22.835"	"26.503"	"27.917"	"29.214"	"27.299"	"26.125"	"25.422"	"25.69"	"27.384"	"26.112"	"22.962"
"1977"	"21.537"	"23.334"	"27.948"	"28.991"	"29.682"	"28.192"	"26.238"	"25.86"	"25.837"	"26.894"	"25.36"	"21.884"
"1978"	"20.35"	"21.932"	"24.326"	"28.574"	"30.58"	"27.518"	"25.918"	"25.382"	"25.631"	"26.69"	"25.162"	"22.36"
"1979"	"22.072"	"21.506"	"25.07"	"28.799"	"29.609"	"29.167"	"26.568"	"24.878"	"26.518"	"27.21"	"25.432"	"22.538"
"1980"	"21.787"	"23.319"	"26.067"	"29.762"	"30.924"	"26.513"	"25.822"	"25.342"	"26.605"	"27.541"	"25.597"	"21.89"
"1981"	"20.652"	"23.309"	"26.145"	"28.664"	"29.984"	"29.018"	"25.749"	"25.47"	"25.402"	"26.889"	"23.068"	"21.727"
"1982"	"21.928"	"22.24"	"25.074"	"27.955"	"29.422"	"29.211"	"26.913"	"25.932"	"26.402"	"27.779"	"24.734"	"23.217"
"1983"	"21.109"	"21.468"	"25.051"	"27.409"	"30.273"	"29.291"	"26.998"	"26.036"	"26.029"	"25.652"	"22.984"	"21.669"
"1984"	"20.559"	"21.79"	"27.251"	"29.218"	"30.84"	"28.38"	"26.184"	"25.213"	"25.875"	"26.502"	"23.814"	"22.688"
"1985"	"21.736"	"22.762"	"27.371"	"28.801"	"30.369"	"28.178"	"26.188"	"25.598"	"26.519"	"25.377"	"23.782"	"22.797"
"1986"	"21.919"	"22.854"	"26.308"	"29.245"	"30.256"	"28.131"	"26.231"	"25.183"	"26.71"	"27.229"	"25"	"21.557"
"1987"	"22.546"	"23.456"	"26.626"	"29.082"	"29.73"	"28.87"	"27.099"	"26.357"	"27.556"	"27.174"	"25.305"	"22.461"
"1988"	"22.723"	"23.812"	"25.902"	"29.308"	"30.864"	"28.497"	"25.745"	"26.056"	"26.573"	"26.025"	"23.785"	"22.091"
"1989"	"21.21"	"22.803"	"25.218"	"28.38"	"30.466"	"27.495"	"26.228"	"25.084"	"26.261"	"26.713"	"25.429"	"22.234"
"1990"	"23.091"	"23.032"	"24.987"	"28.404"	"29.241"	"27.463"	"25.812"	"25.337"	"25.791"	"26.195"	"24.913"	"22.726"
"1991"	"20.877"	"22.728"	"26.06"	"28.559"	"30.664"	"28.75"	"25.81"	"25.583"	"26.506"	"26.928"	"24.877"	"21.697"
"1992"	"21.534"	"21.824"	"26.256"	"28.287"	"30.193"	"29.543"	"27.351"	"25.631"	"26.155"	"26.315"	"24.805"	"22.436"
"1993"	"22.073"	"23.013"	"25.456"	"28.347"	"30.532"	"29.147"	"26.396"	"26.074"	"25.672"	"26.815"	"24.729"	"22.049"
"1994"	"22.203"	"22.183"	"26.739"	"27.988"	"30.372"	"27.754"	"25.431"	"25.406"	"25.189"	"26.787"	"24.298"	"21.396"
"1995"	"19.96"	"22.81"	"25.522"	"28.7"	"30.198"	"30.482"	"26.878"	"26.645"	"26.683"	"27.226"	"24.355"	"22.88"
"1996"	"22.506"	"23.876"	"27.659"	"28.883"	"30.372"	"29.389"	"26.553"	"25.584"	"26.17"	"25.998"	"24"	"22.514"
"1997"	"20.76"	"21.64"	"26.39"	"27.193"	"29.101"	"27.702"	"26.359"	"25.553"	"26.086"	"26.713"	"26.707"	"23.433"
"1998"	"22.006"	"22.444"	"25.836"	"29.648"	"31.566"	"29.506"	"26.469"	"26.625"	"26.42"	"27.245"	"24.885"	"22.011"
"1999"	"20.784"	"23.973"	"26.804"	"29.59"	"29.608"	"27.509"	"26.057"	"25.649"	"25.645"	"26.128"	"24.018"	"21.908"
"2000"	"22.138"	"21.874"	"25.199"	"30.088"	"28.957"	"27.898"	"25.483"	"26.373"	"26.392"	"27.622"	"25.126"	"22.438"
"2001"	"21.936"	"23.602"	"25.745"	"28.842"	"29.66"	"27.163"	"25.118"	"25.443"	"26.86"	"26.648"	"24.605"	"23.016"
"2002"	"20.456"	"23.656"	"26.442"	"29.771"	"30.633"	"28.07"	"26.648"	"25.115"	"26.017"	"27.61"	"24.942"	"23.373"
