
"Year"	"Jan"	"Feb"	"Mar"	"Apr"	"May"	"Jun"	"Jul"	"Aug"	"Sep"	"Oct"	"Nov"	"Dec"
"1901"	"35.62"	"8.748"	"17.202"	"3.468"	"24.304"	"20.766"	"249.293"	"150.176"	"32.889"	"0.2"	"0"	"3.872"
"1902"	"0.2"	"2.639"	"11.05"	"11.235"	"14.603"	"39.222"	"141.461"	"125.139"	"88.626"	"4.192"	"1.441"	"0"
"1903"	"16.736"	"4.62"	"14.92"	"1.952"	"12.542"	"16.659"	"183.333"	"145.795"	"68.99"	"6.497"	"0"	"5.415"
"1904"	"24.157"	"1.182"	"55.25"	"5.36"	"11.349"	"44.6"	"87.994"	"135.337"	"57.82"	"1.947"	"14.321"	"4.163"
"1905"	"52.895"	"31.832"	"8.845"	"3.214"	"5.23"	"20.629"	"97.108"	"71.332"	"239.422"	"3.257"	"0"	"13.484"
"1906"	"6.613"	"66.249"	"15.245"	"4.079"	"12.112"	"43.256"	"79.775"	"161.942"	"244.892"	"0.647"	"0"	"4.521"
"1907"	"14.627"	"45.243"	"29.6"	"27.708"	"4.929"	"55.303"	"98.485"	"167.888"	"4.49"	"1.632"	"0.2"	"0"
"1908"	"33.25"	"9.79"	"1.134"	"12.798"	"10.439"	"50.09"	"151.064"	"410.589"	"102.633"	"0.622"	"0.346"	"5.207"
"1909"	"21.34"	"12.378"	"1.207"	"41.022"	"3.31"	"124.851"	"272.682"	"146.657"	"194.065"	"0.448"	"1.208"	"49.851"
"1910"	"26.336"	"7.27"	"2.379"	"16.813"	"9.031"	"110.368"	"152.218"	"160.989"	"45.573"	"1.248"	"0.722"	"4.42"
"1911"	"53.118"	"3.477"	"60.383"	"8.369"	"7.257"	"62.774"	"59.896"	"132.401"	"73.708"	"3.542"	"30.916"	"0.65"
"1912"	"39.543"	"7.127"	"8.634"	"22.511"	"10.237"	"29.095"	"87.083"	"192.359"	"49.888"	"0.2"	"15.443"	"6.344"
"1913"	"6.725"	"32.651"	"25.693"	"5.276"	"49.181"	"75.45"	"156.624"	"197.738"	"19.247"	"1.317"	"3.673"	"15.346"
"1914"	"17.183"	"35.777"	"19.228"	"18.255"	"18.361"	"41.061"	"259.117"	"115.999"	"210.327"	"20.128"	"12.553"	"11.719"
"1915"	"6.453"	"51.887"	"22.725"	"7.978"	"5.413"	"44.47"	"60.622"	"166.731"	"91.594"	"15.276"	"0"	"4.308"
"1916"	"1.153"	"9.865"	"2.491"	"5.171"	"12.983"	"56.926"	"355.701"	"146.364"	"75.756"	"7.911"	"0.399"	"0"
"1917"	"4.657"	"9.993"	"13.535"	"25.71"	"26.256"	"100.425"	"128.944"	"275.934"	"215.72"	"17.498"	"0"	"5.232"
"1918"	"2.526"	"1.755"	"27.407"	"28.791"	"2.357"	"61.525"	"42.024"	"107.247"	"22.72"	"0.37"	"12.513"	"6.868"
"1919"	"52.841"	"16.481"	"11.838"	"14.423"	"13.93"	"16.5"	"225.98"	"137.321"	"47.335"	"1.829"	"1.893"	"11.354"
"1920"	"20.158"	"16.402"	"16.756"	"4.393"	"16.54"	"43.946"	"81.856"	"125.941"	"34.668"	"0.44"	"0"	"0.37"
"1921"	"13.748"	"1.341"	"1.669"	"2.33"	"7.213"	"49.109"	"209.768"	"187.925"	"82.27"	"9.467"	"0"	"10.339"
"1922"	"17.972"	"14.432"	"4.505"	"4.769"	"5.724"	"48.894"	"117.304"	"145.406"	"292.666"	"2.446"	"2.164"	"35.754"
"1923"	"26.608"	"40.054"	"4.771"	"20.139"	"18.739"	"6.509"	"167.119"	"191.596"	"48.868"	"10.088"	"8.763"	"26.917"
"1924"	"34.693"	"41.503"	"7.488"	"2.891"	"22.515"	"6.605"	"230.504"	"86.246"	"157.371"	"7.238"	"1.077"	"45.211"
"1925"	"12.671"	"2.098"	"4.515"	"3.704"	"17.558"	"148.653"	"200.785"	"181.19"	"22.054"	"2.111"	"19.846"	"0"
"1926"	"12.242"	"3.987"	"40.142"	"15.142"	"12.772"	"9.857"	"132.017"	"273.935"	"53.183"	"0.716"	"5.19"	"9.522"
"1927"	"0.85"	"20.634"	"7.673"	"6.675"	"19.462"	"22.376"	"115.152"	"198.124"	"37.43"	"9.93"	"0"	"28.044"
"1928"	"17.071"	"28.496"	"8.186"	"15.866"	"4.931"	"34.691"	"138.094"	"119.995"	"146.538"	"0.021"	"17.326"	"17.27"
"1929"	"19.985"	"2.779"	"3.555"	"6.736"	"3.468"	"128.778"	"119.41"	"296.914"	"19.769"	"4.217"	"0"	"49.966"
"1930"	"19.402"	"8.363"	"4.056"	"20.536"	"7.687"	"28.699"	"227.676"	"94.539"	"36.292"	"3.16"	"6.183"	"5.81"
"1931"	"26.015"	"28.572"	"14.716"	"6.956"	"16.623"	"9.881"	"268.199"	"211.584"	"135.217"	"18.903"	"0.722"	"0"
"1932"	"18.014"	"3.059"	"13.829"	"5.379"	"6.913"	"32.967"	"132.43"	"96.036"	"71.2"	"0.747"	"0.346"	"29.164"
"1933"	"8.296"	"15.474"	"11.55"	"14.334"	"11.766"	"51.578"	"142.624"	"259.715"	"120.154"	"10.031"	"8.168"	"0.419"
"1934"	"15.339"	"4.328"	"15.591"	"1.186"	"4.567"	"39.685"	"139.236"	"201.874"	"17.38"	"0"	"0"	"12.268"
"1935"	"57.916"	"49.488"	"7.772"	"17.369"	"6.492"	"3.788"	"85.98"	"102.985"	"55.888"	"0.325"	"15.103"	"6.544"
"1936"	"3.971"	"33.875"	"22.358"	"14.042"	"8.482"	"203.07"	"250.66"	"160.763"	"83.373"	"10.139"	"1.794"	"26.449"
"1937"	"2.893"	"75.753"	"5.445"	"27.528"	"9.017"	"28.764"	"245.294"	"47.768"	"77.61"	"4.794"	"0.732"	"17.909"
"1938"	"39.01"	"23.518"	"1.97"	"5.643"	"1.125"	"153.602"	"99.588"	"104.83"	"14.211"	"6.669"	"0.792"	"0.943"
"1939"	"11.336"	"44.211"	"21.076"	"7.202"	"5.437"	"51.299"	"107.521"	"71.042"	"61.154"	"4.668"	"0"	"0"
"1940"	"39.316"	"34.546"	"16.566"	"7.209"	"6.321"	"81.76"	"82.641"	"131.535"	"52.439"	"0.54"	"0.395"	"4.559"
"1941"	"25.478"	"9.41"	"5.52"	"3.24"	"20.664"	"57.37"	"97.711"	"69.369"	"148.95"	"0.647"	"1.211"	"11.54"
"1942"	"25.606"	"30.6"	"14.125"	"22.31"	"18.818"	"49.082"	"192.037"	"179.987"	"72.587"	"1.766"	"0.65"	"25.618"
"1943"	"23.612"	"2.289"	"6.304"	"13.243"	"7.517"	"87.918"	"97.466"	"112.561"	"41.835"	"0"	"0"	"0"
"1944"	"25.832"	"32.181"	"18.205"	"23.92"	"1.2"	"63.679"	"125.49"	"142.341"	"73.936"	"0.581"	"1.718"	"9.878"
"1945"	"39.33"	"0.733"	"13.025"	"37.52"	"8.818"	"61.831"	"199.452"	"114.042"	"157.303"	"7.106"	"0.2"	"1.562"
"1946"	"1.229"	"11.263"	"8.868"	"10.69"	"21.868"	"68.919"	"147.184"	"153.239"	"16.306"	"12.977"	"7.653"	"10.62"
"1947"	"13.264"	"15.919"	"12.282"	"0.803"	"4.555"	"12.301"	"82.31"	"217.518"	"85.818"	"9.482"	"0.792"	"10.684"
"1948"	"4.99"	"34.151"	"38.955"	"10.998"	"6.066"	"53.072"	"254.135"	"207.916"	"64.356"	"2.691"	"4.943"	"16.629"
"1949"	"6.929"	"38.263"	"15.94"	"7.67"	"7.013"	"20.145"	"335.848"	"90.849"	"97.296"	"3.635"	"0.509"	"1.358"
"1950"	"62.681"	"24.085"	"39.571"	"3.49"	"8.739"	"35.341"	"287.88"	"186.186"	"292.097"	"0.257"	"0.439"	"0.632"
"1951"	"23.225"	"13.097"	"24.867"	"18.536"	"16.862"	"34.729"	"131.257"	"127.497"	"42.331"	"2.324"	"17.896"	"0.906"
"1952"	"12.809"	"12.592"	"25.854"	"5.116"	"13.643"	"48.971"	"122.867"	"94.656"	"9.049"	"1.147"	"6.251"	"3.416"
"1953"	"36.002"	"5.875"	"5.626"	"8.651"	"4.279"	"33.795"	"227.395"	"199.522"	"145.947"	"1.651"	"3.093"	"7.261"
"1954"	"22.625"	"52.179"	"4.325"	"1.272"	"8.206"	"32.792"	"215.872"	"77.424"	"289.02"	"12.056"	"0"	"1.029"
"1955"	"19.419"	"2.134"	"25.742"	"12.478"	"14.531"	"33.547"	"123.235"	"136.067"	"244.03"	"20.152"	"0"	"4.1"
"1956"	"20.018"	"7.606"	"21.612"	"6.632"	"13.325"	"113.89"	"177.314"	"173.1"	"17.585"	"26.511"	"0"	"3.528"
"1957"	"68.657"	"3.631"	"26.408"	"28.255"	"12.042"	"27.342"	"118.779"	"275.894"	"55.776"	"5.971"	"11.769"	"14.783"
"1958"	"7.754"	"5.297"	"8.065"	"6.413"	"3.768"	"44.043"	"146.289"	"144.146"	"241.02"	"13.273"	"1.448"	"29.51"
"1959"	"30.452"	"14.63"	"13.585"	"3.824"	"22.299"	"9.508"	"280.148"	"228.192"	"62.795"	"11.118"	"28.963"	"0.325"
"1960"	"21.696"	"1.222"	"24.36"	"11.571"	"4.849"	"35.659"	"128.849"	"113.357"	"80.147"	"7.921"	"0"	"7.407"
"1961"	"74.586"	"28.624"	"7.105"	"14.597"	"8.986"	"26.152"	"239.369"	"151.494"	"144.707"	"15.272"	"1.214"	"12.642"
"1962"	"31.483"	"27.14"	"18.988"	"1.404"	"10.872"	"13.099"	"156.493"	"141.61"	"202.486"	"0.001"	"11.611"	"10.373"
"1963"	"2.409"	"17.409"	"30.645"	"6.578"	"24.143"	"21.675"	"105.705"	"101.23"	"89.172"	"1.201"	"4.327"	"17.798"
"1964"	"22.128"	"5.082"	"9.418"	"10.687"	"17.047"	"48.695"	"294.725"	"159.039"	"93.401"	"0"	"2.726"	"8.099"
"1965"	"9.153"	"26.779"	"16.792"	"35.424"	"15.851"	"4.993"	"159.762"	"125.96"	"6.648"	"7.57"	"9.793"	"0"
"1966"	"2.283"	"49.231"	"17.653"	"10.158"	"22.629"	"92.687"	"151.081"	"155.767"	"187.057"	"11.893"	"8.371"	"1.069"
"1967"	"0.278"	"18.712"	"45.138"	"5.793"	"3.627"	"10.495"	"108.625"	"332.31"	"45.529"	"3.357"	"2.658"	"44.459"
"1968"	"28.916"	"30.327"	"11.287"	"3.767"	"6.234"	"24.824"	"131.867"	"189.963"	"10.878"	"10"	"0"	"8.786"
"1969"	"7.786"	"10.355"	"24.011"	"28.328"	"21.987"	"16.74"	"213.662"	"124.175"	"142.228"	"1.768"	"0.468"	"0"
"1970"	"20.264"	"18.718"	"11.121"	"0.524"	"13.331"	"48.795"	"60.599"	"191.843"	"50.844"	"2.614"	"0"	"0"
"1971"	"4.403"	"15.788"	"6.675"	"19.377"	"39.746"	"73.565"	"165.728"	"279.334"	"51.826"	"10.04"	"4.043"	"0"
"1972"	"11.191"	"16.736"	"6.739"	"5.921"	"2.569"	"15.794"	"114.651"	"132.116"	"173.788"	"11.769"	"12.132"	"9.412"
"1973"	"16.117"	"15.858"	"11.827"	"1.133"	"15.446"	"50.05"	"154.666"	"242.958"	"89.784"	"5.888"	"0"	"15.269"
"1974"	"8.757"	"11.151"	"2.571"	"1.13"	"14.938"	"27.942"	"189.247"	"87.743"	"17.522"	"0.763"	"0"	"9.609"
"1975"	"26.326"	"25.676"	"24.836"	"3.529"	"1.077"	"108.553"	"212.867"	"160.735"	"186.633"	"2.137"	"0"	"0"
"1976"	"13.988"	"29.376"	"14.79"	"10.966"	"14.066"	"97.396"	"176.251"	"482.667"	"145.75"	"10.618"	"0"	"0.153"
"1977"	"29.484"	"1.529"	"1.587"	"33.794"	"39.997"	"108.098"	"192.834"	"144.134"	"62.518"	"18.219"	"0.885"	"8.481"
"1978"	"5.671"	"8.95"	"55.922"	"9.302"	"0.604"	"78.438"	"271.069"	"341.376"	"167.99"	"0.492"	"8.081"	"1.625"
"1979"	"12.965"	"42.797"	"34.751"	"6.387"	"23.725"	"39.926"	"152.644"	"90.908"	"89.384"	"5.703"	"10.042"	"1.468"
"1980"	"13.215"	"13.072"	"21.54"	"5.974"	"5.788"	"106.919"	"428.856"	"291.652"	"102.241"	"6.561"	"8.721"	"9.397"
"1981"	"77.845"	"19.161"	"39.585"	"3.615"	"7.98"	"10.94"	"392.333"	"105.882"	"12.489"	"6.195"	"36.704"	"0.575"
"1982"	"24.811"	"19.293"	"86.375"	"16.679"	"36.759"	"13.893"	"60.636"	"215.63"	"8.352"	"0.884"	"22.609"	"20.781"
"1983"	"44.996"	"24.105"	"39.183"	"34.637"	"63.647"	"48.041"	"166.466"	"232.114"	"91.324"	"17.904"	"0"	"2.709"
"1984"	"1.885"	"55.423"	"8.968"	"17.454"	"0.63"	"30.862"	"381.129"	"224.356"	"133.033"	"0.014"	"0"	"18.677"
"1985"	"10.177"	"1.446"	"6.909"	"22.54"	"19.984"	"67.986"	"273.873"	"180.71"	"123.391"	"17.554"	"1.747"	"20.881"
"1986"	"3.64"	"37.176"	"13.973"	"12.749"	"28.533"	"75.336"	"243.321"	"208.017"	"114.4"	"5.613"	"3.094"	"23.707"
"1987"	"26.729"	"22.796"	"17.97"	"8.622"	"21.379"	"53.116"	"89.767"	"95.59"	"10.944"	"12.137"	"0"	"6.481"
"1988"	"6.273"	"14.358"	"44.326"	"9.635"	"2.727"	"49.268"	"268.871"	"164.362"	"145.765"	"18.225"	"0.207"	"23.918"
"1989"	"43.611"	"6.739"	"16.925"	"2.574"	"8.264"	"34.757"	"235.616"	"132.985"	"61.959"	"0.553"	"8.533"	"2.621"
"1990"	"3.664"	"61.042"	"53.001"	"12.38"	"22.34"	"22.319"	"192.685"	"226.966"	"220.015"	"3.034"	"12.356"	"37.214"
"1991"	"1.019"	"23.534"	"12.815"	"39.128"	"21.105"	"98.135"	"33.339"	"170.101"	"66.219"	"2.528"	"3.12"	"9.043"
"1992"	"43.247"	"36.377"	"13.828"	"9.839"	"33.507"	"27.744"	"118.428"	"202.39"	"104.176"	"3.45"	"23.136"	"1.78"
"1993"	"11.665"	"14.8"	"18.215"	"19.947"	"16.07"	"43.013"	"168.199"	"38.774"	"131.747"	"0"	"0"	"0"
"1994"	"17.593"	"10.174"	"8.771"	"6.486"	"51.462"	"36.671"	"165.078"	"118.838"	"132.154"	"1.796"	"0"	"6.662"
"1995"	"28.685"	"81.479"	"25.182"	"5.763"	"0.591"	"68.304"	"151.533"	"289.169"	"123.512"	"1.897"	"14.849"	"1.272"
"1996"	"33.321"	"31.494"	"20.4"	"6.646"	"18.929"	"178.501"	"117.133"	"294.839"	"60.802"	"5.755"	"0"	"1.139"
"1997"	"21.33"	"10.767"	"17.279"	"35.474"	"20.985"	"112.898"	"243.964"	"307.474"	"64.272"	"19.738"	"17.445"	"3.48"
"1998"	"20.036"	"33.322"	"28.825"	"22.391"	"16.421"	"13.519"	"203.935"	"137.442"	"65.363"	"15.124"	"2.552"	"1.139"
"1999"	"9.785"	"8.359"	"8.156"	"3.3"	"14.441"	"66.438"	"76.392"	"137.359"	"83.935"	"2.658"	"1.046"	"2.715"
"2000"	"15.83"	"23.099"	"6.14"	"1.782"	"12.634"	"65.045"	"225.835"	"112.472"	"45.888"	"0"	"3.924"	"0.475"
"2001"	"6.443"	"6.211"	"14.119"	"8.847"	"22.291"	"62.171"	"271.231"	"38.112"	"43.008"	"0.432"	"1.116"	"1.305"
"2002"	"9.516"	"20.791"	"20.455"	"5.105"	"15.418"	"49.044"	"85.961"	"116.813"	"155.965"	"0.44"	"0"	"4.788"
