
"Year"	"Jan"	"Feb"	"Mar"	"Apr"	"May"	"Jun"	"Jul"	"Aug"	"Sep"	"Oct"	"Nov"	"Dec"
"1901"	"20.47"	"22.11"	"25.445"	"28.523"	"29.678"	"30.906"	"27.353"	"26.622"	"27.208"	"26.701"	"22.387"	"19.802"
"1902"	"20.687"	"22.799"	"26.635"	"27.701"	"29.695"	"29.934"	"26.979"	"27.412"	"27.347"	"26.318"	"22.44"	"20.154"
"1903"	"21.136"	"21.666"	"26.237"	"28.92"	"30.273"	"28.93"	"27.443"	"27.111"	"26.823"	"25.626"	"21.98"	"19.114"
"1904"	"20.197"	"21.797"	"25.874"	"28.73"	"28.792"	"27.741"	"26.703"	"26.426"	"26.72"	"26.015"	"22.24"	"20.387"
"1905"	"20.237"	"21.174"	"25.109"	"26.708"	"28.629"	"31.398"	"26.913"	"27.498"	"26.801"	"25.828"	"22.488"	"19.518"
"1906"	"20.948"	"22.712"	"24.601"	"29.168"	"30.524"	"29.011"	"27.351"	"27.152"	"27.273"	"26.125"	"22.63"	"20.801"
"1907"	"20.535"	"23.048"	"24.909"	"26.268"	"28.505"	"28.243"	"27.443"	"25.911"	"26.922"	"26.276"	"23.373"	"19.314"
"1908"	"18.65"	"22.6"	"25.2"	"29.168"	"29.671"	"28.804"	"26.616"	"25.813"	"26.874"	"25.816"	"21.591"	"18.626"
"1909"	"21.426"	"22.502"	"25.932"	"25.567"	"29.133"	"27.343"	"26.181"	"26.888"	"26.622"	"25.585"	"22.589"	"20.302"
"1910"	"20.311"	"22.305"	"25.58"	"28.177"	"29.779"	"28.353"	"26.797"	"26.715"	"26.625"	"25.392"	"20.992"	"18.771"
"1911"	"21.196"	"21.61"	"25.141"	"27.58"	"29.344"	"27.153"	"27.7"	"26.175"	"26.61"	"25.673"	"23.073"	"19.42"
"1912"	"20.494"	"22.826"	"26.491"	"27.647"	"30.408"	"29.335"	"26.704"	"26.599"	"26.81"	"25.762"	"21.439"	"18.272"
"1913"	"19.17"	"22.409"	"25.154"	"28.137"	"28.705"	"27.299"	"26.7"	"26.524"	"27.023"	"25.327"	"21.397"	"19.717"
"1914"	"19.798"	"22.911"	"25.206"	"26.198"	"27.47"	"27.737"	"26.46"	"26.559"	"26.336"	"25.766"	"22.585"	"20.069"
"1915"	"20.294"	"22.452"	"25.122"	"28.023"	"29.357"	"29.349"	"27.637"	"27.485"	"26.756"	"26.42"	"23.711"	"19.212"
"1916"	"19.458"	"22.669"	"25.799"	"28.079"	"29.994"	"27.528"	"27.28"	"26.801"	"26.919"	"25.957"	"22.756"	"19.118"
"1917"	"19.464"	"21.335"	"23.975"	"27.454"	"27.256"	"27.221"	"26.857"	"26.719"	"26.627"	"25.628"	"22.171"	"19.462"
"1918"	"18.867"	"21.705"	"25.439"	"27.356"	"28.165"	"26.62"	"28.043"	"26.574"	"27.271"	"26.314"	"23.808"	"20.26"
"1919"	"21.291"	"22.429"	"25.999"	"28.282"	"29.309"	"27.371"	"27.059"	"26.39"	"27.001"	"25.712"	"22.579"	"19.423"
"1920"	"19.855"	"22.369"	"25.762"	"27.406"	"28.719"	"28.783"	"26.002"	"26.539"	"26.883"	"25.923"	"22.495"	"18.87"
"1921"	"19.764"	"21.43"	"26.153"	"27.843"	"32.049"	"28.305"	"26.812"	"26.283"	"26.138"	"24.59"	"20.46"	"19.668"
"1922"	"19.263"	"22.025"	"26.146"	"28.288"	"29.896"	"27.475"	"25.832"	"26.09"	"25.7"	"24.251"	"21.543"	"18.183"
"1923"	"18.465"	"21.465"	"23.636"	"27.508"	"29.98"	"30.574"	"26.671"	"25.953"	"26.559"	"25.227"	"21.405"	"19.273"
"1924"	"19.6"	"22.365"	"25.795"	"29.13"	"28.701"	"30.41"	"27.201"	"26.625"	"26.323"	"25.497"	"21.79"	"18.771"
"1925"	"18.968"	"21.468"	"25.562"	"27.841"	"29.598"	"28.43"	"25.73"	"26.625"	"26.77"	"25.073"	"22.229"	"18.282"
"1926"	"19.5"	"22.65"	"24.856"	"27.601"	"29.298"	"31.157"	"27.202"	"26.172"	"26.808"	"24.8"	"21.088"	"19.702"
"1927"	"20.885"	"23.181"	"25.788"	"29.201"	"30.328"	"29.762"	"26.668"	"26.574"	"26.922"	"25.69"	"21.891"	"20.009"
"1928"	"20.336"	"22.764"	"26.083"	"27.552"	"29.693"	"27.563"	"26.7"	"26.875"	"26.919"	"25.912"	"22.245"	"20.069"
"1929"	"20.849"	"21.32"	"25.933"	"28.393"	"30.583"	"28.879"	"25.984"	"26.138"	"26.812"	"24.737"	"21.746"	"20.299"
"1930"	"19.848"	"21.053"	"25.783"	"28.008"	"29.277"	"28.975"	"26.669"	"26.237"	"26.722"	"26.049"	"21.484"	"19.265"
"1931"	"20.535"	"23.02"	"26.07"	"29.17"	"29.89"	"31.055"	"26.563"	"26.625"	"27.019"	"25.513"	"22.027"	"19.536"
"1932"	"20.243"	"21.42"	"25.609"	"28.056"	"29.369"	"29.324"	"26.259"	"26.709"	"26.922"	"26.418"	"22.637"	"19.951"
"1933"	"19.598"	"21.898"	"25.631"	"27.84"	"28.109"	"27.843"	"26.465"	"26.559"	"26.574"	"25.673"	"22.23"	"19.903"
"1934"	"19.3"	"21.8"	"25.83"	"28.915"	"31.359"	"28.401"	"26.7"	"26.358"	"26.675"	"25.226"	"21.231"	"19.906"
"1935"	"19.785"	"22.786"	"25.863"	"27.391"	"31.349"	"29.685"	"26.271"	"26.524"	"26.763"	"25.971"	"22.08"	"20.49"
"1936"	"21.765"	"21.999"	"26.219"	"28.703"	"28.598"	"27.893"	"26.706"	"26.312"	"26.711"	"25.134"	"23.509"	"20.499"
"1937"	"19.103"	"22.41"	"25.354"	"26.856"	"29.526"	"28.686"	"26.668"	"26.625"	"26.424"	"25.274"	"22.382"	"19.049"
"1938"	"21.468"	"21.378"	"26.876"	"28.481"	"28.767"	"26.67"	"26.351"	"26.422"	"26.612"	"25.231"	"21.042"	"19.088"
"1939"	"20.272"	"22.623"	"25.046"	"28.575"	"30.364"	"28.852"	"26.028"	"26.628"	"26.591"	"26.11"	"21.54"	"19.367"
"1940"	"18.308"	"21.862"	"24.469"	"28.378"	"28.615"	"28.384"	"25.968"	"26.327"	"27.141"	"25.962"	"24.063"	"20.251"
"1941"	"21.173"	"22.735"	"26.466"	"29.56"	"29.792"	"28.099"	"26.716"	"27.183"	"27.017"	"25.537"	"20.906"	"20.742"
"1942"	"20.289"	"22.347"	"26.407"	"27.965"	"31.134"	"30.042"	"26.608"	"26.385"	"26.552"	"25.432"	"21.658"	"20.107"
"1943"	"20.886"	"20.615"	"25.433"	"26.964"	"29.81"	"29.047"	"26.716"	"26.037"	"26.725"	"25.962"	"22.481"	"19.675"
"1944"	"20.509"	"21.342"	"24.272"	"26.515"	"30.374"	"29.477"	"26.453"	"26.435"	"27.158"	"25.677"	"22.234"	"21.12"
"1945"	"19.363"	"22.158"	"26.607"	"27.65"	"30.77"	"30.086"	"27.042"	"27.213"	"26.825"	"25.231"	"21.882"	"18.668"
"1946"	"19.143"	"22.879"	"26.615"	"25.989"	"28.733"	"27.771"	"26.612"	"26.424"	"26.77"	"25.823"	"23.856"	"21.434"
"1947"	"20.97"	"22.252"	"26.239"	"29.813"	"30.637"	"29.204"	"26.552"	"26.761"	"27.183"	"25.436"	"22.478"	"19.806"
"1948"	"20.489"	"22.751"	"25.299"	"28.202"	"29.943"	"29.976"	"26.987"	"26.628"	"26.637"	"25.876"	"23.558"	"18.869"
"1949"	"20.336"	"22.106"	"26.254"	"27.873"	"29.104"	"29.334"	"27.052"	"26.385"	"26.748"	"25.964"	"21.419"	"19.723"
"1950"	"20.236"	"22.353"	"24.593"	"28.622"	"29.807"	"28.086"	"26.116"	"26.532"	"26.756"	"25.479"	"21.329"	"19.155"
"1951"	"19.298"	"22.482"	"25.48"	"27.32"	"29.595"	"28.838"	"26.936"	"26.707"	"27.61"	"26.428"	"22.639"	"20.15"
"1952"	"20.561"	"23.041"	"24.819"	"27.857"	"29.893"	"29.735"	"26.965"	"26.342"	"26.789"	"25.622"	"22.381"	"21.281"
"1953"	"20.292"	"23.738"	"27.96"	"29.663"	"31.513"	"29.52"	"27.254"	"26.574"	"27.013"	"26.062"	"22.027"	"20.207"
"1954"	"19.464"	"23.993"	"25.515"	"29.686"	"30.046"	"27.817"	"27.386"	"27.059"	"26.326"	"24.926"	"20.981"	"20.299"
"1955"	"19.8"	"23.389"	"26.295"	"28.307"	"29.133"	"29.39"	"26.743"	"26.764"	"26.511"	"25.212"	"21.482"	"19.708"
"1956"	"21.176"	"21.355"	"26.495"	"29.28"	"29.463"	"26.385"	"26.215"	"26.625"	"26.623"	"25.071"	"22.137"	"20.591"
"1957"	"21.328"	"22.542"	"24.628"	"28.397"	"31.38"	"30.397"	"26.772"	"26.719"	"27.04"	"26.476"	"23.024"	"21.341"
"1958"	"21.78"	"23.302"	"25.916"	"29.198"	"31.011"	"31.376"	"26.526"	"27.157"	"26.723"	"25.973"	"23.08"	"20.854"
"1959"	"20.791"	"22.997"	"26.211"	"28.494"	"30.643"	"28.697"	"26.796"	"26.323"	"26.673"	"25.338"	"21.841"	"19.417"
"1960"	"19.716"	"22.786"	"25.111"	"29.239"	"30.545"	"29.395"	"26.418"	"26.744"	"27.66"	"25.879"	"22.292"	"21.386"
"1961"	"20.343"	"20.732"	"26.987"	"29.042"	"30.113"	"28.303"	"26.201"	"27.009"	"25.977"	"24.926"	"21.437"	"18.449"
"1962"	"18.316"	"21.938"	"25.607"	"27.625"	"30.256"	"28.278"	"27.007"	"26.625"	"27.163"	"25.32"	"22.173"	"20.54"
"1963"	"19.086"	"23.079"	"25.832"	"27.505"	"28.97"	"28.607"	"26.703"	"26.911"	"26.922"	"25.776"	"23.762"	"20.454"
"1964"	"21.722"	"23.538"	"27.169"	"28.456"	"29.689"	"29.685"	"26.461"	"26.277"	"26.907"	"26.072"	"22.914"	"20.387"
"1965"	"20.592"	"22.812"	"25.257"	"27.601"	"30.138"	"30.248"	"26.432"	"26.875"	"26.725"	"25.838"	"23.018"	"20.464"
"1966"	"19.376"	"23.349"	"25.811"	"27.574"	"31.124"	"28.67"	"27.85"	"27.846"	"27.999"	"26.149"	"24.452"	"20.201"
"1967"	"19.904"	"23.791"	"24.759"	"27.794"	"30.625"	"30.281"	"27.45"	"26.625"	"26.949"	"26.074"	"23.064"	"22.921"
"1968"	"20.824"	"23.163"	"25.978"	"28.052"	"30.334"	"28.453"	"27.504"	"26.76"	"27.032"	"24.989"	"22.29"	"20.215"
"1969"	"20.732"	"24.925"	"27.647"	"29.251"	"28.93"	"29.592"	"26.817"	"26.628"	"27.078"	"26.81"	"24.018"	"20.461"
"1970"	"21.041"	"24.338"	"26.156"	"28.171"	"29.727"	"27.843"	"26.716"	"26.909"	"26.875"	"25.714"	"21.606"	"18.641"
"1971"	"20.339"	"22.464"	"24.615"	"25.521"	"26.478"	"26.285"	"25.691"	"25.236"	"26.675"	"25.727"	"23.124"	"19.404"
"1972"	"20.813"	"21.925"	"26.785"	"28.635"	"31.332"	"31.264"	"27.382"	"27.276"	"27.082"	"26.319"	"23.438"	"21.99"
"1973"	"22.618"	"24.342"	"25.894"	"29.69"	"29.802"	"30.055"	"26.817"	"26.729"	"26.949"	"25.772"	"21.909"	"19.771"
"1974"	"20.971"	"22.94"	"26.12"	"28.353"	"29.325"	"29.31"	"27.219"	"27.478"	"27.411"	"26.017"	"22.397"	"19.062"
"1975"	"19.107"	"22.815"	"26.195"	"28.345"	"30.297"	"28.259"	"26.316"	"26.615"	"26.261"	"26.155"	"21.229"	"18.856"
"1976"	"19.005"	"22.686"	"26.111"	"27.618"	"28.932"	"28.769"	"26.479"	"26.363"	"26.787"	"26.439"	"24.407"	"20.879"
"1977"	"20.239"	"22.901"	"26.777"	"26.885"	"27.672"	"28.419"	"26.706"	"26.628"	"26.649"	"25.3"	"23.778"	"19.392"
"1978"	"19.612"	"22.165"	"25.07"	"27.167"	"29.833"	"28.802"	"26.416"	"26.127"	"26.836"	"26.187"	"23.867"	"20.511"
"1979"	"21.076"	"22.314"	"25.422"	"28.006"	"29.719"	"28.832"	"27.917"	"27.139"	"26.77"	"26.376"	"24.545"	"20.716"
"1980"	"21.103"	"23.479"	"25.909"	"28.693"	"29.372"	"27.33"	"26.127"	"26.275"	"27.223"	"25.489"	"23.246"	"20.94"
"1981"	"19.851"	"23.756"	"25.359"	"27.654"	"28.517"	"29.054"	"27.254"	"27.011"	"27.011"	"26.481"	"23.082"	"20.399"
"1982"	"22.113"	"23.646"	"25.375"	"27.995"	"29.948"	"28.947"	"28.633"	"26.389"	"27.611"	"26.998"	"24.005"	"21.631"
"1983"	"21.422"	"22.815"	"26.417"	"27.947"	"29.063"	"30.126"	"27.551"	"26.974"	"27.141"	"25.82"	"22.84"	"20.015"
"1984"	"20.88"	"22.101"	"26.262"	"28.469"	"30.156"	"27.875"	"26.998"	"26.65"	"27.023"	"26.363"	"22.049"	"21.204"
"1985"	"21.119"	"22.58"	"26.21"	"27.819"	"28.05"	"27.775"	"25.225"	"24.952"	"26.823"	"23.362"	"21.297"	"20.199"
"1986"	"18.716"	"22.008"	"25.165"	"26.615"	"27.527"	"26.924"	"25.836"	"26.044"	"26.28"	"24.391"	"21.747"	"19.807"
"1987"	"18.657"	"20.928"	"23.737"	"26.517"	"27.823"	"28.583"	"25.82"	"25.886"	"26.306"	"24.945"	"21.196"	"18.592"
"1988"	"18.874"	"21.323"	"24.445"	"25.941"	"27.329"	"26.162"	"25.539"	"27.41"	"27.411"	"26.267"	"23.205"	"21.701"
"1989"	"20.339"	"23.412"	"26.19"	"29.082"	"29.606"	"27.868"	"27.249"	"26.873"	"27.017"	"26.516"	"23.167"	"19.95"
"1990"	"21.783"	"22.909"	"24.123"	"26.964"	"27.528"	"27.909"	"26.369"	"27.013"	"26.869"	"25.132"	"22.985"	"20.456"
"1991"	"20.776"	"24.243"	"26.858"	"28.016"	"29.531"	"28.491"	"27.366"	"27.261"	"27.573"	"26.025"	"22.179"	"19.942"
"1992"	"19.601"	"22.424"	"26.01"	"28.232"	"29.145"	"28.716"	"27.263"	"26.629"	"27.038"	"26.001"	"23.244"	"19.703"
"1993"	"20.853"	"22.516"	"25.183"	"27.52"	"29.158"	"28.807"	"27.266"	"27.2"	"26.714"	"26.235"	"22.802"	"20.065"
"1994"	"20.978"	"22.601"	"26.649"	"27.655"	"29.82"	"28.416"	"26.466"	"26.278"	"26.905"	"26.062"	"22.543"	"19.967"
"1995"	"19.599"	"22.601"	"25.771"	"28.181"	"28.332"	"29.633"	"26.72"	"27.612"	"27.136"	"25.776"	"22.93"	"20.795"
"1996"	"21.291"	"22.374"	"26.536"	"27.565"	"30.409"	"28.605"	"27.606"	"26.452"	"27.551"	"25.675"	"23.087"	"20.214"
"1997"	"19.664"	"22.225"	"26.001"	"26.218"	"29.057"	"29.693"	"27.418"	"26.825"	"26.922"	"25.876"	"24.452"	"21.694"
"1998"	"20.863"	"23.201"	"25.22"	"27.835"	"29.894"	"29.871"	"27.378"	"27.349"	"27.447"	"26.914"	"24.04"	"20.08"
"1999"	"19.744"	"24.1"	"26.784"	"29.682"	"28.821"	"28.308"	"27.034"	"26.739"	"26.697"	"26.29"	"22.604"	"20.344"
"2000"	"21.614"	"22.824"	"25.673"	"28.803"	"29.28"	"27.926"	"26.918"	"27.127"	"27.235"	"26.479"	"23.431"	"19.914"
"2001"	"20.337"	"23.663"	"26.417"	"27.931"	"29.681"	"27.543"	"26.851"	"26.975"	"27.986"	"26.54"	"24.166"	"20.514"
"2002"	"21.122"	"23.598"	"26.858"	"28.057"	"30.258"	"28.466"	"27.666"	"26.575"	"27.307"	"26.29"	"22.679"	"20.99"
