
"Year"	"Jan"	"Feb"	"Mar"	"Apr"	"May"	"Jun"	"Jul"	"Aug"	"Sep"	"Oct"	"Nov"	"Dec"
"1901"	"16.017"	"18.038"	"25.602"	"29.818"	"33.794"	"33.599"	"29.876"	"26.329"	"28.002"	"28.37"	"22.307"	"19.344"
"1902"	"18.767"	"20.7"	"27.63"	"31.213"	"33.395"	"32.412"	"29.206"	"28.203"	"26.748"	"26.288"	"21.196"	"17.694"
"1903"	"17.588"	"18.521"	"23.433"	"28.522"	"32.347"	"33.554"	"29.442"	"26.684"	"26.722"	"26.151"	"19.894"	"17.171"
"1904"	"17.519"	"19.599"	"24.012"	"31.089"	"33.211"	"31.145"	"27.2"	"26.278"	"27.482"	"26.657"	"21.572"	"18.349"
"1905"	"16.259"	"15.261"	"22.664"	"27.908"	"34.79"	"32.923"	"28.44"	"27.742"	"28.172"	"27.505"	"23.269"	"18.608"
"1906"	"16.107"	"17.724"	"24.059"	"29.971"	"34.513"	"31.299"	"27.677"	"27.344"	"26.113"	"26.045"	"22.307"	"18.567"
"1907"	"18.634"	"18.8"	"23.769"	"28.538"	"31.471"	"32.397"	"30.655"	"25.69"	"26.781"	"27.202"	"22.476"	"17.148"
"1908"	"17.154"	"19.35"	"23.85"	"30.727"	"32.868"	"32.035"	"26.524"	"25.709"	"26.277"	"25.904"	"21.332"	"17.314"
"1909"	"17.336"	"19.394"	"26.242"	"28.6"	"32.326"	"30.937"	"26.918"	"25.684"	"25.989"	"26.019"	"22.141"	"17.49"
"1910"	"17.018"	"19.887"	"25.061"	"28.896"	"32.737"	"29.783"	"26.878"	"26.519"	"26.655"	"24.863"	"20.047"	"18.125"
"1911"	"19.011"	"19.822"	"23.091"	"29.431"	"33.977"	"30.847"	"29.706"	"27.897"	"26.449"	"27.345"	"21.062"	"19.209"
"1912"	"18.671"	"21.422"	"24.51"	"30.375"	"33.673"	"33.254"	"28.304"	"26.173"	"26.152"	"26.292"	"20.528"	"17.873"
"1913"	"17.561"	"19.751"	"23.263"	"31.201"	"32.101"	"30.514"	"27.924"	"26.436"	"27.406"	"27.776"	"22.032"	"18.303"
"1914"	"19.414"	"19.517"	"24.282"	"30.129"	"34.027"	"30.815"	"27.619"	"26.773"	"27.578"	"26.652"	"23.178"	"17.848"
"1915"	"17.569"	"18.159"	"25.288"	"29.797"	"34.059"	"33.538"	"30.548"	"27.665"	"29.517"	"27.939"	"22.384"	"19.021"
"1916"	"18.479"	"18.94"	"27.188"	"31.101"	"33.132"	"29.791"	"29.164"	"26.384"	"27.224"	"25.424"	"19.907"	"17.435"
"1917"	"18.483"	"19.846"	"24.729"	"27.937"	"30.553"	"29.693"	"26.572"	"25.99"	"25.801"	"24.328"	"19.427"	"17.789"
"1918"	"15.952"	"20.296"	"24.779"	"28.114"	"33.688"	"30.907"	"29.419"	"27.513"	"27.278"	"27.297"	"22.733"	"17.347"
"1919"	"17.847"	"19.25"	"25.652"	"29.383"	"32.754"	"31.629"	"27.372"	"26.155"	"26.445"	"25.974"	"21.896"	"17.656"
"1920"	"17.864"	"19.3"	"25.641"	"29.409"	"30.07"	"30.18"	"26.708"	"26.178"	"28.376"	"27.745"	"22.785"	"18.748"
"1921"	"18.128"	"19.887"	"27.432"	"31.773"	"33.866"	"32.302"	"30.131"	"26.573"	"25.818"	"26.103"	"21.456"	"19.718"
"1922"	"16.888"	"21.281"	"25.981"	"30.712"	"33.068"	"31.358"	"27.785"	"26.36"	"26.181"	"25.935"	"21.308"	"17.518"
"1923"	"17.721"	"18.924"	"25.715"	"30.156"	"32.204"	"33.483"	"28.023"	"25.454"	"26.909"	"25.751"	"21.224"	"18.695"
"1924"	"17.154"	"20.223"	"26.969"	"30.959"	"31.508"	"32.345"	"28.371"	"26.536"	"26.084"	"24.757"	"19.903"	"17.937"
"1925"	"15.361"	"17.805"	"25.71"	"31.915"	"32.259"	"29.332"	"26.725"	"27.744"	"28.635"	"28.404"	"22.178"	"18.527"
"1926"	"18.394"	"22.139"	"24.479"	"27.214"	"31.839"	"33.861"	"28.619"	"26.56"	"26.184"	"26.002"	"19.719"	"17.201"
"1927"	"15.756"	"17.983"	"23.688"	"29.208"	"32.173"	"31.76"	"27.44"	"25.601"	"26.36"	"26.069"	"19.259"	"18.274"
"1928"	"17.072"	"19.799"	"25.214"	"29.595"	"33.205"	"31.538"	"27.637"	"26.517"	"26.61"	"26.252"	"21.937"	"17.264"
"1929"	"16.447"	"18.281"	"26.565"	"30.233"	"33.273"	"31.588"	"27.495"	"26.116"	"27.312"	"26.369"	"22.669"	"17.132"
"1930"	"17.541"	"19.163"	"25.769"	"29.302"	"32.559"	"31.662"	"26.84"	"26.37"	"28.552"	"27.822"	"21"	"18.773"
"1931"	"19.194"	"18.699"	"24.615"	"31.231"	"33.402"	"33.502"	"28.693"	"26.582"	"26.777"	"25.433"	"21.332"	"18.595"
"1932"	"20.224"	"19.041"	"24.934"	"29.282"	"32.736"	"32"	"28.034"	"26.473"	"27.705"	"27.279"	"20.714"	"18.602"
"1933"	"16.634"	"20.207"	"25.145"	"28.681"	"30.781"	"30.543"	"27.69"	"25.723"	"25.825"	"25.486"	"21.38"	"18.11"
"1934"	"15.936"	"21.013"	"24.195"	"30.014"	"32.579"	"31.581"	"27.323"	"26.077"	"25.824"	"25.303"	"21.018"	"18.69"
"1935"	"15.36"	"19.771"	"24.535"	"27.166"	"33.019"	"32.216"	"27.071"	"25.952"	"26.024"	"25.346"	"21.795"	"18.037"
"1936"	"16.146"	"19.533"	"24.262"	"28.865"	"34.111"	"29.627"	"27.477"	"26.473"	"26.819"	"26.48"	"21.543"	"17.571"
"1937"	"16.479"	"20.439"	"23.493"	"29.162"	"32.911"	"32.184"	"26.776"	"26.591"	"27.041"	"25.903"	"22.411"	"16.925"
"1938"	"17.567"	"18.076"	"26.741"	"30.543"	"33.531"	"28.484"	"27.359"	"26.991"	"28.282"	"27.238"	"20.408"	"18.414"
"1939"	"18.728"	"19.552"	"22.728"	"28.279"	"32.596"	"30.879"	"27.8"	"28.426"	"27.04"	"27.369"	"21.707"	"18.519"
"1940"	"18.066"	"19.924"	"23.428"	"28.86"	"33.437"	"31.571"	"28.125"	"25.952"	"26.882"	"26.666"	"22.076"	"17.894"
"1941"	"16.905"	"20.57"	"26.682"	"31.15"	"33.419"	"32.115"	"28.234"	"27.024"	"28.114"	"28.875"	"22.589"	"19.849"
"1942"	"16.142"	"20.309"	"26.388"	"31.655"	"33.242"	"32.943"	"26.419"	"25.707"	"26.101"	"26.198"	"21.637"	"16.973"
"1943"	"17.475"	"19.653"	"25.885"	"29.384"	"33.57"	"30.661"	"26.933"	"25.682"	"26.471"	"25.867"	"22.284"	"18.602"
"1944"	"16.917"	"19.146"	"24.158"	"28.99"	"32.979"	"30.553"	"26.449"	"25.726"	"26.843"	"24.893"	"21.479"	"19.136"
"1945"	"15.35"	"18.945"	"25.634"	"28.812"	"32.098"	"31.694"	"26.518"	"26.49"	"26.112"	"25.298"	"20.718"	"16.421"
"1946"	"17.577"	"21.177"	"24.446"	"31.612"	"32.802"	"30.802"	"27.263"	"25.477"	"26.399"	"26.675"	"19.75"	"18.379"
"1947"	"16.161"	"19.493"	"25.801"	"29.992"	"33.537"	"32.555"	"28.14"	"27.194"	"25.823"	"25.075"	"22.091"	"18.639"
"1948"	"17.09"	"19.02"	"25.017"	"31.19"	"34.509"	"32.047"	"28.227"	"26.349"	"26.348"	"27.229"	"21.357"	"18.354"
"1949"	"19.506"	"20.042"	"25.793"	"31.441"	"34.483"	"31.289"	"28.042"	"27.252"	"27.429"	"26.679"	"20.803"	"17.66"
"1950"	"18.629"	"17.728"	"24.257"	"28.903"	"33.027"	"31.819"	"27.065"	"26.313"	"26.311"	"25.814"	"20.038"	"16.76"
"1951"	"16.389"	"18.976"	"24.923"	"28.19"	"32.67"	"30.806"	"29.384"	"26.842"	"29.221"	"29.543"	"23.478"	"18.136"
"1952"	"18.858"	"21.548"	"25.165"	"31.335"	"34.289"	"30.692"	"27.224"	"25.703"	"27.637"	"26.78"	"22"	"18.917"
"1953"	"17.082"	"22.107"	"27.55"	"30.437"	"33.124"	"31.969"	"28.517"	"26.588"	"27.343"	"26.346"	"21.895"	"20.524"
"1954"	"17.299"	"21.24"	"25.564"	"30.659"	"34.37"	"32.441"	"28.052"	"27.707"	"25.76"	"24.423"	"22.027"	"18.149"
"1955"	"17.54"	"20.033"	"27.335"	"28.164"	"32.425"	"31.421"	"28.771"	"26.397"	"26.202"	"24.888"	"20.149"	"18.213"
"1956"	"17.651"	"19.475"	"25.925"	"30.214"	"33.865"	"30.674"	"25.989"	"25.841"	"26.855"	"24.611"	"20.209"	"18.582"
"1957"	"16.785"	"18.236"	"23.759"	"29.213"	"31.702"	"32.329"	"28.018"	"27.393"	"26.82"	"26.709"	"23.428"	"18.897"
"1958"	"19.169"	"20.321"	"26.353"	"31.754"	"33.472"	"32.564"	"26.929"	"27.573"	"25.719"	"25.553"	"22.79"	"19.414"
"1959"	"17.572"	"19.469"	"26.804"	"30.249"	"32.885"	"31.595"	"26.84"	"25.845"	"26.07"	"26.174"	"21.597"	"18.812"
"1960"	"16.564"	"21.898"	"24.304"	"28.867"	"32.244"	"31.646"	"28.4"	"25.402"	"27.597"	"25.787"	"21.001"	"18.522"
"1961"	"16.437"	"17.649"	"25.852"	"29.564"	"33.142"	"30.885"	"27.676"	"26.738"	"25.719"	"24.928"	"21.614"	"16.99"
"1962"	"16.196"	"20.392"	"25.154"	"30.075"	"31.794"	"30.79"	"26.884"	"25.414"	"25.106"	"24.235"	"20.726"	"19.067"
"1963"	"17.573"	"22.286"	"26.076"	"30.279"	"33.178"	"31.873"	"28.871"	"25.725"	"26.725"	"26.769"	"24.161"	"19.167"
"1964"	"16.637"	"20.135"	"26.77"	"32.248"	"32.472"	"29.824"	"27.47"	"26.696"	"26.897"	"27.05"	"21.174"	"18.53"
"1965"	"19.547"	"20.805"	"25.57"	"29.647"	"33.144"	"32.654"	"28.534"	"27.73"	"27.022"	"27.874"	"23.837"	"18.703"
"1966"	"18.858"	"23.201"	"25.51"	"30.796"	"33.283"	"31.295"	"29.189"	"25.953"	"26.346"	"27.198"	"22.736"	"17.75"
"1967"	"15.551"	"21.708"	"23.896"	"28.402"	"31.613"	"30.247"	"27.293"	"24.825"	"24.836"	"25.381"	"22.439"	"19.497"
"1968"	"16.888"	"18.576"	"24.868"	"29.508"	"31.419"	"32.873"	"27.741"	"25.299"	"28.024"	"25.935"	"22.025"	"18.354"
"1969"	"17.53"	"20.506"	"27.64"	"30.163"	"32.054"	"32.071"	"28.15"	"26.077"	"27.067"	"27.418"	"23.907"	"19.346"
"1970"	"18.39"	"19.453"	"24.822"	"30.683"	"33.775"	"30.265"	"28.071"	"26.43"	"25.926"	"26.537"	"21.079"	"18.314"
"1971"	"16.553"	"19.593"	"24.632"	"30.966"	"31.45"	"28.986"	"25.613"	"25.938"	"26.246"	"25.162"	"21.479"	"17.842"
"1972"	"17.888"	"17.681"	"26.299"	"29.008"	"32.605"	"32.007"	"28.474"	"27.608"	"26.647"	"26.516"	"22.379"	"19.22"
"1973"	"17.502"	"20.951"	"25.124"	"31.615"	"33.672"	"30.992"	"26.864"	"25.906"	"25.723"	"26.168"	"21.527"	"17.989"
"1974"	"16.483"	"18.777"	"27.301"	"30.779"	"32.535"	"31.456"	"28.4"	"27.244"	"28.426"	"26.146"	"21.125"	"17.507"
"1975"	"17.275"	"19"	"23.005"	"29.86"	"33.796"	"30.738"	"26.255"	"26.283"	"25.945"	"25.573"	"20.383"	"18.782"
"1976"	"18.361"	"20.248"	"25.816"	"29.02"	"32.387"	"29.93"	"27.864"	"25.902"	"25.905"	"26.98"	"23.995"	"18.918"
"1977"	"16.954"	"21.173"	"27.595"	"30.18"	"32.07"	"30.912"	"26.247"	"25.59"	"25.619"	"27.319"	"23.388"	"21.764"
"1978"	"17.092"	"18.601"	"22.916"	"28.842"	"33.387"	"29.508"	"25.739"	"25.178"	"26.261"	"26.462"	"23.537"	"16.748"
"1979"	"18.569"	"18.307"	"23.652"	"30.706"	"30.402"	"31.653"	"28.032"	"26.378"	"28.393"	"27.792"	"23.196"	"18.932"
"1980"	"18.258"	"22.4"	"24.883"	"31.695"	"34.036"	"30.373"	"27.703"	"27.135"	"27.965"	"28.279"	"23.256"	"17.383"
"1981"	"17.88"	"21.393"	"24.697"	"31.121"	"33.347"	"32.374"	"27.408"	"25.98"	"27.701"	"26.985"	"20.924"	"17.258"
"1982"	"18.02"	"18.384"	"22.679"	"28.361"	"30.265"	"32.271"	"29.33"	"26.328"	"28.012"	"27.835"	"21.901"	"20.02"
"1983"	"17.364"	"18.798"	"24.83"	"27.209"	"31.972"	"31.63"	"28.485"	"26.996"	"27.219"	"25.503"	"20.915"	"18.64"
"1984"	"16.935"	"16.957"	"27.146"	"31.479"	"34.577"	"31.464"	"27.953"	"25.373"	"25.96"	"26.303"	"21.886"	"19.559"
"1985"	"17.465"	"21.283"	"27.981"	"30.503"	"33.747"	"32.052"	"28.13"	"25.83"	"27.308"	"24.773"	"22.724"	"21.135"
"1986"	"17.662"	"19.349"	"25.401"	"30.946"	"32.437"	"31.941"	"27.066"	"25.908"	"28.416"	"27.191"	"23.553"	"18.142"
"1987"	"18.106"	"21.346"	"26.311"	"31.154"	"31.212"	"32.143"	"29.955"	"28.771"	"29.171"	"27.982"	"22.99"	"19.37"
"1988"	"18.771"	"21.869"	"25.668"	"31.349"	"34.772"	"31.359"	"26.934"	"26.789"	"28.176"	"26.703"	"22.379"	"19.59"
"1989"	"16.99"	"20.145"	"24.763"	"29.707"	"33.647"	"30.407"	"27.528"	"25.655"	"28.134"	"27.138"	"23.882"	"19.021"
"1990"	"20.16"	"19.798"	"24.334"	"30.38"	"32.717"	"31.359"	"26.649"	"26.816"	"26.414"	"26.315"	"23.084"	"18.905"
"1991"	"16.836"	"20.604"	"25.766"	"29.303"	"30.666"	"32.942"	"28.723"	"26.319"	"27.039"	"26.736"	"22.043"	"19.394"
"1992"	"18.925"	"19.163"	"25.525"	"29.929"	"32.306"	"33.569"	"29.27"	"26.38"	"26.071"	"25.868"	"21.808"	"19.772"
"1993"	"18.889"	"21.331"	"24.381"	"29.913"	"33.848"	"31.548"	"27.528"	"27.426"	"26.397"	"27.527"	"23.398"	"19.882"
"1994"	"19.014"	"19.711"	"27.034"	"29.557"	"34.237"	"30.778"	"26.298"	"25.954"	"26.053"	"26.428"	"22.476"	"19.288"
"1995"	"16.676"	"20.341"	"23.999"	"29.783"	"33.17"	"34.53"	"28.323"	"26.49"	"27.725"	"28.233"	"22.698"	"19.873"
"1996"	"18.313"	"21.053"	"27.288"	"30.585"	"33.158"	"32.388"	"28.413"	"25.561"	"26.802"	"26.304"	"22.46"	"19.078"
"1997"	"17.317"	"20.043"	"25.795"	"28.645"	"30.937"	"30.171"	"27.997"	"26.678"	"27.266"	"24.782"	"22.791"	"17.651"
"1998"	"17.805"	"20.523"	"24.518"	"31.038"	"34.456"	"32.614"	"28.265"	"28.248"	"27.676"	"27.817"	"23.29"	"20.33"
"1999"	"17.475"	"20.97"	"26.205"	"32.403"	"33.591"	"31.063"	"27.919"	"27.043"	"27.208"	"26.592"	"23.395"	"18.774"
"2000"	"18.965"	"18.87"	"25.235"	"32.423"	"32.514"	"31.671"	"27.214"	"27.841"	"27.86"	"27.687"	"24.256"	"20.342"
"2001"	"17.637"	"20.778"	"25.935"	"30.077"	"32.516"	"29.232"	"26.224"	"27.218"	"29.008"	"27.643"	"23.231"	"20.088"
"2002"	"17.602"	"19.783"	"26.189"	"32.096"	"34.489"	"32.073"	"29.707"	"26.812"	"28.096"	"27.627"	"23.75"	"21.461"
