
"Year"	"Jan"	"Feb"	"Mar"	"Apr"	"May"	"Jun"	"Jul"	"Aug"	"Sep"	"Oct"	"Nov"	"Dec"
"1901"	"20.369"	"17.987"	"21.954"	"269.216"	"279.548"	"477.538"	"384.345"	"381.442"	"311.289"	"286.974"	"205.051"	"1.696"
"1902"	"2.2"	"5.324"	"38.453"	"240.896"	"326.574"	"697.645"	"562.113"	"501.722"	"281.168"	"56.265"	"11.336"	"5.771"
"1903"	"1.87"	"17.316"	"62.383"	"174.384"	"224.297"	"613.616"	"409.503"	"661.54"	"177.957"	"104.925"	"166.887"	"1.695"
"1904"	"2.651"	"61.949"	"30.304"	"497.831"	"357.668"	"373.065"	"382.656"	"424.629"	"155.981"	"96.243"	"71.958"	"2.051"
"1905"	"3.415"	"17.46"	"230.26"	"185.289"	"389.314"	"421.008"	"502.593"	"769.072"	"369.438"	"358.545"	"15.328"	"8.717"
"1906"	"7.545"	"83.258"	"32.278"	"207.277"	"198.378"	"341.698"	"658.229"	"617.529"	"271.51"	"156.101"	"54.03"	"0"
"1907"	"20.165"	"70.677"	"85.727"	"172.121"	"237.884"	"570.094"	"505.629"	"362.611"	"193.37"	"80.263"	"11.147"	"6.172"
"1908"	"6.732"	"11.9"	"4.222"	"123.001"	"274.032"	"462.69"	"374.452"	"266.627"	"327.048"	"97.762"	"10.879"	"1.779"
"1909"	"4.972"	"14.386"	"1.839"	"158.857"	"405.945"	"564.585"	"331.756"	"453.615"	"132.825"	"166.106"	"38.131"	"4.981"
"1910"	"6.14"	"26.171"	"162.641"	"182.722"	"286.786"	"572.328"	"639.34"	"498.519"	"213.61"	"182.036"	"61.696"	"1.413"
"1911"	"16.479"	"16.58"	"45.09"	"235.064"	"607.182"	"742.431"	"433.758"	"437.389"	"343.749"	"445.592"	"4.635"	"0.601"
"1912"	"3.358"	"61.314"	"93.443"	"183.537"	"277.474"	"506.706"	"391.5"	"447.436"	"225.005"	"309.438"	"158.551"	"12.081"
"1913"	"2.824"	"62.225"	"69.216"	"274.81"	"383.659"	"608.854"	"368.943"	"384.847"	"254.922"	"299.53"	"21.714"	"11.225"
"1914"	"1.554"	"45.193"	"35.581"	"96.586"	"489.521"	"556.894"	"371.942"	"583.707"	"163.078"	"47.013"	"14.147"	"9.952"
"1915"	"5.579"	"46.969"	"41.295"	"104.031"	"1038.324"	"412.525"	"581.998"	"558.755"	"181.355"	"148.99"	"24.669"	"3.509"
"1916"	"5.02"	"12.647"	"96.834"	"222.169"	"685.895"	"446.796"	"386.155"	"536.758"	"282.516"	"454.913"	"173.293"	"0.874"
"1917"	"0.94"	"68.856"	"14.115"	"103.626"	"363.684"	"554.352"	"405.448"	"414.458"	"170.087"	"263.102"	"183.285"	"2.411"
"1918"	"1.162"	"5.572"	"67.093"	"93.193"	"450.071"	"798.592"	"567.965"	"518.124"	"282.185"	"72.317"	"4.845"	"1.63"
"1919"	"8.85"	"4.093"	"4.959"	"114.689"	"250.234"	"524.722"	"459.459"	"328.987"	"355.034"	"363.205"	"79.014"	"1.4"
"1920"	"0.749"	"27.678"	"114.763"	"126.465"	"328.428"	"368.897"	"288.548"	"582.63"	"397.629"	"115.898"	"6.382"	"0.874"
"1921"	"16.84"	"6.96"	"41.718"	"191.105"	"775.679"	"586.141"	"571.437"	"483.264"	"241.768"	"74.805"	"7.957"	"0.884"
"1922"	"6.089"	"1.309"	"84.606"	"281.898"	"210.469"	"725.523"	"380.823"	"357.703"	"220.946"	"352.383"	"9.27"	"6.06"
"1923"	"2.209"	"68.885"	"9.71"	"211.452"	"451.368"	"705.405"	"392.436"	"263.723"	"211.958"	"121.253"	"11.111"	"1.172"
"1924"	"4.663"	"8.623"	"4.327"	"233.433"	"354.243"	"612.915"	"631.061"	"489.117"	"328.615"	"130.414"	"226.565"	"0"
"1925"	"14.035"	"22.683"	"37.951"	"219.13"	"563.559"	"325.497"	"427.927"	"357.779"	"267.62"	"112.576"	"10.578"	"1.931"
"1926"	"12.772"	"12.172"	"68.313"	"92.618"	"196.479"	"639.475"	"539.877"	"346.102"	"204.185"	"284.503"	"6.608"	"15.283"
"1927"	"19.23"	"31.647"	"21.389"	"230.737"	"290.282"	"606.005"	"399.31"	"308.137"	"501.496"	"273.74"	"25.859"	"1.169"
"1928"	"3.992"	"15.545"	"42.042"	"94.733"	"432.251"	"567.203"	"493.9"	"349.018"	"304.382"	"296.939"	"17.356"	"0"
"1929"	"12.266"	"2.524"	"30.544"	"293.786"	"745.302"	"581.524"	"407.148"	"338.673"	"261.404"	"112.378"	"9.218"	"6.311"
"1930"	"10.189"	"23.955"	"51.269"	"112.297"	"327.445"	"678.229"	"289.759"	"578.559"	"202.455"	"136.614"	"219.805"	"1.348"
"1931"	"0.689"	"22.992"	"16.055"	"294.102"	"401.86"	"708.595"	"638.748"	"217.917"	"218.248"	"63.26"	"16.27"	"2.334"
"1932"	"3.764"	"23.416"	"10.336"	"93.757"	"798.316"	"539.288"	"434.603"	"714.538"	"240.272"	"90.348"	"184.719"	"1.813"
"1933"	"2.634"	"15.017"	"7.787"	"174.448"	"427.016"	"493.587"	"440.681"	"493.597"	"185.535"	"95.588"	"6.742"	"0"
"1934"	"12.307"	"50.009"	"7.144"	"276.065"	"319.039"	"857.68"	"560.974"	"390.44"	"237.141"	"410.316"	"27.302"	"4.043"
"1935"	"2.026"	"38.975"	"21.989"	"82.068"	"387.552"	"648.94"	"300.308"	"733.132"	"309.296"	"51.259"	"7.681"	"4.164"
"1936"	"9.771"	"33.929"	"33.07"	"141.495"	"524.645"	"499.48"	"502.907"	"321.135"	"335.836"	"280.981"	"8.886"	"12.792"
"1937"	"0.896"	"23.564"	"6.832"	"35.388"	"487.886"	"522.22"	"543.501"	"444.528"	"160.54"	"93.273"	"4.381"	"4.13"
"1938"	"21.995"	"7.946"	"89.122"	"162.338"	"548.735"	"794.258"	"546.031"	"591.619"	"472.954"	"110.523"	"58.425"	"0"
"1939"	"0.289"	"20.664"	"5.605"	"156.313"	"395.267"	"685.093"	"545.378"	"338.077"	"351.796"	"201.278"	"16.709"	"1.746"
"1940"	"0"	"53.15"	"144.216"	"21.86"	"457.172"	"457.715"	"433.935"	"375.718"	"464.307"	"132.94"	"9.324"	"1.366"
"1941"	"0.666"	"41.455"	"65.16"	"148.908"	"447.289"	"626.202"	"431.287"	"367.412"	"359.101"	"233.68"	"11.835"	"0.772"
"1942"	"15.767"	"15.176"	"107.078"	"131.024"	"438.674"	"821.514"	"236.458"	"403.064"	"385.219"	"54.661"	"21.455"	"0.072"
"1943"	"16.382"	"43.925"	"85.977"	"176.691"	"476.14"	"541.05"	"405.395"	"420.743"	"373.254"	"42.997"	"12.779"	"0.478"
"1944"	"30.841"	"8.326"	"39.392"	"73.16"	"722.973"	"420.389"	"301.79"	"321.169"	"320.119"	"136.927"	"9.148"	"1.417"
"1945"	"26.973"	"23.463"	"94.833"	"128.338"	"297.737"	"481.09"	"448.169"	"625.38"	"206.296"	"213.345"	"5.88"	"0.637"
"1946"	"1.406"	"31.34"	"63.383"	"138.905"	"358.965"	"466.704"	"488.58"	"392.805"	"303.867"	"486.498"	"23.263"	"0.884"
"1947"	"2.478"	"8.502"	"40.222"	"283.498"	"462.225"	"580.622"	"591.761"	"422.114"	"579.14"	"431.206"	"6.084"	"31.175"
"1948"	"1.844"	"79.786"	"65.637"	"373.911"	"533.701"	"685.096"	"978.887"	"417.282"	"364.564"	"209.446"	"24.21"	"1.072"
"1949"	"10.901"	"6.04"	"163.463"	"519.089"	"333.935"	"964.612"	"752.752"	"620.604"	"387.983"	"171.05"	"12.227"	"1.966"
"1950"	"1.51"	"36.422"	"48.194"	"69.074"	"195.125"	"528.294"	"366.43"	"566.514"	"229.666"	"300.246"	"106.515"	"1.053"
"1951"	"0.715"	"0.998"	"45.247"	"275.761"	"356.513"	"730.121"	"972.501"	"635.592"	"420.921"	"432.955"	"64.734"	"4.083"
"1952"	"12.656"	"0.882"	"41.385"	"538.185"	"370.131"	"1051.909"	"763.802"	"490.351"	"613.616"	"431.482"	"134.95"	"0.191"
"1953"	"3.818"	"3.077"	"63.691"	"52.245"	"452.592"	"841.089"	"718.813"	"421.745"	"517.657"	"186.303"	"3.79"	"0.417"
"1954"	"8.072"	"60.892"	"103.871"	"162.784"	"320.04"	"1179.831"	"496.725"	"447.146"	"304.485"	"264.303"	"0.511"	"2.758"
"1955"	"0.668"	"2.84"	"143.261"	"97.803"	"306.887"	"402.267"	"816.52"	"400.606"	"277.951"	"74.829"	"153.397"	"0.927"
"1956"	"11.663"	"3.983"	"125.689"	"144.507"	"467.619"	"983.8"	"514.217"	"444.129"	"438.603"	"158.43"	"35.359"	"1.433"
"1957"	"26.154"	"70.217"	"15.065"	"109.037"	"314.573"	"538.852"	"478.373"	"858.506"	"394.991"	"60.725"	"6.874"	"3.418"
"1958"	"4.594"	"83.73"	"61.628"	"152.036"	"376.207"	"339.443"	"369.735"	"841.497"	"280.052"	"295.854"	"4.713"	"1.833"
"1959"	"21.774"	"82.998"	"223.507"	"148.884"	"462.864"	"831.789"	"494.419"	"619.369"	"247.769"	"338.48"	"4.922"	"1.409"
"1960"	"0"	"1.714"	"52.622"	"55.471"	"307.509"	"488.297"	"731.743"	"389.757"	"470.004"	"147.668"	"61.465"	"1.148"
"1961"	"2.294"	"15.871"	"50.273"	"158.905"	"133.276"	"747.95"	"472.672"	"623.2"	"157.184"	"165.018"	"6.925"	"1.09"
"1962"	"11.499"	"33.409"	"5.691"	"192.437"	"244.859"	"592.146"	"519.996"	"325.028"	"111.185"	"230.165"	"3.475"	"0.847"
"1963"	"0.001"	"9.49"	"70.835"	"201.084"	"338.185"	"508.025"	"496.332"	"391.996"	"219.825"	"167.785"	"11.375"	"0.371"
"1964"	"24.198"	"41.621"	"77.033"	"299.072"	"374.767"	"718.426"	"1001.456"	"500.731"	"447.341"	"515.338"	"29.425"	"2.541"
"1965"	"0.44"	"8.848"	"28.29"	"26.957"	"93.826"	"926.851"	"688.292"	"856.221"	"299.253"	"69.7"	"118.515"	"31.315"
"1966"	"15.934"	"1.647"	"47.724"	"74.748"	"194.117"	"853.509"	"415.66"	"439.741"	"534.51"	"337.235"	"34.033"	"56.811"
"1967"	"33.87"	"0.891"	"113.368"	"181.442"	"185.244"	"346.776"	"408.837"	"377.534"	"411.943"	"185.691"	"1.365"	"0.251"
"1968"	"15.548"	"13.346"	"67.736"	"146.601"	"426.414"	"484.719"	"729.038"	"609.47"	"201.527"	"84.734"	"21.411"	"0"
"1969"	"3.324"	"0.297"	"91.858"	"295"	"279"	"934.82"	"669.811"	"640.135"	"362.392"	"45.475"	"31.066"	"0.31"
"1970"	"26.226"	"17.326"	"104.154"	"187.577"	"206.55"	"228.047"	"678.827"	"315.968"	"92.728"	"297.076"	"74.712"	"0.502"
"1971"	"7.604"	"14.138"	"4.479"	"26.187"	"59.262"	"229.02"	"393.055"	"372.567"	"206.298"	"219.65"	"71.071"	"1.349"
"1972"	"2.217"	"18.352"	"33.936"	"179.864"	"256.213"	"484.505"	"314.879"	"419.644"	"91.577"	"71.361"	"2.632"	"0.753"
"1973"	"12.574"	"41.421"	"75.317"	"130.37"	"511.39"	"689.924"	"412.425"	"202.813"	"186.153"	"200.496"	"165.344"	"3.407"
"1974"	"2.41"	"1.439"	"125.596"	"312.157"	"326.703"	"632.645"	"914.748"	"361.718"	"479.007"	"209.073"	"66.411"	"0.263"
"1975"	"0.85"	"52.495"	"14.269"	"121.061"	"267.784"	"346.938"	"610.91"	"236.846"	"285.498"	"183.88"	"131.963"	"0.995"
"1976"	"0.395"	"17.586"	"81.474"	"83.863"	"278.533"	"690.404"	"662.347"	"475.356"	"39.398"	"104.32"	"19.39"	"0.427"
"1977"	"1.107"	"95.257"	"23.13"	"475.717"	"420.605"	"563.995"	"542.487"	"215.575"	"176.774"	"160.885"	"45.05"	"13.445"
"1978"	"0.001"	"0.424"	"17.034"	"100.01"	"559.219"	"591.091"	"329.894"	"239.479"	"258.669"	"92.891"	"2.082"	"0.167"
"1979"	"8.473"	"9.941"	"54.321"	"34.213"	"175.152"	"271.857"	"282.901"	"523.896"	"380.091"	"189.715"	"31.172"	"26.104"
"1980"	"0.802"	"34.043"	"86.684"	"146.2"	"478.194"	"284.654"	"564.43"	"493.679"	"264.274"	"210.523"	"0.488"	"4.105"
"1981"	"20.087"	"19.824"	"153.134"	"541.204"	"574.543"	"438.581"	"634.041"	"336.861"	"176.736"	"16.903"	"3.18"	"57.977"
"1982"	"0.096"	"19.958"	"16.657"	"313.648"	"305.908"	"736.095"	"300.631"	"591.141"	"235.447"	"27.098"	"49.355"	"3.39"
"1983"	"12.571"	"32.871"	"154.061"	"143.18"	"324.187"	"322.151"	"527.376"	"583.233"	"435.387"	"230.824"	"19.96"	"36.877"
"1984"	"14.584"	"7.197"	"7.253"	"149.29"	"743.515"	"561.375"	"497.837"	"497.819"	"321.817"	"206.04"	"0.75"	"7.367"
"1985"	"4.131"	"10.562"	"122.891"	"220.891"	"226.947"	"431.112"	"309.379"	"389.415"	"298.733"	"39.157"	"3.142"	"2.029"
"1986"	"6.125"	"2.195"	"9.915"	"298.83"	"122.441"	"243.518"	"490.995"	"300.079"	"396.315"	"246.304"	"144.235"	"1.234"
"1987"	"0.722"	"4.121"	"77.108"	"275.163"	"132.434"	"226.003"	"541.924"	"415.121"	"400.874"	"156.176"	"58.912"	"28.607"
"1988"	"0.641"	"23.219"	"64.055"	"41.979"	"596.011"	"481.059"	"547.51"	"533.415"	"266.122"	"266.014"	"69.188"	"4.717"
"1989"	"0.836"	"27.294"	"30.644"	"112.71"	"312.971"	"468.453"	"450.423"	"144.052"	"299.316"	"224.157"	"5.612"	"1.422"
"1990"	"3.741"	"52.606"	"115.107"	"351.925"	"264.033"	"406.764"	"508.686"	"136.427"	"409.905"	"166.891"	"43.014"	"16.478"
"1991"	"9.007"	"34.597"	"90.546"	"61.12"	"499.843"	"408.797"	"388.984"	"490.768"	"256.403"	"454.94"	"13.81"	"31.271"
"1992"	"7.423"	"35.101"	"18.244"	"83.71"	"381.325"	"409.664"	"678.988"	"487.696"	"282.668"	"133.436"	"17.154"	"17.749"
"1993"	"35.204"	"42.596"	"91.61"	"111.281"	"379.16"	"731.603"	"630.112"	"491.52"	"357.55"	"81.9"	"12.639"	"0"
"1994"	"13.847"	"39.275"	"184.46"	"185.879"	"267.352"	"533.237"	"412.029"	"521.047"	"148.3"	"50.441"	"20.979"	"4.571"
"1995"	"13.831"	"26.694"	"8.132"	"100.927"	"330.063"	"544.644"	"533.729"	"470.578"	"255.181"	"51.091"	"135.088"	"0.854"
"1996"	"0.47"	"24.13"	"125.186"	"233.819"	"619.608"	"410.407"	"436.138"	"500.267"	"241.787"	"163.958"	"6.448"	"1.011"
"1997"	"5.304"	"8.953"	"82.128"	"131.108"	"195.944"	"348.168"	"722.837"	"379.01"	"423.477"	"40.588"	"12.965"	"25.752"
"1998"	"8.111"	"16.704"	"102.56"	"211.998"	"448.957"	"338.726"	"668.666"	"649.992"	"166.942"	"81.227"	"112.78"	"0"
"1999"	"4.976"	"4.788"	"21.089"	"42.519"	"474.143"	"339.979"	"499.543"	"391.148"	"131.194"	"224.843"	"17.206"	"2.938"
"2000"	"14.633"	"35.32"	"55.805"	"356.696"	"560.64"	"174.773"	"295.139"	"590.429"	"253.788"	"124.81"	"17.118"	"5.597"
"2001"	"3.122"	"12.321"	"72.643"	"165.211"	"448.228"	"471.73"	"386.696"	"618.297"	"233.903"	"227.073"	"35.163"	"1.622"
"2002"	"21.448"	"5.498"	"55.603"	"308.907"	"332.271"	"753.108"	"611.067"	"378.65"	"239.061"	"102.602"	"49.145"	"1.842"
