
"Year"	"Jan"	"Feb"	"Mar"	"Apr"	"May"	"Jun"	"Jul"	"Aug"	"Sep"	"Oct"	"Nov"	"Dec"
"1901"	"15.724"	"17.874"	"21.448"	"24.539"	"24.933"	"25.939"	"26.212"	"26.197"	"26.013"	"24.829"	"20.426"	"17.193"
"1902"	"16.394"	"17.675"	"22.391"	"22.555"	"25.02"	"25.183"	"26.24"	"26.125"	"25.941"	"23.518"	"19.815"	"16.565"
"1903"	"15.295"	"17.102"	"21.074"	"24.526"	"25.078"	"25.224"	"26.712"	"25.325"	"25.925"	"25.128"	"20.926"	"17.236"
"1904"	"15.739"	"17.914"	"22.336"	"23.372"	"24.347"	"25.936"	"26.055"	"25.925"	"26.111"	"24.228"	"20.243"	"16.436"
"1905"	"15.382"	"14.857"	"20.005"	"22.012"	"24.904"	"25.95"	"26.484"	"25.598"	"26.413"	"24.459"	"20.626"	"17.066"
"1906"	"15.823"	"17.331"	"20.247"	"23.945"	"25.536"	"25.766"	"26.785"	"25.198"	"26.912"	"24.129"	"20.826"	"17.321"
"1907"	"17.168"	"16.986"	"20.264"	"22.511"	"24.493"	"25.039"	"25.801"	"26.369"	"25.7"	"24.528"	"20.738"	"17.348"
"1908"	"16.083"	"17.513"	"22.202"	"25.355"	"24.577"	"25.51"	"25.886"	"26.213"	"26.129"	"24.228"	"20.37"	"17.225"
"1909"	"15.912"	"17.729"	"23.045"	"23.01"	"24.61"	"24.84"	"26.901"	"25.427"	"26.813"	"25.328"	"21.852"	"17.48"
"1910"	"15.878"	"17.358"	"20.958"	"22.165"	"24.832"	"24.772"	"25.314"	"25.755"	"26.313"	"24.028"	"20.897"	"16.474"
"1911"	"16.118"	"17.13"	"20.632"	"22.68"	"24.219"	"25.053"	"25.684"	"25.698"	"25.898"	"24.317"	"20.37"	"16.221"
"1912"	"15.994"	"18.074"	"21.22"	"21.925"	"24.847"	"25.184"	"25.929"	"25.755"	"25.612"	"23.858"	"20.97"	"17.093"
"1913"	"16.768"	"19.247"	"21.351"	"23.917"	"23.766"	"24.91"	"26.428"	"25.726"	"25.813"	"23.941"	"20.07"	"16.048"
"1914"	"15.909"	"17.617"	"21.275"	"22.268"	"24.305"	"25.266"	"26.385"	"25.142"	"25.913"	"22.928"	"20.426"	"17.346"
"1915"	"17.35"	"17.801"	"21.131"	"23.954"	"24.307"	"24.756"	"25.068"	"25.786"	"25.758"	"26.066"	"22.297"	"17.892"
"1916"	"15.95"	"17.873"	"22.318"	"23.082"	"24.892"	"25.61"	"25.487"	"25.825"	"26.139"	"24.345"	"21.353"	"16.448"
"1917"	"15.595"	"17.13"	"20.674"	"22.628"	"24.23"	"24.91"	"25.996"	"25.825"	"25.839"	"24.372"	"21.537"	"16.79"
"1918"	"15.882"	"17.343"	"21.519"	"23.065"	"25.087"	"23.882"	"25.958"	"25.524"	"26.013"	"24.03"	"20.353"	"17.192"
"1919"	"17.067"	"17.486"	"22.989"	"23.539"	"24.921"	"25.509"	"25.9"	"26.551"	"24.956"	"23.93"	"21.08"	"17.406"
"1920"	"17.152"	"17.115"	"20.975"	"22.829"	"24.422"	"25.082"	"26.8"	"25.655"	"26.111"	"24.256"	"21.124"	"17.961"
"1921"	"17.683"	"18.6"	"21.717"	"23.368"	"24.936"	"24.627"	"26.384"	"26.124"	"25.756"	"23.085"	"20.652"	"16.919"
"1922"	"17.168"	"18.513"	"22.533"	"24.713"	"25.149"	"25.183"	"26.683"	"26.197"	"26.038"	"24.254"	"21.65"	"17.392"
"1923"	"17.323"	"17.259"	"21.883"	"24.183"	"24.238"	"25.455"	"26.239"	"26.723"	"26.256"	"23.8"	"21.252"	"17.717"
"1924"	"16.482"	"17.629"	"23.805"	"24.284"	"24.336"	"25.598"	"26.471"	"26.153"	"25.627"	"25.411"	"21.48"	"16.947"
"1925"	"14.623"	"16.16"	"21.448"	"23.267"	"24.671"	"25.295"	"25.924"	"25.798"	"25.386"	"23.272"	"20.21"	"17.02"
"1926"	"16.183"	"17.586"	"20.775"	"23.098"	"24.621"	"24.84"	"26.171"	"26.451"	"25.695"	"24.555"	"20.208"	"17.977"
"1927"	"15.55"	"16.832"	"19.847"	"23.427"	"24.32"	"25.126"	"26.085"	"26.024"	"25.343"	"24.212"	"20.479"	"17.451"
"1928"	"16.839"	"18.956"	"22.117"	"24.21"	"24.149"	"25.065"	"26.526"	"26.096"	"26.013"	"23.789"	"19.654"	"17.864"
"1929"	"16.394"	"16.758"	"21.659"	"23.312"	"24.138"	"24.998"	"26.195"	"25.925"	"26.012"	"24.501"	"20.096"	"16.621"
"1930"	"14.521"	"18.102"	"21.246"	"23.328"	"24.975"	"24.539"	"26.368"	"25.951"	"26.641"	"23.502"	"20.955"	"17.022"
"1931"	"15.836"	"17.334"	"21.33"	"24.175"	"23.626"	"25.159"	"25.656"	"26.357"	"25.767"	"25.47"	"20.741"	"17.722"
"1932"	"16.553"	"17.158"	"22.33"	"24.125"	"24.958"	"25.247"	"25.996"	"25.882"	"26.184"	"24.986"	"21.553"	"17.451"
"1933"	"15.498"	"17.828"	"22.49"	"23.512"	"24.165"	"25.361"	"26.128"	"25.869"	"26.536"	"24.716"	"19.684"	"16.878"
"1934"	"16.167"	"17.61"	"22.214"	"23.971"	"23.773"	"24.185"	"26.036"	"26.033"	"26.31"	"24.401"	"19.85"	"16.824"
"1935"	"15.51"	"17.588"	"22.146"	"23.668"	"25.683"	"24.7"	"26.127"	"25.414"	"25.887"	"24.686"	"21.151"	"16.291"
"1936"	"14.739"	"16.931"	"22.173"	"23.959"	"24.773"	"25.768"	"26.168"	"26.17"	"26.137"	"23.989"	"21.17"	"17.308"
"1937"	"14.353"	"17.718"	"21.746"	"24.853"	"25.329"	"26.02"	"26.553"	"25.879"	"26.098"	"24.497"	"19.682"	"17.468"
"1938"	"16.711"	"17.113"	"23.45"	"24.791"	"24.873"	"25.452"	"25.938"	"25.922"	"25.94"	"24.788"	"19.638"	"17.451"
"1939"	"16.219"	"18.175"	"22.042"	"24.921"	"24.862"	"25.139"	"25.982"	"26.468"	"26.042"	"24.328"	"21.223"	"17.524"
"1940"	"15.461"	"17.4"	"20.169"	"24.699"	"24.619"	"25.479"	"26.18"	"26.42"	"25.666"	"24.653"	"21.096"	"17.849"
"1941"	"15.751"	"17.887"	"23.258"	"24.343"	"24.264"	"25.561"	"26.524"	"26.41"	"25.965"	"24.128"	"19.855"	"18.308"
"1942"	"16.477"	"18.822"	"22.044"	"23.499"	"24.249"	"25.27"	"26.983"	"26.478"	"25.811"	"25.152"	"21.253"	"16.637"
"1943"	"16.848"	"16.684"	"20.955"	"22.363"	"24.891"	"25.507"	"26.368"	"25.665"	"26.083"	"24.172"	"21.341"	"17.246"
"1944"	"15.693"	"16.911"	"21.658"	"22.823"	"25.435"	"25.281"	"26.853"	"26.296"	"25.257"	"24.68"	"20.042"	"17.841"
"1945"	"15.994"	"16.528"	"21.951"	"23.794"	"23.996"	"25.467"	"26.113"	"25.739"	"26.37"	"23.857"	"20.542"	"17.023"
"1946"	"16.809"	"19.619"	"21.804"	"22.611"	"24.501"	"25.508"	"25.996"	"26.563"	"26.109"	"23.972"	"21.325"	"17.711"
"1947"	"16.379"	"18.241"	"22.566"	"24.285"	"25.175"	"25.371"	"26.256"	"26.096"	"26.038"	"23.529"	"20.586"	"18.107"
"1948"	"16.863"	"17.458"	"21.287"	"23.377"	"23.64"	"25.612"	"25.784"	"25.958"	"26.264"	"23.817"	"21.136"	"16.81"
"1949"	"16.506"	"17.782"	"21.856"	"21.495"	"23.863"	"24.979"	"25.813"	"25.711"	"25.95"	"25.088"	"20.329"	"15.794"
"1950"	"16.207"	"17.485"	"21.347"	"23.469"	"24.996"	"25.183"	"26.111"	"25.369"	"26.327"	"24.67"	"20.607"	"17.593"
"1951"	"16.05"	"18.163"	"22.447"	"24.835"	"24.336"	"24.851"	"25.615"	"26.553"	"26.016"	"24.717"	"21.165"	"18.512"
"1952"	"16.908"	"19.557"	"21.073"	"24.266"	"24.46"	"26.209"	"26.271"	"26.225"	"25.683"	"24.989"	"21.294"	"17.76"
"1953"	"15.807"	"18.842"	"22.829"	"24.297"	"24.174"	"25.434"	"26.034"	"26.61"	"25.942"	"24.215"	"20.64"	"18.78"
"1954"	"15.237"	"19.496"	"22.089"	"24.314"	"25.075"	"24.624"	"25.459"	"25.543"	"26.357"	"23.616"	"19.94"	"17.55"
"1955"	"16.126"	"17.619"	"22.091"	"23.409"	"24.889"	"25.084"	"25.486"	"25.369"	"26.398"	"25.202"	"21.528"	"16.934"
"1956"	"16.063"	"18.071"	"22.036"	"24.326"	"24.682"	"25.021"	"26.245"	"26.053"	"26.14"	"24.844"	"21.067"	"17.67"
"1957"	"16.62"	"16.974"	"21.7"	"24.572"	"24.594"	"25.535"	"26.339"	"26.582"	"26.17"	"23.729"	"20.591"	"17.487"
"1958"	"16.96"	"17.527"	"22.289"	"24.71"	"24.543"	"27.174"	"27.038"	"25.441"	"26.639"	"24.929"	"20.975"	"17.702"
"1959"	"16.378"	"17.031"	"21.346"	"24.024"	"24.248"	"25.631"	"26.826"	"26.578"	"25.74"	"23.773"	"20.284"	"17.79"
"1960"	"16.173"	"19.329"	"21.327"	"25.466"	"26.529"	"25.949"	"25.94"	"27.036"	"25.941"	"24.867"	"20.584"	"18.168"
"1961"	"17.46"	"16.616"	"22.13"	"24.694"	"25.461"	"26.108"	"27.007"	"26.708"	"26.479"	"24.7"	"19.942"	"16.455"
"1962"	"14.612"	"16.871"	"22.233"	"25.172"	"25.506"	"25.234"	"26.7"	"25.307"	"26.643"	"24.315"	"20.166"	"17.052"
"1963"	"15.811"	"19.247"	"21.905"	"23.635"	"24.203"	"25.19"	"26.042"	"26.029"	"26.529"	"24.003"	"20.102"	"17.306"
"1964"	"15.756"	"17.883"	"21.996"	"22.744"	"24.449"	"24.489"	"25.245"	"26.097"	"26.203"	"25.101"	"21.709"	"17.138"
"1965"	"16.054"	"17.43"	"20.492"	"23.868"	"25.105"	"25.21"	"25.611"	"25.024"	"25.757"	"24.485"	"20.413"	"18.292"
"1966"	"16.834"	"19.388"	"22.545"	"24.313"	"25.224"	"24.199"	"26.285"	"25.498"	"25.797"	"23.414"	"21.767"	"17.278"
"1967"	"16.541"	"18.742"	"20.915"	"23.225"	"24.859"	"25.271"	"26.129"	"26.465"	"25.558"	"23.986"	"19.31"	"17.74"
"1968"	"15.997"	"16.89"	"21.706"	"23.521"	"23.922"	"25.002"	"26.152"	"26.068"	"25.64"	"24.507"	"20.685"	"16.859"
"1969"	"15.631"	"17.939"	"22.781"	"24.07"	"25.768"	"25.257"	"26.569"	"25.254"	"26.281"	"24.373"	"20.315"	"17.255"
"1970"	"15.211"	"17.734"	"21.659"	"24.392"	"24.779"	"25.683"	"25.693"	"26.063"	"25.573"	"23.973"	"20.681"	"17.169"
"1971"	"15.715"	"16.824"	"21.774"	"23.248"	"25.567"	"25.508"	"25.924"	"25.222"	"25.772"	"24.333"	"19.88"	"16.603"
"1972"	"16.274"	"16.801"	"21.682"	"22.814"	"24.936"	"25.479"	"26.401"	"26.237"	"25.674"	"24.534"	"20.714"	"17.605"
"1973"	"16.274"	"18.675"	"21.545"	"25.195"	"24.518"	"25.098"	"26.624"	"26.167"	"26.123"	"24.628"	"21.167"	"16.583"
"1974"	"15.582"	"17.501"	"21.718"	"22.971"	"24.519"	"25.238"	"24.687"	"25.98"	"25.325"	"25.312"	"21.741"	"15.88"
"1975"	"15.511"	"18.34"	"22.007"	"24.766"	"24.691"	"26.265"	"25.497"	"26.041"	"25.639"	"25.028"	"20.338"	"16.252"
"1976"	"16.334"	"18.546"	"21.736"	"23.683"	"24.682"	"24.152"	"25.711"	"25.465"	"25.941"	"23.829"	"21.65"	"17.092"
"1977"	"15.35"	"17.02"	"23.183"	"21.821"	"23.135"	"24.271"	"26.465"	"25.698"	"26.143"	"23.487"	"21.292"	"17.391"
"1978"	"14.808"	"17.992"	"21.192"	"23.952"	"24.346"	"25.358"	"26.108"	"27.265"	"25.784"	"25.489"	"21.296"	"17.85"
"1979"	"17.212"	"18.228"	"22.032"	"25.078"	"26.304"	"26.581"	"26.257"	"26.196"	"25.712"	"24.004"	"21.731"	"17.95"
"1980"	"15.895"	"17.914"	"21.647"	"24.485"	"23.974"	"26.25"	"26.77"	"26.223"	"26.328"	"23.828"	"21.058"	"18.661"
"1981"	"16.766"	"18.425"	"21.416"	"22.791"	"24.656"	"26.449"	"26.084"	"26.425"	"26.313"	"25.067"	"21.782"	"17.948"
"1982"	"17.409"	"18.128"	"21.607"	"22.797"	"25.494"	"25.399"	"26.116"	"26.413"	"26.068"	"24.87"	"20.51"	"17.26"
"1983"	"16.688"	"17.68"	"21.432"	"23.565"	"24.233"	"25.658"	"26.028"	"26.325"	"26.198"	"25.625"	"21.736"	"16.905"
"1984"	"15.294"	"17.828"	"23.333"	"24.619"	"23.746"	"26.089"	"25.711"	"26.565"	"25.165"	"25.164"	"20.752"	"16.957"
"1985"	"16.184"	"17.387"	"21.578"	"23.523"	"25.072"	"25.181"	"25.228"	"26.397"	"25.656"	"24.928"	"20.55"	"18.718"
"1986"	"16.622"	"19.031"	"22.893"	"22.642"	"25.411"	"26.194"	"25.825"	"26.169"	"25.273"	"23.233"	"20.962"	"17.585"
"1987"	"17.224"	"19.255"	"21.258"	"23.309"	"24.864"	"26.639"	"25.744"	"25.613"	"25.769"	"24.215"	"21.998"	"18.141"
"1988"	"16.868"	"19.104"	"21.407"	"24.858"	"24.239"	"26.048"	"26.257"	"25.35"	"25.624"	"24.804"	"21.986"	"19.391"
"1989"	"14.879"	"18.03"	"21.689"	"24.509"	"26.101"	"25.554"	"25.585"	"26.294"	"25.712"	"24.756"	"20.297"	"17.349"
"1990"	"16.589"	"18.219"	"19.985"	"21.467"	"25.272"	"25.55"	"26.055"	"26.653"	"25.757"	"24.257"	"22.596"	"18.29"
"1991"	"15.647"	"19.1"	"22.847"	"23.869"	"22.949"	"25.21"	"26.385"	"26.499"	"26.013"	"25.157"	"20.153"	"16.991"
"1992"	"16.11"	"16.027"	"22.696"	"24.886"	"24.233"	"26.056"	"25.08"	"26.41"	"26.298"	"24.129"	"21.01"	"16.246"
"1993"	"15.851"	"18.183"	"20.702"	"23.004"	"23.631"	"24.621"	"26.096"	"25.924"	"25.74"	"25.302"	"21.738"	"18.991"
"1994"	"17.31"	"17.711"	"22.026"	"23.694"	"25.574"	"25.765"	"26.492"	"26.708"	"27.113"	"23.685"	"21.427"	"17.538"
"1995"	"16.367"	"18.429"	"23.292"	"24.927"	"26.254"	"25.722"	"25.968"	"26.293"	"26.013"	"25.43"	"22.5"	"17.919"
"1996"	"16.493"	"19.012"	"22.088"	"25.799"	"24.847"	"25.649"	"26.111"	"25.95"	"26.595"	"24.728"	"21.925"	"19.208"
"1997"	"16.207"	"17.131"	"21.95"	"22.966"	"25.32"	"26.082"	"26.554"	"27.195"	"26.029"	"24.572"	"21.645"	"18.436"
"1998"	"16.295"	"18.685"	"20.744"	"25.179"	"26.502"	"26.029"	"26.911"	"26.397"	"27.253"	"26.039"	"22.896"	"19.15"
"1999"	"17.555"	"21.986"	"23.6"	"25.798"	"25.359"	"26.708"	"26.813"	"25.925"	"26.539"	"25.188"	"22.241"	"18.978"
"2000"	"15.993"	"18.683"	"20.989"	"23.755"	"25.119"	"26.165"	"27.14"	"26.097"	"25.84"	"24.911"	"21.054"	"17.893"
"2001"	"16.795"	"19.2"	"22.444"	"24.313"	"25.549"	"26.31"	"27.272"	"26.896"	"27.485"	"25.212"	"21.591"	"18.147"
"2002"	"17.195"	"19.657"	"22.758"	"24.039"	"25.004"	"25.609"	"26.94"	"26.436"	"26.139"	"24.756"	"21.708"	"18.237"
