
"Year"	"Jan"	"Feb"	"Mar"	"Apr"	"May"	"Jun"	"Jul"	"Aug"	"Sep"	"Oct"	"Nov"	"Dec"
"1901"	"0"	"0"	"0"	"14.743"	"24.044"	"273.469"	"171.823"	"143.328"	"98.027"	"39.672"	"3.94"	"0.188"
"1902"	"0"	"0"	"0"	"0.536"	"9.382"	"215.328"	"215.22"	"46.266"	"71.517"	"69.801"	"14.314"	"17.745"
"1903"	"0"	"0"	"0"	"0.938"	"31.148"	"130.381"	"287.139"	"81.194"	"37.259"	"32.193"	"3.297"	"1.689"
"1904"	"0"	"0"	"0"	"6.782"	"16.807"	"368.52"	"144.401"	"92.666"	"36.107"	"30.29"	"0.107"	"0.054"
"1905"	"0"	"0"	"0"	"0.697"	"15.145"	"103.576"	"161.824"	"56.935"	"14.85"	"36.375"	"6.112"	"0.054"
"1906"	"2.841"	"0"	"0"	"0.751"	"17.718"	"169.732"	"187.075"	"101.324"	"69.667"	"33.239"	"6.943"	"6.782"
"1907"	"0.295"	"0"	"0"	"6.514"	"2.144"	"147.778"	"138.932"	"335.443"	"128.988"	"5.013"	"5.307"	"0.295"
"1908"	"0"	"0"	"0"	"0.348"	"10.079"	"158.768"	"353.081"	"170.241"	"37.447"	"6.782"	"2.01"	"0.054"
"1909"	"0"	"0"	"0"	"0.054"	"9.275"	"173.726"	"337.828"	"42.54"	"54.147"	"16.807"	"9.784"	"0.054"
"1910"	"0"	"0"	"0"	"0.804"	"4.584"	"233.957"	"118.426"	"162.521"	"74.358"	"25.814"	"6.299"	"0.054"
"1911"	"0"	"0"	"0"	"0.054"	"16.512"	"182.947"	"159.653"	"135.984"	"25.921"	"33.024"	"4.101"	"6.38"
"1912"	"0"	"0"	"0"	"2.305"	"21.444"	"127.433"	"394.682"	"191.042"	"56.935"	"23.347"	"11.285"	"0.054"
"1913"	"0"	"0"	"0"	"2.01"	"13.805"	"194.607"	"139.683"	"111.591"	"50.475"	"18.657"	"4.101"	"0.054"
"1914"	"0"	"0"	"0"	"2.359"	"3.404"	"172.868"	"413.929"	"369.7"	"79.505"	"9.435"	"6.219"	"28.28"
"1915"	"1.313"	"0"	"0.054"	"4.45"	"9.382"	"255.884"	"204.15"	"104.514"	"160.403"	"26.001"	"5.951"	"6.943"
"1916"	"0"	"0"	"0"	"1.635"	"44.497"	"201.925"	"99.904"	"153.729"	"105.988"	"45.462"	"39.592"	"0.054"
"1917"	"0"	"0.563"	"0"	"1.099"	"0.858"	"231.518"	"83.552"	"130.515"	"131.695"	"82.48"	"24.661"	"0.054"
"1918"	"1.716"	"0"	"0"	"2.198"	"59.99"	"79.558"	"55.219"	"115.049"	"54.415"	"2.493"	"27.583"	"0.054"
"1919"	"0"	"0"	"0"	"1.608"	"20.828"	"190.265"	"146.036"	"112.931"	"67.228"	"31.898"	"12.009"	"3.672"
"1920"	"1.421"	"0"	"0"	"5.441"	"9.435"	"175.12"	"209.591"	"64.521"	"63.582"	"32.193"	"0.348"	"0.054"
"1921"	"0"	"0"	"0.054"	"6.835"	"0.241"	"196.001"	"153.836"	"124.913"	"46.347"	"40.798"	"25.867"	"0.054"
"1922"	"0.348"	"0.188"	"0"	"3.056"	"9.382"	"203.855"	"259.557"	"87.332"	"24.152"	"14.582"	"24.152"	"0.054"
"1923"	"0.911"	"0"	"0.107"	"1.662"	"18.442"	"37.608"	"379.966"	"185.306"	"63.716"	"2.707"	"0.107"	"0.054"
"1924"	"0"	"0"	"0.054"	"1.26"	"8.042"	"143.623"	"282.422"	"126.655"	"44.926"	"23.616"	"1.635"	"0.911"
"1925"	"0"	"0"	"0"	"10.508"	"39.806"	"245.108"	"265.534"	"81.73"	"31.201"	"18.978"	"5.978"	"5.388"
"1926"	"1.045"	"0"	"0"	"0.054"	"13.564"	"82.855"	"243.741"	"272.101"	"55.031"	"11.875"	"0.107"	"0.054"
"1927"	"0"	"0"	"0"	"2.225"	"5.79"	"196.001"	"235.217"	"90.79"	"94.998"	"45.516"	"11.902"	"0.054"
"1928"	"0"	"0.295"	"0"	"6.728"	"4.235"	"174.423"	"225.755"	"120.919"	"45.864"	"49.697"	"0.348"	"6.219"
"1929"	"0.697"	"0"	"0.134"	"10.079"	"8.551"	"237.094"	"151.29"	"88.377"	"114.111"	"28.467"	"2.6"	"7.425"
"1930"	"0"	"0"	"0"	"0.268"	"24.098"	"242.133"	"148.019"	"86.394"	"44.175"	"79.29"	"1.528"	"0.456"
"1931"	"0"	"0"	"0.054"	"4.074"	"6.272"	"128.988"	"275.881"	"230.365"	"54.415"	"67.389"	"19.407"	"18.254"
"1932"	"0"	"0"	"0"	"11.821"	"23.508"	"76.235"	"323.3"	"140.782"	"106.31"	"119.686"	"12.706"	"0.054"
"1933"	"0"	"0"	"0.08"	"6.701"	"53.048"	"260.602"	"185.815"	"183.724"	"64.923"	"85.107"	"11.231"	"10.963"
"1934"	"0.161"	"0"	"0"	"3.404"	"2.788"	"239.881"	"241.57"	"154.64"	"37.125"	"25.277"	"11.714"	"0.054"
"1935"	"0"	"0.161"	"0"	"0.429"	"5.763"	"135.26"	"155.659"	"65.459"	"50.823"	"58.757"	"0.536"	"1.34"
"1936"	"0"	"0"	"0"	"1.287"	"12.84"	"337.185"	"94.811"	"83.847"	"65.271"	"25.921"	"20.453"	"0.482"
"1937"	"0"	"0"	"0.08"	"8.712"	"5.2"	"190.077"	"204.337"	"53.182"	"123.814"	"94.301"	"0.107"	"2.252"
"1938"	"0"	"0"	"0.107"	"5.254"	"14.18"	"210.798"	"162.012"	"92.264"	"91.728"	"68.139"	"6.728"	"7.05"
"1939"	"0"	"0"	"0"	"2.144"	"2.493"	"301.855"	"249.022"	"305.689"	"32.086"	"20.908"	"6.782"	"0.054"
"1940"	"0"	"0"	"0"	"1.313"	"13.617"	"214.979"	"202.139"	"151.048"	"42.808"	"45.14"	"9.248"	"11.446"
"1941"	"1.474"	"0"	"0"	"2.144"	"5.334"	"177.023"	"226.479"	"59.588"	"40.02"	"37.313"	"0.107"	"6.782"
"1942"	"0"	"0"	"0"	"11.768"	"17.343"	"275.399"	"284.244"	"123.6"	"34.954"	"24.393"	"3.351"	"6.701"
"1943"	"0.08"	"0"	"0"	"4.879"	"78.54"	"121.321"	"318.394"	"53.852"	"59.159"	"51.306"	"9.275"	"0.054"
"1944"	"0"	"0"	"0"	"0.054"	"22.195"	"172.68"	"255.563"	"84.115"	"45.998"	"60.634"	"7.613"	"0.054"
"1945"	"0.107"	"0"	"0"	"0.751"	"7.532"	"185.386"	"269.903"	"149.976"	"49.402"	"15.869"	"2.305"	"0.054"
"1946"	"0"	"0"	"0"	"10.695"	"21.739"	"221.761"	"210.154"	"218.92"	"58.087"	"18.764"	"44.256"	"3.619"
"1947"	"1.34"	"0"	"0.054"	"2.386"	"23.991"	"85.295"	"187.45"	"164.773"	"64.387"	"16.432"	"1.501"	"25.492"
"1948"	"0.375"	"0"	"0"	"4.369"	"2.707"	"228.57"	"174.717"	"178.524"	"120.892"	"33.4"	"36.991"	"0.938"
"1949"	"0"	"0"	"0.107"	"1.796"	"76.529"	"105.318"	"170.187"	"147.858"	"94.703"	"31.55"	"0.965"	"0.054"
"1950"	"0"	"0"	"0"	"1.528"	"13.081"	"92.076"	"301.319"	"139.442"	"140.916"	"64.574"	"1.474"	"0.188"
"1951"	"0"	"0"	"0"	"8.819"	"21.364"	"284.083"	"153.3"	"128.532"	"50.206"	"75.323"	"13.027"	"0.054"
"1952"	"0"	"0.134"	"0"	"8.283"	"4.905"	"200.183"	"256.635"	"151.316"	"23.133"	"67.013"	"0.107"	"0.054"
"1953"	"0"	"0"	"0"	"6.487"	"0.911"	"403.153"	"300.408"	"286.496"	"54.469"	"81.89"	"0.107"	"0.054"
"1954"	"0"	"0"	"0.054"	"4.879"	"10.588"	"106.176"	"98.429"	"320.11"	"80.872"	"31.925"	"0.107"	"3.565"
"1955"	"0"	"0"	"0"	"3.056"	"41.253"	"340.134"	"146.572"	"157.321"	"103.737"	"110.197"	"1.528"	"0.054"
"1956"	"0"	"0.08"	"0.08"	"8.417"	"33.078"	"283.735"	"313.301"	"186.512"	"53.477"	"58.945"	"15.574"	"0.054"
"1957"	"0"	"0"	"0"	"6.943"	"23.669"	"221.949"	"163.272"	"170.911"	"31.684"	"92.8"	"20.077"	"0.054"
"1958"	"0"	"0"	"0"	"6.514"	"32.381"	"170.777"	"307.485"	"185.574"	"42.058"	"25.331"	"12.277"	"0.054"
"1959"	"0"	"0"	"0"	"6.943"	"23.026"	"333.191"	"330.376"	"95.588"	"117.783"	"16.324"	"13.429"	"0.054"
"1960"	"0"	"0"	"0.107"	"1.421"	"58.141"	"155.981"	"182.357"	"126.923"	"71.249"	"12.786"	"7.559"	"0.054"
"1961"	"0"	"0"	"0"	"2.01"	"81.462"	"130.917"	"326.034"	"151.45"	"63.85"	"32.944"	"5.013"	"0.054"
"1962"	"0"	"0"	"0.054"	"5.254"	"35.705"	"41.093"	"284.968"	"129.845"	"54.951"	"32.515"	"10.32"	"31.282"
"1963"	"0"	"0.241"	"0.054"	"3.646"	"41.548"	"148.663"	"200.504"	"259.181"	"28.28"	"81.462"	"1.716"	"0.054"
"1964"	"0"	"0"	"0.134"	"5.12"	"7.318"	"135.957"	"156.007"	"279.312"	"113.092"	"90.307"	"11.553"	"1.126"
"1965"	"0.375"	"0"	"0"	"3.351"	"11.902"	"216.722"	"341.447"	"59.722"	"32.783"	"17.799"	"0.214"	"28.601"
"1966"	"0.188"	"0.161"	"0"	"0.724"	"79.639"	"79.558"	"272.986"	"59.856"	"108.749"	"33.131"	"52.967"	"1.957"
"1967"	"0"	"0"	"0"	"3.404"	"12.17"	"232.912"	"265.186"	"156.383"	"74.626"	"36.723"	"0.831"	"15.949"
"1968"	"0"	"0"	"0.054"	"12.384"	"17.289"	"147.081"	"161.1"	"89.047"	"43.827"	"34.284"	"4.932"	"0.054"
"1969"	"0"	"0"	"0.08"	"1.421"	"3.377"	"85.992"	"251.193"	"318.502"	"61.331"	"27.985"	"14.26"	"1.582"
"1970"	"0"	"0"	"0"	"2.949"	"50.796"	"222.458"	"186.539"	"179.435"	"59.374"	"65.941"	"0.107"	"0.054"
"1971"	"0"	"0"	"0"	"3.726"	"39.35"	"318.394"	"107.516"	"110.117"	"63.1"	"16.941"	"0.107"	"0.054"
"1972"	"0"	"0"	"0"	"7.8"	"16.887"	"159.278"	"166.006"	"39.994"	"66.826"	"8.068"	"10.132"	"0.054"
"1973"	"0"	"0"	"0"	"2.252"	"8.685"	"163.808"	"111.51"	"124.779"	"45.516"	"41.656"	"2.305"	"0.08"
"1974"	"0"	"0"	"0.054"	"10.347"	"71.463"	"110.894"	"153.3"	"98.269"	"75.243"	"59.159"	"0.107"	"0.054"
"1975"	"0"	"0.107"	"0"	"1.072"	"23.723"	"216.722"	"182.169"	"119.981"	"136.654"	"59.803"	"15.654"	"0.054"
"1976"	"0"	"0"	"0"	"3.565"	"3.324"	"163.459"	"204.337"	"105.72"	"48.035"	"0.348"	"30.88"	"0.054"
"1977"	"0"	"0"	"0"	"3.619"	"22.195"	"206.804"	"186.163"	"65.593"	"44.631"	"34.874"	"32.649"	"0.241"
"1978"	"0"	"0.08"	"0"	"3.297"	"59.91"	"198.092"	"133.142"	"141.05"	"82.561"	"13.027"	"11.151"	"0.054"
"1979"	"0"	"0"	"0"	"0.751"	"12.25"	"275.05"	"80.282"	"164.907"	"90.522"	"12.545"	"24.205"	"0.054"
"1980"	"0"	"0"	"0"	"8.631"	"7.532"	"251.193"	"212.138"	"177.72"	"37.045"	"24.339"	"10.052"	"7.747"
"1981"	"0.054"	"0"	"0"	"7.13"	"12.572"	"209.243"	"155.123"	"121.857"	"144.374"	"10.213"	"4.208"	"0.054"
"1982"	"0"	"0"	"0"	"2.681"	"36.455"	"139.79"	"207.956"	"149.708"	"33.721"	"18.523"	"13.269"	"0.054"
"1983"	"0"	"0"	"0"	"0.054"	"12.411"	"233.77"	"178.899"	"197.18"	"84.196"	"13.671"	"5.978"	"5.147"
"1984"	"0"	"0.134"	"0.161"	"2.493"	"4.342"	"203.158"	"207.608"	"86.662"	"55.487"	"35.115"	"0.643"	"0.054"
"1985"	"0"	"0"	"0"	"3.109"	"16.405"	"149.708"	"93.551"	"121.723"	"31.764"	"45.65"	"4.637"	"0.054"
"1986"	"0.054"	"0"	"0"	"2.171"	"0.429"	"154.587"	"91.165"	"126.789"	"10.454"	"9.918"	"19.595"	"2.6"
"1987"	"0.107"	"0"	"0"	"0.59"	"25.09"	"124.645"	"87.546"	"77.87"	"76.663"	"36.857"	"5.656"	"19.38"
"1988"	"0"	"0"	"0"	"7.425"	"2.815"	"189.568"	"199.432"	"147.724"	"135.957"	"11.687"	"0.107"	"3.914"
"1989"	"0"	"0"	"0.107"	"7.023"	"9.945"	"158.071"	"146.384"	"68.112"	"78.915"	"5.361"	"0.617"	"0.402"
"1990"	"0"	"0"	"0"	"2.654"	"28.923"	"135.421"	"110.063"	"108.401"	"27.824"	"29.968"	"11.714"	"0.054"
"1991"	"0"	"0"	"0"	"10.079"	"19.702"	"124.806"	"198.521"	"107.999"	"74.975"	"10.588"	"4.101"	"0.054"
"1992"	"0"	"0"	"0"	"2.01"	"13.429"	"249.451"	"116.979"	"130.113"	"119.954"	"41.468"	"30.933"	"0.054"
"1993"	"0"	"0"	"0.107"	"2.091"	"15.681"	"164.505"	"209.055"	"99.582"	"26.993"	"51.225"	"2.6"	"14.18"
"1994"	"0"	"0"	"0"	"8.122"	"10.025"	"260.602"	"269.716"	"127.326"	"41.173"	"70.069"	"0.402"	"0.054"
"1995"	"0.214"	"0"	"0"	"3.217"	"9.757"	"65.807"	"149.654"	"82.668"	"69.667"	"57.095"	"1.984"	"0.054"
"1996"	"0"	"0"	"0"	"1.662"	"4.074"	"200.719"	"131.856"	"61.197"	"76.127"	"61.277"	"0.456"	"1.501"
"1997"	"0.295"	"0"	"0.054"	"2.6"	"2.547"	"277.999"	"154.372"	"206.643"	"11.339"	"31.416"	"12.706"	"20.613"
"1998"	"0"	"0"	"0"	"0.054"	"13.858"	"242.669"	"131.856"	"113.574"	"69.265"	"27.368"	"13.858"	"1.179"
"1999"	"0"	"0"	"0"	"0.054"	"28.655"	"236.048"	"181.258"	"46.266"	"27.207"	"85.295"	"1.019"	"0.054"
"2000"	"0"	"0"	"0"	"3.404"	"27.127"	"153.193"	"160.377"	"84.383"	"103.335"	"30.236"	"3.297"	"0.617"
"2001"	"0"	"0"	"0"	"2.171"	"12.062"	"103.924"	"95.347"	"77.736"	"44.631"	"33.185"	"11.902"	"0.777"
"2002"	"0"	"0"	"0"	"4.021"	"9.918"	"224.897"	"39.592"	"131.186"	"12.277"	"51.091"	"0.214"	"0.054"
