
"Year"	"Jan"	"Feb"	"Mar"	"Apr"	"May"	"Jun"	"Jul"	"Aug"	"Sep"	"Oct"	"Nov"	"Dec"
"1901"	"21.176"	"7.928"	"18.521"	"108.464"	"164.617"	"506.09"	"349.628"	"192.144"	"233.413"	"127.006"	"189.098"	"34.472"
"1902"	"26.605"	"2.236"	"51.934"	"56.376"	"154.395"	"329.036"	"872.886"	"205.121"	"224.231"	"335.878"	"90.001"	"124.454"
"1903"	"2.126"	"1.313"	"0.133"	"36.565"	"290.215"	"393.427"	"631.592"	"313.418"	"220.448"	"184.869"	"176.703"	"50.267"
"1904"	"61.53"	"0.166"	"0.764"	"24.291"	"149.493"	"587.253"	"398.981"	"178.066"	"120.349"	"214.547"	"6.249"	"3.774"
"1905"	"0.568"	"22.041"	"0.739"	"61.987"	"147.834"	"645.468"	"346.203"	"161.228"	"120.613"	"254.052"	"49.966"	"0.384"
"1906"	"11.708"	"4.935"	"8.408"	"31.762"	"106.834"	"401.355"	"492.181"	"505.862"	"96.5"	"139.109"	"92.337"	"35.887"
"1907"	"4.898"	"1.083"	"37.923"	"149.897"	"84.598"	"564.368"	"455.319"	"479.372"	"162.207"	"143.045"	"150.16"	"44.807"
"1908"	"4.625"	"37.182"	"47.414"	"53.776"	"127.746"	"420.636"	"485.567"	"140.715"	"116.501"	"290.276"	"12.302"	"1.422"
"1909"	"45.364"	"6.133"	"1.285"	"98.687"	"276.252"	"462.039"	"449.221"	"337.456"	"148.545"	"179.14"	"65.163"	"15.762"
"1910"	"3.12"	"34.745"	"0.683"	"42.336"	"66.087"	"304.752"	"559.98"	"436.124"	"112.542"	"266.799"	"153.796"	"0.384"
"1911"	"1.402"	"17.804"	"10.575"	"36.676"	"153.489"	"1092.489"	"692.014"	"64.138"	"65.317"	"201.398"	"128.262"	"44.872"
"1912"	"0.542"	"1.672"	"10.514"	"65.24"	"140.329"	"722.368"	"450.357"	"155.196"	"209.145"	"218.56"	"153.997"	"2.919"
"1913"	"0.896"	"0.166"	"1.227"	"44.253"	"141.767"	"300.201"	"541.329"	"127.606"	"110.058"	"243.846"	"60.092"	"27.738"
"1914"	"1.05"	"0.156"	"10.887"	"24.563"	"88.607"	"290.549"	"657.897"	"228.458"	"192.728"	"229.553"	"51.987"	"30.306"
"1915"	"7.933"	"10.081"	"39.606"	"47.266"	"92.701"	"784.478"	"383.587"	"262.378"	"270.325"	"83.651"	"277.548"	"6.363"
"1916"	"0.117"	"1.28"	"0.836"	"54.363"	"124.17"	"516.963"	"593.532"	"554.283"	"235.39"	"239.647"	"148.209"	"6.052"
"1917"	"4.906"	"11.771"	"45.37"	"28.783"	"172.968"	"371.968"	"203.001"	"323.137"	"387.928"	"141.135"	"160.63"	"12.921"
"1918"	"23.13"	"2.817"	"18.936"	"26.108"	"398.486"	"270.597"	"136.391"	"258.199"	"56.745"	"110.07"	"297.837"	"11.332"
"1919"	"25.466"	"0.265"	"26.791"	"43.295"	"148.201"	"404.637"	"260.394"	"225.441"	"273.322"	"153.753"	"126.191"	"21.044"
"1920"	"106.759"	"0.126"	"17.965"	"56.284"	"60.291"	"538.495"	"372.57"	"102.714"	"86.845"	"262.066"	"211.499"	"0.818"
"1921"	"18.769"	"0.156"	"0.182"	"120.775"	"96.529"	"367.865"	"433.275"	"312.909"	"62.271"	"213.297"	"104.545"	"4.523"
"1922"	"14.654"	"7.767"	"0.222"	"27.159"	"275.472"	"564.589"	"473.075"	"202.964"	"95.397"	"188.62"	"156.151"	"28.555"
"1923"	"35.567"	"2.568"	"76.657"	"32.959"	"61.698"	"433.749"	"371.261"	"536.362"	"205.435"	"112.694"	"54.458"	"10.381"
"1924"	"8.582"	"0.107"	"29.738"	"46.335"	"140.664"	"893.957"	"659.011"	"309.532"	"181.522"	"126.903"	"147.34"	"26.305"
"1925"	"14.046"	"5.846"	"36.857"	"20.305"	"93.221"	"484.586"	"358.473"	"321.708"	"111.608"	"119.857"	"123.639"	"60.701"
"1926"	"61.471"	"0.15"	"20.371"	"9.349"	"90.248"	"248.171"	"490.316"	"262.103"	"155.408"	"134.768"	"72.338"	"11.754"
"1927"	"2.258"	"39.906"	"17.007"	"59.68"	"159.817"	"533.472"	"568.522"	"221.828"	"173.432"	"110.965"	"75.906"	"5.209"
"1928"	"12.929"	"70.222"	"15.961"	"60.791"	"66.457"	"405.677"	"303.756"	"243.444"	"23.475"	"239.042"	"88.298"	"23.538"
"1929"	"2.414"	"11.445"	"9.902"	"158.138"	"39.871"	"744.382"	"472.243"	"152.876"	"180.784"	"285.006"	"72.316"	"10.911"
"1930"	"6.137"	"6.894"	"19.956"	"71.896"	"288.155"	"437.712"	"165.91"	"193.996"	"220.14"	"365.434"	"207.991"	"80.682"
"1931"	"2.202"	"0.107"	"0.143"	"62.437"	"129.561"	"307.141"	"337.745"	"490.349"	"145.796"	"85.528"	"123.012"	"110.671"
"1932"	"0.117"	"4.518"	"9.881"	"106.751"	"258.097"	"247.604"	"333.766"	"384.484"	"224.768"	"274.385"	"192.223"	"11.461"
"1933"	"2.838"	"9.324"	"30.37"	"92.337"	"249.303"	"429.546"	"403.748"	"389.474"	"223.562"	"232.272"	"68.004"	"20.665"
"1934"	"88.959"	"0.107"	"0.844"	"71.433"	"100.024"	"648.473"	"264.902"	"130.88"	"15.86"	"213.528"	"49.432"	"2.99"
"1935"	"75.053"	"0.265"	"3.656"	"102.874"	"32.381"	"424.691"	"363.339"	"261.53"	"176.473"	"165.329"	"41.558"	"6.901"
"1936"	"0.196"	"40.298"	"64.627"	"16.291"	"234.909"	"482.375"	"468.139"	"222.613"	"241.547"	"111.607"	"183.127"	"6.7"
"1937"	"1.847"	"5.122"	"41.204"	"134.211"	"61.722"	"296.384"	"414.088"	"304.771"	"99.991"	"238.456"	"146.678"	"2.21"
"1938"	"0.117"	"19.381"	"26.3"	"96.566"	"97.996"	"310.094"	"453.249"	"315.037"	"169.294"	"109.144"	"17.056"	"7.979"
"1939"	"49.861"	"0.983"	"8.489"	"131.749"	"87.213"	"397.269"	"341.393"	"377.047"	"92.734"	"241.462"	"179.46"	"15.102"
"1940"	"0.117"	"0.107"	"2.896"	"115.889"	"245.994"	"453.196"	"350.095"	"263.017"	"87.409"	"163.249"	"219.521"	"15.654"
"1941"	"17.575"	"0.275"	"0.143"	"151.346"	"221.483"	"527.586"	"285.213"	"346.769"	"175.207"	"131.242"	"133.904"	"105.835"
"1942"	"0.117"	"0.107"	"17.89"	"120.818"	"202.802"	"399.97"	"436.276"	"268.526"	"111.342"	"243.414"	"78.243"	"116.1"
"1943"	"58.988"	"21.588"	"7.208"	"120.748"	"296.556"	"482.531"	"511.549"	"121.629"	"126.041"	"300.453"	"169.379"	"4.469"
"1944"	"18.359"	"58.467"	"48.027"	"57.955"	"177.425"	"312.956"	"405.196"	"197.75"	"114.012"	"182.95"	"196.262"	"40.069"
"1945"	"0.632"	"7.605"	"0.407"	"87.729"	"34.911"	"256.348"	"481.528"	"174.922"	"61.656"	"183.781"	"184.096"	"0.737"
"1946"	"6.883"	"1.073"	"14.544"	"89.697"	"166.273"	"517.573"	"291.627"	"341.937"	"211.171"	"120.998"	"238.085"	"148.005"
"1947"	"26.816"	"4.308"	"29.796"	"107.015"	"59.565"	"353.767"	"427.785"	"230.521"	"254.553"	"131.868"	"7.932"	"24.56"
"1948"	"23.815"	"0.777"	"29.386"	"29.825"	"216.669"	"490.904"	"410.319"	"259.657"	"89.191"	"83.897"	"211.184"	"12.95"
"1949"	"1.16"	"0.107"	"0.133"	"74.668"	"240.564"	"279.469"	"477.953"	"408.38"	"139.909"	"129.715"	"40.059"	"0.384"
"1950"	"0.136"	"28.896"	"2.268"	"29.954"	"107.986"	"360.672"	"467.233"	"352.654"	"171.344"	"170.624"	"84.425"	"7.514"
"1951"	"0.503"	"1.039"	"4.8"	"190.842"	"95.71"	"439.597"	"552.937"	"82.284"	"198.134"	"125.826"	"140.196"	"2.918"
"1952"	"74.253"	"56.694"	"9.142"	"50.102"	"51.7"	"439.809"	"502.111"	"186.083"	"72.887"	"165.295"	"7.695"	"60.485"
"1953"	"1.633"	"15.867"	"6.642"	"128.402"	"136.077"	"528.478"	"613.966"	"249.089"	"100.944"	"235.614"	"48.558"	"0.856"
"1954"	"41.276"	"1.854"	"55.129"	"130.639"	"152.813"	"445.621"	"415.91"	"273.297"	"78.367"	"183.406"	"47.176"	"57.68"
"1955"	"7.073"	"1.074"	"0.38"	"123.785"	"426.108"	"403.257"	"211.97"	"174.965"	"315.455"	"328.836"	"135.33"	"18.595"
"1956"	"20.755"	"1.212"	"0.143"	"139.271"	"88.754"	"594.425"	"242.839"	"205.528"	"86.785"	"335.67"	"97.84"	"4.168"
"1957"	"0.186"	"7.464"	"7.758"	"17.005"	"320.913"	"633.932"	"407.931"	"122.5"	"31.967"	"192.37"	"174.032"	"10.431"
"1958"	"4.104"	"6.036"	"12.136"	"67.503"	"317.889"	"324.81"	"395.964"	"316.532"	"82.55"	"136.399"	"183.85"	"3.891"
"1959"	"0.702"	"6.01"	"0.241"	"102.2"	"152.36"	"953.667"	"700.515"	"144.205"	"303.911"	"225.139"	"192.876"	"43.936"
"1960"	"0.189"	"3.696"	"19.522"	"109.477"	"221.275"	"199.388"	"668.16"	"114.718"	"207.084"	"219.715"	"211.673"	"2.897"
"1961"	"21.062"	"35.636"	"20.066"	"56.064"	"327.52"	"741.953"	"826.64"	"338.704"	"218.179"	"185.772"	"64.047"	"15.058"
"1962"	"28.34"	"65.298"	"14.497"	"51.578"	"327.739"	"144.146"	"624.967"	"368.165"	"184.536"	"324.554"	"22.373"	"65.544"
"1963"	"19.575"	"4.654"	"38.526"	"44.811"	"89.521"	"190.724"	"537.093"	"343.569"	"124.664"	"178.768"	"99.417"	"40.504"
"1964"	"0.117"	"0.186"	"63.883"	"10.423"	"133.08"	"418.233"	"906.303"	"432.373"	"217.12"	"221.183"	"149.809"	"35.468"
"1965"	"0.225"	"0.887"	"1.293"	"30.095"	"162.831"	"217.551"	"288.343"	"252.521"	"150.041"	"143.77"	"105.987"	"64.402"
"1966"	"10.802"	"1.519"	"11.026"	"69.144"	"103.056"	"266.229"	"170.565"	"169.196"	"240.938"	"379.715"	"108.485"	"88.655"
"1967"	"9.489"	"0.107"	"12.779"	"34.828"	"216.592"	"496.4"	"405.793"	"316.645"	"31.818"	"100.869"	"40.625"	"31.584"
"1968"	"0.42"	"18.536"	"60.132"	"173.474"	"67.849"	"286.296"	"613.988"	"242.91"	"175.482"	"69.739"	"71.706"	"12.108"
"1969"	"1.153"	"4.759"	"0.886"	"44.134"	"131.599"	"285.998"	"527.238"	"542.667"	"106.994"	"241.199"	"59.327"	"33.814"
"1970"	"43.644"	"2.428"	"12.06"	"128.619"	"228.357"	"369.864"	"264.165"	"358.232"	"96.39"	"168.297"	"141.511"	"2.947"
"1971"	"3.846"	"4.405"	"4.691"	"54.164"	"171.619"	"467.321"	"350.913"	"278.272"	"264.541"	"195.04"	"20.707"	"73.326"
"1972"	"0.831"	"0.107"	"0.133"	"27.303"	"378.234"	"434.91"	"617.78"	"138.869"	"275.034"	"205.426"	"160.922"	"147.96"
"1973"	"0.117"	"0.176"	"3.226"	"58.834"	"115.718"	"506.903"	"732.834"	"211.819"	"72.198"	"218.399"	"36.826"	"30.399"
"1974"	"0.117"	"1.025"	"1.497"	"66.825"	"106.848"	"148.159"	"573.186"	"326.788"	"268.469"	"93.669"	"57.554"	"2.138"
"1975"	"0.566"	"2.942"	"63.678"	"49.22"	"156.022"	"525.816"	"500.97"	"383.88"	"295.341"	"203.062"	"122.335"	"6.392"
"1976"	"0.146"	"0.107"	"12.776"	"164.13"	"153.333"	"218.897"	"191.522"	"308.362"	"136.69"	"190.871"	"193.182"	"18.625"
"1977"	"0.117"	"26.459"	"17.807"	"47.617"	"178.198"	"499.843"	"365.961"	"172.371"	"241.035"	"384.652"	"235.106"	"6.237"
"1978"	"0.39"	"23.17"	"0.254"	"56.892"	"44.83"	"339.646"	"522.244"	"240.711"	"93.024"	"129.008"	"161.281"	"23.107"
"1979"	"14.889"	"62.344"	"12.59"	"52.09"	"180.28"	"428.633"	"390.472"	"246.088"	"190.915"	"159.487"	"275.768"	"22.691"
"1980"	"0.233"	"0.354"	"15.653"	"95.982"	"176.265"	"471.34"	"413.111"	"195.345"	"137.945"	"202.605"	"96.268"	"45.676"
"1981"	"1.002"	"0.882"	"39.148"	"45.449"	"195.373"	"554.27"	"378.787"	"387.118"	"249.299"	"207.473"	"100.874"	"6.873"
"1982"	"0.117"	"0.107"	"0.442"	"50.169"	"185.547"	"407.999"	"280.485"	"239.468"	"90.172"	"85.512"	"112.473"	"6.897"
"1983"	"0.456"	"0.107"	"0.133"	"6.656"	"105.592"	"390.676"	"333.642"	"273.833"	"176.226"	"87.146"	"155.048"	"80.106"
"1984"	"11.679"	"25.699"	"41.996"	"58.731"	"39.278"	"506.138"	"529.576"	"89.149"	"124.695"	"302.02"	"34.265"	"20.14"
"1985"	"22.351"	"5.417"	"24.25"	"25.687"	"134.597"	"399.481"	"279.133"	"156.839"	"117.302"	"94.103"	"151.964"	"13.177"
"1986"	"51.725"	"21.276"	"3.497"	"38.508"	"117.009"	"510.931"	"264.956"	"284.206"	"283.607"	"126.312"	"154.489"	"15.325"
"1987"	"0.34"	"0.107"	"16.355"	"66.474"	"113.342"	"357.013"	"191.658"	"434.165"	"91.677"	"249.764"	"83.281"	"115.023"
"1988"	"0.117"	"2.312"	"8.301"	"106.73"	"158.839"	"410.034"	"750.358"	"344.612"	"341.87"	"19.828"	"88.628"	"25.429"
"1989"	"13.959"	"0.107"	"6.926"	"33.077"	"108.477"	"517.534"	"646.592"	"174.082"	"168.998"	"236.298"	"35.318"	"5.481"
"1990"	"3"	"3.101"	"5.739"	"21.907"	"267.56"	"269.567"	"403.024"	"169.167"	"70.331"	"225.195"	"136.098"	"11.334"
"1991"	"1.931"	"3.743"	"7.646"	"55.009"	"146.192"	"1001.526"	"493.372"	"260.486"	"47.799"	"276.166"	"52.027"	"1.586"
"1992"	"3.592"	"0.107"	"0.133"	"28.998"	"138.563"	"774.56"	"655.334"	"226.739"	"128.667"	"234.348"	"153.725"	"5.172"
"1993"	"0.117"	"0.641"	"19.894"	"36.433"	"115.652"	"559.384"	"506.213"	"184.287"	"109.063"	"249.001"	"189.456"	"87.45"
"1994"	"4.666"	"10.965"	"9.986"	"59.548"	"124.807"	"325.017"	"612.855"	"234.888"	"88.429"	"263.871"	"63.528"	"12.948"
"1995"	"38.571"	"0.107"	"11.86"	"69.658"	"223.25"	"410.357"	"426.768"	"319.284"	"158.534"	"156.591"	"77.534"	"0.384"
"1996"	"6.611"	"3.29"	"10.303"	"112.515"	"80.842"	"741.488"	"396.794"	"413.358"	"193.468"	"220.286"	"24.908"	"42.356"
"1997"	"11.257"	"0.107"	"23.602"	"51.689"	"88.009"	"421.014"	"389.425"	"317.902"	"288.823"	"272.199"	"260.086"	"41.081"
"1998"	"0.536"	"5.697"	"2.79"	"79.608"	"197.619"	"367.791"	"699.896"	"530.749"	"291.69"	"281.556"	"126.494"	"74.125"
"1999"	"1.931"	"23.856"	"14.6"	"84.037"	"281.528"	"422.621"	"435.739"	"169.275"	"73.771"	"286.981"	"88.842"	"5.668"
"2000"	"0.189"	"16.485"	"5.17"	"87.559"	"49.355"	"396.022"	"334.704"	"572.174"	"137.862"	"249.217"	"63.43"	"44.622"
"2001"	"3.592"	"7.561"	"1.821"	"175.813"	"137.976"	"254.071"	"563.182"	"268.475"	"283.945"	"180.405"	"69.186"	"9.744"
"2002"	"0.189"	"2.954"	"7.742"	"24.585"	"243.178"	"549.091"	"163.067"	"157.648"	"59.003"	"304.359"	"111.053"	"3.503"
