
"Year"	"Jan"	"Feb"	"Mar"	"Apr"	"May"	"Jun"	"Jul"	"Aug"	"Sep"	"Oct"	"Nov"	"Dec"
"1901"	"0.324"	"0"	"0.916"	"0.593"	"23.687"	"53.741"	"272.322"	"195.853"	"11.459"	"16.218"	"0.245"	"0"
"1902"	"1.81"	"0"	"0"	"0.194"	"7.286"	"27.665"	"207.609"	"278.105"	"252.585"	"1.311"	"4.283"	"2.426"
"1903"	"0"	"0"	"0"	"0"	"14.662"	"16.448"	"509.641"	"147.296"	"227.197"	"0.32"	"0.245"	"0"
"1904"	"0"	"14.334"	"7.76"	"0"	"12.061"	"103.426"	"270.119"	"66.003"	"113.199"	"4.796"	"0.245"	"2.421"
"1905"	"0"	"0"	"2.116"	"0"	"0.514"	"48.942"	"676.029"	"24.857"	"119.459"	"0.024"	"0.245"	"0"
"1906"	"0"	"4.276"	"0"	"0"	"0"	"225.777"	"470.94"	"284.774"	"231.545"	"0.661"	"0.245"	"0"
"1907"	"0"	"3.417"	"0"	"0.625"	"0"	"38.482"	"410.128"	"346.282"	"16.487"	"0.024"	"1.194"	"0"
"1908"	"4.802"	"1.612"	"0"	"0.194"	"0"	"100.74"	"508.942"	"388.071"	"11.862"	"0.041"	"0.245"	"0"
"1909"	"0.064"	"4.852"	"0"	"11.791"	"1.036"	"148.902"	"398.787"	"230.966"	"132.064"	"0.111"	"0.245"	"15.251"
"1910"	"9.52"	"0"	"0"	"6.658"	"1.788"	"383.703"	"409.611"	"380.413"	"31.941"	"21.805"	"68.349"	"0"
"1911"	"5.407"	"0"	"10.834"	"0"	"0"	"198.244"	"74.784"	"40.767"	"50.373"	"0.166"	"18.011"	"0"
"1912"	"0"	"0.155"	"0"	"3.965"	"6.08"	"105.994"	"529.845"	"257.033"	"34.203"	"12.482"	"51.732"	"0"
"1913"	"0"	"0"	"0.219"	"0"	"24.611"	"259.426"	"606.586"	"172.818"	"136.016"	"0.024"	"1.806"	"0.259"
"1914"	"0"	"4.98"	"0"	"0.047"	"7.382"	"183.281"	"415.528"	"120.489"	"175.793"	"9.569"	"4.674"	"0"
"1915"	"5.382"	"0.942"	"5.999"	"4.922"	"9.862"	"112.402"	"131.429"	"104.796"	"35.318"	"51.651"	"0.45"	"0.647"
"1916"	"0"	"0.334"	"0"	"0.011"	"5.343"	"200.225"	"186.534"	"381.75"	"163.423"	"14.702"	"20.896"	"0"
"1917"	"0.102"	"3.333"	"0"	"10.714"	"34.832"	"221.612"	"301.953"	"332.742"	"392.6"	"57.906"	"0.245"	"0"
"1918"	"0"	"0"	"0.378"	"0"	"16.73"	"73.743"	"111.273"	"225.271"	"15.763"	"0.024"	"1.223"	"0"
"1919"	"12.67"	"0"	"0"	"6.539"	"15.953"	"123.572"	"361.435"	"542.525"	"76.751"	"15.951"	"28.034"	"0.529"
"1920"	"1.119"	"1.619"	"0.17"	"0.078"	"40.728"	"283.739"	"427.301"	"78.63"	"24.136"	"0.024"	"0.245"	"0"
"1921"	"0.227"	"0"	"0"	"0"	"0"	"66.13"	"497.707"	"230.737"	"487.299"	"0.88"	"0.245"	"0"
"1922"	"0.152"	"0"	"0"	"0.044"	"0.218"	"95.097"	"365.8"	"115.16"	"291.842"	"0.844"	"22.799"	"0.17"
"1923"	"0"	"3.414"	"0.443"	"0.031"	"6.929"	"1.425"	"318.118"	"125.08"	"75.691"	"0.218"	"0.296"	"0"
"1924"	"0.267"	"0"	"0"	"0"	"8.552"	"96.05"	"331.902"	"234.1"	"222.063"	"6.744"	"0.245"	"3.874"
"1925"	"0"	"0"	"0"	"0"	"8.272"	"299.32"	"270.495"	"68.657"	"9.667"	"0.024"	"17.596"	"0"
"1926"	"11.927"	"0"	"0.17"	"13.249"	"3.216"	"18.969"	"401.37"	"454.042"	"264.171"	"0.024"	"0.245"	"0.571"
"1927"	"0"	"1.832"	"0"	"0"	"2.25"	"135.47"	"630.783"	"268.637"	"94.012"	"16.234"	"45.085"	"11.895"
"1928"	"0"	"1.4"	"0.443"	"0"	"0.269"	"132.434"	"372.628"	"230.46"	"96.816"	"31.216"	"62.26"	"2.531"
"1929"	"4.496"	"0.385"	"0"	"1.379"	"0"	"207.29"	"427.622"	"162.412"	"12.611"	"0.75"	"0.245"	"6.079"
"1930"	"3.446"	"0"	"0"	"0"	"0.295"	"104.267"	"546.531"	"208.908"	"152.545"	"27.563"	"0.245"	"0.214"
"1931"	"0"	"0"	"0"	"0.006"	"0"	"12.029"	"219.84"	"456.872"	"116.342"	"79.818"	"7.397"	"9.431"
"1932"	"0"	"0"	"0.653"	"0"	"0"	"81.801"	"601.152"	"125.545"	"130.672"	"9.615"	"0.245"	"0"
"1933"	"0"	"1.891"	"0"	"11.469"	"28.85"	"165.057"	"364.192"	"556.273"	"200.513"	"9.012"	"7.529"	"0.455"
"1934"	"0.078"	"0"	"0.412"	"0"	"0"	"285.368"	"343.393"	"425.528"	"159.66"	"2.198"	"17.824"	"0"
"1935"	"6.128"	"3.66"	"0"	"1.201"	"0.591"	"60.794"	"537.441"	"113.465"	"249.157"	"12.41"	"0.45"	"0"
"1936"	"0"	"2.156"	"8.366"	"0.374"	"1.774"	"294.533"	"163.016"	"28.049"	"196.824"	"0.024"	"79.792"	"0"
"1937"	"0"	"3.561"	"0.17"	"0"	"0"	"234.875"	"471.809"	"29.349"	"309.541"	"0.746"	"0.245"	"0.626"
"1938"	"0"	"0"	"0.378"	"0"	"12.1"	"329.063"	"407.627"	"111.847"	"19.532"	"15.429"	"0.245"	"0"
"1939"	"0"	"3.82"	"8.161"	"0"	"0"	"15.696"	"197.566"	"258.787"	"191.711"	"0.024"	"0.945"	"0"
"1940"	"2.806"	"2.24"	"0.521"	"7.102"	"1.805"	"173.116"	"222.822"	"206.987"	"73.273"	"42.856"	"60.051"	"0"
"1941"	"0.458"	"8.021"	"0"	"9.557"	"0"	"18.115"	"586.276"	"413.115"	"69.161"	"0.117"	"0.245"	"0"
"1942"	"0.398"	"4.39"	"0"	"0"	"12.575"	"82.537"	"657.734"	"413.202"	"86.098"	"0.024"	"0.245"	"0.259"
"1943"	"0.191"	"0"	"0"	"0.309"	"18.806"	"130.092"	"393.315"	"110.462"	"176.289"	"21.676"	"1.029"	"0"
"1944"	"0.58"	"0"	"4.903"	"0.024"	"0.456"	"189.384"	"638.15"	"610.313"	"89.228"	"38.81"	"0.245"	"0"
"1945"	"1.134"	"0"	"0"	"0.293"	"10.366"	"290.626"	"531.481"	"144.696"	"323.853"	"0.228"	"0.245"	"0"
"1946"	"0"	"0.997"	"0"	"0"	"1.947"	"253.265"	"291.688"	"336.467"	"75.354"	"0.103"	"49.396"	"14.048"
"1947"	"0.032"	"0"	"0"	"4.178"	"0.053"	"3.514"	"287.979"	"270.596"	"242.212"	"23.995"	"4.781"	"0.466"
"1948"	"7.056"	"0.231"	"0.209"	"0.194"	"0.04"	"120.444"	"267.427"	"135.236"	"81.167"	"16.187"	"89.281"	"0.17"
"1949"	"0"	"0.017"	"0"	"0"	"0.411"	"36.369"	"370.143"	"238.613"	"189.252"	"10.723"	"1.194"	"0"
"1950"	"0"	"0"	"0.378"	"0"	"0.411"	"16.898"	"612.787"	"65.907"	"350.341"	"0.024"	"0.245"	"0"
"1951"	"0"	"0"	"0"	"1.018"	"0.476"	"59.777"	"275.599"	"171.986"	"11.721"	"6.611"	"1.241"	"0"
"1952"	"0"	"0"	"0"	"0.259"	"0"	"143.216"	"435.61"	"211.197"	"13.07"	"0.024"	"0.245"	"0"
"1953"	"17.448"	"0"	"0"	"0"	"0"	"93.925"	"215.288"	"443.289"	"85.98"	"0.383"	"0.245"	"0"
"1954"	"0.242"	"0.734"	"0.296"	"0"	"0"	"160.746"	"404.1"	"191.959"	"517.971"	"5.191"	"0.336"	"0.061"
"1955"	"0.395"	"1.833"	"0"	"0"	"0"	"135.904"	"78.876"	"499.342"	"429.781"	"50.255"	"0.245"	"0"
"1956"	"0.152"	"0.185"	"0.02"	"0"	"5.42"	"162.109"	"497.018"	"347.895"	"190.248"	"67.308"	"2.467"	"0.728"
"1957"	"0.088"	"0"	"0.813"	"4.144"	"1.878"	"220.419"	"309.448"	"222.358"	"10.326"	"15.755"	"13.347"	"0.533"
"1958"	"0.305"	"0"	"0.209"	"0.309"	"0"	"130.673"	"381.114"	"277.574"	"376.693"	"53.39"	"12.802"	"0"
"1959"	"0.498"	"0"	"0"	"1.487"	"1.179"	"87.269"	"648.374"	"250.586"	"392.911"	"77.893"	"8.86"	"0"
"1960"	"0.691"	"0"	"0.653"	"0"	"3.416"	"236.419"	"247.199"	"236.524"	"73.225"	"5.692"	"0.245"	"0.008"
"1961"	"0"	"4.327"	"0"	"0"	"1.668"	"77.892"	"441.087"	"173.094"	"407.15"	"10.947"	"5.052"	"0.131"
"1962"	"0.203"	"0"	"6.011"	"0.758"	"2.452"	"50.528"	"320.632"	"188.862"	"334.004"	"0.024"	"4.708"	"2.359"
"1963"	"0.65"	"0.528"	"0.221"	"0.354"	"0.853"	"97.136"	"241.968"	"509.11"	"287.106"	"52.494"	"40.707"	"0"
"1964"	"0"	"0"	"0.953"	"0"	"1.68"	"93.847"	"347.463"	"244.379"	"113.667"	"0.433"	"0.352"	"0"
"1965"	"1.677"	"0"	"6.287"	"3.18"	"0.042"	"6.027"	"350.096"	"155.2"	"37.601"	"0.255"	"0.803"	"0.803"
"1966"	"0.445"	"0"	"0"	"0.011"	"6.147"	"107.457"	"228.754"	"65.126"	"151.964"	"0.294"	"4.77"	"0"
"1967"	"0"	"0"	"12.869"	"0.451"	"0"	"183.528"	"390.73"	"192.077"	"173.463"	"0.024"	"0.245"	"22.941"
"1968"	"0"	"0.041"	"8.028"	"0"	"0"	"29.866"	"164.845"	"254.215"	"48.931"	"2.374"	"0.245"	"0"
"1969"	"0.047"	"0"	"0"	"0"	"0"	"162.628"	"315.288"	"158.915"	"59.863"	"0.024"	"30.878"	"0.145"
"1970"	"0"	"0.622"	"0"	"1.867"	"10.402"	"333.631"	"253.955"	"336.966"	"226.467"	"2.277"	"0.245"	"0"
"1971"	"0"	"0"	"0"	"0"	"5.531"	"197.065"	"322.58"	"199.837"	"101.917"	"5.591"	"0.245"	"0"
"1972"	"0"	"1.426"	"0"	"0"	"1.648"	"63.802"	"259.431"	"238.242"	"19.564"	"0.041"	"0.245"	"0"
"1973"	"6.572"	"3.282"	"0"	"0"	"2.079"	"137.18"	"372.858"	"338.806"	"398.255"	"5.311"	"0.245"	"1.955"
"1974"	"0"	"0"	"0"	"0"	"43.395"	"18.539"	"137.9"	"128.455"	"60.451"	"35.947"	"0.245"	"9.261"
"1975"	"0"	"0.047"	"0"	"0"	"0.514"	"223.252"	"240.658"	"360.813"	"355.559"	"62.582"	"0.245"	"0"
"1976"	"8.138"	"0"	"0"	"0"	"0"	"214.13"	"358.641"	"341.262"	"106.085"	"0.024"	"104.808"	"0"
"1977"	"0"	"0.635"	"0.17"	"8.233"	"15.231"	"237.58"	"493.678"	"202.952"	"155.556"	"0.024"	"14.404"	"0.131"
"1978"	"0"	"6.93"	"0"	"12.245"	"0"	"159.257"	"263.628"	"328.233"	"32.79"	"17.21"	"45.487"	"10.228"
"1979"	"0.498"	"4.321"	"0.078"	"0"	"1.195"	"107.027"	"131.073"	"375.98"	"33.242"	"10.127"	"135.82"	"0.324"
"1980"	"0"	"2.316"	"0"	"0"	"0"	"362.623"	"256.774"	"298.044"	"21.492"	"0.024"	"3.173"	"30.563"
"1981"	"0.078"	"0"	"0.416"	"0"	"4.084"	"106.161"	"339.062"	"427.254"	"110.459"	"16.973"	"58.19"	"0"
"1982"	"0.441"	"0.334"	"0.012"	"0.542"	"21.135"	"30.851"	"321.735"	"135.607"	"23.783"	"7.268"	"200.249"	"0"
"1983"	"0"	"0"	"0"	"1.333"	"0.269"	"117.482"	"377.314"	"332.291"	"173.36"	"47.895"	"0.245"	"0"
"1984"	"0"	"0.053"	"0"	"0"	"0"	"17.474"	"285.785"	"515.166"	"81.616"	"2.103"	"0.245"	"0.259"
"1985"	"0"	"0"	"0.079"	"4.66"	"0.872"	"21.169"	"269.102"	"224.259"	"42.039"	"48.168"	"10.498"	"0"
"1986"	"0"	"0.667"	"0"	"0"	"4.951"	"259.918"	"196.896"	"207.211"	"29.666"	"2.139"	"0.278"	"1.679"
"1987"	"1.807"	"1.81"	"1.155"	"0"	"6.849"	"70.585"	"105.086"	"259.092"	"6.211"	"8.917"	"8.831"	"19.163"
"1988"	"0"	"0"	"0"	"7.256"	"0.353"	"86.271"	"432.297"	"226.61"	"154.978"	"11.745"	"0.911"	"0"
"1989"	"0.624"	"0"	"4.421"	"0.21"	"2.372"	"161.993"	"209.101"	"297.803"	"78.219"	"0.311"	"0.245"	"0.333"
"1990"	"0"	"2.422"	"0"	"0"	"22.416"	"67.05"	"279.857"	"548.008"	"160.672"	"10.88"	"5.85"	"19.71"
"1991"	"0"	"0"	"0.248"	"0.264"	"0.487"	"121.072"	"439.542"	"112.74"	"21.864"	"0.249"	"4.249"	"0.131"
"1992"	"0"	"0"	"0"	"0"	"5.098"	"76.33"	"211.309"	"170.406"	"254.717"	"6.451"	"4.036"	"0"
"1993"	"0"	"0"	"0.769"	"0"	"2.597"	"82.034"	"503.057"	"124.088"	"130.255"	"9.43"	"13.135"	"0.579"
"1994"	"5.367"	"0"	"1.649"	"0.744"	"1.453"	"192.479"	"381.633"	"354.845"	"418.276"	"1.742"	"1.296"	"0"
"1995"	"1.054"	"0"	"2.877"	"1.774"	"4.287"	"37.01"	"364.709"	"116.081"	"113.983"	"8.22"	"3.936"	"2.746"
"1996"	"1.093"	"0.153"	"0.783"	"0.926"	"2.821"	"111.913"	"525.169"	"247.508"	"123.538"	"37.132"	"1.271"	"0"
"1997"	"4.458"	"0"	"0"	"6.613"	"7.471"	"193.79"	"288.449"	"329.071"	"78.552"	"5.472"	"18.584"	"4.824"
"1998"	"0.575"	"0.615"	"1.155"	"0.325"	"2.926"	"117.329"	"403.22"	"213.766"	"239.155"	"32.543"	"7.341"	"0"
"1999"	"0"	"2.999"	"0"	"0"	"2.531"	"239.491"	"267.24"	"66.502"	"119.593"	"40.909"	"0.245"	"0.491"
"2000"	"0"	"0.053"	"0"	"0"	"14.078"	"98.86"	"435.333"	"133.128"	"16.265"	"2.777"	"1.507"	"0"
"2001"	"0.102"	"0"	"0.834"	"0.36"	"20.27"	"285.028"	"227.164"	"147.875"	"12.139"	"24.476"	"2.251"	"0"
"2002"	"0"	"1.902"	"2.014"	"5.089"	"0.594"	"215.723"	"57.206"	"175.51"	"87.057"	"0.198"	"1.459"	"0.184"
