
"Year"	"Jan"	"Feb"	"Mar"	"Apr"	"May"	"Jun"	"Jul"	"Aug"	"Sep"	"Oct"	"Nov"	"Dec"
"1901"	"19.313"	"20.734"	"27.463"	"31.114"	"33.72"	"33.567"	"30.411"	"28.158"	"28.875"	"29.127"	"25.081"	"22.526"
"1902"	"21.718"	"23.496"	"28.792"	"32.108"	"33.634"	"32.868"	"30.483"	"29.496"	"28.651"	"28.621"	"24.119"	"20.906"
"1903"	"20.46"	"21.242"	"25.427"	"29.725"	"32.973"	"33.277"	"30.309"	"28.781"	"28.627"	"27.961"	"22.522"	"20.46"
"1904"	"20.891"	"22.218"	"25.891"	"31.66"	"33.517"	"31.729"	"28.881"	"28.496"	"28.805"	"28.641"	"24.232"	"21.806"
"1905"	"19.593"	"19.255"	"24.955"	"29.198"	"34.526"	"32.788"	"29.186"	"29.082"	"29.069"	"28.738"	"25.377"	"21.371"
"1906"	"19.159"	"20.826"	"25.918"	"30.688"	"33.97"	"31.511"	"29.232"	"28.597"	"28.053"	"27.887"	"24.925"	"21.745"
"1907"	"21.344"	"22.126"	"26.308"	"30.039"	"32.258"	"32.383"	"31.074"	"27.412"	"28.405"	"28.684"	"25.427"	"20.305"
"1908"	"20.089"	"21.811"	"25.518"	"31.56"	"33.02"	"32.311"	"28.389"	"27.82"	"28.517"	"28.372"	"24.119"	"20.456"
"1909"	"20.382"	"22.372"	"27.652"	"30.192"	"33.2"	"31.698"	"28.655"	"27.88"	"27.918"	"27.527"	"24.252"	"20.976"
"1910"	"20.507"	"22.48"	"26.868"	"30.466"	"32.877"	"31.163"	"28.658"	"28.366"	"28.434"	"26.934"	"22.719"	"21.199"
"1911"	"21.649"	"22.093"	"25.303"	"30.193"	"33.771"	"30.971"	"29.98"	"28.48"	"28.073"	"28.577"	"24.283"	"22.694"
"1912"	"21.567"	"23.815"	"26.627"	"31.391"	"33.735"	"33.479"	"29.562"	"28.157"	"28.316"	"28.242"	"23.469"	"20.87"
"1913"	"20.29"	"22.534"	"25.02"	"31.584"	"32.744"	"31.345"	"29.08"	"27.816"	"28.596"	"28.92"	"24.775"	"21.583"
"1914"	"22.029"	"22.353"	"26.158"	"30.759"	"34.027"	"31.555"	"29.158"	"28.551"	"28.958"	"28.617"	"25.926"	"20.998"
"1915"	"20.698"	"21.431"	"27.186"	"30.588"	"33.897"	"33.931"	"30.806"	"28.826"	"29.681"	"29.187"	"25.235"	"21.822"
"1916"	"21.273"	"21.589"	"28.376"	"31.839"	"33.751"	"30.71"	"30.094"	"28.307"	"29.113"	"27.948"	"23.022"	"20.923"
"1917"	"21.536"	"22.484"	"26.831"	"29.784"	"31.631"	"31.057"	"28.585"	"28.304"	"28.126"	"27.304"	"23.081"	"21.032"
"1918"	"19.344"	"22.931"	"26.853"	"29.636"	"33.67"	"31.409"	"30.26"	"28.623"	"28.597"	"28.575"	"25.812"	"20.859"
"1919"	"21.075"	"22.303"	"27.343"	"30.674"	"33.347"	"31.626"	"28.881"	"27.979"	"28.582"	"27.94"	"25.292"	"21.136"
"1920"	"21.15"	"22.056"	"27.57"	"30.785"	"31.423"	"31.744"	"28.613"	"28.15"	"29.446"	"29.137"	"25.332"	"21.562"
"1921"	"21.202"	"22.364"	"28.662"	"32.359"	"33.818"	"32.441"	"30.645"	"28.536"	"27.881"	"27.901"	"23.997"	"22.633"
"1922"	"20.035"	"23.827"	"27.566"	"31.68"	"33.566"	"32.056"	"29.162"	"28.336"	"28.161"	"27.825"	"24.045"	"20.472"
"1923"	"20.963"	"21.722"	"27.6"	"31.051"	"32.759"	"33.526"	"29.294"	"27.712"	"28.834"	"27.356"	"23.782"	"22.21"
"1924"	"20.795"	"23.196"	"28.838"	"31.988"	"33"	"32.972"	"29.603"	"28.55"	"28.412"	"27.05"	"22.599"	"21.411"
"1925"	"18.66"	"20.933"	"27.57"	"32.531"	"32.89"	"30.877"	"28.753"	"28.896"	"29.165"	"29.765"	"25.286"	"21.741"
"1926"	"21.413"	"24.457"	"27.257"	"29.199"	"32.966"	"34.212"	"29.969"	"28.581"	"28.289"	"28.014"	"23.091"	"20.736"
"1927"	"19.382"	"21.417"	"25.979"	"30.289"	"32.62"	"32.037"	"28.527"	"27.628"	"28.535"	"27.928"	"22.196"	"21.637"
"1928"	"20.437"	"22.23"	"26.831"	"30.645"	"33.332"	"31.806"	"28.589"	"27.798"	"28.211"	"27.764"	"24.529"	"20.437"
"1929"	"19.527"	"21.495"	"28.07"	"31.284"	"33.627"	"31.846"	"29.052"	"27.696"	"28.542"	"27.94"	"25.556"	"20.467"
"1930"	"20.683"	"21.484"	"27.448"	"30.626"	"33.321"	"32.304"	"28.043"	"27.728"	"29.073"	"29.056"	"23.576"	"21.791"
"1931"	"21.899"	"21.964"	"26.399"	"31.818"	"33.705"	"33.604"	"29.822"	"28.43"	"28.346"	"27.273"	"24.146"	"21.741"
"1932"	"22.105"	"21.826"	"26.642"	"30.434"	"33.412"	"31.931"	"28.729"	"28.212"	"28.728"	"29.079"	"23.93"	"22.029"
"1933"	"20.42"	"23.099"	"27.324"	"30.538"	"31.849"	"31.429"	"28.982"	"27.717"	"28.132"	"27.813"	"24.553"	"21.244"
"1934"	"18.983"	"23.175"	"26.453"	"31.092"	"33.02"	"32.231"	"28.706"	"27.998"	"27.788"	"27.192"	"23.778"	"22.045"
"1935"	"18.905"	"22.445"	"26.43"	"29.122"	"33.046"	"32.352"	"28.582"	"27.767"	"27.817"	"27.743"	"24.467"	"21.657"
"1936"	"19.836"	"22.549"	"26.453"	"29.916"	"33.801"	"30.731"	"28.982"	"28.373"	"28.372"	"27.784"	"24.784"	"20.88"
"1937"	"19.398"	"23.218"	"25.891"	"30.108"	"32.928"	"32.223"	"28.229"	"28.004"	"28.288"	"27.592"	"25.023"	"20.652"
"1938"	"21.168"	"21.056"	"28.431"	"31.42"	"33.351"	"29.783"	"28.521"	"28.45"	"29.02"	"27.982"	"23.224"	"21.657"
"1939"	"21.359"	"23.228"	"25.477"	"29.864"	"32.806"	"32.01"	"29.152"	"28.908"	"28.112"	"28.179"	"24.138"	"21.444"
"1940"	"21.278"	"23.033"	"25.297"	"30.128"	"33.535"	"32.027"	"28.848"	"27.886"	"28.327"	"28.264"	"24.499"	"21.015"
"1941"	"20.058"	"23.579"	"27.681"	"31.587"	"33.332"	"32.584"	"28.151"	"28.161"	"28.741"	"29.256"	"24.65"	"22.769"
"1942"	"19.943"	"23.033"	"27.78"	"32.204"	"33.066"	"32.815"	"28.183"	"27.54"	"27.657"	"27.729"	"23.822"	"20.471"
"1943"	"20.575"	"22.521"	"27.375"	"30.392"	"34.047"	"30.522"	"27.837"	"27.4"	"27.82"	"27.368"	"24.953"	"21.247"
"1944"	"20.274"	"21.964"	"26.368"	"29.902"	"33.327"	"31.59"	"28.148"	"27.589"	"28.665"	"27.358"	"24.312"	"22.284"
"1945"	"18.897"	"21.68"	"27.239"	"30.042"	"32.569"	"32.284"	"27.845"	"28.127"	"27.938"	"27.304"	"22.956"	"19.859"
"1946"	"20.402"	"23.952"	"26.554"	"31.862"	"32.546"	"30.97"	"28.481"	"27.132"	"28.043"	"28.252"	"22.1"	"21.717"
"1947"	"19.939"	"22.968"	"27.327"	"30.223"	"33.321"	"32.539"	"29.182"	"29.155"	"27.754"	"26.53"	"24.099"	"21.42"
"1948"	"20.305"	"22.348"	"27.57"	"32.019"	"34.185"	"32.302"	"29.99"	"28.427"	"28.577"	"29.141"	"25.007"	"21.436"
"1949"	"22.475"	"22.825"	"27.993"	"31.947"	"34.084"	"32.052"	"29.504"	"28.68"	"28.565"	"28.327"	"23.805"	"20.717"
"1950"	"21.129"	"20.48"	"26.492"	"30.906"	"33.16"	"32.506"	"27.932"	"28.159"	"28.043"	"28.531"	"23.073"	"20.903"
"1951"	"19.52"	"22.156"	"27.317"	"29.379"	"33.005"	"32.211"	"30.26"	"28.008"	"29.985"	"30.539"	"26.137"	"21.306"
"1952"	"21.59"	"24.246"	"27.004"	"31.919"	"33.916"	"32.007"	"28.794"	"27.392"	"28.55"	"28.962"	"24.021"	"22.486"
"1953"	"20.366"	"25.138"	"29.463"	"31.595"	"32.898"	"32.135"	"29.019"	"27.355"	"28.219"	"27.683"	"23.848"	"22.453"
"1954"	"19.666"	"24.071"	"27.608"	"31.385"	"33.793"	"32.235"	"28.949"	"28.677"	"26.898"	"26.329"	"23.971"	"21.028"
"1955"	"21.318"	"23.546"	"28.9"	"29.313"	"33.02"	"31.467"	"29.845"	"27.704"	"27.83"	"27.335"	"22.668"	"21.036"
"1956"	"20.976"	"22.585"	"28.273"	"31.394"	"33.321"	"31.078"	"27.155"	"27.19"	"27.938"	"26.494"	"23.338"	"21.222"
"1957"	"20.132"	"20.844"	"25.667"	"30.504"	"32.304"	"32.129"	"29.42"	"28.396"	"28.616"	"28.776"	"26.407"	"22.841"
"1958"	"22.228"	"23.049"	"28.021"	"32.308"	"33.851"	"32.972"	"28.783"	"28.963"	"27.481"	"27.604"	"24.634"	"22.17"
"1959"	"20.598"	"22.733"	"28.285"	"31.428"	"33.873"	"32.095"	"27.644"	"27.29"	"27.508"	"27.697"	"24.476"	"21.846"
"1960"	"19.722"	"24.556"	"26.01"	"30.551"	"32.737"	"31.483"	"29.451"	"27.297"	"29.012"	"28.246"	"24.237"	"22.934"
"1961"	"20.964"	"21.328"	"28.52"	"30.977"	"33.326"	"31.206"	"28.286"	"28.281"	"27.181"	"26.956"	"24.666"	"20.458"
"1962"	"19.155"	"23.41"	"26.983"	"31.03"	"33.729"	"32.058"	"28.932"	"28.324"	"28.017"	"26.334"	"24.709"	"22.036"
"1963"	"20.919"	"24.564"	"27.407"	"30.388"	"32.7"	"32.126"	"29.239"	"27.767"	"27.551"	"28.141"	"25.784"	"22.39"
"1964"	"19.062"	"22.983"	"28.799"	"32.168"	"33.008"	"31.657"	"28.562"	"27.974"	"28.411"	"28.196"	"23.666"	"21.416"
"1965"	"22.406"	"23.102"	"26.796"	"30.607"	"33.224"	"32.7"	"29.329"	"28.781"	"28.66"	"29.319"	"25.864"	"22.242"
"1966"	"21.897"	"25.229"	"26.693"	"30.88"	"32.84"	"32.272"	"30.141"	"28.577"	"28.519"	"29.639"	"26.119"	"21.733"
"1967"	"19.408"	"24.747"	"27.028"	"30.473"	"33.271"	"31.19"	"28.729"	"27.655"	"27.954"	"28.641"	"25.504"	"23.22"
"1968"	"19.859"	"21.667"	"26.995"	"30.83"	"32.227"	"33.037"	"29.699"	"27.366"	"29.79"	"28.758"	"25.123"	"21.767"
"1969"	"21.156"	"23.707"	"29.559"	"32.188"	"33.611"	"32.596"	"29.796"	"27.901"	"28.557"	"28.966"	"26.86"	"22.613"
"1970"	"21.259"	"23.244"	"27.435"	"32.311"	"34.204"	"30.642"	"28.959"	"28.35"	"27.912"	"28.961"	"23.668"	"20.929"
"1971"	"20.136"	"22.933"	"27.517"	"32.578"	"32.795"	"30.31"	"28.063"	"27.782"	"28.715"	"27.527"	"23.962"	"20.875"
"1972"	"20.837"	"20.618"	"28.317"	"30.481"	"33.321"	"32.711"	"29.429"	"28.53"	"28.888"	"29.316"	"24.847"	"21.93"
"1973"	"19.89"	"24.037"	"27.77"	"32.908"	"34.175"	"32.183"	"27.928"	"27.735"	"26.883"	"27.723"	"23.995"	"21.52"
"1974"	"20.225"	"21.543"	"28.841"	"31.846"	"32.435"	"32.388"	"29.694"	"28.766"	"30.005"	"29.059"	"23.362"	"21.022"
"1975"	"19.346"	"22.556"	"26.154"	"29.861"	"33.531"	"31.606"	"29.13"	"28.092"	"28.013"	"28.116"	"23.326"	"21.322"
"1976"	"21.029"	"23.124"	"27.628"	"31.217"	"33.009"	"30.982"	"29.08"	"27.763"	"28.029"	"29.153"	"27.597"	"22.687"
"1977"	"20.32"	"23.618"	"29.446"	"32.276"	"33.335"	"31.587"	"28.909"	"28.393"	"28.338"	"29.848"	"26.914"	"22.793"
"1978"	"20.136"	"22.911"	"26.267"	"32.194"	"34.189"	"31.808"	"28.663"	"28.027"	"28.3"	"28.862"	"26.457"	"22.178"
"1979"	"21.67"	"21.654"	"26.5"	"31.211"	"33.025"	"33.375"	"29.792"	"27.897"	"30.04"	"29.605"	"26.875"	"22.826"
"1980"	"21.214"	"23.59"	"27.866"	"30.89"	"34.466"	"30.734"	"29.255"	"28.427"	"29.442"	"29.935"	"26.407"	"21.951"
"1981"	"20.847"	"23.511"	"27.846"	"32.304"	"33.843"	"33.374"	"29.022"	"27.8"	"29.271"	"28.726"	"23.292"	"21.514"
"1982"	"21.317"	"22.266"	"26.05"	"30.837"	"31.672"	"32.468"	"30.09"	"28.257"	"29.089"	"29.673"	"25.183"	"22.791"
"1983"	"20.112"	"21.333"	"26.258"	"29.623"	"33.479"	"32.472"	"29.644"	"28.412"	"29.043"	"27.206"	"22.833"	"20.844"
"1984"	"19.42"	"20.416"	"28.245"	"32.226"	"33.93"	"32.007"	"28.843"	"26.976"	"27.612"	"27.802"	"24.343"	"21.893"
"1985"	"20.175"	"22.223"	"29.01"	"31.44"	"33.728"	"32.276"	"29.54"	"27.851"	"29.043"	"27.269"	"25.213"	"23.121"
"1986"	"21.408"	"23.092"	"27.647"	"31.821"	"33.324"	"31.938"	"28.892"	"27.536"	"29.408"	"29.071"	"26.143"	"21.234"
"1987"	"21.66"	"24.018"	"28.165"	"31.779"	"33.175"	"32.962"	"31.067"	"30.029"	"30.635"	"30.519"	"26.67"	"22.92"
"1988"	"22.728"	"24.97"	"27.639"	"32.681"	"34.23"	"32.796"	"28.928"	"28.588"	"29.706"	"28.388"	"25.023"	"22.664"
"1989"	"20.198"	"23.025"	"26.938"	"31.099"	"33.782"	"31.24"	"29.08"	"27.758"	"29.266"	"28.938"	"26.657"	"22.224"
"1990"	"23.003"	"23.332"	"26.249"	"31.483"	"33.219"	"31.686"	"28.637"	"27.937"	"28.103"	"28.519"	"25.637"	"22.424"
"1991"	"20.035"	"23.207"	"27.785"	"31.394"	"33.782"	"33.071"	"29.251"	"28.092"	"28.515"	"28.09"	"25.538"	"22.031"
"1992"	"21.202"	"21.186"	"27.452"	"30.516"	"33.394"	"33.498"	"30.237"	"28.231"	"27.708"	"28.318"	"25.003"	"22.875"
"1993"	"21.833"	"23.768"	"26.922"	"31.134"	"34.012"	"33.1"	"29.197"	"29.219"	"28.923"	"29.558"	"26.274"	"23.09"
"1994"	"22.412"	"22.293"	"28.53"	"31.015"	"34.048"	"31.236"	"27.813"	"28.396"	"28.204"	"28.299"	"25.338"	"21.837"
"1995"	"19.805"	"23.133"	"26.642"	"30.984"	"33.791"	"34.209"	"29.982"	"29.051"	"29.439"	"30.127"	"25.298"	"23.018"
"1996"	"21.78"	"24.254"	"29.54"	"31.491"	"33.619"	"32.775"	"29.742"	"27.848"	"28.481"	"28.219"	"25.164"	"22.398"
"1997"	"20.603"	"22.53"	"28.117"	"29.99"	"32.373"	"31.375"	"29.182"	"28.059"	"28.723"	"28.153"	"26.849"	"22.017"
"1998"	"21.051"	"22.844"	"27.116"	"32.455"	"34.755"	"33.181"	"29.259"	"29.246"	"28.898"	"30.447"	"25.282"	"21.995"
"1999"	"20.456"	"24.231"	"27.874"	"32.278"	"33.109"	"31.286"	"29.176"	"28.346"	"29.247"	"28.095"	"25.099"	"21.714"
"2000"	"21.66"	"21.715"	"26.95"	"32.935"	"32.323"	"32.146"	"28.481"	"29.144"	"29.173"	"29.823"	"26.478"	"23.112"
"2001"	"20.717"	"23.438"	"27.665"	"31.391"	"32.943"	"29.907"	"27.737"	"28.207"	"29.86"	"29.419"	"25.722"	"22.713"
"2002"	"20.353"	"23.002"	"28.094"	"32.288"	"34.131"	"32.053"	"29.736"	"27.8"	"28.61"	"29.865"	"25.984"	"23.507"
