
"Year"	"Jan"	"Feb"	"Mar"	"Apr"	"May"	"Jun"	"Jul"	"Aug"	"Sep"	"Oct"	"Nov"	"Dec"
"1901"	"15.123"	"18.069"	"23.974"	"29.543"	"33.749"	"35.018"	"29.941"	"26.6"	"26.97"	"26.11"	"20.578"	"17.199"
"1902"	"17.833"	"19.895"	"26.87"	"30.694"	"34.114"	"33.84"	"28.363"	"27.597"	"26.744"	"24.929"	"19.321"	"16.047"
"1903"	"17.103"	"18.19"	"23.765"	"29.235"	"33.127"	"34.322"	"29.903"	"27.12"	"27.005"	"24.136"	"19.05"	"16.05"
"1904"	"17.13"	"18.902"	"24.05"	"30.461"	"33.154"	"32.282"	"26.9"	"26.131"	"26.578"	"25.071"	"19.515"	"17.249"
"1905"	"15.721"	"15.299"	"22.389"	"27.214"	"33.708"	"34.818"	"28.479"	"26.947"	"27.081"	"24.911"	"20.967"	"16.792"
"1906"	"16.102"	"18.18"	"23.45"	"30.146"	"35.097"	"32.38"	"27.714"	"26.941"	"26.468"	"24.927"	"20.812"	"17.523"
"1907"	"17.792"	"18.284"	"22.88"	"27.678"	"32.427"	"33.167"	"30.874"	"26.284"	"27.921"	"26.518"	"21.175"	"15.935"
"1908"	"15.671"	"19.483"	"24"	"31.417"	"34.424"	"34.14"	"27.737"	"26.453"	"27.534"	"25.161"	"20.099"	"16.125"
"1909"	"18.456"	"18.139"	"25.459"	"27.878"	"33.57"	"29.775"	"26.896"	"26.637"	"26.485"	"24.951"	"20.821"	"16.799"
"1910"	"16.182"	"19.271"	"24.714"	"29.704"	"33.563"	"31.094"	"28.302"	"26.576"	"27.032"	"24.11"	"18.767"	"16.487"
"1911"	"18.694"	"18.893"	"22.771"	"29.468"	"34.853"	"31.032"	"29.271"	"26.819"	"26.101"	"25.216"	"19.543"	"16.287"
"1912"	"17.158"	"20.365"	"23.981"	"29.517"	"33.923"	"34.166"	"28.484"	"26.632"	"26.591"	"24.961"	"19.503"	"16.04"
"1913"	"16.553"	"19.424"	"22.688"	"30.875"	"32.056"	"29.602"	"28.252"	"27.005"	"27.657"	"26.654"	"20.338"	"16.993"
"1914"	"18.368"	"20.155"	"23.814"	"29.12"	"33.168"	"32.269"	"27.496"	"26.605"	"27.237"	"25.086"	"21.326"	"16.953"
"1915"	"17.148"	"17.928"	"23.464"	"29.132"	"34.973"	"33.585"	"28.859"	"26.588"	"27.071"	"25.872"	"20.785"	"16.958"
"1916"	"16.669"	"18.726"	"26.032"	"30.711"	"33.952"	"29.128"	"28.214"	"26.472"	"26.812"	"25.075"	"18.847"	"15.457"
"1917"	"16.59"	"18.581"	"23.301"	"27.374"	"30.136"	"30.553"	"27.479"	"26.727"	"26.544"	"24.906"	"18.378"	"16.914"
"1918"	"15.246"	"19.697"	"24.759"	"28.748"	"34.257"	"30.239"	"29.948"	"26.933"	"27.643"	"25.865"	"20.887"	"16.294"
"1919"	"17.06"	"17.807"	"24.709"	"29.091"	"33.08"	"32.632"	"26.948"	"26.417"	"26.968"	"24.54"	"20.34"	"16.542"
"1920"	"16.626"	"18.992"	"24.712"	"29.645"	"31.293"	"32.486"	"27.142"	"26.782"	"28.037"	"26.724"	"21.364"	"17.528"
"1921"	"17.848"	"19.364"	"26.726"	"31.735"	"35.678"	"32.16"	"29.765"	"26.047"	"26.485"	"24.823"	"19.528"	"18.525"
"1922"	"16.477"	"20.58"	"25.478"	"30.254"	"34.639"	"31.652"	"27.296"	"26.129"	"26.531"	"24.656"	"20.047"	"16.342"
"1923"	"16.603"	"18.882"	"24.897"	"30.391"	"33.607"	"35.136"	"27.914"	"26.068"	"27.175"	"24.295"	"20.378"	"17.514"
"1924"	"16.466"	"19.546"	"26.349"	"30.958"	"32.873"	"34.643"	"27.38"	"26.586"	"26.725"	"24.962"	"19.631"	"16.689"
"1925"	"15.201"	"18.041"	"24.616"	"30.586"	"32.031"	"30.583"	"26.248"	"27.137"	"26.812"	"25.628"	"19.437"	"15.846"
"1926"	"16.64"	"20.332"	"23.451"	"26.495"	"31.826"	"34.675"	"29.071"	"26.874"	"26.408"	"23.924"	"18.255"	"15.725"
"1927"	"15.286"	"17.967"	"22.651"	"29.242"	"33.198"	"32.946"	"27.745"	"26.627"	"27.531"	"24.98"	"18.647"	"17.41"
"1928"	"16.519"	"19.32"	"24.647"	"29.211"	"34.393"	"31.93"	"27.476"	"27.271"	"27.77"	"25.674"	"21.23"	"16.751"
"1929"	"16.471"	"17.712"	"25.456"	"29.875"	"34.628"	"32.157"	"27.616"	"25.734"	"27.888"	"24.615"	"20.341"	"16.101"
"1930"	"16.432"	"18.608"	"25.309"	"29.064"	"33.514"	"32.493"	"27.175"	"26.445"	"26.968"	"26.008"	"19.575"	"16.938"
"1931"	"18.309"	"18.812"	"24.216"	"31.343"	"34.225"	"34.165"	"28.777"	"27.161"	"26.797"	"24.32"	"19.714"	"17.181"
"1932"	"18.668"	"18.126"	"24.539"	"29.455"	"33.351"	"33.606"	"28.646"	"26.547"	"26.982"	"25.502"	"19.887"	"17.061"
"1933"	"15.632"	"20.235"	"25.014"	"27.697"	"30.455"	"31.017"	"28.08"	"26.873"	"26.66"	"24.83"	"19.825"	"16.846"
"1934"	"16.122"	"19.73"	"23.864"	"29.861"	"33.726"	"32.062"	"27.574"	"26.566"	"26.523"	"24.132"	"19.737"	"17.266"
"1935"	"15.362"	"19.281"	"24.498"	"27.234"	"34.289"	"33.388"	"27.519"	"26.09"	"26.497"	"24.478"	"20.576"	"16.966"
"1936"	"15.674"	"18.926"	"24.51"	"28.949"	"34.223"	"30.368"	"27.375"	"26.458"	"26.49"	"24.776"	"20.371"	"16.876"
"1937"	"15.427"	"19.291"	"23.017"	"28.283"	"33.098"	"32.148"	"27.821"	"25.83"	"26.611"	"23.833"	"20.972"	"16.056"
"1938"	"17.085"	"17.364"	"25.938"	"30.441"	"34.038"	"28.933"	"27.228"	"26.678"	"27.407"	"25.378"	"19.608"	"16.661"
"1939"	"17.857"	"19.748"	"23.191"	"28.965"	"34.432"	"31.322"	"27.375"	"26.476"	"26.295"	"25.63"	"19.978"	"16.456"
"1940"	"16.379"	"18.709"	"22.932"	"28.774"	"33.833"	"32.786"	"28.168"	"26.565"	"26.814"	"25.111"	"20.867"	"16.591"
"1941"	"16.562"	"19.32"	"26.289"	"31.59"	"34.238"	"31.771"	"28.818"	"26.989"	"27.592"	"26.696"	"20.686"	"17.972"
"1942"	"15.709"	"19.546"	"25.257"	"30.465"	"34.989"	"33.833"	"27.191"	"26.576"	"26.537"	"25.343"	"21.081"	"16.815"
"1943"	"18.455"	"18.641"	"25.63"	"28.718"	"34.683"	"32.467"	"27.993"	"25.657"	"27.155"	"24.751"	"21.902"	"17.285"
"1944"	"16.478"	"18.56"	"22.992"	"28.376"	"34.84"	"32.008"	"27.511"	"26.622"	"27.114"	"24.198"	"20.891"	"18.648"
"1945"	"15.007"	"18.676"	"25.218"	"28.122"	"33.456"	"33.121"	"28.338"	"27.52"	"26.768"	"24.196"	"19.557"	"15.647"
"1946"	"17.501"	"21.014"	"24.662"	"30.473"	"33.389"	"30.833"	"27.386"	"26.547"	"27.218"	"25.599"	"19.828"	"18.219"
"1947"	"15.773"	"19.405"	"25.569"	"30.707"	"34.455"	"33.502"	"27.576"	"27.037"	"26.797"	"24.554"	"21.091"	"17.647"
"1948"	"16.969"	"18.768"	"24.209"	"31.25"	"35.304"	"32.982"	"27.78"	"26.573"	"26.537"	"25.689"	"19.772"	"16.616"
"1949"	"18.153"	"19.755"	"25.333"	"30.845"	"33.914"	"32.913"	"28.296"	"26.698"	"27.129"	"25.415"	"18.967"	"16.362"
"1950"	"17.554"	"18.312"	"23.536"	"28.936"	"34.075"	"32.518"	"27.728"	"26.493"	"27.03"	"24.739"	"19.571"	"16.774"
"1951"	"15.794"	"19.04"	"24.518"	"28.562"	"33.389"	"32.894"	"29.149"	"26.581"	"27.002"	"27.293"	"21.763"	"16.831"
"1952"	"18.202"	"21.404"	"24.417"	"30.954"	"35.032"	"31.933"	"27.642"	"25.937"	"27.399"	"25.778"	"20.331"	"17.958"
"1953"	"16.289"	"21.588"	"28.143"	"30.617"	"34.513"	"33.37"	"27.295"	"26.027"	"26.802"	"24.757"	"20.069"	"18.766"
"1954"	"15.798"	"20.781"	"24.822"	"30.944"	"35.203"	"32.798"	"28.674"	"26.538"	"26.346"	"23.644"	"20.21"	"17.486"
"1955"	"17.052"	"19.969"	"26.667"	"28.697"	"33.836"	"32.129"	"27.268"	"26.531"	"26.626"	"23.914"	"19.482"	"17.472"
"1956"	"17.196"	"19.25"	"25.666"	"30.799"	"34.582"	"29.738"	"27.169"	"26.125"	"26.053"	"24.586"	"18.959"	"17.835"
"1957"	"17.09"	"18.282"	"23.012"	"29.229"	"33.247"	"32.867"	"27.95"	"27.113"	"26.335"	"25.341"	"21.672"	"18.444"
"1958"	"18.656"	"20.078"	"25.639"	"31.532"	"34.737"	"34.411"	"27.712"	"26.943"	"26.669"	"24.572"	"20.972"	"18.107"
"1959"	"17.199"	"18.854"	"25.879"	"30.496"	"33.689"	"32.881"	"27.856"	"26.457"	"26.767"	"25.357"	"20.844"	"17.877"
"1960"	"16.276"	"21.518"	"24.493"	"29.84"	"34.129"	"33.942"	"27.767"	"26.145"	"27.212"	"24.729"	"19.687"	"18.345"
"1961"	"16.979"	"17.718"	"25.942"	"29.995"	"33.932"	"31.848"	"27.552"	"26.368"	"26.112"	"24.068"	"19.476"	"15.436"
"1962"	"15.35"	"19.294"	"24.222"	"29.673"	"33.493"	"34.171"	"28.79"	"26.12"	"25.849"	"23.495"	"20.463"	"17.825"
"1963"	"15.472"	"20.31"	"23.82"	"28.255"	"31.937"	"30.479"	"27.123"	"26.206"	"26.235"	"25.341"	"22.584"	"17.429"
"1964"	"16.23"	"19.693"	"26.555"	"31.182"	"32.87"	"32.615"	"27.684"	"26.71"	"26.514"	"25.716"	"20.107"	"17.883"
"1965"	"17.875"	"20.004"	"24.052"	"28.566"	"33.463"	"33.946"	"28.824"	"27.527"	"26.543"	"25.855"	"21.65"	"17.406"
"1966"	"17.262"	"21.936"	"25.14"	"30.347"	"33.693"	"31.886"	"29.869"	"26.613"	"28.004"	"26.759"	"22.324"	"16.75"
"1967"	"16.392"	"21.283"	"23.196"	"28.8"	"33.927"	"32.928"	"27.871"	"25.857"	"26.147"	"25.924"	"21.319"	"18.042"
"1968"	"16.103"	"18.497"	"25.021"	"28.731"	"32.723"	"31.086"	"27.748"	"26.588"	"28.123"	"25.149"	"21.385"	"17.781"
"1969"	"16.909"	"20.827"	"27.027"	"30.085"	"32.628"	"32.647"	"27.543"	"25.824"	"26.386"	"27.184"	"22.575"	"17.611"
"1970"	"17.416"	"19.166"	"24.76"	"31.626"	"34.196"	"30.806"	"28.387"	"26.61"	"26.065"	"25.478"	"20.078"	"17.327"
"1971"	"16.472"	"19.458"	"22.379"	"29.569"	"31.306"	"28.571"	"26.099"	"25.648"	"26.781"	"24.996"	"19.424"	"16.861"
"1972"	"17.169"	"17.878"	"25.825"	"29.515"	"34.183"	"34.507"	"29.026"	"26.086"	"26.632"	"24.313"	"21.291"	"17.876"
"1973"	"17.717"	"20.134"	"24.868"	"31.255"	"34.947"	"33.442"	"27.074"	"26.65"	"26.586"	"24.608"	"20.328"	"16.864"
"1974"	"16.312"	"18.73"	"26.145"	"31.672"	"33.888"	"32.184"	"27.332"	"25.826"	"27.889"	"26.635"	"20.351"	"16.682"
"1975"	"15.725"	"19.904"	"24.379"	"30.365"	"35.346"	"32.112"	"26.718"	"26.792"	"26.47"	"25.699"	"19.391"	"16.548"
"1976"	"16.998"	"19.658"	"24.442"	"29.358"	"32.428"	"30.582"	"27.696"	"26.158"	"26.278"	"25.585"	"23.385"	"18.132"
"1977"	"16.905"	"20.35"	"26.947"	"29.351"	"31.397"	"32.038"	"27.379"	"25.562"	"26.237"	"25.326"	"22.879"	"17.978"
"1978"	"15.875"	"18.345"	"22.612"	"28.443"	"35.369"	"30.644"	"25.76"	"25.332"	"26.264"	"25.042"	"22.5"	"16.837"
"1979"	"17.548"	"18.113"	"23.123"	"29.018"	"31.697"	"32.24"	"27.906"	"27.076"	"28.413"	"27.233"	"25.055"	"18.145"
"1980"	"17.738"	"20.952"	"25.126"	"31.422"	"34.308"	"29.201"	"26.798"	"25.432"	"26.82"	"26.378"	"21.694"	"18.3"
"1981"	"17.004"	"20.742"	"24.301"	"29.187"	"32.839"	"32.554"	"26.173"	"26.475"	"27.141"	"25.653"	"20.464"	"17.162"
"1982"	"18.521"	"18.899"	"22.944"	"29.285"	"32.022"	"32.715"	"29.934"	"26.047"	"27.214"	"26.305"	"21.604"	"18.495"
"1983"	"16.15"	"18.826"	"24.806"	"28.379"	"32.63"	"33.604"	"28.704"	"27.326"	"27.275"	"24.58"	"19.609"	"16.99"
"1984"	"16.693"	"17.611"	"25.286"	"30.621"	"35.107"	"32.499"	"28.535"	"25.8"	"26.401"	"26.102"	"20.727"	"19.045"
"1985"	"16.899"	"20.107"	"27.579"	"31.093"	"34.648"	"32.765"	"27.251"	"26.201"	"27.102"	"24.644"	"21.004"	"18.562"
"1986"	"17.363"	"18.278"	"24.283"	"30.266"	"32.287"	"32.261"	"26.18"	"26.455"	"25.131"	"25.14"	"21.56"	"16.983"
"1987"	"16.661"	"20.063"	"25.562"	"31.12"	"32.2"	"34.385"	"28.922"	"28.611"	"27.483"	"25.576"	"21.558"	"16.94"
"1988"	"17.661"	"20.663"	"25.22"	"31.124"	"35.343"	"32.461"	"27.696"	"27.589"	"28.451"	"25.391"	"21.085"	"17.955"
"1989"	"15.87"	"19.599"	"24.068"	"29.565"	"34.166"	"30.444"	"28.142"	"26.752"	"27.104"	"25.802"	"21.924"	"17.748"
"1990"	"19.098"	"20.077"	"23.598"	"30.201"	"32.081"	"30.232"	"26.325"	"27.171"	"26.372"	"25.806"	"21.347"	"18.23"
"1991"	"15.945"	"21.129"	"25.373"	"29.73"	"35.82"	"31.747"	"30.219"	"25.885"	"28.239"	"25.146"	"20.505"	"17.446"
"1992"	"17.503"	"18.15"	"25.668"	"30.572"	"32.584"	"34.931"	"29.446"	"26.949"	"27.104"	"25.541"	"21.714"	"17.389"
"1993"	"17.222"	"20.35"	"23.025"	"29.088"	"34.294"	"33.362"	"29.657"	"27.482"	"26.111"	"26.142"	"21.935"	"17.216"
"1994"	"18.976"	"19.152"	"25.443"	"29.273"	"35.274"	"32.117"	"27.343"	"26.416"	"27.042"	"24.972"	"21.515"	"17.778"
"1995"	"15.906"	"19.588"	"23.58"	"30.094"	"33.956"	"34.533"	"29.424"	"26.647"	"27.84"	"26.43"	"21.195"	"18.538"
"1996"	"17.496"	"19.435"	"26.085"	"29.479"	"33.917"	"33.312"	"28.849"	"26.102"	"27.9"	"25.424"	"21.204"	"16.242"
"1997"	"16.452"	"18.853"	"25.239"	"28.319"	"32.388"	"32.357"	"29.178"	"26.79"	"26.759"	"24.727"	"21.231"	"16.879"
"1998"	"15.938"	"20.484"	"22.947"	"29.892"	"34.564"	"33.003"	"28.043"	"27.315"	"27.679"	"26.904"	"22.541"	"18.128"
"1999"	"16.519"	"20.413"	"25.212"	"31.229"	"33.455"	"31.313"	"27.871"	"26.281"	"26.292"	"25.831"	"22.926"	"17.909"
"2000"	"17.543"	"19.396"	"24.411"	"31.466"	"32.63"	"30.305"	"27.583"	"27.335"	"26.343"	"27.174"	"23.5"	"18.21"
"2001"	"16.606"	"20.779"	"24.946"	"28.969"	"33.139"	"29.884"	"26.888"	"27.237"	"27.933"	"26.604"	"22.395"	"18.529"
"2002"	"17.355"	"18.753"	"25.761"	"30.925"	"34.965"	"32.257"	"30.351"	"26.617"	"26.836"	"26.279"	"21.924"	"19.063"
