
"Year"	"Jan"	"Feb"	"Mar"	"Apr"	"May"	"Jun"	"Jul"	"Aug"	"Sep"	"Oct"	"Nov"	"Dec"
"1901"	"22.605"	"23.198"	"28.029"	"31.228"	"31.973"	"29.475"	"26.087"	"25.093"	"26.588"	"26.407"	"22.436"	"20.996"
"1902"	"23.238"	"24.965"	"29.404"	"32.111"	"33.498"	"30.499"	"27.259"	"27.073"	"26.01"	"26.519"	"22.033"	"21.263"
"1903"	"22.559"	"23.305"	"27.676"	"31.409"	"31.424"	"30.783"	"26.19"	"25.792"	"26.016"	"25.106"	"21.521"	"20.442"
"1904"	"22.466"	"24.023"	"27.725"	"31.933"	"32.794"	"28.74"	"26.631"	"26.362"	"25.714"	"26.024"	"21.324"	"21.019"
"1905"	"21.536"	"22.506"	"27.263"	"29.506"	"33.641"	"30.622"	"26.827"	"26.176"	"25.695"	"26.161"	"23.231"	"20.197"
"1906"	"21.941"	"23.979"	"27.921"	"32.088"	"33.519"	"28.385"	"26.468"	"26.207"	"25.293"	"25.42"	"23.316"	"21.728"
"1907"	"22.357"	"24.199"	"27.715"	"29.627"	"31.514"	"29.182"	"26.897"	"24.767"	"26.705"	"27.342"	"24.304"	"20.522"
"1908"	"21.667"	"24.221"	"27.445"	"32.187"	"32.739"	"29.544"	"25.684"	"25.143"	"26.23"	"26.149"	"22.059"	"19.43"
"1909"	"23.485"	"25.023"	"29.485"	"30.185"	"32.766"	"28.4"	"25.713"	"26.269"	"25.518"	"25.678"	"22.808"	"22.302"
"1910"	"22.456"	"23.81"	"28.33"	"31.703"	"32.556"	"28.594"	"26.928"	"25.962"	"25.415"	"24.979"	"20.696"	"20.53"
"1911"	"22.67"	"22.939"	"27.079"	"31.479"	"33.538"	"28.566"	"27.175"	"25.41"	"26.361"	"27.13"	"24.844"	"22.025"
"1912"	"22.957"	"25.319"	"28.733"	"32.031"	"33.261"	"31.683"	"26.889"	"25.68"	"26.623"	"26.398"	"22.553"	"20.384"
"1913"	"21.342"	"25.79"	"27.847"	"32.784"	"32.275"	"28.213"	"26.308"	"25.857"	"26.394"	"26.447"	"22.826"	"22.279"
"1914"	"22.141"	"25.277"	"27.79"	"30.834"	"32.568"	"28.583"	"25.971"	"25.718"	"25.931"	"26.146"	"23.926"	"21.619"
"1915"	"21.963"	"24.216"	"27.558"	"30.998"	"32.683"	"31.111"	"27.213"	"25.791"	"26.042"	"26.011"	"24.708"	"20.296"
"1916"	"21.972"	"24.086"	"28.936"	"32.053"	"32.96"	"27.234"	"26.918"	"25.878"	"26.016"	"25.864"	"22.908"	"20.025"
"1917"	"21.609"	"23.229"	"26.86"	"29.609"	"31.146"	"27.613"	"26.012"	"26.284"	"25.289"	"25"	"21.641"	"20.724"
"1918"	"20.577"	"24.337"	"27.807"	"30.471"	"31.375"	"27.988"	"27.66"	"26.157"	"26.993"	"26.769"	"24.158"	"21.918"
"1919"	"23.348"	"25.396"	"29.006"	"31.067"	"32.561"	"27.805"	"26.359"	"25.855"	"26.232"	"25.312"	"24.063"	"20.849"
"1920"	"22.301"	"23.625"	"28.556"	"31.287"	"31.336"	"29.6"	"26.248"	"26.564"	"27.009"	"27.53"	"23.336"	"21.436"
"1921"	"23.057"	"24.202"	"29.721"	"32.5"	"33.595"	"28.391"	"26.997"	"25.774"	"25.394"	"25.337"	"21.288"	"21.323"
"1922"	"22.163"	"24.972"	"28.431"	"32.005"	"32.645"	"28.784"	"26.071"	"25.964"	"25.419"	"25.537"	"22.032"	"19.397"
"1923"	"21.753"	"23.395"	"28.06"	"31.298"	"32.111"	"31.276"	"26.105"	"25.662"	"25.685"	"24.807"	"22.457"	"22.051"
"1924"	"23.34"	"25.639"	"29.668"	"32.695"	"33.129"	"30.115"	"27.042"	"26.392"	"25.715"	"24.379"	"21.188"	"21.059"
"1925"	"20.657"	"23.131"	"28.212"	"32.62"	"31.675"	"28.1"	"25.974"	"25.684"	"26.511"	"26.442"	"23.543"	"20.435"
"1926"	"22.862"	"25.411"	"28.431"	"29.403"	"32.344"	"31.683"	"27.067"	"25.571"	"26.101"	"26.244"	"22.426"	"21.104"
"1927"	"23.634"	"25.024"	"28.632"	"31.887"	"32.798"	"28.988"	"25.769"	"25.974"	"26.579"	"25.802"	"20.909"	"21.594"
"1928"	"22.726"	"24.383"	"28.54"	"31.492"	"33.322"	"29.288"	"26.199"	"26.232"	"25.686"	"25.741"	"23.326"	"21.396"
"1929"	"22.129"	"24.124"	"29.322"	"31.088"	"33.722"	"28.602"	"26.481"	"26.557"	"26.4"	"26.023"	"23.231"	"21.975"
"1930"	"22.841"	"22.647"	"28.725"	"31.229"	"32.936"	"29.638"	"26.214"	"25.74"	"26.083"	"26.534"	"22.134"	"22.495"
"1931"	"22.649"	"25.6"	"28.349"	"32.684"	"33.321"	"30.55"	"26.277"	"25.772"	"25.533"	"25.003"	"22.417"	"20.602"
"1932"	"21.568"	"22.789"	"27.359"	"30.713"	"32.65"	"29.174"	"25.852"	"26.259"	"26.025"	"26.794"	"23.143"	"21.041"
"1933"	"22.257"	"25.094"	"28.278"	"30.924"	"30.371"	"27.466"	"26.329"	"25.478"	"25.478"	"25.334"	"23.115"	"20.912"
"1934"	"21.259"	"23.908"	"27.808"	"31.933"	"33.093"	"29.376"	"26.005"	"25.161"	"25.294"	"25.408"	"21.342"	"20.888"
"1935"	"21.42"	"24.086"	"27.335"	"29.696"	"33.216"	"29.467"	"25.579"	"25.669"	"25.018"	"26.421"	"22.446"	"22.301"
"1936"	"22.805"	"23.862"	"27.947"	"30.603"	"32.978"	"27.5"	"26.734"	"25.659"	"26.189"	"25.792"	"23.634"	"21.332"
"1937"	"21.054"	"24.762"	"27.556"	"30.634"	"32.669"	"29.569"	"25.559"	"26.248"	"25.994"	"25.4"	"23.228"	"21.285"
"1938"	"24.057"	"23.279"	"29.432"	"31.728"	"32.507"	"26.026"	"25.465"	"25.922"	"25.817"	"24.748"	"21.955"	"20.618"
"1939"	"22.754"	"25.338"	"27.336"	"31.103"	"32.715"	"29.306"	"26.067"	"26.069"	"25.886"	"26.308"	"21.656"	"20.112"
"1940"	"21.456"	"24.822"	"26.91"	"31.035"	"32.468"	"28.987"	"25.42"	"25.37"	"26.203"	"25.936"	"23.725"	"22.019"
"1941"	"22.428"	"24.784"	"29.797"	"32.595"	"33.506"	"30.495"	"26.711"	"26.191"	"26.726"	"27.032"	"23.464"	"22.879"
"1942"	"22.849"	"24.791"	"29.356"	"32.397"	"33.012"	"29.905"	"25.559"	"25.479"	"25.278"	"25.963"	"22.553"	"21.496"
"1943"	"23.312"	"22.44"	"28.257"	"30.878"	"32.193"	"28.136"	"25.768"	"25.565"	"25.222"	"24.892"	"23.241"	"19.717"
"1944"	"22.442"	"23.812"	"27.071"	"30.408"	"33.535"	"29.67"	"25.897"	"25.719"	"26.203"	"25.724"	"22.616"	"22.341"
"1945"	"21.711"	"23.599"	"28.13"	"30.434"	"33.125"	"29.606"	"25.984"	"25.809"	"25.439"	"25.732"	"21.573"	"20.049"
"1946"	"21.364"	"24.528"	"28.616"	"31.851"	"32.238"	"28.02"	"25.98"	"25.562"	"26.002"	"26.921"	"23.933"	"23.333"
"1947"	"22.7"	"24.932"	"28.646"	"30.974"	"33.363"	"30.437"	"26.512"	"26.692"	"25.606"	"24.655"	"23.182"	"21.73"
"1948"	"22.877"	"24.424"	"28.221"	"31.928"	"33.764"	"29.158"	"26.17"	"25.707"	"25.332"	"26.816"	"24.564"	"20.033"
"1949"	"22.285"	"23.483"	"29.03"	"32.053"	"32.593"	"28.179"	"26.382"	"26.58"	"25.212"	"26.1"	"22.047"	"21.559"
"1950"	"22.379"	"23.61"	"27.684"	"31.755"	"32.93"	"29.73"	"26.291"	"26.991"	"25.923"	"25.456"	"21.901"	"21.472"
"1951"	"21.771"	"24.218"	"28.75"	"30.886"	"33.267"	"29.373"	"27.295"	"25.861"	"27.116"	"27.018"	"23.995"	"20.706"
"1952"	"22.547"	"25.646"	"27.74"	"32.487"	"33.444"	"29.673"	"27.153"	"25.643"	"26.511"	"26.463"	"21.967"	"23.565"
"1953"	"22.55"	"26.639"	"30.509"	"32.076"	"33.609"	"30.438"	"26.648"	"25.602"	"26.516"	"26.118"	"22.724"	"21.032"
"1954"	"21.575"	"25.714"	"28.846"	"32.406"	"34.024"	"29.357"	"26.274"	"26.173"	"24.895"	"24.656"	"22.06"	"21.724"
"1955"	"23.073"	"25.947"	"29.623"	"30.576"	"32.869"	"28.923"	"26.632"	"25.309"	"25.914"	"25.544"	"21.531"	"20.945"
"1956"	"22.94"	"24.457"	"29.338"	"32.178"	"32.007"	"27.988"	"25.075"	"25.694"	"25.794"	"25.434"	"22.856"	"21.619"
"1957"	"23.032"	"23.87"	"27.746"	"31.105"	"32.681"	"30.297"	"26.391"	"25.691"	"26.409"	"26.816"	"24.431"	"23.467"
"1958"	"23.096"	"24.816"	"28.725"	"32.394"	"33.682"	"31.4"	"26.194"	"26.25"	"25.777"	"26.24"	"24.517"	"22.125"
"1959"	"23.472"	"25.592"	"29.346"	"32.178"	"33.945"	"29.909"	"25.853"	"25.492"	"25.594"	"26.134"	"23.68"	"22.394"
"1960"	"22.706"	"25.319"	"27.847"	"31.859"	"32.854"	"28.389"	"26.759"	"25.546"	"26.302"	"25.706"	"23.044"	"22.957"
"1961"	"23.38"	"23.46"	"29.802"	"32.195"	"32.353"	"28.774"	"25.867"	"25.986"	"25.211"	"24.916"	"23.256"	"21.517"
"1962"	"20.779"	"24.595"	"27.931"	"30.821"	"32.571"	"29.695"	"26.622"	"26.093"	"25.431"	"25.531"	"23.126"	"21.365"
"1963"	"22.006"	"24.671"	"28.438"	"30.386"	"32.619"	"28.634"	"26.799"	"25.188"	"26.17"	"26.328"	"24.23"	"22.31"
"1964"	"22.345"	"25.028"	"29.624"	"32.803"	"32.613"	"29.172"	"26.294"	"25.063"	"25.817"	"26.332"	"22.572"	"21.345"
"1965"	"22.771"	"24.592"	"28.255"	"31.008"	"33.157"	"29.459"	"25.948"	"26.122"	"26.008"	"26.633"	"23.61"	"22.418"
"1966"	"21.966"	"25.261"	"27.98"	"31.518"	"31.718"	"30.36"	"27.595"	"26.545"	"26.222"	"27.051"	"24.956"	"21.915"
"1967"	"22.442"	"25.239"	"28.357"	"31.478"	"33.214"	"29.678"	"26.659"	"25.778"	"26.105"	"26.355"	"23.85"	"23.299"
"1968"	"21.342"	"24.278"	"27.561"	"30.526"	"32.429"	"29.797"	"26.69"	"25.377"	"26.731"	"25.246"	"22.808"	"22.136"
"1969"	"22.62"	"26.001"	"30.645"	"32.989"	"33.375"	"30.17"	"26.239"	"25.665"	"25.208"	"26.033"	"24.855"	"21.992"
"1970"	"22.849"	"26.302"	"29.224"	"32.577"	"33.459"	"27.589"	"26.934"	"25.57"	"25.778"	"25.816"	"21.942"	"19.812"
"1971"	"21.817"	"25.156"	"27.843"	"32.421"	"31.41"	"27.72"	"27.169"	"26.502"	"26.482"	"25.497"	"21.847"	"20.289"
"1972"	"20.839"	"23.582"	"29.94"	"31.744"	"33.104"	"30.36"	"27.177"	"25.988"	"27.106"	"27.358"	"23.503"	"23.213"
"1973"	"23.259"	"25.887"	"29.504"	"33.895"	"34.524"	"29.683"	"25.664"	"25.134"	"25.397"	"25.743"	"22.251"	"22.333"
"1974"	"21.951"	"25.33"	"29.811"	"32.363"	"31.192"	"29.212"	"27.339"	"25.83"	"27.227"	"25.743"	"22.335"	"20.625"
"1975"	"21.063"	"24.799"	"28.425"	"33.342"	"33.104"	"28.518"	"26.35"	"25.34"	"25.308"	"26.222"	"21.196"	"19.62"
"1976"	"20.86"	"24.401"	"28.711"	"30.945"	"32.378"	"28.216"	"26.267"	"25.462"	"26.031"	"27.527"	"25.441"	"22.944"
"1977"	"22.295"	"25.581"	"30.384"	"31.382"	"31.861"	"29.168"	"26.934"	"25.687"	"25.878"	"26.53"	"25.226"	"21.034"
"1978"	"21.399"	"24.156"	"27.174"	"31.503"	"33.56"	"28.075"	"25.973"	"25.475"	"26.51"	"26.693"	"25.221"	"21.877"
"1979"	"23.872"	"24.469"	"27.82"	"31.634"	"32.274"	"30.995"	"27.351"	"25.552"	"26.657"	"27.079"	"24.88"	"22.19"
"1980"	"23.328"	"25.997"	"28.889"	"32.45"	"33.992"	"27.68"	"26.339"	"25.126"	"26.781"	"27.839"	"25.624"	"21.979"
"1981"	"21.142"	"25.894"	"27.985"	"31.689"	"32.731"	"29.484"	"26.238"	"25.791"	"25.778"	"26.409"	"22.834"	"21.595"
"1982"	"23.521"	"24.97"	"28.279"	"31.072"	"31.527"	"29.997"	"27.356"	"26.438"	"26.814"	"27.335"	"24.636"	"23.311"
"1983"	"22.819"	"25.095"	"28.943"	"31.487"	"33.767"	"30.845"	"27.692"	"26.273"	"25.776"	"25.505"	"22.425"	"21.425"
"1984"	"23.114"	"24.178"	"29.32"	"31.995"	"34.214"	"29.12"	"26.611"	"25.629"	"26.471"	"26.686"	"23.141"	"23.207"
"1985"	"24.22"	"25.395"	"30.284"	"32.072"	"33.321"	"28.628"	"26.284"	"26.154"	"27.569"	"25.416"	"23.526"	"23.111"
"1986"	"22.839"	"25.418"	"29.703"	"32.601"	"33.341"	"28.683"	"26.654"	"25.484"	"27.811"	"28.399"	"24.64"	"22.501"
"1987"	"24.076"	"25.293"	"28.9"	"32.349"	"31.741"	"30.106"	"27.225"	"26.533"	"28.278"	"26.726"	"24.767"	"21.879"
"1988"	"23.537"	"26.418"	"29.425"	"31.833"	"34.1"	"29.224"	"25.822"	"26.38"	"26.576"	"25.827"	"23.208"	"21.712"
"1989"	"22.637"	"24.615"	"27.366"	"31.671"	"33.514"	"28.093"	"26.398"	"25.113"	"26.031"	"26.515"	"24.917"	"21.795"
"1990"	"23.439"	"25.094"	"27.815"	"32.165"	"30.34"	"26.975"	"26.159"	"25.575"	"26.294"	"25.297"	"24.319"	"22.291"
"1991"	"22.518"	"25.568"	"29.404"	"31.266"	"33.624"	"28.601"	"26.159"	"25.851"	"27.533"	"27.33"	"24.176"	"21.713"
"1992"	"22.375"	"24.387"	"29.703"	"31.857"	"33.624"	"30.624"	"27.868"	"25.639"	"26.213"	"26.533"	"24.124"	"21.435"
"1993"	"23.456"	"24.3"	"27.779"	"31.992"	"33.81"	"30.945"	"26.759"	"25.978"	"26.063"	"26.611"	"23.803"	"20.534"
"1994"	"22.714"	"24.778"	"29.908"	"30.266"	"33.412"	"28.366"	"25.585"	"25.46"	"25.918"	"26.805"	"23.141"	"20.918"
"1995"	"20.326"	"24.902"	"28.017"	"31.275"	"31.869"	"31.365"	"27.208"	"27.293"	"26.945"	"26.738"	"24.71"	"23.82"
"1996"	"24.745"	"26.282"	"30.419"	"31.894"	"33.63"	"30.093"	"27.362"	"25.974"	"26.39"	"25.633"	"23.237"	"21.908"
"1997"	"20.841"	"23.189"	"28.51"	"29.311"	"31.839"	"28.706"	"26.614"	"26.078"	"25.963"	"26.202"	"25.964"	"23.672"
"1998"	"23.288"	"24.673"	"28.849"	"32.774"	"34.455"	"31.268"	"27.546"	"26.87"	"26.367"	"26.747"	"24.188"	"21.002"
"1999"	"21.42"	"25.869"	"29.369"	"32.691"	"31.867"	"27.901"	"26.475"	"25.881"	"25.413"	"25.933"	"23.605"	"21.309"
"2000"	"22.936"	"24.542"	"27.925"	"33.081"	"31.828"	"28.088"	"25.943"	"26.747"	"26.894"	"27.748"	"24.742"	"21.804"
"2001"	"23.119"	"25.996"	"29.214"	"31.086"	"33.301"	"28.211"	"26.655"	"25.846"	"27.596"	"26.258"	"24.305"	"23.52"
"2002"	"22.437"	"26.511"	"29.369"	"32.779"	"33.29"	"28.683"	"27.242"	"24.965"	"25.917"	"26.912"	"23.664"	"22.715"
