
"Year"	"Jan"	"Feb"	"Mar"	"Apr"	"May"	"Jun"	"Jul"	"Aug"	"Sep"	"Oct"	"Nov"	"Dec"
"1901"	"75.829"	"33.878"	"32.669"	"9.557"	"88.3"	"59.958"	"368.858"	"526.354"	"174.353"	"9.4"	"0.829"	"20.724"
"1902"	"5.392"	"11.255"	"15.402"	"61.337"	"47.253"	"88.181"	"414.999"	"279.001"	"168.805"	"40.016"	"0.741"	"1.975"
"1903"	"43.323"	"15.326"	"49.939"	"18.414"	"34.352"	"77.314"	"209.623"	"276.664"	"100.33"	"125.01"	"0.499"	"4.611"
"1904"	"19.104"	"8.038"	"52.376"	"11.092"	"67.876"	"177.245"	"289.237"	"458.301"	"243.413"	"20.237"	"16.109"	"20.226"
"1905"	"129.401"	"90.737"	"31.882"	"31.097"	"55.228"	"59.018"	"237.107"	"257.296"	"121.671"	"4.11"	"0.425"	"18.591"
"1906"	"33.534"	"123.931"	"27.387"	"15.256"	"28.148"	"196.005"	"233.675"	"409.978"	"207.743"	"20.905"	"0.628"	"3.987"
"1907"	"24.397"	"65.475"	"108.333"	"76.427"	"47.778"	"93.22"	"384.779"	"197.643"	"29.114"	"5.807"	"0.56"	"2.43"
"1908"	"52.289"	"50.372"	"12.012"	"13.292"	"48.397"	"94.67"	"247.446"	"297.831"	"85.735"	"8.455"	"1.776"	"4.557"
"1909"	"57.478"	"28.088"	"3.929"	"84.925"	"24.577"	"414.175"	"539.272"	"324.074"	"84.6"	"14.357"	"0.738"	"52.021"
"1910"	"24.56"	"33.852"	"10.692"	"13.974"	"76.391"	"298.583"	"439.899"	"323.362"	"231.724"	"36.205"	"3.059"	"6.878"
"1911"	"91.934"	"7.325"	"128.68"	"33.031"	"12.376"	"177.61"	"105.283"	"321.523"	"262.112"	"20.418"	"38.32"	"2.371"
"1912"	"40.853"	"30.637"	"29.258"	"51.095"	"67.339"	"139.621"	"294.613"	"312.025"	"272.872"	"7.466"	"33.792"	"11.62"
"1913"	"9.001"	"70.528"	"58.466"	"20.444"	"100.429"	"384.354"	"212.242"	"201.942"	"53.522"	"11.488"	"11.486"	"35.769"
"1914"	"3.974"	"83.268"	"82.59"	"54.317"	"60.849"	"185.253"	"446.208"	"277.304"	"495.809"	"25.715"	"6.325"	"3.384"
"1915"	"16.528"	"102.487"	"57.138"	"38.435"	"50.058"	"155.005"	"260.955"	"590.608"	"135.226"	"15.925"	"1.138"	"11.433"
"1916"	"4.061"	"22.872"	"5.62"	"24.857"	"89.966"	"386.603"	"476.528"	"266.282"	"252.957"	"66.696"	"0.68"	"1.989"
"1917"	"16.575"	"55.644"	"64.594"	"77.816"	"160.586"	"310.125"	"348.899"	"280.148"	"313.288"	"110.127"	"0.956"	"17.146"
"1918"	"11.192"	"6.401"	"31.399"	"74.398"	"31.058"	"206.763"	"135.133"	"201.187"	"51.159"	"10.315"	"29.949"	"6.934"
"1919"	"110.232"	"25.224"	"31.66"	"80.357"	"63.11"	"163.644"	"312.056"	"266.449"	"196.971"	"40.766"	"4.012"	"5.489"
"1920"	"8.961"	"29.407"	"56.863"	"8.499"	"90.112"	"382.902"	"344.914"	"168.748"	"69.179"	"11.983"	"0.755"	"3.415"
"1921"	"71.384"	"11.275"	"10.177"	"8.485"	"9.925"	"93.967"	"299.176"	"441.192"	"196.176"	"100.052"	"0.63"	"6.569"
"1922"	"56.071"	"38.286"	"4.952"	"18.119"	"14.642"	"112.592"	"462.816"	"521.312"	"244.381"	"45.954"	"7.469"	"69.589"
"1923"	"21.526"	"104.185"	"7.239"	"4.198"	"46.049"	"72.359"	"257.773"	"271.248"	"258.583"	"127.153"	"27.757"	"27.209"
"1924"	"26.14"	"49.805"	"21.343"	"16.301"	"54.765"	"72.272"	"290.521"	"307.106"	"485.143"	"160.315"	"5.187"	"36.12"
"1925"	"38.173"	"6.342"	"14.505"	"29.292"	"69.149"	"402.218"	"436.346"	"412.665"	"109.191"	"14.6"	"17.857"	"2.081"
"1926"	"18.602"	"19.864"	"103.126"	"65.258"	"62.902"	"44.316"	"411.955"	"361.006"	"91.808"	"20.196"	"16.234"	"7.125"
"1927"	"10.208"	"69.716"	"18.645"	"25.368"	"127.681"	"98.521"	"188.207"	"554.162"	"117.802"	"214.855"	"5.421"	"5.782"
"1928"	"67.558"	"112.465"	"27.987"	"57.679"	"16.913"	"120.565"	"359.599"	"186.613"	"44.769"	"6.563"	"18.037"	"40.206"
"1929"	"99.76"	"8.873"	"22.636"	"42.481"	"34.375"	"213.688"	"225.529"	"378.867"	"73.879"	"87.279"	"0.438"	"68.958"
"1930"	"33.011"	"31.688"	"25.939"	"31.847"	"38.797"	"158.924"	"343.059"	"304.126"	"87.166"	"67.444"	"18.408"	"28.693"
"1931"	"8.478"	"74.009"	"35.411"	"8.403"	"50.439"	"69.312"	"341.609"	"238.655"	"390.41"	"188.102"	"3.123"	"2.251"
"1932"	"7.52"	"17.872"	"38.595"	"14.828"	"41.827"	"126.869"	"208.771"	"289.05"	"350.091"	"20.682"	"1.843"	"24.892"
"1933"	"37.52"	"65.96"	"17.286"	"52.19"	"105.739"	"230.236"	"424.068"	"318.218"	"214.548"	"215.971"	"0.569"	"2.855"
"1934"	"39.859"	"11.308"	"30.243"	"9.337"	"39.107"	"159.216"	"286.433"	"520.621"	"111.216"	"5.603"	"0.776"	"36.409"
"1935"	"72.022"	"30.783"	"22.925"	"55.706"	"16.907"	"40.19"	"353.967"	"211.523"	"155.779"	"9.032"	"15.805"	"29.185"
"1936"	"7.322"	"46.626"	"50.017"	"53.188"	"78.973"	"574.373"	"725.021"	"448.688"	"218.264"	"20.926"	"5.722"	"76.925"
"1937"	"9.119"	"112.506"	"3.078"	"69.98"	"62.827"	"179.617"	"367.631"	"231.358"	"219.404"	"38.238"	"1.985"	"28.452"
"1938"	"75.894"	"49.979"	"10.001"	"9.94"	"17.064"	"340.065"	"382.408"	"358.687"	"80.781"	"25.254"	"3.108"	"1.801"
"1939"	"24.508"	"44.304"	"33.423"	"42.666"	"27.583"	"216.336"	"259.621"	"211.253"	"97.489"	"54.718"	"0.718"	"2.517"
"1940"	"39.851"	"111.112"	"53.133"	"36.838"	"43.961"	"111.494"	"301.34"	"289.989"	"78.927"	"13.858"	"0.48"	"22.507"
"1941"	"38.005"	"27.907"	"14.911"	"6.61"	"76.203"	"130.986"	"132.871"	"248.855"	"184.618"	"18.738"	"3.111"	"22.732"
"1942"	"72.194"	"63.431"	"13.482"	"50.99"	"46.342"	"192.286"	"558.132"	"212.364"	"158.609"	"3.836"	"0.512"	"45.384"
"1943"	"39.58"	"14.461"	"27.762"	"84.576"	"12.446"	"218.443"	"222.685"	"502.487"	"113.735"	"2.617"	"0.671"	"2.156"
"1944"	"48.426"	"38.364"	"36.006"	"32.928"	"6.585"	"243.321"	"237.578"	"136.118"	"121.743"	"13.705"	"2.192"	"2.003"
"1945"	"43.944"	"6.785"	"25.484"	"55.918"	"26.014"	"70.635"	"441.188"	"233.703"	"388.559"	"124.493"	"0.5"	"1.079"
"1946"	"5.235"	"39.079"	"18.28"	"74.553"	"109.552"	"153.285"	"363.039"	"172.006"	"57.996"	"57.654"	"20.454"	"23.543"
"1947"	"32.719"	"50.886"	"63.506"	"8.647"	"33.83"	"86.671"	"298.955"	"362.111"	"246.013"	"8.445"	"2.783"	"8.102"
"1948"	"5.149"	"51.853"	"88.047"	"9.255"	"33.857"	"61.506"	"382.074"	"528.656"	"121.533"	"56.286"	"0.712"	"6.059"
"1949"	"5.113"	"68.883"	"19.936"	"57.317"	"59.373"	"100.8"	"485.528"	"294.609"	"254.592"	"67.202"	"1.807"	"5.145"
"1950"	"62.248"	"40.15"	"56.189"	"5.871"	"52.293"	"304.187"	"325.68"	"306.804"	"155.404"	"6.525"	"3.695"	"3.785"
"1951"	"33.331"	"32.936"	"40.51"	"30.391"	"51.183"	"130.984"	"182.239"	"334.28"	"203.058"	"39.049"	"38.724"	"0.194"
"1952"	"26.951"	"38.396"	"49.795"	"29.705"	"89.713"	"209.206"	"217.57"	"374.619"	"79.139"	"15.721"	"17.382"	"0.214"
"1953"	"76.872"	"7.853"	"8.45"	"32.635"	"14.506"	"133.319"	"495.816"	"268.99"	"80.704"	"12.376"	"0.253"	"17.708"
"1954"	"59.577"	"130.834"	"23.498"	"6.083"	"9.141"	"74.282"	"399.205"	"273.721"	"227.177"	"91.452"	"2.568"	"18.354"
"1955"	"52.038"	"7.933"	"33.015"	"53.273"	"27.59"	"167.773"	"367.972"	"323.748"	"184.598"	"161.575"	"0"	"3.389"
"1956"	"18.454"	"18.882"	"35.059"	"8.462"	"138.801"	"136.629"	"294.115"	"211.128"	"96.984"	"152.771"	"0.017"	"17.454"
"1957"	"96.317"	"1.408"	"44.676"	"40.037"	"33.436"	"112.138"	"261.059"	"205.727"	"291.869"	"25.084"	"6.841"	"66.26"
"1958"	"25.485"	"16.599"	"28.558"	"32.296"	"15.071"	"134.936"	"282.002"	"442.493"	"188.29"	"183.669"	"4.543"	"42.032"
"1959"	"36.824"	"28.496"	"28.673"	"40.712"	"82.7"	"75.058"	"425.177"	"197.056"	"123.725"	"93.163"	"23.906"	"0.214"
"1960"	"39.747"	"0.421"	"46.097"	"25.016"	"16.689"	"96.435"	"298.689"	"282.698"	"166.111"	"177.631"	"0.956"	"4.247"
"1961"	"93.242"	"86.971"	"11.869"	"20.554"	"36.526"	"121.048"	"396.491"	"336.692"	"129.316"	"120.376"	"2.771"	"39.696"
"1962"	"73.562"	"25.504"	"50.062"	"21.779"	"35.88"	"147.333"	"255.359"	"254.91"	"296.229"	"1.889"	"6.879"	"32.149"
"1963"	"14.95"	"48.096"	"154.129"	"37.581"	"66.313"	"129.87"	"234.269"	"334.17"	"282.887"	"27.981"	"15.989"	"16.864"
"1964"	"20.747"	"13.008"	"32.999"	"9.89"	"75.77"	"74.494"	"464.13"	"176.995"	"185.282"	"0.449"	"0"	"19.94"
"1965"	"13.747"	"62.682"	"43.681"	"44.276"	"25.649"	"45.311"	"251.623"	"285.374"	"41.958"	"74.599"	"1.289"	"0.194"
"1966"	"18.16"	"56.204"	"39.188"	"26.396"	"45.899"	"174.999"	"314.987"	"453.603"	"104.369"	"52.7"	"24.964"	"5.739"
"1967"	"1.534"	"22.559"	"90.987"	"13.151"	"8.776"	"91.076"	"270.696"	"430.084"	"79.439"	"6.319"	"3.944"	"35.74"
"1968"	"78.576"	"46.549"	"21.991"	"27.668"	"7.411"	"170.923"	"306.942"	"229.634"	"83.589"	"29.945"	"0.001"	"5.505"
"1969"	"39.301"	"17.756"	"33.836"	"103.141"	"70.803"	"76.436"	"315.321"	"418.356"	"495.637"	"16.289"	"2.667"	"0.194"
"1970"	"47.737"	"29.113"	"12.095"	"2.726"	"90.109"	"184.188"	"206.777"	"316.407"	"100.646"	"58.04"	"0.052"	"0.364"
"1971"	"26.464"	"32.829"	"27.923"	"35.575"	"182.888"	"222.005"	"428.897"	"310.03"	"254.896"	"188.102"	"15.008"	"0.366"
"1972"	"19.505"	"49.1"	"17.847"	"43.131"	"26.68"	"95.921"	"331.266"	"257.617"	"439.053"	"107.107"	"10.987"	"2.215"
"1973"	"37.552"	"30.946"	"37.155"	"2.541"	"48.536"	"361.399"	"202.549"	"414.947"	"131.143"	"142.572"	"0.536"	"0.195"
"1974"	"30.246"	"30.397"	"10.146"	"6.351"	"68.412"	"132.158"	"260.248"	"189.946"	"94"	"18.319"	"0.156"	"29.023"
"1975"	"88.863"	"39.336"	"52.827"	"12.054"	"17.753"	"174.317"	"273.488"	"359.562"	"306.951"	"42.546"	"0"	"0.194"
"1976"	"10.526"	"76.466"	"16.441"	"44.24"	"35.99"	"357.342"	"226.641"	"524.829"	"78.388"	"7.51"	"0"	"0.95"
"1977"	"55.238"	"10.981"	"4.21"	"91.941"	"126.118"	"331.683"	"356.597"	"180.464"	"139.785"	"15.301"	"1.674"	"24.066"
"1978"	"8.681"	"20.291"	"90.467"	"31.116"	"10.552"	"160.764"	"292.156"	"403.054"	"293.78"	"23.871"	"6.445"	"10.348"
"1979"	"27.982"	"70.478"	"40.625"	"22.562"	"75.701"	"71.216"	"284.785"	"163.185"	"94.19"	"8.375"	"22.168"	"11.536"
"1980"	"8.697"	"49.123"	"66.964"	"10.908"	"43.42"	"238.928"	"620.833"	"392.937"	"292"	"43.669"	"1.69"	"8.468"
"1981"	"50.286"	"21.758"	"81.188"	"31.504"	"96.927"	"124.62"	"420.807"	"181.517"	"102.52"	"0.559"	"38.573"	"3.05"
"1982"	"37.788"	"19.244"	"115.795"	"58.924"	"85.144"	"53.75"	"183.217"	"390.193"	"80.965"	"21.741"	"3.525"	"20.138"
"1983"	"69.025"	"18.697"	"68.751"	"116.183"	"90.307"	"295.04"	"333.832"	"175.118"	"344.905"	"56.674"	"0"	"13.394"
"1984"	"17.059"	"125.741"	"9.835"	"38.087"	"3.565"	"174.197"	"295.072"	"244.609"	"158.346"	"5.698"	"0.001"	"13.747"
"1985"	"44.156"	"3.415"	"11.92"	"55.276"	"57.806"	"212.289"	"517.525"	"309.342"	"171.251"	"112.06"	"0.051"	"55.34"
"1986"	"3.852"	"35.512"	"35.533"	"47.103"	"115.252"	"83.347"	"465.768"	"190.783"	"273.385"	"44.737"	"11.061"	"101.552"
"1987"	"44.795"	"43.469"	"12.634"	"23.708"	"111.613"	"5.342"	"69.379"	"274.562"	"75.304"	"31.616"	"0"	"29.389"
"1988"	"11.369"	"43.359"	"50.912"	"46.523"	"37.975"	"193.634"	"560.378"	"391.559"	"107.381"	"2.768"	"1.638"	"41.185"
"1989"	"84.967"	"24.571"	"30.087"	"6.896"	"55.565"	"163.551"	"307.928"	"217.167"	"122.532"	"9.817"	"5.411"	"10.655"
"1990"	"3.006"	"93.885"	"67.283"	"15.751"	"170.985"	"107.046"	"410.122"	"304.167"	"123.827"	"23.558"	"14.366"	"49.789"
"1991"	"9.666"	"31.058"	"34.836"	"44.693"	"106.705"	"68.568"	"15.449"	"201.225"	"106.118"	"0.444"	"2.757"	"10.47"
"1992"	"43.14"	"69.54"	"38.007"	"16.6"	"47.616"	"126.229"	"256.095"	"229.068"	"74.771"	"22.512"	"36.991"	"0.196"
"1993"	"27.73"	"23.513"	"49.965"	"20.773"	"59.744"	"293.152"	"242.008"	"101.406"	"268.782"	"0.625"	"0"	"0.194"
"1994"	"18.8"	"17.508"	"56.866"	"25.446"	"61.974"	"85.897"	"370.216"	"321.171"	"57.382"	"0.444"	"0.002"	"1.648"
"1995"	"68.14"	"83.199"	"90.997"	"26.987"	"12.836"	"143.915"	"263.793"	"464.249"	"225.898"	"2.655"	"40.328"	"15.857"
"1996"	"65.102"	"54.985"	"27.593"	"29.952"	"36.384"	"201.788"	"293.607"	"290.476"	"125.433"	"52.141"	"0"	"2.76"
"1997"	"28.376"	"15.398"	"33.749"	"12.406"	"76.705"	"199.735"	"89.049"	"247.226"	"76.894"	"50.579"	"20.918"	"15.804"
"1998"	"20.827"	"39.914"	"82.685"	"69.398"	"49.069"	"14.14"	"341.184"	"468.509"	"91.392"	"19.967"	"8.287"	"2.298"
"1999"	"16.573"	"14.728"	"5.037"	"0.813"	"51.204"	"169.015"	"122.905"	"124.891"	"190.152"	"50.801"	"0.532"	"13.687"
"2000"	"17.665"	"82.105"	"24.286"	"14.758"	"80.779"	"240.281"	"199.377"	"284.427"	"103.634"	"2.6"	"0"	"1.543"
"2001"	"14.935"	"20.201"	"6.464"	"59.246"	"126.219"	"117.879"	"220.003"	"105.481"	"59.792"	"22.288"	"0"	"8.345"
"2002"	"40.8"	"69.96"	"85.859"	"34.508"	"9.643"	"56.688"	"194.255"	"172.936"	"299.584"	"11.805"	"2.105"	"2.366"
