
"Year"	"Jan"	"Feb"	"Mar"	"Apr"	"May"	"Jun"	"Jul"	"Aug"	"Sep"	"Oct"	"Nov"	"Dec"
"1901"	"5.199"	"8.353"	"14.043"	"19.277"	"21.989"	"25.166"	"22.875"	"21.735"	"20.45"	"18.729"	"14.191"	"9.754"
"1902"	"9.519"	"10.977"	"15.162"	"18.854"	"22.298"	"23.223"	"21.629"	"21.6"	"20.44"	"16.193"	"13.069"	"10.018"
"1903"	"7.652"	"8.08"	"11.835"	"18.704"	"22.548"	"24.091"	"23.332"	"21.434"	"20.97"	"17.221"	"13.59"	"9.92"
"1904"	"8.106"	"10.766"	"13.588"	"20.211"	"21.127"	"23.154"	"21.661"	"21.295"	"19.983"	"17.32"	"12.153"	"9.03"
"1905"	"5.376"	"5.298"	"9.562"	"15.912"	"22.07"	"23.847"	"22.03"	"21.477"	"20.453"	"17.828"	"13.589"	"8.811"
"1906"	"6.516"	"6.432"	"12.223"	"19.807"	"23.585"	"22.951"	"22.188"	"21.398"	"20.647"	"17.495"	"14.628"	"10.756"
"1907"	"10.347"	"6.464"	"9.811"	"17.057"	"20.631"	"23.744"	"22.824"	"21.863"	"21.396"	"18.875"	"13.725"	"10.029"
"1908"	"8.314"	"10.043"	"14.327"	"21.579"	"22.458"	"24.557"	"21.629"	"21.363"	"20.713"	"17.762"	"12.489"	"9.115"
"1909"	"7.376"	"8.687"	"16.019"	"17.88"	"22.427"	"22.167"	"22.088"	"22.247"	"21.485"	"18.937"	"13.691"	"10.587"
"1910"	"9.304"	"9.261"	"14.563"	"19.555"	"22.159"	"22.563"	"21.205"	"21.859"	"20.647"	"16.726"	"12.242"	"9.114"
"1911"	"8.29"	"10.041"	"11.548"	"19.334"	"23.754"	"22.863"	"23.329"	"22.207"	"20.249"	"17.116"	"11.652"	"9.197"
"1912"	"7.529"	"10.141"	"13.399"	"18.441"	"21.664"	"23.424"	"22.029"	"21.407"	"19.958"	"17.433"	"11.302"	"9.191"
"1913"	"8.194"	"7.456"	"11.536"	"19.318"	"20.687"	"21.587"	"21.778"	"22.454"	"21.541"	"17.326"	"11.547"	"7.633"
"1914"	"9.625"	"8.448"	"12.456"	"18.357"	"21.397"	"23.002"	"21.953"	"21.956"	"20.358"	"15.725"	"12.821"	"9.238"
"1915"	"8.759"	"8.157"	"13.239"	"19.29"	"23.04"	"23.194"	"22.633"	"22.127"	"20.92"	"19.416"	"14.265"	"9.863"
"1916"	"8.522"	"8.932"	"17.793"	"20.461"	"23.254"	"22.376"	"21.495"	"22.036"	"20.348"	"17.504"	"13.723"	"8.629"
"1917"	"8.122"	"9.193"	"12.633"	"15.917"	"18.788"	"22.154"	"21.83"	"21.931"	"19.552"	"16.628"	"13.791"	"8.936"
"1918"	"7.293"	"10.287"	"14.294"	"17.839"	"22.967"	"22.121"	"22.634"	"21.938"	"21.027"	"17.724"	"12.216"	"7.591"
"1919"	"6.133"	"8.296"	"13.63"	"17.281"	"20.73"	"23.073"	"21.661"	"21.862"	"20.051"	"17.392"	"12.921"	"8.537"
"1920"	"9.506"	"7.565"	"11.909"	"19.269"	"19.298"	"22.352"	"21.661"	"21.735"	"20.552"	"17.498"	"13.523"	"10.649"
"1921"	"7.34"	"10.24"	"16.933"	"21.069"	"24.771"	"22.255"	"21.501"	"20.952"	"19.271"	"16.226"	"12.626"	"9.465"
"1922"	"6.634"	"10.506"	"16.042"	"19.507"	"23.668"	"22.443"	"21.671"	"20.93"	"19.8"	"16.333"	"12.715"	"7.35"
"1923"	"8.421"	"7.652"	"14.902"	"20.787"	"22.273"	"25.004"	"21.629"	"21.96"	"19.971"	"16.503"	"13.174"	"9.105"
"1924"	"7.044"	"9.592"	"15.686"	"20.516"	"19.856"	"25.059"	"21.939"	"21.405"	"19.349"	"17.523"	"12.59"	"9.933"
"1925"	"6.058"	"8.933"	"14.429"	"20.419"	"21.868"	"21.344"	"21.329"	"21.66"	"20.148"	"17.001"	"11.787"	"10.093"
"1926"	"7.712"	"10.426"	"11.678"	"15.84"	"20.386"	"25"	"22.101"	"21.552"	"20.549"	"17.022"	"10.715"	"9.342"
"1927"	"7.018"	"7.243"	"12.965"	"18.894"	"20.864"	"23.319"	"21.929"	"21.089"	"20.602"	"17.19"	"12.257"	"10.357"
"1928"	"6.952"	"9.436"	"14.21"	"18.39"	"23.352"	"22.853"	"21.962"	"22.263"	"21.554"	"18.292"	"12.687"	"8.894"
"1929"	"6.91"	"8.768"	"15.627"	"19.49"	"23.139"	"22.624"	"21.862"	"21.067"	"20.249"	"16.554"	"13.315"	"7.16"
"1930"	"5.977"	"8.766"	"15.516"	"19.232"	"22.164"	"22.551"	"21.625"	"21.667"	"20.871"	"16.662"	"12.554"	"9.649"
"1931"	"8.95"	"6.97"	"13.929"	"20.891"	"22.068"	"24.557"	"21.833"	"22.529"	"19.991"	"16.995"	"12.713"	"9.75"
"1932"	"9.628"	"8.064"	"14.9"	"19.347"	"21.532"	"24.542"	"22.229"	"21.402"	"20.384"	"17.364"	"14.288"	"8.952"
"1933"	"6.362"	"9.345"	"14.651"	"17.477"	"19.173"	"22.554"	"21.53"	"21.637"	"20.175"	"16.956"	"13.69"	"10.287"
"1934"	"6.475"	"11.214"	"13.593"	"19.977"	"22.068"	"22.449"	"21.464"	"20.987"	"20.875"	"17.262"	"12.984"	"8.136"
"1935"	"5.167"	"9.48"	"14.326"	"16.027"	"23.591"	"24.445"	"21.522"	"21.028"	"20.24"	"16.994"	"12.409"	"7.423"
"1936"	"6.474"	"7.339"	"13.952"	"18.242"	"22.055"	"20.186"	"20.83"	"20.687"	"19.669"	"16.079"	"12.913"	"8.468"
"1937"	"7.04"	"7.789"	"13.111"	"16.433"	"21.289"	"22.977"	"21.889"	"21.469"	"20.45"	"16.449"	"11.266"	"8.563"
"1938"	"6.417"	"7.33"	"15.262"	"20.384"	"22.228"	"21.574"	"21.03"	"21.401"	"20.638"	"17.491"	"11.19"	"10.706"
"1939"	"8.102"	"7.888"	"11.248"	"18.412"	"23.662"	"21.85"	"21.717"	"21.759"	"20.414"	"17.014"	"13.412"	"10.586"
"1940"	"8.07"	"8.33"	"11.123"	"18.28"	"22.251"	"23.354"	"21.897"	"21.664"	"19.736"	"17.854"	"13.544"	"7.922"
"1941"	"6.377"	"9.986"	"16.324"	"22.005"	"22.608"	"22.635"	"22.598"	"22.058"	"20.572"	"17.772"	"13.089"	"11.221"
"1942"	"7.149"	"9.674"	"16.027"	"19.663"	"22.39"	"24.419"	"21.901"	"21.287"	"19.948"	"17.626"	"13.808"	"8.528"
"1943"	"6.831"	"9.914"	"14.704"	"17.114"	"23.065"	"22.911"	"21.72"	"21.292"	"21.084"	"17.595"	"14.799"	"10.008"
"1944"	"5.974"	"7.942"	"13.192"	"17.747"	"24.259"	"22.703"	"22.003"	"21.931"	"20.576"	"17.741"	"13.413"	"11.091"
"1945"	"5.135"	"8.231"	"14.351"	"17.746"	"22.79"	"24.328"	"21.674"	"21.795"	"20.371"	"16.455"	"13.684"	"8.68"
"1946"	"10.178"	"11.597"	"14.05"	"18.831"	"20.568"	"22.9"	"21.629"	"22.262"	"21.096"	"16.656"	"13.292"	"9.539"
"1947"	"6.419"	"9.913"	"14.467"	"20.742"	"22.672"	"24.315"	"21.668"	"21.957"	"20.453"	"16.455"	"13.762"	"9.838"
"1948"	"8.324"	"8.822"	"13.027"	"20.816"	"23.257"	"24.786"	"21.736"	"21.32"	"20.306"	"16.417"	"12.337"	"8.814"
"1949"	"9.631"	"9.094"	"14.619"	"19.714"	"21.56"	"23.758"	"21.553"	"21.598"	"20.248"	"17.962"	"12.751"	"7.866"
"1950"	"8.627"	"8.259"	"12.815"	"18.845"	"22.357"	"22.455"	"21.421"	"21.165"	"19.65"	"16.931"	"12.837"	"8.866"
"1951"	"6.383"	"10.158"	"14.141"	"17.463"	"22.687"	"23.553"	"22.707"	"22.264"	"20.446"	"19.102"	"13.616"	"10.254"
"1952"	"9.53"	"10.934"	"12.724"	"19.948"	"22.296"	"22.554"	"21.937"	"21.405"	"21.05"	"17.926"	"13.326"	"9.833"
"1953"	"6.049"	"11.881"	"16.988"	"20.301"	"23.095"	"23.987"	"21.902"	"21.833"	"21.11"	"17.319"	"13.505"	"10.443"
"1954"	"6.275"	"9.692"	"15.657"	"21.084"	"24.124"	"23.526"	"21.83"	"21.767"	"20.558"	"15.956"	"13.032"	"7.702"
"1955"	"6.678"	"10.863"	"16.153"	"17.81"	"21.864"	"23.697"	"21.862"	"21.361"	"20.246"	"16.449"	"13.439"	"9.279"
"1956"	"7.179"	"11.136"	"14.649"	"20.976"	"23.386"	"22.554"	"21.577"	"21.759"	"20.646"	"16.546"	"13.344"	"8.238"
"1957"	"6.801"	"8.862"	"12.784"	"18.6"	"22.15"	"22.679"	"22.066"	"21.923"	"20.473"	"17.253"	"14.225"	"10.154"
"1958"	"8.781"	"9.706"	"15.131"	"21.123"	"22.659"	"24.255"	"21.96"	"21.266"	"21.051"	"18.053"	"14.163"	"10.51"
"1959"	"8.428"	"9.194"	"15.332"	"20.09"	"22.598"	"23.366"	"21.463"	"22.161"	"21.195"	"17.526"	"13.32"	"10.883"
"1960"	"7.121"	"13.593"	"13.498"	"18.62"	"23.279"	"23.933"	"22.039"	"22.228"	"21.022"	"16.994"	"12.961"	"12.169"
"1961"	"8.222"	"7.924"	"15.503"	"20.128"	"22.562"	"23.659"	"22.604"	"22.302"	"21.914"	"17.898"	"12.4"	"7.839"
"1962"	"7.604"	"9.902"	"14.499"	"19.926"	"22.266"	"24.028"	"22.875"	"22.101"	"20.741"	"17.535"	"14.342"	"9.44"
"1963"	"8.732"	"11.403"	"13.527"	"18.529"	"21.742"	"23.395"	"22.714"	"21.832"	"20.327"	"18.406"	"13.974"	"10.382"
"1964"	"8.137"	"10.21"	"16.573"	"20.63"	"20.731"	"23.714"	"21.331"	"22.137"	"20.673"	"19.098"	"13.894"	"10.536"
"1965"	"9.913"	"8.764"	"12.9"	"18.15"	"21.849"	"24.39"	"21.713"	"21.14"	"20.521"	"17.735"	"14.113"	"10.091"
"1966"	"8.885"	"11.499"	"15.155"	"19.818"	"22.552"	"23.515"	"22.268"	"21.862"	"20.318"	"16.964"	"12.859"	"9.94"
"1967"	"8.344"	"11.663"	"12.816"	"18.71"	"21.648"	"23.659"	"22"	"21.071"	"20.613"	"16.534"	"11.339"	"8.978"
"1968"	"6.156"	"7.752"	"13.952"	"19.017"	"22.111"	"22.691"	"21.46"	"21.418"	"21.078"	"16.795"	"12.893"	"9.983"
"1969"	"7.882"	"10.889"	"16.848"	"18.94"	"21.124"	"23.188"	"21.454"	"21.405"	"19.645"	"17.456"	"14.437"	"10.784"
"1970"	"7.816"	"8.993"	"13.791"	"20.68"	"22.639"	"22.428"	"21.897"	"21.73"	"21.125"	"17.84"	"12.984"	"10.976"
"1971"	"7.353"	"9.693"	"14.725"	"19.399"	"20.056"	"22.561"	"21.474"	"20.804"	"19.975"	"17.634"	"13.234"	"11.187"
"1972"	"10.269"	"7.961"	"15.932"	"17.98"	"23.4"	"23.55"	"21.995"	"21.138"	"19.299"	"16.389"	"12.688"	"10.682"
"1973"	"8.78"	"9.895"	"13.283"	"21.363"	"22.342"	"22.895"	"22.097"	"21.425"	"20.677"	"16.624"	"13.443"	"8.739"
"1974"	"7.251"	"10.002"	"17.095"	"21.404"	"21.924"	"21.947"	"21.529"	"20.941"	"19.883"	"18.93"	"12.741"	"7.963"
"1975"	"6.073"	"7.789"	"12.138"	"18.854"	"21.974"	"21.536"	"20.556"	"20.751"	"19.78"	"18.784"	"12.885"	"10.508"
"1976"	"9.68"	"10.793"	"14.069"	"18.517"	"21.367"	"22.076"	"21.498"	"20.545"	"19.883"	"17.232"	"15.308"	"10.668"
"1977"	"9.098"	"10.721"	"17.279"	"19.279"	"19.923"	"22.049"	"21.247"	"20.855"	"19.869"	"17.526"	"14.688"	"9.307"
"1978"	"7.012"	"7.7"	"9.72"	"17.844"	"24.001"	"23.553"	"21.271"	"20.787"	"19.958"	"17.967"	"12.222"	"7.422"
"1979"	"7.765"	"8.427"	"12.541"	"19.853"	"20.915"	"22.797"	"21.409"	"21.936"	"19.407"	"18.277"	"15.134"	"9.862"
"1980"	"7.443"	"10.485"	"13.138"	"20.157"	"23.024"	"22.537"	"21.402"	"21.137"	"19.979"	"16.945"	"13.694"	"11.118"
"1981"	"7.305"	"10.815"	"13.602"	"19.689"	"21.834"	"23.084"	"21.741"	"21.364"	"19.949"	"17.544"	"11.382"	"8.095"
"1982"	"8.844"	"8.772"	"10.634"	"18.01"	"20.013"	"22.26"	"22.171"	"21.405"	"20.67"	"16.841"	"13.29"	"11.092"
"1983"	"8.266"	"7.134"	"12.726"	"16.174"	"21.104"	"21.216"	"21.592"	"21.977"	"20.043"	"16.47"	"12.481"	"9.455"
"1984"	"7.337"	"8.823"	"16.87"	"19.175"	"24.308"	"23.971"	"21.227"	"21.654"	"19.733"	"18.006"	"12.572"	"10.245"
"1985"	"5.4"	"9.901"	"18.048"	"20.181"	"21.799"	"22.863"	"21.099"	"21.678"	"19.692"	"16.486"	"12.696"	"10.152"
"1986"	"8.091"	"9.837"	"13.438"	"18.554"	"19.56"	"22.56"	"20.793"	"21.144"	"19.776"	"16.788"	"13.814"	"8.405"
"1987"	"8.217"	"10.968"	"16.119"	"19.828"	"20.076"	"23.441"	"22.202"	"21.815"	"20.864"	"18.025"	"14.822"	"10.244"
"1988"	"9.939"	"11.521"	"14.515"	"20.974"	"23.224"	"22.902"	"21.591"	"21.405"	"20.344"	"18.184"	"13.348"	"9.975"
"1989"	"6.097"	"9.9"	"14.993"	"19.012"	"22.249"	"21.806"	"21.498"	"20.803"	"20.399"	"17.684"	"12.899"	"9.535"
"1990"	"12.741"	"10.095"	"12.214"	"18.491"	"22.272"	"23.968"	"21.351"	"21.519"	"20.449"	"16.66"	"13.68"	"10.119"
"1991"	"5.555"	"10.817"	"14.378"	"18.121"	"22.232"	"22.801"	"22.642"	"21.413"	"20.382"	"17.755"	"12.287"	"9.893"
"1992"	"9.24"	"7.258"	"14.912"	"20.165"	"20.632"	"21.897"	"20.975"	"20.826"	"19.89"	"16.408"	"13.032"	"10.077"
"1993"	"8.694"	"12.666"	"12.108"	"18.316"	"22.542"	"23.34"	"21.674"	"21.692"	"20.217"	"17.657"	"14.412"	"11.292"
"1994"	"10.06"	"8.941"	"16.774"	"17.962"	"23.089"	"24.102"	"22.233"	"21.411"	"20.605"	"17.267"	"13.289"	"11.048"
"1995"	"6.552"	"9.102"	"14.139"	"18.945"	"23.977"	"24.73"	"21.45"	"20.825"	"20.243"	"18.151"	"11.321"	"9.417"
"1996"	"8.554"	"9.686"	"13.946"	"19.103"	"22.037"	"22.967"	"21.48"	"20.45"	"20.177"	"17.409"	"13.709"	"10.119"
"1997"	"9.006"	"9.583"	"14.496"	"19.277"	"20.869"	"22.074"	"23.91"	"21.588"	"20.487"	"15.093"	"12.918"	"8.703"
"1998"	"3.484"	"10.637"	"13.049"	"19.423"	"22.964"	"24.557"	"21.725"	"21.362"	"21.156"	"18.118"	"15.464"	"13.495"
"1999"	"8.525"	"13.795"	"18.12"	"25.037"	"23.165"	"22.649"	"23.161"	"22.64"	"20.811"	"18.526"	"15.494"	"11.799"
"2000"	"10.198"	"9.676"	"13.857"	"21.39"	"22.281"	"22.174"	"22.097"	"22.105"	"21.624"	"19.335"	"15.593"	"11.986"
"2001"	"8.956"	"10.693"	"15.376"	"18.805"	"22.397"	"22.626"	"22.807"	"22.677"	"22.24"	"19.399"	"15.965"	"11.809"
"2002"	"9.556"	"11.017"	"16.132"	"20.384"	"24.343"	"23.995"	"23.992"	"22.469"	"19.206"	"18.55"	"14.294"	"9.811"
