
"Year"	"Jan"	"Feb"	"Mar"	"Apr"	"May"	"Jun"	"Jul"	"Aug"	"Sep"	"Oct"	"Nov"	"Dec"
"1901"	"3.999"	"19.443"	"0"	"14.878"	"19.17"	"46.763"	"106.709"	"64.499"	"86.613"	"61.771"	"154.185"	"21.81"
"1902"	"0.667"	"0"	"0"	"26.789"	"13.726"	"45.804"	"33.085"	"157.322"	"153.689"	"187.009"	"154.664"	"61.168"
"1903"	"3.041"	"0"	"0"	"1.113"	"115.055"	"59.607"	"119.279"	"194.613"	"148.709"	"216.232"	"368.629"	"17.436"
"1904"	"3.569"	"0"	"0"	"1.113"	"23.16"	"46.172"	"55.544"	"44.292"	"82.175"	"169.337"	"1.17"	"7.098"
"1905"	"0.045"	"1.331"	"7.809"	"7.589"	"35.584"	"61.522"	"25.73"	"143.878"	"46.012"	"188.311"	"6.419"	"0.128"
"1906"	"11.27"	"0.002"	"19.846"	"0.21"	"4.336"	"72.39"	"114.427"	"101.367"	"126.814"	"92.436"	"14.506"	"67.82"
"1907"	"8.969"	"0"	"23.774"	"33.251"	"5.281"	"45.561"	"80.827"	"32.548"	"101.732"	"30.327"	"65.281"	"42.865"
"1908"	"19.641"	"2.492"	"0.244"	"1.448"	"57.596"	"13.012"	"76.827"	"76.811"	"328.964"	"155.277"	"8.363"	"0.948"
"1909"	"3.224"	"0"	"0"	"29.419"	"33.936"	"38.98"	"74.654"	"108.933"	"151.345"	"19.025"	"1.041"	"0.647"
"1910"	"0"	"0"	"1.592"	"5.26"	"12.822"	"79.415"	"82.855"	"82.832"	"153.381"	"216.081"	"87.994"	"0.127"
"1911"	"0"	"0"	"0.652"	"8.686"	"7.843"	"37.573"	"88.092"	"54.75"	"112.428"	"135.444"	"148.493"	"34.965"
"1912"	"0.013"	"0"	"0"	"7.403"	"9.244"	"15.809"	"96.721"	"129.901"	"135.863"	"114.954"	"126.348"	"0.127"
"1913"	"0"	"7.601"	"0"	"0.28"	"41.211"	"35.496"	"124.848"	"43.958"	"78.735"	"194.734"	"1.223"	"38.788"
"1914"	"0.044"	"0"	"0.801"	"13.76"	"28.322"	"34.656"	"118.922"	"115.258"	"163.657"	"26.082"	"55.032"	"28.394"
"1915"	"3.25"	"2.226"	"16.701"	"4.546"	"30.244"	"42.9"	"107.372"	"101.508"	"151.975"	"118.703"	"234.516"	"0.348"
"1916"	"0"	"0"	"0"	"6.924"	"61.544"	"58.733"	"165.327"	"140.709"	"161.991"	"402.88"	"196.238"	"1.145"
"1917"	"0.684"	"10.271"	"0.219"	"1.966"	"83.124"	"139.891"	"49.259"	"133.161"	"189.316"	"262.445"	"94.063"	"4.077"
"1918"	"7.229"	"1.109"	"3.496"	"2.433"	"58.321"	"23.063"	"44.696"	"48.497"	"154.72"	"6.035"	"250.89"	"22.214"
"1919"	"8.817"	"0"	"23.803"	"24.097"	"50.315"	"29.25"	"81.209"	"39.003"	"132.366"	"101.69"	"140.219"	"65.564"
"1920"	"2.869"	"0"	"0"	"1.818"	"35.098"	"23.921"	"19.728"	"25.435"	"114.797"	"173.798"	"35.04"	"0.127"
"1921"	"1.158"	"0"	"0"	"22.189"	"4.89"	"51.55"	"129.113"	"62.591"	"132.784"	"152.585"	"78.468"	"0.13"
"1922"	"1.696"	"0"	"0"	"15.376"	"43.217"	"35.787"	"78.298"	"56.892"	"50.525"	"115.438"	"257.516"	"0.647"
"1923"	"1.42"	"3.088"	"3.734"	"4.071"	"16.848"	"20.503"	"57.779"	"41.186"	"190.946"	"146.847"	"24.756"	"0.132"
"1924"	"0.103"	"0"	"0"	"9.861"	"22.243"	"37.245"	"68.202"	"72.689"	"164.033"	"53.326"	"229.276"	"0.13"
"1925"	"0"	"0"	"0.002"	"9.052"	"95.723"	"43.105"	"100.882"	"118.165"	"72.898"	"200.45"	"145.181"	"58.014"
"1926"	"2.239"	"0"	"31.769"	"40.956"	"27.451"	"22.353"	"61.669"	"86.219"	"148.095"	"35.343"	"7.227"	"0.128"
"1927"	"0.473"	"0.187"	"0.122"	"3.725"	"16.431"	"81.474"	"68.582"	"82.665"	"169.201"	"84"	"280.483"	"0.128"
"1928"	"0.008"	"10.325"	"22.58"	"9.637"	"6.849"	"64.72"	"66.048"	"75.817"	"160.229"	"170.037"	"14.182"	"24.082"
"1929"	"2.085"	"7.819"	"0"	"13.528"	"26.625"	"45.329"	"40.89"	"56.095"	"176.659"	"122.685"	"61.042"	"27.903"
"1930"	"0.012"	"7.457"	"11.149"	"0.36"	"69.604"	"81.777"	"66.747"	"47.953"	"144.539"	"292.714"	"87.499"	"38.033"
"1931"	"0"	"0"	"1.862"	"0.471"	"36.267"	"68.008"	"85.977"	"33.182"	"162.097"	"178.515"	"169.542"	"3.042"
"1932"	"0"	"8.002"	"0"	"15.535"	"89.232"	"27.26"	"69.051"	"110.404"	"119.389"	"118.129"	"178.69"	"5.839"
"1933"	"0"	"3.134"	"8.401"	"5.29"	"28.238"	"35.913"	"62.157"	"92.322"	"87.085"	"249.423"	"163.683"	"77.045"
"1934"	"0.418"	"0"	"0"	"32.527"	"3.54"	"71.57"	"130.878"	"62.907"	"63.347"	"105.418"	"137.872"	"0.659"
"1935"	"9.791"	"0"	"0.116"	"11.549"	"2.68"	"50.297"	"92.176"	"99.881"	"121.562"	"180.2"	"1.939"	"4.215"
"1936"	"1.143"	"31.972"	"4.024"	"16.391"	"61.541"	"55.032"	"61.687"	"45.41"	"56.447"	"141.902"	"209.373"	"3.127"
"1937"	"0"	"21.563"	"4.26"	"50.641"	"5.574"	"19.732"	"88.691"	"49.775"	"112.116"	"151.943"	"42.463"	"0.422"
"1938"	"0"	"11.441"	"20.369"	"1.931"	"27.093"	"75.785"	"64.091"	"179.027"	"258.273"	"48.44"	"6.963"	"1.383"
"1939"	"2.609"	"0"	"2.605"	"31.263"	"0.991"	"44.373"	"46.642"	"82.16"	"124.172"	"299.319"	"161.713"	"6.016"
"1940"	"3.638"	"0.678"	"42.696"	"18.671"	"71.928"	"76.599"	"77.95"	"97.396"	"152.051"	"218.624"	"149.502"	"27.612"
"1941"	"4.486"	"2.134"	"0.175"	"1.164"	"12.314"	"36.463"	"17.057"	"61.694"	"192.455"	"83.913"	"35.33"	"67.759"
"1942"	"0"	"0"	"0"	"16.336"	"11.188"	"68.441"	"72.152"	"84.829"	"83.091"	"59.218"	"28.674"	"34.323"
"1943"	"0.256"	"5.945"	"0.591"	"15.745"	"82.874"	"27.897"	"74.393"	"47.01"	"167.05"	"193.217"	"61.648"	"15.982"
"1944"	"0.098"	"6.494"	"25.299"	"3.219"	"26.108"	"75.14"	"127.885"	"60.229"	"135.495"	"295.798"	"67.48"	"0.164"
"1945"	"0"	"0"	"0"	"13.175"	"19.875"	"35.817"	"122.522"	"87.467"	"136.893"	"134.852"	"90.81"	"1.73"
"1946"	"0"	"10.221"	"9.188"	"6.35"	"47.598"	"86.988"	"72.92"	"81.697"	"73.293"	"160.653"	"349.382"	"36.295"
"1947"	"0.781"	"6.001"	"0"	"6.757"	"7.305"	"41.939"	"106.134"	"166.735"	"208.16"	"77.95"	"5.428"	"85.224"
"1948"	"3.161"	"0.084"	"1.496"	"14.022"	"50.517"	"18.659"	"64.76"	"84.65"	"140.024"	"136.719"	"243.349"	"3.453"
"1949"	"0"	"0"	"0"	"12.638"	"87.044"	"74.955"	"96.801"	"107.74"	"369.918"	"164.705"	"61.863"	"0.127"
"1950"	"0"	"4.325"	"2.254"	"0.076"	"45.755"	"57.047"	"90.886"	"79.307"	"207.905"	"114.275"	"44.38"	"0.127"
"1951"	"0.157"	"0"	"6.588"	"25.507"	"37.938"	"48.439"	"116.89"	"69.243"	"75.7"	"126.949"	"21.236"	"0.127"
"1952"	"0"	"0.471"	"0"	"7.473"	"188.417"	"26.898"	"100.51"	"51.367"	"36.469"	"137.194"	"1.04"	"65.403"
"1953"	"0.232"	"0.001"	"0"	"11.076"	"2.3"	"34.849"	"89.392"	"74.597"	"228.561"	"357.886"	"2.666"	"0.128"
"1954"	"0.119"	"0.137"	"3.249"	"0.52"	"7.192"	"41.421"	"158.504"	"121.059"	"131.39"	"205.189"	"1.039"	"31.844"
"1955"	"0.234"	"0"	"5.292"	"1.94"	"124.415"	"40.24"	"91.272"	"143.661"	"126.953"	"127.784"	"85.435"	"10.049"
"1956"	"4.796"	"0.17"	"0"	"16.589"	"68.307"	"61.581"	"196.916"	"123.698"	"136.043"	"219.461"	"109.459"	"18.99"
"1957"	"0"	"0.002"	"1.13"	"28.469"	"32.239"	"116.715"	"115.208"	"141.241"	"116.156"	"77.278"	"65.826"	"0.127"
"1958"	"0.016"	"7.273"	"0.816"	"14.993"	"5.126"	"19.313"	"112.48"	"140.957"	"144.123"	"115.017"	"120.223"	"2.182"
"1959"	"0"	"5.492"	"0"	"26.103"	"29.874"	"70.332"	"111.956"	"91.19"	"88.836"	"86.51"	"13.997"	"2.902"
"1960"	"0.001"	"0"	"7.092"	"5.147"	"10.896"	"29.567"	"64.608"	"31.446"	"340.543"	"45.532"	"96.04"	"2.271"
"1961"	"1.763"	"8.871"	"2.36"	"0.385"	"35.545"	"155.625"	"123.026"	"134.635"	"63.526"	"227.846"	"60.37"	"0.127"
"1962"	"0"	"13.025"	"1.742"	"19.901"	"68.819"	"53.402"	"57.783"	"88.336"	"142.226"	"248.221"	"68.13"	"61.518"
"1963"	"0.099"	"0"	"1.368"	"60.747"	"15.022"	"55.813"	"89.665"	"165.115"	"46.894"	"212.24"	"2.981"	"22.575"
"1964"	"0"	"0"	"0"	"2.646"	"11.276"	"67.573"	"121.703"	"82.771"	"309.309"	"50.756"	"80.157"	"1.441"
"1965"	"0"	"0.301"	"0.009"	"22.675"	"16.212"	"78.807"	"83.08"	"87.164"	"136.089"	"15.465"	"51.542"	"39.962"
"1966"	"1.113"	"0"	"0.05"	"1.303"	"56.903"	"46.107"	"192.819"	"97.817"	"146.298"	"47.903"	"308.139"	"36.341"
"1967"	"3.1"	"0"	"4.694"	"4.663"	"8.983"	"75.897"	"93.192"	"51.032"	"140.051"	"50.136"	"20.009"	"59.074"
"1968"	"3.663"	"4.835"	"11.624"	"37.879"	"15.612"	"37.636"	"57.754"	"20.787"	"150.581"	"137.774"	"99.542"	"8.115"
"1969"	"0.109"	"0"	"0.515"	"1.531"	"89.578"	"39.902"	"139.851"	"105.526"	"52.802"	"276.811"	"131.616"	"61.725"
"1970"	"3.579"	"0.593"	"1.772"	"10.957"	"94.649"	"81.355"	"59.766"	"188.852"	"127.332"	"142.73"	"4.751"	"0.127"
"1971"	"0.469"	"0.668"	"24.517"	"53.65"	"74.543"	"52.258"	"39.936"	"102.15"	"100.374"	"209.714"	"19.033"	"0.712"
"1972"	"0.001"	"5.137"	"0"	"8.341"	"24.23"	"43.742"	"55.291"	"21.918"	"83.128"	"225.342"	"119.916"	"10.161"
"1973"	"0"	"0"	"0"	"0.929"	"4.33"	"48.197"	"40.542"	"143.074"	"84.933"	"192.683"	"67.965"	"24.743"
"1974"	"0"	"0"	"0.296"	"7.224"	"55.676"	"63.962"	"48.661"	"83.788"	"224.735"	"211.948"	"48.59"	"4.231"
"1975"	"2.382"	"0.232"	"9.406"	"5.407"	"38.495"	"46.948"	"124.261"	"84.453"	"192.118"	"359.957"	"47.543"	"2.576"
"1976"	"0.047"	"0.047"	"0"	"6.356"	"21.719"	"50.087"	"168.736"	"162.582"	"84.602"	"99.583"	"251.518"	"3.674"
"1977"	"4.472"	"0.051"	"2.033"	"18.884"	"91.562"	"71.99"	"60.303"	"123.063"	"31.475"	"227.39"	"173.415"	"2.86"
"1978"	"1.154"	"14.69"	"0.453"	"9.73"	"16.212"	"81.605"	"143.98"	"185.049"	"248.763"	"151.1"	"124.461"	"59.421"
"1979"	"1.281"	"19.298"	"0.359"	"18.532"	"184.304"	"43.782"	"47.15"	"54.455"	"140.517"	"64.403"	"299.571"	"5.12"
"1980"	"1.759"	"0"	"0.439"	"3.877"	"26.58"	"81.415"	"79.199"	"131.417"	"87.087"	"107.778"	"176.375"	"6.769"
"1981"	"5.398"	"0"	"14.679"	"22.651"	"20.633"	"51.935"	"119.062"	"103.755"	"192.833"	"206.283"	"32.722"	"4.438"
"1982"	"5.409"	"0"	"0"	"12.816"	"16.338"	"57.734"	"95.086"	"49.077"	"114.471"	"155.019"	"137.046"	"0.128"
"1983"	"0"	"1.308"	"1.545"	"0.58"	"41.852"	"57.848"	"167.778"	"204.572"	"302.033"	"167.383"	"51.794"	"13.526"
"1984"	"1.36"	"11.089"	"6.463"	"12.619"	"1.804"	"35.433"	"112.431"	"15.236"	"93.192"	"83.762"	"68.163"	"13.763"
"1985"	"5.916"	"0"	"7.314"	"13.901"	"4.378"	"66.039"	"115.23"	"55.444"	"146.387"	"135.14"	"128.851"	"31.92"
"1986"	"13.036"	"14.192"	"0"	"20.449"	"7.106"	"62.64"	"44.59"	"105.175"	"73.415"	"183.06"	"118.64"	"39.681"
"1987"	"1.979"	"0"	"19.952"	"16.857"	"17.088"	"61.984"	"68.503"	"108.666"	"43.915"	"201.758"	"142.434"	"34.964"
"1988"	"0"	"13.26"	"0"	"40.367"	"23.719"	"29.56"	"147.846"	"173.649"	"171.282"	"57.037"	"63.07"	"45.512"
"1989"	"0.38"	"0"	"21.969"	"0.426"	"8.272"	"86.83"	"188.65"	"55.391"	"168.013"	"126.345"	"74.569"	"15.017"
"1990"	"0.974"	"6.03"	"17.976"	"1.007"	"139.319"	"51.606"	"60.757"	"110.049"	"135.701"	"204.587"	"105.133"	"2.395"
"1991"	"1.006"	"0.307"	"0"	"5.933"	"16.267"	"135.041"	"71.128"	"110.874"	"127.728"	"115.48"	"146.049"	"1.992"
"1992"	"1.223"	"0"	"0"	"2.923"	"37.477"	"43.428"	"63.085"	"132.709"	"77.936"	"84.543"	"112.757"	"7.579"
"1993"	"0"	"0"	"0.578"	"5.87"	"64.222"	"58.885"	"88.498"	"126.941"	"79.71"	"251.616"	"55.327"	"33.38"
"1994"	"5.29"	"12.398"	"2.486"	"12.136"	"35.194"	"51.762"	"80.676"	"116.378"	"47.036"	"331.269"	"198.177"	"2.229"
"1995"	"9.79"	"0.128"	"14.342"	"3.666"	"59.63"	"56.473"	"119.73"	"171.791"	"170.169"	"343.178"	"92.975"	"0.965"
"1996"	"0"	"0.407"	"0"	"36.741"	"20.3"	"142.4"	"94.662"	"144.844"	"150.374"	"205.94"	"190.939"	"28.527"
"1997"	"2.442"	"0"	"3.886"	"33.279"	"12.248"	"46.597"	"75.646"	"89.853"	"99.616"	"153.037"	"209.976"	"82.517"
"1998"	"1.024"	"0"	"0"	"9.838"	"28.79"	"28.011"	"108.108"	"141.094"	"98.056"	"246.727"	"73.399"	"15.114"
"1999"	"0.097"	"0.581"	"0"	"11.262"	"61.243"	"57.649"	"72.15"	"98.607"	"100.713"	"106.465"	"24.44"	"4.538"
"2000"	"0"	"18.498"	"0"	"12.194"	"55.707"	"117.958"	"91.129"	"208.638"	"91.684"	"100.085"	"28.078"	"5.556"
"2001"	"4.104"	"0"	"13.269"	"16.965"	"20.035"	"89.05"	"58.554"	"105.657"	"109.318"	"237.421"	"46.981"	"13.018"
"2002"	"6.927"	"0.623"	"3.479"	"0.869"	"55.651"	"60.226"	"41.323"	"117.023"	"66.619"	"187.918"	"73.283"	"2.107"
