
"Year"	"Jan"	"Feb"	"Mar"	"Apr"	"May"	"Jun"	"Jul"	"Aug"	"Sep"	"Oct"	"Nov"	"Dec"
"1901"	"58.692"	"43.562"	"5.147"	"14.4"	"18.017"	"73.403"	"231.263"	"308.907"	"238.158"	"25.154"	"8.92"	"0"
"1902"	"7.68"	"5.295"	"7.275"	"19.244"	"13.022"	"55.29"	"291.15"	"186.461"	"394.331"	"13.465"	"0.947"	"3.093"
"1903"	"8.119"	"13.124"	"7.336"	"10.509"	"42.482"	"112.349"	"122.126"	"220.84"	"182.244"	"119.489"	"0"	"0"
"1904"	"0.766"	"7.847"	"45.06"	"0.815"	"183.017"	"217.065"	"339.53"	"461.26"	"86.182"	"52.871"	"3.203"	"0.594"
"1905"	"9.262"	"39.902"	"49.031"	"14.705"	"29.193"	"28.448"	"374.948"	"331.831"	"401.96"	"16.838"	"0"	"1.734"
"1906"	"11.689"	"107.014"	"36.761"	"0.363"	"16.235"	"180.014"	"441.568"	"238.655"	"216.442"	"97.534"	"1.281"	"1.734"
"1907"	"0.15"	"78.786"	"42.104"	"62.075"	"22.229"	"375.441"	"190.34"	"292.026"	"168.443"	"7.867"	"0"	"4.244"
"1908"	"16.254"	"74.423"	"8.397"	"0.355"	"11.443"	"147.272"	"319.214"	"363.384"	"96.255"	"101.827"	"0"	"0.225"
"1909"	"3.633"	"8.709"	"0.144"	"68.078"	"10.403"	"290.081"	"350.708"	"314.481"	"182.988"	"8.364"	"0.49"	"7.088"
"1910"	"9.074"	"26.832"	"26.959"	"16.298"	"18.086"	"176.287"	"230.988"	"367.968"	"226.105"	"53.576"	"17.308"	"0"
"1911"	"6.621"	"0.271"	"36.071"	"1.969"	"20.311"	"588.402"	"92.644"	"296.938"	"276.46"	"109.412"	"35.488"	"0"
"1912"	"2.491"	"9.841"	"12.634"	"22.002"	"39.654"	"108.351"	"310.501"	"330.175"	"48.4"	"17.85"	"16.577"	"0"
"1913"	"0.15"	"73.839"	"49.514"	"1.399"	"64.181"	"418.78"	"249.515"	"378.381"	"161.345"	"83.566"	"4.132"	"16.63"
"1914"	"0.231"	"33.429"	"27.364"	"46.869"	"66.209"	"89.049"	"262.605"	"420.824"	"112.464"	"9.897"	"0"	"9.146"
"1915"	"3.035"	"51.66"	"24.254"	"3.7"	"29.552"	"108.199"	"243.144"	"284.693"	"269.95"	"46.572"	"29.282"	"0"
"1916"	"0.15"	"26.053"	"1.128"	"7.827"	"8.122"	"322.179"	"317.021"	"353.58"	"202.746"	"195.504"	"3.022"	"0"
"1917"	"1.629"	"50.798"	"9.464"	"8.949"	"82.717"	"163.803"	"290.492"	"468.046"	"174.971"	"245.04"	"1.003"	"0.594"
"1918"	"0.462"	"0.601"	"9.76"	"10.901"	"30.095"	"336.068"	"119.177"	"489.7"	"211.453"	"3.836"	"0"	"2.265"
"1919"	"53.257"	"21.773"	"22.957"	"21.435"	"65.736"	"264.166"	"306.548"	"507.079"	"186.32"	"129.568"	"5.223"	"0"
"1920"	"0.15"	"34.377"	"56.155"	"1.571"	"26.739"	"77.876"	"598.795"	"382.08"	"190.752"	"9.05"	"0"	"0"
"1921"	"47.731"	"17.037"	"3.415"	"6.336"	"6.688"	"313.754"	"317.062"	"516.98"	"112.981"	"8.069"	"0"	"0"
"1922"	"13.967"	"4.037"	"0.144"	"10.602"	"5.445"	"374.692"	"390.449"	"374.387"	"376.168"	"70.744"	"7.219"	"4.253"
"1923"	"0.2"	"82.769"	"2.056"	"2.291"	"4.373"	"137.971"	"378.32"	"543.822"	"220.199"	"32.268"	"6.525"	"0.925"
"1924"	"14.341"	"27.568"	"0.944"	"26.564"	"14.548"	"136.3"	"389.381"	"272.957"	"253.343"	"91.466"	"34.793"	"0"
"1925"	"13.804"	"11.665"	"7.693"	"14.154"	"27.725"	"212.099"	"356.408"	"461.367"	"167.96"	"21.529"	"11.295"	"0"
"1926"	"18.66"	"1.438"	"77.41"	"9.882"	"87.412"	"46.195"	"401.534"	"369.423"	"220.035"	"54.376"	"4.01"	"12.768"
"1927"	"17.607"	"90.615"	"55.103"	"2.059"	"25.228"	"109.993"	"343.144"	"397.917"	"129.046"	"43.873"	"18.824"	"0"
"1928"	"23.877"	"13.658"	"1.287"	"24.189"	"46.069"	"251.148"	"440.395"	"204.932"	"173.542"	"154.28"	"0"	"2.285"
"1929"	"18.766"	"9.633"	"10.111"	"8.874"	"21.991"	"122.433"	"355.489"	"297.807"	"99.068"	"278.335"	"0"	"15.891"
"1930"	"10.061"	"8.44"	"4.006"	"16.566"	"11.748"	"82.198"	"340.13"	"244.044"	"222.587"	"26.958"	"29.376"	"10.02"
"1931"	"4.852"	"99.04"	"25.694"	"1.021"	"17.704"	"87.334"	"451.184"	"366.156"	"277.464"	"72.121"	"14.64"	"2.655"
"1932"	"0.15"	"43.636"	"2.318"	"5.664"	"54.153"	"72.255"	"496.113"	"343.636"	"190.346"	"38.103"	"19.599"	"3.622"
"1933"	"36.351"	"35.613"	"2.854"	"44.058"	"47.915"	"225.978"	"246.421"	"432.556"	"159.06"	"94.504"	"0"	"0"
"1934"	"20.981"	"22.133"	"1.206"	"17.536"	"8.525"	"160.095"	"274.407"	"462.443"	"254.659"	"56.024"	"20.855"	"2.032"
"1935"	"4.43"	"12.103"	"5.896"	"22.439"	"3.662"	"146.337"	"315.088"	"598.725"	"254.609"	"3.79"	"0"	"0.997"
"1936"	"5.384"	"17.73"	"21.579"	"3.228"	"88.604"	"330.98"	"332.972"	"305.382"	"369.309"	"162.61"	"1.203"	"18.357"
"1937"	"0.15"	"61.492"	"6.582"	"39.112"	"30.427"	"122.561"	"342.301"	"376.761"	"251.412"	"147.405"	"0.39"	"0.415"
"1938"	"9.312"	"29.109"	"2.684"	"3.547"	"75.186"	"243.545"	"218.511"	"323.75"	"163.613"	"51.042"	"0.24"	"0"
"1939"	"8.119"	"21.503"	"14.651"	"9.143"	"8.043"	"220.381"	"479.508"	"329.312"	"275.064"	"68.132"	"0.881"	"0.094"
"1940"	"0.15"	"52.759"	"92.964"	"11.148"	"25.962"	"81.816"	"274.41"	"426.336"	"166.287"	"17.472"	"0"	"5.239"
"1941"	"23.455"	"7.411"	"14.509"	"3.421"	"30.057"	"288.561"	"287.493"	"437.037"	"227.049"	"91.962"	"10.367"	"0"
"1942"	"25.372"	"85.19"	"25.682"	"11.881"	"3.467"	"141.585"	"411.33"	"515.311"	"409.928"	"24.825"	"0.758"	"0.225"
"1943"	"27.549"	"16.656"	"6.714"	"57.776"	"43.499"	"112.526"	"511.145"	"584.434"	"237.404"	"57.387"	"0"	"0"
"1944"	"29.234"	"70.528"	"82.087"	"13.616"	"20.876"	"129.165"	"405.745"	"565.797"	"137.797"	"99.664"	"0"	"0"
"1945"	"48.34"	"38.531"	"1.981"	"14.436"	"41.208"	"226.47"	"247.77"	"211.928"	"309.368"	"146.149"	"0"	"2.285"
"1946"	"0.15"	"13.763"	"21.628"	"26.588"	"46.535"	"259.088"	"351.033"	"449.506"	"347.616"	"116.296"	"23.453"	"1.188"
"1947"	"31.595"	"15.973"	"28.794"	"1.134"	"16.84"	"148.288"	"320.198"	"268.209"	"369.454"	"77.112"	"0"	"6.098"
"1948"	"14.317"	"18.057"	"15.153"	"16.282"	"36.474"	"204.803"	"338.417"	"300.949"	"272.958"	"76.913"	"31.604"	"1.188"
"1949"	"3.235"	"26.917"	"17.887"	"14.573"	"78.956"	"159.491"	"311.102"	"530.197"	"161.343"	"129.103"	"0"	"0"
"1950"	"2.298"	"19.083"	"65.043"	"3.162"	"7.012"	"261.625"	"337.077"	"422.982"	"141.937"	"31.967"	"7.069"	"7.091"
"1951"	"3.749"	"2.923"	"57.592"	"34.569"	"9.124"	"148.803"	"297.696"	"324.373"	"271.154"	"86.107"	"8.794"	"0"
"1952"	"0.424"	"16.835"	"40.08"	"15.653"	"13.669"	"249.765"	"179.127"	"270.291"	"248.261"	"69.058"	"5.808"	"2.333"
"1953"	"59.47"	"7.61"	"9.796"	"6.332"	"7.609"	"146.313"	"365.577"	"375.942"	"285.034"	"8.134"	"0.672"	"0"
"1954"	"10.353"	"19.693"	"1.819"	"0.581"	"20.189"	"178.818"	"174.225"	"295.938"	"284.716"	"35.939"	"0"	"4.272"
"1955"	"9.644"	"14.278"	"4.001"	"4.87"	"5.137"	"95.332"	"293.812"	"161.947"	"131.813"	"119.43"	"8.505"	"0.137"
"1956"	"14.273"	"37.112"	"12.168"	"9.757"	"100.667"	"306.234"	"266.878"	"415.563"	"422.071"	"87.02"	"9.819"	"7.507"
"1957"	"39.204"	"9.192"	"18.897"	"2.431"	"2.972"	"95.706"	"400.538"	"232.973"	"210.186"	"22.762"	"0"	"0.19"
"1958"	"29.707"	"27.167"	"23.748"	"21.179"	"5.151"	"92.28"	"443.651"	"347.316"	"269.769"	"182.745"	"1.305"	"0"
"1959"	"63.545"	"2.469"	"3.236"	"3.704"	"26.344"	"104.109"	"308.869"	"301.289"	"224.93"	"226.21"	"0"	"0.337"
"1960"	"0.42"	"0.271"	"41.937"	"9.989"	"8.412"	"113.416"	"343.168"	"397.067"	"181.917"	"58.365"	"0.49"	"0"
"1961"	"24.007"	"87.491"	"0.653"	"0.194"	"15.115"	"244.94"	"209.525"	"395.059"	"266.364"	"110.067"	"0.349"	"8.577"
"1962"	"16.807"	"14.061"	"4.828"	"1.797"	"12.107"	"152.516"	"252.979"	"307.049"	"256.47"	"42.935"	"0"	"3.582"
"1963"	"4.254"	"5.809"	"37.782"	"15.123"	"94.478"	"172.895"	"281.886"	"334.278"	"219.648"	"139.999"	"12.403"	"0"
"1964"	"0.399"	"10.458"	"10.422"	"30.82"	"31.796"	"213.272"	"328.853"	"425.945"	"229.916"	"68.213"	"20.011"	"0"
"1965"	"3.76"	"9.076"	"12.354"	"41.19"	"14.606"	"68.594"	"308.553"	"234.801"	"210.826"	"43.585"	"1.122"	"4.033"
"1966"	"53.758"	"5.54"	"0.334"	"1.566"	"4.178"	"210.598"	"82.88"	"214.723"	"96.316"	"9.935"	"13.272"	"23.756"
"1967"	"24.39"	"0.587"	"53.626"	"16.672"	"16.859"	"140.851"	"267.732"	"475.894"	"185.08"	"21.166"	"0"	"2.179"
"1968"	"30.859"	"10.06"	"3.683"	"2.79"	"3.82"	"200.672"	"276.567"	"364.469"	"80.182"	"59.333"	"4.186"	"4.035"
"1969"	"4.034"	"7.831"	"7.902"	"18.599"	"64.83"	"130.153"	"385.54"	"374.007"	"222.34"	"21.51"	"17.493"	"0"
"1970"	"9.456"	"24.624"	"17.831"	"1.065"	"31.514"	"247.191"	"290.696"	"262.868"	"369.718"	"79.86"	"2.646"	"0"
"1971"	"33.751"	"20.743"	"4.534"	"57.699"	"100.362"	"448.074"	"490.047"	"578.596"	"191.499"	"106.755"	"1.956"	"0"
"1972"	"6.145"	"73.772"	"1.24"	"38.159"	"3.748"	"53.585"	"244.893"	"413.749"	"134.346"	"168.403"	"17.257"	"1.365"
"1973"	"45.592"	"5.418"	"8.744"	"2.69"	"24.83"	"240.309"	"185.801"	"315.25"	"351.93"	"200.208"	"9.233"	"9.33"
"1974"	"6.298"	"4.91"	"17.245"	"3.743"	"29.452"	"65.204"	"440.1"	"239.799"	"215.507"	"111.712"	"4.131"	"0.399"
"1975"	"52.57"	"11.313"	"27.236"	"2.128"	"27.319"	"102.385"	"476.327"	"133.495"	"194.547"	"82.414"	"4.178"	"0"
"1976"	"5.586"	"13.362"	"1.471"	"35.715"	"21.307"	"60.867"	"362.873"	"241.034"	"473.331"	"6.075"	"0.359"	"0"
"1977"	"1.622"	"17.853"	"0.399"	"56.212"	"166.339"	"233.944"	"557.138"	"295.308"	"245.856"	"68.083"	"32.179"	"17.572"
"1978"	"9.418"	"94.225"	"48.07"	"64.448"	"20.947"	"369.408"	"264.92"	"341.879"	"480.063"	"87.049"	"6.232"	"21.039"
"1979"	"18.607"	"26.542"	"1.255"	"24.415"	"6.723"	"125.507"	"327.341"	"196.508"	"166.19"	"27.955"	"17.949"	"16.325"
"1980"	"30.985"	"16.454"	"31.306"	"0.787"	"37.122"	"294.89"	"318.845"	"298.719"	"84.247"	"38.044"	"1.399"	"1.365"
"1981"	"20.214"	"18.125"	"43.422"	"23.296"	"54.01"	"61.897"	"383.953"	"177.69"	"189.578"	"0.744"	"6.51"	"10"
"1982"	"25.675"	"20.848"	"60.792"	"29.96"	"47.479"	"123.636"	"194.829"	"362.232"	"296.982"	"13.938"	"11.235"	"2.754"
"1983"	"10.334"	"21.902"	"17.689"	"28.166"	"77.756"	"167.386"	"318.915"	"233.496"	"135.338"	"107.362"	"0.144"	"4.647"
"1984"	"40.777"	"29.99"	"2"	"29.181"	"14.824"	"412.207"	"310.963"	"298.086"	"265.283"	"51.9"	"0"	"0"
"1985"	"23.81"	"6.124"	"0.452"	"6.761"	"17.164"	"111.406"	"416.411"	"289.498"	"153.604"	"114.627"	"0.305"	"6.115"
"1986"	"16.799"	"35.845"	"1.709"	"19.099"	"35.329"	"168.663"	"333.196"	"319.833"	"254.204"	"20.654"	"12.935"	"9.245"
"1987"	"2.57"	"12.958"	"11.694"	"9.607"	"27.128"	"56.055"	"275.681"	"439.91"	"450.965"	"61.956"	"15.909"	"3.257"
"1988"	"8.901"	"31.208"	"39.058"	"9.157"	"46.291"	"216.539"	"254.232"	"275.708"	"144.917"	"50.913"	"7.124"	"1.875"
"1989"	"7.531"	"1.418"	"7.372"	"0.2"	"70.089"	"246.695"	"233.071"	"300.512"	"203.995"	"78.753"	"9.337"	"25.837"
"1990"	"0.15"	"46.747"	"21.637"	"7.342"	"84.112"	"334.909"	"568.968"	"270.108"	"240.91"	"117.793"	"2.303"	"0.312"
"1991"	"14.784"	"10.303"	"44.973"	"14.523"	"25.885"	"213.312"	"230.971"	"560.011"	"205.511"	"41.181"	"2.182"	"27.421"
"1992"	"23.521"	"6.294"	"0.774"	"6.647"	"12.857"	"94.262"	"211.327"	"138.51"	"118.654"	"77.731"	"0.399"	"0"
"1993"	"7.894"	"0.271"	"20.885"	"10.287"	"38.716"	"102.284"	"178.81"	"234.657"	"300.557"	"100.176"	"2.934"	"0"
"1994"	"47.924"	"22.079"	"24.315"	"25.802"	"18.948"	"289.287"	"292.468"	"351.806"	"49.868"	"156.641"	"0.587"	"0"
"1995"	"15.982"	"20.064"	"25.957"	"3.068"	"31.522"	"45.293"	"240.14"	"234.409"	"281.928"	"29.863"	"8.843"	"0"
"1996"	"21.675"	"16.194"	"2.463"	"7.338"	"12.812"	"257.971"	"230.76"	"386.548"	"134.796"	"166.824"	"0"	"0"
"1997"	"28.752"	"4.87"	"7.45"	"11.82"	"93.012"	"26.201"	"247.664"	"392.185"	"135.928"	"37.537"	"22.116"	"18.424"
"1998"	"19.794"	"33.891"	"10.174"	"16.006"	"93"	"46.832"	"181.863"	"246.275"	"192.238"	"226.779"	"22.226"	"0"
"1999"	"19.903"	"10.288"	"0.324"	"0.25"	"47.771"	"134.368"	"283.839"	"319.673"	"191.438"	"37.083"	"2.974"	"0"
"2000"	"10.354"	"30.284"	"1.112"	"21.957"	"23.4"	"173.974"	"117.882"	"151.018"	"250.12"	"8.054"	"1.293"	"0.528"
"2001"	"1.913"	"2.443"	"43.269"	"16.866"	"24.491"	"57.378"	"208.539"	"296.175"	"61.853"	"105.064"	"1.956"	"0"
"2002"	"30.068"	"11.538"	"8.275"	"14.619"	"15.542"	"73.676"	"173.291"	"321.345"	"181.409"	"110.59"	"14.059"	"0"
