
"Year"	"Jan"	"Feb"	"Mar"	"Apr"	"May"	"Jun"	"Jul"	"Aug"	"Sep"	"Oct"	"Nov"	"Dec"
"1901"	"15.17"	"18.738"	"23.681"	"29.227"	"29.552"	"30.439"	"28.769"	"28.516"	"27.974"	"26.976"	"21.316"	"16.927"
"1902"	"17.02"	"18.932"	"25.243"	"27.394"	"29.505"	"29.77"	"28.309"	"28.824"	"28.007"	"25.672"	"20.915"	"16.398"
"1903"	"15.901"	"18.012"	"23.362"	"28.784"	"30.536"	"29.234"	"29.371"	"28.277"	"28.212"	"26.429"	"20.973"	"16.516"
"1904"	"16.032"	"18.612"	"24.273"	"29.2"	"28.592"	"28.927"	"27.824"	"28.333"	"28.107"	"26.076"	"20.647"	"17.254"
"1905"	"15.107"	"15.081"	"21.706"	"25.735"	"28.3"	"30.723"	"28.317"	"27.812"	"27.813"	"26.374"	"21.492"	"16.903"
"1906"	"15.612"	"17.833"	"21.986"	"29.083"	"30.244"	"29.672"	"28.716"	"27.976"	"28.613"	"26.174"	"21.619"	"17.473"
"1907"	"17.21"	"17.994"	"21.406"	"26.291"	"29.085"	"29.53"	"28.472"	"28.918"	"28.176"	"26.482"	"21.253"	"16.771"
"1908"	"14.852"	"18.236"	"24.136"	"30.844"	"30.142"	"29.841"	"28.45"	"28.796"	"28.207"	"26.638"	"20.855"	"16.211"
"1909"	"16.762"	"18.399"	"25.38"	"26.939"	"30.042"	"28.522"	"28.516"	"27.926"	"28.618"	"26.627"	"21.771"	"17.504"
"1910"	"15.659"	"18.417"	"23.935"	"28.645"	"29.449"	"28.883"	"27.806"	"28.519"	"28.348"	"26.076"	"20.799"	"16.516"
"1911"	"17.307"	"17.836"	"22.715"	"28.381"	"30.103"	"28.83"	"28.974"	"28.285"	"27.716"	"25.869"	"20.579"	"15.908"
"1912"	"16.345"	"19.4"	"23.331"	"26.65"	"29.088"	"29.738"	"28.11"	"28.317"	"28.107"	"26.142"	"20.494"	"16.608"
"1913"	"15.759"	"18.335"	"21.978"	"29.441"	"28.483"	"27.735"	"28.511"	"28.128"	"28.274"	"25.782"	"20.19"	"16.403"
"1914"	"16.278"	"18.699"	"23.275"	"26.294"	"28.993"	"29.024"	"28.322"	"28.115"	"27.91"	"25.069"	"21.058"	"17.512"
"1915"	"16.848"	"18.43"	"22.981"	"28.09"	"29.544"	"28.883"	"29.066"	"28.811"	"28.165"	"27.982"	"23.09"	"17.211"
"1916"	"15.942"	"18.625"	"25.641"	"28.549"	"31.687"	"28.825"	"28.204"	"28.497"	"28.207"	"26.369"	"21.5"	"16.311"
"1917"	"15.552"	"18.238"	"22.837"	"27.423"	"28.08"	"28.822"	"28.411"	"28.521"	"27.806"	"25.976"	"21.366"	"16.808"
"1918"	"14.943"	"18.198"	"24.331"	"27.394"	"29.515"	"28.028"	"29.155"	"27.716"	"28.367"	"26.377"	"21.151"	"16.292"
"1919"	"16.74"	"17.578"	"24.772"	"27.591"	"29.549"	"29.327"	"28.511"	"28.821"	"27.87"	"26.182"	"21.595"	"17.043"
"1920"	"16.553"	"18.296"	"22.967"	"28.295"	"29.178"	"30.222"	"28.85"	"28.516"	"27.974"	"26.677"	"21.686"	"17.594"
"1921"	"16.748"	"18.396"	"25.149"	"29.104"	"31.497"	"29.522"	"28.605"	"28.519"	"28.038"	"25.28"	"20.791"	"16.723"
"1922"	"16.551"	"19.244"	"25.18"	"29.833"	"31.207"	"28.43"	"28.411"	"28.22"	"27.714"	"25.487"	"21.295"	"17.103"
"1923"	"16.345"	"18.296"	"24.184"	"29.157"	"30.136"	"30.394"	"28.503"	"28.724"	"28.202"	"25.777"	"21.392"	"17.494"
"1924"	"16.132"	"18.683"	"25.836"	"29.688"	"29.934"	"31.088"	"28.411"	"28.435"	"27.501"	"26.722"	"21.063"	"17.407"
"1925"	"14.807"	"17.03"	"23.788"	"27.865"	"29.042"	"29.21"	"28.118"	"28.519"	"27.864"	"25.538"	"20.949"	"16.353"
"1926"	"15.948"	"18.893"	"22.671"	"26.92"	"29.38"	"31.572"	"28.414"	"28.513"	"28.112"	"26.182"	"20.25"	"17.51"
"1927"	"15.774"	"18.093"	"22.141"	"28.587"	"28.785"	"29.928"	"28.61"	"28.319"	"28.066"	"26.472"	"21.345"	"17.494"
"1928"	"15.769"	"18.835"	"24.923"	"28.428"	"29.847"	"28.888"	"28.317"	"28.679"	"28.913"	"26.63"	"21.045"	"17.473"
"1929"	"16.006"	"17.704"	"24.345"	"28.09"	"30.597"	"30.315"	"28.218"	"28.282"	"28.199"	"25.582"	"20.96"	"16.705"
"1930"	"15.046"	"18.104"	"24.196"	"28.058"	"29.887"	"29.322"	"28.358"	"28.511"	"28.207"	"26.174"	"20.794"	"16.5"
"1931"	"17.135"	"18.448"	"23.819"	"29.572"	"29.449"	"30.919"	"28.372"	"29.208"	"28.379"	"26.769"	"20.949"	"17.694"
"1932"	"17.111"	"17.461"	"24.794"	"28.684"	"31.339"	"30.039"	"29.099"	"28.834"	"28.9"	"26.877"	"21.766"	"17.414"
"1933"	"14.744"	"19.144"	"24.485"	"26.799"	"29.43"	"29.121"	"28.317"	"28.018"	"28.146"	"26.282"	"21.063"	"17.203"
"1934"	"15.756"	"18.341"	"23.683"	"28.754"	"29.797"	"28.84"	"28.503"	"28.521"	"28.552"	"25.685"	"20.752"	"17.36"
"1935"	"15.818"	"19.18"	"24.717"	"28.207"	"30.994"	"29.849"	"29.244"	"27.824"	"28.255"	"26.216"	"21.595"	"17.006"
"1936"	"15.182"	"18.788"	"24.484"	"28.538"	"29.555"	"29.242"	"28.65"	"29.013"	"27.949"	"25.716"	"22.094"	"17.786"
"1937"	"14.997"	"18.761"	"23.128"	"29.039"	"29.73"	"30.577"	"29.349"	"28.376"	"28.7"	"25.296"	"21.101"	"16.84"
"1938"	"16.954"	"17.47"	"25.475"	"30.028"	"29.202"	"29.258"	"28.505"	"28.656"	"29.031"	"26.719"	"20.676"	"17.232"
"1939"	"16.801"	"19.063"	"23.083"	"30.227"	"30.544"	"29.569"	"29.031"	"28.676"	"28.495"	"26.071"	"21.88"	"17.822"
"1940"	"16.34"	"18.696"	"22.064"	"28.417"	"30.893"	"30.072"	"28.897"	"28.842"	"28.301"	"26.871"	"22.139"	"17.468"
"1941"	"16.35"	"19.225"	"25.641"	"29.842"	"29.462"	"29.455"	"29.068"	"28.745"	"28.671"	"25.937"	"21.258"	"18.487"
"1942"	"16.537"	"18.715"	"24.609"	"27.968"	"30.942"	"30.875"	"29.328"	"28.541"	"27.579"	"26.116"	"22.385"	"16.739"
"1943"	"17.696"	"17.621"	"24.23"	"26.405"	"30.035"	"29.715"	"28.495"	"28.12"	"28.447"	"26.482"	"21.902"	"18.357"
"1944"	"15.967"	"18.365"	"23.391"	"26.525"	"31.157"	"30.389"	"28.836"	"28.653"	"28.848"	"26.023"	"21.266"	"18.039"
"1945"	"15.937"	"17.115"	"24.487"	"27.67"	"29.288"	"30.347"	"29.465"	"28.687"	"28.486"	"25.519"	"20.988"	"16.385"
"1946"	"16.9"	"20.157"	"23.854"	"26.137"	"28.93"	"29.714"	"28.64"	"29.07"	"28.484"	"25.879"	"21.631"	"18.13"
"1947"	"16.702"	"19.256"	"24.836"	"29.707"	"30.206"	"30.877"	"28.947"	"28.968"	"28.207"	"26.374"	"21.46"	"18.098"
"1948"	"17.435"	"19.086"	"24.459"	"28.534"	"29.826"	"30.775"	"28.244"	"28.681"	"28.484"	"25.91"	"21.679"	"16.993"
"1949"	"16.996"	"18.569"	"24.246"	"26.376"	"28.203"	"29.138"	"28.411"	"28.648"	"28.207"	"27.35"	"21.207"	"16.261"
"1950"	"16.743"	"18.333"	"23.38"	"28.4"	"30.728"	"29.61"	"29.047"	"28.102"	"28.584"	"26.307"	"20.636"	"17.418"
"1951"	"16.194"	"19.183"	"24.917"	"28.626"	"30.749"	"29.905"	"28.511"	"29.318"	"28.873"	"27.454"	"22.152"	"17.673"
"1952"	"17.178"	"19.711"	"22.562"	"27.905"	"29.352"	"29.877"	"28.369"	"28.579"	"27.708"	"26.926"	"21.503"	"16.965"
"1953"	"15.554"	"19.718"	"25.686"	"28.77"	"30.329"	"29.343"	"28.007"	"28.883"	"27.944"	"26.185"	"21.287"	"18.874"
"1954"	"15.353"	"20.306"	"24.538"	"30.912"	"30.805"	"28.854"	"28.06"	"28.508"	"28.731"	"25.227"	"20.438"	"16.957"
"1955"	"16.286"	"18.139"	"25.118"	"27.708"	"30.324"	"29.401"	"27.588"	"27.66"	"28.371"	"26.874"	"22.235"	"16.775"
"1956"	"15.961"	"18.622"	"25.216"	"29.14"	"30.482"	"28.772"	"28.597"	"28.33"	"27.574"	"26"	"21.122"	"17.583"
"1957"	"16.256"	"17.532"	"23.459"	"28.896"	"32.31"	"29.79"	"28.902"	"28.577"	"28.477"	"25.539"	"21.233"	"18.335"
"1958"	"18.017"	"19.263"	"24.587"	"30.028"	"31.668"	"31.617"	"29.594"	"28.212"	"28.671"	"27.266"	"22.55"	"18.401"
"1959"	"16.643"	"18.399"	"23.852"	"29.235"	"30.302"	"29.693"	"29.099"	"29.331"	"28.236"	"25.806"	"21.402"	"17.899"
"1960"	"15.962"	"21.177"	"23.08"	"30.007"	"31.45"	"30.178"	"28.497"	"29.399"	"27.769"	"26.905"	"21.389"	"18.566"
"1961"	"17.673"	"17.805"	"25.025"	"29.535"	"31.222"	"29.523"	"28.925"	"29.278"	"28.222"	"26.424"	"20.911"	"15.31"
"1962"	"15.488"	"19.575"	"24.14"	"29.497"	"29.847"	"29.611"	"29.102"	"27.821"	"28.085"	"25.966"	"21.455"	"17.486"
"1963"	"15.834"	"19.914"	"23.631"	"27.686"	"28.793"	"29.755"	"28.618"	"28.656"	"28.215"	"26.593"	"21.983"	"18.463"
"1964"	"15.839"	"18.994"	"25.169"	"29.337"	"28.89"	"30.594"	"28.015"	"28.894"	"28.286"	"27.246"	"22.07"	"17.739"
"1965"	"17.225"	"19.207"	"23.012"	"28.103"	"30.894"	"30.349"	"28.196"	"27.943"	"27.837"	"26.456"	"21.624"	"16.896"
"1966"	"16.702"	"20.372"	"25.02"	"29.946"	"31.265"	"30.544"	"28.806"	"28.226"	"28.066"	"25.485"	"22.14"	"17.83"
"1967"	"16.82"	"19.776"	"22.792"	"26.632"	"29.894"	"30.089"	"28.75"	"28.739"	"28.353"	"25.722"	"20.602"	"18.076"
"1968"	"15.89"	"17.553"	"24.182"	"28.458"	"30.9"	"28.594"	"28.247"	"28.742"	"28.864"	"25.714"	"21.734"	"17.341"
"1969"	"15.732"	"19.576"	"25.669"	"29.009"	"29.136"	"29.869"	"28.472"	"27.86"	"27.714"	"26.197"	"22.76"	"17.507"
"1970"	"16.324"	"18.394"	"23.799"	"29.391"	"31.083"	"29.121"	"28.608"	"28.582"	"28.01"	"26.443"	"20.837"	"16.97"
"1971"	"16.067"	"17.861"	"23.347"	"25.893"	"27.541"	"28.427"	"27.317"	"27.063"	"27.819"	"26.229"	"20.499"	"17.305"
"1972"	"16.398"	"16.937"	"24.129"	"27.988"	"31.356"	"29.602"	"28.629"	"28.425"	"26.352"	"25.561"	"20.21"	"16.845"
"1973"	"16.234"	"18.937"	"22.485"	"28.699"	"28.941"	"28.126"	"28.547"	"28.574"	"27.905"	"26.313"	"21.378"	"17.488"
"1974"	"15.017"	"18.558"	"23.353"	"28.735"	"28.999"	"29.502"	"27.814"	"28.126"	"27.87"	"27.435"	"20.988"	"15.567"
"1975"	"16.038"	"18.769"	"23.973"	"28.9"	"29.79"	"29.424"	"26.855"	"28.497"	"27.54"	"27.329"	"21.994"	"16.89"
"1976"	"16.22"	"19.545"	"24.712"	"28.394"	"28.735"	"29.714"	"28.458"	"28.118"	"27.504"	"26.504"	"23.483"	"17.491"
"1977"	"16.168"	"19.027"	"25.819"	"28.27"	"26.837"	"28.438"	"28.171"	"28.908"	"28.469"	"25.548"	"22.622"	"15.83"
"1978"	"14.755"	"18.03"	"22.574"	"27.234"	"29.003"	"28.63"	"28.113"	"28.495"	"27.944"	"26.16"	"22.603"	"17.835"
"1979"	"16.977"	"17.765"	"23.88"	"28.829"	"31.038"	"30.464"	"28.608"	"29.73"	"27.812"	"26.755"	"23.7"	"17.736"
"1980"	"16.345"	"18.932"	"23.987"	"30.115"	"28.976"	"29.491"	"28.781"	"28.555"	"28.218"	"26.015"	"22.028"	"18.483"
"1981"	"15.404"	"18.921"	"23.239"	"26.093"	"27.554"	"29.459"	"28.157"	"28.921"	"28.046"	"26.517"	"21.389"	"17.087"
"1982"	"17.241"	"18.396"	"22.291"	"27.902"	"30.852"	"29.47"	"30.201"	"28.788"	"28.9"	"26.166"	"21.81"	"17.453"
"1983"	"15.709"	"18.016"	"24.056"	"27.042"	"28.79"	"30.856"	"29.308"	"29.082"	"28.816"	"26.479"	"21.298"	"17.218"
"1984"	"16.216"	"18.125"	"24.831"	"29.141"	"31.131"	"28.593"	"28.303"	"28.21"	"27.664"	"27.423"	"20.581"	"17.834"
"1985"	"16.594"	"18.64"	"25.635"	"29.293"	"28.704"	"30.141"	"27.506"	"28.763"	"27.714"	"26.443"	"21.874"	"18.887"
"1986"	"16.776"	"18.808"	"23.578"	"27.955"	"27.752"	"30.472"	"28.271"	"28.087"	"27.688"	"25.477"	"22.178"	"17.342"
"1987"	"16.384"	"19.55"	"23.981"	"27.786"	"29.142"	"30.678"	"28.516"	"27.663"	"28.314"	"26.683"	"22.046"	"18.871"
"1988"	"17.773"	"19.716"	"23.966"	"29.025"	"30.252"	"28.843"	"28.508"	"28.947"	"29.402"	"27.822"	"22.303"	"19.075"
"1989"	"16.258"	"20.205"	"24.612"	"29.639"	"30.058"	"28.682"	"28.716"	"28.516"	"28.78"	"27.533"	"22.045"	"17.222"
"1990"	"17.6"	"19.178"	"22.641"	"27.916"	"28.88"	"29.88"	"28.511"	"29.044"	"28.642"	"25.851"	"22.99"	"18.327"
"1991"	"15.68"	"20.403"	"24.581"	"28.394"	"31.08"	"28.721"	"29.049"	"28.648"	"28.065"	"27.277"	"22.972"	"17.286"
"1992"	"15.471"	"17.019"	"25.499"	"29.15"	"28.645"	"30.127"	"28.098"	"28.519"	"28.597"	"26.718"	"22.116"	"17.257"
"1993"	"16.424"	"20.601"	"22.806"	"27.263"	"28.595"	"29.607"	"29.205"	"28.194"	"28.107"	"27.185"	"22.717"	"18.832"
"1994"	"17.241"	"18.124"	"24.747"	"27.888"	"30.125"	"29.791"	"29.283"	"28.648"	"28.521"	"26.54"	"22.137"	"17.739"
"1995"	"14.82"	"20.275"	"24.221"	"28.584"	"31.167"	"29.916"	"28.129"	"28.12"	"28.411"	"26.921"	"22.641"	"18.467"
"1996"	"16.262"	"18.952"	"24.934"	"28.064"	"30.094"	"29.003"	"28.419"	"27.703"	"28.8"	"26.551"	"22.558"	"18.657"
"1997"	"15.769"	"17.438"	"24.589"	"28.343"	"29.335"	"29.78"	"28.45"	"28.968"	"27.611"	"25.719"	"22.128"	"17.697"
"1998"	"16.125"	"19.552"	"23.055"	"28.047"	"30.376"	"31.035"	"28.618"	"28.827"	"28.747"	"28.676"	"22.99"	"18.779"
"1999"	"17.391"	"20.4"	"25.022"	"30.952"	"30.389"	"29.73"	"28.411"	"28.513"	"28.314"	"27.282"	"22.896"	"18.824"
"2000"	"17.018"	"18.711"	"23.556"	"28.544"	"29.782"	"29.799"	"28.727"	"28.519"	"27.708"	"27.056"	"23.269"	"18.098"
"2001"	"17.046"	"19.262"	"24.134"	"29.188"	"30.688"	"29.465"	"28.86"	"29.115"	"28.813"	"27.677"	"23.718"	"19.16"
"2002"	"16.38"	"20.143"	"25.146"	"28.494"	"30.373"	"30.246"	"29.565"	"28.513"	"28.242"	"26.774"	"22.456"	"18.851"
