
"Year"	"Jan"	"Feb"	"Mar"	"Apr"	"May"	"Jun"	"Jul"	"Aug"	"Sep"	"Oct"	"Nov"	"Dec"
"1901"	"14.421"	"17.653"	"23.872"	"30.237"	"34.368"	"37.218"	"32.863"	"29.841"	"29.208"	"27.298"	"21.132"	"16.286"
"1902"	"17.056"	"19.192"	"26.566"	"31.191"	"34.676"	"35.402"	"30.79"	"30.082"	"29.077"	"25.963"	"19.987"	"15.515"
"1903"	"16.143"	"17.452"	"23.688"	"30.041"	"34.72"	"35.872"	"32.615"	"29.999"	"29.675"	"25.839"	"19.911"	"15.582"
"1904"	"16.323"	"18.567"	"24.511"	"31.239"	"33.697"	"34.43"	"29.835"	"29.006"	"29.021"	"26.159"	"19.788"	"16.554"
"1905"	"14.501"	"14.295"	"21.891"	"27.6"	"33.723"	"36.65"	"31.13"	"29.439"	"29.55"	"26.164"	"21.235"	"16.1"
"1906"	"15.385"	"17.296"	"23.225"	"30.726"	"35.708"	"34.608"	"30.877"	"29.361"	"29.294"	"26.593"	"21.404"	"17.024"
"1907"	"17.493"	"17.375"	"22.21"	"28.544"	"33.188"	"35.138"	"33.797"	"29.516"	"30.467"	"27.723"	"21.293"	"15.362"
"1908"	"14.971"	"18.787"	"24.396"	"32.582"	"35.426"	"36.126"	"30.811"	"29.495"	"29.929"	"26.417"	"20.394"	"15.704"
"1909"	"18.054"	"16.981"	"25.519"	"28.851"	"34.454"	"31.483"	"29.835"	"29.493"	"29.172"	"26.488"	"21.122"	"16.435"
"1910"	"15.387"	"18.423"	"24.69"	"30.5"	"34.196"	"33.433"	"31.065"	"29.413"	"29.549"	"25.62"	"19.554"	"15.43"
"1911"	"17.9"	"18.194"	"22.562"	"30.039"	"35.568"	"33.777"	"32.31"	"29.998"	"28.542"	"26.494"	"19.662"	"15.252"
"1912"	"16.105"	"19.645"	"23.804"	"30.08"	"34.437"	"35.581"	"30.967"	"29.447"	"28.887"	"26.166"	"19.844"	"15.423"
"1913"	"15.847"	"18.587"	"22.373"	"31.307"	"32.648"	"31.536"	"31.223"	"30.294"	"29.901"	"27.546"	"20.164"	"16.123"
"1914"	"17.555"	"19.359"	"23.793"	"29.974"	"33.72"	"34.738"	"30.304"	"29.405"	"29.495"	"25.635"	"21.31"	"16.226"
"1915"	"16.516"	"17.419"	"23.439"	"30.027"	"36.108"	"34.663"	"31.379"	"29.567"	"29.044"	"27.438"	"21.143"	"16.265"
"1916"	"15.769"	"18.224"	"26.267"	"31.573"	"34.807"	"31.524"	"30.483"	"29.113"	"29.056"	"26.726"	"19.56"	"14.739"
"1917"	"15.591"	"18.224"	"23.36"	"27.669"	"30.448"	"32.652"	"30.448"	"29.672"	"28.67"	"26.319"	"18.931"	"15.924"
"1918"	"14.728"	"18.945"	"24.818"	"29.226"	"35.014"	"31.962"	"33.3"	"30.048"	"29.981"	"26.804"	"20.688"	"15.388"
"1919"	"16.035"	"16.816"	"24.652"	"29.535"	"33.909"	"35.023"	"29.862"	"29.606"	"29.275"	"25.957"	"20.541"	"15.761"
"1920"	"15.945"	"17.981"	"24.258"	"30.439"	"32.156"	"34.637"	"30.033"	"29.747"	"30.249"	"27.639"	"21.535"	"16.461"
"1921"	"16.735"	"18.777"	"26.81"	"32.527"	"36.967"	"34.385"	"32.253"	"28.853"	"28.848"	"25.759"	"19.799"	"17.526"
"1922"	"15.801"	"19.723"	"25.509"	"30.786"	"35.818"	"33.902"	"29.943"	"28.806"	"28.747"	"25.604"	"20.486"	"15.638"
"1923"	"15.835"	"17.981"	"24.78"	"31.396"	"34.857"	"36.84"	"30.485"	"29.314"	"29.49"	"25.586"	"20.66"	"16.62"
"1924"	"15.431"	"18.602"	"26.391"	"31.619"	"33.364"	"37.111"	"29.918"	"29.326"	"28.981"	"26.71"	"20.476"	"16.132"
"1925"	"14.464"	"17.212"	"24.282"	"30.98"	"33.333"	"32.752"	"29.241"	"29.997"	"28.931"	"26.792"	"19.683"	"15.303"
"1926"	"15.571"	"19.516"	"23.281"	"27.314"	"32.747"	"36.498"	"32.002"	"29.799"	"28.7"	"25.839"	"18.874"	"15.678"
"1927"	"14.581"	"17.641"	"23.082"	"30.145"	"33.681"	"35.094"	"30.791"	"29.442"	"29.83"	"26.6"	"19.769"	"17.117"
"1928"	"15.677"	"18.821"	"24.938"	"29.864"	"35.386"	"33.809"	"30.403"	"30.803"	"30.512"	"27.365"	"21.516"	"16.627"
"1929"	"15.685"	"17.354"	"25.445"	"31.207"	"35.853"	"34.446"	"30.688"	"28.62"	"30.451"	"25.847"	"20.422"	"15.574"
"1930"	"15.121"	"18.03"	"25.417"	"30.157"	"34.493"	"34.435"	"30.149"	"29.306"	"29.362"	"26.921"	"20.103"	"15.809"
"1931"	"17.263"	"17.761"	"24.105"	"31.937"	"34.883"	"36.176"	"31.264"	"30.227"	"29.263"	"26.238"	"20.269"	"16.846"
"1932"	"17.698"	"17.565"	"25.018"	"30.418"	"34.134"	"35.84"	"31.984"	"29.162"	"29.484"	"26.673"	"20.473"	"15.904"
"1933"	"14.216"	"19.325"	"25.138"	"27.893"	"31.31"	"33.032"	"30.483"	"29.779"	"29.229"	"26.505"	"20.291"	"16.255"
"1934"	"15.718"	"19.165"	"23.877"	"30.657"	"34.72"	"33.801"	"30.503"	"29.349"	"29.422"	"25.749"	"20.579"	"16.665"
"1935"	"14.509"	"18.764"	"24.632"	"27.888"	"35.377"	"35.759"	"30.432"	"28.926"	"28.776"	"25.725"	"20.637"	"15.838"
"1936"	"14.831"	"18.123"	"24.647"	"29.594"	"34.75"	"31.987"	"29.711"	"29.07"	"28.783"	"26.033"	"20.73"	"16.703"
"1937"	"14.558"	"18.434"	"23.111"	"28.949"	"33.787"	"33.99"	"31.024"	"28.434"	"28.903"	"25.015"	"21.124"	"15.23"
"1938"	"16.073"	"16.451"	"25.868"	"31.258"	"34.469"	"31.747"	"30.093"	"29.347"	"29.423"	"27.099"	"19.724"	"15.882"
"1939"	"16.813"	"18.714"	"23.274"	"29.426"	"35.568"	"33.254"	"30.323"	"29.049"	"28.768"	"26.812"	"20.34"	"15.982"
"1940"	"15.571"	"17.731"	"22.623"	"29.217"	"34.594"	"35.082"	"31.177"	"29.606"	"29.09"	"26.524"	"21.43"	"15.895"
"1941"	"15.701"	"18.916"	"26.716"	"32.825"	"34.849"	"33.205"	"32.011"	"30.108"	"29.796"	"27.893"	"20.715"	"16.937"
"1942"	"15.138"	"19.343"	"25.522"	"30.913"	"35.824"	"35.631"	"30.469"	"29.509"	"28.855"	"26.744"	"21.91"	"16.36"
"1943"	"17.945"	"18.765"	"25.747"	"29.001"	"35.52"	"35.114"	"31.21"	"28.693"	"29.648"	"26.539"	"21.474"	"17.266"
"1944"	"15.715"	"17.98"	"23.297"	"28.658"	"35.99"	"34.141"	"30.483"	"29.681"	"29.564"	"25.916"	"21.523"	"17.997"
"1945"	"14.208"	"18.029"	"25.187"	"28.736"	"34.36"	"35.212"	"31.552"	"30.635"	"29.355"	"25.484"	"20.438"	"15.065"
"1946"	"17.05"	"20.623"	"24.538"	"30.501"	"33.558"	"33.247"	"30.13"	"29.893"	"29.953"	"26.861"	"21.102"	"17.746"
"1947"	"15.366"	"19.377"	"25.972"	"32.073"	"35.189"	"35.918"	"30.529"	"29.847"	"29.563"	"26.325"	"21.737"	"16.938"
"1948"	"16.758"	"18.444"	"24.1"	"32.073"	"35.866"	"35.716"	"30.342"	"29.326"	"28.968"	"26.762"	"20.476"	"16.194"
"1949"	"17.528"	"19.207"	"25.223"	"31.284"	"34.268"	"35.439"	"31.145"	"29.268"	"29.576"	"27.303"	"19.404"	"15.273"
"1950"	"16.764"	"17.811"	"23.646"	"29.504"	"34.76"	"34.007"	"30.431"	"29.326"	"29.29"	"26.159"	"20.332"	"16.373"
"1951"	"15.165"	"18.44"	"24.304"	"29.149"	"34.046"	"34.613"	"31.548"	"29.613"	"29.149"	"28.619"	"22.046"	"16.515"
"1952"	"17.536"	"20.992"	"24.315"	"31.526"	"35.401"	"33.366"	"30.289"	"28.953"	"29.595"	"26.993"	"20.853"	"17.039"
"1953"	"15.754"	"20.918"	"28.145"	"31.165"	"35.237"	"34.673"	"29.648"	"28.525"	"29.033"	"25.971"	"20.418"	"18.275"
"1954"	"15.031"	"20.08"	"25.09"	"31.911"	"35.96"	"34.486"	"31.351"	"29.381"	"29.248"	"25.218"	"20.508"	"16.468"
"1955"	"16.18"	"19.131"	"26.651"	"29.469"	"34.555"	"34.174"	"29.77"	"29.268"	"29.062"	"25.86"	"20.548"	"16.968"
"1956"	"16.459"	"18.858"	"25.454"	"31.71"	"35.603"	"32.051"	"30.271"	"29.268"	"28.507"	"26.162"	"19.933"	"17.138"
"1957"	"16.495"	"17.99"	"23.746"	"30.126"	"34.616"	"34.786"	"30.911"	"30.047"	"28.922"	"26.573"	"21.737"	"17.587"
"1958"	"17.912"	"19.592"	"25.957"	"32.485"	"35.654"	"36.378"	"30.919"	"29.52"	"29.406"	"26.539"	"21.619"	"17.6"
"1959"	"16.643"	"18.185"	"25.844"	"31.351"	"34.704"	"35.253"	"30.997"	"29.513"	"29.528"	"26.819"	"21.368"	"17.342"
"1960"	"16.092"	"21.364"	"24.587"	"30.354"	"34.717"	"35.818"	"30.389"	"29.592"	"29.569"	"26.365"	"20.16"	"17.517"
"1961"	"16.585"	"17.287"	"25.961"	"30.983"	"34.921"	"34.194"	"30.948"	"29.306"	"29.232"	"25.973"	"19.81"	"13.865"
"1962"	"14.963"	"19.192"	"24.811"	"30.873"	"34.612"	"37.201"	"32.175"	"29.147"	"28.367"	"25.389"	"20.973"	"17.095"
"1963"	"15.099"	"20.221"	"24.645"	"30.38"	"33.194"	"33.319"	"30.7"	"29.706"	"28.828"	"27.084"	"22.992"	"16.825"
"1964"	"15.543"	"18.923"	"26.61"	"31.573"	"33.154"	"34.763"	"29.89"	"29.681"	"28.656"	"27.089"	"20.533"	"17.265"
"1965"	"17.49"	"19.3"	"24.08"	"29.061"	"34.15"	"36.769"	"31.489"	"30.103"	"28.926"	"26.999"	"22.21"	"16.594"
"1966"	"16.771"	"21.565"	"25.669"	"31.91"	"35.319"	"34.351"	"32.402"	"29.606"	"29.89"	"27.598"	"22.225"	"16.11"
"1967"	"15.393"	"20.499"	"23.551"	"29.699"	"34.232"	"35.555"	"30.489"	"28.412"	"28.759"	"26.278"	"20.971"	"17.322"
"1968"	"15.192"	"17.445"	"24.317"	"29.858"	"34.264"	"33.294"	"30.45"	"29.686"	"30.701"	"26.336"	"21.283"	"16.858"
"1969"	"16.221"	"20.203"	"27.642"	"31.582"	"33.182"	"35.887"	"30.168"	"28.891"	"28.67"	"27.473"	"22.704"	"16.824"
"1970"	"16.592"	"18.088"	"24.131"	"31.749"	"34.36"	"32.801"	"30.967"	"29.741"	"28.518"	"27.065"	"20.802"	"17.052"
"1971"	"15.509"	"18.327"	"23.833"	"29.109"	"31.626"	"31.208"	"29.154"	"28.028"	"29.168"	"26.25"	"20.765"	"16.989"
"1972"	"15.779"	"16.809"	"25.114"	"29.994"	"35.153"	"35.653"	"32.073"	"29.279"	"28.425"	"25.542"	"21.351"	"17.272"
"1973"	"16.466"	"20.182"	"24.446"	"32.118"	"35.222"	"34.265"	"31.28"	"29.51"	"28.93"	"26.433"	"20.353"	"15.717"
"1974"	"15.394"	"17.878"	"25.658"	"32.184"	"34.767"	"34.73"	"30.217"	"28.992"	"29.158"	"27.856"	"20.95"	"15.837"
"1975"	"15.726"	"18.706"	"24.447"	"31.868"	"35.82"	"33.722"	"29.489"	"29.047"	"28.602"	"27.626"	"19.738"	"16.164"
"1976"	"16.344"	"19.008"	"24.946"	"29.148"	"33.13"	"33.766"	"30.701"	"28.291"	"28.731"	"27.226"	"22.675"	"16.687"
"1977"	"15.558"	"19.016"	"26.125"	"30.112"	"32.527"	"34.104"	"29.66"	"29.442"	"28.736"	"27.092"	"23.196"	"17.368"
"1978"	"15.664"	"17.605"	"22.496"	"29.718"	"36.014"	"33.759"	"29.905"	"28.919"	"28.153"	"26.885"	"22.496"	"16.593"
"1979"	"17.037"	"17.904"	"23.384"	"30.039"	"33.454"	"33.497"	"30.107"	"30.033"	"30.282"	"28.235"	"24.341"	"17.797"
"1980"	"16.443"	"19.323"	"24.515"	"31.868"	"34.456"	"31.774"	"28.384"	"28.217"	"28.9"	"27.122"	"21.7"	"17.257"
"1981"	"16.364"	"19.601"	"24.126"	"29.917"	"33.189"	"33.739"	"29.213"	"29.343"	"28.647"	"26.35"	"20.368"	"16.338"
"1982"	"17.245"	"17.816"	"22.307"	"29.431"	"32.977"	"32.77"	"32.544"	"29.314"	"28.845"	"27.015"	"21.847"	"17.46"
"1983"	"14.831"	"18.156"	"24.028"	"28.387"	"32.594"	"34.726"	"30.824"	"29.822"	"29.437"	"26.373"	"20.339"	"17.046"
"1984"	"16.362"	"17.014"	"25.324"	"31.258"	"35.666"	"32.874"	"30.093"	"29.171"	"28.533"	"26.868"	"20.582"	"17.587"
"1985"	"16.745"	"19.043"	"26.753"	"31.452"	"35.216"	"35.133"	"29.611"	"29.528"	"28.957"	"25.844"	"21.779"	"18.45"
"1986"	"16.459"	"18.834"	"24.901"	"30.586"	"32.594"	"34.454"	"29.629"	"29.292"	"29.185"	"25.986"	"21.804"	"16.687"
"1987"	"15.823"	"20.105"	"24.667"	"30.915"	"33.326"	"36.903"	"31.893"	"30.778"	"29.854"	"27.276"	"21.697"	"16.621"
"1988"	"17.225"	"19.637"	"24.738"	"31.65"	"35.68"	"33.487"	"29.859"	"29.248"	"30.561"	"26.719"	"21.685"	"17.934"
"1989"	"15.346"	"18.452"	"24.124"	"30.258"	"34.954"	"32.767"	"30.294"	"28.311"	"29.136"	"26.934"	"21.414"	"16.492"
"1990"	"17.44"	"19.067"	"23.339"	"30.741"	"33.689"	"34.352"	"29.23"	"29.518"	"29.135"	"26.59"	"21.314"	"17.063"
"1991"	"15.943"	"20.207"	"24.953"	"30.164"	"35.455"	"34.094"	"32.346"	"28.713"	"29.334"	"26.038"	"20.964"	"17.059"
"1992"	"16.374"	"17.609"	"25.588"	"31.043"	"33.367"	"34.031"	"31.047"	"29.376"	"28.904"	"26.686"	"22.257"	"16.656"
"1993"	"16.531"	"19.925"	"22.833"	"29.559"	"34.084"	"33.63"	"31.613"	"30.301"	"28.368"	"27.335"	"21.82"	"17.427"
"1994"	"17.452"	"18.643"	"26.415"	"29.861"	"36.209"	"34.376"	"30.277"	"29.228"	"29.329"	"26.137"	"21.447"	"17.35"
"1995"	"15.394"	"19.206"	"23.843"	"31.046"	"36.424"	"35.775"	"31.138"	"29.078"	"28.909"	"27.471"	"21.837"	"18.158"
"1996"	"16.873"	"19.225"	"25.802"	"30.426"	"35.491"	"34.127"	"30.665"	"28.582"	"29.67"	"26.124"	"20.902"	"16.197"
"1997"	"15.953"	"18"	"24.753"	"29.426"	"33.197"	"34.792"	"32.944"	"29.508"	"28.669"	"25.529"	"21.17"	"17.135"
"1998"	"14.278"	"20.153"	"23.203"	"30.808"	"35.253"	"35.024"	"30.424"	"29.741"	"29.535"	"28.047"	"23.818"	"17.94"
"1999"	"15.574"	"20.535"	"25.497"	"32.362"	"34.254"	"33.492"	"30.658"	"29.432"	"28.825"	"27.508"	"23.82"	"17.849"
"2000"	"16.467"	"19.263"	"24.473"	"32.05"	"33.916"	"32.379"	"30.483"	"30.018"	"28.193"	"28.087"	"23.982"	"17.34"
"2001"	"15.475"	"19.516"	"24.661"	"29.609"	"33.714"	"32.358"	"30.04"	"30.112"	"29.908"	"27.758"	"22.795"	"17.353"
"2002"	"16.766"	"17.252"	"25.682"	"31.292"	"35.698"	"34.452"	"33.194"	"29.739"	"28.663"	"27.108"	"22.017"	"17.159"
