
"Year"	"Jan"	"Feb"	"Mar"	"Apr"	"May"	"Jun"	"Jul"	"Aug"	"Sep"	"Oct"	"Nov"	"Dec"
"1901"	"52.76"	"49.101"	"4.497"	"21.442"	"38.507"	"80.84"	"250.759"	"323.723"	"294.496"	"28.384"	"21.365"	"0"
"1902"	"6.424"	"2.121"	"14.099"	"46.939"	"44.087"	"106.913"	"304.724"	"238.731"	"333.784"	"23.04"	"1.065"	"5.383"
"1903"	"8.342"	"24.128"	"10.485"	"19.343"	"45.129"	"146.057"	"127.079"	"238.048"	"222.849"	"127.337"	"0.115"	"0"
"1904"	"0.132"	"7.012"	"52.796"	"2.241"	"205.887"	"347.844"	"375.519"	"404.442"	"98.482"	"42.771"	"3.591"	"0.378"
"1905"	"18.633"	"58.031"	"60.746"	"36.481"	"62.029"	"48.609"	"421.418"	"291.801"	"360.218"	"34.362"	"0"	"1.034"
"1906"	"31.405"	"129.844"	"42.741"	"0.358"	"28.94"	"217.503"	"385.5"	"233.17"	"207.281"	"100.115"	"2.757"	"1.034"
"1907"	"0.085"	"65.177"	"57.542"	"69.034"	"39.844"	"301.401"	"187.533"	"272.215"	"154.064"	"10.651"	"0"	"5.368"
"1908"	"20.148"	"64.205"	"7.327"	"1.088"	"26.802"	"303.735"	"386.035"	"370.031"	"120.991"	"82.811"	"0.258"	"0.127"
"1909"	"13.583"	"15.165"	"0.2"	"96.714"	"25.404"	"317.683"	"304.362"	"339.271"	"194.351"	"23.394"	"1.415"	"7.646"
"1910"	"7.326"	"45.799"	"26.955"	"23.072"	"33.591"	"206.057"	"233.829"	"349.382"	"247.091"	"71.735"	"15.574"	"0"
"1911"	"2.152"	"0.627"	"41.488"	"10.323"	"29.774"	"609.361"	"97.692"	"278.928"	"248.332"	"99.046"	"34.036"	"0"
"1912"	"0.851"	"12.932"	"32.251"	"33.831"	"53.982"	"177.384"	"291.949"	"318.92"	"67.371"	"32.935"	"30.367"	"0"
"1913"	"0.085"	"64.172"	"47.65"	"7.705"	"90.069"	"465.221"	"267.84"	"374.055"	"155.07"	"91.673"	"6.209"	"10.345"
"1914"	"0.085"	"52.189"	"25.732"	"61.144"	"91.26"	"140.151"	"301.65"	"374.612"	"128.038"	"9.276"	"0"	"11.885"
"1915"	"3.972"	"38.714"	"42.89"	"10.277"	"47.209"	"199.285"	"237.563"	"324.665"	"262.728"	"52.452"	"37.099"	"0"
"1916"	"0.085"	"15.941"	"1.031"	"16.126"	"20.993"	"427.233"	"269.64"	"394.326"	"266.999"	"216.101"	"7.712"	"0"
"1917"	"1.958"	"70.044"	"15.62"	"17.81"	"106.263"	"208.255"	"283.877"	"437.026"	"185.393"	"237.432"	"2.733"	"0.378"
"1918"	"2.353"	"0.305"	"12.824"	"32.312"	"56.509"	"316.696"	"128.614"	"441.686"	"213.638"	"4.067"	"0.258"	"3.979"
"1919"	"42.671"	"33.309"	"22.647"	"38.695"	"76.171"	"265.845"	"291.76"	"537.076"	"152.159"	"99.336"	"13.788"	"0"
"1920"	"0.085"	"38.321"	"81.35"	"1.854"	"34.101"	"110.651"	"539.178"	"410.291"	"205.574"	"32.131"	"0.115"	"0"
"1921"	"56.961"	"8.977"	"6.825"	"18.735"	"16.667"	"269.776"	"285.253"	"498.926"	"125.31"	"7.795"	"0"	"0"
"1922"	"13.354"	"6.686"	"0.2"	"15.693"	"13.615"	"418.537"	"363.719"	"404.052"	"410.459"	"61.823"	"6.506"	"2.386"
"1923"	"0.772"	"93.962"	"7.749"	"5.739"	"7.534"	"146.03"	"370.03"	"511.98"	"192.314"	"50.503"	"9.03"	"1.662"
"1924"	"16.083"	"21.616"	"0.799"	"28.475"	"17.112"	"203.763"	"340.475"	"313.124"	"248.18"	"83.11"	"39.805"	"0"
"1925"	"49.183"	"16.371"	"9.159"	"30.889"	"42.143"	"328.444"	"371.826"	"388.158"	"172.432"	"55.188"	"11.613"	"0"
"1926"	"32.977"	"1.68"	"90.438"	"16.996"	"96.542"	"70.421"	"444.187"	"423.129"	"200.297"	"58.703"	"3.619"	"11.23"
"1927"	"22.802"	"121.742"	"48.825"	"10.683"	"40.688"	"205.581"	"296.938"	"339.572"	"136.951"	"46.063"	"18.005"	"0"
"1928"	"51.075"	"6.154"	"1.804"	"38.129"	"67.655"	"385.303"	"451.925"	"266.159"	"185.18"	"127.238"	"0"	"1.328"
"1929"	"33.858"	"11.76"	"22.32"	"18.495"	"25.867"	"150.074"	"321.758"	"294.889"	"141.544"	"262.3"	"0"	"10.819"
"1930"	"3.473"	"16.211"	"5.794"	"17.948"	"27.08"	"152.967"	"374.983"	"284.506"	"205.271"	"25.915"	"37.645"	"5.77"
"1931"	"16.352"	"106.632"	"29.183"	"5.472"	"43.251"	"132.805"	"400.644"	"325.009"	"288.48"	"81.336"	"15.877"	"1.639"
"1932"	"0.085"	"62.008"	"5.568"	"10.95"	"91.598"	"64.46"	"416.974"	"311.398"	"207.102"	"45.828"	"32.432"	"2.036"
"1933"	"58.222"	"26.411"	"2.792"	"58.992"	"70.976"	"283.172"	"277.987"	"423.772"	"182.135"	"114.329"	"0"	"0"
"1934"	"14.137"	"38.668"	"1.895"	"27.403"	"16.713"	"200.858"	"246.521"	"436.54"	"266.517"	"66.395"	"22.677"	"2.891"
"1935"	"15.502"	"15.779"	"10.289"	"32.432"	"4.808"	"167.604"	"262.619"	"525.863"	"235.089"	"6.337"	"0"	"1.703"
"1936"	"8.226"	"21.968"	"20.975"	"4.06"	"116.064"	"324.758"	"297.539"	"264.336"	"401.658"	"142.196"	"1.088"	"17.583"
"1937"	"0.085"	"71.063"	"7.775"	"42.104"	"47.519"	"202.23"	"309.901"	"380.084"	"270.841"	"145.93"	"1.061"	"0.749"
"1938"	"6.274"	"33.719"	"5.09"	"3.46"	"121.08"	"276.792"	"188.683"	"304.938"	"129.636"	"55.048"	"0.765"	"0"
"1939"	"12.912"	"19.809"	"12.914"	"16.131"	"16.974"	"203.16"	"436.353"	"398.076"	"272.293"	"95.936"	"2.379"	"0.258"
"1940"	"0.085"	"44.129"	"112.849"	"11.679"	"47.249"	"149.43"	"253.694"	"397.292"	"215.105"	"30.477"	"0"	"3.098"
"1941"	"42.839"	"2.821"	"12.72"	"7.804"	"38.082"	"322.306"	"305.157"	"498.037"	"217.372"	"120.895"	"25.716"	"0"
"1942"	"8.55"	"93.078"	"22.795"	"18.7"	"5.878"	"126.862"	"391.097"	"471.191"	"419.123"	"54.124"	"2.125"	"0.127"
"1943"	"47.378"	"18.02"	"9.115"	"83.676"	"45.853"	"163.36"	"483.92"	"525.158"	"216.846"	"55.365"	"0"	"0"
"1944"	"25.186"	"63.319"	"79.608"	"20.206"	"29.578"	"173.906"	"362.96"	"562.216"	"136.322"	"90.643"	"0"	"0"
"1945"	"42.156"	"39.351"	"4.567"	"34.24"	"52.965"	"200.326"	"219.714"	"215.01"	"295.796"	"160.497"	"0"	"1.328"
"1946"	"0.085"	"5.965"	"20.56"	"34.356"	"65.084"	"247.461"	"294.778"	"396.187"	"372.812"	"139.039"	"29.021"	"0.658"
"1947"	"18.194"	"25.204"	"31.814"	"3.164"	"35.958"	"208.427"	"324.816"	"309.854"	"359.315"	"72.277"	"0"	"9.143"
"1948"	"12.189"	"32.426"	"36.601"	"23.078"	"47.205"	"200.04"	"306.648"	"326.252"	"229.766"	"89.613"	"45.278"	"0.658"
"1949"	"1.847"	"22.474"	"22.565"	"41.118"	"110.444"	"257.278"	"309.022"	"442.715"	"201.641"	"111.225"	"0"	"0"
"1950"	"0.662"	"14.019"	"58.696"	"12.403"	"21.295"	"356.371"	"313.09"	"361.466"	"161.281"	"53.502"	"28.635"	"4.158"
"1951"	"6.268"	"1.175"	"69.366"	"40.061"	"19.44"	"192.93"	"293.071"	"333.927"	"282.539"	"81.184"	"17.085"	"0"
"1952"	"0.378"	"13.83"	"42.605"	"40.964"	"24.16"	"255.287"	"236.768"	"277.51"	"234.394"	"80.38"	"7.081"	"1.373"
"1953"	"63.747"	"15.708"	"12.953"	"6.671"	"15.404"	"187.615"	"289.359"	"355.305"	"310.041"	"19.445"	"2.864"	"0"
"1954"	"17.277"	"16.9"	"1.538"	"1.978"	"45.032"	"255.013"	"155.886"	"283.913"	"314.385"	"44.997"	"0"	"6.771"
"1955"	"33.642"	"13.155"	"6.957"	"8.437"	"9.463"	"156.818"	"254.183"	"196.469"	"215.554"	"156.454"	"22.798"	"0"
"1956"	"14.162"	"62.837"	"21.776"	"14.264"	"101.788"	"361.035"	"264.071"	"373.054"	"370.499"	"102.399"	"9.642"	"4.321"
"1957"	"54.653"	"19.056"	"19.288"	"9.413"	"3.979"	"107.93"	"376.36"	"233.629"	"239.378"	"42.672"	"0"	"0"
"1958"	"22.159"	"46.623"	"21.587"	"26.814"	"12.899"	"111.94"	"400.701"	"318.342"	"264.937"	"150.017"	"5.342"	"0"
"1959"	"28.464"	"3.987"	"5.917"	"18.124"	"39.753"	"155.059"	"261.187"	"293.054"	"242.22"	"231.861"	"0"	"0.653"
"1960"	"0.772"	"0.301"	"45.181"	"10.113"	"22.688"	"142.884"	"390.873"	"388.123"	"196.435"	"63.794"	"1.319"	"0"
"1961"	"26.05"	"129.083"	"1.291"	"0.988"	"32.834"	"232.167"	"171.72"	"411.241"	"318.455"	"105.322"	"0.512"	"4.867"
"1962"	"17.365"	"16.338"	"4.469"	"9.112"	"23.066"	"167.604"	"242.084"	"281.291"	"203.208"	"64.918"	"0"	"2.062"
"1963"	"2.036"	"5.243"	"35.235"	"31.078"	"106.062"	"231.582"	"268.736"	"296.183"	"229.435"	"194.54"	"12.222"	"0"
"1964"	"0.378"	"10.376"	"15.19"	"54.354"	"50.342"	"188.602"	"386.803"	"385.814"	"213.24"	"67.904"	"23.073"	"0"
"1965"	"3.186"	"21.159"	"14.972"	"50.937"	"19.035"	"97.341"	"304.606"	"296.121"	"231.801"	"53.27"	"1.027"	"2.674"
"1966"	"69.213"	"7.274"	"1.54"	"3.291"	"5.81"	"201.273"	"90.27"	"238.164"	"159.069"	"22.344"	"18.413"	"16.975"
"1967"	"26.951"	"1.212"	"54.147"	"27.32"	"25.903"	"182.894"	"240.24"	"439.324"	"186.589"	"29.063"	"0"	"1.711"
"1968"	"25.563"	"16.757"	"9.495"	"6.425"	"6.401"	"330.947"	"321.872"	"435.478"	"125.066"	"66.879"	"11.643"	"2.336"
"1969"	"2.847"	"7.438"	"16.161"	"42.564"	"68.609"	"141.936"	"343.627"	"397.587"	"216.085"	"35.348"	"18.678"	"0"
"1970"	"19.498"	"28.112"	"31.17"	"5.626"	"35.485"	"253.464"	"270.263"	"270.575"	"298.919"	"102.841"	"7.334"	"0"
"1971"	"37.036"	"51.175"	"3.962"	"96.386"	"117.22"	"429.444"	"486.135"	"571.515"	"272.908"	"117.08"	"5.562"	"0"
"1972"	"8.156"	"55.089"	"1.297"	"39.514"	"5.719"	"69.117"	"246.877"	"463.511"	"180.101"	"142.827"	"15.564"	"0.819"
"1973"	"18.86"	"5.627"	"21.621"	"6.204"	"66.799"	"323.887"	"185.02"	"324.943"	"444.95"	"178.501"	"16.386"	"19.296"
"1974"	"3.298"	"1.937"	"46.584"	"6.267"	"47.372"	"86.558"	"394.495"	"272.143"	"317.698"	"135.985"	"3.762"	"0.192"
"1975"	"24.08"	"10.319"	"23.902"	"4.353"	"38.466"	"157.072"	"410.459"	"196.554"	"222.431"	"102.735"	"8.429"	"0"
"1976"	"1.737"	"15.183"	"4.594"	"44.07"	"47.506"	"65.129"	"372.773"	"272.035"	"400.524"	"7.939"	"1.156"	"0"
"1977"	"3.469"	"30.48"	"0.33"	"64.115"	"177.801"	"316.397"	"520.832"	"304.799"	"207.456"	"63.558"	"33.838"	"21.93"
"1978"	"3.93"	"90.244"	"54.502"	"76.521"	"46.037"	"307.206"	"299.667"	"342.513"	"481.169"	"95.165"	"13.028"	"13.101"
"1979"	"33.85"	"44.371"	"3.986"	"36.045"	"11.205"	"105.525"	"323.426"	"217.242"	"199.029"	"32.089"	"16.168"	"21.888"
"1980"	"41.004"	"24.034"	"48.979"	"1.423"	"60.153"	"312.511"	"307.7"	"321.71"	"93.005"	"55.575"	"1.254"	"0.819"
"1981"	"21.563"	"32.245"	"53.698"	"50.262"	"85.36"	"86.385"	"382.491"	"201.339"	"219.245"	"0.8"	"5.869"	"7.007"
"1982"	"17.015"	"23.459"	"60.759"	"54.802"	"47.321"	"124.335"	"182.569"	"404.521"	"237.07"	"11.091"	"11.73"	"1.605"
"1983"	"7.622"	"35.988"	"31.348"	"35.706"	"96.046"	"187.085"	"291.694"	"268.987"	"133.199"	"116.982"	"0.354"	"3.332"
"1984"	"42.97"	"23.969"	"1.793"	"42.401"	"26.487"	"531.752"	"310.707"	"352.256"	"214.462"	"57.265"	"0"	"0"
"1985"	"22.817"	"7.001"	"0.393"	"15.642"	"25.16"	"143.614"	"418.905"	"284.929"	"162.137"	"110.393"	"0.249"	"3.392"
"1986"	"18.963"	"29.341"	"1.669"	"27.65"	"53.265"	"184.271"	"358.233"	"270.399"	"412.339"	"38.504"	"30.436"	"5.293"
"1987"	"2.581"	"6.854"	"12.257"	"28.157"	"40.007"	"64.234"	"310.411"	"442.766"	"217.166"	"58.049"	"22.13"	"3.185"
"1988"	"7.378"	"33.755"	"36.231"	"14.035"	"57.003"	"158.324"	"266.834"	"319.216"	"159.629"	"63.995"	"19.788"	"1.07"
"1989"	"6.235"	"0.301"	"6.614"	"0.796"	"85.478"	"238.315"	"240.249"	"279.807"	"238.023"	"108.798"	"8.449"	"15.421"
"1990"	"0.085"	"36.348"	"32.75"	"14.351"	"122.293"	"319.551"	"631.444"	"239.831"	"264.789"	"124.442"	"7.529"	"0.592"
"1991"	"6.52"	"12.102"	"48.544"	"15.67"	"33.82"	"237.11"	"254.69"	"541.557"	"234.162"	"62.601"	"3.721"	"24.008"
"1992"	"22.496"	"7.54"	"0.654"	"8.287"	"26.432"	"171.232"	"273.758"	"152.273"	"142.927"	"69.94"	"0.378"	"0"
"1993"	"5.213"	"0.554"	"34.598"	"34.052"	"54.456"	"235.975"	"251.63"	"290.71"	"333.721"	"109.927"	"6.839"	"0"
"1994"	"33.357"	"39.01"	"27.023"	"38.083"	"40.426"	"276.743"	"312.1"	"357.008"	"82.687"	"152.727"	"1.615"	"0"
"1995"	"18.344"	"25.578"	"25.443"	"7.608"	"47.185"	"67.948"	"268.648"	"248.579"	"360.254"	"61.058"	"15.551"	"0"
"1996"	"15.572"	"18.963"	"4.245"	"17.922"	"17.105"	"291.891"	"212.593"	"437.748"	"137.993"	"156.515"	"0"	"0"
"1997"	"34.196"	"11.134"	"17.6"	"31.321"	"101.994"	"41.481"	"330.431"	"404.72"	"204.976"	"42.626"	"21.177"	"14.289"
"1998"	"27.871"	"56.349"	"16.302"	"26.005"	"94.245"	"115.562"	"204.552"	"238.657"	"217.774"	"238.368"	"30.331"	"0"
"1999"	"13.126"	"8.075"	"0.326"	"0.305"	"77.906"	"168.559"	"282.622"	"385.469"	"338.627"	"46.827"	"8.687"	"0"
"2000"	"7.302"	"45.483"	"0.969"	"40.446"	"57.437"	"196.422"	"149.885"	"191.084"	"225.425"	"18.642"	"4.985"	"0.912"
"2001"	"1.201"	"4.154"	"49.724"	"23.005"	"51.728"	"140.376"	"199.035"	"281.982"	"80.402"	"116.214"	"6.818"	"0"
"2002"	"32.462"	"14.601"	"7.255"	"31.254"	"27.828"	"138.205"	"224.54"	"356.003"	"211.639"	"95.13"	"15.538"	"0"
