
"Year"	"Jan"	"Feb"	"Mar"	"Apr"	"May"	"Jun"	"Jul"	"Aug"	"Sep"	"Oct"	"Nov"	"Dec"
"1901"	"0"	"0"	"0.006"	"0.048"	"4.768"	"30.797"	"116.531"	"95.61"	"36.593"	"3.63"	"0.306"	"0.173"
"1902"	"0"	"0"	"0"	"0.229"	"0.066"	"11.796"	"143.097"	"217.2"	"241.173"	"8.499"	"0.306"	"1.712"
"1903"	"0.091"	"0"	"3.093"	"0"	"3.688"	"7.826"	"399.645"	"181.706"	"111.227"	"0.723"	"0.306"	"0"
"1904"	"0.151"	"17.99"	"37.575"	"0"	"0.029"	"23.976"	"278.144"	"2.45"	"14.561"	"0.834"	"0.66"	"0"
"1905"	"0.034"	"2.435"	"1.772"	"0.554"	"0.029"	"14.72"	"371.913"	"33.542"	"10.951"	"0.327"	"0.306"	"0"
"1906"	"1.247"	"24.689"	"3.616"	"0"	"0.029"	"142.761"	"268.227"	"226.813"	"62.572"	"41.816"	"0.306"	"0"
"1907"	"0.011"	"8.924"	"0"	"3.638"	"0.029"	"51.884"	"270.674"	"253.068"	"2.551"	"0.281"	"0.306"	"0"
"1908"	"4.205"	"0"	"0"	"0"	"0.029"	"75.212"	"344.323"	"232.332"	"27.99"	"1.391"	"0.306"	"0"
"1909"	"0"	"7.594"	"0"	"1.906"	"0.209"	"164.203"	"331.866"	"75.709"	"207.632"	"4.745"	"0.306"	"17.953"
"1910"	"0.093"	"0"	"0"	"0.631"	"0.029"	"331.344"	"203.344"	"371.78"	"47.301"	"1.047"	"0.306"	"0"
"1911"	"0.846"	"0"	"33.281"	"0"	"1.246"	"100.54"	"15.073"	"33.423"	"45.015"	"0.281"	"0.651"	"1.397"
"1912"	"0"	"0"	"0.303"	"1.202"	"0.029"	"253.145"	"443.556"	"177.055"	"42.747"	"7.705"	"6.395"	"0"
"1913"	"0"	"0"	"0"	"0"	"0.029"	"264.466"	"319.757"	"106.604"	"63.587"	"0.958"	"0.306"	"0"
"1914"	"0"	"3.594"	"0.303"	"0"	"5.573"	"234.896"	"209.413"	"79.753"	"265.587"	"3.58"	"5.511"	"0"
"1915"	"2.703"	"0"	"4.064"	"1.324"	"4.736"	"71.807"	"144.243"	"16.987"	"56.977"	"79.052"	"0.306"	"0"
"1916"	"0"	"0"	"0"	"0"	"0.029"	"86.498"	"216.452"	"262.836"	"129.286"	"88.448"	"0.306"	"0"
"1917"	"0.068"	"9.575"	"0"	"1.024"	"34.782"	"196.464"	"247.801"	"289.985"	"146.837"	"253.542"	"0.306"	"0.166"
"1918"	"0"	"0"	"0.224"	"0"	"7.119"	"11.372"	"83.778"	"44.94"	"27.051"	"0.363"	"0.306"	"0"
"1919"	"0.432"	"0"	"0"	"0.016"	"1.185"	"46.006"	"314.584"	"238.653"	"37.385"	"0.282"	"60.245"	"0"
"1920"	"1.084"	"7.044"	"0.35"	"0"	"21.218"	"375.085"	"235.336"	"44.336"	"34.097"	"0.281"	"0.306"	"0"
"1921"	"0"	"0"	"0"	"0"	"0.029"	"61.494"	"470.836"	"88.538"	"214.047"	"2.988"	"0.306"	"0"
"1922"	"0"	"0"	"0"	"0.268"	"0.029"	"19.834"	"186.369"	"54.799"	"151.051"	"46.158"	"0.306"	"5.183"
"1923"	"0"	"20.771"	"0"	"4.416"	"0.029"	"1.421"	"90.265"	"92.782"	"47.355"	"7.061"	"0.306"	"0"
"1924"	"0"	"0.014"	"0"	"0"	"1.598"	"175.803"	"166.703"	"141.311"	"93.956"	"0.906"	"0.306"	"0.083"
"1925"	"0"	"0"	"0"	"0"	"24.529"	"347.219"	"64.284"	"28.1"	"18.378"	"0.314"	"24.185"	"0"
"1926"	"0.697"	"0"	"0"	"3.338"	"21.463"	"92.563"	"264.67"	"288.162"	"283.327"	"0.487"	"0.306"	"0"
"1927"	"0"	"4.773"	"0"	"0"	"1.045"	"144.709"	"584.759"	"65.459"	"69.389"	"30.874"	"0.653"	"13.249"
"1928"	"0"	"0"	"0"	"2.869"	"0.029"	"11.559"	"291.102"	"160.543"	"175.175"	"38.991"	"5.703"	"0"
"1929"	"1.853"	"0"	"0"	"2.5"	"0.364"	"121.144"	"335.468"	"57.981"	"17.476"	"22.949"	"0.306"	"6.882"
"1930"	"1.221"	"0.142"	"0"	"0"	"0.577"	"176.245"	"364.947"	"68.822"	"45.341"	"17.575"	"0.306"	"0.529"
"1931"	"0"	"0.488"	"0"	"0"	"15.833"	"33.106"	"171.521"	"172.936"	"33.843"	"63.905"	"3.267"	"0"
"1932"	"0"	"0"	"0"	"0"	"1.559"	"32.222"	"444.506"	"43.735"	"18.484"	"43.687"	"0.306"	"0"
"1933"	"0"	"11.753"	"0.057"	"0"	"38.412"	"121.228"	"216.221"	"249.877"	"159.471"	"4.387"	"0.306"	"2.494"
"1934"	"0"	"0"	"0.561"	"0.538"	"0.029"	"179.278"	"130.195"	"121.377"	"42.901"	"3.999"	"0.306"	"0"
"1935"	"4.51"	"0"	"0"	"0.341"	"0.029"	"158.29"	"431.454"	"115.506"	"39.222"	"2.352"	"0.306"	"0"
"1936"	"0"	"0.152"	"0"	"0"	"0.577"	"168.752"	"123.263"	"19.229"	"148.42"	"0.281"	"54.099"	"0.094"
"1937"	"0"	"2.815"	"0"	"0"	"0.029"	"207.733"	"343.256"	"7.37"	"166.635"	"21.908"	"0.306"	"3.292"
"1938"	"0"	"0"	"0"	"0"	"18.184"	"209.667"	"172.462"	"56.068"	"7.407"	"19.948"	"0.306"	"1.232"
"1939"	"0"	"0.538"	"16.372"	"0"	"0.029"	"27.315"	"95.487"	"94.162"	"7.505"	"12.783"	"2.621"	"0"
"1940"	"2.19"	"0.106"	"7.933"	"0.284"	"0.044"	"188.182"	"119.993"	"123.353"	"28.485"	"0.376"	"72.626"	"0"
"1941"	"0"	"0.628"	"0"	"0"	"0.668"	"17.552"	"506.889"	"20.488"	"8.377"	"8.307"	"0.306"	"3.845"
"1942"	"0"	"6.427"	"0"	"0"	"3.026"	"8.492"	"211.521"	"235.263"	"53.785"	"0.281"	"0.306"	"0"
"1943"	"0"	"0"	"0"	"0.332"	"6.514"	"161.851"	"507.599"	"11.123"	"121.683"	"8.677"	"3.208"	"0"
"1944"	"0"	"0"	"2.552"	"0"	"8.748"	"160.999"	"396.335"	"210.301"	"14.504"	"0.281"	"0.306"	"0"
"1945"	"2.237"	"0"	"0.821"	"1.202"	"0.029"	"308.597"	"411.052"	"140.325"	"160.211"	"2.346"	"0.306"	"0"
"1946"	"0"	"0.052"	"0"	"0"	"0.058"	"317.756"	"196.586"	"169.962"	"30.639"	"0.281"	"29.059"	"2.114"
"1947"	"0"	"0"	"0"	"0.696"	"0.029"	"1.421"	"105.341"	"210.148"	"201.679"	"0.281"	"1.746"	"0"
"1948"	"2.354"	"0"	"0"	"0"	"0.029"	"42.189"	"32.882"	"105.05"	"66.564"	"88.877"	"13.929"	"0"
"1949"	"0"	"0"	"0"	"0"	"0.029"	"26.156"	"270.911"	"227.562"	"66.563"	"8.897"	"0.306"	"0"
"1950"	"0"	"0"	"0"	"0"	"0.029"	"6.178"	"605.61"	"25.12"	"47.574"	"0.281"	"0.306"	"0"
"1951"	"0"	"0"	"2.653"	"0.368"	"1.819"	"146.437"	"152.268"	"152.835"	"5.829"	"3.424"	"1.17"	"0"
"1952"	"0"	"0"	"0"	"0"	"0.113"	"94.441"	"377.821"	"27.848"	"16.877"	"6.707"	"0.558"	"0"
"1953"	"2.077"	"0"	"0"	"0"	"0.029"	"155.272"	"227.904"	"487.027"	"120.432"	"0.281"	"0.306"	"0"
"1954"	"0.251"	"0.752"	"8.191"	"0"	"0.029"	"86.464"	"255.968"	"236.143"	"175.353"	"0.281"	"0.323"	"0.951"
"1955"	"0"	"0"	"0.135"	"0"	"0.11"	"40.122"	"32.563"	"195.416"	"208.981"	"29.955"	"0.306"	"0"
"1956"	"0.131"	"0"	"0"	"3.654"	"1.197"	"124.321"	"514.272"	"277.699"	"166.305"	"117.862"	"1.762"	"0.088"
"1957"	"2.633"	"0"	"0"	"1.991"	"3.138"	"153.603"	"263.237"	"139.723"	"16.619"	"13.566"	"42.998"	"1.011"
"1958"	"0.599"	"0"	"0"	"3.324"	"0.029"	"54.905"	"267.338"	"188.421"	"298.03"	"69.66"	"22.209"	"0.303"
"1959"	"0.016"	"0"	"0"	"3.303"	"9.503"	"110.764"	"728.083"	"117.045"	"223.309"	"198.392"	"0.371"	"0"
"1960"	"0"	"0"	"8.549"	"0"	"11.528"	"227.072"	"198.176"	"44.235"	"59.817"	"0.281"	"0.306"	"0.012"
"1961"	"0.124"	"7.08"	"0"	"0"	"0.174"	"92.383"	"396.207"	"105.541"	"160.005"	"31.923"	"0.306"	"0"
"1962"	"0"	"0"	"6.115"	"0"	"0.45"	"10.503"	"235.836"	"138.422"	"101.95"	"0.281"	"60.714"	"0.094"
"1963"	"0"	"0"	"2.106"	"0"	"0.307"	"31.88"	"179.93"	"195.327"	"79.821"	"39.383"	"56.739"	"0"
"1964"	"0.016"	"0"	"0"	"0"	"4.047"	"187.979"	"267.631"	"251.01"	"141.291"	"0.281"	"0.306"	"0"
"1965"	"4.607"	"0"	"0"	"0.286"	"0.595"	"1.421"	"332.962"	"166.667"	"105.689"	"0.652"	"7.054"	"0"
"1966"	"0.066"	"0"	"0"	"0"	"0.029"	"111.263"	"209.619"	"10.823"	"88.286"	"0.486"	"0.306"	"0"
"1967"	"0"	"0"	"35.961"	"0.076"	"0.029"	"121.987"	"344.62"	"48.479"	"30.619"	"0.892"	"0.306"	"17.693"
"1968"	"0.472"	"0.494"	"0.057"	"0"	"0.029"	"11.97"	"174.714"	"277.29"	"58.149"	"16.935"	"0.306"	"0"
"1969"	"0"	"0.729"	"0"	"0"	"0.029"	"62.522"	"246.3"	"44.182"	"10.937"	"0.281"	"14.696"	"0.045"
"1970"	"0.008"	"0"	"0"	"0.01"	"6.179"	"192.385"	"160.475"	"457.323"	"216.633"	"55.892"	"0.306"	"0"
"1971"	"0"	"0"	"0"	"0"	"2.196"	"169.928"	"264.455"	"124.835"	"95.669"	"1.3"	"0.306"	"0"
"1972"	"0"	"7.815"	"0"	"0"	"0.932"	"112.291"	"201.833"	"58.772"	"1.53"	"0.281"	"0.306"	"0"
"1973"	"0.417"	"0.127"	"0"	"0"	"1.587"	"111.858"	"233.644"	"101.475"	"76.931"	"2.423"	"0.306"	"0"
"1974"	"0"	"0"	"0"	"0.062"	"9.781"	"31.641"	"67.728"	"58.487"	"51.733"	"43.819"	"0.306"	"0.074"
"1975"	"0.032"	"0"	"0"	"0"	"1.286"	"156.915"	"100.802"	"177.997"	"124.55"	"160.183"	"0.306"	"0"
"1976"	"0.151"	"0.016"	"0.285"	"0"	"0.029"	"93.124"	"162.8"	"212.808"	"103.933"	"3.043"	"76.797"	"0"
"1977"	"1.28"	"0"	"0"	"0.175"	"5.648"	"184.785"	"407.233"	"159.169"	"132.766"	"2.205"	"9.119"	"0"
"1978"	"0"	"0.142"	"0"	"1.768"	"0.029"	"393.947"	"150.436"	"172.033"	"13.234"	"14.65"	"16.821"	"0.274"
"1979"	"0"	"3.745"	"0"	"0.015"	"0.04"	"285.256"	"48.58"	"463.611"	"48.693"	"28.367"	"156.212"	"0"
"1980"	"0.644"	"0.589"	"0"	"0.153"	"0.04"	"518.105"	"407.232"	"107.382"	"22.215"	"2.416"	"3.398"	"6.111"
"1981"	"0.344"	"0"	"1.682"	"0.015"	"0.168"	"66.216"	"332.018"	"234.144"	"120.565"	"37.226"	"104.011"	"0"
"1982"	"0"	"0"	"0.026"	"0.016"	"40.893"	"8.234"	"217.268"	"148.463"	"46.14"	"3.122"	"110.511"	"0"
"1983"	"0.031"	"1.042"	"0"	"1.12"	"0.029"	"289.826"	"306.381"	"206.854"	"70.271"	"22.049"	"0.306"	"0"
"1984"	"0"	"0"	"0"	"0"	"0.029"	"66.23"	"109.451"	"180.868"	"192.328"	"0.281"	"0.306"	"0"
"1985"	"0"	"0"	"0"	"0.033"	"26.265"	"15.055"	"104.992"	"216.757"	"47.444"	"76.864"	"0.306"	"0"
"1986"	"0"	"0.008"	"0.643"	"0"	"1.342"	"352.903"	"23.289"	"85.12"	"5.8"	"0.281"	"0.306"	"0.994"
"1987"	"0"	"0.961"	"0"	"0"	"0.588"	"20.868"	"22.843"	"69.475"	"2.859"	"0.281"	"0.306"	"3.453"
"1988"	"0"	"0"	"0"	"0.77"	"0.029"	"27.772"	"485.122"	"112.444"	"145.841"	"1.099"	"0.306"	"0"
"1989"	"1.981"	"0"	"0"	"0"	"0.029"	"223.468"	"269.518"	"109.697"	"16.413"	"0.281"	"0.306"	"0"
"1990"	"0"	"3.348"	"0"	"0"	"23.078"	"40.32"	"73.104"	"341.542"	"88.318"	"15.129"	"0.306"	"5.178"
"1991"	"0"	"0.654"	"0"	"0"	"0.029"	"11.078"	"250.249"	"66.453"	"4.807"	"0.732"	"0.306"	"4.936"
"1992"	"0.575"	"0.108"	"0"	"0"	"0.029"	"24.581"	"484.563"	"119.055"	"155.688"	"14.564"	"2.741"	"0"
"1993"	"0.104"	"7.554"	"0"	"0"	"1.882"	"23.523"	"290.418"	"18.385"	"51.167"	"32.858"	"35.184"	"0"
"1994"	"1.692"	"0"	"1.887"	"0"	"0.029"	"69.679"	"273.027"	"137.98"	"364.354"	"0.281"	"0.306"	"0"
"1995"	"0.141"	"0"	"0.02"	"0.066"	"0.029"	"6.511"	"247.213"	"32.91"	"31.903"	"4.319"	"9.542"	"0.714"
"1996"	"0.099"	"0"	"0"	"0"	"0.561"	"175.663"	"386.799"	"77.264"	"32.901"	"58.617"	"0.306"	"0"
"1997"	"1.277"	"0"	"2.237"	"0.632"	"2.422"	"196.784"	"322.188"	"154.88"	"284.261"	"4.335"	"2.741"	"0"
"1998"	"0"	"2.368"	"6.274"	"0"	"0.029"	"219.84"	"563.975"	"169.534"	"70.4"	"246.349"	"0.306"	"0"
"1999"	"0"	"1.465"	"0"	"0"	"5.702"	"242.032"	"144.828"	"30.228"	"28.275"	"126.591"	"0.306"	"0"
"2000"	"0"	"0"	"0"	"0"	"9.544"	"33.127"	"480.439"	"133.803"	"2.185"	"6.228"	"0.306"	"0"
"2001"	"0"	"0"	"0"	"0"	"42.175"	"301.024"	"366.807"	"81.432"	"4.813"	"47.855"	"0.366"	"0"
"2002"	"0"	"0"	"0"	"0"	"0.029"	"150.58"	"28.09"	"163.255"	"16.345"	"0.281"	"0.371"	"2.941"
