
"Year"	"Jan"	"Feb"	"Mar"	"Apr"	"May"	"Jun"	"Jul"	"Aug"	"Sep"	"Oct"	"Nov"	"Dec"
"1901"	"12.467"	"15.595"	"22.359"	"28.622"	"32.374"	"35.39"	"31.846"	"29.65"	"29.424"	"27.607"	"21.456"	"15.804"
"1902"	"16.111"	"18.552"	"24.022"	"28.803"	"32.776"	"33.269"	"30.111"	"29.993"	"28.996"	"25.25"	"20.359"	"15.432"
"1903"	"14.434"	"15.887"	"20.792"	"28.027"	"32.538"	"34.65"	"32.214"	"29.629"	"29.817"	"25.631"	"20.438"	"15.69"
"1904"	"14.581"	"18.221"	"22.072"	"29.92"	"31.524"	"33.452"	"29.707"	"28.869"	"28.598"	"25.928"	"19.474"	"15.008"
"1905"	"11.864"	"12.659"	"18.325"	"25.854"	"32.647"	"34.513"	"30.778"	"29.952"	"29.766"	"26.52"	"21.292"	"15.206"
"1906"	"13.342"	"14.301"	"20.37"	"29.012"	"34.32"	"32.921"	"30.662"	"29.416"	"28.887"	"26.144"	"21.92"	"16.469"
"1907"	"16.692"	"14.275"	"18.414"	"26.338"	"30.907"	"33.979"	"32.128"	"29.435"	"30.22"	"27.283"	"20.863"	"15.142"
"1908"	"14.66"	"17.464"	"22.615"	"30.758"	"32.625"	"34.821"	"29.802"	"28.802"	"29.2"	"26.088"	"19.962"	"14.851"
"1909"	"13.795"	"16.05"	"23.619"	"26.957"	"32.25"	"32.012"	"29.961"	"29.763"	"29.638"	"27.066"	"20.752"	"15.713"
"1910"	"14.99"	"16.763"	"22.854"	"28.685"	"32.617"	"32.737"	"30.013"	"29.618"	"29.193"	"25.077"	"19.663"	"14.897"
"1911"	"15.052"	"17.66"	"19.879"	"28.644"	"34.202"	"33.414"	"31.961"	"30.103"	"28.634"	"26.024"	"18.665"	"14.895"
"1912"	"14.464"	"17.768"	"21.872"	"28.159"	"32.439"	"34.257"	"30.847"	"29.439"	"28.284"	"26.03"	"18.863"	"14.89"
"1913"	"14.858"	"15.619"	"19.888"	"29.488"	"30.883"	"31.708"	"30.598"	"30.731"	"30.6"	"26.517"	"19.381"	"13.936"
"1914"	"16.324"	"15.995"	"21.118"	"28.453"	"32.204"	"33.081"	"30.415"	"29.733"	"29.201"	"24.599"	"20.506"	"14.753"
"1915"	"14.99"	"15.56"	"21.553"	"28.554"	"33.941"	"33.517"	"31.693"	"30.197"	"29.949"	"27.416"	"21.158"	"15.758"
"1916"	"15.152"	"16.478"	"25.698"	"30.194"	"33.339"	"32.33"	"30.097"	"29.518"	"28.914"	"25.707"	"20.106"	"14.306"
"1917"	"14.659"	"16.619"	"21.157"	"25.333"	"28.376"	"32.301"	"29.968"	"29.403"	"28.075"	"24.973"	"19.797"	"14.987"
"1918"	"13.842"	"17.749"	"22.366"	"27.023"	"33.736"	"32.54"	"32.277"	"30.597"	"30.021"	"26.441"	"19.97"	"13.702"
"1919"	"13.4"	"15.807"	"22.201"	"27"	"31.309"	"34.001"	"29.899"	"29.406"	"28.922"	"25.733"	"19.959"	"14.389"
"1920"	"15.714"	"15.567"	"21.037"	"28.644"	"29.576"	"32.411"	"29.901"	"29.932"	"29.966"	"26.745"	"21.295"	"16.843"
"1921"	"14.378"	"17.97"	"25.506"	"31.002"	"35.605"	"33.285"	"31.194"	"28.845"	"27.935"	"24.908"	"20.076"	"16.102"
"1922"	"13.195"	"18.169"	"24.207"	"29.188"	"33.846"	"32.704"	"30.332"	"28.649"	"28.292"	"25.131"	"19.961"	"13.641"
"1923"	"14.895"	"15.467"	"23.068"	"30.113"	"32.657"	"35.618"	"30.64"	"29.209"	"28.771"	"24.992"	"20.162"	"15.058"
"1924"	"13.34"	"16.76"	"23.953"	"29.73"	"30.217"	"35.78"	"30.357"	"29.173"	"28.178"	"25.684"	"19.862"	"15.476"
"1925"	"12.426"	"16.21"	"22.654"	"30.291"	"32.212"	"30.784"	"29.283"	"29.811"	"29.249"	"25.835"	"19.058"	"15.357"
"1926"	"14.178"	"18.065"	"20.148"	"25.355"	"30.554"	"35.289"	"30.922"	"29.328"	"28.725"	"25.284"	"18.049"	"14.952"
"1927"	"13.226"	"14.786"	"21.289"	"28.123"	"31.297"	"33.606"	"30.261"	"28.805"	"29.1"	"25.716"	"19.491"	"16.268"
"1928"	"13.827"	"17.265"	"22.658"	"28.054"	"33.894"	"33.127"	"30.658"	"30.753"	"30.486"	"26.993"	"20.64"	"14.96"
"1929"	"13.95"	"16.112"	"24.028"	"29.277"	"33.788"	"33.124"	"30.321"	"28.917"	"29.538"	"25.623"	"20.754"	"13.845"
"1930"	"13.156"	"16.472"	"23.767"	"28.717"	"32.507"	"32.805"	"29.578"	"29.432"	"29.657"	"25.635"	"19.854"	"15.557"
"1931"	"15.901"	"14.881"	"22.054"	"30.432"	"32.773"	"34.787"	"30.717"	"30.269"	"28.587"	"25.4"	"20.012"	"15.721"
"1932"	"16.393"	"15.763"	"23.023"	"28.581"	"31.954"	"34.928"	"31.154"	"29.269"	"29.065"	"25.907"	"20.862"	"15.045"
"1933"	"12.828"	"16.893"	"22.943"	"26.782"	"29.458"	"32.49"	"29.762"	"29.111"	"28.522"	"25.286"	"20.57"	"15.79"
"1934"	"13.003"	"18.4"	"21.482"	"29.145"	"32.364"	"32.389"	"30.008"	"28.577"	"29.435"	"25.158"	"20.06"	"14.426"
"1935"	"11.96"	"16.898"	"22.369"	"25.455"	"33.604"	"34.806"	"30.034"	"28.916"	"28.854"	"25.333"	"20.093"	"14.005"
"1936"	"12.954"	"15.669"	"22.24"	"27.892"	"33.079"	"30.495"	"29.299"	"28.712"	"28.38"	"24.831"	"20.215"	"14.852"
"1937"	"13.364"	"16.091"	"21.084"	"26.146"	"31.911"	"33.492"	"30.443"	"29.906"	"29.213"	"25.096"	"19.349"	"14.367"
"1938"	"13.139"	"14.991"	"23.686"	"29.863"	"33.268"	"31.648"	"30.015"	"29.491"	"29.748"	"26.261"	"18.568"	"15.933"
"1939"	"14.813"	"16.012"	"19.582"	"27.657"	"34.123"	"31.97"	"30.085"	"30.097"	"28.971"	"25.958"	"20.263"	"15.858"
"1940"	"14.337"	"15.82"	"19.655"	"27.477"	"32.932"	"33.845"	"30.812"	"29.278"	"28.503"	"26.169"	"21.015"	"14.017"
"1941"	"13.118"	"17.673"	"24.704"	"31.5"	"33.439"	"32.657"	"31.95"	"30.303"	"29.603"	"27.23"	"20.591"	"16.942"
"1942"	"13.311"	"18.06"	"24.397"	"29.703"	"33.187"	"34.736"	"30.038"	"28.871"	"28.347"	"25.999"	"21.331"	"14.426"
"1943"	"13.823"	"17.64"	"23.27"	"26.692"	"33.239"	"33.105"	"30.312"	"28.779"	"29.599"	"26.073"	"21.994"	"16.152"
"1944"	"12.929"	"15.699"	"21.171"	"27.284"	"34.599"	"32.621"	"30.245"	"29.887"	"29.265"	"25.962"	"20.922"	"17.025"
"1945"	"12.049"	"16.034"	"22.976"	"27.2"	"32.925"	"34.43"	"30.49"	"29.822"	"28.687"	"25.015"	"20.753"	"14.34"
"1946"	"16.372"	"19.029"	"22.337"	"28.971"	"31.444"	"33.105"	"30.248"	"30.076"	"29.761"	"25.633"	"20.582"	"15.751"
"1947"	"13.062"	"17.899"	"23.074"	"30.272"	"33.368"	"34.78"	"30.604"	"29.949"	"29.07"	"24.83"	"21.078"	"15.766"
"1948"	"14.635"	"16.266"	"21.17"	"30.449"	"33.995"	"35.278"	"30.601"	"29.142"	"28.919"	"25.575"	"19.649"	"14.87"
"1949"	"16.34"	"16.869"	"23.069"	"29.592"	"32.55"	"34.409"	"30.25"	"29.519"	"29.264"	"26.482"	"19.829"	"13.802"
"1950"	"15.171"	"15.889"	"20.919"	"28.339"	"33.011"	"33.355"	"30.045"	"29.304"	"28.566"	"25.754"	"20.308"	"14.515"
"1951"	"12.979"	"17.375"	"22.304"	"26.648"	"32.78"	"33.521"	"31.68"	"30.028"	"29.038"	"28.147"	"21.365"	"15.973"
"1952"	"15.914"	"18.98"	"21.342"	"29.882"	"33.083"	"32.25"	"30.354"	"29.104"	"29.934"	"26.712"	"20.672"	"15.997"
"1953"	"12.622"	"19.2"	"25.65"	"29.946"	"33.585"	"34.567"	"30.492"	"29.599"	"29.501"	"26.143"	"20.678"	"16.939"
"1954"	"12.879"	"17.671"	"23.633"	"30.254"	"34.679"	"34.023"	"30.613"	"29.885"	"29.166"	"24.274"	"20.648"	"14.286"
"1955"	"13.675"	"18.078"	"24.616"	"27.24"	"32.093"	"34.05"	"30.576"	"29.091"	"28.96"	"24.69"	"20.331"	"14.822"
"1956"	"14.242"	"18.268"	"22.784"	"30.152"	"33.822"	"32.886"	"29.414"	"29.405"	"29.552"	"24.89"	"20.047"	"14.61"
"1957"	"13.335"	"16.598"	"21.079"	"27.916"	"32.142"	"32.812"	"30.539"	"30.115"	"28.656"	"25.928"	"21.628"	"15.959"
"1958"	"15.826"	"17.546"	"23.607"	"30.757"	"33.358"	"34.351"	"30.24"	"29.396"	"29.287"	"26.091"	"21.397"	"16.474"
"1959"	"14.981"	"16.828"	"23.968"	"29.353"	"33.051"	"33.861"	"29.833"	"29.911"	"29.693"	"26.262"	"20.657"	"16.944"
"1960"	"13.837"	"21.112"	"22.046"	"28.426"	"33.648"	"34.337"	"30.482"	"29.685"	"29.615"	"25.493"	"20.145"	"17.589"
"1961"	"14.742"	"15.079"	"23.387"	"29.064"	"32.586"	"32.852"	"30.523"	"29.418"	"29.596"	"25.095"	"18.918"	"13.176"
"1962"	"13.704"	"17.279"	"22.657"	"29.22"	"32.714"	"34.191"	"31.285"	"29.769"	"28.568"	"25.343"	"21.08"	"15.814"
"1963"	"15.052"	"19.354"	"22.286"	"27.849"	"31.66"	"32.941"	"31.276"	"29.202"	"28.48"	"26.596"	"21.165"	"15.835"
"1964"	"13.647"	"17.441"	"24.952"	"29.858"	"30.877"	"34.129"	"29.371"	"29.982"	"28.439"	"26.823"	"20.12"	"15.896"
"1965"	"16.212"	"16.271"	"21.405"	"26.939"	"31.957"	"35.284"	"30.334"	"29.507"	"29.049"	"25.914"	"20.963"	"15.326"
"1966"	"15.7"	"19.536"	"23.368"	"29.73"	"33.245"	"33.098"	"31.415"	"29.53"	"29.142"	"26.37"	"20.79"	"15.691"
"1967"	"14.523"	"19.663"	"21.377"	"28.307"	"32.757"	"34.15"	"30.037"	"28.367"	"28.571"	"25.323"	"19.382"	"15.259"
"1968"	"12.992"	"15.558"	"22.305"	"28.425"	"32.572"	"32.789"	"29.475"	"29.263"	"29.834"	"25.533"	"20.345"	"15.85"
"1969"	"14.243"	"18.531"	"25.633"	"28.619"	"31.185"	"34.211"	"29.867"	"29.133"	"28.113"	"26.135"	"21.379"	"16.347"
"1970"	"14.46"	"16.657"	"21.999"	"30.527"	"32.844"	"31.521"	"30.651"	"29.549"	"29.154"	"26.139"	"20.267"	"16.545"
"1971"	"13.806"	"17.501"	"22.997"	"28.649"	"29.83"	"30.82"	"29.092"	"28.161"	"28.414"	"25.701"	"20.255"	"16.562"
"1972"	"15.797"	"15.38"	"24.061"	"27.677"	"34.216"	"34.201"	"30.841"	"28.78"	"27.863"	"24.964"	"20.706"	"16.189"
"1973"	"14.608"	"17.864"	"22.636"	"31.42"	"32.927"	"32.51"	"30.553"	"28.862"	"28.769"	"25.133"	"20.66"	"14.621"
"1974"	"13.989"	"16.797"	"24.668"	"30.754"	"32.458"	"32.654"	"29.816"	"29.231"	"29.079"	"27.053"	"20.151"	"14.094"
"1975"	"12.663"	"16.452"	"22.101"	"30.066"	"33.518"	"31.712"	"29.424"	"28.861"	"27.788"	"26.758"	"20.142"	"16.188"
"1976"	"15.369"	"17.387"	"22.156"	"27.946"	"31.623"	"31.535"	"30.088"	"28.08"	"28.542"	"26.408"	"22.21"	"16.308"
"1977"	"14.712"	"18.015"	"24.909"	"28.258"	"29.452"	"32.18"	"28.801"	"29.101"	"27.734"	"25.835"	"22.047"	"15.598"
"1978"	"14.016"	"16.241"	"19.92"	"28.273"	"34.643"	"32.552"	"29.217"	"28.707"	"28.058"	"26.229"	"20.48"	"16.547"
"1979"	"15.079"	"15.52"	"20.682"	"29.484"	"30.673"	"33.214"	"30.09"	"30.042"	"29.46"	"27.098"	"22.418"	"15.805"
"1980"	"14.725"	"18.293"	"21.651"	"30.603"	"34.367"	"31.88"	"29.129"	"29.279"	"28.745"	"26.046"	"20.956"	"16.568"
"1981"	"13.774"	"17.99"	"21.303"	"29"	"31.653"	"33.577"	"29.432"	"29.339"	"29.194"	"26.398"	"19.985"	"15.094"
"1982"	"15.227"	"16.175"	"19.219"	"27.554"	"29.916"	"32.921"	"31.431"	"29.232"	"29.027"	"26.209"	"20.799"	"16.666"
"1983"	"13.955"	"15.436"	"21.477"	"25.728"	"31.027"	"32.291"	"30.499"	"29.502"	"28.649"	"25.214"	"19.993"	"15.339"
"1984"	"13.23"	"15.68"	"24.711"	"28.967"	"34.708"	"33.006"	"29.536"	"29.321"	"28.363"	"26.008"	"19.91"	"16.101"
"1985"	"13.491"	"18.189"	"25.467"	"29.489"	"32.917"	"33.213"	"29.504"	"29.17"	"27.86"	"24.23"	"20.672"	"16.116"
"1986"	"14.842"	"17.037"	"21.726"	"28.266"	"30.099"	"32.707"	"29.346"	"29.564"	"28.737"	"25.131"	"21.125"	"14.402"
"1987"	"15.264"	"18.697"	"24.245"	"29.857"	"30.422"	"34.484"	"31.985"	"30.212"	"30.119"	"27.134"	"21.878"	"17.357"
"1988"	"17.3"	"19.359"	"23.52"	"30.724"	"34.117"	"32.553"	"29.615"	"29.172"	"29.212"	"27.182"	"20.886"	"16.016"
"1989"	"13.832"	"17.231"	"22.786"	"28.233"	"32.89"	"31.58"	"29.906"	"29.075"	"29.082"	"26.329"	"20.078"	"15.54"
"1990"	"18.102"	"16.599"	"20.216"	"28.252"	"31.207"	"33.55"	"29.356"	"29.342"	"28.35"	"25.288"	"21.074"	"15.837"
"1991"	"12.445"	"18.069"	"23.044"	"27.588"	"33.052"	"32.587"	"31.396"	"29.115"	"29.1"	"25.772"	"19.33"	"15.256"
"1992"	"14.693"	"15.882"	"22.664"	"28.996"	"31.296"	"32.805"	"30.054"	"28.631"	"27.99"	"25.134"	"20.333"	"15.868"
"1993"	"13.784"	"19.392"	"19.765"	"27.252"	"32.62"	"33.98"	"29.877"	"29.556"	"28.812"	"26.07"	"21.188"	"16.249"
"1994"	"16.678"	"17.07"	"24.107"	"27.333"	"33.275"	"34.094"	"30.114"	"29.417"	"28.691"	"25.7"	"20.654"	"16.194"
"1995"	"14.056"	"17.385"	"21.771"	"28.866"	"34.8"	"35.018"	"29.684"	"28.631"	"28.989"	"26.864"	"20.839"	"16.426"
"1996"	"14.293"	"17.492"	"23.31"	"28.977"	"32.84"	"32.165"	"29.768"	"27.377"	"28.679"	"26.063"	"20.061"	"14.696"
"1997"	"14.402"	"16.877"	"22.28"	"27.827"	"30.685"	"31.5"	"31.634"	"29.247"	"28.992"	"23.42"	"20.029"	"14.285"
"1998"	"10.378"	"17.756"	"20.966"	"28.979"	"33.511"	"34.142"	"30.105"	"29.236"	"29.569"	"26.263"	"22.367"	"17.976"
"1999"	"14.418"	"20.18"	"25.447"	"33.192"	"33.223"	"32.43"	"31.396"	"30.43"	"29.201"	"26.758"	"22.697"	"17.117"
"2000"	"15.793"	"16.697"	"22.016"	"30.957"	"32.865"	"31.621"	"30.034"	"29.926"	"29.72"	"27.538"	"22.986"	"17.519"
"2001"	"14.683"	"18.079"	"23.281"	"28.203"	"32.391"	"31.753"	"30.907"	"30.629"	"30.479"	"27.663"	"22.613"	"17.37"
"2002"	"15.515"	"17.803"	"23.98"	"30.119"	"34.451"	"33.602"	"32.701"	"30.226"	"27.766"	"26.907"	"21.272"	"16.215"
