
"Year"	"Jan"	"Feb"	"Mar"	"Apr"	"May"	"Jun"	"Jul"	"Aug"	"Sep"	"Oct"	"Nov"	"Dec"
"1901"	"2.789"	"14.324"	"2.827"	"69.729"	"32.262"	"76.575"	"198.355"	"105.666"	"82.649"	"64.19"	"13.76"	"0"
"1902"	"0"	"0.351"	"0"	"17.806"	"7.287"	"69.218"	"39.513"	"146.358"	"196.923"	"95.041"	"27.839"	"13.073"
"1903"	"3.74"	"0.49"	"0"	"6.635"	"35.044"	"44.231"	"324.464"	"263.102"	"217.986"	"273.025"	"47.609"	"17.51"
"1904"	"0.21"	"0.38"	"4.978"	"2.302"	"28.495"	"118.795"	"136.348"	"49.856"	"226.013"	"91.847"	"1.093"	"0"
"1905"	"0"	"6.571"	"2.918"	"15.343"	"54.833"	"80.038"	"73.351"	"227.782"	"127.881"	"82.465"	"0.201"	"0"
"1906"	"14.115"	"0.49"	"0.847"	"1.238"	"16.872"	"193.004"	"182.885"	"192.948"	"144.524"	"62.032"	"12.899"	"25.298"
"1907"	"1.09"	"0.681"	"5.164"	"71.311"	"2.148"	"125.976"	"113.203"	"205.943"	"91.34"	"1.051"	"6.918"	"16.537"
"1908"	"0.147"	"2.707"	"8.003"	"3.44"	"6.741"	"93.82"	"115.056"	"139.438"	"514.785"	"7.353"	"1.093"	"0"
"1909"	"2.021"	"0.888"	"0.856"	"43.214"	"6.843"	"141.049"	"226.579"	"137.645"	"176.702"	"9.809"	"1.573"	"0.389"
"1910"	"0.158"	"0.49"	"1.009"	"3.421"	"43.585"	"171.926"	"147.213"	"133.335"	"241.664"	"92.505"	"38.116"	"0"
"1911"	"0"	"0.351"	"0.643"	"10.503"	"17.803"	"63.796"	"175.323"	"149.876"	"90.933"	"16.119"	"10.478"	"0.675"
"1912"	"0"	"17.528"	"0"	"33.303"	"16.158"	"35.817"	"241.705"	"181.161"	"99.711"	"32.969"	"33.465"	"0.018"
"1913"	"0"	"7.223"	"0"	"4.551"	"51.08"	"103.759"	"205.237"	"64.576"	"102.133"	"57.322"	"0.216"	"0"
"1914"	"0.158"	"0.351"	"0.44"	"5.274"	"44.07"	"175.994"	"297.98"	"222.818"	"312.336"	"9.447"	"3.294"	"18.371"
"1915"	"7.231"	"1.802"	"27.688"	"13.839"	"25.302"	"154.786"	"159.049"	"154.88"	"304.079"	"185.667"	"19.476"	"0.242"
"1916"	"0.228"	"2.592"	"0"	"27.98"	"26.845"	"128.924"	"343.671"	"94.138"	"345.609"	"265.399"	"75.202"	"0"
"1917"	"0.158"	"18.53"	"8.724"	"26.425"	"67.623"	"115.135"	"174.128"	"221.015"	"268.92"	"113.73"	"16.604"	"0"
"1918"	"4.895"	"0.661"	"9.782"	"7.168"	"99.903"	"28.463"	"103.468"	"104.222"	"245.869"	"4.574"	"26.664"	"29.782"
"1919"	"4.686"	"0.518"	"1.358"	"14.937"	"41.549"	"173.375"	"120.161"	"80.628"	"205.79"	"67.388"	"46.588"	"20.61"
"1920"	"6.332"	"0.351"	"0"	"22.042"	"46.351"	"89.786"	"133.474"	"90.356"	"108.553"	"31.135"	"1.161"	"0"
"1921"	"0.255"	"0"	"0.862"	"19.146"	"2.498"	"120.05"	"215.029"	"81.788"	"99.552"	"74.859"	"53.207"	"0"
"1922"	"4.088"	"1.296"	"0"	"13.052"	"26.549"	"76.122"	"147.183"	"87.267"	"125.928"	"85.113"	"35.536"	"0"
"1923"	"0.164"	"5.123"	"4.646"	"10.721"	"15.303"	"22.853"	"235.754"	"59.983"	"212.12"	"21.878"	"0.201"	"0"
"1924"	"2.778"	"0"	"0.171"	"28.004"	"13.837"	"65.029"	"133.564"	"133.316"	"193.439"	"56.428"	"62.434"	"0"
"1925"	"0.158"	"0.351"	"0.85"	"6.694"	"83.927"	"48.939"	"122.907"	"167.435"	"105.657"	"212.01"	"11.534"	"9.069"
"1926"	"15.05"	"0.145"	"5.724"	"49.572"	"79.478"	"26.46"	"108.004"	"162.529"	"275.677"	"9.182"	"1.678"	"0"
"1927"	"0.158"	"1.125"	"3.672"	"2.971"	"27.369"	"174.206"	"173.572"	"115.115"	"149.977"	"49.754"	"71.913"	"0"
"1928"	"0.216"	"10.42"	"8.596"	"0.947"	"5.932"	"154.962"	"148.084"	"115.565"	"297.617"	"101.417"	"0.201"	"23.387"
"1929"	"0"	"14.562"	"0.354"	"18.699"	"13.376"	"114.233"	"65.309"	"80.799"	"168.227"	"44.908"	"1.159"	"0.795"
"1930"	"0"	"1.882"	"4.265"	"19.081"	"8.504"	"113.621"	"141.936"	"117.963"	"195.082"	"92.798"	"36.718"	"3.841"
"1931"	"0"	"0.351"	"3.497"	"5.237"	"43.51"	"112.845"	"272.932"	"74.19"	"309.009"	"51.537"	"48.187"	"0.406"
"1932"	"0"	"2.436"	"0"	"4.495"	"28.683"	"81.24"	"194.36"	"101.325"	"178.936"	"61.799"	"51.713"	"0"
"1933"	"0.363"	"6"	"9.066"	"20.54"	"81.995"	"195.342"	"169.557"	"155.734"	"145.574"	"140.449"	"42.946"	"34.79"
"1934"	"0.291"	"0.351"	"0.178"	"26.884"	"6.405"	"71.231"	"256.01"	"132.211"	"126.803"	"12.87"	"44.466"	"0"
"1935"	"12.379"	"1.701"	"1.623"	"34.39"	"5.148"	"116.033"	"184.151"	"170.719"	"175.789"	"119.256"	"0.399"	"0"
"1936"	"0"	"22.054"	"9.384"	"13.711"	"77.465"	"94.89"	"134.322"	"102.639"	"125.751"	"83.298"	"46.205"	"15.329"
"1937"	"0"	"10.625"	"26.705"	"40.132"	"10.972"	"58.172"	"139.312"	"69.391"	"158.782"	"67.976"	"0.201"	"5.115"
"1938"	"0"	"8.973"	"9.481"	"7.475"	"50.011"	"141.905"	"181.838"	"204.763"	"219.553"	"46.438"	"0.201"	"0.061"
"1939"	"0"	"0"	"8.069"	"5.753"	"2.862"	"40.951"	"124.931"	"123.73"	"131.692"	"114.796"	"18.283"	"0"
"1940"	"0"	"0"	"0"	"30.463"	"97.934"	"108.355"	"143.069"	"186.313"	"132.924"	"102.305"	"11.441"	"0.066"
"1941"	"8.872"	"3.298"	"1.18"	"7.578"	"18.891"	"75.598"	"45.882"	"117.893"	"183.862"	"14.84"	"0.8"	"5.189"
"1942"	"0"	"3.831"	"0.413"	"26.625"	"31.13"	"147.917"	"148.187"	"196.143"	"91.102"	"26.859"	"1.486"	"4.273"
"1943"	"2.65"	"0.079"	"2.678"	"19.906"	"37.014"	"188.168"	"128.885"	"72.967"	"346.763"	"96.331"	"15.15"	"0"
"1944"	"0"	"5.747"	"27.724"	"6.271"	"24.252"	"145.804"	"137.612"	"63.597"	"204.171"	"123.111"	"19.458"	"0"
"1945"	"0"	"0"	"0"	"14.571"	"6.403"	"97.372"	"287.733"	"146.765"	"150.648"	"117.495"	"5.456"	"0"
"1946"	"0"	"10.932"	"5.516"	"20.324"	"32.461"	"117.44"	"158.753"	"121.476"	"116.811"	"46.371"	"70.744"	"2.408"
"1947"	"0.521"	"13.473"	"0.829"	"2.976"	"12.391"	"101.91"	"186.783"	"294.457"	"258.199"	"52.613"	"0.694"	"27.748"
"1948"	"0"	"0"	"2.923"	"35.95"	"18.572"	"45.238"	"158.055"	"164.806"	"268.17"	"44.688"	"108.746"	"0"
"1949"	"0"	"2.858"	"0.058"	"10.918"	"38.454"	"122.718"	"214.218"	"173.431"	"390.48"	"69.487"	"6.201"	"0"
"1950"	"0"	"9.688"	"3.966"	"6"	"21.042"	"82.749"	"201.417"	"129.359"	"291.43"	"55.881"	"7.2"	"0"
"1951"	"0"	"0"	"8.428"	"32.221"	"47.194"	"91.682"	"258.858"	"109.732"	"128.586"	"102.046"	"1.882"	"0.006"
"1952"	"0"	"2.614"	"0"	"19.277"	"108.831"	"40.693"	"156.953"	"96.265"	"152.478"	"130.351"	"0.201"	"6.315"
"1953"	"1.064"	"0"	"0"	"25.094"	"0.467"	"123.103"	"181.997"	"122.228"	"251.37"	"207.998"	"0.201"	"0"
"1954"	"0"	"0"	"7.489"	"3.65"	"8.077"	"98.189"	"206.559"	"181.806"	"298.966"	"50.465"	"0.201"	"5.035"
"1955"	"0"	"0"	"7.822"	"5.605"	"47.848"	"191.184"	"253.649"	"351.122"	"224.673"	"94.699"	"6.446"	"0"
"1956"	"0"	"0"	"0"	"0.986"	"88.705"	"127.609"	"339.848"	"126.782"	"165.915"	"107.06"	"45.395"	"3.876"
"1957"	"0"	"0.951"	"13.902"	"53.447"	"41.411"	"131.052"	"138.68"	"281.63"	"92.921"	"97.748"	"0.207"	"0"
"1958"	"0.806"	"4.822"	"4.449"	"45.029"	"21.219"	"77.072"	"243.358"	"250.264"	"137.033"	"95.005"	"31.248"	"0"
"1959"	"0"	"0"	"0"	"14.969"	"38.56"	"152.122"	"218.368"	"248.116"	"155.008"	"84.359"	"5.674"	"1.096"
"1960"	"0"	"0"	"17.61"	"7.487"	"48.046"	"139.362"	"123.326"	"38.831"	"269.601"	"45.892"	"30.052"	"4.68"
"1961"	"1.191"	"2.705"	"2.615"	"18.75"	"64.736"	"126.223"	"266.189"	"149.525"	"64.318"	"210.625"	"6.364"	"0.378"
"1962"	"0"	"9.091"	"9.722"	"65.965"	"24.503"	"85.858"	"152.627"	"224.95"	"347.669"	"122.125"	"21.848"	"21.873"
"1963"	"0"	"0.195"	"8.812"	"39.976"	"36.061"	"149.176"	"133.173"	"274.881"	"91.984"	"138.129"	"0.201"	"0"
"1964"	"0.08"	"0.115"	"2.105"	"13.624"	"12.408"	"121.497"	"215.489"	"93.367"	"374.146"	"81.364"	"10.002"	"0"
"1965"	"0.275"	"0"	"1.562"	"5.106"	"14.901"	"132.238"	"323.583"	"94.63"	"187.269"	"1.002"	"0.21"	"3.047"
"1966"	"4.819"	"1.045"	"3.777"	"13.455"	"11.481"	"60.331"	"171.283"	"153.042"	"245.537"	"67.415"	"48.705"	"25.886"
"1967"	"0.503"	"0"	"11.614"	"5.739"	"5.338"	"127.482"	"294.711"	"110.487"	"193.685"	"12.428"	"0.521"	"9.104"
"1968"	"4.676"	"13.383"	"7.653"	"13.167"	"32.154"	"99.135"	"167.405"	"11.792"	"282.383"	"77.483"	"6.045"	"2.37"
"1969"	"1.02"	"0"	"1.521"	"18.447"	"62.232"	"79.325"	"188.371"	"105.454"	"223.266"	"38.774"	"40.844"	"7.298"
"1970"	"1.404"	"0"	"4.53"	"19.869"	"56.983"	"161.748"	"111.512"	"364.479"	"225.299"	"56.37"	"0.201"	"0"
"1971"	"0.682"	"2.768"	"2.623"	"19.181"	"103.07"	"99.114"	"53.19"	"178.28"	"127.254"	"112.78"	"0.201"	"0"
"1972"	"0"	"1.226"	"0.009"	"30.384"	"18.927"	"96.523"	"76.691"	"47.142"	"115.943"	"48.014"	"36.633"	"1.266"
"1973"	"0"	"0"	"0"	"10.994"	"18.04"	"118.331"	"84.46"	"190.55"	"88.086"	"192.22"	"19.363"	"6.454"
"1974"	"0"	"0"	"0.807"	"8.471"	"65.486"	"103.541"	"51.198"	"140.177"	"199.945"	"197.825"	"1.619"	"0"
"1975"	"10.516"	"5.514"	"17.95"	"8.482"	"39.699"	"67.176"	"169.979"	"209.278"	"351.632"	"307.231"	"18.004"	"0"
"1976"	"0"	"0"	"0.321"	"23.588"	"24.906"	"99.672"	"283.519"	"206.38"	"82.199"	"28.764"	"50.475"	"0"
"1977"	"0"	"0"	"6.146"	"15.945"	"44.197"	"99.07"	"135.382"	"160.848"	"33.56"	"101.817"	"47.225"	"2.485"
"1978"	"6.143"	"14.393"	"1.398"	"28.098"	"59.222"	"108.078"	"217.504"	"317.275"	"226.433"	"97.874"	"34.82"	"1.795"
"1979"	"0.58"	"12.621"	"1.275"	"9.452"	"131.204"	"89.124"	"102.582"	"85.581"	"280.456"	"27.666"	"54.574"	"0.338"
"1980"	"0.444"	"0"	"5.702"	"18.625"	"23.134"	"142.194"	"125.59"	"218.206"	"150.685"	"8.946"	"3.688"	"15.574"
"1981"	"6.406"	"0"	"15.181"	"23.56"	"24.087"	"137.151"	"145.791"	"190.853"	"298.132"	"116.491"	"16.935"	"0.046"
"1982"	"0.039"	"0"	"0.263"	"35.783"	"53.719"	"137.734"	"169.262"	"65.805"	"203.711"	"72.618"	"51.59"	"0"
"1983"	"0"	"0"	"2.196"	"3.736"	"25.137"	"83.751"	"186.996"	"302.786"	"279.571"	"157.452"	"4.742"	"18.44"
"1984"	"0.121"	"2.585"	"8.205"	"22.288"	"1.032"	"95.465"	"229.391"	"108.385"	"117.644"	"100.803"	"3.489"	"0.539"
"1985"	"0.879"	"0"	"13.362"	"4.462"	"4.269"	"121.584"	"163.608"	"60.972"	"41.548"	"105.536"	"3.334"	"6.586"
"1986"	"6.893"	"6.401"	"0"	"44.704"	"1.814"	"164.184"	"108.471"	"232.912"	"76.281"	"51.893"	"33.783"	"20.805"
"1987"	"4.284"	"0.355"	"19.607"	"8.808"	"33.206"	"87.019"	"156.13"	"187.011"	"86.242"	"135.215"	"34.848"	"7.081"
"1988"	"0"	"22.097"	"0.018"	"43.81"	"2.867"	"86.837"	"279.039"	"216.68"	"250.014"	"33.038"	"0.751"	"16.664"
"1989"	"0"	"0"	"19.294"	"4.937"	"3.412"	"129.069"	"397.783"	"109.429"	"170.476"	"97.755"	"3.823"	"3.912"
"1990"	"0.959"	"0.403"	"12.596"	"2.396"	"185.43"	"134.136"	"115.856"	"231.443"	"102.923"	"102.691"	"28.533"	"1.948"
"1991"	"0.802"	"0.019"	"0.047"	"18.177"	"21.816"	"188.398"	"140.328"	"216.39"	"178.353"	"52.248"	"22.229"	"0.043"
"1992"	"0.049"	"0"	"0"	"7.813"	"48.599"	"115.633"	"97.609"	"281.311"	"134.875"	"47.361"	"18.18"	"0.062"
"1993"	"0"	"0.037"	"1.348"	"13.779"	"17.765"	"94.7"	"182.921"	"189.24"	"122.393"	"174.319"	"0.992"	"9.771"
"1994"	"8.564"	"4.276"	"4.844"	"31.154"	"8.056"	"112.988"	"145.052"	"212.555"	"66.009"	"245.502"	"33.674"	"0.017"
"1995"	"9.055"	"0"	"19.26"	"4.029"	"79.208"	"131.206"	"214.599"	"177.155"	"180.172"	"317.007"	"26.599"	"0"
"1996"	"0.012"	"0.168"	"0.05"	"51.131"	"11.693"	"94.634"	"198.618"	"339.233"	"156.424"	"118.485"	"58.495"	"0.344"
"1997"	"3.731"	"0"	"6.011"	"52.974"	"18.049"	"44.465"	"186.288"	"191.097"	"86.774"	"100.912"	"41.862"	"24.181"
"1998"	"0.098"	"0.121"	"0.062"	"5.369"	"18.755"	"54.603"	"217.5"	"281.508"	"165.041"	"231.281"	"10.17"	"0.402"
"1999"	"0"	"0.85"	"0"	"8.296"	"92.959"	"52.773"	"159.25"	"130.823"	"125.773"	"59.946"	"0.55"	"0.013"
"2000"	"0"	"9.556"	"0"	"13.194"	"69.211"	"214.697"	"137.572"	"474.56"	"81.82"	"33.296"	"3.064"	"1.722"
"2001"	"8.013"	"0"	"25.384"	"13.906"	"3.249"	"207.803"	"53.586"	"226.295"	"102.833"	"144.375"	"4.001"	"0.204"
"2002"	"8.395"	"0.114"	"6.618"	"5.201"	"58.27"	"163.519"	"67.074"	"196.357"	"46.933"	"106.007"	"2.702"	"0.006"
