
"Year"	"Jan"	"Feb"	"Mar"	"Apr"	"May"	"Jun"	"Jul"	"Aug"	"Sep"	"Oct"	"Nov"	"Dec"
"1901"	"17.247"	"18.873"	"26.031"	"30.093"	"33.38"	"33.09"	"29.163"	"26.178"	"27.388"	"27.895"	"22.734"	"20.292"
"1902"	"19.896"	"21.773"	"27.742"	"31.249"	"33.124"	"32.109"	"28.997"	"27.888"	"26.57"	"26.107"	"21.451"	"18.471"
"1903"	"18.697"	"19.239"	"23.784"	"28.821"	"32.236"	"32.788"	"28.95"	"26.733"	"26.45"	"25.843"	"20.069"	"18.04"
"1904"	"18.797"	"20.24"	"24.294"	"30.982"	"33.01"	"30.664"	"27.14"	"26.485"	"27.105"	"26.577"	"21.87"	"19.455"
"1905"	"17.515"	"16.755"	"23.366"	"28.1"	"34.48"	"32.207"	"27.692"	"27.338"	"27.222"	"26.703"	"23.239"	"19.161"
"1906"	"17.045"	"18.653"	"24.627"	"30.074"	"33.906"	"30.577"	"27.405"	"26.93"	"25.819"	"25.657"	"22.677"	"19.346"
"1907"	"19.352"	"19.954"	"24.361"	"28.665"	"31.397"	"31.832"	"29.869"	"25.395"	"26.443"	"27.1"	"23.098"	"17.948"
"1908"	"18.039"	"19.965"	"23.971"	"30.831"	"32.487"	"31.44"	"26.451"	"25.832"	"26.388"	"25.962"	"21.96"	"18.196"
"1909"	"18.579"	"20.392"	"26.395"	"28.943"	"32.453"	"30.608"	"26.851"	"25.86"	"25.867"	"25.53"	"22.201"	"18.705"
"1910"	"18.383"	"20.595"	"25.422"	"29.312"	"32.393"	"29.691"	"26.737"	"26.531"	"26.469"	"24.656"	"20.261"	"19.096"
"1911"	"20.129"	"20.402"	"23.573"	"29.439"	"33.587"	"30.069"	"28.905"	"27.119"	"26.213"	"27.044"	"22.061"	"20.59"
"1912"	"19.64"	"22.195"	"25.023"	"30.534"	"33.438"	"32.917"	"28.102"	"26.132"	"26.182"	"26.169"	"21.099"	"18.705"
"1913"	"18.326"	"20.767"	"23.735"	"31.174"	"32.005"	"30.167"	"27.443"	"25.98"	"26.992"	"27.299"	"22.691"	"19.474"
"1914"	"20.46"	"20.515"	"24.614"	"30.112"	"33.811"	"30.515"	"27.403"	"26.733"	"27.275"	"26.57"	"23.64"	"18.924"
"1915"	"18.903"	"19.412"	"25.711"	"29.812"	"33.723"	"33.461"	"29.761"	"27.196"	"28.587"	"27.389"	"22.983"	"19.674"
"1916"	"19.319"	"19.744"	"27.334"	"31.232"	"33.339"	"29.346"	"28.738"	"26.49"	"27.246"	"25.512"	"20.662"	"18.491"
"1917"	"19.59"	"20.553"	"25.258"	"28.442"	"30.672"	"29.624"	"26.609"	"26.346"	"26.091"	"24.714"	"20.147"	"18.955"
"1918"	"17.165"	"21.293"	"25.241"	"28.557"	"33.356"	"30.419"	"29.019"	"27.038"	"26.894"	"27.05"	"23.67"	"18.612"
"1919"	"19.302"	"20.382"	"26.197"	"29.804"	"32.812"	"30.778"	"27.19"	"26.233"	"26.603"	"25.712"	"22.892"	"18.878"
"1920"	"19.148"	"20.133"	"26.071"	"29.699"	"30.128"	"30.499"	"26.74"	"26.139"	"27.825"	"27.338"	"23.19"	"19.758"
"1921"	"19.354"	"20.602"	"27.627"	"31.832"	"33.523"	"31.512"	"29.519"	"26.538"	"25.757"	"25.856"	"21.569"	"20.574"
"1922"	"17.995"	"22.294"	"26.385"	"30.87"	"33.088"	"30.971"	"27.469"	"26.432"	"26.22"	"25.819"	"21.677"	"18.189"
"1923"	"19.034"	"19.733"	"26.174"	"30.211"	"32.168"	"33.172"	"27.739"	"25.619"	"26.862"	"25.511"	"21.759"	"20.249"
"1924"	"18.849"	"21.424"	"27.479"	"31.226"	"31.9"	"32.086"	"28.033"	"26.72"	"26.333"	"24.7"	"20.284"	"19.085"
"1925"	"16.446"	"18.968"	"26.08"	"31.912"	"31.998"	"29.384"	"26.839"	"27.352"	"27.9"	"28.176"	"23.035"	"19.435"
"1926"	"19.59"	"22.909"	"25.498"	"27.788"	"32.32"	"33.812"	"28.394"	"26.596"	"26.498"	"26.227"	"20.693"	"18.457"
"1927"	"17.39"	"19.305"	"24.452"	"29.576"	"32.068"	"31.17"	"26.978"	"25.638"	"26.426"	"25.868"	"19.615"	"19.392"
"1928"	"18.384"	"20.626"	"25.422"	"29.643"	"32.859"	"30.963"	"27.089"	"26.102"	"26.381"	"26.039"	"22.559"	"18.255"
"1929"	"17.56"	"19.455"	"26.822"	"30.27"	"33.069"	"30.835"	"27.231"	"25.882"	"26.944"	"25.904"	"23.112"	"18.316"
"1930"	"18.781"	"19.659"	"26.177"	"29.592"	"32.749"	"31.377"	"26.444"	"26.03"	"27.652"	"27.331"	"21.191"	"19.697"
"1931"	"20.324"	"20.095"	"24.929"	"31.211"	"33.21"	"32.99"	"28.25"	"26.439"	"26.481"	"25.277"	"21.619"	"19.382"
"1932"	"20.716"	"19.641"	"25.009"	"29.344"	"32.882"	"31.31"	"27.301"	"26.494"	"27.132"	"26.949"	"21.328"	"19.67"
"1933"	"18.285"	"21.272"	"25.792"	"29.331"	"30.829"	"30.215"	"27.408"	"25.801"	"25.951"	"25.336"	"22.028"	"18.904"
"1934"	"17.116"	"21.666"	"24.803"	"30.199"	"32.448"	"31.422"	"27.038"	"25.946"	"25.67"	"25.019"	"21.319"	"19.627"
"1935"	"16.747"	"20.646"	"24.823"	"27.581"	"32.811"	"31.607"	"26.931"	"25.97"	"25.868"	"25.465"	"22.147"	"19.28"
"1936"	"17.685"	"20.542"	"24.873"	"29"	"33.667"	"29.444"	"27.36"	"26.469"	"26.67"	"26.12"	"22.316"	"18.433"
"1937"	"17.283"	"21.387"	"24.103"	"29.294"	"32.61"	"31.527"	"26.538"	"26.289"	"26.589"	"25.613"	"22.997"	"18.234"
"1938"	"19.461"	"18.911"	"27.235"	"30.67"	"32.909"	"28.014"	"26.852"	"26.808"	"27.694"	"26.512"	"20.878"	"19.399"
"1939"	"19.666"	"21.221"	"23.554"	"28.749"	"32.322"	"30.829"	"27.552"	"27.686"	"26.374"	"26.643"	"21.683"	"19.009"
"1940"	"19.128"	"20.998"	"23.571"	"29.12"	"33.111"	"31.12"	"27.28"	"25.897"	"26.602"	"26.226"	"22.056"	"18.684"
"1941"	"17.933"	"21.27"	"26.591"	"30.989"	"33.088"	"31.89"	"27.309"	"26.602"	"27.351"	"27.837"	"22.666"	"20.611"
"1942"	"17.477"	"21.147"	"26.472"	"31.581"	"33.015"	"32.397"	"26.376"	"25.945"	"25.882"	"25.768"	"21.577"	"18.267"
"1943"	"18.996"	"20.27"	"26.114"	"29.562"	"33.525"	"29.854"	"26.478"	"25.488"	"26.302"	"25.454"	"22.667"	"18.82"
"1944"	"18.033"	"20.053"	"24.695"	"29.104"	"32.838"	"30.527"	"26.544"	"25.746"	"26.733"	"24.807"	"21.941"	"20.274"
"1945"	"16.84"	"19.468"	"25.609"	"28.992"	"32.095"	"31.497"	"26.336"	"26.501"	"26.083"	"25.382"	"20.839"	"17.378"
"1946"	"18.639"	"22.089"	"25.065"	"31.581"	"32.386"	"30.069"	"26.902"	"25.437"	"26.259"	"26.425"	"19.433"	"20"
"1947"	"17.577"	"20.704"	"25.972"	"29.725"	"33.095"	"31.777"	"27.458"	"27.197"	"25.882"	"24.81"	"22.315"	"19.66"
"1948"	"18.624"	"20.246"	"25.754"	"31.304"	"34.088"	"31.121"	"27.676"	"26.249"	"26.18"	"27.163"	"22.265"	"18.921"
"1949"	"20.484"	"20.781"	"26.21"	"31.163"	"33.817"	"30.653"	"27.795"	"27.081"	"26.881"	"26.455"	"21.484"	"18.655"
"1950"	"19.61"	"18.794"	"24.803"	"29.481"	"32.597"	"31.485"	"26.84"	"26.49"	"26.231"	"25.561"	"20.272"	"18.079"
"1951"	"17.582"	"20.004"	"25.603"	"28.462"	"32.575"	"30.922"	"28.759"	"26.366"	"28.495"	"28.939"	"23.849"	"18.813"
"1952"	"19.654"	"22.537"	"25.402"	"31.338"	"33.738"	"30.665"	"27.151"	"25.582"	"27.151"	"26.827"	"22.132"	"20.51"
"1953"	"18.247"	"23.177"	"28.173"	"30.663"	"32.758"	"31.441"	"27.864"	"26.171"	"26.923"	"25.869"	"22.003"	"20.78"
"1954"	"17.959"	"22.053"	"25.88"	"30.619"	"33.899"	"31.74"	"27.651"	"27.194"	"25.232"	"24.239"	"22.196"	"19.124"
"1955"	"19.19"	"21.077"	"27.622"	"28.242"	"32.367"	"30.676"	"28.282"	"26.151"	"25.982"	"24.92"	"20.49"	"18.954"
"1956"	"19.048"	"20.716"	"26.602"	"30.493"	"33.144"	"29.937"	"25.792"	"25.602"	"26.445"	"24.752"	"20.892"	"19.466"
"1957"	"18.147"	"19.023"	"24.265"	"29.613"	"31.781"	"31.667"	"27.638"	"26.839"	"26.505"	"26.577"	"24.09"	"20.554"
"1958"	"20.175"	"21.127"	"26.594"	"31.682"	"33.282"	"32.183"	"27.002"	"27.374"	"25.66"	"25.589"	"22.708"	"20.055"
"1959"	"18.781"	"20.597"	"26.964"	"30.429"	"32.949"	"31.128"	"26.414"	"25.687"	"25.903"	"26.075"	"22.253"	"19.787"
"1960"	"17.376"	"22.559"	"24.621"	"29.376"	"32.081"	"30.953"	"28.072"	"25.339"	"27.331"	"25.971"	"21.841"	"20.548"
"1961"	"18.435"	"18.978"	"26.81"	"29.983"	"32.974"	"30.328"	"27.214"	"26.54"	"25.238"	"24.863"	"22.29"	"17.927"
"1962"	"17.146"	"21.091"	"25.543"	"30.017"	"32.519"	"31.029"	"27.158"	"26.047"	"25.663"	"24.29"	"22.078"	"19.761"
"1963"	"18.32"	"22.889"	"26.009"	"29.705"	"32.523"	"31.221"	"28.163"	"25.882"	"26.28"	"26.225"	"24.23"	"19.94"
"1964"	"17.415"	"20.983"	"27.279"	"31.895"	"32.367"	"30.251"	"27.2"	"26.451"	"26.703"	"26.751"	"21.517"	"19.473"
"1965"	"20.376"	"21.246"	"25.628"	"29.756"	"33.364"	"32.141"	"28.291"	"27.457"	"26.824"	"27.668"	"23.927"	"19.726"
"1966"	"19.649"	"23.545"	"25.542"	"30.524"	"32.509"	"31.407"	"29.063"	"26.157"	"26.333"	"27.476"	"23.741"	"19.254"
"1967"	"17.168"	"22.823"	"24.961"	"29.001"	"32.048"	"30.042"	"27.315"	"25.376"	"25.349"	"26.065"	"23.291"	"20.797"
"1968"	"17.804"	"19.511"	"25.146"	"29.694"	"31.49"	"32.277"	"27.54"	"25.303"	"27.869"	"26.067"	"22.42"	"19.397"
"1969"	"18.841"	"21.61"	"28.067"	"30.693"	"32.569"	"31.664"	"27.839"	"25.932"	"26.583"	"27.139"	"24.462"	"20.021"
"1970"	"19.254"	"20.814"	"25.474"	"31.163"	"33.759"	"29.542"	"27.77"	"26.49"	"25.982"	"26.656"	"21.447"	"19.167"
"1971"	"17.91"	"20.647"	"25.417"	"31.556"	"31.791"	"28.958"	"25.889"	"25.939"	"26.563"	"25.349"	"21.847"	"18.49"
"1972"	"18.998"	"18.794"	"26.992"	"29.406"	"32.724"	"31.728"	"28.178"	"26.882"	"26.521"	"26.901"	"22.782"	"20.073"
"1973"	"18.585"	"22.034"	"26.053"	"32.226"	"33.975"	"30.965"	"26.357"	"25.939"	"25.465"	"25.875"	"22.104"	"19.468"
"1974"	"17.997"	"19.973"	"27.837"	"31.148"	"32.33"	"31.295"	"28.247"	"26.856"	"28.169"	"26.466"	"21.417"	"18.655"
"1975"	"17.702"	"20.164"	"24.255"	"30.34"	"33.289"	"30.629"	"26.739"	"26.332"	"26.133"	"26.083"	"20.964"	"19.454"
"1976"	"19.373"	"21.386"	"26.363"	"29.851"	"32.404"	"29.488"	"27.664"	"25.932"	"25.944"	"27.062"	"25.099"	"20.532"
"1977"	"18.39"	"22.188"	"28.173"	"30.546"	"32.092"	"30.699"	"26.816"	"25.976"	"25.849"	"27.55"	"24.272"	"21.41"
"1978"	"18.289"	"20.293"	"24.311"	"30.156"	"33.47"	"29.933"	"26.226"	"25.508"	"26.652"	"26.62"	"24.163"	"18.633"
"1979"	"19.789"	"19.526"	"24.603"	"30.768"	"31.325"	"31.846"	"27.975"	"26.195"	"28.332"	"27.812"	"24.329"	"20.255"
"1980"	"19.517"	"22.314"	"26.003"	"31.61"	"33.827"	"29.637"	"27.319"	"26.731"	"27.681"	"28.041"	"24.021"	"19.079"
"1981"	"18.463"	"22.093"	"25.763"	"31.172"	"33.148"	"32.386"	"27.211"	"25.839"	"27.625"	"26.811"	"21.43"	"18.85"
"1982"	"19.347"	"19.834"	"23.918"	"29.16"	"30.796"	"31.847"	"28.908"	"26.231"	"27.517"	"27.669"	"22.648"	"21.087"
"1983"	"18.459"	"19.595"	"25.247"	"27.968"	"32.485"	"31.628"	"28.314"	"26.971"	"27.182"	"25.339"	"21.101"	"19.099"
"1984"	"18.008"	"18.28"	"27.254"	"31.384"	"33.936"	"31.078"	"27.608"	"25.215"	"25.789"	"26.116"	"22.309"	"20.336"
"1985"	"18.687"	"21.254"	"28.155"	"30.541"	"33.538"	"31.527"	"28.178"	"25.889"	"27.233"	"24.8"	"22.956"	"21.445"
"1986"	"19.203"	"20.855"	"26.209"	"31.056"	"32.526"	"31.396"	"26.881"	"25.816"	"27.951"	"27.056"	"23.94"	"19.103"
"1987"	"19.377"	"22.152"	"26.774"	"31.019"	"31.785"	"32.028"	"29.564"	"28.324"	"28.6"	"27.911"	"23.695"	"20.144"
"1988"	"20.364"	"22.953"	"26.265"	"31.691"	"34.236"	"31.43"	"27.194"	"26.858"	"28.153"	"26.334"	"22.839"	"20.284"
"1989"	"18.289"	"21.286"	"25.373"	"29.929"	"33.452"	"30.135"	"27.577"	"25.916"	"27.802"	"27.046"	"24.397"	"19.92"
"1990"	"21.259"	"21.204"	"24.873"	"30.62"	"32.441"	"30.5"	"26.561"	"26.671"	"26.353"	"26.581"	"23.492"	"20.112"
"1991"	"17.995"	"21.7"	"26.38"	"29.873"	"32.341"	"32.2"	"28.065"	"26.34"	"26.781"	"26.646"	"22.998"	"20.075"
"1992"	"19.709"	"19.949"	"26.255"	"30.195"	"32.571"	"33.083"	"29.178"	"26.46"	"26.001"	"26.24"	"22.589"	"20.541"
"1993"	"20.024"	"21.917"	"25.266"	"30.007"	"33.736"	"31.773"	"27.508"	"27.22"	"26.635"	"27.52"	"23.871"	"20.635"
"1994"	"20.34"	"20.417"	"26.859"	"29.843"	"33.986"	"30.221"	"26.321"	"26.007"	"25.886"	"26.555"	"23.033"	"20.04"
"1995"	"17.626"	"21.161"	"25.079"	"30.176"	"33.168"	"33.959"	"28.288"	"26.877"	"27.745"	"28.169"	"23.261"	"20.955"
"1996"	"20.003"	"22.374"	"28.017"	"30.67"	"33.168"	"32.26"	"28.471"	"25.967"	"26.944"	"26.269"	"23.246"	"20.127"
"1997"	"18.733"	"20.943"	"26.736"	"29.133"	"31.456"	"30.085"	"27.671"	"26.608"	"27.132"	"25.82"	"24.405"	"19.393"
"1998"	"19.041"	"21.398"	"25.652"	"31.599"	"34.431"	"32.492"	"27.965"	"27.858"	"27.508"	"28.1"	"23.88"	"20.949"
"1999"	"18.93"	"22.267"	"26.976"	"32.194"	"33.371"	"30.621"	"27.729"	"26.844"	"27.205"	"26.632"	"23.409"	"19.704"
"2000"	"19.974"	"19.967"	"25.949"	"32.654"	"31.868"	"31.051"	"26.809"	"27.651"	"27.431"	"27.883"	"24.924"	"21.175"
"2001"	"18.924"	"22.233"	"26.471"	"30.355"	"32.274"	"28.977"	"26.121"	"26.737"	"28.394"	"27.324"	"23.647"	"20.98"
"2002"	"18.459"	"21.244"	"26.766"	"31.825"	"33.936"	"31.156"	"28.82"	"26.087"	"27.13"	"27.6"	"24.173"	"22.179"
