
"Year"	"Jan"	"Feb"	"Mar"	"Apr"	"May"	"Jun"	"Jul"	"Aug"	"Sep"	"Oct"	"Nov"	"Dec"
"1901"	"12.87"	"15.171"	"22.395"	"27.489"	"32.054"	"35.419"	"32.495"	"30.444"	"30.404"	"28.129"	"21.068"	"16.171"
"1902"	"15.551"	"17.848"	"24.631"	"28.901"	"32.678"	"33.212"	"31.429"	"31.525"	"29.334"	"26.548"	"20.369"	"14.584"
"1903"	"14.337"	"16.155"	"20.954"	"26.672"	"31.715"	"35.866"	"33.24"	"30.207"	"30.305"	"26.507"	"19.636"	"14.446"
"1904"	"13.624"	"16.836"	"21.484"	"28.862"	"32.274"	"34.421"	"30.722"	"29.557"	"29.152"	"26.447"	"19.765"	"15.71"
"1905"	"12.608"	"11.983"	"18.795"	"25.588"	"33.756"	"35.335"	"32.528"	"31.059"	"31.186"	"27.34"	"21.786"	"15.792"
"1906"	"13.295"	"14.784"	"20.273"	"27.515"	"34.743"	"33.438"	"32.154"	"29.763"	"28.881"	"27.197"	"21.417"	"16.41"
"1907"	"15.792"	"14.601"	"19.406"	"25.281"	"30.679"	"33.634"	"33.614"	"29.478"	"30.683"	"27.248"	"20.898"	"14.41"
"1908"	"14.058"	"16.768"	"22.014"	"28.66"	"32.645"	"35.066"	"30.3"	"28.24"	"29.204"	"26.107"	"19.662"	"14.903"
"1909"	"13.444"	"15.429"	"22.144"	"26.367"	"32.012"	"32.36"	"29.432"	"29.023"	"28.539"	"26.596"	"21.569"	"14.462"
"1910"	"13.51"	"16.548"	"22.132"	"26.859"	"33.098"	"33.302"	"30.711"	"29.359"	"29.485"	"25.461"	"19.433"	"14.99"
"1911"	"15.631"	"16.849"	"20.131"	"27.708"	"33.979"	"33.788"	"33.428"	"31.701"	"29.306"	"26.956"	"18.143"	"14.839"
"1912"	"14.791"	"17.76"	"21.569"	"28.001"	"33.143"	"35.584"	"31.721"	"29.492"	"28.333"	"26.548"	"19.469"	"14.99"
"1913"	"14.962"	"16.3"	"19.784"	"29.272"	"30.908"	"31.617"	"30.425"	"30.645"	"30.571"	"27.575"	"20.205"	"15.107"
"1914"	"16.171"	"16.017"	"21.603"	"28.093"	"32.936"	"33.136"	"30.46"	"29.907"	"29.431"	"25.092"	"20.762"	"14.51"
"1915"	"14.098"	"14.767"	"22.104"	"28.038"	"35.136"	"34.405"	"33.58"	"31.226"	"30.902"	"27.763"	"20.624"	"15.891"
"1916"	"15.162"	"15.873"	"24.769"	"29.697"	"32.398"	"33.002"	"30.698"	"28.911"	"29.05"	"25.944"	"18.489"	"14.41"
"1917"	"14.591"	"17.086"	"22.068"	"24.962"	"28.627"	"32.6"	"29.798"	"28.659"	"27.584"	"24.7"	"17.681"	"15.155"
"1918"	"13.527"	"16.897"	"21.779"	"25.608"	"34.653"	"33.585"	"34.057"	"31.682"	"30.303"	"27.13"	"20.369"	"14.629"
"1919"	"14.443"	"15.568"	"22.751"	"27.379"	"32.05"	"36.185"	"30.529"	"29.159"	"29.356"	"26.257"	"19.587"	"14.462"
"1920"	"14.044"	"15.701"	"22.195"	"27.579"	"29.315"	"32.545"	"30.683"	"30.43"	"31.138"	"27.952"	"21.733"	"15.981"
"1921"	"15.314"	"17.527"	"25.25"	"31.352"	"35.504"	"35.33"	"33.433"	"29.615"	"29.252"	"25.693"	"20.282"	"16.992"
"1922"	"14.008"	"17.736"	"23.686"	"28.892"	"33.15"	"33.355"	"31.474"	"29.674"	"28.521"	"25.581"	"19.823"	"15.11"
"1923"	"13.956"	"15.636"	"22.879"	"29.045"	"32.043"	"35.907"	"31.412"	"28.641"	"29.598"	"25.677"	"19.834"	"15.302"
"1924"	"13.41"	"16.148"	"23.332"	"28.775"	"29.924"	"35.773"	"31.84"	"29.579"	"27.996"	"25.467"	"19.605"	"15.436"
"1925"	"12.38"	"14.267"	"22.764"	"30.227"	"32.399"	"30.921"	"29.162"	"30.057"	"30.415"	"26.645"	"18.943"	"14.839"
"1926"	"14.71"	"17.878"	"21.031"	"25.008"	"30.141"	"35.282"	"31.869"	"28.985"	"28.505"	"25.496"	"18.123"	"14.629"
"1927"	"12.793"	"14.372"	"20.951"	"27.001"	"31.36"	"34.018"	"30.515"	"28.794"	"28.968"	"26.329"	"19.752"	"16.155"
"1928"	"13.536"	"16.956"	"22.312"	"27.926"	"34.333"	"34.125"	"31.733"	"31.319"	"29.99"	"27.2"	"20.821"	"14.761"
"1929"	"14.127"	"15.368"	"24.498"	"29.134"	"33.556"	"34.102"	"30.853"	"29.159"	"30.664"	"26.529"	"20.569"	"14.051"
"1930"	"13.343"	"16.201"	"22.948"	"27.425"	"32.423"	"32.923"	"29.369"	"29.713"	"29.109"	"26.51"	"19.521"	"14.99"
"1931"	"15.015"	"14.277"	"21.014"	"29.115"	"32.521"	"34.54"	"31.138"	"29.771"	"28.611"	"25.786"	"19.299"	"15.563"
"1932"	"15.916"	"15.908"	"23.174"	"28.097"	"31.46"	"35.503"	"31.232"	"28.671"	"29.309"	"26.421"	"19.476"	"14.932"
"1933"	"11.95"	"16.92"	"21.983"	"26.415"	"29.9"	"32.906"	"29.712"	"27.578"	"27.715"	"25.378"	"19.436"	"15.83"
"1934"	"12.333"	"17.976"	"21.137"	"27.801"	"31.744"	"32.95"	"30.833"	"28.555"	"29.959"	"25.822"	"19.899"	"16.129"
"1935"	"12.481"	"16.92"	"22.079"	"24.958"	"32.931"	"35.09"	"30.352"	"28.904"	"28.742"	"25.936"	"20.569"	"15.055"
"1936"	"12.863"	"17.037"	"21.348"	"27.77"	"34.752"	"31.351"	"29.987"	"28.797"	"28.734"	"26.315"	"19.834"	"15.174"
"1937"	"13.339"	"16.519"	"20.456"	"26.219"	"32.462"	"34.079"	"30.186"	"31.002"	"29.586"	"25.333"	"19.43"	"13.692"
"1938"	"13.288"	"15.008"	"23.431"	"29.079"	"34.716"	"32.582"	"31.799"	"30.658"	"30.976"	"27.517"	"18.713"	"14.7"
"1939"	"14.78"	"16.829"	"19.65"	"26.605"	"34.201"	"32.109"	"31.034"	"31.141"	"30.152"	"27.486"	"19.835"	"15.713"
"1940"	"14.338"	"16.229"	"20.862"	"26.907"	"33.713"	"34.422"	"31.495"	"28.607"	"29.105"	"26.424"	"20.964"	"15.21"
"1941"	"13.293"	"17.585"	"24.679"	"31.179"	"34.358"	"32.229"	"32.905"	"30.333"	"29.739"	"28.929"	"20.407"	"16.293"
"1942"	"12.91"	"17.47"	"23.838"	"29.982"	"33.503"	"34.898"	"29.601"	"28.169"	"27.568"	"26.03"	"21.1"	"14"
"1943"	"13.966"	"16.6"	"23.025"	"26.745"	"32.368"	"33.588"	"30.119"	"28.532"	"29.759"	"26.166"	"20.788"	"16.428"
"1944"	"13.41"	"16.082"	"20.951"	"27.249"	"34.102"	"33.401"	"30.181"	"29.531"	"28.914"	"25.545"	"20.716"	"15.927"
"1945"	"12.08"	"15.591"	"22.921"	"26.822"	"31.884"	"34.246"	"30.456"	"29.822"	"28.314"	"25.841"	"20.169"	"13.82"
"1946"	"14.745"	"18.321"	"21.702"	"29.989"	"33.047"	"33.741"	"30.362"	"29.394"	"29.594"	"26.977"	"19.778"	"14.134"
"1947"	"13.475"	"16.746"	"23.263"	"29.935"	"33.764"	"36.163"	"32.581"	"30.597"	"28.482"	"25.437"	"21.417"	"15.274"
"1948"	"13.598"	"16.138"	"21.129"	"30.812"	"33.951"	"35.054"	"31.076"	"28.655"	"29.481"	"27.347"	"19.074"	"15.098"
"1949"	"15.924"	"16.811"	"22.808"	"29.877"	"34.45"	"34.426"	"30.234"	"29.706"	"30.706"	"26.229"	"18.712"	"14.562"
"1950"	"15.445"	"14.217"	"21.139"	"27.036"	"33.466"	"34.676"	"30.273"	"29.019"	"28.248"	"25.51"	"19.058"	"13.362"
"1951"	"13.488"	"16.174"	"22.359"	"26.146"	"32.416"	"33.792"	"32.952"	"30.159"	"30.043"	"29.258"	"21.733"	"15.881"
"1952"	"15.353"	"18.809"	"22.562"	"30.962"	"33.471"	"33.283"	"31.415"	"28.806"	"30.447"	"27.009"	"20.469"	"15.586"
"1953"	"14.018"	"19.003"	"26.148"	"29.428"	"33.892"	"34.636"	"30.807"	"29.135"	"29.594"	"26.784"	"20.326"	"18.074"
"1954"	"13.58"	"17.674"	"22.433"	"29.217"	"34.588"	"34.873"	"31.533"	"31.016"	"30.138"	"24.377"	"20.404"	"15.851"
"1955"	"14.146"	"17.439"	"24.822"	"26.68"	"31.081"	"34.98"	"31.935"	"29.057"	"28.738"	"25.028"	"19.578"	"15.811"
"1956"	"14.336"	"17.347"	"22.86"	"29.423"	"34.94"	"34.055"	"30.123"	"28.902"	"30.494"	"25.112"	"19.159"	"15.863"
"1957"	"13.644"	"15.403"	"21.607"	"26.917"	"31.312"	"33.573"	"31.29"	"29.859"	"28.063"	"26.476"	"20.814"	"15.527"
"1958"	"15.881"	"16.172"	"23.906"	"30.931"	"32.819"	"35.009"	"30.448"	"29.732"	"28.702"	"26.276"	"20.627"	"16.446"
"1959"	"13.934"	"15.984"	"23.498"	"28.783"	"32.322"	"34.809"	"30.978"	"29.63"	"29.289"	"27.151"	"20.569"	"15.969"
"1960"	"13.842"	"19.464"	"21.87"	"27.292"	"33.272"	"34.963"	"30.981"	"29.283"	"30.114"	"26.002"	"19.533"	"15.569"
"1961"	"14.988"	"15.039"	"23.124"	"27.762"	"32.7"	"33.783"	"30.799"	"29.061"	"29.531"	"25.595"	"18.57"	"13.064"
"1962"	"12.943"	"17.62"	"22.395"	"29.564"	"32.988"	"34.307"	"31.616"	"30.358"	"28.148"	"25.455"	"19.831"	"14.644"
"1963"	"13.11"	"18.513"	"22.376"	"28.026"	"31.479"	"33.768"	"32.657"	"29.214"	"28.443"	"27.087"	"21.513"	"15.172"
"1964"	"12.233"	"16.334"	"23.819"	"29.144"	"30.99"	"34.182"	"29.281"	"29.543"	"28.101"	"25.547"	"18.922"	"15.043"
"1965"	"15.939"	"16.887"	"21.987"	"26.11"	"31.417"	"34.996"	"31.086"	"29.541"	"28.881"	"26.815"	"21.295"	"14.277"
"1966"	"14.741"	"18.911"	"22.383"	"28.582"	"32.444"	"32.94"	"32.285"	"29.478"	"28.53"	"26.539"	"19.822"	"14.288"
"1967"	"12.66"	"18.874"	"21.514"	"27.372"	"32.034"	"34.797"	"31.034"	"29.007"	"28.378"	"25.665"	"20.091"	"15.422"
"1968"	"13.714"	"15.202"	"22.306"	"27.831"	"32.125"	"34.557"	"31.044"	"29.923"	"30.559"	"25.967"	"20.605"	"15.582"
"1969"	"14.481"	"17.446"	"24.999"	"29.191"	"31.517"	"35.209"	"31.334"	"30.478"	"29.281"	"27.576"	"21.705"	"15.91"
"1970"	"14.997"	"16.305"	"22.261"	"29.545"	"33.783"	"32.178"	"32.042"	"29.741"	"29.557"	"27.295"	"19.947"	"15.763"
"1971"	"13.324"	"17.539"	"22.543"	"29.571"	"31.213"	"31.963"	"29.754"	"27.985"	"28.066"	"25.951"	"19.834"	"16.122"
"1972"	"14.676"	"14.762"	"23.459"	"27.56"	"33.307"	"34.205"	"31.905"	"28.781"	"28.458"	"25.558"	"21.028"	"15.925"
"1973"	"14.512"	"18.733"	"22.414"	"30.099"	"33.358"	"35.029"	"31.423"	"28.524"	"29.365"	"25.484"	"19.702"	"13.807"
"1974"	"13.991"	"15.14"	"24.14"	"30.327"	"32.416"	"32.583"	"30.26"	"29.914"	"30.256"	"26.247"	"19.886"	"14.443"
"1975"	"13.454"	"16.074"	"22.066"	"29.14"	"33.497"	"32.502"	"29.52"	"28.799"	"27.692"	"26.712"	"19.166"	"16.017"
"1976"	"15.152"	"17.282"	"21.186"	"27.723"	"32.283"	"31.648"	"30.645"	"27.697"	"28.536"	"27.022"	"20.93"	"15.21"
"1977"	"14.168"	"16.987"	"24.01"	"27.967"	"30.377"	"31.298"	"28.695"	"29.106"	"27.432"	"25.876"	"22.221"	"17.075"
"1978"	"13.546"	"15.026"	"20.368"	"28.124"	"35.747"	"33.451"	"29.167"	"28.552"	"27.887"	"26.122"	"20.623"	"15.622"
"1979"	"14.243"	"15.996"	"20.54"	"29.072"	"29.627"	"33.834"	"30.737"	"30.113"	"28.466"	"26.809"	"22.002"	"16.452"
"1980"	"14.317"	"18.124"	"21.681"	"30.35"	"34.287"	"33.236"	"29.216"	"29.383"	"28.96"	"27.139"	"20.877"	"15.778"
"1981"	"15.089"	"17.812"	"21.557"	"29.207"	"32.306"	"33.565"	"29.015"	"29.904"	"29.707"	"26.222"	"19.504"	"15.704"
"1982"	"14.642"	"15.441"	"19.95"	"26.912"	"29.835"	"33.494"	"32.325"	"29.125"	"30.11"	"26.956"	"21.291"	"16.273"
"1983"	"13.648"	"16.057"	"21.798"	"25.365"	"31.016"	"32.85"	"30.589"	"28.995"	"29.634"	"26.016"	"19.767"	"15.832"
"1984"	"13.501"	"14.984"	"24.016"	"28.96"	"35.417"	"34.854"	"30.062"	"29.047"	"27.838"	"25.157"	"20.056"	"15.99"
"1985"	"13.974"	"17.843"	"24.585"	"29.327"	"34.069"	"33.854"	"29.734"	"29.617"	"28.752"	"24.511"	"20.574"	"16.77"
"1986"	"14.207"	"16.184"	"22.466"	"28.603"	"30.786"	"33.717"	"30.238"	"29.847"	"29.296"	"26.004"	"21.836"	"15.072"
"1987"	"15.155"	"18.235"	"23.126"	"29.344"	"29.58"	"34.935"	"34.45"	"31.3"	"31.398"	"27.928"	"21.163"	"16.074"
"1988"	"16.043"	"18.458"	"22.65"	"29.889"	"35.38"	"33.231"	"29.786"	"28.677"	"29.307"	"26.045"	"21.033"	"16.483"
"1989"	"13.572"	"16.355"	"22.002"	"27.321"	"33.673"	"33.169"	"30.962"	"29.193"	"29.031"	"26.381"	"21.061"	"15.174"
"1990"	"16.372"	"16.743"	"20.857"	"28.255"	"32.589"	"34.421"	"29.913"	"29.45"	"28.672"	"25.455"	"21.078"	"16.117"
"1991"	"14.168"	"17.312"	"22.331"	"27.389"	"32.946"	"33.286"	"33.177"	"29.391"	"29.753"	"25.722"	"20.38"	"16.079"
"1992"	"15.103"	"16.148"	"22.314"	"27.961"	"32.15"	"34.845"	"30.271"	"29.312"	"28.45"	"25.874"	"20.07"	"16.844"
"1993"	"14.715"	"18.884"	"20.951"	"28.615"	"34.113"	"34.126"	"30.293"	"31.067"	"27.814"	"25.986"	"21.327"	"15.775"
"1994"	"15.618"	"16.697"	"23.997"	"27.223"	"33.594"	"34.35"	"29.758"	"28.911"	"28.584"	"25.611"	"20.588"	"16.397"
"1995"	"13.752"	"17.172"	"21.463"	"27.901"	"34.164"	"35.579"	"31.691"	"28"	"29.114"	"26.816"	"20.741"	"16.088"
"1996"	"14.346"	"17.439"	"23.531"	"28.981"	"32.657"	"31.897"	"31.293"	"28.847"	"28.773"	"25.993"	"19.881"	"14.926"
"1997"	"13.436"	"16.696"	"21.969"	"26.728"	"30.469"	"31.502"	"31.308"	"29.04"	"29.169"	"24.072"	"19.559"	"13.362"
"1998"	"13.874"	"17.267"	"20.704"	"29.026"	"33.816"	"33.357"	"30.879"	"29.717"	"29.331"	"26.257"	"21.023"	"15.488"
"1999"	"13.661"	"17.539"	"23.521"	"30.272"	"33.417"	"32.983"	"31.586"	"30.311"	"29.589"	"26.688"	"21.763"	"15.881"
"2000"	"14.398"	"15.877"	"22.297"	"30.539"	"34.477"	"32.286"	"30.044"	"29.811"	"29.337"	"26.867"	"21.622"	"16.181"
"2001"	"13.598"	"17.738"	"22.924"	"28.592"	"32.732"	"31.332"	"30.737"	"30.208"	"30.353"	"27.448"	"21.47"	"16.433"
"2002"	"14.757"	"16.917"	"23.173"	"30.384"	"33.935"	"33.63"	"32.237"	"30.488"	"27.943"	"26.71"	"21.301"	"16.488"
