
"Year"	"Jan"	"Feb"	"Mar"	"Apr"	"May"	"Jun"	"Jul"	"Aug"	"Sep"	"Oct"	"Nov"	"Dec"
"1901"	"69.45"	"27.798"	"28.37"	"7.083"	"59.543"	"54.657"	"380.498"	"461.852"	"137.984"	"4.205"	"0.266"	"16.207"
"1902"	"3.128"	"10.109"	"12.17"	"47.945"	"36.648"	"77.121"	"404.995"	"246.128"	"138.845"	"27.471"	"1.065"	"0.957"
"1903"	"44.163"	"16.253"	"40.95"	"12.046"	"25.784"	"61.62"	"183.054"	"240.479"	"70.964"	"78.155"	"0.133"	"2.877"
"1904"	"24.995"	"6.197"	"45.374"	"10.051"	"49.331"	"148.086"	"289.019"	"388.642"	"202.886"	"18.281"	"23.265"	"17.023"
"1905"	"130.272"	"78.595"	"22.945"	"23.593"	"35.227"	"53.776"	"192.906"	"267.78"	"87.846"	"1.29"	"0.441"	"17.814"
"1906"	"30.422"	"118.953"	"21.681"	"13.313"	"32.506"	"152.464"	"182.004"	"411.853"	"164.454"	"9.931"	"0.199"	"2.797"
"1907"	"23.841"	"59.633"	"89.105"	"57.287"	"29.905"	"105.668"	"336.228"	"195.375"	"20.914"	"2.691"	"0.199"	"0.663"
"1908"	"49.657"	"48.011"	"6.453"	"13.383"	"56.426"	"85.975"	"202.37"	"286.221"	"129.67"	"2.455"	"1.459"	"2.895"
"1909"	"55.221"	"22.713"	"3.632"	"61.509"	"16.676"	"307.544"	"515.805"	"315.118"	"129.745"	"7.583"	"2.456"	"42.262"
"1910"	"30.574"	"30.139"	"8.258"	"21.105"	"54.595"	"235.411"	"406.951"	"326.668"	"196.92"	"18.576"	"2.533"	"7.027"
"1911"	"88.911"	"5.831"	"106.062"	"23.14"	"5.144"	"133.413"	"121.636"	"297.266"	"261.454"	"11.975"	"43.69"	"2.482"
"1912"	"44.942"	"29.785"	"23.461"	"37.472"	"56.474"	"106.773"	"261.273"	"258.075"	"223.189"	"3.64"	"34.264"	"13.308"
"1913"	"15.859"	"63.389"	"51.405"	"25.083"	"70.239"	"291.338"	"179.82"	"206.829"	"51.426"	"6.069"	"11.23"	"29.767"
"1914"	"10.946"	"72.951"	"68.134"	"41.119"	"34.065"	"147.409"	"396.624"	"273.278"	"437.554"	"17.194"	"14.775"	"3.144"
"1915"	"13.991"	"98.046"	"45.984"	"28.328"	"36.686"	"129.385"	"205.123"	"604.774"	"113.071"	"26.741"	"0.375"	"8.709"
"1916"	"4.192"	"18.664"	"2.971"	"19.596"	"60.108"	"305.023"	"433.716"	"242.66"	"223.772"	"40.908"	"0.199"	"0.837"
"1917"	"15.756"	"46.929"	"50.709"	"56.308"	"106.591"	"279.102"	"311.618"	"364.982"	"276.961"	"73.516"	"0.375"	"15.643"
"1918"	"7.83"	"2.561"	"27.563"	"54.266"	"17.924"	"153.196"	"133.485"	"154.804"	"49.525"	"5.085"	"30.763"	"10.22"
"1919"	"102.119"	"21.507"	"29.102"	"57.892"	"42.181"	"119.103"	"260.256"	"219.19"	"161.274"	"25.352"	"3.585"	"4.172"
"1920"	"15.682"	"27.775"	"47.618"	"10.525"	"62.138"	"290.47"	"276.925"	"127.932"	"100.175"	"6.638"	"0.266"	"2.069"
"1921"	"63.7"	"6.957"	"7.789"	"8.202"	"25.698"	"92.335"	"240.963"	"409.316"	"164.732"	"71.961"	"0.266"	"11.411"
"1922"	"54.528"	"40.482"	"8.557"	"13.983"	"22.111"	"79.326"	"412.297"	"457.542"	"225.731"	"32.173"	"6.872"	"60.341"
"1923"	"20.764"	"90.673"	"4.729"	"2.1"	"31.226"	"55.749"	"358.736"	"280.482"	"215.851"	"80.8"	"27.636"	"23.085"
"1924"	"31.849"	"53.441"	"17.458"	"12.586"	"39.598"	"49.743"	"272.756"	"249.672"	"451.522"	"99.395"	"3.672"	"34.365"
"1925"	"38.238"	"4.806"	"9.779"	"20.641"	"48.405"	"297.302"	"403.269"	"410.387"	"90.97"	"7.98"	"18.274"	"0.663"
"1926"	"19.16"	"16.482"	"75.806"	"47.952"	"48.734"	"50.981"	"354.529"	"296.768"	"106.797"	"10.918"	"15.776"	"7.809"
"1927"	"5.683"	"61.064"	"21.114"	"18.004"	"86.448"	"77.123"	"145.927"	"510.227"	"109.822"	"145.094"	"1.322"	"4.128"
"1928"	"62.82"	"101.176"	"22.627"	"42.199"	"8.074"	"82.797"	"302.344"	"168.1"	"141.09"	"2.566"	"17.205"	"33.151"
"1929"	"89.621"	"5.202"	"16.72"	"31.374"	"22.246"	"169.041"	"229.473"	"344.581"	"54.116"	"57.571"	"0.199"	"57.69"
"1930"	"38.188"	"26.245"	"18.237"	"23.18"	"24.561"	"112.598"	"326.737"	"272.69"	"61.117"	"45.087"	"18.345"	"23.412"
"1931"	"13.587"	"71.491"	"26.66"	"17.451"	"41.613"	"59.147"	"374.308"	"215.015"	"349.918"	"119.25"	"2.533"	"0.75"
"1932"	"9.085"	"13.214"	"29.996"	"12.661"	"26.487"	"128.685"	"162.096"	"267.283"	"276.937"	"11.098"	"1.459"	"20.715"
"1933"	"34.418"	"59.354"	"17.577"	"35.501"	"68.982"	"175.019"	"378.675"	"365.451"	"191.652"	"139.124"	"1.926"	"1.977"
"1934"	"37.754"	"11.433"	"25.637"	"4.95"	"25.372"	"111.189"	"303.874"	"502.177"	"79.012"	"1.15"	"0.266"	"32.18"
"1935"	"68.691"	"27.807"	"19.205"	"40.154"	"12.769"	"19.67"	"286.856"	"191.209"	"137.982"	"3.971"	"17.432"	"25.842"
"1936"	"5.702"	"44.42"	"46.63"	"40.617"	"57.783"	"476.772"	"721.508"	"394.953"	"167.473"	"18.773"	"6.106"	"63.96"
"1937"	"10.483"	"101.572"	"2.891"	"54.599"	"49.166"	"144.358"	"380.796"	"204.201"	"187.882"	"28.606"	"1.811"	"25.115"
"1938"	"76.985"	"42.234"	"4.961"	"6.452"	"12.512"	"272.023"	"326.177"	"332.748"	"63.329"	"17.486"	"2.939"	"2.218"
"1939"	"25.808"	"41.598"	"30.019"	"32.764"	"16.984"	"157.561"	"248.746"	"174.378"	"74.624"	"38.273"	"0.472"	"0.726"
"1940"	"39.299"	"92.654"	"45.051"	"29.568"	"33.169"	"105.75"	"246.039"	"274.145"	"85.642"	"8.177"	"0.476"	"18.83"
"1941"	"34.843"	"28.765"	"10.639"	"11.544"	"59.742"	"98.901"	"129.76"	"193.118"	"213.891"	"11.556"	"3.437"	"21.329"
"1942"	"67.135"	"66.425"	"8.149"	"39.697"	"57.948"	"143.366"	"491.486"	"189.14"	"133.442"	"1.177"	"0.346"	"37.519"
"1943"	"35.32"	"8.444"	"22.95"	"60.453"	"7.035"	"169.494"	"220.149"	"468.122"	"149.458"	"0.288"	"0"	"0.133"
"1944"	"52.012"	"34.266"	"28.813"	"23.342"	"4.207"	"199.508"	"190.311"	"165.226"	"99.32"	"5.711"	"3.46"	"1.64"
"1945"	"38.536"	"3.21"	"28.278"	"43.073"	"18.864"	"75.268"	"462.079"	"239.843"	"345.281"	"83.403"	"0"	"2.296"
"1946"	"2.07"	"34.918"	"12.789"	"53.727"	"74.463"	"134.928"	"312.075"	"146.085"	"54.343"	"34.734"	"20.578"	"19.177"
"1947"	"29.651"	"44.029"	"50.938"	"4.661"	"31.735"	"65.909"	"262.133"	"363.323"	"189.14"	"7.455"	"2.28"	"7.779"
"1948"	"2.758"	"49.892"	"76.739"	"6.273"	"21.548"	"73.308"	"327.576"	"479.077"	"101.67"	"33.798"	"0"	"5.597"
"1949"	"7.698"	"64.739"	"14.171"	"43.168"	"49.216"	"78.582"	"417.456"	"304.585"	"213.673"	"44.624"	"1.25"	"2.906"
"1950"	"80.816"	"58.284"	"47.72"	"4.093"	"46.807"	"228.148"	"342.121"	"256.221"	"162.734"	"1.346"	"5.153"	"2.207"
"1951"	"28.326"	"42.039"	"43.983"	"21.056"	"35.215"	"118.708"	"124.993"	"396.134"	"159.576"	"23.843"	"46.716"	"0.154"
"1952"	"22.457"	"35.396"	"43.981"	"20.961"	"61.39"	"140.933"	"158.514"	"304.65"	"44.038"	"15"	"17.182"	"6.675"
"1953"	"73.622"	"8.515"	"31.848"	"25.14"	"8.555"	"112.193"	"492.34"	"234.585"	"85.291"	"26.137"	"8.318"	"6.272"
"1954"	"60.088"	"130.282"	"16.226"	"2.044"	"11.736"	"116.205"	"336.744"	"265.421"	"145.157"	"57.146"	"0"	"4.996"
"1955"	"48.869"	"4.972"	"31.36"	"44.753"	"21.336"	"141.831"	"313.333"	"324.903"	"155.194"	"111.285"	"0"	"1.26"
"1956"	"39.275"	"17.95"	"33.041"	"11.513"	"94.995"	"114.9"	"258.718"	"193.798"	"74.531"	"108.132"	"0"	"16.593"
"1957"	"102.374"	"8.873"	"39.382"	"39.368"	"25.914"	"119.059"	"243.664"	"346.929"	"247.275"	"30.541"	"9.061"	"55.588"
"1958"	"25.752"	"15.928"	"23.99"	"24.606"	"15.373"	"103.416"	"256.65"	"403.305"	"179.697"	"126.912"	"4.59"	"32.649"
"1959"	"34.028"	"27.319"	"26.496"	"23.51"	"91.03"	"57.937"	"432.106"	"210.25"	"93.579"	"58.097"	"24.787"	"2.57"
"1960"	"37.363"	"3.285"	"35.756"	"27.801"	"27.244"	"92.343"	"328.069"	"258.554"	"143.893"	"110.937"	"0.375"	"3.845"
"1961"	"107.787"	"71.032"	"14.012"	"19.432"	"26.596"	"85.066"	"377.059"	"289.19"	"122.604"	"78.386"	"2.403"	"36.409"
"1962"	"70.119"	"27.05"	"41.853"	"10.682"	"25.968"	"103.705"	"235.987"	"207.284"	"270.662"	"1.044"	"9.055"	"27.355"
"1963"	"12.652"	"46.734"	"118.662"	"27.674"	"46.196"	"90.274"	"190.721"	"282.492"	"234.706"	"11.857"	"14.973"	"18.567"
"1964"	"25.379"	"12.78"	"28.656"	"10.321"	"53.893"	"69.21"	"432.166"	"170.661"	"153.905"	"0.288"	"0.577"	"18.407"
"1965"	"14.99"	"62.053"	"40.158"	"42.221"	"22.881"	"30.8"	"224.87"	"268.458"	"31.478"	"63.268"	"2.76"	"0.133"
"1966"	"11.52"	"56.22"	"43.79"	"28.562"	"37.738"	"174.954"	"270.145"	"404.923"	"126.211"	"46.605"	"27.258"	"4.096"
"1967"	"1.22"	"27.383"	"78.978"	"10.251"	"4.281"	"61.095"	"229.652"	"408.554"	"62.948"	"6.044"	"3.491"	"39.746"
"1968"	"70.455"	"48.183"	"19.726"	"19.175"	"5.456"	"117.547"	"275.708"	"227.042"	"55.166"	"18.676"	"0"	"6.532"
"1969"	"29.244"	"18.18"	"32.927"	"91.488"	"58.65"	"51.82"	"282.389"	"381.948"	"437.901"	"13.296"	"1.596"	"0.133"
"1970"	"46.916"	"23.526"	"9.43"	"1.141"	"60.679"	"127.318"	"154.05"	"299.594"	"99.445"	"34.254"	"0"	"0.34"
"1971"	"22.911"	"30.269"	"20.214"	"31.403"	"150.071"	"187.696"	"384.659"	"304.522"	"209.771"	"120.085"	"14.166"	"0.29"
"1972"	"20.698"	"40.793"	"10.944"	"29.828"	"18.802"	"69.213"	"266.088"	"231.905"	"420.002"	"79.022"	"11.937"	"4.272"
"1973"	"34.788"	"23.139"	"28.214"	"0.476"	"33.496"	"292.678"	"217.584"	"400.805"	"108.728"	"88.573"	"0"	"4.109"
"1974"	"26.506"	"29.616"	"6.913"	"3.199"	"56.334"	"105.041"	"241.495"	"171.214"	"70.871"	"11.412"	"0"	"23.77"
"1975"	"79.452"	"35.388"	"47.387"	"2.506"	"8.428"	"132.402"	"327.616"	"325.102"	"280.91"	"31.025"	"0"	"0.133"
"1976"	"6.689"	"70.083"	"15.047"	"32.229"	"26.387"	"362.734"	"225.804"	"559.838"	"81.215"	"13.471"	"0"	"0.712"
"1977"	"59.615"	"7.174"	"2.36"	"81.739"	"95.803"	"324.417"	"329.991"	"179.844"	"127.471"	"22.93"	"0.167"	"18.552"
"1978"	"6.607"	"14.683"	"81.101"	"25.397"	"4.855"	"153.68"	"331.052"	"428.043"	"301.829"	"7.026"	"9.827"	"7.565"
"1979"	"26.89"	"73.026"	"38.807"	"15.853"	"57.751"	"66.157"	"264.14"	"126.525"	"118.932"	"10.476"	"19.961"	"6.824"
"1980"	"11.219"	"46.536"	"50.82"	"8.26"	"35.03"	"180.733"	"583.453"	"371.757"	"241.748"	"30.619"	"3.281"	"9.076"
"1981"	"57.926"	"22.385"	"69.416"	"25.127"	"56.021"	"83.149"	"405.771"	"149.684"	"56.903"	"5.573"	"40.319"	"2.57"
"1982"	"32.293"	"9.22"	"104.099"	"48.364"	"64.16"	"29.993"	"146.594"	"329.975"	"42.28"	"12.806"	"6.915"	"21.141"
"1983"	"68.168"	"20.219"	"64.537"	"95.821"	"69.915"	"247.229"	"307.175"	"187.818"	"265.677"	"44.332"	"0"	"9.1"
"1984"	"9.869"	"119.286"	"8.853"	"31.251"	"1.019"	"126.892"	"350.623"	"243.872"	"175.207"	"1.643"	"0"	"14.731"
"1985"	"45.097"	"1.985"	"12.48"	"51.11"	"41.191"	"191.388"	"547.128"	"293.746"	"134.972"	"87.723"	"0.378"	"43.046"
"1986"	"4.199"	"36.953"	"29.876"	"33.555"	"83.005"	"77.463"	"419.143"	"193.547"	"244.232"	"33.639"	"10.577"	"78.178"
"1987"	"50.154"	"37.876"	"13.648"	"21.896"	"74.662"	"15.434"	"51.876"	"238.652"	"44.741"	"3.077"	"0"	"27.593"
"1988"	"9.724"	"35.026"	"51.386"	"34.906"	"21.232"	"152.816"	"510.329"	"336.849"	"116.448"	"1.36"	"0.787"	"29.473"
"1989"	"86.553"	"16.236"	"25.176"	"3.956"	"25.863"	"116.535"	"307.474"	"187.171"	"90.075"	"7.607"	"5.717"	"11.424"
"1990"	"4.364"	"99.247"	"68.775"	"14.561"	"138.031"	"85.102"	"349.726"	"324.228"	"146.86"	"15.078"	"15.825"	"47.602"
"1991"	"5.25"	"29.616"	"27.512"	"45.712"	"69.763"	"85.967"	"50.043"	"293.172"	"104.14"	"0.403"	"9.748"	"9.419"
"1992"	"38.857"	"82.077"	"36.137"	"12.206"	"41.275"	"98.694"	"245.666"	"220.119"	"70.599"	"14.946"	"47.132"	"0.164"
"1993"	"23.361"	"30.705"	"26.148"	"11.401"	"39.427"	"311.81"	"230.081"	"80.406"	"233.654"	"0.288"	"0"	"0.133"
"1994"	"20.946"	"13.401"	"31.106"	"15.396"	"61.359"	"59.176"	"343.657"	"323.668"	"71.692"	"1.579"	"0"	"2.739"
"1995"	"63.274"	"96.312"	"72.748"	"18.678"	"4.619"	"127.399"	"256.858"	"443.82"	"186.393"	"3.367"	"34.607"	"0.556"
"1996"	"70.437"	"57.914"	"31.226"	"26.666"	"57.858"	"196.61"	"312.047"	"322.968"	"251.963"	"36.487"	"0"	"3.905"
"1997"	"23.252"	"12.763"	"24.418"	"7.196"	"50.433"	"212.665"	"96.258"	"214.794"	"64.554"	"32.255"	"20.158"	"11.953"
"1998"	"18.744"	"40.154"	"67.76"	"54.755"	"25.183"	"31.537"	"283"	"397.528"	"96.64"	"42.667"	"8.009"	"3.684"
"1999"	"21.099"	"14.001"	"1.687"	"13.337"	"36.424"	"125.361"	"148.727"	"172.346"	"149.359"	"31.549"	"1.145"	"11.266"
"2000"	"15.392"	"72.449"	"16.962"	"10.621"	"59.512"	"214.334"	"170.704"	"249.883"	"79.982"	"0.288"	"0.19"	"0.325"
"2001"	"11.014"	"16.478"	"6.437"	"44.727"	"93.978"	"87.91"	"231.234"	"109.537"	"47.661"	"15.75"	"0.601"	"14.174"
"2002"	"65.853"	"67.932"	"71.609"	"25.89"	"5.241"	"52.756"	"249.175"	"157.624"	"275.206"	"4.659"	"0.995"	"1.652"
