
"Year"	"Jan"	"Feb"	"Mar"	"Apr"	"May"	"Jun"	"Jul"	"Aug"	"Sep"	"Oct"	"Nov"	"Dec"
"1901"	"1.29"	"0"	"0.119"	"0.201"	"80.438"	"65.048"	"264.471"	"130.994"	"1.763"	"22.32"	"0.013"	"0.447"
"1902"	"0.074"	"0"	"0"	"0.007"	"24.987"	"18.622"	"128.23"	"237.504"	"238.969"	"0.105"	"0.378"	"2.612"
"1903"	"0.077"	"0.035"	"0.123"	"0"	"40.461"	"5.021"	"480.366"	"143.886"	"150.692"	"0.246"	"0.013"	"0"
"1904"	"1.586"	"7.327"	"3.754"	"0"	"4.458"	"46.936"	"204.77"	"48.604"	"41.367"	"8.198"	"0.013"	"1.013"
"1905"	"0.156"	"0.035"	"4.357"	"0.137"	"0.151"	"29.939"	"521.588"	"8.372"	"101.758"	"0"	"0.013"	"0.118"
"1906"	"0.042"	"9.739"	"0"	"0"	"0.09"	"154.957"	"464.212"	"255.592"	"186.435"	"1.642"	"0.013"	"0.818"
"1907"	"0.247"	"5.856"	"0.172"	"3.185"	"0.146"	"40.345"	"292.106"	"454.482"	"11.799"	"0"	"0.051"	"0"
"1908"	"13.178"	"0.023"	"0"	"0.007"	"0.102"	"81.201"	"503.521"	"474.655"	"19.119"	"0.005"	"0.252"	"0"
"1909"	"0.295"	"1.29"	"0"	"14.284"	"0.553"	"103.708"	"317.691"	"270.158"	"143.135"	"0.183"	"0.013"	"4.066"
"1910"	"21.443"	"0"	"0"	"19.01"	"5.577"	"257.116"	"249.045"	"356.134"	"9.295"	"16.83"	"3.849"	"0"
"1911"	"28.138"	"0"	"14.96"	"0"	"0.067"	"159.723"	"65.045"	"25.65"	"49.883"	"0.007"	"10.101"	"0"
"1912"	"0"	"0.007"	"0"	"1.034"	"1.577"	"62.346"	"425.669"	"282.275"	"46.92"	"32.077"	"10.979"	"0"
"1913"	"0"	"0"	"3.371"	"0"	"12.454"	"209.331"	"507.341"	"194.136"	"102.798"	"0"	"1.567"	"0.121"
"1914"	"0"	"3.127"	"0"	"0.055"	"23.708"	"140.066"	"417.867"	"124.378"	"146.242"	"9.966"	"1.813"	"0.009"
"1915"	"2.746"	"2.016"	"5.432"	"0.467"	"2.588"	"63.895"	"104.173"	"52.939"	"14.424"	"55.903"	"0.019"	"0.035"
"1916"	"0"	"0.016"	"0"	"0"	"14.947"	"167.54"	"86.011"	"413.247"	"146.031"	"13.565"	"0.281"	"0"
"1917"	"0.023"	"10.959"	"0.03"	"2.187"	"74.017"	"110.947"	"288.772"	"348.991"	"353.578"	"43.958"	"0.013"	"0.666"
"1918"	"0"	"0"	"0.054"	"0"	"36.953"	"76.858"	"50.556"	"285.547"	"20.143"	"0"	"0.491"	"0"
"1919"	"30.037"	"0"	"0"	"1.893"	"37.896"	"71.072"	"378.648"	"594.275"	"34.619"	"1.322"	"17.846"	"0.756"
"1920"	"0.179"	"2.531"	"0.03"	"0"	"84.165"	"240.971"	"474.645"	"49.489"	"10.003"	"0"	"0.013"	"0"
"1921"	"0.009"	"0"	"0"	"0"	"0.067"	"38.505"	"486.803"	"193.294"	"326.126"	"0.128"	"0.013"	"0"
"1922"	"0.015"	"0"	"0"	"0.089"	"0.115"	"63.524"	"371.925"	"178.015"	"248.724"	"0.012"	"9.28"	"0.013"
"1923"	"0.041"	"2.935"	"0.039"	"7.689"	"21.347"	"1.383"	"181.872"	"115.371"	"16.323"	"0.915"	"0.013"	"0"
"1924"	"1.769"	"0"	"0"	"0"	"30.364"	"61.221"	"404.827"	"183.018"	"267.552"	"1.269"	"0.013"	"1.084"
"1925"	"0"	"0"	"0"	"0"	"7.656"	"304.199"	"245.713"	"54.374"	"1.758"	"0.146"	"10.465"	"0"
"1926"	"21.83"	"0"	"0.356"	"13.906"	"11.271"	"18.601"	"446.693"	"373.05"	"439.578"	"0"	"0.085"	"0.129"
"1927"	"0"	"2.942"	"0"	"0"	"6.749"	"97.362"	"791.993"	"333.01"	"57.809"	"13.311"	"1.565"	"17.548"
"1928"	"0.023"	"0.247"	"0.016"	"0"	"0.08"	"42.828"	"330.181"	"155.661"	"103.041"	"40.184"	"56.532"	"0.164"
"1929"	"1.355"	"0.016"	"0"	"2.474"	"0.153"	"141.721"	"438.266"	"183.749"	"2.634"	"0.03"	"0.013"	"7.751"
"1930"	"30.581"	"0.014"	"0"	"0.055"	"1.029"	"65.562"	"413.371"	"162.794"	"62.792"	"27.737"	"0.019"	"0.559"
"1931"	"0"	"0.263"	"0"	"0.056"	"0.967"	"3.435"	"131.105"	"510.06"	"94.24"	"56.058"	"0.781"	"3.314"
"1932"	"0"	"0"	"0.222"	"0.009"	"0.123"	"35.668"	"481.885"	"132.204"	"63.096"	"14.956"	"0.013"	"0"
"1933"	"0"	"1.331"	"0.09"	"2.031"	"58.428"	"113.941"	"334.088"	"581.053"	"147.094"	"0.325"	"6.253"	"0.056"
"1934"	"0.018"	"0"	"1.243"	"0"	"0.067"	"285.196"	"357.604"	"404.608"	"42.599"	"3.809"	"1.157"	"0"
"1935"	"7.833"	"0.749"	"0"	"2.64"	"0.189"	"29.624"	"438.325"	"64.656"	"226.97"	"5.143"	"0.019"	"0"
"1936"	"0"	"0.733"	"11.172"	"0.042"	"0.313"	"137.988"	"168.966"	"26.408"	"161.258"	"0"	"26.011"	"0"
"1937"	"0"	"2.684"	"0.007"	"0"	"0.067"	"247.98"	"532.521"	"12.114"	"296.432"	"0.142"	"0.013"	"1.964"
"1938"	"0.063"	"0"	"0.065"	"0"	"13.474"	"220.033"	"352.072"	"133.874"	"12.16"	"2.663"	"0.013"	"0"
"1939"	"0"	"6.594"	"9.777"	"0"	"0.067"	"10.379"	"123.774"	"229.425"	"155.199"	"0.009"	"0.059"	"0.015"
"1940"	"6.061"	"3.986"	"0.857"	"11.278"	"0.468"	"148.106"	"168.502"	"172.661"	"14.841"	"2.377"	"21.583"	"0"
"1941"	"0.106"	"14.248"	"2.775"	"1.026"	"0.81"	"11.268"	"571.669"	"410.064"	"59.677"	"0.134"	"0.013"	"0.811"
"1942"	"1.205"	"2.947"	"0"	"0.21"	"51.813"	"77.028"	"528.892"	"268.853"	"84.329"	"0"	"0.013"	"0.389"
"1943"	"0.029"	"0"	"0"	"0.216"	"9.236"	"101.746"	"473.704"	"103.345"	"138.799"	"10.802"	"1.693"	"0"
"1944"	"5.003"	"0.023"	"1.352"	"0.768"	"0.9"	"195.447"	"672.475"	"577.63"	"32.629"	"4.215"	"0.013"	"0"
"1945"	"5.983"	"0"	"0"	"1.307"	"37.13"	"269.355"	"408.106"	"189.313"	"198.261"	"0.012"	"0.013"	"0"
"1946"	"0"	"2.129"	"0"	"0.492"	"4.057"	"181.358"	"202.322"	"388.176"	"59.577"	"0.13"	"19.001"	"19.268"
"1947"	"0.225"	"0"	"0"	"1.162"	"0.074"	"2.609"	"223.466"	"343.676"	"238.636"	"40.214"	"9.71"	"0.044"
"1948"	"10.363"	"0.056"	"0.007"	"0.028"	"0.367"	"21.034"	"209.333"	"110.915"	"39.685"	"19.412"	"50.444"	"0.007"
"1949"	"0.134"	"0"	"0"	"0"	"0.176"	"29.734"	"346.6"	"288.344"	"120.388"	"12.479"	"0.481"	"0"
"1950"	"0.023"	"0"	"0.054"	"0"	"0.108"	"1.822"	"558.721"	"78.263"	"325.024"	"0.009"	"0.013"	"0.018"
"1951"	"0"	"0"	"0.079"	"0.117"	"0.453"	"26.286"	"194.011"	"216.411"	"6.521"	"0.895"	"6.109"	"0"
"1952"	"0"	"0"	"0"	"0.01"	"0.085"	"109.177"	"459.305"	"228.244"	"2.899"	"0.183"	"0.013"	"0"
"1953"	"18.271"	"0"	"0"	"0.035"	"0.247"	"84.733"	"235.174"	"403.614"	"92.101"	"0.052"	"0.013"	"0"
"1954"	"0.1"	"0.054"	"4.61"	"0"	"0.09"	"143.12"	"422.518"	"209.956"	"460.175"	"2.172"	"0.869"	"0"
"1955"	"0"	"0.375"	"0"	"0"	"0.247"	"75.265"	"50.331"	"429.257"	"432.768"	"43.812"	"0.013"	"0.218"
"1956"	"0.167"	"0.718"	"0.757"	"0.045"	"0.31"	"159.577"	"600.652"	"327.314"	"157.967"	"50.621"	"0.799"	"1.034"
"1957"	"2.992"	"0"	"0.751"	"11.284"	"5.463"	"156.216"	"262.009"	"186.576"	"2.878"	"7.102"	"5.836"	"1.164"
"1958"	"0.92"	"0"	"0.007"	"0.275"	"0.216"	"51.493"	"227.514"	"119.882"	"303.167"	"64.819"	"3.878"	"0.218"
"1959"	"0.055"	"0"	"0"	"5.421"	"0.522"	"56.013"	"576.559"	"188.281"	"374.277"	"74.969"	"1.43"	"0"
"1960"	"1.31"	"0"	"0.023"	"0"	"8.462"	"103.658"	"311.346"	"157.215"	"21.614"	"2.238"	"0.013"	"0.644"
"1961"	"0.062"	"7.014"	"0"	"0.166"	"2.511"	"124.815"	"267.811"	"119.501"	"392.496"	"10.033"	"0.16"	"0.025"
"1962"	"0"	"0"	"7.79"	"0.371"	"8.173"	"32.481"	"286.179"	"141.946"	"158.671"	"0"	"1.051"	"0.158"
"1963"	"0"	"0.046"	"0.132"	"1.598"	"2.93"	"103.892"	"201.06"	"304.882"	"388.859"	"51.845"	"42.585"	"0.638"
"1964"	"0"	"0"	"0.036"	"0"	"2.503"	"31.755"	"300.411"	"245.958"	"62.858"	"0.206"	"0.013"	"0.218"
"1965"	"15.353"	"0"	"6.477"	"8.623"	"0.899"	"6.085"	"384.231"	"136.977"	"34.103"	"0.01"	"0.268"	"0.042"
"1966"	"0.502"	"0"	"0"	"0"	"21.449"	"130.07"	"221.356"	"47.704"	"221.732"	"0.01"	"0.344"	"0.012"
"1967"	"0"	"0"	"14.874"	"0.022"	"0.224"	"128.23"	"378.747"	"173.52"	"104.257"	"4.559"	"0.013"	"23.243"
"1968"	"0"	"0"	"8.408"	"0.006"	"0.169"	"4.333"	"240.281"	"253.967"	"8.47"	"0.056"	"0.013"	"0"
"1969"	"0.134"	"0"	"0"	"0"	"0.067"	"74.748"	"209.576"	"97.649"	"61.59"	"0"	"2.052"	"0.684"
"1970"	"0.116"	"1.437"	"0.041"	"6.358"	"0.794"	"206.295"	"220.321"	"354.891"	"213.55"	"20.615"	"3.706"	"0"
"1971"	"0"	"0.058"	"0"	"0"	"4.324"	"187.105"	"282.2"	"129.252"	"82.293"	"9.471"	"0.013"	"0"
"1972"	"0"	"3.964"	"0"	"0.055"	"4.256"	"33.413"	"206.102"	"249.652"	"5.581"	"0"	"0.136"	"0"
"1973"	"2.545"	"0.168"	"0"	"0"	"2.284"	"142.172"	"302.277"	"377.539"	"381.744"	"5.773"	"0.013"	"2.07"
"1974"	"0"	"0"	"0"	"0.123"	"58.507"	"22.065"	"95.751"	"89.912"	"40.421"	"40.992"	"0.013"	"3.087"
"1975"	"0"	"0"	"0"	"0"	"0.255"	"178.717"	"281.934"	"358.362"	"370.417"	"52.078"	"0.013"	"0"
"1976"	"4.471"	"0.07"	"0"	"0.07"	"0.067"	"124.386"	"275.909"	"304.575"	"83.544"	"0"	"32.571"	"0.012"
"1977"	"5.68"	"0.488"	"0.028"	"1.01"	"24.888"	"217.661"	"510.342"	"200.738"	"137.391"	"0.045"	"1.315"	"0.007"
"1978"	"0.039"	"6.281"	"0.183"	"1.706"	"0.067"	"66.388"	"279.785"	"317.93"	"21.018"	"13.654"	"22.215"	"4.82"
"1979"	"0.04"	"4.122"	"0"	"0"	"4.13"	"73.597"	"130.765"	"329.6"	"17.345"	"8.759"	"54.17"	"0.028"
"1980"	"0"	"0.111"	"0"	"0"	"0.183"	"296.915"	"234.377"	"277.75"	"19.453"	"0"	"1.324"	"35.833"
"1981"	"0.209"	"0"	"2.833"	"0.028"	"15.184"	"37.003"	"282.156"	"367.162"	"110.524"	"12.791"	"40.723"	"0.006"
"1982"	"1.061"	"0.016"	"0.477"	"1.863"	"41.468"	"9.805"	"420.67"	"148.387"	"4.945"	"4.344"	"94.561"	"0.218"
"1983"	"0.848"	"0"	"0"	"3.612"	"3.493"	"40.378"	"310.195"	"291.452"	"169.022"	"38.981"	"0.013"	"0"
"1984"	"0.009"	"0.007"	"0.224"	"0.029"	"0.067"	"14.303"	"247.389"	"504.634"	"89.673"	"0.122"	"0.013"	"0.01"
"1985"	"0"	"0"	"0.424"	"4.502"	"7.293"	"6.273"	"248.147"	"204.929"	"24.342"	"33.818"	"0.164"	"0"
"1986"	"0.073"	"0.45"	"0"	"0"	"15.079"	"207.581"	"150.017"	"154.466"	"11.657"	"1.762"	"0.013"	"0.139"
"1987"	"1.708"	"1.621"	"0.997"	"0"	"11.206"	"44.911"	"67.575"	"185.853"	"2.618"	"2.93"	"1.814"	"20.249"
"1988"	"1.237"	"0"	"0.27"	"10.221"	"0.207"	"57.325"	"405.643"	"206.297"	"125.679"	"5.695"	"0.184"	"0"
"1989"	"2.639"	"0"	"0.84"	"0"	"2.312"	"98.288"	"210.828"	"321.697"	"42.752"	"0"	"0.013"	"0.123"
"1990"	"0.073"	"3.141"	"0"	"0"	"39.099"	"30.24"	"231.644"	"532.303"	"161.43"	"9.92"	"0.589"	"24.722"
"1991"	"0"	"0"	"0.007"	"0"	"2.075"	"57.322"	"406.988"	"92.407"	"16.501"	"0.083"	"1.188"	"1.049"
"1992"	"0.314"	"0.108"	"0.007"	"0"	"5.849"	"44.401"	"207.145"	"140.531"	"231.138"	"2.881"	"2.108"	"0"
"1993"	"0"	"0"	"0.244"	"0"	"4.516"	"52.435"	"485.456"	"89.351"	"117.106"	"9.054"	"7.56"	"0.416"
"1994"	"11.787"	"0"	"1.111"	"0.487"	"1.244"	"103.387"	"375.456"	"358.872"	"427.44"	"0.055"	"0.036"	"0"
"1995"	"1.879"	"0"	"1.212"	"1.934"	"4.661"	"21.633"	"326.766"	"101.726"	"79.763"	"5.675"	"2.108"	"3.674"
"1996"	"1.638"	"0"	"0.594"	"1.207"	"6.723"	"127.746"	"430.156"	"301.663"	"93.901"	"34.881"	"0.198"	"0"
"1997"	"11.115"	"0"	"0"	"8.661"	"20.434"	"153.02"	"211.554"	"319.288"	"88.392"	"4.486"	"10.357"	"2.228"
"1998"	"0.652"	"1.276"	"0.29"	"2.376"	"2.957"	"123.868"	"374.892"	"189.68"	"240.663"	"40.187"	"0.696"	"0"
"1999"	"1.072"	"2.983"	"0"	"0"	"6.293"	"181.413"	"267.755"	"72.332"	"58.661"	"37.612"	"0.013"	"0.244"
"2000"	"0"	"0.291"	"0"	"0.101"	"24.796"	"61.662"	"456.06"	"108.331"	"6.33"	"0.571"	"0.604"	"0"
"2001"	"0.11"	"0"	"0.351"	"1.898"	"54.376"	"221.883"	"237.416"	"158.897"	"4.624"	"23.534"	"0.047"	"0"
"2002"	"0"	"1.055"	"0.353"	"3.443"	"0.526"	"148.413"	"52.863"	"123.285"	"71.371"	"0"	"0.908"	"1.51"
