
"Year"	"Jan"	"Feb"	"Mar"	"Apr"	"May"	"Jun"	"Jul"	"Aug"	"Sep"	"Oct"	"Nov"	"Dec"
"1901"	"16.031"	"18.596"	"25.125"	"30.214"	"33.992"	"34.228"	"28.849"	"25.489"	"26.327"	"26.591"	"21.383"	"18.55"
"1902"	"19.027"	"21.164"	"28.007"	"31.28"	"34.345"	"33.41"	"27.75"	"27.154"	"26.068"	"25.225"	"19.907"	"17.016"
"1903"	"18.205"	"19.283"	"24.476"	"29.578"	"32.445"	"34.332"	"29.185"	"26.27"	"26.073"	"24.104"	"19.685"	"17.103"
"1904"	"18.109"	"19.792"	"24.35"	"30.962"	"33.266"	"31.688"	"25.772"	"25.273"	"25.731"	"25.472"	"20.424"	"18.095"
"1905"	"16.808"	"16.264"	"23.16"	"28.085"	"34.773"	"34.33"	"27.74"	"26.737"	"26.464"	"25.412"	"22.05"	"17.886"
"1906"	"16.904"	"18.785"	"24.271"	"30.776"	"35.438"	"31.504"	"26.905"	"26.59"	"25.3"	"24.67"	"21.66"	"18.421"
"1907"	"18.738"	"18.976"	"23.866"	"28.16"	"32.298"	"32.635"	"29.642"	"25.238"	"26.958"	"26.804"	"22.055"	"16.845"
"1908"	"16.926"	"20.43"	"24.542"	"31.644"	"33.973"	"33.606"	"26.34"	"25.403"	"26.699"	"25.403"	"20.901"	"17.031"
"1909"	"18.331"	"19.606"	"26.293"	"28.269"	"33.486"	"29.957"	"26.047"	"25.879"	"25.635"	"25.131"	"21.705"	"17.509"
"1910"	"17.421"	"20.393"	"25.827"	"30.106"	"33.837"	"30.425"	"27.208"	"25.96"	"26.178"	"24.051"	"19.354"	"17.996"
"1911"	"19.525"	"20.202"	"23.543"	"30.238"	"35.052"	"29.983"	"28.202"	"25.893"	"25.345"	"25.313"	"20.111"	"17.804"
"1912"	"18.392"	"21.299"	"24.982"	"30.26"	"34.225"	"34.005"	"27.929"	"25.973"	"25.745"	"25.274"	"19.944"	"17.079"
"1913"	"17.721"	"20.047"	"23.56"	"31.599"	"32.246"	"29.338"	"27.084"	"26.052"	"27.272"	"27.028"	"21.37"	"17.742"
"1914"	"19.745"	"20.623"	"24.466"	"29.772"	"33.49"	"31.188"	"26.703"	"26.047"	"26.562"	"25.718"	"22.336"	"17.909"
"1915"	"18.156"	"18.476"	"24.488"	"29.697"	"34.641"	"33.803"	"28.477"	"25.955"	"27.088"	"26.112"	"21.507"	"18.212"
"1916"	"18.052"	"19.37"	"27.375"	"31.325"	"34.169"	"28.866"	"27.825"	"25.868"	"26.36"	"24.574"	"19.362"	"16.643"
"1917"	"18.028"	"19.355"	"24.237"	"28.168"	"30.532"	"30.139"	"26.388"	"25.785"	"25.944"	"24.702"	"19.161"	"18.152"
"1918"	"16.183"	"20.763"	"25.627"	"29.322"	"34.791"	"30.604"	"28.911"	"26.175"	"26.947"	"26.495"	"22.006"	"17.083"
"1919"	"17.888"	"19.134"	"25.658"	"29.736"	"32.843"	"31.881"	"25.965"	"25.19"	"26.152"	"24.637"	"21.076"	"17.447"
"1920"	"17.85"	"19.937"	"25.857"	"30.305"	"30.99"	"31.326"	"26.198"	"25.922"	"27.369"	"27.138"	"22.397"	"19.26"
"1921"	"18.967"	"20.582"	"27.778"	"32.317"	"35.286"	"31.511"	"28.986"	"25.349"	"25.511"	"25.143"	"20.577"	"19.682"
"1922"	"17.109"	"21.726"	"26.504"	"31.067"	"34.283"	"30.815"	"26.668"	"25.446"	"25.801"	"24.966"	"20.617"	"17.118"
"1923"	"17.727"	"19.729"	"26.014"	"30.885"	"33.132"	"34.756"	"27.579"	"24.976"	"26.346"	"24.456"	"21.146"	"18.461"
"1924"	"17.418"	"20.454"	"27.087"	"31.537"	"32.742"	"33.547"	"26.876"	"25.921"	"25.884"	"24.507"	"19.834"	"17.602"
"1925"	"15.996"	"19.093"	"25.917"	"31.634"	"31.773"	"29.602"	"25.22"	"26.41"	"26.352"	"25.704"	"20.157"	"16.995"
"1926"	"17.943"	"21.408"	"24.043"	"26.765"	"31.761"	"34.233"	"27.85"	"25.985"	"25.801"	"23.332"	"18.455"	"16.039"
"1927"	"15.846"	"18.001"	"23.067"	"29.294"	"33.26"	"32.263"	"26.791"	"25.685"	"26.716"	"24.613"	"18.77"	"17.947"
"1928"	"17.249"	"20.086"	"25.171"	"29.739"	"34.145"	"31.488"	"26.53"	"26.513"	"27.03"	"25.532"	"21.809"	"16.872"
"1929"	"17.249"	"18.41"	"26.569"	"29.938"	"34.145"	"31.4"	"26.48"	"24.963"	"26.834"	"24.727"	"21.623"	"17.021"
"1930"	"17.745"	"19.539"	"26.225"	"29.352"	"33.213"	"31.865"	"25.902"	"25.596"	"26.335"	"26.334"	"20.256"	"18.464"
"1931"	"19.725"	"19.454"	"25.165"	"32.113"	"34.281"	"33.598"	"28.175"	"26.364"	"25.938"	"23.784"	"20.334"	"17.875"
"1932"	"20.176"	"18.964"	"24.999"	"29.751"	"33.478"	"32.967"	"27.213"	"25.961"	"26.096"	"25.536"	"20.497"	"18.457"
"1933"	"17.033"	"21.012"	"25.719"	"28.916"	"30.564"	"30.773"	"27.493"	"25.926"	"25.533"	"24.414"	"20.654"	"17.863"
"1934"	"16.547"	"20.856"	"24.537"	"30.42"	"33.341"	"31.572"	"26.474"	"25.728"	"25.399"	"23.902"	"20.092"	"17.848"
"1935"	"16"	"19.953"	"25.143"	"27.506"	"33.976"	"32.524"	"26.575"	"25.374"	"25.848"	"24.631"	"21.438"	"17.898"
"1936"	"16.24"	"19.756"	"25.112"	"29.519"	"34.67"	"30.175"	"26.838"	"25.759"	"25.731"	"24.688"	"20.877"	"17.302"
"1937"	"16.65"	"20.195"	"23.821"	"28.606"	"33.314"	"31.98"	"26.831"	"25.748"	"26.094"	"24.178"	"21.747"	"17.127"
"1938"	"18.052"	"18.445"	"26.917"	"31.065"	"34.68"	"27.973"	"26.439"	"26.155"	"27.193"	"25.082"	"20.28"	"18.001"
"1939"	"18.996"	"20.544"	"23.513"	"29.669"	"34.07"	"30.782"	"26.384"	"26.232"	"25.498"	"25.688"	"20.86"	"17.515"
"1940"	"17.613"	"19.739"	"23.718"	"29.498"	"33.824"	"31.993"	"27.189"	"25.539"	"26.06"	"25.173"	"21.454"	"17.326"
"1941"	"17.201"	"20.14"	"26.918"	"31.843"	"34.426"	"31.904"	"27.661"	"26.081"	"26.956"	"26.914"	"21.843"	"19.613"
"1942"	"16.234"	"20.112"	"26.192"	"31.503"	"34.69"	"33.603"	"25.885"	"25.662"	"25.737"	"25.252"	"21.327"	"17.306"
"1943"	"18.595"	"19.149"	"26.269"	"29.375"	"34.657"	"31.235"	"26.7"	"24.816"	"26.343"	"24.424"	"23.838"	"17.891"
"1944"	"17.072"	"19.317"	"23.627"	"29.428"	"34.662"	"31.156"	"26.38"	"25.77"	"26.235"	"24.034"	"21.354"	"19.554"
"1945"	"15.703"	"19.355"	"26.037"	"28.898"	"33.486"	"32.58"	"26.979"	"26.453"	"25.758"	"24.15"	"20.022"	"16.529"
"1946"	"18.636"	"21.841"	"25.496"	"31.862"	"33.893"	"30.388"	"26.585"	"25.406"	"26.224"	"25.377"	"19.451"	"18.623"
"1947"	"15.98"	"19.817"	"25.967"	"30.706"	"34.543"	"32.487"	"26.613"	"26.438"	"25.683"	"23.9"	"21.49"	"18.577"
"1948"	"17.218"	"19.154"	"24.971"	"31.772"	"35.39"	"32.044"	"27.45"	"25.945"	"25.816"	"25.588"	"19.813"	"17.403"
"1949"	"19.278"	"20.408"	"26.301"	"31.644"	"34.391"	"32.179"	"27.239"	"26.248"	"26.219"	"24.896"	"19.883"	"17.471"
"1950"	"18.633"	"19.003"	"24.19"	"29.699"	"34.254"	"32.765"	"27.086"	"25.723"	"26.205"	"24.734"	"20.02"	"17.3"
"1951"	"16.51"	"19.872"	"25.544"	"29.042"	"33.762"	"32.59"	"28.73"	"25.81"	"26.436"	"27.473"	"22.622"	"17.605"
"1952"	"19.2"	"22.023"	"25.166"	"31.55"	"35.32"	"31.475"	"26.881"	"25.025"	"26.865"	"26.051"	"21.159"	"18.963"
"1953"	"16.488"	"22.47"	"28.884"	"31.5"	"34.498"	"33.596"	"27.166"	"25.985"	"26.417"	"25.09"	"20.96"	"19.62"
"1954"	"16.597"	"21.493"	"25.625"	"31.339"	"35.31"	"32.689"	"27.894"	"25.842"	"25.168"	"23.494"	"21.163"	"18.353"
"1955"	"17.79"	"21.124"	"27.57"	"29.091"	"33.749"	"31.795"	"26.909"	"25.899"	"25.853"	"23.252"	"19.742"	"18.079"
"1956"	"17.895"	"20.233"	"26.486"	"31.159"	"34.483"	"29.504"	"25.885"	"25.05"	"25.571"	"24.173"	"19.145"	"18.388"
"1957"	"17.377"	"18.862"	"23.121"	"29.575"	"32.612"	"32.137"	"26.89"	"26.38"	"25.31"	"25.384"	"22.744"	"19.22"
"1958"	"19.58"	"20.608"	"26.162"	"32.007"	"34.467"	"33.602"	"26.596"	"26.462"	"25.571"	"23.939"	"21.382"	"18.953"
"1959"	"17.856"	"19.724"	"26.959"	"30.906"	"33.435"	"32.048"	"26.727"	"25.587"	"25.708"	"25.272"	"21.303"	"18.9"
"1960"	"16.542"	"22.511"	"25.237"	"30.699"	"34.665"	"33.583"	"27.446"	"24.849"	"26.484"	"24.368"	"20.481"	"19.404"
"1961"	"17.217"	"18.084"	"26.535"	"30.244"	"33.713"	"31.054"	"26.166"	"25.535"	"24.928"	"23.437"	"20.03"	"16.82"
"1962"	"16.039"	"19.512"	"24.418"	"29.829"	"33.361"	"32.136"	"27.32"	"25.231"	"24.959"	"23.056"	"21.096"	"18.862"
"1963"	"16.523"	"20.95"	"23.733"	"27.224"	"31.515"	"29.4"	"25.658"	"24.689"	"25.062"	"25.044"	"22.95"	"18.306"
"1964"	"16.956"	"20.533"	"27.564"	"32.012"	"33.092"	"31.84"	"27.36"	"25.978"	"25.871"	"25.855"	"20.891"	"18.783"
"1965"	"18.674"	"20.586"	"24.674"	"29.292"	"33.235"	"32.764"	"27.916"	"26.924"	"25.863"	"25.999"	"22.049"	"18.313"
"1966"	"18.204"	"22.503"	"25.427"	"29.913"	"32.971"	"30.615"	"28.978"	"25.637"	"27.623"	"27.145"	"23.169"	"17.842"
"1967"	"17.699"	"22.552"	"23.588"	"29.244"	"34.529"	"31.531"	"27.082"	"25.331"	"25.08"	"26.879"	"22.297"	"18.663"
"1968"	"17.118"	"19.623"	"26.892"	"29.098"	"31.989"	"30.32"	"26.748"	"25.524"	"27.071"	"25.27"	"22.609"	"18.998"
"1969"	"17.702"	"21.5"	"27.14"	"29.457"	"32.775"	"30.629"	"26.837"	"24.916"	"25.573"	"28.359"	"23.321"	"18.865"
"1970"	"18.309"	"20.208"	"26.245"	"33.073"	"34.978"	"30.567"	"27.796"	"25.606"	"25.423"	"25.177"	"20.491"	"18.282"
"1971"	"17.993"	"21.018"	"25.125"	"30.503"	"32.346"	"28.693"	"24.839"	"25.225"	"26.224"	"24.254"	"20.61"	"17.367"
"1972"	"17.756"	"18.963"	"25.879"	"29.305"	"33.384"	"32.977"	"28.04"	"24.819"	"25.931"	"25.091"	"21.419"	"19.2"
"1973"	"18.644"	"21.597"	"25.978"	"32.558"	"35.085"	"32.498"	"26.771"	"26.258"	"25.795"	"24.721"	"20.424"	"17.247"
"1974"	"17.054"	"20.533"	"27.694"	"31.875"	"33.954"	"32.078"	"27.054"	"25.366"	"27.666"	"25.925"	"20.329"	"17.67"
"1975"	"16.886"	"20.675"	"25.675"	"31.954"	"34.826"	"31.411"	"26.444"	"25.931"	"25.817"	"25.227"	"19.571"	"17.706"
"1976"	"18.007"	"20.713"	"25.524"	"29.469"	"33.655"	"30.021"	"27.179"	"25.648"	"25.502"	"25.814"	"23.73"	"19.099"
"1977"	"18.169"	"20.897"	"27.785"	"30.002"	"31.867"	"31.319"	"26.378"	"25.568"	"25.898"	"26.156"	"23.191"	"18.847"
"1978"	"17.097"	"19.481"	"23.91"	"29.706"	"35.551"	"30.669"	"25.964"	"24.475"	"25.993"	"25.62"	"23.206"	"17.656"
"1979"	"18.598"	"19.265"	"24.021"	"29.986"	"31.355"	"31.933"	"26.79"	"26.307"	"27.493"	"26.805"	"24.855"	"19.153"
"1980"	"18.909"	"21.635"	"26.179"	"32.018"	"34.184"	"30.21"	"26.185"	"24.948"	"27.198"	"26.723"	"22.926"	"18.535"
"1981"	"17.803"	"21.857"	"25.17"	"30.634"	"33.088"	"33.166"	"26.068"	"25.748"	"26.46"	"25.642"	"21.168"	"17.914"
"1982"	"19.057"	"19.079"	"23.771"	"29.24"	"31.644"	"32.359"	"28.682"	"25.103"	"26.502"	"26.706"	"21.916"	"19.8"
"1983"	"17.354"	"19.411"	"25.391"	"29.213"	"32.801"	"32.923"	"27.541"	"26.627"	"26.284"	"24.568"	"19.335"	"17.871"
"1984"	"17.464"	"18.472"	"26.541"	"30.958"	"35.125"	"31.67"	"27.366"	"24.767"	"25.4"	"25.72"	"20.995"	"18.79"
"1985"	"18.34"	"20.385"	"27.643"	"31.075"	"34.674"	"32.017"	"26.908"	"25.218"	"26.244"	"24.321"	"21.73"	"19.502"
"1986"	"18.027"	"19.221"	"25.095"	"31.089"	"33.114"	"31.37"	"25.537"	"25.8"	"26.54"	"26.062"	"22.23"	"17.714"
"1987"	"17.758"	"21.177"	"26.167"	"30.911"	"32.401"	"33.534"	"28.491"	"27.421"	"27.025"	"25.791"	"22.094"	"17.973"
"1988"	"18.641"	"22.039"	"26.284"	"31.94"	"35.622"	"32.389"	"26.825"	"26.638"	"27.891"	"25.476"	"21.594"	"18.716"
"1989"	"16.743"	"20.699"	"24.918"	"30.147"	"34.366"	"30"	"27.732"	"26.309"	"27.017"	"26.354"	"23.116"	"18.764"
"1990"	"20.389"	"21.016"	"24.585"	"31.013"	"32.135"	"29.242"	"25.64"	"26.079"	"25.442"	"25.736"	"22.395"	"19.271"
"1991"	"17.542"	"22.188"	"26.317"	"29.673"	"34.832"	"31.681"	"28.437"	"25.193"	"27.1"	"26.179"	"21.384"	"18.843"
"1992"	"18.439"	"19.65"	"26.474"	"30.674"	"32.958"	"34.329"	"28.941"	"26.148"	"25.796"	"25.623"	"21.986"	"18.806"
"1993"	"18.237"	"21.316"	"24.18"	"30.211"	"34.679"	"31.928"	"27.824"	"26.15"	"25.717"	"26.097"	"22.08"	"18.268"
"1994"	"19.776"	"20.005"	"27.199"	"29.514"	"34.403"	"30.237"	"25.246"	"25.048"	"26.1"	"25.574"	"22.03"	"18.652"
"1995"	"16.639"	"20.351"	"23.7"	"29.702"	"33.327"	"34.194"	"28.174"	"26.046"	"27.154"	"26.96"	"21.74"	"19.411"
"1996"	"18.189"	"20.803"	"26.771"	"30.209"	"34.037"	"33.438"	"28.12"	"25.295"	"26.988"	"25.362"	"21.636"	"17.327"
"1997"	"17.368"	"20.126"	"26.439"	"28.692"	"31.998"	"30.709"	"27.22"	"26.137"	"26.526"	"24.835"	"21.898"	"16.321"
"1998"	"17.103"	"20.92"	"23.705"	"30.407"	"34.922"	"32.558"	"27.482"	"26.927"	"27.627"	"26.751"	"22.131"	"19.268"
"1999"	"18.059"	"20.813"	"26.29"	"32.191"	"33.84"	"30.703"	"27.477"	"25.517"	"25.545"	"25.518"	"23.12"	"18.511"
"2000"	"19.168"	"19.6"	"25.15"	"32.377"	"32.425"	"30.074"	"26.574"	"26.815"	"26.559"	"27.795"	"24.046"	"19.821"
"2001"	"18.065"	"22.232"	"26.349"	"29.846"	"33.535"	"29.065"	"25.912"	"26.716"	"27.789"	"27.037"	"23.321"	"20.491"
"2002"	"18.302"	"21.062"	"26.844"	"31.981"	"35.262"	"31.885"	"29.496"	"25.809"	"26.522"	"26.959"	"22.732"	"21.074"
