
"Year"	"Jan"	"Feb"	"Mar"	"Apr"	"May"	"Jun"	"Jul"	"Aug"	"Sep"	"Oct"	"Nov"	"Dec"
"1901"	"15.822"	"19.322"	"24.714"	"30.948"	"32.188"	"32.77"	"30.033"	"29.2"	"28.896"	"27.722"	"21.828"	"17.46"
"1902"	"17.793"	"19.687"	"26.382"	"29.32"	"31.993"	"31.907"	"29.333"	"29.669"	"28.897"	"26.353"	"21.325"	"16.523"
"1903"	"16.891"	"18.823"	"24.413"	"30.682"	"33.447"	"31.474"	"30.633"	"29.231"	"29.102"	"26.79"	"21.093"	"16.626"
"1904"	"16.76"	"19.387"	"25.314"	"31.578"	"31.158"	"30.804"	"28.869"	"28.933"	"28.897"	"26.656"	"20.955"	"17.589"
"1905"	"15.622"	"15.52"	"22.512"	"27.451"	"30.795"	"33.071"	"29.433"	"28.564"	"28.6"	"26.952"	"21.694"	"16.99"
"1906"	"16.292"	"18.656"	"22.852"	"31.114"	"33.056"	"31.8"	"29.736"	"28.766"	"29.331"	"26.755"	"21.96"	"17.695"
"1907"	"17.86"	"18.687"	"22.244"	"27.953"	"31.585"	"31.865"	"29.804"	"29.703"	"29.265"	"27.158"	"21.461"	"16.96"
"1908"	"15.152"	"18.954"	"25.314"	"32.98"	"32.953"	"31.974"	"29.47"	"29.837"	"29.199"	"27.253"	"21.091"	"16.326"
"1909"	"17.589"	"19.186"	"26.511"	"28.553"	"32.851"	"30.399"	"29.566"	"28.769"	"29.401"	"27.158"	"21.893"	"17.66"
"1910"	"16.125"	"19.155"	"25.281"	"30.781"	"32.256"	"30.803"	"29.1"	"29.371"	"29.198"	"26.556"	"20.894"	"16.661"
"1911"	"18.023"	"18.486"	"23.614"	"30.315"	"33.221"	"30.703"	"30.501"	"29.034"	"28.6"	"26.556"	"20.693"	"16.061"
"1912"	"16.923"	"20.285"	"24.779"	"28.786"	"31.59"	"31.906"	"29.302"	"29.2"	"28.897"	"26.755"	"20.494"	"16.528"
"1913"	"16.391"	"18.985"	"23.111"	"31.678"	"31.055"	"29.437"	"29.634"	"28.869"	"29.299"	"26.257"	"20.393"	"16.495"
"1914"	"16.992"	"19.522"	"24.213"	"28.287"	"31.293"	"30.74"	"29.27"	"28.935"	"28.897"	"25.652"	"21.364"	"17.728"
"1915"	"17.324"	"19.151"	"24.016"	"30.085"	"32.361"	"31.004"	"30.497"	"29.597"	"29.166"	"28.457"	"23.292"	"17.225"
"1916"	"16.288"	"19.283"	"27.082"	"30.785"	"34.81"	"30.437"	"29.431"	"29.099"	"29.098"	"27.021"	"21.695"	"16.327"
"1917"	"16.191"	"18.886"	"23.914"	"28.948"	"29.857"	"30.702"	"29.532"	"29.2"	"28.532"	"26.457"	"21.494"	"16.86"
"1918"	"15.39"	"18.886"	"25.578"	"29.12"	"31.828"	"29.839"	"30.761"	"28.399"	"29.365"	"27.02"	"21.455"	"16.255"
"1919"	"17.487"	"18.185"	"25.643"	"29.317"	"32.15"	"31.137"	"29.632"	"29.399"	"28.797"	"26.657"	"21.693"	"17.024"
"1920"	"16.954"	"19.086"	"23.917"	"30.381"	"31.779"	"32.495"	"29.864"	"29.3"	"28.897"	"27.254"	"21.959"	"17.43"
"1921"	"17.423"	"19.218"	"26.584"	"31.45"	"34.721"	"31.865"	"29.832"	"29.067"	"28.794"	"25.857"	"20.959"	"16.417"
"1922"	"17.124"	"19.985"	"26.313"	"31.446"	"34.05"	"30.303"	"29.53"	"28.734"	"28.431"	"25.79"	"21.392"	"17.093"
"1923"	"16.692"	"18.985"	"25.215"	"31.283"	"33.05"	"32.935"	"29.632"	"29.504"	"29.195"	"26.253"	"21.493"	"17.586"
"1924"	"16.453"	"19.384"	"26.98"	"31.614"	"32.648"	"33.731"	"29.531"	"29.199"	"28.298"	"27.089"	"21.196"	"17.496"
"1925"	"15.323"	"17.584"	"24.817"	"29.793"	"31.952"	"31.032"	"29.136"	"29.128"	"28.894"	"26.222"	"21.159"	"16.691"
"1926"	"16.523"	"19.683"	"23.712"	"28.51"	"31.885"	"34.394"	"29.7"	"29.199"	"28.896"	"26.588"	"20.388"	"17.49"
"1927"	"16.153"	"19.083"	"23.383"	"30.678"	"31.385"	"32.267"	"29.734"	"29.034"	"29.264"	"27.051"	"21.755"	"17.722"
"1928"	"16.182"	"19.317"	"26.176"	"30.148"	"32.754"	"30.801"	"29.432"	"29.601"	"29.801"	"27.423"	"21.459"	"17.895"
"1929"	"16.63"	"18.386"	"25.518"	"30.116"	"33.718"	"32.658"	"29.335"	"28.934"	"29.099"	"26.055"	"21.259"	"16.794"
"1930"	"15.79"	"18.818"	"25.645"	"30.083"	"32.553"	"31.667"	"29.366"	"29.101"	"29.198"	"26.92"	"21.061"	"16.592"
"1931"	"17.655"	"18.986"	"24.747"	"31.321"	"32.354"	"33"	"29.599"	"29.766"	"29.296"	"27.251"	"21.357"	"17.828"
"1932"	"17.79"	"18.552"	"25.649"	"30.252"	"33.253"	"32.635"	"30.132"	"29.4"	"29.696"	"27.356"	"21.96"	"17.053"
"1933"	"15.189"	"19.988"	"25.418"	"28.448"	"31.976"	"31.001"	"29.267"	"28.701"	"28.9"	"26.69"	"21.362"	"17.328"
"1934"	"16.292"	"19.09"	"24.716"	"30.718"	"32.752"	"31.069"	"29.634"	"29.368"	"29.3"	"26.354"	"21.063"	"17.692"
"1935"	"16.022"	"19.754"	"25.514"	"29.048"	"33.323"	"32.268"	"30.233"	"28.666"	"29.095"	"26.654"	"21.595"	"17.36"
"1936"	"15.924"	"19.625"	"25.514"	"29.885"	"32.254"	"30.5"	"29.464"	"29.435"	"28.794"	"26.055"	"22.091"	"17.723"
"1937"	"15.222"	"19.322"	"24.05"	"29.847"	"32.021"	"32.434"	"30.263"	"28.795"	"29.497"	"25.953"	"21.256"	"16.626"
"1938"	"17.453"	"17.916"	"26.513"	"31.452"	"31.888"	"30.67"	"29.631"	"29.001"	"29.731"	"27.254"	"20.859"	"17.062"
"1939"	"17.355"	"19.986"	"23.912"	"31.018"	"33.257"	"31.434"	"29.866"	"29.005"	"29.131"	"26.753"	"21.793"	"17.692"
"1940"	"16.556"	"19.389"	"23.21"	"29.685"	"33.021"	"32.268"	"29.766"	"29.299"	"28.96"	"27.551"	"22.362"	"17.654"
"1941"	"16.922"	"19.891"	"26.985"	"31.986"	"32.358"	"31.396"	"30.433"	"29.063"	"29.129"	"26.755"	"21.661"	"18.431"
"1942"	"16.755"	"19.25"	"25.615"	"30.087"	"34.155"	"32.903"	"30.159"	"28.973"	"28.131"	"26.654"	"22.658"	"17.361"
"1943"	"18.558"	"18.388"	"25.581"	"28.419"	"33.158"	"32.263"	"29.529"	"28.767"	"29.101"	"27.059"	"21.797"	"18.655"
"1944"	"16.553"	"19.25"	"24.215"	"28.053"	"33.956"	"32.237"	"29.763"	"29.232"	"30.527"	"26.192"	"21.464"	"18.454"
"1945"	"16.124"	"18.016"	"25.514"	"28.883"	"31.989"	"32.768"	"30.827"	"29.6"	"28.966"	"25.786"	"20.996"	"16.321"
"1946"	"17.017"	"21.149"	"25.084"	"28.387"	"31.189"	"31.633"	"29.563"	"29.568"	"28.902"	"26.356"	"21.232"	"18.159"
"1947"	"16.818"	"19.62"	"26.079"	"31.454"	"32.424"	"33.069"	"29.764"	"29.571"	"29.098"	"26.787"	"21.761"	"17.989"
"1948"	"17.616"	"19.919"	"25.241"	"31.125"	"32.825"	"33.635"	"29.167"	"29.138"	"28.896"	"26.287"	"21.895"	"17.125"
"1949"	"17.49"	"18.824"	"24.85"	"28.657"	"30.627"	"31.569"	"29.433"	"29.3"	"28.897"	"27.416"	"20.931"	"16.126"
"1950"	"17.156"	"18.889"	"24.314"	"29.948"	"32.916"	"31.23"	"29.864"	"28.8"	"28.762"	"26.684"	"20.425"	"17.333"
"1951"	"16.26"	"19.453"	"25.648"	"30.15"	"33.391"	"32.702"	"29.532"	"29.994"	"29.264"	"28.224"	"22.363"	"17.657"
"1952"	"17.99"	"21.187"	"24.093"	"30.251"	"32.428"	"31.901"	"29.901"	"29.134"	"28.501"	"27.292"	"21.597"	"17.091"
"1953"	"16.389"	"20.586"	"27.622"	"30.728"	"33.231"	"31.605"	"29.3"	"29.335"	"28.634"	"26.591"	"21.288"	"19.123"
"1954"	"15.821"	"21.154"	"25.323"	"32.348"	"33.365"	"31.703"	"29.664"	"29.2"	"29.231"	"25.661"	"20.133"	"17.285"
"1955"	"16.814"	"18.946"	"26.853"	"29.622"	"33.155"	"31.772"	"28.738"	"28.831"	"28.73"	"26.725"	"21.93"	"17.057"
"1956"	"16.353"	"19.339"	"25.951"	"31.558"	"33.265"	"29.968"	"29.831"	"29.232"	"28.034"	"26.662"	"20.9"	"18.096"
"1957"	"16.835"	"18.757"	"24.51"	"30.818"	"34.719"	"32.637"	"29.965"	"29.732"	"29.765"	"27.326"	"21.834"	"18.662"
"1958"	"18.331"	"20.223"	"26.144"	"31.551"	"34.278"	"33.963"	"30.625"	"28.801"	"29.129"	"27.424"	"22.756"	"18.425"
"1959"	"17.124"	"19.124"	"25.185"	"31.016"	"32.892"	"32.166"	"30.229"	"29.738"	"28.66"	"26.366"	"21.597"	"17.926"
"1960"	"17.489"	"21.392"	"24.117"	"31.636"	"33.509"	"32.929"	"29.629"	"30.101"	"28.897"	"27.283"	"21.323"	"18.166"
"1961"	"17.821"	"18.558"	"25.742"	"30.779"	"33.418"	"31.035"	"29.634"	"29.602"	"28.903"	"26.757"	"20.859"	"14.956"
"1962"	"15.489"	"19.715"	"24.58"	"30.41"	"32.154"	"31.703"	"30.3"	"28.598"	"28.629"	"26.222"	"21.661"	"17.52"
"1963"	"15.655"	"20.583"	"24.745"	"29.517"	"31.256"	"31.303"	"29.567"	"29.165"	"28.558"	"27.387"	"22.519"	"18.861"
"1964"	"16.624"	"19.787"	"26.315"	"30.816"	"31.288"	"32.299"	"28.631"	"29.5"	"28.966"	"27.894"	"21.728"	"17.922"
"1965"	"17.653"	"19.917"	"23.847"	"29.146"	"32.678"	"32.899"	"29.501"	"29.199"	"28.256"	"26.984"	"22.391"	"16.184"
"1966"	"16.621"	"20.678"	"25.746"	"31.347"	"33.683"	"32.764"	"30.167"	"28.795"	"28.901"	"26.685"	"23.193"	"17.758"
"1967"	"17.321"	"20.983"	"24.079"	"28.889"	"32.62"	"32.702"	"29.965"	"29.132"	"28.897"	"26.315"	"20.991"	"18.821"
"1968"	"16.624"	"18.884"	"25.079"	"29.981"	"32.946"	"30.437"	"29.3"	"29.132"	"29.728"	"26.358"	"21.963"	"18.274"
"1969"	"16.221"	"19.916"	"26.915"	"31.05"	"31.858"	"32.268"	"29.835"	"28.567"	"28.531"	"27.158"	"23.128"	"17.859"
"1970"	"16.952"	"19.117"	"25.148"	"31.251"	"33.253"	"30.87"	"29.566"	"29.399"	"28.798"	"27.36"	"21.593"	"17.127"
"1971"	"16.155"	"17.176"	"24.419"	"27.825"	"29.826"	"29.697"	"28.533"	"27.696"	"28.498"	"26.554"	"20.728"	"17.527"
"1972"	"16.323"	"17.188"	"24.918"	"29.65"	"33.252"	"32.299"	"29.799"	"29.267"	"27.636"	"25.787"	"21.263"	"16.993"
"1973"	"16.629"	"19.82"	"23.786"	"30.754"	"31.693"	"30.506"	"29.532"	"29.301"	"28.731"	"26.824"	"21.458"	"17.49"
"1974"	"16.296"	"18.787"	"25.016"	"30.586"	"31.758"	"31.965"	"29.1"	"28.965"	"28.9"	"27.926"	"21.36"	"15.56"
"1975"	"16.255"	"19.186"	"24.814"	"30.387"	"32.421"	"31.367"	"28.373"	"29.003"	"28.5"	"27.689"	"21.487"	"17.023"
"1976"	"17.02"	"20.187"	"25.346"	"29.883"	"31.326"	"31.397"	"29.564"	"28.696"	"28.496"	"27.052"	"23.057"	"17.355"
"1977"	"16.321"	"19.52"	"26.411"	"29.617"	"29.628"	"30.704"	"29.365"	"29.43"	"29.431"	"26.319"	"23.227"	"16.901"
"1978"	"15.622"	"18.683"	"23.479"	"28.986"	"32.325"	"30.837"	"29.266"	"29.433"	"28.765"	"26.659"	"22.723"	"17.655"
"1979"	"17.421"	"17.649"	"24.846"	"30.352"	"33.555"	"32.128"	"29.999"	"30.869"	"28.366"	"27.32"	"24.021"	"18.896"
"1980"	"16.89"	"19.721"	"24.618"	"31.817"	"32.257"	"31.003"	"29.703"	"28.903"	"28.894"	"26.52"	"22.227"	"18.122"
"1981"	"16.124"	"19.353"	"24.381"	"28.26"	"30.466"	"31.768"	"29.233"	"29.262"	"29.232"	"26.887"	"21.49"	"17.257"
"1982"	"17.786"	"19.188"	"23.552"	"29.889"	"33.284"	"31.335"	"31.231"	"29.469"	"29.393"	"26.851"	"22.259"	"16.113"
"1983"	"16.057"	"19.989"	"24.877"	"29.32"	"31.189"	"32.657"	"30.33"	"29.865"	"29.969"	"26.857"	"21.624"	"17.893"
"1984"	"16.287"	"18.455"	"25.918"	"31.051"	"33.216"	"30.538"	"29.165"	"28.832"	"28.694"	"27.856"	"20.758"	"17.922"
"1985"	"17.488"	"19.02"	"26.922"	"31.019"	"31.961"	"32.368"	"28.934"	"29.301"	"28.831"	"26.653"	"21.986"	"18.822"
"1986"	"16.855"	"19.115"	"24.785"	"29.886"	"30.757"	"31.896"	"29.4"	"28.802"	"27.991"	"25.988"	"22.932"	"17.35"
"1987"	"16.483"	"21.223"	"24.912"	"29.885"	"32.02"	"32.666"	"29.534"	"28.266"	"29.199"	"27.215"	"22.453"	"19.051"
"1988"	"18.019"	"20.284"	"24.883"	"30.65"	"32.786"	"30.769"	"29.764"	"28.994"	"30.228"	"28.249"	"22.554"	"19.483"
"1989"	"15.783"	"19.166"	"25.514"	"30.907"	"32.859"	"30.738"	"29.567"	"28.626"	"29.6"	"28.022"	"22.291"	"16.818"
"1990"	"16.346"	"19.347"	"23.915"	"30.49"	"30.818"	"31.837"	"29.296"	"29.36"	"29.597"	"26.658"	"22.925"	"18.323"
"1991"	"17.327"	"20.209"	"25.482"	"29.783"	"33.049"	"30.468"	"29.897"	"28.764"	"29.131"	"27.351"	"21.945"	"17.458"
"1992"	"15.154"	"17.411"	"26.352"	"30.951"	"31.089"	"31.659"	"30.033"	"29.03"	"29.432"	"27.657"	"22.555"	"17.691"
"1993"	"17.461"	"21.356"	"24.351"	"29.388"	"32.161"	"32.166"	"30.435"	"28.598"	"28.897"	"27.656"	"22.161"	"18.392"
"1994"	"17.887"	"19.052"	"26.154"	"29.62"	"32.518"	"31.906"	"29.798"	"28.964"	"29.298"	"27.322"	"22.557"	"17.787"
"1995"	"15.021"	"21.501"	"25.119"	"30.317"	"32.959"	"32.634"	"29.498"	"28.698"	"29.196"	"27.356"	"22.792"	"18.823"
"1996"	"16.987"	"19.323"	"26.287"	"29.388"	"32.855"	"30.669"	"29.531"	"27.997"	"29.696"	"27.256"	"22.864"	"18.664"
"1997"	"15.925"	"18.649"	"25.449"	"29.955"	"31.718"	"32.301"	"29.551"	"29.331"	"28.463"	"26.356"	"22.756"	"17.959"
"1998"	"16.629"	"20.119"	"23.814"	"29.613"	"32.42"	"33.467"	"29.498"	"29.499"	"29.497"	"29.423"	"23.16"	"18.763"
"1999"	"17.319"	"20.561"	"25.851"	"32.295"	"32.823"	"31.5"	"29.528"	"29.099"	"28.96"	"27.993"	"23.294"	"18.789"
"2000"	"17.885"	"19.028"	"25.08"	"30.989"	"32.189"	"31.502"	"30.101"	"29.264"	"28.501"	"28.289"	"23.995"	"18.293"
"2001"	"17.488"	"19.858"	"24.884"	"30.883"	"33.023"	"30.799"	"29.499"	"29.699"	"29.798"	"28.594"	"24.326"	"19.623"
"2002"	"16.63"	"20.684"	"26.218"	"30.387"	"32.928"	"32.501"	"30.801"	"29.067"	"28.96"	"27.254"	"22.66"	"18.979"
