
"Year"	"Jan"	"Feb"	"Mar"	"Apr"	"May"	"Jun"	"Jul"	"Aug"	"Sep"	"Oct"	"Nov"	"Dec"
"1901"	"17.559"	"65.055"	"8.635"	"9.912"	"28.642"	"103.743"	"211.919"	"248.974"	"231.776"	"25.831"	"26.763"	"0"
"1902"	"9.209"	"1.769"	"2.548"	"11.008"	"20.44"	"126.853"	"325.548"	"361.437"	"270.174"	"10.982"	"1.487"	"15.828"
"1903"	"4.258"	"28.157"	"3.845"	"2.724"	"20.533"	"146.83"	"524.031"	"246.581"	"198.272"	"62.692"	"3.713"	"0.649"
"1904"	"0.478"	"5.988"	"35.324"	"0.261"	"100.341"	"225.079"	"323.831"	"639.854"	"146.448"	"54.205"	"0.414"	"3.33"
"1905"	"4.963"	"17.418"	"51.645"	"74.306"	"50.58"	"80.557"	"385.378"	"423.943"	"443.785"	"9.321"	"0.004"	"0.453"
"1906"	"4.254"	"63.943"	"28.005"	"0.201"	"5.402"	"239.036"	"504.493"	"265.475"	"193.467"	"49.165"	"6.236"	"1.494"
"1907"	"0.021"	"38.084"	"43.867"	"108.474"	"20.187"	"282.267"	"187.241"	"381.249"	"92.121"	"6.863"	"2.084"	"11.878"
"1908"	"12.363"	"18.486"	"6.634"	"6.741"	"22.83"	"322.774"	"284.744"	"477.457"	"173.199"	"51.157"	"0.004"	"0.287"
"1909"	"0.651"	"21.754"	"0.207"	"73.465"	"5.117"	"219.023"	"385.336"	"289.309"	"162.974"	"2.874"	"0.004"	"3.697"
"1910"	"8.528"	"3.124"	"19.587"	"11.296"	"8.526"	"210.09"	"413.304"	"637.752"	"169.518"	"50.003"	"11.424"	"0"
"1911"	"2.012"	"1.068"	"32.764"	"1.481"	"14.671"	"406.487"	"109.445"	"352.283"	"331.524"	"44.26"	"20.304"	"0.006"
"1912"	"0.088"	"47.623"	"7.917"	"16.306"	"19.675"	"95.406"	"322.441"	"385.368"	"152.144"	"22.566"	"23.483"	"0"
"1913"	"0"	"57.348"	"37.93"	"1.397"	"26.99"	"218.752"	"413.247"	"316.401"	"123.581"	"68.568"	"4.73"	"4.842"
"1914"	"0.687"	"29.88"	"23.736"	"71.403"	"34.482"	"211.202"	"236.283"	"361.225"	"252.023"	"4.001"	"0.004"	"6.639"
"1915"	"8.839"	"53.806"	"42.158"	"26.456"	"13.72"	"136.65"	"258.492"	"516.478"	"274.366"	"58.113"	"28.926"	"0"
"1916"	"0"	"11.995"	"0.207"	"3.787"	"5.578"	"301.038"	"345.673"	"381.22"	"122.663"	"87.931"	"16.925"	"0"
"1917"	"0.499"	"85.054"	"14.067"	"11.02"	"47.713"	"238.52"	"234.621"	"681.352"	"133.908"	"150.161"	"1.984"	"0.251"
"1918"	"4.236"	"0.31"	"15.074"	"4.29"	"29.139"	"311.03"	"231.811"	"484.149"	"215.696"	"4.317"	"0.533"	"2.279"
"1919"	"42.613"	"34.404"	"18.958"	"15.467"	"32.299"	"270.658"	"492.136"	"614.524"	"133.622"	"80.253"	"15.551"	"1.286"
"1920"	"1.109"	"15.926"	"55.927"	"0.698"	"19.065"	"110.492"	"471.799"	"461.068"	"129.211"	"28.518"	"0.004"	"0"
"1921"	"35.171"	"8.72"	"0.936"	"16.432"	"1.215"	"277.801"	"389.144"	"461.886"	"190.313"	"30.331"	"0.004"	"0"
"1922"	"6.788"	"3.19"	"0.207"	"7.532"	"6.172"	"275.63"	"327.341"	"435.466"	"303.689"	"40.635"	"12.723"	"0.251"
"1923"	"0"	"78.694"	"1.557"	"13.509"	"2.294"	"107.41"	"358.954"	"481.312"	"254.127"	"37.397"	"16.012"	"2.994"
"1924"	"18.569"	"15.082"	"0.754"	"17.522"	"16.161"	"72.834"	"312.851"	"325.38"	"275.938"	"59.138"	"30.147"	"0"
"1925"	"0.019"	"2.486"	"5.667"	"34.115"	"63.563"	"341.937"	"402.249"	"537.705"	"109.676"	"82.73"	"5.737"	"7.546"
"1926"	"3.337"	"2.783"	"87.802"	"26.881"	"39.749"	"125.953"	"340.124"	"410.269"	"273.697"	"37.997"	"2.103"	"3.615"
"1927"	"1.77"	"21.009"	"133.913"	"2.18"	"12.034"	"150.554"	"467.501"	"587.511"	"177.149"	"23.304"	"9.021"	"0"
"1928"	"1.898"	"7.037"	"1.184"	"51.357"	"42.795"	"185.783"	"427.851"	"333.826"	"218.654"	"135.421"	"0.813"	"0.731"
"1929"	"7.591"	"30.694"	"6.091"	"22.9"	"23.406"	"163.615"	"283.698"	"571.565"	"86.779"	"150.984"	"0.004"	"9.164"
"1930"	"0.509"	"4.96"	"3.117"	"32.769"	"43.891"	"153.615"	"519.375"	"321.814"	"225.83"	"27.928"	"29.451"	"3.357"
"1931"	"1.518"	"33.881"	"20.749"	"4.311"	"9.457"	"77.178"	"333.831"	"492.913"	"226.443"	"93.606"	"19.714"	"2.845"
"1932"	"0"	"27.927"	"0.872"	"49.677"	"30.717"	"74.349"	"448.536"	"424.815"	"179.514"	"24.795"	"28.291"	"0.489"
"1933"	"12.686"	"16.521"	"2.537"	"36.812"	"28.568"	"265.837"	"376.153"	"416.69"	"212.256"	"66.512"	"4.639"	"2.419"
"1934"	"2.055"	"5.875"	"3.179"	"8.313"	"2.007"	"218.252"	"376.924"	"563.69"	"179.523"	"35.841"	"12.873"	"0.251"
"1935"	"1.483"	"5.741"	"3.384"	"31.386"	"2.895"	"129.721"	"349.535"	"458.022"	"177.252"	"20.93"	"0.004"	"0"
"1936"	"2.631"	"69.404"	"16.761"	"7.792"	"71.64"	"429.567"	"536.392"	"449.89"	"200.943"	"97.429"	"7.323"	"3.737"
"1937"	"0"	"80.979"	"7.035"	"58.336"	"17.697"	"132.255"	"427.432"	"356.295"	"158.326"	"84.246"	"0.004"	"0"
"1938"	"8.508"	"23.062"	"1.362"	"2.71"	"77.876"	"201.017"	"215.772"	"351.746"	"362.326"	"50.438"	"4.461"	"0"
"1939"	"7.522"	"9.876"	"27.546"	"6.497"	"6.964"	"160.717"	"403.886"	"386.078"	"274.207"	"50.867"	"3.752"	"0.761"
"1940"	"0.074"	"39.989"	"141.148"	"21.972"	"32.318"	"203.101"	"353.03"	"572.706"	"196.796"	"24.468"	"3.655"	"2.792"
"1941"	"15.722"	"3.711"	"11.502"	"0.752"	"30.651"	"264.306"	"229.37"	"388.388"	"216.442"	"79.118"	"8.451"	"0"
"1942"	"6.904"	"51.868"	"23.19"	"38.874"	"5.201"	"126.752"	"414.078"	"519.954"	"279.031"	"23.267"	"10.118"	"0"
"1943"	"17.625"	"4.656"	"3.522"	"78.724"	"15.278"	"142.459"	"451.501"	"614.349"	"163.968"	"69.344"	"2.149"	"0"
"1944"	"14.328"	"95.498"	"135.059"	"45.799"	"14.177"	"121.924"	"410.65"	"482.466"	"162.784"	"67.621"	"1.522"	"0"
"1945"	"8.158"	"12.06"	"0.655"	"74.371"	"22.09"	"147.918"	"429.138"	"194.953"	"272.065"	"96.511"	"4.716"	"7.4"
"1946"	"0"	"8.336"	"15.706"	"28.547"	"29.153"	"276.587"	"501.371"	"601.183"	"216.2"	"77.482"	"23.179"	"0.489"
"1947"	"16.525"	"30.917"	"21.748"	"7.59"	"4.89"	"198.956"	"450.734"	"332.63"	"299.642"	"43.033"	"3.725"	"7.695"
"1948"	"10.382"	"51.033"	"13.629"	"58.151"	"16.467"	"185.773"	"333.592"	"388.913"	"274.945"	"30.983"	"34.119"	"0.489"
"1949"	"0.001"	"11.262"	"13.144"	"17.607"	"36.486"	"124.209"	"266.74"	"507.299"	"255.884"	"102.537"	"0.004"	"0"
"1950"	"2.094"	"26.641"	"71.759"	"22.215"	"7.731"	"164.041"	"332.968"	"344.888"	"65.284"	"28.597"	"12.109"	"2.876"
"1951"	"1.525"	"1.544"	"47.515"	"56.37"	"9.148"	"143.483"	"416.504"	"452.034"	"249.646"	"38.049"	"9.926"	"0"
"1952"	"0.456"	"8.049"	"40.325"	"47.978"	"13.606"	"204.405"	"267.674"	"319.759"	"234.898"	"69.824"	"0.004"	"4.585"
"1953"	"16.224"	"0.253"	"0.207"	"4.894"	"4.738"	"140.542"	"230.704"	"586.353"	"244.371"	"25.19"	"16.017"	"0"
"1954"	"1.642"	"20.705"	"1.879"	"0.804"	"21.409"	"196.529"	"73.12"	"188.665"	"309.238"	"47.914"	"0.004"	"4.049"
"1955"	"4.44"	"5.695"	"24.413"	"23.847"	"26.961"	"123.367"	"216.093"	"362.482"	"243.557"	"110.564"	"11.155"	"0"
"1956"	"3.451"	"30.555"	"7.18"	"20.119"	"59.269"	"319.697"	"733.703"	"695.591"	"292.896"	"63.238"	"5.121"	"2.171"
"1957"	"5.814"	"9.446"	"24.206"	"5.654"	"7.544"	"122.18"	"448.11"	"478.967"	"105.524"	"21.844"	"0.004"	"0"
"1958"	"13.354"	"31.696"	"19.468"	"73.178"	"12.294"	"109.876"	"681.516"	"340.563"	"240.216"	"115.521"	"17.631"	"0"
"1959"	"10.704"	"6.75"	"0.515"	"2.499"	"31.792"	"197.257"	"422.585"	"220.35"	"193.824"	"112.288"	"0.004"	"2.699"
"1960"	"1.322"	"0.253"	"31.508"	"7.735"	"24.713"	"172.726"	"532.948"	"461.67"	"141.326"	"40.103"	"0.007"	"1.496"
"1961"	"21.809"	"77.632"	"1.543"	"3.778"	"28.239"	"218.912"	"235.053"	"508.604"	"282.021"	"68.489"	"5.241"	"2.667"
"1962"	"2.551"	"24.34"	"3.732"	"3.341"	"5.807"	"163.832"	"534.01"	"248.067"	"237.865"	"101.138"	"1.099"	"7.241"
"1963"	"2.105"	"2.177"	"28.55"	"73.99"	"54.69"	"121.057"	"254.266"	"382.612"	"203.813"	"116.695"	"2.701"	"0"
"1964"	"0.4"	"36.264"	"12.755"	"43.712"	"27.06"	"137.996"	"324.749"	"627.327"	"234.53"	"45.092"	"9.184"	"0"
"1965"	"4.572"	"8.129"	"32.462"	"37.169"	"11.808"	"99.521"	"635.843"	"311.934"	"201.15"	"32.943"	"0.004"	"1.192"
"1966"	"36.346"	"10.313"	"0.387"	"0.677"	"4.459"	"199.228"	"139.685"	"250.25"	"184.314"	"27.919"	"16.18"	"7.459"
"1967"	"21.544"	"0.253"	"113.544"	"8.079"	"5.169"	"215.38"	"346.677"	"449.067"	"284.638"	"19.403"	"0.004"	"11.472"
"1968"	"11.645"	"30.23"	"2.524"	"1.708"	"8.707"	"184.434"	"417.53"	"281.569"	"233.606"	"57.309"	"10.182"	"1.331"
"1969"	"0.112"	"1.846"	"22.944"	"11.568"	"29.022"	"93.98"	"541.545"	"293.932"	"237.462"	"11.579"	"15.925"	"13.324"
"1970"	"4.858"	"35.526"	"61.237"	"4.033"	"26.654"	"304.937"	"290.852"	"398.493"	"172.968"	"34.625"	"1.978"	"0"
"1971"	"11.007"	"52.337"	"2.316"	"59.987"	"57.64"	"437.066"	"350.352"	"525.104"	"140.964"	"58.563"	"0.004"	"0"
"1972"	"2.51"	"47.23"	"0.938"	"33.658"	"4.975"	"86.194"	"264.286"	"409.335"	"239.955"	"99.383"	"18.057"	"0.489"
"1973"	"0.763"	"0.262"	"4.266"	"10.265"	"14.712"	"144.218"	"253.503"	"446.956"	"146.265"	"105.554"	"3.953"	"13.033"
"1974"	"0.019"	"2.531"	"56.832"	"0.568"	"19.999"	"161.94"	"385.084"	"305.837"	"125.552"	"86.863"	"7.208"	"0"
"1975"	"0.761"	"11.498"	"24.305"	"0.781"	"17.694"	"264.7"	"537.746"	"295.042"	"224.45"	"89.684"	"9.532"	"0"
"1976"	"3.085"	"2.679"	"1.05"	"75.026"	"16.676"	"84.253"	"540.982"	"410.321"	"333.079"	"19.691"	"11.486"	"0.635"
"1977"	"2.242"	"1.979"	"0.207"	"55.721"	"73.487"	"189.08"	"470.357"	"429.396"	"209.484"	"43.823"	"33.298"	"5.239"
"1978"	"5.206"	"46.354"	"41.645"	"45.307"	"21.927"	"265.819"	"436.604"	"487.832"	"254.698"	"42.661"	"7.483"	"22.017"
"1979"	"2.634"	"23.949"	"1.223"	"22.654"	"1.893"	"190.022"	"313.798"	"194.051"	"161.514"	"13.381"	"8.315"	"4.224"
"1980"	"24.801"	"31.379"	"27.884"	"8.343"	"15.468"	"316.163"	"428.318"	"418.191"	"189.407"	"34.42"	"0.004"	"6.224"
"1981"	"15.918"	"9.086"	"72.488"	"11.492"	"21.492"	"96.231"	"350.83"	"370.998"	"298.028"	"10.72"	"2.74"	"2.54"
"1982"	"5.423"	"12.046"	"52.128"	"31.176"	"21.412"	"147.644"	"332.205"	"501.401"	"206.274"	"8.377"	"12.461"	"0.889"
"1983"	"0.806"	"39.37"	"27.933"	"15.551"	"39.521"	"165.923"	"363.965"	"328.31"	"150.45"	"61.689"	"0.905"	"2.108"
"1984"	"12.715"	"20.924"	"2.825"	"20.248"	"27.59"	"365.052"	"329.485"	"380.751"	"116.054"	"33.906"	"0.636"	"0"
"1985"	"23.264"	"2.256"	"2.919"	"5.759"	"13.863"	"214.291"	"424.581"	"388.307"	"178.849"	"102.724"	"0.004"	"0.306"
"1986"	"19.496"	"40.446"	"2.476"	"18.691"	"17.254"	"183.636"	"411.284"	"416.324"	"210.155"	"23.717"	"26.108"	"4.249"
"1987"	"4.123"	"5.891"	"14.781"	"13.532"	"26.266"	"74.288"	"339.985"	"478.07"	"245.895"	"38.25"	"18.003"	"2.231"
"1988"	"1.106"	"21.553"	"22.082"	"19.435"	"37.421"	"153.307"	"420.225"	"304.335"	"193.472"	"31.013"	"1.099"	"0.435"
"1989"	"0.03"	"0.253"	"33.369"	"2.924"	"60.658"	"254.609"	"320.356"	"370.375"	"157.991"	"44.54"	"3.585"	"9.332"
"1990"	"0.424"	"74.663"	"61.054"	"7.879"	"55.775"	"286.993"	"607.817"	"458.467"	"174.955"	"114.19"	"8.427"	"1.482"
"1991"	"8.125"	"5.628"	"38.814"	"15.224"	"8.763"	"178.632"	"404.332"	"490.758"	"148.719"	"38.684"	"5.498"	"11.752"
"1992"	"8.148"	"4.035"	"0.207"	"5.843"	"51.32"	"134.854"	"393.505"	"279.874"	"136.629"	"36.537"	"6.009"	"0"
"1993"	"1.142"	"0.265"	"29.35"	"14.914"	"28.931"	"202.254"	"352.599"	"272.914"	"220.072"	"95.109"	"2.485"	"0"
"1994"	"7.41"	"16.241"	"27.704"	"17.003"	"21.581"	"249.9"	"456.549"	"414.652"	"156.986"	"99.9"	"3.883"	"0"
"1995"	"6.596"	"9.669"	"55.6"	"7.455"	"36.393"	"124.949"	"444.354"	"275.718"	"200.358"	"70.397"	"10.456"	"0"
"1996"	"7.681"	"8.303"	"9.825"	"19.758"	"8.478"	"205.615"	"320.88"	"390.093"	"94.427"	"65.21"	"5.991"	"0"
"1997"	"15.918"	"4.015"	"56.261"	"27.379"	"20.258"	"104.225"	"334.168"	"354.647"	"182.652"	"15.132"	"24.296"	"15.789"
"1998"	"6.886"	"47.156"	"7.762"	"15.425"	"40.713"	"138.283"	"279.925"	"215.978"	"200.564"	"130.655"	"33.495"	"0"
"1999"	"3.247"	"3.386"	"0.207"	"0.201"	"49.32"	"183.58"	"261.085"	"622.506"	"137.375"	"39.446"	"3.484"	"0"
"2000"	"1.617"	"71.942"	"0.207"	"21.439"	"24.09"	"311.584"	"231.238"	"301.024"	"135.666"	"19.25"	"2.117"	"0.034"
"2001"	"0.444"	"1.233"	"38.551"	"18.534"	"32.374"	"254.459"	"342.224"	"438.122"	"99.998"	"56.052"	"15.404"	"0"
"2002"	"37.303"	"7.254"	"8.776"	"20.682"	"31.599"	"140.944"	"272.736"	"459.22"	"142.111"	"38.26"	"11.144"	"0"
