
"Year"	"Jan"	"Feb"	"Mar"	"Apr"	"May"	"Jun"	"Jul"	"Aug"	"Sep"	"Oct"	"Nov"	"Dec"
"1901"	"19.6"	"21.898"	"26.149"	"31.018"	"33.17"	"33.254"	"28.224"	"27.161"	"27.527"	"27.008"	"22.234"	"19.164"
"1902"	"20.394"	"22.75"	"28.066"	"30.779"	"33.657"	"32.741"	"28.01"	"28.156"	"27.931"	"26.567"	"22.138"	"19.368"
"1903"	"20.558"	"21.403"	"26.99"	"31.654"	"33.521"	"31.634"	"28.301"	"27.857"	"27.612"	"25.865"	"21.512"	"18.458"
"1904"	"19.805"	"21.849"	"26.869"	"31.806"	"32.609"	"29.985"	"27.324"	"27.043"	"27.387"	"26.313"	"21.882"	"20.01"
"1905"	"19.516"	"20.464"	"25.926"	"29.05"	"32.648"	"34.184"	"27.718"	"28.068"	"27.379"	"26.023"	"22.336"	"19.056"
"1906"	"20.008"	"22.589"	"25.528"	"31.856"	"34.359"	"31.4"	"28.022"	"27.755"	"27.815"	"26.325"	"22.524"	"20.156"
"1907"	"19.927"	"22.559"	"25.639"	"28.647"	"32.059"	"30.695"	"28.509"	"26.614"	"27.78"	"26.721"	"23.081"	"18.656"
"1908"	"18.092"	"22.613"	"26.096"	"32.193"	"33.654"	"31.669"	"27.509"	"26.654"	"27.672"	"26.019"	"21.436"	"18.1"
"1909"	"21.092"	"22.456"	"26.836"	"28.303"	"32.89"	"29.4"	"26.918"	"27.613"	"27.375"	"25.424"	"22.047"	"19.82"
"1910"	"19.466"	"22.001"	"26.624"	"31.095"	"33.312"	"30.356"	"27.762"	"27.335"	"27.52"	"25.961"	"20.974"	"18.151"
"1911"	"20.998"	"21.509"	"25.882"	"30.497"	"33.493"	"29.237"	"28.704"	"26.576"	"27.363"	"26.055"	"22.829"	"18.668"
"1912"	"19.79"	"23.034"	"27.184"	"30.349"	"33.676"	"32.415"	"27.655"	"27.161"	"27.466"	"26.163"	"21.569"	"18.007"
"1913"	"18.863"	"22.546"	"25.689"	"31.181"	"32.17"	"28.962"	"27.464"	"27.061"	"27.564"	"25.653"	"21.23"	"19.206"
"1914"	"19.339"	"23.193"	"26.185"	"28.944"	"31.348"	"30.286"	"27.365"	"27.394"	"27.21"	"25.71"	"22.718"	"19.521"
"1915"	"19.842"	"22.404"	"26.025"	"30.707"	"33.588"	"32.041"	"28.562"	"28.051"	"27.573"	"27.002"	"23.825"	"18.907"
"1916"	"18.707"	"22.697"	"26.966"	"31.347"	"33.46"	"29.055"	"28.02"	"27.343"	"27.506"	"26.569"	"22.724"	"18.253"
"1917"	"19.104"	"21.636"	"25.314"	"29.612"	"30.477"	"29.101"	"27.406"	"27.161"	"27.273"	"26.111"	"21.695"	"18.831"
"1918"	"18.355"	"21.825"	"26.383"	"29.897"	"31.991"	"28.209"	"28.774"	"26.819"	"27.536"	"25.873"	"23.011"	"19.525"
"1919"	"21.488"	"22.341"	"26.781"	"30.359"	"32.221"	"29.441"	"27.431"	"26.871"	"27.559"	"25.818"	"22.534"	"18.865"
"1920"	"19.354"	"22.385"	"26.879"	"30.253"	"31.77"	"31.669"	"26.923"	"27.161"	"27.537"	"26.409"	"22.337"	"18.513"
"1921"	"19.829"	"21.594"	"27.667"	"31.185"	"35.809"	"30.689"	"27.96"	"26.726"	"26.973"	"25.078"	"20.138"	"19.368"
"1922"	"19.199"	"22.241"	"27.082"	"30.942"	"33.709"	"29.409"	"26.529"	"26.709"	"26.56"	"24.616"	"21.541"	"17.813"
"1923"	"18.643"	"21.7"	"25.018"	"30.529"	"33.75"	"33.383"	"27.331"	"26.567"	"27.508"	"25.319"	"21.472"	"19.29"
"1924"	"19.445"	"22.598"	"27.263"	"31.701"	"32.36"	"33.032"	"27.56"	"27.433"	"27.124"	"25.808"	"21.78"	"18.555"
"1925"	"18.553"	"21.397"	"26.195"	"30.787"	"32.186"	"30.156"	"26.33"	"27.161"	"27.516"	"25.8"	"22.381"	"18.358"
"1926"	"19.627"	"22.826"	"26.065"	"29.261"	"32.027"	"33.69"	"28.075"	"26.995"	"27.367"	"25.263"	"20.701"	"19.059"
"1927"	"20.55"	"23.067"	"26.182"	"31.275"	"33.209"	"31.935"	"27.511"	"26.917"	"27.865"	"25.876"	"21.739"	"19.651"
"1928"	"19.902"	"22.585"	"26.931"	"30.054"	"33.228"	"29.938"	"27.312"	"27.567"	"27.818"	"26.7"	"22.123"	"19.75"
"1929"	"20.165"	"21.198"	"26.731"	"30.509"	"34.006"	"31"	"26.853"	"26.61"	"27.862"	"25.108"	"21.487"	"19.559"
"1930"	"19.286"	"21.198"	"26.728"	"30.257"	"32.575"	"31.391"	"27.172"	"26.906"	"27.524"	"26.51"	"21.49"	"18.91"
"1931"	"20.286"	"22.786"	"26.542"	"31.46"	"33.606"	"32.943"	"27.464"	"27.257"	"27.974"	"26.165"	"21.935"	"19.166"
"1932"	"19.995"	"21.445"	"26.531"	"30.547"	"32.824"	"32.136"	"27.261"	"27.37"	"27.521"	"26.714"	"22.546"	"19.223"
"1933"	"19.152"	"22.641"	"26.678"	"29.767"	"31.27"	"29.482"	"27.405"	"27.152"	"27.419"	"25.965"	"21.932"	"19.37"
"1934"	"19.002"	"21.846"	"26.584"	"31.247"	"34.321"	"30.938"	"27.426"	"27.105"	"27.504"	"25.378"	"21.37"	"19.42"
"1935"	"19.245"	"22.795"	"26.679"	"29.314"	"34.374"	"32.387"	"27.252"	"27.024"	"27.382"	"26.033"	"21.848"	"20.111"
"1936"	"20.756"	"21.908"	"27.131"	"30.704"	"32.643"	"29.169"	"27.421"	"26.965"	"27.476"	"25.418"	"23.242"	"19.921"
"1937"	"18.351"	"22.798"	"25.94"	"29.533"	"32.928"	"31.389"	"27.423"	"27.161"	"27.332"	"25.613"	"22.176"	"18.552"
"1938"	"21.155"	"21.456"	"27.984"	"31.015"	"32.602"	"28.696"	"27.356"	"27.162"	"27.512"	"25.808"	"21.129"	"18.514"
"1939"	"20.081"	"22.902"	"25.894"	"30.719"	"34.199"	"31.193"	"26.866"	"27.02"	"27.189"	"26.466"	"21.385"	"18.813"
"1940"	"17.958"	"22.09"	"25.38"	"30.219"	"32.355"	"30.892"	"26.759"	"26.972"	"27.776"	"26.365"	"23.596"	"19.81"
"1941"	"20.662"	"22.749"	"27.628"	"32.298"	"33.51"	"29.963"	"27.623"	"27.651"	"27.871"	"25.671"	"21.022"	"20.068"
"1942"	"19.658"	"22.389"	"27.042"	"30.446"	"34.274"	"32.493"	"27.035"	"27.014"	"27.373"	"25.468"	"21.972"	"19.763"
"1943"	"21.13"	"20.733"	"26.428"	"29.345"	"33.058"	"30.813"	"27.333"	"26.551"	"27.551"	"26.42"	"22.279"	"18.946"
"1944"	"19.902"	"21.836"	"24.991"	"28.712"	"33.631"	"31.558"	"27.069"	"26.861"	"27.792"	"25.621"	"21.9"	"20.475"
"1945"	"18.902"	"21.658"	"26.977"	"29.507"	"33.575"	"31.895"	"27.496"	"27.909"	"27.336"	"25.125"	"21.301"	"17.767"
"1946"	"18.541"	"22.587"	"26.934"	"28.951"	"32.506"	"29.842"	"27.082"	"26.962"	"27.552"	"26.273"	"23.699"	"21.493"
"1947"	"20.543"	"22.085"	"27.19"	"32.058"	"34.065"	"31.746"	"27.264"	"27.568"	"27.823"	"25.665"	"22.197"	"19.656"
"1948"	"20.628"	"22.98"	"25.939"	"31.135"	"33.863"	"32.194"	"27.726"	"27.161"	"27.358"	"26.255"	"23.735"	"18.561"
"1949"	"19.839"	"22.04"	"27.043"	"30.776"	"32.756"	"31.44"	"27.613"	"27.049"	"27.575"	"26.502"	"21.386"	"18.435"
"1950"	"19.849"	"22.252"	"25.581"	"30.671"	"33.653"	"30.235"	"26.909"	"27.157"	"27.552"	"25.56"	"21.285"	"18.912"
"1951"	"18.811"	"22.459"	"26.48"	"29.651"	"32.841"	"31.152"	"27.728"	"27.264"	"28.362"	"27.354"	"22.866"	"19.667"
"1952"	"20.394"	"23.593"	"25.973"	"30.936"	"33.799"	"31.993"	"27.96"	"27.095"	"27.423"	"26.168"	"22.135"	"20.668"
"1953"	"19.849"	"23.747"	"28.974"	"31.653"	"34.959"	"32.277"	"27.676"	"27.065"	"27.763"	"26.323"	"21.739"	"19.812"
"1954"	"19.001"	"24.047"	"26.519"	"32.009"	"33.853"	"30.724"	"28.164"	"27.66"	"27.219"	"25.022"	"20.73"	"19.804"
"1955"	"19.744"	"23.251"	"27.678"	"30.356"	"33.095"	"31.935"	"27.274"	"27.352"	"27.372"	"25.905"	"21.391"	"19.259"
"1956"	"20.605"	"21.697"	"27.814"	"32"	"33.397"	"28.598"	"27.009"	"26.931"	"27.169"	"25.212"	"21.9"	"20.459"
"1957"	"21.101"	"22.303"	"25.58"	"30.627"	"34.128"	"32.305"	"27.223"	"27.449"	"27.52"	"26.76"	"22.65"	"20.801"
"1958"	"21.107"	"23.441"	"27.423"	"31.936"	"34.015"	"33.73"	"27.514"	"27.669"	"27.474"	"26.411"	"23.288"	"20.471"
"1959"	"20.54"	"22.751"	"27.125"	"31.246"	"34.015"	"31.184"	"27.519"	"26.874"	"27.189"	"26.095"	"21.871"	"19.155"
"1960"	"19.543"	"23.081"	"26.08"	"31.311"	"33.572"	"31.739"	"27.228"	"27.161"	"28.072"	"26.068"	"21.842"	"20.773"
"1961"	"20.251"	"21.13"	"27.833"	"31.347"	"33.611"	"30.136"	"26.966"	"27.415"	"26.867"	"25.557"	"21.185"	"17.622"
"1962"	"17.701"	"21.89"	"26.124"	"30.114"	"33.067"	"30.481"	"27.769"	"27.161"	"27.53"	"25.363"	"22.084"	"20.05"
"1963"	"18.363"	"23.181"	"26.584"	"29.958"	"32.364"	"30.598"	"27.331"	"27.45"	"27.382"	"26.263"	"23.238"	"19.914"
"1964"	"20.762"	"22.861"	"27.873"	"31.399"	"32.985"	"31.15"	"26.59"	"26.852"	"27.575"	"26.275"	"22.347"	"19.845"
"1965"	"20.15"	"22.743"	"25.984"	"29.616"	"32.728"	"32.43"	"27.5"	"27.565"	"27.321"	"26.351"	"22.98"	"19.925"
"1966"	"19.442"	"23.731"	"26.925"	"31.079"	"34.477"	"31.142"	"28.763"	"27.922"	"28.282"	"26.571"	"24.589"	"19.667"
"1967"	"19.922"	"23.847"	"25.779"	"30.166"	"33.868"	"32.726"	"28.356"	"26.968"	"27.47"	"25.726"	"22.444"	"21.882"
"1968"	"19.916"	"22.656"	"26.29"	"29.958"	"33.27"	"30.742"	"27.796"	"27.026"	"27.831"	"25.452"	"22.282"	"19.567"
"1969"	"19.905"	"24.703"	"28.498"	"31.856"	"32.412"	"31.607"	"27.476"	"27.156"	"27.34"	"27.198"	"24.118"	"20.039"
"1970"	"20.639"	"23.666"	"26.835"	"31.14"	"33.406"	"29.553"	"27.224"	"27.184"	"27.326"	"25.918"	"21.287"	"18.218"
"1971"	"19.885"	"22.449"	"25.675"	"29.063"	"29.859"	"28.322"	"26.368"	"25.867"	"27.431"	"26.294"	"22.925"	"18.766"
"1972"	"20.446"	"21.837"	"27.782"	"31.016"	"34.625"	"33.727"	"28.224"	"27.437"	"27.665"	"26.461"	"23.511"	"21.436"
"1973"	"21.621"	"24.322"	"26.774"	"32.221"	"33.803"	"31.908"	"27.728"	"27.255"	"27.526"	"25.948"	"22.023"	"19.452"
"1974"	"20.14"	"22.701"	"27.168"	"31.396"	"32.707"	"31.465"	"27.908"	"28.014"	"28.184"	"26.459"	"22.253"	"19.055"
"1975"	"18.698"	"22.805"	"26.518"	"31.846"	"34.296"	"31.146"	"27.027"	"27.257"	"27.022"	"26.673"	"20.778"	"18.51"
"1976"	"18.556"	"22.889"	"26.995"	"30.124"	"32.293"	"31.136"	"27.163"	"27.066"	"27.271"	"26.996"	"25.44"	"20.719"
"1977"	"19.804"	"23.474"	"27.986"	"29.999"	"30.873"	"30.914"	"27.412"	"27.161"	"27.427"	"26.127"	"24.115"	"19.277"
"1978"	"18.896"	"22.2"	"25.563"	"29.969"	"33.878"	"30.754"	"27.16"	"26.535"	"27.479"	"26.417"	"24.396"	"19.71"
"1979"	"20.802"	"21.304"	"26.318"	"30.407"	"33.073"	"31.376"	"28.533"	"27.59"	"26.74"	"27.099"	"25.354"	"20.455"
"1980"	"20.923"	"23.639"	"26.945"	"31.342"	"33.391"	"28.869"	"26.612"	"26.905"	"27.397"	"26.018"	"23.408"	"20.241"
"1981"	"19.381"	"23.801"	"26.118"	"29.864"	"31.956"	"31.397"	"27.61"	"27.571"	"27.505"	"26.61"	"22.963"	"19.606"
"1982"	"21.652"	"23.157"	"25.785"	"30.82"	"32.918"	"30.966"	"29.579"	"27.092"	"28.375"	"27.044"	"23.703"	"21.368"
"1983"	"20.566"	"22.417"	"27.196"	"30.302"	"32.358"	"32.307"	"28.406"	"27.704"	"27.816"	"25.68"	"22.203"	"19.55"
"1984"	"20.136"	"21.514"	"27.263"	"31.289"	"34.007"	"29.947"	"27.566"	"27.026"	"27.44"	"26.657"	"22.084"	"20.664"
"1985"	"20.84"	"22.686"	"27.713"	"31.078"	"32.19"	"30.767"	"26.065"	"25.863"	"27.546"	"24.257"	"21.811"	"20.208"
"1986"	"18.769"	"21.955"	"25.84"	"29.988"	"31.197"	"29.928"	"26.515"	"26.733"	"27.113"	"24.95"	"22.319"	"19.362"
"1987"	"18.448"	"21.628"	"25.304"	"29.934"	"31.381"	"31.398"	"26.805"	"26.713"	"27.216"	"25.413"	"21.485"	"18.442"
"1988"	"18.947"	"22.033"	"25.58"	"29.337"	"32.142"	"28.738"	"26.526"	"28.02"	"28.325"	"26.341"	"23.083"	"21.204"
"1989"	"19.67"	"23.646"	"26.913"	"31.811"	"33.641"	"29.947"	"27.969"	"27.412"	"27.659"	"26.715"	"23.374"	"19.71"
"1990"	"21.694"	"23.143"	"25.55"	"30.096"	"30.909"	"29.971"	"26.968"	"27.57"	"27.426"	"25.413"	"23.001"	"20.067"
"1991"	"20.41"	"24.306"	"27.394"	"30.357"	"33.06"	"30.369"	"28.057"	"27.108"	"27.934"	"26.318"	"22.027"	"19.612"
"1992"	"19.019"	"21.91"	"27.379"	"30.997"	"32.655"	"30.676"	"28.413"	"27.342"	"27.514"	"26.549"	"23.877"	"19.602"
"1993"	"20.643"	"22.869"	"26.26"	"30.494"	"33.282"	"31.675"	"28.173"	"27.561"	"27.476"	"26.757"	"22.241"	"19.459"
"1994"	"20.942"	"22.685"	"27.724"	"30.252"	"33.257"	"30.629"	"26.928"	"26.672"	"27.363"	"26.598"	"22.768"	"19.657"
"1995"	"18.902"	"22.686"	"26.426"	"30.612"	"31.559"	"32.62"	"27.617"	"27.784"	"27.517"	"26.31"	"23.029"	"20.474"
"1996"	"21.005"	"21.995"	"27.725"	"29.909"	"34.097"	"30.947"	"28.081"	"27.114"	"28.387"	"26.06"	"23.08"	"19.579"
"1997"	"19.039"	"21.66"	"26.893"	"28.646"	"32.423"	"32.381"	"27.923"	"27.166"	"27.57"	"26.509"	"24.586"	"21.666"
"1998"	"20.451"	"23.196"	"25.641"	"30.257"	"32.995"	"32.787"	"27.985"	"28.014"	"28.178"	"27.743"	"23.874"	"19.757"
"1999"	"18.622"	"23.892"	"27.383"	"32.535"	"32.359"	"30.492"	"27.462"	"27.099"	"27.175"	"26.943"	"22.897"	"20.254"
"2000"	"21.066"	"22.542"	"26.241"	"31.781"	"32.715"	"29.754"	"27.872"	"27.673"	"27.532"	"27.299"	"23.858"	"19.647"
"2001"	"19.703"	"23.14"	"27.239"	"30.307"	"33.241"	"29.01"	"26.963"	"27.452"	"28.466"	"27.249"	"24.627"	"20.603"
"2002"	"20.148"	"23.591"	"27.767"	"30.986"	"34.056"	"30.892"	"28.561"	"26.97"	"27.495"	"26.626"	"23.067"	"21.053"
