
"Year"	"Jan"	"Feb"	"Mar"	"Apr"	"May"	"Jun"	"Jul"	"Aug"	"Sep"	"Oct"	"Nov"	"Dec"
"1901"	"22.627"	"22.216"	"26.307"	"28.504"	"28.353"	"26.736"	"25.378"	"25.008"	"25.673"	"26.342"	"24.503"	"23.529"
"1902"	"23.568"	"24.011"	"26.919"	"28.349"	"29.558"	"27.494"	"26.231"	"26.091"	"25.169"	"26.859"	"24.036"	"23.519"
"1903"	"22.822"	"22.681"	"25.046"	"28.116"	"28.634"	"27.611"	"25.559"	"25.353"	"25.516"	"25.271"	"23.74"	"22.631"
"1904"	"22.824"	"23.4"	"25.386"	"28.021"	"28.997"	"26.782"	"25.621"	"25.942"	"25.429"	"26.233"	"23.396"	"22.884"
"1905"	"22.096"	"22.711"	"24.465"	"26.407"	"29.665"	"27.913"	"25.782"	"25.441"	"25.263"	"27.026"	"24.894"	"22.585"
"1906"	"22.631"	"22.834"	"25.53"	"28.906"	"29.697"	"26.59"	"25.405"	"25.469"	"24.582"	"25.761"	"25.167"	"23.832"
"1907"	"23.129"	"23.871"	"25.779"	"26.721"	"28.279"	"26.835"	"25.534"	"24.349"	"25.255"	"26.8"	"25.376"	"22.508"
"1908"	"22.65"	"23.189"	"25.658"	"28.826"	"28.709"	"27.498"	"24.825"	"24.763"	"25.64"	"26.431"	"23.713"	"21.589"
"1909"	"23.312"	"23.755"	"27.282"	"27.219"	"29.348"	"26.378"	"24.805"	"25.502"	"24.879"	"25.881"	"24.613"	"24.101"
"1910"	"22.873"	"23.464"	"26.355"	"28.734"	"29.02"	"26.931"	"25.875"	"25.19"	"24.848"	"25.248"	"22.502"	"22.052"
"1911"	"23.472"	"22.982"	"25.425"	"28.16"	"29.681"	"26.494"	"26.145"	"24.944"	"25.593"	"27.529"	"26.186"	"24.454"
"1912"	"23.382"	"24.613"	"26.561"	"29.362"	"29.688"	"28.453"	"26.037"	"25.44"	"26.065"	"26.464"	"24.314"	"22.909"
"1913"	"22.049"	"24.615"	"25.756"	"29.238"	"29.028"	"25.933"	"25.358"	"25.308"	"25.686"	"26.318"	"24.633"	"24.339"
"1914"	"22.938"	"24.369"	"25.658"	"27.735"	"29.693"	"27.306"	"25.237"	"25.202"	"25.538"	"26.448"	"25.357"	"23.932"
"1915"	"23.323"	"23.688"	"25.907"	"28.59"	"29.197"	"28.126"	"26.084"	"25.552"	"25.542"	"25.841"	"25.815"	"22.542"
"1916"	"22.949"	"23.358"	"27.154"	"28.901"	"29.636"	"26.116"	"26.517"	"25.526"	"25.629"	"26.022"	"24.968"	"22.537"
"1917"	"22.635"	"23.312"	"25.283"	"27.114"	"28.139"	"25.984"	"25.988"	"25.743"	"25.245"	"24.991"	"23.654"	"22.445"
"1918"	"21.97"	"23.768"	"25.503"	"27.208"	"27.699"	"26.55"	"26.729"	"26.051"	"25.888"	"27.569"	"26.542"	"24.383"
"1919"	"23.772"	"24.516"	"26.415"	"28.196"	"28.941"	"26.415"	"25.597"	"25.503"	"25.63"	"26.172"	"25.759"	"23.056"
"1920"	"23.83"	"23.469"	"26.422"	"28.03"	"28.59"	"26.749"	"25.074"	"25.336"	"25.899"	"26.676"	"24.79"	"23.219"
"1921"	"23.587"	"23.526"	"27.147"	"29.147"	"29.401"	"27.225"	"25.907"	"24.976"	"24.963"	"26.137"	"23.876"	"23.181"
"1922"	"23.541"	"24.364"	"26.58"	"28.997"	"29.041"	"26.878"	"24.911"	"25.069"	"25.08"	"26.123"	"24.334"	"21.921"
"1923"	"22.618"	"22.578"	"26.122"	"27.705"	"28.374"	"28.186"	"25.248"	"25.276"	"25.006"	"25.813"	"24.461"	"24.082"
"1924"	"23.844"	"24.365"	"27.594"	"29.204"	"29.587"	"27.508"	"26.193"	"25.958"	"25.323"	"24.974"	"23.259"	"23.201"
"1925"	"21.842"	"22.975"	"26.579"	"29.346"	"28.766"	"26.135"	"25.278"	"25.56"	"25.866"	"26.542"	"25.821"	"23.439"
"1926"	"23.923"	"25.151"	"26.376"	"26.656"	"29.034"	"28.509"	"26.189"	"25.425"	"25.451"	"26.661"	"24.525"	"23.313"
"1927"	"23.526"	"23.849"	"26.645"	"28.301"	"28.954"	"26.442"	"24.894"	"25.029"	"25.776"	"26.167"	"23.3"	"23.41"
"1928"	"23.499"	"23.739"	"26.347"	"28.668"	"29.179"	"27.401"	"25.646"	"25.267"	"24.69"	"26.065"	"25.074"	"23.553"
"1929"	"22.899"	"23.958"	"27.388"	"27.975"	"29.449"	"26.534"	"25.42"	"25.418"	"26.054"	"25.999"	"25.027"	"23.819"
"1930"	"23.454"	"22.219"	"26.404"	"27.711"	"29.225"	"27.02"	"24.685"	"24.824"	"25.262"	"26.414"	"23.791"	"24.183"
"1931"	"23.241"	"24.217"	"25.739"	"29.455"	"29.557"	"28.374"	"25.338"	"25.43"	"25.012"	"25.174"	"24.549"	"22.751"
"1932"	"22.368"	"22.61"	"25.824"	"27.863"	"28.998"	"26.802"	"25.062"	"25.793"	"25.29"	"26.578"	"24.894"	"23.171"
"1933"	"22.661"	"23.691"	"25.74"	"27.947"	"27.841"	"25.847"	"25.378"	"24.881"	"24.84"	"25.541"	"25.063"	"22.916"
"1934"	"22.012"	"23.495"	"25.306"	"28.328"	"28.798"	"26.637"	"25.103"	"24.662"	"24.815"	"26.224"	"23.553"	"22.553"
"1935"	"21.954"	"23.317"	"25.197"	"26.868"	"29.242"	"27.222"	"25.056"	"25.218"	"24.4"	"26.503"	"23.774"	"23.714"
"1936"	"22.847"	"22.905"	"25.838"	"27.819"	"29.773"	"25.79"	"25.238"	"25.174"	"25.821"	"26.195"	"25.521"	"23.345"
"1937"	"22.27"	"23.706"	"25.62"	"27.42"	"29.076"	"26.882"	"24.766"	"25.292"	"25.204"	"25.667"	"24.445"	"23.302"
"1938"	"23.965"	"22.756"	"26.802"	"28.633"	"28.737"	"25.111"	"24.894"	"25.225"	"24.653"	"24.538"	"23.803"	"22.968"
"1939"	"23.291"	"24.175"	"25.287"	"27.823"	"28.747"	"27.059"	"24.861"	"25.218"	"24.92"	"26.314"	"23.709"	"22.454"
"1940"	"21.949"	"23.783"	"25.129"	"27.922"	"29.113"	"26.95"	"24.962"	"24.794"	"25.41"	"25.932"	"25.536"	"23.317"
"1941"	"22.747"	"24.741"	"27.322"	"29.281"	"29.844"	"27.492"	"25.772"	"26.051"	"26.074"	"27.151"	"25.547"	"25.35"
"1942"	"23.421"	"24.295"	"27.479"	"29.025"	"29.64"	"27.32"	"24.704"	"24.858"	"24.682"	"26.797"	"24.424"	"23.657"
"1943"	"23.702"	"22.832"	"26.366"	"27.684"	"28.695"	"25.962"	"24.764"	"24.886"	"24.599"	"25.376"	"25.488"	"22.359"
"1944"	"23.27"	"22.938"	"24.904"	"27.605"	"30.035"	"27.343"	"25.22"	"25.17"	"25.57"	"25.976"	"25.025"	"24.38"
"1945"	"22.199"	"23.37"	"26.517"	"27.288"	"29.139"	"27.137"	"25.25"	"25.468"	"24.748"	"25.988"	"23.8"	"22.327"
"1946"	"22.256"	"23.874"	"26.495"	"27.951"	"28.304"	"26.309"	"25.044"	"24.846"	"25.088"	"26.98"	"25.349"	"25.226"
"1947"	"23.454"	"24.046"	"26.537"	"27.222"	"29.369"	"27.917"	"25.583"	"26.198"	"24.776"	"25.07"	"24.836"	"23.771"
"1948"	"24.029"	"23.831"	"26.345"	"28.605"	"29.567"	"27.412"	"25.684"	"25.482"	"24.816"	"26.557"	"26.368"	"22.397"
"1949"	"23.549"	"23.344"	"26.857"	"28.293"	"28.747"	"26.755"	"25.879"	"25.686"	"24.89"	"26.182"	"24.148"	"23.419"
"1950"	"23.185"	"22.961"	"25.602"	"28.255"	"28.804"	"27.239"	"25.175"	"25.948"	"25.176"	"25.186"	"24.082"	"23.584"
"1951"	"23.016"	"23.822"	"26.24"	"27.378"	"29.517"	"27.007"	"25.994"	"25.307"	"26.812"	"26.79"	"25.93"	"22.899"
"1952"	"23.403"	"24.448"	"25.291"	"28.792"	"29.622"	"27.044"	"25.625"	"24.947"	"25.39"	"26.494"	"23.928"	"25.403"
"1953"	"23.245"	"25.194"	"28.278"	"28.309"	"29.434"	"27.649"	"25.736"	"25.138"	"25.527"	"26.475"	"24.865"	"23.106"
"1954"	"22.712"	"24.962"	"26.292"	"28.6"	"29.681"	"26.696"	"25.05"	"25.2"	"24.16"	"25.255"	"23.869"	"24.207"
"1955"	"23.999"	"24.852"	"26.766"	"27.725"	"29.052"	"26.906"	"25.673"	"24.794"	"25.71"	"25.782"	"23.44"	"23.084"
"1956"	"23.407"	"23.429"	"27.069"	"28.952"	"27.813"	"26.325"	"24.159"	"24.658"	"24.573"	"25.515"	"24.907"	"23.377"
"1957"	"23.656"	"23.333"	"25.434"	"28.428"	"29.489"	"27.908"	"25.452"	"25.192"	"25.523"	"27.056"	"25.509"	"25.193"
"1958"	"23.765"	"23.938"	"26.449"	"29.004"	"29.816"	"28.371"	"25.314"	"25.592"	"25.17"	"26.348"	"26.104"	"24.482"
"1959"	"24.293"	"24.816"	"27.098"	"28.902"	"30.053"	"27.322"	"24.697"	"25.174"	"25.017"	"25.631"	"25.046"	"24.63"
"1960"	"23.887"	"24.75"	"26.077"	"28.776"	"29.264"	"26.91"	"25.865"	"24.937"	"25.29"	"25.762"	"25.134"	"24.703"
"1961"	"23.826"	"22.822"	"27.399"	"28.968"	"28.296"	"26.422"	"24.727"	"25.338"	"24.657"	"25.374"	"25.274"	"24.414"
"1962"	"21.933"	"24.277"	"26.163"	"28.28"	"29.533"	"27.333"	"25.274"	"25.066"	"24.963"	"26.09"	"24.635"	"23.825"
"1963"	"24.164"	"23.973"	"26.514"	"27.141"	"29.041"	"26.461"	"25.362"	"24.466"	"25.101"	"26.33"	"25.556"	"24.729"
"1964"	"22.83"	"24.06"	"27.132"	"29.47"	"28.94"	"26.838"	"25.281"	"24.408"	"24.636"	"26.055"	"24.467"	"23.195"
"1965"	"23.443"	"23.896"	"25.884"	"28.086"	"28.801"	"26.953"	"25.044"	"25.566"	"25.949"	"27.27"	"26.078"	"25.176"
"1966"	"23.613"	"25.004"	"26.688"	"28.779"	"28.407"	"27.768"	"26.166"	"25.838"	"25.72"	"27.063"	"26.296"	"24.301"
"1967"	"23.329"	"24.61"	"26.542"	"28.829"	"29.934"	"27.52"	"25.487"	"25.047"	"25.223"	"26.267"	"25.081"	"25.783"
"1968"	"22.45"	"24.02"	"26.087"	"28.501"	"29.244"	"27.7"	"25.592"	"25.252"	"26.075"	"25.483"	"24.543"	"24.196"
"1969"	"23.215"	"25.062"	"27.853"	"29.746"	"30.259"	"27.628"	"25.46"	"25.455"	"25.113"	"26.712"	"26.701"	"24.816"
"1970"	"23.692"	"25.117"	"26.749"	"29.375"	"29.714"	"26.383"	"25.468"	"24.915"	"25.098"	"26.422"	"23.966"	"22.002"
"1971"	"22.402"	"24.323"	"26.163"	"29.11"	"29.143"	"26.029"	"25.737"	"25.262"	"25.848"	"25.135"	"23.979"	"22.568"
"1972"	"22.988"	"23.227"	"27.234"	"28.435"	"29.299"	"28.377"	"26.15"	"25.976"	"26.51"	"27.749"	"25.245"	"25.405"
"1973"	"23.718"	"25.309"	"27.291"	"29.925"	"30.288"	"27.282"	"25.398"	"24.812"	"24.631"	"25.687"	"24.549"	"24.303"
"1974"	"23.374"	"24.419"	"27.297"	"29.24"	"28.21"	"26.489"	"25.757"	"24.97"	"25.584"	"25.778"	"23.843"	"22.916"
"1975"	"22.302"	"24.082"	"26.042"	"29.079"	"29.354"	"26.554"	"25.166"	"25.194"	"25.195"	"26.231"	"23.349"	"22.203"
"1976"	"22.201"	"23.559"	"26.696"	"27.658"	"28.526"	"26.448"	"25.481"	"24.98"	"25.693"	"27.5"	"26.851"	"24.902"
"1977"	"23.071"	"24.81"	"27.839"	"28.281"	"29.003"	"27.079"	"25.398"	"25.275"	"25.841"	"26.476"	"26.832"	"23.491"
"1978"	"23.159"	"23.734"	"25.37"	"28.081"	"29.092"	"25.802"	"24.769"	"24.544"	"25.212"	"26.422"	"26.406"	"24.607"
"1979"	"24.169"	"23.342"	"25.952"	"28.59"	"28.634"	"27.581"	"26.058"	"25.003"	"25.582"	"27.493"	"26.671"	"24.716"
"1980"	"23.863"	"24.923"	"26.588"	"28.726"	"29.526"	"26.071"	"25.452"	"24.791"	"25.868"	"27.71"	"26.786"	"23.816"
"1981"	"22.631"	"24.672"	"26.004"	"28.23"	"28.884"	"27.23"	"25.642"	"24.929"	"25.536"	"26.851"	"24.863"	"23.935"
"1982"	"23.992"	"24.765"	"26.134"	"27.778"	"29.038"	"27.436"	"26.073"	"25.676"	"25.576"	"27.351"	"25.853"	"24.479"
"1983"	"22.938"	"22.916"	"25.911"	"27.803"	"29.924"	"28.252"	"26.338"	"25.558"	"25.205"	"25.85"	"23.861"	"23.717"
"1984"	"23.373"	"24.272"	"27.325"	"29.071"	"30.222"	"27.124"	"25.17"	"24.789"	"25.302"	"26.333"	"24.364"	"24.443"
"1985"	"23.993"	"24.079"	"27.366"	"28.093"	"29.292"	"26.503"	"25.277"	"25.227"	"26.157"	"25.497"	"25.064"	"24.773"
"1986"	"23.51"	"24.376"	"26.967"	"28.806"	"29.528"	"26.71"	"25.778"	"24.855"	"26.3"	"27.584"	"26.437"	"24.33"
"1987"	"24.537"	"24.313"	"26.686"	"28.861"	"28.997"	"27.636"	"26.303"	"26.116"	"26.974"	"26.51"	"26.239"	"24.211"
"1988"	"23.922"	"24.905"	"26.132"	"28.687"	"29.442"	"27.426"	"25.521"	"25.502"	"25.82"	"26.23"	"24.894"	"23.806"
"1989"	"23.436"	"23.563"	"25.831"	"28.292"	"29.447"	"26.147"	"25.35"	"24.83"	"25.439"	"26.457"	"26.055"	"24.071"
"1990"	"24.216"	"23.847"	"25.211"	"27.942"	"27.922"	"25.931"	"25.158"	"24.982"	"25.612"	"26.068"	"26.183"	"24.504"
"1991"	"23.362"	"24.609"	"26.502"	"28.287"	"29.725"	"26.686"	"25.014"	"25.096"	"26.143"	"26.761"	"25.995"	"23.351"
"1992"	"22.543"	"22.708"	"26.266"	"27.963"	"29.524"	"27.891"	"26.357"	"25.178"	"26.241"	"26.608"	"26.154"	"23.4"
"1993"	"23.709"	"23.479"	"25.53"	"28.21"	"29.698"	"27.895"	"25.612"	"25.31"	"25.246"	"26.463"	"26.032"	"22.977"
"1994"	"23.454"	"23.502"	"27.395"	"27.606"	"29.403"	"26.204"	"24.997"	"25.387"	"25.665"	"26.564"	"25.343"	"22.977"
"1995"	"21.511"	"24.062"	"26.105"	"28.498"	"28.615"	"28.835"	"26.056"	"26.497"	"25.892"	"26.438"	"25.388"	"24.64"
"1996"	"24.307"	"24.981"	"27.614"	"28.331"	"29.491"	"27.838"	"25.838"	"25.292"	"25.575"	"25.679"	"25.032"	"24.065"
"1997"	"22.296"	"22.736"	"26.609"	"27.024"	"28.84"	"27.053"	"26.009"	"25.17"	"25.706"	"27.096"	"27.58"	"25.863"
"1998"	"24.117"	"23.824"	"26.61"	"29.401"	"30.654"	"28.194"	"26.093"	"26.145"	"25.879"	"26.456"	"25.775"	"23.187"
"1999"	"22.152"	"25.381"	"27.26"	"29.07"	"28.558"	"26.18"	"25.369"	"25.284"	"24.867"	"26.182"	"25.225"	"23.657"
"2000"	"23.84"	"23.616"	"25.589"	"29.325"	"28.555"	"26.473"	"25.087"	"25.666"	"25.925"	"27.221"	"25.609"	"23.298"
"2001"	"23.956"	"24.822"	"25.834"	"28.788"	"29.306"	"26.718"	"25.11"	"25.066"	"26.103"	"26.287"	"25.831"	"24.397"
"2002"	"22.354"	"25.452"	"27.135"	"29.578"	"29.849"	"26.985"	"26.032"	"25.05"	"25.822"	"27.494"	"25.77"	"24.512"
