
"Year"	"Jan"	"Feb"	"Mar"	"Apr"	"May"	"Jun"	"Jul"	"Aug"	"Sep"	"Oct"	"Nov"	"Dec"
"1901"	"14.969"	"17.955"	"23.623"	"29.236"	"33.51"	"35.052"	"30.14"	"27.018"	"27.112"	"25.757"	"20.133"	"16.52"
"1902"	"17.381"	"19.352"	"26.404"	"30.457"	"33.993"	"33.951"	"28.497"	"27.765"	"26.94"	"24.742"	"19.046"	"15.651"
"1903"	"16.636"	"17.746"	"23.623"	"29.187"	"33.236"	"34.088"	"30.035"	"27.482"	"27.258"	"24.057"	"18.673"	"15.519"
"1904"	"16.741"	"18.618"	"24.166"	"30.367"	"33.083"	"32.325"	"27.336"	"26.531"	"26.814"	"24.764"	"19.053"	"16.929"
"1905"	"15.293"	"14.952"	"22.321"	"26.902"	"33.166"	"34.974"	"28.618"	"27.03"	"27.118"	"24.555"	"20.39"	"16.285"
"1906"	"15.8"	"18.057"	"23.237"	"29.998"	"34.845"	"32.561"	"28.086"	"27.013"	"26.86"	"24.901"	"20.369"	"17.086"
"1907"	"17.334"	"18.069"	"22.614"	"27.486"	"32.388"	"33.212"	"31.082"	"26.685"	"28.177"	"26.216"	"20.663"	"15.44"
"1908"	"15.074"	"19.085"	"23.913"	"31.36"	"34.597"	"34.16"	"28.116"	"26.832"	"27.74"	"24.872"	"19.58"	"15.683"
"1909"	"18.518"	"17.638"	"25.195"	"27.704"	"33.479"	"29.672"	"27.147"	"27.024"	"26.75"	"24.724"	"20.375"	"16.592"
"1910"	"15.639"	"18.676"	"24.39"	"29.706"	"33.298"	"31.237"	"28.547"	"26.795"	"27.211"	"24.063"	"18.47"	"15.811"
"1911"	"18.337"	"18.235"	"22.609"	"29.249"	"34.692"	"31.443"	"29.615"	"27.216"	"26.392"	"25.119"	"19.414"	"15.635"
"1912"	"16.598"	"19.945"	"23.707"	"29.266"	"33.736"	"34.245"	"28.588"	"26.877"	"26.86"	"24.736"	"19.306"	"15.545"
"1913"	"15.98"	"19.234"	"22.551"	"30.691"	"31.939"	"29.678"	"28.6"	"27.355"	"27.683"	"26.281"	"19.811"	"16.668"
"1914"	"17.661"	"19.953"	"23.694"	"28.822"	"32.973"	"32.544"	"27.754"	"26.887"	"27.372"	"24.697"	"20.743"	"16.533"
"1915"	"16.646"	"17.823"	"23.124"	"28.988"	"35.046"	"33.458"	"28.897"	"26.891"	"26.94"	"25.746"	"20.504"	"16.344"
"1916"	"16.017"	"18.573"	"25.528"	"30.576"	"33.761"	"29.195"	"28.183"	"26.688"	"26.942"	"25.195"	"18.762"	"14.939"
"1917"	"15.973"	"18.269"	"23.005"	"27.11"	"29.911"	"30.553"	"27.842"	"27.121"	"26.603"	"24.924"	"18.042"	"16.331"
"1918"	"14.849"	"19.219"	"24.478"	"28.604"	"33.82"	"29.819"	"30.15"	"27.26"	"27.826"	"25.339"	"20.299"	"15.937"
"1919"	"16.794"	"17.297"	"24.399"	"28.849"	"33.032"	"32.671"	"27.31"	"26.807"	"27.236"	"24.367"	"20.038"	"16.134"
"1920"	"16.12"	"18.641"	"24.39"	"29.401"	"31.43"	"32.965"	"27.441"	"27.21"	"28.182"	"26.403"	"20.778"	"16.647"
"1921"	"17.282"	"18.852"	"26.356"	"31.515"	"35.858"	"32.304"	"29.821"	"26.454"	"26.784"	"24.585"	"18.955"	"17.87"
"1922"	"16.249"	"20.008"	"25.149"	"29.982"	"34.756"	"31.858"	"27.426"	"26.412"	"26.675"	"24.348"	"19.722"	"15.983"
"1923"	"16.119"	"18.494"	"24.349"	"30.179"	"33.858"	"35.241"	"27.954"	"26.529"	"27.379"	"24.029"	"19.983"	"17.037"
"1924"	"16.139"	"19.241"	"26.096"	"30.762"	"32.956"	"35.049"	"27.526"	"26.882"	"26.94"	"25.034"	"19.471"	"16.29"
"1925"	"14.946"	"17.589"	"24.101"	"30.193"	"32.112"	"30.909"	"26.633"	"27.425"	"26.942"	"25.468"	"19.21"	"15.356"
"1926"	"16.091"	"19.842"	"23.369"	"26.527"	"31.7"	"34.796"	"29.432"	"27.209"	"26.587"	"24.187"	"18.177"	"15.738"
"1927"	"15.361"	"18.221"	"22.703"	"29.402"	"33.132"	"33.071"	"27.981"	"27.021"	"27.723"	"25.045"	"18.639"	"17.157"
"1928"	"16.306"	"18.997"	"24.522"	"29.06"	"34.44"	"31.975"	"27.751"	"27.573"	"27.94"	"25.691"	"20.833"	"16.755"
"1929"	"16.239"	"17.452"	"25.003"	"29.955"	"34.816"	"32.349"	"27.982"	"26.09"	"28.164"	"24.477"	"19.677"	"15.737"
"1930"	"15.931"	"18.159"	"24.989"	"29.012"	"33.574"	"32.625"	"27.647"	"26.784"	"27.139"	"25.762"	"19.297"	"16.262"
"1931"	"17.6"	"18.798"	"23.942"	"31.026"	"34.225"	"34.232"	"28.776"	"27.397"	"27.155"	"24.548"	"19.412"	"16.885"
"1932"	"17.931"	"17.814"	"24.455"	"29.447"	"33.287"	"33.819"	"29.1"	"26.818"	"27.338"	"25.371"	"19.644"	"16.375"
"1933"	"15.173"	"19.932"	"24.81"	"27.252"	"30.308"	"30.937"	"28.04"	"27.212"	"26.954"	"24.921"	"19.426"	"16.419"
"1934"	"15.899"	"19.222"	"23.725"	"29.713"	"33.847"	"32.24"	"27.911"	"26.839"	"26.898"	"24.088"	"19.485"	"17.01"
"1935"	"15.229"	"19.048"	"24.339"	"27.182"	"34.413"	"33.606"	"27.763"	"26.432"	"26.616"	"24.38"	"20.118"	"16.646"
"1936"	"15.656"	"18.58"	"24.396"	"28.762"	"33.976"	"30.21"	"27.526"	"26.722"	"26.736"	"24.679"	"20.153"	"16.801"
"1937"	"14.92"	"18.946"	"22.835"	"28.224"	"32.895"	"32.224"	"28.075"	"25.94"	"26.746"	"23.632"	"20.532"	"15.54"
"1938"	"16.779"	"16.989"	"25.663"	"30.165"	"33.633"	"29.237"	"27.428"	"26.866"	"27.343"	"25.349"	"19.286"	"16.019"
"1939"	"17.371"	"19.492"	"23.216"	"28.748"	"34.568"	"31.472"	"27.685"	"26.48"	"26.561"	"25.468"	"19.534"	"16.081"
"1940"	"15.862"	"18.397"	"22.853"	"28.578"	"33.769"	"32.968"	"28.387"	"26.963"	"27.13"	"25.019"	"20.568"	"16.391"
"1941"	"16.453"	"18.979"	"26.113"	"31.573"	"34.192"	"31.668"	"29.187"	"27.474"	"27.755"	"26.448"	"20.067"	"17.232"
"1942"	"15.61"	"19.29"	"24.993"	"30.038"	"35.089"	"33.806"	"27.566"	"26.934"	"26.727"	"25.272"	"20.846"	"16.629"
"1943"	"18.415"	"18.456"	"25.401"	"28.57"	"34.51"	"32.81"	"28.419"	"25.986"	"27.259"	"24.743"	"20.699"	"16.86"
"1944"	"16.26"	"18.263"	"22.826"	"27.956"	"34.882"	"32.35"	"27.841"	"26.972"	"27.314"	"24.215"	"20.578"	"18.28"
"1945"	"14.856"	"18.419"	"24.958"	"27.878"	"33.518"	"33.295"	"28.693"	"27.962"	"27.085"	"24.137"	"19.337"	"15.287"
"1946"	"16.949"	"20.583"	"24.403"	"29.817"	"33.175"	"30.821"	"27.548"	"26.994"	"27.388"	"25.614"	"20.133"	"18.103"
"1947"	"15.819"	"19.282"	"25.437"	"30.758"	"34.315"	"33.87"	"27.861"	"27.278"	"27.21"	"24.743"	"20.841"	"17.281"
"1948"	"16.94"	"18.709"	"23.956"	"31.039"	"35.232"	"33.301"	"27.83"	"26.795"	"26.696"	"25.666"	"19.931"	"16.241"
"1949"	"17.581"	"19.437"	"25.029"	"30.524"	"33.59"	"32.925"	"28.546"	"26.867"	"27.285"	"25.551"	"18.43"	"15.924"
"1950"	"17.077"	"18.052"	"23.358"	"28.698"	"33.988"	"32.213"	"27.826"	"26.841"	"27.196"	"24.605"	"19.341"	"16.589"
"1951"	"15.536"	"18.729"	"24.197"	"28.427"	"33.184"	"32.87"	"29.102"	"26.89"	"27.157"	"27.081"	"21.279"	"16.535"
"1952"	"17.727"	"21.128"	"24.24"	"30.762"	"34.877"	"32.018"	"27.894"	"26.355"	"27.492"	"25.558"	"19.899"	"17.574"
"1953"	"16.353"	"21.275"	"27.896"	"30.284"	"34.514"	"33.194"	"27.243"	"26.033"	"26.942"	"24.489"	"19.58"	"18.336"
"1954"	"15.53"	"20.561"	"24.696"	"30.827"	"35.136"	"32.727"	"28.749"	"26.865"	"26.728"	"23.626"	"19.671"	"17.081"
"1955"	"16.761"	"19.529"	"26.388"	"28.599"	"33.757"	"32.244"	"27.289"	"26.788"	"26.853"	"24.212"	"19.315"	"17.193"
"1956"	"16.936"	"18.882"	"25.5"	"30.764"	"34.543"	"29.796"	"27.614"	"26.653"	"26.216"	"24.704"	"18.954"	"17.649"
"1957"	"17.171"	"18.108"	"23.121"	"29.078"	"33.431"	"33.071"	"28.236"	"27.376"	"26.76"	"25.184"	"21.074"	"18.134"
"1958"	"18.223"	"19.956"	"25.538"	"31.377"	"34.791"	"34.714"	"28.23"	"27.158"	"26.954"	"24.819"	"20.846"	"17.67"
"1959"	"16.978"	"18.609"	"25.498"	"30.352"	"33.766"	"33.02"	"28.282"	"26.788"	"27.052"	"25.334"	"20.551"	"17.371"
"1960"	"16.262"	"21.029"	"24.197"	"29.496"	"33.816"	"33.779"	"27.905"	"26.778"	"27.445"	"24.782"	"19.329"	"17.869"
"1961"	"17.011"	"17.652"	"25.791"	"30.042"	"33.961"	"32.069"	"27.991"	"26.766"	"26.526"	"24.32"	"19.328"	"14.75"
"1962"	"15.131"	"19.31"	"24.3"	"29.71"	"33.438"	"34.838"	"29.252"	"26.571"	"26.205"	"23.682"	"20.105"	"17.337"
"1963"	"15.049"	"20.075"	"24.081"	"28.924"	"32.212"	"30.979"	"27.813"	"27.003"	"26.733"	"25.437"	"22.356"	"17.031"
"1964"	"16.087"	"19.354"	"26.152"	"30.906"	"32.775"	"32.684"	"27.59"	"26.931"	"26.715"	"25.516"	"19.686"	"17.435"
"1965"	"17.464"	"19.745"	"23.946"	"28.331"	"33.658"	"34.263"	"28.987"	"27.715"	"26.697"	"25.667"	"21.448"	"17.071"
"1966"	"16.841"	"21.636"	"25.196"	"30.742"	"34.01"	"32.413"	"30.089"	"27.037"	"27.926"	"26.4"	"21.952"	"16.284"
"1967"	"15.906"	"20.66"	"23.27"	"28.755"	"33.567"	"33.484"	"28.079"	"26.073"	"26.604"	"25.219"	"20.726"	"17.911"
"1968"	"15.685"	"18.035"	"24.024"	"28.626"	"33.061"	"31.544"	"28.064"	"26.95"	"28.465"	"24.92"	"20.702"	"17.151"
"1969"	"16.673"	"20.619"	"27.126"	"30.712"	"32.592"	"33.635"	"27.704"	"26.293"	"26.619"	"26.302"	"22.179"	"17.022"
"1970"	"17.15"	"18.895"	"24.223"	"30.888"	"33.77"	"30.637"	"28.43"	"27.061"	"26.293"	"25.522"	"19.779"	"16.825"
"1971"	"16.046"	"18.719"	"22.373"	"29.164"	"30.727"	"28.989"	"26.601"	"25.834"	"26.871"	"24.826"	"19.186"	"16.596"
"1972"	"16.728"	"17.42"	"25.407"	"29.185"	"34.358"	"34.948"	"29.393"	"26.718"	"26.662"	"24.051"	"20.82"	"17.453"
"1973"	"17.259"	"20.185"	"24.51"	"31.145"	"34.881"	"33.424"	"27.794"	"26.798"	"26.703"	"24.42"	"19.865"	"16.278"
"1974"	"15.849"	"18.246"	"25.675"	"31.457"	"33.612"	"32.302"	"27.55"	"26.212"	"27.617"	"26.386"	"20.021"	"16.274"
"1975"	"15.387"	"19.307"	"24.014"	"30.053"	"35.214"	"32.235"	"26.776"	"26.886"	"26.662"	"25.865"	"19.029"	"16.034"
"1976"	"16.599"	"19.32"	"24.415"	"28.865"	"32.462"	"31.154"	"27.856"	"26.537"	"26.438"	"25.521"	"23.048"	"17.726"
"1977"	"16.499"	"19.961"	"26.495"	"29.295"	"31.371"	"32.235"	"27.495"	"26.127"	"26.499"	"25.329"	"22.536"	"17.539"
"1978"	"15.553"	"17.829"	"22.269"	"28.507"	"35.214"	"31.172"	"26.22"	"25.863"	"26.463"	"24.977"	"22.069"	"16.496"
"1979"	"17.196"	"17.676"	"23.036"	"28.797"	"32.087"	"32.188"	"27.909"	"27.359"	"28.602"	"27.114"	"24.649"	"17.932"
"1980"	"17.26"	"20.493"	"24.526"	"31.198"	"34.333"	"29.164"	"26.776"	"25.787"	"26.776"	"26.087"	"21.209"	"17.926"
"1981"	"16.576"	"20.304"	"23.968"	"28.861"	"32.68"	"32.416"	"26.47"	"26.853"	"27.125"	"25.422"	"20.108"	"16.695"
"1982"	"18.054"	"18.534"	"22.57"	"29.225"	"31.988"	"32.21"	"30.348"	"26.595"	"27.279"	"25.929"	"21.077"	"17.931"
"1983"	"15.638"	"18.417"	"24.398"	"27.949"	"32.098"	"33.532"	"28.761"	"27.671"	"27.45"	"24.434"	"19.442"	"16.669"
"1984"	"16.418"	"17.297"	"24.953"	"30.375"	"34.899"	"32.089"	"28.36"	"26.285"	"26.426"	"25.914"	"20.344"	"18.815"
"1985"	"16.597"	"19.811"	"27.453"	"31.004"	"34.515"	"33.004"	"27.362"	"26.713"	"27.265"	"24.484"	"20.772"	"18.37"
"1986"	"17.048"	"18.442"	"24.024"	"30.048"	"31.892"	"32.079"	"26.465"	"26.481"	"25.684"	"24.851"	"21.254"	"16.718"
"1987"	"16.252"	"19.831"	"24.918"	"31.078"	"32.05"	"34.511"	"29.027"	"28.845"	"27.533"	"25.51"	"21.152"	"16.588"
"1988"	"17.264"	"20.289"	"24.836"	"30.687"	"35.278"	"31.975"	"27.551"	"27.631"	"28.463"	"25.192"	"20.891"	"17.95"
"1989"	"15.67"	"19.379"	"23.737"	"29.427"	"34.255"	"30.742"	"28.053"	"27.278"	"27.21"	"25.642"	"21.456"	"17.297"
"1990"	"18.522"	"19.829"	"23.439"	"29.974"	"32.229"	"30.821"	"26.443"	"27.135"	"26.642"	"25.559"	"20.517"	"17.764"
"1991"	"15.664"	"20.692"	"24.991"	"29.623"	"35.696"	"31.685"	"30.266"	"26.207"	"28.13"	"24.902"	"20.459"	"17.016"
"1992"	"16.837"	"17.885"	"25.642"	"30.324"	"32.631"	"34.052"	"29.664"	"27.044"	"27.225"	"25.561"	"21.592"	"17.006"
"1993"	"16.968"	"20.082"	"22.801"	"28.83"	"34.101"	"33.53"	"29.873"	"28.002"	"26.455"	"26.174"	"21.511"	"17.016"
"1994"	"18.504"	"18.942"	"25.642"	"29.165"	"35.733"	"32.278"	"27.824"	"26.783"	"27.297"	"24.789"	"20.947"	"17.409"
"1995"	"15.499"	"19.306"	"23.461"	"30.095"	"34.03"	"34.634"	"29.383"	"26.904"	"27.564"	"26.12"	"20.948"	"18.17"
"1996"	"17.307"	"19.353"	"25.818"	"29.276"	"34.157"	"32.962"	"28.782"	"26.223"	"28.051"	"25.07"	"20.683"	"16.057"
"1997"	"16.019"	"18.284"	"24.82"	"28.089"	"32.547"	"33.025"	"29.809"	"27.109"	"26.741"	"24.647"	"20.985"	"17.265"
"1998"	"15.602"	"20.187"	"22.686"	"29.67"	"34.239"	"33.045"	"28.022"	"27.459"	"27.569"	"26.833"	"22.583"	"17.457"
"1999"	"15.719"	"20.295"	"24.842"	"30.901"	"33.223"	"31.449"	"27.935"	"26.706"	"26.535"	"25.88"	"22.695"	"17.614"
"2000"	"16.774"	"19.333"	"24.194"	"31.093"	"32.713"	"30.207"	"27.855"	"27.564"	"26.085"	"26.668"	"23.19"	"17.412"
"2001"	"16.008"	"20.159"	"24.479"	"28.657"	"33.001"	"30.101"	"27.241"	"27.391"	"27.874"	"26.197"	"21.96"	"17.555"
"2002"	"16.885"	"17.898"	"25.394"	"30.488"	"34.767"	"32.261"	"30.422"	"26.917"	"26.942"	"25.798"	"21.54"	"18.173"
