
"Year"	"Jan"	"Feb"	"Mar"	"Apr"	"May"	"Jun"	"Jul"	"Aug"	"Sep"	"Oct"	"Nov"	"Dec"
"1901"	"13.098"	"16.141"	"22.607"	"29.07"	"32.962"	"36.025"	"32.268"	"29.63"	"29.196"	"27.46"	"21.534"	"16.028"
"1902"	"16.372"	"18.65"	"24.565"	"29.488"	"33.289"	"33.989"	"30.315"	"29.898"	"28.928"	"25.378"	"20.443"	"15.505"
"1903"	"15.015"	"16.252"	"21.42"	"28.646"	"33.199"	"35.031"	"32.463"	"29.634"	"29.678"	"25.624"	"20.52"	"15.673"
"1904"	"15.125"	"18.295"	"22.649"	"30.292"	"32.137"	"33.754"	"29.842"	"28.829"	"28.632"	"25.954"	"19.697"	"15.504"
"1905"	"12.641"	"13.104"	"19.234"	"26.338"	"32.887"	"35.189"	"30.989"	"29.694"	"29.57"	"26.352"	"21.407"	"15.508"
"1906"	"13.933"	"15.127"	"21.045"	"29.56"	"34.664"	"33.509"	"30.848"	"29.245"	"28.991"	"26.229"	"21.982"	"16.667"
"1907"	"16.963"	"15.145"	"19.34"	"27.063"	"31.559"	"34.376"	"32.731"	"29.407"	"30.225"	"27.411"	"21.155"	"15.248"
"1908"	"14.801"	"17.812"	"22.917"	"31.352"	"33.431"	"35.27"	"30.266"	"28.957"	"29.347"	"26.207"	"20.311"	"15.139"
"1909"	"15.123"	"16.257"	"24.075"	"27.561"	"32.908"	"31.893"	"30.105"	"29.657"	"29.482"	"26.905"	"21.086"	"15.999"
"1910"	"15.168"	"17.168"	"23.269"	"29.233"	"33.039"	"32.975"	"30.49"	"29.491"	"29.201"	"25.196"	"19.834"	"15.094"
"1911"	"15.916"	"17.778"	"20.487"	"29.05"	"34.581"	"33.52"	"32.08"	"29.861"	"28.539"	"26.087"	"19.117"	"15.02"
"1912"	"14.974"	"18.258"	"22.243"	"28.711"	"32.946"	"34.644"	"30.975"	"29.366"	"28.442"	"26.05"	"19.307"	"15.075"
"1913"	"15.172"	"16.385"	"20.433"	"30.037"	"31.403"	"31.698"	"30.889"	"30.435"	"30.293"	"26.748"	"19.785"	"14.604"
"1914"	"16.719"	"16.908"	"21.69"	"28.832"	"32.596"	"33.627"	"30.422"	"29.538"	"29.21"	"24.858"	"20.902"	"15.271"
"1915"	"15.486"	"16.078"	"21.941"	"28.964"	"34.518"	"33.879"	"31.649"	"29.852"	"29.57"	"27.473"	"21.402"	"15.962"
"1916"	"15.324"	"16.935"	"25.687"	"30.575"	"33.768"	"32.052"	"30.313"	"29.352"	"28.901"	"25.992"	"20.228"	"14.513"
"1917"	"15.015"	"17.009"	"21.585"	"26.01"	"28.955"	"32.429"	"30.241"	"29.403"	"28.206"	"25.391"	"19.815"	"15.275"
"1918"	"14.096"	"18.087"	"22.985"	"27.72"	"34.041"	"32.325"	"32.691"	"30.287"	"29.918"	"26.529"	"20.367"	"14.209"
"1919"	"14.12"	"16.01"	"22.708"	"27.715"	"32.027"	"34.254"	"30.025"	"29.403"	"28.96"	"25.748"	"20.338"	"14.825"
"1920"	"15.843"	"16.181"	"21.761"	"29.147"	"30.333"	"33.151"	"30.118"	"29.749"	"29.883"	"26.926"	"21.507"	"16.799"
"1921"	"15.038"	"18.213"	"25.743"	"31.414"	"35.981"	"33.601"	"31.594"	"28.726"	"28.131"	"25.134"	"20.167"	"16.518"
"1922"	"13.946"	"18.586"	"24.417"	"29.656"	"34.418"	"33.053"	"30.281"	"28.57"	"28.347"	"25.212"	"20.293"	"14.267"
"1923"	"15.246"	"16.122"	"23.394"	"30.533"	"33.295"	"36.038"	"30.699"	"29.207"	"28.938"	"25.109"	"20.511"	"15.545"
"1924"	"14.015"	"17.277"	"24.52"	"30.319"	"31.135"	"36.187"	"30.307"	"29.112"	"28.337"	"26.034"	"20.212"	"15.718"
"1925"	"13.045"	"16.481"	"22.87"	"30.456"	"32.5"	"31.456"	"29.442"	"29.753"	"29.046"	"26.091"	"19.47"	"15.409"
"1926"	"14.577"	"18.385"	"20.844"	"25.903"	"31.178"	"35.74"	"31.366"	"29.411"	"28.715"	"25.419"	"18.465"	"15.207"
"1927"	"13.678"	"15.613"	"21.662"	"28.769"	"31.982"	"34.094"	"30.556"	"28.935"	"29.274"	"25.951"	"19.766"	"16.576"
"1928"	"14.375"	"17.67"	"23.075"	"28.552"	"34.235"	"33.349"	"30.712"	"30.883"	"30.48"	"27.097"	"21.008"	"15.519"
"1929"	"14.475"	"16.421"	"24.275"	"29.803"	"34.403"	"33.53"	"30.584"	"28.717"	"29.698"	"25.588"	"20.85"	"14.735"
"1930"	"13.715"	"16.885"	"24.071"	"29.124"	"33.058"	"33.356"	"29.94"	"29.289"	"29.482"	"25.987"	"20.097"	"15.713"
"1931"	"16.319"	"15.654"	"22.544"	"30.896"	"33.335"	"35.261"	"31.047"	"30.189"	"28.748"	"25.577"	"20.264"	"16.105"
"1932"	"16.851"	"16.21"	"23.42"	"29.089"	"32.599"	"35.187"	"31.53"	"29.193"	"29.16"	"26.119"	"20.978"	"15.341"
"1933"	"13.327"	"17.631"	"23.416"	"27.037"	"29.964"	"32.743"	"30.173"	"29.298"	"28.695"	"25.684"	"20.716"	"15.978"
"1934"	"13.85"	"18.566"	"21.983"	"29.605"	"33.067"	"32.862"	"30.258"	"28.744"	"29.369"	"25.291"	"20.393"	"15.082"
"1935"	"12.735"	"17.369"	"22.92"	"26.134"	"34.114"	"35.107"	"30.301"	"28.798"	"28.757"	"25.377"	"20.472"	"14.55"
"1936"	"13.534"	"16.263"	"22.801"	"28.356"	"33.482"	"30.965"	"29.557"	"28.679"	"28.407"	"25.139"	"20.556"	"15.636"
"1937"	"13.738"	"16.691"	"21.535"	"26.947"	"32.395"	"33.692"	"30.789"	"29.285"	"29.04"	"25.011"	"20.066"	"14.667"
"1938"	"14.075"	"15.321"	"24.153"	"30.274"	"33.466"	"31.661"	"30.127"	"29.298"	"29.496"	"26.417"	"19.106"	"15.973"
"1939"	"15.434"	"16.664"	"20.489"	"28.17"	"34.481"	"32.406"	"30.311"	"29.613"	"28.806"	"26.124"	"20.524"	"15.94"
"1940"	"14.745"	"16.294"	"20.32"	"27.97"	"33.321"	"34.212"	"31.05"	"29.361"	"28.58"	"26.247"	"21.321"	"14.587"
"1941"	"13.929"	"17.982"	"25.121"	"31.865"	"33.749"	"32.92"	"32.027"	"30.158"	"29.569"	"27.311"	"20.781"	"16.998"
"1942"	"13.911"	"18.363"	"24.544"	"29.984"	"33.903"	"35.025"	"30.299"	"29.035"	"28.497"	"26.216"	"21.694"	"15.076"
"1943"	"15.101"	"17.904"	"23.848"	"27.333"	"33.949"	"33.729"	"30.761"	"28.681"	"29.551"	"26.17"	"22.093"	"16.507"
"1944"	"13.792"	"16.251"	"21.626"	"27.648"	"34.99"	"33.12"	"30.557"	"29.749"	"29.351"	"25.916"	"21.343"	"17.413"
"1945"	"12.73"	"16.548"	"23.416"	"27.614"	"33.311"	"34.647"	"30.969"	"29.994"	"28.905"	"25.079"	"20.861"	"14.625"
"1946"	"16.665"	"19.478"	"22.825"	"29.33"	"31.998"	"33.156"	"30.344"	"29.957"	"29.779"	"25.947"	"20.92"	"16.48"
"1947"	"13.789"	"18.303"	"23.74"	"30.805"	"33.818"	"35.101"	"30.641"	"29.815"	"29.174"	"25.196"	"21.452"	"16.199"
"1948"	"15.373"	"16.84"	"21.893"	"30.847"	"34.459"	"35.428"	"30.583"	"29.171"	"28.879"	"25.847"	"20.121"	"15.313"
"1949"	"16.737"	"17.496"	"23.548"	"30.103"	"32.964"	"34.747"	"30.712"	"29.317"	"29.24"	"26.741"	"19.921"	"14.255"
"1950"	"15.629"	"16.434"	"21.53"	"28.71"	"33.482"	"33.492"	"30.265"	"29.171"	"28.748"	"25.869"	"20.528"	"15.177"
"1951"	"13.647"	"17.66"	"22.743"	"27.365"	"33.135"	"33.897"	"31.763"	"29.807"	"28.951"	"28.239"	"21.752"	"16.225"
"1952"	"16.46"	"19.5"	"22.002"	"30.288"	"33.719"	"32.587"	"30.342"	"28.967"	"29.71"	"26.729"	"20.908"	"16.371"
"1953"	"13.528"	"19.59"	"26.179"	"30.294"	"34.049"	"34.639"	"30.267"	"29.216"	"29.298"	"26.023"	"20.776"	"17.331"
"1954"	"13.515"	"18.33"	"23.911"	"30.764"	"35.027"	"34.186"	"30.943"	"29.598"	"29.051"	"24.542"	"20.717"	"14.88"
"1955"	"14.402"	"18.317"	"25.045"	"27.901"	"32.85"	"34.081"	"30.285"	"29.047"	"28.93"	"25.024"	"20.629"	"15.506"
"1956"	"15.004"	"18.345"	"23.38"	"30.615"	"34.294"	"32.65"	"29.794"	"29.267"	"29.092"	"25.225"	"20.232"	"15.347"
"1957"	"14.306"	"16.953"	"21.687"	"28.593"	"32.89"	"33.448"	"30.783"	"29.98"	"28.761"	"26.101"	"21.889"	"16.507"
"1958"	"16.457"	"18.158"	"24.116"	"31.256"	"34.05"	"34.989"	"30.631"	"29.339"	"29.261"	"26.215"	"21.716"	"16.84"
"1959"	"15.543"	"17.145"	"24.353"	"29.951"	"33.564"	"34.303"	"30.281"	"29.684"	"29.57"	"26.362"	"21.104"	"17.153"
"1960"	"14.507"	"21.123"	"22.648"	"29.046"	"33.941"	"34.802"	"30.584"	"29.606"	"29.508"	"25.702"	"20.365"	"17.6"
"1961"	"15.274"	"15.674"	"23.991"	"29.671"	"33.276"	"33.291"	"30.781"	"29.348"	"29.396"	"25.328"	"19.402"	"13.467"
"1962"	"14.128"	"17.699"	"23.084"	"29.678"	"33.226"	"35.14"	"31.684"	"29.465"	"28.429"	"25.357"	"21.265"	"16.263"
"1963"	"15.236"	"19.559"	"22.873"	"28.584"	"32.063"	"33.121"	"31.208"	"29.262"	"28.57"	"26.771"	"21.876"	"16.226"
"1964"	"14.251"	"17.828"	"25.312"	"30.371"	"31.559"	"34.361"	"29.717"	"29.798"	"28.501"	"26.932"	"20.479"	"16.378"
"1965"	"16.61"	"17.082"	"22.012"	"27.601"	"32.626"	"35.766"	"30.807"	"29.583"	"28.947"	"26.235"	"21.53"	"15.798"
"1966"	"16.071"	"20.073"	"23.907"	"30.41"	"33.868"	"33.57"	"31.794"	"29.461"	"29.356"	"26.739"	"21.406"	"15.871"
"1967"	"14.805"	"19.876"	"21.812"	"28.706"	"33.173"	"34.584"	"30.343"	"28.302"	"28.601"	"25.598"	"20.062"	"15.94"
"1968"	"13.637"	"16.04"	"22.722"	"28.847"	"33.085"	"32.904"	"29.893"	"29.275"	"30.038"	"25.744"	"20.817"	"16.173"
"1969"	"14.897"	"18.958"	"26.077"	"29.467"	"31.737"	"34.715"	"30.025"	"28.931"	"28.165"	"26.457"	"21.947"	"16.543"
"1970"	"15.086"	"17.027"	"22.476"	"30.924"	"33.28"	"31.989"	"30.798"	"29.492"	"28.851"	"26.31"	"20.661"	"16.795"
"1971"	"14.351"	"17.678"	"22.874"	"28.539"	"30.261"	"30.92"	"29.297"	"27.927"	"28.703"	"25.861"	"20.661"	"16.762"
"1972"	"15.779"	"15.804"	"24.267"	"28.373"	"34.418"	"34.408"	"31.252"	"28.761"	"28.057"	"25.068"	"21.103"	"16.58"
"1973"	"15.165"	"18.357"	"22.804"	"31.398"	"33.657"	"32.841"	"30.666"	"29.08"	"28.851"	"25.659"	"20.634"	"15.062"
"1974"	"14.321"	"17.18"	"24.8"	"31.186"	"33.216"	"33.438"	"30.025"	"28.827"	"29.041"	"27.457"	"20.673"	"14.743"
"1975"	"13.776"	"17.173"	"22.41"	"30.446"	"34.188"	"32.205"	"29.585"	"28.835"	"27.954"	"27.122"	"20.246"	"16.196"
"1976"	"15.686"	"17.847"	"22.823"	"28.157"	"31.821"	"32.248"	"30.312"	"27.792"	"28.631"	"26.726"	"22.58"	"16.483"
"1977"	"15.005"	"18.446"	"25.284"	"28.697"	"30.376"	"32.921"	"29.285"	"29.005"	"28.056"	"26.271"	"22.506"	"16.015"
"1978"	"14.51"	"16.588"	"20.341"	"28.539"	"34.997"	"32.864"	"29.562"	"28.68"	"27.877"	"26.461"	"21.341"	"16.192"
"1979"	"15.825"	"16.194"	"21.313"	"29.391"	"31.396"	"33.252"	"30.131"	"29.905"	"29.631"	"27.372"	"22.965"	"16.312"
"1980"	"15.193"	"18.467"	"22.393"	"30.669"	"33.625"	"31.639"	"28.698"	"28.618"	"28.571"	"26.281"	"21.4"	"16.839"
"1981"	"14.679"	"18.35"	"21.983"	"29.109"	"32.029"	"33.414"	"29.439"	"29.125"	"28.638"	"26.317"	"20.168"	"15.363"
"1982"	"15.855"	"16.619"	"20.047"	"28.054"	"31.015"	"32.791"	"31.883"	"29.047"	"28.987"	"26.304"	"21.32"	"16.997"
"1983"	"14.211"	"16.195"	"22.085"	"26.611"	"31.604"	"33.152"	"30.857"	"29.515"	"28.79"	"25.507"	"20.276"	"15.934"
"1984"	"14.416"	"15.926"	"24.589"	"29.622"	"34.867"	"32.84"	"29.973"	"29.185"	"28.376"	"26.196"	"20.27"	"16.59"
"1985"	"14.411"	"18.304"	"25.634"	"30.059"	"33.539"	"33.945"	"29.611"	"29.242"	"28.138"	"24.776"	"21.24"	"16.95"
"1986"	"15.304"	"17.592"	"22.696"	"28.908"	"30.94"	"33.602"	"29.683"	"29.52"	"28.923"	"25.398"	"21.428"	"15.212"
"1987"	"15.269"	"19.094"	"24.289"	"30.035"	"31.362"	"35.411"	"31.961"	"30.407"	"29.886"	"27.057"	"21.914"	"17.032"
"1988"	"17.158"	"19.198"	"23.52"	"30.922"	"34.441"	"33.02"	"29.905"	"29.112"	"29.725"	"26.804"	"21.193"	"16.618"
"1989"	"14.155"	"17.476"	"23.012"	"28.965"	"33.401"	"31.88"	"30.214"	"28.114"	"28.978"	"26.358"	"20.625"	"15.749"
"1990"	"17.757"	"17.37"	"21.03"	"28.992"	"32.039"	"33.939"	"29.533"	"29.393"	"28.646"	"25.591"	"21.466"	"16.105"
"1991"	"13.608"	"18.738"	"23.333"	"28.477"	"33.916"	"33.284"	"31.906"	"28.855"	"29.075"	"25.788"	"19.889"	"15.99"
"1992"	"15.502"	"16.219"	"23.17"	"29.773"	"31.862"	"33.476"	"30.28"	"28.837"	"28.385"	"25.426"	"21.082"	"15.992"
"1993"	"14.754"	"19.362"	"20.476"	"27.971"	"32.798"	"33.675"	"30.584"	"29.617"	"28.462"	"26.243"	"21.731"	"16.669"
"1994"	"17.088"	"17.43"	"24.49"	"28.113"	"33.878"	"34.204"	"30.295"	"29.191"	"28.851"	"25.813"	"21.135"	"16.675"
"1995"	"14.363"	"17.891"	"22.428"	"29.629"	"35.378"	"35.217"	"30.34"	"28.939"	"29.08"	"27.071"	"21.2"	"16.934"
"1996"	"15.155"	"17.855"	"23.831"	"29.476"	"33.721"	"33.004"	"30.681"	"27.997"	"28.987"	"26.093"	"20.745"	"15.425"
"1997"	"14.951"	"17.13"	"22.798"	"28.365"	"31.22"	"32.196"	"32.225"	"29.24"	"28.79"	"24.042"	"20.583"	"15.276"
"1998"	"11.445"	"18.221"	"21.535"	"29.484"	"33.982"	"34.546"	"30.312"	"29.294"	"29.449"	"26.779"	"23.069"	"18.125"
"1999"	"14.946"	"20.285"	"25.318"	"33.041"	"33.477"	"32.739"	"31.271"	"30.011"	"28.955"	"26.962"	"23.298"	"17.45"
"2000"	"16.064"	"17.454"	"22.558"	"31.265"	"33.067"	"31.92"	"30.428"	"29.838"	"29.209"	"27.729"	"23.62"	"17.549"
"2001"	"14.943"	"18.431"	"23.514"	"28.568"	"32.774"	"32.026"	"30.817"	"30.384"	"30.26"	"27.669"	"22.915"	"17.407"
"2002"	"15.978"	"17.559"	"24.339"	"30.452"	"34.808"	"33.934"	"32.961"	"29.967"	"27.979"	"26.966"	"21.711"	"16.511"
