
"Year"	"Jan"	"Feb"	"Mar"	"Apr"	"May"	"Jun"	"Jul"	"Aug"	"Sep"	"Oct"	"Nov"	"Dec"
"1901"	"0"	"0"	"0.021"	"7.825"	"16.636"	"131.76"	"98.466"	"81.631"	"42.297"	"17.041"	"2.586"	"0.071"
"1902"	"0.001"	"0"	"0"	"0.262"	"5.03"	"109.66"	"123.785"	"29.839"	"55.115"	"34.551"	"6.649"	"13.246"
"1903"	"0"	"0"	"0"	"0.494"	"22.236"	"77.138"	"162.384"	"56.678"	"24.893"	"24.589"	"1.593"	"0.598"
"1904"	"0"	"0"	"0"	"3.793"	"8.126"	"181.525"	"89.913"	"47.202"	"23.912"	"18.33"	"0.061"	"0.019"
"1905"	"0"	"0.036"	"0"	"0.244"	"6.923"	"53.576"	"94.174"	"31.596"	"14.818"	"24.876"	"4.02"	"0.019"
"1906"	"1.376"	"0.028"	"0"	"0.266"	"7.976"	"99.786"	"117.136"	"66.785"	"36.198"	"12.905"	"3.701"	"2.775"
"1907"	"0.155"	"0"	"0"	"4.031"	"0.815"	"85.484"	"95.708"	"162.907"	"57.972"	"2.271"	"2"	"0.116"
"1908"	"0"	"0.043"	"0.008"	"0.416"	"4.395"	"83.673"	"179.943"	"93.035"	"33.928"	"3.641"	"0.942"	"0.019"
"1909"	"0"	"0"	"0"	"0.018"	"5.256"	"108.951"	"178.685"	"31.192"	"34.803"	"7.311"	"3.475"	"0.019"
"1910"	"0"	"0"	"0.01"	"0.281"	"3.163"	"134.841"	"65.181"	"96.58"	"49.094"	"14.057"	"4.363"	"0.019"
"1911"	"0"	"0"	"0"	"0.018"	"7.682"	"96.667"	"85.05"	"77.675"	"15.678"	"14.599"	"3.251"	"2.558"
"1912"	"0"	"0"	"0"	"0.962"	"14.818"	"82.665"	"203.894"	"97.254"	"25.762"	"13.605"	"15.861"	"0.019"
"1913"	"0"	"0"	"0"	"0.919"	"9.284"	"114.331"	"90.04"	"54.269"	"23.331"	"14.486"	"1.539"	"0.025"
"1914"	"0"	"0.036"	"0"	"0.86"	"1.654"	"107.018"	"216.651"	"186.883"	"52.554"	"3.846"	"3.095"	"11.189"
"1915"	"0.452"	"0.05"	"0.077"	"4.075"	"4.435"	"140.628"	"117.289"	"58.033"	"95.968"	"14.873"	"3.765"	"2.949"
"1916"	"0"	"0"	"0"	"0.644"	"31.101"	"129.653"	"75.872"	"94.333"	"70.409"	"31.498"	"22.958"	"0.019"
"1917"	"0"	"0.331"	"0.001"	"0.407"	"0.523"	"137.071"	"56.02"	"85.247"	"70.234"	"51.323"	"11.527"	"0.019"
"1918"	"0.639"	"0"	"0"	"0.769"	"44.029"	"49.088"	"34.139"	"65.246"	"24.409"	"1.651"	"14.285"	"0.019"
"1919"	"0.014"	"0"	"0"	"0.714"	"9.826"	"104.629"	"96.43"	"62.555"	"39.34"	"21.719"	"5.43"	"1.436"
"1920"	"0.718"	"0.043"	"0"	"2.302"	"3.59"	"94.832"	"109.973"	"43.732"	"31.376"	"14.96"	"0.144"	"0.019"
"1921"	"0"	"0"	"0.022"	"2.472"	"0.416"	"110.799"	"99.545"	"76.563"	"30.654"	"23.331"	"9.871"	"0.019"
"1922"	"0.12"	"0.065"	"0"	"1.497"	"7.85"	"126.119"	"147.821"	"46.111"	"15.18"	"8.787"	"16.365"	"0.019"
"1923"	"0.618"	"0.028"	"0.08"	"0.759"	"6.89"	"27.139"	"206.148"	"85.385"	"39.281"	"1.806"	"0.061"	"0.275"
"1924"	"0"	"0"	"0.018"	"0.766"	"3.273"	"86.078"	"156.911"	"71.264"	"30.816"	"12.699"	"0.762"	"0.322"
"1925"	"0"	"0"	"0"	"6.68"	"27.561"	"127.068"	"120.023"	"53.823"	"18.114"	"11.22"	"4.112"	"1.977"
"1926"	"0.449"	"0"	"0"	"0.018"	"6.917"	"59.38"	"132.888"	"159.996"	"36.216"	"7.612"	"0.061"	"0.033"
"1927"	"0"	"0.021"	"0"	"0.779"	"3.094"	"116.126"	"122.395"	"50.879"	"54.929"	"40.41"	"8.627"	"0.019"
"1928"	"0"	"0.174"	"0.009"	"4.138"	"1.554"	"109.443"	"126.213"	"80.83"	"29.747"	"27.489"	"0.35"	"2.286"
"1929"	"0.304"	"0"	"0.092"	"7.712"	"4.259"	"128.15"	"92.767"	"50.564"	"60.288"	"21.071"	"1.655"	"6.74"
"1930"	"0"	"0"	"0.002"	"0.157"	"12.985"	"151.805"	"82.383"	"51.327"	"37.218"	"44.777"	"2.745"	"0.232"
"1931"	"0"	"0"	"0.028"	"1.965"	"2.68"	"75.258"	"176.852"	"122.751"	"33.955"	"49.108"	"11.244"	"12.864"
"1932"	"0"	"0"	"0"	"4.911"	"19.995"	"60.168"	"178.513"	"82.332"	"64.195"	"62.153"	"4.974"	"0.033"
"1933"	"0"	"0"	"0.034"	"3.139"	"41.161"	"138.63"	"113.736"	"104.647"	"46.794"	"43.917"	"4.769"	"8.465"
"1934"	"0.055"	"0"	"0"	"1.31"	"1.356"	"143.771"	"127.39"	"98.762"	"31.484"	"12.829"	"9.213"	"0.019"
"1935"	"0"	"0.112"	"0"	"0.155"	"2.074"	"88.214"	"96.138"	"44.92"	"39.118"	"28.683"	"0.587"	"0.582"
"1936"	"0"	"0"	"0"	"0.453"	"8.76"	"186.402"	"55.268"	"59.841"	"43.816"	"11.658"	"15.004"	"0.167"
"1937"	"0"	"0.057"	"0.036"	"4.875"	"2.319"	"118.103"	"130.196"	"29.5"	"59.661"	"47.633"	"0.061"	"1.386"
"1938"	"0"	"0.021"	"0.051"	"3.507"	"12.718"	"134.508"	"96.503"	"62.11"	"58.741"	"55.421"	"6.01"	"2.513"
"1939"	"0"	"0"	"0.05"	"1.67"	"0.938"	"149.455"	"156.605"	"144.723"	"25.686"	"12.544"	"3.882"	"0.019"
"1940"	"0"	"0.043"	"0"	"0.619"	"6.708"	"118.425"	"115.601"	"88.857"	"26.854"	"30.78"	"4.971"	"4.974"
"1941"	"0.679"	"0"	"0"	"1.121"	"2.035"	"98.416"	"114.96"	"35.333"	"20.953"	"18.042"	"0.061"	"2.404"
"1942"	"0"	"0"	"0"	"5.006"	"7.271"	"171.322"	"153.446"	"65.31"	"19.162"	"12.213"	"1.21"	"3.62"
"1943"	"0.072"	"0"	"0"	"1.741"	"51.142"	"77.123"	"167.911"	"33.113"	"44.677"	"29.175"	"3.677"	"0.019"
"1944"	"0"	"0"	"0.001"	"0.018"	"16.752"	"102.872"	"177.781"	"53.312"	"25.97"	"33.85"	"2.932"	"0.019"
"1945"	"0.086"	"0"	"0"	"0.362"	"3.008"	"105.268"	"147.963"	"86.494"	"31.248"	"10.821"	"1.115"	"0.019"
"1946"	"0"	"0"	"0"	"5.745"	"13.552"	"126.054"	"125.132"	"124.8"	"45.673"	"7.417"	"29.175"	"4.403"
"1947"	"0.808"	"0"	"0.03"	"1.299"	"13.456"	"51.693"	"122.841"	"113.77"	"44.474"	"11.751"	"1.463"	"9.208"
"1948"	"0.249"	"0"	"0.032"	"1.765"	"1.468"	"109.904"	"112.342"	"122.544"	"75.287"	"20.336"	"20.653"	"0.324"
"1949"	"0"	"0"	"0.046"	"0.701"	"44.214"	"64.312"	"108.404"	"99.792"	"84.879"	"15.816"	"0.648"	"0.019"
"1950"	"0"	"0"	"0"	"1.038"	"11.04"	"58.386"	"170.41"	"72.483"	"87.507"	"34.819"	"0.885"	"0.066"
"1951"	"0"	"0"	"0"	"5.894"	"8.767"	"154.143"	"119.219"	"66.86"	"22.329"	"51.053"	"6.623"	"0.019"
"1952"	"0"	"0.063"	"0"	"3.838"	"3.888"	"112.084"	"130.878"	"78.48"	"13.17"	"38.906"	"0.061"	"0.019"
"1953"	"0"	"0"	"0"	"4.135"	"0.382"	"201.373"	"176.185"	"147.74"	"27.137"	"49.786"	"0.061"	"0.019"
"1954"	"0"	"0.028"	"0.091"	"2.953"	"4.861"	"66.875"	"112.158"	"161.592"	"47.541"	"14.739"	"0.061"	"3.21"
"1955"	"0"	"0"	"0"	"1.501"	"17.761"	"177.118"	"101.459"	"115.281"	"54.613"	"67.898"	"1.659"	"0.019"
"1956"	"0"	"0.06"	"0.034"	"4.433"	"29.278"	"150.449"	"160.468"	"99.033"	"34.333"	"39.041"	"10.879"	"0.019"
"1957"	"0"	"0"	"0.013"	"6.765"	"16.538"	"122.982"	"111.177"	"103.601"	"18.413"	"47.495"	"15.189"	"0.019"
"1958"	"0"	"0"	"0.032"	"2.611"	"15.762"	"104.22"	"157.808"	"128.658"	"26.904"	"15.964"	"5.068"	"0.019"
"1959"	"0"	"0"	"0"	"3.295"	"13.694"	"168.587"	"167.801"	"60.71"	"71.777"	"11.498"	"7.932"	"0.019"
"1960"	"0"	"0"	"0.045"	"0.886"	"31.457"	"118.56"	"109.06"	"64.784"	"44.468"	"9.423"	"4.184"	"0.037"
"1961"	"0"	"0"	"0"	"1.041"	"54.998"	"96.426"	"181.808"	"87.255"	"36.397"	"27.288"	"2.359"	"0.019"
"1962"	"0.021"	"0"	"0.021"	"1.873"	"28.714"	"34.082"	"152.789"	"84.297"	"41.023"	"17.388"	"4.037"	"18.166"
"1963"	"0.021"	"0.083"	"0.036"	"2.318"	"19.382"	"98.777"	"132.28"	"165.373"	"20.368"	"40.985"	"1.696"	"0.019"
"1964"	"0"	"0"	"0.09"	"2.018"	"3.275"	"88.573"	"98.397"	"142.244"	"65.49"	"61.615"	"7.949"	"0.397"
"1965"	"0.179"	"0"	"0"	"2.053"	"5.409"	"103.228"	"184.111"	"45.003"	"17.922"	"6.583"	"0.66"	"14.414"
"1966"	"0.065"	"0.087"	"0.011"	"0.261"	"34.592"	"48.272"	"149.867"	"30.72"	"57.096"	"16.451"	"31.921"	"1.543"
"1967"	"0"	"0"	"0"	"2.154"	"6.716"	"130.086"	"151.096"	"74.066"	"52.797"	"21.389"	"1.026"	"6.62"
"1968"	"0"	"0"	"0.089"	"9.636"	"7.49"	"90.804"	"98.06"	"47.371"	"27.873"	"20.872"	"2.538"	"0.24"
"1969"	"0"	"0"	"0.034"	"0.666"	"2.425"	"65.478"	"159.012"	"141.628"	"56.296"	"14.166"	"7.99"	"0.837"
"1970"	"0"	"0"	"0"	"1.436"	"29.056"	"127.521"	"111.505"	"102.758"	"31.766"	"29.427"	"0.061"	"0.019"
"1971"	"0"	"0"	"0"	"1.323"	"21.934"	"173.526"	"63.016"	"66.998"	"41.779"	"10.408"	"0.061"	"0.019"
"1972"	"0"	"0.057"	"0.003"	"4.763"	"8.091"	"101.502"	"92.7"	"22.2"	"32.464"	"2.946"	"7.877"	"0.019"
"1973"	"0"	"0"	"0"	"1.213"	"4.878"	"91.073"	"95.412"	"109.79"	"34.704"	"26.177"	"1.169"	"0.031"
"1974"	"0"	"0"	"0.064"	"6.317"	"43.319"	"83.878"	"113.113"	"77.027"	"47.266"	"39.879"	"0.061"	"0.019"
"1975"	"0"	"0.037"	"0"	"0.377"	"9.985"	"142.245"	"118.217"	"86.114"	"86.505"	"39.854"	"5.802"	"0.019"
"1976"	"0"	"0"	"0.006"	"1.551"	"3.422"	"112.294"	"133.801"	"67.783"	"28.378"	"0.787"	"15.885"	"0.631"
"1977"	"0"	"0"	"0.034"	"1.332"	"11.772"	"114.557"	"133.601"	"52.776"	"31.504"	"16.051"	"19.711"	"1.015"
"1978"	"0"	"0.087"	"0"	"3.65"	"45.353"	"127.421"	"99.672"	"84.131"	"49.345"	"8.684"	"6.021"	"0.019"
"1979"	"0"	"0"	"0"	"0.28"	"4.969"	"147.812"	"59.847"	"96.269"	"53.182"	"6.158"	"15.177"	"0.019"
"1980"	"0.021"	"0"	"0.027"	"5.502"	"3.261"	"147.39"	"108.466"	"102.925"	"25.864"	"10.638"	"4.423"	"5.916"
"1981"	"0.034"	"0"	"0.002"	"3.028"	"4.858"	"125.117"	"106.675"	"79.669"	"88.824"	"9.89"	"1.683"	"0.019"
"1982"	"0"	"0"	"0"	"1.537"	"16.814"	"90.702"	"120.301"	"89.944"	"26.12"	"10.81"	"10.795"	"0.019"
"1983"	"0"	"0"	"0"	"0.018"	"4.451"	"127.853"	"116.643"	"134.442"	"67.523"	"6.811"	"2.371"	"2.245"
"1984"	"0.021"	"0.078"	"0.115"	"1.188"	"1.624"	"116.771"	"123.762"	"57.685"	"34.204"	"20.668"	"0.527"	"0.06"
"1985"	"0"	"0"	"0"	"2.106"	"8.149"	"95.921"	"63.239"	"78.005"	"19.651"	"32.06"	"6.657"	"0.019"
"1986"	"0.018"	"0"	"0"	"0.989"	"1.996"	"113.977"	"54.677"	"75.986"	"8.985"	"4.9"	"9.841"	"3.455"
"1987"	"0.113"	"0.039"	"0.004"	"0.365"	"17.353"	"79.303"	"56.157"	"68.497"	"39.311"	"26.188"	"3.017"	"10.762"
"1988"	"0"	"0"	"0"	"5.165"	"2.106"	"102.944"	"140.01"	"87.981"	"93.686"	"5.99"	"0.061"	"1.94"
"1989"	"0"	"0"	"0.125"	"3.747"	"6.009"	"103.867"	"97.584"	"49.403"	"50.959"	"4.412"	"0.271"	"0.169"
"1990"	"0"	"0"	"0"	"1.143"	"22.662"	"94.531"	"83.303"	"79.349"	"19.546"	"19.978"	"7.577"	"0.019"
"1991"	"0"	"0"	"0"	"5.598"	"11.61"	"94.8"	"127.242"	"64.395"	"42.494"	"5.353"	"2.448"	"0.019"
"1992"	"0"	"0"	"0"	"0.957"	"6.265"	"138.173"	"77.901"	"90.213"	"68.814"	"20.667"	"13.773"	"0.019"
"1993"	"0"	"0"	"0.082"	"0.934"	"7.94"	"99.243"	"132.601"	"56.944"	"19.569"	"35.436"	"1.426"	"8.705"
"1994"	"0.014"	"0"	"0.029"	"4.711"	"7.596"	"170.762"	"168.63"	"77.729"	"26.828"	"40.169"	"0.563"	"0.019"
"1995"	"0.107"	"0"	"0"	"2.514"	"5.93"	"40.133"	"109.418"	"52.973"	"46.551"	"31.988"	"1.013"	"0.019"
"1996"	"0.014"	"0.001"	"0"	"0.82"	"2.08"	"129.639"	"98.799"	"41.499"	"44.625"	"38.464"	"0.461"	"1.059"
"1997"	"0.15"	"0"	"0.026"	"1.727"	"1.341"	"178.621"	"104.77"	"133.383"	"8.372"	"15.758"	"6.889"	"10.299"
"1998"	"0"	"0.014"	"0"	"0.018"	"8.219"	"136.109"	"96.635"	"76.769"	"48.218"	"18.534"	"8.857"	"0.508"
"1999"	"0"	"0"	"0"	"0.018"	"19.401"	"148.955"	"110.276"	"27.574"	"24.403"	"48.327"	"0.514"	"0.019"
"2000"	"0"	"0"	"0"	"1.559"	"17.439"	"103.514"	"102.288"	"54.301"	"55.484"	"16"	"2.154"	"0.808"
"2001"	"0"	"0"	"0"	"1.204"	"8.176"	"65.2"	"67.578"	"49.778"	"28.422"	"22.025"	"6.289"	"0.339"
"2002"	"0"	"0.001"	"0"	"3.568"	"6.45"	"144.879"	"25.694"	"79.192"	"10.345"	"24.441"	"0.1"	"0.019"
