
"Year"	"Jan"	"Feb"	"Mar"	"Apr"	"May"	"Jun"	"Jul"	"Aug"	"Sep"	"Oct"	"Nov"	"Dec"
"1901"	"53.414"	"14.67"	"17.454"	"3.333"	"30.005"	"30.899"	"323.814"	"283.257"	"68.086"	"0.833"	"0"	"8.319"
"1902"	"0.294"	"4.442"	"10.293"	"17.673"	"17.6"	"59.647"	"249.492"	"184.715"	"105.451"	"9.243"	"1.465"	"0"
"1903"	"28.482"	"6.855"	"20.987"	"3.591"	"13.126"	"29.232"	"245.769"	"197.697"	"71.685"	"21.863"	"0"	"4.47"
"1904"	"26.912"	"2.078"	"44.71"	"5.067"	"18.735"	"80.219"	"168.286"	"253.461"	"107.928"	"4.687"	"20.578"	"8.749"
"1905"	"89.769"	"47.337"	"11.876"	"6.527"	"11.37"	"30.386"	"144.335"	"143.822"	"197.16"	"3.724"	"0"	"14.724"
"1906"	"15.7"	"83.211"	"15.301"	"5.023"	"15.512"	"81.021"	"127.712"	"268.615"	"227.109"	"2.32"	"0"	"3.835"
"1907"	"19.474"	"49.385"	"44.615"	"31.008"	"9.969"	"78.214"	"198.193"	"198.658"	"7.624"	"1.969"	"0"	"0"
"1908"	"44.857"	"20.092"	"1.989"	"10.597"	"16.676"	"65.992"	"191.504"	"413.064"	"120.41"	"0.871"	"0.687"	"4.191"
"1909"	"36.628"	"15.255"	"1.459"	"41.428"	"5.503"	"199.891"	"392.093"	"222.69"	"168.799"	"1.662"	"1.219"	"49.186"
"1910"	"30.245"	"13.939"	"2.912"	"14.26"	"18.098"	"163.605"	"268.838"	"236.488"	"96.374"	"5.011"	"1.344"	"4.776"
"1911"	"75.505"	"3.29"	"68.527"	"10.639"	"5.597"	"92.163"	"86.459"	"206.968"	"132.32"	"5.959"	"39.247"	"0.726"
"1912"	"46.754"	"13.354"	"11.728"	"22.922"	"18.441"	"54.489"	"161.135"	"242.87"	"112.56"	"0.687"	"24.296"	"7.808"
"1913"	"10.388"	"41.497"	"29.756"	"7.812"	"49.864"	"150.466"	"183.815"	"216.57"	"24.82"	"2.315"	"6.871"	"20.732"
"1914"	"15.8"	"47.098"	"31.904"	"20.628"	"20.092"	"76.987"	"345.631"	"182.173"	"293.971"	"25.655"	"13.373"	"8.292"
"1915"	"9.851"	"65.364"	"28.067"	"11.153"	"11.17"	"73.546"	"125.795"	"348.174"	"99.386"	"20.218"	"0"	"5.766"
"1916"	"1.461"	"12.204"	"1.774"	"7.227"	"22.513"	"134.8"	"435.087"	"194.941"	"125.327"	"16.933"	"0.259"	"0"
"1917"	"8.912"	"21.497"	"23.001"	"29.847"	"42.507"	"164.538"	"214.066"	"322.317"	"245.073"	"33.726"	"0"	"8.666"
"1918"	"4.514"	"1.269"	"23.781"	"31.078"	"5.366"	"98.781"	"74.573"	"137.939"	"27.124"	"1.262"	"20.78"	"7.162"
"1919"	"81.736"	"17.353"	"14.758"	"22.402"	"19.04"	"47.758"	"271.17"	"185.368"	"86.243"	"6.513"	"2.567"	"8.9"
"1920"	"20.247"	"18.737"	"23.743"	"5.435"	"25.555"	"123.497"	"171.658"	"143.021"	"46.998"	"1.495"	"0"	"0.824"
"1921"	"34.828"	"2.613"	"2.706"	"2.745"	"8.559"	"67.605"	"255.127"	"290.343"	"111.519"	"23.948"	"0"	"8.729"
"1922"	"33.654"	"21.126"	"3.822"	"5.691"	"7.028"	"63.624"	"235.578"	"283.211"	"276.728"	"8.364"	"4.119"	"45.139"
"1923"	"28.167"	"55.636"	"3.453"	"13.539"	"19.708"	"18.4"	"240.663"	"237.029"	"107.161"	"26.376"	"16.549"	"26.55"
"1924"	"37.973"	"43.307"	"8.853"	"4.234"	"23.92"	"18.267"	"272.024"	"162.284"	"257.315"	"26.893"	"2.107"	"41.941"
"1925"	"21.945"	"2.278"	"5.14"	"6.739"	"22.72"	"219.411"	"304.955"	"283.421"	"42.132"	"3.563"	"19.512"	"0"
"1926"	"15.658"	"7.161"	"47.243"	"21.201"	"17.838"	"18.814"	"235.567"	"323.036"	"64.289"	"2.576"	"9.752"	"8.495"
"1927"	"1.981"	"33.126"	"9.17"	"8.188"	"32.922"	"37.818"	"140.966"	"339.964"	"58.561"	"36.938"	"0.28"	"20.145"
"1928"	"36.613"	"52.095"	"11.072"	"19.882"	"4.832"	"53.674"	"220.035"	"146.936"	"129.253"	"0.478"	"17.994"	"23.19"
"1929"	"48.919"	"3.074"	"6.597"	"11.264"	"6.875"	"160.807"	"168.805"	"345.396"	"30.399"	"14.412"	"0"	"54.82"
"1930"	"29.148"	"13.886"	"7.414"	"18.354"	"10.117"	"57.423"	"290.281"	"171.299"	"45.231"	"11.508"	"11.714"	"11.955"
"1931"	"24.346"	"41.393"	"16.487"	"6.715"	"19.547"	"21.116"	"338.329"	"235.647"	"211.147"	"43.849"	"1.344"	"0"
"1932"	"15.08"	"5.904"	"16.839"	"5.531"	"10.309"	"57.663"	"161.858"	"165.473"	"145.797"	"2.697"	"0.687"	"26.79"
"1933"	"18.45"	"29.726"	"11.14"	"17.315"	"23.916"	"95.629"	"246.149"	"319.132"	"145.983"	"37.556"	"5.211"	"0.613"
"1934"	"25.398"	"4.976"	"16.489"	"1.479"	"8.413"	"67.245"	"210.621"	"334.715"	"37.923"	"0"	"0"	"19.214"
"1935"	"72.384"	"41.561"	"9.534"	"19.746"	"7.045"	"7.827"	"178.216"	"144.728"	"80.659"	"0.627"	"15.949"	"12.775"
"1936"	"5.835"	"36.939"	"26.766"	"17.911"	"17.656"	"315.81"	"459.729"	"267.409"	"116.407"	"14.046"	"3.445"	"40.627"
"1937"	"4.837"	"82.492"	"4.552"	"29.212"	"16.098"	"64.878"	"329.331"	"104.572"	"116.822"	"11.016"	"0.968"	"20.601"
"1938"	"59.184"	"29.451"	"1.983"	"4.884"	"2.543"	"213.872"	"205.221"	"202.735"	"28.804"	"10.208"	"1.431"	"0.904"
"1939"	"17.757"	"42.545"	"20.88"	"11.763"	"6.765"	"90.689"	"166.104"	"114.568"	"64.245"	"12.217"	"0"	"0"
"1940"	"44.135"	"54.009"	"22.909"	"10.987"	"11.343"	"101.647"	"158.757"	"200.871"	"58.625"	"1.839"	"0.435"	"9.365"
"1941"	"33.029"	"14.334"	"5.876"	"3.316"	"26.745"	"77.946"	"115.743"	"125.912"	"160.351"	"2.548"	"1.874"	"15.04"
"1942"	"46.755"	"40.591"	"10.61"	"23.16"	"20.299"	"85.395"	"352.528"	"210.205"	"96.393"	"2.311"	"0.64"	"30.267"
"1943"	"31.504"	"4.25"	"9.864"	"22.14"	"6.715"	"127.055"	"123.709"	"243.641"	"59.648"	"0"	"0"	"0"
"1944"	"37.337"	"33.221"	"19.914"	"20.733"	"1.683"	"111.78"	"173.909"	"162.394"	"89.483"	"1.921"	"2.123"	"7.172"
"1945"	"32.576"	"0.839"	"14.383"	"34.149"	"9.605"	"75.485"	"318.171"	"153.329"	"229.021"	"23.582"	"0"	"1.592"
"1946"	"1.749"	"17.996"	"8.091"	"18.936"	"31.878"	"94.792"	"234.854"	"168.929"	"30.245"	"21.106"	"13.178"	"13.944"
"1947"	"20.751"	"25.073"	"22.649"	"1.464"	"8.372"	"29.866"	"168.083"	"289.185"	"125.829"	"12.115"	"1.431"	"10.459"
"1948"	"5.502"	"38.047"	"45.724"	"8.759"	"9.77"	"67.518"	"284.242"	"347.091"	"83.56"	"9.511"	"2.664"	"12.392"
"1949"	"7.702"	"47.544"	"13.701"	"14.344"	"13.88"	"42.336"	"415.706"	"162.64"	"140.304"	"12.684"	"0.861"	"2.023"
"1950"	"73.027"	"25.387"	"37.747"	"3.57"	"14.512"	"98.17"	"359.704"	"242.958"	"258.156"	"0.658"	"0.746"	"1.262"
"1951"	"29.551"	"21.285"	"24.785"	"16.781"	"20.126"	"64.766"	"146.892"	"191.157"	"87.109"	"7.358"	"25.455"	"1.045"
"1952"	"19.562"	"20.649"	"29.22"	"8.198"	"23.389"	"84.197"	"156.4"	"191.659"	"17.316"	"1.314"	"10.764"	"3.896"
"1953"	"54.616"	"6.774"	"6.975"	"10.601"	"4.939"	"62.242"	"369.767"	"243.213"	"132.175"	"3.393"	"1.87"	"6.654"
"1954"	"38.791"	"70.158"	"7.478"	"1.36"	"8.581"	"48.443"	"298.703"	"149.695"	"267.878"	"20.044"	"0"	"1.756"
"1955"	"33.809"	"3.029"	"24.857"	"16.844"	"15.131"	"61.764"	"213.145"	"214.877"	"225.177"	"46.525"	"0"	"3.203"
"1956"	"23.751"	"10.958"	"22.968"	"7.099"	"30.571"	"135.051"	"238.597"	"204.216"	"37.881"	"48.009"	"0"	"6.693"
"1957"	"87.466"	"3.846"	"27.787"	"27.256"	"14.305"	"53.281"	"175.207"	"306.53"	"124.371"	"12.769"	"10.801"	"29.639"
"1958"	"15.808"	"8.722"	"12.099"	"9.675"	"4.933"	"69.045"	"203.782"	"257.968"	"227.638"	"38.585"	"2.765"	"31.392"
"1959"	"36.58"	"18.742"	"16.08"	"7.736"	"33.176"	"22.18"	"397.14"	"236.491"	"76.383"	"23.401"	"27.349"	"0.406"
"1960"	"31.403"	"1.389"	"25.421"	"12.255"	"7.726"	"58.313"	"212.945"	"187.845"	"101.486"	"29.796"	"0"	"6.388"
"1961"	"92.996"	"42.649"	"6.009"	"14.45"	"12.622"	"52.922"	"318.06"	"237.472"	"144.451"	"34.798"	"1.062"	"19.411"
"1962"	"47.821"	"28.262"	"23.864"	"3.924"	"14.544"	"48.795"	"215.269"	"197.499"	"230.196"	"0.342"	"11.162"	"13.438"
"1963"	"7.547"	"19.535"	"43.851"	"11.344"	"28.108"	"51.32"	"156.497"	"185.813"	"145.71"	"4.058"	"10.432"	"17.525"
"1964"	"24.8"	"6.428"	"14.01"	"9.496"	"25.639"	"60.929"	"397.76"	"173.528"	"127.233"	"0"	"1.802"	"11.989"
"1965"	"12.801"	"36.609"	"20.77"	"32.316"	"16.121"	"13.139"	"205.225"	"184.763"	"17.255"	"14.695"	"6.731"	"0"
"1966"	"5.8"	"49.049"	"16.282"	"9.302"	"25.392"	"123.48"	"234.223"	"269.678"	"174.688"	"19.953"	"12.133"	"2.568"
"1967"	"0.747"	"17.9"	"52.688"	"5.812"	"3.543"	"30.994"	"179.647"	"414.232"	"57.398"	"4.98"	"3.39"	"43.721"
"1968"	"52.086"	"34.803"	"12.856"	"6.706"	"5.641"	"63.51"	"188.855"	"215.03"	"31.344"	"14.827"	"0"	"8.082"
"1969"	"18.55"	"11.978"	"22.802"	"31.796"	"25.264"	"33.04"	"269.025"	"215.703"	"235.973"	"3.338"	"1.111"	"0"
"1970"	"32.779"	"17.853"	"10.077"	"0.658"	"25.855"	"82.852"	"111.475"	"248.158"	"61.983"	"10.825"	"0"	"0.001"
"1971"	"12.883"	"20.403"	"11.147"	"19.424"	"51.488"	"119.991"	"271.012"	"333.125"	"109.213"	"33.804"	"9.885"	"0.199"
"1972"	"14.206"	"25.412"	"7.81"	"11.353"	"3.765"	"34.715"	"212.514"	"183.404"	"230.181"	"22.182"	"10.727"	"7.6"
"1973"	"25.93"	"19.208"	"17.056"	"0.839"	"18.856"	"116.596"	"182.081"	"311.297"	"99.791"	"22.555"	"0"	"11.298"
"1974"	"14.726"	"14.514"	"4.095"	"1.587"	"18.496"	"52.06"	"234.153"	"125.604"	"26.693"	"2.958"	"0"	"16.511"
"1975"	"50.102"	"28.94"	"26.392"	"2.412"	"2.852"	"130.338"	"305.835"	"225.98"	"216.918"	"6.461"	"0"	"0"
"1976"	"13.12"	"42.892"	"13.986"	"15.477"	"15.472"	"141.252"	"216.463"	"564.445"	"128.315"	"14.269"	"0"	"0.448"
"1977"	"39.474"	"2.74"	"1.781"	"34.952"	"49.555"	"153.871"	"264.557"	"173.735"	"83.032"	"24.479"	"0.576"	"12.901"
"1978"	"7.354"	"11.208"	"56.355"	"10.265"	"1.771"	"109.757"	"297.374"	"395.048"	"191.623"	"2.169"	"8.83"	"4.25"
"1979"	"20.668"	"47.375"	"33.674"	"8.484"	"30.668"	"55.091"	"196.572"	"124.728"	"81.633"	"7.572"	"16.22"	"3.987"
"1980"	"14.732"	"19.195"	"29.739"	"6.03"	"7.955"	"153.123"	"552.6"	"361.594"	"161.51"	"14.043"	"6.439"	"9.173"
"1981"	"84.502"	"19.834"	"46.939"	"4.762"	"14.322"	"37.013"	"470.216"	"125.773"	"31.666"	"7.757"	"39.404"	"1.41"
"1982"	"33.554"	"15.212"	"86.221"	"21.366"	"40.342"	"22.789"	"111.224"	"305.143"	"23.961"	"3.598"	"15.866"	"21.002"
"1983"	"64.643"	"22.307"	"36.483"	"46.947"	"59.079"	"97.977"	"228.306"	"236.826"	"169.117"	"28.139"	"0"	"5.781"
"1984"	"6.103"	"75.972"	"8.352"	"19.543"	"0.707"	"71.254"	"390.153"	"242.866"	"125.537"	"0.483"	"0"	"17.059"
"1985"	"21.003"	"1.741"	"5.808"	"23.199"	"24.732"	"105.449"	"350.32"	"249.011"	"137.154"	"36.557"	"1.127"	"31.026"
"1986"	"4.846"	"38.173"	"15.278"	"17.431"	"38.856"	"90.533"	"342.017"	"226.539"	"142.077"	"11.446"	"6.926"	"40.443"
"1987"	"32.889"	"28.565"	"14.335"	"9.923"	"32.979"	"48.179"	"80.374"	"149.808"	"26.864"	"12.574"	"0"	"9.633"
"1988"	"8.605"	"22.775"	"36.868"	"14.809"	"7.479"	"79.149"	"369.833"	"253.738"	"141.007"	"18.251"	"0.542"	"24.805"
"1989"	"62.628"	"9.791"	"18.791"	"2.258"	"12.206"	"70.684"	"283.417"	"180.178"	"76.808"	"2.009"	"7.654"	"5.675"
"1990"	"3.601"	"68.192"	"48.974"	"11.73"	"35.782"	"47.43"	"292.147"	"289.425"	"197.552"	"6.753"	"14.288"	"43.881"
"1991"	"2.202"	"27.019"	"17.195"	"36.131"	"29.795"	"106.92"	"55.624"	"250.125"	"72.49"	"2.47"	"7.541"	"9.793"
"1992"	"32.008"	"49.441"	"15.794"	"9.416"	"32.184"	"51.391"	"171.541"	"242.92"	"96.144"	"7.19"	"33.005"	"1.052"
"1993"	"18.204"	"19.214"	"16.51"	"14.983"	"21.787"	"131.358"	"235.163"	"71.047"	"188.547"	"0"	"0"	"0"
"1994"	"17.543"	"8.622"	"16.145"	"8.321"	"48.772"	"51.519"	"248.138"	"212.055"	"116.428"	"2.185"	"0"	"5.141"
"1995"	"41.73"	"78.269"	"42.289"	"8.895"	"1.546"	"88.399"	"207.897"	"367.734"	"160.351"	"2.511"	"19.516"	"1.052"
"1996"	"51.204"	"40.133"	"19.37"	"9.654"	"21.973"	"213.167"	"176.982"	"343.718"	"104.866"	"14.821"	"0"	"1.35"
"1997"	"25.961"	"10.419"	"14.797"	"52.82"	"26.221"	"169.973"	"221.608"	"236.583"	"67.517"	"27.526"	"18.582"	"6.014"
"1998"	"21.588"	"35.69"	"41.132"	"27.023"	"16.672"	"16.251"	"264.188"	"241.213"	"80.112"	"29.467"	"4.953"	"1.35"
"1999"	"14.272"	"10.239"	"5.424"	"3.862"	"18.37"	"95.806"	"104.887"	"148.785"	"110.141"	"8.936"	"1.103"	"5.81"
"2000"	"19.098"	"40.161"	"9.305"	"3.31"	"21.466"	"130.022"	"230.738"	"177.744"	"61.311"	"0"	"2.299"	"0.698"
"2001"	"9.534"	"10.078"	"10.264"	"16.255"	"36.559"	"81.599"	"273.03"	"63.047"	"48.925"	"0.975"	"1.132"	"2.369"
"2002"	"21.999"	"37.397"	"34.633"	"8.537"	"11.68"	"59.772"	"109.189"	"154.458"	"199.43"	"1.511"	"0"	"3.185"
