
"Year"	"Jan"	"Feb"	"Mar"	"Apr"	"May"	"Jun"	"Jul"	"Aug"	"Sep"	"Oct"	"Nov"	"Dec"
"1901"	"4.496"	"3.667"	"10.33"	"59.854"	"50.892"	"154.065"	"165.925"	"105.419"	"65.929"	"42.468"	"1.98"	"0"
"1902"	"0.23"	"0"	"0.391"	"17.752"	"18.883"	"91.053"	"81.35"	"56.759"	"220.695"	"82.979"	"33.003"	"25.967"
"1903"	"7.818"	"0"	"0"	"4.224"	"91.683"	"104.872"	"295.786"	"165.881"	"211.583"	"110.824"	"15.225"	"12.483"
"1904"	"0.262"	"0.285"	"3.227"	"0.924"	"19.854"	"96.255"	"93.255"	"32.057"	"175.05"	"105.311"	"0.297"	"0"
"1905"	"0"	"1.652"	"0.126"	"11.33"	"13.603"	"73.802"	"102.347"	"76.99"	"44.946"	"115.294"	"4.476"	"0"
"1906"	"12.391"	"0"	"0.024"	"0.223"	"24.551"	"127.136"	"140.28"	"180.69"	"60.953"	"33.136"	"18.604"	"14.278"
"1907"	"0"	"2.99"	"3.102"	"81.383"	"0.444"	"90.086"	"329.234"	"129.539"	"79.076"	"3.957"	"2.195"	"1.681"
"1908"	"0"	"0"	"3.547"	"6.347"	"14.211"	"55.82"	"157.902"	"115.489"	"244.487"	"4.559"	"0.385"	"0.009"
"1909"	"0.888"	"0.335"	"5.14"	"3.86"	"81.655"	"137.33"	"139.629"	"184.071"	"137.949"	"12.311"	"1.142"	"10.872"
"1910"	"0"	"0"	"0.37"	"0.195"	"9.47"	"122.322"	"171.809"	"139.219"	"251.788"	"40.597"	"41.55"	"0"
"1911"	"0.435"	"0"	"0"	"2.857"	"16.28"	"77.864"	"233.143"	"114.205"	"46.764"	"11.704"	"21.429"	"28.117"
"1912"	"0"	"4.469"	"0"	"12.167"	"24.022"	"46.098"	"202.91"	"96.099"	"16.1"	"100.78"	"39.507"	"0"
"1913"	"0"	"0.044"	"0"	"7.954"	"64.946"	"132.945"	"187.961"	"37.717"	"30.503"	"42.364"	"1.184"	"1.554"
"1914"	"0"	"0"	"0"	"7.499"	"12.953"	"122.767"	"244.076"	"153.712"	"132.651"	"4.352"	"49.409"	"26.208"
"1915"	"3.079"	"3.025"	"26.958"	"30.198"	"30.493"	"132.59"	"184.844"	"45.825"	"224.722"	"81.063"	"24.117"	"11.07"
"1916"	"0"	"0.023"	"1.556"	"5.411"	"83.828"	"100.62"	"383.999"	"83.486"	"220.978"	"163.307"	"100.123"	"0"
"1917"	"0.058"	"10.574"	"8.785"	"15.707"	"10.341"	"107.201"	"60.722"	"181.501"	"162.808"	"211.715"	"40.302"	"0"
"1918"	"1.737"	"2.324"	"0.626"	"18.095"	"164.598"	"29.007"	"59.862"	"48.82"	"70.457"	"5.194"	"31.684"	"9.38"
"1919"	"0.508"	"0.111"	"1.18"	"4.634"	"22.039"	"184.196"	"75.171"	"55.302"	"232.877"	"35.13"	"57.529"	"1.411"
"1920"	"6.459"	"0"	"0"	"11.632"	"37.005"	"54.543"	"75.92"	"52.224"	"124.423"	"35.533"	"0.515"	"0"
"1921"	"0.433"	"0"	"0"	"12.926"	"1.824"	"52.962"	"301.088"	"43.364"	"90.761"	"54.46"	"117.412"	"0"
"1922"	"2.078"	"0.719"	"0"	"31.609"	"48.12"	"147.851"	"137.583"	"21.993"	"32.404"	"34.745"	"94.142"	"0"
"1923"	"0.59"	"5.321"	"18.712"	"13.072"	"6.356"	"21.487"	"262.812"	"50.215"	"176.62"	"17.468"	"0.297"	"1.831"
"1924"	"1.662"	"0"	"4.171"	"40.164"	"4.915"	"38.494"	"107.386"	"127.733"	"186.658"	"70.298"	"2.958"	"12.116"
"1925"	"0"	"0"	"1.828"	"2.416"	"84.274"	"64.043"	"92.103"	"121.422"	"125.486"	"94.206"	"39.312"	"1.849"
"1926"	"15.432"	"0.29"	"0"	"2.065"	"23.307"	"97.86"	"101.261"	"166.385"	"184.819"	"5.387"	"8.904"	"0.703"
"1927"	"0.047"	"0.554"	"1.69"	"17.88"	"7.091"	"125.569"	"130.415"	"60.399"	"163.274"	"48.315"	"107.122"	"0"
"1928"	"0"	"15.466"	"9.034"	"13.773"	"0.444"	"157.473"	"135.909"	"108.526"	"238.365"	"88.556"	"0.297"	"5.394"
"1929"	"0"	"10.632"	"1.477"	"46.236"	"29.436"	"149.737"	"89.638"	"40.599"	"157.378"	"79.349"	"4.857"	"2.992"
"1930"	"0"	"0"	"9.839"	"4.466"	"20.158"	"86.847"	"76.09"	"53.792"	"178.026"	"175.696"	"40.54"	"0.418"
"1931"	"0.014"	"0"	"2.502"	"58.194"	"5.293"	"98.53"	"155.842"	"68.987"	"160.226"	"104.88"	"95.335"	"14.682"
"1932"	"0"	"0"	"2.843"	"12.167"	"37.409"	"56.314"	"216.821"	"148.224"	"122.137"	"189.433"	"109.046"	"0.171"
"1933"	"0.132"	"2.976"	"10.808"	"54.423"	"76.284"	"89.573"	"181.051"	"136.511"	"156.847"	"63.542"	"58.994"	"40.249"
"1934"	"1.49"	"0"	"1.174"	"46.283"	"10.819"	"40.422"	"257.991"	"164.873"	"151.945"	"46.497"	"94.458"	"0"
"1935"	"1.25"	"0"	"0"	"15.196"	"5.806"	"124.096"	"114.724"	"199.545"	"107.134"	"174.472"	"8.539"	"9.647"
"1936"	"0"	"12.49"	"7.763"	"21.894"	"37.56"	"68.688"	"60.541"	"51.302"	"127.762"	"15.215"	"139.002"	"2.074"
"1937"	"0"	"1.35"	"12.632"	"63.515"	"2.743"	"50.967"	"189.183"	"29.973"	"121.86"	"153.712"	"0.297"	"17.991"
"1938"	"0"	"2.525"	"8.203"	"21.766"	"40.014"	"172.484"	"364.005"	"166.504"	"187.145"	"80.305"	"3.474"	"0.188"
"1939"	"0"	"0"	"4.293"	"17.215"	"1.936"	"77.306"	"153.333"	"70.71"	"72.13"	"39.373"	"16.636"	"0.293"
"1940"	"0"	"1.372"	"0"	"46.656"	"33.53"	"106.385"	"107.95"	"238.917"	"93.983"	"76.07"	"26.28"	"14.496"
"1941"	"9.577"	"6.432"	"9.357"	"4.017"	"3.923"	"52.855"	"114.329"	"109.005"	"199.922"	"31.79"	"0.316"	"0.108"
"1942"	"0"	"1.166"	"0"	"15.629"	"13.776"	"139.739"	"162.255"	"107.175"	"36.146"	"15.047"	"4.077"	"35.172"
"1943"	"3.481"	"0"	"0.139"	"17.223"	"41.184"	"128.63"	"163.813"	"88.668"	"170.624"	"228.732"	"5.451"	"0"
"1944"	"0"	"3.06"	"15.514"	"0.223"	"37.957"	"78.316"	"243.066"	"42.947"	"99.366"	"160.225"	"12.154"	"0"
"1945"	"1.338"	"0"	"0"	"21.467"	"9.218"	"77.079"	"145.471"	"136.819"	"64.391"	"50.651"	"22.192"	"5.44"
"1946"	"0"	"5.005"	"0.204"	"40.511"	"67.448"	"136.386"	"197.25"	"143.917"	"136.047"	"38.658"	"68.052"	"12.434"
"1947"	"12.328"	"1.243"	"9.621"	"39.731"	"54.189"	"93.665"	"160.427"	"252.563"	"135.619"	"15.223"	"10.553"	"8.435"
"1948"	"1.828"	"2.217"	"7.581"	"10.494"	"3.928"	"73.734"	"169.44"	"233.269"	"191.891"	"86.493"	"103.624"	"0"
"1949"	"0"	"0.323"	"2.513"	"3.506"	"105.01"	"121.364"	"153.793"	"80.288"	"300.963"	"43.39"	"9.683"	"0"
"1950"	"0"	"1.255"	"5.504"	"8.771"	"26.924"	"62.494"	"143.891"	"89.385"	"234.191"	"97.403"	"0.7"	"0.572"
"1951"	"0.232"	"0"	"2.808"	"6.084"	"25.675"	"112.24"	"230.12"	"87.93"	"79.066"	"129.069"	"4.307"	"0.064"
"1952"	"0"	"2.922"	"0"	"17.124"	"95.893"	"106.752"	"159.662"	"42.979"	"85.414"	"68.475"	"0.297"	"0.389"
"1953"	"0"	"0"	"0"	"42.571"	"0.444"	"102.919"	"322.818"	"107.753"	"193.095"	"168.755"	"0.297"	"0"
"1954"	"0.401"	"0"	"11.388"	"17.632"	"29.991"	"164.399"	"277.603"	"110.09"	"142.949"	"35.502"	"0.297"	"20.089"
"1955"	"0.887"	"0"	"2.24"	"11.83"	"76.417"	"106.957"	"189.567"	"213.979"	"146.001"	"125.369"	"14.301"	"0"
"1956"	"0"	"0.09"	"0"	"15.133"	"139.927"	"83.688"	"368.524"	"154.487"	"165.204"	"182.484"	"76.335"	"0.083"
"1957"	"0"	"0.475"	"4.275"	"59.792"	"65.118"	"107.425"	"179.052"	"188.368"	"100.968"	"197.09"	"24.854"	"0"
"1958"	"0.007"	"0"	"12.177"	"26.531"	"56.259"	"31.589"	"177.292"	"170.092"	"45.718"	"135.957"	"18.418"	"0.034"
"1959"	"0.727"	"0"	"0.296"	"27.883"	"25.458"	"143.878"	"218.936"	"160.608"	"135.736"	"124.145"	"43.002"	"0"
"1960"	"0.024"	"0"	"2.432"	"16.454"	"66.907"	"83.882"	"126.541"	"26.148"	"246.349"	"31.373"	"36.85"	"0.071"
"1961"	"0"	"0"	"1.209"	"20.638"	"133.602"	"130.008"	"261.952"	"94.948"	"29.247"	"189.897"	"10.447"	"1.768"
"1962"	"0.013"	"2.846"	"3.199"	"59.539"	"95.383"	"72.006"	"208.313"	"144.709"	"192.526"	"66.742"	"31.33"	"38.055"
"1963"	"0"	"11.469"	"14.534"	"31.696"	"59.745"	"175.995"	"172.499"	"219.147"	"43.111"	"113.13"	"0.854"	"0"
"1964"	"0"	"1.731"	"11.222"	"14.369"	"6.257"	"71.562"	"275.713"	"116.124"	"294.341"	"69.821"	"29.609"	"7.535"
"1965"	"0.114"	"0.07"	"0"	"10.972"	"7.663"	"79.771"	"239.15"	"122.146"	"57.9"	"2.759"	"16.631"	"31.469"
"1966"	"2.255"	"0"	"0.932"	"32.47"	"121.078"	"63.147"	"191.31"	"86.88"	"186.059"	"5.958"	"77.322"	"5.262"
"1967"	"1.437"	"3.206"	"1.807"	"13.233"	"17.688"	"56.071"	"313.78"	"78.979"	"152.973"	"63.567"	"5.272"	"28.997"
"1968"	"1.206"	"14.154"	"9.341"	"16.319"	"10.687"	"86.145"	"157.319"	"42.412"	"170.626"	"75.831"	"31.224"	"1.789"
"1969"	"0.189"	"1.589"	"0.857"	"10.938"	"14.218"	"102.075"	"236.61"	"110.299"	"141.071"	"68.535"	"25.18"	"1.638"
"1970"	"0.093"	"0"	"0.038"	"24.568"	"58.394"	"109.843"	"178.213"	"225.715"	"164.044"	"61.556"	"0.297"	"0"
"1971"	"0"	"0"	"0"	"9.5"	"68.757"	"85.012"	"41.561"	"185.28"	"161.127"	"94.165"	"0.297"	"0"
"1972"	"0"	"0.999"	"0.069"	"15.699"	"12.681"	"49.352"	"64.284"	"20.031"	"91.4"	"25.988"	"39.018"	"1.504"
"1973"	"0"	"0.869"	"0"	"4.346"	"9.015"	"126.641"	"203.312"	"198.648"	"100.774"	"229.374"	"6.151"	"0"
"1974"	"0"	"0"	"12.122"	"26.26"	"58.735"	"76.386"	"132.883"	"141.865"	"171.724"	"222.293"	"0.351"	"0"
"1975"	"4.664"	"7.306"	"0.078"	"0.642"	"23.535"	"75.48"	"272.799"	"173.291"	"231.038"	"237.8"	"4.952"	"0"
"1976"	"0"	"0"	"7.863"	"14.677"	"19.411"	"153.78"	"155.126"	"86.386"	"56.606"	"5.494"	"56.561"	"2.497"
"1977"	"0"	"0"	"19.072"	"28.839"	"19.473"	"96.711"	"134.57"	"51.791"	"68.963"	"107.418"	"78.679"	"5.406"
"1978"	"0.357"	"15.249"	"5.539"	"32.985"	"93.346"	"110.059"	"138.57"	"111.578"	"135.514"	"90.392"	"91.139"	"1.625"
"1979"	"0.246"	"7.046"	"2.96"	"3.809"	"44.196"	"77.771"	"163.044"	"114.768"	"222.116"	"33.282"	"157.84"	"0.177"
"1980"	"0"	"0"	"6.28"	"47.918"	"8.931"	"94.685"	"99.983"	"197.44"	"57.881"	"9"	"15.989"	"2.596"
"1981"	"6.753"	"0.023"	"16.801"	"12.79"	"38.075"	"147.32"	"83.252"	"116.698"	"328.091"	"110.399"	"19.926"	"1.074"
"1982"	"0"	"0.091"	"0.035"	"68.589"	"73.828"	"64.942"	"167.446"	"56.269"	"139.023"	"55.464"	"58.525"	"0"
"1983"	"0.015"	"0"	"0"	"0.195"	"14.666"	"110.939"	"182.817"	"142.011"	"262.819"	"86.429"	"1.001"	"15.083"
"1984"	"0.54"	"8.944"	"10.105"	"5.077"	"2.984"	"34.536"	"298.938"	"50.564"	"112.021"	"175.019"	"4.243"	"0.68"
"1985"	"0.239"	"0"	"5.349"	"13.118"	"9.786"	"84.587"	"138.655"	"95.213"	"49.321"	"145.732"	"73.198"	"2.913"
"1986"	"0.356"	"3.386"	"0"	"22.152"	"16.883"	"165.621"	"89.505"	"127.419"	"61.267"	"15.066"	"28.189"	"32.41"
"1987"	"9.721"	"7.198"	"7.822"	"7.083"	"76.745"	"65.131"	"102.257"	"163.181"	"58.141"	"170.614"	"39.469"	"29.217"
"1988"	"0"	"0.985"	"0"	"65.075"	"9.636"	"69.361"	"282.565"	"114.583"	"335.207"	"18.543"	"0.337"	"3.747"
"1989"	"0"	"0"	"19.583"	"29.343"	"16.944"	"117.804"	"268.351"	"72.286"	"151.842"	"51.585"	"2.285"	"2.034"
"1990"	"0.249"	"0"	"4.581"	"3.114"	"119.917"	"120.318"	"182.938"	"170.187"	"54.988"	"130.776"	"45.212"	"2.524"
"1991"	"0.22"	"0.035"	"1.336"	"42.466"	"35.228"	"160.007"	"175.443"	"110.433"	"136.916"	"28.335"	"22.533"	"0"
"1992"	"0"	"0"	"0"	"7.725"	"24.746"	"88.628"	"117.091"	"183.334"	"170.224"	"57.975"	"24.084"	"0"
"1993"	"0"	"0.063"	"3.897"	"8.688"	"10.139"	"73.048"	"184.103"	"91.539"	"73.522"	"192.71"	"5.111"	"20.623"
"1994"	"4.162"	"2.068"	"5.169"	"31.819"	"29.316"	"175.043"	"241.547"	"117.367"	"64.003"	"193.291"	"26.082"	"0"
"1995"	"4.27"	"0"	"7.738"	"17.498"	"45.487"	"72.303"	"195.699"	"75.045"	"173.339"	"187.149"	"17.584"	"0"
"1996"	"0"	"2.505"	"0.066"	"25.616"	"7.95"	"113.329"	"200.705"	"139.847"	"135.461"	"190.435"	"38.547"	"0"
"1997"	"4.746"	"0"	"5.809"	"44.381"	"10.034"	"141.571"	"173.078"	"194.836"	"46.28"	"65.983"	"111.723"	"27.286"
"1998"	"0"	"2.349"	"0.025"	"1.893"	"20.152"	"70.719"	"221.741"	"165.109"	"147.259"	"157.173"	"42.478"	"0.289"
"1999"	"0"	"0.626"	"0"	"3.404"	"60.335"	"94.794"	"137.107"	"58.959"	"121.719"	"183.425"	"0.498"	"0"
"2000"	"0"	"1.21"	"0"	"8.142"	"44.259"	"136.574"	"118.913"	"179.102"	"102.901"	"48.81"	"12.54"	"5.978"
"2001"	"1.283"	"0"	"10.425"	"6.904"	"5.271"	"109.267"	"87.832"	"108.342"	"99.48"	"162.579"	"21.302"	"0.169"
"2002"	"2.473"	"0.231"	"1.213"	"60.297"	"35.71"	"146.894"	"46.604"	"120.628"	"42.231"	"67.396"	"1.438"	"0"
