
"Year"	"Jan"	"Feb"	"Mar"	"Apr"	"May"	"Jun"	"Jul"	"Aug"	"Sep"	"Oct"	"Nov"	"Dec"
"1901"	"22.87"	"22.995"	"27.596"	"30.216"	"29.367"	"27.318"	"25.357"	"25.026"	"26.047"	"26.108"	"23.187"	"22.1"
"1902"	"23.121"	"24.334"	"28.393"	"30.087"	"31.232"	"28.241"	"26.584"	"26.398"	"25.386"	"26.401"	"22.365"	"22.221"
"1903"	"22.514"	"23.397"	"26.962"	"30.153"	"29.881"	"28.69"	"25.424"	"25.253"	"25.573"	"24.765"	"22.353"	"21.192"
"1904"	"22.301"	"23.614"	"26.853"	"30.102"	"30.329"	"27.229"	"25.797"	"26.176"	"25.494"	"25.719"	"21.956"	"21.363"
"1905"	"21.785"	"23.174"	"26.337"	"28.406"	"31.036"	"28.645"	"26.131"	"25.493"	"25.444"	"26.443"	"23.64"	"21.192"
"1906"	"22.505"	"23.643"	"27.057"	"31.024"	"31.371"	"27.09"	"25.697"	"25.594"	"24.877"	"25.325"	"23.68"	"22.423"
"1907"	"22.485"	"24.472"	"27.201"	"28.566"	"29.669"	"27.412"	"25.798"	"24.253"	"25.511"	"26.447"	"24.28"	"21.221"
"1908"	"22.048"	"23.833"	"27.192"	"30.93"	"30.529"	"28.332"	"25.016"	"24.841"	"25.571"	"25.793"	"22.258"	"20.071"
"1909"	"23.208"	"24.428"	"28.662"	"28.798"	"30.771"	"26.705"	"24.782"	"25.67"	"25.141"	"25.558"	"23.425"	"23.083"
"1910"	"22.523"	"23.872"	"27.839"	"30.749"	"30.697"	"27.592"	"26.191"	"25.474"	"24.969"	"24.909"	"21.239"	"20.604"
"1911"	"22.902"	"23.329"	"27.044"	"30.457"	"31.427"	"27.161"	"26.318"	"24.852"	"25.935"	"27.151"	"24.909"	"22.845"
"1912"	"22.932"	"25.104"	"28.144"	"30.954"	"31.189"	"29.605"	"26.075"	"25.435"	"26.25"	"26.112"	"22.958"	"21.361"
"1913"	"21.353"	"25.215"	"27.389"	"31.214"	"30.344"	"26.617"	"25.476"	"25.56"	"26.042"	"25.899"	"23.4"	"23.195"
"1914"	"22.258"	"25.007"	"27.317"	"29.552"	"30.93"	"27.613"	"25.183"	"25.064"	"25.352"	"25.734"	"23.87"	"22.602"
"1915"	"22.597"	"24.179"	"26.964"	"30.236"	"30.441"	"28.953"	"26.182"	"25.528"	"25.557"	"25.49"	"24.633"	"20.956"
"1916"	"22.615"	"24.176"	"28.454"	"30.58"	"30.948"	"26.415"	"26.473"	"25.622"	"25.751"	"25.54"	"23.498"	"20.793"
"1917"	"21.781"	"23.389"	"26.315"	"28.61"	"29.517"	"26.314"	"25.9"	"25.835"	"25.297"	"24.764"	"22.349"	"21.11"
"1918"	"21.184"	"24.056"	"26.82"	"29.25"	"28.833"	"27.144"	"27.063"	"26.028"	"26.182"	"26.924"	"25.056"	"23.022"
"1919"	"23.564"	"25.334"	"28.082"	"30.142"	"30.362"	"26.682"	"25.874"	"25.684"	"25.895"	"25.478"	"24.182"	"21.485"
"1920"	"23.007"	"23.792"	"27.881"	"29.738"	"29.938"	"27.67"	"25.428"	"25.9"	"26.226"	"26.471"	"23.601"	"21.945"
"1921"	"23.12"	"24.012"	"28.796"	"30.943"	"31.454"	"27.689"	"25.97"	"25.179"	"25.274"	"25.352"	"22.016"	"21.579"
"1922"	"22.866"	"24.52"	"27.975"	"30.858"	"30.489"	"27.547"	"25.211"	"25.504"	"25.177"	"25.487"	"22.94"	"20.466"
"1923"	"21.953"	"23.208"	"27.26"	"29.813"	"30.094"	"29.352"	"25.343"	"25.357"	"25.111"	"25.078"	"23.15"	"22.579"
"1924"	"23.316"	"25.068"	"28.776"	"31.251"	"31.227"	"28.342"	"26.406"	"26.136"	"25.415"	"24.447"	"21.85"	"21.548"
"1925"	"21.418"	"23.559"	"27.794"	"31.157"	"29.831"	"26.969"	"25.496"	"25.427"	"26.008"	"25.645"	"24.148"	"21.592"
"1926"	"23.378"	"25.409"	"27.839"	"28.441"	"30.243"	"29.557"	"26.357"	"25.554"	"25.678"	"26.224"	"23.173"	"22.054"
"1927"	"23.594"	"24.688"	"28.474"	"30.604"	"30.643"	"27.195"	"24.959"	"25.239"	"26.098"	"25.696"	"21.957"	"22.102"
"1928"	"23.126"	"24.503"	"27.822"	"30.372"	"30.922"	"28.005"	"25.754"	"25.58"	"25.092"	"25.672"	"23.782"	"22.328"
"1929"	"22.901"	"24.388"	"28.655"	"29.603"	"31.274"	"27.381"	"25.767"	"25.798"	"26.129"	"25.664"	"23.738"	"23.007"
"1930"	"23.312"	"22.773"	"27.992"	"29.524"	"30.84"	"28.07"	"25.179"	"25.255"	"25.541"	"25.854"	"22.478"	"22.947"
"1931"	"22.411"	"24.967"	"27.361"	"31.231"	"31.048"	"28.665"	"25.367"	"25.504"	"25.118"	"24.776"	"22.859"	"21.284"
"1932"	"21.449"	"22.948"	"26.77"	"29.525"	"30.197"	"27.466"	"25.149"	"25.976"	"25.411"	"26.219"	"23.677"	"21.691"
"1933"	"22.213"	"24.586"	"27.013"	"29.465"	"28.647"	"26.282"	"25.148"	"24.841"	"25.035"	"24.859"	"23.556"	"21.437"
"1934"	"21.483"	"23.885"	"26.835"	"30.273"	"30.634"	"27.604"	"25.189"	"24.8"	"25.036"	"25.71"	"22.144"	"21.003"
"1935"	"21.848"	"24.101"	"26.659"	"28.556"	"31.097"	"28.036"	"25.193"	"25.478"	"24.668"	"26.112"	"22.381"	"22.554"
"1936"	"23.112"	"23.517"	"27.107"	"29.641"	"31.005"	"26.425"	"25.609"	"25.303"	"26.164"	"25.824"	"24.009"	"22.008"
"1937"	"21.716"	"24.478"	"27.089"	"29.35"	"30.7"	"27.96"	"25.019"	"25.681"	"25.628"	"25.192"	"23.187"	"22.09"
"1938"	"23.848"	"23.616"	"28.409"	"30.512"	"30.196"	"25.378"	"24.882"	"25.281"	"24.817"	"24.178"	"22.259"	"21.253"
"1939"	"22.517"	"24.478"	"26.689"	"29.704"	"30.628"	"27.901"	"25.162"	"25.459"	"25.221"	"25.913"	"21.983"	"20.808"
"1940"	"21.156"	"24.212"	"26.65"	"29.759"	"30.236"	"27.631"	"24.822"	"24.852"	"25.616"	"25.416"	"24.224"	"22.164"
"1941"	"22.694"	"25.095"	"28.952"	"31.222"	"31.317"	"28.187"	"26.3"	"26.115"	"26.169"	"26.57"	"24.016"	"23.913"
"1942"	"23.083"	"24.812"	"28.769"	"30.834"	"31.115"	"28.008"	"25.015"	"25.082"	"24.944"	"25.936"	"23.077"	"22.455"
"1943"	"23.473"	"22.939"	"27.653"	"29.484"	"29.787"	"26.484"	"24.937"	"25.126"	"24.719"	"24.965"	"23.984"	"20.694"
"1944"	"22.901"	"23.687"	"26.069"	"29.318"	"31.441"	"28.027"	"25.335"	"25.565"	"25.751"	"25.522"	"23.48"	"22.718"
"1945"	"21.962"	"23.834"	"27.806"	"29.104"	"30.833"	"27.703"	"25.344"	"25.307"	"24.908"	"25.395"	"22.121"	"20.694"
"1946"	"21.374"	"23.995"	"27.916"	"29.796"	"29.963"	"26.822"	"25.324"	"25.078"	"25.485"	"26.641"	"24.097"	"23.732"
"1947"	"23.268"	"24.609"	"28.153"	"29.477"	"31.064"	"28.649"	"25.577"	"26.067"	"24.931"	"24.562"	"23.301"	"22.149"
"1948"	"23.401"	"24.495"	"27.46"	"30.292"	"31.195"	"28.052"	"25.909"	"25.536"	"25.048"	"26.146"	"25.017"	"20.652"
"1949"	"22.739"	"23.641"	"28.079"	"30.125"	"30.036"	"27.199"	"25.848"	"25.788"	"25.076"	"25.808"	"22.596"	"21.92"
"1950"	"22.396"	"23.532"	"26.822"	"30.116"	"30.361"	"27.707"	"25.398"	"26.187"	"25.276"	"24.814"	"22.64"	"21.895"
"1951"	"22.502"	"24.1"	"27.726"	"29.509"	"30.82"	"27.677"	"26.07"	"25.496"	"26.806"	"26.479"	"24.55"	"21.472"
"1952"	"22.86"	"24.991"	"26.895"	"30.705"	"31.097"	"27.975"	"26.158"	"25.197"	"25.698"	"26.018"	"22.389"	"23.705"
"1953"	"22.835"	"25.655"	"29.702"	"30.477"	"31.596"	"28.682"	"26.004"	"25.273"	"25.628"	"26.071"	"23.333"	"21.51"
"1954"	"22.222"	"25.409"	"27.715"	"30.679"	"31.562"	"27.559"	"25.245"	"25.493"	"24.508"	"24.666"	"22.315"	"22.764"
"1955"	"23.236"	"25.312"	"28.208"	"29.737"	"30.425"	"27.554"	"25.715"	"24.836"	"25.743"	"25.338"	"21.973"	"21.55"
"1956"	"22.85"	"23.775"	"28.525"	"30.754"	"29.598"	"27.048"	"24.218"	"24.887"	"24.903"	"24.944"	"23.542"	"21.989"
"1957"	"23.131"	"23.937"	"26.768"	"30.022"	"30.845"	"28.589"	"25.545"	"25.081"	"25.687"	"26.649"	"24.181"	"23.493"
"1958"	"23.171"	"24.62"	"27.916"	"30.711"	"31.25"	"29.489"	"25.279"	"25.634"	"25.43"	"25.952"	"24.673"	"22.849"
"1959"	"23.683"	"25.534"	"28.491"	"30.736"	"31.575"	"27.84"	"24.967"	"25.283"	"25.307"	"25.485"	"23.796"	"23.047"
"1960"	"23.55"	"24.949"	"27.596"	"30.51"	"30.741"	"27.535"	"26.191"	"25.56"	"25.687"	"25.373"	"23.748"	"23.213"
"1961"	"23.326"	"23.65"	"29.032"	"30.95"	"29.811"	"27.153"	"25.058"	"25.498"	"25.077"	"24.928"	"23.577"	"22.671"
"1962"	"21.37"	"24.537"	"27.506"	"29.872"	"30.681"	"28.052"	"25.535"	"25.3"	"25.146"	"25.618"	"23.17"	"22.05"
"1963"	"22.957"	"24.017"	"27.788"	"28.838"	"30.523"	"26.985"	"25.615"	"24.609"	"25.454"	"25.781"	"24.037"	"23.046"
"1964"	"22.709"	"24.864"	"28.761"	"31.216"	"30.779"	"27.655"	"25.492"	"24.678"	"24.837"	"25.647"	"22.995"	"21.622"
"1965"	"22.896"	"24.406"	"27.471"	"29.808"	"30.399"	"27.765"	"25.217"	"25.869"	"26.058"	"26.722"	"24.729"	"23.817"
"1966"	"23.323"	"25.581"	"28.504"	"30.738"	"30.241"	"28.57"	"26.544"	"26.13"	"25.752"	"26.416"	"24.969"	"22.664"
"1967"	"22.908"	"24.96"	"27.805"	"30.726"	"31.386"	"28.296"	"25.635"	"25.292"	"25.398"	"25.727"	"23.659"	"24.202"
"1968"	"21.93"	"24.719"	"27.395"	"30.068"	"30.736"	"28.28"	"25.798"	"25.513"	"25.976"	"24.978"	"23.315"	"23.089"
"1969"	"22.849"	"25.683"	"29.553"	"31.755"	"31.395"	"28.504"	"25.787"	"25.838"	"25.227"	"26.14"	"25.206"	"22.885"
"1970"	"23.213"	"25.797"	"28.683"	"31.191"	"31.187"	"26.867"	"25.857"	"25.07"	"25.412"	"25.92"	"22.643"	"20.474"
"1971"	"21.677"	"25.112"	"27.45"	"31.11"	"30.666"	"26.943"	"26.482"	"25.47"	"26.252"	"24.877"	"22.766"	"21.067"
"1972"	"22.177"	"23.801"	"28.989"	"30.516"	"31.048"	"29.382"	"26.673"	"26.207"	"27.047"	"27.295"	"24.212"	"23.638"
"1973"	"23.818"	"25.974"	"29.269"	"32.004"	"32.469"	"27.723"	"25.492"	"24.465"	"24.777"	"24.672"	"22.88"	"22.623"
"1974"	"22.865"	"25.393"	"29.157"	"30.983"	"28.349"	"26.812"	"26.041"	"25.187"	"25.608"	"24.963"	"23.02"	"21.451"
"1975"	"21.452"	"24.774"	"27.94"	"31.317"	"31.162"	"27.452"	"25.215"	"25.345"	"25.315"	"25.929"	"21.807"	"20.639"
"1976"	"21.239"	"23.867"	"28.075"	"29.575"	"30.448"	"27.058"	"25.683"	"25.001"	"26.076"	"27.244"	"25.359"	"23.358"
"1977"	"22.643"	"25.738"	"28.799"	"29.522"	"30.152"	"27.638"	"26.122"	"25.356"	"26.519"	"26.222"	"25.709"	"21.965"
"1978"	"22.898"	"24.078"	"26.916"	"29.544"	"30.734"	"26.616"	"24.998"	"24.511"	"25.361"	"25.874"	"24.914"	"22.798"
"1979"	"23.755"	"24.32"	"27.606"	"30.527"	"29.825"	"28.923"	"26.534"	"25.436"	"25.371"	"27.055"	"24.721"	"22.87"
"1980"	"23.45"	"25.833"	"28.13"	"29.447"	"31.164"	"26.628"	"25.796"	"24.448"	"26.305"	"28.082"	"25.643"	"22.656"
"1981"	"22.045"	"25.527"	"27.129"	"30.4"	"29.908"	"27.676"	"26.186"	"25.202"	"25.293"	"26.205"	"23.575"	"22.447"
"1982"	"23.62"	"25.85"	"28.03"	"29.796"	"29.953"	"28.127"	"26.072"	"25.993"	"25.937"	"26.874"	"24.542"	"23.307"
"1983"	"22.666"	"24.286"	"28.106"	"30.591"	"32.145"	"29.192"	"26.402"	"25.78"	"25.095"	"25.336"	"23.123"	"22.382"
"1984"	"23.346"	"24.504"	"28.735"	"30.862"	"32.674"	"28.086"	"25.558"	"25.093"	"25.896"	"26.098"	"23.189"	"23.536"
"1985"	"24.063"	"25.141"	"29.064"	"30.573"	"30.937"	"27.289"	"25.506"	"25.681"	"26.65"	"25.377"	"24.236"	"23.653"
"1986"	"22.783"	"25.148"	"29.133"	"31.33"	"31.264"	"27.19"	"26.336"	"25.228"	"26.85"	"28.183"	"25.518"	"23.397"
"1987"	"24.118"	"24.936"	"28.432"	"31.233"	"30.176"	"28.621"	"26.456"	"26.288"	"27.858"	"26.426"	"24.591"	"22.265"
"1988"	"23.327"	"25.947"	"28.277"	"30.633"	"31.598"	"27.997"	"25.576"	"25.641"	"25.833"	"26.512"	"23.929"	"22.397"
"1989"	"23.228"	"24.029"	"26.747"	"30.666"	"31.531"	"27.047"	"25.355"	"24.926"	"25.535"	"26.306"	"24.725"	"22.593"
"1990"	"23.608"	"24.228"	"26.804"	"30.178"	"28.184"	"25.937"	"25.379"	"25.325"	"26.518"	"25.494"	"24.971"	"22.867"
"1991"	"23.214"	"25.313"	"28.378"	"29.905"	"31.274"	"26.864"	"24.876"	"25.707"	"26.926"	"26.806"	"24.66"	"22.412"
"1992"	"21.701"	"23.116"	"28.069"	"30.456"	"31.496"	"28.503"	"26.904"	"25.51"	"26.477"	"26.882"	"24.669"	"22.016"
"1993"	"23.469"	"24.01"	"26.832"	"30.726"	"31.613"	"29.148"	"26.128"	"25.371"	"25.654"	"25.889"	"24.809"	"21.316"
"1994"	"22.973"	"24.303"	"29.181"	"29.17"	"31.422"	"27.022"	"25.255"	"25.723"	"26.556"	"25.913"	"23.694"	"21.584"
"1995"	"20.589"	"24.424"	"27.71"	"30.715"	"29.587"	"30.133"	"26.287"	"27.125"	"26.514"	"25.957"	"24.565"	"23.702"
"1996"	"24.212"	"25.69"	"29.471"	"30.509"	"31.835"	"28.958"	"26.448"	"25.805"	"25.902"	"25.446"	"24.147"	"22.662"
"1997"	"22.001"	"23.712"	"28.226"	"28.843"	"30.511"	"28.142"	"26.351"	"25.57"	"26.025"	"26.615"	"26.354"	"24.706"
"1998"	"24.108"	"25.049"	"28.551"	"31.571"	"32.309"	"29.289"	"26.69"	"26.284"	"26.197"	"26.181"	"24.668"	"21.803"
"1999"	"21.969"	"25.911"	"29.007"	"31.347"	"29.987"	"26.929"	"25.748"	"25.526"	"25.234"	"25.937"	"24.166"	"22.437"
"2000"	"23.599"	"24.67"	"27.427"	"31.502"	"30.009"	"26.82"	"25.356"	"25.81"	"26.123"	"27.007"	"24.59"	"22.134"
"2001"	"23.664"	"25.779"	"27.927"	"30.624"	"31.24"	"27.287"	"25.694"	"25.299"	"26.574"	"25.998"	"24.831"	"23.099"
"2002"	"22.37"	"25.928"	"28.891"	"31.759"	"31.438"	"27.62"	"26.533"	"25.168"	"26.171"	"26.958"	"24.305"	"23.205"
