
"Year"	"Jan"	"Feb"	"Mar"	"Apr"	"May"	"Jun"	"Jul"	"Aug"	"Sep"	"Oct"	"Nov"	"Dec"
"1901"	"23.528"	"8.042"	"9.812"	"0.484"	"14.798"	"23.005"	"166.815"	"167.903"	"3.049"	"0.028"	"0"	"1.067"
"1902"	"0"	"0.069"	"2.763"	"4.138"	"9.728"	"86.495"	"182.737"	"126.865"	"58.104"	"1.317"	"0"	"0"
"1903"	"2.987"	"0.083"	"3.327"	"0.083"	"7.138"	"4.055"	"115.264"	"87.524"	"47.693"	"5.692"	"0"	"1.131"
"1904"	"6.269"	"0.028"	"26.801"	"0.751"	"19.087"	"30.5"	"111.982"	"141.892"	"131.348"	"0.187"	"26.648"	"11.502"
"1905"	"29.388"	"11.451"	"4.603"	"1.208"	"1.386"	"15.28"	"104.251"	"5.899"	"95.58"	"1.003"	"0"	"1.893"
"1906"	"0.304"	"37.015"	"15.603"	"0.356"	"1.62"	"80.962"	"131.051"	"84.301"	"193.839"	"0.069"	"0"	"6.572"
"1907"	"13.414"	"28.341"	"8.661"	"28.225"	"1.632"	"10.558"	"35.039"	"142.15"	"0.77"	"0.445"	"0.106"	"0"
"1908"	"27.788"	"8.294"	"0.041"	"4.412"	"7.054"	"13.008"	"264.869"	"474.755"	"19.709"	"0.148"	"0.028"	"0.899"
"1909"	"7.68"	"11.548"	"0"	"25.104"	"25.081"	"135.644"	"235.551"	"84.49"	"124.611"	"0.459"	"0"	"24.646"
"1910"	"16.967"	"7.424"	"1.387"	"3.516"	"1.47"	"32.122"	"134.908"	"131.604"	"108.065"	"3.97"	"0.055"	"0.525"
"1911"	"41.645"	"0.314"	"23.533"	"1.115"	"2.21"	"61.345"	"30.161"	"44.826"	"146.383"	"9.953"	"61.934"	"0"
"1912"	"32.354"	"12.748"	"2.797"	"19.068"	"9.615"	"23.379"	"119.992"	"196.514"	"140.532"	"0.284"	"2.467"	"1.01"
"1913"	"1.481"	"26.718"	"9.203"	"1.944"	"27.183"	"92.666"	"96.214"	"94.378"	"13.168"	"0.288"	"0.594"	"7.458"
"1914"	"3.602"	"6.684"	"1.184"	"14.332"	"20.593"	"19.477"	"241.454"	"66.139"	"206.422"	"10.346"	"18.52"	"2.009"
"1915"	"20.063"	"40.388"	"45.555"	"20.292"	"0.833"	"24.48"	"53.733"	"64.749"	"86.161"	"4.743"	"0"	"0.727"
"1916"	"0.054"	"22.813"	"0.322"	"3.055"	"3.099"	"34.297"	"175.223"	"241.923"	"85.05"	"6.924"	"0.159"	"0"
"1917"	"6.85"	"6.512"	"6.583"	"12.057"	"15.315"	"78.165"	"181.473"	"138.773"	"169.729"	"17.879"	"0"	"2.6"
"1918"	"5.283"	"0.201"	"9.605"	"7.136"	"2.441"	"26.078"	"20.048"	"159.297"	"7.397"	"0.041"	"1.566"	"1.103"
"1919"	"44.991"	"3.144"	"4.535"	"2.966"	"6.77"	"1.534"	"123.061"	"170.768"	"23.316"	"0.18"	"3.225"	"8.005"
"1920"	"9.237"	"6.348"	"14.68"	"1.175"	"11.784"	"63.297"	"200.057"	"110.486"	"3.312"	"0.271"	"0"	"0.028"
"1921"	"20.033"	"0.055"	"0.041"	"2.255"	"0.568"	"18.006"	"99.031"	"253.068"	"111.826"	"6.354"	"0"	"1.397"
"1922"	"13.926"	"1.22"	"0.305"	"0.762"	"0.688"	"41.04"	"90.907"	"133.022"	"154.958"	"1.818"	"0.152"	"16.193"
"1923"	"9.359"	"40.618"	"1.05"	"3.483"	"10.337"	"2.218"	"174.686"	"258.352"	"19.169"	"4.438"	"0.594"	"22.503"
"1924"	"34.406"	"17.257"	"2.036"	"0.276"	"15.158"	"18.637"	"95.145"	"193.627"	"170"	"14.676"	"3.241"	"11.477"
"1925"	"5.884"	"0.148"	"0.451"	"0.273"	"20.138"	"81.836"	"200.566"	"107.548"	"2.116"	"0.905"	"44.835"	"0"
"1926"	"7.16"	"0.124"	"35.741"	"10.231"	"10.888"	"1.9"	"207.992"	"241.232"	"29.503"	"0.069"	"4.785"	"2.173"
"1927"	"0.028"	"15.617"	"15.385"	"3.199"	"16.621"	"12.714"	"155.195"	"148.955"	"5.75"	"13.76"	"0"	"16.71"
"1928"	"16.455"	"29.754"	"8.218"	"11.003"	"5.333"	"34.617"	"59.78"	"39.936"	"39.92"	"5.25"	"26.784"	"10.039"
"1929"	"3.829"	"0.297"	"0.152"	"13.612"	"0.936"	"38.051"	"87.976"	"136.292"	"5.05"	"0.987"	"0"	"20.054"
"1930"	"32.328"	"16.302"	"0.166"	"3.524"	"8.25"	"53.212"	"265.159"	"40.841"	"25.917"	"6.18"	"1.543"	"1.136"
"1931"	"7.255"	"15.161"	"6.386"	"4.164"	"7.634"	"2.065"	"216.071"	"128.344"	"86.091"	"20.506"	"0.055"	"0"
"1932"	"3.552"	"1.009"	"11.562"	"5.802"	"4.517"	"8.277"	"85.731"	"72.106"	"162.475"	"0.083"	"0.028"	"4.635"
"1933"	"1.36"	"10.569"	"4.87"	"2.15"	"33.289"	"137.975"	"108.111"	"394.104"	"183.312"	"10.299"	"3.139"	"0.059"
"1934"	"20.689"	"0.297"	"35.586"	"0.041"	"2.93"	"40.28"	"234.637"	"194.264"	"2.556"	"0"	"0"	"6.499"
"1935"	"28.393"	"29.531"	"4.628"	"11.713"	"1.007"	"37.251"	"119.132"	"99.984"	"127.429"	"1.664"	"11.019"	"4.308"
"1936"	"1.902"	"15.751"	"8.622"	"1.56"	"1.102"	"193.175"	"139.405"	"142.683"	"101.738"	"2.905"	"3.544"	"31.324"
"1937"	"0.041"	"50.793"	"0.697"	"14.521"	"3.196"	"26.538"	"181.031"	"14.431"	"91.713"	"0.625"	"0.134"	"4.72"
"1938"	"42.05"	"3.999"	"8.56"	"1.951"	"0.829"	"56.357"	"83.538"	"34.592"	"19.565"	"2.549"	"0.055"	"0.235"
"1939"	"1.1"	"24.713"	"7.963"	"0.463"	"1.501"	"69.549"	"64.774"	"88.074"	"58.302"	"0.694"	"0"	"0"
"1940"	"34.082"	"28.45"	"2.019"	"0.534"	"0.713"	"23.889"	"149.232"	"161.362"	"11.308"	"0.076"	"0"	"0.55"
"1941"	"39.979"	"4.244"	"2.696"	"0.135"	"15.089"	"53.445"	"23.195"	"83.228"	"46.367"	"0.069"	"0.055"	"6.294"
"1942"	"11.042"	"11.948"	"2.377"	"10.241"	"8.492"	"28.185"	"288.946"	"149.709"	"92.262"	"0.445"	"0"	"9.036"
"1943"	"9.913"	"0.069"	"0.314"	"12.114"	"3.857"	"39.507"	"131.511"	"59.475"	"64.918"	"0"	"0"	"0"
"1944"	"22.963"	"35.45"	"37.811"	"36.145"	"0.22"	"47.882"	"275.348"	"66.013"	"107.146"	"19.272"	"0.028"	"1.672"
"1945"	"23.37"	"0"	"0.99"	"8.749"	"8.923"	"29.229"	"126.498"	"242.466"	"106.905"	"3.127"	"0.106"	"0"
"1946"	"0.028"	"6.847"	"1.071"	"0.843"	"11.349"	"86.653"	"159.289"	"169.959"	"30.905"	"4.691"	"0.751"	"2.588"
"1947"	"7.392"	"6.309"	"7.139"	"0.458"	"3.392"	"2.423"	"64.088"	"77.238"	"159.329"	"12.897"	"0.055"	"4.943"
"1948"	"33.943"	"23.202"	"15.309"	"1.678"	"3.89"	"16.011"	"174.741"	"259.815"	"120.825"	"3.721"	"2.365"	"3.207"
"1949"	"2.911"	"15.098"	"4.568"	"0.559"	"6.99"	"4.159"	"382.928"	"77.003"	"80.324"	"0.75"	"0.028"	"0.041"
"1950"	"17.364"	"4.264"	"14.341"	"0.215"	"9.003"	"11.714"	"360.753"	"157.602"	"145.132"	"0"	"0.028"	"0.028"
"1951"	"16.667"	"0.974"	"31.933"	"16.447"	"4.942"	"10.075"	"110.177"	"75.916"	"51.316"	"2.44"	"34.244"	"0"
"1952"	"6.387"	"9.275"	"29.487"	"3.237"	"18.739"	"28.871"	"62.749"	"211.979"	"1.199"	"0.362"	"0.668"	"0.522"
"1953"	"47.913"	"0.229"	"0.055"	"3.246"	"2.856"	"26.484"	"185.841"	"209.594"	"58.922"	"0.567"	"1.283"	"0.815"
"1954"	"19.758"	"37.11"	"6.259"	"0.135"	"1.93"	"19.154"	"194.977"	"21.242"	"90.927"	"16.39"	"0"	"0.028"
"1955"	"21.142"	"0.776"	"8.087"	"13.261"	"7.562"	"32.549"	"91.668"	"173.293"	"171.108"	"29.904"	"0"	"0.718"
"1956"	"22.985"	"0.876"	"13.672"	"2.04"	"1.251"	"40.048"	"223.312"	"180.143"	"11.36"	"32.618"	"1.79"	"0.909"
"1957"	"41.008"	"0.201"	"25.97"	"5.393"	"8.326"	"28.768"	"191.055"	"129.938"	"110.061"	"11.92"	"21.185"	"8.353"
"1958"	"16.588"	"0.89"	"10.411"	"1.066"	"5.151"	"12.732"	"308.233"	"162.923"	"194.393"	"2.846"	"4.478"	"7.098"
"1959"	"28.507"	"2.124"	"2.971"	"0.188"	"15.729"	"14.598"	"132.215"	"204.595"	"73.675"	"2.444"	"15.012"	"0"
"1960"	"10.234"	"0"	"16.455"	"5.457"	"0.297"	"24.669"	"159.63"	"233.525"	"20.508"	"27.083"	"0"	"1.597"
"1961"	"17.104"	"25.545"	"0.551"	"3.781"	"18.255"	"44.565"	"175.813"	"384.331"	"68.349"	"27.849"	"2.524"	"5.003"
"1962"	"22.97"	"10.546"	"6.704"	"0.111"	"3.367"	"15.458"	"164.737"	"89.419"	"127.109"	"0"	"7.364"	"11.558"
"1963"	"0.194"	"7.811"	"3.053"	"3.503"	"14.284"	"61.722"	"51.533"	"198.771"	"145.088"	"0.152"	"2.26"	"13.817"
"1964"	"3.438"	"0.987"	"1.365"	"4.383"	"13.661"	"24.458"	"407.805"	"312.393"	"102.868"	"0"	"1.01"	"7.755"
"1965"	"6.667"	"7.528"	"2.603"	"12.88"	"7.602"	"2.369"	"145.516"	"135.534"	"94.321"	"1.066"	"3.722"	"0"
"1966"	"1.994"	"20.719"	"1.641"	"1.535"	"41.743"	"98.79"	"89.237"	"161.231"	"72.406"	"11.609"	"2.411"	"0.083"
"1967"	"0"	"2.96"	"33.61"	"1.413"	"0.954"	"14.205"	"159.842"	"408.464"	"74.581"	"8.447"	"17.637"	"35.869"
"1968"	"10.854"	"8.455"	"6.118"	"0.886"	"5.986"	"15.882"	"214.933"	"193.156"	"1.89"	"2.833"	"0"	"1.326"
"1969"	"1.367"	"6.053"	"11.924"	"3.549"	"22.915"	"33.126"	"192.616"	"101.812"	"111.145"	"0.522"	"0.055"	"0"
"1970"	"32.225"	"33.108"	"34.591"	"0.237"	"34.549"	"69.89"	"42.908"	"166.153"	"85.932"	"1.918"	"0"	"0"
"1971"	"8.557"	"8.005"	"1.046"	"10.39"	"40.761"	"53.51"	"150.749"	"302.53"	"81.127"	"4.236"	"0.442"	"0"
"1972"	"7.665"	"7.94"	"1.256"	"6.976"	"0.228"	"21.322"	"199.697"	"244.752"	"40.752"	"11.177"	"8.968"	"1.562"
"1973"	"18.934"	"5.704"	"1.612"	"0.135"	"13.261"	"12.674"	"122.931"	"262.255"	"48.606"	"12.811"	"0"	"5.907"
"1974"	"0.865"	"0.957"	"2.467"	"0.407"	"6.018"	"15.9"	"288.779"	"79.359"	"3.77"	"5.931"	"0"	"5.411"
"1975"	"15.989"	"6.105"	"8.652"	"0.539"	"0.479"	"72.138"	"302.79"	"213.235"	"182.99"	"16.533"	"0"	"0.163"
"1976"	"2.872"	"15.556"	"8.713"	"5.647"	"46.369"	"50.454"	"276.321"	"344.447"	"69.937"	"2.911"	"0"	"0.69"
"1977"	"24.158"	"0.573"	"0.162"	"27.659"	"29.136"	"70.08"	"321.018"	"87.469"	"90.875"	"13.733"	"0.658"	"7.64"
"1978"	"0.925"	"15.541"	"17.596"	"8.057"	"0.256"	"71.233"	"231.15"	"297.887"	"146.201"	"0.118"	"1.502"	"1.217"
"1979"	"13.209"	"30.389"	"16.72"	"3.746"	"15.151"	"55.641"	"103.129"	"56.084"	"40.106"	"2.548"	"2.88"	"4.032"
"1980"	"4.852"	"5.612"	"16.996"	"1.426"	"7.518"	"61.166"	"330.414"	"133.1"	"50.559"	"4.163"	"5.823"	"4.961"
"1981"	"31.483"	"11.169"	"12.052"	"0.028"	"4.313"	"101.574"	"201.741"	"61.285"	"39.525"	"1.627"	"59.027"	"8.024"
"1982"	"15.444"	"6.482"	"40.98"	"36.88"	"54.775"	"49.655"	"186.073"	"212.36"	"1.544"	"9.274"	"13.648"	"7.493"
"1983"	"37.4"	"15.224"	"10.008"	"29.263"	"57.351"	"38.378"	"205.385"	"193.673"	"87.922"	"13.541"	"0"	"3.636"
"1984"	"0.731"	"7.81"	"1.071"	"19.296"	"1.929"	"21.568"	"183.906"	"261.731"	"84.349"	"0"	"0"	"2.752"
"1985"	"1.167"	"0.148"	"0.552"	"13.513"	"7.634"	"42.198"	"338.566"	"212.5"	"54.661"	"23.957"	"0.654"	"17.408"
"1986"	"16.169"	"27.851"	"7.862"	"5.011"	"20.097"	"42.753"	"90.759"	"152.515"	"56.518"	"1.359"	"0.29"	"15.734"
"1987"	"21.039"	"14.311"	"13.447"	"3.236"	"38.493"	"20.679"	"48.279"	"109.503"	"14.274"	"3.758"	"0"	"4.304"
"1988"	"0.936"	"12.562"	"31.894"	"4.444"	"3.296"	"43.193"	"208.061"	"330.817"	"112.367"	"5.586"	"0.028"	"4.431"
"1989"	"52.738"	"2.862"	"23.892"	"0.314"	"3.598"	"16.899"	"76.72"	"103.45"	"70.552"	"1.172"	"13.513"	"2.65"
"1990"	"0.523"	"29.182"	"7.868"	"4.08"	"29.9"	"38.733"	"135.482"	"242.947"	"172.072"	"0.746"	"6.541"	"19.111"
"1991"	"0.041"	"29.614"	"3.522"	"7.229"	"29.203"	"47.283"	"70.019"	"257.216"	"61.279"	"0.716"	"19.802"	"15.718"
"1992"	"16.32"	"19.002"	"1.091"	"5.914"	"9.196"	"9.602"	"76.433"	"177.059"	"75.634"	"3.007"	"43.47"	"0.286"
"1993"	"10.213"	"6.476"	"6.457"	"6.932"	"12.206"	"84.817"	"264.65"	"110.356"	"136.634"	"0.25"	"0"	"0"
"1994"	"21.641"	"3.828"	"12.3"	"6.547"	"23.473"	"39.381"	"338.358"	"179.419"	"29.57"	"0.445"	"0"	"2.06"
"1995"	"44.225"	"27.115"	"22.773"	"1.45"	"0.242"	"29.334"	"68.004"	"411.68"	"116.779"	"1.037"	"3.953"	"0.597"
"1996"	"8.284"	"14.515"	"4.927"	"1.026"	"10.495"	"137.303"	"137.767"	"267.056"	"79.517"	"6.752"	"0"	"0"
"1997"	"8.992"	"2.497"	"7.515"	"30.107"	"37.983"	"101.624"	"101.835"	"210.048"	"51.212"	"21.921"	"29.218"	"7.752"
"1998"	"0.719"	"18.176"	"18.321"	"6.154"	"9.303"	"68.074"	"140.919"	"165.144"	"145.849"	"19.678"	"26.792"	"0.757"
"1999"	"35.864"	"1.7"	"1.006"	"0"	"12.85"	"49.491"	"88.209"	"71.52"	"51.28"	"7.688"	"0"	"0.152"
"2000"	"21.389"	"34.903"	"12.407"	"0.6"	"11.335"	"74.052"	"252.897"	"112.98"	"19.303"	"0"	"3.724"	"18.06"
"2001"	"8.94"	"8.707"	"4.686"	"20.968"	"50.513"	"78.12"	"146.457"	"171.741"	"30.809"	"2.139"	"0"	"0.041"
"2002"	"11.772"	"10.31"	"2.628"	"1.05"	"4.524"	"33.418"	"22.969"	"108.545"	"121.121"	"0.318"	"0.6"	"8.98"
