
"Year"	"Jan"	"Feb"	"Mar"	"Apr"	"May"	"Jun"	"Jul"	"Aug"	"Sep"	"Oct"	"Nov"	"Dec"
"1901"	"33.358"	"3.977"	"12.173"	"46.962"	"84.035"	"438.266"	"332.668"	"411.889"	"265.65"	"66.12"	"27.395"	"7.027"
"1902"	"1.451"	"0.934"	"49.548"	"102.447"	"140.102"	"374.016"	"560.537"	"364.826"	"506.317"	"55.248"	"1.966"	"1.532"
"1903"	"6.485"	"16.075"	"28.287"	"75.168"	"195.965"	"652.764"	"291.031"	"424.103"	"331.971"	"123.756"	"3.575"	"1.532"
"1904"	"1.33"	"17.147"	"34.299"	"82.674"	"489.964"	"344.156"	"502.211"	"379.333"	"262.898"	"60.789"	"13.538"	"1.62"
"1905"	"7.689"	"18.743"	"43.577"	"72.4"	"210.882"	"173.57"	"643.568"	"586.888"	"353.878"	"53.093"	"3.762"	"8.352"
"1906"	"6.594"	"42.521"	"34.132"	"31.262"	"155.816"	"325.764"	"662.52"	"345.242"	"227.935"	"171.693"	"4.089"	"1.532"
"1907"	"15.183"	"30.902"	"54.381"	"85.257"	"138.111"	"506.68"	"441.209"	"338.424"	"383.905"	"57.623"	"1.344"	"5.231"
"1908"	"5.875"	"27.397"	"13.41"	"30.653"	"164.425"	"302.672"	"457.528"	"375.599"	"237.539"	"53.718"	"3.774"	"2.113"
"1909"	"2.556"	"5.806"	"0.237"	"129.689"	"138.75"	"518.263"	"598.861"	"309.057"	"340.927"	"71.258"	"2.27"	"4.414"
"1910"	"4.582"	"6.814"	"36.221"	"102.315"	"135.881"	"468.372"	"631.741"	"387.172"	"251.72"	"101.909"	"9.205"	"1.023"
"1911"	"20.12"	"3.496"	"28.891"	"53.563"	"167.399"	"554.799"	"493.669"	"396.113"	"398.417"	"140.42"	"21.247"	"1.023"
"1912"	"2.239"	"23.777"	"18.938"	"130.173"	"179.551"	"421.042"	"582.107"	"400.219"	"156.603"	"41.494"	"17.152"	"1.824"
"1913"	"1.134"	"46.437"	"47.971"	"35.871"	"209.267"	"724.712"	"415.768"	"423.897"	"334.145"	"75.039"	"1.746"	"45.241"
"1914"	"0.73"	"32.618"	"19.899"	"58.917"	"220.396"	"254.757"	"514.188"	"462.703"	"253.067"	"51.946"	"5.586"	"2.032"
"1915"	"1.439"	"53.205"	"30.85"	"86.046"	"254.451"	"523.052"	"566.159"	"422.365"	"303.755"	"64.172"	"9.292"	"1.532"
"1916"	"1.851"	"14.361"	"13.446"	"60.123"	"96.843"	"332.605"	"528.213"	"399.692"	"390.8"	"241.665"	"5.703"	"0.815"
"1917"	"1.324"	"25.387"	"14.646"	"59.366"	"213.907"	"435.447"	"708.385"	"333.69"	"507.008"	"235.64"	"10.185"	"1.023"
"1918"	"1.032"	"9.995"	"17.078"	"87.153"	"211.504"	"426.777"	"624.789"	"589.297"	"347.45"	"56.962"	"2.472"	"1.023"
"1919"	"15.856"	"4.82"	"6.636"	"39.557"	"220.099"	"291.162"	"537.205"	"480.593"	"358.168"	"122.889"	"6.21"	"0.815"
"1920"	"6.877"	"30.355"	"48.249"	"57.148"	"144.159"	"305.795"	"457.59"	"346.225"	"477.648"	"66.897"	"1.344"	"0.815"
"1921"	"21.472"	"10.397"	"16.575"	"71.872"	"141.95"	"375.798"	"637.782"	"473.837"	"322.01"	"66.834"	"4.379"	"1.933"
"1922"	"9.001"	"11.125"	"3.409"	"25.376"	"87.239"	"750.718"	"684.944"	"447.445"	"384.483"	"59.29"	"2.472"	"24.514"
"1923"	"1.451"	"49.466"	"6.402"	"31.004"	"119.127"	"375.601"	"357.55"	"419.066"	"242.206"	"80.619"	"4.603"	"7.65"
"1924"	"3.267"	"9.833"	"6.388"	"84.294"	"153.62"	"392.057"	"594.913"	"469.183"	"379.888"	"92.965"	"51.527"	"0.815"
"1925"	"5.169"	"2.768"	"14.344"	"154.599"	"229.346"	"220.411"	"557.251"	"367.985"	"367.352"	"69.032"	"4.676"	"1.532"
"1926"	"12.933"	"3.184"	"73.079"	"54.922"	"314.636"	"181.216"	"724.113"	"385.181"	"300.774"	"79.021"	"1.344"	"8.913"
"1927"	"22.183"	"41.54"	"48.689"	"39.469"	"157.538"	"300.174"	"466.451"	"610.185"	"212.802"	"71.425"	"36.053"	"1.532"
"1928"	"13.928"	"13.141"	"8.026"	"43.915"	"242.179"	"344.246"	"576.514"	"398.639"	"289.785"	"160.366"	"5.807"	"3.407"
"1929"	"13.132"	"2.379"	"18.306"	"70.346"	"219.992"	"527.935"	"526.051"	"401.387"	"166.137"	"280.109"	"2.964"	"9.497"
"1930"	"9.71"	"17.052"	"20.318"	"73.339"	"152.931"	"355.816"	"399.342"	"431.217"	"283.668"	"84.493"	"23.684"	"16.367"
"1931"	"1.756"	"16.328"	"29.781"	"26.289"	"161.647"	"261.524"	"950.237"	"378.047"	"518.99"	"70.657"	"5.284"	"9.326"
"1932"	"1.451"	"14.81"	"13.033"	"67.284"	"189.342"	"431.837"	"293.027"	"380.864"	"359.036"	"65.447"	"52.663"	"23.678"
"1933"	"15.954"	"17.694"	"7.196"	"83.537"	"197.801"	"265.76"	"857.761"	"555.748"	"254.843"	"136.73"	"1.231"	"1.023"
"1934"	"17.765"	"37.041"	"3.912"	"87.238"	"211.799"	"561.322"	"663.761"	"389.02"	"362.569"	"108.868"	"11.964"	"1.532"
"1935"	"0.903"	"22.456"	"2.433"	"21.974"	"179.781"	"296.513"	"492.196"	"634.975"	"301.837"	"51.101"	"0.005"	"0.689"
"1936"	"2.098"	"13.209"	"25.73"	"74.786"	"276.718"	"361.583"	"838.639"	"396.271"	"597.27"	"102.695"	"0.005"	"26.503"
"1937"	"0.005"	"43.888"	"5.481"	"107.586"	"100.74"	"197.74"	"330.264"	"571.636"	"445.681"	"148.584"	"1.385"	"0"
"1938"	"5.714"	"46.743"	"27.782"	"60.155"	"228.49"	"813.367"	"787.939"	"423.882"	"277.289"	"69.519"	"7.826"	"1.023"
"1939"	"1.756"	"28.685"	"14.175"	"44.946"	"166.156"	"411.055"	"560.243"	"297.075"	"466.208"	"134.866"	"1.032"	"1.532"
"1940"	"0.2"	"48.792"	"35.177"	"32.547"	"165.046"	"413.541"	"751.303"	"399.682"	"350.105"	"68.317"	"4.165"	"14.107"
"1941"	"4.171"	"9.63"	"19.599"	"32.632"	"196.784"	"395.227"	"364.101"	"403.017"	"365.49"	"84.346"	"8.512"	"1.375"
"1942"	"14.408"	"22.319"	"24.943"	"79.897"	"82.661"	"430.755"	"365.26"	"570.247"	"586.342"	"11.623"	"0.005"	"1.396"
"1943"	"17.534"	"12.471"	"38.209"	"147.175"	"163.005"	"360.755"	"501.186"	"369.985"	"349.936"	"41.091"	"1.489"	"1.08"
"1944"	"16.789"	"9.979"	"62.018"	"76.15"	"57.217"	"476.086"	"262.665"	"431.75"	"302.525"	"68.26"	"0.397"	"0"
"1945"	"43.608"	"20.448"	"10.973"	"7.105"	"171.111"	"342.309"	"506.416"	"293.331"	"485.042"	"253.572"	"1.344"	"2.697"
"1946"	"0.005"	"25.569"	"62.104"	"69.099"	"191.854"	"258.457"	"684.568"	"335.499"	"352.174"	"200.327"	"20.885"	"0"
"1947"	"10.381"	"5.344"	"20.355"	"35.975"	"184.866"	"239.022"	"850.371"	"318.022"	"444.253"	"55.88"	"0.005"	"2.163"
"1948"	"2.416"	"9.065"	"15.143"	"95.181"	"334.568"	"228.126"	"670.026"	"389.476"	"562.453"	"153.205"	"13.661"	"0"
"1949"	"9.526"	"38.547"	"16.634"	"62.359"	"276.266"	"620.132"	"545.919"	"553.728"	"275.497"	"86.219"	"2.98"	"1.532"
"1950"	"2.457"	"11.447"	"61.886"	"40.654"	"74.829"	"537.678"	"450.067"	"416.615"	"279.763"	"103.822"	"9.472"	"1.023"
"1951"	"2.205"	"14.405"	"74.709"	"26.398"	"88.596"	"381.952"	"821.996"	"490.454"	"256.028"	"106.48"	"47.439"	"0"
"1952"	"1.451"	"24.458"	"29.04"	"132.231"	"98.378"	"823.794"	"497.957"	"481.538"	"457.768"	"94.665"	"15.447"	"0"
"1953"	"29.919"	"1.499"	"11.312"	"33.071"	"91.583"	"484.181"	"704.306"	"313.867"	"384.69"	"10.3"	"0.005"	"4.625"
"1954"	"22.569"	"5.865"	"10.369"	"35.133"	"218.906"	"443.471"	"660.011"	"314.294"	"393.477"	"81.753"	"0.005"	"16.306"
"1955"	"8.546"	"9.385"	"9.347"	"79.633"	"90.759"	"487.266"	"1050.939"	"454.71"	"259.33"	"56.737"	"1.682"	"3.601"
"1956"	"10.935"	"1.224"	"31.33"	"168.536"	"264.631"	"441.975"	"396.455"	"352.03"	"370.457"	"128.415"	"29.934"	"9.518"
"1957"	"50.685"	"2.514"	"14.987"	"8.251"	"119.023"	"216.746"	"521.644"	"209.971"	"193.164"	"42.907"	"4.126"	"11.636"
"1958"	"26.243"	"2.723"	"30.463"	"82.663"	"121.175"	"287.648"	"440.256"	"577.35"	"269.058"	"61.864"	"2.416"	"0"
"1959"	"20.307"	"0.207"	"4.181"	"35.506"	"130.225"	"227.991"	"614.951"	"405.029"	"690.366"	"209.933"	"0.014"	"0"
"1960"	"0.023"	"0.274"	"31.876"	"9.226"	"66.819"	"221.07"	"545.359"	"312.1"	"506.268"	"28.301"	"0.005"	"0"
"1961"	"0.323"	"47.865"	"3.443"	"23.983"	"87.127"	"259.926"	"423.133"	"231.517"	"337.412"	"108.741"	"15.826"	"3.155"
"1962"	"18.015"	"26.463"	"13.931"	"94.571"	"107.709"	"332.494"	"439.395"	"549.847"	"406.043"	"22.267"	"0.005"	"0.311"
"1963"	"0.051"	"0.216"	"124.225"	"34.228"	"233.838"	"169.248"	"457.586"	"323.248"	"259.387"	"162.4"	"4.196"	"0"
"1964"	"2.472"	"3.716"	"2.572"	"42.686"	"69.135"	"282.771"	"680.564"	"393.403"	"154.478"	"62.194"	"0.085"	"0"
"1965"	"0.005"	"3.287"	"12.622"	"107.372"	"108.544"	"125.999"	"498.84"	"392.159"	"91.495"	"18.447"	"11.898"	"1.819"
"1966"	"36.055"	"6.365"	"0.648"	"5.816"	"68.602"	"464.615"	"333.964"	"351.16"	"261.757"	"17.03"	"17.508"	"0.865"
"1967"	"0.881"	"0.279"	"69.938"	"155.265"	"20.304"	"202.378"	"471.262"	"295.821"	"269.053"	"47.408"	"7.411"	"0"
"1968"	"24.106"	"1.513"	"15.144"	"30.379"	"50.991"	"509.89"	"574.937"	"296.104"	"233.675"	"334.985"	"0.609"	"6.282"
"1969"	"11.881"	"0.689"	"30.593"	"47.347"	"150.581"	"158.788"	"471.72"	"452.387"	"321.113"	"40.853"	"22.311"	"0"
"1970"	"3.337"	"44.197"	"21.799"	"44.579"	"105.889"	"495.81"	"490.829"	"429.378"	"266.278"	"33.822"	"0.035"	"0"
"1971"	"3.551"	"9.131"	"54.555"	"107.15"	"181.544"	"507.011"	"566.098"	"358.346"	"331.467"	"143.344"	"20.076"	"0"
"1972"	"6.875"	"16.506"	"33.937"	"112.864"	"182.778"	"252.716"	"552.607"	"249.424"	"512.139"	"55.984"	"29.154"	"0"
"1973"	"12.951"	"17.974"	"18.916"	"40.546"	"230.199"	"560.336"	"505.207"	"375.377"	"311.054"	"333.252"	"33.255"	"0"
"1974"	"10.673"	"0.2"	"15.258"	"81.824"	"239.968"	"356.206"	"748.754"	"340.629"	"335.348"	"52.211"	"0.293"	"7.095"
"1975"	"13.547"	"13.362"	"8.452"	"55.349"	"112.478"	"478.754"	"631.713"	"218.242"	"539.929"	"95.304"	"0.005"	"0.009"
"1976"	"12.847"	"19.035"	"6.193"	"78.743"	"254.102"	"451.148"	"425"	"443.769"	"260.015"	"144.347"	"1.403"	"0.884"
"1977"	"3.113"	"7.124"	"29.186"	"118.476"	"280.382"	"233.666"	"545.54"	"363.491"	"178.255"	"163.819"	"33.113"	"36.996"
"1978"	"15.815"	"14.229"	"52.295"	"169.365"	"281.708"	"473.144"	"600.315"	"370.249"	"333.026"	"79.724"	"36.211"	"0.009"
"1979"	"2.688"	"23.797"	"2.739"	"86.281"	"105.993"	"360.555"	"638.161"	"500.923"	"345.138"	"143.056"	"21.396"	"66.082"
"1980"	"1.091"	"20.333"	"32.175"	"38.357"	"205.713"	"390.826"	"595.323"	"343.731"	"490.302"	"69.692"	"0.005"	"0.993"
"1981"	"27.615"	"5.726"	"25.093"	"108.992"	"286.565"	"359.236"	"702.292"	"409.89"	"369.879"	"7.105"	"8.56"	"6.41"
"1982"	"1.489"	"18.172"	"32.29"	"68.884"	"118.188"	"367.914"	"416.514"	"326.313"	"313.924"	"82.695"	"20.636"	"5.601"
"1983"	"8.834"	"23.721"	"18.913"	"68.111"	"250.705"	"210.725"	"592.742"	"257.931"	"364.34"	"40.565"	"0.005"	"24.801"
"1984"	"13.191"	"13.64"	"12.034"	"81.647"	"216.497"	"465.227"	"641.291"	"372.101"	"368.286"	"56.45"	"0.733"	"4.87"
"1985"	"3.896"	"17.901"	"7.188"	"40.435"	"161.039"	"308.677"	"650.329"	"449.454"	"356.575"	"226.098"	"13.374"	"33.522"
"1986"	"0.005"	"8.236"	"8.103"	"104.026"	"120.434"	"251.757"	"458.928"	"312.862"	"349.487"	"112.372"	"4.729"	"44.591"
"1987"	"5.775"	"15.555"	"47.658"	"129.231"	"101.52"	"294.064"	"547.66"	"542.221"	"428.551"	"265.92"	"0.891"	"7.357"
"1988"	"1.221"	"14.132"	"22.964"	"66.037"	"263.716"	"331.652"	"707.866"	"524.805"	"301.544"	"57.457"	"10.626"	"42.166"
"1989"	"30.54"	"47.197"	"17.62"	"22.456"	"291.407"	"525.183"	"749.857"	"235.243"	"542.502"	"47.233"	"18.876"	"5.201"
"1990"	"0.596"	"44.51"	"22.7"	"72.489"	"246.283"	"438.146"	"561.914"	"351.256"	"414.068"	"108.586"	"0.005"	"0"
"1991"	"48.031"	"12.612"	"30.907"	"12.195"	"58.502"	"404.771"	"436.734"	"615.682"	"483.401"	"23.009"	"4.557"	"12.032"
"1992"	"4.549"	"6.08"	"17.021"	"97.027"	"237.014"	"150.878"	"639.285"	"519.563"	"281.331"	"11.157"	"0.605"	"2.452"
"1993"	"51.157"	"14.913"	"37.516"	"99.929"	"185.415"	"261.742"	"256.919"	"411.132"	"426.401"	"27.883"	"3.277"	"0"
"1994"	"64.471"	"31.467"	"32.968"	"95.277"	"113.2"	"306.736"	"355.086"	"506.449"	"200.383"	"41.479"	"43.911"	"1.795"
"1995"	"46.121"	"28.019"	"11.716"	"45.31"	"133.396"	"239.241"	"441.896"	"343.969"	"321.448"	"5.362"	"53.907"	"11.606"
"1996"	"11.851"	"17.184"	"6.505"	"84.648"	"157.789"	"207.109"	"372.263"	"420.089"	"310.509"	"100.794"	"0.005"	"0"
"1997"	"12.845"	"45.563"	"23.593"	"65.109"	"312.759"	"257.396"	"331.429"	"388.71"	"423.295"	"71.968"	"33.027"	"15.363"
"1998"	"0.397"	"16.093"	"26.946"	"103.273"	"287.565"	"248.13"	"500.834"	"498.526"	"329.082"	"241.382"	"17.998"	"0"
"1999"	"8.671"	"6.686"	"5.772"	"0.816"	"327.252"	"324.257"	"553.929"	"424.645"	"366.74"	"47.818"	"0.094"	"0.017"
"2000"	"8.589"	"7.917"	"50.426"	"39.686"	"168.04"	"389.903"	"304.636"	"405.727"	"420.279"	"1.11"	"0.005"	"0.029"
"2001"	"1.305"	"1.687"	"30.493"	"69.857"	"219.897"	"280.974"	"480.977"	"363.633"	"160.057"	"117.763"	"0.023"	"0.022"
"2002"	"9.123"	"9.232"	"5.438"	"82.494"	"184.179"	"248.813"	"528.742"	"411.037"	"437.172"	"127.732"	"13.455"	"0.022"
