
"Year"	"Jan"	"Feb"	"Mar"	"Apr"	"May"	"Jun"	"Jul"	"Aug"	"Sep"	"Oct"	"Nov"	"Dec"
"1901"	"21.566"	"22.283"	"24.819"	"27.134"	"28.281"	"28.201"	"26.18"	"25.685"	"26.229"	"25.331"	"22.689"	"20.409"
"1902"	"20.93"	"22.476"	"25.243"	"26.911"	"28.434"	"28.263"	"25.803"	"26.27"	"25.782"	"25.3"	"22.693"	"20.749"
"1903"	"21.097"	"22.187"	"25.149"	"27.127"	"28.072"	"27.274"	"25.941"	"25.994"	"25.598"	"24.833"	"22.018"	"19.975"
"1904"	"20.62"	"21.703"	"24.792"	"27.235"	"27.487"	"26.678"	"25.917"	"25.77"	"25.595"	"24.904"	"22.563"	"20.506"
"1905"	"20.681"	"21.665"	"24.672"	"26.355"	"27.439"	"28.505"	"26.111"	"25.913"	"25.292"	"24.929"	"22.749"	"20.281"
"1906"	"21.572"	"22.841"	"24.137"	"27.424"	"28.956"	"26.968"	"26.028"	"25.749"	"26.094"	"25.208"	"22.719"	"21.39"
"1907"	"20.894"	"22.608"	"24.484"	"25.984"	"27.632"	"26.752"	"26.057"	"24.888"	"25.952"	"25.235"	"23.22"	"20.155"
"1908"	"19.448"	"22.293"	"24.576"	"27.372"	"28.213"	"27.868"	"25.895"	"25.087"	"25.871"	"25.01"	"22.154"	"19.609"
"1909"	"21.219"	"22.506"	"24.864"	"25.49"	"27.735"	"26.309"	"25.823"	"25.416"	"25.44"	"25.05"	"23.064"	"20.955"
"1910"	"21.023"	"22.06"	"24.689"	"26.916"	"28.226"	"27.534"	"25.648"	"25.986"	"25.8"	"24.942"	"21.342"	"19.47"
"1911"	"21.315"	"21.732"	"24.554"	"26.661"	"28.065"	"26.336"	"26.306"	"25.588"	"25.583"	"24.833"	"22.972"	"20.195"
"1912"	"20.727"	"22.963"	"25.652"	"26.679"	"28.617"	"28.11"	"25.56"	"25.291"	"25.503"	"24.945"	"21.997"	"19.322"
"1913"	"19.912"	"22.502"	"24.755"	"27.005"	"27.87"	"26.368"	"25.646"	"26.01"	"26.078"	"24.556"	"22.128"	"20.494"
"1914"	"20.172"	"22.75"	"24.785"	"25.39"	"27.066"	"26.468"	"25.644"	"25.406"	"25.526"	"25.074"	"22.785"	"20.873"
"1915"	"20.631"	"22.355"	"24.641"	"26.884"	"28.313"	"27.476"	"26.416"	"25.962"	"25.52"	"25.417"	"23.427"	"19.999"
"1916"	"20.398"	"22.906"	"24.925"	"27.055"	"28.481"	"26.194"	"25.656"	"25.864"	"25.78"	"24.772"	"22.656"	"20.066"
"1917"	"20.276"	"21.973"	"24.04"	"26.704"	"26.583"	"26.466"	"25.964"	"25.775"	"25.655"	"24.652"	"22.229"	"20.046"
"1918"	"20.084"	"21.674"	"24.636"	"26.494"	"27.243"	"26.004"	"26.554"	"25.685"	"26.293"	"25.306"	"23.405"	"21.013"
"1919"	"21.575"	"23.042"	"25.376"	"27.221"	"28.388"	"26.53"	"26.111"	"26.223"	"26.017"	"24.916"	"22.72"	"20.557"
"1920"	"20.766"	"22.778"	"25.372"	"26.915"	"28.033"	"27.449"	"26.336"	"26.251"	"26.283"	"25.255"	"22.998"	"19.935"
"1921"	"20.761"	"22.089"	"25.378"	"26.858"	"29.833"	"27.684"	"26.157"	"25.978"	"25.638"	"24.357"	"21.422"	"20.469"
"1922"	"20.388"	"22.5"	"25.53"	"27.315"	"28.741"	"27.397"	"25.901"	"26.325"	"25.689"	"24.404"	"22.539"	"19.653"
"1923"	"19.708"	"21.94"	"23.997"	"26.967"	"28.499"	"29.041"	"26.138"	"26.213"	"25.491"	"24.675"	"22.216"	"20.401"
"1924"	"20.336"	"22.948"	"25.22"	"27.851"	"28.169"	"28.474"	"26.384"	"26.007"	"25.315"	"25.251"	"22.319"	"19.93"
"1925"	"20.236"	"21.943"	"25.016"	"26.884"	"28.095"	"26.937"	"25.453"	"25.958"	"25.923"	"24.539"	"22.731"	"19.769"
"1926"	"20.593"	"22.529"	"24.682"	"26.774"	"28.191"	"29.114"	"26.173"	"25.613"	"25.682"	"24.602"	"21.874"	"20.372"
"1927"	"21.348"	"22.748"	"25.273"	"27.648"	"28.84"	"27.6"	"25.986"	"25.891"	"25.923"	"24.99"	"22.199"	"20.567"
"1928"	"20.292"	"22.606"	"24.99"	"26.732"	"28.701"	"27.181"	"25.71"	"26.344"	"25.84"	"24.893"	"22.573"	"20.751"
"1929"	"21.269"	"21.699"	"24.896"	"27.155"	"28.827"	"27.302"	"26"	"25.796"	"25.736"	"24.301"	"22.021"	"20.688"
"1930"	"20.403"	"21.12"	"24.619"	"27.262"	"27.762"	"27.184"	"26.194"	"25.765"	"25.534"	"24.746"	"21.769"	"20.153"
"1931"	"20.362"	"22.211"	"24.852"	"27.461"	"28.327"	"28.462"	"25.676"	"26.131"	"25.813"	"24.726"	"22.078"	"20.559"
"1932"	"20.086"	"21.611"	"25.133"	"27.286"	"27.694"	"27.638"	"25.552"	"25.764"	"25.932"	"25.417"	"22.93"	"20.295"
"1933"	"20.336"	"22.174"	"24.555"	"26.772"	"27.179"	"26.546"	"25.88"	"25.531"	"25.648"	"24.772"	"22.416"	"20.44"
"1934"	"19.908"	"21.769"	"24.714"	"27.211"	"29.011"	"27.2"	"25.71"	"25.49"	"25.656"	"24.463"	"21.397"	"20.202"
"1935"	"20.186"	"22.267"	"24.731"	"26.515"	"29.096"	"27.686"	"25.828"	"25.859"	"25.738"	"25.223"	"22.08"	"20.751"
"1936"	"21.939"	"21.915"	"24.919"	"27.105"	"27.721"	"26.251"	"26.069"	"25.518"	"25.671"	"24.635"	"23.245"	"20.928"
"1937"	"19.97"	"22.438"	"24.643"	"26.472"	"28.184"	"27.536"	"25.898"	"25.894"	"25.702"	"24.548"	"22.603"	"19.692"
"1938"	"21.539"	"22.114"	"25.595"	"27.053"	"28.263"	"25.881"	"25.58"	"25.858"	"25.498"	"24.675"	"21.37"	"19.458"
"1939"	"20.257"	"21.836"	"24.336"	"27.083"	"28.686"	"27.898"	"25.64"	"26.048"	"25.99"	"24.987"	"22.013"	"20.158"
"1940"	"19.107"	"22.097"	"24.322"	"26.935"	"27.998"	"26.987"	"25.465"	"25.617"	"25.957"	"24.983"	"23.626"	"20.924"
"1941"	"21.306"	"22.411"	"25.227"	"27.852"	"28.411"	"26.906"	"26.162"	"26.748"	"26.02"	"24.749"	"21.523"	"21.085"
"1942"	"20.627"	"21.955"	"25.065"	"26.846"	"29.104"	"28.114"	"26.036"	"26.007"	"25.507"	"24.746"	"22.234"	"20.922"
"1943"	"21.104"	"20.923"	"24.664"	"26.744"	"27.98"	"27.082"	"26.286"	"25.792"	"25.89"	"24.985"	"22.694"	"20.211"
"1944"	"20.712"	"22.01"	"24.081"	"26.439"	"28.862"	"28.086"	"25.585"	"25.955"	"25.863"	"25.076"	"22.446"	"20.819"
"1945"	"20.101"	"22.201"	"25.139"	"27.155"	"29.32"	"28.773"	"25.954"	"26.291"	"25.598"	"24.555"	"21.958"	"19.377"
"1946"	"19.197"	"21.799"	"25.462"	"26.041"	"28.426"	"27.112"	"26.012"	"25.765"	"25.918"	"25.103"	"23.584"	"21.511"
"1947"	"21.196"	"21.93"	"25.348"	"28.285"	"29.21"	"28.126"	"25.47"	"25.85"	"25.831"	"24.659"	"22.217"	"20.317"
"1948"	"20.892"	"22.861"	"24.694"	"27.286"	"28.946"	"28.263"	"26.194"	"26.048"	"25.926"	"25.199"	"23.272"	"19.643"
"1949"	"20.351"	"22.109"	"24.939"	"26.437"	"28.063"	"27.705"	"25.968"	"26.099"	"25.609"	"25.043"	"21.815"	"19.947"
"1950"	"20.262"	"22.289"	"23.835"	"27.146"	"28.209"	"27.015"	"25.284"	"26.01"	"25.621"	"24.862"	"21.549"	"19.67"
"1951"	"19.946"	"21.888"	"24.431"	"27.179"	"28.081"	"27.095"	"26.038"	"25.984"	"26.509"	"25.869"	"22.992"	"20.617"
"1952"	"20.535"	"22.806"	"24.866"	"27.313"	"28.77"	"28.308"	"26.407"	"26.222"	"26.198"	"24.828"	"22.513"	"21.331"
"1953"	"20.685"	"22.801"	"26.516"	"28.069"	"29.854"	"28.03"	"26.472"	"25.865"	"26.011"	"25.225"	"22.287"	"20.482"
"1954"	"20.276"	"23.442"	"25.281"	"28.466"	"29.103"	"27.514"	"26.052"	"26.171"	"25.521"	"24.243"	"21.097"	"20.716"
"1955"	"20.463"	"23.119"	"25.5"	"27.481"	"27.556"	"28.003"	"26.561"	"25.772"	"25.489"	"24.42"	"21.68"	"20.175"
"1956"	"20.944"	"21.331"	"25.748"	"27.939"	"28.585"	"26.589"	"25.464"	"25.959"	"25.714"	"24.391"	"22.555"	"20.756"
"1957"	"21.211"	"22.35"	"24.63"	"27.239"	"29.331"	"28.728"	"26.143"	"25.775"	"26.316"	"25.81"	"22.878"	"21.345"
"1958"	"21.474"	"23.006"	"25.494"	"28.064"	"29.771"	"29.632"	"26.106"	"26.265"	"25.807"	"25.112"	"23.24"	"21.246"
"1959"	"21.064"	"23.023"	"25.507"	"27.587"	"29.42"	"27.603"	"25.626"	"25.378"	"25.738"	"24.94"	"22.109"	"20.127"
"1960"	"20.759"	"22.114"	"24.67"	"27.919"	"28.562"	"28.103"	"25.889"	"26.651"	"26.245"	"25.052"	"22.81"	"21.373"
"1961"	"20.719"	"21.801"	"25.994"	"27.968"	"29.174"	"27.115"	"25.248"	"26.108"	"25.248"	"24.419"	"21.613"	"19.174"
"1962"	"19.174"	"21.503"	"25.133"	"27.197"	"28.973"	"27.667"	"26.029"	"25.836"	"26.049"	"24.55"	"22.05"	"20.69"
"1963"	"19.457"	"22.068"	"24.978"	"26.653"	"28.4"	"27.811"	"25.922"	"25.928"	"26.205"	"25.07"	"23.329"	"20.967"
"1964"	"21.529"	"23.22"	"26.11"	"27.657"	"28.905"	"28.022"	"26.062"	"25.349"	"25.563"	"25.107"	"22.703"	"20.506"
"1965"	"20.988"	"22.759"	"24.914"	"27.099"	"28.959"	"29.203"	"26.249"	"26.464"	"26.014"	"25.496"	"23.004"	"21.5"
"1966"	"20.548"	"22.879"	"25.577"	"27.481"	"29.545"	"27.961"	"26.815"	"26.55"	"26.434"	"24.844"	"23.93"	"20.386"
"1967"	"20.697"	"23.106"	"24.298"	"27.162"	"29.294"	"28.538"	"26.509"	"25.985"	"26.411"	"25.267"	"22.56"	"22.491"
"1968"	"20.669"	"23.268"	"25.692"	"27.11"	"28.996"	"27.917"	"26.811"	"27.053"	"26.324"	"24.726"	"22.803"	"20.957"
"1969"	"20.939"	"23.789"	"26.886"	"28.396"	"27.636"	"28.107"	"26.114"	"26.229"	"26.238"	"25.494"	"23.537"	"20.732"
"1970"	"21.069"	"23.954"	"25.745"	"27.658"	"27.624"	"26.745"	"26.203"	"25.871"	"26.08"	"24.984"	"22.377"	"18.85"
"1971"	"20.834"	"23.042"	"24.446"	"25.334"	"26.592"	"26.263"	"25.959"	"25.374"	"25.887"	"24.92"	"22.299"	"19.742"
"1972"	"20.039"	"22.314"	"25.66"	"27.415"	"29.764"	"29.271"	"27.027"	"26.755"	"26.24"	"25.247"	"23.466"	"22.198"
"1973"	"22.263"	"23.952"	"25.278"	"28.698"	"29.473"	"28.866"	"26.321"	"26.142"	"26.471"	"25.246"	"22.532"	"20.643"
"1974"	"20.61"	"22.653"	"26.37"	"27.942"	"29.128"	"28.524"	"26.93"	"26.634"	"26.233"	"25.107"	"22.814"	"19.732"
"1975"	"19.79"	"22.96"	"25.669"	"27.784"	"29.582"	"27.36"	"26.029"	"26.005"	"25.182"	"25.162"	"21.58"	"19.549"
"1976"	"19.443"	"22.174"	"25.652"	"27.338"	"28.908"	"28.084"	"26.048"	"25.695"	"26.356"	"25.844"	"24.068"	"21.225"
"1977"	"20.705"	"22.717"	"25.947"	"26.943"	"27.491"	"27.381"	"26.124"	"26.131"	"26.029"	"25.021"	"23.888"	"20.418"
"1978"	"20.528"	"22.257"	"25.028"	"27.054"	"29.704"	"27.988"	"25.945"	"25.369"	"26.283"	"25.712"	"23.761"	"21.299"
"1979"	"21.14"	"22.948"	"25.31"	"27.711"	"28.75"	"27.852"	"27.333"	"26.797"	"26.185"	"25.716"	"23.978"	"21.542"
"1980"	"21.689"	"23.678"	"25.787"	"27.768"	"28.995"	"27.223"	"25.971"	"25.816"	"26.122"	"25.099"	"23.095"	"21.353"
"1981"	"20.526"	"23.379"	"25.098"	"27.508"	"28.356"	"28.181"	"26.531"	"26.025"	"26.013"	"25.782"	"23.154"	"21.35"
"1982"	"21.769"	"23.663"	"25.603"	"27.404"	"28.836"	"27.959"	"27.306"	"25.923"	"26.36"	"25.641"	"23.533"	"21.466"
"1983"	"21.275"	"23.616"	"26.316"	"27.661"	"28.634"	"28.764"	"26.687"	"26.406"	"25.957"	"25.313"	"23.16"	"20.892"
"1984"	"21.619"	"22.515"	"25.621"	"27.696"	"29.404"	"27.38"	"25.987"	"26.289"	"26.122"	"25.501"	"22.299"	"21.698"
"1985"	"21.469"	"22.962"	"26.065"	"27.928"	"28.998"	"27.586"	"25.519"	"25.7"	"25.925"	"24.087"	"22.119"	"20.915"
"1986"	"20.07"	"22.421"	"25.444"	"26.819"	"28.31"	"26.687"	"26.077"	"26.114"	"26.176"	"24.849"	"22.626"	"21.171"
"1987"	"20.336"	"21.618"	"24.362"	"26.725"	"27.556"	"28.706"	"26.958"	"26.17"	"26.717"	"25.169"	"22.611"	"20.818"
"1988"	"20.672"	"22.49"	"25.61"	"26.685"	"28.061"	"27.687"	"25.711"	"26.27"	"26.321"	"25.325"	"23.709"	"21.922"
"1989"	"20.769"	"23.191"	"25.29"	"27.876"	"29.028"	"27.375"	"26.379"	"26.339"	"26.015"	"25.745"	"23.111"	"20.52"
"1990"	"21.616"	"22.899"	"24.34"	"26.654"	"26.964"	"27.084"	"25.917"	"26.171"	"26.306"	"24.878"	"23.53"	"21.494"
"1991"	"21.214"	"23.923"	"26.478"	"27.689"	"29.26"	"27.379"	"26.784"	"27.193"	"26.639"	"25.499"	"22.531"	"20.511"
"1992"	"20.135"	"22.654"	"24.932"	"27.339"	"28.414"	"28.008"	"26.77"	"25.919"	"26.329"	"25.668"	"22.949"	"20.253"
"1993"	"21.301"	"22.426"	"25.303"	"27.354"	"28.629"	"28.139"	"26.836"	"27.001"	"25.736"	"25.775"	"23.317"	"20.691"
"1994"	"21.2"	"22.682"	"26.351"	"27.386"	"29.204"	"27.82"	"25.796"	"25.623"	"26.281"	"25.348"	"22.851"	"20.535"
"1995"	"20.347"	"22.684"	"25.679"	"27.726"	"27.679"	"28.652"	"26.28"	"26.968"	"26.383"	"25.074"	"23.276"	"21.237"
"1996"	"21.602"	"22.541"	"25.889"	"27.182"	"29.474"	"27.293"	"26.963"	"25.633"	"26.257"	"25.153"	"23.395"	"20.837"
"1997"	"20.438"	"22.544"	"25.495"	"26.13"	"28.159"	"28.666"	"27.111"	"26.229"	"26.109"	"25.255"	"24.221"	"22.471"
"1998"	"21.987"	"23.237"	"25.446"	"27.082"	"28.919"	"28.303"	"26.427"	"26.404"	"26.345"	"25.986"	"24.319"	"20.734"
"1999"	"20.765"	"23.856"	"26.582"	"28.66"	"28.216"	"27.504"	"26.867"	"26.425"	"26.234"	"25.805"	"23.063"	"20.451"
"2000"	"21.594"	"23.33"	"25.502"	"28.224"	"29.042"	"27.297"	"26.407"	"26.293"	"26.572"	"26.105"	"23.586"	"20.439"
"2001"	"21.017"	"23.772"	"26.258"	"27.483"	"29.412"	"27.389"	"27"	"26.177"	"27.164"	"25.97"	"24.038"	"21.15"
"2002"	"21.835"	"23.34"	"26.475"	"27.672"	"29.653"	"27.846"	"27.233"	"26.145"	"26.948"	"25.8"	"22.786"	"21.348"
