
"Year"	"Jan"	"Feb"	"Mar"	"Apr"	"May"	"Jun"	"Jul"	"Aug"	"Sep"	"Oct"	"Nov"	"Dec"
"1901"	"59.148"	"4.335"	"5.664"	"14.329"	"30.505"	"200.267"	"179.527"	"287.662"	"171.879"	"41.928"	"13.95"	"0.067"
"1902"	"0.167"	"0.003"	"16.779"	"24.714"	"35.919"	"166.129"	"387.974"	"220.505"	"374.359"	"37.842"	"0.007"	"0.016"
"1903"	"7.393"	"5.908"	"10.589"	"26.865"	"84.207"	"339.507"	"148.894"	"261.511"	"175.315"	"114.465"	"7.454"	"0.004"
"1904"	"0.979"	"5.579"	"25.575"	"12.445"	"277.509"	"129.579"	"291.698"	"287.373"	"135.374"	"37.336"	"11.393"	"0.195"
"1905"	"10.761"	"21.25"	"28.849"	"18.995"	"85.568"	"44.788"	"497.216"	"354.242"	"297.338"	"30.428"	"0.24"	"1.079"
"1906"	"12.329"	"44.221"	"22.588"	"6.107"	"57.492"	"167.006"	"419.299"	"221.085"	"170.848"	"144.1"	"2.184"	"0.004"
"1907"	"9.706"	"26.189"	"28.73"	"33.185"	"46.922"	"252.559"	"228.789"	"235.095"	"209.275"	"44.471"	"0.005"	"0.547"
"1908"	"8.995"	"26.481"	"7.425"	"5.779"	"42.833"	"150.82"	"298.869"	"252.044"	"130.733"	"55.586"	"0.052"	"0.791"
"1909"	"4.753"	"3.781"	"0"	"57.782"	"36.464"	"259.168"	"361.562"	"333.185"	"206.636"	"24.487"	"0.731"	"1.987"
"1910"	"2.637"	"6.112"	"20.237"	"32.751"	"43.445"	"245.929"	"423.584"	"320.557"	"199.251"	"77.364"	"7.001"	"0.003"
"1911"	"18.001"	"0.336"	"20.819"	"8.842"	"54.347"	"336.818"	"292.417"	"261.81"	"262.965"	"121.329"	"15.77"	"0.003"
"1912"	"2.902"	"11.477"	"7.498"	"38.471"	"74.029"	"186.349"	"370.058"	"271.806"	"75.596"	"31.037"	"12.597"	"1.498"
"1913"	"0.167"	"39.204"	"32.311"	"3.629"	"100.039"	"466.033"	"227.921"	"317.067"	"203.856"	"79.288"	"0.302"	"15.202"
"1914"	"0.164"	"26.373"	"15.888"	"39.086"	"105.653"	"90.095"	"335.228"	"325.333"	"123.926"	"39.251"	"0.082"	"0.798"
"1915"	"1.357"	"42.781"	"15.26"	"16.746"	"78.87"	"254.294"	"337.626"	"290.595"	"222.898"	"60.344"	"7.978"	"0.004"
"1916"	"0.31"	"11.793"	"4.436"	"15.649"	"26.04"	"195.291"	"371.718"	"265.98"	"257.495"	"215.44"	"7.371"	"0"
"1917"	"1.749"	"17.685"	"7.158"	"13.716"	"120.73"	"219.469"	"370.39"	"166.821"	"284.873"	"220.678"	"8.952"	"0.003"
"1918"	"0.577"	"2.342"	"8.216"	"18.265"	"79.723"	"210.732"	"312.204"	"420.06"	"200.431"	"27.231"	"0.01"	"0.015"
"1919"	"26.688"	"3.103"	"9.776"	"13.646"	"110.211"	"118.241"	"336.596"	"373.284"	"191.865"	"132.328"	"3.407"	"0"
"1920"	"4.642"	"28.546"	"30.94"	"11.099"	"56.061"	"122.267"	"316.788"	"255.909"	"299.689"	"33.351"	"0.005"	"0"
"1921"	"30.249"	"2.654"	"5.359"	"10.287"	"36.081"	"180.377"	"336.576"	"356.618"	"181.204"	"33.778"	"0.057"	"0.007"
"1922"	"13.188"	"9.498"	"1.195"	"8.783"	"21.838"	"475.375"	"442.124"	"302.051"	"272.152"	"70.802"	"0.012"	"11.744"
"1923"	"0.205"	"43.789"	"2.211"	"6.079"	"30.015"	"162.715"	"230.638"	"325.082"	"154.485"	"44.324"	"0.241"	"0.068"
"1924"	"2.418"	"5.37"	"2.506"	"32.965"	"47.809"	"205.108"	"374.667"	"303.139"	"240.574"	"95.555"	"46.924"	"0"
"1925"	"17.998"	"1.615"	"7.047"	"41.547"	"66.276"	"108.518"	"348.706"	"335.464"	"217.69"	"39.968"	"3.002"	"0.004"
"1926"	"23.504"	"0.336"	"47.154"	"14.959"	"154.045"	"68.383"	"539.1"	"292.956"	"226.8"	"53.475"	"0.005"	"3.53"
"1927"	"30.867"	"33.306"	"34.655"	"6.223"	"65.679"	"126.548"	"269.53"	"363.093"	"132.756"	"57.045"	"31.138"	"0.004"
"1928"	"31.592"	"9.939"	"3.019"	"15.321"	"91.027"	"223.468"	"453.245"	"197.786"	"226.535"	"168.996"	"0.48"	"1.504"
"1929"	"27.964"	"0.205"	"7.23"	"15.965"	"68.772"	"255.733"	"369.188"	"215.644"	"81.223"	"280.021"	"0.43"	"6.134"
"1930"	"13.266"	"8.437"	"7.389"	"16.337"	"57.302"	"157.97"	"267.703"	"227.34"	"195.108"	"66.424"	"16.247"	"9.121"
"1931"	"4.155"	"21.827"	"17.543"	"4.297"	"45.258"	"107.438"	"625.681"	"223.363"	"389.228"	"54.949"	"3.99"	"0.973"
"1932"	"0.167"	"11.717"	"4.245"	"17.077"	"82.444"	"214.651"	"159.127"	"285.114"	"224.33"	"44.984"	"48.383"	"7.764"
"1933"	"31.766"	"13.559"	"3.408"	"33.982"	"83.089"	"152.697"	"567.774"	"387.52"	"164.897"	"73.371"	"0.006"	"0.003"
"1934"	"31.308"	"25.792"	"1.697"	"29.488"	"53.352"	"257.243"	"404.286"	"301.77"	"250.706"	"58.199"	"2.372"	"0.299"
"1935"	"5.024"	"20.052"	"1.958"	"12.674"	"38.106"	"176.2"	"205.469"	"464.125"	"203.82"	"34.962"	"0"	"0.005"
"1936"	"4.602"	"9.274"	"15.655"	"16.142"	"137.523"	"190.368"	"490.372"	"246.361"	"395.77"	"104.248"	"0.204"	"14.354"
"1937"	"0.159"	"35.434"	"3.73"	"43.364"	"44.513"	"126.034"	"177.229"	"345.744"	"251.521"	"147.788"	"0.044"	"0"
"1938"	"5.828"	"16.359"	"7.244"	"10.307"	"107.417"	"458.122"	"343.12"	"262.842"	"180.643"	"60.521"	"2.638"	"0.003"
"1939"	"2.525"	"26"	"9.885"	"13.201"	"48.693"	"207.192"	"385.503"	"266.926"	"291.907"	"99.785"	"0.003"	"0.004"
"1940"	"0.206"	"39.23"	"38.514"	"9.128"	"55.141"	"165.326"	"524.91"	"300.706"	"141.948"	"38.016"	"0.084"	"3.863"
"1941"	"11.717"	"5.625"	"11.295"	"13.536"	"61.268"	"190.788"	"277.264"	"310.873"	"244.302"	"74.596"	"0.833"	"0.041"
"1942"	"27.461"	"26.182"	"11.315"	"21.46"	"21.681"	"180.265"	"220.513"	"431.584"	"372.487"	"10.55"	"0.503"	"0.789"
"1943"	"21.736"	"12.601"	"13.083"	"56.565"	"75.433"	"149.467"	"328.108"	"339.686"	"233.903"	"47.825"	"0.046"	"0.008"
"1944"	"29.378"	"14.582"	"47.398"	"24.404"	"27.091"	"277.027"	"179.944"	"368.049"	"168.715"	"72.923"	"0.003"	"0"
"1945"	"65.354"	"17.158"	"3.617"	"3.86"	"71.827"	"164.782"	"280.576"	"169.098"	"286.784"	"192.239"	"0.005"	"1.502"
"1946"	"0.159"	"19.2"	"26.868"	"27.586"	"81.875"	"127.093"	"456.707"	"306.544"	"274.898"	"127.541"	"14.858"	"0"
"1947"	"19.99"	"5.729"	"15.749"	"6.266"	"52.888"	"117.867"	"520.163"	"212.213"	"314.704"	"65.956"	"0"	"0.836"
"1948"	"5.715"	"9.392"	"7.809"	"46.456"	"107.259"	"120.274"	"413.075"	"261.286"	"341.049"	"107.967"	"8.442"	"0"
"1949"	"7.82"	"44.366"	"10.722"	"15.483"	"127.16"	"387.946"	"406.446"	"399.038"	"157.741"	"73.707"	"0.219"	"0.004"
"1950"	"2.238"	"10.839"	"42.493"	"8.219"	"19.166"	"303.484"	"231.71"	"305.415"	"158.892"	"55.745"	"2.95"	"0.003"
"1951"	"5.748"	"0.053"	"42.285"	"16.677"	"25.799"	"147.202"	"519.483"	"302.458"	"265.498"	"95.038"	"22.424"	"0"
"1952"	"0.167"	"9.389"	"22.201"	"24.759"	"32.616"	"425.218"	"267.681"	"280.215"	"228.278"	"92.343"	"6.398"	"0"
"1953"	"62.412"	"2.585"	"4.004"	"10.53"	"24.983"	"224.288"	"445.653"	"268.506"	"267.427"	"8.429"	"0.189"	"1.195"
"1954"	"24.389"	"6.369"	"4.214"	"8.804"	"64.139"	"247.443"	"398.249"	"272.709"	"251.918"	"60.36"	"0"	"0.43"
"1955"	"18.577"	"10.137"	"3.46"	"16.073"	"23.061"	"251.69"	"715.794"	"161.737"	"134.863"	"84.601"	"1.504"	"1.986"
"1956"	"22.259"	"8.059"	"12.055"	"40.227"	"154.443"	"296.149"	"204.649"	"299.628"	"320.995"	"101.398"	"41.42"	"5.931"
"1957"	"37.825"	"3.823"	"10.63"	"0.67"	"30.196"	"157.621"	"350.991"	"157.543"	"144.822"	"24.749"	"0.082"	"2.803"
"1958"	"27.354"	"6.706"	"18.37"	"27.43"	"29.375"	"217.804"	"273.519"	"326.313"	"212.08"	"132.189"	"0.866"	"0"
"1959"	"36.983"	"0"	"1.292"	"1.568"	"46.826"	"126.907"	"312.573"	"295.25"	"426.156"	"201.951"	"0"	"0"
"1960"	"0.598"	"0"	"23.247"	"4.156"	"15.831"	"107.072"	"306.315"	"277.499"	"241.665"	"36.581"	"0.008"	"0"
"1961"	"9.914"	"46.258"	"0.986"	"0.218"	"27.444"	"176.53"	"253.097"	"262.963"	"264.824"	"71.844"	"6.183"	"3.558"
"1962"	"23.38"	"9.173"	"6.235"	"18.838"	"27.457"	"144.905"	"276.856"	"342.171"	"269.569"	"29.22"	"0"	"3.207"
"1963"	"2.687"	"0.945"	"54.404"	"20.285"	"141.03"	"175.569"	"333.86"	"210.193"	"175.175"	"181.66"	"15.202"	"0"
"1964"	"0.159"	"0"	"4.128"	"25.964"	"32.769"	"130.648"	"397.803"	"330.135"	"142.174"	"39.677"	"0"	"0"
"1965"	"0.159"	"4.553"	"7.5"	"39.384"	"35.616"	"71.517"	"347.258"	"212.855"	"123.699"	"30.617"	"10.037"	"0.007"
"1966"	"27.855"	"10.633"	"0.03"	"2.356"	"16.542"	"152.661"	"186.621"	"252.76"	"129.788"	"17.38"	"39.887"	"2.779"
"1967"	"5.051"	"0.309"	"38.635"	"36.756"	"16.739"	"90.608"	"311.05"	"340.107"	"115.903"	"23.289"	"0.286"	"0.672"
"1968"	"32.901"	"1.31"	"5.413"	"11.96"	"8.981"	"319.527"	"360.905"	"258.861"	"114.756"	"173.73"	"1.64"	"4.719"
"1969"	"3.288"	"9.479"	"10.03"	"22.29"	"93.152"	"170.684"	"301.562"	"311.102"	"192.783"	"39.826"	"25.527"	"0"
"1970"	"12.621"	"16.551"	"7.343"	"4.693"	"44.829"	"251.915"	"405.503"	"235.581"	"197.446"	"97.639"	"1.419"	"0"
"1971"	"7.673"	"7.093"	"9.853"	"69.623"	"96.302"	"330.639"	"302.467"	"228.066"	"144.112"	"159.926"	"2.192"	"0"
"1972"	"11.708"	"20.476"	"2.039"	"23.653"	"35.534"	"131.511"	"238.252"	"121.632"	"352.516"	"98.429"	"5.94"	"0.167"
"1973"	"44.891"	"9.265"	"8.48"	"3.966"	"55.125"	"279.322"	"250.087"	"361.568"	"191.368"	"361.071"	"31.979"	"0.089"
"1974"	"15.587"	"0.641"	"14.586"	"20.522"	"82.518"	"189.53"	"609.944"	"266.997"	"179.694"	"98.236"	"6.291"	"2.414"
"1975"	"44.28"	"8.819"	"6.186"	"11.03"	"94.001"	"214.999"	"380.141"	"103.419"	"425.285"	"41.861"	"0.327"	"0"
"1976"	"2.886"	"28.43"	"0.366"	"39.897"	"86.354"	"215.984"	"271.813"	"370.964"	"176.753"	"0.892"	"0.007"	"0.004"
"1977"	"1.151"	"4.43"	"1.938"	"49.979"	"135.779"	"112.763"	"265.31"	"197.54"	"111.003"	"131.642"	"18.87"	"18.117"
"1978"	"12.022"	"19.753"	"42.199"	"33.774"	"79.199"	"158.925"	"318.96"	"193.258"	"249.788"	"95.888"	"20.711"	"3.723"
"1979"	"15.925"	"20.866"	"0.463"	"27.81"	"20.914"	"124.156"	"456.818"	"309.419"	"118.708"	"152.727"	"20.199"	"23.282"
"1980"	"4.606"	"11.49"	"28.364"	"1.52"	"96.76"	"230.716"	"364.362"	"202.532"	"153.153"	"12.199"	"9.688"	"0.347"
"1981"	"17.291"	"1.724"	"24.689"	"26.276"	"86.257"	"136.295"	"423.397"	"201.512"	"133.683"	"0.829"	"3.976"	"0.897"
"1982"	"7.495"	"7.722"	"19.058"	"31.811"	"50.904"	"113.868"	"204.533"	"102.239"	"290.126"	"57.315"	"11.425"	"0.556"
"1983"	"31.868"	"0.846"	"4.271"	"21.318"	"124.228"	"174.006"	"577.184"	"155.904"	"134.839"	"111.915"	"0"	"9.014"
"1984"	"28.42"	"17.073"	"7.054"	"27.414"	"60.737"	"275.996"	"472.88"	"169.294"	"647.863"	"28.289"	"0.001"	"0.014"
"1985"	"7.225"	"7.402"	"2.268"	"5.018"	"76.267"	"93.583"	"434.768"	"105.643"	"208.548"	"45.228"	"2.138"	"26.873"
"1986"	"1.453"	"4.295"	"1.294"	"40.3"	"104.753"	"175.125"	"283.544"	"210.757"	"151.024"	"59.251"	"12.981"	"7.548"
"1987"	"0.215"	"21.718"	"17.58"	"17.65"	"72.068"	"231.788"	"307.273"	"688.554"	"382.128"	"286.919"	"5.243"	"2.087"
"1988"	"7.01"	"34.045"	"26.092"	"23.48"	"70.298"	"124.009"	"307.927"	"523.632"	"192.015"	"23.006"	"9.949"	"6.897"
"1989"	"28.43"	"16.903"	"5.594"	"2.981"	"115.966"	"232.014"	"332.042"	"243.066"	"304.859"	"42.179"	"10.735"	"3.429"
"1990"	"0.164"	"17.397"	"7.149"	"25.647"	"179.582"	"107.671"	"209.332"	"273.227"	"221.584"	"59.011"	"0.045"	"0"
"1991"	"26.801"	"0.62"	"24.424"	"14.6"	"53.586"	"114.674"	"245.153"	"449.263"	"186.496"	"40.762"	"0.3"	"4.036"
"1992"	"13.697"	"3.999"	"3.122"	"12.214"	"60.879"	"41.759"	"322.364"	"254.948"	"143.513"	"30.671"	"0.423"	"0.309"
"1993"	"33.721"	"4.01"	"16.408"	"20.178"	"84.366"	"87.151"	"130.945"	"224.421"	"272.728"	"61.964"	"4.197"	"0"
"1994"	"71.806"	"18.426"	"21.14"	"29.733"	"37.091"	"73.72"	"223.157"	"322.536"	"84.42"	"100.179"	"9.286"	"0.213"
"1995"	"32.418"	"18.521"	"12.738"	"8.456"	"54.729"	"95.297"	"233.205"	"220.151"	"203.937"	"8.529"	"27.84"	"1.276"
"1996"	"25.563"	"9.918"	"2.598"	"19.977"	"45.466"	"29.804"	"224.696"	"317.883"	"170.127"	"123.318"	"0"	"0"
"1997"	"17.644"	"20.456"	"11.675"	"15.348"	"157.588"	"86.632"	"206.543"	"297.792"	"200.683"	"64.497"	"24.123"	"8.683"
"1998"	"0.786"	"19.796"	"10.756"	"26.741"	"153.946"	"77.548"	"252.048"	"287.955"	"191.072"	"218.314"	"16.916"	"0"
"1999"	"18.737"	"5.622"	"1.943"	"0.232"	"112.113"	"141.363"	"319.222"	"265.601"	"185.896"	"37.388"	"0.37"	"0.012"
"2000"	"13.681"	"8.63"	"16.406"	"17.858"	"48.541"	"173.777"	"152.199"	"200.673"	"261.869"	"1.164"	"0"	"0.018"
"2001"	"2.931"	"1.002"	"23.302"	"20.629"	"77.029"	"86.094"	"276.179"	"254.307"	"76.572"	"105.998"	"0.059"	"0.012"
"2002"	"19.73"	"6.638"	"4.319"	"20.529"	"53.733"	"85.855"	"252.31"	"272.395"	"230.744"	"126.027"	"12.003"	"0.012"
