
"Year"	"Jan"	"Feb"	"Mar"	"Apr"	"May"	"Jun"	"Jul"	"Aug"	"Sep"	"Oct"	"Nov"	"Dec"
"1901"	"15.644"	"18.764"	"23.554"	"29.149"	"29.812"	"30.918"	"29.166"	"28.778"	"28.444"	"27.356"	"21.672"	"17.555"
"1902"	"17.463"	"19.058"	"25.057"	"27.519"	"29.84"	"30.114"	"28.664"	"29.172"	"28.444"	"25.857"	"21.253"	"16.783"
"1903"	"16.324"	"18.174"	"23.049"	"28.715"	"30.706"	"29.717"	"29.75"	"28.558"	"28.745"	"26.773"	"21.469"	"17.085"
"1904"	"16.458"	"18.759"	"24.052"	"29.201"	"28.823"	"29.429"	"28.265"	"28.575"	"28.459"	"26.356"	"20.868"	"17.571"
"1905"	"15.175"	"14.966"	"21.347"	"25.733"	"28.726"	"30.919"	"28.759"	"27.972"	"28.341"	"26.756"	"21.865"	"17.279"
"1906"	"15.961"	"17.953"	"21.856"	"29.021"	"30.511"	"30.029"	"29.079"	"28.176"	"29.044"	"26.456"	"22.073"	"17.968"
"1907"	"17.562"	"18.073"	"21.063"	"26.25"	"29.223"	"29.916"	"28.948"	"29.458"	"28.732"	"26.941"	"21.57"	"17.369"
"1908"	"14.971"	"18.268"	"23.957"	"30.818"	"30.308"	"30.337"	"28.859"	"29.462"	"28.728"	"26.939"	"21.17"	"16.684"
"1909"	"16.959"	"18.358"	"25.337"	"27.047"	"30.206"	"28.934"	"28.96"	"28.459"	"29.145"	"27.155"	"22.088"	"17.89"
"1910"	"15.875"	"18.571"	"23.84"	"28.619"	"29.709"	"29.231"	"28.162"	"28.978"	"28.844"	"26.349"	"21.167"	"17.086"
"1911"	"17.375"	"17.87"	"22.448"	"28.43"	"30.396"	"29.328"	"29.449"	"28.741"	"28.243"	"26.138"	"20.468"	"16.386"
"1912"	"16.576"	"19.457"	"23.144"	"26.721"	"29.324"	"30.114"	"28.468"	"28.773"	"28.459"	"26.456"	"20.682"	"16.986"
"1913"	"16.073"	"18.267"	"21.753"	"29.315"	"28.706"	"28.247"	"28.863"	"28.576"	"28.843"	"26.156"	"20.464"	"16.79"
"1914"	"16.657"	"18.669"	"22.97"	"26.435"	"29.241"	"29.545"	"28.761"	"28.378"	"28.347"	"25.253"	"21.369"	"18.068"
"1915"	"17.074"	"18.452"	"22.856"	"28.132"	"29.815"	"29.332"	"29.443"	"28.977"	"28.643"	"28.352"	"23.284"	"17.583"
"1916"	"16.073"	"18.47"	"25.727"	"28.623"	"31.691"	"29.246"	"28.545"	"28.771"	"28.643"	"26.724"	"21.887"	"16.784"
"1917"	"15.777"	"18.167"	"22.652"	"27.141"	"28.165"	"29.227"	"28.763"	"28.873"	"28.159"	"26.169"	"21.766"	"17.284"
"1918"	"15.073"	"18.071"	"24.139"	"27.334"	"30.039"	"28.53"	"29.45"	"27.973"	"28.843"	"26.755"	"21.368"	"16.479"
"1919"	"16.772"	"17.564"	"24.468"	"27.432"	"29.619"	"29.829"	"28.863"	"29.089"	"28.326"	"26.458"	"21.883"	"17.479"
"1920"	"16.768"	"18.272"	"22.652"	"28.217"	"29.117"	"30.329"	"29.178"	"28.777"	"28.444"	"26.956"	"21.968"	"18.196"
"1921"	"16.961"	"18.553"	"25.242"	"29.123"	"31.779"	"29.718"	"28.946"	"28.871"	"28.358"	"25.554"	"21.087"	"16.489"
"1922"	"16.873"	"19.274"	"25.154"	"29.748"	"31.406"	"28.93"	"28.763"	"28.573"	"28.16"	"25.769"	"21.565"	"17.567"
"1923"	"16.473"	"18.267"	"24.156"	"29.316"	"30.289"	"30.803"	"28.768"	"29.28"	"28.641"	"26.05"	"21.68"	"17.681"
"1924"	"16.071"	"18.573"	"25.653"	"29.715"	"29.805"	"31.497"	"28.763"	"28.773"	"27.843"	"27.054"	"21.366"	"17.969"
"1925"	"14.973"	"16.883"	"23.754"	"28.122"	"29.294"	"29.441"	"28.465"	"28.772"	"28.246"	"25.854"	"21.084"	"16.751"
"1926"	"16.158"	"18.772"	"22.351"	"26.728"	"29.425"	"31.782"	"28.847"	"28.773"	"28.636"	"26.458"	"20.378"	"17.881"
"1927"	"15.672"	"18.154"	"22.059"	"28.513"	"29.022"	"30.215"	"28.963"	"28.581"	"28.451"	"26.753"	"21.471"	"17.681"
"1928"	"15.572"	"18.684"	"24.633"	"28.429"	"30.208"	"29.348"	"28.764"	"29.059"	"29.445"	"26.942"	"21.267"	"18.071"
"1929"	"16.339"	"17.769"	"24.355"	"28.136"	"30.794"	"30.414"	"28.662"	"28.773"	"28.468"	"25.871"	"21.365"	"17.183"
"1930"	"15.355"	"18.167"	"24.139"	"28.116"	"30.104"	"29.519"	"28.76"	"28.773"	"28.743"	"26.357"	"21.07"	"16.884"
"1931"	"17.255"	"18.485"	"23.753"	"29.711"	"29.708"	"31.308"	"28.746"	"29.477"	"28.721"	"26.954"	"21.268"	"18.087"
"1932"	"17.247"	"17.545"	"24.633"	"28.726"	"31.546"	"30.421"	"29.439"	"29.07"	"29.32"	"27.15"	"22.174"	"17.395"
"1933"	"14.872"	"19.273"	"24.356"	"26.83"	"29.3"	"29.533"	"28.664"	"28.374"	"28.635"	"26.554"	"21.471"	"17.666"
"1934"	"16.073"	"18.571"	"23.554"	"28.832"	"29.896"	"29.212"	"28.768"	"28.977"	"29.061"	"26.055"	"21.075"	"17.691"
"1935"	"15.97"	"19.27"	"24.565"	"28.05"	"31.322"	"30.24"	"29.558"	"28.257"	"28.661"	"26.474"	"21.865"	"17.468"
"1936"	"15.482"	"18.944"	"24.27"	"28.54"	"29.81"	"29.43"	"28.873"	"29.273"	"28.344"	"25.951"	"22.281"	"17.982"
"1937"	"15.189"	"18.763"	"22.974"	"28.852"	"29.938"	"30.841"	"29.675"	"28.469"	"29.14"	"25.573"	"21.203"	"17.2"
"1938"	"16.975"	"17.363"	"25.253"	"30.043"	"29.524"	"29.639"	"28.761"	"28.889"	"29.518"	"26.956"	"20.843"	"17.583"
"1939"	"16.872"	"19.059"	"22.684"	"30.134"	"30.808"	"29.822"	"29.354"	"28.972"	"28.937"	"26.259"	"22.258"	"18.087"
"1940"	"16.391"	"18.655"	"21.75"	"28.424"	"31.094"	"30.412"	"29.255"	"29.071"	"28.641"	"27.139"	"22.366"	"17.684"
"1941"	"16.388"	"19.255"	"25.641"	"29.82"	"29.897"	"29.426"	"29.465"	"28.866"	"28.754"	"26.258"	"21.668"	"18.869"
"1942"	"16.575"	"18.767"	"24.257"	"28.218"	"31.778"	"31.128"	"29.371"	"28.875"	"27.855"	"26.458"	"22.568"	"17.374"
"1943"	"18.044"	"17.773"	"24.039"	"26.635"	"30.696"	"30.6"	"28.58"	"28.576"	"28.76"	"26.855"	"22.084"	"18.668"
"1944"	"15.971"	"18.357"	"23.172"	"26.348"	"31.407"	"30.726"	"28.978"	"28.978"	"29.917"	"26.188"	"21.57"	"18.29"
"1945"	"15.972"	"17.154"	"24.255"	"27.457"	"29.605"	"31.015"	"29.944"	"29.059"	"28.757"	"25.586"	"20.986"	"16.483"
"1946"	"16.78"	"20.158"	"23.939"	"26.706"	"29.041"	"30.127"	"28.858"	"29.372"	"28.757"	"26.154"	"21.512"	"18.298"
"1947"	"16.564"	"19.071"	"24.656"	"29.734"	"29.938"	"31.315"	"29.174"	"29.262"	"28.643"	"26.747"	"21.769"	"18.295"
"1948"	"17.053"	"19.056"	"23.965"	"29.194"	"30.398"	"31.789"	"28.559"	"29.074"	"28.772"	"26.049"	"22.168"	"17.386"
"1949"	"17.079"	"18.485"	"23.768"	"26.926"	"28.723"	"29.517"	"28.678"	"28.961"	"28.475"	"27.463"	"21.562"	"16.586"
"1950"	"16.862"	"18.369"	"23.25"	"28.149"	"30.834"	"29.838"	"29.274"	"28.457"	"28.764"	"26.37"	"20.697"	"17.984"
"1951"	"16.334"	"19.178"	"24.767"	"28.542"	"31.106"	"30.39"	"28.78"	"29.483"	"28.953"	"27.847"	"22.485"	"17.686"
"1952"	"17.245"	"19.748"	"22.646"	"28.128"	"29.795"	"30.23"	"28.851"	"28.886"	"28.144"	"27.37"	"21.88"	"17.284"
"1953"	"15.627"	"19.654"	"26.021"	"29.141"	"30.818"	"29.921"	"28.467"	"29.189"	"28.26"	"26.453"	"21.38"	"19.069"
"1954"	"15.571"	"20.372"	"24.675"	"30.461"	"31.329"	"29.411"	"28.454"	"28.77"	"28.873"	"25.756"	"20.896"	"17.071"
"1955"	"16.171"	"18.195"	"25.316"	"27.919"	"30.416"	"29.818"	"28.166"	"28.076"	"28.455"	"27.183"	"22.594"	"17.183"
"1956"	"16"	"18.524"	"25.165"	"29.515"	"31.118"	"29.255"	"29.044"	"28.773"	"27.759"	"26.569"	"21.603"	"17.832"
"1957"	"16.553"	"17.737"	"23.056"	"29.016"	"32.411"	"30.289"	"29.263"	"28.946"	"29.218"	"26.111"	"21.863"	"18.628"
"1958"	"18.144"	"19.213"	"24.325"	"29.942"	"31.514"	"31.626"	"29.659"	"28.473"	"28.761"	"27.565"	"22.769"	"18.683"
"1959"	"16.847"	"18.639"	"23.843"	"29.235"	"30.523"	"29.921"	"29.359"	"29.653"	"28.348"	"26.261"	"21.786"	"18.369"
"1960"	"16.311"	"21.24"	"22.955"	"29.524"	"31.232"	"30.409"	"28.763"	"29.757"	"28.331"	"26.97"	"21.675"	"18.983"
"1961"	"17.688"	"18.076"	"24.565"	"29.261"	"31.231"	"29.856"	"29.3"	"29.571"	"28.643"	"26.765"	"21.189"	"15.381"
"1962"	"15.587"	"19.245"	"23.873"	"29.066"	"30.005"	"29.93"	"29.361"	"27.989"	"28.354"	"26.352"	"21.684"	"17.579"
"1963"	"15.78"	"19.667"	"23.439"	"27.539"	"29.042"	"30.05"	"28.959"	"28.867"	"28.263"	"27.025"	"22.209"	"18.858"
"1964"	"16.094"	"19.058"	"25.025"	"29.256"	"29.12"	"30.994"	"28.46"	"29.157"	"28.659"	"27.942"	"22.289"	"17.883"
"1965"	"17.174"	"19.04"	"22.763"	"27.947"	"31.006"	"30.691"	"28.46"	"28.364"	"27.947"	"26.747"	"21.93"	"16.717"
"1966"	"16.819"	"20.188"	"24.765"	"29.557"	"31.391"	"30.906"	"29.061"	"28.381"	"28.34"	"25.732"	"22.533"	"18.088"
"1967"	"16.871"	"19.86"	"22.654"	"26.914"	"30.281"	"30.399"	"28.979"	"28.97"	"28.652"	"26.018"	"20.755"	"18.358"
"1968"	"15.961"	"17.761"	"23.953"	"28.43"	"30.805"	"28.956"	"28.674"	"28.97"	"29.241"	"26.038"	"22.179"	"17.476"
"1969"	"15.756"	"19.391"	"25.624"	"29.106"	"29.614"	"30.402"	"28.952"	"28.274"	"28.24"	"26.729"	"23.171"	"17.988"
"1970"	"16.38"	"18.255"	"23.914"	"29.416"	"31.316"	"29.627"	"28.964"	"28.977"	"28.463"	"27.117"	"21.517"	"17.488"
"1971"	"16.213"	"17.24"	"23.36"	"26.152"	"27.842"	"28.741"	"27.852"	"27.371"	"28.257"	"26.381"	"20.767"	"17.694"
"1972"	"16.486"	"17.01"	"23.986"	"27.827"	"31.243"	"29.905"	"28.885"	"28.775"	"26.954"	"25.68"	"20.732"	"17.179"
"1973"	"16.474"	"18.87"	"22.539"	"28.84"	"29.157"	"28.638"	"28.858"	"28.856"	"28.444"	"26.584"	"21.478"	"17.681"
"1974"	"15.726"	"18.491"	"23.427"	"28.848"	"29.328"	"29.822"	"28.153"	"28.378"	"28.346"	"27.772"	"21.273"	"15.836"
"1975"	"16.066"	"18.583"	"23.749"	"28.853"	"29.937"	"29.743"	"27.371"	"28.74"	"28.026"	"27.572"	"21.835"	"17.182"
"1976"	"16.349"	"19.475"	"24.362"	"28.429"	"29.021"	"29.666"	"28.663"	"28.287"	"28.025"	"26.753"	"23.351"	"17.594"
"1977"	"16.199"	"19.085"	"25.395"	"27.971"	"27.228"	"28.919"	"28.634"	"29.067"	"29.032"	"25.76"	"22.957"	"16.74"
"1978"	"14.863"	"17.962"	"22.451"	"27.161"	"29.496"	"29.132"	"28.546"	"28.725"	"28.356"	"26.453"	"22.714"	"17.982"
"1979"	"16.988"	"17.393"	"23.843"	"28.845"	"31.376"	"30.519"	"28.966"	"30.232"	"28.161"	"26.883"	"23.785"	"18.419"
"1980"	"16.374"	"18.975"	"23.777"	"30.143"	"29.493"	"29.868"	"29.275"	"28.805"	"28.461"	"26.082"	"22.18"	"18.523"
"1981"	"15.561"	"18.862"	"23.07"	"26.184"	"28.028"	"29.832"	"28.48"	"29.098"	"28.443"	"26.772"	"21.483"	"17.285"
"1982"	"17.172"	"18.373"	"22.193"	"28.12"	"31.335"	"29.829"	"30.287"	"29.188"	"28.985"	"26.337"	"22.055"	"17.05"
"1983"	"15.874"	"18.656"	"23.595"	"27.299"	"28.938"	"30.905"	"29.592"	"29.37"	"29.433"	"26.773"	"21.542"	"17.662"
"1984"	"15.95"	"18.013"	"24.862"	"29.124"	"31.14"	"29.323"	"28.558"	"28.539"	"28.13"	"27.774"	"20.768"	"18.09"
"1985"	"16.663"	"18.524"	"25.759"	"29.33"	"29.134"	"30.532"	"27.938"	"28.989"	"28.244"	"26.582"	"22.062"	"18.993"
"1986"	"16.685"	"18.476"	"23.544"	"27.934"	"28.2"	"30.555"	"28.736"	"28.48"	"27.61"	"25.656"	"22.725"	"17.279"
"1987"	"16.366"	"19.805"	"23.765"	"27.837"	"29.568"	"30.752"	"28.875"	"27.891"	"28.828"	"26.923"	"22.339"	"18.95"
"1988"	"17.67"	"19.585"	"23.767"	"29.029"	"30.424"	"29.415"	"28.853"	"28.807"	"29.737"	"28.128"	"22.538"	"19.137"
"1989"	"15.95"	"19.248"	"24.366"	"29.324"	"30.513"	"29.316"	"29.071"	"28.392"	"29.26"	"27.926"	"22.168"	"17.102"
"1990"	"17.072"	"18.908"	"22.642"	"28.387"	"28.963"	"30.417"	"28.865"	"28.997"	"29.109"	"26.429"	"23.078"	"18.483"
"1991"	"16.409"	"19.819"	"24.539"	"28.266"	"30.947"	"29.127"	"29.186"	"28.76"	"28.716"	"27.45"	"22.596"	"17.57"
"1992"	"15.41"	"16.777"	"25.474"	"29.304"	"28.82"	"30.233"	"28.536"	"28.598"	"29.042"	"27.233"	"22.167"	"17.57"
"1993"	"16.754"	"20.658"	"22.745"	"27.344"	"29.19"	"29.823"	"29.547"	"28.301"	"28.634"	"27.358"	"22.892"	"19.091"
"1994"	"17.276"	"18.055"	"24.85"	"28.034"	"30.222"	"30.338"	"29.586"	"28.773"	"29.059"	"26.839"	"22.346"	"17.849"
"1995"	"14.567"	"20.792"	"24.258"	"28.626"	"31.449"	"30.224"	"28.569"	"28.385"	"28.946"	"27.169"	"22.856"	"18.97"
"1996"	"16.344"	"19.162"	"25.025"	"28.143"	"30.329"	"29.341"	"28.764"	"27.798"	"29.242"	"26.947"	"23.055"	"19.179"
"1997"	"15.392"	"17.662"	"24.372"	"28.816"	"29.439"	"30.13"	"28.865"	"29.187"	"27.943"	"25.762"	"22.361"	"17.874"
"1998"	"16.376"	"19.571"	"23.066"	"28.163"	"30.63"	"31.399"	"28.964"	"29.077"	"29.059"	"29.06"	"23.169"	"18.791"
"1999"	"17.486"	"20.087"	"24.874"	"31.155"	"30.806"	"30.044"	"28.676"	"28.773"	"28.657"	"27.573"	"23.186"	"18.785"
"2000"	"17.446"	"18.393"	"23.726"	"28.724"	"29.922"	"30.254"	"29.168"	"28.771"	"28.145"	"27.551"	"23.661"	"18.473"
"2001"	"17.362"	"19.481"	"23.572"	"29.237"	"30.838"	"29.842"	"29.193"	"29.368"	"29.428"	"28.06"	"24.071"	"19.651"
"2002"	"16.374"	"20.071"	"25.139"	"28.537"	"30.329"	"30.73"	"29.851"	"28.773"	"28.475"	"26.955"	"22.685"	"19.074"
