
"Year"	"Jan"	"Feb"	"Mar"	"Apr"	"May"	"Jun"	"Jul"	"Aug"	"Sep"	"Oct"	"Nov"	"Dec"
"1901"	"34.805"	"15.781"	"65.618"	"297.697"	"279.922"	"601.797"	"374.978"	"355.118"	"290.549"	"271.298"	"202.241"	"3.15"
"1902"	"5.914"	"16.404"	"59.727"	"302.623"	"288.555"	"697.052"	"598.701"	"476.104"	"345.138"	"71.152"	"16.822"	"2.095"
"1903"	"11.164"	"28.236"	"112.98"	"214.888"	"246.29"	"704.555"	"391.034"	"592.123"	"161.519"	"134.345"	"139.925"	"2.819"
"1904"	"14.294"	"91.566"	"96.586"	"598.841"	"365.532"	"366.704"	"373.793"	"450.792"	"179.95"	"97.775"	"78.252"	"2.915"
"1905"	"14.483"	"20.338"	"399.974"	"162.957"	"369.497"	"504.292"	"447.79"	"680.389"	"298.764"	"359.067"	"39.469"	"18.398"
"1906"	"14.548"	"109.978"	"89.738"	"367.807"	"211.494"	"415.07"	"630.131"	"622.744"	"244.988"	"142.688"	"58.802"	"0"
"1907"	"27.309"	"99.244"	"154.223"	"250.939"	"160.067"	"560.811"	"544.635"	"333.654"	"241.179"	"72.616"	"10.325"	"8.114"
"1908"	"14.551"	"26.29"	"24.026"	"243.338"	"342.15"	"594.028"	"503.256"	"237.149"	"351.051"	"120.747"	"12.506"	"3.117"
"1909"	"23.637"	"19.654"	"7.958"	"203.531"	"465.724"	"662.844"	"328.412"	"458.651"	"140.826"	"153.062"	"37.157"	"5.5"
"1910"	"9.939"	"50.701"	"233.674"	"227.768"	"312.144"	"789.685"	"634.837"	"472.977"	"184.32"	"225.224"	"57.819"	"6.361"
"1911"	"43.724"	"33.21"	"86.477"	"327.715"	"629.343"	"801.861"	"460.857"	"442.497"	"340.464"	"453.016"	"25.254"	"2.195"
"1912"	"9.463"	"86.568"	"119.173"	"209.341"	"189.434"	"485.586"	"402.727"	"384.478"	"255.292"	"340.417"	"142.969"	"22.395"
"1913"	"9.451"	"93.7"	"107.594"	"348.833"	"405.204"	"509.614"	"354.91"	"370.634"	"226.919"	"283.747"	"21.508"	"18.295"
"1914"	"1.527"	"77.958"	"84.267"	"134.485"	"371.079"	"620.739"	"371.366"	"593.692"	"152.853"	"81.313"	"8.751"	"17.99"
"1915"	"9.395"	"66.009"	"107.105"	"164.672"	"888.733"	"425.033"	"617.87"	"521.648"	"200.328"	"164.823"	"22.827"	"2.804"
"1916"	"9.746"	"23.111"	"147.211"	"297.578"	"650.568"	"449.639"	"399.519"	"442.144"	"265.318"	"435.358"	"167.786"	"6.513"
"1917"	"1.568"	"112.538"	"39.877"	"147.849"	"359.569"	"588.926"	"427.602"	"357.102"	"194.307"	"237.373"	"193.386"	"2.939"
"1918"	"3.794"	"7.952"	"137.03"	"126.759"	"418.586"	"852.83"	"559.797"	"543.034"	"320.02"	"108.188"	"2.575"	"1.067"
"1919"	"14.835"	"7.718"	"10.293"	"113.774"	"330.442"	"516.209"	"470.333"	"259.627"	"361.817"	"360.474"	"89.728"	"2.957"
"1920"	"1.624"	"41.055"	"237.462"	"147.115"	"393.427"	"451.113"	"280.711"	"551.377"	"364.574"	"107.311"	"3.654"	"0.709"
"1921"	"35.677"	"11.329"	"113.484"	"205.162"	"728.347"	"613.032"	"610.635"	"437.06"	"297.32"	"138.807"	"12.62"	"0.425"
"1922"	"9.541"	"2.081"	"108.829"	"347.884"	"219.574"	"673.262"	"443.163"	"367.885"	"170.648"	"372.01"	"23.109"	"9.846"
"1923"	"2.093"	"107.469"	"14.395"	"266.545"	"430.88"	"753.96"	"379.471"	"270.502"	"199.893"	"81.253"	"7.152"	"2.678"
"1924"	"8.386"	"19.077"	"26.38"	"277.701"	"246.704"	"671.623"	"626.006"	"492.372"	"344.173"	"133.78"	"213.081"	"0.295"
"1925"	"26.43"	"41.458"	"86.44"	"295.889"	"583.813"	"318.459"	"422.894"	"362.14"	"270.471"	"115.476"	"14.831"	"3.337"
"1926"	"26.961"	"31.301"	"123.996"	"119.21"	"178.19"	"704.977"	"558.358"	"311.941"	"218.961"	"274.993"	"25.217"	"20.028"
"1927"	"39.108"	"55.045"	"85.269"	"334.008"	"283.92"	"619.635"	"422.695"	"297.52"	"591.723"	"365.027"	"37.142"	"0"
"1928"	"5.568"	"30.898"	"91.329"	"83.59"	"408.346"	"514.658"	"546.977"	"332.95"	"312.098"	"389.974"	"16.087"	"0"
"1929"	"18.516"	"4.219"	"55.788"	"348.249"	"797.689"	"634.422"	"392.47"	"315.874"	"272.982"	"112.474"	"37.764"	"8.374"
"1930"	"19.995"	"33.422"	"84.448"	"207.779"	"255.08"	"760.908"	"216.102"	"502.225"	"296.514"	"239.191"	"215.384"	"2.744"
"1931"	"3.36"	"36.36"	"40.18"	"418.621"	"351.811"	"798.229"	"638.82"	"212.716"	"218.523"	"95.753"	"19.118"	"13.15"
"1932"	"7.248"	"36.451"	"42.959"	"128.291"	"793.297"	"596.354"	"426.225"	"634.037"	"239.005"	"74.837"	"176.96"	"2.81"
"1933"	"3.486"	"21.899"	"29.797"	"205.146"	"358.284"	"523.301"	"409.28"	"419.262"	"174.32"	"69.895"	"6.851"	"0.525"
"1934"	"24.662"	"86.986"	"22.433"	"306.101"	"350.826"	"960.355"	"602.975"	"344.783"	"249.576"	"427.304"	"53.213"	"4.723"
"1935"	"1.68"	"49.469"	"56.778"	"95.775"	"386.098"	"742.804"	"316.38"	"746.064"	"295.385"	"61.577"	"12.992"	"2.588"
"1936"	"17.505"	"63.233"	"59.039"	"191.703"	"458.621"	"430.053"	"478.687"	"307.481"	"319.074"	"295.779"	"5.493"	"16.646"
"1937"	"0.337"	"38.739"	"35.719"	"89.276"	"467.147"	"485.112"	"459.107"	"506.421"	"172.414"	"74.503"	"4.125"	"6.875"
"1938"	"41.163"	"18.138"	"134.918"	"177.38"	"429.269"	"840.077"	"523.304"	"559.355"	"513.372"	"176.619"	"91.843"	"1.661"
"1939"	"2.232"	"41.01"	"25.28"	"206.993"	"370.171"	"744.909"	"510.117"	"295.755"	"357.084"	"192.322"	"14.329"	"2.453"
"1940"	"0.916"	"85.934"	"292.336"	"44.139"	"470.199"	"541.801"	"408.136"	"315.176"	"426.296"	"140.765"	"11.387"	"13.206"
"1941"	"4.654"	"56.724"	"121.117"	"172.915"	"508.672"	"632.904"	"383.445"	"348.698"	"400.898"	"180.351"	"8.027"	"4.887"
"1942"	"22.64"	"27.158"	"206.699"	"178.765"	"542.93"	"891.298"	"268.822"	"376.733"	"361.74"	"22.921"	"22.899"	"0.223"
"1943"	"20.665"	"67.035"	"152.425"	"164.665"	"497.553"	"564.66"	"392.772"	"422.034"	"382.992"	"75.543"	"15.453"	"2.135"
"1944"	"46.463"	"19.69"	"65.646"	"97.718"	"780.864"	"539.17"	"338.647"	"320.011"	"358.717"	"171.449"	"19.487"	"14.586"
"1945"	"38.722"	"43.101"	"143.144"	"130.266"	"332.446"	"628.791"	"514.126"	"503.628"	"209.524"	"214.223"	"0.499"	"6.692"
"1946"	"2.98"	"44.165"	"109.903"	"163.54"	"336.21"	"584.967"	"511.56"	"388.506"	"272.708"	"449.763"	"10.286"	"0.161"
"1947"	"10.065"	"15.706"	"70.443"	"382.451"	"435.268"	"604.958"	"579.708"	"461.13"	"618.713"	"490.395"	"13.755"	"43.056"
"1948"	"10.046"	"107.656"	"99.049"	"417.164"	"682.95"	"518.65"	"600.12"	"398.668"	"240.71"	"185.442"	"32.904"	"4.403"
"1949"	"54.22"	"25.201"	"229.254"	"382.599"	"333.256"	"719.234"	"514.782"	"404.208"	"457.076"	"200.242"	"33.688"	"9.021"
"1950"	"7.639"	"77.836"	"97.52"	"130.951"	"238.729"	"598.758"	"405.71"	"455.603"	"272.105"	"282.615"	"87.908"	"4.875"
"1951"	"3.698"	"4.222"	"99.767"	"316.135"	"352.441"	"846.74"	"793.925"	"482.681"	"366.439"	"370.795"	"78.08"	"19.028"
"1952"	"21.137"	"4.225"	"100.444"	"538.946"	"327.4"	"953.801"	"658.323"	"463.134"	"578.806"	"397.262"	"121.497"	"1.03"
"1953"	"10.058"	"12.257"	"152.491"	"87.546"	"501.444"	"840.717"	"678.717"	"364.528"	"440.661"	"233.054"	"6.741"	"1.833"
"1954"	"16.663"	"92.933"	"147.07"	"227.992"	"400.836"	"1095.866"	"502.219"	"437.018"	"334.223"	"283.053"	"1.101"	"12.758"
"1955"	"3.082"	"12.345"	"249.823"	"116.224"	"345.302"	"477.116"	"804.758"	"373.898"	"248.906"	"124.086"	"121.92"	"4.221"
"1956"	"27.851"	"6.114"	"219.149"	"174.837"	"511.573"	"909.776"	"441.083"	"364.933"	"361.75"	"191.695"	"60.51"	"3.169"
"1957"	"50.527"	"97.163"	"33.734"	"157.047"	"399.939"	"631.908"	"479.859"	"635.789"	"362.169"	"83.98"	"21.985"	"8.648"
"1958"	"10.362"	"144.612"	"83.003"	"179.139"	"536.844"	"397.637"	"438.873"	"725.435"	"272.35"	"329.949"	"3.911"	"5.333"
"1959"	"37.826"	"114.268"	"328.127"	"193.205"	"576.159"	"825"	"457.949"	"491.773"	"248.121"	"339.839"	"15.858"	"6.689"
"1960"	"0.247"	"7.972"	"75.213"	"83.093"	"325.321"	"530.69"	"700.948"	"375.767"	"403.713"	"126.244"	"55.338"	"5.233"
"1961"	"8.149"	"26.359"	"142.957"	"218.555"	"240.893"	"685.582"	"465.944"	"519.297"	"191.252"	"211.649"	"22.08"	"5.006"
"1962"	"21.691"	"70.374"	"6.616"	"148.276"	"268.209"	"630.815"	"446.85"	"381.122"	"121.362"	"207.64"	"11.173"	"4.061"
"1963"	"0.904"	"18.121"	"127.77"	"280.557"	"324.934"	"592.783"	"429.208"	"377.805"	"238.907"	"170.699"	"17.688"	"2.162"
"1964"	"40.017"	"58.687"	"139.269"	"321.085"	"328.513"	"733.973"	"851.769"	"432.876"	"401.758"	"444.928"	"24.217"	"11.892"
"1965"	"2.486"	"27.998"	"56.761"	"87.429"	"132.352"	"886.295"	"609.9"	"681.951"	"300.531"	"94.221"	"146.162"	"43.686"
"1966"	"24.222"	"7.433"	"69.293"	"113.68"	"254.615"	"915.084"	"432.956"	"481.553"	"440.57"	"275.97"	"46.742"	"63.94"
"1967"	"65.901"	"5.445"	"205.358"	"226.337"	"226.624"	"375.41"	"415.528"	"358.629"	"424.425"	"164.747"	"6.49"	"1.144"
"1968"	"28.822"	"28.019"	"109.971"	"247.983"	"459.097"	"515.025"	"764.254"	"593.035"	"265.612"	"85.216"	"25.579"	"0.37"
"1969"	"15.254"	"1.053"	"161.423"	"307.908"	"333.41"	"846.77"	"616.32"	"560.06"	"297.908"	"72.643"	"29.99"	"1.355"
"1970"	"44.878"	"34.733"	"183.794"	"234.832"	"401.212"	"289.53"	"604.824"	"337.498"	"149.462"	"285.668"	"67.981"	"2.384"
"1971"	"18.1"	"24.551"	"14.188"	"98.256"	"156.148"	"334.783"	"437.638"	"365.442"	"225.169"	"283.56"	"81.613"	"6.455"
"1972"	"10.977"	"61.38"	"78.281"	"259.123"	"301.145"	"494.071"	"374.6"	"350.328"	"97.278"	"67.422"	"6.07"	"3.578"
"1973"	"23.663"	"52.874"	"105.387"	"206.294"	"481.861"	"822.264"	"370.863"	"252.593"	"262.53"	"191.089"	"155.092"	"6.865"
"1974"	"13.077"	"6.467"	"200.719"	"383.349"	"292.895"	"640.251"	"831.8"	"369.35"	"441.979"	"322.045"	"64.449"	"1.254"
"1975"	"4.678"	"71.877"	"41.917"	"164.028"	"336.717"	"379.653"	"555.274"	"307.4"	"271.752"	"189.996"	"115.503"	"4.673"
"1976"	"3.03"	"40.333"	"159.519"	"159.664"	"268.307"	"720.507"	"647.686"	"393.153"	"64.146"	"94.32"	"29.371"	"1.98"
"1977"	"6.689"	"124.546"	"62.429"	"550.452"	"407.43"	"627.626"	"545.635"	"310.039"	"194.13"	"174.809"	"48.73"	"25.8"
"1978"	"0.747"	"5.641"	"36.886"	"149.094"	"481.72"	"578.98"	"409.642"	"202.008"	"217.156"	"64.605"	"18.169"	"0.771"
"1979"	"14.354"	"13.382"	"88.206"	"53.028"	"190.329"	"319.704"	"327.965"	"446.702"	"363.111"	"247.234"	"31.516"	"40.527"
"1980"	"4.496"	"25.193"	"166.093"	"231.121"	"426.795"	"352.328"	"532.451"	"479.98"	"275.61"	"228.08"	"0.499"	"4.599"
"1981"	"33.163"	"34.312"	"239.703"	"525.93"	"527.962"	"540.718"	"587.931"	"367.461"	"227.445"	"46.001"	"9.434"	"69.838"
"1982"	"0.482"	"41.353"	"42.584"	"377.989"	"259.581"	"711.674"	"315.345"	"506.324"	"253.685"	"27.847"	"85.359"	"9.981"
"1983"	"15.482"	"58.913"	"214.31"	"195.183"	"322.547"	"442.458"	"552.857"	"496.567"	"407.824"	"219.331"	"25.672"	"51.957"
"1984"	"24.169"	"11.201"	"28.543"	"233.27"	"685.974"	"610.833"	"493.164"	"408.096"	"414.934"	"213.108"	"0.594"	"19.88"
"1985"	"8.002"	"17.954"	"206.662"	"298.288"	"194.852"	"573.717"	"368.803"	"351.534"	"284.367"	"65.243"	"10.075"	"4.492"
"1986"	"10.353"	"9.514"	"34.688"	"360.538"	"95.338"	"275.094"	"501.325"	"290.763"	"366.334"	"253.425"	"119.792"	"4.376"
"1987"	"2.27"	"15.315"	"146.31"	"318.483"	"183.593"	"286.212"	"530.55"	"366.473"	"414.606"	"138.299"	"51.89"	"36.445"
"1988"	"3.527"	"34.772"	"114.976"	"97.198"	"608.773"	"472.314"	"562.589"	"529.269"	"286.043"	"281.851"	"61.692"	"3.63"
"1989"	"3.262"	"49.303"	"62.975"	"150.759"	"302.958"	"496.933"	"465.322"	"188.46"	"305.463"	"335.673"	"17.878"	"6.132"
"1990"	"5.825"	"77.854"	"214.664"	"369.252"	"291.042"	"444.364"	"475.836"	"186.334"	"479.074"	"133.591"	"35.35"	"7.343"
"1991"	"23.544"	"52.878"	"115.725"	"114.994"	"625.196"	"404.801"	"359.53"	"423.905"	"269.198"	"516.864"	"18.443"	"42.36"
"1992"	"13.85"	"70.207"	"79.623"	"152.409"	"353.464"	"399.089"	"636.515"	"535.705"	"290.961"	"176.455"	"11.881"	"24.05"
"1993"	"58.108"	"97.717"	"146.129"	"129.762"	"404.982"	"735.605"	"609.052"	"474.472"	"361.01"	"80.494"	"7.238"	"0"
"1994"	"22.025"	"67.891"	"281.372"	"212.96"	"246.157"	"601.679"	"344.055"	"465.565"	"192.888"	"35.971"	"25.201"	"7.76"
"1995"	"23.789"	"43.101"	"43.917"	"119.961"	"357.065"	"610.486"	"523.434"	"332.839"	"319.616"	"70.934"	"160.603"	"0.52"
"1996"	"2.982"	"35.561"	"211.972"	"233.831"	"528.435"	"374.354"	"546.404"	"446.252"	"204.996"	"140.129"	"10.811"	"2.774"
"1997"	"9.157"	"21.531"	"110.361"	"127.575"	"246.672"	"402.372"	"582.269"	"343.14"	"412.989"	"51.128"	"17.993"	"42.737"
"1998"	"19.154"	"65.264"	"208.069"	"202.39"	"469.62"	"363.444"	"584.07"	"498.933"	"157.835"	"75.224"	"134.249"	"0"
"1999"	"4.814"	"2.984"	"32.844"	"90.876"	"469.062"	"322.215"	"545.997"	"399.652"	"164.072"	"227.873"	"30.627"	"4.742"
"2000"	"25.074"	"43.927"	"113.302"	"378.416"	"525.086"	"205.947"	"321.323"	"552.239"	"261.819"	"117.602"	"6.494"	"5.702"
"2001"	"4.086"	"24.384"	"115.46"	"234.986"	"433.166"	"526.242"	"413.329"	"554.889"	"280.126"	"231.665"	"39.775"	"1.014"
"2002"	"44.367"	"4.797"	"110.644"	"381.314"	"379.04"	"750.421"	"611.221"	"337.492"	"223.965"	"98.924"	"41.951"	"3.621"
