
"Year"	"Jan"	"Feb"	"Mar"	"Apr"	"May"	"Jun"	"Jul"	"Aug"	"Sep"	"Oct"	"Nov"	"Dec"
"1901"	"10.403"	"10.76"	"10.879"	"11.475"	"11.316"	"10.959"	"10.681"	"10.8"	"10.8"	"10.681"	"10.443"	"10.244"
"1902"	"10.006"	"10.522"	"11.237"	"11.554"	"11.594"	"11.197"	"10.641"	"10.959"	"10.72"	"10.601"	"10.482"	"10.363"
"1903"	"10.601"	"10.84"	"11.157"	"11.634"	"11.316"	"11.038"	"10.681"	"10.76"	"10.641"	"10.681"	"10.363"	"10.006"
"1904"	"10.006"	"10.204"	"10.84"	"11.356"	"11.316"	"10.482"	"10.522"	"10.641"	"10.641"	"10.76"	"10.482"	"10.125"
"1905"	"10.244"	"10.522"	"11.118"	"11.197"	"11.237"	"10.84"	"10.76"	"10.76"	"10.84"	"10.601"	"10.522"	"10.244"
"1906"	"10.363"	"10.8"	"11.237"	"11.832"	"11.356"	"10.919"	"10.522"	"10.562"	"10.8"	"10.601"	"10.323"	"10.085"
"1907"	"10.125"	"10.443"	"11.078"	"11.237"	"11.395"	"10.879"	"10.562"	"10.403"	"10.72"	"10.562"	"10.284"	"10.085"
"1908"	"10.204"	"10.284"	"10.959"	"11.395"	"11.237"	"10.681"	"10.363"	"10.601"	"10.601"	"10.562"	"10.204"	"10.085"
"1909"	"10.085"	"10.363"	"10.919"	"11.395"	"11.157"	"10.84"	"10.641"	"10.522"	"10.562"	"10.641"	"10.284"	"10.165"
"1910"	"10.244"	"10.482"	"10.998"	"11.316"	"11.316"	"10.76"	"10.482"	"10.522"	"10.522"	"10.482"	"10.443"	"10.045"
"1911"	"10.244"	"10.323"	"11.118"	"11.435"	"11.594"	"10.84"	"10.522"	"10.72"	"10.84"	"10.641"	"10.522"	"10.244"
"1912"	"10.006"	"10.72"	"11.237"	"11.594"	"11.356"	"10.76"	"10.681"	"10.641"	"10.8"	"10.641"	"10.363"	"10.045"
"1913"	"10.085"	"10.601"	"11.078"	"11.515"	"11.515"	"10.998"	"10.601"	"10.72"	"10.8"	"10.601"	"10.443"	"10.284"
"1914"	"10.284"	"10.522"	"11.197"	"11.713"	"11.356"	"10.998"	"10.76"	"10.72"	"10.919"	"10.681"	"10.641"	"10.244"
"1915"	"10.443"	"10.72"	"11.197"	"11.554"	"11.515"	"11.237"	"10.562"	"10.84"	"10.8"	"10.76"	"10.482"	"10.244"
"1916"	"10.244"	"10.562"	"11.237"	"11.713"	"11.475"	"10.72"	"10.641"	"10.76"	"10.601"	"10.482"	"10.363"	"9.926"
"1917"	"10.125"	"10.482"	"10.76"	"11.435"	"11.237"	"10.76"	"10.8"	"10.72"	"10.562"	"10.403"	"10.244"	"9.926"
"1918"	"9.926"	"10.045"	"10.84"	"11.395"	"10.879"	"10.8"	"10.8"	"10.76"	"10.76"	"10.76"	"10.641"	"10.125"
"1919"	"10.482"	"10.72"	"10.998"	"11.673"	"11.356"	"10.84"	"10.601"	"10.641"	"10.72"	"10.76"	"10.323"	"10.244"
"1920"	"10.204"	"10.641"	"11.237"	"11.237"	"11.395"	"10.72"	"10.601"	"10.601"	"10.681"	"10.641"	"10.244"	"10.085"
"1921"	"10.482"	"10.363"	"11.197"	"11.276"	"11.515"	"11.078"	"10.72"	"10.72"	"10.8"	"10.641"	"10.443"	"10.006"
"1922"	"10.204"	"10.443"	"11.038"	"11.395"	"11.078"	"10.879"	"10.443"	"10.641"	"10.641"	"10.562"	"10.204"	"9.926"
"1923"	"10.165"	"10.323"	"10.919"	"11.594"	"11.276"	"10.8"	"10.522"	"10.522"	"10.681"	"10.641"	"10.482"	"10.204"
"1924"	"10.204"	"10.641"	"11.038"	"11.435"	"11.356"	"10.76"	"10.482"	"10.72"	"10.76"	"10.601"	"10.403"	"10.045"
"1925"	"10.125"	"10.443"	"10.84"	"11.395"	"11.157"	"10.879"	"10.681"	"10.641"	"10.879"	"10.76"	"10.363"	"10.204"
"1926"	"10.284"	"10.522"	"11.237"	"11.594"	"11.356"	"11.038"	"10.8"	"10.919"	"10.84"	"10.72"	"10.522"	"10.323"
"1927"	"10.323"	"10.72"	"10.998"	"11.395"	"11.038"	"10.681"	"10.482"	"10.8"	"10.681"	"10.681"	"10.482"	"10.443"
"1928"	"10.403"	"10.601"	"11.038"	"11.475"	"11.634"	"11.078"	"10.879"	"10.72"	"10.879"	"10.641"	"10.522"	"10.284"
"1929"	"10.244"	"10.562"	"11.078"	"11.118"	"11.316"	"10.72"	"10.681"	"10.76"	"10.76"	"10.601"	"10.522"	"10.244"
"1930"	"10.244"	"10.641"	"11.038"	"11.435"	"11.038"	"10.879"	"10.879"	"10.8"	"10.72"	"10.601"	"10.601"	"10.403"
"1931"	"10.443"	"10.76"	"11.316"	"11.435"	"11.594"	"11.078"	"10.76"	"10.641"	"10.681"	"10.8"	"10.522"	"10.323"
"1932"	"10.165"	"10.244"	"10.919"	"11.237"	"11.038"	"10.998"	"10.681"	"10.72"	"10.681"	"10.443"	"10.284"	"10.085"
"1933"	"10.522"	"10.601"	"11.078"	"11.316"	"10.879"	"10.681"	"10.562"	"10.482"	"10.482"	"10.403"	"10.403"	"10.284"
"1934"	"10.204"	"10.323"	"10.76"	"11.356"	"11.435"	"10.8"	"10.76"	"10.84"	"10.84"	"10.641"	"10.363"	"10.244"
"1935"	"10.443"	"10.482"	"11.118"	"11.316"	"11.634"	"10.998"	"10.641"	"10.522"	"10.601"	"10.641"	"10.363"	"10.244"
"1936"	"10.323"	"10.72"	"11.157"	"11.554"	"11.316"	"10.8"	"10.641"	"10.641"	"10.879"	"10.76"	"10.522"	"10.443"
"1937"	"10.443"	"10.8"	"11.118"	"11.395"	"11.594"	"10.919"	"10.562"	"10.998"	"10.998"	"10.681"	"10.482"	"10.165"
"1938"	"10.562"	"10.641"	"11.118"	"11.237"	"11.475"	"10.8"	"10.601"	"10.76"	"10.72"	"10.601"	"10.443"	"10.443"
"1939"	"10.244"	"10.562"	"11.118"	"11.276"	"11.316"	"10.76"	"10.641"	"10.641"	"10.879"	"10.8"	"10.284"	"10.323"
"1940"	"10.085"	"10.641"	"11.276"	"11.435"	"11.395"	"10.998"	"10.72"	"10.562"	"10.998"	"10.8"	"10.562"	"10.323"
"1941"	"10.601"	"10.8"	"11.316"	"11.634"	"11.594"	"10.959"	"10.879"	"10.84"	"10.8"	"10.84"	"10.641"	"10.363"
"1942"	"10.403"	"10.8"	"11.197"	"11.395"	"11.475"	"10.919"	"10.641"	"10.641"	"10.76"	"10.681"	"10.482"	"10.204"
"1943"	"10.284"	"10.482"	"10.959"	"11.157"	"11.157"	"10.522"	"10.403"	"10.522"	"10.562"	"10.363"	"10.284"	"10.323"
"1944"	"10.323"	"10.601"	"10.919"	"11.356"	"11.356"	"10.879"	"10.76"	"10.919"	"10.84"	"10.8"	"10.403"	"10.085"
"1945"	"10.204"	"10.601"	"11.157"	"11.276"	"11.634"	"10.998"	"10.641"	"10.72"	"10.84"	"10.681"	"10.443"	"10.085"
"1946"	"9.966"	"10.562"	"10.919"	"11.356"	"11.554"	"10.959"	"10.76"	"10.641"	"10.76"	"10.72"	"10.443"	"10.125"
"1947"	"10.403"	"10.522"	"11.038"	"11.157"	"11.475"	"10.919"	"10.8"	"10.562"	"10.522"	"10.482"	"10.601"	"10.363"
"1948"	"10.562"	"10.641"	"11.118"	"11.395"	"11.356"	"10.8"	"10.641"	"10.601"	"10.76"	"10.681"	"10.601"	"10.323"
"1949"	"10.244"	"10.522"	"11.197"	"11.356"	"11.276"	"10.8"	"10.641"	"10.76"	"10.641"	"10.681"	"10.522"	"10.284"
"1950"	"10.244"	"10.562"	"11.197"	"11.316"	"11.554"	"10.76"	"10.562"	"10.601"	"10.522"	"10.482"	"10.403"	"10.284"
"1951"	"10.323"	"10.363"	"11.078"	"11.237"	"11.435"	"10.562"	"10.641"	"10.879"	"10.84"	"10.84"	"10.443"	"10.244"
"1952"	"10.403"	"10.72"	"11.157"	"11.395"	"11.435"	"10.84"	"10.72"	"10.641"	"10.84"	"10.522"	"10.443"	"10.284"
"1953"	"10.323"	"10.403"	"11.276"	"11.356"	"11.713"	"11.157"	"10.522"	"10.879"	"10.8"	"10.641"	"10.482"	"10.284"
"1954"	"10.443"	"10.681"	"10.959"	"11.515"	"11.435"	"10.879"	"10.562"	"10.601"	"10.681"	"10.482"	"10.482"	"10.323"
"1955"	"10.482"	"10.72"	"11.157"	"11.276"	"10.919"	"10.482"	"10.601"	"10.72"	"10.72"	"10.601"	"10.323"	"10.204"
"1956"	"10.165"	"10.522"	"11.197"	"11.316"	"11.038"	"10.522"	"10.522"	"10.641"	"10.562"	"10.482"	"10.641"	"10.443"
"1957"	"10.403"	"10.681"	"11.078"	"11.515"	"11.276"	"10.879"	"10.76"	"10.72"	"10.84"	"10.76"	"10.641"	"10.522"
"1958"	"10.522"	"10.72"	"11.276"	"11.475"	"11.157"	"10.959"	"10.879"	"10.601"	"10.919"	"10.641"	"10.601"	"10.522"
"1959"	"10.601"	"10.76"	"11.197"	"11.435"	"11.356"	"10.76"	"10.601"	"10.8"	"10.8"	"10.641"	"10.601"	"10.284"
"1960"	"10.482"	"10.72"	"11.038"	"11.197"	"11.078"	"10.919"	"10.681"	"10.72"	"10.522"	"10.601"	"10.204"	"10.403"
"1961"	"10.443"	"10.522"	"11.197"	"11.435"	"11.197"	"10.641"	"10.641"	"10.641"	"10.641"	"10.76"	"10.84"	"10.443"
"1962"	"10.363"	"10.641"	"10.998"	"11.276"	"11.078"	"11.078"	"10.641"	"10.76"	"10.72"	"10.522"	"10.641"	"10.443"
"1963"	"10.284"	"10.522"	"10.919"	"11.316"	"11.435"	"11.038"	"10.8"	"10.8"	"10.8"	"10.681"	"10.562"	"10.323"
"1964"	"10.284"	"10.72"	"11.197"	"11.634"	"11.634"	"11.038"	"10.562"	"10.72"	"10.522"	"10.482"	"10.284"	"10.204"
"1965"	"10.363"	"10.601"	"10.959"	"11.237"	"11.118"	"10.84"	"10.8"	"10.72"	"10.84"	"10.8"	"10.72"	"10.244"
"1966"	"10.522"	"10.919"	"11.197"	"11.435"	"11.515"	"10.84"	"10.72"	"10.879"	"10.72"	"10.641"	"10.601"	"10.363"
"1967"	"10.284"	"10.522"	"10.998"	"11.515"	"11.276"	"10.84"	"10.601"	"10.562"	"10.72"	"10.72"	"10.482"	"10.363"
"1968"	"10.363"	"10.443"	"10.919"	"11.157"	"11.316"	"10.76"	"10.363"	"10.641"	"10.601"	"10.76"	"10.482"	"10.244"
"1969"	"10.363"	"10.601"	"11.276"	"11.594"	"11.316"	"10.84"	"10.562"	"10.72"	"10.76"	"10.641"	"10.562"	"10.323"
"1970"	"10.443"	"10.681"	"11.078"	"11.316"	"11.316"	"10.919"	"10.641"	"10.562"	"10.681"	"10.522"	"10.641"	"10.045"
"1971"	"10.284"	"10.443"	"10.959"	"11.276"	"11.078"	"10.522"	"10.443"	"10.522"	"10.641"	"10.482"	"10.403"	"9.887"
"1972"	"10.045"	"10.443"	"10.879"	"11.435"	"10.919"	"11.118"	"10.681"	"10.8"	"10.919"	"10.522"	"10.562"	"10.562"
"1973"	"10.443"	"10.998"	"11.276"	"11.515"	"11.475"	"10.919"	"10.879"	"10.522"	"10.8"	"10.681"	"10.482"	"10.204"
"1974"	"10.045"	"10.363"	"11.078"	"11.276"	"11.157"	"10.959"	"10.641"	"10.482"	"10.562"	"10.641"	"10.601"	"10.522"
"1975"	"10.244"	"10.72"	"11.078"	"11.395"	"11.157"	"10.522"	"10.681"	"10.482"	"10.522"	"10.482"	"10.403"	"10.125"
"1976"	"10.165"	"10.363"	"10.998"	"11.237"	"11.435"	"11.157"	"10.76"	"10.72"	"10.8"	"10.641"	"10.443"	"10.443"
"1977"	"10.284"	"10.72"	"11.157"	"11.515"	"10.998"	"10.879"	"10.601"	"10.879"	"10.76"	"10.601"	"10.522"	"10.323"
"1978"	"10.363"	"10.72"	"11.157"	"11.554"	"11.157"	"10.8"	"10.601"	"10.482"	"10.72"	"10.681"	"10.482"	"10.482"
"1979"	"10.562"	"10.879"	"11.237"	"11.594"	"11.395"	"11.038"	"10.681"	"10.641"	"10.601"	"10.76"	"10.403"	"10.601"
"1980"	"10.482"	"10.76"	"11.237"	"11.475"	"11.594"	"10.76"	"10.482"	"10.601"	"10.84"	"10.641"	"10.681"	"10.562"
"1981"	"10.482"	"10.641"	"11.276"	"11.515"	"11.435"	"10.443"	"10.601"	"10.601"	"10.522"	"10.681"	"10.363"	"10.363"
"1982"	"10.363"	"10.681"	"11.197"	"11.713"	"11.356"	"10.998"	"10.8"	"10.8"	"11.038"	"10.998"	"10.879"	"10.363"
"1983"	"10.562"	"10.959"	"11.356"	"11.872"	"11.832"	"11.515"	"11.157"	"10.919"	"10.76"	"11.038"	"10.76"	"10.601"
"1984"	"10.601"	"10.681"	"10.998"	"11.237"	"11.634"	"10.8"	"10.681"	"10.879"	"10.8"	"10.601"	"10.76"	"10.443"
"1985"	"10.601"	"10.8"	"11.356"	"11.673"	"11.475"	"10.601"	"10.8"	"10.84"	"10.919"	"10.84"	"10.482"	"10.601"
"1986"	"10.601"	"10.72"	"11.276"	"11.673"	"11.594"	"11.118"	"10.959"	"10.601"	"10.8"	"11.038"	"10.681"	"10.84"
"1987"	"10.8"	"10.8"	"11.356"	"11.713"	"11.753"	"11.197"	"11.276"	"10.998"	"11.237"	"10.919"	"10.919"	"10.681"
"1988"	"10.681"	"11.078"	"11.475"	"11.435"	"11.793"	"11.118"	"10.919"	"10.919"	"10.84"	"11.157"	"10.72"	"10.562"
"1989"	"10.482"	"10.443"	"11.038"	"11.554"	"11.475"	"10.72"	"10.84"	"10.641"	"10.72"	"10.681"	"10.879"	"10.76"
"1990"	"10.363"	"10.959"	"11.395"	"11.872"	"11.435"	"11.038"	"10.76"	"10.76"	"11.118"	"11.078"	"10.76"	"10.879"
"1991"	"10.601"	"10.8"	"11.316"	"11.634"	"11.872"	"10.919"	"10.84"	"10.72"	"11.157"	"10.76"	"10.76"	"10.443"
"1992"	"10.323"	"10.681"	"11.118"	"11.713"	"11.475"	"11.118"	"10.681"	"10.641"	"10.8"	"10.641"	"10.562"	"10.244"
"1993"	"10.284"	"10.641"	"11.237"	"11.594"	"11.594"	"11.118"	"10.562"	"10.8"	"10.998"	"10.482"	"10.522"	"10.323"
"1994"	"10.522"	"10.76"	"11.078"	"11.356"	"11.594"	"10.998"	"10.84"	"10.84"	"11.078"	"10.482"	"10.8"	"10.72"
"1995"	"10.72"	"10.919"	"11.197"	"11.356"	"11.395"	"11.276"	"10.998"	"10.919"	"10.998"	"10.959"	"10.8"	"10.562"
"1996"	"10.562"	"10.72"	"11.237"	"11.356"	"11.713"	"11.118"	"10.879"	"10.8"	"10.8"	"10.84"	"10.76"	"10.482"
"1997"	"10.601"	"10.76"	"11.316"	"11.515"	"11.554"	"11.435"	"11.038"	"10.998"	"10.919"	"10.959"	"10.8"	"10.959"
"1998"	"10.998"	"11.197"	"11.594"	"11.991"	"11.634"	"11.395"	"11.038"	"10.998"	"10.8"	"10.76"	"10.76"	"10.482"
"1999"	"10.443"	"10.8"	"11.356"	"11.395"	"10.998"	"10.919"	"10.879"	"10.959"	"11.118"	"10.681"	"10.84"	"10.641"
"2000"	"10.72"	"10.919"	"11.316"	"11.515"	"11.832"	"11.038"	"11.197"	"10.72"	"10.919"	"10.84"	"10.919"	"10.641"
"2001"	"10.76"	"10.879"	"11.395"	"11.356"	"11.515"	"10.959"	"10.879"	"10.76"	"10.879"	"10.919"	"10.879"	"10.601"
"2002"	"10.681"	"10.76"	"11.237"	"11.515"	"11.475"	"11.316"	"11.237"	"10.84"	"11.078"	"10.8"	"10.681"	"10.601"
