
"Year"	"Jan"	"Feb"	"Mar"	"Apr"	"May"	"Jun"	"Jul"	"Aug"	"Sep"	"Oct"	"Nov"	"Dec"
"1901"	"4.044"	"4.225"	"4.315"	"4.512"	"4.421"	"4.24"	"4.195"	"4.195"	"4.195"	"4.134"	"3.983"	"3.863"
"1902"	"3.878"	"4.044"	"4.346"	"4.527"	"4.512"	"4.3"	"4.134"	"4.27"	"4.119"	"4.104"	"4.044"	"3.999"
"1903"	"4.059"	"4.149"	"4.391"	"4.512"	"4.406"	"4.3"	"4.089"	"4.149"	"4.059"	"4.059"	"3.938"	"3.787"
"1904"	"3.787"	"3.938"	"4.18"	"4.406"	"4.315"	"4.074"	"4.014"	"4.165"	"4.149"	"4.134"	"3.953"	"3.893"
"1905"	"3.893"	"4.074"	"4.3"	"4.406"	"4.391"	"4.24"	"4.195"	"4.18"	"4.21"	"4.119"	"4.074"	"3.848"
"1906"	"3.983"	"4.089"	"4.3"	"4.602"	"4.481"	"4.195"	"4.059"	"4.119"	"4.104"	"4.119"	"3.999"	"3.893"
"1907"	"3.863"	"4.074"	"4.285"	"4.331"	"4.391"	"4.21"	"4.104"	"3.999"	"4.134"	"4.134"	"4.014"	"3.893"
"1908"	"3.923"	"4.044"	"4.24"	"4.451"	"4.346"	"4.18"	"3.953"	"4.089"	"4.134"	"4.134"	"3.938"	"3.848"
"1909"	"3.833"	"4.029"	"4.315"	"4.391"	"4.361"	"4.195"	"4.014"	"4.104"	"4.104"	"4.134"	"3.983"	"3.923"
"1910"	"3.908"	"4.029"	"4.285"	"4.421"	"4.406"	"4.134"	"4.104"	"4.059"	"4.059"	"4.044"	"3.968"	"3.833"
"1911"	"3.893"	"3.908"	"4.27"	"4.466"	"4.376"	"4.149"	"4.044"	"4.149"	"4.225"	"4.119"	"4.074"	"3.953"
"1912"	"3.787"	"4.149"	"4.376"	"4.512"	"4.481"	"4.18"	"4.104"	"4.104"	"4.18"	"4.074"	"3.999"	"3.848"
"1913"	"3.848"	"4.089"	"4.3"	"4.527"	"4.512"	"4.21"	"4.074"	"4.165"	"4.21"	"4.119"	"4.059"	"3.999"
"1914"	"3.863"	"4.104"	"4.346"	"4.497"	"4.497"	"4.27"	"4.134"	"4.134"	"4.24"	"4.18"	"4.104"	"3.983"
"1915"	"3.968"	"4.119"	"4.255"	"4.466"	"4.451"	"4.346"	"4.165"	"4.195"	"4.195"	"4.18"	"4.014"	"3.878"
"1916"	"3.833"	"4.059"	"4.346"	"4.512"	"4.421"	"4.119"	"4.195"	"4.165"	"4.119"	"4.059"	"3.999"	"3.863"
"1917"	"3.893"	"4.044"	"4.21"	"4.451"	"4.361"	"4.134"	"4.24"	"4.149"	"4.089"	"4.014"	"3.968"	"3.863"
"1918"	"3.848"	"3.878"	"4.18"	"4.466"	"4.21"	"4.21"	"4.21"	"4.165"	"4.18"	"4.255"	"4.149"	"3.953"
"1919"	"4.014"	"4.119"	"4.27"	"4.572"	"4.391"	"4.18"	"4.089"	"4.104"	"4.18"	"4.165"	"3.953"	"3.968"
"1920"	"3.893"	"4.104"	"4.406"	"4.436"	"4.481"	"4.149"	"4.149"	"4.089"	"4.134"	"4.119"	"3.968"	"3.863"
"1921"	"3.968"	"4.029"	"4.376"	"4.361"	"4.466"	"4.21"	"4.089"	"4.074"	"4.104"	"4.119"	"3.999"	"3.863"
"1922"	"3.878"	"4.044"	"4.3"	"4.466"	"4.315"	"4.149"	"4.014"	"4.074"	"4.104"	"4.104"	"3.938"	"3.802"
"1923"	"3.833"	"3.968"	"4.195"	"4.466"	"4.421"	"4.21"	"4.014"	"4.059"	"4.104"	"4.119"	"4.074"	"3.999"
"1924"	"3.908"	"4.119"	"4.331"	"4.512"	"4.466"	"4.134"	"4.014"	"4.134"	"4.149"	"4.119"	"3.999"	"3.878"
"1925"	"3.893"	"4.059"	"4.225"	"4.436"	"4.331"	"4.165"	"4.104"	"4.119"	"4.225"	"4.149"	"3.999"	"3.833"
"1926"	"3.938"	"4.089"	"4.376"	"4.466"	"4.497"	"4.255"	"4.225"	"4.255"	"4.18"	"4.119"	"4.059"	"3.953"
"1927"	"3.999"	"4.149"	"4.391"	"4.527"	"4.346"	"4.149"	"3.999"	"4.165"	"4.149"	"4.089"	"3.999"	"3.983"
"1928"	"4.014"	"4.089"	"4.255"	"4.497"	"4.527"	"4.27"	"4.165"	"4.074"	"4.195"	"4.089"	"4.059"	"3.938"
"1929"	"3.908"	"4.074"	"4.285"	"4.346"	"4.451"	"4.149"	"4.149"	"4.18"	"4.195"	"4.119"	"4.074"	"3.999"
"1930"	"3.953"	"4.074"	"4.331"	"4.436"	"4.315"	"4.195"	"4.18"	"4.165"	"4.195"	"4.134"	"4.059"	"3.968"
"1931"	"4.014"	"4.119"	"4.346"	"4.451"	"4.512"	"4.285"	"4.149"	"4.089"	"4.119"	"4.104"	"4.074"	"3.999"
"1932"	"3.848"	"3.999"	"4.27"	"4.421"	"4.285"	"4.27"	"4.119"	"4.195"	"4.149"	"4.059"	"3.999"	"3.923"
"1933"	"3.983"	"4.119"	"4.3"	"4.436"	"4.285"	"4.165"	"4.119"	"4.089"	"4.059"	"4.029"	"4.014"	"3.923"
"1934"	"3.953"	"3.953"	"4.225"	"4.391"	"4.451"	"4.18"	"4.134"	"4.149"	"4.18"	"4.119"	"3.953"	"3.923"
"1935"	"3.968"	"4.104"	"4.315"	"4.421"	"4.512"	"4.24"	"4.089"	"4.074"	"4.104"	"4.104"	"3.983"	"3.953"
"1936"	"3.968"	"4.089"	"4.285"	"4.466"	"4.406"	"4.134"	"4.074"	"4.074"	"4.195"	"4.149"	"4.059"	"4.059"
"1937"	"3.999"	"4.165"	"4.346"	"4.406"	"4.466"	"4.149"	"3.983"	"4.149"	"4.195"	"4.089"	"4.044"	"3.878"
"1938"	"3.953"	"4.119"	"4.346"	"4.406"	"4.421"	"4.134"	"4.029"	"4.104"	"4.074"	"4.029"	"3.953"	"3.953"
"1939"	"3.893"	"4.059"	"4.225"	"4.361"	"4.391"	"4.134"	"4.059"	"4.089"	"4.104"	"4.089"	"3.968"	"3.923"
"1940"	"3.833"	"4.029"	"4.225"	"4.406"	"4.406"	"4.24"	"4.089"	"4.074"	"4.195"	"4.149"	"4.044"	"3.953"
"1941"	"4.029"	"4.119"	"4.391"	"4.542"	"4.512"	"4.21"	"4.195"	"4.195"	"4.149"	"4.18"	"4.134"	"3.938"
"1942"	"3.938"	"4.119"	"4.391"	"4.451"	"4.451"	"4.21"	"4.059"	"4.089"	"4.134"	"4.104"	"3.983"	"3.968"
"1943"	"3.908"	"4.044"	"4.3"	"4.331"	"4.3"	"4.044"	"3.999"	"4.089"	"4.014"	"3.983"	"3.938"	"3.938"
"1944"	"3.953"	"4.074"	"4.27"	"4.361"	"4.406"	"4.195"	"4.119"	"4.18"	"4.149"	"4.134"	"4.029"	"3.893"
"1945"	"3.923"	"4.134"	"4.346"	"4.391"	"4.466"	"4.27"	"4.074"	"4.119"	"4.134"	"4.089"	"3.999"	"3.923"
"1946"	"3.757"	"4.044"	"4.255"	"4.346"	"4.421"	"4.18"	"4.104"	"4.029"	"4.119"	"4.165"	"4.014"	"3.923"
"1947"	"4.014"	"4.044"	"4.3"	"4.315"	"4.512"	"4.21"	"4.134"	"4.104"	"4.059"	"4.059"	"4.029"	"3.999"
"1948"	"4.029"	"4.134"	"4.346"	"4.466"	"4.406"	"4.195"	"4.074"	"4.059"	"4.119"	"4.165"	"4.104"	"3.953"
"1949"	"3.908"	"4.044"	"4.391"	"4.436"	"4.376"	"4.195"	"4.089"	"4.149"	"4.104"	"4.119"	"4.014"	"3.893"
"1950"	"3.893"	"4.059"	"4.315"	"4.436"	"4.497"	"4.18"	"3.999"	"4.104"	"4.059"	"4.044"	"3.999"	"3.893"
"1951"	"3.968"	"4.059"	"4.346"	"4.376"	"4.466"	"4.089"	"4.074"	"4.18"	"4.21"	"4.225"	"4.119"	"3.923"
"1952"	"4.014"	"4.165"	"4.331"	"4.466"	"4.466"	"4.21"	"4.149"	"4.104"	"4.134"	"4.044"	"4.014"	"3.938"
"1953"	"3.953"	"4.029"	"4.421"	"4.346"	"4.512"	"4.361"	"4.074"	"4.18"	"4.134"	"4.149"	"4.044"	"3.953"
"1954"	"4.029"	"4.134"	"4.285"	"4.451"	"4.512"	"4.285"	"4.059"	"4.089"	"4.134"	"4.044"	"3.968"	"4.029"
"1955"	"4.089"	"4.18"	"4.315"	"4.406"	"4.27"	"4.089"	"4.089"	"4.119"	"4.195"	"4.089"	"3.938"	"3.908"
"1956"	"3.953"	"4.18"	"4.421"	"4.436"	"4.24"	"4.089"	"4.014"	"4.134"	"4.134"	"4.044"	"4.074"	"3.999"
"1957"	"4.014"	"4.165"	"4.315"	"4.466"	"4.406"	"4.285"	"4.134"	"4.165"	"4.21"	"4.165"	"4.014"	"4.074"
"1958"	"4.029"	"4.18"	"4.346"	"4.497"	"4.346"	"4.285"	"4.18"	"4.134"	"4.18"	"4.059"	"4.074"	"4.044"
"1959"	"4.059"	"4.195"	"4.451"	"4.497"	"4.497"	"4.195"	"4.089"	"4.18"	"4.165"	"4.119"	"4.134"	"3.999"
"1960"	"4.059"	"4.165"	"4.346"	"4.421"	"4.315"	"4.24"	"4.149"	"4.165"	"4.089"	"4.104"	"3.968"	"3.999"
"1961"	"4.044"	"4.149"	"4.406"	"4.497"	"4.346"	"4.165"	"4.119"	"4.134"	"4.119"	"4.104"	"4.074"	"4.044"
"1962"	"4.029"	"4.149"	"4.285"	"4.406"	"4.3"	"4.315"	"4.119"	"4.089"	"4.134"	"4.074"	"4.059"	"3.999"
"1963"	"4.044"	"4.029"	"4.3"	"4.451"	"4.481"	"4.255"	"4.149"	"4.134"	"4.21"	"4.134"	"4.119"	"3.999"
"1964"	"3.908"	"4.134"	"4.376"	"4.557"	"4.512"	"4.24"	"4.074"	"4.119"	"4.029"	"4.074"	"3.923"	"3.863"
"1965"	"3.848"	"4.014"	"4.24"	"4.376"	"4.391"	"4.24"	"4.134"	"4.104"	"4.165"	"4.255"	"4.104"	"3.923"
"1966"	"4.059"	"4.21"	"4.331"	"4.466"	"4.451"	"4.21"	"4.104"	"4.21"	"4.134"	"4.089"	"4.014"	"3.983"
"1967"	"3.893"	"4.044"	"4.21"	"4.497"	"4.346"	"4.24"	"4.029"	"4.014"	"4.119"	"4.089"	"4.029"	"3.983"
"1968"	"3.968"	"4.074"	"4.315"	"4.406"	"4.421"	"4.165"	"3.953"	"4.119"	"4.104"	"4.149"	"4.059"	"3.953"
"1969"	"3.938"	"4.149"	"4.421"	"4.512"	"4.391"	"4.18"	"4.029"	"4.119"	"4.074"	"4.089"	"4.074"	"3.983"
"1970"	"3.999"	"4.044"	"4.3"	"4.391"	"4.346"	"4.165"	"4.059"	"4.029"	"4.119"	"4.059"	"4.059"	"3.878"
"1971"	"3.983"	"4.044"	"4.24"	"4.406"	"4.3"	"4.029"	"3.968"	"4.029"	"4.074"	"4.029"	"3.953"	"3.818"
"1972"	"3.757"	"3.983"	"4.225"	"4.466"	"4.24"	"4.255"	"4.044"	"4.18"	"4.225"	"4.119"	"4.029"	"4.044"
"1973"	"4.014"	"4.134"	"4.406"	"4.557"	"4.542"	"4.24"	"4.195"	"4.014"	"4.165"	"4.119"	"3.983"	"3.953"
"1974"	"3.923"	"4.074"	"4.346"	"4.497"	"4.346"	"4.3"	"4.119"	"3.983"	"4.134"	"4.089"	"4.059"	"3.999"
"1975"	"3.893"	"4.18"	"4.391"	"4.497"	"4.346"	"4.014"	"4.149"	"4.044"	"4.044"	"4.014"	"4.044"	"3.893"
"1976"	"3.848"	"3.938"	"4.315"	"4.331"	"4.512"	"4.315"	"4.104"	"4.089"	"4.195"	"4.149"	"4.044"	"4.029"
"1977"	"3.968"	"4.165"	"4.346"	"4.497"	"4.315"	"4.255"	"4.059"	"4.24"	"4.104"	"4.165"	"4.044"	"3.923"
"1978"	"3.938"	"4.059"	"4.331"	"4.512"	"4.195"	"4.044"	"3.923"	"4.014"	"4.149"	"4.149"	"4.104"	"3.999"
"1979"	"4.119"	"4.21"	"4.421"	"4.527"	"4.376"	"4.18"	"3.983"	"4.119"	"4.089"	"4.104"	"3.983"	"4.089"
"1980"	"3.968"	"4.165"	"4.331"	"4.391"	"4.391"	"3.938"	"3.848"	"3.983"	"4.149"	"4.074"	"4.165"	"4.074"
"1981"	"4.029"	"4.18"	"4.346"	"4.451"	"4.391"	"3.999"	"3.953"	"3.968"	"4.029"	"4.104"	"3.999"	"3.983"
"1982"	"3.983"	"4.18"	"4.346"	"4.602"	"4.391"	"4.285"	"4.165"	"4.18"	"4.24"	"4.285"	"4.24"	"4.029"
"1983"	"4.029"	"4.27"	"4.451"	"4.632"	"4.678"	"4.497"	"4.255"	"4.195"	"4.134"	"4.21"	"4.134"	"4.074"
"1984"	"4.074"	"4.149"	"4.27"	"4.391"	"4.602"	"4.134"	"4.149"	"4.134"	"4.195"	"4.104"	"4.195"	"3.999"
"1985"	"4.104"	"4.225"	"4.466"	"4.572"	"4.481"	"4.134"	"4.18"	"4.134"	"4.225"	"4.18"	"4.119"	"4.074"
"1986"	"4.059"	"4.165"	"4.421"	"4.632"	"4.557"	"4.27"	"4.285"	"4.104"	"4.165"	"4.255"	"4.134"	"4.165"
"1987"	"4.119"	"4.149"	"4.406"	"4.632"	"4.587"	"4.3"	"4.406"	"4.195"	"4.376"	"4.285"	"4.21"	"4.134"
"1988"	"4.074"	"4.346"	"4.451"	"4.451"	"4.557"	"4.376"	"4.225"	"4.195"	"4.165"	"4.24"	"4.134"	"3.983"
"1989"	"4.014"	"4.044"	"4.285"	"4.512"	"4.466"	"4.21"	"4.21"	"4.165"	"4.089"	"4.149"	"4.18"	"4.044"
"1990"	"3.968"	"4.195"	"4.391"	"4.602"	"4.466"	"4.315"	"4.134"	"4.134"	"4.21"	"4.195"	"4.119"	"4.044"
"1991"	"4.059"	"4.195"	"4.406"	"4.527"	"4.647"	"4.27"	"4.18"	"4.104"	"4.285"	"4.104"	"4.134"	"3.968"
"1992"	"3.863"	"4.134"	"4.331"	"4.557"	"4.466"	"4.315"	"4.134"	"4.134"	"4.149"	"4.104"	"4.104"	"3.938"
"1993"	"3.863"	"4.014"	"4.346"	"4.527"	"4.497"	"4.346"	"4.104"	"4.195"	"4.21"	"4.119"	"4.119"	"3.999"
"1994"	"4.014"	"4.195"	"4.376"	"4.421"	"4.512"	"4.255"	"4.119"	"4.165"	"4.24"	"4.149"	"4.165"	"3.999"
"1995"	"4.059"	"4.27"	"4.346"	"4.497"	"4.406"	"4.406"	"4.225"	"4.21"	"4.225"	"4.255"	"4.21"	"3.999"
"1996"	"4.089"	"4.195"	"4.421"	"4.497"	"4.587"	"4.346"	"4.195"	"4.165"	"4.149"	"4.149"	"4.195"	"3.908"
"1997"	"4.059"	"4.18"	"4.376"	"4.391"	"4.481"	"4.421"	"4.21"	"4.195"	"4.21"	"4.225"	"4.225"	"4.195"
"1998"	"4.18"	"4.331"	"4.527"	"4.632"	"4.512"	"4.406"	"4.195"	"4.225"	"4.149"	"4.149"	"4.165"	"4.044"
"1999"	"4.029"	"4.165"	"4.451"	"4.436"	"4.24"	"4.21"	"4.134"	"4.195"	"4.285"	"4.149"	"4.165"	"4.059"
"2000"	"4.134"	"4.21"	"4.391"	"4.466"	"4.481"	"4.195"	"4.21"	"4.104"	"4.21"	"4.18"	"4.21"	"4.044"
"2001"	"4.134"	"4.315"	"4.451"	"4.451"	"4.421"	"4.255"	"4.18"	"4.134"	"4.225"	"4.18"	"4.195"	"4.059"
"2002"	"4.119"	"4.119"	"4.406"	"4.512"	"4.451"	"4.315"	"4.27"	"4.195"	"4.331"	"4.21"	"4.149"	"4.104"
