
"Year"	"Jan"	"Feb"	"Mar"	"Apr"	"May"	"Jun"	"Jul"	"Aug"	"Sep"	"Oct"	"Nov"	"Dec"
"1901"	"1.916"	"0.634"	"2.776"	"15.27"	"15.074"	"29.227"	"20.778"	"18.756"	"16.734"	"21.985"	"36.696"	"11.392"
"1902"	"7.499"	"0.03"	"9.038"	"6.247"	"9.295"	"18.303"	"38.884"	"16.824"	"36.711"	"47.938"	"19.857"	"31.868"
"1903"	"2.384"	"0.121"	"0.03"	"5.749"	"26.255"	"14.485"	"35.731"	"17.684"	"21.532"	"33.166"	"33.075"	"18.605"
"1904"	"25.893"	"0.121"	"0.468"	"2.505"	"11.694"	"36.153"	"25.168"	"13.459"	"14.184"	"39.895"	"0.257"	"2.143"
"1905"	"0.045"	"0.619"	"0.136"	"7.967"	"13.761"	"38.492"	"25.485"	"13.52"	"15.029"	"35.504"	"8.676"	"0.121"
"1906"	"4.798"	"0.166"	"0.347"	"5.87"	"11.332"	"17.624"	"33.452"	"18.891"	"9.913"	"16.206"	"19.691"	"11.95"
"1907"	"5.281"	"0.045"	"5.326"	"23.463"	"5.945"	"31.295"	"25.983"	"35.972"	"21.894"	"19.254"	"27.718"	"16.885"
"1908"	"0.815"	"5.689"	"8.48"	"7.741"	"12.811"	"29.439"	"33.135"	"15.014"	"14.817"	"41.389"	"1.675"	"1.283"
"1909"	"12.584"	"1.101"	"1.373"	"12.856"	"24.007"	"24.339"	"30.223"	"16.281"	"21.245"	"23.086"	"13.067"	"6.609"
"1910"	"2.278"	"6.186"	"0.166"	"9.536"	"10.125"	"26.964"	"27.311"	"22.95"	"17.428"	"38.884"	"35.263"	"0.121"
"1911"	"0.166"	"4.874"	"0.151"	"7.756"	"18.001"	"46.444"	"25.863"	"6.262"	"4.919"	"28.654"	"20.189"	"16.643"
"1912"	"0.181"	"0.543"	"0.332"	"10.472"	"17.579"	"50.035"	"22.769"	"21.381"	"22.09"	"41.766"	"28.85"	"1.856"
"1913"	"1.237"	"0.121"	"0.407"	"7.137"	"16.251"	"19.057"	"29.031"	"8.51"	"14.199"	"45.026"	"8.073"	"5.085"
"1914"	"0.287"	"0.106"	"2.897"	"0.951"	"11.256"	"19.133"	"37.119"	"15.089"	"20.053"	"36.832"	"10.049"	"10.487"
"1915"	"1.75"	"1.388"	"4.693"	"8.752"	"9.536"	"23.961"	"27.477"	"15.527"	"34.765"	"10.396"	"58.681"	"3.274"
"1916"	"0.045"	"0.392"	"0.422"	"11.151"	"18.816"	"25.666"	"35.565"	"20.793"	"32.834"	"32.773"	"27.251"	"0.634"
"1917"	"0.166"	"1.283"	"8.706"	"2.912"	"23.81"	"27.055"	"14.802"	"21.17"	"52.012"	"21.185"	"31.536"	"6.73"
"1918"	"4.285"	"0.407"	"1.464"	"1.765"	"55.467"	"18.786"	"10.306"	"15.119"	"6.473"	"20.687"	"49.945"	"6.971"
"1919"	"10.049"	"0.272"	"6.428"	"1.599"	"19.057"	"26.557"	"21.064"	"18.484"	"25.455"	"25.138"	"27.718"	"6.986"
"1920"	"33.573"	"0.06"	"3.199"	"7.801"	"3.772"	"37.934"	"28.428"	"11.754"	"7.771"	"50.518"	"43.456"	"0.785"
"1921"	"3.802"	"0.106"	"0.106"	"17.337"	"8.178"	"26.858"	"17.292"	"28.533"	"12.584"	"39.397"	"25.666"	"2.294"
"1922"	"4.421"	"1.132"	"0.166"	"4.874"	"33.724"	"45.267"	"26.979"	"15.677"	"14.259"	"29.952"	"34.493"	"7.152"
"1923"	"10.713"	"0.181"	"15.164"	"1.871"	"7.967"	"20.189"	"29.408"	"34.599"	"16.341"	"16.96"	"9.053"	"2.595"
"1924"	"2.988"	"0.03"	"5.085"	"5.251"	"12.207"	"37.858"	"39.141"	"20.627"	"20.295"	"20.295"	"28.82"	"10.894"
"1925"	"1.509"	"0.573"	"8.857"	"3.606"	"6.292"	"28.82"	"21.306"	"23.478"	"6.639"	"22.543"	"17.367"	"13.324"
"1926"	"18.031"	"0.03"	"0.317"	"1.011"	"15.3"	"13.625"	"28.639"	"20.778"	"20.491"	"26.059"	"15.662"	"0.83"
"1927"	"0.92"	"13.776"	"3.893"	"9.944"	"19.042"	"37.164"	"36.742"	"20.43"	"22.649"	"16.658"	"13.233"	"0.8"
"1928"	"0.709"	"16.975"	"0.347"	"7.273"	"3.742"	"23.343"	"21.788"	"22.905"	"8.872"	"35.112"	"20.31"	"9.37"
"1929"	"0.936"	"3.335"	"3.108"	"23.886"	"7.771"	"45.84"	"35.882"	"11.468"	"19.269"	"52.389"	"17.503"	"3.003"
"1930"	"1.418"	"2.867"	"3.139"	"12.886"	"31.626"	"27.19"	"11.92"	"13.188"	"32.668"	"49.96"	"43.803"	"25.38"
"1931"	"2.61"	"0.03"	"0.045"	"5.251"	"8.51"	"21.275"	"23.026"	"43.411"	"14.501"	"12.373"	"24.173"	"34.976"
"1932"	"0.045"	"0.136"	"1.72"	"14.893"	"31.853"	"14.893"	"18.529"	"20.793"	"30.736"	"53.913"	"41.163"	"4.874"
"1933"	"0.045"	"0.392"	"2.067"	"12.011"	"35.504"	"33.241"	"29.378"	"25.168"	"31.626"	"37.315"	"13.52"	"8.284"
"1934"	"32.788"	"0.03"	"0.92"	"11.302"	"5.176"	"37.617"	"11.634"	"14.832"	"2.505"	"30.631"	"7.258"	"0.121"
"1935"	"33.045"	"0.272"	"0.739"	"14.772"	"3.123"	"39.759"	"26.028"	"16.764"	"27.93"	"26.436"	"20.476"	"0.966"
"1936"	"0.166"	"2.339"	"8.284"	"2.007"	"30.253"	"25.998"	"26.783"	"16.07"	"31.596"	"16.175"	"35.082"	"0.996"
"1937"	"1.283"	"0.785"	"6.398"	"19.978"	"6.503"	"11.86"	"31.053"	"15.979"	"8.902"	"33.332"	"19.842"	"1.086"
"1938"	"0.045"	"4.979"	"4.104"	"9.219"	"13.912"	"20.249"	"30.284"	"15.527"	"12.403"	"20.008"	"5.055"	"2.324"
"1939"	"16.598"	"0.996"	"0.543"	"20.823"	"16.175"	"26.632"	"26.119"	"18.137"	"9.732"	"28.745"	"35.882"	"6.76"
"1940"	"0.045"	"0.03"	"0.272"	"18.031"	"17.865"	"23.961"	"31.295"	"24.082"	"6.986"	"26.376"	"39.322"	"5.855"
"1941"	"5.492"	"0.287"	"0.045"	"23.66"	"24.429"	"37.36"	"14.319"	"27.975"	"20.415"	"27.537"	"19.555"	"30.253"
"1942"	"0.045"	"0.03"	"4.059"	"13.776"	"19.042"	"29.635"	"26.149"	"15.195"	"9.023"	"43.532"	"14.651"	"49.371"
"1943"	"16.538"	"0.302"	"1.977"	"16.221"	"34.599"	"36.802"	"27.99"	"7.59"	"11.09"	"40.016"	"36.093"	"2.686"
"1944"	"0.272"	"11.045"	"10.668"	"7.394"	"26.406"	"34.327"	"26.813"	"13.037"	"13.369"	"27.839"	"21.094"	"13.716"
"1945"	"0.604"	"1.977"	"0.211"	"9.099"	"4.24"	"11.181"	"23.207"	"14.123"	"6.82"	"21.366"	"40.831"	"0.332"
"1946"	"0.226"	"0.03"	"4.481"	"9.25"	"10.924"	"42.732"	"17.775"	"27.749"	"28.654"	"17.699"	"39.624"	"53.762"
"1947"	"9.114"	"0.619"	"5.809"	"14.214"	"5.794"	"21.502"	"36.395"	"24.414"	"31.264"	"17.533"	"2.173"	"10.426"
"1948"	"5.87"	"0.317"	"6.956"	"4.632"	"24.791"	"27.356"	"27.703"	"23.644"	"10.864"	"13.444"	"41.993"	"4.889"
"1949"	"1.509"	"0.03"	"0.03"	"7.605"	"31.762"	"25.802"	"28.579"	"20.4"	"22.528"	"13.474"	"11.513"	"0.121"
"1950"	"0.075"	"5.432"	"0.89"	"5.387"	"13.505"	"25.772"	"25.893"	"19.721"	"20.959"	"20.114"	"15.361"	"0.302"
"1951"	"0.151"	"0.03"	"0.619"	"28.156"	"8.088"	"28.397"	"26.979"	"11.362"	"23.448"	"21.864"	"18.982"	"0.302"
"1952"	"32.411"	"13.61"	"1.283"	"8.389"	"13.776"	"21.23"	"24.505"	"19.495"	"5.372"	"35.248"	"3.47"	"10.743"
"1953"	"0.604"	"1.856"	"1.66"	"21.502"	"9.868"	"18.227"	"34.599"	"12.448"	"13.369"	"34.493"	"10.004"	"0.226"
"1954"	"11.664"	"0.136"	"5.734"	"18.424"	"14.983"	"25.742"	"24.339"	"25.998"	"13.761"	"19.978"	"4.602"	"21.366"
"1955"	"0.362"	"0.422"	"0.166"	"14.41"	"51.906"	"32.366"	"15.466"	"14.832"	"36.651"	"46.263"	"33.799"	"5.477"
"1956"	"8.616"	"1.72"	"0.045"	"26.104"	"14.41"	"43.366"	"13.852"	"21.909"	"12.086"	"46.157"	"21.019"	"0.604"
"1957"	"0.151"	"1.192"	"1.962"	"2.067"	"40.469"	"54.848"	"36.862"	"13.897"	"5.236"	"21.185"	"28.488"	"1.433"
"1958"	"0.392"	"1.645"	"3.048"	"6.986"	"45.131"	"30.766"	"16.507"	"19.389"	"7.982"	"20.853"	"35.097"	"0.951"
"1959"	"0.211"	"0.347"	"0.196"	"19.148"	"18.982"	"36.017"	"43.154"	"13.097"	"32.894"	"30.208"	"34.795"	"14.365"
"1960"	"0.045"	"0.377"	"3.863"	"18.212"	"30.6"	"18.303"	"35.037"	"10.411"	"23.69"	"35.64"	"44.588"	"0.77"
"1961"	"4.813"	"10.683"	"4.195"	"8.465"	"42.159"	"26.194"	"39.367"	"30.238"	"31.792"	"32.124"	"12.192"	"2.339"
"1962"	"11.935"	"16.975"	"2.535"	"6.368"	"48.979"	"5.507"	"29.378"	"25.923"	"20.37"	"50.126"	"4.813"	"23.765"
"1963"	"4.104"	"1.464"	"9.536"	"5.085"	"7.876"	"23.297"	"33.573"	"25.712"	"18.152"	"18.182"	"22.498"	"13.037"
"1964"	"0.045"	"0.151"	"15.104"	"1.056"	"11.603"	"20.068"	"36.621"	"26.949"	"27.447"	"30.57"	"24.58"	"17.684"
"1965"	"0.211"	"1.222"	"0.905"	"2.807"	"22.332"	"18.801"	"16.1"	"19.133"	"19.917"	"22.603"	"26.542"	"18.801"
"1966"	"0.981"	"0.558"	"2.278"	"11.211"	"14.199"	"18.786"	"4.874"	"19.012"	"24.248"	"64.309"	"25.636"	"37.285"
"1967"	"3.697"	"0.03"	"4.949"	"1.886"	"29.499"	"26.677"	"20.008"	"28.941"	"2.927"	"19.465"	"4.527"	"9.325"
"1968"	"0.045"	"4.919"	"8.706"	"30.766"	"4.828"	"20.672"	"45.312"	"18.695"	"17.367"	"11.166"	"20.174"	"1.599"
"1969"	"1.63"	"0.377"	"0.498"	"9.883"	"20.249"	"22.437"	"35.067"	"23.116"	"14.063"	"39.699"	"7.786"	"10.336"
"1970"	"19.54"	"0.739"	"0.77"	"21.487"	"22.981"	"23.403"	"20.355"	"27.598"	"15.859"	"26.285"	"27.884"	"0.392"
"1971"	"2.429"	"1.071"	"0.468"	"8.103"	"21.788"	"39.835"	"27.764"	"26.542"	"23.705"	"23.705"	"2.173"	"26.753"
"1972"	"0.709"	"0.03"	"0.03"	"3.41"	"42.702"	"37.632"	"36.681"	"14.968"	"17.02"	"33.226"	"27.96"	"49.552"
"1973"	"0.045"	"0.136"	"0.77"	"12.373"	"8.978"	"29.967"	"25.108"	"14.636"	"5.432"	"21.562"	"6.986"	"6.85"
"1974"	"0.045"	"1.433"	"0.558"	"9.551"	"12.373"	"9.068"	"34.056"	"26.843"	"32.396"	"11.136"	"14.274"	"0.845"
"1975"	"0.136"	"1.162"	"12.72"	"10.713"	"13.882"	"27.869"	"43.094"	"26.919"	"33.226"	"36.546"	"31.249"	"2.822"
"1976"	"0.091"	"0.03"	"0.649"	"25.38"	"10.985"	"10.17"	"14.983"	"19.238"	"16.553"	"29.454"	"42.385"	"9.657"
"1977"	"0.045"	"3.667"	"1.75"	"5.357"	"22.256"	"28.654"	"22.105"	"17.458"	"23.825"	"52.223"	"43.999"	"3.289"
"1978"	"0.091"	"4.964"	"0.196"	"6.79"	"6.7"	"20.959"	"36.017"	"18.741"	"12.403"	"16.311"	"27.19"	"4.104"
"1979"	"6.594"	"16.492"	"1.63"	"8.42"	"15.632"	"24.278"	"23.524"	"18.469"	"17.548"	"22.996"	"53.641"	"10.592"
"1980"	"0.06"	"0.287"	"2.309"	"16.1"	"20.853"	"29.816"	"27.19"	"18.529"	"10.261"	"33.422"	"13.369"	"18.59"
"1981"	"0.83"	"0.347"	"5.598"	"7.394"	"23.735"	"36.576"	"30.54"	"28.262"	"29.107"	"33.135"	"23.403"	"1.615"
"1982"	"0.045"	"0.03"	"0.317"	"1.977"	"23.976"	"31.053"	"21.125"	"18.137"	"6.609"	"11.166"	"15.783"	"1.237"
"1983"	"0.045"	"0.03"	"0.03"	"1.403"	"11.422"	"22.467"	"22.83"	"21.653"	"22.407"	"11.784"	"30.691"	"25.108"
"1984"	"4.813"	"5.689"	"4.195"	"7.469"	"2.414"	"27.537"	"31.4"	"9.491"	"13.233"	"37.511"	"4.029"	"5.357"
"1985"	"9.566"	"2.143"	"3.169"	"4.889"	"16.326"	"23.071"	"15.466"	"10.758"	"12.222"	"15.436"	"27.93"	"4.678"
"1986"	"14.697"	"4.919"	"0.362"	"8.646"	"13.233"	"26.255"	"15.677"	"23.765"	"25.636"	"16.055"	"29.891"	"4.617"
"1987"	"0.166"	"0.03"	"2.444"	"10.547"	"14.395"	"20.099"	"10.336"	"38.19"	"10.623"	"39.171"	"18.982"	"42.4"
"1988"	"0.045"	"0.8"	"1.464"	"15.587"	"14.395"	"29.906"	"43.502"	"23.629"	"39.111"	"2.475"	"18.831"	"7.967"
"1989"	"6.534"	"0.03"	"1.207"	"5.553"	"12.011"	"31.958"	"38.537"	"13.852"	"19.435"	"33.935"	"7.499"	"2.007"
"1990"	"1.117"	"1.086"	"1.207"	"2.942"	"28.518"	"15.798"	"27.794"	"11.905"	"7.454"	"32.637"	"30.434"	"4.074"
"1991"	"0.92"	"1.313"	"1.599"	"8.269"	"15.859"	"66.18"	"32.441"	"20.189"	"4.451"	"42.355"	"10.547"	"0.724"
"1992"	"1.675"	"0.03"	"0.03"	"3.501"	"15.798"	"49.1"	"38.537"	"16.311"	"13.746"	"36.244"	"31.295"	"2.369"
"1993"	"0.045"	"0.226"	"2.973"	"5.568"	"13.082"	"33.875"	"33.045"	"12.479"	"10.955"	"38.326"	"44.844"	"28.745"
"1994"	"2.173"	"3.833"	"1.796"	"8.661"	"16.553"	"19.404"	"37.028"	"19.948"	"9.823"	"40.152"	"12.524"	"4.315"
"1995"	"12.041"	"0.03"	"1.841"	"12.132"	"27.643"	"24.188"	"25.138"	"21.562"	"16.13"	"23.222"	"18.756"	"0.121"
"1996"	"3.093"	"1.147"	"0.92"	"18.786"	"8.012"	"42.792"	"25.681"	"29.906"	"20.249"	"35.142"	"5.945"	"12.026"
"1997"	"3.38"	"0.03"	"3.591"	"7.605"	"10.472"	"25.244"	"23.343"	"22.95"	"37.119"	"38.688"	"49.839"	"13.444"
"1998"	"0.257"	"0.77"	"0.257"	"11.89"	"24.173"	"21.532"	"37.632"	"39.322"	"34.146"	"42.807"	"29.152"	"25.153"
"1999"	"0.92"	"6.186"	"2.505"	"12.961"	"32.381"	"27.492"	"25.485"	"12.78"	"7.575"	"44.724"	"17.533"	"1.962"
"2000"	"0.091"	"5.432"	"1.252"	"13.64"	"4.331"	"23.961"	"18.016"	"48.481"	"15.783"	"34.207"	"11.483"	"12.72"
"2001"	"1.675"	"2.037"	"0.317"	"26.149"	"15.889"	"16.809"	"36.168"	"23.207"	"37.888"	"26.511"	"14.44"	"3.41"
"2002"	"0.091"	"1.026"	"1.705"	"4.391"	"26.617"	"30.133"	"8.752"	"12.222"	"5.462"	"46.746"	"23.328"	"1.101"
