
"Year"	"Jan"	"Feb"	"Mar"	"Apr"	"May"	"Jun"	"Jul"	"Aug"	"Sep"	"Oct"	"Nov"	"Dec"
"1901"	"11.347"	"12.758"	"15.61"	"18.802"	"20.208"	"22.277"	"22.277"	"22.395"	"21.945"	"20.046"	"15.458"	"12.235"
"1902"	"11.51"	"12.502"	"16.31"	"16.765"	"20.986"	"21.343"	"22.516"	"22.124"	"21.593"	"18.326"	"14.523"	"11.321"
"1903"	"10.31"	"12.308"	"15.375"	"18.317"	"20.294"	"21.977"	"23.052"	"21.778"	"22.266"	"20.329"	"15.541"	"12.182"
"1904"	"10.575"	"12.702"	"15.471"	"17.115"	"20.147"	"22.531"	"22.57"	"22.377"	"21.945"	"19.647"	"14.42"	"11.136"
"1905"	"10.246"	"10.211"	"14.074"	"16.419"	"20.886"	"22.898"	"22.817"	"21.304"	"22.599"	"19.493"	"15.205"	"11.7"
"1906"	"11.211"	"11.919"	"14.628"	"16.88"	"20.712"	"22.477"	"23.17"	"21.057"	"22.845"	"19.546"	"15.541"	"11.882"
"1907"	"11.708"	"12.155"	"14.141"	"16.481"	"19.507"	"20.904"	"21.396"	"22.578"	"21.025"	"19.948"	"15.912"	"12.118"
"1908"	"11.186"	"12.862"	"16.363"	"19.069"	"19.693"	"21.977"	"21.816"	"22.177"	"21.608"	"19.447"	"15.04"	"11.397"
"1909"	"10.626"	"12.555"	"16.999"	"17.24"	"18.773"	"20.943"	"22.477"	"21.596"	"22.899"	"20.901"	"16.993"	"12.671"
"1910"	"11.165"	"12.49"	"15.264"	"17.641"	"20.347"	"20.624"	"21.102"	"21.825"	"22.345"	"19.447"	"15.912"	"12.11"
"1911"	"12.186"	"11.855"	"14.827"	"17.641"	"19.365"	"21.442"	"21.564"	"21.763"	"21.845"	"19.447"	"15.276"	"11.321"
"1912"	"11.246"	"12.555"	"14.956"	"16.204"	"19.966"	"21.463"	"21.478"	"21.625"	"21.744"	"19.046"	"15.659"	"12.136"
"1913"	"11.207"	"12.624"	"14.571"	"16.341"	"18.159"	"21.142"	"22.138"	"21.977"	"21.647"	"19.546"	"14.558"	"11.289"
"1914"	"11.067"	"12.122"	"15.51"	"16.639"	"19.665"	"22.078"	"22.617"	"20.857"	"21.593"	"18.133"	"15.358"	"12.543"
"1915"	"12.347"	"13.193"	"15.796"	"17.955"	"19.347"	"20.504"	"21.217"	"21.224"	"21.392"	"21.412"	"17.308"	"13.035"
"1916"	"11.347"	"12.74"	"16.363"	"17.294"	"19.529"	"21.995"	"21.064"	"22.078"	"22.381"	"19.528"	"16.632"	"11.911"
"1917"	"10.471"	"11.937"	"15.063"	"16.255"	"20.268"	"21.263"	"21.962"	"22.283"	"21.842"	"20.118"	"16.675"	"12.168"
"1918"	"10.811"	"12.391"	"15.51"	"17.551"	"21.279"	"20.181"	"21.78"	"21.778"	"22.045"	"20.018"	"15.476"	"12.04"
"1919"	"11.812"	"12.555"	"17.299"	"17.693"	"20.211"	"21.596"	"22.086"	"23.448"	"20.846"	"19.111"	"16.629"	"12.771"
"1920"	"12.583"	"12.155"	"14.585"	"16.872"	"19.173"	"21.196"	"22.817"	"21.724"	"21.945"	"19.964"	"15.99"	"13.542"
"1921"	"12.269"	"12.58"	"16.049"	"17.476"	"19.764"	"20.499"	"21.959"	"22.006"	"21.611"	"18.361"	"15.729"	"12.372"
"1922"	"11.89"	"13.335"	"16.245"	"17.999"	"20.411"	"21.015"	"22.038"	"21.806"	"22.28"	"19.546"	"16.32"	"12.436"
"1923"	"12.109"	"12.394"	"16.981"	"18.317"	"18.911"	"21.543"	"21.941"	"23.074"	"21.558"	"19.143"	"16.493"	"12.932"
"1924"	"11.272"	"12.49"	"17.56"	"18.273"	"18.964"	"21.977"	"21.809"	"21.654"	"21.41"	"20.944"	"16.308"	"12.828"
"1925"	"10.15"	"11.747"	"15.549"	"17.819"	"18.786"	"21.977"	"22.179"	"21.742"	"20.54"	"18.918"	"15.254"	"11.143"
"1926"	"11.211"	"12.552"	"14.513"	"16.97"	"19.909"	"21.181"	"21.744"	"22.542"	"22.47"	"20.082"	"15.358"	"12.903"
"1927"	"11.046"	"11.284"	"13.866"	"16.452"	"19.465"	"21.061"	"22.416"	"22.142"	"20.914"	"19.718"	"15.594"	"12.101"
"1928"	"11.297"	"13.583"	"16.445"	"19.176"	"19.686"	"21.46"	"22.599"	"22.042"	"21.845"	"18.512"	"14.394"	"12.265"
"1929"	"10.905"	"11.994"	"16.248"	"17.558"	"18.695"	"20.714"	"22.301"	"22.413"	"21.791"	"19.276"	"15.194"	"11.504"
"1930"	"10.051"	"12.231"	"15.249"	"17.372"	"20.562"	"20.514"	"23.306"	"22.392"	"21.87"	"18.376"	"15.137"	"11.7"
"1931"	"11.603"	"12.236"	"16.049"	"17.987"	"19.45"	"21.063"	"21.717"	"22.677"	"21.331"	"20.662"	"15.555"	"12.421"
"1932"	"11.347"	"11.245"	"16.31"	"18.791"	"19.04"	"21.382"	"22.316"	"21.842"	"21.71"	"19.852"	"16.258"	"12.636"
"1933"	"11.089"	"12.74"	"16.863"	"17.501"	"19.147"	"21.704"	"22.316"	"22.078"	"22.441"	"20.162"	"14.879"	"12.067"
"1934"	"11.494"	"12.675"	"16.409"	"18.163"	"19.093"	"20.11"	"22.455"	"22.398"	"21.963"	"19.511"	"15.194"	"11.735"
"1935"	"10.467"	"12.222"	"16.463"	"17.876"	"19.976"	"20.256"	"22.552"	"21.478"	"21.41"	"20.147"	"16.629"	"11.44"
"1936"	"9.951"	"11.658"	"16.563"	"17.97"	"20.665"	"21.906"	"22.416"	"22.142"	"22.242"	"19.093"	"16.312"	"12.654"
"1937"	"9.904"	"12.776"	"15.811"	"18.856"	"20.411"	"22.359"	"22.734"	"22.283"	"22.031"	"20.1"	"15.083"	"12.892"
"1938"	"11.347"	"12.533"	"15.721"	"18.859"	"20.919"	"21.582"	"21.78"	"22.081"	"21.884"	"20.247"	"14.477"	"12.385"
"1939"	"11.718"	"12.758"	"16.345"	"17.667"	"20.147"	"21.343"	"22.052"	"22.912"	"21.809"	"19.412"	"15.943"	"12.421"
"1940"	"10.864"	"12.612"	"13.83"	"18.841"	"19.829"	"21.906"	"22.251"	"22.878"	"21.546"	"19.948"	"15.334"	"13.27"
"1941"	"10.751"	"12.655"	"16.773"	"18.841"	"20.064"	"22.128"	"22.951"	"22.48"	"21.546"	"19.712"	"14.998"	"13.099"
"1942"	"11.647"	"13.708"	"16.174"	"18.695"	"19.496"	"21.325"	"23.203"	"22.628"	"21.795"	"20.444"	"16.093"	"11.774"
"1943"	"11.561"	"11.891"	"15.024"	"16.976"	"19.415"	"21.813"	"22.652"	"21.778"	"21.759"	"19.126"	"16.675"	"12.683"
"1944"	"10.864"	"12.079"	"16.331"	"17.693"	"19.826"	"21.696"	"22.948"	"22.613"	"20.849"	"19.986"	"15.397"	"13.373"
"1945"	"11.585"	"11.258"	"16.248"	"19.215"	"19.611"	"22.427"	"22.233"	"21.863"	"22.363"	"19.028"	"15.562"	"11.804"
"1946"	"12.183"	"14.751"	"16.209"	"18.727"	"20.401"	"21.663"	"21.98"	"23.031"	"22.045"	"19.579"	"16.696"	"12.938"
"1947"	"11.383"	"13.353"	"16.809"	"17.483"	"20.111"	"21.849"	"22.122"	"22.398"	"22.246"	"18.946"	"15.894"	"13.338"
"1948"	"11.729"	"11.919"	"15.128"	"18.566"	"18.408"	"21.414"	"21.916"	"22.377"	"22.48"	"19.147"	"16.439"	"11.639"
"1949"	"11.647"	"12.755"	"15.298"	"16.478"	"19.682"	"21.099"	"21.717"	"21.663"	"21.945"	"20.347"	"15.397"	"11.474"
"1950"	"11.264"	"12.276"	"15.463"	"17.976"	"19.912"	"21.142"	"22.215"	"21.643"	"21.824"	"19.683"	"15.933"	"12.889"
"1951"	"11.453"	"12.944"	"16.292"	"16.687"	"19.647"	"21.028"	"21.467"	"22.778"	"22.081"	"20.229"	"16.154"	"13.2"
"1952"	"12.062"	"14.452"	"15.667"	"19.19"	"20.064"	"22.76"	"22.752"	"22.395"	"21.449"	"20.315"	"16.693"	"13.449"
"1953"	"11.3"	"13.654"	"16.609"	"18.441"	"20.021"	"22.295"	"21.92"	"22.977"	"21.845"	"19.311"	"15.659"	"13.7"
"1954"	"10.782"	"14.015"	"16.445"	"17.884"	"19.629"	"20.982"	"21.081"	"21.307"	"22.01"	"18.95"	"15.194"	"12.4"
"1955"	"11.8"	"12.891"	"15.692"	"17.976"	"20.329"	"21.007"	"21.699"	"21.578"	"22.863"	"20.073"	"16.808"	"12.029"
"1956"	"11.108"	"13.687"	"15.71"	"19.155"	"20.018"	"21.292"	"22.767"	"22.459"	"22.578"	"19.769"	"15.822"	"12.732"
"1957"	"11.829"	"11.637"	"16.046"	"18.115"	"19.629"	"22.312"	"22.887"	"22.992"	"22.466"	"18.946"	"16.225"	"12.651"
"1958"	"12.05"	"11.934"	"17.033"	"19.554"	"19.329"	"23.91"	"23.648"	"21.478"	"22.899"	"19.966"	"16.243"	"12.953"
"1959"	"11.761"	"11.554"	"15.459"	"19.043"	"19.746"	"22.013"	"23.749"	"23.384"	"21.98"	"19.4"	"15.494"	"13.373"
"1960"	"11.383"	"14.493"	"16.381"	"19.59"	"21.896"	"22.613"	"22.67"	"23.613"	"22.099"	"20.836"	"16.014"	"13.913"
"1961"	"12.71"	"12.032"	"15.093"	"19.052"	"20.408"	"22.966"	"23.487"	"23.213"	"22.66"	"19.948"	"14.758"	"10.834"
"1962"	"10.272"	"12.189"	"14.71"	"18.308"	"19.545"	"21.378"	"22.951"	"21.525"	"22.163"	"19.447"	"15.355"	"12.656"
"1963"	"10.846"	"13.277"	"16.207"	"17.791"	"19.883"	"21.531"	"22.269"	"21.757"	"22.681"	"18.727"	"14.563"	"12.6"
"1964"	"10.632"	"12.299"	"14.739"	"17.058"	"19.553"	"20.11"	"21.002"	"21.842"	"21.296"	"20.196"	"15.975"	"11.515"
"1965"	"10.808"	"11.873"	"14.213"	"17.852"	"20.126"	"21.977"	"21.916"	"21.296"	"21.245"	"19.629"	"14.187"	"12.839"
"1966"	"11.947"	"13.837"	"17.227"	"18.4"	"20.911"	"20.342"	"22.477"	"21.343"	"21.546"	"18.748"	"17.176"	"12.674"
"1967"	"12.25"	"13.315"	"14.974"	"18.317"	"20.294"	"21.268"	"22.316"	"23.078"	"21.511"	"19.111"	"14.62"	"12.932"
"1968"	"11.469"	"11.78"	"15.656"	"17.495"	"19.233"	"21.977"	"22.316"	"22.659"	"22.566"	"18.798"	"15.559"	"12.001"
"1969"	"10.694"	"13.017"	"16.591"	"18.817"	"21.022"	"21.977"	"22.617"	"21.678"	"22.327"	"19.647"	"15.559"	"12.636"
"1970"	"10.51"	"12.24"	"15.796"	"18.353"	"19.437"	"21.977"	"22.086"	"22.477"	"21.084"	"19.332"	"15.873"	"12.04"
"1971"	"11.011"	"11.919"	"16.594"	"18.644"	"20.38"	"21.977"	"22.251"	"21.613"	"21.945"	"19.147"	"14.605"	"11.747"
"1972"	"11.847"	"12.693"	"15.513"	"16.431"	"20.157"	"22.142"	"22.459"	"22.814"	"21.614"	"19.948"	"15.624"	"12.514"
"1973"	"12.232"	"13.158"	"16.848"	"19.769"	"20.937"	"21.678"	"23.353"	"22.613"	"22.399"	"19.347"	"15.391"	"11.774"
"1974"	"11.007"	"13.392"	"15.796"	"16.579"	"20.378"	"21.977"	"21.134"	"22.413"	"21.561"	"20.901"	"17.161"	"11.66"
"1975"	"11.332"	"13.287"	"16.274"	"19.51"	"19.79"	"23.159"	"21.851"	"22.177"	"21.881"	"20.265"	"15.49"	"11.397"
"1976"	"11.329"	"13.102"	"15.639"	"18.355"	"19.982"	"20.831"	"22.215"	"22.06"	"21.938"	"19.046"	"16.359"	"12.154"
"1977"	"10.65"	"12.773"	"16.963"	"16.747"	"19.067"	"20.261"	"22.631"	"21.78"	"22.266"	"18.494"	"15.327"	"12.558"
"1978"	"10.485"	"12.527"	"15.448"	"18.019"	"20.682"	"22.298"	"22.179"	"23.271"	"21.58"	"20.347"	"15.023"	"12.253"
"1979"	"11.672"	"12.82"	"16.074"	"19.689"	"21.097"	"23.36"	"22.215"	"22.814"	"21.546"	"18.971"	"16.804"	"12.683"
"1980"	"10.993"	"12.637"	"15.596"	"18.405"	"20.36"	"22.775"	"22.76"	"22.377"	"22.282"	"19.247"	"15.806"	"13.135"
"1981"	"11.911"	"13.675"	"15.375"	"17.506"	"20.629"	"22.674"	"22.437"	"22.695"	"22.28"	"20.204"	"16.359"	"12.757"
"1982"	"12.526"	"12.516"	"15.811"	"16.833"	"20.955"	"21.578"	"22.215"	"23.117"	"21.783"	"19.507"	"15.24"	"12.178"
"1983"	"10.153"	"11.534"	"14.904"	"16.78"	"19.75"	"21.906"	"22.037"	"22.613"	"21.514"	"20.8"	"16.273"	"11.436"
"1984"	"10.603"	"13.033"	"16.934"	"18.306"	"19.367"	"22.563"	"21.564"	"22.713"	"20.946"	"20.097"	"14.623"	"12.63"
"1985"	"11.593"	"12.416"	"16.213"	"18.001"	"20.544"	"21.396"	"21.517"	"23.013"	"21.727"	"20.509"	"15.337"	"13.278"
"1986"	"11.947"	"13.38"	"16.077"	"17.237"	"20.901"	"22.814"	"22.33"	"22.377"	"21.346"	"18.494"	"15.415"	"12.736"
"1987"	"12.026"	"14.294"	"15.11"	"17.69"	"20.15"	"22.592"	"21.899"	"22.042"	"21.647"	"19.582"	"16.466"	"12.889"
"1988"	"11.711"	"13.954"	"15.749"	"18.242"	"19.667"	"23.249"	"22.215"	"21.877"	"21.798"	"20.286"	"16.558"	"14.297"
"1989"	"11.221"	"12.484"	"16.584"	"17.745"	"21.548"	"22.078"	"21.734"	"22.677"	"21.845"	"20.401"	"15.272"	"11.897"
"1990"	"12.937"	"12.947"	"14.649"	"16.257"	"20.678"	"21.977"	"22.452"	"23.078"	"21.267"	"19.546"	"17.316"	"13.87"
"1991"	"11.474"	"14.294"	"16.91"	"17.923"	"19.067"	"21.778"	"22.516"	"22.377"	"21.713"	"20.312"	"15.394"	"11.936"
"1992"	"11.347"	"11.008"	"15.469"	"18.009"	"19.711"	"21.906"	"22.325"	"22.912"	"22.445"	"19.543"	"15.994"	"11.51"
"1993"	"11.046"	"13.726"	"15.149"	"18.903"	"19.564"	"21.432"	"22.573"	"22.177"	"22.066"	"20.312"	"16.893"	"14.171"
"1994"	"12.786"	"13.13"	"15.257"	"18.329"	"21.977"	"22.948"	"22.87"	"23.648"	"23.16"	"18.832"	"15.788"	"12.282"
"1995"	"11.332"	"13.255"	"16.435"	"18.92"	"20.638"	"22.513"	"22.537"	"23.198"	"21.827"	"20.612"	"17.223"	"12.689"
"1996"	"11.886"	"13.986"	"16.201"	"19.416"	"20.064"	"23.048"	"22.33"	"22.698"	"23.102"	"20.247"	"16.776"	"13.8"
"1997"	"11.347"	"11.558"	"15.329"	"17.587"	"20.447"	"22.239"	"22.767"	"23.51"	"21.446"	"19.676"	"16.346"	"12.758"
"1998"	"11.665"	"13.608"	"15.37"	"19.187"	"22.514"	"21.608"	"23.013"	"22.477"	"23.142"	"21.769"	"17.776"	"13.873"
"1999"	"12.551"	"16.701"	"18.081"	"19.733"	"21.479"	"23.228"	"23.113"	"22.377"	"22.881"	"20.214"	"17.172"	"13.474"
"2000"	"11.285"	"13.366"	"15.311"	"17.822"	"20.426"	"22.71"	"23.513"	"22.531"	"21.681"	"20.587"	"16.041"	"12.853"
"2001"	"12.671"	"14.355"	"17.066"	"18.42"	"20.47"	"23.245"	"22.627"	"23.513"	"22.635"	"20.077"	"16.958"	"13.32"
"2002"	"12.211"	"14.929"	"16.812"	"18.555"	"19.922"	"22.958"	"22.863"	"22.912"	"22.311"	"19.841"	"16.908"	"13.236"
