
"Year"	"Jan"	"Feb"	"Mar"	"Apr"	"May"	"Jun"	"Jul"	"Aug"	"Sep"	"Oct"	"Nov"	"Dec"
"1901"	"0"	"0.332"	"0.485"	"10.176"	"18.443"	"147.65"	"105.476"	"34.015"	"31.476"	"40.667"	"34.936"	"9.517"
"1902"	"0.039"	"0"	"0.477"	"2.441"	"7.625"	"128.952"	"149.998"	"26.971"	"34.26"	"53.002"	"11.179"	"9.102"
"1903"	"0"	"0"	"0"	"2.749"	"55.332"	"108.149"	"240.831"	"55.462"	"74.364"	"17.787"	"14.155"	"22.6"
"1904"	"0"	"0"	"1.05"	"10.395"	"45.511"	"171.47"	"119.655"	"21.897"	"35.457"	"39.443"	"0.134"	"0.044"
"1905"	"0"	"0"	"1.684"	"2.836"	"41.699"	"62.688"	"82.705"	"44.205"	"12.504"	"49.155"	"11.314"	"0.044"
"1906"	"2.8"	"0"	"0"	"0.704"	"10.102"	"63.71"	"107.904"	"135.962"	"32.987"	"35.865"	"5.354"	"11.13"
"1907"	"2.501"	"0"	"0"	"14.985"	"16.886"	"139.652"	"170.885"	"131.419"	"54.43"	"22.812"	"31.321"	"2.25"
"1908"	"0"	"0.469"	"0"	"12.77"	"11.113"	"57.646"	"151.096"	"61.191"	"6.894"	"12.342"	"0.134"	"0.044"
"1909"	"1.926"	"0"	"2.058"	"3.983"	"57.257"	"115.51"	"154.719"	"50.918"	"24.907"	"26.144"	"13.249"	"10.834"
"1910"	"0"	"0"	"1.341"	"6.394"	"28.96"	"92.012"	"150.382"	"113.023"	"29.287"	"61.349"	"15.581"	"0.044"
"1911"	"0"	"0"	"0"	"4.902"	"14.096"	"102.295"	"215.698"	"22.688"	"23.721"	"43.249"	"7.252"	"1.206"
"1912"	"0"	"0"	"1.05"	"9.897"	"25.068"	"136.31"	"201.813"	"85.039"	"21.154"	"47.54"	"7.033"	"0.044"
"1913"	"0"	"0"	"0"	"8.96"	"29.185"	"94.908"	"149.356"	"49.516"	"48.859"	"44.319"	"0.134"	"0.971"
"1914"	"0.058"	"0"	"0"	"0.153"	"8.044"	"52.768"	"203.646"	"96.877"	"35.876"	"44.588"	"19.792"	"9.613"
"1915"	"2.378"	"0.348"	"2.143"	"10.219"	"13.566"	"104.522"	"88.466"	"24.122"	"31.343"	"23.905"	"13.136"	"5.356"
"1916"	"0"	"0"	"0"	"4.317"	"28.13"	"199.719"	"80.338"	"65.876"	"32.578"	"45.043"	"36.693"	"0.044"
"1917"	"0"	"1.857"	"0.058"	"0.274"	"29.915"	"70.019"	"52.709"	"63.394"	"86.341"	"75.655"	"30.832"	"0.044"
"1918"	"1.926"	"0"	"1.815"	"4.518"	"51.957"	"34.27"	"22.97"	"35.885"	"15.855"	"17.239"	"43.922"	"2.988"
"1919"	"0"	"0"	"0"	"3.784"	"30.91"	"133.099"	"129.22"	"47.839"	"33.721"	"34.396"	"36.597"	"1.872"
"1920"	"0.329"	"0"	"0.015"	"10.246"	"17.197"	"87.437"	"127.196"	"19.853"	"28.464"	"16.222"	"10.417"	"0.044"
"1921"	"2.131"	"0"	"0"	"13.824"	"3.474"	"60.257"	"121.533"	"73.22"	"23.246"	"25.053"	"15.68"	"0.044"
"1922"	"0"	"0"	"0"	"10.949"	"39.605"	"75.061"	"106.417"	"40.5"	"15.285"	"24.766"	"43.058"	"0.044"
"1923"	"0.618"	"0"	"2.7"	"2.329"	"38.486"	"69.871"	"323.475"	"96.482"	"20.651"	"7.806"	"0.134"	"1.737"
"1924"	"0"	"0"	"0.418"	"13.741"	"30.362"	"87.099"	"327.098"	"43.189"	"28.225"	"14.277"	"13.976"	"13.537"
"1925"	"0"	"0"	"2.457"	"7.987"	"17.044"	"112.477"	"132.721"	"49.171"	"22.9"	"14.889"	"3.962"	"10.834"
"1926"	"4.241"	"0"	"0.131"	"3.612"	"17.106"	"60.974"	"231.627"	"91.147"	"35.039"	"27.454"	"0.752"	"0.044"
"1927"	"0"	"0"	"0.722"	"3.995"	"18.205"	"65.706"	"137.574"	"42.237"	"57.053"	"6.445"	"36.093"	"0.044"
"1928"	"0"	"1.325"	"1.278"	"14.508"	"16.456"	"63.991"	"82.604"	"72.814"	"5.99"	"69.213"	"5.76"	"8.645"
"1929"	"0.918"	"0"	"0.483"	"19.505"	"64.291"	"204.206"	"103.436"	"40.621"	"43.328"	"32.434"	"26.09"	"0.054"
"1930"	"0.483"	"0"	"2.429"	"4.782"	"34.578"	"102.849"	"50.933"	"30.556"	"45.704"	"63.979"	"1.739"	"0.044"
"1931"	"0"	"0"	"0"	"10.505"	"35.563"	"99.856"	"83.845"	"147.651"	"58.728"	"10.625"	"20.521"	"9.381"
"1932"	"0"	"0"	"0"	"3.878"	"62.257"	"33.937"	"136.434"	"173.442"	"31.344"	"66.697"	"18.065"	"0.446"
"1933"	"0"	"0"	"1.137"	"5.331"	"72.363"	"95.452"	"121.33"	"152.905"	"58.538"	"67.741"	"2.485"	"5.996"
"1934"	"1.247"	"0"	"0"	"5.896"	"8.003"	"126.402"	"74.972"	"85.737"	"10.236"	"27.686"	"2.179"	"0.372"
"1935"	"0"	"0.041"	"1.793"	"10.687"	"7.363"	"104.822"	"107.148"	"79.46"	"28.972"	"53.771"	"1.379"	"0.643"
"1936"	"0"	"0.483"	"3.796"	"3.692"	"25.401"	"173.931"	"61.591"	"41.738"	"45.916"	"34.92"	"26.816"	"4.328"
"1937"	"0"	"0"	"1.292"	"11.553"	"10.981"	"55.519"	"196.228"	"34.766"	"14.607"	"45.524"	"0.501"	"1.788"
"1938"	"0"	"0"	"2.896"	"10.052"	"16.833"	"74.098"	"77.194"	"111.412"	"58.159"	"5.889"	"7.212"	"0.044"
"1939"	"0"	"0"	"2.209"	"15.014"	"17.592"	"68.355"	"100.51"	"73.082"	"11.431"	"81.119"	"13.87"	"0.044"
"1940"	"0"	"0"	"0"	"6.893"	"11.463"	"79.074"	"102.092"	"105.359"	"11.513"	"37.947"	"27.644"	"12.46"
"1941"	"0.01"	"0"	"0"	"7.142"	"29.916"	"132.576"	"115.704"	"83.117"	"29.615"	"46.051"	"6.549"	"17.669"
"1942"	"0"	"0"	"0"	"11.622"	"26.848"	"181.378"	"168.712"	"54.148"	"10.336"	"39.157"	"2.411"	"11.84"
"1943"	"1.515"	"0"	"0"	"2.986"	"63.484"	"65.505"	"97.744"	"29.684"	"63.678"	"91.411"	"16.301"	"0.044"
"1944"	"0"	"2.055"	"1.3"	"4.876"	"25.918"	"68.699"	"173.843"	"31.485"	"25.192"	"69.248"	"19.632"	"1.261"
"1945"	"0"	"0"	"0"	"7.987"	"10.41"	"73.159"	"189.438"	"40.745"	"13.208"	"22.469"	"5.574"	"0.044"
"1946"	"0"	"0"	"2.408"	"18.746"	"9.977"	"133.354"	"142.669"	"134.77"	"76.014"	"52.588"	"18.974"	"7.084"
"1947"	"0"	"0"	"1.225"	"8.504"	"9.266"	"57.779"	"154.615"	"99.65"	"41.556"	"33.827"	"0.596"	"5.948"
"1948"	"1.029"	"0"	"1.588"	"7.202"	"25.235"	"66.832"	"78.831"	"197.951"	"18.759"	"9.209"	"37.238"	"0.044"
"1949"	"0"	"0"	"0"	"0.128"	"47.682"	"34.983"	"96.447"	"102.649"	"27.388"	"21.917"	"0.564"	"0.044"
"1950"	"0"	"0"	"0"	"0.319"	"36.186"	"57.091"	"184.061"	"76.911"	"83.152"	"26.058"	"25.855"	"0.044"
"1951"	"0"	"0"	"0.984"	"12.969"	"62.606"	"63.081"	"171.798"	"45.1"	"81.964"	"28.157"	"17.207"	"0.044"
"1952"	"0"	"0"	"0"	"9.647"	"22.335"	"59.283"	"95.634"	"79.721"	"7.215"	"50.19"	"0.134"	"13.75"
"1953"	"0.348"	"0"	"0"	"12.597"	"9.235"	"151.756"	"305.017"	"132.82"	"38.702"	"56.459"	"0.478"	"0.044"
"1954"	"0.676"	"0"	"0.598"	"21.526"	"49.253"	"136.781"	"149.524"	"93.966"	"23.212"	"30.721"	"0.211"	"4.572"
"1955"	"0"	"0"	"3.606"	"12.126"	"78.236"	"102.317"	"66.14"	"61.95"	"43.364"	"43.408"	"5.127"	"0.139"
"1956"	"0"	"0.838"	"0"	"12.314"	"33.482"	"137.269"	"143.004"	"67.78"	"14.539"	"58.013"	"34.717"	"0.044"
"1957"	"0"	"0"	"0.123"	"1.319"	"36.967"	"188.605"	"106.542"	"102.053"	"10.53"	"41.078"	"54.096"	"0.102"
"1958"	"0"	"0"	"0.44"	"8.434"	"38.505"	"127.552"	"272.933"	"128.332"	"33.917"	"45.475"	"15.645"	"0.218"
"1959"	"0"	"0"	"0"	"5.769"	"37.614"	"194.159"	"286.827"	"78.066"	"66.09"	"18.033"	"13.651"	"2.52"
"1960"	"0"	"0"	"2.185"	"7.565"	"37.925"	"54.488"	"105.315"	"27.65"	"56.55"	"64.294"	"21.169"	"0.044"
"1961"	"0"	"0"	"0"	"10.753"	"56.696"	"162.736"	"360.982"	"78.063"	"42.349"	"38.249"	"1.796"	"0.179"
"1962"	"0.908"	"1.123"	"0.197"	"12.165"	"50.179"	"34.747"	"152.065"	"112.635"	"13.625"	"53.999"	"3.838"	"24.494"
"1963"	"0"	"0"	"3.631"	"15.366"	"25.392"	"48.104"	"89.927"	"108.321"	"22.395"	"60.482"	"7.866"	"4.897"
"1964"	"0"	"0"	"0"	"6.531"	"4.377"	"80.301"	"112.395"	"229.148"	"26.696"	"30.976"	"8.302"	"3.17"
"1965"	"1.948"	"0"	"0.634"	"2.895"	"13.075"	"77.257"	"146.994"	"57.487"	"22.317"	"7.057"	"11.749"	"16.121"
"1966"	"1.17"	"0.015"	"0.919"	"2.713"	"30.72"	"33.508"	"126.616"	"21.484"	"42.393"	"52.502"	"30.687"	"8.511"
"1967"	"0.72"	"0"	"0"	"9.026"	"16.952"	"103.706"	"150.533"	"69.766"	"13.652"	"19.495"	"2.968"	"0.488"
"1968"	"0"	"1.585"	"0.919"	"13.873"	"22.052"	"74.721"	"129.589"	"46.68"	"44.192"	"23.588"	"3.304"	"0.044"
"1969"	"0"	"0"	"0"	"9.766"	"13.249"	"42.94"	"127.589"	"114.199"	"34.511"	"47.323"	"16.657"	"1.823"
"1970"	"0.858"	"0"	"0"	"12.823"	"26.607"	"49.368"	"100.64"	"79.846"	"36.598"	"36.747"	"7.384"	"0.044"
"1971"	"0"	"0.56"	"0.039"	"11.257"	"24.73"	"170.551"	"92.73"	"72.81"	"74.566"	"15.218"	"4.377"	"5.965"
"1972"	"0"	"0"	"0"	"2.045"	"59.642"	"69.845"	"75.703"	"40.045"	"51.307"	"27.142"	"6.172"	"0.198"
"1973"	"0"	"0"	"0"	"3.759"	"18.713"	"102.831"	"126.283"	"85.595"	"8.615"	"19.645"	"2.814"	"3.886"
"1974"	"0"	"0"	"0.903"	"5.576"	"35.572"	"34.788"	"148.079"	"78.225"	"63.079"	"22.241"	"0.424"	"0.044"
"1975"	"2.883"	"0"	"0.603"	"3.039"	"31.111"	"153.747"	"91.632"	"104.735"	"52.751"	"28.596"	"12.967"	"0.254"
"1976"	"0"	"0"	"0.11"	"10.843"	"7.842"	"152.263"	"61.839"	"73.878"	"32.434"	"5.788"	"35.757"	"3.003"
"1977"	"0"	"0.112"	"0.84"	"14.312"	"37.219"	"103.556"	"107.394"	"41.286"	"48.661"	"57.636"	"30.735"	"0.044"
"1978"	"0"	"2.152"	"0"	"4.619"	"51.792"	"98.006"	"136.24"	"92.412"	"37.047"	"29.099"	"21.258"	"25.94"
"1979"	"0"	"0"	"1.093"	"6.379"	"17.638"	"99.007"	"47.242"	"95.972"	"50.382"	"35.512"	"37.369"	"0.044"
"1980"	"0"	"0"	"0"	"13.912"	"24.472"	"98.653"	"167.158"	"65.226"	"69.772"	"28.84"	"45.595"	"0.595"
"1981"	"1.16"	"0"	"2.736"	"3.614"	"20.847"	"65.179"	"62.569"	"191.343"	"28.103"	"30.69"	"6.337"	"0.411"
"1982"	"0"	"0"	"0"	"2.948"	"56.041"	"75.257"	"68.637"	"79.957"	"41.283"	"19.865"	"13.818"	"0.16"
"1983"	"0"	"0"	"0"	"0.087"	"14.547"	"134.101"	"88.616"	"108.09"	"51.965"	"30.325"	"10.227"	"5.509"
"1984"	"0.29"	"0.598"	"4.616"	"15.484"	"4.207"	"115.169"	"59.094"	"36.537"	"73.427"	"38.668"	"0.987"	"0.092"
"1985"	"0.232"	"0"	"0.687"	"8.611"	"15.967"	"114.841"	"73.799"	"70.374"	"22.287"	"52.297"	"11.982"	"0.629"
"1986"	"1.401"	"0.307"	"0.124"	"1.672"	"12.162"	"110.06"	"63.275"	"80.928"	"46.605"	"19.371"	"21.821"	"0.991"
"1987"	"0"	"0.044"	"0.299"	"3.429"	"17.287"	"79.125"	"55.152"	"61.072"	"34.287"	"39.652"	"5.761"	"12.719"
"1988"	"0"	"0"	"0.315"	"15.351"	"21.082"	"98.807"	"126.409"	"101.676"	"73.076"	"8.944"	"4.643"	"2.65"
"1989"	"0"	"0"	"0.89"	"10.993"	"15.827"	"100.433"	"95.549"	"46.001"	"40.513"	"24.281"	"3.232"	"0.395"
"1990"	"0"	"0"	"0"	"3.773"	"46.472"	"67.977"	"87.016"	"56.571"	"14.959"	"28.603"	"14.211"	"0.152"
"1991"	"0"	"0"	"0.148"	"10.159"	"15.173"	"126.768"	"124.776"	"78.028"	"26.347"	"23.323"	"5.028"	"0.044"
"1992"	"0"	"0"	"0"	"8.011"	"23.199"	"135.493"	"114.819"	"86.545"	"55.338"	"45.009"	"37.043"	"0.044"
"1993"	"0"	"0"	"1.131"	"3.675"	"19.194"	"99.856"	"119.201"	"65.485"	"12.494"	"42.958"	"10.686"	"8.851"
"1994"	"0"	"0"	"0.502"	"15.458"	"8.569"	"125.253"	"190.14"	"80.931"	"23.932"	"57.414"	"4.704"	"0.876"
"1995"	"0.916"	"0"	"0.073"	"6.121"	"19.919"	"67.336"	"91.005"	"71.852"	"40.385"	"36.207"	"4.047"	"0.044"
"1996"	"0"	"0.044"	"0.905"	"5.419"	"6.584"	"144.51"	"93.876"	"64.848"	"49.703"	"44.216"	"1.425"	"4.326"
"1997"	"0.82"	"0"	"0.887"	"3.574"	"6.574"	"128.069"	"136.532"	"127.296"	"22.922"	"36.842"	"21.984"	"11.572"
"1998"	"0"	"0.315"	"0.252"	"2.076"	"23.632"	"125.908"	"112.023"	"85.376"	"56.771"	"38.053"	"10.593"	"5.357"
"1999"	"0"	"0.216"	"0.589"	"4.291"	"34.978"	"97.988"	"111.178"	"40.604"	"9.628"	"63.971"	"3.556"	"0.134"
"2000"	"0"	"0.112"	"0"	"8.126"	"15.684"	"76.362"	"83.466"	"76.798"	"43.569"	"36.167"	"10.314"	"5.076"
"2001"	"0"	"0.148"	"0"	"15.311"	"20.982"	"61.56"	"118.915"	"60.628"	"27.762"	"31.988"	"12.418"	"0.687"
"2002"	"0"	"0.068"	"0.105"	"4.111"	"29.779"	"105.424"	"43.987"	"79.247"	"12.795"	"62.073"	"8.328"	"0.076"
