
"Year"	"Jan"	"Feb"	"Mar"	"Apr"	"May"	"Jun"	"Jul"	"Aug"	"Sep"	"Oct"	"Nov"	"Dec"
"1901"	"6.749"	"0.059"	"1.631"	"0.739"	"7.661"	"82.492"	"369.301"	"282.527"	"59.045"	"67.563"	"0.257"	"0.144"
"1902"	"4.473"	"0.029"	"0"	"0.184"	"1.039"	"52.887"	"266.616"	"152.277"	"186.42"	"36.857"	"82.162"	"6.7"
"1903"	"0.469"	"0"	"0"	"0"	"6.691"	"56.468"	"451.808"	"283.53"	"192.253"	"9.881"	"0.257"	"0"
"1904"	"0.032"	"2.23"	"3.87"	"0"	"22.776"	"57.853"	"171.213"	"106.425"	"148.45"	"26.042"	"0.887"	"1.423"
"1905"	"0.122"	"1.621"	"0.072"	"0.008"	"6.974"	"21.395"	"476.951"	"91.817"	"278.316"	"0.268"	"0.74"	"0.031"
"1906"	"0"	"0.714"	"0.264"	"0"	"0.193"	"190.568"	"384.5"	"233.402"	"252.674"	"2.012"	"0.257"	"5.606"
"1907"	"9.187"	"3.782"	"0.004"	"3.312"	"0.43"	"80.468"	"287.209"	"312.359"	"22.758"	"0.268"	"8.306"	"0"
"1908"	"0.689"	"0"	"5.086"	"0.915"	"0.032"	"153.304"	"425.977"	"302.921"	"94.398"	"0.867"	"0.844"	"0.027"
"1909"	"2.757"	"0.107"	"0.067"	"1.08"	"6.302"	"110.387"	"364.065"	"271.135"	"344.137"	"0.408"	"0.257"	"9.08"
"1910"	"0.683"	"0"	"0"	"0.486"	"7.481"	"205.758"	"153.739"	"321.281"	"219.154"	"62.563"	"25.37"	"0"
"1911"	"0.919"	"0"	"0.883"	"0"	"0"	"138.29"	"130.895"	"203.036"	"80.708"	"1.191"	"58.99"	"0.124"
"1912"	"0.134"	"0.496"	"0"	"0.052"	"0.421"	"76.587"	"382.545"	"237.952"	"51.124"	"4.816"	"90.709"	"0.073"
"1913"	"0"	"0.239"	"0.313"	"0"	"4.342"	"128.338"	"412.571"	"148.774"	"255.729"	"0.313"	"0.364"	"4.789"
"1914"	"0"	"0.318"	"0.632"	"0.591"	"33.963"	"176.48"	"420.217"	"150.804"	"421.863"	"2.52"	"14.225"	"4.091"
"1915"	"2.42"	"7.132"	"12.347"	"2.681"	"6.71"	"143.79"	"252.789"	"118.3"	"232.707"	"135.194"	"2.383"	"4.078"
"1916"	"0"	"0.523"	"0"	"0.04"	"10.64"	"110.24"	"383.286"	"252.175"	"274.05"	"49.45"	"29.867"	"0"
"1917"	"0.262"	"1.732"	"0.499"	"0.516"	"31.555"	"93.749"	"152.592"	"174.658"	"434.381"	"76.945"	"0.257"	"0.145"
"1918"	"0.086"	"0.046"	"0.346"	"0"	"25.327"	"102.62"	"129.044"	"133.904"	"49.256"	"0.977"	"35.318"	"0.239"
"1919"	"7.803"	"0.023"	"0"	"0.471"	"3.81"	"220.211"	"255.805"	"284.085"	"152.266"	"58.703"	"43.698"	"0.241"
"1920"	"1.63"	"0.226"	"0.112"	"0.07"	"8.174"	"78.947"	"254.218"	"84.802"	"78.846"	"0.268"	"0.257"	"0"
"1921"	"2.189"	"0.038"	"0"	"0"	"0"	"180.588"	"326.777"	"186.402"	"263.492"	"1.403"	"0.257"	"0"
"1922"	"3.625"	"1.171"	"0"	"0"	"0.247"	"110.009"	"267.751"	"57.852"	"360.881"	"7.246"	"55.514"	"2.969"
"1923"	"0.065"	"0.12"	"4.409"	"1.007"	"1.431"	"16.541"	"530.095"	"234.877"	"299.907"	"1.333"	"0.456"	"0.751"
"1924"	"3.996"	"0.034"	"0.067"	"0.011"	"13.481"	"77.883"	"236.316"	"205.112"	"203.328"	"85.895"	"0.288"	"2.979"
"1925"	"0"	"0"	"0"	"0"	"22.654"	"98.434"	"209.169"	"148.777"	"82.867"	"0.817"	"87.363"	"1.082"
"1926"	"5.449"	"0.628"	"0.909"	"2.196"	"6.829"	"27.123"	"218.026"	"422.011"	"122.838"	"2.651"	"18.707"	"0.069"
"1927"	"0"	"0.908"	"2.183"	"0.293"	"0.571"	"94.771"	"406.473"	"140.377"	"185.223"	"34.847"	"78.828"	"5.894"
"1928"	"0.197"	"7.14"	"0.512"	"0.068"	"0.28"	"74.549"	"297.751"	"157.409"	"221.43"	"81.215"	"6.742"	"36.733"
"1929"	"2.055"	"3.899"	"0"	"7.503"	"0"	"190.17"	"277.151"	"101.135"	"80.598"	"13.674"	"0.257"	"1.158"
"1930"	"0.891"	"0.006"	"0"	"0.209"	"11.973"	"174.121"	"303.173"	"163.054"	"343.946"	"6.751"	"6.504"	"0"
"1931"	"0.166"	"0.093"	"0"	"0"	"0.306"	"140.206"	"344.914"	"422.225"	"307.75"	"111.12"	"24.728"	"0.877"
"1932"	"0"	"4.114"	"7.294"	"0.478"	"0"	"79.87"	"440.192"	"210.424"	"307.286"	"18.44"	"0.257"	"0"
"1933"	"0"	"0.484"	"0.36"	"0.842"	"13.674"	"239.388"	"199.528"	"339.096"	"501.992"	"6.905"	"15.141"	"13.794"
"1934"	"3.964"	"0"	"0.735"	"0"	"0"	"192.927"	"387.335"	"564.076"	"361.716"	"1.605"	"102.186"	"1.154"
"1935"	"0.364"	"0.105"	"0"	"4.861"	"1.113"	"84.264"	"395.868"	"171.709"	"256.964"	"66.845"	"1.02"	"0.928"
"1936"	"0"	"0.269"	"4.179"	"0.501"	"20.864"	"201.881"	"102.354"	"109.52"	"275.991"	"0.268"	"129.592"	"0.177"
"1937"	"0"	"0.554"	"0.871"	"0.513"	"0.149"	"100.92"	"353.28"	"41.54"	"353.865"	"30.963"	"1.211"	"0.949"
"1938"	"0.803"	"0"	"2.698"	"0.148"	"35.11"	"325.374"	"458.589"	"190.456"	"254.195"	"71.687"	"0.74"	"0"
"1939"	"0.464"	"0.483"	"3.924"	"0.04"	"0"	"30.818"	"329.077"	"359.51"	"145.356"	"7.536"	"12.819"	"5.548"
"1940"	"0.412"	"0.844"	"2.151"	"0.649"	"17.904"	"188.825"	"329.947"	"266.251"	"115.268"	"41.075"	"24.728"	"1.183"
"1941"	"6.593"	"7.704"	"3.896"	"0.664"	"0.123"	"18.533"	"382.178"	"167.852"	"147.088"	"0.305"	"0.257"	"0.011"
"1942"	"3.237"	"1.64"	"0.004"	"0.44"	"1.896"	"95.476"	"403.555"	"489.803"	"159.029"	"0.281"	"0.257"	"14.734"
"1943"	"2.342"	"0"	"0"	"2.426"	"6.957"	"138.186"	"244.306"	"84.245"	"286.389"	"36.464"	"0.257"	"0"
"1944"	"1.805"	"0.565"	"6.795"	"0.848"	"0.754"	"79.859"	"474.209"	"466.639"	"216.379"	"29.393"	"0.257"	"0.165"
"1945"	"6.611"	"0"	"0"	"0.396"	"1.424"	"52.359"	"264.078"	"396.81"	"350.476"	"2.952"	"0.257"	"0"
"1946"	"0"	"2.228"	"0"	"0.912"	"5.542"	"355.167"	"259.979"	"298.853"	"134.407"	"1.266"	"133.56"	"7.202"
"1947"	"2.309"	"0.847"	"2.596"	"1.849"	"0.329"	"39.346"	"270.309"	"341.452"	"343.461"	"14.072"	"0.27"	"10.757"
"1948"	"14.595"	"0.282"	"0.456"	"1.775"	"7.533"	"182.584"	"471.702"	"209.602"	"143.967"	"5.293"	"63.681"	"0.147"
"1949"	"0.019"	"0.034"	"0"	"0.034"	"7.611"	"135.117"	"314.522"	"247.076"	"339.326"	"52.756"	"0.892"	"0"
"1950"	"0.17"	"0.023"	"0.946"	"0"	"3.024"	"16.904"	"364.501"	"86.241"	"364.525"	"4.756"	"1.191"	"9.05"
"1951"	"0.116"	"0.357"	"1.282"	"6.175"	"0.88"	"69.795"	"203.895"	"170.248"	"109.535"	"77.523"	"2.562"	"0"
"1952"	"0"	"1.32"	"0.031"	"0.539"	"2.209"	"109.212"	"258.723"	"129.26"	"104.276"	"1.811"	"0.257"	"2.251"
"1953"	"1.819"	"0"	"0"	"0.597"	"0.136"	"83.73"	"284.032"	"271.103"	"127.124"	"23.552"	"0.257"	"0"
"1954"	"8.294"	"0.483"	"1.511"	"0"	"0"	"51.061"	"313.269"	"245.951"	"572.181"	"5.651"	"0.464"	"0"
"1955"	"2.839"	"0"	"0"	"0.079"	"0.057"	"154.23"	"164.949"	"357.707"	"398.697"	"80.481"	"0.257"	"0.038"
"1956"	"7.345"	"0"	"0.138"	"3.42"	"3.965"	"198.524"	"314.065"	"229.76"	"186.114"	"22.505"	"45.298"	"0.651"
"1957"	"0.371"	"0"	"4.765"	"2.007"	"5.637"	"117.408"	"256.27"	"230.316"	"123.087"	"7.167"	"5.549"	"0.101"
"1958"	"1.822"	"0"	"0.484"	"0.994"	"14.634"	"112.702"	"319.767"	"363.269"	"265.24"	"51.905"	"53.031"	"0.093"
"1959"	"8.63"	"0.04"	"0"	"1.989"	"4.289"	"98.235"	"413.749"	"310.235"	"507.208"	"99.634"	"60.621"	"0"
"1960"	"13.025"	"0"	"1.614"	"0.371"	"8.191"	"242.687"	"217.348"	"294.025"	"100.014"	"49.882"	"0.257"	"0.166"
"1961"	"5.451"	"0.546"	"0.029"	"0.049"	"10.234"	"111.306"	"319.488"	"209.345"	"334.102"	"136.706"	"5.1"	"7.569"
"1962"	"0.456"	"0.111"	"11.171"	"4.259"	"6.339"	"62.318"	"322.478"	"101.138"	"375.065"	"0.268"	"56.861"	"31.415"
"1963"	"2.038"	"2.399"	"0.865"	"0.154"	"2.49"	"120.181"	"276.169"	"250.561"	"123.036"	"36.937"	"49.993"	"0.26"
"1964"	"0"	"0"	"1.838"	"0"	"1.068"	"185.916"	"289.893"	"366.217"	"186.856"	"11.203"	"0.257"	"0.093"
"1965"	"5.244"	"0.004"	"1.768"	"0.836"	"0.082"	"48.067"	"292.603"	"298.988"	"48.218"	"2.036"	"0.345"	"5.005"
"1966"	"0.616"	"0"	"3.877"	"0"	"22.498"	"39.394"	"304.679"	"151.379"	"246.729"	"0.709"	"66.302"	"4.768"
"1967"	"0"	"0"	"5.687"	"0.668"	"0.135"	"182.249"	"291.474"	"283.39"	"87.369"	"4.599"	"0.257"	"38.509"
"1968"	"0.401"	"4.105"	"4.024"	"0.62"	"0.008"	"26.066"	"254.154"	"538.471"	"112.101"	"6.743"	"0.257"	"0.023"
"1969"	"1.013"	"0.034"	"0.004"	"0"	"0.495"	"127.728"	"356.772"	"260.998"	"370.153"	"0.268"	"49.751"	"0"
"1970"	"8.966"	"0.437"	"0.783"	"6.945"	"17.721"	"332.947"	"108.549"	"362.874"	"306.205"	"0.505"	"0.257"	"0"
"1971"	"0.181"	"0.153"	"0"	"0.05"	"17.29"	"78.87"	"168.15"	"241.045"	"188.852"	"24.36"	"0.355"	"0"
"1972"	"0"	"0.043"	"0"	"0.015"	"0.661"	"114.051"	"162.553"	"307.418"	"184.698"	"2.924"	"37.653"	"0.26"
"1973"	"0.064"	"4.529"	"0"	"0"	"0.59"	"123.5"	"324.617"	"385.298"	"228.404"	"56.942"	"0.257"	"1.31"
"1974"	"0"	"2.777"	"0"	"9.229"	"30.94"	"91.276"	"289.029"	"398.105"	"165.976"	"53.459"	"0.257"	"0.038"
"1975"	"0.239"	"0.325"	"1.42"	"0"	"5.716"	"120.896"	"328.878"	"392.03"	"214.687"	"46.802"	"0.257"	"0"
"1976"	"0.601"	"0.041"	"3.515"	"0.78"	"1.002"	"118.427"	"344.355"	"195.558"	"142.093"	"0.268"	"48.197"	"4.728"
"1977"	"0.158"	"0.274"	"5.066"	"0.663"	"1.696"	"206.634"	"254.216"	"228.187"	"170.006"	"28.827"	"115.376"	"0.363"
"1978"	"8.924"	"10.538"	"5.705"	"1.402"	"0"	"155.152"	"273.79"	"325.579"	"88.683"	"22.019"	"25.212"	"7.342"
"1979"	"9.128"	"1.44"	"1.654"	"0"	"1.45"	"117.67"	"306.159"	"310.085"	"95.862"	"34.544"	"59.324"	"6.287"
"1980"	"0.815"	"0.027"	"0.075"	"0"	"0.008"	"210.133"	"138.891"	"336.563"	"109.131"	"0.428"	"0.377"	"19.914"
"1981"	"7.237"	"0.023"	"0.4"	"0.011"	"6.956"	"68.624"	"274.924"	"455.125"	"143.866"	"20.45"	"28.281"	"2.907"
"1982"	"6.684"	"0.746"	"3.682"	"0.253"	"6.179"	"167.914"	"174.982"	"200.528"	"71.12"	"24.227"	"36.483"	"0.226"
"1983"	"0.138"	"0"	"0"	"0.319"	"0.621"	"75.194"	"354.524"	"346.817"	"356.558"	"49.726"	"0.257"	"0.845"
"1984"	"2.536"	"3.122"	"0.199"	"0.146"	"0.13"	"60.912"	"235.267"	"236.866"	"47.085"	"41.673"	"1.669"	"0.943"
"1985"	"0.55"	"0"	"1.131"	"7.258"	"7.107"	"39.659"	"203.534"	"282.249"	"111.661"	"122.489"	"0.257"	"0"
"1986"	"0.602"	"2.743"	"0.847"	"0"	"4.924"	"82.65"	"349.848"	"283.675"	"63.614"	"14.584"	"0.257"	"2.481"
"1987"	"3.823"	"2.74"	"2.186"	"0"	"11.893"	"120.743"	"160.764"	"301.667"	"41.94"	"29.137"	"13.241"	"16.816"
"1988"	"1.444"	"0.04"	"0.353"	"4.17"	"0.381"	"137.939"	"296.986"	"265.422"	"200.206"	"46.972"	"1.49"	"0.221"
"1989"	"1.124"	"0"	"8.021"	"0"	"4.498"	"164.994"	"93.647"	"240.186"	"161.04"	"0.268"	"0.257"	"1.949"
"1990"	"0.299"	"4.824"	"0.042"	"0"	"26.915"	"146.654"	"262.393"	"438.112"	"256.208"	"4.187"	"3.657"	"15.568"
"1991"	"0"	"0.085"	"0.832"	"0.187"	"3.3"	"192.954"	"331.439"	"156.817"	"38.225"	"1.234"	"3.359"	"2.605"
"1992"	"0.732"	"0.428"	"0"	"0"	"14.922"	"70.436"	"130.806"	"205.329"	"328.734"	"25.855"	"0.257"	"0"
"1993"	"0"	"0.074"	"1.45"	"0.034"	"4.033"	"150.499"	"346.132"	"215.572"	"222.447"	"17.381"	"2.659"	"1.086"
"1994"	"16.363"	"0.348"	"3.061"	"1.231"	"4.819"	"241.266"	"306.474"	"380.924"	"193.241"	"2.107"	"0.74"	"0"
"1995"	"5.831"	"0.167"	"6.748"	"1.323"	"8.617"	"65.216"	"480.119"	"172.037"	"158.891"	"41.119"	"1.384"	"0.355"
"1996"	"6.275"	"0.534"	"2.835"	"3.271"	"8.566"	"145.887"	"508.873"	"338.694"	"136.418"	"30.22"	"1.49"	"0"
"1997"	"3.263"	"0"	"0"	"3.842"	"3.003"	"163.607"	"369.748"	"344.92"	"68.067"	"33.69"	"72.58"	"18.188"
"1998"	"2.521"	"1.468"	"3.008"	"1.62"	"5.537"	"119.615"	"173.62"	"212.574"	"303.602"	"28.215"	"26.012"	"0"
"1999"	"1.306"	"6.042"	"0"	"0"	"0.971"	"187.755"	"175.286"	"173.35"	"314.663"	"75.164"	"0.257"	"1.396"
"2000"	"0"	"0.875"	"0"	"0.028"	"18.153"	"92.692"	"363.696"	"127.118"	"21.741"	"10.713"	"1.657"	"0"
"2001"	"0.845"	"0"	"2.173"	"0.654"	"13.54"	"294.088"	"205.25"	"120.208"	"14.273"	"39.82"	"1.041"	"0"
"2002"	"0"	"6.233"	"3.736"	"5.963"	"3.179"	"177.037"	"30.936"	"246.691"	"110.277"	"0.663"	"8.3"	"2.009"
