
"Year"	"Jan"	"Feb"	"Mar"	"Apr"	"May"	"Jun"	"Jul"	"Aug"	"Sep"	"Oct"	"Nov"	"Dec"
"1901"	"16.172"	"18.646"	"23.853"	"29.055"	"32.889"	"33.269"	"28.392"	"25.856"	"26.32"	"25.124"	"19.88"	"16.648"
"1902"	"18.179"	"19.843"	"26.588"	"30.381"	"33.79"	"33.098"	"27.495"	"26.989"	"26.19"	"24.354"	"19.116"	"16.085"
"1903"	"17.413"	"18.247"	"24.118"	"29.457"	"32.325"	"32.534"	"28.656"	"26.529"	"26.463"	"23.493"	"18.254"	"15.69"
"1904"	"17.508"	"19.276"	"24.588"	"30.681"	"32.817"	"30.666"	"26.557"	"25.823"	"26.056"	"24.252"	"18.914"	"17.252"
"1905"	"16.246"	"16.078"	"23.213"	"27.02"	"32.893"	"33.839"	"27.266"	"26.19"	"26.025"	"23.953"	"20.117"	"16.484"
"1906"	"16.609"	"19.144"	"23.552"	"30.219"	"34.423"	"31.1"	"26.827"	"26.091"	"26.087"	"24.288"	"20.083"	"17.347"
"1907"	"17.618"	"18.811"	"23.187"	"27.025"	"31.955"	"31.664"	"29.101"	"25.462"	"27.191"	"25.519"	"20.444"	"15.752"
"1908"	"15.647"	"19.716"	"24.117"	"31.253"	"34.19"	"32.802"	"26.886"	"25.859"	"26.829"	"24.253"	"19.217"	"15.653"
"1909"	"18.98"	"18.813"	"25.349"	"27.325"	"32.891"	"28.889"	"26.097"	"26.295"	"25.992"	"24.189"	"20.088"	"17.12"
"1910"	"16.547"	"19.049"	"24.653"	"30.022"	"33.05"	"29.763"	"27.196"	"25.927"	"26.258"	"23.719"	"18.382"	"16.185"
"1911"	"18.791"	"18.644"	"23.222"	"29.424"	"34.387"	"30.062"	"28.365"	"25.994"	"25.822"	"24.651"	"19.914"	"16.084"
"1912"	"17.31"	"20.384"	"24.351"	"29.291"	"33.318"	"33.49"	"27.461"	"25.928"	"26.222"	"24.354"	"19.317"	"15.886"
"1913"	"16.547"	"19.974"	"23.278"	"30.884"	"31.751"	"28.695"	"27.296"	"26.225"	"26.821"	"25.352"	"19.717"	"16.983"
"1914"	"17.853"	"20.61"	"24.08"	"28.425"	"32.486"	"30.926"	"26.789"	"26.095"	"26.425"	"24.222"	"20.751"	"16.852"
"1915"	"17.182"	"18.782"	"23.45"	"29.026"	"34.423"	"32.7"	"27.796"	"26.061"	"26.254"	"25.257"	"20.847"	"16.415"
"1916"	"16.547"	"19.413"	"25.555"	"30.657"	"33.29"	"28.061"	"27.16"	"25.927"	"26.219"	"24.82"	"19.318"	"15.281"
"1917"	"16.622"	"18.72"	"23.16"	"27.259"	"29.72"	"29.201"	"26.728"	"26.257"	"25.82"	"24.487"	"18.313"	"16.783"
"1918"	"15.551"	"19.818"	"24.725"	"28.854"	"32.76"	"28.234"	"28.593"	"26.127"	"27.02"	"24.422"	"20.114"	"16.421"
"1919"	"17.885"	"18.212"	"24.583"	"28.688"	"32.32"	"30.707"	"26.458"	"25.887"	"26.514"	"23.822"	"20.249"	"16.39"
"1920"	"16.878"	"19.379"	"24.652"	"29.218"	"31.118"	"32.128"	"26.431"	"26.391"	"27.316"	"25.685"	"20.424"	"16.883"
"1921"	"17.881"	"19.411"	"26.652"	"31.386"	"35.553"	"30.874"	"28.196"	"25.794"	"25.956"	"24.121"	"18.646"	"17.817"
"1922"	"16.883"	"20.381"	"25.52"	"29.985"	"34.286"	"30.422"	"26.355"	"25.659"	"25.821"	"23.747"	"19.545"	"16.149"
"1923"	"16.878"	"19.11"	"24.253"	"30.06"	"33.525"	"34.23"	"26.728"	"25.529"	"26.425"	"23.262"	"19.75"	"17.387"
"1924"	"17.175"	"20.28"	"26.318"	"30.821"	"32.816"	"33.83"	"26.592"	"26.123"	"26.156"	"24.257"	"19.251"	"16.749"
"1925"	"15.813"	"18.512"	"24.386"	"30.452"	"31.755"	"29.7"	"25.592"	"26.36"	"26.455"	"24.887"	"19.614"	"15.819"
"1926"	"16.877"	"20.347"	"23.915"	"26.816"	"31.052"	"33.928"	"28.09"	"26.098"	"25.989"	"23.849"	"18.148"	"16.249"
"1927"	"17.075"	"19.311"	"23.278"	"29.782"	"32.888"	"31.703"	"26.759"	"26.157"	"26.954"	"24.557"	"18.618"	"17.453"
"1928"	"17.478"	"19.547"	"24.887"	"29.155"	"34.182"	"30.728"	"26.627"	"26.499"	"26.958"	"25.025"	"20.518"	"17.183"
"1929"	"17.246"	"18.112"	"25.189"	"29.658"	"34.383"	"31.03"	"26.69"	"25.424"	"26.992"	"24.084"	"19.45"	"16.347"
"1930"	"16.845"	"18.613"	"25.223"	"28.89"	"32.989"	"31.434"	"26.625"	"25.892"	"26.494"	"25.193"	"19.254"	"16.816"
"1931"	"18.118"	"20.21"	"24.287"	"30.826"	"34.05"	"32.831"	"27.263"	"26.225"	"26.523"	"24.06"	"19.446"	"16.986"
"1932"	"18.249"	"18.383"	"24.718"	"29.487"	"32.885"	"32.634"	"27.399"	"26.06"	"26.62"	"25.025"	"19.946"	"16.755"
"1933"	"16.542"	"20.709"	"25.024"	"27.549"	"29.723"	"29.497"	"26.894"	"26.155"	"26.185"	"24.319"	"19.411"	"16.78"
"1934"	"16.35"	"19.678"	"24.318"	"29.82"	"33.518"	"31.041"	"26.826"	"25.892"	"25.989"	"23.518"	"19.152"	"17.22"
"1935"	"16.246"	"19.682"	"24.624"	"27.32"	"34.054"	"32.267"	"26.465"	"25.627"	"25.888"	"24.181"	"19.984"	"17.448"
"1936"	"17.172"	"19.112"	"24.917"	"28.885"	"33.554"	"28.762"	"26.621"	"25.89"	"25.991"	"23.985"	"20.348"	"17.251"
"1937"	"15.679"	"19.616"	"23.158"	"28.125"	"32.287"	"31.2"	"26.792"	"25.264"	"26.093"	"23.386"	"20.35"	"15.949"
"1938"	"17.98"	"17.911"	"26.055"	"29.955"	"33.218"	"27.932"	"26.261"	"25.992"	"26.491"	"24.528"	"19.317"	"16.316"
"1939"	"18.01"	"20.348"	"23.581"	"28.982"	"34.219"	"30.461"	"26.493"	"25.655"	"25.952"	"24.887"	"19.386"	"16.487"
"1940"	"16.446"	"19.444"	"23.551"	"28.819"	"33.32"	"31.499"	"26.76"	"25.965"	"26.362"	"24.558"	"20.421"	"16.919"
"1941"	"17.543"	"19.444"	"26.118"	"31.449"	"34.055"	"30.832"	"27.826"	"26.558"	"27.025"	"25.617"	"19.913"	"17.72"
"1942"	"16.806"	"19.647"	"25.183"	"29.918"	"34.683"	"32.703"	"26.196"	"25.928"	"25.892"	"24.682"	"20.52"	"16.884"
"1943"	"18.948"	"18.712"	"25.48"	"28.784"	"33.725"	"31.127"	"26.899"	"25.063"	"26.224"	"24.027"	"19.957"	"16.459"
"1944"	"16.98"	"18.783"	"23.019"	"27.95"	"34.449"	"31.43"	"26.496"	"25.959"	"26.464"	"23.722"	"20.092"	"18.658"
"1945"	"15.978"	"19.012"	"25.246"	"27.886"	"33.288"	"32.036"	"27.067"	"26.895"	"26.29"	"23.783"	"19.15"	"15.716"
"1946"	"17.28"	"20.721"	"24.814"	"29.388"	"32.883"	"29.299"	"26.427"	"25.96"	"26.129"	"25.151"	"20.345"	"18.488"
"1947"	"16.91"	"19.647"	"25.226"	"30.458"	"33.786"	"32.728"	"26.657"	"26.327"	"26.293"	"24.154"	"20.616"	"17.653"
"1948"	"17.751"	"19.515"	"24.248"	"30.82"	"35.015"	"31.967"	"26.632"	"25.927"	"25.856"	"25.256"	"20.514"	"16.218"
"1949"	"17.852"	"19.683"	"25.287"	"30.326"	"33.061"	"31.036"	"27.132"	"25.992"	"26.29"	"24.954"	"18.249"	"16.553"
"1950"	"17.653"	"18.712"	"23.617"	"29.016"	"33.623"	"30.928"	"26.495"	"26.089"	"26.322"	"23.99"	"19.179"	"16.947"
"1951"	"16.245"	"19.608"	"24.684"	"28.452"	"32.883"	"31.704"	"27.759"	"25.963"	"26.591"	"26.39"	"20.855"	"16.846"
"1952"	"18.115"	"21.418"	"24.448"	"30.885"	"34.649"	"31.463"	"27.028"	"25.632"	"26.724"	"24.988"	"19.656"	"18.147"
"1953"	"17.375"	"21.909"	"28.02"	"30.292"	"34.385"	"32.494"	"26.356"	"25.294"	"26.323"	"24.054"	"19.386"	"18.29"
"1954"	"16.314"	"21.413"	"25.183"	"30.852"	"34.949"	"31.633"	"27.228"	"26.188"	"25.858"	"23.088"	"19.318"	"17.452"
"1955"	"17.584"	"20.376"	"26.554"	"28.491"	"33.358"	"31.105"	"26.293"	"25.887"	"26.063"	"23.885"	"18.955"	"17.218"
"1956"	"17.651"	"19.511"	"26.024"	"30.956"	"33.924"	"28.598"	"26.393"	"25.821"	"25.523"	"24.148"	"19.05"	"17.986"
"1957"	"18.182"	"18.746"	"23.221"	"28.891"	"32.891"	"32.065"	"26.832"	"26.36"	"26.286"	"24.691"	"20.949"	"18.685"
"1958"	"18.685"	"20.715"	"25.758"	"31.19"	"34.383"	"33.731"	"27.064"	"26.297"	"26.219"	"24.485"	"21.05"	"17.756"
"1959"	"17.847"	"19.511"	"25.653"	"30.155"	"33.586"	"31.435"	"26.764"	"25.698"	"26.185"	"24.891"	"20.38"	"17.485"
"1960"	"16.883"	"21.085"	"24.123"	"29.291"	"33.32"	"31.94"	"26.693"	"25.698"	"26.782"	"24.223"	"19.214"	"18.286"
"1961"	"18.145"	"18.48"	"26.151"	"30.155"	"33.519"	"30.429"	"26.632"	"25.859"	"25.624"	"23.921"	"19.411"	"15.317"
"1962"	"15.846"	"19.874"	"24.519"	"29.62"	"32.717"	"32.967"	"27.757"	"25.923"	"25.687"	"23.286"	"20.019"	"17.485"
"1963"	"15.814"	"20.578"	"24.418"	"28.856"	"32.081"	"29.897"	"26.826"	"26.221"	"26.251"	"24.958"	"21.846"	"17.347"
"1964"	"17.244"	"20.075"	"26.158"	"30.917"	"32.776"	"31.396"	"26.287"	"25.888"	"26.221"	"24.988"	"19.423"	"17.423"
"1965"	"17.845"	"20.111"	"24.248"	"28.415"	"33.677"	"32.497"	"27.499"	"26.596"	"25.92"	"25.087"	"21.216"	"17.548"
"1966"	"17.378"	"21.884"	"25.483"	"30.921"	"33.452"	"31.664"	"28.928"	"26.227"	"26.952"	"25.685"	"22.12"	"16.783"
"1967"	"17.047"	"21.182"	"23.818"	"28.856"	"33.118"	"32.334"	"27.201"	"25.359"	"26.024"	"24.39"	"20.55"	"18.582"
"1968"	"16.351"	"18.779"	"23.724"	"28.357"	"32.713"	"30.995"	"27.09"	"25.849"	"27.49"	"24.282"	"20.219"	"17.25"
"1969"	"17.449"	"21.54"	"27.419"	"31.048"	"32.457"	"32.623"	"26.694"	"25.56"	"25.856"	"25.195"	"21.95"	"17.254"
"1970"	"17.955"	"20.21"	"24.521"	"30.487"	"33.486"	"28.932"	"26.939"	"26.026"	"25.785"	"24.952"	"19.384"	"16.719"
"1971"	"17.045"	"19.281"	"23.264"	"29.52"	"30.236"	"27.845"	"25.705"	"25.124"	"26.477"	"24.708"	"19.175"	"16.554"
"1972"	"17.619"	"18.704"	"25.89"	"29.088"	"33.771"	"33.845"	"28.028"	"25.471"	"26.19"	"23.978"	"20.956"	"18.335"
"1973"	"18.176"	"21.112"	"25.111"	"30.989"	"34.859"	"31.973"	"26.489"	"25.801"	"26.156"	"23.95"	"20.008"	"16.905"
"1974"	"16.677"	"19.366"	"26.171"	"31.29"	"32.654"	"31.058"	"26.719"	"25.653"	"27.24"	"25.395"	"19.792"	"17.077"
"1975"	"16.172"	"20.4"	"24.466"	"30.396"	"34.98"	"31.231"	"25.823"	"25.83"	"26.052"	"25.45"	"18.764"	"16.058"
"1976"	"17.182"	"20.149"	"24.786"	"28.529"	"32.799"	"29.797"	"26.352"	"25.853"	"25.76"	"25.321"	"23.393"	"18.429"
"1977"	"17.545"	"20.848"	"26.753"	"29.149"	"30.845"	"31.167"	"26.552"	"25.419"	"25.95"	"25.081"	"22.25"	"17.615"
"1978"	"16.176"	"18.511"	"22.389"	"28.291"	"34.922"	"30.124"	"25.634"	"25.056"	"26.148"	"24.555"	"21.719"	"16.553"
"1979"	"17.88"	"17.641"	"23.555"	"28.62"	"31.258"	"31.16"	"26.791"	"26.128"	"27.337"	"26.327"	"24.388"	"18.246"
"1980"	"18.308"	"21.388"	"24.649"	"31.182"	"34.052"	"28.367"	"25.788"	"24.898"	"25.95"	"25.384"	"21.407"	"17.966"
"1981"	"17.049"	"21.015"	"23.988"	"28.35"	"32.121"	"31.493"	"25.713"	"25.898"	"26.222"	"24.737"	"20.222"	"16.862"
"1982"	"18.716"	"19.32"	"23.06"	"29.436"	"31.558"	"31.202"	"28.979"	"25.693"	"26.861"	"25.185"	"20.845"	"18.644"
"1983"	"16.782"	"19.143"	"24.988"	"28.517"	"32.07"	"32.495"	"27.871"	"26.694"	"26.592"	"23.553"	"19.09"	"16.755"
"1984"	"17.052"	"17.847"	"25.246"	"30.029"	"34.644"	"30.643"	"27.139"	"25.294"	"25.689"	"25.225"	"19.994"	"18.958"
"1985"	"17.614"	"20.355"	"27.524"	"31.034"	"33.952"	"31.903"	"26.29"	"25.631"	"26.687"	"23.991"	"20.621"	"18.592"
"1986"	"17.619"	"18.956"	"24.052"	"30.219"	"31.979"	"31.167"	"25.598"	"25.955"	"25.705"	"24.518"	"21.184"	"17.116"
"1987"	"17.015"	"20.284"	"25.226"	"30.841"	"31.452"	"33.002"	"27.564"	"27.405"	"27.019"	"24.895"	"20.817"	"16.991"
"1988"	"18.014"	"21.114"	"25.007"	"30.42"	"35.214"	"30.99"	"26.623"	"26.763"	"27.622"	"24.324"	"20.587"	"18.162"
"1989"	"16.421"	"20.541"	"23.948"	"29.821"	"34.085"	"29.604"	"27.255"	"26.392"	"26.554"	"24.99"	"21.48"	"17.588"
"1990"	"19.445"	"20.481"	"24.318"	"29.889"	"31.028"	"29.248"	"25.73"	"26.388"	"25.889"	"24.728"	"20.776"	"18.117"
"1991"	"16.57"	"21.611"	"25.212"	"29.433"	"35.575"	"30.561"	"28.539"	"25.594"	"27.397"	"24.588"	"20.25"	"17.311"
"1992"	"17.712"	"19.041"	"25.918"	"30.223"	"32.555"	"33.411"	"28.495"	"26.197"	"26.443"	"25.12"	"21.32"	"17.19"
"1993"	"18.017"	"20.584"	"23.314"	"29.186"	"34.116"	"32.208"	"28.474"	"26.77"	"25.816"	"25.587"	"21.197"	"17.086"
"1994"	"19.245"	"19.819"	"26.236"	"29.06"	"35.055"	"30.546"	"26.733"	"25.864"	"26.618"	"24.587"	"20.918"	"17.682"
"1995"	"16.145"	"20.143"	"23.755"	"29.857"	"32.759"	"33.499"	"27.805"	"26.228"	"26.993"	"25.42"	"20.856"	"18.488"
"1996"	"18.015"	"19.982"	"26.088"	"29.224"	"34.147"	"32.022"	"27.564"	"25.559"	"27.262"	"24.619"	"20.595"	"16.359"
"1997"	"16.451"	"18.91"	"25.15"	"27.69"	"32.321"	"31.732"	"28.03"	"26.292"	"26.214"	"24.421"	"21.449"	"17.688"
"1998"	"16.841"	"20.316"	"22.72"	"29.184"	"33.346"	"32.065"	"27.031"	"26.654"	"26.79"	"26.387"	"21.921"	"17.389"
"1999"	"16.084"	"21.011"	"25.151"	"30.922"	"32.714"	"30.067"	"26.733"	"25.887"	"25.825"	"25.324"	"22.087"	"17.693"
"2000"	"17.478"	"19.746"	"24.32"	"31.023"	"32.326"	"28.773"	"26.6"	"26.627"	"25.582"	"25.989"	"22.814"	"17.518"
"2001"	"16.911"	"20.944"	"24.986"	"28.588"	"32.994"	"28.796"	"26.19"	"26.294"	"27.322"	"25.563"	"22.02"	"18.023"
"2002"	"17.446"	"19.479"	"25.651"	"30.388"	"34.383"	"30.873"	"28.698"	"25.86"	"26.334"	"25.217"	"21.452"	"18.89"
