
"Year"	"Jan"	"Feb"	"Mar"	"Apr"	"May"	"Jun"	"Jul"	"Aug"	"Sep"	"Oct"	"Nov"	"Dec"
"1901"	"43.248"	"9.975"	"19.712"	"4.732"	"25.469"	"29.044"	"295.772"	"162.492"	"41.315"	"0.265"	"0"	"4.851"
"1902"	"0.265"	"3.983"	"16.03"	"16.024"	"17.892"	"59.922"	"185.532"	"141.769"	"97.285"	"5.358"	"3.636"	"0"
"1903"	"22.674"	"8.306"	"18.031"	"2.691"	"12.646"	"24.415"	"296.446"	"157.484"	"71.077"	"8.164"	"0"	"5.836"
"1904"	"30.834"	"2.193"	"59.522"	"6.75"	"16.853"	"58.171"	"126.689"	"148.391"	"70.925"	"3.856"	"18.103"	"5.617"
"1905"	"65.775"	"36.007"	"10.859"	"4.677"	"6.182"	"29.145"	"109.777"	"111.134"	"241.721"	"3.59"	"0"	"17.03"
"1906"	"9.313"	"77.872"	"18.21"	"6.321"	"25.335"	"52.934"	"88.428"	"209.664"	"251.056"	"0.822"	"0"	"4.793"
"1907"	"18.489"	"51.365"	"37.618"	"31.973"	"5.592"	"85.481"	"110.327"	"208.515"	"8.444"	"2.008"	"0.2"	"0"
"1908"	"38.744"	"13.05"	"1.458"	"16.139"	"19.892"	"62.165"	"156.989"	"421.196"	"185.149"	"0.672"	"0.458"	"5.836"
"1909"	"27.288"	"13.595"	"2.87"	"45.628"	"4.454"	"138.691"	"312.761"	"177.37"	"237.61"	"0.561"	"3.074"	"54.503"
"1910"	"34.162"	"9.858"	"4.635"	"23.613"	"11.724"	"127.465"	"186.755"	"196.165"	"61.337"	"1.552"	"0.854"	"6.372"
"1911"	"63.318"	"5.212"	"71.352"	"9.764"	"7.254"	"68.677"	"98.909"	"156.626"	"113.697"	"4.242"	"34.996"	"1.732"
"1912"	"48.502"	"11.062"	"11.286"	"25.044"	"15.842"	"36.063"	"104"	"194.678"	"58.07"	"0.329"	"18.024"	"10.096"
"1913"	"15.286"	"39.961"	"33.954"	"10.937"	"50.078"	"88.019"	"165.952"	"220.222"	"32.071"	"1.637"	"4.425"	"18.545"
"1914"	"22.959"	"41.338"	"24.904"	"20.579"	"19.159"	"50.644"	"272.37"	"146.906"	"243.715"	"22.392"	"14.745"	"13.524"
"1915"	"7.882"	"62.915"	"26.889"	"9.217"	"7.987"	"56.632"	"67.122"	"228.219"	"102.343"	"20.346"	"0"	"4.963"
"1916"	"2.662"	"11.53"	"3.323"	"7.209"	"14.607"	"75.253"	"378.225"	"170.281"	"96.257"	"9.161"	"0.4"	"0"
"1917"	"6.563"	"12.004"	"16.932"	"29.175"	"28.151"	"128.881"	"149.965"	"345.297"	"249.144"	"20.284"	"0"	"8.102"
"1918"	"2.886"	"2.01"	"33.298"	"32.529"	"2.741"	"69.821"	"68.231"	"108.679"	"34.124"	"0.461"	"15.184"	"10.815"
"1919"	"62.16"	"18.864"	"17.204"	"17.19"	"14.5"	"20.66"	"232.276"	"141.441"	"58.595"	"2.71"	"2.112"	"12.311"
"1920"	"26.751"	"20.871"	"21.994"	"10.319"	"17.731"	"55.082"	"88.559"	"123.771"	"66.501"	"0.762"	"0"	"0.461"
"1921"	"17.736"	"1.554"	"2.957"	"4.112"	"14.711"	"68.597"	"210.506"	"212.464"	"95.255"	"12.36"	"0"	"16.183"
"1922"	"23.574"	"21.334"	"9.23"	"6.522"	"10.703"	"57.891"	"126.472"	"169.825"	"317.668"	"3.737"	"2.623"	"42.528"
"1923"	"30.764"	"47.759"	"6.246"	"21.731"	"19.338"	"8.53"	"256.581"	"226.074"	"60.898"	"12.552"	"10.624"	"30.041"
"1924"	"42.764"	"50.677"	"10.58"	"4.3"	"24.213"	"9.164"	"253.1"	"92.91"	"207.19"	"9.434"	"1.312"	"52.016"
"1925"	"15.333"	"3.102"	"5.213"	"4.546"	"19.449"	"163.011"	"233.369"	"225.607"	"32.647"	"2.44"	"21.677"	"0"
"1926"	"16.128"	"5.398"	"47.34"	"17.664"	"14.226"	"20.082"	"154.741"	"271.51"	"78.609"	"0.99"	"6.431"	"12.178"
"1927"	"1.456"	"24.285"	"14.576"	"8.129"	"21.488"	"30.204"	"116.732"	"243.914"	"53.875"	"13.031"	"0"	"29.988"
"1928"	"22.327"	"33.52"	"10.79"	"18.696"	"4.921"	"38.219"	"153.561"	"134.338"	"210.531"	"0.129"	"20.119"	"20.111"
"1929"	"25.964"	"3.036"	"4.529"	"8.853"	"4.54"	"141.661"	"152.984"	"298.689"	"21.532"	"5.319"	"0"	"55.353"
"1930"	"30.79"	"9.979"	"5.226"	"22.566"	"7.973"	"32.748"	"249.22"	"114.881"	"38.215"	"4.025"	"7.51"	"8.032"
"1931"	"32.359"	"36.425"	"17.439"	"13.296"	"20.365"	"17.808"	"354.181"	"222.027"	"161.246"	"22.123"	"0.854"	"0"
"1932"	"20.027"	"3.569"	"16.615"	"7.742"	"7.621"	"52.742"	"132.126"	"115.399"	"81.193"	"0.923"	"0.458"	"32.48"
"1933"	"12.005"	"19.674"	"16.598"	"16.369"	"13.136"	"61.102"	"160.103"	"319.033"	"139.594"	"12.861"	"9.762"	"0.898"
"1934"	"19.927"	"6.667"	"18.431"	"1.608"	"5.339"	"44.246"	"184.882"	"247.513"	"20.213"	"0"	"0"	"16.008"
"1935"	"66.194"	"54.08"	"10.872"	"20.445"	"10.988"	"4.271"	"93.106"	"119.201"	"66.691"	"0.866"	"17.822"	"9.23"
"1936"	"7.246"	"40.875"	"34.964"	"17.82"	"10.59"	"242.149"	"328.849"	"173.33"	"89.145"	"12.583"	"2.165"	"31.963"
"1937"	"6.343"	"80.289"	"10.209"	"29.831"	"12.118"	"38.879"	"293.263"	"55.432"	"97.546"	"8.314"	"0.99"	"20.495"
"1938"	"48.389"	"26.216"	"2.544"	"6.694"	"1.319"	"173.584"	"126.716"	"143.011"	"20.565"	"7.596"	"1.015"	"2.035"
"1939"	"17.615"	"50.438"	"28.268"	"10.553"	"6.209"	"54.703"	"131.669"	"81.91"	"62.117"	"7.24"	"0"	"0"
"1940"	"42.023"	"39.862"	"23.269"	"10.832"	"10.065"	"103.149"	"96.018"	"167.04"	"79.19"	"0.995"	"1.023"	"6.381"
"1941"	"29.497"	"14.086"	"7.387"	"7.459"	"24.713"	"65.299"	"118.322"	"72.403"	"195.321"	"0.891"	"2.043"	"14.357"
"1942"	"36.948"	"42.826"	"15.132"	"25.968"	"21.465"	"59.554"	"249.01"	"196.623"	"90.165"	"2.541"	"1.586"	"28.167"
"1943"	"26.656"	"3.177"	"9.535"	"15.935"	"7.41"	"99.312"	"97.479"	"121.584"	"79.279"	"0"	"0"	"0"
"1944"	"34.04"	"37.37"	"22.429"	"24.511"	"2.798"	"81.642"	"139.914"	"183.49"	"98.727"	"0.859"	"3.928"	"11.442"
"1945"	"42.216"	"1.764"	"21.036"	"42.621"	"10.598"	"85.116"	"259.294"	"121.143"	"190.195"	"10.917"	"0.2"	"3.401"
"1946"	"2.196"	"13.57"	"10.288"	"13.225"	"23.338"	"79.827"	"164.048"	"154.502"	"27.25"	"14.476"	"9.562"	"12.555"
"1947"	"16.486"	"19.517"	"16.35"	"1.498"	"8.071"	"20.885"	"122.319"	"248.929"	"93.596"	"12.022"	"1.015"	"15.803"
"1948"	"6.41"	"39.768"	"50.406"	"13.59"	"9.847"	"81.132"	"302.54"	"244.223"	"87.796"	"3.668"	"4.262"	"17.191"
"1949"	"11.169"	"48.032"	"18.751"	"11.125"	"10.978"	"34.497"	"324.551"	"111.535"	"111.988"	"5.353"	"0.79"	"2.027"
"1950"	"84.375"	"26.847"	"46.492"	"6.562"	"13.296"	"48.765"	"325.262"	"203.846"	"331.576"	"0.698"	"0.557"	"1.027"
"1951"	"28.53"	"22.807"	"30.922"	"20.212"	"20.232"	"59.765"	"138.578"	"160.701"	"59.863"	"4.042"	"20.465"	"2.433"
"1952"	"19.945"	"18.249"	"33.835"	"7.127"	"15.84"	"55.419"	"123.266"	"104.025"	"10.23"	"1.243"	"7.388"	"9.059"
"1953"	"42.77"	"11.827"	"13.838"	"11.106"	"4.314"	"50.16"	"305.354"	"209.52"	"182.454"	"4.656"	"3.358"	"11.693"
"1954"	"29.147"	"63.952"	"5.93"	"1.977"	"13.794"	"45.064"	"223.799"	"88.815"	"367.775"	"13.35"	"0"	"2.06"
"1955"	"25.689"	"2.493"	"37.269"	"14.832"	"18.686"	"40.152"	"135.665"	"169.588"	"255.68"	"23.833"	"0"	"4.529"
"1956"	"24.85"	"13.166"	"28.651"	"14.683"	"15.477"	"134.38"	"185.834"	"196.515"	"20.883"	"31.55"	"0"	"5.496"
"1957"	"81.303"	"6.87"	"31.906"	"36.812"	"13.859"	"41.149"	"121.979"	"345.566"	"67.052"	"11.779"	"15.657"	"21.569"
"1958"	"12.089"	"6.998"	"11.804"	"9.269"	"6.702"	"49.472"	"152.902"	"179.03"	"259.821"	"16.24"	"1.769"	"34.844"
"1959"	"36.026"	"17.614"	"18.356"	"5.702"	"35.253"	"13.948"	"383.212"	"221.273"	"66.678"	"13.325"	"32.115"	"0.934"
"1960"	"24.596"	"2.962"	"28.57"	"13.983"	"10.115"	"52.779"	"175.528"	"143.259"	"84.785"	"10.123"	"0"	"8.743"
"1961"	"97.545"	"31.757"	"13.132"	"17.051"	"9.33"	"24.317"	"271.87"	"147.296"	"162.352"	"15.753"	"2.447"	"17.44"
"1962"	"41.117"	"29.957"	"22.674"	"0.591"	"10.378"	"5.176"	"163.821"	"137.206"	"233.33"	"0"	"12.515"	"16.976"
"1963"	"1.293"	"30.29"	"53.407"	"6.321"	"25.322"	"17.76"	"111.102"	"105.48"	"93.474"	"0.857"	"1.697"	"22.927"
"1964"	"29.618"	"7.47"	"11.406"	"13.018"	"16.121"	"61.279"	"312.632"	"186.399"	"91.311"	"0"	"3.384"	"9.479"
"1965"	"10.987"	"32.429"	"22.405"	"44.488"	"17.594"	"5.599"	"177.671"	"149.725"	"4.711"	"14.403"	"11.844"	"0"
"1966"	"2.83"	"60.736"	"34.562"	"18.343"	"23.546"	"121.573"	"144.739"	"167.887"	"212.308"	"16.855"	"16.042"	"0.62"
"1967"	"0.297"	"26.876"	"51.107"	"7.511"	"3.954"	"6.683"	"107.264"	"348.062"	"45.577"	"4.113"	"2.479"	"53.993"
"1968"	"29.895"	"36.701"	"13.39"	"4.295"	"6.967"	"18.908"	"165.405"	"222.817"	"4.39"	"12.339"	"0"	"10.843"
"1969"	"6.733"	"13.185"	"31.855"	"45.417"	"28.401"	"15.848"	"235.531"	"159.72"	"172.404"	"3.172"	"0.16"	"0"
"1970"	"24.892"	"25.506"	"13.01"	"0.575"	"10.104"	"54.087"	"57.945"	"218.774"	"67.61"	"1.508"	"0"	"0.201"
"1971"	"3.662"	"17.976"	"5.698"	"24.387"	"56.266"	"88.826"	"183.483"	"293.23"	"53.055"	"11.336"	"1.601"	"0"
"1972"	"16.274"	"17.412"	"7.4"	"5.438"	"5.69"	"17.1"	"96.134"	"147.694"	"239.855"	"19.817"	"16.316"	"11.723"
"1973"	"18.866"	"16.618"	"11.204"	"1.533"	"16.167"	"68.9"	"192.66"	"291.029"	"101.332"	"7.217"	"0"	"19.266"
"1974"	"12.789"	"16.334"	"2.151"	"1.103"	"22.326"	"35.696"	"210.343"	"100.927"	"32.438"	"0.923"	"0"	"8.468"
"1975"	"30.667"	"29.338"	"34.804"	"4.878"	"0.832"	"133.917"	"214.708"	"195.634"	"223.076"	"4.243"	"0"	"0"
"1976"	"17.912"	"32.517"	"17.09"	"11.254"	"15.939"	"170.221"	"198.27"	"535.327"	"168.391"	"13.551"	"0"	"0.064"
"1977"	"42.73"	"2.517"	"1.675"	"50.058"	"43.52"	"167.704"	"221.781"	"159.124"	"75.469"	"23.224"	"1.098"	"8.986"
"1978"	"6.343"	"9.665"	"70.611"	"13.715"	"0.331"	"98.433"	"340.988"	"398.719"	"228.497"	"0.16"	"12.755"	"1.012"
"1979"	"14.79"	"56.696"	"40.433"	"6.525"	"24.397"	"47.4"	"192.375"	"87.721"	"131.049"	"7.988"	"7.763"	"0.752"
"1980"	"16.085"	"21.234"	"22.717"	"6.948"	"11.478"	"120.643"	"464.857"	"313.028"	"101.665"	"7.099"	"10.281"	"11.866"
"1981"	"94.066"	"22.771"	"43.318"	"9.313"	"11.322"	"8.123"	"407.799"	"127.242"	"8.291"	"8.066"	"43.078"	"0.593"
"1982"	"27.724"	"23.335"	"99.788"	"20.858"	"40.207"	"14.552"	"55.251"	"210.654"	"3.559"	"0.771"	"27.181"	"25.601"
"1983"	"49.616"	"28.978"	"59.013"	"43.191"	"70.909"	"72.23"	"202.051"	"262.674"	"78.63"	"22.517"	"0"	"1.973"
"1984"	"0.84"	"62.666"	"10.456"	"19.65"	"0.689"	"26.394"	"459.403"	"265.653"	"188.779"	"0"	"0"	"23.547"
"1985"	"16.423"	"1.504"	"12.104"	"32.351"	"19.675"	"91.264"	"383.536"	"197.343"	"132.425"	"20.858"	"2.122"	"21.702"
"1986"	"3.998"	"41.888"	"20.55"	"12.778"	"30.501"	"89.831"	"269.443"	"229.477"	"156.745"	"7.922"	"2.062"	"31.697"
"1987"	"40.713"	"24.728"	"23.24"	"11.793"	"21.17"	"68.086"	"103.632"	"117.71"	"5.998"	"16.551"	"0"	"14.042"
"1988"	"7.517"	"13.522"	"63.916"	"10.17"	"1.594"	"67.619"	"321.803"	"174.592"	"167.155"	"24.854"	"0.064"	"31.093"
"1989"	"57.245"	"7.584"	"18.864"	"3.628"	"7.971"	"32.693"	"274.169"	"132.334"	"65.237"	"0.661"	"9.476"	"3.399"
"1990"	"5.561"	"77.758"	"70.797"	"14.78"	"37.906"	"22.399"	"195.502"	"251.656"	"260.447"	"3.201"	"13.313"	"41.23"
"1991"	"1.67"	"25.262"	"13.007"	"47.982"	"22.96"	"125.589"	"28.727"	"176.12"	"87.623"	"3.381"	"1.217"	"10.424"
"1992"	"60.966"	"44.742"	"22.46"	"11.653"	"37.646"	"33.771"	"145.577"	"210.115"	"118.66"	"3.736"	"27.108"	"2.419"
"1993"	"13.479"	"18.638"	"23.989"	"25.494"	"15.12"	"46.623"	"161.933"	"30.734"	"155.363"	"0"	"0"	"0"
"1994"	"26.767"	"15.67"	"7.353"	"6.7"	"58.266"	"41.222"	"192.146"	"131.467"	"151.563"	"2.34"	"0"	"8.59"
"1995"	"39.702"	"106.208"	"19.679"	"5.305"	"0.396"	"91.206"	"172.43"	"334.601"	"123.802"	"2.641"	"22.418"	"1.511"
"1996"	"45.082"	"42.615"	"29.945"	"11.776"	"27.281"	"215.448"	"135.155"	"361.705"	"68.219"	"8.209"	"0"	"3.063"
"1997"	"23.887"	"12.668"	"21.806"	"42.005"	"22.097"	"137.19"	"255.3"	"340.468"	"81.834"	"19.948"	"19.779"	"5.041"
"1998"	"33.46"	"41.049"	"38.442"	"28.544"	"23.287"	"18.547"	"207.565"	"146.925"	"99.197"	"17.539"	"3.081"	"3.066"
"1999"	"17.891"	"14.087"	"10.819"	"9.088"	"17.778"	"74.039"	"102.534"	"177.482"	"90.216"	"3.37"	"2.745"	"3.367"
"2000"	"21.006"	"30.856"	"10.506"	"3.125"	"15.911"	"78.052"	"217.489"	"128.04"	"60.378"	"0"	"4.023"	"1.099"
"2001"	"8.449"	"9.926"	"16.17"	"12.294"	"25.359"	"73.073"	"288.861"	"70.13"	"61.237"	"0.963"	"2.842"	"2.221"
"2002"	"14.745"	"31.346"	"31.55"	"7.822"	"15.052"	"66.252"	"91.325"	"144.344"	"188.817"	"0.83"	"0"	"4.577"
