
"Year"	"Jan"	"Feb"	"Mar"	"Apr"	"May"	"Jun"	"Jul"	"Aug"	"Sep"	"Oct"	"Nov"	"Dec"
"1901"	"18.511"	"9.973"	"27.693"	"125.203"	"116.845"	"322.608"	"294.083"	"274.993"	"235.786"	"87.502"	"53.9"	"8.389"
"1902"	"9.774"	"8.816"	"55.558"	"154.268"	"174.552"	"316.871"	"454.347"	"303.916"	"309.29"	"46.455"	"6.308"	"2.641"
"1903"	"16.627"	"21.039"	"55.691"	"91.641"	"154.416"	"386.598"	"255.647"	"379.7"	"206.421"	"95.534"	"20.004"	"3.068"
"1904"	"8.724"	"19.211"	"54.396"	"187.848"	"185.893"	"180.192"	"306.043"	"341.802"	"147.185"	"44.777"	"21.545"	"2.807"
"1905"	"15.462"	"10.1"	"58.049"	"109.045"	"151.549"	"194.926"	"292.347"	"408.33"	"140.34"	"50.893"	"16.159"	"18.449"
"1906"	"10.117"	"27.957"	"51.034"	"215.461"	"124.851"	"290.049"	"303.23"	"291.587"	"143.873"	"75.451"	"14.676"	"2.419"
"1907"	"9.264"	"26.019"	"65.264"	"161.638"	"136.737"	"322.921"	"386.895"	"215.166"	"248.299"	"24.559"	"1.877"	"5.947"
"1908"	"9.827"	"17.125"	"21.575"	"169.907"	"212.942"	"375.764"	"436.729"	"189.764"	"220.331"	"53.372"	"6.516"	"3.186"
"1909"	"25.662"	"6.411"	"6.566"	"118.328"	"231.239"	"447.389"	"299.374"	"290.327"	"124.136"	"67.854"	"5.564"	"4.487"
"1910"	"7.534"	"20.171"	"67.737"	"106.334"	"114.417"	"371.402"	"367.241"	"234.596"	"106.463"	"150.972"	"11.954"	"14.894"
"1911"	"21.521"	"13.648"	"31.743"	"121.602"	"219.356"	"319.105"	"381.655"	"275.74"	"233.468"	"175.795"	"22.895"	"4.816"
"1912"	"7.187"	"36.7"	"39.21"	"155.608"	"141.147"	"312.107"	"459.256"	"333.601"	"218.988"	"64.936"	"17.504"	"6.504"
"1913"	"8.078"	"35.85"	"39.418"	"153.897"	"296.402"	"309.893"	"262.963"	"258.241"	"184.354"	"188.059"	"4.953"	"47.666"
"1914"	"4.21"	"23.678"	"34.441"	"108.175"	"138.681"	"236.562"	"371.485"	"316.938"	"166.109"	"47.06"	"11.684"	"4.112"
"1915"	"4.059"	"27.863"	"59.418"	"96.82"	"245.091"	"391.679"	"508.224"	"321.402"	"189.549"	"52.976"	"9.284"	"7.046"
"1916"	"13.076"	"13.37"	"48.983"	"115.793"	"212.242"	"333.959"	"348.963"	"284.404"	"129.494"	"65.107"	"11.072"	"5.096"
"1917"	"7.932"	"47.356"	"26.281"	"135.073"	"131.367"	"355.73"	"523.785"	"306.182"	"212.731"	"88.597"	"19.217"	"1.609"
"1918"	"4.667"	"16.809"	"52.393"	"75.234"	"150.537"	"476.383"	"403.939"	"289.671"	"196.609"	"56.358"	"5.051"	"2.736"
"1919"	"7.373"	"15.945"	"8.691"	"87.364"	"197.829"	"339.094"	"459.272"	"178.51"	"231.312"	"164.669"	"11.705"	"1.684"
"1920"	"8.442"	"23.369"	"78.498"	"89.771"	"143.963"	"323.804"	"304.57"	"274.075"	"186.918"	"49.43"	"3.909"	"9.661"
"1921"	"18.281"	"18.437"	"64.859"	"200.837"	"241.508"	"323.563"	"316.637"	"355.401"	"211.046"	"124.931"	"7.933"	"12.017"
"1922"	"14.752"	"7.403"	"19.612"	"74.843"	"148.944"	"288.372"	"375.865"	"333.82"	"173.089"	"69.379"	"7.447"	"5.229"
"1923"	"1.913"	"36.07"	"10.979"	"107.675"	"227.723"	"358.293"	"403.483"	"273.614"	"284.371"	"49.979"	"8.694"	"8.91"
"1924"	"7.699"	"16.198"	"19.528"	"86.963"	"229.461"	"310.742"	"470.425"	"317.57"	"218.443"	"98.029"	"31.876"	"3.186"
"1925"	"8.919"	"13.734"	"40.367"	"91.487"	"275.9"	"295.348"	"389.049"	"273.158"	"243.002"	"49.093"	"3.478"	"2.736"
"1926"	"8.373"	"8.624"	"49.833"	"96.711"	"187.529"	"240.145"	"411.83"	"184.713"	"109.091"	"136.766"	"19.5"	"8.143"
"1927"	"17.018"	"39.01"	"55.93"	"144.016"	"130.242"	"306.45"	"358.772"	"312.424"	"362.075"	"157.589"	"10.577"	"2.158"
"1928"	"9.011"	"11.925"	"43.6"	"87.041"	"250.356"	"349.505"	"314.126"	"326.92"	"181.357"	"119.524"	"20.635"	"5.096"
"1929"	"10.164"	"7.896"	"35.816"	"109.676"	"354.408"	"334.9"	"279.476"	"313.577"	"146.897"	"68.833"	"21.434"	"5.611"
"1930"	"8.221"	"21.153"	"48.926"	"158.28"	"91.676"	"348.103"	"252.611"	"372.779"	"346.835"	"188.459"	"39.978"	"5.422"
"1931"	"5.985"	"31.04"	"36.69"	"175.175"	"185.29"	"390.74"	"492.339"	"257.114"	"191.153"	"87.548"	"12.502"	"31.69"
"1932"	"14.997"	"21.504"	"32.573"	"91.039"	"246.835"	"345.435"	"309.674"	"276.417"	"194.456"	"101.329"	"48.226"	"26.25"
"1933"	"10.879"	"23.937"	"18.452"	"128.726"	"168.446"	"399.18"	"311.962"	"335.032"	"109.032"	"82.227"	"4.97"	"4.076"
"1934"	"11.333"	"28.446"	"13.686"	"181.397"	"260.385"	"453.898"	"329.975"	"195.114"	"174.67"	"85.533"	"20.612"	"5.096"
"1935"	"5.673"	"18.958"	"23.524"	"53.205"	"109.537"	"406.051"	"457.759"	"302.092"	"242.68"	"7.731"	"10.62"	"3.685"
"1936"	"14.123"	"27.77"	"27.876"	"131.003"	"228.093"	"402.546"	"476.467"	"247.331"	"235.532"	"75.934"	"21.641"	"16.732"
"1937"	"8.715"	"26.446"	"19.242"	"73.75"	"143.67"	"148.755"	"273.964"	"390.32"	"144.559"	"64.301"	"3.684"	"2.87"
"1938"	"23.393"	"61.482"	"95.957"	"94.786"	"111.608"	"352.421"	"570.642"	"297.111"	"183.021"	"123.648"	"38.45"	"5.101"
"1939"	"4.645"	"17.942"	"15.667"	"109.057"	"186.556"	"365.171"	"324.119"	"157.71"	"250.545"	"82.015"	"0.278"	"2.221"
"1940"	"1.563"	"28.279"	"87.213"	"57.212"	"200.792"	"372.362"	"264.589"	"190.765"	"224.804"	"65.949"	"10.063"	"30.168"
"1941"	"10.879"	"15.201"	"32.024"	"39.406"	"184.435"	"352.465"	"210.794"	"249.757"	"255.397"	"35.821"	"11.595"	"8.534"
"1942"	"1.393"	"10.719"	"110.47"	"124.91"	"245.864"	"392.146"	"304.732"	"255.377"	"266.863"	"5.564"	"3.731"	"0.066"
"1943"	"29.418"	"12.348"	"60.773"	"97.064"	"220.657"	"333.402"	"345.636"	"278.535"	"204.984"	"64.583"	"1.887"	"3.413"
"1944"	"7.978"	"14.207"	"21.662"	"67.446"	"137.996"	"307.113"	"298.03"	"200.136"	"227.539"	"65.66"	"6.815"	"20.045"
"1945"	"20.93"	"18.493"	"36.115"	"53.52"	"198.862"	"360.977"	"445.492"	"249.789"	"241.534"	"153.771"	"1.877"	"12.019"
"1946"	"0.032"	"8.175"	"65.747"	"52.423"	"132.691"	"342.348"	"376.304"	"204.324"	"154.006"	"179.267"	"6.13"	"0.371"
"1947"	"5.141"	"6.658"	"20.854"	"142.041"	"196.688"	"209.655"	"488.587"	"275.472"	"316.971"	"150.914"	"4.654"	"5.064"
"1948"	"7.349"	"12.667"	"83.584"	"117.938"	"457.645"	"265.397"	"497.172"	"274.67"	"167.128"	"105.245"	"12.555"	"4.619"
"1949"	"13.274"	"8.44"	"40.144"	"149.326"	"244.968"	"311.71"	"316.122"	"312.596"	"325.712"	"106.47"	"8.896"	"10.951"
"1950"	"7.193"	"20.212"	"42.556"	"77.649"	"166.043"	"363.777"	"334.089"	"302.737"	"176.363"	"122.757"	"17.76"	"6.652"
"1951"	"5.087"	"25.38"	"62.325"	"102.695"	"140.321"	"469.468"	"351.994"	"237.082"	"166.456"	"95.372"	"53.697"	"22.531"
"1952"	"9.491"	"23.306"	"41.149"	"78.651"	"169.413"	"384.888"	"340.985"	"376.764"	"323.563"	"77.746"	"35.097"	"1.582"
"1953"	"7.718"	"28.018"	"76.459"	"102.222"	"221.911"	"288.797"	"331.924"	"127.366"	"178.585"	"58.913"	"1.147"	"7.165"
"1954"	"23.829"	"26.57"	"20.042"	"113.792"	"228.352"	"294.475"	"352.277"	"418.891"	"209.523"	"63.416"	"0.177"	"18.746"
"1955"	"7.736"	"14.588"	"64.516"	"88.083"	"129.718"	"356.652"	"562.885"	"331.564"	"108.441"	"50.607"	"4.544"	"24.218"
"1956"	"16.493"	"9.814"	"81.648"	"146.887"	"236.503"	"407.483"	"211.176"	"326.689"	"199.072"	"74.707"	"26.057"	"11.748"
"1957"	"16.288"	"28.82"	"16.736"	"160.277"	"229.535"	"374.053"	"455.226"	"198.693"	"243.493"	"61.579"	"13.082"	"13.138"
"1958"	"13.413"	"28.96"	"7.259"	"46.277"	"304.389"	"229.618"	"442.554"	"408.193"	"172.926"	"138.987"	"0.142"	"7.872"
"1959"	"10.403"	"20.743"	"61.648"	"89.554"	"293.429"	"447.254"	"278.039"	"143.775"	"216.964"	"146.839"	"8.877"	"7.488"
"1960"	"4.614"	"37.329"	"9.887"	"35.07"	"102.241"	"261.97"	"402.062"	"224.119"	"218.319"	"17.167"	"4.421"	"9.29"
"1961"	"6.397"	"7.606"	"57.741"	"82.697"	"234.739"	"228.833"	"279.435"	"261.323"	"295.059"	"66.372"	"11.372"	"2.878"
"1962"	"21.184"	"23.119"	"38.352"	"125.058"	"150.844"	"552.842"	"285.574"	"418.397"	"250.68"	"57.312"	"5.461"	"4.721"
"1963"	"6.583"	"16.509"	"28.367"	"68.352"	"218.997"	"268.387"	"397.265"	"323.712"	"93.362"	"102.556"	"21.21"	"2.982"
"1964"	"7.225"	"13.75"	"71.182"	"102.318"	"99.888"	"278.935"	"349.479"	"227.811"	"167.791"	"62.551"	"1.812"	"12.563"
"1965"	"1.97"	"16.186"	"19.118"	"104.373"	"203.577"	"243.144"	"394.094"	"346.362"	"202.968"	"32.562"	"87.653"	"2.319"
"1966"	"8.81"	"6.097"	"8.711"	"74.311"	"206.681"	"513.342"	"293.429"	"393.373"	"205.154"	"72.014"	"11.629"	"4.143"
"1967"	"5.98"	"8.136"	"72.217"	"107.342"	"119.676"	"313.021"	"222.233"	"154.828"	"188.852"	"15.103"	"9.806"	"1.648"
"1968"	"20.6"	"87.639"	"22.543"	"107.388"	"285.726"	"288.096"	"400.352"	"225.822"	"210.882"	"42.544"	"1.323"	"0.033"
"1969"	"16.508"	"1.185"	"118.24"	"46.572"	"130.268"	"304.728"	"348.037"	"362.777"	"161.643"	"69.518"	"4.739"	"1.342"
"1970"	"11.253"	"21.281"	"33.829"	"102.139"	"262.824"	"325.61"	"413.577"	"266.299"	"166.364"	"175.712"	"3.427"	"0.033"
"1971"	"7.928"	"16.886"	"75.858"	"85.879"	"131.32"	"383.982"	"352.686"	"283.066"	"125.069"	"164.524"	"55.822"	"5.013"
"1972"	"10.064"	"5.469"	"31.393"	"112.02"	"203.043"	"176.958"	"346.193"	"194.892"	"153.989"	"21.249"	"1.209"	"3.369"
"1973"	"7.885"	"19.901"	"14.987"	"168.208"	"157.448"	"497.327"	"245.342"	"294.613"	"223.057"	"35.331"	"14.932"	"36.353"
"1974"	"10.913"	"5.415"	"19.584"	"107.56"	"116.992"	"313.612"	"515.239"	"357.79"	"193.069"	"17.225"	"4.861"	"1.459"
"1975"	"6.048"	"86.545"	"23.421"	"90.695"	"172.631"	"242.654"	"342.695"	"302.264"	"214.631"	"96.194"	"3.081"	"5.124"
"1976"	"29.649"	"17.966"	"43.543"	"79.766"	"133.125"	"471.443"	"323.933"	"200.191"	"91.896"	"32.941"	"8.41"	"2.116"
"1977"	"5.424"	"14.211"	"35.489"	"231.83"	"277.897"	"326.496"	"310.618"	"342.731"	"230.026"	"90.202"	"19.817"	"27.152"
"1978"	"4.056"	"13.317"	"29.086"	"136.646"	"192.522"	"350.205"	"346.261"	"251.155"	"215.143"	"120.266"	"30.555"	"0.033"
"1979"	"5.068"	"9.462"	"56.889"	"32.797"	"84.279"	"277.919"	"404.598"	"273.104"	"218.49"	"195.386"	"4.287"	"34.6"
"1980"	"38.291"	"6.74"	"51.528"	"148.031"	"204.018"	"249.856"	"415.428"	"408.887"	"200.82"	"64.98"	"1.875"	"0.033"
"1981"	"21.145"	"14.002"	"39.839"	"249.56"	"239.219"	"299.936"	"439.717"	"283.9"	"121.232"	"27.484"	"1.116"	"54.659"
"1982"	"2.015"	"13.714"	"25.894"	"210.401"	"103.695"	"226.454"	"241.774"	"169.654"	"132.99"	"21.477"	"42.078"	"22.08"
"1983"	"21.773"	"17.669"	"28.958"	"114.751"	"170.638"	"184.108"	"332.514"	"194.728"	"272.589"	"96.458"	"3.604"	"11.486"
"1984"	"3.139"	"3.653"	"23.269"	"138.432"	"185.779"	"213.674"	"412.622"	"190.292"	"231.929"	"40.712"	"0.634"	"16.489"
"1985"	"3.114"	"9.6"	"43.334"	"150.401"	"155.351"	"309.241"	"580.45"	"175.927"	"177.275"	"34.054"	"5.129"	"10.737"
"1986"	"2.038"	"10.058"	"20.197"	"201.963"	"47.519"	"209.929"	"537.797"	"233.717"	"224.491"	"169.297"	"10.25"	"2.114"
"1987"	"0.695"	"25.832"	"48.23"	"116.646"	"139.901"	"168.58"	"447.123"	"387.515"	"232.381"	"48.398"	"5.176"	"6.289"
"1988"	"5.291"	"7.685"	"31.514"	"142.38"	"222.44"	"131.753"	"370.99"	"426.673"	"230.249"	"120.749"	"61.59"	"4.418"
"1989"	"3.083"	"34.341"	"14.088"	"80.167"	"116.711"	"207.019"	"334.437"	"215.99"	"231.335"	"101.835"	"10.736"	"5.095"
"1990"	"3.679"	"15.512"	"46.214"	"103.377"	"141.24"	"466.608"	"443.301"	"220.058"	"304.8"	"161.034"	"1.001"	"4.406"
"1991"	"5.43"	"4.694"	"39.841"	"90.164"	"180.156"	"456.688"	"447.589"	"401.946"	"275.625"	"145.239"	"4.594"	"15.815"
"1992"	"12.917"	"31.972"	"53.377"	"265.89"	"111.737"	"214.157"	"314.234"	"249.494"	"148.18"	"116.406"	"3.188"	"3.887"
"1993"	"14.692"	"38.933"	"51.989"	"76.595"	"209.925"	"265.465"	"213.309"	"385.979"	"274.779"	"61.351"	"6.521"	"0.653"
"1994"	"12.334"	"15.423"	"69.863"	"190.103"	"149.354"	"214.839"	"298.543"	"239.608"	"154.517"	"107.339"	"11.394"	"1.371"
"1995"	"26.144"	"17.097"	"27.799"	"101.765"	"290.407"	"473.69"	"364.797"	"223.916"	"259.165"	"24.89"	"46.122"	"7.718"
"1996"	"8.797"	"11.941"	"64.413"	"81.204"	"378.726"	"255.811"	"324.126"	"164.309"	"153.634"	"98.491"	"0.176"	"0.033"
"1997"	"9.122"	"46.573"	"72.5"	"91.581"	"137.766"	"346.771"	"264.77"	"130.32"	"249.841"	"21.514"	"16.026"	"16.132"
"1998"	"6.552"	"23.214"	"69.089"	"121.147"	"192.475"	"550.676"	"398.231"	"329.375"	"138.566"	"95.327"	"5.194"	"0.38"
"1999"	"0.739"	"24.435"	"17.716"	"99.531"	"284.312"	"315.671"	"328.813"	"291.698"	"194.74"	"89.969"	"4.262"	"0.064"
"2000"	"20.772"	"4.598"	"78.652"	"119.719"	"264.877"	"261.051"	"309.594"	"387.141"	"238.043"	"25.29"	"5.274"	"0.157"
"2001"	"0.248"	"10.852"	"14.536"	"139.033"	"205.551"	"344.468"	"418.826"	"218.619"	"191.685"	"121.964"	"5.806"	"2.257"
"2002"	"11.871"	"24.703"	"25.771"	"187.287"	"272.703"	"288.057"	"410.33"	"260.852"	"287.46"	"35.681"	"16.684"	"0.125"
