
"Year"	"Jan"	"Feb"	"Mar"	"Apr"	"May"	"Jun"	"Jul"	"Aug"	"Sep"	"Oct"	"Nov"	"Dec"
"1901"	"4.734"	"7.268"	"13.639"	"18.279"	"21.36"	"24.824"	"23.1"	"21.701"	"20.123"	"18.651"	"13.843"	"9.619"
"1902"	"9.026"	"10.48"	"14.303"	"18.19"	"21.978"	"23.032"	"21.494"	"21.49"	"20.221"	"16.127"	"12.703"	"9.781"
"1903"	"6.963"	"7.609"	"11.003"	"17.724"	"21.76"	"24.052"	"23.518"	"21.463"	"20.731"	"17.22"	"13.052"	"9.978"
"1904"	"6.875"	"10.598"	"13.04"	"19.607"	"21.242"	"23.09"	"21.547"	"21.213"	"19.906"	"17.142"	"11.8"	"9.062"
"1905"	"4.486"	"4.669"	"8.796"	"15.636"	"22.305"	"23.878"	"21.812"	"21.7"	"20.444"	"17.676"	"13.307"	"8.499"
"1906"	"6.014"	"5.943"	"11.323"	"18.843"	"23.365"	"23.087"	"22.21"	"20.997"	"20.402"	"17.314"	"14.286"	"10.602"
"1907"	"9.567"	"6.022"	"9.101"	"16.426"	"20.452"	"23.496"	"22.942"	"21.653"	"20.924"	"18.367"	"13.645"	"9.773"
"1908"	"8.215"	"9.17"	"13.387"	"20.299"	"22.097"	"24.736"	"21.915"	"21.041"	"20.604"	"17.419"	"12.114"	"8.667"
"1909"	"6.122"	"7.952"	"14.976"	"17.174"	"22.245"	"21.837"	"21.786"	"21.565"	"21.123"	"18.244"	"13.433"	"9.56"
"1910"	"8.477"	"8.615"	"13.536"	"18.393"	"22.091"	"22.781"	"21.214"	"21.552"	"20.625"	"16.667"	"11.738"	"8.589"
"1911"	"7.294"	"9.895"	"10.633"	"18.731"	"23.564"	"23.09"	"23.468"	"22.218"	"20.213"	"16.961"	"11.349"	"9.038"
"1912"	"6.985"	"10.092"	"13.089"	"18.013"	"21.595"	"23.768"	"22.126"	"21.412"	"20.016"	"17.47"	"11.149"	"8.883"
"1913"	"7.916"	"7.148"	"10.533"	"18.789"	"20.381"	"21.432"	"21.718"	"22.019"	"21.127"	"17.304"	"11.199"	"7.01"
"1914"	"9.119"	"7.711"	"11.803"	"17.571"	"21.288"	"23.088"	"21.999"	"21.531"	"20.353"	"15.333"	"12.321"	"8.526"
"1915"	"8.042"	"7.619"	"12.586"	"18.548"	"23.243"	"23.245"	"22.645"	"21.855"	"20.926"	"19.24"	"13.882"	"9.479"
"1916"	"7.913"	"8.164"	"16.636"	"19.736"	"22.606"	"22.11"	"21.591"	"21.81"	"20.356"	"17.283"	"12.8"	"8.082"
"1917"	"7.411"	"8.76"	"11.848"	"14.818"	"17.924"	"21.877"	"21.692"	"21.654"	"19.616"	"16.526"	"13.374"	"8.516"
"1918"	"6.756"	"9.802"	"13.04"	"16.604"	"23.064"	"21.971"	"22.401"	"21.851"	"20.792"	"17.413"	"11.921"	"7.283"
"1919"	"5.298"	"8.052"	"12.62"	"16.526"	"20.361"	"23.523"	"21.642"	"21.653"	"19.992"	"17.356"	"12.531"	"8.045"
"1920"	"9.3"	"7.034"	"11.296"	"18.158"	"18.828"	"22.269"	"21.697"	"21.463"	"20.314"	"17.739"	"13.281"	"10.884"
"1921"	"6.732"	"10.01"	"16.212"	"20.856"	"24.882"	"23.101"	"22.04"	"20.774"	"19.296"	"15.929"	"12.162"	"9.292"
"1922"	"5.554"	"10.253"	"14.786"	"18.177"	"22.821"	"22.24"	"21.652"	"20.851"	"19.945"	"16.419"	"12.393"	"7.119"
"1923"	"7.724"	"7.166"	"14.422"	"20.132"	"21.851"	"24.758"	"21.723"	"21.624"	"19.889"	"16.204"	"12.553"	"8.513"
"1924"	"6.239"	"8.978"	"14.895"	"19.618"	"19.104"	"25.28"	"22.178"	"21.345"	"19.362"	"17.644"	"12.32"	"9.703"
"1925"	"5.432"	"8.398"	"13.814"	"20.235"	"21.464"	"21.286"	"21.258"	"21.529"	"20.331"	"17.121"	"11.33"	"10.044"
"1926"	"7.233"	"9.952"	"10.84"	"15.086"	"19.812"	"24.916"	"22.475"	"21.493"	"20.535"	"17.145"	"10.355"	"8.989"
"1927"	"6.404"	"6.295"	"12.101"	"18"	"20.644"	"23.486"	"21.99"	"20.97"	"20.502"	"17.143"	"12.214"	"10.238"
"1928"	"6.467"	"9.217"	"13.218"	"17.734"	"23.961"	"23.068"	"22.163"	"22.097"	"21.21"	"18.112"	"12.256"	"8.535"
"1929"	"6.331"	"8.142"	"15.114"	"18.967"	"22.93"	"23.034"	"21.84"	"20.837"	"20.341"	"16.53"	"12.995"	"6.094"
"1930"	"5.6"	"8.34"	"14.379"	"18.019"	"21.637"	"22.355"	"21.505"	"21.359"	"20.736"	"16.414"	"12.054"	"9.611"
"1931"	"8.748"	"5.933"	"13.07"	"20.263"	"21.732"	"24.562"	"22.082"	"22.427"	"19.971"	"16.96"	"12.559"	"9.537"
"1932"	"9.484"	"7.663"	"14.209"	"18.829"	"21.191"	"24.774"	"22.278"	"21.282"	"20.304"	"17.404"	"13.838"	"8.933"
"1933"	"6.068"	"8.832"	"13.596"	"16.374"	"19.083"	"22.962"	"21.575"	"21.367"	"19.804"	"16.715"	"13.029"	"10.101"
"1934"	"5.068"	"11.469"	"12.709"	"19.225"	"21.482"	"22.835"	"21.663"	"20.824"	"21.069"	"17.437"	"12.705"	"7.683"
"1935"	"4.44"	"8.907"	"13.549"	"14.975"	"23.083"	"24.807"	"21.833"	"21.069"	"20.098"	"16.99"	"12.124"	"7.255"
"1936"	"5.876"	"7.381"	"13.116"	"17.74"	"22.569"	"20.704"	"21.22"	"20.97"	"19.762"	"16.56"	"12.613"	"7.521"
"1937"	"6.594"	"7.626"	"12.115"	"16.071"	"21.311"	"23.322"	"21.796"	"21.596"	"20.377"	"16.404"	"10.947"	"8.131"
"1938"	"6.147"	"6.949"	"14.432"	"19.658"	"22.92"	"21.828"	"21.687"	"21.435"	"20.225"	"17.632"	"10.826"	"10.438"
"1939"	"7.622"	"7.849"	"10.469"	"17.382"	"23.543"	"21.906"	"21.783"	"21.719"	"20.201"	"17.232"	"13.233"	"10.448"
"1940"	"7.541"	"7.924"	"10.424"	"17.215"	"22.191"	"23.191"	"22.057"	"21.351"	"19.587"	"17.667"	"13.235"	"7.755"
"1941"	"6.049"	"9.769"	"15.716"	"21.402"	"22.788"	"22.569"	"22.488"	"21.855"	"20.52"	"18.004"	"12.796"	"11.317"
"1942"	"6.296"	"9.176"	"15.492"	"19.377"	"22.075"	"24.606"	"21.827"	"20.928"	"19.881"	"17.646"	"13.461"	"8.282"
"1943"	"5.767"	"10.028"	"14"	"16.713"	"22.304"	"23.086"	"21.876"	"20.89"	"20.927"	"17.625"	"14.219"	"9.968"
"1944"	"5.188"	"7.178"	"12.128"	"17.387"	"23.924"	"22.608"	"22.127"	"21.647"	"20.322"	"17.596"	"12.961"	"10.307"
"1945"	"4.47"	"7.777"	"13.77"	"16.653"	"22.394"	"24.388"	"21.792"	"21.615"	"20.217"	"16.263"	"13.273"	"8.32"
"1946"	"9.879"	"11.373"	"13.036"	"19.186"	"20.902"	"22.896"	"21.881"	"22.093"	"20.905"	"16.625"	"12.743"	"8.879"
"1947"	"6.138"	"9.706"	"13.879"	"20.043"	"22.909"	"24.935"	"22.32"	"21.725"	"20.315"	"16.229"	"13.309"	"9.457"
"1948"	"7.887"	"7.679"	"12.104"	"20.675"	"23.473"	"24.565"	"21.948"	"20.961"	"20.103"	"16.401"	"11.618"	"8.063"
"1949"	"9.223"	"8.254"	"13.876"	"19.592"	"22.186"	"23.906"	"21.502"	"21.356"	"20.521"	"17.871"	"12.221"	"7.564"
"1950"	"7.813"	"7.687"	"11.849"	"17.989"	"22.135"	"23.013"	"21.658"	"21.119"	"19.349"	"16.682"	"12.846"	"8.358"
"1951"	"5.818"	"9.891"	"13.55"	"16.167"	"22.053"	"24.024"	"23.16"	"22.325"	"20.809"	"18.914"	"13.539"	"10.436"
"1952"	"8.867"	"10.86"	"11.933"	"19.911"	"22.507"	"22.844"	"22.034"	"21.522"	"20.923"	"17.275"	"13.398"	"9.729"
"1953"	"5.612"	"11.88"	"16.615"	"19.491"	"22.932"	"24.086"	"21.946"	"21.637"	"20.668"	"17.288"	"13.341"	"10.603"
"1954"	"5.818"	"9.26"	"14.818"	"20.2"	"23.1"	"23.396"	"21.999"	"21.752"	"20.698"	"15.75"	"12.425"	"7.579"
"1955"	"6.383"	"10.368"	"15.571"	"16.684"	"20.631"	"24.283"	"21.976"	"21.092"	"20.152"	"16.263"	"13.159"	"8.65"
"1956"	"6.694"	"10.931"	"13.572"	"20.113"	"23.803"	"22.944"	"21.387"	"21.371"	"20.542"	"16.305"	"12.521"	"7.785"
"1957"	"6.028"	"8.445"	"12.213"	"17.302"	"21.03"	"22.812"	"22.38"	"21.702"	"19.941"	"17.363"	"13.664"	"9.655"
"1958"	"8.535"	"9.547"	"14.393"	"20.803"	"22.12"	"24.548"	"21.853"	"21.493"	"20.761"	"17.856"	"13.905"	"10.51"
"1959"	"8.034"	"8.613"	"15.075"	"19.306"	"21.789"	"24.034"	"21.44"	"22.053"	"20.959"	"17.507"	"12.677"	"10.612"
"1960"	"6.709"	"13.795"	"12.565"	"17.678"	"23.064"	"24.326"	"22.29"	"22.067"	"20.998"	"17.22"	"12.419"	"11.98"
"1961"	"7.956"	"7.824"	"14.927"	"19.102"	"22.648"	"24.347"	"22.595"	"22.118"	"22.413"	"18.345"	"12.404"	"7.529"
"1962"	"6.994"	"10.01"	"13.742"	"19.907"	"22.22"	"23.917"	"23.038"	"22.239"	"20.707"	"18.462"	"13.737"	"8.617"
"1963"	"7.49"	"10.649"	"12.919"	"18.475"	"21.649"	"23.939"	"22.847"	"21.5"	"20.253"	"18.404"	"14.253"	"9.73"
"1964"	"7.592"	"9.449"	"14.793"	"19.67"	"20.388"	"23.521"	"21.136"	"22.005"	"21.036"	"18.294"	"13.388"	"10.208"
"1965"	"9.857"	"9.037"	"12.789"	"17.568"	"21.322"	"23.974"	"21.856"	"21.053"	"20.52"	"17.991"	"14.269"	"9.505"
"1966"	"7.615"	"10.752"	"13.718"	"18.733"	"22.055"	"23.181"	"22.355"	"21.659"	"20.224"	"16.701"	"11.888"	"8.957"
"1967"	"7.071"	"10.828"	"12.43"	"17.939"	"20.921"	"23.672"	"22.189"	"21.143"	"20.52"	"16.258"	"11.569"	"8.815"
"1968"	"5.96"	"7.187"	"13.316"	"18.592"	"21.702"	"23.552"	"21.662"	"21.203"	"21.188"	"16.347"	"12.709"	"9.719"
"1969"	"7.914"	"10.099"	"16.016"	"18.585"	"21.292"	"23.421"	"21.682"	"21.817"	"20.033"	"17.878"	"14.473"	"10.303"
"1970"	"7.718"	"8.58"	"13.518"	"19.784"	"23.156"	"22.688"	"22.527"	"21.471"	"21.261"	"18.262"	"12.621"	"10.269"
"1971"	"7.302"	"9.281"	"13.668"	"18.449"	"19.91"	"22.139"	"21.521"	"20.353"	"19.714"	"17.533"	"12.649"	"10.738"
"1972"	"8.773"	"7.428"	"15.029"	"17.856"	"22.855"	"24.73"	"22.222"	"21.253"	"19.018"	"16.127"	"12.839"	"10.258"
"1973"	"7.624"	"10.107"	"13.039"	"20.738"	"22.235"	"22.862"	"22.039"	"21.76"	"20.845"	"16.861"	"12.946"	"8.162"
"1974"	"7.466"	"8.067"	"14.928"	"20.578"	"21.616"	"22.544"	"21.489"	"21.218"	"20.144"	"17.96"	"12.944"	"8.257"
"1975"	"6.635"	"8.631"	"12.505"	"19.234"	"22.358"	"22.009"	"20.632"	"21.004"	"19.571"	"18.119"	"11.438"	"9.789"
"1976"	"7.917"	"8.967"	"13.42"	"17.59"	"21.528"	"21.789"	"21.733"	"20.909"	"19.9"	"17.229"	"13.618"	"9.673"
"1977"	"7.847"	"8.887"	"15.367"	"18.33"	"19.975"	"21.608"	"21.424"	"21.321"	"19.363"	"17.234"	"14.299"	"9.296"
"1978"	"7.075"	"7.954"	"10.44"	"17.669"	"23.521"	"23.573"	"21.535"	"20.92"	"19.527"	"17.338"	"11.145"	"8.058"
"1979"	"6.718"	"8.354"	"11.939"	"19.747"	"21.067"	"23.17"	"20.928"	"21.789"	"18.762"	"17.956"	"14.346"	"10.134"
"1980"	"7.543"	"9.71"	"12.822"	"20.104"	"22.934"	"22.633"	"21.211"	"21.335"	"19.828"	"17.081"	"12.61"	"9.412"
"1981"	"6.559"	"9.704"	"13.188"	"18.682"	"22.377"	"23.127"	"21.692"	"21.155"	"19.939"	"16.738"	"11.322"	"8.087"
"1982"	"8.604"	"8.262"	"11.572"	"17.164"	"19.515"	"22.505"	"22.107"	"21.19"	"19.561"	"16.77"	"12.995"	"9.751"
"1983"	"6.585"	"6.805"	"11.846"	"16.05"	"20.648"	"21.404"	"21.43"	"21.321"	"20.664"	"16.311"	"11.836"	"8.948"
"1984"	"6.289"	"7.681"	"15.712"	"18.918"	"24.332"	"24.255"	"20.775"	"21.354"	"19.399"	"17.109"	"12.44"	"9.199"
"1985"	"7.003"	"9.454"	"16.204"	"19.538"	"21.377"	"23.627"	"20.766"	"21.636"	"19.898"	"16.618"	"11.474"	"10.355"
"1986"	"7.186"	"8.771"	"13.045"	"18.561"	"19.946"	"22.642"	"20.96"	"21.255"	"19.604"	"16.15"	"13.892"	"7.873"
"1987"	"6.852"	"10.248"	"14.499"	"19.138"	"19.399"	"23.276"	"23.161"	"21.974"	"21.123"	"18.062"	"13.784"	"9.317"
"1988"	"9.509"	"10.75"	"13.87"	"20.181"	"23.259"	"22.647"	"21.637"	"21.035"	"20.244"	"17.094"	"12.702"	"9.647"
"1989"	"5.003"	"8.753"	"13.475"	"17.342"	"21.763"	"21.714"	"21.754"	"20.164"	"19.928"	"17.161"	"12.746"	"8.936"
"1990"	"10.618"	"9.381"	"11.496"	"17.795"	"22.365"	"24.283"	"20.978"	"21.076"	"19.999"	"16.262"	"13.256"	"9.805"
"1991"	"5.449"	"9.637"	"14.063"	"17.157"	"22.183"	"22.336"	"22.943"	"20.954"	"20.176"	"16.746"	"12.243"	"9.409"
"1992"	"8.537"	"7.634"	"13.592"	"18.958"	"20.837"	"22.48"	"20.67"	"21.077"	"19.801"	"17.278"	"12.986"	"9.785"
"1993"	"7.573"	"10.535"	"11.512"	"18.338"	"22.629"	"22.593"	"21.498"	"22.056"	"19.544"	"17.418"	"13.827"	"10.121"
"1994"	"8.53"	"8.781"	"15.564"	"16.801"	"22.719"	"24.452"	"22.376"	"21.348"	"20.02"	"17.14"	"13.047"	"9.837"
"1995"	"6.145"	"8.747"	"12.827"	"17.915"	"24.157"	"24.899"	"20.584"	"19.554"	"19.924"	"17.759"	"13.267"	"9.94"
"1996"	"7.855"	"9.903"	"14.483"	"19.023"	"21.785"	"22.153"	"20.271"	"18.724"	"19.748"	"16.931"	"12.822"	"8.605"
"1997"	"7.89"	"9.178"	"13.625"	"18.148"	"20.722"	"21.845"	"23.04"	"21.336"	"20.632"	"15.021"	"12.469"	"8.337"
"1998"	"2.904"	"10.174"	"11.985"	"18.863"	"22.936"	"24.416"	"21.865"	"21.304"	"21.125"	"17.774"	"14.497"	"12.181"
"1999"	"7.61"	"12.947"	"16.729"	"23.667"	"23.052"	"22.514"	"23.026"	"22.334"	"20.959"	"18.303"	"15.148"	"11.245"
"2000"	"9.332"	"8.315"	"13.07"	"20.867"	"22.89"	"22.038"	"22.034"	"21.892"	"21.406"	"19.191"	"15.312"	"11.617"
"2001"	"8.412"	"10.217"	"14.801"	"18.208"	"22.834"	"22.416"	"22.833"	"22.479"	"21.672"	"19.132"	"15.303"	"11.241"
"2002"	"8.726"	"10.164"	"15.369"	"19.745"	"24.198"	"23.924"	"23.485"	"22.31"	"18.955"	"18.579"	"14.145"	"9.709"
