
"Year"	"Jan"	"Feb"	"Mar"	"Apr"	"May"	"Jun"	"Jul"	"Aug"	"Sep"	"Oct"	"Nov"	"Dec"
"1901"	"34.845"	"6.222"	"5.962"	"23.972"	"41.927"	"238.124"	"280.865"	"342.162"	"184.346"	"59.587"	"24.87"	"0.5"
"1902"	"0"	"0"	"23"	"67.365"	"58.685"	"221.862"	"425.193"	"270.049"	"426.142"	"44.415"	"0.042"	"0.971"
"1903"	"5.674"	"9.664"	"15.308"	"53.345"	"121.655"	"375.346"	"181.677"	"346.073"	"229.4"	"134.04"	"14.492"	"0"
"1904"	"0.483"	"9.272"	"21.858"	"28.229"	"358.85"	"339.583"	"402.48"	"289.072"	"148.515"	"34.405"	"12.108"	"0.417"
"1905"	"11.919"	"18.705"	"30.238"	"37.909"	"162.368"	"87.89"	"466.768"	"471.241"	"268.934"	"38.704"	"0.556"	"2.583"
"1906"	"15.674"	"39.731"	"22.213"	"10.913"	"96.088"	"248.197"	"404.35"	"259.096"	"160.188"	"175.251"	"4.704"	"0"
"1907"	"11.882"	"22.358"	"37.232"	"46.565"	"79.909"	"349.436"	"311.119"	"244.066"	"295.09"	"37.794"	"0"	"2.036"
"1908"	"7.816"	"19.566"	"5.775"	"11.837"	"92.44"	"288.455"	"348.017"	"290.625"	"166.357"	"21.991"	"0.269"	"0.624"
"1909"	"6.413"	"3.164"	"0"	"93.138"	"75.567"	"404.45"	"348.979"	"380.205"	"247.557"	"48.178"	"1.716"	"3.004"
"1910"	"2.56"	"12.368"	"23.282"	"63.838"	"73.113"	"295.258"	"477.063"	"335.187"	"185.071"	"92.858"	"8.216"	"0"
"1911"	"15.476"	"0.556"	"19.594"	"16.557"	"95.257"	"521.975"	"300.243"	"319.312"	"311.186"	"142.06"	"12.415"	"0"
"1912"	"0.856"	"12.508"	"12.02"	"74.369"	"111.457"	"294.329"	"434.001"	"319.021"	"84.669"	"41.284"	"13.799"	"3.089"
"1913"	"0.002"	"31.827"	"31.124"	"12.515"	"150.666"	"578.036"	"259.029"	"352.412"	"248.419"	"73.647"	"1.11"	"22.962"
"1914"	"0"	"23.882"	"14.283"	"35.194"	"141.195"	"165.14"	"503.9"	"376.137"	"164.777"	"42.777"	"0.426"	"3.042"
"1915"	"1.328"	"26.982"	"20.157"	"30.842"	"156.885"	"360.175"	"391.327"	"338.741"	"230.223"	"50.423"	"9.119"	"0"
"1916"	"0.357"	"7.132"	"6.699"	"33.146"	"46.693"	"325.377"	"387.948"	"309.018"	"318.4"	"269.151"	"15.504"	"0"
"1917"	"1.081"	"18.616"	"7.043"	"28.935"	"145.208"	"287.176"	"520.427"	"209.031"	"415.799"	"254.438"	"17.991"	"0"
"1918"	"1.002"	"3.782"	"9.707"	"50.65"	"148.371"	"319.424"	"339.919"	"552.58"	"250.612"	"36.255"	"0.052"	"0.806"
"1919"	"15.874"	"7.068"	"10.444"	"18.232"	"137.767"	"231.647"	"385.806"	"383.932"	"257.353"	"116.534"	"8.817"	"0"
"1920"	"5.644"	"19.005"	"35.244"	"24.438"	"84.27"	"186.932"	"447.812"	"257.27"	"406.614"	"33.32"	"0"	"0"
"1921"	"28.884"	"4.499"	"11.554"	"35.977"	"67.527"	"268.942"	"452.603"	"413.891"	"227.872"	"52.602"	"0.285"	"0.001"
"1922"	"8.595"	"5.038"	"0.456"	"9.058"	"50.896"	"583.203"	"452.076"	"361.607"	"295.146"	"41.824"	"0.052"	"9.967"
"1923"	"0.285"	"32.24"	"0.972"	"14.061"	"63.249"	"268.519"	"258.028"	"330.279"	"163.027"	"94.855"	"1.344"	"0.788"
"1924"	"3.66"	"6.817"	"1.186"	"33.567"	"86.377"	"304.209"	"452.342"	"382.484"	"301.502"	"78.072"	"48.609"	"0"
"1925"	"22.828"	"3.767"	"6.426"	"96.365"	"127.341"	"224.735"	"512.719"	"267.844"	"282.619"	"39.822"	"2.897"	"0"
"1926"	"20.116"	"0.556"	"53.217"	"27.823"	"184.073"	"103.158"	"547.429"	"315.195"	"238.242"	"64.342"	"0"	"5.482"
"1927"	"25.17"	"43.533"	"35.775"	"13.484"	"103.944"	"249.872"	"365.677"	"398.818"	"142.235"	"55.519"	"24.466"	"0"
"1928"	"28.718"	"5.479"	"1.994"	"20.456"	"155.901"	"361.479"	"465.495"	"258.463"	"247.042"	"119.705"	"1.189"	"1.187"
"1929"	"25.872"	"0.526"	"12.578"	"40.027"	"130.963"	"311.914"	"417.413"	"259.258"	"100.892"	"276.745"	"0.917"	"4.674"
"1930"	"5.708"	"10.206"	"9.7"	"30.639"	"100.442"	"243.732"	"388.432"	"313.399"	"208.641"	"75.942"	"26.83"	"7.241"
"1931"	"6.496"	"24.932"	"19.141"	"10.832"	"89.718"	"177.505"	"676.667"	"256.712"	"449.041"	"55.83"	"6.155"	"1.494"
"1932"	"0"	"17.616"	"6.48"	"37.412"	"124.549"	"229.665"	"309.939"	"268.358"	"280.622"	"54.189"	"42.793"	"7.057"
"1933"	"28.286"	"10.567"	"1.908"	"49.929"	"126.12"	"229.764"	"531.642"	"444.709"	"162.415"	"104.921"	"0.001"	"0"
"1934"	"18.576"	"26.658"	"0.831"	"55.823"	"111.833"	"356.618"	"437.752"	"314.765"	"287.227"	"92.103"	"4.482"	"0.977"
"1935"	"6.916"	"16.466"	"7.912"	"6.04"	"76.916"	"205.677"	"245.907"	"573.651"	"344.158"	"23.833"	"0.122"	"0.427"
"1936"	"4.404"	"14.49"	"14.47"	"23.765"	"197.505"	"271.05"	"458.481"	"285.87"	"501.464"	"91.614"	"0.374"	"15.114"
"1937"	"0"	"24.539"	"4.999"	"71.238"	"108.94"	"226.108"	"233.754"	"465.205"	"347.894"	"129.052"	"0.455"	"0.345"
"1938"	"2.699"	"26.78"	"12.47"	"20.627"	"152.373"	"463.044"	"371.374"	"317.784"	"150.307"	"55.514"	"5.477"	"0"
"1939"	"3.521"	"13.865"	"7.522"	"18.904"	"90.168"	"268.379"	"511.697"	"263.164"	"370.946"	"135.409"	"0.449"	"0"
"1940"	"0.306"	"28.593"	"35.695"	"14.683"	"97.708"	"253.416"	"467.116"	"325.955"	"218.36"	"51.789"	"0.547"	"3.579"
"1941"	"14.525"	"3.774"	"11.62"	"20.27"	"101.793"	"343.642"	"331.705"	"344.136"	"290.748"	"141.984"	"5.434"	"0.374"
"1942"	"8.605"	"26.526"	"9.975"	"26.491"	"49.737"	"209.726"	"355.224"	"549.622"	"490.737"	"45.625"	"1.304"	"0.624"
"1943"	"22.094"	"9.136"	"22.625"	"107.457"	"133.83"	"211.009"	"549.834"	"304.771"	"274.672"	"54.177"	"0.285"	"0.197"
"1944"	"21.504"	"16.593"	"43.304"	"46.609"	"92.416"	"289.815"	"305.473"	"430.664"	"189.738"	"52.772"	"0.085"	"0"
"1945"	"40.831"	"14.158"	"5.994"	"59.875"	"102.627"	"267.215"	"344.15"	"377.289"	"376.265"	"192.267"	"0"	"1.187"
"1946"	"0"	"10.678"	"23.451"	"46.791"	"125.811"	"218.512"	"432.102"	"262.284"	"228.922"	"203.66"	"13.534"	"0"
"1947"	"5.992"	"3.648"	"20.779"	"14.557"	"88.428"	"225.721"	"556.607"	"289.52"	"356.388"	"50.436"	"0.243"	"2.076"
"1948"	"3.799"	"6.222"	"6.182"	"85.572"	"170.192"	"176.759"	"399.59"	"291.395"	"233.132"	"125.399"	"12.378"	"0"
"1949"	"6.159"	"20.482"	"9.819"	"43.596"	"180.671"	"485.945"	"395.456"	"488.565"	"224.931"	"59.207"	"0.351"	"0"
"1950"	"0.832"	"13.676"	"35.934"	"16.013"	"32.738"	"440.428"	"252.234"	"327.745"	"182.332"	"86.496"	"7.24"	"0"
"1951"	"5.576"	"0"	"33.499"	"9.982"	"53.332"	"244.218"	"502.703"	"388.639"	"215.708"	"87.492"	"21.484"	"0"
"1952"	"0"	"5.44"	"20.855"	"92.208"	"56.399"	"479.538"	"318.963"	"349.26"	"349.83"	"101.509"	"19.906"	"0"
"1953"	"40.439"	"4.48"	"17.93"	"7.646"	"58.915"	"267.251"	"505.604"	"228.709"	"309.794"	"7.173"	"0.486"	"2.365"
"1954"	"24.107"	"2.552"	"2.133"	"8.504"	"105.819"	"468.274"	"481.98"	"266.381"	"322.241"	"74.092"	"0"	"1.542"
"1955"	"24.032"	"5.572"	"3.896"	"47.373"	"41.903"	"353.43"	"757.914"	"305.502"	"200.035"	"55.197"	"6.888"	"1.223"
"1956"	"16.344"	"14.826"	"11.147"	"66.587"	"184.426"	"355.589"	"328.637"	"318.052"	"300.377"	"149.702"	"31.764"	"4.919"
"1957"	"12.622"	"5.27"	"7.175"	"8.562"	"55.555"	"135.411"	"333.778"	"189.944"	"223.218"	"64.144"	"0.258"	"1.864"
"1958"	"16.54"	"9.86"	"14.034"	"34.021"	"64.938"	"129.466"	"397.408"	"571.987"	"220.272"	"93.629"	"2.118"	"0"
"1959"	"19.077"	"0"	"5.379"	"22.778"	"109.661"	"217.806"	"396.344"	"319.767"	"351.848"	"315.872"	"0"	"0"
"1960"	"0.427"	"0"	"27.691"	"4.572"	"63.366"	"179.428"	"379.824"	"210.564"	"336.657"	"49.877"	"0.712"	"0"
"1961"	"3.995"	"41.47"	"3.175"	"12.695"	"77.418"	"240.286"	"255.027"	"246.659"	"259.702"	"147.617"	"3.479"	"3.941"
"1962"	"13.941"	"8.349"	"5.068"	"17.056"	"104.032"	"234.952"	"277.65"	"484.938"	"205.377"	"47.643"	"0"	"1.748"
"1963"	"0.427"	"0.92"	"45.678"	"57.994"	"142.951"	"239.591"	"378.127"	"191.949"	"229.383"	"177.088"	"11.704"	"0.105"
"1964"	"2.202"	"2.161"	"4.997"	"49.68"	"67.173"	"249.046"	"407.081"	"244.97"	"149.31"	"80.421"	"0"	"0"
"1965"	"0"	"5.582"	"14.238"	"43.43"	"100.573"	"122.415"	"331.773"	"375.896"	"145.615"	"22.483"	"12.974"	"0.346"
"1966"	"22.145"	"1.883"	"0.308"	"7.589"	"67.963"	"235.699"	"214.072"	"297.79"	"162.759"	"27.239"	"33.423"	"5.189"
"1967"	"4.159"	"0.315"	"58.15"	"87.591"	"27.556"	"172.23"	"347.522"	"288.749"	"187.034"	"55.64"	"0.404"	"0.372"
"1968"	"17.411"	"1.686"	"9.697"	"22.687"	"36.756"	"401.77"	"471.39"	"286.855"	"125.578"	"270.962"	"4.351"	"2.88"
"1969"	"11.384"	"1.87"	"19.727"	"34.434"	"129.953"	"179.222"	"406.458"	"386.152"	"237.556"	"57.141"	"27.115"	"0"
"1970"	"13.955"	"16.785"	"5.437"	"14.764"	"66.677"	"282.941"	"359.879"	"295.012"	"291.067"	"89.864"	"3.246"	"0"
"1971"	"11.645"	"4.02"	"9.931"	"122.949"	"125.161"	"262.95"	"410.553"	"388.611"	"271.593"	"167.317"	"12.554"	"0"
"1972"	"6.81"	"17.427"	"5.243"	"35.026"	"62.389"	"169.335"	"288.498"	"268.486"	"316.161"	"43.875"	"0.45"	"0"
"1973"	"13.789"	"5.404"	"10.588"	"5.74"	"117.541"	"433.86"	"274.09"	"255.848"	"370.638"	"251.818"	"37.861"	"8.51"
"1974"	"9.492"	"0"	"29.097"	"39.151"	"141.316"	"220.666"	"513.834"	"250.747"	"296.853"	"38.942"	"5.037"	"2.374"
"1975"	"6.416"	"3.419"	"4.071"	"25.501"	"149.928"	"375.16"	"511.461"	"132.152"	"400.811"	"47.923"	"1.396"	"0"
"1976"	"4.89"	"19.647"	"4.506"	"42.094"	"137.854"	"296.571"	"307.438"	"351.082"	"244.14"	"36.177"	"0.847"	"0"
"1977"	"1.222"	"7.748"	"2.682"	"69.711"	"109.411"	"252.802"	"511.493"	"250.279"	"153.9"	"184.738"	"25.217"	"22.702"
"1978"	"4.69"	"19.745"	"39.698"	"53.992"	"162.704"	"317.411"	"413.253"	"279.311"	"336.942"	"99.767"	"22.832"	"0.113"
"1979"	"14.152"	"24.11"	"2.201"	"46.134"	"32.42"	"191.827"	"448.03"	"373.754"	"218.795"	"108.852"	"10.683"	"31.643"
"1980"	"7.636"	"6.075"	"28.139"	"13.991"	"158.402"	"254.544"	"335.466"	"237.776"	"200.631"	"74.784"	"8.216"	"0"
"1981"	"23.007"	"6.262"	"24.063"	"95.222"	"141.83"	"203.5"	"464.618"	"252.441"	"194.504"	"0.993"	"1.653"	"15.555"
"1982"	"0"	"5.999"	"13.906"	"55.939"	"47.287"	"186.574"	"272.852"	"145.593"	"262.982"	"59.733"	"11.439"	"0.553"
"1983"	"18.994"	"4.076"	"10.573"	"26.531"	"173.27"	"215.758"	"592.613"	"218.874"	"204.62"	"158.822"	"0.942"	"16.335"
"1984"	"19.445"	"12.603"	"7.588"	"49.639"	"138.016"	"423.011"	"569.253"	"233.566"	"657.692"	"58.313"	"0"	"0.003"
"1985"	"2.454"	"8.502"	"2.748"	"25.866"	"128.553"	"193.682"	"457.675"	"119.555"	"278.225"	"63.417"	"3.371"	"26.893"
"1986"	"1.895"	"1.404"	"0.213"	"84.276"	"147.009"	"226.403"	"344.101"	"205.613"	"291.473"	"146.805"	"19.18"	"11.424"
"1987"	"0.263"	"8.56"	"23.551"	"52.886"	"104.287"	"188.136"	"475.465"	"455.089"	"284.952"	"173.419"	"7.254"	"2.517"
"1988"	"2.163"	"19.864"	"22.937"	"51.598"	"108.589"	"154.977"	"445.338"	"583.177"	"193.513"	"22.866"	"28.26"	"5.378"
"1989"	"23.588"	"18.193"	"5.798"	"3.66"	"201.451"	"294.734"	"398.112"	"257.64"	"419.262"	"65.885"	"10.944"	"1.936"
"1990"	"0.09"	"24.015"	"13.734"	"37.345"	"245.538"	"302.334"	"448.495"	"323.573"	"319.146"	"191.712"	"1.879"	"0.062"
"1991"	"27.064"	"7.651"	"16.891"	"30.939"	"40.754"	"262.967"	"348.366"	"481.669"	"330.569"	"54.813"	"0.921"	"10.873"
"1992"	"6.961"	"3.58"	"6.553"	"41.75"	"131.562"	"112.459"	"465.901"	"294.362"	"209.234"	"22.48"	"1.102"	"0.73"
"1993"	"34.362"	"6.657"	"25.112"	"53.02"	"133.862"	"254.062"	"265.204"	"357.821"	"332.773"	"65.207"	"5.451"	"0"
"1994"	"44.035"	"12.32"	"17.221"	"67.128"	"71.522"	"202.442"	"306.004"	"385.229"	"144.181"	"99.069"	"19.737"	"0.604"
"1995"	"33.036"	"16.698"	"9.927"	"29.272"	"90.372"	"240.811"	"337.918"	"240.463"	"357.258"	"37.886"	"32.726"	"3"
"1996"	"13.833"	"9.513"	"5.128"	"49.981"	"119.595"	"94.307"	"309.5"	"374.46"	"180.52"	"108.298"	"0"	"0"
"1997"	"14.384"	"10.438"	"17.704"	"34.682"	"199.494"	"114.62"	"255.25"	"326.673"	"314.711"	"68.162"	"17.939"	"15.454"
"1998"	"3.676"	"16.042"	"15.435"	"43.497"	"189.031"	"101.695"	"275.914"	"316.537"	"262.286"	"256.652"	"15.486"	"0"
"1999"	"7.867"	"2.932"	"2.066"	"3.02"	"151.115"	"214.111"	"380.077"	"375.183"	"232.015"	"85.839"	"7.591"	"0.255"
"2000"	"11.294"	"10.908"	"10.686"	"27.669"	"110.618"	"264.845"	"185.798"	"297.535"	"280.883"	"22.048"	"0.568"	"0.423"
"2001"	"1.866"	"4.048"	"21.805"	"36.436"	"152.242"	"164.361"	"311.196"	"271.373"	"165.015"	"124.258"	"2.798"	"0"
"2002"	"14.939"	"3.758"	"12.41"	"54.591"	"80.993"	"189.604"	"276.109"	"285.924"	"215.591"	"108.733"	"17.757"	"0"
