
"Year"	"Jan"	"Feb"	"Mar"	"Apr"	"May"	"Jun"	"Jul"	"Aug"	"Sep"	"Oct"	"Nov"	"Dec"
"1901"	"0.73"	"0"	"1.354"	"3.272"	"2.382"	"18.621"	"312.399"	"191.579"	"16.886"	"10.345"	"0.285"	"0"
"1902"	"2.811"	"0"	"0"	"0.172"	"0.575"	"37.824"	"309.04"	"325.433"	"326.453"	"2.787"	"4.226"	"4.085"
"1903"	"0"	"0"	"0"	"0"	"8.74"	"51.313"	"613.269"	"144.97"	"277.241"	"0.724"	"0.285"	"0"
"1904"	"0"	"14.408"	"5.111"	"0.007"	"12.106"	"110.693"	"246.487"	"58.763"	"187.227"	"1.675"	"0.285"	"1.858"
"1905"	"0"	"0"	"0.042"	"0"	"0.5"	"45.647"	"657.078"	"31.523"	"107.553"	"0.109"	"0.285"	"0"
"1906"	"0.023"	"5.351"	"0"	"0"	"0"	"297.792"	"431.56"	"274.046"	"230.349"	"3.939"	"0.285"	"0"
"1907"	"0.023"	"1.707"	"0"	"0.755"	"0"	"59.318"	"447.342"	"357.905"	"20.089"	"0.109"	"1.255"	"0"
"1908"	"3.656"	"1.509"	"0.082"	"0.172"	"0"	"87.303"	"524.357"	"267.069"	"30.382"	"0.411"	"0.285"	"0"
"1909"	"0.051"	"4.42"	"0.066"	"8.657"	"1.589"	"206.586"	"437.865"	"197.96"	"157.177"	"0.957"	"0.285"	"11.05"
"1910"	"7.118"	"0"	"0"	"0.099"	"0.379"	"452.953"	"485.186"	"345.365"	"44.264"	"24.045"	"67.653"	"0"
"1911"	"3.36"	"0"	"7.356"	"0"	"0"	"226.058"	"74.164"	"60.54"	"73.275"	"0.267"	"11.611"	"0"
"1912"	"0"	"0.121"	"0"	"3.191"	"6.287"	"146.022"	"679.784"	"272.902"	"28.782"	"3.524"	"64.978"	"0"
"1913"	"0"	"0.019"	"0.112"	"0"	"23.661"	"412.998"	"549.644"	"171.241"	"210.036"	"0.139"	"0.385"	"0.268"
"1914"	"0"	"6.519"	"0"	"0.364"	"2.05"	"251.108"	"435.205"	"121.309"	"258.974"	"10.407"	"14.659"	"0"
"1915"	"7.065"	"0.25"	"3.616"	"3.599"	"10.431"	"152.695"	"152.973"	"101.771"	"67.92"	"80.304"	"0.531"	"0.585"
"1916"	"0"	"0.243"	"0"	"0.176"	"4.248"	"163.525"	"259.966"	"389.484"	"244.597"	"32.139"	"25.398"	"0"
"1917"	"0.121"	"2.501"	"0.01"	"7.673"	"36.332"	"266.355"	"295.823"	"329.74"	"447.797"	"77.014"	"0.302"	"0"
"1918"	"0"	"0"	"0.375"	"0"	"16.979"	"55.096"	"176.759"	"126.193"	"14.172"	"0.109"	"0.937"	"0"
"1919"	"10.626"	"0"	"0"	"5.248"	"6.268"	"168.401"	"322.443"	"391.766"	"132.449"	"47.548"	"21.358"	"0.031"
"1920"	"1.836"	"1.92"	"0.155"	"0.076"	"46.605"	"275.114"	"300.207"	"94.589"	"29.734"	"0.109"	"0.285"	"0"
"1921"	"0.333"	"0"	"0"	"0"	"0"	"49.9"	"520.918"	"205.709"	"568.453"	"2.577"	"0.285"	"0"
"1922"	"0.23"	"0"	"0"	"0.031"	"0.211"	"151.351"	"321.709"	"69.879"	"343.753"	"7.305"	"12.579"	"0.165"
"1923"	"0"	"7.051"	"0.463"	"0.342"	"1.645"	"1.615"	"314.597"	"116.085"	"110.674"	"0.632"	"0.396"	"0.039"
"1924"	"0.286"	"0"	"0.067"	"0.032"	"3.492"	"126.794"	"227.748"	"210.412"	"214.257"	"15.903"	"0.285"	"2.985"
"1925"	"0"	"0"	"0"	"0"	"11.224"	"334.975"	"248.853"	"70.049"	"15.004"	"0.109"	"10.355"	"0.127"
"1926"	"11.217"	"0"	"0.155"	"6.173"	"2.273"	"17.622"	"403.646"	"449.144"	"223.973"	"0.109"	"0.285"	"0.376"
"1927"	"0"	"2.07"	"0"	"0"	"0.436"	"225.148"	"553.725"	"151.795"	"118.655"	"17.227"	"65.142"	"4.009"
"1928"	"0"	"1.203"	"0.459"	"0"	"0.273"	"166.334"	"404.715"	"244.131"	"143.291"	"28.228"	"17.027"	"4.585"
"1929"	"3.721"	"0.294"	"0"	"1.865"	"0"	"243.178"	"428.157"	"123.328"	"26.639"	"6.558"	"0.285"	"5.536"
"1930"	"0.104"	"0"	"0.023"	"0.032"	"0.318"	"197.06"	"515.313"	"160.428"	"211.061"	"40.785"	"0.308"	"0.131"
"1931"	"0.023"	"0"	"0"	"0.086"	"0"	"27.213"	"329.067"	"396.572"	"101.714"	"124.3"	"7.989"	"6.889"
"1932"	"0"	"0"	"0.678"	"0.007"	"0"	"98.167"	"601.951"	"108.863"	"179.676"	"12.482"	"0.285"	"0"
"1933"	"0"	"4.253"	"0.284"	"7.733"	"31.824"	"153.469"	"288.289"	"474.024"	"246.699"	"15.96"	"0.652"	"0.387"
"1934"	"0.048"	"0"	"0.007"	"0"	"0"	"245.976"	"298.212"	"379.152"	"203.017"	"0.144"	"31.954"	"0.029"
"1935"	"7.675"	"3.16"	"0"	"1.011"	"0.568"	"97.938"	"439.128"	"133.072"	"231.437"	"20.119"	"0.537"	"0"
"1936"	"0"	"2.079"	"1.627"	"0.311"	"1.735"	"330.576"	"124.386"	"33.323"	"248.867"	"0.109"	"100.541"	"0"
"1937"	"0"	"4.43"	"0.737"	"0.032"	"0"	"177.042"	"462.775"	"35.547"	"336.928"	"4.339"	"0.285"	"1.203"
"1938"	"0"	"0"	"0.375"	"0"	"10.802"	"335.506"	"409.643"	"118.251"	"18.979"	"45.661"	"0.285"	"0"
"1939"	"0"	"0.036"	"2.755"	"0.032"	"0"	"38.495"	"302.557"	"320.782"	"163.833"	"0.146"	"2.146"	"0"
"1940"	"2.53"	"0.564"	"0.756"	"2.343"	"1.84"	"175.802"	"197.905"	"241.38"	"145.34"	"110.211"	"54.862"	"0.044"
"1941"	"0.611"	"3.353"	"0"	"7.164"	"0.003"	"58.39"	"624.605"	"234.375"	"56.691"	"1.843"	"0.285"	"0"
"1942"	"0.518"	"6.932"	"0"	"0"	"0.931"	"132.925"	"681.074"	"462.6"	"127.957"	"0.109"	"0.285"	"0.251"
"1943"	"0.213"	"0"	"0"	"0.27"	"34.049"	"164.018"	"405.716"	"78.776"	"199.821"	"77.104"	"0.863"	"0"
"1944"	"0.229"	"0"	"2.534"	"0.166"	"0.718"	"126.678"	"588.987"	"452.968"	"118.611"	"58.65"	"0.285"	"0"
"1945"	"3.257"	"0"	"0"	"0.017"	"0.156"	"172.574"	"602.487"	"163.252"	"509.235"	"0.546"	"0.34"	"0"
"1946"	"0"	"2.803"	"0"	"0.032"	"1.404"	"350.657"	"367.31"	"304.99"	"150.041"	"1.6"	"61.693"	"3.183"
"1947"	"0.027"	"0"	"0.003"	"4.468"	"0.056"	"4.621"	"387.787"	"217.866"	"355.2"	"8.876"	"2.272"	"0.434"
"1948"	"7.13"	"0.173"	"0.226"	"0.172"	"0.038"	"143.197"	"237.683"	"105.134"	"86.869"	"11.814"	"58.77"	"0.129"
"1949"	"0"	"0.53"	"0"	"0.032"	"0.439"	"30.211"	"328.823"	"172.108"	"256.787"	"10.451"	"1.255"	"0"
"1950"	"0"	"0"	"0.375"	"0"	"0.423"	"23.669"	"700.854"	"50.348"	"352.184"	"0.165"	"0.285"	"0.057"
"1951"	"0"	"0"	"0"	"0.062"	"0.44"	"79.166"	"319.672"	"118.676"	"10.349"	"8.073"	"0.784"	"0"
"1952"	"0"	"0"	"0"	"0.206"	"0.003"	"164.929"	"474.029"	"139.007"	"12.124"	"0.111"	"0.285"	"0"
"1953"	"17.992"	"0"	"0"	"0.032"	"0"	"117.828"	"210.074"	"402.532"	"101.048"	"0.665"	"0.285"	"0"
"1954"	"0.266"	"1.253"	"1.827"	"0.003"	"0"	"176.22"	"383.372"	"151.953"	"552.782"	"12.33"	"1.659"	"0.7"
"1955"	"0.471"	"1.593"	"0"	"0"	"0.023"	"160.888"	"106.004"	"407.93"	"356.447"	"48.408"	"0.285"	"0"
"1956"	"0.189"	"0.069"	"0"	"0.023"	"12.06"	"140.246"	"457.183"	"314.24"	"195.35"	"131.202"	"2.404"	"0.082"
"1957"	"0.038"	"0"	"0.238"	"0.205"	"2.229"	"247.834"	"325.232"	"215.643"	"15.68"	"15.168"	"13.303"	"0.029"
"1958"	"0.378"	"0"	"0.226"	"0.27"	"0.024"	"167.743"	"370.598"	"331.654"	"442.46"	"70.694"	"13.232"	"0"
"1959"	"0.519"	"0"	"0"	"0.466"	"1.208"	"138.094"	"696.074"	"268.054"	"403.611"	"137.728"	"10.89"	"0"
"1960"	"0.741"	"0"	"0.675"	"0.044"	"5.171"	"298.686"	"166.71"	"222.036"	"131.397"	"6.788"	"0.285"	"0.035"
"1961"	"0.024"	"3.386"	"0"	"0.033"	"1.492"	"51.406"	"537.703"	"234.87"	"353.704"	"18.466"	"4.918"	"0.093"
"1962"	"0.255"	"0"	"2.052"	"1.244"	"0.078"	"64.423"	"296.406"	"169.633"	"399.639"	"0.109"	"12.249"	"3.858"
"1963"	"3.41"	"0.375"	"0.351"	"0.371"	"0.633"	"57.617"	"296.947"	"498.897"	"198.373"	"37.644"	"26.075"	"0.09"
"1964"	"0"	"0"	"0.976"	"0"	"1.743"	"133.336"	"485.426"	"284.362"	"180.685"	"0.663"	"0.964"	"0"
"1965"	"1.617"	"0"	"0.12"	"0.136"	"0.663"	"5.225"	"406.507"	"149.762"	"33.057"	"0.405"	"3.023"	"0.828"
"1966"	"1.58"	"0"	"0"	"0.144"	"0.463"	"79.475"	"304.238"	"60.847"	"147.146"	"0.429"	"4.816"	"0.028"
"1967"	"0"	"0"	"6.838"	"0.377"	"0.023"	"207.659"	"425.296"	"214.497"	"196.559"	"0.171"	"0.285"	"6.812"
"1968"	"0"	"0.256"	"1.872"	"0"	"0"	"45.565"	"157.383"	"217.985"	"76.291"	"7.677"	"0.285"	"0"
"1969"	"0.247"	"0"	"0"	"0"	"0"	"197.97"	"341.211"	"150.969"	"126.834"	"0.109"	"35.649"	"0.077"
"1970"	"0.008"	"0.472"	"0.783"	"0.102"	"18.471"	"417.87"	"239.746"	"305.726"	"322.144"	"0.564"	"0.285"	"0"
"1971"	"0"	"0"	"0"	"0"	"14.384"	"210.056"	"303.209"	"298.632"	"152.347"	"6.829"	"0.285"	"0"
"1972"	"0"	"0.202"	"0"	"0.053"	"0.509"	"93.463"	"257.898"	"170.086"	"19.87"	"0.335"	"0.408"	"0"
"1973"	"7.185"	"4.521"	"0"	"0"	"2.12"	"126.096"	"376.21"	"309.481"	"405.11"	"7.853"	"0.285"	"0.587"
"1974"	"0"	"0"	"0"	"0.032"	"61.608"	"23.716"	"160.482"	"113.105"	"81.679"	"25.174"	"0.285"	"5.879"
"1975"	"0"	"0.21"	"0"	"0"	"0.499"	"208.445"	"209.338"	"375.253"	"336.505"	"109.903"	"0.285"	"0"
"1976"	"6.507"	"0"	"0.054"	"0.019"	"0"	"298.108"	"428.781"	"440.411"	"137.059"	"0.109"	"132.569"	"0.057"
"1977"	"0"	"0.525"	"0.208"	"6.03"	"14.006"	"207.801"	"480.52"	"179.294"	"148.676"	"0.135"	"17.063"	"0.11"
"1978"	"0"	"3.865"	"0.009"	"9.563"	"0.01"	"241.98"	"241.651"	"324.101"	"46.796"	"20.192"	"59.641"	"11.335"
"1979"	"0.525"	"7.941"	"0.11"	"0"	"0.917"	"156.732"	"141.196"	"356.175"	"56.609"	"17.454"	"176.343"	"0.284"
"1980"	"0"	"2.825"	"0"	"0"	"0"	"334.309"	"243.109"	"253.864"	"27.966"	"0.109"	"5.081"	"13.684"
"1981"	"0.048"	"0"	"0.334"	"0.032"	"0.857"	"161.286"	"397.387"	"402.672"	"158.285"	"47.042"	"29.853"	"0"
"1982"	"1.031"	"0.243"	"0"	"0.436"	"24.04"	"47.342"	"200.017"	"167.595"	"33.306"	"8.913"	"151.993"	"0"
"1983"	"0"	"0"	"0"	"2.779"	"0.273"	"236.346"	"475.778"	"338.575"	"150.246"	"59.912"	"0.285"	"0"
"1984"	"0"	"0.038"	"0"	"0"	"0"	"57.876"	"257.624"	"403.171"	"146.603"	"6.078"	"0.285"	"0.244"
"1985"	"0"	"0"	"0"	"2.929"	"0.558"	"38.151"	"289.03"	"220.181"	"51.554"	"72.468"	"28.58"	"0"
"1986"	"0"	"0.429"	"0"	"0"	"4.885"	"336.163"	"192.461"	"197.94"	"41.463"	"2.513"	"0.529"	"3.754"
"1987"	"3.262"	"1.946"	"0.657"	"0"	"7.753"	"83.538"	"111.943"	"278.844"	"10.251"	"16.202"	"8.98"	"14.753"
"1988"	"0"	"0"	"0"	"4.983"	"0.557"	"100.47"	"486.643"	"210.208"	"230.499"	"14.16"	"0.787"	"0"
"1989"	"0.575"	"0"	"3.796"	"0.402"	"2.448"	"201.227"	"249.781"	"270.385"	"102.869"	"1.085"	"0.285"	"0.177"
"1990"	"0"	"1.885"	"0"	"0"	"20.766"	"101.699"	"327.356"	"515.469"	"167.82"	"17.988"	"11.792"	"12.272"
"1991"	"0"	"0"	"0.272"	"0.492"	"0.88"	"175.283"	"465.827"	"117.08"	"42.822"	"0.332"	"6.523"	"0"
"1992"	"0"	"0"	"0"	"0"	"4.143"	"96.007"	"234.996"	"194.477"	"289.113"	"8.963"	"4.572"	"0"
"1993"	"0"	"0"	"0.538"	"0"	"2.937"	"105.839"	"521.168"	"118.128"	"139.902"	"20.185"	"14.388"	"0.416"
"1994"	"5.285"	"0"	"1.36"	"0.621"	"2.083"	"258.318"	"440.515"	"319.432"	"448.804"	"6"	"2.739"	"0"
"1995"	"1.146"	"0"	"2.428"	"1.47"	"3.857"	"48.068"	"381.605"	"106.622"	"149.414"	"11.934"	"4.291"	"1.721"
"1996"	"0.956"	"0.3"	"0.392"	"0.558"	"2.204"	"149.41"	"546.848"	"223.028"	"148"	"53.508"	"1.797"	"0"
"1997"	"4.892"	"0"	"0"	"4.297"	"6.88"	"226.632"	"308.656"	"341.723"	"87.314"	"7.295"	"18.194"	"4.327"
"1998"	"0.481"	"0.636"	"0.657"	"0.118"	"2.735"	"140.501"	"451.93"	"223.356"	"267.095"	"43.868"	"15.032"	"0"
"1999"	"0"	"2.376"	"0"	"0"	"2.86"	"284.623"	"283.142"	"62.032"	"141.952"	"52.483"	"0.285"	"0.252"
"2000"	"0"	"0"	"0"	"0"	"17.467"	"131.646"	"437.69"	"134.194"	"34.201"	"4.814"	"3.897"	"0.012"
"2001"	"0.087"	"0"	"0.451"	"0.006"	"17.952"	"315.765"	"244.324"	"145.281"	"31.587"	"35.482"	"5.973"	"0"
"2002"	"0"	"1.248"	"1.464"	"3.804"	"0.86"	"266.389"	"63.518"	"175.475"	"96.823"	"0.665"	"1.18"	"0"
