
"Year"	"Jan"	"Feb"	"Mar"	"Apr"	"May"	"Jun"	"Jul"	"Aug"	"Sep"	"Oct"	"Nov"	"Dec"
"1901"	"19.902"	"21.056"	"27.36"	"30.574"	"32.754"	"32.746"	"29.924"	"27.849"	"28.375"	"28.954"	"25.513"	"22.922"
"1902"	"22.207"	"23.672"	"28.599"	"31.448"	"32.834"	"32.153"	"29.96"	"29.174"	"28.287"	"28.578"	"24.45"	"21.389"
"1903"	"20.896"	"21.5"	"25.359"	"29.356"	"32.071"	"32.406"	"29.858"	"28.558"	"28.187"	"27.904"	"23.018"	"20.971"
"1904"	"21.433"	"22.512"	"25.891"	"31.029"	"32.579"	"30.952"	"28.438"	"28.14"	"28.342"	"28.711"	"24.508"	"22.335"
"1905"	"20.087"	"19.894"	"25.026"	"28.674"	"33.465"	"32.036"	"28.731"	"28.652"	"28.639"	"28.702"	"25.722"	"21.777"
"1906"	"19.684"	"21.176"	"25.93"	"30.142"	"32.981"	"30.702"	"28.753"	"28.263"	"27.744"	"27.914"	"25.252"	"22.179"
"1907"	"21.685"	"22.497"	"26.266"	"29.515"	"31.467"	"31.571"	"30.501"	"27.241"	"28.191"	"28.754"	"25.805"	"20.897"
"1908"	"20.601"	"21.987"	"25.481"	"31.041"	"32.129"	"31.504"	"28.099"	"27.608"	"28.337"	"28.444"	"24.603"	"20.982"
"1909"	"20.882"	"22.745"	"27.667"	"29.721"	"32.444"	"30.834"	"28.299"	"27.831"	"27.78"	"27.511"	"24.634"	"21.544"
"1910"	"21.039"	"22.739"	"26.836"	"30.017"	"32.024"	"30.304"	"28.405"	"28.221"	"28.094"	"26.961"	"23.124"	"21.667"
"1911"	"22.096"	"22.35"	"25.37"	"29.642"	"32.792"	"30.214"	"29.478"	"28.154"	"27.751"	"28.567"	"24.945"	"23.363"
"1912"	"22.041"	"23.928"	"26.557"	"30.841"	"32.836"	"32.67"	"29.177"	"27.977"	"28.145"	"28.312"	"23.96"	"21.395"
"1913"	"20.803"	"22.844"	"25.029"	"30.915"	"31.888"	"30.444"	"28.673"	"27.647"	"28.354"	"29.029"	"25.14"	"22.083"
"1914"	"22.415"	"22.681"	"26.058"	"30.083"	"32.988"	"30.769"	"28.652"	"28.35"	"28.555"	"28.603"	"26.306"	"21.614"
"1915"	"21.297"	"21.695"	"26.997"	"30.059"	"32.985"	"33.085"	"30.417"	"28.45"	"29.122"	"29.094"	"25.651"	"22.231"
"1916"	"21.642"	"21.817"	"28.304"	"31.268"	"32.88"	"29.893"	"29.557"	"28.044"	"28.841"	"28.134"	"23.597"	"21.413"
"1917"	"22.046"	"22.739"	"26.757"	"29.468"	"30.735"	"30.245"	"28.288"	"28.133"	"27.939"	"27.458"	"23.525"	"21.525"
"1918"	"19.917"	"23.154"	"26.915"	"29.142"	"32.787"	"30.647"	"29.821"	"28.234"	"28.262"	"28.624"	"26.184"	"21.498"
"1919"	"21.66"	"22.554"	"27.267"	"30.187"	"32.442"	"30.7"	"28.461"	"27.695"	"28.368"	"27.998"	"25.743"	"21.63"
"1920"	"21.749"	"22.407"	"27.524"	"30.261"	"30.728"	"31.154"	"28.249"	"27.919"	"29.004"	"29.09"	"25.69"	"22.098"
"1921"	"21.652"	"22.643"	"28.474"	"31.682"	"32.882"	"31.534"	"30.101"	"28.241"	"27.502"	"28.011"	"24.319"	"23.075"
"1922"	"20.543"	"23.983"	"27.527"	"31.037"	"32.662"	"31.248"	"28.653"	"28.012"	"27.906"	"27.916"	"24.518"	"20.871"
"1923"	"21.474"	"21.974"	"27.524"	"30.422"	"31.914"	"32.704"	"28.772"	"27.529"	"28.491"	"27.441"	"24.194"	"22.843"
"1924"	"21.362"	"23.366"	"28.724"	"31.417"	"32.285"	"32.115"	"29.076"	"28.231"	"28.161"	"27.064"	"23.124"	"21.953"
"1925"	"19.148"	"21.239"	"27.524"	"31.793"	"31.976"	"30.092"	"28.36"	"28.535"	"28.726"	"29.679"	"25.699"	"22.237"
"1926"	"21.897"	"24.584"	"27.222"	"28.809"	"32.208"	"33.358"	"29.452"	"28.317"	"28.015"	"28.079"	"23.591"	"21.253"
"1927"	"19.91"	"21.865"	"26.04"	"29.74"	"31.732"	"31.2"	"28.142"	"27.488"	"28.306"	"27.956"	"22.538"	"22.124"
"1928"	"20.952"	"22.402"	"26.64"	"30.097"	"32.474"	"30.994"	"28.06"	"27.453"	"27.948"	"27.858"	"25.02"	"20.94"
"1929"	"20"	"21.847"	"27.948"	"30.676"	"32.79"	"31.03"	"28.748"	"27.546"	"28.274"	"28.003"	"26.005"	"21.09"
"1930"	"21.187"	"21.75"	"27.339"	"30.187"	"32.432"	"31.453"	"27.676"	"27.451"	"28.564"	"29.018"	"23.916"	"22.138"
"1931"	"22.297"	"22.418"	"26.334"	"31.191"	"32.809"	"32.733"	"29.317"	"28.17"	"28.052"	"27.323"	"24.517"	"22.165"
"1932"	"22.397"	"22.026"	"26.566"	"29.94"	"32.563"	"31.281"	"28.259"	"28.082"	"28.343"	"29.034"	"24.417"	"22.469"
"1933"	"21.055"	"23.328"	"27.304"	"30.131"	"31.024"	"30.646"	"28.587"	"27.59"	"27.855"	"27.911"	"24.947"	"21.679"
"1934"	"19.501"	"23.353"	"26.523"	"30.552"	"32.108"	"31.355"	"28.315"	"27.725"	"27.55"	"27.27"	"24.178"	"22.46"
"1935"	"19.428"	"22.663"	"26.44"	"28.718"	"32.144"	"31.412"	"28.173"	"27.446"	"27.39"	"27.834"	"24.715"	"22.122"
"1936"	"20.339"	"22.749"	"26.541"	"29.311"	"32.778"	"29.96"	"28.563"	"28.088"	"28.061"	"27.803"	"25.191"	"21.366"
"1937"	"19.85"	"23.424"	"25.87"	"29.463"	"31.987"	"31.299"	"27.775"	"27.69"	"27.871"	"27.666"	"25.487"	"21.047"
"1938"	"21.705"	"21.399"	"28.261"	"30.877"	"32.443"	"28.954"	"28.025"	"28.154"	"28.523"	"27.747"	"23.594"	"22.147"
"1939"	"21.808"	"23.544"	"25.589"	"29.391"	"31.833"	"31.247"	"28.568"	"28.484"	"27.685"	"28.203"	"24.511"	"21.73"
"1940"	"21.74"	"23.347"	"25.209"	"29.646"	"32.526"	"31.215"	"28.3"	"27.636"	"27.979"	"28.269"	"24.881"	"21.478"
"1941"	"20.596"	"23.931"	"27.727"	"31.055"	"32.487"	"31.759"	"27.816"	"28.048"	"28.476"	"29.264"	"25.121"	"23.387"
"1942"	"20.599"	"23.335"	"27.82"	"31.695"	"32.298"	"31.96"	"27.768"	"27.352"	"27.452"	"27.953"	"24.309"	"21.099"
"1943"	"21.169"	"22.727"	"27.421"	"29.84"	"33.074"	"29.792"	"27.454"	"27.2"	"27.517"	"27.414"	"25.454"	"21.666"
"1944"	"20.898"	"22.242"	"26.311"	"29.442"	"32.536"	"30.908"	"27.801"	"27.397"	"28.41"	"27.521"	"24.821"	"22.818"
"1945"	"19.504"	"22.047"	"27.242"	"29.488"	"31.744"	"31.464"	"27.523"	"27.913"	"27.656"	"27.475"	"23.441"	"20.382"
"1946"	"20.852"	"24.138"	"26.641"	"31.157"	"31.631"	"30.25"	"28.053"	"26.948"	"27.763"	"28.415"	"22.943"	"22.47"
"1947"	"20.623"	"23.336"	"27.335"	"29.64"	"32.454"	"31.853"	"28.744"	"28.954"	"27.508"	"26.674"	"24.621"	"21.966"
"1948"	"20.978"	"22.735"	"27.528"	"31.452"	"33.232"	"31.549"	"29.542"	"28.237"	"28.258"	"29.196"	"25.619"	"21.852"
"1949"	"22.901"	"23.049"	"27.983"	"31.37"	"33.078"	"31.281"	"29.115"	"28.449"	"28.202"	"28.319"	"24.24"	"21.178"
"1950"	"21.487"	"20.806"	"26.475"	"30.279"	"32.241"	"31.704"	"27.661"	"27.849"	"27.761"	"28.332"	"23.483"	"21.181"
"1951"	"20.149"	"22.476"	"27.234"	"29.001"	"32.042"	"31.403"	"29.54"	"27.728"	"29.557"	"30.304"	"26.563"	"21.777"
"1952"	"22.078"	"24.399"	"26.811"	"31.33"	"32.932"	"31.203"	"28.409"	"27.234"	"28.201"	"28.889"	"24.227"	"23.103"
"1953"	"20.94"	"25.23"	"29.257"	"31.04"	"31.981"	"31.254"	"28.466"	"27.116"	"27.917"	"27.924"	"24.376"	"22.824"
"1954"	"20.267"	"24.277"	"27.66"	"30.74"	"32.782"	"31.355"	"28.413"	"28.326"	"26.66"	"26.564"	"24.418"	"21.598"
"1955"	"21.911"	"23.776"	"28.613"	"28.977"	"32.146"	"30.694"	"29.261"	"27.396"	"27.707"	"27.468"	"23.197"	"21.538"
"1956"	"21.454"	"22.888"	"28.199"	"30.889"	"32.235"	"30.28"	"26.928"	"27.003"	"27.683"	"26.845"	"24.068"	"21.749"
"1957"	"20.81"	"21.248"	"25.571"	"29.995"	"31.548"	"31.469"	"28.9"	"28.038"	"28.298"	"28.902"	"26.757"	"23.388"
"1958"	"22.707"	"23.257"	"27.915"	"31.636"	"32.931"	"32.105"	"28.363"	"28.492"	"27.359"	"27.761"	"25.252"	"22.787"
"1959"	"21.223"	"23.022"	"28.117"	"30.971"	"33.088"	"31.249"	"27.317"	"27.1"	"27.371"	"27.713"	"25.072"	"22.636"
"1960"	"20.434"	"24.888"	"26.142"	"30.154"	"32.098"	"30.648"	"28.964"	"27.132"	"28.649"	"28.311"	"24.868"	"23.45"
"1961"	"21.567"	"21.643"	"28.472"	"30.541"	"32.354"	"30.419"	"27.83"	"28.042"	"27.01"	"27.092"	"25.15"	"21.291"
"1962"	"19.719"	"23.719"	"27.003"	"30.57"	"32.919"	"31.265"	"28.527"	"28.042"	"27.761"	"26.575"	"25.135"	"22.539"
"1963"	"21.691"	"24.634"	"27.415"	"29.784"	"31.838"	"31.249"	"28.76"	"27.462"	"27.328"	"28.259"	"26.124"	"22.996"
"1964"	"19.748"	"23.253"	"28.71"	"31.645"	"32.084"	"30.853"	"28.162"	"27.594"	"28.044"	"28.222"	"24.156"	"21.939"
"1965"	"22.793"	"23.4"	"26.741"	"30.128"	"32.264"	"31.772"	"28.824"	"28.454"	"28.45"	"29.366"	"26.274"	"22.9"
"1966"	"22.334"	"25.366"	"26.803"	"30.383"	"31.878"	"31.564"	"29.662"	"28.374"	"28.301"	"29.668"	"26.618"	"22.396"
"1967"	"20.161"	"24.89"	"27.12"	"30.102"	"32.491"	"30.518"	"28.342"	"27.456"	"27.796"	"28.711"	"25.826"	"23.841"
"1968"	"20.393"	"22.089"	"26.999"	"30.387"	"31.488"	"32.204"	"29.242"	"27.236"	"29.47"	"28.719"	"25.41"	"22.349"
"1969"	"21.647"	"24.032"	"29.42"	"31.734"	"32.879"	"31.757"	"29.303"	"27.7"	"28.255"	"29.01"	"27.305"	"23.242"
"1970"	"21.791"	"23.697"	"27.501"	"31.794"	"33.323"	"29.934"	"28.526"	"28.042"	"27.673"	"29.015"	"24.06"	"21.29"
"1971"	"20.656"	"23.248"	"27.504"	"31.888"	"31.947"	"29.648"	"27.834"	"27.554"	"28.459"	"27.513"	"24.29"	"21.293"
"1972"	"21.336"	"21.044"	"28.116"	"30.027"	"32.443"	"31.905"	"28.91"	"28.285"	"28.672"	"29.411"	"25.151"	"22.525"
"1973"	"20.36"	"24.157"	"27.723"	"32.297"	"33.245"	"31.455"	"27.659"	"27.532"	"26.713"	"27.826"	"24.533"	"22.05"
"1974"	"20.833"	"22.016"	"28.674"	"31.346"	"31.541"	"31.658"	"29.054"	"28.393"	"29.55"	"28.87"	"23.751"	"21.434"
"1975"	"19.944"	"22.888"	"26.239"	"29.533"	"32.548"	"30.82"	"28.741"	"27.898"	"27.778"	"28.128"	"23.862"	"21.644"
"1976"	"21.403"	"23.487"	"27.682"	"30.556"	"32.027"	"30.278"	"28.675"	"27.604"	"27.815"	"29.258"	"27.872"	"23.201"
"1977"	"20.955"	"23.844"	"29.378"	"31.684"	"32.479"	"30.859"	"28.564"	"28.273"	"28.153"	"29.717"	"27.121"	"23.032"
"1978"	"20.636"	"23.041"	"26.175"	"31.477"	"33.219"	"30.943"	"28.388"	"27.83"	"27.959"	"28.919"	"26.757"	"22.784"
"1979"	"22.027"	"21.952"	"26.524"	"30.759"	"32.163"	"32.342"	"29.318"	"27.538"	"29.588"	"29.587"	"27.183"	"23.237"
"1980"	"21.696"	"23.829"	"27.772"	"30.697"	"33.527"	"29.788"	"28.795"	"28.147"	"29.149"	"29.844"	"26.763"	"22.427"
"1981"	"21.28"	"23.788"	"27.859"	"31.551"	"32.859"	"32.454"	"28.565"	"27.603"	"28.712"	"28.915"	"23.816"	"22.039"
"1982"	"21.8"	"22.642"	"26.18"	"30.289"	"31.145"	"31.752"	"29.619"	"28.081"	"28.768"	"29.815"	"25.653"	"23.25"
"1983"	"20.658"	"21.638"	"26.234"	"29.175"	"32.539"	"31.763"	"29.306"	"28.2"	"28.744"	"27.416"	"23.49"	"21.459"
"1984"	"19.965"	"21.166"	"28.371"	"31.603"	"33.039"	"31.203"	"28.518"	"26.95"	"27.558"	"28.022"	"24.794"	"22.399"
"1985"	"20.778"	"22.655"	"28.888"	"30.885"	"32.787"	"31.388"	"29.063"	"27.657"	"28.76"	"27.404"	"25.464"	"23.42"
"1986"	"21.9"	"23.363"	"27.584"	"31.239"	"32.481"	"31.052"	"28.627"	"27.358"	"29.023"	"29.097"	"26.415"	"21.688"
"1987"	"22.184"	"24.262"	"28.138"	"31.194"	"32.435"	"32.007"	"30.545"	"29.535"	"30.238"	"30.374"	"27.018"	"23.374"
"1988"	"23.191"	"25.036"	"27.494"	"32.037"	"33.325"	"31.904"	"28.551"	"28.385"	"29.33"	"28.404"	"25.387"	"22.986"
"1989"	"20.795"	"23.391"	"26.922"	"30.506"	"32.868"	"30.49"	"28.682"	"27.499"	"28.923"	"28.966"	"26.968"	"22.682"
"1990"	"23.414"	"23.657"	"26.229"	"30.859"	"32.333"	"30.875"	"28.316"	"27.672"	"27.905"	"28.602"	"26.092"	"23.028"
"1991"	"20.562"	"23.444"	"27.632"	"30.864"	"32.973"	"32.155"	"28.77"	"27.898"	"28.315"	"28.307"	"25.986"	"22.308"
"1992"	"21.659"	"21.701"	"27.418"	"29.966"	"32.434"	"32.571"	"29.791"	"28.003"	"27.692"	"28.366"	"25.619"	"23.279"
"1993"	"22.191"	"24.005"	"26.938"	"30.481"	"33.065"	"32.201"	"28.86"	"28.895"	"28.51"	"29.495"	"26.57"	"23.386"
"1994"	"22.771"	"22.642"	"28.394"	"30.484"	"33.032"	"30.501"	"27.54"	"28.116"	"27.851"	"28.487"	"25.773"	"22.189"
"1995"	"20.303"	"23.432"	"26.737"	"30.593"	"32.931"	"33.36"	"29.548"	"28.862"	"29.122"	"30.006"	"25.589"	"23.293"
"1996"	"22.172"	"24.483"	"29.378"	"30.939"	"32.73"	"32.007"	"29.262"	"27.704"	"28.263"	"28.26"	"25.433"	"22.885"
"1997"	"21.002"	"22.683"	"27.974"	"29.396"	"31.521"	"30.592"	"28.761"	"27.806"	"28.414"	"28.337"	"27.388"	"22.794"
"1998"	"21.656"	"23.004"	"27.086"	"31.805"	"33.88"	"32.312"	"28.819"	"28.952"	"28.614"	"30.302"	"25.729"	"22.348"
"1999"	"20.814"	"24.499"	"27.804"	"31.629"	"32.081"	"30.443"	"28.671"	"28.044"	"28.763"	"28.122"	"25.452"	"22.186"
"2000"	"22.12"	"22.098"	"26.777"	"32.249"	"31.469"	"31.238"	"28.064"	"28.809"	"28.866"	"29.848"	"26.684"	"23.605"
"2001"	"21.363"	"23.724"	"27.514"	"30.841"	"32.087"	"29.312"	"27.379"	"27.929"	"29.47"	"29.351"	"26.084"	"23.184"
"2002"	"20.736"	"23.458"	"27.979"	"31.742"	"33.15"	"31.195"	"29.264"	"27.587"	"28.393"	"29.943"	"26.315"	"23.854"
