
"Year"	"Jan"	"Feb"	"Mar"	"Apr"	"May"	"Jun"	"Jul"	"Aug"	"Sep"	"Oct"	"Nov"	"Dec"
"1901"	"0.313"	"0"	"0"	"1.476"	"3.414"	"223.424"	"390.354"	"284.273"	"56.274"	"13.104"	"0.134"	"0"
"1902"	"0"	"0"	"0"	"0"	"0.781"	"41.586"	"640.461"	"265.499"	"326.22"	"20.073"	"7.05"	"9.63"
"1903"	"0"	"0"	"0"	"0"	"27.303"	"92.464"	"505.91"	"257.219"	"211.764"	"40.582"	"0.689"	"0.36"
"1904"	"0"	"6.495"	"0.288"	"0.201"	"0.514"	"217.627"	"270.369"	"106.11"	"196.055"	"26.606"	"0.134"	"1.008"
"1905"	"0"	"2.597"	"0"	"0"	"0"	"68.245"	"548.474"	"95.382"	"57.733"	"9.486"	"2.628"	"0"
"1906"	"0"	"5.112"	"0"	"0"	"0"	"273.414"	"467.166"	"220.702"	"66.23"	"16.172"	"0.134"	"2.837"
"1907"	"0"	"0.278"	"0"	"0.139"	"0"	"236.237"	"658.608"	"572.909"	"45.031"	"0.247"	"0.134"	"0"
"1908"	"0.36"	"0"	"0"	"0"	"0"	"170.788"	"707.703"	"235.749"	"53.668"	"2.443"	"0.134"	"0"
"1909"	"0"	"0.082"	"0"	"0"	"0.062"	"532.921"	"606.487"	"194.574"	"218.523"	"5.772"	"0.134"	"2.36"
"1910"	"0"	"0"	"0"	"0"	"0.062"	"369.26"	"286.956"	"442.228"	"134.523"	"53.656"	"13.554"	"0"
"1911"	"0.062"	"0"	"0.57"	"0"	"0"	"263.445"	"167.987"	"291.393"	"87.36"	"0.247"	"4.76"	"2.128"
"1912"	"0"	"0"	"0"	"0"	"1.769"	"167.392"	"918.855"	"263.396"	"27.486"	"34.009"	"58.491"	"0"
"1913"	"0"	"0"	"0"	"0"	"1.286"	"632.847"	"567.299"	"204.096"	"191.642"	"10.981"	"0.134"	"0"
"1914"	"0"	"2.695"	"0"	"0"	"0"	"461.965"	"927.008"	"241.668"	"269.731"	"6.451"	"11"	"0"
"1915"	"0.093"	"0.555"	"0.329"	"0.134"	"0.247"	"391.103"	"264.153"	"141.236"	"208.037"	"68.832"	"5.788"	"0.247"
"1916"	"0"	"0"	"0"	"0"	"8.833"	"237.019"	"303.803"	"409.172"	"273.56"	"71.265"	"0.134"	"0"
"1917"	"0"	"0.139"	"0"	"0.422"	"30.084"	"341.661"	"305.951"	"357.655"	"275.122"	"85.588"	"0.134"	"0"
"1918"	"0"	"0"	"0.509"	"0"	"28.988"	"97.587"	"189.289"	"260.608"	"30.106"	"1.209"	"0.601"	"0"
"1919"	"0.139"	"0"	"0"	"0"	"0.226"	"297.486"	"726.797"	"263.58"	"144.862"	"47.573"	"1.773"	"0"
"1920"	"0.406"	"2.371"	"0"	"0"	"5.045"	"226.799"	"247.134"	"191.692"	"135.073"	"0.71"	"0.134"	"0"
"1921"	"0"	"0"	"0"	"0"	"0"	"175.367"	"635.215"	"224.425"	"223.549"	"1.861"	"0.134"	"0"
"1922"	"0"	"0"	"0"	"0"	"0"	"300.281"	"435.695"	"130.48"	"218.165"	"13.416"	"16.392"	"2.261"
"1923"	"0"	"3.291"	"0.909"	"0"	"0.082"	"32.809"	"560.019"	"230.652"	"249.683"	"1.624"	"0.134"	"0"
"1924"	"0"	"0"	"0"	"0"	"0.246"	"116.15"	"252.723"	"365.401"	"277.801"	"12.686"	"0.134"	"0"
"1925"	"0"	"0"	"0"	"0"	"20.017"	"474.521"	"263.486"	"144.698"	"42.208"	"0.617"	"5.496"	"0"
"1926"	"0.381"	"0"	"0"	"0.571"	"0"	"81.266"	"673.121"	"549.393"	"307.606"	"11.048"	"0.134"	"0"
"1927"	"0"	"0.278"	"0"	"0"	"1.561"	"276.613"	"740.107"	"119.487"	"155.222"	"34.983"	"43.157"	"0"
"1928"	"0"	"0.834"	"0"	"0"	"0"	"116.075"	"514.182"	"298.048"	"194.956"	"12.576"	"2.934"	"1.773"
"1929"	"0"	"0"	"0.155"	"0.18"	"0"	"234.864"	"460.224"	"184.706"	"65.414"	"60.231"	"0.134"	"6.585"
"1930"	"0"	"4.284"	"0"	"0"	"0"	"345.379"	"564.711"	"201.86"	"151.728"	"25.324"	"0.134"	"0.201"
"1931"	"0"	"0"	"0"	"0"	"0"	"244.34"	"830.041"	"393.634"	"99.087"	"228.214"	"35.927"	"5.588"
"1932"	"0"	"0"	"0"	"0"	"1.533"	"107.133"	"822.564"	"243.448"	"192.449"	"92.637"	"3.48"	"5.079"
"1933"	"0"	"0.041"	"0.062"	"0"	"31.259"	"572.596"	"334.618"	"732.779"	"360.364"	"50.675"	"1.686"	"6.773"
"1934"	"0"	"0"	"0"	"0.308"	"0"	"315.309"	"332.773"	"402.99"	"129.975"	"18.203"	"28.651"	"0"
"1935"	"0.093"	"0"	"0"	"0"	"0"	"380.127"	"433.073"	"195.913"	"145.827"	"20.445"	"0.134"	"0"
"1936"	"0"	"0"	"0.221"	"0"	"0.648"	"434.564"	"295.706"	"170.597"	"189.69"	"4.264"	"52.707"	"0"
"1937"	"0"	"3.785"	"0"	"0"	"0"	"502.781"	"725.723"	"87.983"	"403.908"	"20.224"	"0.134"	"0.596"
"1938"	"0"	"0.741"	"0"	"0"	"34.593"	"661.47"	"423.102"	"260.083"	"93.397"	"37.395"	"8.043"	"0.041"
"1939"	"0"	"0"	"0.196"	"0"	"0"	"79.487"	"512.573"	"431.089"	"130.189"	"4.693"	"16.133"	"0"
"1940"	"0.185"	"12.025"	"0.093"	"0"	"0.093"	"242.745"	"446.845"	"293.321"	"183.909"	"73.391"	"9.351"	"0"
"1941"	"0.134"	"0"	"0"	"0"	"0"	"164.946"	"800.34"	"108.505"	"43.337"	"23.244"	"0.134"	"0"
"1942"	"0"	"1.702"	"0"	"0"	"0.714"	"375.176"	"749.223"	"287.37"	"145.244"	"0.247"	"0.134"	"1.352"
"1943"	"0"	"0"	"0"	"0"	"14.866"	"225.338"	"632.224"	"73.741"	"126.001"	"79.488"	"0.134"	"0"
"1944"	"0"	"0"	"0.103"	"0"	"2.369"	"279.55"	"809.768"	"476.907"	"42.346"	"77.124"	"0.134"	"0"
"1945"	"0.427"	"0"	"0"	"0"	"0"	"419.698"	"722.506"	"356.03"	"273.378"	"13.74"	"0.134"	"0"
"1946"	"0"	"2.685"	"0"	"0.381"	"8.689"	"210.628"	"505.359"	"553.823"	"202.308"	"12.592"	"46.045"	"0.354"
"1947"	"0"	"0"	"0"	"0.648"	"0"	"50.42"	"552.198"	"340.415"	"272.93"	"27.697"	"0.134"	"2.549"
"1948"	"0.386"	"0"	"0"	"0"	"0"	"242.669"	"436.747"	"158.381"	"52.051"	"33.499"	"32.782"	"0"
"1949"	"0"	"0"	"0"	"0"	"14.782"	"113.763"	"311.044"	"279.792"	"390.035"	"52.532"	"0.308"	"0"
"1950"	"0"	"0"	"0"	"0"	"0"	"29.015"	"929.3"	"46.767"	"279.429"	"15.845"	"0.134"	"0"
"1951"	"0"	"0"	"0.041"	"0.288"	"0"	"116.921"	"407.775"	"205.222"	"41.421"	"77.624"	"10.204"	"0"
"1952"	"0"	"0"	"0"	"0"	"0"	"413.09"	"475.641"	"144.029"	"48.039"	"14.795"	"0.134"	"0"
"1953"	"0"	"0"	"0.155"	"0.139"	"0.164"	"302.318"	"360.988"	"389.936"	"133.485"	"10.15"	"0.134"	"0"
"1954"	"0"	"1.543"	"1.198"	"0"	"0"	"284.291"	"655.588"	"255.063"	"292.39"	"4.654"	"0.483"	"3.486"
"1955"	"0.093"	"0"	"0.36"	"0"	"0"	"324.678"	"274.784"	"454.065"	"303.59"	"90.939"	"0.134"	"0"
"1956"	"0"	"0"	"0"	"0"	"17.224"	"164.768"	"966.758"	"298.488"	"173.487"	"106.941"	"4.159"	"0.555"
"1957"	"0"	"0"	"0"	"0"	"5.034"	"202.156"	"394.615"	"285.991"	"36.265"	"6.767"	"8.032"	"0"
"1958"	"0"	"0"	"0"	"0.375"	"0.093"	"272.728"	"755.171"	"414.38"	"275.094"	"19.888"	"10.676"	"0"
"1959"	"0"	"0"	"0"	"0"	"1.748"	"196.273"	"696.567"	"387.885"	"275.239"	"51.426"	"4.23"	"0"
"1960"	"0"	"0"	"0"	"0"	"10.434"	"253.303"	"411.442"	"195.259"	"235.618"	"18.915"	"0.134"	"0"
"1961"	"0"	"0"	"0"	"0"	"18.378"	"248.475"	"465.299"	"210.122"	"209.311"	"44.329"	"0.134"	"0"
"1962"	"0"	"0"	"0.534"	"0.381"	"11.864"	"100.155"	"455.307"	"163.106"	"246.818"	"2.469"	"3.105"	"12.118"
"1963"	"0.062"	"0"	"0"	"0.134"	"0.201"	"257.993"	"549.357"	"542.627"	"150.711"	"28.887"	"12.537"	"1.553"
"1964"	"0"	"0"	"0"	"0"	"3.881"	"386.505"	"537.43"	"400.105"	"221.026"	"32.272"	"0.216"	"0"
"1965"	"0.427"	"0"	"0"	"0"	"0"	"116.851"	"754.799"	"548.275"	"47.774"	"0.247"	"5.039"	"5.744"
"1966"	"0"	"0"	"0"	"0"	"7.364"	"213.373"	"570.07"	"127.76"	"244.531"	"4.585"	"2.405"	"0"
"1967"	"0"	"0"	"0.422"	"0"	"0"	"156.113"	"797.574"	"174.493"	"146.247"	"2.977"	"0.134"	"11.238"
"1968"	"0"	"0"	"0.395"	"0.134"	"0"	"133.218"	"492.861"	"381.524"	"120.372"	"44.01"	"1.224"	"0"
"1969"	"0"	"0.139"	"0"	"0"	"0"	"134.668"	"541.388"	"249.882"	"374.037"	"3.157"	"2.56"	"0.875"
"1970"	"0"	"0"	"0"	"0.18"	"26.542"	"483.964"	"389.39"	"460.422"	"262.305"	"44.628"	"0.134"	"0"
"1971"	"0"	"0"	"0"	"0"	"10.217"	"372.283"	"329.651"	"274.424"	"261.217"	"5.729"	"0.134"	"0"
"1972"	"0"	"0.741"	"0"	"0"	"0.962"	"87.024"	"365.723"	"236.436"	"54.488"	"1.974"	"5.642"	"0"
"1973"	"0.134"	"2.808"	"0"	"0"	"2.118"	"163.07"	"365.743"	"247.864"	"336.998"	"22.196"	"0.134"	"0.293"
"1974"	"0"	"0"	"0"	"0"	"12.919"	"42.428"	"270.566"	"166.407"	"126.503"	"67.239"	"0.134"	"0"
"1975"	"0"	"0"	"0"	"0"	"1.666"	"370.345"	"260.395"	"442.275"	"307.894"	"66.32"	"0.134"	"0"
"1976"	"0"	"0"	"0"	"0"	"0.093"	"151.921"	"976.872"	"553.495"	"165.031"	"0.797"	"27.568"	"1.198"
"1977"	"0.062"	"0.416"	"0"	"0.221"	"1.958"	"345.192"	"420.06"	"187.075"	"142.39"	"3.163"	"24.145"	"0.093"
"1978"	"0"	"3.496"	"0"	"0.288"	"0"	"435.892"	"268.181"	"184.471"	"64.125"	"39.91"	"35.087"	"4.02"
"1979"	"0.36"	"3.703"	"0"	"0"	"1.512"	"262.283"	"357.989"	"447.504"	"77.985"	"11.463"	"94.409"	"0"
"1980"	"0"	"0.463"	"0"	"0"	"0.334"	"557.471"	"334.911"	"351.729"	"38.421"	"1.774"	"4.323"	"6.467"
"1981"	"0.134"	"0"	"0"	"0"	"3.11"	"295.859"	"815.053"	"259.934"	"272.443"	"37.171"	"3.42"	"0"
"1982"	"0.082"	"0"	"0"	"0"	"4.308"	"288.26"	"351.36"	"317.958"	"77.329"	"6.371"	"30.774"	"0"
"1983"	"0"	"0"	"0"	"0"	"0"	"228.882"	"560.782"	"474.861"	"330.605"	"57.427"	"0.134"	"0"
"1984"	"0"	"0"	"0"	"0"	"0"	"259.397"	"771.439"	"376.054"	"174.582"	"25.409"	"0.134"	"0"
"1985"	"0"	"0"	"0"	"0"	"0.745"	"122.752"	"397.139"	"321.691"	"60.075"	"84.476"	"32.454"	"0"
"1986"	"0"	"0"	"0"	"0"	"5.182"	"617.918"	"172.663"	"229.163"	"64.055"	"0.751"	"0.58"	"9.65"
"1987"	"0.519"	"1.959"	"0"	"0"	"10.678"	"127.4"	"139.552"	"451.772"	"20.605"	"38.938"	"2.786"	"14.595"
"1988"	"0"	"0"	"0"	"0.381"	"1.311"	"139.603"	"788.784"	"231.982"	"421.264"	"3.968"	"0.134"	"0"
"1989"	"0"	"0"	"0.401"	"0.093"	"2.39"	"332.22"	"475.653"	"289.655"	"144.95"	"4.7"	"0.134"	"0"
"1990"	"0"	"0.555"	"0"	"0"	"13.763"	"261.239"	"574.63"	"603.919"	"114.98"	"39.055"	"11.315"	"5.814"
"1991"	"0"	"0"	"0"	"0.134"	"3.573"	"421.462"	"615.266"	"177.832"	"107.748"	"0.247"	"3.753"	"0"
"1992"	"0"	"0"	"0"	"0"	"0.709"	"163.241"	"371.939"	"367.965"	"284.366"	"10.328"	"1.578"	"0"
"1993"	"0"	"0"	"0"	"0"	"3.722"	"211.066"	"639.237"	"133.069"	"107.03"	"66.325"	"4.755"	"0.201"
"1994"	"0.18"	"0"	"0.134"	"0"	"4.159"	"524.12"	"773.2"	"324.091"	"331.71"	"26.662"	"2.683"	"0"
"1995"	"0"	"0"	"0.155"	"0.18"	"2.159"	"94.218"	"495.181"	"112.341"	"207.706"	"18.009"	"1.265"	"0.936"
"1996"	"0"	"0.509"	"0"	"0"	"0.694"	"348.348"	"653.292"	"254.157"	"162.372"	"80.978"	"1.229"	"0"
"1997"	"0.36"	"0"	"0"	"0.247"	"4.602"	"453.22"	"402.931"	"545.524"	"81.831"	"7.968"	"5.521"	"4.375"
"1998"	"0"	"0.695"	"0"	"0"	"2.005"	"236.655"	"709.196"	"351.262"	"250.694"	"57.735"	"14.579"	"0"
"1999"	"0"	"0.601"	"0"	"0"	"3.969"	"416.444"	"379.185"	"78.255"	"145.611"	"61.732"	"0.134"	"0"
"2000"	"0"	"0"	"0"	"0"	"16.965"	"262.334"	"487.561"	"186.955"	"87.796"	"9.99"	"4.406"	"1.357"
"2001"	"0"	"0"	"0"	"0"	"10.431"	"342.407"	"358.724"	"204.231"	"94.397"	"55.722"	"6.755"	"0"
"2002"	"0"	"0.139"	"0"	"0.313"	"1.764"	"434.134"	"96.692"	"231.941"	"81.625"	"3.126"	"0.134"	"0"
