
"Year"	"Jan"	"Feb"	"Mar"	"Apr"	"May"	"Jun"	"Jul"	"Aug"	"Sep"	"Oct"	"Nov"	"Dec"
"1901"	"46.416"	"21.853"	"4.975"	"9.833"	"81.337"	"39.563"	"99.621"	"90.426"	"204.404"	"114.733"	"291.285"	"0.864"
"1902"	"8.177"	"0"	"0.826"	"11.787"	"57.527"	"111.198"	"181.489"	"286.331"	"185.967"	"70.723"	"6.388"	"46.318"
"1903"	"0.208"	"2.665"	"0.162"	"3.636"	"25.839"	"144.598"	"454.316"	"153.556"	"200.578"	"106.3"	"72.464"	"30.145"
"1904"	"0.173"	"0.131"	"1.295"	"0.443"	"136.222"	"92.966"	"147.035"	"328.329"	"208.356"	"164.359"	"0.587"	"20.907"
"1905"	"0.303"	"29.905"	"22.746"	"217.3"	"155.231"	"52.609"	"178.618"	"260.533"	"399.303"	"23.626"	"1.504"	"0.014"
"1906"	"23.12"	"29.18"	"8.851"	"0.394"	"6.09"	"239.587"	"214.537"	"197.597"	"144.293"	"98.8"	"4.378"	"5.967"
"1907"	"0.001"	"2.816"	"18.341"	"220.422"	"44.725"	"181.074"	"92.238"	"214.048"	"60.588"	"39.429"	"19.414"	"11.26"
"1908"	"29.415"	"0.122"	"0.353"	"22.983"	"68.027"	"78.108"	"117.073"	"256.121"	"255.587"	"16.241"	"2.334"	"0.072"
"1909"	"0.14"	"28.052"	"0"	"116.182"	"14.219"	"87.573"	"161.117"	"176.969"	"153.827"	"5.668"	"0.587"	"24.616"
"1910"	"0.489"	"0.224"	"0.2"	"18.018"	"15.144"	"108.38"	"348.179"	"385.383"	"147.93"	"218.116"	"83.783"	"0.014"
"1911"	"0"	"0.021"	"6.222"	"4.538"	"30.479"	"80.46"	"105.994"	"184.281"	"285.124"	"38.782"	"22.189"	"1.469"
"1912"	"0"	"7.767"	"12.902"	"21.557"	"26.516"	"23.294"	"188.739"	"266.053"	"232.03"	"95.849"	"60.967"	"0.014"
"1913"	"0"	"48.471"	"0.346"	"10.344"	"18.5"	"150.608"	"271.347"	"95.754"	"106.712"	"197.036"	"48.072"	"6.482"
"1914"	"0"	"1.28"	"2.91"	"125.807"	"58.521"	"260.927"	"165.519"	"111.407"	"434.397"	"17.589"	"6.404"	"1.224"
"1915"	"39.826"	"15.483"	"25.25"	"82.667"	"47.504"	"150.743"	"165.422"	"386.246"	"239.819"	"207.452"	"153.581"	"0.014"
"1916"	"0"	"24.696"	"0"	"2.565"	"16.32"	"105.838"	"209.577"	"175.385"	"96.192"	"229.841"	"76.873"	"0.014"
"1917"	"0"	"17.879"	"5.952"	"19.616"	"73.023"	"197.793"	"116.178"	"323.96"	"168.052"	"319.864"	"81.298"	"23.888"
"1918"	"3.966"	"0.944"	"7.245"	"12.751"	"78.268"	"171.265"	"170.092"	"226.229"	"201.396"	"27.532"	"100.204"	"1.049"
"1919"	"37.947"	"42.436"	"5.301"	"3.279"	"31.4"	"172.362"	"303.368"	"279.986"	"100.191"	"182.467"	"217.381"	"1.882"
"1920"	"9.101"	"9.439"	"15.566"	"4.592"	"37.5"	"89.485"	"141.78"	"190.052"	"132.13"	"153.003"	"25.518"	"0.014"
"1921"	"29.318"	"0"	"0.082"	"52.116"	"0.896"	"105.563"	"203.847"	"137.301"	"270.015"	"177.582"	"0.587"	"0.014"
"1922"	"13.636"	"0.099"	"0"	"1.038"	"18.003"	"106.065"	"108.548"	"218.248"	"198.914"	"57.377"	"109.466"	"0.014"
"1923"	"0.056"	"56.401"	"2.677"	"37.485"	"16.345"	"46.205"	"110.758"	"103.746"	"243.785"	"183.931"	"183.036"	"0.242"
"1924"	"43.681"	"0.127"	"0.176"	"5.237"	"43.605"	"52.678"	"89.847"	"196.225"	"324.865"	"124.724"	"186.025"	"0.014"
"1925"	"3.751"	"0"	"2.09"	"116.642"	"191.117"	"103.07"	"248.154"	"249.537"	"94.872"	"381.338"	"10.629"	"8.242"
"1926"	"35.333"	"0.514"	"33.014"	"75.503"	"27.61"	"83.649"	"148.546"	"208.081"	"325.227"	"86.144"	"0.608"	"0.014"
"1927"	"7.025"	"37.307"	"89.404"	"4.376"	"19.907"	"318.745"	"269.193"	"346.438"	"208.186"	"46.075"	"104.734"	"0.014"
"1928"	"0"	"2.599"	"3.198"	"94.057"	"86.616"	"100.305"	"225.318"	"240.25"	"260.627"	"411.496"	"4.53"	"0.854"
"1929"	"0"	"25.452"	"0.312"	"58.931"	"62.643"	"210.589"	"134.666"	"389.325"	"98.813"	"224.548"	"23.139"	"14.096"
"1930"	"0"	"17.346"	"4.931"	"67.711"	"155.347"	"167.797"	"329.103"	"187.199"	"209.024"	"138.223"	"169.199"	"0.223"
"1931"	"0.279"	"0.167"	"2.486"	"19.183"	"27.081"	"49.948"	"102.74"	"235.707"	"222.34"	"350.288"	"207.085"	"1.346"
"1932"	"0"	"21.332"	"0.075"	"107.095"	"44.776"	"21.253"	"160.806"	"188.115"	"181.778"	"61.908"	"275.918"	"1.204"
"1933"	"3.139"	"0.064"	"4.043"	"26.473"	"48.12"	"155.322"	"263.874"	"166.19"	"234.002"	"162.682"	"39.375"	"33.716"
"1934"	"0"	"0.137"	"1.665"	"3.537"	"4.469"	"123.684"	"256.815"	"278.85"	"135.9"	"89.736"	"35.927"	"6.012"
"1935"	"17.95"	"0.111"	"0.178"	"35.719"	"12.466"	"114.204"	"151.946"	"99.975"	"144.694"	"117.284"	"3.174"	"0.014"
"1936"	"3.116"	"55.096"	"3.359"	"19.57"	"146.176"	"156.139"	"339.477"	"275.413"	"117.749"	"181.173"	"45.421"	"2.249"
"1937"	"0"	"45.735"	"5.451"	"134.521"	"33"	"92.974"	"184.661"	"159.236"	"96.916"	"151.359"	"0.587"	"0.014"
"1938"	"0.297"	"25.871"	"4.475"	"4.149"	"165.923"	"166.584"	"106.295"	"167.583"	"455.202"	"175.126"	"134.458"	"0.014"
"1939"	"0.684"	"0.234"	"27.829"	"6.929"	"18.333"	"95.185"	"168.139"	"181.943"	"251.507"	"206.643"	"42.083"	"3.724"
"1940"	"0"	"17.359"	"58.665"	"47.527"	"144.715"	"144.584"	"208.646"	"298.707"	"189.249"	"120.583"	"16.41"	"21.466"
"1941"	"0.947"	"26.724"	"6.428"	"1.256"	"73.445"	"270.542"	"81.844"	"110.182"	"210.58"	"282.307"	"96.707"	"0.035"
"1942"	"0"	"5.556"	"1.42"	"100.664"	"17.741"	"76.623"	"186.796"	"224.663"	"165.4"	"102.751"	"143.029"	"4.694"
"1943"	"27.728"	"8.292"	"1.219"	"152.344"	"10.567"	"138.309"	"215.403"	"200.49"	"112.877"	"268.258"	"118.112"	"0.014"
"1944"	"28.415"	"36.739"	"70.154"	"118.889"	"36.619"	"112.539"	"193.109"	"132.703"	"188.259"	"200.173"	"21.329"	"0.014"
"1945"	"2.362"	"0"	"0.059"	"223.81"	"21.366"	"52.884"	"287.174"	"132.354"	"257.145"	"228.389"	"43.663"	"31.436"
"1946"	"0"	"15.955"	"0.429"	"59.13"	"43.906"	"97.96"	"314.344"	"289.909"	"80.47"	"137.452"	"49.548"	"0.014"
"1947"	"47.778"	"1.894"	"3.478"	"24.526"	"3.567"	"168.678"	"303.566"	"203.538"	"244.502"	"89.348"	"64.217"	"22.337"
"1948"	"1.966"	"13.796"	"4.581"	"177.837"	"29.611"	"64.368"	"147.579"	"197.683"	"227.957"	"29.115"	"143.664"	"7.012"
"1949"	"19.839"	"0.099"	"0.28"	"34.504"	"55.001"	"69.628"	"115.112"	"207.19"	"333.6"	"263.994"	"1.389"	"0.014"
"1950"	"0"	"12.087"	"22.987"	"60.649"	"27.177"	"87.876"	"171.987"	"85.117"	"43.034"	"108.291"	"120.453"	"0.014"
"1951"	"0"	"0"	"6.754"	"75.872"	"37.755"	"167.526"	"371.578"	"290.229"	"228.851"	"37.283"	"111.439"	"1.104"
"1952"	"0"	"1.238"	"8.654"	"124.967"	"22.025"	"73.865"	"226.255"	"169.728"	"302.172"	"264.468"	"0.587"	"6.786"
"1953"	"17.699"	"0"	"0"	"6.807"	"71.605"	"212.659"	"65.07"	"315.488"	"246.081"	"151.32"	"22.018"	"0.014"
"1954"	"0.014"	"0.421"	"2.154"	"8.29"	"13.689"	"57.844"	"61.173"	"77.676"	"255.837"	"206.928"	"0.587"	"32.333"
"1955"	"0.07"	"0.097"	"22.242"	"56.415"	"80.784"	"106.659"	"84.676"	"296.88"	"439.602"	"328.508"	"81.058"	"0.864"
"1956"	"1.038"	"1.924"	"0.232"	"61.525"	"34.27"	"197.918"	"568.235"	"428.452"	"231.103"	"239.599"	"12.189"	"0.014"
"1957"	"2.357"	"2.469"	"16.439"	"13.685"	"24.506"	"185.155"	"191.9"	"346.458"	"184.272"	"102.476"	"34.659"	"0.014"
"1958"	"5.235"	"1.305"	"1.157"	"176.973"	"23.642"	"45.821"	"380.086"	"197.907"	"215.672"	"263.938"	"219.417"	"0.014"
"1959"	"12.705"	"16.519"	"0.045"	"7.844"	"11.945"	"155.272"	"272.326"	"86.12"	"98.773"	"212.861"	"0.587"	"0.954"
"1960"	"0"	"0"	"4.538"	"3.153"	"41.796"	"125.481"	"306.503"	"193.923"	"158.759"	"125.915"	"4.412"	"11.761"
"1961"	"7.405"	"19.224"	"3.019"	"12.228"	"40.719"	"142.683"	"142.979"	"279.331"	"148.697"	"193.434"	"22.856"	"2.013"
"1962"	"10.229"	"3.058"	"0.078"	"22.085"	"53.619"	"51.01"	"368.038"	"135.559"	"368.027"	"454.584"	"31.929"	"8.807"
"1963"	"0"	"0"	"1.903"	"196.028"	"28.104"	"145.178"	"143.746"	"160.626"	"176.847"	"418.346"	"1.344"	"0.014"
"1964"	"0.559"	"7.066"	"0.656"	"48.249"	"47.458"	"153.68"	"162.033"	"341.242"	"270.729"	"101.674"	"34.28"	"3.175"
"1965"	"1.737"	"0.729"	"20.885"	"37.406"	"25.174"	"26.464"	"432.337"	"227.09"	"151.708"	"74.163"	"2.542"	"31.991"
"1966"	"61.612"	"0.328"	"0.174"	"4.07"	"34.825"	"158.552"	"135.193"	"170.608"	"108.787"	"131.638"	"180.065"	"5.504"
"1967"	"18.675"	"0"	"79.029"	"10.516"	"3.658"	"159.817"	"235.923"	"138.115"	"113.246"	"22.353"	"0.587"	"65.078"
"1968"	"18.819"	"3.672"	"2.691"	"16.084"	"21.717"	"226.74"	"280.259"	"52.142"	"135.882"	"241.593"	"100.902"	"0.25"
"1969"	"0.028"	"0"	"19.709"	"5.085"	"102.123"	"93.926"	"316.643"	"92.098"	"190.465"	"71.856"	"196.728"	"20.947"
"1970"	"1.334"	"3.063"	"48.26"	"14.864"	"140.824"	"205.606"	"148.765"	"280.761"	"73.934"	"65.745"	"1.776"	"0.014"
"1971"	"0.96"	"34.941"	"4.063"	"125.038"	"34.605"	"57.336"	"71.275"	"210.554"	"249.953"	"119.908"	"0.587"	"0.014"
"1972"	"0"	"17.284"	"0"	"32.881"	"5.572"	"53.908"	"129.337"	"155.629"	"184.376"	"137.991"	"77.907"	"0.21"
"1973"	"0"	"0"	"2.775"	"14.613"	"53.29"	"88.794"	"177.587"	"243.711"	"83.606"	"169.244"	"5.518"	"0.998"
"1974"	"0"	"0.794"	"44.67"	"14.028"	"21.902"	"140.203"	"111.282"	"181.5"	"174.074"	"224.018"	"16.738"	"0.014"
"1975"	"0.159"	"0.786"	"0.392"	"3.432"	"73.536"	"278.865"	"227.294"	"241.902"	"175.288"	"312.529"	"51.223"	"0.056"
"1976"	"0"	"5.105"	"1.353"	"150.745"	"46.442"	"67.826"	"291.949"	"303.746"	"158.267"	"100.341"	"296.124"	"1.856"
"1977"	"1.661"	"0"	"0.348"	"72.095"	"73.725"	"123.966"	"193.791"	"227.915"	"276.903"	"124.8"	"120.51"	"4.716"
"1978"	"21.093"	"24.103"	"1.997"	"31.397"	"49.748"	"227.417"	"307.193"	"305.909"	"195.254"	"88.528"	"46.239"	"9.818"
"1979"	"13.585"	"37.185"	"0.573"	"29.469"	"118.127"	"114.194"	"125.234"	"119.642"	"237.906"	"50.561"	"143.432"	"18.06"
"1980"	"4.765"	"0.617"	"2.045"	"10.58"	"27.948"	"258.27"	"248.793"	"246.646"	"148.672"	"120.187"	"73.461"	"4.023"
"1981"	"7.934"	"0.23"	"38.143"	"19.193"	"26.423"	"106.186"	"152.577"	"245.502"	"358.223"	"50.466"	"9.051"	"2.977"
"1982"	"0.115"	"0.784"	"1.411"	"77.802"	"19.495"	"88.016"	"298.769"	"148.681"	"186.536"	"280.682"	"19.272"	"0.168"
"1983"	"0.494"	"24.478"	"1.543"	"1.139"	"31.531"	"180.78"	"168.08"	"249.054"	"121.943"	"191.002"	"13.338"	"9.886"
"1984"	"4.943"	"18.209"	"0.609"	"6.808"	"80.347"	"161.809"	"201.512"	"210.649"	"108.887"	"35.213"	"12.625"	"4.331"
"1985"	"27.746"	"0.055"	"1.089"	"4.95"	"15.75"	"215.132"	"207.714"	"198.46"	"147.008"	"301.445"	"34.428"	"1.981"
"1986"	"22.17"	"14.327"	"2.801"	"39.05"	"32.653"	"127.695"	"141.577"	"450.606"	"201.933"	"108.991"	"180.949"	"15.856"
"1987"	"6.607"	"0"	"46.136"	"25.441"	"60.773"	"64.138"	"101.457"	"208.356"	"77.977"	"141.61"	"177.713"	"4.203"
"1988"	"0"	"5.502"	"1.045"	"44.047"	"77.77"	"80.843"	"332.373"	"212.939"	"324.739"	"104.262"	"24.787"	"1.861"
"1989"	"0"	"0"	"35.159"	"4.384"	"61.798"	"95.314"	"394.944"	"220.555"	"180.155"	"47.699"	"0.643"	"0.624"
"1990"	"1.283"	"60.411"	"72.007"	"35.796"	"137.172"	"113.19"	"173.583"	"401.026"	"152.693"	"240.239"	"66.102"	"18.695"
"1991"	"11.302"	"0.169"	"5.331"	"12.021"	"37.525"	"288.855"	"204.506"	"139.576"	"301.805"	"178.478"	"70.085"	"10.543"
"1992"	"6.477"	"0.61"	"0"	"4.129"	"89.44"	"132.675"	"263.476"	"264.679"	"222.37"	"121.253"	"188.019"	"0.014"
"1993"	"3.818"	"0"	"6.197"	"41.168"	"63.445"	"114.672"	"145.063"	"181.423"	"221.283"	"296.202"	"4.588"	"0.091"
"1994"	"0.212"	"1.745"	"17.617"	"34.553"	"66.375"	"65.357"	"319.626"	"212.759"	"138.3"	"182.62"	"64.225"	"0.014"
"1995"	"17.311"	"0.498"	"21.172"	"25.735"	"55.173"	"80.926"	"236.392"	"133.497"	"177.899"	"407.04"	"70.228"	"0.014"
"1996"	"3.246"	"0.521"	"3.241"	"55.812"	"33.639"	"271.921"	"105.6"	"212.538"	"158.308"	"212.391"	"41.321"	"9.424"
"1997"	"10.924"	"1.559"	"49.835"	"64.932"	"7.201"	"42.46"	"249.53"	"176.546"	"209.552"	"60.546"	"111.115"	"29.624"
"1998"	"20.834"	"43.217"	"1.429"	"36.567"	"53.653"	"114.627"	"270.513"	"196.982"	"270.896"	"247.744"	"164.709"	"0.014"
"1999"	"0.424"	"0"	"0"	"0.408"	"74.018"	"157.189"	"83.564"	"310.857"	"132.179"	"153.973"	"8.008"	"0.841"
"2000"	"0"	"31.016"	"0"	"19.836"	"38.502"	"265.521"	"139.41"	"266.612"	"115.908"	"130.221"	"3.45"	"0.014"
"2001"	"0.182"	"0.055"	"4.85"	"33.658"	"57.246"	"112.471"	"141.046"	"303.224"	"164.128"	"151.975"	"111.071"	"3.009"
"2002"	"30.94"	"0.299"	"2.204"	"107.196"	"35.631"	"115"	"136.241"	"283.702"	"61.538"	"60.112"	"42.078"	"0.014"
