
"Year"	"Jan"	"Feb"	"Mar"	"Apr"	"May"	"Jun"	"Jul"	"Aug"	"Sep"	"Oct"	"Nov"	"Dec"
"1901"	"21.926"	"22.582"	"25.332"	"27.824"	"29.18"	"28.485"	"26.251"	"25.666"	"26.373"	"25.354"	"22.768"	"20.494"
"1902"	"21.222"	"22.738"	"25.743"	"27.863"	"29.453"	"28.925"	"25.914"	"26.386"	"25.806"	"25.39"	"22.761"	"20.769"
"1903"	"21.28"	"22.508"	"25.581"	"27.843"	"28.617"	"27.833"	"25.943"	"26.086"	"25.666"	"24.868"	"21.86"	"20.007"
"1904"	"20.868"	"22.017"	"25.233"	"28.074"	"28.408"	"27.204"	"26.074"	"25.918"	"25.707"	"24.913"	"22.576"	"20.494"
"1905"	"20.853"	"21.912"	"25.212"	"27.198"	"28.446"	"28.893"	"26.273"	"25.899"	"25.264"	"24.998"	"22.807"	"20.353"
"1906"	"21.816"	"23.225"	"24.634"	"28.165"	"29.962"	"27.319"	"25.969"	"25.711"	"26.21"	"25.257"	"22.793"	"21.499"
"1907"	"20.997"	"22.844"	"24.973"	"26.709"	"28.584"	"27.273"	"26.133"	"24.857"	"26.132"	"25.376"	"23.265"	"20.205"
"1908"	"19.679"	"22.54"	"25.071"	"28.142"	"29.167"	"28.579"	"25.989"	"25.144"	"26"	"25.066"	"22.18"	"19.654"
"1909"	"21.393"	"22.869"	"25.403"	"26.351"	"28.628"	"26.806"	"25.912"	"25.433"	"25.54"	"24.904"	"22.827"	"21.057"
"1910"	"21.098"	"22.179"	"25.3"	"27.922"	"29.206"	"28.15"	"25.917"	"26.137"	"26.059"	"25.136"	"21.198"	"19.197"
"1911"	"21.275"	"21.989"	"25.115"	"27.585"	"29.125"	"26.86"	"26.377"	"25.628"	"25.745"	"24.9"	"22.963"	"20.151"
"1912"	"20.747"	"23.34"	"26.294"	"27.393"	"29.531"	"29.118"	"25.626"	"25.406"	"25.636"	"25.082"	"22.102"	"19.357"
"1913"	"19.908"	"23.029"	"25.362"	"28.056"	"28.913"	"27.01"	"25.815"	"26.105"	"26.22"	"24.602"	"22.141"	"20.636"
"1914"	"20.125"	"23.272"	"25.52"	"26.061"	"28.138"	"27.109"	"25.809"	"25.557"	"25.694"	"25.079"	"22.775"	"20.923"
"1915"	"20.725"	"22.605"	"25.051"	"27.616"	"29.394"	"28.296"	"26.634"	"26.059"	"25.681"	"25.615"	"23.683"	"20.17"
"1916"	"20.492"	"23.207"	"25.388"	"27.974"	"29.194"	"26.467"	"25.904"	"26.024"	"25.938"	"25.023"	"22.854"	"19.96"
"1917"	"20.396"	"22.22"	"24.617"	"27.357"	"27.379"	"26.671"	"25.976"	"25.956"	"25.688"	"24.666"	"22.251"	"19.912"
"1918"	"20.301"	"21.855"	"25.089"	"27.198"	"27.945"	"26.261"	"26.59"	"25.71"	"26.387"	"25.173"	"23.564"	"21.185"
"1919"	"21.956"	"23.559"	"25.845"	"27.864"	"29.035"	"26.867"	"26.306"	"26.326"	"26.118"	"24.967"	"22.877"	"20.58"
"1920"	"21.046"	"23.174"	"26.043"	"27.764"	"28.874"	"28.146"	"26.677"	"26.444"	"26.575"	"25.469"	"22.955"	"19.933"
"1921"	"21.219"	"22.552"	"26.073"	"27.728"	"31.069"	"28.466"	"26.44"	"26.178"	"25.771"	"24.492"	"21.279"	"20.449"
"1922"	"20.803"	"22.807"	"26.154"	"28.338"	"29.803"	"28.259"	"26.133"	"26.703"	"25.982"	"24.709"	"22.894"	"19.605"
"1923"	"20.053"	"22.402"	"24.734"	"27.816"	"29.505"	"30.031"	"26.328"	"26.447"	"25.753"	"24.756"	"22.392"	"20.503"
"1924"	"20.694"	"23.492"	"25.927"	"28.67"	"29.363"	"29.225"	"26.578"	"26.295"	"25.513"	"25.297"	"22.364"	"19.933"
"1925"	"20.503"	"22.21"	"25.448"	"27.777"	"28.489"	"27.262"	"25.587"	"26.019"	"26.176"	"24.806"	"22.966"	"19.974"
"1926"	"21.157"	"22.987"	"25.414"	"27.378"	"28.866"	"30.002"	"26.317"	"25.787"	"25.845"	"24.748"	"21.957"	"20.409"
"1927"	"22.007"	"23.259"	"25.977"	"28.498"	"29.784"	"28.044"	"26.055"	"25.924"	"26.049"	"24.955"	"22.113"	"20.5"
"1928"	"20.435"	"22.809"	"25.439"	"27.632"	"29.762"	"27.998"	"25.822"	"26.575"	"25.952"	"25.173"	"22.391"	"20.849"
"1929"	"21.539"	"21.839"	"25.238"	"27.396"	"29.696"	"27.651"	"26.166"	"25.952"	"25.939"	"24.334"	"21.795"	"20.823"
"1930"	"20.529"	"21.314"	"25.067"	"27.918"	"28.702"	"27.721"	"26.341"	"25.894"	"25.639"	"24.831"	"21.616"	"20.25"
"1931"	"20.223"	"22.612"	"25.252"	"28.059"	"29.306"	"29.088"	"25.887"	"26.291"	"26.054"	"24.953"	"22.033"	"20.542"
"1932"	"20.001"	"21.771"	"25.638"	"28.043"	"28.607"	"28.376"	"25.676"	"26.034"	"26.025"	"25.615"	"23.154"	"20.22"
"1933"	"20.694"	"22.899"	"25.049"	"27.487"	"27.995"	"26.644"	"26.148"	"25.744"	"25.793"	"24.886"	"22.496"	"20.579"
"1934"	"20.124"	"22.076"	"25.203"	"27.88"	"29.916"	"27.859"	"25.822"	"25.658"	"25.796"	"24.47"	"21.331"	"20.049"
"1935"	"20.462"	"22.562"	"25.219"	"27.162"	"30.084"	"28.642"	"25.905"	"26.025"	"25.819"	"25.356"	"21.948"	"20.844"
"1936"	"22.461"	"22.222"	"25.443"	"27.783"	"28.744"	"26.279"	"26.346"	"25.592"	"25.915"	"24.864"	"23.452"	"21.008"
"1937"	"20.151"	"22.961"	"25.165"	"27.388"	"29.273"	"28.405"	"25.989"	"26.111"	"25.892"	"24.688"	"22.576"	"19.817"
"1938"	"22.046"	"22.644"	"26.23"	"27.802"	"29.364"	"26.172"	"25.796"	"26.179"	"25.64"	"24.749"	"21.317"	"19.446"
"1939"	"20.506"	"22.209"	"24.861"	"27.849"	"29.884"	"28.735"	"25.783"	"26.223"	"26.153"	"25.195"	"21.949"	"20.092"
"1940"	"19.135"	"22.514"	"24.833"	"27.512"	"28.903"	"27.427"	"25.539"	"25.813"	"26.203"	"25.171"	"23.592"	"21.089"
"1941"	"21.651"	"22.907"	"25.875"	"28.765"	"29.408"	"27.334"	"26.446"	"26.981"	"26.27"	"24.775"	"21.373"	"21.115"
"1942"	"20.773"	"22.337"	"25.598"	"27.661"	"29.954"	"28.8"	"26.037"	"26.258"	"25.954"	"24.622"	"22.234"	"21.13"
"1943"	"21.572"	"21.186"	"25.213"	"27.661"	"28.644"	"27.285"	"26.433"	"25.949"	"26.091"	"25.085"	"22.608"	"19.871"
"1944"	"20.892"	"22.383"	"24.433"	"27.332"	"29.678"	"28.74"	"25.61"	"26.059"	"25.878"	"25.123"	"22.2"	"20.531"
"1945"	"20.298"	"22.34"	"25.467"	"27.912"	"30.169"	"29.177"	"26.002"	"26.364"	"25.482"	"24.382"	"21.623"	"19.099"
"1946"	"18.919"	"21.636"	"26.02"	"26.759"	"29.524"	"27.51"	"26.177"	"25.887"	"26.209"	"25.357"	"23.918"	"21.932"
"1947"	"21.813"	"22.102"	"26.064"	"29.272"	"30.364"	"28.865"	"25.46"	"26.129"	"25.957"	"24.742"	"22.059"	"20.428"
"1948"	"21.254"	"23.424"	"25.144"	"28.233"	"30.126"	"28.993"	"26.563"	"26.216"	"26.171"	"25.423"	"23.643"	"19.65"
"1949"	"20.419"	"22.281"	"25.575"	"27.358"	"29.029"	"28.054"	"26.033"	"26.431"	"25.824"	"25.191"	"22.16"	"19.421"
"1950"	"20.387"	"22.591"	"24.387"	"28.029"	"29.354"	"27.706"	"25.379"	"26.29"	"25.93"	"24.877"	"21.522"	"19.655"
"1951"	"20.184"	"22.29"	"25.066"	"28.066"	"28.867"	"27.595"	"26.292"	"26.018"	"26.806"	"26.208"	"23.16"	"20.81"
"1952"	"20.801"	"23.278"	"25.518"	"28.282"	"29.732"	"29.126"	"26.658"	"26.517"	"26.329"	"25.06"	"22.404"	"21.582"
"1953"	"20.82"	"22.992"	"27.038"	"28.604"	"31.063"	"29.023"	"26.646"	"25.92"	"26.34"	"25.456"	"22.279"	"20.323"
"1954"	"20.427"	"23.708"	"25.886"	"29.248"	"30.171"	"28.471"	"26.168"	"26.364"	"25.694"	"24.301"	"20.911"	"20.844"
"1955"	"20.727"	"23.583"	"26.144"	"28.208"	"28.418"	"28.65"	"26.751"	"25.989"	"25.647"	"24.61"	"21.517"	"20.01"
"1956"	"21.057"	"21.513"	"26.438"	"28.795"	"29.501"	"27.221"	"25.579"	"26.088"	"25.892"	"24.492"	"22.767"	"20.84"
"1957"	"21.428"	"22.631"	"25.15"	"27.867"	"29.928"	"29.071"	"26.143"	"25.956"	"26.589"	"26.034"	"22.752"	"21.359"
"1958"	"21.451"	"23.324"	"26.044"	"28.758"	"30.445"	"30.372"	"26.209"	"26.504"	"26.024"	"25.198"	"23.389"	"21.226"
"1959"	"21.22"	"23.379"	"26.034"	"28.414"	"30.357"	"28.163"	"25.684"	"25.474"	"25.826"	"25.205"	"22.079"	"20.195"
"1960"	"21.085"	"22.293"	"25.151"	"28.604"	"29.358"	"28.593"	"26.121"	"26.737"	"26.385"	"24.996"	"22.755"	"21.482"
"1961"	"21.002"	"22.268"	"26.689"	"28.779"	"30.065"	"27.613"	"25.325"	"26.235"	"25.363"	"24.61"	"21.465"	"19.272"
"1962"	"19.187"	"21.656"	"25.638"	"27.873"	"29.745"	"27.998"	"26.015"	"25.938"	"26.203"	"24.794"	"22.015"	"20.663"
"1963"	"19.478"	"22.125"	"25.485"	"27.119"	"29.431"	"28.362"	"26.081"	"26.03"	"26.356"	"25.27"	"23.246"	"20.974"
"1964"	"21.773"	"23.577"	"26.632"	"28.624"	"30.163"	"28.44"	"26.349"	"25.349"	"25.685"	"25.198"	"22.639"	"20.466"
"1965"	"21.164"	"23.046"	"25.546"	"27.99"	"29.922"	"29.745"	"26.481"	"26.787"	"26.27"	"25.776"	"23.022"	"21.812"
"1966"	"20.885"	"23.259"	"26.295"	"28.56"	"30.718"	"28.644"	"27.085"	"26.607"	"26.479"	"24.932"	"24.074"	"20.44"
"1967"	"21.029"	"23.337"	"24.778"	"28.087"	"30.432"	"29.061"	"26.756"	"26.091"	"26.562"	"25.172"	"22.402"	"22.581"
"1968"	"20.642"	"23.552"	"25.903"	"27.455"	"29.823"	"28.786"	"26.949"	"27.221"	"26.438"	"24.897"	"22.979"	"21.126"
"1969"	"20.99"	"24.074"	"27.551"	"29.42"	"28.559"	"28.625"	"26.154"	"26.388"	"26.274"	"25.403"	"23.559"	"20.597"
"1970"	"21.029"	"24.364"	"26.4"	"28.361"	"28.777"	"27.063"	"26.334"	"25.935"	"26.257"	"25.066"	"22.281"	"18.678"
"1971"	"20.958"	"23.592"	"24.986"	"26.303"	"27.656"	"26.745"	"26.308"	"25.782"	"26.157"	"24.959"	"21.647"	"19.528"
"1972"	"19.789"	"22.601"	"26.211"	"28.099"	"30.707"	"30.09"	"27.209"	"26.867"	"26.356"	"25.078"	"23.269"	"22.307"
"1973"	"22.383"	"24.334"	"26.047"	"29.834"	"31.032"	"29.499"	"26.408"	"26.224"	"26.71"	"25.437"	"22.461"	"20.676"
"1974"	"20.434"	"23.205"	"27.197"	"29.154"	"30.153"	"29.118"	"27.225"	"26.643"	"26.434"	"25.198"	"22.754"	"19.713"
"1975"	"19.879"	"23.368"	"26.458"	"28.965"	"30.871"	"27.829"	"26.225"	"26.261"	"25.342"	"25.332"	"21.576"	"19.475"
"1976"	"19.332"	"22.438"	"26.235"	"28.263"	"30.128"	"28.742"	"26.103"	"25.911"	"26.49"	"25.994"	"24.339"	"21.531"
"1977"	"20.93"	"23.186"	"26.756"	"27.789"	"28.491"	"28.372"	"26.36"	"26.29"	"26.053"	"24.97"	"24.083"	"20.245"
"1978"	"20.684"	"22.546"	"25.667"	"28.037"	"30.91"	"28.717"	"26.127"	"25.441"	"26.575"	"25.909"	"24.003"	"21.441"
"1979"	"21.387"	"23.468"	"25.893"	"28.726"	"29.621"	"28.698"	"27.617"	"26.926"	"26.627"	"25.933"	"24.205"	"21.739"
"1980"	"22.071"	"24.086"	"26.587"	"28.841"	"30.198"	"27.828"	"26.19"	"26.098"	"26.297"	"25.293"	"23.459"	"21.605"
"1981"	"20.709"	"23.689"	"25.597"	"28.567"	"29.497"	"28.845"	"26.653"	"26.137"	"26.378"	"25.871"	"23.058"	"21.605"
"1982"	"22.02"	"24.156"	"26.506"	"28.304"	"29.648"	"28.79"	"27.439"	"25.976"	"26.526"	"25.663"	"23.56"	"21.508"
"1983"	"21.414"	"24.235"	"27.09"	"28.838"	"29.834"	"29.62"	"26.985"	"26.655"	"26.203"	"25.533"	"22.876"	"21.043"
"1984"	"22.245"	"23.115"	"26.063"	"28.296"	"30.58"	"27.789"	"26.094"	"26.377"	"26.268"	"25.677"	"22.087"	"21.882"
"1985"	"22.009"	"23.301"	"26.878"	"29.104"	"30.5"	"28.365"	"25.958"	"26.215"	"26.091"	"24.535"	"22.297"	"21.282"
"1986"	"20.495"	"23.016"	"26.303"	"28.098"	"29.975"	"27.385"	"26.53"	"26.456"	"26.759"	"25.483"	"22.961"	"21.778"
"1987"	"21.011"	"22.104"	"25.093"	"28.006"	"28.536"	"29.619"	"27.491"	"26.705"	"27.39"	"25.705"	"23.261"	"21.555"
"1988"	"21.445"	"23.402"	"26.685"	"27.934"	"29.802"	"28.932"	"26.124"	"26.354"	"26.526"	"25.265"	"23.598"	"22.008"
"1989"	"20.951"	"23.344"	"25.624"	"28.705"	"30.349"	"28.006"	"26.603"	"26.575"	"26.277"	"25.868"	"23.232"	"20.71"
"1990"	"21.718"	"23.358"	"25.046"	"27.786"	"27.541"	"27.431"	"26.044"	"26.335"	"26.661"	"25.192"	"23.933"	"21.93"
"1991"	"21.755"	"24.356"	"27.202"	"28.612"	"30.293"	"28.029"	"26.953"	"27.292"	"26.816"	"25.801"	"22.674"	"20.71"
"1992"	"20.225"	"23.023"	"25.656"	"28.248"	"29.581"	"28.542"	"27.1"	"26.044"	"26.438"	"25.77"	"23.272"	"20.295"
"1993"	"21.585"	"22.51"	"25.934"	"28.45"	"29.827"	"28.919"	"27.119"	"27.212"	"25.945"	"26.075"	"23.329"	"20.672"
"1994"	"21.552"	"23.113"	"27.169"	"28.318"	"30.238"	"28.447"	"25.857"	"25.628"	"26.413"	"25.531"	"22.874"	"20.522"
"1995"	"20.478"	"23.037"	"26.287"	"28.511"	"28.284"	"29.578"	"26.513"	"27.184"	"26.64"	"25.239"	"23.443"	"21.41"
"1996"	"22.001"	"22.766"	"26.553"	"28.09"	"30.599"	"28.224"	"27.214"	"25.864"	"26.551"	"25.337"	"23.545"	"20.897"
"1997"	"20.503"	"22.777"	"26.106"	"26.97"	"29.09"	"29.46"	"27.492"	"26.395"	"26.449"	"25.437"	"24.618"	"23.032"
"1998"	"22.58"	"23.67"	"26.266"	"28.061"	"30.081"	"29.126"	"26.774"	"26.659"	"26.654"	"26.27"	"24.536"	"20.581"
"1999"	"20.668"	"24.279"	"27.151"	"29.743"	"29.149"	"28.063"	"27.09"	"26.527"	"26.402"	"26.037"	"23.015"	"20.504"
"2000"	"22.099"	"23.772"	"26.005"	"29.299"	"30.093"	"27.74"	"26.627"	"26.434"	"26.796"	"26.417"	"23.662"	"20.494"
"2001"	"21.288"	"24.109"	"27.007"	"28.171"	"30.491"	"27.782"	"27.142"	"26.224"	"27.431"	"26.114"	"24.3"	"21.253"
"2002"	"21.995"	"23.689"	"27.062"	"28.68"	"30.918"	"28.463"	"27.599"	"26.223"	"27.133"	"26.027"	"22.891"	"21.629"
