
"Year"	"Jan"	"Feb"	"Mar"	"Apr"	"May"	"Jun"	"Jul"	"Aug"	"Sep"	"Oct"	"Nov"	"Dec"
"1901"	"24.503"	"25.038"	"26.749"	"29.692"	"31.482"	"31.064"	"28.632"	"28.045"	"28.94"	"27.6"	"25.289"	"23.35"
"1902"	"23.497"	"24.577"	"27.242"	"29.795"	"32.727"	"31.791"	"29.039"	"28.973"	"27.976"	"27.564"	"24.82"	"23.668"
"1903"	"23.57"	"25.058"	"27.239"	"29.698"	"31.034"	"31.29"	"28.17"	"28.056"	"27.851"	"27.1"	"24.283"	"22.844"
"1904"	"23.121"	"23.941"	"26.622"	"29.96"	"31.173"	"30.507"	"28.792"	"28.71"	"28.154"	"27.264"	"24.773"	"22.943"
"1905"	"23.007"	"24.34"	"27.087"	"29.199"	"31.422"	"31.765"	"29.503"	"28.206"	"27.951"	"27.404"	"25.39"	"23.077"
"1906"	"24.251"	"25.531"	"26.356"	"30.277"	"32.961"	"30.358"	"28.842"	"28.001"	"28.358"	"27.531"	"25.158"	"24.043"
"1907"	"23.237"	"24.903"	"26.698"	"28.595"	"31.725"	"30.529"	"28.736"	"27.453"	"28.531"	"27.688"	"25.782"	"23.21"
"1908"	"22.514"	"24.577"	"26.578"	"30.231"	"32.304"	"31.964"	"28.74"	"27.813"	"27.98"	"27.282"	"24.331"	"22.336"
"1909"	"23.615"	"25.065"	"26.96"	"28.562"	"31.663"	"29.966"	"28.503"	"27.862"	"27.781"	"27.862"	"25.894"	"24.216"
"1910"	"23.68"	"24.536"	"26.786"	"29.937"	"32.169"	"31.22"	"28.631"	"28.469"	"28.288"	"27.572"	"23.665"	"22.344"
"1911"	"23.685"	"23.941"	"26.855"	"29.917"	"32.265"	"30.626"	"29.083"	"28.178"	"28.505"	"27.726"	"25.595"	"23.448"
"1912"	"23.272"	"25.605"	"27.725"	"29.555"	"32.431"	"32.416"	"28.503"	"27.78"	"28.173"	"27.545"	"24.666"	"22.483"
"1913"	"22.515"	"25.273"	"27.087"	"30.061"	"31.787"	"30.569"	"28.414"	"28.975"	"28.908"	"27.168"	"25.052"	"23.775"
"1914"	"22.772"	"25.195"	"27.087"	"28.457"	"31.594"	"30.436"	"28.441"	"27.634"	"27.954"	"27.397"	"25.32"	"23.929"
"1915"	"23.194"	"24.807"	"26.529"	"29.586"	"32.23"	"31.346"	"29.005"	"28.276"	"27.853"	"27.701"	"25.795"	"22.723"
"1916"	"23.494"	"25.47"	"26.848"	"29.757"	"31.934"	"29.829"	"28.154"	"28.367"	"28.249"	"27.071"	"24.889"	"22.72"
"1917"	"22.769"	"24.304"	"25.945"	"29.08"	"30.789"	"29.322"	"28.671"	"28.152"	"27.617"	"27.009"	"24.562"	"22.844"
"1918"	"22.67"	"23.943"	"26.453"	"29.393"	"30.728"	"30.288"	"29.7"	"28.482"	"28.886"	"27.808"	"25.594"	"23.805"
"1919"	"24.44"	"26.065"	"27.478"	"30.095"	"32.306"	"30.261"	"28.965"	"29.144"	"28.507"	"27.21"	"25.188"	"23.426"
"1920"	"23.479"	"25.212"	"27.58"	"29.668"	"32.029"	"31.381"	"29.852"	"29.436"	"29.149"	"28.068"	"25.753"	"23.245"
"1921"	"23.874"	"24.732"	"27.624"	"29.769"	"33.634"	"31.465"	"28.764"	"28.606"	"28.339"	"26.746"	"23.898"	"23.156"
"1922"	"23.166"	"24.809"	"27.526"	"30.232"	"32.361"	"31.516"	"29.113"	"29.377"	"28.451"	"27.128"	"25.233"	"22.665"
"1923"	"22.567"	"24.543"	"26.361"	"30.118"	"32.226"	"32.987"	"29.014"	"29.253"	"27.857"	"27.094"	"25.056"	"23.578"
"1924"	"23.241"	"25.706"	"27.229"	"30.791"	"32.534"	"31.931"	"29.299"	"28.808"	"27.679"	"27.501"	"24.573"	"22.852"
"1925"	"22.974"	"24.463"	"26.922"	"29.899"	"31.34"	"30.797"	"28.834"	"28.254"	"28.542"	"26.881"	"25.133"	"22.761"
"1926"	"23.541"	"24.863"	"27.189"	"29.47"	"31.9"	"32.725"	"29.074"	"28.468"	"28.269"	"27.491"	"24.689"	"23.339"
"1927"	"24.239"	"25.333"	"27.824"	"30.414"	"32.597"	"30.959"	"28.736"	"28.646"	"28.579"	"27.535"	"24.466"	"23.552"
"1928"	"23.266"	"25.195"	"26.889"	"29.657"	"33.05"	"31.392"	"28.617"	"28.915"	"28.347"	"27.31"	"25.404"	"23.852"
"1929"	"24.148"	"24.407"	"26.937"	"29.632"	"32.786"	"31.061"	"29.513"	"28.835"	"28.208"	"27.293"	"25.017"	"24.118"
"1930"	"23.539"	"23.923"	"26.883"	"29.371"	"31.649"	"31.012"	"29.459"	"28.802"	"28.174"	"27.025"	"24.392"	"23.617"
"1931"	"22.718"	"24.851"	"26.879"	"30.092"	"32.162"	"31.298"	"28.36"	"28.738"	"28.048"	"27.178"	"24.438"	"23.466"
"1932"	"22.236"	"24.169"	"27.222"	"29.54"	"31.024"	"31.123"	"28.448"	"28.434"	"28.344"	"27.722"	"25.43"	"23.119"
"1933"	"23.202"	"25.053"	"26.283"	"29.171"	"30.428"	"30.299"	"28.444"	"27.752"	"28.582"	"26.808"	"24.872"	"23.052"
"1934"	"22.484"	"24.169"	"26.48"	"29.757"	"32.433"	"31.155"	"28.434"	"27.949"	"28.256"	"27.139"	"23.829"	"22.715"
"1935"	"23.006"	"24.641"	"26.617"	"29.17"	"32.748"	"31.189"	"28.836"	"28.505"	"27.988"	"27.545"	"24.437"	"23.653"
"1936"	"24.63"	"24.696"	"26.393"	"29.665"	"31.659"	"29.921"	"29.095"	"28.168"	"28.505"	"27.432"	"25.288"	"23.66"
"1937"	"22.688"	"25.254"	"26.686"	"29.495"	"32.152"	"31.735"	"28.671"	"28.744"	"28.568"	"26.964"	"25.101"	"22.716"
"1938"	"24.038"	"25.196"	"27.554"	"29.757"	"32.513"	"29.3"	"28.246"	"28.338"	"27.743"	"27.044"	"23.901"	"22.226"
"1939"	"22.574"	"23.867"	"26.243"	"29.434"	"32.532"	"31.818"	"28.812"	"28.915"	"28.567"	"27.342"	"24.2"	"22.886"
"1940"	"21.634"	"24.577"	"26.834"	"29.322"	"31.86"	"30.763"	"28.243"	"28.178"	"28.385"	"27.262"	"25.783"	"23.888"
"1941"	"24.147"	"25.395"	"28.758"	"31.694"	"33.198"	"30.169"	"29.553"	"28.741"	"28.053"	"27.95"	"24.754"	"24.639"
"1942"	"23.212"	"24.765"	"26.861"	"30.051"	"33.876"	"31.783"	"28.883"	"28.028"	"28.451"	"27.359"	"24.922"	"23.878"
"1943"	"24.073"	"23.614"	"27.375"	"29.821"	"31.631"	"30.039"	"28.32"	"28.381"	"27.819"	"27.202"	"25.558"	"22.888"
"1944"	"22.907"	"25.327"	"26.209"	"29.552"	"32.584"	"32.319"	"28.071"	"28.449"	"28.014"	"27.435"	"25.203"	"23.311"
"1945"	"22.993"	"24.935"	"27.675"	"29.645"	"33.615"	"32.227"	"28.152"	"28.146"	"27.71"	"27.329"	"24.584"	"22.146"
"1946"	"21.768"	"23.863"	"28.186"	"29.941"	"33.453"	"30.523"	"28.541"	"28.158"	"28.572"	"28.172"	"25.956"	"24.268"
"1947"	"24.051"	"24.55"	"28.179"	"32.119"	"33.2"	"32.688"	"28.209"	"28.057"	"27.987"	"27.13"	"24.866"	"23.166"
"1948"	"23.557"	"26.04"	"27.534"	"30.781"	"34.083"	"33.495"	"29.223"	"28.578"	"27.867"	"27.893"	"25.877"	"22.335"
"1949"	"22.867"	"24.684"	"27.833"	"30.717"	"32.709"	"31.345"	"27.975"	"28.161"	"28.18"	"28.077"	"24.827"	"22.775"
"1950"	"22.638"	"24.875"	"26.961"	"30.129"	"32.63"	"31.423"	"28.284"	"29.236"	"27.884"	"27.299"	"24.624"	"22.29"
"1951"	"22.975"	"24.595"	"27.593"	"30.059"	"32.225"	"30.933"	"28.951"	"28.818"	"28.814"	"28.912"	"25.93"	"23.522"
"1952"	"23.506"	"25.548"	"27.714"	"30.865"	"32.398"	"32.91"	"30.231"	"29.003"	"28.927"	"27.247"	"24.927"	"24.758"
"1953"	"23.7"	"25.287"	"28.847"	"31.014"	"34.565"	"32.538"	"29.573"	"28.551"	"28.424"	"27.564"	"25.252"	"23.152"
"1954"	"23.185"	"25.838"	"27.832"	"31.461"	"33.091"	"32.484"	"28.508"	"28.976"	"28.156"	"26.802"	"24.03"	"23.589"
"1955"	"23.142"	"25.45"	"27.838"	"30.308"	"31.851"	"32.014"	"29.293"	"27.85"	"28.305"	"27.37"	"24.056"	"22.971"
"1956"	"23.33"	"24.038"	"27.664"	"30.801"	"33.15"	"30.847"	"27.774"	"28.602"	"28.297"	"26.698"	"25.357"	"23.283"
"1957"	"23.842"	"25.138"	"26.85"	"29.698"	"32.253"	"32.179"	"29.28"	"27.789"	"29.142"	"28.197"	"25.436"	"24.146"
"1958"	"23.937"	"25.792"	"28.249"	"30.627"	"33.247"	"33.925"	"28.343"	"28.095"	"28.591"	"27.502"	"26.058"	"24.047"
"1959"	"23.908"	"26.164"	"27.79"	"30.33"	"32.646"	"31.214"	"28.507"	"27.963"	"28.705"	"27.537"	"25.018"	"23.316"
"1960"	"23.398"	"24.658"	"27.178"	"29.969"	"32.658"	"31.823"	"28.992"	"29.671"	"28.453"	"27.732"	"25.043"	"23.753"
"1961"	"23.549"	"25.13"	"28.42"	"30.797"	"32.527"	"31.053"	"28.066"	"28.408"	"27.912"	"26.971"	"25.114"	"22.404"
"1962"	"21.806"	"24.307"	"26.961"	"29.94"	"32.193"	"31.23"	"28.537"	"28.018"	"27.819"	"27.075"	"24.671"	"23.459"
"1963"	"22.281"	"23.977"	"27.349"	"28.7"	"32.201"	"31.069"	"28.905"	"27.952"	"29.106"	"27.627"	"25.448"	"23.83"
"1964"	"23.618"	"25.704"	"28.12"	"30.431"	"33.765"	"31.088"	"28.844"	"27.711"	"27.36"	"27.551"	"24.894"	"22.928"
"1965"	"23.534"	"24.995"	"26.599"	"28.909"	"31.524"	"32.001"	"28.943"	"28.649"	"28.579"	"28.106"	"25.913"	"24.515"
"1966"	"23.826"	"25.233"	"27.875"	"30.37"	"34.101"	"31.775"	"29.319"	"29.246"	"28.289"	"27.335"	"25.774"	"23.176"
"1967"	"23.508"	"24.947"	"26.78"	"29.831"	"32.669"	"31.525"	"28.848"	"28.2"	"28.218"	"26.938"	"24.416"	"23.849"
"1968"	"22.656"	"25.268"	"27.223"	"29.031"	"31.779"	"31.962"	"29.309"	"29.547"	"28.055"	"26.743"	"24.923"	"23.39"
"1969"	"22.948"	"25.213"	"27.959"	"30.413"	"30.751"	"31.616"	"28.112"	"28.309"	"27.928"	"26.805"	"25.267"	"22.718"
"1970"	"23.14"	"25.153"	"27.661"	"30"	"32.334"	"29.729"	"28.499"	"27.52"	"28.151"	"26.683"	"24.388"	"21.397"
"1971"	"22.685"	"25.563"	"26.978"	"29.319"	"31.201"	"29.07"	"29.341"	"28.444"	"27.849"	"26.547"	"23.569"	"21.955"
"1972"	"21.756"	"24.671"	"27.265"	"31.368"	"34.468"	"34.176"	"30.64"	"29.902"	"29.67"	"27.291"	"25.393"	"24.943"
"1973"	"24.733"	"26.504"	"28.285"	"31.463"	"33.868"	"32.492"	"29.997"	"28.939"	"29.163"	"27.374"	"24.949"	"23.416"
"1974"	"22.939"	"25.397"	"28.281"	"30.226"	"32.302"	"30.902"	"30.075"	"29.067"	"28.488"	"27.407"	"24.957"	"22.804"
"1975"	"22.773"	"25.792"	"28.411"	"30.764"	"34.002"	"31.091"	"28.664"	"29.043"	"27.476"	"27.535"	"24.449"	"22.198"
"1976"	"22.59"	"24.782"	"28.155"	"30.291"	"31.96"	"31.269"	"27.266"	"28.244"	"27.564"	"26.867"	"25.037"	"22.654"
"1977"	"22.283"	"25.704"	"28.105"	"29.965"	"31.796"	"31.618"	"29.483"	"28.364"	"29.425"	"27.542"	"26.65"	"23.99"
"1978"	"24.102"	"25.659"	"27.967"	"30.361"	"33.724"	"31.048"	"28.676"	"27.632"	"28.768"	"28.555"	"26.823"	"24.405"
"1979"	"24.419"	"26.655"	"28.027"	"30.798"	"31.958"	"31.833"	"31.016"	"30.015"	"28.705"	"28.542"	"26.708"	"24.908"
"1980"	"25.028"	"26.771"	"28.788"	"30.98"	"33.451"	"29.998"	"29.254"	"28.667"	"28.902"	"28.038"	"25.977"	"24.544"
"1981"	"23.502"	"25.964"	"27.929"	"30.737"	"32.534"	"32.393"	"29.341"	"28.686"	"28.65"	"28.1"	"25.124"	"24.063"
"1982"	"24.135"	"26.248"	"28.668"	"30.659"	"31.876"	"32.04"	"29.904"	"28.634"	"28.787"	"27.811"	"26.162"	"24.343"
"1983"	"24.073"	"26.995"	"28.916"	"30.43"	"32.176"	"32.298"	"29.618"	"28.551"	"28.113"	"27.61"	"25.278"	"23.828"
"1984"	"24.781"	"25.769"	"27.534"	"30.338"	"32.611"	"31.972"	"29.071"	"29.867"	"29.107"	"27.635"	"24.89"	"24.809"
"1985"	"24.507"	"25.908"	"28.43"	"31.27"	"33.225"	"30.829"	"28.593"	"28.646"	"29.067"	"26.902"	"25.216"	"23.998"
"1986"	"22.963"	"25.184"	"27.659"	"30.119"	"32.695"	"31.387"	"30.235"	"28.953"	"29.71"	"27.918"	"25.741"	"24.802"
"1987"	"24.318"	"24.581"	"26.896"	"30.745"	"31.308"	"33.234"	"29.825"	"29.026"	"29.949"	"27.84"	"25.816"	"24.453"
"1988"	"24.272"	"26.242"	"28.514"	"29.829"	"33.266"	"32.518"	"28.112"	"28.339"	"28.457"	"27.943"	"25.283"	"24.214"
"1989"	"23.811"	"25.171"	"27.066"	"30.332"	"32.796"	"30.6"	"28.587"	"28.35"	"28.387"	"28.153"	"25.405"	"23.654"
"1990"	"24.502"	"26.162"	"28.395"	"30.898"	"30.17"	"30.334"	"29.431"	"28.921"	"28.999"	"27.237"	"26.383"	"24.595"
"1991"	"24.717"	"26.246"	"28.394"	"30.67"	"32.431"	"30.047"	"29.44"	"28.905"	"29.191"	"27.906"	"24.831"	"23.392"
"1992"	"22.898"	"25.905"	"27.875"	"30.084"	"32.416"	"31.748"	"30.231"	"28.551"	"29.012"	"28.069"	"26.008"	"23.264"
"1993"	"23.977"	"25.096"	"27.828"	"29.814"	"31.982"	"32.403"	"29.896"	"29.98"	"29.304"	"28.16"	"25.751"	"23.347"
"1994"	"24.045"	"25.734"	"28.198"	"30.406"	"33.289"	"31.962"	"28.867"	"28.698"	"29.376"	"27.722"	"24.831"	"23.18"
"1995"	"22.979"	"25.38"	"27.954"	"29.916"	"30.343"	"32.398"	"29.164"	"29.832"	"28.947"	"27.823"	"26.629"	"24.057"
"1996"	"24.321"	"25.401"	"27.908"	"29.911"	"33.291"	"31.242"	"29.537"	"29.054"	"29.11"	"27.519"	"26.078"	"23.359"
"1997"	"23.075"	"25.552"	"27.834"	"29.195"	"32.527"	"33.17"	"30.372"	"30.01"	"29.074"	"28.088"	"26.889"	"25.677"
"1998"	"25.479"	"26.897"	"28.751"	"30.399"	"33.462"	"33.231"	"29.828"	"29.303"	"29.252"	"28.232"	"26.688"	"23.504"
"1999"	"23.34"	"26.012"	"28.644"	"31.101"	"31.66"	"31.388"	"29.969"	"29.301"	"28.817"	"28.142"	"26.109"	"23.735"
"2000"	"24.39"	"26.296"	"27.806"	"31.006"	"33.098"	"29.898"	"29.018"	"28.25"	"29.531"	"28.668"	"26.06"	"23.594"
"2001"	"24.043"	"26.23"	"28.469"	"29.534"	"33.287"	"30.762"	"30.662"	"28.845"	"29.679"	"28.493"	"26.59"	"24.141"
"2002"	"24.503"	"25.74"	"28.508"	"30.831"	"33.807"	"30.635"	"30.642"	"28.918"	"30.371"	"28.14"	"25.293"	"24.186"
