
"Year"	"Jan"	"Feb"	"Mar"	"Apr"	"May"	"Jun"	"Jul"	"Aug"	"Sep"	"Oct"	"Nov"	"Dec"
"1901"	"23.755"	"6.521"	"29.29"	"312.681"	"273.983"	"618.935"	"463.95"	"439.921"	"361.904"	"307.479"	"143.984"	"1.152"
"1902"	"0.691"	"0.381"	"104.693"	"339.18"	"371.732"	"895.927"	"718.011"	"618.617"	"385.204"	"33.522"	"0.439"	"0.65"
"1903"	"1.641"	"18.246"	"106.578"	"195.935"	"287.333"	"794.329"	"514.395"	"809.754"	"183.338"	"125.608"	"117.124"	"0.007"
"1904"	"0.772"	"59.142"	"42.72"	"586.157"	"548.181"	"559.887"	"510.442"	"547.037"	"167.329"	"97.359"	"48.138"	"1.6"
"1905"	"4.047"	"11.787"	"81.714"	"147.127"	"486.552"	"560.267"	"570.282"	"984.157"	"494.252"	"428.349"	"4.689"	"9.543"
"1906"	"8.342"	"82.859"	"56.662"	"302.499"	"274.386"	"412.319"	"919.399"	"820.296"	"367.432"	"193.024"	"35.218"	"0"
"1907"	"22.117"	"69.177"	"126.975"	"236.998"	"272.226"	"716.767"	"721.362"	"397.25"	"280.888"	"53.808"	"0.347"	"4.901"
"1908"	"6.166"	"10.082"	"6.171"	"131.024"	"470.144"	"569.316"	"443.874"	"323.245"	"424.448"	"77.154"	"1.824"	"0.047"
"1909"	"4.68"	"12.629"	"1.485"	"217.93"	"569.993"	"813.712"	"367.443"	"527.157"	"162.626"	"189.555"	"12.026"	"3.862"
"1910"	"2.744"	"29.345"	"206.357"	"224.617"	"318.653"	"792.02"	"899.368"	"594.206"	"190.751"	"190.795"	"40.05"	"0.267"
"1911"	"24.283"	"16.836"	"48.574"	"299.685"	"724.287"	"989.605"	"634.049"	"607.211"	"428.495"	"485.806"	"6.446"	"0.052"
"1912"	"3.471"	"59.792"	"147.628"	"264.005"	"238.085"	"700.537"	"575.008"	"568.977"	"231.837"	"332.155"	"87.996"	"12.236"
"1913"	"2.838"	"65.412"	"94.552"	"354.891"	"539.819"	"742.793"	"461.814"	"473.174"	"324.105"	"364.04"	"4.389"	"20.806"
"1914"	"0.061"	"51.03"	"42.586"	"158.007"	"476.101"	"706.79"	"490.921"	"736.991"	"228.965"	"48.49"	"3.173"	"6.243"
"1915"	"5.08"	"47.157"	"89.075"	"110.19"	"1217.498"	"631.72"	"852.302"	"676.874"	"242.552"	"135.706"	"12.564"	"0.085"
"1916"	"2.779"	"14.175"	"127.975"	"269.987"	"829.156"	"551.597"	"481.156"	"600.241"	"315.174"	"508.17"	"115.263"	"0.074"
"1917"	"0.151"	"67.29"	"26.886"	"140.544"	"425.874"	"755.653"	"686.618"	"496.186"	"263.972"	"311.069"	"140.932"	"0.019"
"1918"	"0.62"	"5.675"	"69.836"	"112.494"	"557.913"	"1142.649"	"809.281"	"696.293"	"364.062"	"82.436"	"0.492"	"0.836"
"1919"	"10.055"	"4.168"	"9.918"	"130.108"	"354.413"	"638.273"	"572.881"	"341.449"	"491.098"	"399.127"	"53.711"	"0.04"
"1920"	"2.174"	"24.919"	"166.306"	"157.446"	"371.025"	"534.271"	"391.159"	"653.883"	"527.536"	"112.263"	"0.498"	"0.144"
"1921"	"19.795"	"9.34"	"75.196"	"277.83"	"999.376"	"769.416"	"840.43"	"599.972"	"280.071"	"91.113"	"2.084"	"0.29"
"1922"	"6.452"	"2.111"	"99.997"	"288.639"	"349.512"	"923.906"	"507.263"	"476.367"	"239.237"	"380.551"	"0.698"	"4.078"
"1923"	"0.014"	"68.554"	"15.84"	"236.752"	"485.825"	"905.547"	"505.265"	"349.651"	"292.606"	"52.325"	"4.639"	"1.323"
"1924"	"5.123"	"10.586"	"2.73"	"249.074"	"326.668"	"794.44"	"835.961"	"557.871"	"483.429"	"78.923"	"162.458"	"0"
"1925"	"10.353"	"18.945"	"48.583"	"270.412"	"867.417"	"431.1"	"560.594"	"416.578"	"355.575"	"76.758"	"5.63"	"0.009"
"1926"	"14.753"	"10.691"	"124.838"	"123.642"	"250.467"	"759.013"	"721.233"	"402.518"	"246.824"	"269.669"	"1.574"	"10.401"
"1927"	"24.288"	"30.595"	"41.114"	"263.563"	"253.913"	"802.776"	"517.367"	"459.479"	"718.363"	"259.83"	"23.349"	"0"
"1928"	"6.531"	"10.191"	"47.402"	"90.066"	"647.106"	"633.17"	"597.712"	"456.712"	"365.946"	"373.877"	"9.585"	"0.111"
"1929"	"13.606"	"1.362"	"71.925"	"326.382"	"863.731"	"752.725"	"493.337"	"448.668"	"293.388"	"165.36"	"8.214"	"5.185"
"1930"	"10.045"	"27.282"	"72.372"	"176.2"	"223.187"	"851.651"	"334.715"	"741.32"	"252.108"	"172.562"	"156.597"	"0.631"
"1931"	"1.318"	"21.984"	"35.209"	"392.945"	"541.031"	"894.137"	"981.874"	"308.351"	"339.816"	"85.012"	"8.883"	"2.983"
"1932"	"4.038"	"28.804"	"26.955"	"125.98"	"1039.122"	"742.398"	"456.788"	"789.818"	"299.298"	"94.716"	"129.739"	"3.432"
"1933"	"5.294"	"12.68"	"6.743"	"229.461"	"393.811"	"634.658"	"481.286"	"566.182"	"179.822"	"120.63"	"0.512"	"0.052"
"1934"	"14.896"	"54.548"	"7.234"	"310.907"	"587.505"	"1212.037"	"715.085"	"436.554"	"293.705"	"515.794"	"19.891"	"2.443"
"1935"	"1.929"	"23.835"	"46.95"	"76.659"	"620.246"	"972.209"	"374.411"	"947.441"	"394.597"	"9.714"	"1.845"	"0.537"
"1936"	"9.267"	"39.21"	"49.638"	"151.454"	"636.683"	"568.099"	"615.597"	"401.601"	"471.186"	"330.766"	"3.976"	"13.371"
"1937"	"0.139"	"28.296"	"12.89"	"86.275"	"648.526"	"628.338"	"523.218"	"673.095"	"249.332"	"106.726"	"1.888"	"0.911"
"1938"	"19.255"	"7.291"	"143.281"	"179.636"	"481.077"	"968.627"	"679.647"	"735.078"	"672.317"	"111.327"	"43.495"	"0.052"
"1939"	"0.404"	"15.72"	"4.377"	"178.404"	"414.654"	"910.758"	"655.075"	"359.583"	"479.268"	"240.889"	"0.783"	"0.107"
"1940"	"0.12"	"42.247"	"93.563"	"40.326"	"524.841"	"660.155"	"516.229"	"433.249"	"626.532"	"143.097"	"4.292"	"1.954"
"1941"	"2.187"	"35.555"	"66.856"	"231.122"	"689.906"	"840.682"	"541.427"	"436.737"	"493.958"	"228.648"	"12.369"	"1.319"
"1942"	"13.092"	"21.6"	"129.268"	"127.017"	"534.983"	"912.773"	"304.595"	"451.454"	"569.798"	"23.323"	"8.144"	"0.014"
"1943"	"15.55"	"26.31"	"130.734"	"246.972"	"623.809"	"665.525"	"579.514"	"447.537"	"541.114"	"43.179"	"2.249"	"0.846"
"1944"	"32.167"	"10.226"	"48.547"	"96.529"	"1093.749"	"442.399"	"342.362"	"372.675"	"459.863"	"99.605"	"1.565"	"0.363"
"1945"	"31.39"	"24.568"	"94.974"	"140.463"	"411.764"	"634.567"	"600.396"	"716.968"	"229.76"	"252.119"	"0.317"	"0.25"
"1946"	"0.009"	"19.387"	"79.089"	"142.831"	"487.933"	"668.864"	"684.354"	"466.463"	"404.391"	"599.56"	"11.433"	"0"
"1947"	"0.421"	"1.793"	"58.084"	"314.41"	"640.967"	"704.837"	"839.356"	"361.944"	"433.037"	"254.551"	"0.548"	"2.974"
"1948"	"0.798"	"17.512"	"22.467"	"279.253"	"1238.109"	"743.461"	"690.315"	"550.979"	"339.213"	"318.501"	"50.16"	"0.158"
"1949"	"8.136"	"14.729"	"34.024"	"357.431"	"597.822"	"933.161"	"528.978"	"613.224"	"656.779"	"107.762"	"3.783"	"0.172"
"1950"	"2.07"	"47.94"	"73"	"116.486"	"391.678"	"834.762"	"459.383"	"731.667"	"106.831"	"183.029"	"84.082"	"0.094"
"1951"	"2.054"	"0.266"	"54.937"	"138.539"	"613.279"	"906.097"	"936.562"	"634.872"	"367.252"	"460.833"	"28.103"	"2.79"
"1952"	"3.035"	"2.036"	"88.328"	"208.216"	"585.294"	"470.106"	"728.762"	"605.257"	"461.729"	"385.209"	"87.652"	"0.035"
"1953"	"12.509"	"7.576"	"235.921"	"202.663"	"690.257"	"632.54"	"700.332"	"366.013"	"623.223"	"129.003"	"6.401"	"3.077"
"1954"	"9.624"	"55.138"	"11.085"	"173.871"	"977.033"	"1142.795"	"883.755"	"551.616"	"302.833"	"155.531"	"0.319"	"11.078"
"1955"	"9.873"	"10.281"	"113.974"	"219.078"	"428.483"	"745.378"	"815.094"	"558.968"	"391.359"	"132.996"	"94.403"	"2.477"
"1956"	"12.32"	"1.364"	"92.147"	"159.845"	"1014.746"	"1466.746"	"515.788"	"619.351"	"197.011"	"177.566"	"38.057"	"2.948"
"1957"	"25.328"	"14.009"	"17.841"	"183.065"	"822.801"	"639.404"	"534.697"	"470.296"	"221.831"	"57.951"	"1.887"	"3.403"
"1958"	"10.728"	"53.2"	"12.043"	"212.553"	"802.002"	"390.444"	"373.976"	"987.901"	"397.097"	"148.035"	"6.025"	"7.07"
"1959"	"25.345"	"11.363"	"91.775"	"249.055"	"846.536"	"1008.678"	"403.914"	"469.746"	"259.041"	"296.73"	"1.222"	"0.207"
"1960"	"0"	"0.306"	"42.678"	"71.659"	"601.832"	"470.743"	"805.961"	"342.405"	"428.372"	"95.448"	"11.812"	"1.56"
"1961"	"1.59"	"10.859"	"75.322"	"122.748"	"288.986"	"889.383"	"578.799"	"541.602"	"343.386"	"171.164"	"9.629"	"0.947"
"1962"	"20.113"	"23.842"	"7.258"	"106.549"	"378.041"	"649.089"	"361.941"	"550.956"	"44.496"	"105.008"	"0.549"	"0.363"
"1963"	"0.257"	"2.413"	"60.762"	"148.198"	"461.737"	"900.739"	"699.058"	"535.023"	"398.278"	"130.147"	"16.576"	"0.942"
"1964"	"4.632"	"22.943"	"94.68"	"349.8"	"456.884"	"959.982"	"825.801"	"384.237"	"248.978"	"261.341"	"19.727"	"0.34"
"1965"	"0.04"	"48.691"	"86.755"	"182.96"	"463.682"	"726.233"	"575.028"	"589.848"	"313.006"	"84.292"	"51.882"	"0.876"
"1966"	"7.752"	"1.121"	"20.73"	"117.241"	"274.014"	"1250.976"	"501.329"	"663.768"	"179.44"	"90.414"	"48.907"	"8.09"
"1967"	"9.977"	"8.445"	"114.541"	"209.45"	"340.411"	"435.268"	"622.177"	"339.736"	"398.131"	"76.788"	"7.313"	"0.147"
"1968"	"9.098"	"10.674"	"54.17"	"211.512"	"683.929"	"937.25"	"773.779"	"411.417"	"188.033"	"141.219"	"3.864"	"0.078"
"1969"	"14.164"	"0.255"	"63.447"	"164.056"	"266.524"	"740.91"	"679.817"	"671.68"	"177.565"	"72.163"	"41.741"	"0.473"
"1970"	"25.775"	"20.274"	"142.649"	"280.738"	"678.047"	"924.397"	"1062.742"	"555.759"	"451.981"	"429.821"	"25.282"	"0"
"1971"	"15.854"	"6.553"	"30.25"	"119.894"	"184.47"	"581.151"	"524.335"	"610.567"	"228.369"	"236.402"	"126.407"	"1.119"
"1972"	"2.431"	"39.369"	"109.155"	"242.975"	"361.488"	"761.05"	"518.258"	"294.255"	"210.082"	"105.708"	"3.754"	"0.094"
"1973"	"8.385"	"64.533"	"11.494"	"354.179"	"519.948"	"894.64"	"541.474"	"288.772"	"414.375"	"113.17"	"140.929"	"35.16"
"1974"	"3.749"	"0.325"	"72.8"	"500.615"	"400.009"	"819.457"	"1735.281"	"817.215"	"1269.594"	"670.333"	"5.968"	"0.614"
"1975"	"3.212"	"10.105"	"9.936"	"369.816"	"545.354"	"451.396"	"869.888"	"363.868"	"343.395"	"364.525"	"18.138"	"0.246"
"1976"	"0.728"	"12.451"	"200.159"	"199.977"	"246.194"	"791.166"	"518.781"	"590.268"	"128.787"	"97.87"	"10.184"	"0.074"
"1977"	"3.07"	"25.262"	"165.246"	"497.066"	"704.889"	"685.089"	"614.846"	"730.222"	"147.545"	"293.975"	"35.872"	"7.083"
"1978"	"0.057"	"7.383"	"25.109"	"122.539"	"434.157"	"651.067"	"557.015"	"244.096"	"277.554"	"90.038"	"25.403"	"0"
"1979"	"1.087"	"9.099"	"30.704"	"98.879"	"573.487"	"427.059"	"948.228"	"371.481"	"495.178"	"463.464"	"16.176"	"31.285"
"1980"	"1.035"	"30.463"	"31.374"	"88.951"	"217.326"	"251.407"	"200.979"	"255.103"	"124.643"	"82.302"	"0.317"	"0"
"1981"	"23.335"	"14.828"	"60.37"	"154.512"	"409.927"	"117.638"	"262.767"	"448.211"	"302.512"	"12.808"	"0.317"	"38.948"
"1982"	"0"	"10.875"	"20.5"	"277.212"	"318.438"	"725.86"	"673.4"	"598.475"	"475.965"	"58.78"	"26.011"	"3.038"
"1983"	"5.702"	"36.425"	"80.064"	"167.194"	"314.531"	"447.512"	"756.798"	"609.178"	"520.751"	"214.492"	"0.451"	"16.867"
"1984"	"13.865"	"2.449"	"42.263"	"259.167"	"1360.86"	"803.051"	"1160.103"	"383.862"	"769.013"	"160.428"	"7.299"	"24.132"
"1985"	"3.059"	"29.624"	"218.762"	"353.921"	"440.681"	"774.799"	"868.867"	"445.57"	"324.119"	"45.393"	"1.481"	"12.656"
"1986"	"5.109"	"0.95"	"16.71"	"384.526"	"137.647"	"454.678"	"492.173"	"427.542"	"385.854"	"331.843"	"84.21"	"10.703"
"1987"	"7.847"	"14.502"	"121.047"	"329.706"	"268.248"	"402.855"	"997.357"	"585.516"	"500.237"	"126.654"	"20.831"	"5.461"
"1988"	"5.64"	"43.244"	"70.343"	"182.402"	"762.815"	"644.631"	"858.328"	"1202.848"	"517.967"	"311.314"	"135.944"	"33.966"
"1989"	"12.38"	"80.398"	"8.556"	"391.842"	"207.778"	"704.223"	"1042.505"	"350.475"	"672.955"	"304.09"	"15.163"	"1.842"
"1990"	"8.083"	"38.728"	"87.759"	"450.103"	"264.467"	"450.205"	"805.099"	"199.989"	"555.813"	"293.763"	"15.059"	"1.25"
"1991"	"20.395"	"22.77"	"71.781"	"193.849"	"883.337"	"498.272"	"475.451"	"682.46"	"358.566"	"623.305"	"3.781"	"28.574"
"1992"	"8.298"	"28.822"	"21.789"	"130.352"	"525.137"	"699.315"	"788.294"	"680.817"	"363.748"	"127.833"	"6.842"	"15.637"
"1993"	"34.128"	"52.972"	"117.282"	"143.114"	"584.578"	"1030.335"	"855.097"	"727.1"	"490.964"	"86.042"	"6.433"	"0"
"1994"	"13.973"	"39.813"	"156.877"	"238.633"	"377.564"	"715.007"	"472.435"	"636.028"	"165.789"	"58.845"	"10.978"	"0.835"
"1995"	"13.402"	"28.016"	"11.957"	"119.356"	"308.061"	"796.668"	"629.057"	"176.867"	"398.424"	"25.033"	"151.983"	"1.243"
"1996"	"4.912"	"28.227"	"155.226"	"243.662"	"722.192"	"478.794"	"854.71"	"544.425"	"146.858"	"146.28"	"0.336"	"0.007"
"1997"	"7.535"	"20.579"	"27.6"	"150.178"	"381.98"	"494.75"	"554.343"	"429.363"	"478.675"	"20.207"	"6.289"	"27.898"
"1998"	"6.479"	"57.51"	"121.794"	"135.194"	"511.634"	"402.989"	"745.579"	"619.798"	"239.066"	"180.503"	"67.244"	"0"
"1999"	"0.058"	"0.227"	"14.93"	"39.807"	"581.271"	"482.467"	"680.104"	"568.169"	"267.97"	"264.521"	"21.494"	"0.957"
"2000"	"14.473"	"24.627"	"55.407"	"306.718"	"780.096"	"337.545"	"407.184"	"780.811"	"325.471"	"111.48"	"8.364"	"4.023"
"2001"	"1.759"	"14.627"	"22.468"	"215.497"	"615.556"	"648.128"	"478.915"	"622.07"	"353.719"	"243.662"	"23.882"	"0.042"
"2002"	"19.124"	"2.084"	"86.837"	"386.222"	"428.881"	"994.783"	"802.332"	"414.513"	"262.948"	"86.414"	"40.373"	"0.179"
