
"Year"	"Jan"	"Feb"	"Mar"	"Apr"	"May"	"Jun"	"Jul"	"Aug"	"Sep"	"Oct"	"Nov"	"Dec"
"1901"	"4.007"	"17.5"	"0"	"9.858"	"34.952"	"56.273"	"109.923"	"195.209"	"92.731"	"144.062"	"81.746"	"2.065"
"1902"	"0.885"	"0"	"2.781"	"24.425"	"27.746"	"48.638"	"139.662"	"177.019"	"182.06"	"252.393"	"58.26"	"59.962"
"1903"	"0.665"	"0.751"	"0.044"	"10.337"	"50.964"	"139.453"	"225.363"	"248.924"	"221.533"	"148.015"	"207.654"	"19.28"
"1904"	"0.244"	"0"	"5.416"	"0.107"	"101.658"	"90.837"	"98.803"	"86.923"	"118.613"	"209.062"	"0.832"	"25.233"
"1905"	"0.122"	"11.241"	"15.374"	"28.068"	"32.053"	"96.658"	"53.576"	"139.992"	"183.447"	"35.097"	"3.423"	"0.071"
"1906"	"1.607"	"23.031"	"22.515"	"0.086"	"1.692"	"256.492"	"142.119"	"180.525"	"100.861"	"60.617"	"19.53"	"27.19"
"1907"	"0.23"	"3.264"	"14.803"	"41.285"	"12.062"	"220.264"	"125.979"	"155.564"	"66.6"	"15.761"	"41.978"	"45.571"
"1908"	"14.879"	"1.129"	"0"	"13.579"	"20.741"	"38.883"	"108.187"	"174.752"	"350.724"	"44.612"	"1.199"	"0.099"
"1909"	"0.7"	"0"	"0"	"72.778"	"34.299"	"85.042"	"197.25"	"157.254"	"107.088"	"2.054"	"2.793"	"21.153"
"1910"	"0"	"2.265"	"0"	"10.512"	"18.598"	"166.195"	"156.891"	"155.603"	"209.802"	"245.736"	"53.14"	"0.071"
"1911"	"0"	"0"	"3.163"	"13.526"	"49.768"	"123.713"	"179.318"	"90.22"	"100.251"	"65.977"	"136.51"	"29.232"
"1912"	"0"	"1.164"	"2.449"	"5.607"	"25.092"	"52.417"	"233.525"	"162.66"	"142.997"	"105.704"	"63.48"	"11.978"
"1913"	"0"	"1.056"	"0"	"11.07"	"25.774"	"93.271"	"197.492"	"77.488"	"167.911"	"146.96"	"30.638"	"2.683"
"1914"	"0"	"0.045"	"0.091"	"15.186"	"89.858"	"125.092"	"187.371"	"119.208"	"131.396"	"27.032"	"12.275"	"0.071"
"1915"	"3.008"	"15.773"	"8.63"	"28.016"	"38.322"	"135.685"	"279.089"	"218.066"	"182.559"	"175.746"	"110.972"	"0.071"
"1916"	"0"	"4.094"	"0"	"2.264"	"22.595"	"121.399"	"204.166"	"214.245"	"153.469"	"226.764"	"135.736"	"0.071"
"1917"	"0.086"	"6.513"	"8.342"	"1.363"	"104.239"	"209.001"	"200.123"	"175.913"	"278.04"	"231.389"	"154.055"	"4.132"
"1918"	"12.67"	"15.037"	"4.312"	"35.694"	"74.04"	"152.742"	"97.133"	"160.847"	"174.257"	"37.902"	"180.098"	"13.678"
"1919"	"2.988"	"3.7"	"11.883"	"4.269"	"66.758"	"98.597"	"128.319"	"93.335"	"141.023"	"163.858"	"155.263"	"2.839"
"1920"	"12.472"	"7.649"	"3.344"	"19.916"	"59.36"	"62.244"	"121.251"	"104.607"	"151.805"	"128.607"	"23.744"	"0.071"
"1921"	"14.892"	"0"	"0"	"20.15"	"0.64"	"87.018"	"203"	"116.642"	"209.466"	"189.44"	"19.327"	"0.071"
"1922"	"1.797"	"0.055"	"0"	"0.732"	"13.642"	"76.223"	"142.361"	"86.211"	"105.292"	"90.807"	"122.455"	"0.071"
"1923"	"0.061"	"32.831"	"1.176"	"5.454"	"11.899"	"40.952"	"172.68"	"97.078"	"221.174"	"194.576"	"152.748"	"0.071"
"1924"	"0.566"	"0"	"1.565"	"10.69"	"15.617"	"48.415"	"121.242"	"162.345"	"321.597"	"69.826"	"221.478"	"0.071"
"1925"	"0.503"	"0"	"7.62"	"33.491"	"104.32"	"149.564"	"212.482"	"220.9"	"128.279"	"194.569"	"32.496"	"7.39"
"1926"	"2.658"	"0.017"	"18.8"	"32.781"	"37.566"	"47.494"	"241.956"	"120.072"	"120.274"	"28.441"	"3.624"	"0.071"
"1927"	"1.824"	"0.369"	"13.726"	"6.599"	"11.015"	"106.673"	"224.253"	"153.287"	"203.847"	"81.191"	"139.389"	"0.071"
"1928"	"0"	"0.976"	"11.323"	"11.831"	"31.502"	"120.589"	"193.585"	"85.668"	"207.593"	"183.159"	"0.843"	"6.728"
"1929"	"0.212"	"21.484"	"0"	"2.058"	"23.181"	"185.036"	"93.346"	"133.636"	"221.375"	"98.872"	"13.334"	"20.421"
"1930"	"0"	"6.716"	"12.159"	"14.754"	"116.177"	"182.09"	"84.341"	"106.104"	"107.76"	"348.65"	"159.665"	"10.21"
"1931"	"0"	"0"	"0.045"	"1.125"	"66.301"	"149.068"	"202.919"	"168.571"	"190.668"	"273.027"	"149.504"	"0.231"
"1932"	"0"	"18.955"	"0"	"11.333"	"33.258"	"69.381"	"225.224"	"137.243"	"174.354"	"97.547"	"199.816"	"0.231"
"1933"	"6.671"	"0"	"6.495"	"7.607"	"26.97"	"119.377"	"199.009"	"117.34"	"184.308"	"194.041"	"57.728"	"32.974"
"1934"	"0"	"0"	"0"	"13.429"	"3.996"	"126.433"	"207.448"	"195.393"	"119.327"	"100.335"	"66.301"	"12.439"
"1935"	"2.157"	"0"	"0"	"31.864"	"8.56"	"53.736"	"175.888"	"83.694"	"225.799"	"128.27"	"4.688"	"0.298"
"1936"	"4.559"	"54.359"	"5.216"	"15.976"	"147.385"	"150.043"	"222.863"	"172.568"	"184.125"	"190.233"	"99.313"	"21.882"
"1937"	"0"	"41.652"	"3.781"	"67.624"	"10.172"	"52.442"	"157.597"	"159.277"	"84.721"	"170.608"	"8.921"	"0.071"
"1938"	"0"	"8.049"	"17.843"	"0.086"	"105.489"	"127.671"	"215.618"	"189.316"	"187.374"	"51.301"	"191.025"	"4.076"
"1939"	"0.815"	"0"	"10.012"	"9.412"	"0.624"	"80.697"	"112.608"	"137.879"	"108.432"	"434.465"	"78.796"	"0.91"
"1940"	"0.472"	"0.242"	"34.698"	"27.665"	"67.78"	"81.179"	"184.015"	"184.052"	"130.534"	"96.9"	"90.203"	"3.866"
"1941"	"0.292"	"19.222"	"8.345"	"0.833"	"31.52"	"164.432"	"60.485"	"65.586"	"212.081"	"236.68"	"84.558"	"6.583"
"1942"	"0.644"	"0.75"	"0"	"24.583"	"9.317"	"111.752"	"143.604"	"197.089"	"64.559"	"124.533"	"67.715"	"4.971"
"1943"	"1.459"	"3.225"	"0"	"41.995"	"72.681"	"138.386"	"115.096"	"68.604"	"191.618"	"226.433"	"26.74"	"0.951"
"1944"	"0.489"	"8.203"	"25.504"	"10.419"	"17.161"	"94.859"	"198.75"	"134.505"	"130.263"	"377.447"	"39.18"	"0.071"
"1945"	"0.823"	"0"	"0"	"27.765"	"5.382"	"29.229"	"243.217"	"223.219"	"174.734"	"141.049"	"69.948"	"33.351"
"1946"	"0"	"14.657"	"0.376"	"53.351"	"40.227"	"115.98"	"185.648"	"115.512"	"92.839"	"57.134"	"308.863"	"2.307"
"1947"	"2.541"	"15.891"	"0"	"1.372"	"3.398"	"51.929"	"236.541"	"227.396"	"327.147"	"210.792"	"112.45"	"64.456"
"1948"	"0.971"	"11.839"	"1.056"	"11.159"	"70.428"	"29.273"	"176.647"	"118.888"	"113.198"	"78.02"	"173.442"	"5.516"
"1949"	"0"	"0.48"	"0"	"23.779"	"71.341"	"98.682"	"319.261"	"146.926"	"213.153"	"303.603"	"18.3"	"0.389"
"1950"	"0"	"8.727"	"13.414"	"0.652"	"53.461"	"58.395"	"230.383"	"120.254"	"208.713"	"76.257"	"124.928"	"0.071"
"1951"	"0.161"	"0"	"13.167"	"17.319"	"51.001"	"127.72"	"270.74"	"176.895"	"126.813"	"89.798"	"26.346"	"27.187"
"1952"	"0"	"11.64"	"0"	"8.729"	"51.875"	"101.7"	"116.392"	"103.89"	"103.737"	"194.131"	"0.832"	"39.845"
"1953"	"3.958"	"0"	"0"	"16.69"	"10.337"	"144.777"	"140.935"	"175.505"	"144.624"	"204.464"	"4.032"	"0.071"
"1954"	"0"	"0.014"	"2.043"	"1.33"	"50.962"	"118.963"	"214.101"	"184.717"	"270.188"	"160.925"	"0.832"	"25.287"
"1955"	"0.027"	"0"	"4.635"	"7.571"	"48.771"	"124.968"	"120.353"	"237.114"	"226.942"	"185.017"	"100.101"	"0.512"
"1956"	"0.861"	"6.711"	"0"	"12.717"	"66.645"	"181.813"	"343.888"	"105.67"	"126.221"	"277.341"	"78.342"	"0.314"
"1957"	"0.812"	"1.299"	"13.085"	"0.742"	"11.121"	"186.731"	"148.246"	"192.516"	"148.297"	"112.13"	"8.373"	"0.071"
"1958"	"4.2"	"0.148"	"0"	"7.239"	"28.702"	"101.381"	"333.603"	"173.075"	"145.521"	"266.842"	"128.024"	"0.071"
"1959"	"0.299"	"8.714"	"0"	"34.492"	"32.178"	"136.689"	"278.42"	"285.041"	"180.311"	"163.59"	"1.058"	"0.082"
"1960"	"1.333"	"0"	"6.508"	"0.086"	"0.825"	"110.219"	"167.729"	"84.638"	"252.973"	"97.243"	"19.804"	"39.871"
"1961"	"0.804"	"30.156"	"0"	"0.086"	"18.384"	"209.657"	"251.196"	"272.543"	"180.027"	"202.328"	"54.513"	"3.752"
"1962"	"0.436"	"13.72"	"0"	"42.148"	"15.359"	"92.465"	"210.704"	"210.344"	"316.994"	"322.343"	"119.782"	"50.891"
"1963"	"0"	"0"	"4.054"	"49.753"	"32.149"	"141.274"	"170.78"	"220.533"	"103.944"	"237.884"	"0.832"	"0.071"
"1964"	"0.023"	"0"	"0"	"5.365"	"13.448"	"93.148"	"167.191"	"165.324"	"415.268"	"72.022"	"56.456"	"0.944"
"1965"	"2.647"	"10.656"	"0.735"	"35.396"	"33.127"	"44.365"	"191.226"	"142.253"	"181.887"	"37.842"	"18.99"	"4.324"
"1966"	"3.805"	"0"	"0"	"2.602"	"11.766"	"60.851"	"260.376"	"121.851"	"116.831"	"63.826"	"180.893"	"7.713"
"1967"	"7.037"	"0"	"29.415"	"32.433"	"7.011"	"126.32"	"207.817"	"138.154"	"193.221"	"30.303"	"3.698"	"31.017"
"1968"	"4.011"	"6.174"	"1.307"	"19.825"	"20.326"	"43.654"	"137.901"	"33.395"	"206.078"	"110.117"	"237.695"	"8.933"
"1969"	"0.845"	"0"	"0.912"	"0.086"	"213.778"	"77.767"	"229.621"	"108.689"	"103.876"	"315.254"	"180.693"	"100.461"
"1970"	"3.723"	"9.418"	"13.761"	"0.861"	"107.679"	"212.322"	"175.031"	"286.225"	"179.818"	"136.933"	"0.832"	"0.071"
"1971"	"0.069"	"19.818"	"10.843"	"59.221"	"73.097"	"96.011"	"86.657"	"144.18"	"169.69"	"140.885"	"1.113"	"0.071"
"1972"	"0"	"10.115"	"0"	"10.055"	"23.69"	"138.858"	"116.217"	"74.794"	"125.191"	"286.483"	"110.825"	"5.499"
"1973"	"0"	"0.446"	"15.822"	"0.086"	"16.504"	"92.16"	"166.265"	"170.927"	"96.054"	"197.763"	"53.131"	"0.766"
"1974"	"0"	"7.972"	"0.312"	"6.652"	"22.055"	"99.247"	"108.672"	"135.518"	"201.186"	"280.223"	"85.819"	"0.319"
"1975"	"0"	"2.253"	"0.903"	"0.086"	"39.688"	"173.875"	"161.2"	"154.871"	"261.527"	"247.652"	"32.626"	"0.189"
"1976"	"0"	"0.023"	"0.115"	"3.358"	"13.551"	"48.467"	"265.142"	"210.79"	"86.046"	"72.706"	"315.547"	"0.938"
"1977"	"0.847"	"0"	"1.863"	"33.887"	"37.806"	"106.488"	"146.41"	"152.704"	"44.223"	"106.46"	"277.674"	"10.092"
"1978"	"7.065"	"5.664"	"3.223"	"15.634"	"12.676"	"234.631"	"196.703"	"361.669"	"220.654"	"85.957"	"56.651"	"11.929"
"1979"	"0.15"	"19.033"	"0.162"	"15.925"	"86.362"	"45.636"	"85.337"	"52.459"	"270.039"	"46.337"	"183.098"	"14.219"
"1980"	"2.466"	"0"	"3.499"	"7.368"	"22.271"	"222.773"	"179.058"	"202.328"	"124.202"	"94.479"	"87.081"	"15.037"
"1981"	"23.541"	"0"	"26.022"	"5.573"	"38.563"	"114.663"	"283.887"	"126.812"	"203.86"	"184.371"	"56.517"	"7.893"
"1982"	"0.707"	"0"	"0"	"21.325"	"47.042"	"95.395"	"167.74"	"173.549"	"109.413"	"177.636"	"64.938"	"0.094"
"1983"	"0.034"	"11.31"	"0.016"	"0.368"	"24.318"	"113.331"	"170.307"	"236.101"	"279.767"	"256.289"	"50.352"	"14.744"
"1984"	"8.014"	"8.582"	"6.597"	"10.909"	"34.449"	"63.905"	"154.433"	"58.582"	"141.866"	"151.293"	"23.016"	"1.592"
"1985"	"25.324"	"0"	"1.087"	"0.602"	"16.318"	"97.76"	"136.888"	"175.586"	"94.769"	"224.372"	"9.479"	"59.685"
"1986"	"24.434"	"34.561"	"0.089"	"23.765"	"40.829"	"93.254"	"125.24"	"284.96"	"37.58"	"153.522"	"136.297"	"7.41"
"1987"	"0.761"	"0"	"35.892"	"70.465"	"9.496"	"53.204"	"115.763"	"231.794"	"93.835"	"196.048"	"180.336"	"39.505"
"1988"	"0"	"3.429"	"0.07"	"15.809"	"14.894"	"64.216"	"404.286"	"286.142"	"293.123"	"26.647"	"8.514"	"51.864"
"1989"	"0.038"	"0"	"22.689"	"0.451"	"44.947"	"131.641"	"397.044"	"130.557"	"189.989"	"67.929"	"29.901"	"4.192"
"1990"	"0.274"	"53.049"	"40.294"	"2.241"	"130.682"	"129.525"	"115.461"	"204.819"	"182.177"	"175.425"	"54.529"	"5.038"
"1991"	"2.581"	"0.02"	"0.508"	"2.367"	"32.174"	"251.214"	"110.167"	"172.937"	"287.104"	"135.271"	"165.224"	"9.621"
"1992"	"1.352"	"0"	"0"	"0.933"	"11.352"	"64.037"	"113.239"	"204.353"	"220.452"	"145.6"	"163.363"	"0.378"
"1993"	"0.128"	"0"	"0.523"	"2.074"	"34.251"	"57.609"	"129.947"	"103.416"	"124.978"	"267.649"	"9.605"	"11.633"
"1994"	"11.107"	"19.133"	"3.29"	"3.172"	"11.14"	"71.406"	"332.827"	"147.669"	"93.003"	"328.69"	"311.882"	"0.627"
"1995"	"13.677"	"1.493"	"4.145"	"1.43"	"41.595"	"93.309"	"236.408"	"183.645"	"249.048"	"332.345"	"25.449"	"0.089"
"1996"	"0.258"	"4.498"	"0.299"	"11.219"	"5.836"	"301.429"	"251.269"	"156.854"	"156.741"	"300.274"	"38.317"	"25.422"
"1997"	"5.335"	"0.066"	"10.2"	"15.97"	"3.614"	"59.661"	"227.559"	"133.622"	"430.613"	"95.473"	"150.405"	"56.32"
"1998"	"10.18"	"3.308"	"0"	"23.732"	"8.687"	"86.806"	"169.949"	"175.452"	"214.221"	"260.992"	"75.982"	"0.66"
"1999"	"0.017"	"0.125"	"0"	"3.986"	"56.869"	"86.684"	"167.313"	"120.095"	"120.337"	"137.755"	"1.746"	"0.193"
"2000"	"0"	"46.558"	"0"	"6.538"	"71.185"	"311.643"	"204.947"	"381.619"	"146.151"	"75.083"	"10.344"	"0.852"
"2001"	"0.473"	"0"	"1.001"	"12.78"	"95.528"	"118.747"	"76.949"	"248.996"	"136.069"	"183.103"	"86.624"	"1.936"
"2002"	"8.494"	"0.038"	"0.761"	"3.303"	"29.231"	"92.307"	"68.653"	"220.326"	"42.08"	"210.639"	"72.623"	"0.133"
