
"Year"	"Jan"	"Feb"	"Mar"	"Apr"	"May"	"Jun"	"Jul"	"Aug"	"Sep"	"Oct"	"Nov"	"Dec"
"1901"	"18.17"	"21.179"	"25.225"	"28.752"	"28.483"	"28.754"	"28.271"	"28.206"	"28.529"	"27.815"	"23.327"	"19.637"
"1902"	"19.145"	"21.052"	"26.229"	"26.852"	"28.154"	"28.151"	"28.116"	"28.306"	"28.59"	"26.808"	"22.891"	"19.338"
"1903"	"18.304"	"20.335"	"24.915"	"28.891"	"28.942"	"27.987"	"28.576"	"27.442"	"28.228"	"27.761"	"23.601"	"19.705"
"1904"	"18.489"	"21.271"	"26.481"	"27.835"	"27.781"	"28.452"	"27.863"	"27.995"	"28.529"	"27.113"	"23.308"	"19.298"
"1905"	"18.189"	"18.624"	"23.866"	"26.096"	"28.127"	"28.611"	"28.271"	"27.991"	"28.669"	"27.413"	"23.534"	"19.863"
"1906"	"18.479"	"20.831"	"23.861"	"28.872"	"29.296"	"28.394"	"28.616"	"27.551"	"29.083"	"27.015"	"23.636"	"20.028"
"1907"	"19.949"	"20.412"	"24.253"	"26.895"	"28.266"	"28.133"	"27.963"	"28.242"	"28.429"	"27.413"	"23.502"	"19.679"
"1908"	"18.488"	"20.803"	"25.887"	"29.731"	"28.387"	"28.206"	"27.884"	"28.189"	"28.621"	"27.113"	"23.138"	"19.686"
"1909"	"19.161"	"21.047"	"26.699"	"27.098"	"28.822"	"27.673"	"28.709"	"27.497"	"28.931"	"27.77"	"24.3"	"19.836"
"1910"	"18.485"	"20.547"	"24.686"	"26.007"	"28.34"	"27.834"	"27.569"	"27.898"	"28.532"	"26.814"	"23.437"	"18.62"
"1911"	"18.857"	"20.447"	"24.421"	"26.602"	"27.992"	"27.821"	"27.872"	"27.882"	"28.256"	"27.213"	"23.395"	"18.677"
"1912"	"18.735"	"21.607"	"25.318"	"26.287"	"28.431"	"28.142"	"28.071"	"27.898"	"28.126"	"26.87"	"23.529"	"19.431"
"1913"	"19.432"	"22.531"	"25.362"	"28.971"	"27.964"	"27.672"	"28.39"	"27.697"	"28.228"	"26.714"	"22.837"	"18.674"
"1914"	"18.537"	"21.3"	"25.018"	"26.452"	"27.89"	"27.724"	"28.127"	"27.494"	"28.267"	"26.168"	"23.382"	"19.729"
"1915"	"19.793"	"20.948"	"24.715"	"28.064"	"28.055"	"27.929"	"27.382"	"28.198"	"28.228"	"28.421"	"24.915"	"20.268"
"1916"	"18.354"	"21.147"	"25.996"	"27.312"	"29.045"	"28.182"	"27.841"	"27.709"	"28.276"	"27.177"	"23.73"	"19.122"
"1917"	"18.249"	"20.635"	"24.201"	"27.224"	"27.378"	"27.637"	"27.863"	"27.697"	"27.939"	"27.213"	"23.87"	"18.999"
"1918"	"18.293"	"20.747"	"25.375"	"26.979"	"27.929"	"26.645"	"28.265"	"27.655"	"28.514"	"27.225"	"23.292"	"19.336"
"1919"	"19.686"	"20.647"	"26.444"	"27.665"	"28.584"	"28.347"	"27.835"	"28.096"	"27.595"	"27.023"	"23.61"	"19.451"
"1920"	"19.492"	"20.737"	"25.061"	"27.172"	"28.423"	"28.239"	"28.294"	"27.797"	"28.288"	"27.213"	"23.473"	"19.657"
"1921"	"20.236"	"21.124"	"25.446"	"27.614"	"28.863"	"27.733"	"28.075"	"27.804"	"28.156"	"26.018"	"23.005"	"19.713"
"1922"	"19.693"	"21.47"	"26.384"	"28.989"	"28.92"	"28.122"	"28.138"	"27.913"	"28.04"	"26.537"	"23.507"	"19.745"
"1923"	"19.732"	"20.765"	"24.833"	"28.171"	"28.387"	"28.451"	"27.846"	"27.89"	"28.508"	"26.581"	"23.614"	"19.936"
"1924"	"19.185"	"20.948"	"27.383"	"28.673"	"28.447"	"28.515"	"28.134"	"27.904"	"27.735"	"27.632"	"23.633"	"19.232"
"1925"	"17.151"	"19.801"	"25.225"	"27.257"	"28.322"	"27.893"	"27.494"	"27.898"	"27.929"	"26.081"	"22.87"	"19.151"
"1926"	"18.63"	"21.004"	"24.693"	"27.298"	"28.3"	"27.91"	"27.879"	"27.81"	"28.065"	"26.936"	"22.432"	"20.076"
"1927"	"18.254"	"20.28"	"23.725"	"28.234"	"28.003"	"28.206"	"27.963"	"27.8"	"28.017"	"27.03"	"23.014"	"19.836"
"1928"	"19.482"	"21.77"	"25.722"	"27.811"	"27.696"	"27.653"	"27.958"	"27.997"	"28.618"	"27.095"	"23.085"	"20.219"
"1929"	"19.178"	"20.179"	"25.124"	"27.549"	"28.537"	"28.141"	"27.79"	"27.894"	"28.239"	"27.012"	"22.934"	"19.261"
"1930"	"17.339"	"21.182"	"25.185"	"27.653"	"28.378"	"27.595"	"27.916"	"27.889"	"28.935"	"26.852"	"23.473"	"19.468"
"1931"	"18.153"	"20.232"	"24.778"	"28.854"	"27.064"	"28.1"	"27.57"	"28.256"	"28.369"	"28.209"	"23.563"	"20.467"
"1932"	"18.922"	"21.163"	"25.468"	"28.124"	"28.193"	"28.007"	"27.765"	"27.913"	"28.482"	"27.921"	"24.405"	"19.963"
"1933"	"17.728"	"21.087"	"26.004"	"27.968"	"28.049"	"28.33"	"28.082"	"27.824"	"28.74"	"27.525"	"22.404"	"19.249"
"1934"	"19.04"	"20.61"	"26"	"28.368"	"28.06"	"27.43"	"27.724"	"27.694"	"28.649"	"27.594"	"22.314"	"19.582"
"1935"	"18.39"	"21.278"	"25.742"	"27.739"	"30.137"	"28.29"	"27.911"	"27.453"	"28.617"	"27.622"	"23.525"	"18.691"
"1936"	"17.531"	"20.46"	"25.674"	"28.128"	"27.894"	"28.301"	"27.978"	"28.317"	"28.288"	"27.107"	"23.936"	"19.869"
"1937"	"16.935"	"20.693"	"24.949"	"28.674"	"28.664"	"28.611"	"28.329"	"27.56"	"28.418"	"27.037"	"22.4"	"19.6"
"1938"	"19.671"	"20.076"	"27.771"	"29.169"	"27.423"	"28.317"	"28.047"	"27.909"	"28.255"	"27.614"	"22.414"	"19.937"
"1939"	"19.036"	"21.708"	"25.476"	"29.493"	"28.468"	"28.188"	"27.89"	"28.225"	"28.454"	"27.221"	"24.166"	"20.235"
"1940"	"18.262"	"20.482"	"23.869"	"29.506"	"28.43"	"28.371"	"28.134"	"28.292"	"27.984"	"27.578"	"24.527"	"20.076"
"1941"	"18.614"	"21.227"	"27.387"	"28.295"	"27.649"	"27.898"	"28.178"	"28.455"	"28.47"	"26.724"	"22.485"	"21.041"
"1942"	"19.213"	"21.73"	"25.868"	"26.985"	"28.089"	"28.132"	"28.577"	"28.511"	"27.906"	"27.9"	"24.005"	"19.109"
"1943"	"19.847"	"19.678"	"24.575"	"26.207"	"29.04"	"28.235"	"27.962"	"27.604"	"28.536"	"27.422"	"23.862"	"19.264"
"1944"	"18.346"	"19.921"	"24.947"	"26.475"	"29.947"	"28.118"	"28.558"	"28.007"	"27.933"	"27.491"	"22.728"	"20.022"
"1945"	"18.208"	"20.007"	"25.815"	"27.114"	"27.617"	"27.562"	"28.043"	"27.801"	"28.739"	"26.71"	"23.421"	"19.785"
"1946"	"19.189"	"22.72"	"25.576"	"25.296"	"27.719"	"28.201"	"28.099"	"28.337"	"28.402"	"26.581"	"24.02"	"20.139"
"1947"	"19.067"	"21.27"	"26.107"	"29.059"	"28.423"	"28.582"	"27.969"	"28.23"	"28.346"	"26.413"	"23.359"	"20.528"
"1948"	"19.63"	"21.104"	"25.155"	"27.05"	"27.962"	"28.937"	"27.771"	"28.099"	"28.478"	"26.831"	"23.889"	"19.605"
"1949"	"19.285"	"21.047"	"26.001"	"25.212"	"27.248"	"28.067"	"27.963"	"27.907"	"28.228"	"28.035"	"23.165"	"18.167"
"1950"	"19.243"	"20.823"	"25.14"	"27.998"	"28.999"	"28.206"	"28.03"	"27.367"	"29.133"	"27.737"	"23.203"	"20.073"
"1951"	"18.674"	"21.654"	"25.261"	"29.891"	"28.282"	"27.845"	"27.82"	"28.582"	"28.397"	"27.594"	"24.129"	"21.371"
"1952"	"19.779"	"22.838"	"24.534"	"27.537"	"28.284"	"28.877"	"28.063"	"28.506"	"28.117"	"27.953"	"24.02"	"20.02"
"1953"	"18.31"	"22.386"	"26.783"	"28.706"	"28.196"	"28.053"	"27.948"	"28.437"	"28.448"	"27.343"	"23.462"	"21.501"
"1954"	"17.937"	"23.184"	"25.864"	"28.7"	"29.256"	"27.349"	"27.873"	"27.916"	"28.877"	"26.598"	"22.546"	"20.316"
"1955"	"18.583"	"20.72"	"25.956"	"27.233"	"28.562"	"28.411"	"27.429"	"27.391"	"28.517"	"28.158"	"24.176"	"19.42"
"1956"	"19.058"	"20.723"	"26.142"	"28.111"	"28.574"	"27.671"	"27.97"	"27.982"	"27.968"	"27.961"	"23.937"	"19.974"
"1957"	"19.262"	"20.436"	"24.387"	"28.916"	"29.365"	"28.366"	"28.108"	"28.475"	"28.526"	"26.998"	"22.958"	"20.108"
"1958"	"20.065"	"21.19"	"25.854"	"28.905"	"28.991"	"29.599"	"28.627"	"27.765"	"28.879"	"28.045"	"24.162"	"20.541"
"1959"	"19.032"	"20.443"	"25.076"	"27.937"	"28.123"	"28.356"	"27.987"	"27.831"	"27.567"	"26.706"	"22.805"	"19.953"
"1960"	"18.558"	"22.41"	"24.653"	"29.482"	"29.953"	"28.369"	"27.364"	"28.471"	"27.944"	"27.316"	"22.942"	"20.286"
"1961"	"19.877"	"19.127"	"26.668"	"28.725"	"28.884"	"28.224"	"28.483"	"28.365"	"28.58"	"27.566"	"22.756"	"18.138"
"1962"	"17.745"	"21.52"	"25.6"	"28.491"	"28.232"	"27.949"	"28.572"	"27.372"	"29.013"	"27.129"	"22.844"	"19.371"
"1963"	"18.369"	"22.999"	"25.496"	"27.452"	"27.697"	"28.098"	"27.852"	"28.148"	"28.748"	"27.082"	"23.251"	"19.896"
"1964"	"18.454"	"21.708"	"26.779"	"27.119"	"28.34"	"28.087"	"27.466"	"28.329"	"28.583"	"27.8"	"24.689"	"20.271"
"1965"	"19.036"	"20.911"	"24.538"	"28.171"	"28.835"	"27.898"	"27.535"	"27.147"	"28.27"	"27.411"	"23.945"	"20.835"
"1966"	"19.473"	"23.038"	"26.048"	"29.187"	"29.245"	"27.499"	"28.288"	"27.688"	"28.166"	"26.187"	"24.382"	"19.534"
"1967"	"19.124"	"22.61"	"24.845"	"26.955"	"28.826"	"28.605"	"28.296"	"28.309"	"27.805"	"26.747"	"22.076"	"19.984"
"1968"	"18.611"	"20.351"	"25.787"	"27.556"	"28.132"	"27.41"	"28.088"	"28.042"	"28.431"	"27.18"	"23.647"	"19.731"
"1969"	"18.286"	"20.722"	"26.055"	"27.723"	"29.123"	"27.232"	"28.023"	"26.923"	"28.165"	"27.097"	"23.177"	"19.807"
"1970"	"18.418"	"21.691"	"25.409"	"28.531"	"29.08"	"28.669"	"27.774"	"28.099"	"28.341"	"26.7"	"23.462"	"19.696"
"1971"	"18.827"	"20.173"	"25.084"	"25.848"	"28.873"	"27.898"	"27.369"	"27.246"	"27.972"	"27.097"	"22.464"	"19.046"
"1972"	"18.781"	"18.862"	"25.643"	"27.55"	"29.009"	"28.133"	"28.313"	"27.738"	"28.501"	"27.378"	"23.676"	"20.303"
"1973"	"19.355"	"22.091"	"24.526"	"28.412"	"27.037"	"27.812"	"28.11"	"27.913"	"27.99"	"27.572"	"23.445"	"19.079"
"1974"	"18.215"	"20.598"	"25.608"	"27.45"	"27.827"	"27.671"	"26.64"	"27.699"	"27.547"	"28.047"	"24.886"	"18.461"
"1975"	"18.296"	"21.907"	"26.079"	"28.525"	"28.535"	"28.693"	"27.32"	"28.09"	"27.74"	"27.861"	"22.837"	"18.881"
"1976"	"18.463"	"22.063"	"25.968"	"28.012"	"28.013"	"26.783"	"27.495"	"27.331"	"28.154"	"26.757"	"24.65"	"19.34"
"1977"	"17.989"	"20.442"	"27.026"	"25.123"	"26.545"	"27.245"	"28.272"	"28.051"	"28.49"	"26.232"	"24.546"	"19.855"
"1978"	"17.226"	"20.795"	"24.817"	"27.819"	"27.164"	"27.41"	"28.04"	"28.977"	"28.044"	"28.122"	"24.708"	"20.2"
"1979"	"19.697"	"21.263"	"25.804"	"28.847"	"30.361"	"28.151"	"28.315"	"28.06"	"27.955"	"27.058"	"24.993"	"20.608"
"1980"	"18.709"	"21.155"	"25.764"	"29.14"	"26.953"	"28.252"	"28.451"	"28.155"	"28.387"	"26.697"	"23.813"	"21.009"
"1981"	"19.146"	"21.129"	"24.509"	"25.943"	"27.428"	"28.896"	"27.653"	"28.037"	"28.461"	"27.791"	"24.4"	"20.103"
"1982"	"19.538"	"21.34"	"24.688"	"26.942"	"29.353"	"27.907"	"28.418"	"28.186"	"28.537"	"28.104"	"23.135"	"19.59"
"1983"	"19.378"	"20.724"	"25.493"	"27.326"	"27.779"	"28.53"	"28.567"	"28.022"	"28.802"	"27.722"	"24.845"	"19.705"
"1984"	"18.273"	"20.761"	"27.111"	"28.757"	"27.266"	"28.372"	"27.799"	"28.295"	"27.728"	"28.024"	"23.942"	"19.726"
"1985"	"19.214"	"21.247"	"26.127"	"27.988"	"28.277"	"28.182"	"27.306"	"28.242"	"28.223"	"27.783"	"23.615"	"21.665"
"1986"	"19.243"	"21.813"	"26.694"	"26.824"	"28.052"	"29.016"	"28.007"	"28.453"	"27.702"	"26.567"	"24.276"	"20.721"
"1987"	"20.271"	"22.488"	"25.473"	"27.519"	"28.891"	"29.593"	"27.856"	"28.087"	"28.88"	"27.498"	"24.832"	"20.679"
"1988"	"20.147"	"22.821"	"25.329"	"28.824"	"28.158"	"28.226"	"28.291"	"28.002"	"28.628"	"27.698"	"24.796"	"21.413"
"1989"	"17.471"	"21.363"	"25.631"	"29.268"	"29.727"	"28.663"	"28.034"	"28.728"	"28.292"	"27.525"	"23.587"	"19.424"
"1990"	"19.738"	"22.064"	"23.546"	"26.934"	"29.017"	"28.906"	"27.727"	"28.29"	"28.677"	"26.481"	"25.74"	"21.271"
"1991"	"17.831"	"22.786"	"26.22"	"27.929"	"26.757"	"28.207"	"29.026"	"28.589"	"27.991"	"27.532"	"22.903"	"19.736"
"1992"	"18.522"	"19.965"	"26.969"	"29.192"	"28.035"	"29.137"	"27.765"	"29.141"	"28.872"	"27.318"	"23.957"	"19.36"
"1993"	"18.096"	"21.828"	"24.13"	"26.798"	"26.89"	"28.179"	"27.848"	"28.027"	"28.459"	"27.466"	"24.227"	"20.96"
"1994"	"19.403"	"20.173"	"25.632"	"27.473"	"29.225"	"28.58"	"29.022"	"28.542"	"29.216"	"27.421"	"24.128"	"20.001"
"1995"	"18.289"	"20.751"	"25.463"	"29.062"	"29.973"	"28.807"	"28.166"	"28.088"	"28.622"	"28.101"	"24.27"	"19.579"
"1996"	"18.503"	"21.312"	"26.229"	"28.02"	"28.961"	"28.242"	"28.315"	"27.983"	"29.33"	"27.077"	"24.036"	"20.19"
"1997"	"18.874"	"20.387"	"26.026"	"26.498"	"28.991"	"28.845"	"28.233"	"28.896"	"28.576"	"27.387"	"24.78"	"20.585"
"1998"	"18.653"	"21.761"	"23.977"	"28.733"	"29.369"	"29.488"	"28.755"	"28.46"	"29.277"	"28.617"	"25.361"	"21.694"
"1999"	"20.253"	"23.973"	"26.898"	"29.992"	"28.387"	"29.05"	"28.56"	"27.997"	"28.438"	"28.257"	"24.706"	"21.417"
"2000"	"18.306"	"21.178"	"24.411"	"27.85"	"28.019"	"28.454"	"28.819"	"27.856"	"28.039"	"27.319"	"24.252"	"20.329"
"2001"	"19.086"	"22.438"	"25.94"	"28.658"	"28.7"	"28.394"	"28.689"	"28.698"	"29.651"	"28.014"	"24.657"	"20.577"
"2002"	"19.662"	"22.791"	"26.486"	"27.964"	"28.589"	"28.141"	"28.68"	"28.189"	"28.288"	"27.53"	"24.293"	"20.853"
