
"Year"	"Jan"	"Feb"	"Mar"	"Apr"	"May"	"Jun"	"Jul"	"Aug"	"Sep"	"Oct"	"Nov"	"Dec"
"1901"	"22.819"	"13.322"	"45.207"	"146.253"	"152.774"	"402.794"	"302.101"	"304.828"	"250.651"	"167.761"	"140.359"	"2.567"
"1902"	"9.773"	"16.108"	"34.397"	"173.559"	"204.885"	"432.467"	"507.458"	"377.587"	"377.06"	"62.093"	"12.841"	"1.419"
"1903"	"18.054"	"20.46"	"72.275"	"118.212"	"158.661"	"493.227"	"286.578"	"471.221"	"164.093"	"129.253"	"75.747"	"2.127"
"1904"	"19.058"	"46.843"	"77.977"	"290.771"	"210.539"	"215.619"	"290.64"	"415.971"	"153.341"	"55.035"	"54.923"	"2.016"
"1905"	"18.413"	"13.526"	"184.768"	"104.235"	"180.759"	"282.494"	"368.031"	"479.18"	"152.62"	"168.237"	"39.525"	"18.61"
"1906"	"13.428"	"61.235"	"69.625"	"248.95"	"128.532"	"324.847"	"401.933"	"444.249"	"156.724"	"86.425"	"38.243"	"0"
"1907"	"15.464"	"55.723"	"85.764"	"163.894"	"121.429"	"380.084"	"437.413"	"258.198"	"237.087"	"37.437"	"4.475"	"5.711"
"1908"	"13.963"	"23.338"	"21.732"	"178.739"	"226.904"	"518.845"	"492.362"	"180.473"	"286.314"	"96.783"	"7.642"	"1.662"
"1909"	"34.762"	"10.293"	"6.839"	"125.176"	"286.104"	"529.099"	"285.627"	"415.265"	"115.065"	"89.995"	"18.897"	"2.925"
"1910"	"9.315"	"34.686"	"121.172"	"121.024"	"159.045"	"662.568"	"451.196"	"354.527"	"134.575"	"230.588"	"34.643"	"15.393"
"1911"	"33.626"	"25.852"	"51.627"	"181.894"	"365.261"	"494.294"	"383.36"	"342.646"	"237.824"	"320.498"	"41.827"	"3.24"
"1912"	"10.957"	"55.603"	"55.818"	"108.412"	"134.054"	"308.098"	"394.071"	"314.111"	"237.395"	"213.401"	"78.193"	"16.385"
"1913"	"11.669"	"60.065"	"58.85"	"221.653"	"323.064"	"348.855"	"279.187"	"310.404"	"171.999"	"225.029"	"13.019"	"20.636"
"1914"	"1.86"	"49.047"	"61.582"	"92.306"	"192.472"	"372.554"	"348.719"	"452.65"	"129.202"	"77.081"	"7.271"	"16.548"
"1915"	"7.214"	"39.971"	"80.717"	"94.405"	"422.446"	"343.803"	"542.89"	"418.904"	"192.04"	"137.246"	"16.268"	"2.177"
"1916"	"11.005"	"17.564"	"83.188"	"162.102"	"367.174"	"330.478"	"352.913"	"326.536"	"189.909"	"230.441"	"83.517"	"8.371"
"1917"	"4.55"	"82.725"	"30.859"	"123.147"	"204.83"	"452.148"	"392.801"	"286.949"	"156.277"	"137.897"	"96.894"	"0"
"1918"	"6.552"	"7.265"	"87.389"	"81.916"	"221.142"	"601.262"	"410.164"	"399.863"	"247.529"	"88.834"	"1.772"	"0.366"
"1919"	"10.23"	"12.352"	"7.069"	"76.406"	"237.947"	"372.048"	"426.889"	"202.335"	"277.558"	"260.754"	"55.747"	"3.041"
"1920"	"3.875"	"31.93"	"143.229"	"79.54"	"212.695"	"348.442"	"267.921"	"426.858"	"239.052"	"70.487"	"0.882"	"3.659"
"1921"	"31.844"	"13.067"	"87.327"	"131.737"	"391.108"	"405.83"	"406.798"	"381.333"	"278.314"	"156.433"	"12.065"	"5.968"
"1922"	"12.262"	"3.674"	"52.393"	"167.25"	"148.718"	"415.871"	"417.305"	"338.456"	"145.307"	"205.218"	"22.022"	"6.751"
"1923"	"0.383"	"71.288"	"8.04"	"131.364"	"282.551"	"455.871"	"396.812"	"241.215"	"207.793"	"50.599"	"7.472"	"4.628"
"1924"	"7.782"	"18.783"	"24.049"	"126.266"	"222.599"	"446.925"	"543.762"	"420.47"	"261.248"	"125.892"	"114.916"	"0.299"
"1925"	"20.196"	"32.722"	"62.068"	"147.941"	"359.498"	"263.55"	"377.085"	"323.436"	"230.619"	"88.893"	"10.42"	"2.125"
"1926"	"20.251"	"25.033"	"71.737"	"82.216"	"175.217"	"428.098"	"507.048"	"238.676"	"160.506"	"203.678"	"40.323"	"15.184"
"1927"	"28.519"	"40.65"	"70.656"	"197.821"	"160.617"	"388.459"	"363.031"	"259.201"	"482.115"	"294.017"	"26.646"	"0"
"1928"	"4.976"	"20.281"	"64.274"	"59.4"	"276.301"	"374.857"	"429.282"	"319.177"	"289.848"	"275.317"	"22.088"	"1.829"
"1929"	"12.364"	"6.12"	"35.983"	"163.59"	"498.028"	"419.9"	"301.926"	"261.077"	"198.854"	"90.084"	"52.185"	"3.296"
"1930"	"14.217"	"17.957"	"47.669"	"158.17"	"117.137"	"486.446"	"168.778"	"382.045"	"335.875"	"251.852"	"128.485"	"4.409"
"1931"	"5.676"	"36.673"	"27.617"	"252.203"	"215.446"	"588.188"	"502.447"	"193.163"	"189.237"	"109.414"	"21.401"	"24.762"
"1932"	"13.87"	"25.066"	"36.838"	"76.438"	"438.29"	"459.591"	"336.337"	"471.64"	"194.802"	"80.109"	"126.537"	"10.249"
"1933"	"6.84"	"18.988"	"25.205"	"128.753"	"211.624"	"419.282"	"321.397"	"370.268"	"129.447"	"61.555"	"6.644"	"1.858"
"1934"	"17.632"	"57.487"	"18.092"	"176.348"	"253.279"	"605.825"	"447.471"	"251.62"	"210.202"	"231.724"	"50.128"	"4.689"
"1935"	"4.32"	"30.134"	"42.977"	"68.836"	"205.587"	"545.813"	"300.841"	"531.545"	"242.333"	"38.85"	"18.432"	"1.669"
"1936"	"19.003"	"51.405"	"37.427"	"123.384"	"246.308"	"355.334"	"384.576"	"260.835"	"259.47"	"171.947"	"24.356"	"17.268"
"1937"	"5.628"	"32.052"	"31.907"	"79.832"	"245.895"	"290.681"	"303.229"	"446.197"	"150.498"	"63.871"	"5.614"	"5.672"
"1938"	"37.327"	"22.197"	"76.019"	"108.095"	"198.398"	"522.53"	"408.316"	"424.39"	"341.139"	"186.22"	"84.04"	"3.53"
"1939"	"4.293"	"34.568"	"22.008"	"125.954"	"221.567"	"507.958"	"372.509"	"213.933"	"276.003"	"126.547"	"6.749"	"1.643"
"1940"	"1.954"	"50.086"	"168.538"	"36.151"	"271.4"	"390.599"	"293.328"	"214.21"	"270.905"	"102.103"	"14.667"	"24.915"
"1941"	"10.006"	"35.641"	"80.586"	"78.158"	"314.03"	"426.613"	"284.473"	"307.955"	"335.533"	"84.628"	"5.236"	"8.694"
"1942"	"11.297"	"20.539"	"109.538"	"112.041"	"352.815"	"537.163"	"254.786"	"299.963"	"266.124"	"12.301"	"15.261"	"0.048"
"1943"	"27.115"	"40.122"	"98.037"	"93.584"	"316.72"	"371.996"	"306.494"	"385.162"	"274.765"	"106.622"	"8.878"	"3.427"
"1944"	"26.671"	"22.414"	"43.489"	"67.446"	"347.275"	"435.512"	"317.709"	"275.433"	"272.407"	"146.457"	"19.42"	"23.068"
"1945"	"24.528"	"31.011"	"70.413"	"81.757"	"224.406"	"479.52"	"459.851"	"338.951"	"191.553"	"174.076"	"0.341"	"12.655"
"1946"	"1.601"	"19.462"	"50.014"	"81.337"	"178.267"	"458.937"	"414.287"	"332.438"	"206.584"	"234.196"	"7.889"	"0.384"
"1947"	"10.192"	"13.783"	"43.419"	"201.007"	"216.576"	"349.228"	"488.15"	"355.551"	"457.6"	"355.175"	"12.251"	"22.577"
"1948"	"11.525"	"53.02"	"54.013"	"217.373"	"475.723"	"396.31"	"560.119"	"320.677"	"147.626"	"136.208"	"24.834"	"5.727"
"1949"	"28.399"	"13.771"	"115.072"	"203.621"	"255.279"	"451.948"	"395.588"	"316.332"	"330.141"	"182.612"	"26.467"	"11.641"
"1950"	"9.893"	"49.794"	"66.098"	"82.948"	"182.902"	"461.339"	"329.725"	"367.022"	"226.748"	"217.058"	"53.362"	"6.458"
"1951"	"6.051"	"5.951"	"63.958"	"162.981"	"191.161"	"587.265"	"487.727"	"288.51"	"234.931"	"203.668"	"62.993"	"26.95"
"1952"	"16.084"	"4.111"	"75.46"	"203.661"	"202.235"	"487.047"	"431.249"	"382.937"	"430.901"	"232.948"	"70"	"1.624"
"1953"	"11.088"	"16.41"	"115.241"	"71.204"	"309.757"	"540.858"	"480.04"	"265.862"	"260.599"	"200.753"	"6.058"	"1.907"
"1954"	"15.669"	"68.725"	"61.029"	"157.228"	"274.507"	"595.006"	"406.576"	"370.917"	"291.884"	"202.212"	"1.061"	"21.038"
"1955"	"4.152"	"16.903"	"136.555"	"64.264"	"236.693"	"368.076"	"637.933"	"298.021"	"175.019"	"136.303"	"53.138"	"5.7"
"1956"	"28.186"	"4.492"	"126.972"	"103.777"	"300.993"	"508.911"	"294.196"	"253.817"	"207.811"	"151.599"	"60.7"	"5.209"
"1957"	"38.927"	"56.008"	"24.087"	"108.472"	"266.443"	"478.387"	"370.569"	"373.849"	"253.017"	"75.383"	"28.545"	"11.7"
"1958"	"10.627"	"66.964"	"27.894"	"83.752"	"410.648"	"299.224"	"421.406"	"523.088"	"220.132"	"271.151"	"1.56"	"8.293"
"1959"	"26.596"	"63.515"	"128.501"	"113.26"	"406.078"	"512.13"	"327.173"	"311.454"	"196.305"	"228.712"	"20.534"	"11.081"
"1960"	"0.141"	"9.619"	"31.42"	"59.084"	"211.652"	"368.137"	"532.004"	"324.926"	"260.209"	"55.363"	"28.221"	"8.711"
"1961"	"10.146"	"16.165"	"113.683"	"139.929"	"217.234"	"355.66"	"367.09"	"349.978"	"187.897"	"177.083"	"25.94"	"7.169"
"1962"	"20.268"	"30.254"	"14.15"	"74.199"	"183.481"	"397.878"	"300.545"	"383.129"	"90.383"	"110.398"	"14.183"	"6.725"
"1963"	"2.068"	"11.573"	"51.196"	"138.43"	"173.406"	"378.564"	"377.102"	"295.356"	"159.513"	"118.928"	"21.253"	"3.975"
"1964"	"27.643"	"40.032"	"85.763"	"152.527"	"160.949"	"493.844"	"563.746"	"323.56"	"267.049"	"247.661"	"12.505"	"19.062"
"1965"	"3.665"	"32.085"	"36.527"	"83.876"	"97.342"	"518.445"	"425.503"	"449.353"	"249.717"	"65.351"	"125.975"	"25.404"
"1966"	"13.241"	"10.355"	"30.629"	"81.839"	"200.994"	"581.565"	"359.607"	"466.374"	"265.14"	"139.732"	"42.117"	"32.681"
"1967"	"37.813"	"10.421"	"102.341"	"94.167"	"150.419"	"308.271"	"304.747"	"249.684"	"278.566"	"84.857"	"13.645"	"1.771"
"1968"	"22.91"	"26.76"	"60.855"	"137.914"	"335.524"	"330.724"	"499.572"	"416.395"	"246.712"	"70.294"	"10.054"	"0.173"
"1969"	"24.252"	"1.449"	"93.721"	"138.921"	"196.401"	"426.438"	"456.63"	"433.386"	"173.71"	"64.855"	"19.666"	"2.085"
"1970"	"34.882"	"35.372"	"106.958"	"136.887"	"337.306"	"238.733"	"442.113"	"329.501"	"182.539"	"182.478"	"30.54"	"1.731"
"1971"	"18.749"	"19.796"	"12.949"	"87.343"	"145.204"	"292.644"	"382.997"	"315.892"	"189.2"	"258.959"	"67.077"	"12.777"
"1972"	"17.604"	"39.939"	"57.975"	"170.817"	"209.46"	"310.404"	"360.599"	"240.133"	"82.872"	"47.102"	"3.981"	"5.395"
"1973"	"19.459"	"32.286"	"39.395"	"153.045"	"255.308"	"621.643"	"251.9"	"264.265"	"274.14"	"114.777"	"76.513"	"10.943"
"1974"	"19.759"	"8.931"	"86.434"	"210.919"	"167.101"	"393.367"	"583.441"	"309.96"	"313.778"	"167.499"	"36.128"	"1.796"
"1975"	"6.867"	"40.014"	"32.865"	"100.781"	"239.164"	"264.126"	"382.885"	"342.199"	"190.288"	"130.839"	"54.717"	"7.671"
"1976"	"2.708"	"37.385"	"100.126"	"116.57"	"155.23"	"474.298"	"517.749"	"273.203"	"65.938"	"56.509"	"24.815"	"3.071"
"1977"	"8.008"	"66.487"	"53.519"	"282.946"	"243.226"	"436.794"	"440.203"	"358.059"	"155.167"	"142.474"	"39.738"	"28.093"
"1978"	"2.88"	"18.404"	"28.149"	"90.919"	"218.044"	"403.061"	"356.134"	"142.32"	"173.628"	"66.513"	"60.407"	"0.437"
"1979"	"10.611"	"7.207"	"38.329"	"35.62"	"111.27"	"237.452"	"328.418"	"311.66"	"266.483"	"212.751"	"20.6"	"36.639"
"1980"	"6.523"	"28.094"	"100.533"	"176.058"	"217.738"	"254.419"	"405.609"	"411.879"	"221.435"	"167.159"	"0.341"	"2.182"
"1981"	"24.011"	"28.887"	"113.853"	"199.093"	"270.204"	"385.76"	"450.383"	"363.361"	"186.759"	"58.784"	"6.214"	"41.354"
"1982"	"0.841"	"34.984"	"34.376"	"197.779"	"144.059"	"405.894"	"272.471"	"381.545"	"206.271"	"17.902"	"83.327"	"16.118"
"1983"	"24.6"	"64.747"	"82.807"	"115.448"	"203.746"	"362.029"	"489.494"	"339.226"	"299.824"	"134.288"	"15.681"	"37.165"
"1984"	"15.192"	"8.385"	"31.013"	"157.707"	"347.147"	"372.293"	"395.211"	"277.498"	"325.377"	"145.647"	"0.701"	"26.832"
"1985"	"7.386"	"13.314"	"113.56"	"183.796"	"115.773"	"453.716"	"353.054"	"272.146"	"203.538"	"61.874"	"11.59"	"6.791"
"1986"	"7.207"	"12.48"	"30.313"	"189.079"	"60.892"	"199.523"	"392.762"	"251.34"	"271.596"	"176.872"	"61.369"	"3.647"
"1987"	"2.184"	"17.276"	"91.559"	"161.499"	"149.801"	"212.296"	"410.775"	"288.949"	"328.643"	"83.096"	"26.378"	"24.07"
"1988"	"5.465"	"22.454"	"76.915"	"86.603"	"352.381"	"268.974"	"477.062"	"478.121"	"237.972"	"217.415"	"36.87"	"5.971"
"1989"	"5.147"	"44.23"	"33.489"	"99.748"	"161.713"	"334.94"	"378.184"	"208.631"	"265.625"	"266.254"	"22.555"	"8.255"
"1990"	"6.985"	"48.386"	"92.483"	"182.455"	"174.6"	"457.965"	"424.077"	"188.658"	"400.237"	"90.74"	"14.953"	"7.656"
"1991"	"14.159"	"14.594"	"65.792"	"82.021"	"373.642"	"324.016"	"327.463"	"340.525"	"273.952"	"303.921"	"27.783"	"34.845"
"1992"	"15.41"	"60.89"	"68.987"	"113.404"	"191.329"	"324.295"	"464.707"	"423.843"	"245.886"	"142.299"	"9.243"	"17.417"
"1993"	"39.769"	"85.056"	"79.808"	"69.08"	"264.246"	"504.455"	"412.549"	"416.63"	"327.208"	"76.695"	"1.454"	"0"
"1994"	"16.001"	"47.152"	"128.123"	"117.925"	"178.298"	"383.73"	"248.451"	"355.674"	"197.277"	"114.22"	"23.532"	"3.975"
"1995"	"15.964"	"35.874"	"44.969"	"67.693"	"219.461"	"403.137"	"390.458"	"230.81"	"302.516"	"57.473"	"99.43"	"4.939"
"1996"	"7.807"	"25.259"	"129.832"	"119.103"	"422.059"	"202.384"	"459.206"	"284.859"	"131.372"	"115.885"	"6.429"	"2.026"
"1997"	"8.057"	"23.539"	"64.16"	"68.131"	"166.145"	"325.094"	"373.834"	"250.733"	"295.242"	"36.724"	"14.971"	"35.095"
"1998"	"16.849"	"62.789"	"123.829"	"83.297"	"295.846"	"281.017"	"424.998"	"334.095"	"112.424"	"65.235"	"79.856"	"0"
"1999"	"0.383"	"2.029"	"19.201"	"99.779"	"276.385"	"259.011"	"435.064"	"349.061"	"157.754"	"165.481"	"28.022"	"2.912"
"2000"	"23.396"	"21.644"	"69.736"	"192.973"	"287.222"	"192.591"	"305.8"	"413.524"	"232.52"	"72.676"	"6.489"	"2.66"
"2001"	"1.655"	"19.868"	"55.806"	"141.944"	"261.99"	"341.16"	"372.477"	"370.018"	"240.807"	"175.257"	"27.986"	"1.118"
"2002"	"35.126"	"6.529"	"61.643"	"215.691"	"257.948"	"418.249"	"461.37"	"280.315"	"189.932"	"56.129"	"33.249"	"2.441"
