Crop,Best Temp (°C),Best rainfall during growing period (mm),Best Soil type,Best ph,Best soil depth(cm)
Rice,30 - 34,1110 - 1250,Alluvial,5.5 - .5,>75
Wheat,20-25,,,6.5-7.5,65-100
Sorghum,26-30,"650-850,>850",,6 to 8,100-75
Maize,21-32,900-1000,Alluvial,5.5-7.5,>75
Bajra(Pearl millet),28-32,500-750,,6 to 8,>75
Ragi(Finger Millet),28 - 34,750-900,,5.5-7.5,>75
Minor millets,28 - 34,,, to 8,>75
Pigeon pea,25-28,800-1000,,6 - 7.5,>100
Gram,20-25,800-1000,Alluvial,6 - 7.5,>75
Field bean,20 - 35,750-900,,6 - 8.5,>75
Cluster bean,24 - 33,750-1000,any type,6 to 8,>75
Groundnut,24 - 30,700-1000,"black cotton soil, gravelly red soil",6 to 8,>75
Raspesed and mustard,20 - 26,,,6.5 - 7.5,>100
Sunflower,24 - 30,600-700,any type,6.5-8,>100
Soybean,25-28,600-750,,6.5-7.5,>75
Castor,26-32,600-750,,6.5-7.5,>75
Sesamum,30-34,500-600,any type,5.5-7.5,>75
Cotton,20-30,700-1000,wide range from heavy vertisols to ssandy loams. Alluvium to red and lateritic soils.,6.5-7.5,100-150
Jute,25-35,2500(well distributed)(annual),,6.4 to 7.4,>150
Sugarcane,30-34,,,7 to 8,>100
Potato,16-25,,,5.5-6.5,75-100
Chilli,25-32,750-900,well drained black soils.,6 to 7,>75
Tobacco,26-30,800-1200,,5.5-6.5,100
Tea,18-25,1800-2000,red soil,4.5-5,>150
Coffee (Arabica),20-24,>1100,,5 to 7,>100
Coffee (Robusta),22-32,>1250,,5 to 7,>100
Coconut,26-29,1500-2500,"laterite soil, red soil, alluvial soil, medium black soil, coral soil.",5.1-6.5,>100
Arecanut,25-30,>1500,,5-6.5,>100
Rubber,25-30,>1350,"laterite and lateritic types, red, alluvial",4.5-5.5,>100
Cashew,25-30,1500-2000,,6.3-7.3,>150
Oil palm,28-33,2000-2800,loose alluvial loam,5 to 6.5,>100
Mango,28-32,,all types,5.5-7.5,>200
Grapes,25-30,,,6.5-7.5,100-150
Citrus,28-30,1200-1800,,6.5-7.5,>150
Banana,26-33,2500,,6.5-7,>125
Sapota,28-32,,"deep alluvium, sandy loam, red laterite, medium black soil.",6-7.5,>150
Guava,28-32,1000 (annual),alluvial to lateritic,6-7.5,>100
Pomogranate,30-34,,gravelly red soil,5.5-7.5,>100
Ashwagandha,28-32,600-750,light red soil,6 to 8,>75
Macuna,26-30,600-750,,6.5-7.5,>75
Davana,24-28,,,7 to 8,>75
Lemongrass,26-30,1750-2000,,6.5-7.5,>75
Vanilla,21-32,1200-3000,sandy loam to laterite,5.2 - 6,
Pepper,28-35,2000-3000,virgin red and lateritic soil rich  in humus or alluvial soil rich in humus.,,>100
Ginger,28-32,>3000,"lateritic soil, black rich clay soil.",6.8-7.5,>75
Turmeric,28-32,500-1000,"alluvial, friable, soils",5.8-7,>75
Cardamom,15-25,,,5.2-6,>80




        RULE 2: IF (temp IS 26to30) AND (rain IS 650to850) AND (ph IS 6to8) AND (depth IS 100to175) THEN (crop IS Sorghum);
        RULE 3: IF (temp IS 21to32) AND (rain IS 900to1000) AND (soil IS alluvial) AND (ph IS 5.5to7.5) AND (depth IS 75to) THEN (crop IS Maize);
        RULE 4: IF (temp IS 28to32) AND (rain IS 500to750) AND (ph IS 6to8) AND (depth IS 75to) THEN (crop IS Bajra_Pearlmillet);
        RULE 5: IF (temp IS 28to34) AND (rain IS 750to900) AND (ph IS 5.5to7.5) AND (depth IS 75to) THEN (crop IS Ragi_FingerMillet);
        RULE 6: IF (temp IS 28to34) AND (ph IS 6to8) AND (depth IS 75to) THEN (crop IS Minormillets);
        RULE 7: IF (temp IS 25to28) AND (rain IS 800to1000) AND (ph IS 6to7.5) AND (depth IS 100to) THEN (crop IS Pigeonpea);
        RULE 8: IF (temp IS 20to25) AND (rain IS 800to1000) AND (soil IS alluvial) AND (ph IS 6to7.5) AND (depth IS 75to) THEN (crop IS Gram);
        RULE 9: IF (temp IS 20to35) AND (rain IS 750to900) AND (ph IS 6to8.5) AND (depth IS 75to) THEN (crop IS Fieldbean);
        RULE 10: IF (temp IS 24to33) AND (rain IS 750to1000) AND (ph IS 6to8) AND (depth IS 75to) THEN (crop IS Clusterbean);
        RULE 11: IF (temp IS 24to30) AND (rain IS 700to1000) AND (soil IS black) AND (ph IS 6to8) AND (depth IS 75to) THEN (crop IS Groundnut);
        RULE 12: IF (temp IS 20to26) AND (ph IS 6.5to7.5) AND (depth IS 100to) THEN (crop IS Raspesedandmustard);
        RULE 13: IF (temp IS 24to30) AND (rain IS 600to700) AND (ph IS 6.5to8) AND (depth IS 100to) THEN (crop IS Sunflower);
        RULE 14: IF (temp IS 25to28) AND (rain IS 600to750) AND (ph IS 6.5to7.5) AND (depth IS 75to) THEN (crop IS Soybean);
        RULE 15: IF (temp IS 26to32) AND (rain IS 600to750) AND (ph IS 6.5to7.5) AND (depth IS 75to) THEN (crop IS Castor);
        RULE 16: IF (temp IS 30to34) AND (rain IS 500to600) AND (ph IS 5.5to7.5) AND (depth IS 75to) THEN (crop IS Sesamum);
        RULE 17: IF (temp IS 20to30) AND (rain IS 700to1000) AND (ph IS 6.5to7.5) AND (depth IS 100to150) THEN (crop IS Cotton);
        RULE 18: IF (temp IS 25to35) AND (rain IS 2500) AND (ph IS 6.4to7.4) AND (depth IS 150to) THEN (crop IS Jute);
        RULE 19: IF (temp IS 30to34) AND (ph IS 7to8) AND (depth IS 100to) THEN (crop IS Sugarcane);
        RULE 20: IF (temp IS 16to25) AND (ph IS 5.5to6.5) AND (depth IS 75to100) THEN (crop IS Potato);
        RULE 21: IF (temp IS 25to32) AND (rain IS 750to900) AND (soil IS black) AND (ph IS 6to7) AND (depth IS 75to) THEN (crop IS Chilli);
        RULE 22: IF (temp IS 26to30) AND (rain IS 800to1200) AND (ph IS 5.5to6.5) AND (depth IS 100to) THEN (crop IS Tobacco);
        RULE 23: IF (temp IS 18to25) AND (rain IS 1800to2000) AND (soil IS red) AND (ph IS 4.5to5) AND (depth IS 150to) THEN (crop IS Tea);
        RULE 24: IF (temp IS 20to24) AND (rain IS 1100to) AND (ph IS 5to7) AND (depth IS 100to) THEN (crop IS Coffee_Arabica);
        RULE 25: IF (temp IS 22to32) AND (rain IS 1250to) AND (ph IS 5to7) AND (depth IS 100to) THEN (crop IS Coffee_Robusta);
        RULE 26: IF (temp IS 26to29) AND (rain IS 1500to2500) AND (ph IS 5.1to6.5) AND (depth IS 100to) THEN (crop IS Coconut);
        RULE 27: IF (temp IS 25to30) AND (rain IS 1500to) AND (ph IS 5to6.5) AND (depth IS 100to) THEN (crop IS Arecanut);
        RULE 28: IF (temp IS 25to30) AND (rain IS 1350to) AND (soil IS laterite) AND (ph IS 4.5to5.5) AND (depth IS 100to) THEN (crop IS Rubber);
        RULE 29: IF (temp IS 25to30) AND (rain IS 1500to2000) AND (ph IS 6.3to7.3) AND (depth IS 150to) THEN (crop IS Cashew);
        RULE 30: IF (temp IS 28to33) AND (rain IS 2000to2800) AND (soil IS alluvial) AND (ph IS 5to6.5) AND (depth IS 100to) THEN (crop IS Oilpalm);
        RULE 31: IF (temp IS 28to32) AND (ph IS 5.5to7.5) AND (depth IS 200to) THEN (crop IS Mango);
        RULE 32: IF (temp IS 25to30) AND (ph IS 6.5to7.5) AND (depth IS 100to150) THEN (crop IS Grapes);
        RULE 33: IF (temp IS 28to30) AND (rain IS 1200to1800) AND (ph IS 6.5to7.5) AND (depth IS 150to) THEN (crop IS Citrus);
        RULE 34: IF (temp IS 26to33) AND (ph IS 6.5to7) AND (depth IS 125to) THEN (crop IS Banana);
        RULE 35: IF (temp IS 28to32) AND (ph IS 6to7.5) AND (depth IS 150to) THEN (crop IS Sapota);
        RULE 36: IF (temp IS 28to32) AND (rain IS 1000) AND (ph IS 6to7.5) AND (depth IS 100to) THEN (crop IS Guava);
        RULE 37: IF (temp IS 30to34) AND (soil IS red) AND (ph IS 5.5to7.5) AND (depth IS 100to) THEN (crop IS Pomogranate);
        RULE 38: IF (temp IS 28to32) AND (rain IS 600to750) AND (soil IS red) AND (ph IS 6to8) AND (depth IS 75to) THEN (crop IS Ashwagandha);
        RULE 39: IF (temp IS 26to30) AND (rain IS 600to750 AND (ph IS 6.5to7.5) AND (depth IS 75to) THEN (crop IS Macuna);
        RULE 40: IF (temp IS 24to28) AND (ph IS 7to8) AND (depth IS 75to) THEN (crop IS Davana);
        RULE 41: IF (temp IS 26to30) AND (rain IS 1750to2000) AND (ph IS 6.5to7.5) AND (depth IS 75to) THEN (crop IS Lemongrass);
        RULE 42: IF (temp IS 21to32) AND (rain IS 1200to3000) AND (soil IS sandyloam) AND (ph IS 5.2to6) THEN (crop IS Vanilla);
        RULE 43: IF (temp IS 28to35) AND (rain IS 2000to3000) AND (soil IS humus) AND (depth IS 100to) THEN (crop IS Pepper);
        RULE 44: IF (temp IS 28to32) AND (rain IS 3000) AND (soil IS clay) AND (ph IS 6.8to7.5) AND (depth IS 75to) THEN (crop IS Ginger);
        RULE 45: IF (temp IS 28to32) AND (rain IS 500to1000) AND (soil IS alluvial) AND (ph IS 5.8to7) AND (depth IS 75to) THEN (crop IS Turmeric);
        RULE 46: IF (temp IS 15to25) AND (ph IS 5.2to6) AND (depth IS 80to) THEN (crop IS Cardamom);
        RULE 47: IF (temp IS 24to30) AND (rain IS 700to1000) AND (soil IS red) AND (ph IS 6to8) AND (depth IS 75to) THEN (crop IS Groundnut);
        RULE 48: IF (temp IS 25to30) AND (rain IS 1350to) AND (soil IS red) AND (ph IS 4.5to5.5) AND (depth IS 100to) THEN (crop IS Rubber);
        RULE 49: IF (temp IS 25to30) AND (rain IS 1350to) AND (soil IS alluvial) AND (ph IS 4.5to5.5) AND (depth IS 100to) THEN (crop IS Rubber);
        RULE 50: IF (temp IS 21to32) AND (rain IS 1200to3000) AND (soil IS laterite) AND (ph IS 5.2to6) THEN (crop IS Vanilla);
        


        