year,price
2005,1427.9955071420663
2006,1394.2867238506913
2007,1724.3115918167914
2008,2289.706713698374
2009,2308.6418418778803
2010,2995.631920659355
2011,4244.19690738342
2012,3243.142444672015
2013,3311.642379131229
2014,3785.395968166272
2015,3634.3896545716984
