year,price
2005,3830.309102594064
2006,3356.1406381192273
2007,2781.3266267123286
2008,3181.3406384814493
2009,3152.6448823184523
2010,3360.489653073646
2011,4011.780926782798
2012,3026.3091480705216
2013,3559.237761261465
2014,9400.122646979655
2015,7000.757416570998
