year,price
2005,3636.491740088106
2006,4210.351293522661
2007,4183.789286383218
2008,4516.96165480427
2009,5224.344031451036
2010,5291.343044982699
2011,7907.185401002506
2012,6283.238193548387
2013,6396.319547953573
2014,6987.55907590759
2015,8621.163057107033
