year,price
2005,1653.9453101130462
2006,2156.7259151134067
2007,2196.3979273456653
2008,2264.4696158690176
2009,2191.544453507341
2010,2141.91584497398
2011,2784.4199238436554
2012,4167.969293418446
2013,3198.5763432755466
2014,2863.9389290882777
2015,3918.630684449389
