year,price
2005,1721.4551700226011
2006,1759.4265566361858
2007,2205.4550244024526
2008,2294.1212176749327
2009,2434.94872650612
2010,2823.532159087396
2011,3195.62134736782
2012,4182.33304762721
2014,3654.9699816356224
2015,4387.530637878663
