year,price
2005,664.5791102514506
2006,692.7291879034998
2007,705.9053199894654
2008,748.4245687287112
2009,1012.1538078646092
2010,967.1623649936467
2011,1058.9459191618885
2012,1487.3989261492088
2013,1460.0051627706869
2014,1832.2940409056478
2015,1772.4629379353364
