year,price
2005,1226.8272359777666
2006,1500.9423744503588
2007,1546.1116967554601
2008,1529.8237303073702
2009,2146.582844409342
2010,2006.6360873309357
2011,2337.266640604639
2012,2494.6574066525354
2013,2602.687048575284
2014,2892.0238658597623
2015,3134.7234033786567
