year,price
2005,1568.1102354089824
2006,1654.8880575528722
2007,1772.3665735445243
2008,2397.6970987640047
2009,2239.6749163746417
2010,2240.9611137671873
2011,2492.4349121737882
2012,3488.783420846609
2013,3226.881518266951
2015,3736.0190182882334
