year,price
2005,1725.9598134802882
2006,2180.7001160704863
2007,2086.964116358166
2008,2151.8566851294186
2009,2459.771569900975
2010,2739.4951410484227
2011,2840.905476055904
2012,3800.0085400403245
2013,3347.049264178033
2014,3199.2725934373543
2015,4884.242354726609
