year,price
2005,1464.4283548142532
2006,1603.29880821703
2007,1914.5897374511212
2008,2483.604829619353
2009,2085.7342896174864
2010,2319.4161903823415
2011,2881.364655605832
2012,3119.5787775692165
2013,3297.7157224013513
2014,3218.36047308879
2015,3334.723842894394
