year,price
2005,787.6722874301065
2006,995.0569755132947
2007,1001.7956582328711
2008,1070.5725819652337
2009,1191.8421438401735
2010,1270.6734044056343
2011,1182.8504249795258
2012,1361.4388845957337
2013,1578.006616533254
2014,1595.2074900495743
2015,1570.6059774628598
