
"Year"	"Jan"	"Feb"	"Mar"	"Apr"	"May"	"Jun"	"Jul"	"Aug"	"Sep"	"Oct"	"Nov"	"Dec"
"1901"	"21.565"	"8.605"	"4.041"	"0.16"	"6.659"	"19.291"	"136.13"	"257.611"	"18.084"	"6.68"	"0"	"6.798"
"1902"	"2.014"	"0.18"	"0"	"0.893"	"0.784"	"45.818"	"323.687"	"145.71"	"112.961"	"2.529"	"4.404"	"0.273"
"1903"	"3.591"	"1.666"	"4.838"	"0"	"3.724"	"4.338"	"169.025"	"284.264"	"64.518"	"28.571"	"0"	"0"
"1904"	"5.25"	"1.297"	"10.216"	"0"	"9.597"	"67.121"	"368.673"	"369.239"	"32.287"	"3.466"	"13.558"	"10.685"
"1905"	"14.044"	"15.687"	"6.353"	"0.884"	"1.728"	"20.028"	"148.992"	"26.909"	"86.744"	"0.105"	"0"	"1.259"
"1906"	"0.626"	"16.396"	"11.443"	"0"	"0.925"	"124.534"	"174.724"	"115.357"	"197.239"	"0.168"	"0"	"8.43"
"1907"	"7.604"	"41.444"	"3.78"	"22.72"	"9.153"	"16.979"	"97.126"	"431.737"	"1.564"	"0.105"	"0.286"	"0"
"1908"	"20.798"	"0.086"	"0.52"	"1.447"	"7.496"	"31.141"	"532.851"	"390.59"	"51.095"	"6.553"	"0.43"	"1.259"
"1909"	"18.657"	"3.17"	"0"	"10.306"	"17.963"	"55.135"	"397.831"	"168.299"	"106.192"	"0.105"	"0"	"14.477"
"1910"	"7.998"	"2.313"	"0"	"3.428"	"1.382"	"49.292"	"177.49"	"236.336"	"123.637"	"19.547"	"1.45"	"0"
"1911"	"17.769"	"0"	"6.87"	"0.043"	"0"	"25.014"	"46.773"	"91.857"	"261.521"	"2.116"	"55.688"	"7.369"
"1912"	"19.077"	"2.06"	"6.222"	"0.823"	"0.682"	"16.278"	"247.61"	"251.29"	"157.264"	"2.26"	"12.281"	"2.468"
"1913"	"0"	"32.174"	"0.737"	"0"	"20.2"	"56.705"	"119.42"	"56.48"	"28.319"	"0.105"	"0"	"3.792"
"1914"	"0.058"	"3.528"	"1.574"	"8.696"	"15.611"	"80.319"	"395.511"	"165.955"	"168.507"	"11.349"	"2.159"	"0.202"
"1915"	"9.061"	"17.547"	"26.43"	"2.607"	"4.035"	"41.587"	"177.642"	"170.823"	"45.149"	"29.561"	"0.069"	"0.237"
"1916"	"0"	"9.592"	"0"	"1.329"	"5.015"	"66.064"	"288.877"	"365.256"	"106.937"	"13.311"	"0.888"	"0"
"1917"	"1.879"	"9.096"	"9.251"	"17.99"	"35.753"	"44.516"	"449.081"	"352.666"	"248.567"	"43.285"	"0"	"4.57"
"1918"	"13.853"	"0.083"	"3.258"	"0"	"4.928"	"26.481"	"75.243"	"171.324"	"53.316"	"0.105"	"1.182"	"0.112"
"1919"	"20.81"	"0.115"	"1.383"	"11.345"	"4.599"	"22.722"	"264.213"	"451.905"	"61.327"	"4.891"	"6.527"	"6.233"
"1920"	"6.38"	"15.445"	"4.738"	"0"	"10.146"	"85.737"	"330.906"	"81.24"	"67.379"	"0.105"	"0"	"0"
"1921"	"23.03"	"0.131"	"0"	"0.576"	"0"	"39.936"	"115.316"	"135.831"	"274.643"	"0.177"	"0"	"0"
"1922"	"12.023"	"0.7"	"0.451"	"1.782"	"0.202"	"59.728"	"242.598"	"226.145"	"203.636"	"0.932"	"1.627"	"31.224"
"1923"	"0.523"	"9.082"	"0.658"	"0.511"	"2.776"	"1.949"	"206.781"	"286.489"	"209.533"	"4.336"	"0.083"	"5.904"
"1924"	"11.797"	"9.663"	"0"	"0"	"2.901"	"11.128"	"190.522"	"253.412"	"276.506"	"9.484"	"1.549"	"25.584"
"1925"	"0"	"0"	"0"	"0"	"19.747"	"138.752"	"569.024"	"93.091"	"30.75"	"0.906"	"52.385"	"0"
"1926"	"12.913"	"4.796"	"22.936"	"8.045"	"25.711"	"22.29"	"241.794"	"344.163"	"144.183"	"1.37"	"0.526"	"0.043"
"1927"	"0.086"	"17.196"	"1.546"	"2.387"	"5.288"	"21.202"	"241.917"	"349.754"	"90.394"	"8.002"	"34.58"	"12.707"
"1928"	"3.944"	"23.286"	"0.452"	"0.489"	"2.576"	"21.49"	"236.025"	"111.265"	"75.824"	"60.577"	"15.975"	"30.923"
"1929"	"1.729"	"2.241"	"0"	"4.759"	"0.165"	"49.793"	"176.919"	"119.708"	"16.463"	"4.703"	"0"	"16.172"
"1930"	"8.138"	"5.764"	"0.029"	"1.361"	"5.694"	"100.664"	"453.277"	"209.534"	"51.5"	"22.281"	"0.33"	"0.259"
"1931"	"0.083"	"4.399"	"0.121"	"0.576"	"1.684"	"22.541"	"165.988"	"253.616"	"235.236"	"54.121"	"2.679"	"0"
"1932"	"0"	"2.254"	"9.878"	"3.056"	"1.396"	"22.116"	"164.822"	"325.069"	"164.216"	"1.303"	"0.058"	"0"
"1933"	"0"	"5.266"	"1.399"	"9.26"	"22.328"	"224.437"	"135.956"	"328.336"	"230.33"	"20.823"	"0.251"	"0.884"
"1934"	"10.617"	"0"	"11.324"	"0"	"0"	"101.78"	"139.652"	"256.818"	"95.586"	"0.148"	"3.492"	"30.206"
"1935"	"19.541"	"2.365"	"0.544"	"13.902"	"1.143"	"21.989"	"381.979"	"155.541"	"92.854"	"7.741"	"0.029"	"5.901"
"1936"	"0.592"	"4.7"	"14.044"	"0.894"	"7.542"	"214.754"	"222.618"	"344.763"	"86.054"	"0.105"	"30.615"	"11.403"
"1937"	"0"	"35.005"	"0.525"	"4.643"	"7.597"	"40.16"	"116.457"	"113.828"	"119.158"	"3.135"	"6.306"	"18.373"
"1938"	"7.015"	"0.058"	"0.895"	"0.691"	"7.704"	"43.69"	"360.695"	"131.202"	"22.49"	"9.48"	"0"	"0"
"1939"	"11.098"	"7.954"	"2.549"	"0.335"	"0"	"73.669"	"321.844"	"69.121"	"99.725"	"0.475"	"0.214"	"0.407"
"1940"	"13.42"	"14.005"	"7.409"	"7.447"	"11.551"	"35.649"	"139.852"	"266.467"	"35.962"	"2.394"	"5.116"	"2.871"
"1941"	"14.465"	"3.541"	"1.557"	"0.16"	"12.832"	"21.039"	"186.573"	"141.423"	"52.414"	"0.529"	"0"	"0.585"
"1942"	"15.594"	"9.831"	"0"	"4.089"	"4.051"	"29.508"	"456.202"	"342.612"	"273.457"	"0.119"	"0"	"4.663"
"1943"	"16.078"	"0"	"0.889"	"18.873"	"18.725"	"72.865"	"171.513"	"389.472"	"169.36"	"2.221"	"0"	"0"
"1944"	"18.801"	"12.946"	"27.738"	"23.549"	"0.052"	"23.879"	"212.19"	"228.268"	"78.376"	"2.883"	"0"	"0.223"
"1945"	"17.57"	"0"	"0"	"7.782"	"18.43"	"29.857"	"191.673"	"341.483"	"229.242"	"1.044"	"0"	"0.403"
"1946"	"0"	"2.884"	"0"	"2.1"	"13.873"	"51.176"	"273.205"	"321.869"	"13.394"	"3.627"	"4.692"	"4.332"
"1947"	"7.243"	"3.723"	"3.578"	"1.088"	"1.333"	"26.43"	"325.378"	"331.716"	"341.865"	"44.399"	"0.086"	"4.32"
"1948"	"36.938"	"9.372"	"0.31"	"1.951"	"6.458"	"10.851"	"381.893"	"240.217"	"174.67"	"17.211"	"10.745"	"0"
"1949"	"1.165"	"10.799"	"1.807"	"0"	"2.723"	"9.891"	"406.804"	"380.954"	"228.899"	"6.924"	"0"	"0"
"1950"	"0.927"	"0.141"	"3.54"	"0"	"15.768"	"6.389"	"257.266"	"299.859"	"171.028"	"0.262"	"0"	"2.465"
"1951"	"6.648"	"1.063"	"13.35"	"4.667"	"4.394"	"49.631"	"146.201"	"286.374"	"205.957"	"5.681"	"37.088"	"0"
"1952"	"0"	"12.451"	"3.881"	"6.74"	"3.502"	"49.814"	"225.06"	"597.829"	"14.131"	"0.155"	"0"	"27.534"
"1953"	"29.253"	"0.259"	"0"	"0.563"	"0.292"	"9.817"	"215.451"	"241.833"	"48.604"	"1.409"	"0"	"0.115"
"1954"	"12.36"	"28.303"	"5.412"	"0"	"0.066"	"4.109"	"290.671"	"248.073"	"176.732"	"40.788"	"1.065"	"0"
"1955"	"23.508"	"0.231"	"0.62"	"0.035"	"1.26"	"118.113"	"295.531"	"444.982"	"175.436"	"72.134"	"0"	"0.653"
"1956"	"4.804"	"1.301"	"14.77"	"1.322"	"0.714"	"67.92"	"489.138"	"217.78"	"40.509"	"79.256"	"2.893"	"13.741"
"1957"	"20.282"	"0"	"18.294"	"6.853"	"8.595"	"23.083"	"426.548"	"171.406"	"170.115"	"9.698"	"6.809"	"3.715"
"1958"	"1.958"	"3.902"	"1.328"	"0.314"	"2.425"	"5.766"	"456.213"	"340.964"	"268.055"	"28.398"	"4.921"	"4.395"
"1959"	"11.607"	"0.321"	"0"	"1.169"	"38.696"	"32.483"	"259.336"	"246.924"	"87.301"	"6.341"	"9.65"	"0"
"1960"	"2.995"	"0"	"19.781"	"0.18"	"12.404"	"19.868"	"278.546"	"499.087"	"74.29"	"57.745"	"0"	"6.406"
"1961"	"25.867"	"24.107"	"0.083"	"3.519"	"3.645"	"54.54"	"178.967"	"590.081"	"76.414"	"34.028"	"6.797"	"0.533"
"1962"	"18.871"	"0.626"	"8.277"	"3.391"	"1.395"	"14.43"	"278.511"	"255.854"	"188.855"	"0.105"	"1.226"	"2.05"
"1963"	"11.19"	"1.598"	"3.571"	"2.488"	"7.89"	"33.444"	"184.145"	"266.157"	"315.646"	"2.184"	"12.584"	"9.967"
"1964"	"0"	"0.072"	"1.09"	"0.043"	"13.385"	"9.124"	"453.685"	"337.637"	"273.862"	"1.26"	"0"	"4.352"
"1965"	"2.573"	"5.254"	"0.943"	"8.779"	"1.97"	"7.754"	"356.145"	"154.072"	"114.938"	"29.97"	"0"	"0.746"
"1966"	"0.083"	"2.323"	"0"	"0"	"32.379"	"68.662"	"188.344"	"382.989"	"30.507"	"0.105"	"47.965"	"0.409"
"1967"	"0.029"	"0"	"18.239"	"0.218"	"1.716"	"35.349"	"275.937"	"571.335"	"136.411"	"3.21"	"0"	"31.673"
"1968"	"21.774"	"4.022"	"5.771"	"0.16"	"0.265"	"20.493"	"291.201"	"213.796"	"43.718"	"28.596"	"0"	"0.101"
"1969"	"4.093"	"9.382"	"0.247"	"0"	"16.314"	"11.162"	"353.127"	"240.78"	"114.501"	"0.105"	"16.388"	"0"
"1970"	"22.874"	"24.92"	"4.444"	"2.627"	"24.265"	"81.71"	"127.608"	"433.895"	"157.761"	"0.542"	"0"	"0"
"1971"	"12.004"	"9.019"	"0.029"	"2.65"	"8.839"	"130.989"	"292.9"	"202.968"	"108.016"	"35.12"	"2.972"	"0"
"1972"	"2.267"	"13.807"	"0"	"0.291"	"0.666"	"26.555"	"78.273"	"312.527"	"120.356"	"3.859"	"4.57"	"5.057"
"1973"	"9.471"	"12.791"	"0"	"0"	"2.189"	"15.581"	"263.783"	"416.145"	"153.152"	"43.324"	"0"	"0.686"
"1974"	"0"	"1.284"	"0.061"	"3.602"	"14.128"	"12.326"	"128.079"	"137.03"	"21.079"	"62.064"	"0"	"0.653"
"1975"	"2.542"	"0.666"	"0.309"	"0.434"	"1.212"	"74.573"	"364.147"	"211.528"	"175.764"	"22.797"	"0"	"0"
"1976"	"1.542"	"3.183"	"1.052"	"2.249"	"2.209"	"103.596"	"201.163"	"302.442"	"105.157"	"0.105"	"22.704"	"0.258"
"1977"	"17.873"	"0.654"	"1.019"	"14.665"	"6.916"	"29.058"	"431.175"	"216.051"	"208.539"	"28.94"	"3.569"	"0.115"
"1978"	"2.668"	"15.68"	"22.691"	"3.491"	"0"	"108.775"	"249.733"	"206.011"	"148.746"	"1.03"	"3.064"	"11.446"
"1979"	"6.902"	"39.874"	"1.33"	"0.619"	"17.997"	"23.498"	"209.524"	"100.923"	"7.361"	"5.28"	"8.037"	"5.329"
"1980"	"0.251"	"3.51"	"13.669"	"0.576"	"2.802"	"62.568"	"230.166"	"304.652"	"19.996"	"11.272"	"3.123"	"29.474"
"1981"	"6.765"	"0.098"	"17.615"	"0"	"22.23"	"195.597"	"348.966"	"198.464"	"74.526"	"1.034"	"15.264"	"0.573"
"1982"	"19.29"	"4.014"	"14.713"	"8.994"	"21.301"	"20.906"	"152.655"	"446.929"	"32.14"	"3.44"	"55.128"	"10.642"
"1983"	"10.335"	"3.446"	"0"	"32.109"	"30.728"	"61.177"	"86.928"	"425.749"	"145.753"	"23.699"	"0"	"2.569"
"1984"	"2.365"	"2.14"	"2.322"	"37.143"	"2.127"	"60.27"	"165.386"	"277.981"	"105.263"	"1.91"	"0"	"0"
"1985"	"3.4"	"0"	"3.988"	"13.962"	"7.87"	"31.356"	"484.636"	"313.162"	"140.079"	"76.391"	"0"	"16.726"
"1986"	"7.34"	"16.342"	"6.163"	"0"	"25.338"	"76.421"	"194.395"	"108.698"	"54.691"	"32.21"	"0"	"15.195"
"1987"	"16.511"	"6.505"	"2.155"	"0"	"40.135"	"14.231"	"98.714"	"160.21"	"49.503"	"4.73"	"0"	"5.749"
"1988"	"5.335"	"1.282"	"9.607"	"15.229"	"2.456"	"75.305"	"248.923"	"275.619"	"60.487"	"0.787"	"0"	"0.386"
"1989"	"9.672"	"0"	"10.2"	"0.59"	"0.123"	"6.591"	"210.433"	"318.71"	"93.519"	"3.774"	"9.602"	"4.52"
"1990"	"0"	"22.844"	"0.178"	"0.706"	"18.696"	"90.669"	"289.311"	"352.493"	"270.249"	"0.422"	"0"	"9.442"
"1991"	"0.496"	"12.688"	"2.472"	"3.169"	"24.537"	"17.808"	"56.415"	"359.998"	"94.702"	"0.105"	"14.603"	"25.427"
"1992"	"13.384"	"8.065"	"9.181"	"3.316"	"17.172"	"14.268"	"78.396"	"214.474"	"137.13"	"39.665"	"33.312"	"0"
"1993"	"5.285"	"1.058"	"7.941"	"2.944"	"12.334"	"91.813"	"287.12"	"171.464"	"187.786"	"4.449"	"0.005"	"0"
"1994"	"19.222"	"13.41"	"8.592"	"6.011"	"12.438"	"70.435"	"594.308"	"284.573"	"34.394"	"0.787"	"0"	"0"
"1995"	"23.872"	"0.77"	"4.48"	"10.851"	"0.339"	"28.929"	"200.229"	"306.612"	"122.007"	"3.713"	"0.477"	"0.837"
"1996"	"6.088"	"2.768"	"2.428"	"5.662"	"19.405"	"110.748"	"189.576"	"342.545"	"270.853"	"21.711"	"0"	"0"
"1997"	"2.951"	"0"	"2.292"	"1.785"	"22.391"	"88.272"	"110.62"	"212.028"	"161.167"	"38.801"	"40.257"	"14.12"
"1998"	"0"	"9.944"	"14.058"	"12.599"	"6.408"	"81.255"	"153.891"	"262.473"	"61.234"	"37.309"	"3.512"	"0.283"
"1999"	"8.12"	"12.48"	"0"	"0"	"2.992"	"136.795"	"208.811"	"308.045"	"218.132"	"52.831"	"0"	"0.639"
"2000"	"6.214"	"3.47"	"1.629"	"2.429"	"11.274"	"14.005"	"303.544"	"149.869"	"55.786"	"0.332"	"1.217"	"0"
"2001"	"6.187"	"5.237"	"2.377"	"15.498"	"37.033"	"107.416"	"171.897"	"258.38"	"39.117"	"13.061"	"0.255"	"0"
"2002"	"7.632"	"13.537"	"1.215"	"1.406"	"8.593"	"35.748"	"26.958"	"199.076"	"158.659"	"7.272"	"2.63"	"5.383"
