
"Year"	"Jan"	"Feb"	"Mar"	"Apr"	"May"	"Jun"	"Jul"	"Aug"	"Sep"	"Oct"	"Nov"	"Dec"
"1901"	"0.527"	"0"	"0.279"	"0.977"	"6.359"	"28.418"	"146.29"	"96.32"	"4.725"	"7.929"	"0.285"	"0"
"1902"	"0.023"	"0"	"0"	"4.275"	"2.948"	"16.726"	"102.389"	"224.177"	"252.346"	"0.121"	"0.285"	"5.932"
"1903"	"0.115"	"0"	"0"	"0"	"1.914"	"4.304"	"352.698"	"104.455"	"114.081"	"0.536"	"0.285"	"0"
"1904"	"0.144"	"14.829"	"35.817"	"0"	"1.746"	"12.365"	"138.113"	"13.048"	"41.104"	"0.724"	"0.285"	"0.219"
"1905"	"0"	"0.074"	"6.66"	"1.458"	"0"	"27.19"	"448.575"	"13.545"	"63.398"	"0.041"	"0.286"	"0.11"
"1906"	"0.569"	"4.568"	"7.214"	"0"	"0"	"180.665"	"216.636"	"149.939"	"123.79"	"14.57"	"0.285"	"0"
"1907"	"0.07"	"2.942"	"0"	"1.316"	"0"	"37.978"	"190.417"	"384.42"	"12.46"	"0.041"	"0.285"	"0"
"1908"	"1.964"	"0"	"0"	"0"	"0"	"33.134"	"253.721"	"304.512"	"13.751"	"0.958"	"0.285"	"0"
"1909"	"0.456"	"1.414"	"0"	"2.445"	"0.37"	"86.543"	"230.93"	"137.213"	"88.215"	"0.121"	"0.285"	"3.919"
"1910"	"1.156"	"0"	"0"	"10.145"	"0.297"	"213.82"	"204.627"	"226.449"	"19.189"	"23.911"	"4.226"	"0"
"1911"	"2.659"	"0"	"53.112"	"0"	"0"	"153.089"	"39.346"	"16.676"	"52.644"	"0.041"	"3.382"	"0"
"1912"	"0"	"0"	"0"	"1.201"	"0.902"	"49.392"	"374.315"	"199.519"	"24.342"	"2.413"	"24.324"	"0"
"1913"	"0"	"0"	"4.973"	"0"	"5.466"	"265.686"	"331.426"	"134.745"	"178.894"	"0.228"	"0.641"	"0"
"1914"	"0"	"6.955"	"0"	"0"	"5.28"	"187.748"	"336.025"	"71.356"	"244.532"	"11.25"	"3.876"	"0"
"1915"	"6.123"	"0.001"	"19.281"	"0.165"	"1.499"	"81.315"	"103.425"	"44.832"	"19.281"	"116.514"	"0.285"	"0"
"1916"	"0"	"0"	"0"	"0.268"	"1.905"	"100.469"	"102.297"	"281.181"	"116.506"	"41.811"	"0.285"	"0"
"1917"	"0"	"2.708"	"0"	"0.532"	"34.265"	"98.906"	"226.806"	"191.361"	"286.783"	"100.621"	"0.285"	"0"
"1918"	"0"	"0"	"0"	"0"	"12.832"	"21.321"	"40.585"	"105.35"	"19.154"	"0.094"	"0.285"	"0"
"1919"	"5.421"	"0"	"0"	"0.261"	"4.135"	"69.258"	"202.409"	"227.783"	"32.662"	"23.787"	"72.011"	"0.001"
"1920"	"1.14"	"0.134"	"0"	"0"	"38.357"	"216.211"	"219.533"	"52.86"	"8.528"	"0.041"	"0.285"	"0"
"1921"	"0"	"0"	"0"	"0"	"0"	"15.22"	"324.794"	"111.855"	"325.027"	"0.209"	"0.285"	"0"
"1922"	"0.986"	"0"	"0"	"0.178"	"0"	"81.087"	"223.128"	"37.492"	"263.616"	"0.041"	"0.835"	"0"
"1923"	"0"	"7.456"	"0"	"2.977"	"2.558"	"0.954"	"96.881"	"103.141"	"26.46"	"8.837"	"0.285"	"0"
"1924"	"0.226"	"0"	"0"	"0"	"12.957"	"82.505"	"203.582"	"107.894"	"181.559"	"7.722"	"0.285"	"0.506"
"1925"	"0"	"0"	"0"	"0"	"5.504"	"191.65"	"179.054"	"37.999"	"1.47"	"0.231"	"20.328"	"0"
"1926"	"1.313"	"0"	"0"	"7.81"	"9.926"	"8.496"	"262.884"	"284.054"	"257.895"	"0.041"	"0.285"	"0.047"
"1927"	"0"	"3.024"	"0"	"0"	"1.243"	"153.646"	"533.755"	"79.885"	"87.78"	"18.279"	"16.286"	"7.38"
"1928"	"0"	"0.145"	"0"	"2.504"	"0"	"61.707"	"236.534"	"140.156"	"256.949"	"17.118"	"33.275"	"0.289"
"1929"	"0.78"	"0"	"0"	"1.89"	"0.143"	"127.373"	"225.861"	"93.369"	"10.435"	"2.678"	"0.285"	"3.754"
"1930"	"0.462"	"0.023"	"0.48"	"0"	"0.618"	"86.603"	"325.943"	"93.9"	"115.493"	"26.652"	"0.285"	"1.138"
"1931"	"0"	"0"	"0"	"0.124"	"2.236"	"32.493"	"155.457"	"332.019"	"49.715"	"62.262"	"7.849"	"0.864"
"1932"	"0"	"0"	"0"	"0"	"0.313"	"70.835"	"366.549"	"88.901"	"47.216"	"9.331"	"0.285"	"0"
"1933"	"0"	"6.357"	"5.661"	"0.455"	"36.901"	"56.824"	"192.462"	"372.141"	"162.374"	"1.758"	"0.29"	"0.269"
"1934"	"0"	"0"	"0.223"	"0.596"	"0"	"140.379"	"195.823"	"230.466"	"23.73"	"0.044"	"31.777"	"0"
"1935"	"7.41"	"0.485"	"0"	"0.211"	"0"	"81.832"	"193.815"	"62.95"	"117.058"	"4.552"	"0.285"	"0"
"1936"	"0"	"0.602"	"8.116"	"0"	"0"	"159.688"	"76.904"	"24.54"	"148.966"	"0.041"	"91.694"	"0"
"1937"	"0"	"5.046"	"0.46"	"0"	"0"	"156.383"	"353.844"	"2.453"	"277.317"	"2.986"	"0.285"	"0.234"
"1938"	"0.034"	"0"	"0"	"0"	"11.311"	"170.852"	"263.365"	"46.549"	"6.874"	"25.883"	"0.285"	"0"
"1939"	"0"	"0.358"	"29.439"	"0"	"0"	"58.819"	"88.895"	"159.259"	"61.46"	"0.041"	"1.235"	"0"
"1940"	"3.729"	"0.09"	"15.369"	"0.647"	"0.135"	"122.211"	"94.919"	"115.81"	"40.974"	"19.061"	"43.78"	"0"
"1941"	"0.023"	"1.177"	"4.557"	"0.468"	"1.047"	"36.212"	"533.413"	"96.819"	"31.236"	"5.553"	"0.285"	"0.047"
"1942"	"0.892"	"6.848"	"0"	"0"	"8.234"	"59.53"	"249.937"	"244.525"	"96.925"	"0.041"	"0.285"	"0"
"1943"	"0"	"0"	"0"	"0"	"12.04"	"146.605"	"308.36"	"31.301"	"108.012"	"35.349"	"3.502"	"0"
"1944"	"0.857"	"0"	"9.981"	"0.41"	"5.595"	"90.313"	"371.607"	"255.918"	"50.863"	"18.334"	"0.285"	"0"
"1945"	"2.567"	"0"	"0"	"0.421"	"0.83"	"135.311"	"298.207"	"163.307"	"256.457"	"2.378"	"0.285"	"0"
"1946"	"0"	"6.767"	"0"	"0"	"1.13"	"141.347"	"163.446"	"277.025"	"47.508"	"4.406"	"26.446"	"2.925"
"1947"	"0.174"	"0"	"0"	"2.16"	"0"	"4.058"	"158.176"	"132.298"	"166.888"	"7.742"	"16.16"	"0"
"1948"	"5.69"	"0"	"0"	"0"	"0.205"	"39.216"	"77.673"	"51.729"	"73.15"	"17.786"	"9.834"	"0"
"1949"	"0"	"1.798"	"0"	"0"	"0"	"15.857"	"192.328"	"126.046"	"125.772"	"5.584"	"0.947"	"0"
"1950"	"0"	"0"	"0"	"0"	"0"	"8.206"	"495.235"	"29.63"	"233.027"	"0.041"	"0.285"	"0"
"1951"	"0"	"0"	"0.082"	"0.16"	"0.044"	"30.529"	"149.495"	"143.158"	"1.83"	"3.985"	"3.751"	"0"
"1952"	"0"	"0"	"0"	"0"	"0.129"	"84.429"	"332.91"	"71.413"	"12.687"	"0.041"	"0.285"	"0"
"1953"	"14.26"	"0"	"0"	"0"	"0.207"	"93.21"	"171.138"	"261.684"	"81.997"	"0.041"	"0.285"	"0"
"1954"	"0"	"0.001"	"22.66"	"0"	"0"	"83.26"	"222.368"	"160.143"	"343.282"	"11.297"	"1.71"	"0"
"1955"	"0"	"0.238"	"0"	"0"	"0"	"93.218"	"43.859"	"239.32"	"244.239"	"24.756"	"0.285"	"0"
"1956"	"0"	"0.48"	"0.884"	"0.253"	"1.305"	"59.917"	"367.736"	"229.076"	"111.294"	"121.548"	"1.827"	"0.002"
"1957"	"1.125"	"0"	"0"	"0.265"	"1.221"	"122.747"	"182.592"	"88.629"	"3.005"	"3.267"	"13.526"	"0.299"
"1958"	"0.009"	"0"	"0"	"4.228"	"0"	"106.847"	"190.785"	"144.151"	"361.254"	"80.218"	"3.294"	"0"
"1959"	"0"	"0"	"0"	"14.731"	"2.152"	"60.246"	"442.221"	"142.568"	"356.169"	"116.948"	"1.275"	"0"
"1960"	"0.664"	"0"	"0.374"	"0"	"5.565"	"90.681"	"109.859"	"88.272"	"78.709"	"2.503"	"0.285"	"0.43"
"1961"	"0"	"2.225"	"0"	"0"	"1.919"	"110.859"	"231.694"	"118.646"	"257.55"	"12.88"	"0.285"	"0"
"1962"	"0"	"0"	"3.307"	"1.345"	"0.182"	"42.18"	"181.347"	"108.734"	"139.369"	"0.041"	"27.811"	"0.933"
"1963"	"3.612"	"0"	"8.706"	"1.061"	"2.65"	"37.09"	"166.41"	"222.719"	"248.343"	"20.188"	"58.016"	"0"
"1964"	"0"	"0"	"0"	"0"	"4.911"	"65.7"	"276.155"	"200.64"	"142.792"	"0.041"	"0.285"	"0"
"1965"	"7.566"	"0"	"0.006"	"0.197"	"0.604"	"3.851"	"353.94"	"108.215"	"15.323"	"0.041"	"2.867"	"0"
"1966"	"3.704"	"0"	"0"	"0.24"	"0.677"	"77.421"	"247.579"	"35.308"	"161.684"	"0.041"	"0.285"	"0"
"1967"	"0"	"0"	"44.466"	"0.407"	"0"	"124.012"	"311.784"	"109.202"	"58.763"	"0.921"	"0.285"	"8.459"
"1968"	"0.085"	"0"	"2.39"	"0"	"0"	"11.209"	"125.863"	"147.738"	"41.443"	"0.313"	"0.285"	"0"
"1969"	"0"	"0.013"	"0"	"0"	"0"	"60.77"	"152.598"	"72.197"	"149.66"	"0.041"	"5.848"	"0.786"
"1970"	"0.185"	"1.328"	"0"	"0.12"	"1.481"	"237.761"	"117.79"	"281.102"	"282.187"	"16.181"	"0.286"	"0"
"1971"	"0"	"0"	"0"	"0"	"5.313"	"216.55"	"263.849"	"129.77"	"59.084"	"3.799"	"0.285"	"0"
"1972"	"0"	"1.955"	"0"	"0"	"0.002"	"36.486"	"117.585"	"138.826"	"6.711"	"0.108"	"0.285"	"0"
"1973"	"0.905"	"0.816"	"0"	"0"	"6.835"	"115.473"	"188.812"	"192.656"	"286.203"	"3.342"	"0.285"	"0.057"
"1974"	"0"	"0"	"0"	"0"	"26.686"	"28.305"	"73.719"	"34.266"	"52.875"	"23.5"	"0.285"	"1.039"
"1975"	"0.011"	"0"	"0"	"0"	"0"	"144.801"	"84.552"	"242.332"	"225.693"	"76.809"	"0.285"	"0"
"1976"	"1.385"	"0"	"0.86"	"0"	"0"	"146.176"	"255.483"	"230.003"	"105.014"	"0.31"	"117.763"	"0"
"1977"	"3.267"	"0.071"	"0"	"0.75"	"20.291"	"151.144"	"379.793"	"117.379"	"128.066"	"0.094"	"9.58"	"0"
"1978"	"0"	"1.209"	"0"	"2.967"	"0"	"125.708"	"141.46"	"253.188"	"22.267"	"9.645"	"38.587"	"3.947"
"1979"	"0"	"4.399"	"0"	"0.172"	"3.471"	"107.983"	"68.828"	"231.667"	"48.288"	"13.448"	"142.557"	"0"
"1980"	"0.133"	"0.253"	"0"	"0"	"0.001"	"245.874"	"194.93"	"133.848"	"26.092"	"0.262"	"11.287"	"6.669"
"1981"	"0.041"	"0"	"3.191"	"0"	"1.75"	"70.066"	"189.491"	"283.999"	"66.179"	"59.851"	"54.437"	"0"
"1982"	"2.256"	"0"	"0.535"	"1.685"	"34.425"	"24.669"	"177.78"	"101.364"	"3.141"	"6.575"	"81.06"	"0"
"1983"	"0.571"	"0"	"0"	"4.018"	"0"	"79.263"	"280.326"	"188.741"	"74.994"	"28.777"	"0.285"	"0"
"1984"	"0"	"0"	"0"	"0"	"0"	"40.832"	"164.393"	"298.408"	"58.282"	"1.925"	"0.285"	"0"
"1985"	"0"	"0"	"0"	"0.34"	"1.809"	"6.147"	"174.169"	"135.758"	"15.899"	"47.084"	"9.237"	"0"
"1986"	"0"	"0.024"	"0.256"	"0"	"5.451"	"268.018"	"41.788"	"79.605"	"7.974"	"0.111"	"0.312"	"0.857"
"1987"	"0.691"	"1.272"	"0.037"	"0"	"2.986"	"20.291"	"31.395"	"120.064"	"2.412"	"2.165"	"0.866"	"9.979"
"1988"	"0"	"0"	"0"	"3.244"	"0.089"	"35.423"	"328.281"	"115.131"	"136.197"	"1.66"	"0.285"	"0"
"1989"	"1.678"	"0"	"1.512"	"0.074"	"0.226"	"94.017"	"203.684"	"196.441"	"24.238"	"0.259"	"0.285"	"0"
"1990"	"0"	"1.711"	"0"	"0"	"19.958"	"33.005"	"148.987"	"390.138"	"111.677"	"16.193"	"3.257"	"11.017"
"1991"	"0"	"0"	"0.177"	"0.121"	"0.081"	"34.378"	"295.957"	"65.971"	"13.905"	"0.042"	"1.112"	"0.154"
"1992"	"0.059"	"0"	"0"	"0"	"0.258"	"36.774"	"185.149"	"101.797"	"232.333"	"3.171"	"5.641"	"0"
"1993"	"0"	"0.018"	"0.184"	"0"	"2.008"	"22.959"	"337.363"	"41.281"	"88.401"	"17.328"	"20.466"	"0.169"
"1994"	"3.849"	"0"	"3.33"	"0.041"	"0.354"	"86.887"	"284.332"	"201.961"	"422.753"	"1.43"	"0.822"	"0"
"1995"	"0.1"	"0"	"2.24"	"0.654"	"0.293"	"10.688"	"183.091"	"47.507"	"72.991"	"1.272"	"9.012"	"1.876"
"1996"	"0.33"	"0.019"	"0"	"0"	"0.331"	"104.996"	"315.675"	"144.774"	"77.163"	"53.049"	"0.443"	"0"
"1997"	"4.123"	"0"	"0.133"	"2.581"	"9.394"	"139.682"	"140.995"	"190.251"	"109.369"	"1.803"	"6.38"	"0.524"
"1998"	"0.023"	"0.763"	"0.416"	"0"	"0.223"	"112.06"	"343.773"	"155.212"	"170.253"	"70.045"	"4.173"	"0"
"1999"	"0"	"1.608"	"0"	"0"	"3.413"	"165.644"	"202.264"	"26.084"	"28.682"	"58.777"	"0.285"	"0.001"
"2000"	"0"	"0"	"0"	"0"	"9.196"	"55.405"	"335.661"	"81.557"	"8.842"	"2.065"	"1.293"	"0"
"2001"	"0"	"0"	"0.013"	"0.048"	"25.457"	"194.499"	"180.938"	"108.017"	"9.049"	"34.52"	"1.966"	"0"
"2002"	"0"	"0.084"	"0.092"	"0.311"	"0.106"	"137.818"	"43.226"	"101.494"	"53.125"	"0.198"	"0.285"	"0.098"
