
"Year"	"Jan"	"Feb"	"Mar"	"Apr"	"May"	"Jun"	"Jul"	"Aug"	"Sep"	"Oct"	"Nov"	"Dec"
"1901"	"0.001"	"0.001"	"0.009"	"0.014"	"0.022"	"0.045"	"0.021"	"0.017"	"0.019"	"0.022"	"0.047"	"0.011"
"1902"	"0.005"	"0"	"0.01"	"0.015"	"0.01"	"0.026"	"0.042"	"0.017"	"0.038"	"0.055"	"0.026"	"0.03"
"1903"	"0.009"	"0.001"	"0"	"0.006"	"0.025"	"0.009"	"0.036"	"0.017"	"0.038"	"0.06"	"0.043"	"0.019"
"1904"	"0.019"	"0.001"	"0.003"	"0.009"	"0.015"	"0.039"	"0.038"	"0.017"	"0.022"	"0.048"	"0"	"0.01"
"1905"	"0"	"0.001"	"0.001"	"0.009"	"0.024"	"0.047"	"0.025"	"0.014"	"0.013"	"0.046"	"0.008"	"0"
"1906"	"0.006"	"0.001"	"0.001"	"0.008"	"0.011"	"0.021"	"0.037"	"0.028"	"0.012"	"0.032"	"0.022"	"0.037"
"1907"	"0.022"	"0"	"0.009"	"0.022"	"0.01"	"0.035"	"0.038"	"0.026"	"0.035"	"0.043"	"0.021"	"0.032"
"1908"	"0.002"	"0.009"	"0.008"	"0.012"	"0.019"	"0.028"	"0.035"	"0.018"	"0.028"	"0.051"	"0.006"	"0.009"
"1909"	"0.008"	"0.002"	"0.006"	"0.011"	"0.034"	"0.025"	"0.029"	"0.029"	"0.023"	"0.021"	"0.022"	"0.015"
"1910"	"0.003"	"0.006"	"0.001"	"0.027"	"0.018"	"0.035"	"0.033"	"0.038"	"0.019"	"0.048"	"0.05"	"0"
"1911"	"0"	"0.006"	"0.001"	"0.014"	"0.017"	"0.055"	"0.036"	"0.012"	"0.009"	"0.054"	"0.027"	"0.042"
"1912"	"0"	"0.005"	"0.003"	"0.012"	"0.023"	"0.065"	"0.029"	"0.028"	"0.017"	"0.083"	"0.026"	"0.011"
"1913"	"0.005"	"0.001"	"0.002"	"0.011"	"0.027"	"0.024"	"0.028"	"0.012"	"0.014"	"0.064"	"0.013"	"0.008"
"1914"	"0"	"0.001"	"0.004"	"0.007"	"0.025"	"0.03"	"0.034"	"0.019"	"0.019"	"0.057"	"0.02"	"0.038"
"1915"	"0.005"	"0.002"	"0.013"	"0.023"	"0.018"	"0.031"	"0.044"	"0.017"	"0.06"	"0.015"	"0.051"	"0.017"
"1916"	"0"	"0.002"	"0.002"	"0.017"	"0.036"	"0.03"	"0.048"	"0.025"	"0.037"	"0.042"	"0.026"	"0.001"
"1917"	"0"	"0.004"	"0.012"	"0.006"	"0.033"	"0.043"	"0.017"	"0.029"	"0.044"	"0.031"	"0.061"	"0.021"
"1918"	"0.016"	"0.001"	"0.003"	"0.01"	"0.055"	"0.019"	"0.011"	"0.023"	"0.005"	"0.052"	"0.055"	"0.034"
"1919"	"0.014"	"0.002"	"0.004"	"0.003"	"0.034"	"0.043"	"0.028"	"0.023"	"0.042"	"0.031"	"0.061"	"0.031"
"1920"	"0.016"	"0"	"0.004"	"0.018"	"0.008"	"0.05"	"0.051"	"0.018"	"0.009"	"0.056"	"0.048"	"0.005"
"1921"	"0.006"	"0.001"	"0.001"	"0.027"	"0.012"	"0.038"	"0.021"	"0.045"	"0.021"	"0.061"	"0.035"	"0.006"
"1922"	"0.004"	"0.002"	"0.001"	"0.013"	"0.038"	"0.044"	"0.048"	"0.018"	"0.014"	"0.038"	"0.046"	"0.008"
"1923"	"0.007"	"0"	"0.016"	"0.004"	"0.007"	"0.03"	"0.041"	"0.047"	"0.026"	"0.035"	"0.007"	"0.006"
"1924"	"0.009"	"0"	"0.008"	"0.016"	"0.017"	"0.05"	"0.051"	"0.027"	"0.025"	"0.039"	"0.039"	"0.015"
"1925"	"0.002"	"0.003"	"0.014"	"0.011"	"0.023"	"0.033"	"0.019"	"0.029"	"0.014"	"0.04"	"0.049"	"0.02"
"1926"	"0.015"	"0"	"0.002"	"0.002"	"0.032"	"0.027"	"0.027"	"0.022"	"0.027"	"0.044"	"0.016"	"0.006"
"1927"	"0.003"	"0.01"	"0.008"	"0.013"	"0.025"	"0.041"	"0.037"	"0.015"	"0.037"	"0.017"	"0.02"	"0.005"
"1928"	"0.004"	"0.031"	"0.002"	"0.017"	"0.008"	"0.024"	"0.03"	"0.026"	"0.016"	"0.043"	"0.04"	"0.026"
"1929"	"0.002"	"0.012"	"0.004"	"0.029"	"0.014"	"0.058"	"0.045"	"0.013"	"0.028"	"0.058"	"0.032"	"0.014"
"1930"	"0.003"	"0.004"	"0.009"	"0.015"	"0.056"	"0.033"	"0.011"	"0.017"	"0.043"	"0.055"	"0.037"	"0.024"
"1931"	"0.003"	"0"	"0"	"0.019"	"0.018"	"0.036"	"0.032"	"0.045"	"0.014"	"0.02"	"0.023"	"0.046"
"1932"	"0"	"0.001"	"0.002"	"0.013"	"0.053"	"0.017"	"0.022"	"0.032"	"0.024"	"0.075"	"0.044"	"0.012"
"1933"	"0"	"0.003"	"0.007"	"0.014"	"0.069"	"0.046"	"0.036"	"0.036"	"0.041"	"0.047"	"0.024"	"0.014"
"1934"	"0.029"	"0"	"0.007"	"0.013"	"0.015"	"0.042"	"0.017"	"0.014"	"0.003"	"0.037"	"0.021"	"0"
"1935"	"0.027"	"0.002"	"0.003"	"0.013"	"0.008"	"0.045"	"0.031"	"0.027"	"0.019"	"0.046"	"0.056"	"0.004"
"1936"	"0"	"0.005"	"0.008"	"0.003"	"0.044"	"0.025"	"0.034"	"0.015"	"0.038"	"0.018"	"0.042"	"0.003"
"1937"	"0.003"	"0.007"	"0.006"	"0.024"	"0.018"	"0.016"	"0.04"	"0.019"	"0.013"	"0.05"	"0.026"	"0.007"
"1938"	"0"	"0.014"	"0.004"	"0.007"	"0.017"	"0.026"	"0.038"	"0.018"	"0.019"	"0.028"	"0.012"	"0.009"
"1939"	"0.013"	"0.002"	"0.004"	"0.028"	"0.024"	"0.033"	"0.035"	"0.022"	"0.014"	"0.042"	"0.067"	"0.005"
"1940"	"0"	"0"	"0.001"	"0.017"	"0.024"	"0.032"	"0.051"	"0.032"	"0.007"	"0.043"	"0.051"	"0.016"
"1941"	"0.007"	"0.002"	"0"	"0.02"	"0.031"	"0.038"	"0.02"	"0.026"	"0.026"	"0.051"	"0.034"	"0.025"
"1942"	"0"	"0"	"0.002"	"0.016"	"0.025"	"0.036"	"0.039"	"0.019"	"0.01"	"0.055"	"0.016"	"0.057"
"1943"	"0.012"	"0.002"	"0.005"	"0.015"	"0.047"	"0.053"	"0.027"	"0.011"	"0.016"	"0.044"	"0.043"	"0.017"
"1944"	"0"	"0.01"	"0.009"	"0.008"	"0.043"	"0.051"	"0.03"	"0.012"	"0.02"	"0.046"	"0.03"	"0.023"
"1945"	"0.003"	"0.002"	"0.002"	"0.018"	"0.006"	"0.02"	"0.027"	"0.02"	"0.008"	"0.041"	"0.047"	"0.002"
"1946"	"0"	"0"	"0.014"	"0.016"	"0.014"	"0.064"	"0.02"	"0.038"	"0.025"	"0.049"	"0.052"	"0.051"
"1947"	"0.005"	"0.004"	"0.012"	"0.022"	"0.01"	"0.031"	"0.035"	"0.045"	"0.031"	"0.038"	"0.006"	"0.012"
"1948"	"0.003"	"0.001"	"0.006"	"0.006"	"0.029"	"0.04"	"0.043"	"0.028"	"0.012"	"0.032"	"0.044"	"0.016"
"1949"	"0.002"	"0"	"0"	"0.009"	"0.041"	"0.031"	"0.039"	"0.032"	"0.03"	"0.029"	"0.019"	"0"
"1950"	"0"	"0.013"	"0.007"	"0.008"	"0.023"	"0.029"	"0.024"	"0.033"	"0.028"	"0.042"	"0.022"	"0"
"1951"	"0"	"0"	"0.004"	"0.027"	"0.017"	"0.038"	"0.026"	"0.015"	"0.034"	"0.047"	"0.034"	"0.002"
"1952"	"0.013"	"0.02"	"0.005"	"0.021"	"0.041"	"0.025"	"0.018"	"0.031"	"0.005"	"0.051"	"0.019"	"0.015"
"1953"	"0.002"	"0.002"	"0.002"	"0.019"	"0.007"	"0.023"	"0.045"	"0.011"	"0.016"	"0.059"	"0.022"	"0"
"1954"	"0.008"	"0.001"	"0.011"	"0.028"	"0.026"	"0.034"	"0.024"	"0.034"	"0.016"	"0.027"	"0.005"	"0.02"
"1955"	"0"	"0.002"	"0.001"	"0.017"	"0.059"	"0.044"	"0.022"	"0.012"	"0.039"	"0.049"	"0.039"	"0.009"
"1956"	"0.005"	"0.014"	"0"	"0.02"	"0.03"	"0.052"	"0.015"	"0.023"	"0.019"	"0.063"	"0.033"	"0.001"
"1957"	"0"	"0.001"	"0.002"	"0.011"	"0.045"	"0.069"	"0.049"	"0.02"	"0.006"	"0.031"	"0.035"	"0.003"
"1958"	"0"	"0.012"	"0.007"	"0.013"	"0.048"	"0.044"	"0.014"	"0.028"	"0.008"	"0.029"	"0.033"	"0.004"
"1959"	"0"	"0.003"	"0.001"	"0.024"	"0.033"	"0.053"	"0.037"	"0.018"	"0.029"	"0.032"	"0.028"	"0.018"
"1960"	"0"	"0.003"	"0.003"	"0.018"	"0.049"	"0.017"	"0.038"	"0.016"	"0.031"	"0.032"	"0.062"	"0.005"
"1961"	"0.009"	"0.018"	"0.003"	"0.01"	"0.044"	"0.045"	"0.036"	"0.035"	"0.032"	"0.033"	"0.007"	"0.005"
"1962"	"0.013"	"0.015"	"0.004"	"0.007"	"0.056"	"0.006"	"0.043"	"0.027"	"0.027"	"0.053"	"0.006"	"0.018"
"1963"	"0.005"	"0.002"	"0.016"	"0.008"	"0.009"	"0.029"	"0.037"	"0.031"	"0.027"	"0.032"	"0.027"	"0.015"
"1964"	"0"	"0.001"	"0.016"	"0.003"	"0.01"	"0.013"	"0.047"	"0.022"	"0.027"	"0.038"	"0.021"	"0.013"
"1965"	"0"	"0.002"	"0.006"	"0.013"	"0.036"	"0.021"	"0.017"	"0.024"	"0.021"	"0.023"	"0.025"	"0.046"
"1966"	"0.001"	"0.005"	"0.004"	"0.014"	"0.009"	"0.032"	"0.017"	"0.023"	"0.031"	"0.052"	"0.057"	"0.028"
"1967"	"0.02"	"0"	"0.009"	"0.004"	"0.03"	"0.039"	"0.024"	"0.035"	"0.015"	"0.027"	"0.01"	"0.014"
"1968"	"0"	"0.009"	"0.01"	"0.028"	"0.005"	"0.027"	"0.054"	"0.016"	"0.017"	"0.021"	"0.026"	"0.006"
"1969"	"0.008"	"0.001"	"0.003"	"0.018"	"0.021"	"0.029"	"0.038"	"0.019"	"0.018"	"0.04"	"0.009"	"0.007"
"1970"	"0.022"	"0.001"	"0.005"	"0.022"	"0.025"	"0.03"	"0.027"	"0.034"	"0.027"	"0.044"	"0.024"	"0.002"
"1971"	"0.006"	"0.009"	"0.002"	"0.009"	"0.03"	"0.044"	"0.035"	"0.038"	"0.03"	"0.021"	"0.004"	"0.03"
"1972"	"0.004"	"0"	"0"	"0.01"	"0.059"	"0.043"	"0.031"	"0.021"	"0.024"	"0.056"	"0.028"	"0.071"
"1973"	"0"	"0"	"0"	"0.014"	"0.011"	"0.032"	"0.032"	"0.026"	"0.01"	"0.036"	"0.02"	"0.006"
"1974"	"0"	"0.002"	"0.001"	"0.017"	"0.032"	"0.012"	"0.045"	"0.026"	"0.039"	"0.017"	"0.013"	"0.004"
"1975"	"0"	"0.005"	"0.011"	"0.024"	"0.018"	"0.036"	"0.048"	"0.033"	"0.037"	"0.061"	"0.044"	"0.006"
"1976"	"0"	"0"	"0.003"	"0.018"	"0.01"	"0.012"	"0.025"	"0.022"	"0.016"	"0.038"	"0.058"	"0.018"
"1977"	"0"	"0.004"	"0.008"	"0.012"	"0.044"	"0.045"	"0.028"	"0.028"	"0.024"	"0.055"	"0.063"	"0.009"
"1978"	"0.001"	"0.007"	"0.002"	"0.012"	"0.035"	"0.024"	"0.032"	"0.026"	"0.017"	"0.021"	"0.044"	"0.004"
"1979"	"0.004"	"0.011"	"0.002"	"0.007"	"0.013"	"0.043"	"0.033"	"0.02"	"0.03"	"0.032"	"0.057"	"0.007"
"1980"	"0"	"0.002"	"0.004"	"0.015"	"0.018"	"0.037"	"0.035"	"0.023"	"0.01"	"0.047"	"0.028"	"0.037"
"1981"	"0.002"	"0.001"	"0.006"	"0.012"	"0.024"	"0.047"	"0.042"	"0.031"	"0.045"	"0.038"	"0.023"	"0.003"
"1982"	"0"	"0"	"0.002"	"0.009"	"0.035"	"0.042"	"0.025"	"0.028"	"0.006"	"0.022"	"0.033"	"0.004"
"1983"	"0"	"0"	"0"	"0.009"	"0.012"	"0.025"	"0.03"	"0.03"	"0.036"	"0.015"	"0.036"	"0.042"
"1984"	"0.016"	"0.018"	"0.008"	"0.014"	"0.006"	"0.033"	"0.034"	"0.013"	"0.019"	"0.03"	"0.011"	"0.012"
"1985"	"0.012"	"0.005"	"0.004"	"0.008"	"0.025"	"0.027"	"0.017"	"0.012"	"0.015"	"0.022"	"0.033"	"0.007"
"1986"	"0.011"	"0.007"	"0"	"0.016"	"0.019"	"0.027"	"0.018"	"0.031"	"0.026"	"0.018"	"0.037"	"0.006"
"1987"	"0"	"0"	"0.003"	"0.015"	"0.023"	"0.023"	"0.011"	"0.052"	"0.014"	"0.055"	"0.027"	"0.066"
"1988"	"0"	"0.002"	"0.003"	"0.021"	"0.016"	"0.042"	"0.05"	"0.026"	"0.05"	"0.003"	"0.025"	"0.01"
"1989"	"0.009"	"0"	"0.002"	"0.009"	"0.017"	"0.04"	"0.045"	"0.018"	"0.025"	"0.043"	"0.01"	"0.003"
"1990"	"0.001"	"0.002"	"0.002"	"0.004"	"0.04"	"0.019"	"0.037"	"0.013"	"0.009"	"0.041"	"0.043"	"0.006"
"1991"	"0.001"	"0.003"	"0.003"	"0.012"	"0.022"	"0.086"	"0.041"	"0.025"	"0.005"	"0.057"	"0.014"	"0.001"
"1992"	"0.002"	"0"	"0"	"0.004"	"0.023"	"0.062"	"0.045"	"0.019"	"0.017"	"0.05"	"0.041"	"0.004"
"1993"	"0"	"0"	"0.004"	"0.008"	"0.019"	"0.041"	"0.042"	"0.014"	"0.012"	"0.051"	"0.065"	"0.04"
"1994"	"0.003"	"0.008"	"0.003"	"0.012"	"0.027"	"0.024"	"0.044"	"0.027"	"0.012"	"0.055"	"0.016"	"0.006"
"1995"	"0.01"	"0"	"0.003"	"0.019"	"0.043"	"0.029"	"0.029"	"0.023"	"0.019"	"0.03"	"0.028"	"0"
"1996"	"0.004"	"0.002"	"0.001"	"0.029"	"0.01"	"0.05"	"0.033"	"0.035"	"0.024"	"0.05"	"0.009"	"0.015"
"1997"	"0.003"	"0"	"0.005"	"0.01"	"0.016"	"0.031"	"0.028"	"0.027"	"0.052"	"0.048"	"0.061"	"0.019"
"1998"	"0"	"0"	"0"	"0.016"	"0.037"	"0.026"	"0.04"	"0.046"	"0.045"	"0.058"	"0.041"	"0.038"
"1999"	"0.001"	"0.011"	"0.004"	"0.018"	"0.047"	"0.036"	"0.029"	"0.015"	"0.009"	"0.062"	"0.022"	"0.003"
"2000"	"0"	"0.011"	"0.003"	"0.02"	"0.005"	"0.029"	"0.019"	"0.064"	"0.02"	"0.041"	"0.014"	"0.016"
"2001"	"0.002"	"0.004"	"0.001"	"0.036"	"0.024"	"0.022"	"0.045"	"0.031"	"0.054"	"0.035"	"0.019"	"0.005"
"2002"	"0"	"0.002"	"0.003"	"0.007"	"0.037"	"0.033"	"0.009"	"0.015"	"0.006"	"0.064"	"0.031"	"0.001"
