
"Year"	"Jan"	"Feb"	"Mar"	"Apr"	"May"	"Jun"	"Jul"	"Aug"	"Sep"	"Oct"	"Nov"	"Dec"
"1901"	"13.102"	"16.148"	"23.435"	"28.744"	"33.291"	"36.417"	"33.189"	"29.804"	"30.462"	"28.601"	"21.482"	"16.377"
"1902"	"16.041"	"18.542"	"25.463"	"29.876"	"33.828"	"33.997"	"30.933"	"30.904"	"29.361"	"26.881"	"20.519"	"14.813"
"1903"	"14.765"	"16.62"	"22.227"	"27.927"	"32.707"	"36.355"	"33.428"	"29.689"	"30.314"	"26.147"	"19.763"	"14.506"
"1904"	"14.209"	"17.671"	"22.729"	"30.04"	"32.798"	"35.058"	"29.811"	"28.67"	"28.995"	"26.61"	"19.85"	"15.656"
"1905"	"12.845"	"12.796"	"19.742"	"26.704"	"34.191"	"36.334"	"32.101"	"30.203"	"31.232"	"27.462"	"22.181"	"15.878"
"1906"	"13.842"	"15.511"	"20.986"	"28.874"	"35.676"	"33.994"	"31.548"	"29.663"	"28.812"	"27.157"	"21.575"	"16.295"
"1907"	"16.167"	"15.356"	"20.275"	"26.755"	"31.852"	"35.021"	"33.931"	"29.309"	"30.77"	"27.403"	"21.019"	"14.352"
"1908"	"13.89"	"17.308"	"22.732"	"30.106"	"33.273"	"35.852"	"29.917"	"28.507"	"29.347"	"26.202"	"20.08"	"14.659"
"1909"	"13.795"	"16.042"	"23.076"	"27.064"	"32.326"	"32.989"	"29.749"	"29.243"	"29.026"	"26.83"	"21.914"	"14.683"
"1910"	"13.765"	"17.266"	"23.074"	"28.28"	"33.86"	"34.087"	"31.253"	"29.733"	"29.541"	"25.415"	"19.799"	"15.012"
"1911"	"16.109"	"17.617"	"21.069"	"28.941"	"35.052"	"35.296"	"33.005"	"30.591"	"28.842"	"27.176"	"18.712"	"14.896"
"1912"	"15.055"	"18.089"	"22.283"	"29.104"	"34.146"	"36.463"	"32.166"	"29.749"	"28.29"	"26.744"	"19.645"	"15.073"
"1913"	"15.066"	"16.984"	"20.916"	"30.38"	"31.75"	"32.85"	"31.441"	"31.245"	"31.488"	"28.084"	"20.553"	"15.458"
"1914"	"16.489"	"17.155"	"22.666"	"29.91"	"33.907"	"34.212"	"31.028"	"29.63"	"29.932"	"25.739"	"21.185"	"14.524"
"1915"	"14.382"	"15.388"	"22.589"	"28.718"	"35.72"	"35.097"	"33.429"	"30.794"	"31.197"	"28.603"	"20.786"	"15.966"
"1916"	"15.349"	"16.696"	"25.645"	"30.807"	"33.588"	"33.565"	"31.299"	"29.009"	"29.302"	"25.958"	"18.723"	"14.293"
"1917"	"14.985"	"17.319"	"22.616"	"26.007"	"29.435"	"33.607"	"30.178"	"28.811"	"28.329"	"25.141"	"17.874"	"15.247"
"1918"	"13.676"	"17.372"	"22.615"	"27.03"	"35.331"	"34.466"	"34.464"	"31.882"	"30.885"	"27.42"	"20.628"	"14.491"
"1919"	"14.643"	"16.154"	"23.446"	"28.466"	"33.022"	"36.668"	"30.284"	"28.983"	"29.496"	"26.269"	"19.986"	"14.652"
"1920"	"14.528"	"16.537"	"23.22"	"28.897"	"30.59"	"33.49"	"30.364"	"30.38"	"31.549"	"28.503"	"22.181"	"16.137"
"1921"	"15.604"	"18.234"	"25.93"	"32.19"	"36.452"	"35.771"	"33.753"	"29.317"	"28.743"	"25.997"	"20.493"	"17.091"
"1922"	"14.53"	"18.534"	"24.591"	"30.061"	"34.181"	"34.065"	"31.367"	"28.747"	"28.561"	"26.182"	"20.161"	"14.977"
"1923"	"14.349"	"16.455"	"23.606"	"30.008"	"33.164"	"37.218"	"32.123"	"28.827"	"29.61"	"25.766"	"20.207"	"15.213"
"1924"	"13.412"	"16.626"	"24.194"	"29.723"	"31.111"	"36.718"	"31.258"	"29.326"	"28.779"	"25.685"	"19.98"	"15.378"
"1925"	"12.551"	"14.975"	"22.923"	"30.985"	"33.008"	"31.287"	"29.182"	"30.322"	"30.536"	"27.055"	"19.457"	"14.926"
"1926"	"14.675"	"18.351"	"21.799"	"26.183"	"31.415"	"36.254"	"31.95"	"29.275"	"28.674"	"25.534"	"18.315"	"14.368"
"1927"	"12.665"	"15.369"	"21.632"	"28.189"	"32.444"	"34.812"	"30.831"	"28.714"	"29.229"	"26.548"	"19.872"	"16.434"
"1928"	"14.011"	"17.45"	"23.355"	"28.842"	"35"	"34.658"	"31.79"	"31.555"	"30.902"	"27.63"	"21.562"	"15.131"
"1929"	"14.304"	"15.765"	"24.897"	"30.178"	"34.652"	"34.797"	"30.904"	"29.011"	"31.052"	"26.971"	"21.134"	"14.519"
"1930"	"13.938"	"16.912"	"24.233"	"29.059"	"33.524"	"34.146"	"29.62"	"29.35"	"29.947"	"26.875"	"20.199"	"15.106"
"1931"	"15.803"	"15.781"	"22.199"	"30.446"	"33.802"	"35.692"	"31.95"	"30.003"	"28.959"	"25.891"	"19.815"	"15.677"
"1932"	"16.5"	"16.288"	"23.85"	"28.95"	"32.577"	"36.38"	"32.32"	"28.989"	"29.407"	"26.528"	"19.691"	"14.743"
"1933"	"12.308"	"17.44"	"23.333"	"27.539"	"30.685"	"33.458"	"29.982"	"28.231"	"28.205"	"25.5"	"19.826"	"15.42"
"1934"	"12.956"	"18.043"	"21.73"	"28.693"	"32.801"	"33.33"	"30.761"	"28.446"	"29.62"	"24.873"	"19.625"	"16.113"
"1935"	"12.759"	"17.598"	"22.874"	"26.302"	"33.901"	"36.129"	"30.927"	"29.072"	"29.243"	"25.905"	"21"	"15.243"
"1936"	"13.066"	"17.482"	"22.751"	"28.839"	"35.31"	"32.297"	"30.176"	"28.99"	"28.975"	"26.245"	"20.647"	"15.366"
"1937"	"13.393"	"17.531"	"21.351"	"27.418"	"33.415"	"35.283"	"31.092"	"31.022"	"29.913"	"26.141"	"20.523"	"14.416"
"1938"	"13.8"	"15.784"	"24.599"	"30.391"	"35.605"	"33.254"	"31.714"	"30.267"	"31.029"	"27.642"	"19.212"	"14.924"
"1939"	"15.284"	"17.579"	"20.675"	"27.895"	"35.197"	"33.172"	"31.192"	"31.285"	"29.702"	"27.51"	"19.933"	"15.442"
"1940"	"14.455"	"16.556"	"21.412"	"27.812"	"34.505"	"35.688"	"32.286"	"28.872"	"29.347"	"26.574"	"21.44"	"15.184"
"1941"	"13.629"	"18.049"	"25.404"	"31.924"	"35.199"	"33.622"	"33.886"	"30.862"	"30.418"	"29.332"	"20.978"	"16.769"
"1942"	"13.086"	"18.513"	"24.906"	"30.928"	"34.816"	"36.103"	"30.226"	"28.588"	"28.242"	"26.3"	"21.485"	"14.618"
"1943"	"15.053"	"17.31"	"23.942"	"27.658"	"33.561"	"34.269"	"30.73"	"28.428"	"29.744"	"26.3"	"21.381"	"16.549"
"1944"	"13.774"	"16.91"	"21.782"	"28.039"	"35.095"	"33.634"	"30.723"	"30.093"	"29.549"	"25.89"	"21.182"	"16.592"
"1945"	"12.568"	"16.531"	"24.057"	"28.277"	"33.48"	"35.624"	"31.463"	"30.052"	"28.852"	"25.917"	"20.655"	"14.183"
"1946"	"15.054"	"19.028"	"22.87"	"30.723"	"33.871"	"34.426"	"30.908"	"29.632"	"29.989"	"27.151"	"20.475"	"15.536"
"1947"	"13.382"	"18.266"	"24.453"	"30.81"	"34.505"	"36.385"	"32.169"	"30.161"	"29.189"	"25.307"	"21.63"	"15.696"
"1948"	"14.143"	"16.788"	"21.747"	"31.227"	"35.062"	"36.397"	"31.56"	"29.047"	"29.455"	"27.335"	"20.037"	"15.692"
"1949"	"16.16"	"17.877"	"23.689"	"30.538"	"34.851"	"35.526"	"30.988"	"29.63"	"30.106"	"26.58"	"19.339"	"14.629"
"1950"	"15.602"	"15.637"	"21.915"	"28.054"	"34.062"	"35.4"	"30.751"	"29.431"	"28.862"	"25.978"	"19.627"	"13.854"
"1951"	"13.576"	"16.871"	"22.861"	"26.935"	"33.574"	"34.551"	"33.04"	"29.994"	"29.61"	"29.624"	"22.181"	"15.932"
"1952"	"15.742"	"19.783"	"23.239"	"31.491"	"34.616"	"33.295"	"31.24"	"28.904"	"30.654"	"27.424"	"20.924"	"16.088"
"1953"	"13.402"	"18.819"	"26.631"	"30.583"	"35.175"	"36.069"	"31.582"	"29.309"	"29.726"	"26.896"	"20.228"	"17.687"
"1954"	"13.196"	"18.659"	"23.445"	"30.324"	"35.547"	"35.815"	"31.77"	"30.495"	"29.704"	"24.519"	"21.071"	"15.315"
"1955"	"14.14"	"17.649"	"25.498"	"27.807"	"32.703"	"35.694"	"31.899"	"29.039"	"29.44"	"25.326"	"19.932"	"15.729"
"1956"	"14.685"	"17.832"	"23.619"	"30.238"	"35.193"	"34.752"	"29.92"	"29.281"	"30.502"	"25.508"	"19.598"	"16.031"
"1957"	"13.939"	"16.334"	"22.177"	"28.2"	"32.522"	"34.005"	"31.239"	"30.251"	"28.386"	"26.586"	"21.673"	"16.233"
"1958"	"16.579"	"17.799"	"24.715"	"31.562"	"33.962"	"35.46"	"30.7"	"29.263"	"29.097"	"26.414"	"20.783"	"17.088"
"1959"	"14.71"	"17.201"	"24.536"	"29.696"	"33.21"	"35.394"	"30.749"	"29.7"	"29.944"	"27.667"	"21.11"	"16.903"
"1960"	"14.505"	"20.562"	"23.245"	"28.588"	"33.841"	"35.684"	"31.121"	"29.15"	"30.054"	"26.088"	"20.067"	"16.407"
"1961"	"15.144"	"15.886"	"23.71"	"28.725"	"33.466"	"34.013"	"30.856"	"28.773"	"29.663"	"25.769"	"19.495"	"13.14"
"1962"	"13.663"	"18.213"	"23.159"	"30.228"	"33.603"	"35.246"	"31.921"	"30.101"	"28.712"	"25.112"	"21.022"	"16.068"
"1963"	"13.966"	"19.459"	"23.548"	"28.954"	"32.664"	"34.382"	"32.675"	"29.021"	"28.471"	"27.407"	"22.715"	"15.883"
"1964"	"13.334"	"17.554"	"25.277"	"30.409"	"31.904"	"34.992"	"29.733"	"30.038"	"28.484"	"26.283"	"19.682"	"16.119"
"1965"	"16.597"	"17.477"	"22.748"	"27.451"	"32.54"	"36.154"	"31.351"	"30.046"	"28.998"	"26.981"	"21.846"	"15.627"
"1966"	"15.663"	"20.172"	"23.343"	"29.758"	"33.545"	"33.209"	"32.664"	"29.357"	"29.333"	"27.444"	"21.185"	"15.137"
"1967"	"13.503"	"19.64"	"22.456"	"28.758"	"33.438"	"35.182"	"30.749"	"28.228"	"28.017"	"25.987"	"20.657"	"16.138"
"1968"	"13.868"	"15.97"	"22.944"	"28.657"	"32.876"	"34.919"	"30.067"	"29.185"	"30.127"	"26.127"	"20.887"	"16.134"
"1969"	"14.98"	"18.329"	"26.057"	"29.844"	"32.363"	"36.179"	"30.663"	"29.527"	"28.789"	"27.365"	"21.927"	"16.064"
"1970"	"15.314"	"16.68"	"22.802"	"30.746"	"33.922"	"32.533"	"32.078"	"29.768"	"29.513"	"27.115"	"20.577"	"16.463"
"1971"	"13.759"	"17.886"	"23.586"	"30.276"	"31.72"	"31.831"	"29.475"	"28.027"	"28.483"	"26.109"	"20.615"	"16.207"
"1972"	"15.075"	"15.596"	"24.163"	"28.954"	"34.873"	"35.667"	"32.319"	"29.074"	"28.056"	"26.229"	"21.6"	"16.41"
"1973"	"14.984"	"19.236"	"23.46"	"31.488"	"34.743"	"34.902"	"31.682"	"28.823"	"29.475"	"26.173"	"20.565"	"14.406"
"1974"	"14.182"	"16.554"	"25.054"	"31.45"	"33.643"	"34.311"	"30.415"	"29.587"	"30.226"	"27.093"	"20.611"	"15.032"
"1975"	"13.825"	"16.602"	"23.388"	"31.252"	"34.973"	"32.907"	"30.472"	"28.928"	"27.886"	"26.869"	"19.821"	"16.356"
"1976"	"16.1"	"18.263"	"23.172"	"28.926"	"32.903"	"32.192"	"31.116"	"28.2"	"28.634"	"27.304"	"21.859"	"16.1"
"1977"	"14.588"	"18.032"	"25.14"	"29.033"	"31.557"	"33.157"	"28.931"	"29.24"	"27.804"	"27.035"	"22.97"	"17.696"
"1978"	"14.547"	"16.487"	"21.465"	"29.371"	"36.152"	"33.599"	"29.543"	"28.31"	"28.489"	"26.552"	"21.501"	"16.134"
"1979"	"15.125"	"16.272"	"21.682"	"30.227"	"29.981"	"34.354"	"30.968"	"30.307"	"29.871"	"28.105"	"22.595"	"16.824"
"1980"	"14.794"	"18.924"	"22.778"	"31.833"	"36.19"	"33.331"	"29.43"	"29.448"	"29.138"	"27.684"	"21.218"	"16.282"
"1981"	"15.202"	"18.506"	"22.55"	"30.134"	"33.567"	"34.946"	"29.578"	"29.624"	"30.06"	"26.797"	"20.236"	"15.833"
"1982"	"15.202"	"16.232"	"20.726"	"28.352"	"30.727"	"33.969"	"32.373"	"29.233"	"29.27"	"27.16"	"21.403"	"16.716"
"1983"	"14.031"	"16.391"	"22.531"	"26.49"	"31.656"	"33.253"	"30.691"	"29.224"	"29.17"	"26.093"	"20"	"15.964"
"1984"	"14.082"	"15.656"	"24.78"	"30.151"	"35.821"	"34.65"	"30.2"	"29.136"	"28.037"	"26.124"	"20.502"	"16.561"
"1985"	"14.412"	"17.997"	"25.402"	"30.264"	"34.881"	"34.603"	"30.226"	"29.339"	"28.303"	"24.809"	"20.995"	"17.016"
"1986"	"14.728"	"16.803"	"23.345"	"29.649"	"31.948"	"34.083"	"30.07"	"30.134"	"29.747"	"26.332"	"22.073"	"15.177"
"1987"	"15.371"	"19.267"	"24.459"	"30.545"	"31.144"	"35.708"	"34.179"	"30.825"	"31.436"	"28.094"	"21.427"	"16.147"
"1988"	"16.474"	"19.284"	"23.764"	"30.917"	"35.73"	"33.63"	"30.207"	"29.046"	"29.895"	"26.679"	"21.23"	"16.425"
"1989"	"13.873"	"17.046"	"22.946"	"28.206"	"34.243"	"33.279"	"30.659"	"29.634"	"29.459"	"26.691"	"20.768"	"15.496"
"1990"	"16.624"	"17.684"	"21.737"	"29.301"	"32.902"	"34.586"	"30.247"	"29.683"	"28.775"	"26.187"	"21.43"	"16.416"
"1991"	"13.889"	"18.389"	"23.431"	"28.455"	"33.809"	"34.243"	"33.128"	"29.342"	"30.003"	"26.029"	"20.318"	"15.539"
"1992"	"14.962"	"16.799"	"23.248"	"29.181"	"33.106"	"35.381"	"31.432"	"29.318"	"28.519"	"26.328"	"20.525"	"16.486"
"1993"	"15.05"	"19.341"	"21.393"	"28.792"	"34.559"	"34.817"	"31.106"	"30.472"	"28.173"	"26.412"	"21.744"	"16.062"
"1994"	"16.553"	"17.497"	"24.56"	"27.898"	"34.204"	"34.741"	"30.463"	"29.436"	"29.038"	"26.133"	"21.046"	"16.685"
"1995"	"14.034"	"17.935"	"22.255"	"29.213"	"34.862"	"35.937"	"31.872"	"28.567"	"29.462"	"27.515"	"21.125"	"16.46"
"1996"	"14.205"	"17.839"	"24.286"	"29.692"	"33.489"	"32.988"	"30.788"	"28.444"	"28.989"	"26.637"	"20.22"	"15.04"
"1997"	"13.673"	"17.147"	"22.92"	"27.724"	"31.587"	"32.593"	"31.708"	"29.269"	"29.333"	"24.76"	"20.141"	"13.979"
"1998"	"13.665"	"17.934"	"21.39"	"29.942"	"34.638"	"34.118"	"31.09"	"29.39"	"29.721"	"26.858"	"21.63"	"15.975"
"1999"	"13.983"	"18.321"	"24.435"	"31.329"	"34.026"	"33.7"	"31.819"	"30.369"	"29.345"	"26.904"	"22.02"	"16.159"
"2000"	"14.731"	"16.474"	"22.957"	"31.29"	"34.525"	"32.665"	"30.278"	"29.933"	"29.484"	"27.365"	"22.603"	"16.471"
"2001"	"13.887"	"18.331"	"23.525"	"29.431"	"33.105"	"31.991"	"31.008"	"30.475"	"30.285"	"27.822"	"21.835"	"16.815"
"2002"	"14.829"	"17.508"	"24.386"	"31.054"	"34.624"	"34.148"	"33.422"	"30.253"	"28.067"	"27.25"	"21.454"	"16.777"
