
"Year"	"Jan"	"Feb"	"Mar"	"Apr"	"May"	"Jun"	"Jul"	"Aug"	"Sep"	"Oct"	"Nov"	"Dec"
"1901"	"11.041"	"14.328"	"20.839"	"27.123"	"30.431"	"33.182"	"29.805"	"28.706"	"27.504"	"25.899"	"20.482"	"14.783"
"1902"	"15.278"	"17.599"	"22.164"	"26.876"	"30.732"	"31.227"	"28.505"	"28.564"	"27.558"	"23.209"	"19.422"	"15.132"
"1903"	"13.325"	"14.545"	"18.862"	"26.682"	"30.977"	"32.133"	"30.304"	"28.663"	"28.16"	"24.361"	"19.889"	"15.546"
"1904"	"13.671"	"17.603"	"20.605"	"28.439"	"29.539"	"31.071"	"28.505"	"28.206"	"27.157"	"24.505"	"18.289"	"14.042"
"1905"	"10.469"	"11.633"	"16.51"	"23.989"	"30.538"	"31.885"	"28.905"	"28.818"	"27.656"	"24.902"	"19.784"	"14.139"
"1906"	"12.084"	"12.645"	"19.001"	"27.722"	"32.143"	"30.876"	"29.105"	"28.247"	"27.756"	"24.506"	"21.088"	"15.93"
"1907"	"16.078"	"12.698"	"16.405"	"24.817"	"28.986"	"31.716"	"29.805"	"28.706"	"28.563"	"26.06"	"19.78"	"15.11"
"1908"	"14.329"	"16.533"	"21.305"	"29.574"	"30.831"	"32.733"	"28.505"	"28.054"	"27.857"	"24.964"	"18.888"	"14.281"
"1909"	"12.723"	"15.094"	"22.941"	"25.677"	"30.831"	"30.017"	"28.951"	"29.147"	"28.657"	"26.105"	"19.627"	"15.47"
"1910"	"14.764"	"15.534"	"21.703"	"27.523"	"30.585"	"30.475"	"28.105"	"28.606"	"27.756"	"23.858"	"18.594"	"14.182"
"1911"	"13.513"	"16.743"	"18.194"	"27.122"	"32.344"	"30.772"	"30.304"	"29.105"	"27.357"	"24.206"	"17.69"	"14.232"
"1912"	"13.125"	"16.645"	"20.603"	"26.277"	"30.086"	"31.531"	"28.905"	"28.354"	"27.056"	"24.659"	"17.39"	"14.178"
"1913"	"13.976"	"13.851"	"18.301"	"27.593"	"29.033"	"29.517"	"28.752"	"29.352"	"28.698"	"24.459"	"17.69"	"12.384"
"1914"	"15.324"	"14.34"	"19.208"	"26.123"	"29.886"	"30.876"	"28.905"	"28.85"	"27.456"	"22.707"	"19.035"	"14.183"
"1915"	"14.425"	"14.691"	"20.154"	"27.122"	"31.638"	"31.081"	"29.605"	"29.006"	"28.057"	"26.399"	"20.435"	"14.824"
"1916"	"14.121"	"15.337"	"24.746"	"28.481"	"31.677"	"30.118"	"28.405"	"28.905"	"27.456"	"24.506"	"19.989"	"13.735"
"1917"	"13.625"	"15.387"	"19.401"	"23.57"	"26.519"	"30.022"	"28.706"	"28.706"	"26.71"	"23.711"	"20.03"	"14.083"
"1918"	"13.019"	"16.989"	"21.204"	"25.624"	"31.484"	"29.971"	"29.709"	"28.905"	"28.255"	"24.801"	"18.541"	"12.582"
"1919"	"11.689"	"14.745"	"20.5"	"24.925"	"28.975"	"31.025"	"28.505"	"28.706"	"27.316"	"24.459"	"18.991"	"13.482"
"1920"	"15.529"	"13.898"	"18.857"	"27.122"	"27.534"	"30.28"	"28.505"	"28.706"	"27.755"	"24.659"	"19.789"	"16.503"
"1921"	"12.825"	"16.844"	"24.257"	"29.129"	"33.7"	"30.44"	"28.505"	"27.706"	"26.311"	"23.305"	"18.831"	"14.739"
"1922"	"11.62"	"16.991"	"23"	"27.324"	"32.138"	"30.317"	"28.505"	"27.705"	"26.91"	"23.354"	"18.884"	"12.283"
"1923"	"14.223"	"13.894"	"21.849"	"28.93"	"30.79"	"33.08"	"28.506"	"28.548"	"27.157"	"23.446"	"19.13"	"14.182"
"1924"	"12.467"	"15.891"	"22.759"	"28.422"	"28.182"	"33.433"	"28.859"	"28.206"	"26.457"	"24.659"	"18.789"	"14.931"
"1925"	"11.473"	"15.848"	"21.398"	"28.683"	"30.383"	"29.118"	"28.205"	"28.506"	"27.311"	"24.06"	"17.89"	"15.067"
"1926"	"13.121"	"16.891"	"18.247"	"23.518"	"28.633"	"33.179"	"29.157"	"28.459"	"27.656"	"24.159"	"16.888"	"14.54"
"1927"	"12.725"	"13.439"	"20.099"	"26.723"	"29.285"	"31.375"	"28.804"	"27.906"	"27.756"	"24.201"	"18.441"	"15.534"
"1928"	"12.684"	"16.09"	"21.199"	"26.277"	"31.987"	"30.772"	"28.958"	"29.269"	"28.86"	"25.504"	"18.836"	"14.099"
"1929"	"12.783"	"15.336"	"22.659"	"27.377"	"31.888"	"30.728"	"28.805"	"27.906"	"27.41"	"23.76"	"19.583"	"12.397"
"1930"	"11.742"	"15.29"	"22.444"	"27.122"	"30.528"	"30.426"	"28.406"	"28.605"	"28.114"	"23.811"	"18.636"	"15.147"
"1931"	"14.936"	"13.244"	"20.958"	"29.074"	"30.689"	"32.679"	"28.859"	"29.407"	"27.056"	"24.06"	"19.047"	"14.931"
"1932"	"15.377"	"14.445"	"21.701"	"27.176"	"30.089"	"32.628"	"29.105"	"28.404"	"27.558"	"24.559"	"20.589"	"14.451"
"1933"	"12.281"	"15.698"	"21.606"	"25.066"	"27.329"	"30.528"	"28.405"	"28.506"	"27.303"	"24.105"	"19.93"	"15.432"
"1934"	"11.924"	"17.892"	"20.401"	"28.081"	"30.635"	"30.428"	"28.405"	"27.706"	"28.168"	"24.517"	"19.486"	"12.83"
"1935"	"10.573"	"15.635"	"21.199"	"23.624"	"32.086"	"32.528"	"28.459"	"27.859"	"27.258"	"24.06"	"18.689"	"12.542"
"1936"	"12.079"	"13.81"	"20.9"	"26.131"	"30.592"	"28.025"	"27.659"	"27.617"	"26.712"	"23.055"	"18.986"	"13.597"
"1937"	"12.579"	"14.25"	"20.001"	"24.133"	"29.686"	"30.931"	"28.706"	"28.45"	"27.558"	"23.401"	"17.49"	"13.636"
"1938"	"11.879"	"13.687"	"22.2"	"28.277"	"30.693"	"29.372"	"28.012"	"28.259"	"27.703"	"24.513"	"17.23"	"15.831"
"1939"	"13.585"	"14.151"	"18.001"	"26.225"	"32.184"	"29.681"	"28.505"	"28.56"	"27.456"	"24.055"	"19.638"	"15.571"
"1940"	"13.52"	"14.593"	"17.748"	"26.024"	"30.686"	"31.222"	"28.76"	"28.506"	"26.758"	"24.807"	"19.689"	"12.685"
"1941"	"11.923"	"16.543"	"23.359"	"30.069"	"31.085"	"30.574"	"29.605"	"28.906"	"27.756"	"24.86"	"19.287"	"16.33"
"1942"	"12.568"	"16.653"	"23.151"	"27.729"	"30.738"	"32.474"	"28.589"	"28.007"	"27.056"	"24.759"	"20.148"	"13.482"
"1943"	"12.085"	"16.854"	"21.858"	"24.931"	"31.537"	"30.934"	"28.704"	"28.007"	"28.256"	"24.819"	"21.244"	"15.19"
"1944"	"11.432"	"14.039"	"19.888"	"25.628"	"32.983"	"30.577"	"28.746"	"28.706"	"27.756"	"24.955"	"19.689"	"16.388"
"1945"	"10.784"	"14.692"	"21.3"	"25.265"	"31.126"	"32.276"	"28.515"	"28.711"	"27.358"	"23.406"	"19.884"	"13.681"
"1946"	"16.229"	"18.046"	"20.947"	"26.678"	"28.782"	"30.876"	"28.612"	"29.264"	"28.256"	"23.661"	"19.49"	"14.792"
"1947"	"12.083"	"16.543"	"21.245"	"28.677"	"31.244"	"32.54"	"28.812"	"28.905"	"27.656"	"23.506"	"19.83"	"15.041"
"1948"	"13.88"	"14.987"	"19.904"	"28.888"	"31.996"	"32.98"	"28.819"	"28.107"	"27.358"	"23.559"	"18.39"	"13.629"
"1949"	"15.576"	"15.185"	"21.659"	"27.783"	"29.994"	"32.136"	"28.505"	"28.506"	"27.568"	"25.363"	"19.088"	"12.685"
"1950"	"14.067"	"14.851"	"19.448"	"27.133"	"30.99"	"30.687"	"28.358"	"28.165"	"26.961"	"24.369"	"19.599"	"14.14"
"1951"	"11.885"	"16.797"	"21.118"	"25.13"	"30.933"	"31.529"	"29.816"	"29.159"	"27.511"	"26.206"	"19.942"	"15.431"
"1952"	"15.125"	"17.545"	"19.348"	"27.882"	"30.786"	"30.429"	"28.707"	"28.259"	"28.25"	"25.111"	"19.696"	"15.293"
"1953"	"11.426"	"18.597"	"24.212"	"28.334"	"31.329"	"32.075"	"28.589"	"28.799"	"28.098"	"24.659"	"19.987"	"15.947"
"1954"	"11.884"	"16.094"	"22.753"	"28.977"	"32.677"	"31.475"	"28.707"	"28.606"	"27.709"	"23.007"	"19.229"	"13.1"
"1955"	"12.543"	"17.445"	"23.157"	"25.528"	"30.124"	"31.723"	"28.697"	"28.107"	"27.357"	"23.308"	"19.685"	"13.767"
"1956"	"12.989"	"17.64"	"21.347"	"28.877"	"31.794"	"30.523"	"28.089"	"28.507"	"27.751"	"23.452"	"19.372"	"13.089"
"1957"	"11.979"	"15.649"	"19.447"	"26.33"	"30.48"	"30.681"	"29.059"	"28.964"	"27.504"	"24.517"	"20.488"	"15.025"
"1958"	"14.384"	"16.145"	"22"	"29.03"	"31.395"	"32.334"	"28.706"	"28.416"	"28.155"	"25.042"	"20.74"	"15.432"
"1959"	"14.177"	"15.533"	"22.604"	"27.877"	"31.435"	"31.586"	"28.21"	"29.105"	"28.251"	"24.501"	"19.382"	"16.134"
"1960"	"12.526"	"20.391"	"20.242"	"26.839"	"32.141"	"32.087"	"28.958"	"29.005"	"28.155"	"24.06"	"19.229"	"17.533"
"1961"	"13.625"	"13.83"	"22.3"	"28.021"	"30.879"	"31.108"	"29.347"	"28.947"	"28.583"	"23.976"	"17.765"	"12.574"
"1962"	"12.863"	"15.884"	"21.3"	"27.626"	"30.943"	"32.025"	"29.805"	"28.8"	"27.335"	"24.604"	"20.172"	"14.586"
"1963"	"14.565"	"18.248"	"20.558"	"26.072"	"29.768"	"30.967"	"29.542"	"28.344"	"27.298"	"25.201"	"19.369"	"15.067"
"1964"	"12.947"	"16.433"	"23.59"	"28.265"	"29.028"	"32.137"	"28.047"	"28.905"	"27.289"	"25.988"	"19.508"	"15.057"
"1965"	"15.116"	"14.783"	"19.753"	"25.513"	"30.178"	"33.041"	"28.505"	"28.105"	"27.75"	"24.397"	"19.668"	"14.461"
"1966"	"14.577"	"18.038"	"22.308"	"28.242"	"31.551"	"31.58"	"29.462"	"28.706"	"27.615"	"24.369"	"19.246"	"15.083"
"1967"	"13.972"	"18.595"	"19.753"	"26.677"	"30.694"	"32.037"	"28.799"	"27.801"	"27.756"	"23.809"	"17.641"	"13.982"
"1968"	"11.683"	"14.291"	"20.958"	"26.977"	"30.989"	"30.365"	"28.259"	"28.465"	"28.514"	"24.11"	"19.088"	"14.973"
"1969"	"13.021"	"17.497"	"24.162"	"26.836"	"29.223"	"31.496"	"28.458"	"28.259"	"26.611"	"24.512"	"20.231"	"15.777"
"1970"	"13.18"	"15.65"	"20.653"	"28.934"	"31.039"	"29.756"	"28.814"	"28.506"	"27.947"	"24.696"	"19.189"	"15.925"
"1971"	"12.932"	"16.345"	"21.695"	"26.697"	"27.559"	"29.334"	"28.043"	"27.395"	"27.162"	"24.448"	"19.077"	"16.119"
"1972"	"15.298"	"14.292"	"22.999"	"25.731"	"32.348"	"32.146"	"28.863"	"27.96"	"26.562"	"23.247"	"19.2"	"15.477"
"1973"	"13.558"	"16.399"	"20.814"	"29.88"	"30.587"	"30.008"	"28.847"	"28.16"	"27.401"	"23.559"	"19.583"	"13.887"
"1974"	"13.125"	"15.87"	"23.385"	"29.072"	"30.291"	"30.192"	"28.405"	"28.216"	"27.268"	"25.854"	"18.996"	"12.935"
"1975"	"11.387"	"15.264"	"20.23"	"27.695"	"31.158"	"29.529"	"27.662"	"28.016"	"26.506"	"25.554"	"19.175"	"15.419"
"1976"	"14.206"	"16.021"	"20.597"	"26.06"	"29.576"	"29.77"	"28.503"	"27.408"	"27.368"	"24.663"	"21.176"	"15.471"
"1977"	"13.954"	"16.838"	"23.642"	"26.568"	"27.273"	"30.035"	"27.747"	"28.116"	"26.553"	"24.155"	"20.432"	"13.885"
"1978"	"12.732"	"14.805"	"17.729"	"26.138"	"32.432"	"30.762"	"28"	"28.116"	"26.8"	"24.952"	"18.566"	"15.027"
"1979"	"13.836"	"14.435"	"19.102"	"27.724"	"29.934"	"31.027"	"28.503"	"28.865"	"27.42"	"25.312"	"21.383"	"14.539"
"1980"	"13.633"	"16.933"	"19.959"	"28.54"	"31.925"	"29.857"	"27.937"	"28.252"	"27.255"	"23.966"	"19.737"	"15.878"
"1981"	"12.181"	"16.784"	"19.846"	"27.064"	"29.427"	"31.228"	"28.243"	"28.206"	"27.462"	"24.905"	"18.648"	"13.79"
"1982"	"14.325"	"15.193"	"17.506"	"25.718"	"27.882"	"30.726"	"29.567"	"28.206"	"27.764"	"24.362"	"19.49"	"15.833"
"1983"	"13.119"	"13.855"	"19.764"	"23.978"	"29.274"	"30.052"	"29.067"	"28.653"	"27.309"	"23.605"	"18.988"	"14.382"
"1984"	"11.876"	"14.824"	"23.736"	"26.977"	"32.78"	"31.052"	"27.958"	"28.506"	"27.213"	"24.796"	"18.689"	"14.877"
"1985"	"12.014"	"17.147"	"24.685"	"27.872"	"30.137"	"31.04"	"27.853"	"28.302"	"26.605"	"23.05"	"19.044"	"14.836"
"1986"	"14.021"	"16.14"	"20.06"	"26.231"	"27.692"	"30.386"	"27.862"	"28.258"	"26.962"	"23.455"	"19.884"	"13.342"
"1987"	"14.223"	"17.393"	"22.988"	"28.073"	"28.383"	"32.041"	"29.627"	"28.824"	"28.069"	"25.457"	"21.129"	"16.983"
"1988"	"16.619"	"18.285"	"22.048"	"29.17"	"31.843"	"30.623"	"28.147"	"28.206"	"27.562"	"26.099"	"19.688"	"15.088"
"1989"	"12.638"	"16.234"	"21.742"	"26.83"	"30.632"	"29.379"	"28.503"	"27.739"	"27.504"	"25.004"	"19.088"	"14.735"
"1990"	"18.05"	"15.335"	"18.509"	"26.285"	"29.317"	"31.672"	"27.849"	"28.208"	"27.047"	"23.612"	"19.889"	"14.974"
"1991"	"10.992"	"16.888"	"21.69"	"25.828"	"31.047"	"30.073"	"29.411"	"28.107"	"27.304"	"24.55"	"18.032"	"14.59"
"1992"	"14.013"	"14.254"	"21.29"	"27.625"	"28.888"	"29.939"	"27.857"	"27.354"	"26.506"	"23.611"	"19.242"	"15.078"
"1993"	"12.551"	"18.419"	"18.34"	"25.568"	"30.323"	"31.572"	"28.001"	"28.259"	"27.602"	"24.706"	"20.274"	"15.815"
"1994"	"15.53"	"15.703"	"23.186"	"25.576"	"31.387"	"32.123"	"28.996"	"28.404"	"27.351"	"24.36"	"19.49"	"15.574"
"1995"	"12.846"	"15.859"	"20.589"	"26.887"	"32.736"	"32.923"	"27.794"	"27.31"	"27.368"	"25.211"	"18.824"	"15.097"
"1996"	"13.769"	"16.244"	"21.415"	"27.134"	"30.595"	"30.219"	"27.816"	"26.296"	"27.109"	"24.412"	"19.267"	"14.269"
"1997"	"14.012"	"15.887"	"21.2"	"26.608"	"29.024"	"29.718"	"30.248"	"28.352"	"27.61"	"21.645"	"18.937"	"13.583"
"1998"	"7.815"	"16.887"	"19.743"	"27.117"	"31.543"	"32.674"	"28.499"	"28.166"	"28.256"	"24.849"	"21.576"	"18.515"
"1999"	"13.814"	"20.327"	"25.135"	"33.211"	"31.58"	"30.318"	"30.099"	"29.547"	"27.905"	"25.505"	"21.987"	"16.927"
"2000"	"15.662"	"15.689"	"20.543"	"29.529"	"30.733"	"29.72"	"28.904"	"29.005"	"28.849"	"26.559"	"22.046"	"17.434"
"2001"	"14.416"	"17.086"	"22.299"	"26.375"	"30.838"	"30.218"	"29.8"	"29.705"	"29.397"	"26.501"	"22.235"	"17.138"
"2002"	"15.12"	"17.393"	"22.896"	"28.371"	"32.983"	"31.876"	"31.009"	"29.301"	"26.262"	"25.698"	"20.384"	"15.194"
