
"Year"	"Jan"	"Feb"	"Mar"	"Apr"	"May"	"Jun"	"Jul"	"Aug"	"Sep"	"Oct"	"Nov"	"Dec"
"1901"	"2.334"	"2.359"	"2.282"	"2.342"	"2.391"	"2.355"	"2.308"	"2.315"	"2.211"	"2.303"	"2.325"	"2.27"
"1902"	"2.277"	"2.279"	"2.381"	"2.488"	"2.391"	"2.337"	"2.201"	"2.297"	"2.274"	"2.213"	"2.321"	"2.291"
"1903"	"2.258"	"2.303"	"2.331"	"2.49"	"2.464"	"2.323"	"2.292"	"2.301"	"2.276"	"2.306"	"2.26"	"2.25"
"1904"	"2.235"	"2.255"	"2.329"	"2.332"	"2.359"	"2.291"	"2.26"	"2.323"	"2.254"	"2.325"	"2.261"	"2.246"
"1905"	"2.18"	"2.241"	"2.371"	"2.435"	"2.293"	"2.305"	"2.208"	"2.322"	"2.18"	"2.32"	"2.353"	"2.292"
"1906"	"2.288"	"2.254"	"2.243"	"2.491"	"2.4"	"2.33"	"2.312"	"2.306"	"2.311"	"2.294"	"2.292"	"2.287"
"1907"	"2.26"	"2.238"	"2.286"	"2.434"	"2.301"	"2.326"	"2.257"	"2.275"	"2.299"	"2.278"	"2.273"	"2.188"
"1908"	"2.214"	"2.187"	"2.331"	"2.466"	"2.323"	"2.285"	"2.24"	"2.241"	"2.228"	"2.282"	"2.253"	"2.233"
"1909"	"2.226"	"2.253"	"2.325"	"2.382"	"2.323"	"2.283"	"2.24"	"2.255"	"2.266"	"2.28"	"2.239"	"2.206"
"1910"	"2.21"	"2.237"	"2.227"	"2.337"	"2.391"	"2.303"	"2.312"	"2.299"	"2.209"	"2.251"	"2.267"	"2.195"
"1911"	"2.215"	"2.211"	"2.301"	"2.343"	"2.357"	"2.299"	"2.277"	"2.305"	"2.263"	"2.262"	"2.366"	"2.286"
"1912"	"2.169"	"2.262"	"2.308"	"2.477"	"2.412"	"2.309"	"2.26"	"2.263"	"2.257"	"2.28"	"2.259"	"2.253"
"1913"	"2.263"	"2.279"	"2.337"	"2.44"	"2.457"	"2.302"	"2.256"	"2.306"	"2.248"	"2.283"	"2.275"	"2.243"
"1914"	"2.216"	"2.21"	"2.329"	"2.407"	"2.396"	"2.3"	"2.259"	"2.247"	"2.3"	"2.182"	"2.206"	"2.287"
"1915"	"2.293"	"2.311"	"2.386"	"2.453"	"2.427"	"2.274"	"2.185"	"2.218"	"2.165"	"2.292"	"2.296"	"2.203"
"1916"	"2.138"	"2.194"	"2.352"	"2.344"	"2.371"	"2.304"	"2.294"	"2.287"	"2.262"	"2.288"	"2.301"	"2.172"
"1917"	"2.147"	"2.23"	"2.291"	"2.412"	"2.365"	"2.325"	"2.259"	"2.267"	"2.246"	"2.262"	"2.264"	"2.185"
"1918"	"2.209"	"2.161"	"2.314"	"2.4"	"2.321"	"2.271"	"2.308"	"2.265"	"2.292"	"2.283"	"2.307"	"2.253"
"1919"	"2.311"	"2.253"	"2.312"	"2.446"	"2.432"	"2.304"	"2.297"	"2.322"	"2.178"	"2.19"	"2.287"	"2.259"
"1920"	"2.229"	"2.156"	"2.375"	"2.428"	"2.375"	"2.299"	"2.297"	"2.279"	"2.257"	"2.257"	"2.282"	"2.203"
"1921"	"2.285"	"2.174"	"2.349"	"2.443"	"2.377"	"2.314"	"2.261"	"2.267"	"2.216"	"2.262"	"2.232"	"2.236"
"1922"	"2.205"	"2.189"	"2.267"	"2.334"	"2.363"	"2.309"	"2.242"	"2.257"	"2.254"	"2.273"	"2.225"	"2.156"
"1923"	"2.219"	"2.15"	"2.301"	"2.372"	"2.351"	"2.303"	"2.195"	"2.273"	"2.223"	"2.283"	"2.277"	"2.3"
"1924"	"2.245"	"2.173"	"2.375"	"2.418"	"2.391"	"2.325"	"2.225"	"2.295"	"2.271"	"2.243"	"2.263"	"2.158"
"1925"	"2.173"	"2.166"	"2.318"	"2.38"	"2.375"	"2.285"	"2.294"	"2.261"	"2.298"	"2.25"	"2.279"	"2.204"
"1926"	"2.219"	"2.221"	"2.347"	"2.467"	"2.374"	"2.336"	"2.3"	"2.276"	"2.244"	"2.262"	"2.271"	"2.206"
"1927"	"2.21"	"2.223"	"2.318"	"2.376"	"2.31"	"2.303"	"2.28"	"2.263"	"2.155"	"2.278"	"2.276"	"2.226"
"1928"	"2.271"	"2.24"	"2.274"	"2.347"	"2.372"	"2.311"	"2.294"	"2.263"	"2.288"	"2.27"	"2.323"	"2.303"
"1929"	"2.273"	"2.185"	"2.322"	"2.395"	"2.365"	"2.291"	"2.301"	"2.263"	"2.152"	"2.236"	"2.279"	"2.258"
"1930"	"2.192"	"2.207"	"2.285"	"2.409"	"2.422"	"2.288"	"2.294"	"2.303"	"2.251"	"2.15"	"2.315"	"2.239"
"1931"	"2.241"	"2.251"	"2.334"	"2.485"	"2.429"	"2.338"	"2.3"	"2.31"	"2.299"	"2.283"	"2.306"	"2.239"
"1932"	"2.206"	"2.186"	"2.337"	"2.386"	"2.438"	"2.293"	"2.3"	"2.225"	"2.248"	"2.304"	"2.293"	"2.196"
"1933"	"2.263"	"2.219"	"2.354"	"2.412"	"2.431"	"2.296"	"2.281"	"2.32"	"2.274"	"2.281"	"2.289"	"2.227"
"1934"	"2.256"	"2.22"	"2.327"	"2.373"	"2.413"	"2.299"	"2.315"	"2.261"	"2.286"	"2.313"	"2.258"	"2.142"
"1935"	"2.155"	"2.187"	"2.344"	"2.409"	"2.363"	"2.299"	"2.286"	"2.256"	"2.242"	"2.318"	"2.253"	"2.211"
"1936"	"2.163"	"2.169"	"2.292"	"2.386"	"2.417"	"2.283"	"2.253"	"2.261"	"2.173"	"2.311"	"2.318"	"2.305"
"1937"	"2.196"	"2.25"	"2.303"	"2.445"	"2.366"	"2.293"	"2.265"	"2.305"	"2.15"	"2.314"	"2.336"	"2.216"
"1938"	"2.261"	"2.231"	"2.311"	"2.424"	"2.354"	"2.301"	"2.281"	"2.292"	"2.282"	"2.3"	"2.221"	"2.233"
"1939"	"2.24"	"2.218"	"2.337"	"2.441"	"2.375"	"2.288"	"2.272"	"2.31"	"2.288"	"2.304"	"2.325"	"2.202"
"1940"	"2.103"	"2.2"	"2.293"	"2.405"	"2.396"	"2.317"	"2.281"	"2.254"	"2.269"	"2.291"	"2.286"	"2.199"
"1941"	"2.213"	"2.165"	"2.232"	"2.431"	"2.438"	"2.365"	"2.312"	"2.338"	"2.291"	"2.32"	"2.364"	"2.268"
"1942"	"2.296"	"2.259"	"2.233"	"2.293"	"2.298"	"2.223"	"2.203"	"2.206"	"2.181"	"2.188"	"2.187"	"2.173"
"1943"	"2.047"	"2.077"	"2.202"	"2.294"	"2.214"	"2.172"	"2.181"	"2.206"	"2.195"	"2.176"	"2.161"	"2.091"
"1944"	"2.138"	"2.183"	"2.204"	"2.322"	"2.28"	"2.208"	"2.173"	"2.208"	"2.185"	"2.217"	"2.179"	"2.066"
"1945"	"2.112"	"2.148"	"2.175"	"2.292"	"2.295"	"2.234"	"2.21"	"2.227"	"2.213"	"2.169"	"2.218"	"2.171"
"1946"	"2.231"	"2.319"	"2.276"	"2.439"	"2.431"	"2.356"	"2.332"	"2.297"	"2.173"	"2.336"	"2.37"	"2.332"
"1947"	"2.289"	"2.289"	"2.38"	"2.443"	"2.488"	"2.326"	"2.315"	"2.192"	"2.175"	"2.337"	"2.338"	"2.304"
"1948"	"2.319"	"2.27"	"2.206"	"2.402"	"2.404"	"2.342"	"2.32"	"2.327"	"2.309"	"2.332"	"2.343"	"2.345"
"1949"	"2.127"	"2.254"	"2.388"	"2.414"	"2.441"	"2.326"	"2.265"	"2.312"	"2.293"	"2.326"	"2.345"	"2.294"
"1950"	"2.232"	"2.273"	"2.196"	"2.43"	"2.445"	"2.33"	"2.281"	"2.331"	"2.297"	"2.334"	"2.361"	"2.234"
"1951"	"2.197"	"2.103"	"2.266"	"2.349"	"2.38"	"2.259"	"2.225"	"2.284"	"2.28"	"2.249"	"2.289"	"2.217"
"1952"	"2.254"	"2.283"	"2.275"	"2.355"	"2.384"	"2.276"	"2.254"	"2.233"	"2.259"	"2.238"	"2.22"	"2.175"
"1953"	"2.202"	"2.178"	"2.306"	"2.379"	"2.353"	"2.276"	"2.204"	"2.246"	"2.24"	"2.276"	"2.241"	"2.234"
"1954"	"2.188"	"2.226"	"2.308"	"2.386"	"2.303"	"2.278"	"2.216"	"2.22"	"2.182"	"2.235"	"2.271"	"2.261"
"1955"	"2.216"	"2.137"	"2.288"	"2.372"	"2.307"	"2.233"	"2.207"	"2.208"	"2.216"	"2.205"	"2.209"	"2.142"
"1956"	"2.116"	"2.121"	"2.272"	"2.305"	"2.286"	"2.273"	"2.199"	"2.208"	"2.228"	"2.214"	"2.242"	"2.2"
"1957"	"2.147"	"2.141"	"2.221"	"2.381"	"2.458"	"2.278"	"2.255"	"2.249"	"2.271"	"2.245"	"2.315"	"2.295"
"1958"	"2.277"	"2.24"	"2.34"	"2.449"	"2.406"	"2.278"	"2.231"	"2.256"	"2.268"	"2.275"	"2.235"	"2.168"
"1959"	"2.227"	"2.185"	"2.283"	"2.384"	"2.404"	"2.306"	"2.195"	"2.256"	"2.192"	"2.246"	"2.306"	"2.275"
"1960"	"2.245"	"2.234"	"2.236"	"2.37"	"2.347"	"2.276"	"2.257"	"2.284"	"2.233"	"2.236"	"2.305"	"2.216"
"1961"	"2.23"	"2.227"	"2.262"	"2.366"	"2.277"	"2.267"	"2.21"	"2.2"	"2.187"	"2.209"	"2.286"	"2.211"
"1962"	"2.191"	"2.198"	"2.269"	"2.382"	"2.359"	"2.283"	"2.241"	"2.208"	"2.207"	"2.288"	"2.277"	"2.192"
"1963"	"2.193"	"2.222"	"2.273"	"2.334"	"2.406"	"2.259"	"2.243"	"2.208"	"2.207"	"2.236"	"2.294"	"2.183"
"1964"	"2.182"	"2.276"	"2.314"	"2.397"	"2.277"	"2.227"	"2.224"	"2.21"	"2.2"	"2.221"	"2.204"	"2.18"
"1965"	"2.134"	"2.217"	"2.233"	"2.334"	"2.309"	"2.229"	"2.22"	"2.208"	"2.191"	"2.229"	"2.255"	"2.249"
"1966"	"2.241"	"2.27"	"2.248"	"2.352"	"2.317"	"2.294"	"2.208"	"2.247"	"2.209"	"2.249"	"2.26"	"2.234"
"1967"	"2.21"	"2.207"	"2.26"	"2.353"	"2.307"	"2.289"	"2.208"	"2.203"	"2.209"	"2.214"	"2.271"	"2.225"
"1968"	"2.168"	"2.172"	"2.336"	"2.369"	"2.314"	"2.262"	"2.213"	"2.263"	"2.219"	"2.274"	"2.313"	"2.275"
"1969"	"2.172"	"2.155"	"2.296"	"2.429"	"2.364"	"2.283"	"2.244"	"2.236"	"2.223"	"2.287"	"2.238"	"2.278"
"1970"	"2.214"	"2.257"	"2.318"	"2.403"	"2.302"	"2.281"	"2.204"	"2.224"	"2.219"	"2.207"	"2.203"	"2.188"
"1971"	"2.196"	"2.17"	"2.266"	"2.357"	"2.268"	"2.218"	"2.179"	"2.192"	"2.197"	"2.169"	"2.159"	"2.217"
"1972"	"2.13"	"2.112"	"2.207"	"2.297"	"2.247"	"2.205"	"2.184"	"2.208"	"2.262"	"2.203"	"2.183"	"2.207"
"1973"	"2.167"	"2.183"	"2.244"	"2.381"	"2.271"	"2.274"	"2.238"	"2.205"	"2.185"	"2.213"	"2.17"	"2.088"
"1974"	"2.052"	"2.134"	"2.226"	"2.307"	"2.225"	"2.231"	"2.184"	"2.203"	"2.194"	"2.179"	"2.175"	"2.182"
"1975"	"2.108"	"2.166"	"2.215"	"2.312"	"2.256"	"2.159"	"2.165"	"2.184"	"2.17"	"2.192"	"2.174"	"2.059"
"1976"	"2.083"	"2.027"	"2.162"	"2.232"	"2.172"	"2.15"	"2.158"	"2.126"	"2.153"	"2.188"	"2.188"	"2.081"
"1977"	"1.996"	"2.123"	"2.202"	"2.265"	"2.228"	"2.202"	"2.161"	"2.131"	"2.135"	"2.158"	"2.16"	"2.139"
"1978"	"2.02"	"2.093"	"2.114"	"2.258"	"2.246"	"2.145"	"2.122"	"2.197"	"2.182"	"2.198"	"2.199"	"2.199"
"1979"	"2.152"	"2.148"	"2.238"	"2.346"	"2.361"	"2.33"	"2.249"	"2.295"	"2.269"	"2.267"	"2.298"	"2.227"
"1980"	"2.143"	"2.17"	"2.253"	"2.404"	"2.328"	"2.247"	"2.206"	"2.208"	"2.223"	"2.234"	"2.268"	"2.268"
"1981"	"2.136"	"2.174"	"2.298"	"2.343"	"2.362"	"2.239"	"2.236"	"2.214"	"2.224"	"2.241"	"2.217"	"2.153"
"1982"	"2.115"	"2.119"	"2.238"	"2.341"	"2.355"	"2.239"	"2.208"	"2.21"	"2.182"	"2.211"	"2.231"	"2.137"
"1983"	"2.154"	"2.161"	"2.253"	"2.369"	"2.412"	"2.291"	"2.218"	"2.22"	"2.2"	"2.205"	"2.189"	"2.144"
"1984"	"2.132"	"2.244"	"2.234"	"2.325"	"2.323"	"2.253"	"2.192"	"2.263"	"2.211"	"2.22"	"2.267"	"2.176"
"1985"	"2.187"	"2.171"	"2.272"	"2.359"	"2.355"	"2.226"	"2.208"	"2.22"	"2.202"	"2.211"	"2.195"	"2.197"
"1986"	"2.147"	"2.114"	"2.265"	"2.366"	"2.307"	"2.233"	"2.216"	"2.186"	"2.199"	"2.177"	"2.161"	"2.168"
"1987"	"2.135"	"2.108"	"2.248"	"2.377"	"2.351"	"2.291"	"2.306"	"2.22"	"2.262"	"2.26"	"2.219"	"2.162"
"1988"	"2.129"	"2.214"	"2.206"	"2.317"	"2.277"	"2.223"	"2.183"	"2.201"	"2.138"	"2.132"	"2.107"	"2.089"
"1989"	"2.065"	"2.02"	"2.122"	"2.212"	"2.205"	"2.137"	"2.15"	"2.12"	"2.124"	"2.11"	"2.136"	"2.1"
"1990"	"2.163"	"2.246"	"2.288"	"2.362"	"2.381"	"2.31"	"2.262"	"2.271"	"2.251"	"2.286"	"2.252"	"2.258"
"1991"	"2.189"	"2.203"	"2.272"	"2.357"	"2.393"	"2.313"	"2.284"	"2.256"	"2.216"	"2.217"	"2.216"	"2.21"
"1992"	"2.108"	"2.157"	"2.19"	"2.35"	"2.36"	"2.251"	"2.225"	"2.252"	"2.207"	"2.213"	"2.188"	"2.172"
"1993"	"2.113"	"2.157"	"2.266"	"2.37"	"2.389"	"2.343"	"2.241"	"2.261"	"2.202"	"2.259"	"2.309"	"2.268"
"1994"	"2.23"	"2.246"	"2.274"	"2.305"	"2.307"	"2.287"	"2.173"	"2.208"	"2.208"	"2.214"	"2.258"	"2.186"
"1995"	"2.177"	"2.186"	"2.278"	"2.376"	"2.366"	"2.283"	"2.224"	"2.246"	"2.24"	"2.265"	"2.221"	"2.17"
"1996"	"2.141"	"2.198"	"2.296"	"2.347"	"2.303"	"2.265"	"2.251"	"2.246"	"2.204"	"2.197"	"2.235"	"2.194"
"1997"	"2.113"	"2.109"	"2.249"	"2.325"	"2.349"	"2.32"	"2.205"	"2.244"	"2.239"	"2.28"	"2.265"	"2.253"
"1998"	"2.313"	"2.187"	"2.261"	"2.391"	"2.389"	"2.272"	"2.268"	"2.279"	"2.229"	"2.211"	"2.217"	"2.248"
"1999"	"2.176"	"2.24"	"2.245"	"2.257"	"2.246"	"2.223"	"2.207"	"2.208"	"2.198"	"2.182"	"2.208"	"2.148"
"2000"	"2.183"	"2.161"	"2.255"	"2.223"	"2.293"	"2.247"	"2.265"	"2.222"	"2.237"	"2.271"	"2.286"	"2.271"
"2001"	"2.187"	"2.176"	"2.261"	"2.379"	"2.263"	"2.288"	"2.255"	"2.24"	"2.243"	"2.251"	"2.232"	"2.228"
"2002"	"2.205"	"2.224"	"2.29"	"2.361"	"2.309"	"2.276"	"2.245"	"2.229"	"2.24"	"2.271"	"2.251"	"2.218"
