
"Year"	"Jan"	"Feb"	"Mar"	"Apr"	"May"	"Jun"	"Jul"	"Aug"	"Sep"	"Oct"	"Nov"	"Dec"
"1901"	"50.712"	"4.212"	"6.025"	"17.261"	"36.387"	"241.965"	"208.13"	"312.403"	"169.674"	"48.336"	"17.682"	"0.377"
"1902"	"0.004"	"0.002"	"20.158"	"39.449"	"46.959"	"205.636"	"404.557"	"240.941"	"409.566"	"44.465"	"0.004"	"0.093"
"1903"	"7.115"	"7.79"	"12.807"	"40.853"	"102.231"	"396.176"	"163.19"	"298.638"	"194.199"	"118.522"	"9.841"	"0.003"
"1904"	"0.863"	"8.034"	"24.601"	"19.72"	"317.921"	"189.802"	"329.171"	"264.33"	"148.964"	"26.928"	"11.953"	"0.25"
"1905"	"11.159"	"19.531"	"29.628"	"26.472"	"124.486"	"63.997"	"495.444"	"399.24"	"275.052"	"34.781"	"0.482"	"1.718"
"1906"	"12.425"	"41.724"	"22.827"	"8.26"	"79.002"	"204.043"	"434.302"	"235.416"	"154.165"	"157.488"	"3.046"	"0.003"
"1907"	"12.897"	"25.221"	"32.188"	"30.399"	"60.99"	"308.676"	"264.237"	"234.633"	"252.044"	"48.631"	"0.003"	"0.889"
"1908"	"8.373"	"23.637"	"7.243"	"7.66"	"62.624"	"195.481"	"314.454"	"264.892"	"148.205"	"31.9"	"0.271"	"0.704"
"1909"	"4.574"	"3.532"	"0"	"70.301"	"52.28"	"326.172"	"378.599"	"335.233"	"235.71"	"32.824"	"1.018"	"1.969"
"1910"	"3.092"	"7.145"	"21.897"	"45.392"	"56.595"	"288.534"	"451.425"	"324.484"	"203.876"	"83.102"	"7.709"	"0.002"
"1911"	"19.916"	"0.517"	"20.588"	"12.269"	"71.984"	"402.619"	"310.209"	"279.747"	"283.436"	"128.062"	"15.182"	"0.002"
"1912"	"2.188"	"13.559"	"9.116"	"52.513"	"90.929"	"239.768"	"398.981"	"277.447"	"83.57"	"34.41"	"12.824"	"1.918"
"1913"	"0.004"	"38.311"	"32.526"	"6.436"	"121.52"	"533.428"	"248.684"	"332.925"	"232.649"	"68.087"	"0.337"	"17.488"
"1914"	"0.003"	"26.31"	"15.466"	"36.184"	"123.189"	"122.032"	"377.903"	"338.359"	"137.885"	"46.242"	"0.471"	"1.001"
"1915"	"1.208"	"39.584"	"17.199"	"23.837"	"109.914"	"314.955"	"367.95"	"309.228"	"228.772"	"59.632"	"7.552"	"0.003"
"1916"	"0.397"	"10.56"	"5.529"	"23.265"	"35.241"	"235.801"	"381.975"	"278.599"	"308.085"	"234.156"	"9.78"	"0"
"1917"	"1.425"	"18.572"	"7.348"	"19.127"	"134.949"	"264.566"	"437.594"	"168.884"	"358.824"	"227.762"	"12.115"	"0.002"
"1918"	"0.545"	"3.432"	"9.007"	"31.953"	"112.222"	"262.133"	"350.467"	"466.484"	"218.382"	"32.122"	"0.006"	"0.073"
"1919"	"23.049"	"3.695"	"9.732"	"12.98"	"126.024"	"158.675"	"362.208"	"375.382"	"212.349"	"125.746"	"4.606"	"0"
"1920"	"6.143"	"25.841"	"32.653"	"16.679"	"69.253"	"157.625"	"345.676"	"247.034"	"372.741"	"35.704"	"0.003"	"0"
"1921"	"30.944"	"3.856"	"7.733"	"16.562"	"50.265"	"223.9"	"388.125"	"364.276"	"218.667"	"42.588"	"0.322"	"0.004"
"1922"	"11.739"	"8.267"	"1.065"	"8.697"	"33.076"	"546.15"	"461.722"	"315.326"	"275.175"	"57.692"	"0.007"	"11.024"
"1923"	"0.172"	"40.577"	"1.977"	"8.163"	"43.873"	"217.104"	"244.118"	"300.892"	"161.984"	"62.203"	"0.452"	"0.379"
"1924"	"2.921"	"6.095"	"2.283"	"36.758"	"64.513"	"249.991"	"405.919"	"346.082"	"263.947"	"90.016"	"48.453"	"0"
"1925"	"16.878"	"1.951"	"7.147"	"67.646"	"88.441"	"142.345"	"396.303"	"304.648"	"256.417"	"42.273"	"2.886"	"0.003"
"1926"	"21.531"	"0.517"	"49.744"	"20.347"	"174.39"	"87.795"	"552.366"	"304.553"	"247.052"	"52.359"	"0.003"	"3.911"
"1927"	"30.307"	"35.92"	"35.523"	"8.905"	"87.059"	"167.912"	"303.558"	"381.047"	"130.614"	"57.624"	"29.761"	"0.003"
"1928"	"28.577"	"9.009"	"2.927"	"14.768"	"117.711"	"267.341"	"456.243"	"213.723"	"259.401"	"151.419"	"0.935"	"1.429"
"1929"	"27.286"	"0.228"	"9.205"	"25.471"	"94.56"	"305.372"	"385.436"	"213.186"	"92.724"	"276.786"	"0.664"	"4.785"
"1930"	"11.125"	"9.637"	"8.702"	"22.891"	"82.632"	"201.918"	"297.831"	"250.229"	"194.209"	"75.823"	"19.618"	"8.315"
"1931"	"4.034"	"20.771"	"18.448"	"5.638"	"63.19"	"138.008"	"666.082"	"204.788"	"435.815"	"47.787"	"3.833"	"1.33"
"1932"	"0.004"	"12.796"	"5.304"	"26.305"	"100.224"	"251.953"	"195.967"	"280.045"	"258.479"	"46.642"	"48.392"	"7.753"
"1933"	"29.114"	"12.975"	"3.152"	"37.398"	"102.001"	"180.474"	"582.519"	"411.555"	"172.386"	"71.624"	"0.003"	"0.002"
"1934"	"27.57"	"27.563"	"1.536"	"42.615"	"77.778"	"320.678"	"435.27"	"292.487"	"277.245"	"61.618"	"3.299"	"0.37"
"1935"	"4.787"	"20.307"	"3.241"	"9.414"	"53.063"	"199.343"	"222.063"	"496.147"	"244.944"	"36.073"	"0"	"0.078"
"1936"	"4.487"	"12.934"	"15.664"	"21.374"	"163.849"	"232.015"	"496.04"	"250.711"	"460.884"	"82.195"	"0.292"	"13.98"
"1937"	"0"	"33.002"	"4.093"	"55.401"	"62.698"	"163.734"	"204.664"	"383.717"	"289.598"	"144.66"	"0.279"	"0.02"
"1938"	"4.703"	"18.438"	"9.171"	"13.868"	"129.174"	"508.303"	"374.797"	"273.55"	"180.686"	"58.428"	"3.858"	"0.002"
"1939"	"2.412"	"22.512"	"9.342"	"16.979"	"69.239"	"246.778"	"420.172"	"261.319"	"332.622"	"116.543"	"0.028"	"0.003"
"1940"	"0.294"	"37.089"	"36.038"	"10.959"	"72.749"	"215.545"	"530.851"	"299.863"	"172.223"	"46.162"	"0.508"	"3.962"
"1941"	"10.978"	"5.524"	"11.789"	"17.221"	"75.413"	"248.97"	"289.752"	"316.483"	"275.1"	"90.47"	"1.008"	"0.264"
"1942"	"21.025"	"25.225"	"9.081"	"27.189"	"31.435"	"211.705"	"247.262"	"475.045"	"420.008"	"17.071"	"0.634"	"0.704"
"1943"	"20.809"	"11.622"	"17.146"	"74.706"	"97.241"	"181.415"	"372.139"	"304.325"	"255.791"	"49.077"	"0.316"	"0.102"
"1944"	"28.594"	"13.621"	"47.516"	"35.361"	"44.108"	"310.911"	"203.192"	"382.779"	"185.128"	"59.366"	"0.052"	"0"
"1945"	"58.528"	"15.952"	"4.627"	"13.901"	"85.392"	"213.193"	"308.069"	"222.898"	"319.68"	"200.888"	"0.003"	"1.428"
"1946"	"0"	"17.5"	"28.3"	"35.041"	"101.036"	"166.721"	"460.287"	"294.557"	"274.577"	"146.553"	"14.33"	"0"
"1947"	"15.109"	"4.98"	"16.709"	"9.329"	"69.744"	"160.175"	"555.653"	"231.714"	"336.408"	"57.885"	"0.013"	"1.278"
"1948"	"4.804"	"8.383"	"7.549"	"71.787"	"140.07"	"149.167"	"424.318"	"269.583"	"338.625"	"117.428"	"10.252"	"0"
"1949"	"8.387"	"37.445"	"10.535"	"24.525"	"151.366"	"446.045"	"412.882"	"424.306"	"167.366"	"52.185"	"0.336"	"0.003"
"1950"	"1.764"	"10.931"	"41.009"	"12.532"	"25.206"	"364.693"	"258.271"	"299.916"	"180.472"	"66.129"	"4.24"	"0.002"
"1951"	"5.375"	"0.028"	"42.36"	"10.335"	"36"	"191.673"	"538.792"	"333.018"	"281.605"	"95.942"	"21.784"	"0"
"1952"	"0.004"	"8.552"	"22.171"	"42.474"	"42.565"	"474.82"	"292.112"	"309.113"	"258.889"	"100.858"	"7.972"	"0"
"1953"	"54.504"	"2.82"	"7.513"	"11.816"	"36.797"	"268.182"	"468.297"	"257.683"	"293.894"	"7.043"	"0.211"	"2.008"
"1954"	"26.073"	"5.038"	"3.95"	"11.065"	"84.948"	"334.748"	"438.88"	"283.496"	"282.47"	"68.711"	"0"	"1.062"
"1955"	"20.784"	"8.529"	"3.837"	"25.821"	"31.866"	"308.121"	"753.913"	"187.219"	"158.929"	"72.315"	"2.355"	"1.713"
"1956"	"20.358"	"9.973"	"17.077"	"65.786"	"183.915"	"333.142"	"252.564"	"308.388"	"315.547"	"123.598"	"37.401"	"5.094"
"1957"	"31.462"	"4.297"	"11.344"	"0.464"	"52.322"	"161.109"	"355.894"	"147.06"	"180.846"	"43.488"	"0.457"	"2.565"
"1958"	"25.243"	"7.561"	"19.065"	"30.099"	"51.984"	"208.671"	"319.957"	"415.729"	"214.964"	"111.63"	"1.355"	"0"
"1959"	"15.078"	"0"	"2.335"	"4.54"	"68.158"	"124.294"	"397.377"	"319.147"	"465.278"	"232.733"	"0"	"0"
"1960"	"0.661"	"0"	"24.593"	"1.837"	"30.839"	"125.699"	"345.563"	"251.544"	"278.475"	"36.479"	"0.059"	"0"
"1961"	"7.584"	"50.609"	"1.777"	"1.284"	"43.89"	"187.465"	"263.375"	"267.781"	"292.16"	"76.547"	"6.053"	"3.359"
"1962"	"20.839"	"9.494"	"6.219"	"22.757"	"51.602"	"173.581"	"305.969"	"406.17"	"255.273"	"35.379"	"0"	"2.467"
"1963"	"1.186"	"1.267"	"55.252"	"38.424"	"150.247"	"187.69"	"320.2"	"172.945"	"192.144"	"205.5"	"13.147"	"0.018"
"1964"	"0.249"	"0.199"	"4.454"	"36.204"	"41.278"	"159.954"	"405.113"	"300.503"	"137.458"	"38.77"	"0"	"0"
"1965"	"0"	"5.909"	"9.581"	"40.828"	"56.752"	"84.303"	"358.079"	"266.728"	"135.223"	"27.029"	"11.298"	"0.091"
"1966"	"27.487"	"5.503"	"0.198"	"4.679"	"32.72"	"249.927"	"191.231"	"269.815"	"172.531"	"18.553"	"36.589"	"2.608"
"1967"	"5.946"	"0.406"	"45.38"	"60.93"	"20.062"	"136.522"	"311.669"	"328.261"	"130.88"	"23.592"	"0.699"	"0.481"
"1968"	"29.096"	"1.417"	"7.183"	"10.377"	"17.687"	"395.15"	"391.714"	"233.871"	"141.816"	"184.8"	"2.243"	"3.914"
"1969"	"3.014"	"4.211"	"13.817"	"22.226"	"107.954"	"135.237"	"319.103"	"334.306"	"213.639"	"44.736"	"27.128"	"0"
"1970"	"12.353"	"18.884"	"6.674"	"8.956"	"53.247"	"285.963"	"395.358"	"258.555"	"229.603"	"98.382"	"1.872"	"0"
"1971"	"6.081"	"3.642"	"11.46"	"102.185"	"96.391"	"311.844"	"329.005"	"227.818"	"180.737"	"166.871"	"3.891"	"0"
"1972"	"11.677"	"8.809"	"1.494"	"22.795"	"48.73"	"209.897"	"309.965"	"109.647"	"415.349"	"59.724"	"2.076"	"0.012"
"1973"	"30.635"	"10.87"	"10.296"	"5.5"	"78.965"	"341.487"	"203.463"	"370.173"	"220.153"	"384.955"	"41.959"	"1.517"
"1974"	"16.247"	"0.15"	"20.645"	"31.176"	"114.063"	"196.572"	"655.588"	"286.208"	"216.811"	"90.925"	"7.769"	"2.313"
"1975"	"25.223"	"8.849"	"2.623"	"16.519"	"128.137"	"341.019"	"467.494"	"92.602"	"474.451"	"37.531"	"0.513"	"0"
"1976"	"1.441"	"27.205"	"0.561"	"47.364"	"122.273"	"273.953"	"305.04"	"417.509"	"137.92"	"4.926"	"0.092"	"0.003"
"1977"	"0.855"	"4.475"	"2.094"	"56.344"	"114.881"	"159.241"	"280.354"	"198.932"	"100.097"	"154.113"	"22.153"	"19.676"
"1978"	"9.999"	"14.911"	"45.897"	"33.573"	"118.432"	"224.035"	"346.056"	"196.806"	"263.724"	"94.96"	"27.282"	"1.437"
"1979"	"11.252"	"24.502"	"0.269"	"37.08"	"27.834"	"181.052"	"434.635"	"349.42"	"145.177"	"180.475"	"10.069"	"28.086"
"1980"	"4.391"	"14.846"	"32.448"	"3.448"	"130.052"	"265.671"	"384.666"	"193.851"	"180.192"	"18.353"	"12.102"	"0.014"
"1981"	"17.467"	"1.582"	"25.79"	"43.494"	"107.056"	"185.262"	"463.318"	"207.919"	"125.76"	"0.897"	"2.665"	"2.934"
"1982"	"2.252"	"6.184"	"13.259"	"44.588"	"45.254"	"135.203"	"222.222"	"91.375"	"287.008"	"62.911"	"8.969"	"0.163"
"1983"	"29.779"	"1.21"	"5.73"	"23.285"	"143.44"	"211.51"	"640.278"	"168.701"	"150.863"	"120.724"	"0.098"	"10.481"
"1984"	"25.348"	"15.297"	"8.084"	"34.303"	"90.836"	"348.127"	"555.4"	"181.264"	"735.172"	"28.631"	"0"	"0.007"
"1985"	"5.644"	"8.146"	"2.704"	"6.524"	"105.967"	"104.817"	"478.484"	"78.734"	"223.978"	"30.866"	"2.865"	"31.352"
"1986"	"1.422"	"2.612"	"0.166"	"58.981"	"137.639"	"210.872"	"270.465"	"199.251"	"161.045"	"82.763"	"17.491"	"7.181"
"1987"	"0.177"	"25.013"	"21.08"	"26.544"	"88.223"	"219.872"	"329.616"	"731.733"	"364.113"	"309.689"	"5.918"	"1.967"
"1988"	"5.769"	"38.058"	"26.427"	"33.63"	"82.114"	"135.766"	"407.649"	"610.193"	"212.022"	"19.377"	"15.576"	"6.259"
"1989"	"32.69"	"16.941"	"5.282"	"2.555"	"128.193"	"293.705"	"366.941"	"254.825"	"367.195"	"41.755"	"12.989"	"2.445"
"1990"	"0.003"	"21.03"	"6.945"	"37.834"	"226.215"	"159.733"	"255.048"	"304.724"	"248.305"	"77.308"	"0.45"	"0.013"
"1991"	"28.584"	"1.514"	"22.086"	"23.229"	"41.485"	"175.073"	"315.551"	"464.653"	"239.645"	"43.518"	"0.328"	"5.896"
"1992"	"9.655"	"3.911"	"4.612"	"25.943"	"91.139"	"69.189"	"383.711"	"262.456"	"173.019"	"24.112"	"0.622"	"0.476"
"1993"	"39.166"	"5.75"	"19.753"	"24.783"	"107.968"	"123.367"	"176.359"	"285.096"	"291.801"	"60.008"	"4.461"	"0"
"1994"	"64.816"	"11.391"	"19.418"	"47.149"	"41.89"	"124.634"	"254.629"	"352.419"	"106.248"	"95.373"	"14.407"	"0.377"
"1995"	"36.692"	"18.567"	"12.962"	"17.242"	"68.479"	"146.677"	"276.107"	"219.111"	"269.588"	"10.957"	"29.997"	"1.969"
"1996"	"21.852"	"10.032"	"3.322"	"31.655"	"69.33"	"50.736"	"268.686"	"342.925"	"183.587"	"109.746"	"0"	"0"
"1997"	"16.414"	"19.886"	"15.253"	"22.563"	"181.374"	"101.31"	"227.254"	"306.095"	"249.402"	"70.714"	"23.126"	"9.939"
"1998"	"1.046"	"21.775"	"12.801"	"35.919"	"175.377"	"98.346"	"277.075"	"303.349"	"219.743"	"237.429"	"16.234"	"0"
"1999"	"14.651"	"4.744"	"2.137"	"0.659"	"137.303"	"178.098"	"353.565"	"298.395"	"207.792"	"48.444"	"1.798"	"0.003"
"2000"	"13.51"	"8.809"	"17.094"	"21.285"	"70.467"	"219.303"	"170.685"	"237.437"	"281.063"	"5.126"	"0.001"	"0.004"
"2001"	"2.691"	"1.745"	"23.429"	"26.704"	"112.225"	"121.035"	"303.465"	"260.086"	"103.601"	"110.922"	"0.611"	"0.002"
"2002"	"18.087"	"5.827"	"6.082"	"31.176"	"69.375"	"125.272"	"278.197"	"281.166"	"245.94"	"120.889"	"13.281"	"0.002"
