
"Year"	"Jan"	"Feb"	"Mar"	"Apr"	"May"	"Jun"	"Jul"	"Aug"	"Sep"	"Oct"	"Nov"	"Dec"
"1901"	"21.1"	"21.488"	"27.097"	"30.116"	"31.22"	"29.515"	"26.291"	"25.019"	"26.042"	"26.373"	"22.225"	"20.879"
"1902"	"22.381"	"23.943"	"28.257"	"30.864"	"32.106"	"30.049"	"26.994"	"26.731"	"25.663"	"26.27"	"21.689"	"20.489"
"1903"	"21.396"	"21.706"	"25.734"	"29.816"	"30.692"	"30.192"	"26.477"	"25.813"	"25.661"	"24.89"	"21.086"	"19.97"
"1904"	"21.645"	"22.837"	"26.116"	"30.513"	"31.829"	"28.611"	"26.278"	"26.12"	"25.582"	"25.905"	"21.169"	"20.727"
"1905"	"20.415"	"21.06"	"25.35"	"28.113"	"32.814"	"30.157"	"26.251"	"26.021"	"25.464"	"26.207"	"22.899"	"19.833"
"1906"	"20.488"	"22.096"	"26.505"	"30.674"	"32.258"	"28.137"	"26.028"	"25.975"	"24.81"	"25.125"	"23.056"	"21.181"
"1907"	"21.586"	"22.888"	"26.351"	"28.421"	"30.402"	"29.113"	"26.906"	"24.583"	"26.022"	"27.059"	"23.737"	"19.731"
"1908"	"20.742"	"22.698"	"26.07"	"30.842"	"31.307"	"29.139"	"25.328"	"25.017"	"26.075"	"26.074"	"21.96"	"19.046"
"1909"	"22.278"	"23.531"	"28.423"	"29.119"	"31.757"	"28.241"	"25.576"	"25.921"	"25.191"	"25.293"	"22.397"	"21.5"
"1910"	"21.377"	"22.641"	"27.016"	"30.281"	"31.348"	"28.205"	"26.346"	"25.726"	"25.293"	"24.564"	"20.343"	"20.193"
"1911"	"22.141"	"22.114"	"25.547"	"29.966"	"32.399"	"28.034"	"27.063"	"25.466"	"25.676"	"27.1"	"24.336"	"21.966"
"1912"	"22.074"	"24.217"	"27.199"	"31.069"	"32.154"	"31.067"	"26.848"	"25.617"	"26.292"	"26.168"	"22.111"	"20.124"
"1913"	"20.506"	"24.335"	"26.276"	"31.55"	"31.197"	"27.668"	"26.124"	"25.388"	"25.938"	"26.396"	"22.699"	"21.784"
"1914"	"21.758"	"23.858"	"26.303"	"29.78"	"31.998"	"28.503"	"25.864"	"25.777"	"25.974"	"26.047"	"23.747"	"21.126"
"1915"	"21.434"	"22.882"	"26.734"	"30.019"	"31.858"	"30.925"	"27.233"	"25.735"	"26.12"	"25.857"	"24.177"	"20.222"
"1916"	"21.191"	"22.602"	"28.148"	"31.155"	"32.285"	"27.216"	"27.118"	"25.77"	"26.017"	"25.639"	"22.523"	"19.877"
"1917"	"21.286"	"22.464"	"26.148"	"28.621"	"30.084"	"27.637"	"25.981"	"26.166"	"25.313"	"24.642"	"21.091"	"20.306"
"1918"	"19.809"	"23.557"	"26.603"	"29.022"	"30.819"	"27.905"	"27.379"	"26.163"	"26.477"	"26.933"	"24.291"	"21.538"
"1919"	"22.296"	"23.871"	"27.689"	"29.881"	"31.603"	"27.86"	"26.002"	"25.651"	"25.916"	"25.313"	"24.001"	"20.531"
"1920"	"21.885"	"22.537"	"27.294"	"30.118"	"30.039"	"28.948"	"25.632"	"25.777"	"26.622"	"26.987"	"22.948"	"21.082"
"1921"	"22.139"	"22.988"	"28.479"	"31.58"	"32.011"	"28.533"	"27.13"	"25.502"	"25.001"	"25.437"	"21.487"	"21.255"
"1922"	"21.422"	"24.324"	"27.353"	"30.916"	"31.683"	"28.564"	"25.67"	"25.485"	"25.31"	"25.535"	"21.744"	"19.032"
"1923"	"21.158"	"22.039"	"27.212"	"29.877"	"30.794"	"30.714"	"26.053"	"25.323"	"25.517"	"24.874"	"22.242"	"21.903"
"1924"	"22.512"	"24.293"	"28.849"	"31.421"	"31.791"	"29.721"	"26.771"	"26.156"	"25.61"	"24.093"	"20.759"	"20.84"
"1925"	"19.558"	"21.984"	"27.253"	"31.626"	"30.896"	"27.517"	"25.616"	"25.844"	"26.352"	"26.748"	"23.72"	"20.521"
"1926"	"22.237"	"24.83"	"27.178"	"28.096"	"31.467"	"31.21"	"26.818"	"25.474"	"25.769"	"26.242"	"22.064"	"20.574"
"1927"	"21.963"	"23.198"	"26.988"	"30.26"	"31.394"	"28.519"	"25.525"	"25.403"	"26.062"	"25.624"	"20.483"	"21.027"
"1928"	"21.636"	"23.087"	"27.196"	"30.309"	"31.764"	"29.008"	"25.893"	"25.672"	"25.171"	"25.589"	"22.997"	"20.685"
"1929"	"20.717"	"22.936"	"28.359"	"30.016"	"32.194"	"28.239"	"25.938"	"25.852"	"26.246"	"25.643"	"22.993"	"20.979"
"1930"	"21.801"	"21.258"	"27.501"	"29.91"	"31.752"	"29.016"	"25.306"	"25.081"	"25.686"	"26.395"	"21.557"	"21.777"
"1931"	"22.096"	"23.901"	"26.705"	"31.524"	"32.106"	"30.65"	"26.187"	"25.534"	"25.226"	"24.633"	"22.19"	"20.22"
"1932"	"21.2"	"21.53"	"26.434"	"29.515"	"31.836"	"28.781"	"25.626"	"26.022"	"25.814"	"26.448"	"22.491"	"20.732"
"1933"	"21.195"	"23.558"	"27.153"	"29.855"	"29.748"	"27.415"	"26.291"	"25.325"	"25.115"	"25.181"	"22.852"	"20.435"
"1934"	"20.294"	"23.008"	"26.394"	"30.61"	"31.465"	"28.833"	"25.727"	"24.936"	"24.8"	"25.093"	"21.146"	"20.498"
"1935"	"19.965"	"22.742"	"25.891"	"28.317"	"31.707"	"29.062"	"25.436"	"25.357"	"24.668"	"26.034"	"22.095"	"21.527"
"1936"	"21.121"	"22.463"	"26.761"	"29.288"	"32.247"	"27.262"	"26.135"	"25.449"	"25.816"	"25.548"	"23.485"	"20.634"
"1937"	"20.113"	"23.443"	"26.152"	"29.138"	"31.451"	"28.919"	"25.207"	"25.629"	"25.433"	"25.144"	"22.855"	"20.673"
"1938"	"22.981"	"21.577"	"28.258"	"30.621"	"31.256"	"25.913"	"25.321"	"25.791"	"25.628"	"24.65"	"21.687"	"20.453"
"1939"	"22.089"	"24.282"	"25.923"	"29.727"	"31.206"	"28.865"	"25.774"	"25.928"	"25.356"	"26.041"	"21.54"	"19.766"
"1940"	"20.921"	"23.621"	"25.433"	"29.865"	"31.651"	"28.739"	"25.427"	"25.151"	"25.808"	"25.647"	"23.136"	"21.027"
"1941"	"21.041"	"23.759"	"28.263"	"31.168"	"32.201"	"30.005"	"26.025"	"25.967"	"26.414"	"26.883"	"23.139"	"22.474"
"1942"	"21.513"	"23.59"	"28.196"	"31.512"	"31.9"	"29.718"	"25.176"	"25.327"	"25.02"	"26.033"	"22.096"	"20.776"
"1943"	"22.17"	"21.734"	"27.304"	"29.719"	"31.749"	"27.832"	"25.329"	"25.037"	"25.167"	"24.738"	"23.213"	"19.473"
"1944"	"21.284"	"22.454"	"26.114"	"29.404"	"32.399"	"29.197"	"25.645"	"25.259"	"25.912"	"25.313"	"22.559"	"22.225"
"1945"	"20.437"	"22.231"	"26.95"	"29.207"	"31.657"	"29.44"	"25.672"	"25.863"	"25.204"	"25.591"	"21.384"	"19.572"
"1946"	"20.891"	"23.886"	"27.248"	"30.865"	"30.946"	"27.855"	"25.576"	"25.113"	"25.52"	"26.541"	"22.633"	"23.071"
"1947"	"21.383"	"23.699"	"27.353"	"29.426"	"32.043"	"29.975"	"26.308"	"26.671"	"25.295"	"24.517"	"23.09"	"21.524"
"1948"	"22.134"	"23.187"	"27.302"	"31.129"	"32.585"	"28.804"	"25.924"	"25.553"	"25.111"	"26.692"	"24.133"	"19.925"
"1949"	"22.11"	"22.644"	"27.997"	"30.878"	"31.805"	"28.155"	"26.418"	"26.325"	"25.162"	"25.934"	"22.043"	"21.06"
"1950"	"21.844"	"22.187"	"26.6"	"30.447"	"31.533"	"29.527"	"25.929"	"26.527"	"25.711"	"25.043"	"21.431"	"21.022"
"1951"	"20.833"	"23.107"	"27.45"	"29.268"	"32.149"	"29.122"	"27.128"	"25.513"	"27.11"	"27.043"	"23.795"	"20.277"
"1952"	"21.789"	"24.547"	"26.39"	"31.224"	"32.257"	"29.017"	"26.469"	"25.147"	"26.093"	"26.439"	"21.992"	"23.295"
"1953"	"21.514"	"25.603"	"29.444"	"30.82"	"31.731"	"29.613"	"26.403"	"25.388"	"26.263"	"25.882"	"22.6"	"21.046"
"1954"	"20.651"	"24.589"	"27.559"	"30.968"	"32.604"	"28.826"	"26.067"	"25.879"	"24.359"	"24.469"	"22.07"	"21.311"
"1955"	"22.436"	"24.506"	"28.516"	"29.088"	"31.809"	"28.691"	"26.57"	"25.273"	"25.609"	"25.201"	"21.193"	"20.637"
"1956"	"22.18"	"23.438"	"28.204"	"30.965"	"30.908"	"27.78"	"24.826"	"25.293"	"25.403"	"25.281"	"22.432"	"21.227"
"1957"	"21.984"	"22.284"	"26.493"	"30.17"	"31.615"	"29.909"	"26.184"	"25.68"	"25.867"	"26.488"	"24.19"	"23.152"
"1958"	"22.403"	"23.488"	"27.508"	"31.403"	"32.501"	"30.52"	"26.033"	"26.186"	"25.437"	"25.995"	"24.027"	"21.856"
"1959"	"22.57"	"24.036"	"28.286"	"30.965"	"32.591"	"29.55"	"25.366"	"25.219"	"25.117"	"25.606"	"23.182"	"22.011"
"1960"	"21.331"	"24.446"	"26.525"	"30.695"	"31.652"	"28.26"	"26.489"	"24.775"	"25.963"	"25.49"	"22.718"	"22.755"
"1961"	"22.348"	"21.866"	"28.502"	"30.789"	"31.336"	"28.335"	"25.539"	"25.775"	"24.662"	"24.652"	"23.236"	"21.078"
"1962"	"19.933"	"23.543"	"26.813"	"30.007"	"31.894"	"29.286"	"26.237"	"25.776"	"25.17"	"25.05"	"22.996"	"21.32"
"1963"	"21.752"	"24.109"	"27.246"	"29.265"	"31.402"	"28.559"	"26.353"	"24.976"	"25.618"	"26.141"	"24.108"	"21.973"
"1964"	"20.897"	"23.443"	"28.361"	"31.8"	"31.246"	"28.652"	"25.953"	"24.907"	"25.518"	"26.189"	"22.384"	"21.126"
"1965"	"22.166"	"23.408"	"26.896"	"30"	"32.016"	"29.217"	"26.034"	"25.974"	"25.91"	"26.69"	"23.577"	"21.945"
"1966"	"21.209"	"24.352"	"26.64"	"30.357"	"30.456"	"29.832"	"27.323"	"25.971"	"25.96"	"27.149"	"24.749"	"21.716"
"1967"	"21.26"	"24.494"	"27.269"	"30.149"	"31.9"	"28.937"	"26.406"	"25.323"	"25.614"	"26.266"	"23.646"	"23.073"
"1968"	"20.398"	"22.649"	"26.484"	"29.723"	"31.101"	"29.671"	"26.377"	"24.97"	"26.751"	"25.194"	"22.392"	"21.387"
"1969"	"21.616"	"24.577"	"29.262"	"31.617"	"32.445"	"29.565"	"26.06"	"25.176"	"25.157"	"26.192"	"24.853"	"21.968"
"1970"	"21.874"	"24.73"	"27.484"	"31.493"	"32.456"	"27.453"	"26.43"	"25.441"	"25.4"	"25.9"	"21.545"	"19.685"
"1971"	"20.603"	"23.595"	"26.673"	"31.228"	"30.188"	"27.503"	"26.279"	"25.5"	"25.842"	"24.958"	"21.475"	"19.82"
"1972"	"19.789"	"21.64"	"28.515"	"30.307"	"31.947"	"29.646"	"26.835"	"25.337"	"26.72"	"27.496"	"23.126"	"22.468"
"1973"	"21.823"	"24.389"	"27.859"	"32.516"	"33.194"	"29.231"	"25.124"	"25.171"	"24.566"	"25.462"	"22.092"	"21.87"
"1974"	"21.341"	"23.851"	"28.795"	"31.159"	"30.989"	"29.019"	"26.542"	"25.475"	"26.841"	"25.55"	"22.215"	"20.306"
"1975"	"20.234"	"23.336"	"26.937"	"32.278"	"31.754"	"28.442"	"26.103"	"25.002"	"25.264"	"26.146"	"21.117"	"19.594"
"1976"	"20.31"	"23.398"	"27.502"	"29.54"	"30.836"	"27.353"	"25.999"	"25.184"	"25.757"	"27.438"	"25.353"	"22.436"
"1977"	"21.682"	"24.464"	"29.443"	"30.105"	"30.731"	"28.591"	"26.515"	"25.54"	"25.375"	"26.563"	"24.852"	"20.828"
"1978"	"20.12"	"22.741"	"25.418"	"30.175"	"32.428"	"27.66"	"25.805"	"25.307"	"26.103"	"26.44"	"24.604"	"21.195"
"1979"	"23.241"	"22.809"	"26.217"	"30.275"	"31.27"	"30.433"	"26.866"	"24.858"	"26.237"	"26.755"	"24.328"	"21.605"
"1980"	"22.099"	"24.415"	"27.28"	"31.145"	"32.479"	"26.968"	"25.801"	"24.878"	"26.351"	"27.684"	"25.28"	"21.266"
"1981"	"20.147"	"24.474"	"26.82"	"30.153"	"31.386"	"29.325"	"25.73"	"25.506"	"25.307"	"26.262"	"22.28"	"21.009"
"1982"	"22.262"	"23.217"	"26.429"	"29.541"	"30.388"	"29.685"	"27.068"	"26.02"	"26.504"	"27.413"	"24.03"	"22.856"
"1983"	"21.639"	"22.927"	"26.816"	"29.526"	"32.473"	"30.072"	"27.227"	"26.037"	"25.699"	"25.286"	"22.155"	"20.957"
"1984"	"21.398"	"22.475"	"28.176"	"30.834"	"32.727"	"28.768"	"26.16"	"25.106"	"25.828"	"26.313"	"22.977"	"22.59"
"1985"	"22.693"	"23.726"	"28.876"	"30.663"	"32.087"	"28.591"	"26.044"	"25.72"	"26.844"	"25.1"	"23.124"	"22.425"
"1986"	"22.039"	"24.004"	"28.013"	"31.342"	"31.89"	"28.418"	"26.254"	"25.159"	"27.068"	"27.771"	"24.604"	"21.252"
"1987"	"23.222"	"24.111"	"27.754"	"30.921"	"30.58"	"29.651"	"27.024"	"26.323"	"27.802"	"26.556"	"24.359"	"21.17"
"1988"	"22.518"	"24.949"	"27.77"	"30.712"	"32.56"	"28.598"	"25.254"	"25.927"	"26.405"	"25.59"	"22.644"	"21.226"
"1989"	"21.431"	"23.399"	"25.955"	"30.245"	"32.148"	"27.559"	"26.257"	"24.981"	"25.991"	"26.462"	"24.723"	"21.368"
"1990"	"22.997"	"23.74"	"26.291"	"30.564"	"29.833"	"27.017"	"25.726"	"25.184"	"25.768"	"25.224"	"23.966"	"21.679"
"1991"	"21.217"	"23.764"	"27.739"	"29.807"	"32.306"	"28.784"	"25.75"	"25.47"	"26.898"	"27.066"	"24.203"	"21.2"
"1992"	"21.425"	"22.689"	"27.933"	"30.561"	"32.485"	"30.321"	"27.569"	"25.481"	"26.047"	"26.245"	"23.91"	"21.45"
"1993"	"22.567"	"23.373"	"26.305"	"30.504"	"32.424"	"30.08"	"26.375"	"25.826"	"25.576"	"26.436"	"23.637"	"20.561"
"1994"	"21.989"	"23.047"	"28.312"	"29.042"	"32.003"	"27.907"	"25.352"	"25.259"	"25.227"	"26.587"	"23.041"	"20.702"
"1995"	"19.538"	"23.577"	"26.568"	"29.989"	"31.074"	"31.076"	"27.112"	"26.827"	"26.787"	"26.903"	"24.128"	"22.977"
"1996"	"23.607"	"25.158"	"29.24"	"30.742"	"32.176"	"30.099"	"26.893"	"25.598"	"26.058"	"25.493"	"23.029"	"21.6"
"1997"	"20.243"	"22.035"	"27.456"	"28.472"	"30.548"	"27.963"	"26.235"	"25.678"	"25.71"	"26.195"	"25.788"	"22.819"
"1998"	"21.992"	"23.124"	"27.186"	"31.426"	"33.259"	"30.473"	"26.836"	"26.664"	"26.166"	"26.749"	"23.951"	"20.924"
"1999"	"20.65"	"24.732"	"28.108"	"31.423"	"31.063"	"27.727"	"26.117"	"25.626"	"25.222"	"25.744"	"23.082"	"20.877"
"2000"	"22.051"	"22.808"	"26.557"	"31.91"	"30.55"	"28.111"	"25.576"	"26.542"	"26.477"	"27.482"	"24.407"	"21.414"
"2001"	"22.076"	"24.623"	"27.469"	"30.13"	"31.527"	"27.753"	"25.677"	"25.456"	"27.019"	"26.169"	"23.698"	"22.821"
"2002"	"20.903"	"25.039"	"27.835"	"31.495"	"32.116"	"28.36"	"26.777"	"24.793"	"25.611"	"26.989"	"23.748"	"22.487"
