
"Year"	"Jan"	"Feb"	"Mar"	"Apr"	"May"	"Jun"	"Jul"	"Aug"	"Sep"	"Oct"	"Nov"	"Dec"
"1901"	"37.546"	"11.436"	"6.538"	"0"	"3.906"	"16.663"	"129.55"	"289.631"	"80.296"	"4.191"	"0"	"6.363"
"1902"	"3.981"	"0.741"	"0"	"0.773"	"3.58"	"46.776"	"363.684"	"177.191"	"159.449"	"1.351"	"4.02"	"0"
"1903"	"4.098"	"1.472"	"4.764"	"0.294"	"2.234"	"9.673"	"121.668"	"341.737"	"90.05"	"70.383"	"0"	"0"
"1904"	"7.28"	"0.455"	"8.678"	"0"	"3.84"	"69.649"	"358.996"	"421.816"	"38.58"	"35.061"	"10.33"	"21.895"
"1905"	"18.606"	"11.407"	"10.304"	"0.831"	"0.451"	"22.111"	"169.31"	"107.569"	"101.834"	"0.284"	"0"	"1.383"
"1906"	"2.087"	"13.815"	"11.2"	"0"	"2.786"	"132.581"	"185.612"	"149.341"	"215.605"	"0.301"	"0"	"6.291"
"1907"	"5.409"	"42.469"	"5.287"	"14.552"	"5.514"	"20.087"	"116.231"	"417.411"	"1.563"	"0.284"	"0.294"	"0"
"1908"	"23.232"	"2.177"	"0.536"	"0.782"	"4.148"	"27.372"	"448.847"	"404.729"	"33.03"	"10.503"	"0.112"	"1.671"
"1909"	"17.97"	"3.702"	"0"	"10.772"	"9.972"	"122.228"	"408.644"	"158.453"	"108.018"	"0.284"	"0"	"25.03"
"1910"	"10.437"	"1.902"	"0"	"1.451"	"3.321"	"58.848"	"169.612"	"229.967"	"173.319"	"34.474"	"15.867"	"0"
"1911"	"23.731"	"0"	"17.518"	"1.027"	"0"	"35.916"	"52.457"	"142.824"	"334.611"	"36.229"	"38.667"	"7.516"
"1912"	"20.832"	"1.982"	"7.69"	"0.559"	"0.987"	"20.641"	"235.308"	"242.3"	"183.101"	"0.284"	"13.216"	"2.878"
"1913"	"0.01"	"32.048"	"7.182"	"0"	"16.666"	"79.58"	"117.268"	"106.934"	"27.845"	"0.284"	"0.108"	"10.202"
"1914"	"1.63"	"3.171"	"5.587"	"5.772"	"15.47"	"80.717"	"427.734"	"188.245"	"166.736"	"14.53"	"0"	"0"
"1915"	"12.561"	"20.286"	"35.89"	"3.608"	"2.098"	"52.148"	"216.992"	"237.563"	"103.162"	"56.075"	"0.049"	"1.463"
"1916"	"0.01"	"11.287"	"0"	"0.818"	"1.482"	"92.775"	"280.738"	"395.791"	"127.529"	"32.236"	"2.451"	"0"
"1917"	"3.512"	"15.692"	"15.461"	"8.721"	"27.699"	"76.053"	"394.976"	"311.78"	"275.829"	"59.064"	"0"	"6.557"
"1918"	"14.783"	"0.075"	"2.58"	"0.189"	"1.228"	"79.339"	"62.903"	"235.295"	"67.927"	"0.284"	"1.052"	"0.198"
"1919"	"33.112"	"3.067"	"1.339"	"6.267"	"3.647"	"26.185"	"259.682"	"446.253"	"86.781"	"14.363"	"2.955"	"6.938"
"1920"	"5.842"	"12.779"	"8.559"	"0"	"7.345"	"83.677"	"409.036"	"101.275"	"77.267"	"0.538"	"0"	"0"
"1921"	"35.506"	"0.397"	"0"	"0.317"	"0"	"61.301"	"112.433"	"191.807"	"297.306"	"2.657"	"0"	"0"
"1922"	"19.702"	"1.05"	"0.474"	"1.714"	"0.075"	"59.433"	"282.682"	"301.898"	"244.419"	"1.075"	"0.811"	"37.36"
"1923"	"0.62"	"8.692"	"0.38"	"0.129"	"1.821"	"3.979"	"191.564"	"335.525"	"239.218"	"18.775"	"0.51"	"9.152"
"1924"	"16.68"	"7.029"	"0"	"0"	"0.356"	"12.068"	"230.444"	"310.066"	"302.14"	"13.725"	"2.4"	"25.611"
"1925"	"0.154"	"0"	"0"	"0"	"17.933"	"151.665"	"627.689"	"124.8"	"137.77"	"1.323"	"36.142"	"0"
"1926"	"7.229"	"3.499"	"32.484"	"6.149"	"16.272"	"22.475"	"225.571"	"300.36"	"199.51"	"9.698"	"0.144"	"0.526"
"1927"	"2.664"	"16.433"	"7.46"	"1.798"	"3.471"	"27.419"	"296.139"	"279.252"	"123.039"	"22.202"	"31.936"	"13.44"
"1928"	"8.762"	"21.198"	"0.279"	"3.932"	"1.717"	"24.657"	"234.768"	"82.142"	"71.347"	"88.474"	"8.882"	"38.552"
"1929"	"18.97"	"1.155"	"0"	"1.674"	"0"	"53.544"	"277.705"	"200.416"	"34.067"	"16.381"	"0"	"28.269"
"1930"	"9.314"	"8.584"	"0.807"	"1.103"	"2.033"	"103.184"	"464.358"	"219.058"	"80.364"	"30.568"	"3.204"	"6.855"
"1931"	"0.096"	"7.498"	"0.072"	"0.317"	"1.293"	"34.335"	"166.608"	"211.765"	"303.436"	"88.816"	"3.758"	"0"
"1932"	"0.01"	"1.677"	"8.382"	"1.794"	"1.718"	"24.579"	"157.667"	"331.797"	"176.413"	"9.045"	"1.12"	"0.072"
"1933"	"0.154"	"7.002"	"2.725"	"11.653"	"20.353"	"233.107"	"139.066"	"279.925"	"227.462"	"38.213"	"0.042"	"0.01"
"1934"	"15.304"	"0"	"15.905"	"0"	"0.072"	"109.296"	"142.273"	"232.1"	"140.329"	"0.724"	"2.448"	"32.35"
"1935"	"21.575"	"5.802"	"0.451"	"7.643"	"0.762"	"51.513"	"351.724"	"229.418"	"129.399"	"4.652"	"0.193"	"10.752"
"1936"	"1.536"	"13.668"	"11.324"	"0.848"	"2.786"	"232.762"	"288.082"	"347.955"	"149.659"	"0.667"	"18.508"	"20.129"
"1937"	"0.01"	"33.003"	"2.61"	"3.542"	"5.15"	"57.862"	"159.73"	"181.075"	"135.476"	"17.936"	"4.009"	"21.45"
"1938"	"20.295"	"1.654"	"0.032"	"1.601"	"1.684"	"79.048"	"340.504"	"185.461"	"103.968"	"22.668"	"0"	"0"
"1939"	"16.614"	"7.208"	"1.135"	"1.953"	"0"	"104.66"	"315.579"	"153.66"	"185.146"	"4.685"	"0"	"0"
"1940"	"13.798"	"11.374"	"13.701"	"5.266"	"8.158"	"45.47"	"130.624"	"296.196"	"74.11"	"1.362"	"2.747"	"4.788"
"1941"	"20.486"	"1.333"	"1.542"	"0"	"8.746"	"36.352"	"163.788"	"148.046"	"77.247"	"0.284"	"0"	"0.072"
"1942"	"31.689"	"12.967"	"0.032"	"2.928"	"1.773"	"43.782"	"390.525"	"321.656"	"307.043"	"0.301"	"0"	"8.527"
"1943"	"20.436"	"0.423"	"0.882"	"12.453"	"10.429"	"68.501"	"157.958"	"466.266"	"197.798"	"3.255"	"0"	"0"
"1944"	"20.375"	"15.869"	"32.698"	"14.316"	"0"	"23.763"	"231.706"	"338.162"	"68.937"	"5.664"	"0"	"1.516"
"1945"	"24.696"	"0.082"	"0"	"7.481"	"9.893"	"39.044"	"168.93"	"339.674"	"243.102"	"8.996"	"0"	"10.35"
"1946"	"0.01"	"8.143"	"0"	"2.191"	"7.474"	"71.74"	"287.987"	"349.436"	"7.664"	"13.148"	"7.095"	"6.785"
"1947"	"9.644"	"5.04"	"5.598"	"1.224"	"0.774"	"35.746"	"352.939"	"322.456"	"327.949"	"53.52"	"1.361"	"3.806"
"1948"	"38.95"	"8.325"	"0.179"	"0.782"	"2.892"	"64.746"	"366.006"	"338.525"	"211.782"	"27.752"	"15.086"	"0"
"1949"	"0.01"	"13.823"	"1.734"	"0.072"	"0.975"	"8.461"	"368.425"	"414.839"	"237.212"	"29.193"	"0.01"	"0"
"1950"	"6.455"	"1.533"	"14.944"	"0"	"8.623"	"24.911"	"252.922"	"364.333"	"158.498"	"0.284"	"0"	"9.529"
"1951"	"11.003"	"5.032"	"19.836"	"2.763"	"2.547"	"84.435"	"159.15"	"341.818"	"239.155"	"2.693"	"20.449"	"0"
"1952"	"0.317"	"12.618"	"12.278"	"3.546"	"2.997"	"83.153"	"203.163"	"544.923"	"37.238"	"0.284"	"0.179"	"28.233"
"1953"	"34.612"	"6.319"	"0"	"0.908"	"0.032"	"43.64"	"246.605"	"253.985"	"80.905"	"0.893"	"0"	"2.784"
"1954"	"15.447"	"23.626"	"5.94"	"0"	"0"	"21.498"	"265.376"	"266.983"	"194.47"	"51.907"	"0"	"0"
"1955"	"36.158"	"5.638"	"1.097"	"0.072"	"1.037"	"132.788"	"342.414"	"390.944"	"178.812"	"111.792"	"0"	"0.425"
"1956"	"10.165"	"5.586"	"15.54"	"0"	"0.599"	"110.68"	"408.717"	"259.685"	"117.124"	"122.564"	"16.764"	"16.418"
"1957"	"21.863"	"0.082"	"25.329"	"3.8"	"4.662"	"37.764"	"375.273"	"223.746"	"194.95"	"12.016"	"3.536"	"4.424"
"1958"	"7.313"	"3.904"	"11.731"	"0.186"	"0"	"11.177"	"385.211"	"333.476"	"256.356"	"42.99"	"0"	"5.092"
"1959"	"23.648"	"1.536"	"0.072"	"0.563"	"31.549"	"27.105"	"224.299"	"297.056"	"68.438"	"45.785"	"4.598"	"0"
"1960"	"6.18"	"0"	"21.223"	"0.605"	"6.29"	"21.573"	"322.707"	"538.652"	"87.4"	"83.524"	"0"	"7.516"
"1961"	"33.375"	"18.019"	"0.075"	"1.446"	"2.246"	"63.001"	"194.732"	"575.791"	"100.362"	"53.401"	"5.291"	"1.77"
"1962"	"24.473"	"3.174"	"7.275"	"5.693"	"1.052"	"18.579"	"275.16"	"302.172"	"256.285"	"0.284"	"0.108"	"2.159"
"1963"	"17.528"	"2.897"	"6.443"	"3.933"	"8.198"	"50.644"	"284.477"	"302.647"	"353.26"	"0.622"	"6.92"	"11.391"
"1964"	"0.082"	"1.465"	"2.102"	"1.027"	"9.159"	"15.369"	"405.382"	"309.389"	"316.296"	"3.643"	"0"	"3.878"
"1965"	"1.314"	"4.042"	"6.869"	"9.983"	"1.775"	"8.417"	"285.056"	"149.797"	"150.141"	"45.592"	"0"	"2.489"
"1966"	"0.384"	"3.362"	"0"	"0"	"16.043"	"139.621"	"153.606"	"306.228"	"18.744"	"0.789"	"40.885"	"4.446"
"1967"	"0.508"	"0"	"20.568"	"1.185"	"0.657"	"34.039"	"258.275"	"589.763"	"176.163"	"0.355"	"0"	"42.618"
"1968"	"28.915"	"3.124"	"4.679"	"0"	"0"	"36.273"	"254.91"	"160.594"	"50.645"	"40.123"	"0"	"2.455"
"1969"	"3.739"	"7.726"	"0.104"	"0.072"	"16.995"	"11.205"	"398.94"	"234.153"	"126.154"	"0.284"	"9.54"	"0"
"1970"	"31.111"	"29.845"	"3.136"	"0"	"22.133"	"88.431"	"171.033"	"360.105"	"308.924"	"12.039"	"0"	"0"
"1971"	"16.224"	"8.187"	"0.983"	"7.302"	"15.417"	"178.817"	"264.959"	"285.68"	"153.26"	"70.834"	"1.948"	"0"
"1972"	"8.472"	"16.976"	"0"	"0.186"	"0.284"	"20.644"	"80.457"	"297.566"	"152.483"	"35.049"	"7.274"	"5.315"
"1973"	"11.579"	"7.732"	"0.072"	"0"	"0.558"	"12.287"	"314.848"	"425.278"	"172.548"	"73.721"	"0"	"1.221"
"1974"	"0.082"	"0.032"	"0"	"0.075"	"4.921"	"16.026"	"177.989"	"162.643"	"25.377"	"73.59"	"0.119"	"0.144"
"1975"	"4.141"	"2.091"	"5.17"	"1.737"	"0"	"112.999"	"328.332"	"196.097"	"177.692"	"30.997"	"0"	"0"
"1976"	"8.238"	"1.449"	"0.929"	"2.652"	"3.209"	"102.648"	"187.013"	"255.558"	"161.638"	"0.284"	"16.623"	"0"
"1977"	"22.722"	"4.128"	"0.22"	"8.581"	"4.862"	"45.183"	"409.803"	"218.757"	"225.084"	"56.448"	"1.72"	"2.956"
"1978"	"7.082"	"20.941"	"25.147"	"2.162"	"0"	"140.668"	"198.622"	"216.969"	"220.325"	"3.504"	"0.104"	"14.058"
"1979"	"12.916"	"29.461"	"1.078"	"1.146"	"10.678"	"50.27"	"184.606"	"88.822"	"17.014"	"0.716"	"21.803"	"5.483"
"1980"	"0.01"	"3.119"	"12.394"	"0.353"	"1.374"	"97.099"	"304.545"	"420.349"	"67.716"	"16.739"	"1.768"	"39.449"
"1981"	"8.552"	"0.352"	"16.578"	"0"	"13.493"	"219.998"	"361.049"	"268.282"	"91.537"	"0.284"	"8.295"	"2.15"
"1982"	"35.334"	"4.787"	"19.592"	"3.211"	"16.455"	"34.399"	"156.468"	"459.761"	"143.62"	"1.205"	"42.218"	"12.59"
"1983"	"12.662"	"2.524"	"0.072"	"19.481"	"25.465"	"76.608"	"107.357"	"367.466"	"174.685"	"35.92"	"0"	"3.343"
"1984"	"11.605"	"7.936"	"0"	"21.317"	"1.54"	"88.914"	"151.84"	"262.604"	"136.219"	"7.818"	"0"	"0"
"1985"	"7.967"	"0"	"2.545"	"8.397"	"1.503"	"42.49"	"423.6"	"305.496"	"192.659"	"116.694"	"0"	"18.177"
"1986"	"12.303"	"18.303"	"5.388"	"0.072"	"26.415"	"83.856"	"179.036"	"193.874"	"100.201"	"42.141"	"0.144"	"27.582"
"1987"	"19.91"	"6.912"	"5.211"	"0"	"23.127"	"9.809"	"93.583"	"166.421"	"31.096"	"29.028"	"0"	"7.727"
"1988"	"5.773"	"1.402"	"12.546"	"8.148"	"3.519"	"103.069"	"274.781"	"280.741"	"60.177"	"5.015"	"0"	"8.221"
"1989"	"9.238"	"0"	"10.975"	"0.457"	"0.104"	"26.524"	"243.205"	"249.332"	"123.471"	"11.736"	"8.223"	"13.201"
"1990"	"0.01"	"16.864"	"0.898"	"2.869"	"14.522"	"118.219"	"315.929"	"331.232"	"306.059"	"0.92"	"0.179"	"8.952"
"1991"	"3.257"	"11.664"	"4.028"	"4.719"	"16.204"	"22.015"	"33.099"	"216.126"	"118.686"	"0.284"	"8.249"	"36.384"
"1992"	"20.235"	"6.709"	"8.935"	"1.865"	"12.485"	"18.956"	"82.993"	"214.104"	"159.048"	"68.308"	"22.282"	"0"
"1993"	"7.493"	"0.765"	"9.685"	"1.73"	"11.459"	"84.102"	"226.203"	"158.133"	"242.234"	"13.384"	"0"	"0.032"
"1994"	"24.311"	"14.098"	"14.651"	"4.403"	"4.386"	"102.345"	"505.927"	"293.264"	"70.815"	"2.399"	"0"	"0"
"1995"	"30.68"	"4.897"	"4.04"	"7.744"	"0.263"	"31.395"	"167.258"	"301.426"	"155.793"	"1.039"	"5.837"	"9.027"
"1996"	"15.287"	"4.711"	"0.851"	"2.619"	"9.564"	"155.798"	"191.077"	"297.236"	"299.63"	"53.558"	"0"	"0"
"1997"	"4.343"	"0"	"2.636"	"2.988"	"14.394"	"107.779"	"57.733"	"206.112"	"211.592"	"48.77"	"27.094"	"21.189"
"1998"	"0.01"	"4.107"	"17.164"	"6.377"	"13.229"	"100.431"	"215.419"	"319.725"	"75.399"	"43.419"	"2.214"	"0.243"
"1999"	"16.501"	"14.912"	"0"	"0"	"6.416"	"129.971"	"266.344"	"273"	"265.364"	"71.126"	"0"	"2.76"
"2000"	"9.039"	"2.811"	"1.339"	"1.231"	"7.067"	"31.589"	"259.129"	"159.668"	"136.316"	"0.284"	"0"	"0"
"2001"	"6.407"	"3.971"	"3.867"	"8.962"	"17.094"	"113.839"	"167.289"	"249.338"	"74.181"	"37.005"	"2.075"	"0"
"2002"	"14.378"	"11.232"	"0.791"	"0.452"	"7.21"	"36.525"	"48.281"	"218.73"	"185.224"	"35.912"	"4.048"	"7.155"
