
"Year"	"Jan"	"Feb"	"Mar"	"Apr"	"May"	"Jun"	"Jul"	"Aug"	"Sep"	"Oct"	"Nov"	"Dec"
"1901"	"23.035"	"23.415"	"27.148"	"29.37"	"27.962"	"25.854"	"24.267"	"24.153"	"25.239"	"25.384"	"23.203"	"21.99"
"1902"	"22.898"	"24.153"	"27.87"	"29.13"	"29.325"	"26.665"	"25.146"	"25.309"	"24.501"	"25.396"	"22.636"	"22.397"
"1903"	"22.612"	"23.671"	"26.825"	"29.256"	"28.457"	"26.821"	"24.406"	"24.313"	"24.696"	"24.203"	"22.25"	"21.296"
"1904"	"22.12"	"23.569"	"26.586"	"29.041"	"28.463"	"25.561"	"24.271"	"24.882"	"24.752"	"25.087"	"22.118"	"21.535"
"1905"	"21.952"	"23.751"	"26.264"	"27.747"	"29.292"	"26.875"	"24.786"	"24.549"	"24.702"	"25.607"	"23.512"	"21.456"
"1906"	"22.8"	"24.035"	"26.734"	"30.181"	"29.816"	"25.831"	"24.411"	"24.451"	"23.874"	"24.651"	"23.641"	"22.406"
"1907"	"22.461"	"24.455"	"26.939"	"27.873"	"28.146"	"25.892"	"24.476"	"23.363"	"24.716"	"25.606"	"23.92"	"21.55"
"1908"	"22.278"	"23.816"	"26.806"	"29.878"	"28.625"	"26.714"	"23.737"	"23.901"	"24.88"	"25.288"	"22.469"	"20.689"
"1909"	"23.068"	"24.416"	"28.233"	"28.188"	"28.835"	"25.585"	"23.768"	"24.599"	"24.213"	"24.911"	"23.527"	"23.106"
"1910"	"22.586"	"23.969"	"27.572"	"29.756"	"29.155"	"26.166"	"24.838"	"24.209"	"24.037"	"24.299"	"21.529"	"20.837"
"1911"	"22.924"	"23.237"	"26.77"	"29.313"	"29.361"	"25.742"	"24.784"	"24.015"	"25.138"	"26.053"	"24.497"	"22.919"
"1912"	"22.694"	"25.232"	"27.811"	"30.094"	"29.695"	"27.417"	"24.758"	"24.451"	"25.335"	"25.166"	"22.853"	"21.508"
"1913"	"21.478"	"25.039"	"27.228"	"30.179"	"28.909"	"25.345"	"24.177"	"24.421"	"25.273"	"25.068"	"23.253"	"23.204"
"1914"	"22.21"	"25.001"	"27.19"	"28.847"	"29.421"	"26.563"	"24.169"	"24.214"	"24.86"	"25.076"	"23.742"	"22.871"
"1915"	"22.892"	"24.521"	"26.954"	"29.452"	"28.999"	"27.15"	"24.977"	"24.768"	"24.941"	"24.973"	"24.261"	"21.274"
"1916"	"22.329"	"24.22"	"28.121"	"29.82"	"29.219"	"25.121"	"25.199"	"24.449"	"24.836"	"24.886"	"23.378"	"21.126"
"1917"	"21.863"	"23.508"	"26.278"	"28.166"	"27.969"	"25.019"	"24.862"	"24.735"	"24.525"	"23.972"	"22.646"	"21.412"
"1918"	"21.517"	"23.837"	"26.408"	"28.419"	"27.298"	"25.68"	"25.599"	"24.936"	"25.208"	"26.324"	"24.96"	"23.055"
"1919"	"23.583"	"25.285"	"27.621"	"29.476"	"28.689"	"25.475"	"24.612"	"24.582"	"25.011"	"25.025"	"24.075"	"21.928"
"1920"	"22.909"	"24.149"	"27.639"	"28.97"	"28.6"	"26.087"	"24.213"	"24.594"	"25.224"	"25.541"	"23.425"	"21.956"
"1921"	"23.237"	"24.068"	"28.269"	"29.689"	"29.502"	"26.278"	"24.764"	"24.199"	"24.312"	"24.827"	"22.31"	"21.736"
"1922"	"23.011"	"24.465"	"27.752"	"29.842"	"28.764"	"26.053"	"23.998"	"24.368"	"24.542"	"24.837"	"22.941"	"20.722"
"1923"	"21.868"	"23.217"	"26.835"	"28.688"	"28.343"	"27.32"	"24.023"	"24.352"	"24.303"	"24.626"	"23.267"	"22.719"
"1924"	"23.22"	"24.988"	"28.206"	"30.178"	"29.517"	"26.521"	"24.932"	"24.947"	"24.625"	"24.107"	"22.06"	"21.72"
"1925"	"21.795"	"23.727"	"27.395"	"30.092"	"28.268"	"25.63"	"24.3"	"24.526"	"25.199"	"24.952"	"23.811"	"21.811"
"1926"	"23.322"	"25.262"	"27.602"	"27.867"	"29.001"	"27.71"	"25.28"	"24.624"	"24.813"	"25.421"	"23.167"	"22.196"
"1927"	"23.441"	"24.72"	"28.096"	"29.658"	"28.97"	"25.781"	"23.85"	"24.339"	"25.112"	"24.925"	"22.116"	"22.255"
"1928"	"23.084"	"24.425"	"27.408"	"29.582"	"29.331"	"26.582"	"24.627"	"24.42"	"24.489"	"24.896"	"23.459"	"22.15"
"1929"	"22.857"	"24.48"	"28.004"	"28.582"	"29.207"	"25.866"	"24.514"	"24.786"	"25.436"	"24.899"	"23.459"	"22.834"
"1930"	"23.192"	"23.036"	"27.468"	"28.8"	"28.806"	"26.385"	"23.927"	"24.2"	"24.775"	"25.085"	"22.505"	"22.854"
"1931"	"22.602"	"24.758"	"27.212"	"30.282"	"29.57"	"27.19"	"24.394"	"24.601"	"24.4"	"24.458"	"23.041"	"21.589"
"1932"	"21.575"	"23.261"	"26.577"	"28.975"	"28.57"	"25.953"	"23.99"	"24.909"	"24.564"	"25.395"	"23.463"	"21.896"
"1933"	"22.261"	"24.462"	"26.786"	"28.875"	"27.425"	"24.895"	"24.007"	"23.941"	"24.213"	"24.239"	"23.58"	"21.634"
"1934"	"21.878"	"23.841"	"26.534"	"29.253"	"28.918"	"26.029"	"24.155"	"23.898"	"24.579"	"25.174"	"22.156"	"21.197"
"1935"	"22.038"	"24.178"	"26.59"	"28.103"	"29.353"	"26.462"	"23.989"	"24.312"	"23.903"	"25.331"	"22.277"	"22.455"
"1936"	"22.969"	"23.849"	"26.847"	"28.957"	"29.393"	"24.892"	"24.199"	"24.186"	"25.195"	"25.085"	"23.9"	"22.298"
"1937"	"22.031"	"24.607"	"27.1"	"28.543"	"28.954"	"26.183"	"23.798"	"24.582"	"24.815"	"24.574"	"22.927"	"22.092"
"1938"	"23.577"	"23.997"	"28.021"	"29.582"	"28.66"	"24.428"	"23.79"	"24.152"	"24.09"	"23.652"	"22.471"	"21.73"
"1939"	"22.497"	"24.365"	"26.513"	"28.794"	"28.852"	"26.213"	"23.747"	"24.304"	"24.374"	"25.185"	"22.245"	"21.114"
"1940"	"21.352"	"24.141"	"26.675"	"28.818"	"28.707"	"26.077"	"23.807"	"23.901"	"24.814"	"24.875"	"23.745"	"22.152"
"1941"	"22.637"	"25.04"	"28.356"	"30.419"	"29.913"	"26.562"	"25.112"	"25.124"	"25.421"	"26.046"	"24.466"	"23.814"
"1942"	"23.008"	"24.888"	"28.394"	"28.818"	"29.556"	"26.153"	"23.741"	"23.624"	"23.826"	"25.349"	"23.216"	"22.708"
"1943"	"23.456"	"23.538"	"26.839"	"28.674"	"27.621"	"24.855"	"23.825"	"24.199"	"23.709"	"24.37"	"23.588"	"21.029"
"1944"	"22.883"	"23.62"	"25.492"	"28.285"	"29.501"	"26.347"	"24.225"	"24.571"	"24.898"	"24.874"	"23.34"	"22.354"
"1945"	"21.96"	"24.063"	"27.508"	"28.245"	"28.968"	"25.992"	"24.177"	"24.376"	"24.067"	"24.64"	"22.485"	"21.056"
"1946"	"21.466"	"23.734"	"27.287"	"28.411"	"28.143"	"25.121"	"24.137"	"24.1"	"24.572"	"25.682"	"23.576"	"23.052"
"1947"	"22.972"	"23.976"	"27.379"	"28.329"	"28.996"	"26.564"	"24.262"	"24.847"	"24.128"	"23.915"	"22.689"	"22.022"
"1948"	"23.235"	"24.154"	"26.978"	"28.659"	"29.046"	"26.351"	"24.521"	"24.423"	"23.954"	"25.097"	"24.473"	"20.639"
"1949"	"22.26"	"23.469"	"27.187"	"28.621"	"27.962"	"25.678"	"24.474"	"24.643"	"24.149"	"24.911"	"22.305"	"21.846"
"1950"	"22.312"	"23.533"	"26.452"	"28.968"	"28.658"	"26.002"	"24.11"	"24.806"	"24.062"	"24.173"	"22.628"	"21.832"
"1951"	"22.586"	"24.093"	"27.087"	"28.444"	"28.89"	"25.59"	"24.483"	"24.35"	"25.747"	"25.694"	"24.611"	"21.31"
"1952"	"22.925"	"24.888"	"26.501"	"29.73"	"29.456"	"26.322"	"24.912"	"24.219"	"24.813"	"24.981"	"22.075"	"23.352"
"1953"	"22.497"	"24.945"	"29.002"	"28.648"	"29.899"	"27.112"	"24.431"	"24.022"	"24.451"	"25.122"	"22.901"	"21.334"
"1954"	"22.291"	"25.153"	"27.108"	"29.331"	"29.346"	"26.315"	"23.775"	"24.244"	"23.672"	"24.099"	"22.207"	"22.659"
"1955"	"23.096"	"25.241"	"27.347"	"28.683"	"28.1"	"25.364"	"24.178"	"23.46"	"25.054"	"24.792"	"21.897"	"21.245"
"1956"	"22.246"	"23.568"	"27.835"	"29.62"	"27.278"	"24.901"	"23.053"	"23.522"	"23.721"	"24.237"	"23.437"	"21.793"
"1957"	"22.891"	"24.295"	"26.124"	"28.994"	"28.97"	"26.647"	"24.377"	"23.976"	"24.785"	"25.883"	"23.951"	"23.402"
"1958"	"23.033"	"24.615"	"27.523"	"29.683"	"29.342"	"27.672"	"24.169"	"24.449"	"24.211"	"24.898"	"24.361"	"22.582"
"1959"	"23.337"	"25.416"	"27.764"	"29.305"	"29.668"	"25.902"	"23.737"	"24.296"	"24.789"	"24.948"	"23.737"	"23.019"
"1960"	"23.446"	"24.766"	"27.202"	"29.161"	"28.653"	"26.053"	"24.836"	"24.748"	"24.756"	"24.9"	"23.893"	"22.828"
"1961"	"23.225"	"23.997"	"28.634"	"29.967"	"27.771"	"25.381"	"23.599"	"24.221"	"24.089"	"24.578"	"23.33"	"22.562"
"1962"	"21.546"	"24.796"	"27.212"	"28.818"	"28.665"	"26.652"	"24.24"	"24.211"	"24.491"	"25.46"	"22.941"	"21.835"
"1963"	"22.298"	"23.957"	"27.451"	"28.103"	"28.768"	"25.356"	"24.642"	"23.728"	"24.628"	"24.739"	"23.93"	"23.12"
"1964"	"22.808"	"25.189"	"28.181"	"29.735"	"29.116"	"26.416"	"24.544"	"23.636"	"23.965"	"24.824"	"22.688"	"21.435"
"1965"	"22.51"	"24.101"	"27.039"	"28.681"	"28.881"	"25.977"	"23.766"	"24.768"	"25.109"	"26.23"	"24.649"	"23.605"
"1966"	"23.447"	"25.654"	"28.245"	"29.952"	"28.529"	"26.862"	"25.124"	"25.274"	"24.98"	"25.388"	"24.081"	"22.333"
"1967"	"22.886"	"24.845"	"27.121"	"29.796"	"29.98"	"27.174"	"24.373"	"24.267"	"24.497"	"24.897"	"23.625"	"23.913"
"1968"	"22.389"	"25.193"	"27.126"	"29.22"	"29.559"	"26.639"	"24.476"	"24.511"	"25.066"	"24.565"	"23.555"	"23.123"
"1969"	"22.685"	"25.789"	"28.994"	"30.424"	"29.768"	"27.003"	"24.31"	"24.912"	"24.242"	"25.423"	"24.642"	"22.707"
"1970"	"23.382"	"25.309"	"28.152"	"30.042"	"29.25"	"25.497"	"24.647"	"23.949"	"24.41"	"25.158"	"23.377"	"20.885"
"1971"	"21.916"	"25.161"	"27.17"	"29.908"	"29.224"	"25.488"	"24.676"	"24.283"	"25.531"	"24.222"	"22.83"	"21.723"
"1972"	"22.511"	"24.052"	"28.628"	"29.668"	"29.205"	"27.77"	"25.294"	"25.243"	"25.967"	"26.467"	"24.393"	"23.567"
"1973"	"24.292"	"25.648"	"28.764"	"30.574"	"30.33"	"26.262"	"24.594"	"24.278"	"24.657"	"24.124"	"22.542"	"21.913"
"1974"	"23.116"	"25.008"	"27.951"	"30.028"	"28.44"	"25.576"	"24.478"	"24.276"	"24.678"	"24.165"	"23.49"	"21.62"
"1975"	"21.859"	"25.161"	"27.796"	"30.134"	"28.589"	"25.659"	"24.154"	"24.559"	"24.499"	"24.695"	"22.376"	"21.04"
"1976"	"21.104"	"23.532"	"27.483"	"28.415"	"28.98"	"25.986"	"24.54"	"24.192"	"25.057"	"26.651"	"25.19"	"23.558"
"1977"	"22.862"	"25.395"	"28.063"	"28.778"	"28.272"	"26.155"	"24.041"	"24.315"	"25.79"	"25.195"	"24.837"	"21.684"
"1978"	"22.984"	"23.914"	"27.011"	"28.728"	"28.118"	"25.293"	"24.046"	"23.253"	"24.312"	"25.048"	"24.511"	"23.063"
"1979"	"23.217"	"24.476"	"27.472"	"29.686"	"28.431"	"26.446"	"24.995"	"24.14"	"24.407"	"25.975"	"24.034"	"23.289"
"1980"	"23.164"	"25.737"	"27.553"	"28.521"	"29.52"	"25.246"	"24.521"	"23.757"	"25.064"	"26.827"	"25.064"	"23.06"
"1981"	"22.518"	"25.376"	"27.073"	"29.583"	"28.594"	"25.734"	"24.894"	"24.123"	"24.556"	"25.421"	"24.042"	"22.562"
"1982"	"23.341"	"25.911"	"28.27"	"29.326"	"29.068"	"26.706"	"24.843"	"24.694"	"24.913"	"26.124"	"24.211"	"22.962"
"1983"	"22.891"	"24.567"	"28.128"	"30.199"	"30.244"	"27.461"	"25.144"	"24.763"	"24.46"	"24.792"	"23.115"	"22.739"
"1984"	"23.698"	"24.963"	"27.914"	"29.625"	"30.819"	"26.129"	"24.334"	"24.187"	"24.907"	"24.915"	"23.421"	"23.808"
"1985"	"24.198"	"25.474"	"28.369"	"29.594"	"29.058"	"25.852"	"24.42"	"24.492"	"25.647"	"24.837"	"24.413"	"24.064"
"1986"	"22.506"	"24.998"	"28.909"	"30.44"	"29.565"	"26.125"	"25.12"	"24.24"	"25.556"	"26.982"	"25.027"	"23.67"
"1987"	"23.56"	"24.687"	"27.877"	"30.418"	"29.153"	"27.015"	"25.339"	"25.172"	"26.471"	"25.54"	"24.273"	"22.674"
"1988"	"23.12"	"26.067"	"28.43"	"29.807"	"29.983"	"26.755"	"24.614"	"24.498"	"24.837"	"26.079"	"24.368"	"22.635"
"1989"	"23.218"	"24.87"	"26.809"	"29.869"	"29.872"	"25.804"	"24.435"	"24.168"	"24.717"	"25.876"	"24.258"	"22.774"
"1990"	"23.302"	"24.236"	"26.811"	"29.919"	"27.525"	"25.248"	"24.152"	"24.04"	"25.05"	"25.343"	"24.285"	"23.072"
"1991"	"23.638"	"25.456"	"28.703"	"29.06"	"29.519"	"26.009"	"23.859"	"24.416"	"25.666"	"25.653"	"24.272"	"22.39"
"1992"	"21.949"	"23.916"	"28.25"	"29.914"	"29.4"	"26.706"	"25.279"	"24.41"	"25.787"	"25.638"	"24.424"	"21.726"
"1993"	"23.189"	"24.033"	"26.793"	"30.123"	"29.761"	"27.346"	"24.783"	"24.428"	"24.787"	"25.308"	"24.534"	"21.613"
"1994"	"23.052"	"24.355"	"28.883"	"28.562"	"30.02"	"25.897"	"24.153"	"24.502"	"25.587"	"24.999"	"23.345"	"21.796"
"1995"	"21.238"	"24.915"	"27.882"	"30.362"	"28.662"	"28.139"	"24.888"	"25.799"	"25.573"	"25.416"	"24.551"	"23.445"
"1996"	"23.93"	"25.494"	"29.16"	"29.833"	"30.16"	"27.132"	"25.213"	"24.452"	"24.951"	"24.643"	"24.316"	"22.501"
"1997"	"22.205"	"23.823"	"28.085"	"28.42"	"29.608"	"27.268"	"25.024"	"24.59"	"25.427"	"26.173"	"25.468"	"24.544"
"1998"	"23.931"	"24.915"	"28.648"	"30.855"	"30.411"	"28.058"	"25.297"	"25.207"	"25.311"	"25.383"	"24.235"	"21.961"
"1999"	"21.991"	"26.013"	"28.683"	"30.223"	"28.855"	"25.642"	"24.54"	"24.597"	"24.78"	"25.452"	"24.125"	"22.441"
"2000"	"23.734"	"24.476"	"27.622"	"30.3"	"28.831"	"25.781"	"24.141"	"24.617"	"25.402"	"25.791"	"24.424"	"22.354"
"2001"	"23.46"	"25.807"	"27.49"	"29.847"	"29.866"	"26.346"	"24.728"	"24.373"	"25.598"	"25.133"	"25.008"	"22.916"
"2002"	"22.816"	"25.921"	"29.22"	"30.523"	"29.953"	"26.582"	"25.124"	"24.306"	"25.342"	"26.025"	"24.288"	"23.293"
