
"Year"	"Jan"	"Feb"	"Mar"	"Apr"	"May"	"Jun"	"Jul"	"Aug"	"Sep"	"Oct"	"Nov"	"Dec"
"1901"	"66.577"	"27.754"	"25.176"	"5.513"	"68.1"	"51.702"	"387.876"	"577.105"	"175.186"	"6.539"	"0.345"	"17.109"
"1902"	"2.783"	"8.646"	"10.536"	"43.901"	"35.424"	"80.023"	"432.624"	"295.938"	"167.39"	"35.009"	"0.332"	"0.841"
"1903"	"39.283"	"11.309"	"40.278"	"11.81"	"25.421"	"64.286"	"209.398"	"292.456"	"95.16"	"112.771"	"0.153"	"3.083"
"1904"	"17.176"	"5.009"	"40.507"	"7.218"	"49.425"	"173.033"	"299.236"	"501.518"	"252.078"	"16.102"	"14.841"	"17.195"
"1905"	"122.7"	"76.964"	"22.776"	"21.208"	"41.235"	"49.876"	"227.687"	"274.231"	"115.091"	"1.903"	"0.146"	"15.436"
"1906"	"29.125"	"107.299"	"20.304"	"9.959"	"17.471"	"187.174"	"223.896"	"447.833"	"211.234"	"15.18"	"0.172"	"2.948"
"1907"	"20.678"	"54.212"	"85.354"	"55.309"	"35.408"	"85.894"	"401.559"	"199.695"	"21.317"	"2.702"	"0.165"	"0.972"
"1908"	"47.662"	"41.799"	"7.058"	"8.672"	"38.551"	"87.329"	"248.204"	"319.768"	"83.907"	"4.327"	"1.244"	"2.875"
"1909"	"51.81"	"22.318"	"2.304"	"61.331"	"17.082"	"400.761"	"567.13"	"352.062"	"80.906"	"11.234"	"0.463"	"44.232"
"1910"	"21.609"	"27.589"	"6.066"	"9.456"	"59.149"	"287.832"	"462.94"	"354.794"	"238.69"	"29.992"	"2.222"	"5.249"
"1911"	"83.968"	"3.847"	"102.324"	"23.119"	"6.135"	"167.335"	"97.89"	"345.264"	"272.252"	"15.89"	"33.789"	"1.275"
"1912"	"36.716"	"24.884"	"22.02"	"36.038"	"51.963"	"130.44"	"301.843"	"331.984"	"293.201"	"5.152"	"29.257"	"9.491"
"1913"	"7.229"	"56.377"	"45.093"	"14.85"	"78.712"	"374.595"	"209.665"	"210.706"	"43.223"	"8.134"	"9.709"	"29.733"
"1914"	"2.973"	"69.03"	"65.696"	"38.758"	"39.3"	"180.352"	"469.322"	"296.813"	"529.127"	"21.747"	"7.033"	"1.748"
"1915"	"13.529"	"86.109"	"44.626"	"26.966"	"37.462"	"146.532"	"262.468"	"681.456"	"132.679"	"13.827"	"0.411"	"9.206"
"1916"	"2.217"	"17.419"	"2.599"	"17.123"	"69.213"	"374.167"	"503.411"	"267.237"	"263.866"	"59.47"	"0.185"	"0.96"
"1917"	"14.284"	"46.071"	"49.953"	"56.207"	"125.336"	"307.024"	"361.114"	"306.936"	"330.081"	"103.342"	"0.389"	"14.136"
"1918"	"8.473"	"2.852"	"23.665"	"53.549"	"21.624"	"196.758"	"125.183"	"202.956"	"43.512"	"7.882"	"25.831"	"5.743"
"1919"	"100.656"	"19.621"	"24.19"	"58.101"	"49.69"	"156.305"	"318.44"	"280.709"	"200.588"	"34.727"	"3.129"	"4.136"
"1920"	"7.347"	"22.661"	"44.202"	"5.18"	"72.316"	"375.706"	"356.409"	"170.209"	"64.925"	"8.778"	"0.33"	"2.298"
"1921"	"64.231"	"7.359"	"6.687"	"5.209"	"7.384"	"80.483"	"306.806"	"481.017"	"200.067"	"95.938"	"0.206"	"4.425"
"1922"	"50.997"	"31.49"	"2.679"	"11.959"	"10.838"	"90.084"	"484.623"	"568.65"	"252.359"	"42.189"	"5.993"	"59.6"
"1923"	"18.061"	"84.509"	"3.721"	"1.804"	"35.217"	"64.335"	"273.424"	"286.61"	"274.812"	"113.51"	"23.372"	"23.141"
"1924"	"23.37"	"42.034"	"15.024"	"10.84"	"41.626"	"62.617"	"297.742"	"327.186"	"513.642"	"143.538"	"3.302"	"31.402"
"1925"	"33.87"	"3.805"	"9.888"	"20.725"	"52.723"	"391.037"	"458.471"	"450.476"	"104.031"	"11.142"	"15.29"	"0.911"
"1926"	"15.338"	"15.313"	"74.771"	"47.697"	"48.543"	"37.974"	"421.522"	"387.625"	"89.248"	"15.89"	"13.438"	"5.469"
"1927"	"5.83"	"58.297"	"13.015"	"17.241"	"100.065"	"85.539"	"184.027"	"600.979"	"116.374"	"195.774"	"3.397"	"3.967"
"1928"	"61.116"	"97.496"	"21.13"	"41.121"	"10.199"	"109.608"	"366.481"	"188.507"	"41.792"	"4.027"	"14.809"	"34.092"
"1929"	"89.792"	"5.63"	"16.586"	"29.882"	"24.553"	"204.109"	"227.777"	"411.472"	"70.803"	"77.276"	"0.126"	"60.222"
"1930"	"28.9"	"25.394"	"18.532"	"22.182"	"27.769"	"149.447"	"360.416"	"325.781"	"82.036"	"61.111"	"15.73"	"23.487"
"1931"	"6.324"	"62.784"	"26.152"	"5.107"	"38.315"	"58.353"	"342.044"	"249.732"	"422.777"	"171.424"	"2.234"	"0.999"
"1932"	"4.798"	"13.453"	"29.164"	"9.19"	"30.625"	"117.055"	"209.004"	"308.725"	"365.194"	"16.567"	"1.225"	"20.522"
"1933"	"32.176"	"55.859"	"12.631"	"35.937"	"81.346"	"220.479"	"441.746"	"341.524"	"220.737"	"199.217"	"0.279"	"1.606"
"1934"	"34.62"	"7.692"	"23.295"	"4.921"	"29.201"	"147.64"	"296.654"	"572.483"	"106.009"	"2.178"	"0.33"	"31.071"
"1935"	"65.961"	"23.619"	"16.743"	"39.744"	"9.003"	"28.213"	"368.882"	"218.526"	"157.726"	"4.318"	"13.562"	"24.431"
"1936"	"5.295"	"38.795"	"37.965"	"37.546"	"61.369"	"565.196"	"782.431"	"488.413"	"221.608"	"17.13"	"4.853"	"65.286"
"1937"	"6.604"	"94.841"	"1.676"	"50.507"	"48.971"	"174.099"	"401.571"	"242.126"	"225.286"	"33.427"	"1.356"	"24.726"
"1938"	"70.733"	"41.041"	"5.144"	"5.695"	"11.85"	"333.629"	"398.079"	"387.924"	"76.204"	"21.249"	"2.264"	"0.98"
"1939"	"20.895"	"35.754"	"25.15"	"30.194"	"18.109"	"209.249"	"264.388"	"212.554"	"90.915"	"48.286"	"0.35"	"1.064"
"1940"	"35.309"	"91.793"	"41.156"	"26.216"	"32.738"	"103.82"	"306.571"	"309.167"	"67.158"	"10.409"	"0.153"	"18.643"
"1941"	"33.31"	"22.708"	"9.525"	"3.368"	"59.286"	"120.745"	"124.093"	"259.197"	"187.616"	"15.393"	"2.371"	"19.88"
"1942"	"64.449"	"53.663"	"8.694"	"36.341"	"37.862"	"181.79"	"592.61"	"224.157"	"159.359"	"1.39"	"0.138"	"38.568"
"1943"	"34.743"	"9.441"	"20.47"	"60.62"	"8.492"	"211.52"	"220.062"	"558.385"	"108.771"	"1.325"	"0.158"	"0.732"
"1944"	"43.181"	"31.061"	"27.417"	"22.782"	"3.477"	"233.69"	"237.774"	"141.139"	"118.581"	"9.605"	"1.513"	"1.121"
"1945"	"38.698"	"2.398"	"19.479"	"40.036"	"17.489"	"61.766"	"474.754"	"252.052"	"413.588"	"111.095"	"0.071"	"0.653"
"1946"	"2.742"	"31.968"	"11.148"	"53.369"	"85.347"	"147.997"	"377.566"	"181.041"	"58.945"	"50.35"	"17.245"	"19.62"
"1947"	"27.967"	"41.985"	"49.196"	"4.77"	"25.303"	"77.896"	"304.006"	"395.364"	"250.674"	"4.719"	"2.102"	"6.127"
"1948"	"2.979"	"43.201"	"69.814"	"5.132"	"23.656"	"52.635"	"324.394"	"587.717"	"119.569"	"49.044"	"0.165"	"4.649"
"1949"	"3.547"	"58.264"	"13.838"	"40.775"	"45.289"	"91.943"	"514.963"	"316.032"	"264.556"	"61.576"	"1.17"	"3.39"
"1950"	"54.536"	"35.496"	"44.037"	"2.963"	"40.698"	"293.133"	"373.118"	"322.224"	"156.973"	"2.979"	"2.504"	"2.605"
"1951"	"28.559"	"30.156"	"31.161"	"20.327"	"38.303"	"121.718"	"158.617"	"357.737"	"205.783"	"33.515"	"32.941"	"0.096"
"1952"	"22.127"	"32.571"	"40.149"	"20.606"	"69.633"	"188.54"	"214.651"	"402.37"	"63.853"	"11.374"	"14.485"	"0.382"
"1953"	"68.64"	"4.514"	"8.617"	"22.622"	"10.282"	"123.897"	"531.741"	"294.063"	"71.973"	"11.42"	"1.049"	"8.668"
"1954"	"53.786"	"108.802"	"16.628"	"2.609"	"4.303"	"76.668"	"418.63"	"302.166"	"201.254"	"80.433"	"0.977"	"9.219"
"1955"	"46.489"	"5.178"	"24.735"	"38.683"	"19.099"	"159.062"	"376.586"	"353.356"	"191.206"	"148.453"	"0"	"1.832"
"1956"	"19.707"	"14.199"	"28.584"	"3.177"	"110.589"	"126.458"	"315.736"	"219.05"	"97.325"	"142.137"	"0"	"13.09"
"1957"	"87.638"	"1.87"	"36.385"	"30.025"	"26.798"	"112.718"	"275.369"	"240.668"	"315.148"	"23.783"	"5.816"	"54.984"
"1958"	"23.04"	"14.454"	"21.804"	"22.417"	"10.208"	"132.173"	"293.576"	"479.507"	"200.048"	"173.772"	"3.859"	"34.349"
"1959"	"31.953"	"24.783"	"23.386"	"26.336"	"68.915"	"65.443"	"456.64"	"219.66"	"122.313"	"81.636"	"20.249"	"0.37"
"1960"	"37.225"	"0.487"	"34.783"	"19.222"	"14.067"	"93.112"	"318.883"	"303.328"	"173.935"	"158.169"	"0.389"	"3.419"
"1961"	"82.946"	"70.972"	"6.915"	"17.05"	"30.547"	"127.748"	"414.449"	"390.327"	"134.634"	"122.674"	"1.174"	"33.261"
"1962"	"62.481"	"24.47"	"40.249"	"14.375"	"32.088"	"166.671"	"284.944"	"286.267"	"307.05"	"1.937"	"7.277"	"21.9"
"1963"	"15.425"	"29.702"	"99.474"	"30.04"	"52.342"	"139.56"	"239.898"	"369.127"	"309.8"	"22.528"	"15.758"	"14.184"
"1964"	"16.838"	"9.735"	"27.372"	"7.596"	"66.393"	"65.376"	"511.599"	"163.166"	"215.18"	"0.405"	"0"	"18.45"
"1965"	"13.542"	"55.036"	"35.024"	"31.148"	"21.287"	"42.131"	"254.148"	"301.459"	"46.526"	"53.59"	"0.955"	"0.094"
"1966"	"12.952"	"43.31"	"23.647"	"14.042"	"40.778"	"161.045"	"360.132"	"509.191"	"119.715"	"44.209"	"17.13"	"5.305"
"1967"	"1.552"	"16.058"	"77.526"	"8.423"	"4.99"	"97.787"	"299.409"	"491.183"	"87.846"	"6.038"	"3.446"	"32.853"
"1968"	"76.575"	"40.39"	"18.563"	"19.709"	"4.678"	"184.241"	"290.319"	"223.404"	"91.943"	"21.646"	"0"	"4.902"
"1969"	"35.103"	"14.546"	"25.854"	"64.275"	"50.469"	"78.141"	"319.829"	"431.486"	"524.934"	"11.749"	"1.924"	"0.094"
"1970"	"43.962"	"16.537"	"8.868"	"1.434"	"81.305"	"172.026"	"212.25"	"332.955"	"97.971"	"59.574"	"0"	"0.146"
"1971"	"25.961"	"28.344"	"23.107"	"25.508"	"129.18"	"222.978"	"458.942"	"357.751"	"280.537"	"176.33"	"14.904"	"0.398"
"1972"	"14.813"	"42.158"	"12.365"	"32.952"	"14.427"	"94.074"	"383.302"	"272.235"	"425.162"	"75.103"	"7.339"	"2.086"
"1973"	"34.394"	"24.649"	"31.465"	"0.644"	"38.305"	"344.057"	"196.309"	"420.259"	"129.167"	"128.132"	"0.085"	"0.105"
"1974"	"23.371"	"22.873"	"8.213"	"4.017"	"45.55"	"124.373"	"265.733"	"198.461"	"69.875"	"16.521"	"0.014"	"28.126"
"1975"	"80.731"	"32.65"	"38.47"	"6.599"	"12.101"	"170.691"	"336.257"	"357.452"	"307.708"	"33.609"	"0"	"0.094"
"1976"	"4.2"	"67.785"	"14.093"	"34.608"	"26.117"	"272.459"	"239.052"	"593.577"	"69.679"	"7.614"	"0"	"0.947"
"1977"	"44.172"	"6.671"	"2.753"	"57.165"	"102.927"	"267.656"	"364.075"	"198.403"	"144.921"	"13.436"	"0.413"	"20.677"
"1978"	"7.15"	"15.293"	"70.486"	"19.244"	"7.65"	"157.78"	"271.441"	"421.596"	"276.922"	"15.624"	"5.734"	"9.294"
"1979"	"26.756"	"54.959"	"35.826"	"17.374"	"65.817"	"73.024"	"261.896"	"177.882"	"70.614"	"4.705"	"20.494"	"9.184"
"1980"	"8.529"	"35.786"	"53.912"	"7.859"	"25.739"	"230.715"	"668.748"	"435.172"	"330.268"	"45.617"	"1.67"	"7.12"
"1981"	"44.656"	"18.338"	"70.347"	"15.836"	"86.99"	"125.059"	"478.118"	"157.898"	"94.64"	"0.421"	"32.364"	"2.726"
"1982"	"33.697"	"14.722"	"98.713"	"43.559"	"66.266"	"45.485"	"202.261"	"447.072"	"75.438"	"20.403"	"2.739"	"17.773"
"1983"	"69.348"	"14.696"	"45.201"	"91.805"	"82.379"	"266.241"	"324.607"	"170.735"	"391.326"	"48.698"	"0"	"11.59"
"1984"	"13.842"	"112.255"	"8.285"	"30.39"	"1.677"	"191.373"	"274.93"	"226.582"	"120.617"	"3.684"	"0"	"10.884"
"1985"	"34.152"	"2.302"	"6.718"	"36.158"	"49.77"	"196.788"	"471.154"	"339.778"	"173.808"	"117.458"	"0"	"48.452"
"1986"	"4.109"	"32.381"	"24.202"	"37.036"	"93.232"	"77.315"	"487.065"	"200.13"	"246.26"	"38.517"	"10.435"	"78.811"
"1987"	"32.847"	"37.46"	"9.173"	"14.64"	"90.589"	"10.491"	"83.599"	"273.019"	"76.081"	"15.851"	"0"	"19.616"
"1988"	"9.405"	"38.332"	"32.468"	"36.378"	"29.958"	"163.592"	"570.829"	"426.008"	"114.911"	"1.811"	"1.062"	"26.911"
"1989"	"73.73"	"17.244"	"25.227"	"2.994"	"36.049"	"172.869"	"311.75"	"247.907"	"129.706"	"8.759"	"5.075"	"8.865"
"1990"	"1.795"	"77.622"	"52.288"	"12.218"	"118.349"	"109.039"	"447.198"	"341.285"	"118.198"	"23.532"	"13.379"	"48.522"
"1991"	"6.935"	"28.741"	"29.643"	"34.84"	"87.522"	"54.718"	"8.029"	"264.845"	"96.745"	"0.405"	"4.75"	"9.205"
"1992"	"38.437"	"57.761"	"26.907"	"12.952"	"36.108"	"120.953"	"249.203"	"264.842"	"87.855"	"22.489"	"30.754"	"0.094"
"1993"	"24.516"	"17.709"	"41.656"	"14.679"	"50.218"	"302.283"	"287.656"	"102.47"	"286.179"	"0.432"	"0"	"0.094"
"1994"	"9.729"	"7.512"	"39.751"	"18.716"	"49.968"	"87.803"	"384.713"	"346.173"	"59.602"	"0.409"	"0"	"1.167"
"1995"	"53.339"	"63.928"	"83.36"	"21.339"	"7.409"	"129.351"	"283.373"	"480.266"	"256.496"	"1.424"	"26.369"	"5.905"
"1996"	"59.939"	"47.37"	"21.124"	"20.425"	"42.267"	"194.153"	"302.923"	"312.366"	"213.593"	"45.769"	"0"	"1.545"
"1997"	"24.085"	"11.001"	"25.124"	"7.67"	"58.146"	"218.344"	"91.828"	"259.606"	"69.35"	"45.611"	"16.898"	"11.998"
"1998"	"15.964"	"33.611"	"61.814"	"50.145"	"33.445"	"12.45"	"353.059"	"492.554"	"88.421"	"35.831"	"6.817"	"1.379"
"1999"	"12.324"	"10.13"	"1.691"	"1.431"	"37.54"	"161.086"	"125.742"	"127.139"	"194.031"	"45.283"	"0.08"	"11.706"
"2000"	"14.025"	"68.744"	"16.04"	"9.536"	"63.1"	"243.649"	"200.017"	"304.771"	"99.397"	"1.325"	"0"	"0.52"
"2001"	"11.649"	"15.567"	"5.142"	"43.074"	"102.334"	"106.595"	"217.588"	"98.241"	"53.674"	"13.548"	"0.002"	"7.275"
"2002"	"40.445"	"61.089"	"67.527"	"23.384"	"5.33"	"48.418"	"199.735"	"183.215"	"314.985"	"7.686"	"1.343"	"1.186"
