
"Year"	"Jan"	"Feb"	"Mar"	"Apr"	"May"	"Jun"	"Jul"	"Aug"	"Sep"	"Oct"	"Nov"	"Dec"
"1901"	"19.7"	"21.573"	"26.806"	"31.112"	"34.323"	"33.183"	"28.192"	"26.254"	"27.222"	"26.626"	"21.748"	"19.138"
"1902"	"21.364"	"22.868"	"29.206"	"32.454"	"35.661"	"34.235"	"28.503"	"27.813"	"26.994"	"26.097"	"21.353"	"18.842"
"1903"	"20.542"	"21.044"	"27.073"	"31.971"	"32.953"	"33.05"	"28.164"	"27.269"	"26.973"	"24.767"	"19.9"	"18.139"
"1904"	"20.535"	"22.319"	"27.386"	"33.253"	"34.592"	"30.972"	"27.757"	"26.849"	"26.639"	"25.859"	"20.959"	"19.771"
"1905"	"19.612"	"19.749"	"26.737"	"29.521"	"34.976"	"34.596"	"27.763"	"27.321"	"26.307"	"25.46"	"22.013"	"18.834"
"1906"	"19.634"	"22.49"	"26.34"	"32.77"	"36.028"	"31.341"	"27.399"	"27.034"	"26.564"	"25.484"	"21.885"	"19.773"
"1907"	"20.038"	"21.968"	"26.373"	"28.709"	"33.472"	"32.166"	"28.61"	"25.803"	"27.573"	"26.79"	"22.44"	"18.339"
"1908"	"18.557"	"22.685"	"26.687"	"33.094"	"35.577"	"33.289"	"27.256"	"26.26"	"27.251"	"25.628"	"20.95"	"17.67"
"1909"	"21.237"	"22.617"	"28.19"	"28.995"	"34.217"	"30.539"	"26.961"	"27.432"	"26.656"	"25.693"	"21.868"	"19.787"
"1910"	"19.819"	"21.719"	"27.485"	"32.621"	"34.782"	"30.199"	"27.652"	"26.834"	"26.74"	"25.295"	"20.195"	"18.903"
"1911"	"21.173"	"21.371"	"26.454"	"31.939"	"36.066"	"30.483"	"28.784"	"26.466"	"26.772"	"26.182"	"22.523"	"18.842"
"1912"	"20.226"	"23.118"	"27.652"	"31.49"	"34.902"	"34.939"	"28.285"	"26.809"	"27.103"	"26.005"	"21.425"	"18.424"
"1913"	"19.325"	"23.022"	"26.737"	"33.351"	"33.637"	"30.008"	"27.759"	"26.667"	"27.517"	"26.441"	"21.881"	"19.448"
"1914"	"20.189"	"23.407"	"27.026"	"30.02"	"34.073"	"30.924"	"27.755"	"27.131"	"27.036"	"25.983"	"22.808"	"19.348"
"1915"	"19.771"	"22.008"	"26.236"	"31.21"	"35.507"	"34.335"	"28.662"	"26.958"	"27.316"	"26.806"	"23.396"	"18.658"
"1916"	"19.496"	"22.505"	"28.102"	"32.922"	"34.705"	"28.942"	"28.126"	"26.95"	"26.99"	"26.228"	"22.101"	"17.919"
"1917"	"19.63"	"21.237"	"25.742"	"29.689"	"31.898"	"29.795"	"27.438"	"27.112"	"26.457"	"25.9"	"20.884"	"19.495"
"1918"	"18.442"	"22.786"	"27.331"	"31.366"	"33.504"	"28.922"	"28.823"	"26.751"	"27.716"	"25.641"	"22.286"	"19.209"
"1919"	"21.058"	"21.701"	"27.17"	"30.764"	"33.412"	"30.331"	"27.491"	"26.453"	"27.281"	"25.276"	"22.646"	"18.848"
"1920"	"20.019"	"22.423"	"27.426"	"31.131"	"32.773"	"33.092"	"27.328"	"27.387"	"27.917"	"27.017"	"22.191"	"19.531"
"1921"	"20.715"	"22.363"	"29.388"	"33.33"	"37.155"	"31.229"	"28.313"	"26.977"	"26.585"	"25.845"	"20.482"	"19.821"
"1922"	"19.659"	"23.043"	"28.495"	"32.577"	"35.578"	"30.977"	"27.288"	"26.84"	"26.489"	"25.275"	"21.52"	"18.359"
"1923"	"19.915"	"22.008"	"26.653"	"32.02"	"34.95"	"35.364"	"27.346"	"26.153"	"26.96"	"24.453"	"21.658"	"19.82"
"1924"	"20.563"	"23.762"	"28.907"	"33.083"	"34.796"	"34.416"	"27.793"	"27.184"	"26.823"	"25.261"	"20.839"	"19.336"
"1925"	"18.907"	"21.799"	"27.312"	"33.126"	"33.186"	"30.34"	"26.444"	"26.981"	"27.582"	"26.382"	"22.262"	"18.519"
"1926"	"20.079"	"23.22"	"26.955"	"29.27"	"32.275"	"35.132"	"28.472"	"26.671"	"26.988"	"25.305"	"20.218"	"18.837"
"1927"	"21.246"	"22.666"	"26.388"	"32.449"	"34.796"	"32.155"	"27.142"	"26.989"	"27.533"	"25.833"	"20.403"	"19.777"
"1928"	"20.872"	"22.365"	"27.581"	"31.523"	"35.871"	"31.703"	"27.345"	"27.854"	"27.534"	"26.229"	"22.146"	"19.531"
"1929"	"20.586"	"20.985"	"27.84"	"31.144"	"35.674"	"31.333"	"27.079"	"26.578"	"26.982"	"25.693"	"21.398"	"19.287"
"1930"	"20.158"	"21.215"	"27.904"	"30.86"	"34.383"	"32.083"	"27.459"	"26.817"	"27.349"	"26.616"	"21.172"	"19.774"
"1931"	"20.733"	"24.187"	"27.244"	"32.879"	"35.855"	"33.372"	"27.602"	"26.671"	"27.318"	"25.35"	"21.459"	"19.078"
"1932"	"20.671"	"21.153"	"27.251"	"31.657"	"34.367"	"33.315"	"27.248"	"27.282"	"27.251"	"26.753"	"22.43"	"19.442"
"1933"	"20.545"	"23.866"	"27.647"	"30.356"	"31.022"	"29.993"	"27.827"	"26.817"	"26.674"	"25.527"	"21.545"	"19.413"
"1934"	"18.799"	"22.449"	"27.401"	"32.155"	"35.121"	"31.903"	"27.444"	"26.575"	"26.299"	"24.811"	"20.617"	"19.378"
"1935"	"19.59"	"22.574"	"27.354"	"29.688"	"35.715"	"32.799"	"26.896"	"26.675"	"26.606"	"26.072"	"22.014"	"20.508"
"1936"	"21.292"	"21.924"	"27.878"	"31.244"	"35.172"	"29.216"	"27.81"	"26.809"	"26.794"	"25.217"	"22.753"	"19.672"
"1937"	"18.808"	"22.659"	"26.015"	"30.372"	"33.664"	"32.372"	"27.197"	"26.609"	"26.983"	"25.241"	"22.237"	"18.882"
"1938"	"22.12"	"21.327"	"28.937"	"31.809"	"34.861"	"28.361"	"26.868"	"26.955"	"27.239"	"25.423"	"21.348"	"18.926"
"1939"	"20.949"	"23.563"	"26.231"	"31.55"	"35.833"	"31.471"	"27.079"	"26.817"	"26.806"	"26.311"	"21.37"	"19.161"
"1940"	"19.337"	"22.939"	"26.86"	"31.438"	"34.865"	"31.79"	"26.792"	"26.758"	"27.224"	"26.106"	"22.272"	"19.672"
"1941"	"20.889"	"22.154"	"28.452"	"33.33"	"36.015"	"32.297"	"28.139"	"27.367"	"27.882"	"26.728"	"21.939"	"20.627"
"1942"	"20.162"	"22.125"	"27.868"	"32.105"	"36.22"	"33.646"	"26.501"	"26.62"	"26.606"	"25.988"	"21.939"	"19.161"
"1943"	"21.321"	"20.971"	"27.921"	"31.411"	"34.786"	"30.887"	"27.164"	"25.857"	"26.564"	"25.006"	"21.478"	"17.813"
"1944"	"19.826"	"21.408"	"25.553"	"30.355"	"35.929"	"32.501"	"26.957"	"26.697"	"27.036"	"25.21"	"21.522"	"21.139"
"1945"	"19.363"	"21.979"	"27.919"	"30.145"	"35.127"	"32.728"	"27.116"	"27.358"	"26.81"	"25.393"	"20.848"	"18.27"
"1946"	"19.688"	"22.849"	"27.789"	"31.257"	"34.775"	"29.567"	"27.265"	"26.552"	"26.193"	"26.622"	"22.447"	"21.027"
"1947"	"20.173"	"22.053"	"27.332"	"32.147"	"35.279"	"33.31"	"27.141"	"27.201"	"26.746"	"25.289"	"22.267"	"20.195"
"1948"	"20.542"	"22.564"	"26.977"	"32.674"	"36.816"	"32.492"	"27.501"	"26.833"	"26.451"	"26.882"	"23.139"	"18.207"
"1949"	"20.282"	"22.099"	"28.116"	"32.407"	"34.644"	"30.682"	"27.456"	"27.083"	"26.664"	"26.061"	"20.319"	"19.479"
"1950"	"20.41"	"21.646"	"26.286"	"31.75"	"35.367"	"31.867"	"26.98"	"27.183"	"26.912"	"25.405"	"20.96"	"19.321"
"1951"	"19.106"	"22.933"	"27.736"	"30.783"	"34.715"	"32.588"	"28.424"	"26.793"	"27.593"	"27.6"	"22.543"	"19.281"
"1952"	"20.637"	"23.871"	"27.118"	"33.2"	"36.427"	"33.183"	"28.161"	"26.643"	"27.444"	"26.502"	"21.411"	"21.037"
"1953"	"20.392"	"24.779"	"30.48"	"32.583"	"36.336"	"34.13"	"27.659"	"26.516"	"27.475"	"25.699"	"21.38"	"20.2"
"1954"	"19.402"	"24.425"	"28.189"	"32.973"	"36.743"	"32.703"	"27.4"	"27.315"	"26.164"	"24.46"	"21.066"	"20.066"
"1955"	"20.496"	"23.734"	"29.141"	"30.586"	"34.789"	"31.947"	"27.392"	"26.647"	"26.757"	"25.249"	"20.395"	"19.155"
"1956"	"20.519"	"22.388"	"29.112"	"33.335"	"35.107"	"29.56"	"26.779"	"26.749"	"26.427"	"25.486"	"21.241"	"20.317"
"1957"	"21.314"	"21.646"	"25.448"	"30.719"	"34.007"	"32.908"	"27.34"	"27.049"	"27.369"	"26.2"	"23.013"	"21.437"
"1958"	"21.198"	"23.613"	"28.165"	"33.018"	"35.768"	"34.68"	"27.507"	"27.354"	"26.761"	"25.844"	"23.237"	"19.784"
"1959"	"20.813"	"22.848"	"28.293"	"32.032"	"35.328"	"31.526"	"26.886"	"26.352"	"26.673"	"26.404"	"22.166"	"19.795"
"1960"	"19.479"	"23.262"	"26.36"	"31.308"	"34.927"	"31.954"	"27.443"	"26.32"	"27.606"	"25.522"	"21.231"	"21.026"
"1961"	"21.389"	"21.523"	"29.016"	"32.393"	"34.813"	"30.69"	"26.93"	"26.643"	"25.879"	"25.228"	"21.613"	"18.529"
"1962"	"18.726"	"22.443"	"27.118"	"31.469"	"33.769"	"32.381"	"27.703"	"26.945"	"26.676"	"24.887"	"22.016"	"19.732"
"1963"	"18.83"	"23.077"	"26.856"	"30.258"	"33.855"	"30.616"	"27.544"	"26.945"	"27.22"	"26.306"	"23.233"	"19.809"
"1964"	"20.694"	"23.25"	"28.568"	"33.334"	"35.052"	"32.099"	"27.216"	"26.447"	"27.359"	"26.516"	"21.286"	"19.5"
"1965"	"20.238"	"22.603"	"27.039"	"30.868"	"35.929"	"32.216"	"27.774"	"27.317"	"26.651"	"26.505"	"22.854"	"20.381"
"1966"	"20.004"	"24.183"	"28.119"	"32.906"	"34.571"	"32.803"	"29.633"	"27.184"	"27.457"	"26.949"	"24.452"	"19.53"
"1967"	"20.534"	"23.992"	"26.718"	"31.244"	"34.884"	"32.838"	"28.066"	"26.549"	"26.904"	"25.816"	"22.598"	"21.418"
"1968"	"19.24"	"21.98"	"25.99"	"30.059"	"34.133"	"32.416"	"27.862"	"26.258"	"27.895"	"25.601"	"21.951"	"19.654"
"1969"	"20.413"	"24.696"	"30.008"	"33.355"	"34.441"	"33.125"	"27.555"	"26.6"	"26.607"	"26.142"	"23.831"	"19.724"
"1970"	"20.887"	"24.181"	"27.602"	"32.462"	"35.493"	"29.116"	"27.477"	"26.654"	"26.871"	"26.262"	"20.873"	"18.612"
"1971"	"20.126"	"22.496"	"26.352"	"31.814"	"32.374"	"28.671"	"26.886"	"26.698"	"27.368"	"26.115"	"21.038"	"18.395"
"1972"	"19.988"	"22.099"	"28.877"	"31.654"	"35.241"	"34.304"	"28.318"	"26.183"	"27.135"	"25.91"	"22.429"	"21.27"
"1973"	"21.454"	"24.154"	"28.541"	"34.198"	"37.003"	"32.662"	"27.042"	"26.637"	"26.858"	"25.322"	"21.454"	"19.843"
"1974"	"19.347"	"22.873"	"28.859"	"33.123"	"33.754"	"31.801"	"28.31"	"27.021"	"28.358"	"26.152"	"21.294"	"19.33"
"1975"	"18.717"	"22.875"	"27.188"	"32.858"	"36.467"	"32.146"	"27.06"	"26.856"	"27.082"	"26.898"	"20.201"	"18.219"
"1976"	"19.167"	"23.436"	"27.751"	"30.682"	"34.819"	"31.047"	"27.28"	"26.946"	"26.776"	"26.988"	"25.714"	"21.6"
"1977"	"20.641"	"24.039"	"29.601"	"31.78"	"33.057"	"31.94"	"27.728"	"26.757"	"27.014"	"26.545"	"24.215"	"19.668"
"1978"	"19.052"	"21.822"	"25.761"	"30.881"	"36.614"	"31.204"	"26.922"	"26.081"	"27.548"	"26.416"	"24.281"	"18.799"
"1979"	"21.03"	"20.706"	"26.693"	"31.276"	"32.415"	"32.693"	"27.865"	"26.811"	"27.727"	"27.549"	"25.602"	"20.51"
"1980"	"21.614"	"24.442"	"28.242"	"33.247"	"36.287"	"29.827"	"27.12"	"26.291"	"27.298"	"26.722"	"23.57"	"19.789"
"1981"	"19.293"	"23.966"	"26.487"	"31.184"	"33.955"	"32.532"	"27.066"	"26.868"	"27.397"	"26.318"	"21.834"	"19.043"
"1982"	"21.696"	"22.843"	"26.288"	"31.404"	"33.047"	"32.195"	"29.101"	"26.616"	"27.919"	"26.35"	"22.974"	"21.478"
"1983"	"20.394"	"22.605"	"27.82"	"31.261"	"34.293"	"33.623"	"28.577"	"27.49"	"27.401"	"25.169"	"20.416"	"18.839"
"1984"	"20.2"	"21.265"	"27.654"	"31.774"	"36.376"	"31.328"	"27.7"	"26.2"	"26.766"	"26.532"	"21.444"	"20.554"
"1985"	"21.538"	"22.856"	"29.471"	"32.628"	"35.439"	"31.54"	"27.026"	"26.61"	"27.544"	"25.29"	"21.936"	"20.876"
"1986"	"19.962"	"22.782"	"27.292"	"32.308"	"34.376"	"31.857"	"27.198"	"26.814"	"28.078"	"26.321"	"23.302"	"20.368"
"1987"	"19.963"	"22.809"	"27.205"	"32.435"	"33.114"	"33.476"	"28.136"	"27.806"	"28.447"	"26.453"	"23.089"	"19.449"
"1988"	"21.621"	"24.446"	"28.037"	"31.884"	"36.969"	"32.109"	"27.455"	"27.534"	"28.129"	"25.598"	"22.043"	"20.1"
"1989"	"19.876"	"23.655"	"26.697"	"32.152"	"35.866"	"30.625"	"27.991"	"27.065"	"27.656"	"26.385"	"23.386"	"19.641"
"1990"	"22.2"	"23.395"	"27.153"	"32.31"	"31.298"	"29.063"	"26.595"	"27.397"	"27.149"	"25.723"	"23.319"	"20.567"
"1991"	"19.837"	"24.779"	"28.276"	"31.195"	"36.624"	"31.066"	"28.058"	"26.569"	"28.326"	"26.353"	"22.227"	"19.877"
"1992"	"20.542"	"22.887"	"29.215"	"32.594"	"34.779"	"33.55"	"29.233"	"26.747"	"27.371"	"26.693"	"22.987"	"19.557"
"1993"	"21.372"	"23.21"	"26.391"	"31.971"	"36.212"	"32.194"	"28.348"	"27.158"	"27.052"	"26.601"	"22.18"	"18.879"
"1994"	"21.723"	"22.61"	"28.923"	"30.709"	"36.025"	"30.323"	"26.669"	"26.386"	"27.162"	"26.253"	"22.525"	"19.742"
"1995"	"18.339"	"23.033"	"26.344"	"30.965"	"32.987"	"34.139"	"27.73"	"27.528"	"27.816"	"26.6"	"22.795"	"21.408"
"1996"	"21.823"	"23.849"	"28.877"	"31.119"	"35.984"	"33.511"	"28.149"	"26.803"	"27.96"	"25.877"	"22.579"	"19.249"
"1997"	"18.976"	"21.984"	"28.117"	"29.409"	"34.045"	"31.92"	"27.772"	"27.311"	"27.403"	"26.15"	"24.217"	"19.866"
"1998"	"20.583"	"22.468"	"25.364"	"30.915"	"34.576"	"32.96"	"28.118"	"27.781"	"27.711"	"27.456"	"22.861"	"19.196"
"1999"	"18.748"	"23.969"	"28.119"	"33.306"	"34.26"	"30.657"	"27.451"	"26.756"	"26.606"	"26.622"	"23.052"	"19.636"
"2000"	"20.7"	"22.292"	"26.923"	"33.276"	"33.771"	"29.339"	"27.153"	"27.527"	"26.942"	"27.339"	"23.918"	"19.988"
"2001"	"20.468"	"24.385"	"28.266"	"30.717"	"35.226"	"29.377"	"27.049"	"26.964"	"28.481"	"26.857"	"24.176"	"20.82"
"2002"	"20.204"	"23.97"	"28.436"	"32.718"	"36.05"	"31.341"	"28.681"	"26.37"	"27.464"	"26.823"	"23.33"	"22.22"
