
"Year"	"Jan"	"Feb"	"Mar"	"Apr"	"May"	"Jun"	"Jul"	"Aug"	"Sep"	"Oct"	"Nov"	"Dec"
"1901"	"20.217"	"22.092"	"26.467"	"30.441"	"32.366"	"31.69"	"27.126"	"26.035"	"26.942"	"26.402"	"22.014"	"19.26"
"1902"	"20.799"	"23.009"	"28.013"	"30.416"	"32.785"	"31.485"	"27.057"	"27.022"	"26.854"	"26.037"	"21.918"	"19.396"
"1903"	"20.781"	"21.614"	"27.034"	"31.032"	"32.095"	"30.397"	"27.139"	"26.7"	"26.524"	"25.057"	"21.1"	"18.496"
"1904"	"20.15"	"22.159"	"26.882"	"31.38"	"31.884"	"28.969"	"26.564"	"26.156"	"26.382"	"25.697"	"21.695"	"19.783"
"1905"	"19.929"	"20.895"	"26.256"	"28.816"	"31.898"	"32.459"	"26.762"	"26.965"	"26.279"	"25.475"	"22.18"	"18.945"
"1906"	"20.361"	"22.829"	"25.752"	"31.506"	"33.461"	"29.795"	"26.874"	"26.619"	"26.666"	"25.586"	"22.194"	"20.145"
"1907"	"20.15"	"22.871"	"26.004"	"28.174"	"31.304"	"29.7"	"27.293"	"25.352"	"26.873"	"26.242"	"22.938"	"18.696"
"1908"	"18.481"	"22.808"	"26.268"	"31.53"	"32.748"	"30.386"	"26.314"	"25.454"	"26.62"	"25.492"	"21.229"	"17.977"
"1909"	"21.161"	"22.744"	"27.301"	"27.807"	"31.866"	"28.567"	"25.941"	"26.583"	"26.296"	"24.476"	"21.162"	"19.763"
"1910"	"19.583"	"21.929"	"26.906"	"30.886"	"32.467"	"29.349"	"27.03"	"26.4"	"26.681"	"25.489"	"20.332"	"17.473"
"1911"	"20.42"	"21.677"	"26.19"	"30.153"	"32.636"	"28.206"	"27.332"	"25.574"	"26.445"	"25.389"	"22.395"	"18.446"
"1912"	"19.632"	"23.047"	"27.522"	"29.636"	"32.672"	"31.803"	"26.516"	"26.177"	"26.533"	"25.591"	"21.432"	"17.977"
"1913"	"18.784"	"23.032"	"26.242"	"30.917"	"31.636"	"28.296"	"26.564"	"25.989"	"26.559"	"25.078"	"20.945"	"19.297"
"1914"	"19.114"	"23.562"	"26.805"	"28.049"	"30.774"	"29.202"	"26.426"	"26.367"	"26.299"	"25.125"	"22.061"	"19.395"
"1915"	"19.751"	"22.493"	"25.991"	"30.019"	"32.652"	"31.173"	"27.528"	"26.957"	"26.71"	"26.392"	"23.743"	"19.062"
"1916"	"18.949"	"22.743"	"26.837"	"30.806"	"32.072"	"27.706"	"27.199"	"26.4"	"26.745"	"26.178"	"22.702"	"18.091"
"1917"	"19.213"	"21.61"	"25.549"	"28.99"	"29.532"	"27.488"	"26.145"	"26.3"	"26.094"	"25.291"	"21.534"	"18.449"
"1918"	"18.739"	"21.74"	"26.258"	"29.17"	"30.471"	"26.884"	"27.462"	"25.723"	"26.731"	"25.024"	"23.091"	"19.76"
"1919"	"21.68"	"22.866"	"26.689"	"29.587"	"30.884"	"27.985"	"26.623"	"25.876"	"26.617"	"25.272"	"22.334"	"18.763"
"1920"	"19.738"	"22.547"	"27.107"	"29.723"	"30.854"	"30.541"	"26.278"	"26.275"	"26.937"	"26.008"	"21.816"	"18.379"
"1921"	"20.329"	"22.061"	"27.853"	"30.481"	"35.237"	"29.822"	"27.129"	"25.991"	"26.044"	"24.696"	"19.616"	"19.04"
"1922"	"19.767"	"22.31"	"27.325"	"30.721"	"32.854"	"28.99"	"25.85"	"26.259"	"25.962"	"24.631"	"21.915"	"17.68"
"1923"	"19.198"	"22.16"	"25.588"	"29.919"	"32.854"	"32.705"	"26.433"	"25.716"	"26.73"	"24.773"	"21.383"	"19.111"
"1924"	"19.931"	"23.092"	"27.491"	"30.97"	"32.024"	"31.899"	"26.809"	"26.675"	"26.299"	"25.075"	"21.394"	"18.444"
"1925"	"18.998"	"21.544"	"26.22"	"30.284"	"30.414"	"28.622"	"25.463"	"26.098"	"26.746"	"25.473"	"22.444"	"18.643"
"1926"	"20.52"	"23.22"	"26.624"	"28.654"	"30.839"	"32.821"	"27.03"	"26.052"	"26.545"	"24.879"	"20.738"	"19.045"
"1927"	"21.587"	"23.649"	"26.857"	"30.974"	"32.406"	"30.363"	"26.341"	"25.789"	"26.711"	"25.006"	"21.198"	"19.241"
"1928"	"20.078"	"22.439"	"26.808"	"29.721"	"32.542"	"29.322"	"26.375"	"26.716"	"26.711"	"26.256"	"21.34"	"19.572"
"1929"	"20.494"	"21.145"	"26.485"	"28.815"	"32.766"	"29.352"	"25.941"	"25.687"	"26.875"	"24.504"	"20.695"	"19.629"
"1930"	"19.478"	"21.243"	"26.708"	"29.463"	"31.872"	"30.042"	"26.264"	"25.986"	"26.423"	"25.736"	"20.883"	"18.947"
"1931"	"19.764"	"23.151"	"26.524"	"30.498"	"32.633"	"31.734"	"26.58"	"26.332"	"27.111"	"25.769"	"21.465"	"18.839"
"1932"	"19.576"	"21.343"	"26.645"	"29.883"	"31.937"	"30.987"	"26.228"	"26.577"	"26.584"	"26.238"	"22.467"	"18.946"
"1933"	"19.777"	"23.52"	"26.744"	"29.322"	"30.337"	"27.6"	"26.627"	"26.327"	"26.38"	"25.375"	"21.728"	"19.461"
"1934"	"19.359"	"22.045"	"26.706"	"30.38"	"33.308"	"29.87"	"26.534"	"26.254"	"26.393"	"24.678"	"20.892"	"18.973"
"1935"	"19.77"	"22.957"	"26.79"	"28.751"	"33.607"	"31.703"	"26.078"	"26.177"	"26.395"	"25.592"	"21.265"	"19.979"
"1936"	"21.681"	"22.145"	"27.157"	"29.954"	"31.849"	"27.319"	"26.577"	"25.888"	"26.728"	"25.213"	"23.25"	"19.768"
"1937"	"18.782"	"23.179"	"26.223"	"29.244"	"32.46"	"30.584"	"26.3"	"26.366"	"26.496"	"25.19"	"21.682"	"18.783"
"1938"	"21.927"	"22.13"	"28.172"	"30.269"	"31.982"	"27.257"	"26.55"	"26.539"	"26.599"	"25.139"	"20.649"	"18.494"
"1939"	"20.374"	"23.152"	"26.174"	"30.178"	"33.621"	"30.493"	"25.962"	"26.151"	"26.332"	"26.027"	"20.979"	"18.574"
"1940"	"18.033"	"22.372"	"25.674"	"29.452"	"31.408"	"29.369"	"25.66"	"26.075"	"27.044"	"25.924"	"23.032"	"19.975"
"1941"	"21.081"	"23.2"	"27.872"	"31.787"	"32.622"	"28.704"	"26.849"	"26.789"	"27.06"	"25.089"	"20.347"	"19.832"
"1942"	"19.849"	"22.644"	"27.225"	"29.919"	"33.15"	"31.367"	"25.859"	"26.24"	"27.036"	"24.506"	"21.415"	"19.829"
"1943"	"21.629"	"20.899"	"26.575"	"28.819"	"31.584"	"28.957"	"26.431"	"25.739"	"26.683"	"25.69"	"21.698"	"18.006"
"1944"	"20.15"	"22.065"	"24.978"	"28.168"	"32.468"	"30.452"	"25.913"	"25.888"	"26.592"	"25.039"	"21.078"	"19.608"
"1945"	"19.197"	"21.661"	"26.737"	"28.788"	"32.557"	"30.276"	"26.333"	"26.624"	"25.897"	"24.176"	"20.348"	"17.307"
"1946"	"17.997"	"21.845"	"27.254"	"28.284"	"31.769"	"28.436"	"26.284"	"25.989"	"26.885"	"26.012"	"23.82"	"21.78"
"1947"	"21.48"	"21.96"	"27.59"	"31.736"	"33.573"	"30.657"	"26.012"	"26.7"	"26.707"	"24.991"	"21.482"	"19.628"
"1948"	"20.945"	"23.53"	"25.993"	"30.697"	"33.236"	"31.128"	"27.161"	"26.327"	"26.559"	"25.821"	"23.816"	"18.408"
"1949"	"19.8"	"21.992"	"27.302"	"30.286"	"31.921"	"29.649"	"26.447"	"26.407"	"26.728"	"25.903"	"21.749"	"17.456"
"1950"	"19.848"	"22.429"	"25.807"	"30.404"	"33.051"	"29.367"	"25.831"	"26.539"	"26.92"	"24.938"	"20.964"	"18.725"
"1951"	"19.236"	"22.877"	"26.807"	"29.403"	"31.737"	"29.769"	"26.993"	"26.126"	"27.546"	"26.912"	"22.625"	"19.829"
"1952"	"20.715"	"23.825"	"26.373"	"30.541"	"32.787"	"31.166"	"27.129"	"26.307"	"26.412"	"25.768"	"21.478"	"20.894"
"1953"	"19.915"	"23.424"	"28.723"	"30.497"	"34.338"	"31.704"	"26.797"	"25.976"	"27.242"	"25.974"	"21.417"	"19.208"
"1954"	"19.249"	"23.809"	"26.736"	"31.254"	"32.938"	"30.154"	"27.044"	"26.776"	"26.21"	"24.597"	"20.117"	"19.763"
"1955"	"19.93"	"23.597"	"27.751"	"29.686"	"31.885"	"30.67"	"26.409"	"26.522"	"26.442"	"25.456"	"20.751"	"18.621"
"1956"	"20.531"	"21.674"	"27.97"	"31.387"	"32.256"	"27.854"	"25.974"	"26.037"	"26.345"	"24.793"	"22.038"	"20.226"
"1957"	"21.146"	"22.515"	"25.755"	"29.753"	"32.538"	"30.533"	"26.033"	"26.407"	"26.995"	"26.373"	"22.116"	"20.375"
"1958"	"20.798"	"23.423"	"27.336"	"30.935"	"32.522"	"32.515"	"26.279"	"26.877"	"26.593"	"25.616"	"22.999"	"19.998"
"1959"	"20.462"	"22.99"	"27.154"	"30.67"	"33.023"	"29.868"	"26.448"	"25.876"	"26.244"	"25.626"	"21.379"	"19.176"
"1960"	"19.946"	"22.857"	"26.144"	"30.517"	"32.435"	"30.221"	"26.45"	"26.098"	"27.091"	"25.174"	"21.501"	"20.673"
"1961"	"20.533"	"21.627"	"28.152"	"30.704"	"32.404"	"28.95"	"25.973"	"26.391"	"25.793"	"25.089"	"20.682"	"17.981"
"1962"	"17.838"	"21.811"	"26.355"	"29.369"	"31.827"	"28.772"	"26.379"	"26.119"	"26.678"	"25.161"	"21.594"	"19.732"
"1963"	"18.485"	"22.757"	"26.689"	"28.751"	"31.7"	"29.475"	"26.463"	"26.3"	"26.547"	"25.791"	"22.576"	"19.647"
"1964"	"21.1"	"23.206"	"27.803"	"30.936"	"32.852"	"29.823"	"26.231"	"25.59"	"26.658"	"25.657"	"21.934"	"19.646"
"1965"	"20.15"	"22.794"	"26.408"	"29.456"	"32.079"	"30.934"	"26.541"	"26.938"	"26.581"	"25.991"	"22.492"	"20.311"
"1966"	"19.917"	"23.728"	"27.375"	"30.749"	"33.884"	"30.088"	"27.827"	"26.806"	"27.065"	"25.89"	"24.081"	"19.495"
"1967"	"20.312"	"23.593"	"25.846"	"29.903"	"33.322"	"31.17"	"27.366"	"25.974"	"26.559"	"24.943"	"21.862"	"21.661"
"1968"	"19.777"	"22.861"	"25.843"	"28.599"	"32.154"	"30.172"	"26.867"	"26.11"	"26.711"	"24.91"	"22.183"	"19.696"
"1969"	"19.995"	"24.628"	"28.719"	"31.519"	"31.537"	"30.217"	"26.274"	"26.225"	"26.33"	"26.024"	"23.43"	"19.309"
"1970"	"20.307"	"24.059"	"27.141"	"30.159"	"32.853"	"28.103"	"26.295"	"26.189"	"26.478"	"25.393"	"20.715"	"17.908"
"1971"	"19.958"	"23.031"	"25.678"	"28.583"	"29.444"	"26.796"	"25.655"	"25.607"	"26.97"	"25.377"	"21.453"	"18.244"
"1972"	"19.91"	"22.111"	"28.022"	"30.378"	"33.685"	"32.603"	"27.312"	"26.29"	"26.681"	"25.4"	"22.43"	"21.145"
"1973"	"21.894"	"24.165"	"27.33"	"32.515"	"33.94"	"31.154"	"26.053"	"26.189"	"26.668"	"25.3"	"21.344"	"19.261"
"1974"	"19.818"	"23.198"	"27.647"	"31.531"	"31.771"	"30.414"	"27.229"	"26.902"	"27.426"	"25.943"	"22.007"	"18.921"
"1975"	"18.72"	"23.044"	"27.177"	"31.651"	"33.825"	"29.585"	"26.25"	"26.473"	"26.164"	"26.178"	"20.532"	"18.261"
"1976"	"18.279"	"22.897"	"27.204"	"29.833"	"32.006"	"30.07"	"26.129"	"26.176"	"26.345"	"26.344"	"24.893"	"20.898"
"1977"	"20.15"	"23.593"	"28.406"	"29.491"	"30.372"	"30.42"	"26.577"	"26.189"	"26.274"	"25.168"	"23.776"	"18.725"
"1978"	"19.249"	"22.275"	"26.025"	"29.773"	"33.284"	"29.944"	"26.264"	"25.506"	"26.709"	"25.993"	"24.029"	"19.742"
"1979"	"21.012"	"22.2"	"26.605"	"30.213"	"31.987"	"30.653"	"27.629"	"26.554"	"26.475"	"26.452"	"24.781"	"20.443"
"1980"	"21.33"	"23.777"	"27.524"	"31.05"	"32.852"	"28.075"	"25.985"	"26.204"	"26.564"	"25.555"	"23.501"	"20.514"
"1981"	"19.299"	"23.845"	"26.008"	"29.92"	"31.143"	"30.191"	"26.74"	"26.389"	"26.752"	"26.074"	"22.148"	"19.687"
"1982"	"21.684"	"23.594"	"26.566"	"30.284"	"31.943"	"30.635"	"28.471"	"25.761"	"27.362"	"26.451"	"23.346"	"21.161"
"1983"	"20.873"	"23.147"	"27.641"	"30.264"	"32.013"	"31.987"	"27.554"	"26.64"	"26.997"	"25.472"	"21.412"	"19.281"
"1984"	"20.709"	"22.215"	"27.123"	"30.161"	"33.599"	"28.813"	"26.564"	"26.187"	"26.642"	"26.277"	"21.445"	"20.661"
"1985"	"21.352"	"22.81"	"28.01"	"30.758"	"32.118"	"29.326"	"25.68"	"25.51"	"26.708"	"24.278"	"21.337"	"20.494"
"1986"	"19.218"	"22.744"	"26.539"	"30.007"	"31.52"	"29.122"	"26.177"	"25.6"	"26.845"	"24.953"	"22.381"	"20.317"
"1987"	"19.494"	"21.945"	"25.696"	"30.108"	"31.065"	"31.034"	"26.266"	"26.588"	"27.063"	"25.507"	"22.234"	"19.107"
"1988"	"20.331"	"22.9"	"26.626"	"29.384"	"32.537"	"28.893"	"26.097"	"27"	"27.361"	"25.675"	"22.42"	"20.887"
"1989"	"20.129"	"23.493"	"26.622"	"31.398"	"33.254"	"29.003"	"27.226"	"26.591"	"27.059"	"26.289"	"23.278"	"19.685"
"1990"	"21.872"	"23.512"	"25.762"	"30.07"	"29.239"	"27.862"	"25.896"	"26.919"	"26.811"	"25.064"	"23.295"	"20.413"
"1991"	"21.187"	"24.462"	"27.877"	"30.103"	"32.366"	"29.472"	"27.091"	"26.212"	"27.126"	"26.025"	"21.919"	"19.751"
"1992"	"19.175"	"22.331"	"27.656"	"30.622"	"32.189"	"29.535"	"27.595"	"26.264"	"26.743"	"25.793"	"23.75"	"19.394"
"1993"	"20.844"	"22.505"	"26.572"	"30.344"	"32.649"	"30.634"	"27.329"	"26.675"	"26.662"	"26.376"	"21.98"	"19.232"
"1994"	"21.23"	"22.943"	"28.192"	"30.092"	"32.439"	"29.45"	"25.946"	"25.589"	"26.375"	"26.07"	"22.313"	"19.391"
"1995"	"19.147"	"22.899"	"26.723"	"30.071"	"30.202"	"31.8"	"26.781"	"27.025"	"26.971"	"25.723"	"22.748"	"20.496"
"1996"	"21.429"	"22.197"	"27.971"	"29.684"	"33.341"	"30.439"	"27.31"	"26.313"	"27.592"	"25.593"	"22.818"	"19.566"
"1997"	"19.16"	"21.854"	"27.141"	"28.391"	"31.578"	"31.27"	"27.331"	"26.3"	"26.78"	"25.943"	"24.552"	"22.132"
"1998"	"21.299"	"23.481"	"26.493"	"30.105"	"32.508"	"31.615"	"27.401"	"27.141"	"27.445"	"27.169"	"23.587"	"19.206"
"1999"	"18.518"	"24.081"	"27.49"	"32.202"	"31.487"	"29.274"	"26.764"	"26.075"	"26.292"	"26.444"	"22.227"	"19.699"
"2000"	"21.698"	"22.976"	"26.443"	"31.483"	"32.002"	"28.568"	"26.998"	"26.639"	"26.782"	"26.873"	"23.281"	"19.442"
"2001"	"20.138"	"23.433"	"27.643"	"29.552"	"32.55"	"27.919"	"26.2"	"26.263"	"27.644"	"26.522"	"24.233"	"20.274"
"2002"	"20.218"	"23.644"	"27.772"	"30.686"	"33.519"	"29.637"	"27.828"	"25.888"	"26.707"	"26.28"	"22.598"	"21.13"
