
"Year"	"Jan"	"Feb"	"Mar"	"Apr"	"May"	"Jun"	"Jul"	"Aug"	"Sep"	"Oct"	"Nov"	"Dec"
"1901"	"20.667"	"23.445"	"27.831"	"31.679"	"32.001"	"32.451"	"29.295"	"28.668"	"28.775"	"28.308"	"23.636"	"20.645"
"1902"	"21.55"	"23.855"	"28.963"	"30.059"	"31.391"	"31.453"	"28.894"	"29.228"	"29.077"	"27.8"	"23.644"	"20.841"
"1903"	"21.817"	"23.029"	"28.317"	"31.708"	"33.06"	"31.092"	"29.559"	"28.795"	"28.484"	"27.394"	"23.383"	"19.891"
"1904"	"20.855"	"23.184"	"28.166"	"31.473"	"31.057"	"30.036"	"28.533"	"28.503"	"28.484"	"27.552"	"23.582"	"21.279"
"1905"	"20.775"	"22.046"	"26.729"	"29.043"	"30.749"	"33.232"	"28.843"	"29.227"	"28.488"	"27.542"	"23.698"	"20.525"
"1906"	"21.139"	"23.6"	"26.452"	"31.946"	"32.801"	"31.265"	"29.394"	"28.878"	"28.846"	"27.611"	"23.883"	"21.451"
"1907"	"21.559"	"23.942"	"26.613"	"29.126"	"30.963"	"30.237"	"29.161"	"28.163"	"28.726"	"27.849"	"24.308"	"20.202"
"1908"	"19.551"	"23.933"	"27.837"	"32.399"	"31.789"	"30.62"	"28.505"	"28"	"28.484"	"27.41"	"22.939"	"19.634"
"1909"	"22.491"	"23.734"	"28.59"	"28.574"	"31.444"	"29.404"	"28.295"	"28.38"	"28.386"	"27.304"	"24.105"	"20.951"
"1910"	"20.965"	"23.455"	"27.725"	"30.773"	"31.878"	"30.172"	"28.643"	"28.428"	"28.337"	"27.004"	"22.672"	"19.751"
"1911"	"22.449"	"22.935"	"27.249"	"30.338"	"31.623"	"29.493"	"29.424"	"28.263"	"28.321"	"27.343"	"24.233"	"19.907"
"1912"	"21.507"	"24.385"	"28.368"	"30.011"	"32.084"	"30.886"	"28.643"	"28.428"	"28.672"	"27.304"	"22.834"	"19.52"
"1913"	"20.389"	"23.533"	"26.96"	"31.099"	"30.814"	"28.974"	"28.643"	"28.273"	"28.684"	"26.848"	"22.683"	"20.35"
"1914"	"20.849"	"24.369"	"27.491"	"29.087"	"30.095"	"29.843"	"28.444"	"28.428"	"28.119"	"27.244"	"23.842"	"20.902"
"1915"	"21.17"	"23.734"	"27.162"	"30.884"	"31.444"	"30.744"	"29.408"	"29.195"	"28.347"	"28.254"	"25.046"	"20.234"
"1916"	"20.365"	"23.766"	"28.444"	"30.887"	"32.693"	"29.572"	"29.053"	"28.39"	"28.484"	"27.548"	"23.842"	"20.084"
"1917"	"20.265"	"22.978"	"26.532"	"30.47"	"29.928"	"29.559"	"28.772"	"28.39"	"28.191"	"27.388"	"23.521"	"20.251"
"1918"	"19.526"	"23.184"	"28.053"	"29.909"	"30.427"	"28.672"	"29.786"	"28.418"	"28.846"	"27.908"	"24.558"	"20.533"
"1919"	"21.872"	"23.245"	"28.365"	"30.808"	"31.679"	"29.671"	"28.849"	"28.228"	"28.484"	"27.386"	"23.799"	"20.251"
"1920"	"20.9"	"23.49"	"27.661"	"30.207"	"31.362"	"31.339"	"28.23"	"28.428"	"28.478"	"27.542"	"23.838"	"19.935"
"1921"	"20.81"	"22.978"	"28.496"	"30.473"	"33.626"	"30.186"	"28.663"	"28.027"	"28.03"	"26.327"	"22.361"	"20.796"
"1922"	"20.535"	"23.583"	"28.596"	"31.065"	"32.146"	"29.265"	"28.13"	"27.962"	"27.519"	"25.978"	"22.966"	"19.763"
"1923"	"19.884"	"22.883"	"26.199"	"30.405"	"32.225"	"32.045"	"28.56"	"27.779"	"28.42"	"26.848"	"23.067"	"20.445"
"1924"	"20.651"	"23.543"	"28.401"	"31.956"	"31.59"	"32.333"	"28.949"	"28.39"	"27.846"	"27.294"	"23.139"	"19.795"
"1925"	"19.666"	"22.451"	"27.717"	"30.259"	"31.976"	"30.518"	"27.84"	"28.428"	"28.288"	"26.505"	"23.298"	"19.387"
"1926"	"19.983"	"23.806"	"26.497"	"30.056"	"31.673"	"32.63"	"28.831"	"27.943"	"28.291"	"26.556"	"22.292"	"20.657"
"1927"	"21.139"	"23.643"	"27.083"	"31.571"	"31.895"	"31.413"	"28.643"	"28.295"	"28.484"	"27.458"	"23.308"	"20.867"
"1928"	"21.247"	"24.11"	"28.557"	"30.218"	"31.536"	"29.417"	"28.605"	"28.627"	"28.835"	"27.594"	"23.877"	"21.046"
"1929"	"21.652"	"22.646"	"28.031"	"31.119"	"32.876"	"30.948"	"27.995"	"28.122"	"28.434"	"26.585"	"23.281"	"20.661"
"1930"	"20.376"	"22.779"	"28.067"	"30.884"	"31.607"	"30.883"	"28.461"	"28.13"	"28.484"	"27.843"	"22.992"	"19.951"
"1931"	"22.037"	"23.954"	"28.054"	"31.785"	"31.746"	"32.528"	"28.582"	"28.654"	"28.684"	"27.146"	"23.241"	"20.687"
"1932"	"21.735"	"22.883"	"28.148"	"30.9"	"31.567"	"30.864"	"28.344"	"28.387"	"28.484"	"28.004"	"23.745"	"21"
"1933"	"19.967"	"23.371"	"27.949"	"30.243"	"30.594"	"30.069"	"28.344"	"28.234"	"28.197"	"27.213"	"23.582"	"20.651"
"1934"	"20.206"	"23.132"	"28.15"	"31.337"	"32.963"	"30.369"	"28.643"	"28.228"	"28.434"	"27.043"	"22.592"	"20.898"
"1935"	"20.371"	"23.949"	"28.128"	"30.108"	"33.586"	"31.587"	"28.586"	"28.31"	"28.478"	"27.532"	"23.537"	"21.052"
"1936"	"21.683"	"23.297"	"28.786"	"31.506"	"30.662"	"29.698"	"28.641"	"28.376"	"28.293"	"26.836"	"24.532"	"21.295"
"1937"	"19.762"	"23.218"	"27.403"	"29.969"	"31.634"	"30.369"	"28.643"	"28.425"	"28.218"	"26.944"	"23.588"	"19.902"
"1938"	"22.084"	"22.219"	"29.351"	"31.655"	"30.612"	"29.247"	"28.392"	"28.167"	"28.478"	"27.283"	"22.683"	"20.003"
"1939"	"21.302"	"24.227"	"27.585"	"31.64"	"32.425"	"30.629"	"28.092"	"28.147"	"28.234"	"27.649"	"23.216"	"20.635"
"1940"	"19.702"	"23.238"	"26.42"	"31.109"	"31.17"	"30.539"	"28.183"	"28.277"	"28.517"	"27.653"	"25.497"	"21.101"
"1941"	"21.676"	"23.943"	"29.144"	"32.203"	"32.164"	"30.221"	"28.641"	"28.779"	"28.729"	"27.149"	"22.821"	"21.798"
"1942"	"21.036"	"23.562"	"28.847"	"30.616"	"33.539"	"32.068"	"28.643"	"28.027"	"27.846"	"27.345"	"23.672"	"20.902"
"1943"	"21.856"	"21.943"	"27.766"	"29.502"	"32.095"	"30.887"	"28.511"	"27.96"	"28.436"	"27.759"	"23.811"	"21.251"
"1944"	"21.413"	"22.752"	"26.894"	"29.109"	"32.768"	"31.664"	"28.544"	"28.269"	"28.884"	"27.129"	"23.614"	"22.082"
"1945"	"20.045"	"23.3"	"28.831"	"29.929"	"32.362"	"31.796"	"29.049"	"29.031"	"28.687"	"26.812"	"23.396"	"19.795"
"1946"	"20.523"	"24.979"	"28.579"	"28.541"	"31.006"	"30.188"	"28.494"	"28.364"	"28.285"	"26.988"	"24.759"	"21.911"
"1947"	"21.704"	"23.612"	"28.327"	"32.554"	"32.817"	"31.35"	"29.012"	"28.535"	"28.782"	"27.202"	"24.131"	"20.853"
"1948"	"21.885"	"23.9"	"27.42"	"30.773"	"31.957"	"31.535"	"28.729"	"28.59"	"28.42"	"27.448"	"24.644"	"20.025"
"1949"	"21.502"	"23.533"	"28.549"	"30.008"	"30.904"	"31.154"	"28.949"	"28.37"	"28.437"	"27.891"	"22.501"	"20.478"
"1950"	"21.447"	"23.779"	"27.233"	"31.339"	"32.203"	"30.434"	"28.293"	"28.23"	"28.388"	"26.957"	"22.972"	"20.481"
"1951"	"20.303"	"23.88"	"27.849"	"30.604"	"32.344"	"30.935"	"28.766"	"28.876"	"29.323"	"28.292"	"24.034"	"21.614"
"1952"	"21.653"	"24.876"	"26.91"	"30.395"	"31.96"	"31.468"	"28.605"	"28.344"	"28.686"	"27.243"	"23.931"	"21.866"
"1953"	"21.243"	"25.184"	"30.178"	"32.577"	"33.192"	"30.976"	"28.994"	"28.505"	"28.69"	"27.743"	"23.669"	"22.153"
"1954"	"20.49"	"25.718"	"28.213"	"32.693"	"32.23"	"29.97"	"29.498"	"28.76"	"28.396"	"26.635"	"22.605"	"21.267"
"1955"	"20.898"	"24.355"	"28.861"	"30.951"	"32.377"	"31.269"	"28.641"	"28.39"	"28.555"	"26.861"	"23.514"	"20.716"
"1956"	"22.148"	"22.662"	"28.571"	"31.766"	"31.864"	"28.445"	"28.428"	"28.428"	"28.324"	"26.975"	"23.435"	"21.592"
"1957"	"22.166"	"23.5"	"26.868"	"31.438"	"34.048"	"32.273"	"28.925"	"28.85"	"28.779"	"27.949"	"24.298"	"22.289"
"1958"	"23.095"	"24.536"	"28.398"	"31.824"	"33.358"	"32.959"	"28.926"	"28.872"	"28.478"	"27.992"	"24.753"	"22.048"
"1959"	"21.804"	"23.679"	"28.314"	"31.438"	"32.889"	"30.518"	"29.081"	"28.374"	"28.191"	"27.108"	"23.236"	"20.59"
"1960"	"20.748"	"24.684"	"27.2"	"32.154"	"33.001"	"31.506"	"28.347"	"28.749"	"29.003"	"27.643"	"23.488"	"21.917"
"1961"	"21.516"	"21.848"	"29.386"	"31.856"	"32.305"	"30.502"	"28.382"	"28.776"	"27.966"	"26.916"	"22.976"	"19.192"
"1962"	"19.498"	"23.538"	"28.072"	"30.634"	"32.114"	"30.418"	"29.292"	"28.594"	"28.785"	"26.904"	"23.646"	"21.448"
"1963"	"20.198"	"25.02"	"28.15"	"30.389"	"30.879"	"30.518"	"28.643"	"28.827"	"28.733"	"27.54"	"24.88"	"21.63"
"1964"	"22.496"	"24.969"	"29.466"	"31.005"	"31.663"	"31.686"	"28.205"	"28.376"	"28.672"	"27.749"	"24.382"	"21.399"
"1965"	"21.573"	"23.949"	"27.068"	"30.256"	"32.303"	"31.997"	"28.398"	"28.387"	"28.301"	"27.265"	"24.445"	"21.095"
"1966"	"20.448"	"25.028"	"28.199"	"30.828"	"33.328"	"30.35"	"29.378"	"29.206"	"28.809"	"27.198"	"25.096"	"20.647"
"1967"	"20.927"	"25.2"	"27.011"	"30.184"	"32.437"	"31.932"	"29.112"	"28.428"	"28.441"	"27.611"	"24.013"	"23.282"
"1968"	"21.631"	"23.961"	"28.541"	"30.785"	"32.517"	"29.505"	"28.967"	"28.295"	"28.933"	"26.742"	"23.484"	"21.088"
"1969"	"21.269"	"25.853"	"29.715"	"31.474"	"31.395"	"31.606"	"28.766"	"28.279"	"28.586"	"28.11"	"25.147"	"21.35"
"1970"	"21.731"	"25.055"	"28.2"	"31.055"	"32.312"	"30.019"	"28.643"	"28.776"	"28.337"	"27.44"	"23.214"	"19.935"
"1971"	"21.156"	"23.451"	"26.719"	"27.98"	"28.394"	"28.826"	"27.304"	"26.962"	"28.37"	"27.394"	"24.11"	"20.687"
"1972"	"21.284"	"22.278"	"28.564"	"31.296"	"33.461"	"32.215"	"28.964"	"28.493"	"28.781"	"27.846"	"24.709"	"22.304"
"1973"	"23.239"	"25.151"	"27.517"	"32.173"	"31.192"	"30.914"	"28.648"	"28.39"	"28.201"	"27.294"	"23.515"	"20.37"
"1974"	"21.286"	"23.762"	"28.051"	"30.569"	"31.131"	"31.083"	"28.605"	"29.082"	"28.616"	"27.605"	"24.334"	"19.973"
"1975"	"20.297"	"23.849"	"28.253"	"30.77"	"32.184"	"30.512"	"28.096"	"28.242"	"27.939"	"27.998"	"22.723"	"19.941"
"1976"	"20.48"	"24.349"	"28.543"	"30.232"	"30.512"	"30.518"	"28.637"	"28.125"	"28.323"	"28.24"	"26.094"	"21.518"
"1977"	"20.966"	"24.019"	"29.11"	"29.582"	"29.662"	"29.753"	"28.56"	"28.594"	"28.485"	"27.225"	"25.141"	"20.579"
"1978"	"20.212"	"23.445"	"27.139"	"29.601"	"31.586"	"30.515"	"28.438"	"28.167"	"28.134"	"27.794"	"25.385"	"21.281"
"1979"	"22.015"	"22.757"	"27.553"	"30.592"	"32.626"	"30.345"	"29.928"	"28.916"	"27.746"	"28.136"	"26.345"	"21.451"
"1980"	"21.534"	"24.593"	"27.615"	"31.587"	"31.189"	"28.822"	"27.695"	"27.693"	"29.026"	"26.993"	"24.365"	"21.621"
"1981"	"20.749"	"24.605"	"27.456"	"29.542"	"29.929"	"30.822"	"28.302"	"28.324"	"28.171"	"27.771"	"24.384"	"20.737"
"1982"	"22.457"	"24.266"	"26.914"	"30.313"	"32.616"	"30.725"	"30.422"	"28.328"	"29.283"	"28.399"	"24.773"	"21.834"
"1983"	"21.733"	"23.6"	"28.314"	"30.376"	"31.214"	"31.8"	"29.443"	"28.645"	"28.785"	"27.442"	"24.382"	"20.667"
"1984"	"21.143"	"22.903"	"28.547"	"31.086"	"32.105"	"29.669"	"28.849"	"28.428"	"28.684"	"27.992"	"23.527"	"21.704"
"1985"	"21.765"	"23.833"	"28.851"	"30.863"	"30.498"	"30.198"	"27.467"	"27.433"	"28.484"	"25.842"	"23.261"	"21.491"
"1986"	"20.091"	"23.573"	"27.888"	"29.662"	"29.813"	"29.833"	"28.027"	"28.279"	"27.968"	"26.078"	"23.647"	"20.978"
"1987"	"19.932"	"23.114"	"26.747"	"29.556"	"30.727"	"30.844"	"28.108"	"28.118"	"28.288"	"27.114"	"23.25"	"20.265"
"1988"	"20.297"	"23.247"	"27.188"	"29.586"	"30.165"	"28.739"	"28.017"	"29.095"	"29.139"	"28.169"	"24.711"	"22.628"
"1989"	"20.674"	"24.498"	"28.328"	"31.734"	"31.808"	"30.126"	"29.095"	"28.629"	"28.505"	"27.934"	"24.491"	"20.949"
"1990"	"22.283"	"24.339"	"25.936"	"29.555"	"30.387"	"30.444"	"28.359"	"29.03"	"28.484"	"26.645"	"24.674"	"21.388"
"1991"	"20.942"	"25.598"	"29.049"	"30.729"	"31.659"	"30.515"	"29.437"	"28.967"	"29.268"	"27.446"	"23.48"	"20.665"
"1992"	"20.551"	"23.494"	"28.464"	"31.288"	"31.316"	"30.805"	"28.957"	"28.676"	"28.687"	"27.687"	"24.559"	"20.7"
"1993"	"21.627"	"24.316"	"27.113"	"29.805"	"31.125"	"30.393"	"29.049"	"28.781"	"28.34"	"27.649"	"24.378"	"21.269"
"1994"	"21.779"	"23.555"	"28.614"	"30.19"	"32.2"	"30.363"	"28.725"	"28.369"	"28.656"	"27.743"	"24.129"	"21.095"
"1995"	"20.312"	"23.75"	"27.942"	"31.265"	"31.472"	"31.114"	"28.643"	"29.317"	"28.586"	"27.491"	"24.292"	"21.7"
"1996"	"21.931"	"23.73"	"28.904"	"30.333"	"32.86"	"30.247"	"29.588"	"28.196"	"29.248"	"27.243"	"24.432"	"21.101"
"1997"	"20.513"	"23.427"	"28.398"	"28.874"	"31.746"	"31.532"	"29.01"	"28.627"	"28.392"	"27.542"	"25.699"	"21.735"
"1998"	"20.546"	"24.311"	"26.766"	"30.638"	"32.209"	"32.033"	"29.299"	"29.141"	"28.937"	"28.607"	"25.378"	"21.469"
"1999"	"20.881"	"25.39"	"29.232"	"32.587"	"31.292"	"30.412"	"28.648"	"28.434"	"28.222"	"27.843"	"24.257"	"21.984"
"2000"	"22.184"	"23.646"	"28.038"	"31.438"	"31.347"	"30.087"	"28.675"	"29.177"	"28.73"	"27.71"	"25.072"	"20.994"
"2001"	"20.914"	"24.935"	"28.4"	"31.248"	"31.659"	"29.496"	"28.523"	"29.062"	"29.568"	"28.246"	"25.685"	"21.493"
"2002"	"22"	"24.989"	"28.949"	"30.702"	"32.215"	"30.421"	"29.349"	"28.426"	"28.711"	"27.792"	"24.292"	"21.712"
