
"Year"	"Jan"	"Feb"	"Mar"	"Apr"	"May"	"Jun"	"Jul"	"Aug"	"Sep"	"Oct"	"Nov"	"Dec"
"1901"	"15.079"	"19.258"	"24.253"	"30.06"	"30.536"	"30.855"	"28.076"	"27.52"	"27.111"	"26.062"	"20.515"	"16.443"
"1902"	"17.074"	"19.366"	"26.169"	"28.359"	"30.386"	"30.372"	"27.482"	"27.954"	"27.211"	"25.027"	"20.087"	"15.884"
"1903"	"16.499"	"18.444"	"24.48"	"29.96"	"32.039"	"29.623"	"28.764"	"27.629"	"27.352"	"25.24"	"19.561"	"15.621"
"1904"	"16.124"	"18.977"	"25.102"	"30.752"	"29.603"	"28.799"	"26.848"	"27.306"	"27.217"	"25.069"	"19.801"	"16.98"
"1905"	"15.522"	"15.878"	"22.585"	"26.666"	"28.972"	"31.753"	"27.481"	"27.218"	"26.801"	"25.268"	"20.42"	"16.351"
"1906"	"15.745"	"18.306"	"22.494"	"30.209"	"31.382"	"30.225"	"27.882"	"27.263"	"27.63"	"25.152"	"20.422"	"16.787"
"1907"	"17.19"	"18.372"	"22.352"	"27.012"	"30.15"	"29.971"	"27.916"	"27.651"	"27.382"	"25.369"	"20.287"	"15.954"
"1908"	"14.93"	"18.805"	"24.936"	"32.024"	"31.512"	"30.106"	"27.67"	"27.535"	"27.479"	"25.683"	"19.892"	"15.502"
"1909"	"17.387"	"19.119"	"25.899"	"27.503"	"31.412"	"28.432"	"27.615"	"26.77"	"27.436"	"25.219"	"20.986"	"16.853"
"1910"	"15.649"	"18.729"	"24.815"	"29.955"	"30.731"	"28.993"	"27.346"	"27.316"	"27.496"	"25.152"	"19.72"	"15.606"
"1911"	"17.92"	"18.338"	"23.502"	"29.395"	"31.591"	"28.733"	"28.625"	"27.319"	"26.896"	"25.112"	"20.341"	"15.088"
"1912"	"16.531"	"20.107"	"24.492"	"27.908"	"29.987"	"30.305"	"27.449"	"27.387"	"27.248"	"25.218"	"19.574"	"15.72"
"1913"	"15.911"	"18.908"	"22.903"	"30.988"	"29.53"	"27.449"	"27.798"	"27.003"	"27.424"	"24.64"	"19.375"	"15.688"
"1914"	"16.423"	"19.392"	"24.008"	"27.23"	"29.558"	"28.879"	"27.315"	"27.254"	"27.211"	"24.233"	"20.421"	"16.787"
"1915"	"16.911"	"19.093"	"23.687"	"29.269"	"30.748"	"29.195"	"28.74"	"28.084"	"27.243"	"26.801"	"22.209"	"16.502"
"1916"	"15.993"	"19.408"	"26.332"	"29.809"	"33.536"	"28.465"	"27.68"	"27.598"	"27.413"	"25.612"	"20.405"	"15.519"
"1917"	"15.71"	"18.908"	"23.703"	"28.498"	"28.4"	"28.827"	"27.697"	"27.353"	"26.911"	"25.117"	"20.043"	"15.96"
"1918"	"15.126"	"19.003"	"25.302"	"28.268"	"29.927"	"27.766"	"29.04"	"26.801"	"27.525"	"25.384"	"20.402"	"15.982"
"1919"	"17.476"	"18.18"	"25.501"	"28.682"	"30.833"	"29.227"	"27.73"	"27.72"	"27.111"	"25.068"	"20.592"	"16.208"
"1920"	"16.693"	"18.987"	"23.936"	"29.556"	"30.648"	"31.218"	"28.03"	"27.52"	"27.19"	"25.751"	"20.786"	"16.438"
"1921"	"17.126"	"18.954"	"25.901"	"30.524"	"33.173"	"30.369"	"28.175"	"27.252"	"27.211"	"24.368"	"19.653"	"16.807"
"1922"	"16.655"	"19.725"	"25.738"	"30.562"	"32.444"	"28.266"	"27.63"	"26.958"	"26.662"	"24.201"	"20.225"	"16.335"
"1923"	"16.546"	"18.92"	"24.572"	"30.274"	"31.68"	"31.2"	"27.798"	"27.283"	"27.594"	"24.784"	"20.253"	"17.167"
"1924"	"16.607"	"19.408"	"26.635"	"30.696"	"31.698"	"32.014"	"27.63"	"27.502"	"26.712"	"25.568"	"20.092"	"16.433"
"1925"	"15.126"	"17.79"	"24.338"	"28.549"	"30.346"	"29.497"	"27.234"	"27.717"	"27.212"	"24.717"	"20.256"	"16.159"
"1926"	"16.326"	"19.818"	"23.686"	"27.843"	"30.567"	"32.912"	"27.864"	"27.502"	"27.129"	"24.989"	"19.422"	"17.019"
"1927"	"16.39"	"19.003"	"22.833"	"29.905"	"29.917"	"30.721"	"27.897"	"27.436"	"27.66"	"25.665"	"20.812"	"17.168"
"1928"	"16.571"	"19.439"	"26.013"	"29.328"	"31.043"	"28.827"	"27.415"	"27.915"	"27.998"	"25.911"	"20.47"	"16.949"
"1929"	"16.339"	"18.16"	"24.933"	"29.27"	"32.274"	"31.25"	"27.415"	"27.152"	"27.479"	"24.468"	"19.987"	"15.787"
"1930"	"15.311"	"18.627"	"25.115"	"29.111"	"30.951"	"30.22"	"27.502"	"27.319"	"27.382"	"25.6"	"19.953"	"15.77"
"1931"	"17.392"	"18.827"	"23.899"	"30.475"	"30.864"	"31.438"	"27.682"	"27.838"	"27.532"	"25.686"	"20.104"	"16.887"
"1932"	"17.311"	"18.315"	"25.351"	"29.399"	"31.629"	"30.905"	"28.035"	"27.62"	"27.771"	"25.951"	"20.524"	"16.793"
"1933"	"14.993"	"19.638"	"24.938"	"27.512"	"30.964"	"29.127"	"27.403"	"26.819"	"27.218"	"25.157"	"20.037"	"16.514"
"1934"	"15.745"	"18.628"	"24.409"	"29.68"	"31.378"	"29.426"	"27.879"	"27.434"	"27.502"	"24.668"	"19.787"	"16.965"
"1935"	"15.649"	"19.444"	"25.24"	"28.393"	"32.113"	"30.962"	"28.338"	"26.819"	"27.247"	"25.073"	"20.427"	"16.631"
"1936"	"15.54"	"19.176"	"25.4"	"29.383"	"30.275"	"28.609"	"27.556"	"27.758"	"26.937"	"24.588"	"20.928"	"17.152"
"1937"	"14.883"	"18.983"	"23.624"	"28.92"	"30.129"	"30.27"	"28.256"	"27.289"	"27.572"	"24.615"	"20.21"	"15.827"
"1938"	"17.623"	"17.947"	"26.482"	"30.783"	"29.696"	"28.789"	"27.8"	"27.223"	"28.051"	"25.838"	"19.975"	"16.253"
"1939"	"17.308"	"20.097"	"23.903"	"30.279"	"31.614"	"30.056"	"27.773"	"26.961"	"27.264"	"25.399"	"20.382"	"17.044"
"1940"	"16.211"	"19.32"	"23.184"	"29.028"	"31.392"	"30.817"	"27.75"	"27.525"	"27.515"	"26.065"	"21.894"	"17.477"
"1941"	"16.827"	"19.708"	"26.481"	"30.958"	"30.779"	"29.794"	"28.051"	"27.623"	"27.568"	"24.968"	"20.569"	"17.887"
"1942"	"16.693"	"19.341"	"25.435"	"29.366"	"32.748"	"31.623"	"27.907"	"26.827"	"26.632"	"25.166"	"21.786"	"16.723"
"1943"	"17.924"	"18.072"	"25.216"	"27.64"	"31.737"	"29.688"	"27.633"	"26.981"	"27.518"	"26.079"	"20.99"	"18.196"
"1944"	"16.817"	"19.336"	"24.288"	"27.301"	"33.253"	"30.957"	"27.475"	"27.358"	"27.92"	"25.068"	"20.749"	"18.256"
"1945"	"16.092"	"18.217"	"25.5"	"28.056"	"30.599"	"30.673"	"28.348"	"27.969"	"27.6"	"24.558"	"20.189"	"16"
"1946"	"17.034"	"21.246"	"25.159"	"26.592"	"29.889"	"29.535"	"27.456"	"27.516"	"27.252"	"25.121"	"20.975"	"17.719"
"1947"	"16.935"	"19.493"	"25.702"	"30.963"	"31.506"	"31.079"	"27.839"	"27.528"	"27.382"	"25.284"	"21.049"	"17.667"
"1948"	"18.011"	"19.908"	"24.266"	"30.177"	"30.784"	"30.802"	"26.94"	"26.9"	"27.252"	"25.121"	"21.034"	"15.94"
"1949"	"17.049"	"18.814"	"24.928"	"27.326"	"28.261"	"30.184"	"27.696"	"27.701"	"27.222"	"25.825"	"19.576"	"15.78"
"1950"	"17.187"	"18.874"	"24.035"	"29.497"	"31.291"	"29.351"	"27.772"	"26.92"	"27.289"	"25.106"	"19.695"	"16.767"
"1951"	"16.146"	"19.628"	"25.177"	"29.399"	"31.73"	"30.702"	"27.702"	"28.42"	"27.871"	"26.629"	"21.136"	"17.536"
"1952"	"17.709"	"21.032"	"25.375"	"27.403"	"30.643"	"30.16"	"27.608"	"27.191"	"26.911"	"25.506"	"20.684"	"17.08"
"1953"	"16.282"	"20.576"	"27.385"	"29.925"	"31.674"	"29.628"	"27.111"	"27.281"	"26.835"	"25.333"	"20.324"	"18.517"
"1954"	"15.545"	"21.074"	"24.759"	"31.732"	"31.812"	"28.985"	"27.275"	"27.259"	"27.106"	"23.983"	"18.734"	"16.78"
"1955"	"16.821"	"19.355"	"26.624"	"28.959"	"32.241"	"30.187"	"27.141"	"27.257"	"27.409"	"25.558"	"20.929"	"16.762"
"1956"	"16.773"	"19.047"	"25.707"	"30.417"	"31.414"	"27.615"	"27.352"	"27.218"	"26.637"	"25.147"	"19.91"	"17.61"
"1957"	"16.921"	"18.462"	"24.22"	"29.96"	"33.927"	"30.976"	"27.568"	"27.711"	"27.643"	"25.828"	"20.564"	"17.91"
"1958"	"18.223"	"19.791"	"25.959"	"30.968"	"33.676"	"32.783"	"28.748"	"27.201"	"27.475"	"26.533"	"21.307"	"18.231"
"1959"	"17.088"	"18.933"	"24.865"	"30.178"	"32.046"	"30.24"	"27.968"	"27.694"	"27.04"	"25.707"	"20.408"	"17.003"
"1960"	"16.894"	"21.128"	"23.803"	"30.768"	"31.666"	"30.655"	"27.351"	"27.694"	"27.172"	"25.685"	"19.866"	"17.231"
"1961"	"17.536"	"17.941"	"25.824"	"30.336"	"32.139"	"29.233"	"27.439"	"27.742"	"27.195"	"24.974"	"19.625"	"14.526"
"1962"	"15.285"	"19.769"	"24.379"	"29.962"	"30.951"	"30.043"	"28.491"	"27.278"	"27.198"	"24.721"	"20.586"	"17.168"
"1963"	"15.488"	"20.69"	"24.685"	"28.757"	"29.535"	"29.499"	"27.819"	"27.608"	"27.489"	"25.879"	"22.082"	"17.949"
"1964"	"16.602"	"19.715"	"26.035"	"29.972"	"29.835"	"30.864"	"26.9"	"27.626"	"27.412"	"25.819"	"20.731"	"17.561"
"1965"	"17.641"	"19.842"	"23.607"	"28.703"	"31.874"	"31.63"	"27.747"	"27.491"	"27.217"	"25.732"	"21.576"	"16.214"
"1966"	"16.524"	"21.165"	"25.541"	"31.065"	"32.747"	"31.307"	"28.44"	"27.567"	"27.594"	"25.388"	"22.192"	"17.11"
"1967"	"17.519"	"21.08"	"23.682"	"27.659"	"31.179"	"31.082"	"28.132"	"27.258"	"27.222"	"25.182"	"20.366"	"18.533"
"1968"	"16.607"	"18.92"	"24.936"	"29.414"	"32.316"	"28.352"	"27.286"	"27.425"	"28.228"	"24.85"	"20.605"	"19.54"
"1969"	"16.304"	"20.201"	"26.615"	"30.189"	"29.85"	"30.284"	"27.81"	"26.786"	"26.729"	"25.429"	"21.705"	"17.131"
"1970"	"17.024"	"19.319"	"24.654"	"30.494"	"31.889"	"29.032"	"27.635"	"27.548"	"26.863"	"25.299"	"20.045"	"16.119"
"1971"	"16.119"	"18.218"	"23.773"	"26.18"	"28.087"	"28.008"	"26.347"	"26.101"	"26.729"	"25.055"	"19.487"	"16.615"
"1972"	"15.982"	"16.767"	"24.411"	"29.05"	"32.176"	"30.781"	"28.079"	"27.32"	"25.394"	"24.438"	"19.712"	"16.351"
"1973"	"16.129"	"19.644"	"23.018"	"29.476"	"29.766"	"28.226"	"27.697"	"27.52"	"26.93"	"25.25"	"20.475"	"16.803"
"1974"	"15.067"	"18.638"	"24.589"	"29.364"	"30.014"	"30.233"	"27.358"	"27.385"	"27.19"	"26.073"	"20.186"	"14.688"
"1975"	"16.084"	"19.247"	"24.542"	"29.39"	"30.803"	"29.582"	"26.045"	"27.341"	"26.724"	"26.183"	"20.997"	"16.478"
"1976"	"16.682"	"20.092"	"25.323"	"29.055"	"29.52"	"30.329"	"28.074"	"27.289"	"26.812"	"25.733"	"22.168"	"17.038"
"1977"	"16.309"	"19.216"	"26.395"	"29.034"	"27.617"	"28.788"	"27.348"	"28.018"	"27.646"	"24.993"	"22.165"	"15.259"
"1978"	"15.483"	"18.791"	"23.336"	"28.147"	"30.57"	"28.679"	"27.496"	"27.824"	"26.917"	"25.034"	"21.742"	"17.273"
"1979"	"17.309"	"17.807"	"24.372"	"29.402"	"32.084"	"30.962"	"28.18"	"28.883"	"26.44"	"25.899"	"23.152"	"17.75"
"1980"	"16.771"	"19.392"	"24.164"	"30.702"	"30.388"	"28.855"	"27.439"	"27.058"	"27.514"	"25.199"	"21.108"	"17.705"
"1981"	"16.021"	"19.298"	"23.872"	"26.579"	"28.169"	"29.921"	"27.369"	"27.796"	"27.437"	"25.455"	"20.684"	"16.895"
"1982"	"17.858"	"19.088"	"22.69"	"28.698"	"32.193"	"29.709"	"29.848"	"27.62"	"28.115"	"25.614"	"21.115"	"16.73"
"1983"	"16.047"	"19.253"	"24.891"	"28.12"	"29.736"	"31.677"	"28.496"	"28.086"	"28.01"	"25.268"	"20.812"	"17.146"
"1984"	"16.534"	"18.215"	"25.057"	"30.289"	"32.037"	"28.197"	"27.533"	"27.417"	"27.027"	"26.173"	"19.775"	"17.467"
"1985"	"17.349"	"18.704"	"25.821"	"30.178"	"29.84"	"30.643"	"27.002"	"27.707"	"26.891"	"25.344"	"21.373"	"18.655"
"1986"	"17.028"	"19.439"	"24.133"	"28.946"	"28.829"	"30.733"	"27.531"	"26.92"	"26.802"	"24.633"	"21.452"	"17.496"
"1987"	"16.67"	"20.735"	"24.609"	"28.759"	"30.363"	"31.193"	"27.682"	"26.674"	"27.247"	"26.197"	"21.915"	"18.96"
"1988"	"18.089"	"20.213"	"24.493"	"29.894"	"31.235"	"28.86"	"28.013"	"28.059"	"28.794"	"27.119"	"21.839"	"19.488"
"1989"	"16.437"	"20.818"	"25.221"	"30.834"	"30.932"	"28.645"	"27.819"	"27.659"	"27.797"	"26.617"	"21.485"	"17.124"
"1990"	"17.134"	"19.85"	"23.399"	"28.914"	"29.28"	"29.827"	"27.49"	"28.307"	"28.024"	"24.686"	"22.123"	"18.067"
"1991"	"16.258"	"21.073"	"25.059"	"29.055"	"32.241"	"28.716"	"28.285"	"27.461"	"27.211"	"26.204"	"22.265"	"16.98"
"1992"	"15.191"	"17.872"	"25.772"	"30.127"	"29.651"	"30.317"	"28.182"	"27.784"	"27.712"	"26.057"	"21.833"	"17.146"
"1993"	"16.985"	"21.038"	"23.943"	"28.341"	"30.223"	"30.763"	"28.664"	"27.188"	"27.217"	"26.249"	"21.097"	"17.842"
"1994"	"17.87"	"19.07"	"25.317"	"28.415"	"31.218"	"29.812"	"27.974"	"27.556"	"27.435"	"25.832"	"21.652"	"17.388"
"1995"	"15.234"	"19.863"	"24.362"	"29.378"	"31.148"	"31.048"	"27.563"	"27.101"	"27.247"	"25.757"	"21.874"	"18.225"
"1996"	"16.969"	"18.982"	"25.7"	"28.269"	"31.298"	"28.915"	"27.696"	"26.622"	"27.931"	"25.563"	"21.323"	"17.279"
"1997"	"16.314"	"18.806"	"25.142"	"28.74"	"30.451"	"30.472"	"27.618"	"27.741"	"26.817"	"24.972"	"21.946"	"17.301"
"1998"	"16.223"	"20.041"	"23.404"	"28.977"	"31.134"	"31.9"	"27.913"	"28.003"	"27.927"	"27.736"	"22.191"	"18.552"
"1999"	"17.203"	"20.862"	"25.641"	"31.419"	"31.086"	"29.797"	"27.615"	"27.502"	"27.222"	"26.235"	"21.961"	"18.673"
"2000"	"17.776"	"19.247"	"24.823"	"30.015"	"30.751"	"29.76"	"28.076"	"27.784"	"26.899"	"26.408"	"22.727"	"17.57"
"2001"	"17.11"	"19.598"	"25.009"	"30.127"	"31.438"	"29.086"	"27.587"	"28.203"	"28.008"	"26.813"	"23.149"	"18.843"
"2002"	"16.822"	"20.642"	"25.639"	"29.379"	"31.602"	"30.506"	"28.998"	"27.502"	"27.418"	"25.751"	"21.587"	"18.464"
