
"Year"	"Jan"	"Feb"	"Mar"	"Apr"	"May"	"Jun"	"Jul"	"Aug"	"Sep"	"Oct"	"Nov"	"Dec"
"1901"	"22.756"	"1.692"	"25.714"	"200.61"	"139.284"	"614.876"	"411.343"	"428.918"	"292.214"	"151.859"	"90.809"	"6.69"
"1902"	"0.156"	"0.165"	"150.615"	"391.751"	"311.562"	"596.575"	"445.582"	"437.308"	"328.275"	"49.669"	"0.491"	"0.145"
"1903"	"6.291"	"22.258"	"95.078"	"120.416"	"370.751"	"744.434"	"279.432"	"611.714"	"373.058"	"172.281"	"24.682"	"0.145"
"1904"	"0.735"	"29.632"	"21.56"	"278.407"	"591.224"	"830.758"	"592.013"	"454.562"	"199.133"	"134.395"	"19.408"	"0.89"
"1905"	"10.791"	"8.401"	"81.472"	"206.255"	"429.058"	"334.048"	"318.616"	"781.693"	"342.98"	"45.471"	"9.681"	"8.102"
"1906"	"8.505"	"30.402"	"53.074"	"123.045"	"275.427"	"456.583"	"525.74"	"306.238"	"370.405"	"232.296"	"12.896"	"0.145"
"1907"	"26.296"	"25.44"	"165.678"	"290.259"	"347.065"	"752.87"	"577.536"	"317.193"	"361.089"	"12.745"	"0.385"	"4.9"
"1908"	"5.342"	"8.55"	"15.803"	"180.008"	"536.345"	"560.054"	"351.218"	"403.307"	"244.748"	"30.206"	"8.311"	"0.117"
"1909"	"1.875"	"2.614"	"0.586"	"226.241"	"430.993"	"841.913"	"492.585"	"322.477"	"200.155"	"171.177"	"3.409"	"1.519"
"1910"	"5.283"	"11.205"	"89.337"	"221.305"	"332.195"	"540.833"	"614.383"	"311.447"	"80.867"	"149.171"	"17.127"	"0.077"
"1911"	"29.8"	"2.678"	"34.941"	"165.394"	"441.528"	"667.516"	"447.063"	"579.414"	"482.684"	"181.205"	"19.752"	"0.077"
"1912"	"0.315"	"34.65"	"70.979"	"350.257"	"369.014"	"777.886"	"575.434"	"620.388"	"134.448"	"82.899"	"26.281"	"2.368"
"1913"	"0.464"	"39.346"	"70.179"	"173.55"	"471.849"	"610.743"	"417.602"	"378.431"	"278.739"	"289.237"	"1.824"	"36.275"
"1914"	"0.077"	"31.069"	"16.553"	"312.802"	"322.799"	"500.269"	"607.617"	"605.562"	"302.595"	"24.848"	"15.414"	"1.313"
"1915"	"0.707"	"33.859"	"93.718"	"216.144"	"795.057"	"834.677"	"604.867"	"457.606"	"193.731"	"22.733"	"4.193"	"0.145"
"1916"	"1.032"	"6.601"	"46.464"	"176.351"	"250.101"	"394.909"	"359.306"	"455.016"	"228.618"	"335.93"	"30.28"	"0.056"
"1917"	"0.151"	"29.368"	"25.604"	"199.972"	"176.642"	"604.208"	"1024.03"	"503.591"	"499.344"	"249.572"	"45.031"	"0.077"
"1918"	"0.26"	"12.551"	"43.826"	"108.445"	"355.215"	"706.794"	"746.427"	"772.432"	"369.44"	"93.039"	"1.843"	"0.077"
"1919"	"10.518"	"5.392"	"10.575"	"181.68"	"254.21"	"571.702"	"527.649"	"343.43"	"444.975"	"73.498"	"22.481"	"0.056"
"1920"	"12.051"	"14.857"	"116.513"	"181.863"	"296.648"	"536.61"	"443.156"	"331.59"	"378.575"	"82.045"	"0.385"	"0.056"
"1921"	"31.836"	"13.406"	"84.468"	"415.918"	"384.723"	"594.723"	"834.454"	"555.369"	"176.834"	"103.305"	"10.37"	"0.609"
"1922"	"7.077"	"2.758"	"1.404"	"51.521"	"306.886"	"579.817"	"550.098"	"618.024"	"265.483"	"75.523"	"2.201"	"3.758"
"1923"	"0.156"	"29.936"	"2.308"	"187.252"	"375.921"	"851.659"	"315.716"	"471.74"	"140.568"	"37.876"	"8.611"	"6.462"
"1924"	"4.143"	"12.481"	"2.168"	"176.773"	"421.934"	"563.539"	"606.723"	"481.278"	"445.665"	"21.656"	"77.574"	"0.056"
"1925"	"4.98"	"3.411"	"21.54"	"224.56"	"638.037"	"414.067"	"699.639"	"206.328"	"326.393"	"76.738"	"1.738"	"0.145"
"1926"	"12.179"	"2.383"	"169.971"	"141.202"	"310.929"	"319.795"	"515.276"	"312.609"	"121.998"	"164.03"	"0.385"	"6.088"
"1927"	"29.255"	"51.9"	"87.9"	"146.966"	"282.736"	"568.485"	"547.404"	"603.354"	"396.392"	"67.941"	"22.034"	"0.145"
"1928"	"11.553"	"6.873"	"7.837"	"147.045"	"631.152"	"414.005"	"310.44"	"568.223"	"110.15"	"259.76"	"14.874"	"0.201"
"1929"	"17.141"	"0.344"	"77.683"	"183.706"	"651.724"	"679.113"	"404.031"	"580.021"	"164.93"	"172.375"	"6.32"	"2.38"
"1930"	"5.834"	"20.893"	"75.599"	"192.104"	"253.439"	"651.622"	"447.072"	"679.073"	"354.756"	"86.118"	"71.479"	"1.127"
"1931"	"1.051"	"9.724"	"64.492"	"195.218"	"481.288"	"458.298"	"918.265"	"606.841"	"325.611"	"133.822"	"2.216"	"8.143"
"1932"	"0.363"	"18.161"	"44.302"	"178.79"	"383.137"	"532.996"	"454.762"	"236.377"	"307.196"	"112.762"	"43.846"	"12.795"
"1933"	"14.5"	"12.644"	"1.673"	"216.036"	"410.766"	"278.046"	"609.87"	"373.74"	"138.534"	"324"	"1.289"	"0.077"
"1934"	"13.605"	"46.781"	"0.954"	"141.201"	"662.715"	"942.632"	"671.294"	"386.893"	"241.945"	"309.645"	"32.59"	"0.388"
"1935"	"1.335"	"28.427"	"55.469"	"38.627"	"422.184"	"664.215"	"348.035"	"514.91"	"270.772"	"6.122"	"0.29"	"1.378"
"1936"	"3.869"	"41.936"	"35.035"	"107.144"	"497.883"	"533.909"	"453.224"	"488.8"	"368.899"	"139.122"	"0.535"	"9.454"
"1937"	"0"	"29.587"	"19.579"	"138.292"	"528.705"	"498.648"	"450.526"	"833.772"	"502.558"	"111.455"	"8.222"	"0.059"
"1938"	"2.66"	"15.635"	"69.053"	"201.269"	"372.115"	"466.288"	"682.35"	"556.218"	"342.489"	"122.953"	"26.65"	"0.077"
"1939"	"0.619"	"7.031"	"3.715"	"29.817"	"337.151"	"515.691"	"586.455"	"195.826"	"464.705"	"208.656"	"0.336"	"0.145"
"1940"	"0.599"	"33.977"	"107.918"	"82.058"	"440.361"	"779.907"	"484.488"	"409.396"	"464.267"	"62.947"	"10.984"	"8.161"
"1941"	"3.332"	"8.447"	"37.301"	"277.768"	"714.866"	"794.613"	"291.076"	"341.258"	"266.99"	"184.283"	"12.394"	"2.927"
"1942"	"2.443"	"18.383"	"95.816"	"215.359"	"306.175"	"447.295"	"356.862"	"676.454"	"690.791"	"28.493"	"1.234"	"0.021"
"1943"	"13.955"	"8.3"	"155.781"	"359.485"	"486.863"	"431.246"	"561.585"	"374.157"	"505.853"	"54.052"	"9.448"	"2.197"
"1944"	"28.172"	"3.978"	"52.908"	"66.177"	"509.102"	"335.009"	"289.928"	"348.003"	"245.955"	"40.295"	"2.261"	"0"
"1945"	"38.258"	"10.901"	"42.036"	"197.034"	"480.187"	"694.634"	"512.208"	"409.315"	"239.213"	"198.436"	"0.385"	"0.162"
"1946"	"0"	"14.347"	"85.653"	"136.371"	"437.695"	"573.908"	"381.128"	"254.843"	"344.571"	"481.048"	"19.061"	"0"
"1947"	"0.56"	"0.885"	"77.211"	"138.397"	"439.561"	"619.987"	"804.449"	"436.689"	"333.941"	"107.101"	"0.229"	"5.11"
"1948"	"1.119"	"3.642"	"39.695"	"214.741"	"882.996"	"390.169"	"446.266"	"393.643"	"236.944"	"296.932"	"48.67"	"0"
"1949"	"12.055"	"4.59"	"18.812"	"343.932"	"484.156"	"554.667"	"354.214"	"668.984"	"723.28"	"128.048"	"3.869"	"0.145"
"1950"	"0.166"	"10.414"	"45.471"	"33.921"	"176.08"	"696.595"	"521.657"	"478.79"	"85.05"	"222.743"	"29.46"	"0.077"
"1951"	"3.03"	"1.479"	"35.274"	"171.74"	"286.24"	"667.274"	"631.635"	"408.562"	"182.724"	"301.887"	"24.581"	"0"
"1952"	"0.156"	"7.945"	"97.987"	"195.062"	"565.855"	"398.829"	"477.306"	"609.55"	"468.803"	"296.802"	"26.773"	"0"
"1953"	"25.527"	"3.718"	"140.083"	"100.594"	"305.337"	"613.349"	"542.976"	"280.166"	"483.293"	"32.517"	"0.351"	"10.577"
"1954"	"19.709"	"6.517"	"4.523"	"127.861"	"384.598"	"680.598"	"611.631"	"553.788"	"212.267"	"76.349"	"0.229"	"9.964"
"1955"	"6.588"	"3.962"	"69.91"	"230.911"	"265.111"	"712.585"	"819.991"	"416.051"	"233.049"	"108.014"	"20.732"	"7.44"
"1956"	"13.27"	"1.261"	"110.029"	"164.494"	"524.858"	"1033.554"	"482.521"	"535.673"	"243.166"	"153.971"	"24.6"	"2.241"
"1957"	"26.478"	"10.605"	"7.775"	"97.254"	"381.555"	"387.006"	"792.031"	"596.748"	"181.346"	"86.222"	"3.419"	"16.595"
"1958"	"15.649"	"19.592"	"14.317"	"158.737"	"533.096"	"239.774"	"475.7"	"694.809"	"278.497"	"68.314"	"2.785"	"1.543"
"1959"	"38.028"	"5.554"	"69.578"	"142.579"	"486.933"	"509.21"	"471.01"	"300.52"	"284.452"	"253.821"	"2.938"	"0"
"1960"	"0.043"	"1.182"	"48.18"	"25.798"	"504.174"	"400.269"	"666.92"	"348.083"	"420.738"	"79.379"	"7.472"	"1.799"
"1961"	"3.421"	"9.651"	"85.904"	"129.476"	"332.081"	"535.812"	"595.486"	"574.507"	"329.088"	"130.563"	"12.778"	"1.131"
"1962"	"10.578"	"10.358"	"14.922"	"80.267"	"376.528"	"719.457"	"305.881"	"370.924"	"100.296"	"101.662"	"0.229"	"1.572"
"1963"	"1.914"	"3.045"	"71.15"	"210.962"	"415.786"	"521.036"	"656.377"	"518.071"	"242.974"	"88.569"	"11.742"	"4.108"
"1964"	"2.282"	"12.514"	"66.916"	"216.856"	"400.69"	"712.837"	"631.758"	"317.114"	"210.584"	"193.71"	"7.306"	"0"
"1965"	"0"	"25.853"	"74.906"	"220.672"	"512.297"	"587.416"	"576.556"	"544.602"	"246.609"	"42.048"	"39.22"	"1.262"
"1966"	"21.386"	"4.737"	"27.93"	"117.797"	"336.152"	"735.38"	"403.043"	"585.185"	"266.499"	"54.33"	"44.261"	"4.047"
"1967"	"5.017"	"8.172"	"133.218"	"212.453"	"349.911"	"266.546"	"426.57"	"387.129"	"482.88"	"66.646"	"26.124"	"0.551"
"1968"	"7.353"	"2.99"	"36.191"	"175.771"	"574.648"	"676.866"	"589.638"	"407.21"	"161.415"	"254.914"	"1.141"	"0.223"
"1969"	"18.401"	"0.239"	"71.235"	"130.497"	"194.928"	"715.015"	"625.51"	"499.304"	"368.131"	"100.254"	"34.579"	"0"
"1970"	"20.945"	"17.618"	"33.844"	"97.376"	"265.231"	"782.813"	"684.198"	"597.587"	"277.825"	"229.788"	"28.912"	"0"
"1971"	"6.054"	"1.968"	"57.275"	"173.071"	"168.248"	"531.2"	"555.457"	"534.523"	"241.311"	"176.164"	"87.496"	"3.528"
"1972"	"7.97"	"22.486"	"75.982"	"228.752"	"351.038"	"531.697"	"494.881"	"371.017"	"221.713"	"57.382"	"22.07"	"0"
"1973"	"6.194"	"24.803"	"30.778"	"196.22"	"598.684"	"632.228"	"489.175"	"245.475"	"443.541"	"222.931"	"51.894"	"23.452"
"1974"	"18.504"	"0.2"	"29.286"	"209.883"	"368.909"	"641.056"	"1033.686"	"484.353"	"622.602"	"313.774"	"4.403"	"0.382"
"1975"	"5.16"	"2.483"	"15.235"	"135.062"	"430.827"	"452.24"	"676.45"	"299.203"	"347.652"	"153.294"	"0.879"	"0.522"
"1976"	"4.913"	"19.953"	"53.62"	"213.801"	"239.222"	"716.377"	"463.191"	"497.055"	"201.396"	"84.878"	"9.434"	"0.354"
"1977"	"8.411"	"2.492"	"63.831"	"456.107"	"422.03"	"745.637"	"918.533"	"487.809"	"172.348"	"341.042"	"37.812"	"8.11"
"1978"	"1.786"	"2.054"	"28.114"	"133.629"	"424.782"	"637.663"	"561.123"	"407.681"	"401.529"	"65.623"	"44.61"	"0.056"
"1979"	"1.364"	"9.102"	"11.024"	"97.994"	"333.953"	"446.929"	"644.912"	"248.619"	"270.628"	"184.006"	"21.456"	"33.044"
"1980"	"0.63"	"16.273"	"62.364"	"144.835"	"469.286"	"681.984"	"567.936"	"625.526"	"191.202"	"117.349"	"0.229"	"0.149"
"1981"	"29.337"	"11.129"	"52.965"	"103.707"	"411.766"	"210.898"	"573.92"	"408.323"	"312.889"	"4.958"	"2.932"	"23.232"
"1982"	"0"	"10.849"	"37.987"	"254.655"	"239.515"	"675.376"	"381.371"	"571.792"	"263.886"	"97.945"	"47.934"	"0.148"
"1983"	"8.703"	"30.389"	"72.114"	"199.352"	"502.511"	"442.254"	"458.539"	"456.32"	"436.493"	"261.037"	"0.229"	"13.057"
"1984"	"21.75"	"3.289"	"23.496"	"223.157"	"550.108"	"916.939"	"764.619"	"338.446"	"579.934"	"127.439"	"20.578"	"5.586"
"1985"	"0.629"	"24.325"	"58.303"	"231.6"	"310.944"	"472.21"	"842.597"	"269.116"	"432.163"	"75.11"	"3.288"	"17.995"
"1986"	"2.185"	"2.67"	"10.578"	"288.153"	"191.047"	"431.17"	"441.402"	"418.417"	"371.571"	"343.461"	"32.833"	"16.142"
"1987"	"9.664"	"17.875"	"124.955"	"289.054"	"222.104"	"350.391"	"920.287"	"417.867"	"548.763"	"241.411"	"7.452"	"0.198"
"1988"	"7.42"	"24.434"	"73.066"	"223.049"	"830.997"	"576.954"	"648.003"	"626.762"	"298.507"	"107.857"	"86.504"	"15.188"
"1989"	"6.527"	"34.279"	"18.77"	"187.65"	"478.605"	"653.604"	"807.811"	"360.164"	"545.16"	"161.177"	"4.01"	"3.284"
"1990"	"1.287"	"22.229"	"93.852"	"388.74"	"255.45"	"399.606"	"854.671"	"193.269"	"383.212"	"299.567"	"0.643"	"0"
"1991"	"31.825"	"10.387"	"58.738"	"143.491"	"766.361"	"455.914"	"400.976"	"620.244"	"364.291"	"442.15"	"0.725"	"9.588"
"1992"	"8.477"	"17.868"	"27.359"	"141.491"	"484.242"	"644.343"	"655.082"	"626.31"	"318.779"	"85.007"	"6.04"	"10.606"
"1993"	"38.629"	"37.041"	"91.113"	"176.297"	"537.594"	"831.206"	"586.179"	"654.568"	"427.304"	"49.558"	"3.475"	"0.056"
"1994"	"21.751"	"21.094"	"98.512"	"223.474"	"299.064"	"623.012"	"384.257"	"572.159"	"119.697"	"112.995"	"20.858"	"0.257"
"1995"	"19.162"	"14.958"	"26.388"	"152.336"	"237.584"	"645.005"	"723.264"	"383.214"	"485.922"	"31.821"	"59.466"	"3.743"
"1996"	"8.701"	"20.261"	"35.164"	"113.406"	"717.323"	"374.043"	"580.979"	"527.404"	"218.903"	"200.618"	"0.229"	"0"
"1997"	"12.642"	"15.706"	"27.865"	"216.62"	"376.816"	"384.093"	"378.963"	"392.127"	"401.154"	"28.085"	"8.776"	"20.93"
"1998"	"1.58"	"20.594"	"99.613"	"195.901"	"287.952"	"308.331"	"453.408"	"503.211"	"371.315"	"334.656"	"11.998"	"0"
"1999"	"0.721"	"0.552"	"13.197"	"29.15"	"523.964"	"532.611"	"595.992"	"665.69"	"342.876"	"206.923"	"39.545"	"0.683"
"2000"	"7.079"	"12.644"	"51.426"	"49.584"	"612.009"	"651.237"	"341.982"	"633.601"	"291.942"	"68.292"	"2.445"	"0.86"
"2001"	"1.651"	"10.159"	"28.625"	"192.236"	"513.335"	"601.217"	"421.792"	"335.808"	"335.853"	"250.388"	"13.979"	"0"
"2002"	"11.289"	"6.497"	"81.36"	"324.95"	"370.197"	"680.607"	"480.937"	"353.861"	"222.219"	"70.175"	"49.835"	"0"
