
"Year"	"Jan"	"Feb"	"Mar"	"Apr"	"May"	"Jun"	"Jul"	"Aug"	"Sep"	"Oct"	"Nov"	"Dec"
"1901"	"3.445"	"0"	"10.516"	"1.514"	"10.476"	"79.663"	"222.348"	"161.34"	"32.29"	"32.345"	"0.201"	"0"
"1902"	"3.269"	"0"	"0"	"1.268"	"1.735"	"71.138"	"254.803"	"188.389"	"191.739"	"30.391"	"26.838"	"14.364"
"1903"	"0.228"	"0"	"0"	"0"	"26.084"	"125.354"	"458.405"	"192.71"	"279.101"	"7.616"	"0.201"	"0"
"1904"	"0"	"0.342"	"3.734"	"1.403"	"2.888"	"84.635"	"133.329"	"45.116"	"233.656"	"7.278"	"0.201"	"0.781"
"1905"	"0"	"0.007"	"0"	"0"	"5.247"	"68.165"	"393.128"	"88.856"	"88.283"	"0.805"	"0.908"	"0"
"1906"	"0.025"	"1.093"	"0.007"	"0"	"0"	"262.666"	"350.59"	"225.338"	"170.166"	"1.521"	"0.201"	"0.546"
"1907"	"0.219"	"0.508"	"0"	"4.33"	"0"	"96.39"	"348.429"	"184.418"	"28.188"	"0.308"	"5.256"	"0"
"1908"	"1.295"	"0.006"	"5.36"	"1.056"	"0.004"	"125.338"	"321.442"	"154.045"	"27.544"	"0.867"	"0.201"	"0"
"1909"	"0.02"	"0.037"	"0.861"	"7.093"	"10.914"	"133.08"	"211.029"	"136.149"	"162.523"	"2.035"	"0.201"	"26.667"
"1910"	"0.111"	"0"	"0"	"0"	"1.566"	"305.471"	"228.254"	"183.773"	"142.227"	"40.432"	"20.503"	"0"
"1911"	"2.521"	"0"	"3.571"	"0"	"0.17"	"106.145"	"75.484"	"73.762"	"106.318"	"2.274"	"49.368"	"0"
"1912"	"0"	"0.199"	"0"	"0.536"	"2.537"	"75.131"	"379.473"	"153.279"	"25.409"	"12.364"	"94.179"	"0.011"
"1913"	"0"	"0.058"	"0.858"	"0.02"	"22.183"	"256.453"	"341.975"	"163.402"	"94.288"	"0.753"	"0.201"	"10.498"
"1914"	"0"	"0.659"	"0.268"	"2.153"	"14.966"	"222.036"	"197.405"	"118.323"	"236.762"	"11.278"	"29.018"	"0.052"
"1915"	"1.154"	"0.486"	"27.664"	"8.696"	"0.402"	"115.792"	"185.775"	"103.584"	"157.937"	"64.465"	"2.608"	"9.903"
"1916"	"0"	"0.483"	"0"	"0.352"	"12.453"	"196.589"	"285.701"	"318.838"	"237.462"	"47.151"	"37.821"	"0"
"1917"	"0.796"	"0.926"	"2.935"	"9.118"	"28.322"	"175.002"	"153.303"	"205.723"	"272.939"	"77.153"	"3.316"	"0"
"1918"	"0.004"	"0"	"4.379"	"0"	"24.502"	"85.648"	"110.362"	"112.83"	"23.086"	"0.519"	"15.377"	"0.358"
"1919"	"5.261"	"0.004"	"0"	"0.625"	"18.787"	"263.117"	"267.494"	"276.657"	"133.36"	"57.691"	"26.513"	"0.372"
"1920"	"5.465"	"0.569"	"1.705"	"0.686"	"22.698"	"112.582"	"375.325"	"110.065"	"76.636"	"0.295"	"0.201"	"0"
"1921"	"1.633"	"0.022"	"0"	"0"	"0"	"160.462"	"313.63"	"135.367"	"284.321"	"10.279"	"0.201"	"0"
"1922"	"2.257"	"0.056"	"0"	"0.317"	"2.089"	"162.975"	"271.698"	"42.522"	"239.041"	"5.937"	"52.326"	"7.435"
"1923"	"0"	"0.85"	"7.087"	"0.604"	"8.1"	"5.729"	"391.71"	"118.179"	"191.249"	"0.285"	"1.251"	"3.246"
"1924"	"1.783"	"0"	"1.087"	"0.738"	"14.152"	"58.7"	"224.601"	"262.437"	"205.391"	"61.44"	"0.249"	"14.956"
"1925"	"0"	"0"	"0"	"0"	"24.243"	"206.929"	"98.801"	"83.596"	"72.448"	"0.652"	"68.078"	"12.663"
"1926"	"8.012"	"0.152"	"1.705"	"3.78"	"3.62"	"22.644"	"298.277"	"252.872"	"82.113"	"0.285"	"0.287"	"1.348"
"1927"	"0"	"0.133"	"0.28"	"0.338"	"4.185"	"148.623"	"226.759"	"102.33"	"114.765"	"20.07"	"113.532"	"9.362"
"1928"	"0.034"	"0.894"	"5.449"	"0"	"2.632"	"124.678"	"340.817"	"224.523"	"184.253"	"45.171"	"8.663"	"32.404"
"1929"	"0.074"	"0.811"	"0.037"	"5.789"	"0"	"167.211"	"267.275"	"102.485"	"76.747"	"8.055"	"0.201"	"1.097"
"1930"	"0.034"	"0.004"	"0"	"0.259"	"9.383"	"175.466"	"312.057"	"114.831"	"343.963"	"24.229"	"5.124"	"0.007"
"1931"	"0.271"	"0"	"0.064"	"0.183"	"0"	"35.556"	"318.245"	"256.395"	"118.423"	"132.946"	"20.102"	"6.497"
"1932"	"0"	"0.138"	"9.246"	"1.819"	"0.521"	"61.465"	"476.051"	"77.084"	"254.708"	"24.57"	"0.512"	"0"
"1933"	"0.062"	"0.504"	"0.037"	"0.723"	"25.853"	"220.734"	"259.713"	"287.93"	"242.375"	"20.651"	"2.351"	"5.811"
"1934"	"0.79"	"0"	"0"	"0.031"	"0"	"219.76"	"237.885"	"326.676"	"287.035"	"0.285"	"46.213"	"1.289"
"1935"	"0.8"	"0.012"	"0"	"7.86"	"5.745"	"199.244"	"286.944"	"126.384"	"190.062"	"51.136"	"3.665"	"0.065"
"1936"	"0.073"	"0.118"	"16.388"	"1.823"	"24.428"	"222.796"	"62.762"	"68.998"	"230.982"	"0.375"	"127.035"	"0"
"1937"	"0"	"0.133"	"2.383"	"0.755"	"0"	"189.556"	"353.472"	"56.219"	"193.57"	"19.29"	"0.201"	"9.013"
"1938"	"0.038"	"0"	"4.272"	"0.394"	"33.385"	"361.815"	"340.664"	"180.859"	"100.685"	"106.534"	"0.201"	"0"
"1939"	"0"	"0"	"10.425"	"0.352"	"0"	"50.007"	"296.244"	"287.765"	"97.078"	"3.818"	"6.245"	"0.306"
"1940"	"1.178"	"0.195"	"6.863"	"4.365"	"10.26"	"211.899"	"260.742"	"192.503"	"176.476"	"102.466"	"41.125"	"7.749"
"1941"	"2.407"	"0.452"	"0.075"	"1.082"	"0.755"	"27.869"	"302.75"	"201.133"	"133.046"	"1.665"	"0.201"	"0"
"1942"	"2.454"	"0.312"	"0"	"0.091"	"0.001"	"106.044"	"460.188"	"277.288"	"117.34"	"0.285"	"0.201"	"3.867"
"1943"	"1.712"	"0"	"0.039"	"1.654"	"39.668"	"177.52"	"270.093"	"56.756"	"237.025"	"87.774"	"0.201"	"0"
"1944"	"0.642"	"0"	"8.004"	"0.99"	"0.002"	"99.449"	"414.197"	"479.085"	"161.07"	"72.031"	"0.896"	"0"
"1945"	"6.133"	"0"	"0"	"0"	"0"	"60.545"	"341.436"	"189.581"	"347.646"	"5.428"	"1.772"	"0"
"1946"	"0"	"0.056"	"0"	"0.352"	"4.436"	"346.106"	"354.108"	"212.826"	"154.982"	"0.742"	"101.686"	"12.525"
"1947"	"0.144"	"0.191"	"0.871"	"8.255"	"3.924"	"41.364"	"255.233"	"294.303"	"337.049"	"20.188"	"0.201"	"11.057"
"1948"	"5.187"	"0.481"	"2.696"	"1.175"	"0.544"	"263.102"	"227.658"	"155.85"	"139.639"	"10.288"	"64.163"	"1.494"
"1949"	"0"	"0"	"0"	"0.382"	"12.401"	"150.516"	"305.492"	"119.452"	"322.929"	"50.845"	"5.256"	"0"
"1950"	"0"	"0.004"	"4.281"	"0.08"	"7.14"	"39.217"	"379.226"	"43.44"	"265.254"	"7.385"	"0.21"	"2.462"
"1951"	"0.073"	"0"	"0.06"	"0.652"	"4.817"	"131.731"	"331.032"	"119.457"	"34.372"	"14.846"	"11.039"	"0"
"1952"	"0"	"0.004"	"0"	"1.302"	"1.22"	"184.017"	"241.177"	"68.859"	"39.741"	"1.625"	"0.201"	"0.065"
"1953"	"7.309"	"0"	"0"	"0.363"	"0"	"92.248"	"256.383"	"207.492"	"120.591"	"22.227"	"0.201"	"0"
"1954"	"1.606"	"0.174"	"5.147"	"0.214"	"0.255"	"113.094"	"277.419"	"155.949"	"496.359"	"32.264"	"0.201"	"0.507"
"1955"	"3.527"	"0.006"	"0.841"	"0.203"	"1.23"	"197.626"	"114.282"	"340.601"	"251.52"	"77.296"	"0.201"	"0"
"1956"	"1.402"	"0"	"0"	"0.115"	"24.301"	"148.575"	"246.222"	"124.4"	"246.175"	"66.397"	"24.547"	"8.721"
"1957"	"0.004"	"0"	"3.283"	"0.788"	"10.947"	"146.861"	"194.732"	"228.257"	"81.036"	"11.434"	"12.41"	"0"
"1958"	"2.649"	"0"	"2.782"	"2.061"	"1.156"	"133.627"	"263.934"	"345.26"	"244.114"	"46.111"	"80.715"	"0.176"
"1959"	"3.008"	"0"	"0"	"2.822"	"4.436"	"150.827"	"524.156"	"228.233"	"284.169"	"121.989"	"17.377"	"0"
"1960"	"5.125"	"0"	"8.174"	"0.404"	"34.843"	"166.237"	"162.921"	"240.866"	"119.269"	"16.54"	"0.201"	"0.372"
"1961"	"0.379"	"1.203"	"0.189"	"0.657"	"37.232"	"94.06"	"178.111"	"190.543"	"427.986"	"35.367"	"22.785"	"1.304"
"1962"	"1.707"	"0"	"10.769"	"3.133"	"16.89"	"16.419"	"369.376"	"126.951"	"294.599"	"0.334"	"20.507"	"30.096"
"1963"	"3.457"	"0.926"	"3.161"	"0.173"	"3.648"	"84.516"	"318.825"	"259.975"	"87.27"	"40.727"	"18.984"	"1.091"
"1964"	"0"	"0"	"11.191"	"0.041"	"3.912"	"236.396"	"315.976"	"194.673"	"258.816"	"7.313"	"4.235"	"0"
"1965"	"6.715"	"0.007"	"0.007"	"0.02"	"0.544"	"33.037"	"257.823"	"189.636"	"57.046"	"3.434"	"3.099"	"12.328"
"1966"	"2.375"	"0"	"0.586"	"0.02"	"3.697"	"80.808"	"304.541"	"93.252"	"152.68"	"3.539"	"48.495"	"5.396"
"1967"	"0"	"0"	"16.625"	"2.328"	"0.544"	"273.461"	"335.408"	"245.043"	"120.47"	"8.825"	"0.201"	"23.129"
"1968"	"0"	"0.145"	"19.352"	"0.33"	"0"	"63.63"	"347.396"	"253.71"	"113.81"	"36.405"	"0.21"	"0"
"1969"	"1.707"	"0"	"0"	"0"	"0"	"108.716"	"306.895"	"208.25"	"308.101"	"0.285"	"52.596"	"0"
"1970"	"0.034"	"0.253"	"0.796"	"0.228"	"13.337"	"327.001"	"123.757"	"225.152"	"264.008"	"5.323"	"0.201"	"0"
"1971"	"0"	"0.004"	"0"	"0"	"34.653"	"138.644"	"265.298"	"198.065"	"184.081"	"22.037"	"0.201"	"0"
"1972"	"0"	"0.032"	"0"	"0.589"	"4.981"	"73.681"	"116.232"	"217.897"	"34.747"	"0.803"	"21.126"	"0"
"1973"	"0.119"	"0.675"	"0"	"0"	"4.714"	"63.669"	"541.369"	"335.708"	"370.654"	"32.019"	"0.201"	"5.385"
"1974"	"0"	"0.094"	"0.004"	"0.253"	"34.396"	"48.632"	"168.767"	"273.998"	"95.625"	"55.52"	"0.201"	"0.23"
"1975"	"0.023"	"0.092"	"0"	"0"	"5.764"	"153.261"	"274.416"	"299.418"	"142.334"	"86.301"	"0.201"	"0"
"1976"	"0.346"	"0.022"	"1.294"	"0.284"	"0.197"	"272.529"	"234.181"	"318.007"	"117.503"	"0.285"	"102.974"	"4.06"
"1977"	"0"	"0.296"	"11.541"	"1.754"	"6.756"	"144.806"	"248.912"	"189.708"	"165.309"	"5.8"	"60.52"	"2.732"
"1978"	"0.134"	"0.61"	"3.378"	"7.785"	"2.841"	"147.534"	"221.653"	"302.666"	"69.259"	"15.284"	"34.785"	"23.829"
"1979"	"3.934"	"1.346"	"1.691"	"0"	"0.714"	"143.601"	"197.658"	"296.222"	"74.89"	"20.274"	"78.658"	"2.591"
"1980"	"0.007"	"0.04"	"0"	"0"	"0"	"417.502"	"215.915"	"264.123"	"24.588"	"0.285"	"0.853"	"11.379"
"1981"	"0.786"	"0.054"	"3.874"	"0.352"	"6.901"	"115.328"	"276.223"	"308.843"	"136.504"	"48.034"	"32.251"	"1.236"
"1982"	"5.052"	"0.5"	"0.064"	"1.662"	"17.013"	"64.227"	"256.112"	"116.779"	"109.391"	"23.091"	"62.417"	"0"
"1983"	"0.007"	"0"	"0"	"1.654"	"2.666"	"152.276"	"327.6"	"287.7"	"201.759"	"66.612"	"0.201"	"0.065"
"1984"	"0.308"	"0.347"	"0"	"0"	"0"	"76.562"	"217.058"	"326.371"	"96.465"	"83.004"	"0.326"	"2.22"
"1985"	"0.258"	"0"	"0"	"8.48"	"1.726"	"57.5"	"200.789"	"187.675"	"83.389"	"125.071"	"19.534"	"0"
"1986"	"0.194"	"0.487"	"0"	"0.041"	"3.464"	"160.956"	"302.354"	"261.219"	"70.79"	"9.686"	"0.381"	"6.744"
"1987"	"4.804"	"0.597"	"5.516"	"0.016"	"19.825"	"135.24"	"154.52"	"299.573"	"15.404"	"43.524"	"16.852"	"20.822"
"1988"	"0"	"0"	"0"	"6.267"	"2.014"	"133.637"	"344.313"	"218.194"	"228.662"	"54.113"	"1.727"	"0"
"1989"	"0.016"	"0"	"23.341"	"0.547"	"9.09"	"230.439"	"113.765"	"164.067"	"172.845"	"1.504"	"0.201"	"1.402"
"1990"	"0.194"	"0.604"	"0"	"0"	"47.282"	"130.09"	"281.22"	"379.364"	"155.649"	"16.119"	"10.539"	"12.729"
"1991"	"0"	"0.011"	"1.569"	"0.826"	"0.682"	"239.703"	"348.482"	"109.398"	"39.101"	"1.332"	"8.204"	"0"
"1992"	"0"	"0.004"	"0"	"0"	"18.452"	"111.31"	"147.872"	"197.554"	"261.655"	"30.822"	"0.726"	"0"
"1993"	"0"	"0.015"	"3.881"	"0"	"5.005"	"155.561"	"367.774"	"160.447"	"160.642"	"25.543"	"3.681"	"4.682"
"1994"	"8.179"	"0.013"	"5.562"	"1.879"	"5.537"	"315.565"	"265.131"	"272.186"	"213.717"	"9.094"	"2.877"	"0"
"1995"	"2.984"	"0"	"11.331"	"2.194"	"15.873"	"72.219"	"427.571"	"130.81"	"165.892"	"38.08"	"0.545"	"0.37"
"1996"	"2.991"	"0.102"	"3.512"	"1.769"	"9.041"	"97.03"	"552.119"	"169.744"	"161.634"	"52.133"	"2.241"	"0"
"1997"	"3.491"	"0"	"0.161"	"6.56"	"2.057"	"223.088"	"369.375"	"293.327"	"41.33"	"22.098"	"32.319"	"14.947"
"1998"	"1.551"	"0.035"	"5.61"	"0.449"	"10.345"	"78.993"	"255.538"	"191.259"	"235.826"	"24.677"	"15.432"	"0"
"1999"	"0"	"1.131"	"0"	"0"	"3.97"	"250.062"	"155.617"	"85.6"	"261.188"	"74.989"	"0.201"	"1.427"
"2000"	"0"	"0.059"	"0"	"0"	"28.619"	"132.639"	"259.935"	"130.755"	"35.148"	"13.549"	"2.685"	"1.227"
"2001"	"0.56"	"0"	"4.573"	"0.031"	"15.824"	"285.708"	"153.326"	"93.911"	"30.796"	"43.013"	"4.097"	"0"
"2002"	"0.112"	"1.134"	"9.473"	"10.359"	"2.203"	"251.951"	"35.539"	"218.018"	"102.997"	"1.778"	"2.406"	"0"
