
"Year"	"Jan"	"Feb"	"Mar"	"Apr"	"May"	"Jun"	"Jul"	"Aug"	"Sep"	"Oct"	"Nov"	"Dec"
"1901"	"21.891"	"23.26"	"27.19"	"30.414"	"32.407"	"30.681"	"26.892"	"25.797"	"27.002"	"26.049"	"22.624"	"20.125"
"1902"	"22.072"	"23.867"	"28.332"	"31.124"	"33.242"	"31.613"	"26.947"	"26.918"	"26.435"	"25.921"	"22.404"	"20.191"
"1903"	"21.648"	"23.021"	"27.357"	"30.771"	"31.275"	"30.518"	"26.625"	"26.476"	"26.362"	"24.969"	"21.22"	"19.448"
"1904"	"21.457"	"23.233"	"27.273"	"31.533"	"32.166"	"29.304"	"26.792"	"26.344"	"26.277"	"25.524"	"22.15"	"20.29"
"1905"	"21.128"	"22.175"	"27.145"	"29.693"	"32.371"	"31.502"	"26.881"	"26.374"	"25.822"	"25.44"	"22.771"	"19.885"
"1906"	"21.705"	"24.044"	"26.597"	"31.431"	"33.597"	"29.288"	"26.414"	"26.165"	"26.481"	"25.508"	"22.629"	"20.977"
"1907"	"21.336"	"23.565"	"26.84"	"28.845"	"31.822"	"29.822"	"26.973"	"25.086"	"26.932"	"26.241"	"23.131"	"19.667"
"1908"	"20.033"	"23.676"	"26.942"	"31.421"	"33.008"	"31.094"	"26.392"	"25.531"	"26.495"	"25.55"	"21.939"	"18.976"
"1909"	"21.961"	"23.917"	"27.849"	"28.811"	"32.064"	"28.95"	"26.028"	"26.205"	"26.171"	"24.906"	"21.816"	"20.861"
"1910"	"20.941"	"22.831"	"27.784"	"31.746"	"33.118"	"29.818"	"27.288"	"26.649"	"26.53"	"25.586"	"20.643"	"18.304"
"1911"	"21.138"	"22.798"	"27.197"	"31.1"	"33.433"	"29.05"	"27.286"	"25.713"	"26.715"	"25.748"	"23.037"	"19.523"
"1912"	"20.868"	"24.224"	"28.501"	"30.333"	"33.231"	"32.752"	"26.674"	"26.197"	"26.675"	"25.884"	"22.146"	"18.98"
"1913"	"19.865"	"24.345"	"27.476"	"31.965"	"32.397"	"29.328"	"26.814"	"26.29"	"26.882"	"25.515"	"21.912"	"20.513"
"1914"	"20.212"	"24.674"	"27.826"	"28.801"	"31.808"	"29.649"	"26.564"	"26.359"	"26.315"	"25.478"	"22.592"	"20.322"
"1915"	"20.711"	"23.387"	"26.588"	"30.512"	"33.044"	"31.91"	"27.622"	"26.84"	"26.773"	"26.46"	"24.359"	"19.86"
"1916"	"20.502"	"23.748"	"27.571"	"31.361"	"32.356"	"28.15"	"27.38"	"26.619"	"26.735"	"26.185"	"23.127"	"18.942"
"1917"	"20.305"	"22.386"	"26.178"	"29.523"	"30.627"	"27.857"	"26.3"	"26.593"	"26.039"	"25.342"	"22.128"	"19.338"
"1918"	"19.964"	"22.803"	"26.999"	"30.01"	"30.696"	"27.763"	"27.61"	"26.032"	"26.967"	"25.377"	"23.925"	"20.846"
"1919"	"22.562"	"24.163"	"27.509"	"30.337"	"31.533"	"28.428"	"27.061"	"26.106"	"26.844"	"25.436"	"22.997"	"19.652"
"1920"	"21.072"	"23.58"	"27.933"	"30.328"	"31.609"	"31.01"	"26.774"	"26.795"	"27.286"	"26.436"	"22.509"	"19.539"
"1921"	"21.729"	"23.381"	"28.811"	"31.224"	"35.736"	"30.341"	"27.287"	"26.448"	"26.235"	"25.063"	"20.298"	"19.779"
"1922"	"21.059"	"23.328"	"28.34"	"31.716"	"33.394"	"30.114"	"26.433"	"26.884"	"26.293"	"25.286"	"22.856"	"18.698"
"1923"	"20.569"	"23.309"	"26.721"	"30.736"	"33.315"	"33.484"	"26.616"	"26.035"	"26.74"	"24.896"	"22.202"	"19.982"
"1924"	"21.388"	"24.528"	"28.362"	"31.79"	"33.258"	"32.311"	"27.285"	"26.946"	"26.415"	"25.114"	"21.743"	"19.327"
"1925"	"20.348"	"22.79"	"27.165"	"31.371"	"30.761"	"29.115"	"25.963"	"26.186"	"27.014"	"25.706"	"23.05"	"19.516"
"1926"	"21.943"	"24.256"	"27.716"	"29.405"	"31.359"	"33.4"	"27.294"	"26.245"	"26.741"	"25.285"	"21.614"	"20.007"
"1927"	"23.28"	"24.776"	"28.151"	"32.045"	"33.234"	"30.498"	"26.324"	"26.088"	"26.887"	"25.172"	"21.472"	"20.068"
"1928"	"21.444"	"23.51"	"27.534"	"30.689"	"33.531"	"30.302"	"26.67"	"27.057"	"26.745"	"26.255"	"22.006"	"20.42"
"1929"	"21.998"	"22.251"	"27.285"	"29.132"	"33.434"	"29.646"	"26.398"	"26.221"	"26.799"	"24.993"	"21.441"	"20.867"
"1930"	"21.053"	"22.291"	"27.587"	"30.083"	"32.727"	"30.513"	"26.745"	"26.373"	"26.514"	"25.85"	"21.377"	"20.224"
"1931"	"20.566"	"24.682"	"27.478"	"31.236"	"33.331"	"31.949"	"26.833"	"26.477"	"27.011"	"25.761"	"21.9"	"19.588"
"1932"	"20.385"	"22.25"	"27.21"	"30.553"	"32.432"	"31.237"	"26.267"	"26.88"	"26.6"	"26.571"	"23.29"	"19.798"
"1933"	"21.371"	"24.947"	"27.416"	"30.136"	"30.56"	"27.964"	"26.84"	"26.452"	"26.387"	"25.384"	"22.402"	"20.281"
"1934"	"20.457"	"23.171"	"27.535"	"31.119"	"33.869"	"30.447"	"26.686"	"26.319"	"26.277"	"24.952"	"21.288"	"19.615"
"1935"	"21.226"	"23.988"	"27.552"	"29.514"	"34.325"	"32.064"	"26.099"	"26.518"	"26.344"	"25.937"	"21.852"	"20.949"
"1936"	"23.465"	"23.283"	"27.729"	"30.669"	"32.605"	"27.759"	"27.105"	"26.085"	"26.883"	"25.682"	"23.792"	"20.649"
"1937"	"20.268"	"24.257"	"27.095"	"30.266"	"33.131"	"31.21"	"26.387"	"26.677"	"26.673"	"25.419"	"22.358"	"19.973"
"1938"	"23.436"	"23.475"	"28.926"	"30.884"	"32.829"	"27.419"	"26.57"	"26.755"	"26.564"	"25.064"	"21.216"	"19.402"
"1939"	"21.492"	"24.075"	"26.916"	"30.938"	"34.268"	"31.06"	"26.281"	"26.544"	"26.468"	"26.243"	"21.454"	"19.424"
"1940"	"19.366"	"23.603"	"26.764"	"30.279"	"32.088"	"29.655"	"25.748"	"26.205"	"27.16"	"26.061"	"23.41"	"20.876"
"1941"	"22.383"	"24.283"	"28.781"	"32.519"	"33.441"	"29.707"	"27.368"	"27.047"	"27.257"	"25.66"	"21.233"	"21.057"
"1942"	"21.262"	"23.796"	"28.183"	"30.877"	"33.794"	"31.752"	"26.036"	"26.489"	"27.186"	"24.785"	"21.867"	"20.795"
"1943"	"22.744"	"22.208"	"27.518"	"29.872"	"31.856"	"29.006"	"26.538"	"26.008"	"26.466"	"25.466"	"22.227"	"18.326"
"1944"	"21.34"	"23.058"	"25.682"	"29.222"	"33.151"	"31.034"	"26.066"	"26.253"	"26.524"	"25.343"	"21.54"	"20.236"
"1945"	"20.616"	"22.87"	"27.585"	"29.615"	"33.392"	"30.58"	"26.351"	"26.435"	"25.807"	"24.497"	"20.713"	"18.255"
"1946"	"19.087"	"22.49"	"28.305"	"29.303"	"32.643"	"28.68"	"26.673"	"26.169"	"26.935"	"26.507"	"24.351"	"22.524"
"1947"	"22.931"	"23.067"	"28.469"	"32.345"	"34.272"	"31.244"	"26.059"	"26.852"	"26.607"	"25.03"	"21.947"	"20.474"
"1948"	"21.998"	"24.578"	"26.913"	"31.414"	"34.162"	"31.543"	"27.458"	"26.552"	"26.599"	"26.284"	"24.465"	"18.99"
"1949"	"20.829"	"22.903"	"28.252"	"31.118"	"32.532"	"29.487"	"26.547"	"26.816"	"26.702"	"26.001"	"22.469"	"18.448"
"1950"	"20.932"	"23.378"	"26.716"	"31.378"	"33.663"	"30.217"	"26.085"	"27.027"	"26.919"	"25.19"	"21.587"	"19.554"
"1951"	"20.623"	"23.992"	"27.856"	"30.487"	"32.354"	"30.208"	"27.359"	"26.182"	"27.581"	"27.074"	"23.276"	"20.744"
"1952"	"21.835"	"24.727"	"27.421"	"31.544"	"33.44"	"31.878"	"27.475"	"26.539"	"26.66"	"26.016"	"21.797"	"21.947"
"1953"	"21.162"	"24.455"	"29.501"	"31.117"	"35.181"	"32.567"	"27.185"	"26.111"	"27.403"	"26.18"	"22.075"	"19.747"
"1954"	"20.577"	"24.653"	"27.765"	"31.946"	"33.893"	"31.019"	"26.929"	"26.941"	"26.125"	"24.793"	"20.818"	"20.85"
"1955"	"21.192"	"24.843"	"28.507"	"30.415"	"32.287"	"30.813"	"26.734"	"26.572"	"26.51"	"25.504"	"21.003"	"19.249"
"1956"	"21.51"	"22.607"	"28.771"	"32.062"	"32.667"	"28.736"	"25.991"	"26.329"	"26.411"	"25.146"	"22.806"	"20.758"
"1957"	"22.142"	"23.526"	"26.396"	"30.17"	"32.643"	"30.779"	"26.249"	"26.43"	"27.25"	"26.637"	"22.866"	"21.287"
"1958"	"21.708"	"24.386"	"27.878"	"31.353"	"33.07"	"33.024"	"26.239"	"27.029"	"26.671"	"25.734"	"23.602"	"20.532"
"1959"	"21.52"	"24.318"	"28.044"	"31.241"	"33.604"	"30.109"	"26.442"	"25.977"	"26.429"	"25.996"	"22.12"	"20.296"
"1960"	"21.297"	"23.609"	"26.942"	"31.065"	"33.026"	"30.372"	"26.871"	"26.435"	"27.233"	"25.256"	"22.213"	"21.58"
"1961"	"21.864"	"22.991"	"29.228"	"31.582"	"32.73"	"29.558"	"26.172"	"26.523"	"25.791"	"25.261"	"21.464"	"19.49"
"1962"	"19.283"	"22.925"	"27.39"	"30.058"	"32.261"	"29.404"	"26.36"	"26.332"	"26.689"	"25.666"	"22.128"	"20.365"
"1963"	"19.766"	"23.264"	"27.538"	"29.065"	"32.511"	"29.796"	"26.795"	"26.31"	"26.813"	"25.986"	"23.121"	"20.454"
"1964"	"22.41"	"24.7"	"28.684"	"31.841"	"34.028"	"30.469"	"26.967"	"25.687"	"26.716"	"25.995"	"22.336"	"20.17"
"1965"	"21.294"	"23.753"	"27.49"	"30.516"	"33.337"	"31.007"	"26.658"	"27.241"	"26.845"	"26.389"	"23.077"	"21.591"
"1966"	"21.354"	"24.735"	"28.534"	"31.588"	"34.322"	"30.815"	"28.117"	"27.028"	"26.923"	"26.038"	"24.452"	"20.349"
"1967"	"21.601"	"24.333"	"26.769"	"30.902"	"34.044"	"31.31"	"27.386"	"26.238"	"26.678"	"25.307"	"22.555"	"22.394"
"1968"	"20.677"	"23.987"	"26.39"	"29.09"	"32.72"	"31.116"	"27.149"	"26.451"	"26.821"	"25.158"	"22.869"	"20.93"
"1969"	"21.301"	"25.439"	"29.73"	"32.51"	"32.311"	"30.891"	"26.42"	"26.58"	"26.377"	"25.771"	"23.762"	"19.929"
"1970"	"21.326"	"25.434"	"28.333"	"30.839"	"33.695"	"28.444"	"26.711"	"26.266"	"26.724"	"25.748"	"21.342"	"18.689"
"1971"	"21.372"	"24.418"	"26.642"	"30.015"	"31.129"	"27.829"	"26.79"	"26.622"	"26.934"	"25.548"	"20.681"	"18.851"
"1972"	"20.176"	"23.226"	"28.672"	"30.966"	"33.871"	"32.945"	"27.341"	"26.706"	"26.82"	"25.298"	"22.593"	"21.947"
"1973"	"22.664"	"25.401"	"28.816"	"33.36"	"35.316"	"31.292"	"26.502"	"26.295"	"26.906"	"25.845"	"21.737"	"20.175"
"1974"	"20.334"	"24.734"	"28.926"	"32.442"	"32.519"	"30.44"	"27.652"	"26.603"	"27.431"	"25.831"	"21.892"	"19.38"
"1975"	"19.957"	"24.188"	"28.482"	"32.203"	"34.584"	"29.685"	"26.609"	"26.77"	"26.406"	"26.432"	"21.233"	"18.902"
"1976"	"19.565"	"23.966"	"28.114"	"30.929"	"32.895"	"30.655"	"26.244"	"26.515"	"26.648"	"26.443"	"25.271"	"22.143"
"1977"	"21.344"	"24.968"	"29.309"	"30.439"	"31.105"	"31.239"	"27.157"	"26.23"	"26.546"	"25.606"	"24.518"	"19.725"
"1978"	"20.862"	"23.418"	"27.384"	"30.811"	"34.052"	"30.011"	"26.232"	"25.451"	"27.07"	"26.434"	"24.633"	"20.906"
"1979"	"22.503"	"23.941"	"27.779"	"31.077"	"31.991"	"31.367"	"27.507"	"26.685"	"26.982"	"26.845"	"25.201"	"21.416"
"1980"	"22.921"	"25.195"	"28.733"	"31.801"	"33.864"	"28.476"	"26.521"	"26.277"	"26.614"	"25.999"	"24.445"	"21.57"
"1981"	"20.569"	"24.728"	"27.098"	"31.136"	"31.84"	"30.544"	"26.49"	"26.145"	"26.937"	"26.202"	"22.463"	"21.128"
"1982"	"22.964"	"25.272"	"28.564"	"31.182"	"32.336"	"31.398"	"28.342"	"26.042"	"27.297"	"26.278"	"23.709"	"21.642"
"1983"	"21.931"	"24.893"	"28.986"	"31.74"	"33.093"	"32.583"	"27.969"	"27.025"	"27.151"	"25.821"	"21.714"	"20.251"
"1984"	"22.871"	"24.049"	"27.947"	"30.574"	"34.536"	"29.443"	"26.787"	"26.602"	"26.906"	"26.421"	"21.581"	"21.795"
"1985"	"23.209"	"24.121"	"29.315"	"32.111"	"33.75"	"29.811"	"26.814"	"26.573"	"27.089"	"25.172"	"22.396"	"21.81"
"1986"	"20.871"	"24.177"	"28.191"	"31.659"	"33.863"	"30.045"	"27.369"	"26.6"	"27.822"	"26.422"	"23.392"	"22.127"
"1987"	"21.83"	"23.431"	"27.241"	"31.689"	"31.654"	"31.999"	"27.368"	"27.31"	"28.283"	"26.561"	"23.733"	"21.285"
"1988"	"22.334"	"25.099"	"28.694"	"31.015"	"34.576"	"30.94"	"26.571"	"26.939"	"27.383"	"25.482"	"22.492"	"21.49"
"1989"	"21.532"	"23.842"	"27.062"	"31.766"	"34.343"	"29.576"	"27.325"	"26.627"	"27.325"	"26.305"	"23.473"	"20.778"
"1990"	"22.408"	"24.456"	"27.262"	"31.279"	"29.378"	"28.1"	"26.518"	"26.835"	"27.393"	"25.602"	"24.37"	"21.892"
"1991"	"22.344"	"25.593"	"28.993"	"31.098"	"33.56"	"29.97"	"27.243"	"26.552"	"27.692"	"26.219"	"22.65"	"20.732"
"1992"	"20.552"	"23.675"	"28.825"	"31.383"	"33.501"	"30.806"	"28.085"	"26.321"	"27.079"	"25.866"	"24.077"	"19.781"
"1993"	"21.942"	"23.243"	"27.848"	"31.446"	"33.78"	"31.229"	"27.623"	"27.021"	"27.002"	"26.577"	"22.811"	"19.679"
"1994"	"22.343"	"24.134"	"29.246"	"31.01"	"33.64"	"29.722"	"26.202"	"25.85"	"26.733"	"26.324"	"22.783"	"20.06"
"1995"	"20.114"	"23.893"	"27.737"	"30.84"	"30.724"	"32.359"	"27.212"	"27.62"	"27.529"	"25.878"	"23.354"	"21.684"
"1996"	"23.102"	"23.896"	"28.813"	"30.661"	"34.274"	"31.705"	"27.698"	"26.728"	"27.785"	"25.905"	"23.495"	"20.45"
"1997"	"20.372"	"23.218"	"28.243"	"29.361"	"32.444"	"31.549"	"27.845"	"27.007"	"27.278"	"26.125"	"25.371"	"22.946"
"1998"	"22.998"	"24.663"	"28.046"	"31.375"	"33.719"	"31.988"	"28.097"	"27.455"	"27.646"	"27.125"	"24.098"	"19.696"
"1999"	"19.828"	"25.283"	"28.607"	"33"	"32.18"	"29.694"	"27.145"	"26.307"	"26.471"	"26.503"	"22.758"	"20.308"
"2000"	"23.068"	"24.3"	"27.532"	"32.452"	"32.584"	"28.884"	"26.972"	"26.819"	"27.187"	"27.099"	"23.717"	"20.396"
"2001"	"21.855"	"25.058"	"28.858"	"30.292"	"33.483"	"28.655"	"26.845"	"26.36"	"27.971"	"26.437"	"24.673"	"20.97"
"2002"	"21.659"	"24.752"	"28.697"	"31.842"	"34.327"	"29.97"	"28.093"	"26.012"	"27.194"	"26.686"	"23.023"	"22.095"
