
"Year"	"Jan"	"Feb"	"Mar"	"Apr"	"May"	"Jun"	"Jul"	"Aug"	"Sep"	"Oct"	"Nov"	"Dec"
"1901"	"20.532"	"65.767"	"8.213"	"10.224"	"46.455"	"107.371"	"167.872"	"169.893"	"220.487"	"40.358"	"68.879"	"0"
"1902"	"9.938"	"0.214"	"2.731"	"13.717"	"34.976"	"150.635"	"274.44"	"316.655"	"231.503"	"18.697"	"3.089"	"17.588"
"1903"	"4.752"	"30.655"	"3.012"	"3.202"	"24.974"	"160.738"	"514.251"	"196.74"	"198.7"	"78.115"	"9.864"	"1.206"
"1904"	"0.193"	"4.774"	"24.549"	"0.476"	"126.005"	"239.279"	"253.569"	"481.882"	"158.132"	"75.386"	"0.149"	"3.731"
"1905"	"4.916"	"15.051"	"43.425"	"114.303"	"84.49"	"93.262"	"312.737"	"336.323"	"423.766"	"14.58"	"0.149"	"0"
"1906"	"6.15"	"55.087"	"19.433"	"0.299"	"7.42"	"252.716"	"382.388"	"198.681"	"173.102"	"64.501"	"15.013"	"1.18"
"1907"	"0.265"	"23.008"	"38.636"	"142.856"	"30.996"	"223.709"	"148.221"	"289.656"	"78.157"	"12.168"	"5.154"	"12.28"
"1908"	"14.041"	"2.592"	"4.272"	"10.683"	"38.666"	"374.797"	"222.678"	"364.152"	"191.368"	"50.587"	"0.149"	"0.266"
"1909"	"0.175"	"26.564"	"0.214"	"90.249"	"8.417"	"191.372"	"287.094"	"227.605"	"158.159"	"5.429"	"0.149"	"3.206"
"1910"	"8.523"	"1.378"	"12.912"	"13.825"	"11.875"	"213.143"	"386.624"	"525.041"	"151.344"	"77.668"	"15.511"	"0"
"1911"	"1.006"	"1.281"	"25.019"	"2.314"	"21.573"	"331.466"	"102.821"	"268.064"	"331.02"	"47.799"	"25.724"	"0"
"1912"	"0"	"54.929"	"8.069"	"19.717"	"25.17"	"101.507"	"258.68"	"287.965"	"173.854"	"38.365"	"53.694"	"0"
"1913"	"0"	"47.683"	"24.655"	"2.277"	"32.072"	"168.115"	"355.855"	"211.518"	"116.74"	"94.842"	"9.862"	"2.457"
"1914"	"0.343"	"30.68"	"16.614"	"91.984"	"44.325"	"244.2"	"214.52"	"235.859"	"278.964"	"6.722"	"0.149"	"6.325"
"1915"	"17.733"	"49.271"	"43.631"	"41.421"	"19.11"	"160.789"	"209.349"	"440.229"	"261.797"	"89.835"	"55.944"	"0"
"1916"	"0"	"5.67"	"0.214"	"4.423"	"9.131"	"292.139"	"274.916"	"280.068"	"116.821"	"109.457"	"43.667"	"0"
"1917"	"0.245"	"90.398"	"13.893"	"14.875"	"61.85"	"254.658"	"174.616"	"505.853"	"140.783"	"194.259"	"5.127"	"0"
"1918"	"11.635"	"0.214"	"14.661"	"6.243"	"46.307"	"274.968"	"210.378"	"352.907"	"209.459"	"7.658"	"1.382"	"2.541"
"1919"	"49.842"	"40.314"	"12.978"	"15.616"	"38.987"	"252.228"	"427.141"	"462.754"	"115.849"	"99.952"	"40.302"	"1.39"
"1920"	"2.988"	"11.763"	"47.844"	"1.163"	"26.785"	"120.098"	"313.233"	"341.301"	"129.443"	"50.621"	"0.149"	"0"
"1921"	"38.05"	"4.122"	"1.172"	"24.909"	"2.119"	"236.111"	"317.022"	"307.989"	"210.885"	"53.388"	"0.149"	"0"
"1922"	"6.015"	"3.597"	"0.214"	"7.308"	"10.683"	"252.813"	"231.491"	"328.083"	"272.494"	"47.25"	"27.081"	"0"
"1923"	"0"	"74.234"	"1.94"	"21.016"	"3.972"	"93.747"	"254.802"	"304.622"	"244.626"	"63.171"	"37.442"	"3.368"
"1924"	"27.022"	"9.347"	"0.474"	"16.078"	"25.028"	"73.124"	"218.427"	"263.707"	"273.452"	"75.961"	"58.276"	"0"
"1925"	"0"	"1.099"	"3.968"	"53.952"	"104.337"	"374.32"	"344.743"	"382.24"	"101.004"	"143.213"	"6.135"	"8.382"
"1926"	"9.837"	"2.894"	"75.33"	"39.564"	"45.913"	"146.897"	"262.803"	"310.811"	"278.545"	"50.992"	"1.976"	"1.426"
"1927"	"2.316"	"9.878"	"134.611"	"3.447"	"16.621"	"181.3"	"388.514"	"458.238"	"179.102"	"29.343"	"12.716"	"0"
"1928"	"0.913"	"3.529"	"1.025"	"70.942"	"64.107"	"188.319"	"337.222"	"277.472"	"232.184"	"186.989"	"2.17"	"0.259"
"1929"	"4.028"	"37.201"	"5.809"	"34.797"	"35.912"	"177.253"	"208.032"	"471.399"	"83.175"	"183.824"	"0.149"	"6.509"
"1930"	"0.245"	"5.439"	"2.983"	"44.181"	"75.044"	"181.419"	"460.221"	"255.841"	"214.299"	"44.94"	"57.89"	"1.632"
"1931"	"1.604"	"17.325"	"15.109"	"6.922"	"14.853"	"79.036"	"229.358"	"366.287"	"224.75"	"142.537"	"42.611"	"2.5"
"1932"	"0"	"26.6"	"1.101"	"78.037"	"42.119"	"71.896"	"313.592"	"316.918"	"179.302"	"33.805"	"65.764"	"0.173"
"1933"	"13.507"	"8.771"	"1.874"	"39.764"	"39.102"	"271.773"	"341.261"	"298.036"	"218.301"	"89.224"	"12.212"	"2.744"
"1934"	"1.006"	"5.591"	"3.379"	"8.548"	"3.397"	"232.007"	"318.916"	"416.497"	"161.156"	"48.492"	"17.497"	"0"
"1935"	"1.213"	"4.991"	"2.93"	"39.374"	"4.991"	"122.849"	"264.239"	"286.91"	"161.39"	"36.81"	"0.149"	"0"
"1936"	"2.597"	"78.827"	"11.183"	"11.318"	"102.359"	"419.907"	"468.646"	"351.367"	"170.609"	"115.195"	"18.118"	"1.779"
"1937"	"0"	"82.111"	"6.029"	"77.113"	"24.805"	"143.438"	"330.053"	"256.676"	"138.168"	"103.931"	"0.149"	"0"
"1938"	"6.429"	"21.729"	"1.688"	"2.941"	"117.759"	"192.142"	"162.474"	"254.634"	"387.816"	"74.834"	"11.759"	"0"
"1939"	"7.706"	"6.899"	"26.152"	"7.331"	"11.928"	"130.675"	"295.401"	"295.976"	"270.208"	"78.43"	"9.943"	"0.844"
"1940"	"0"	"33.94"	"130.697"	"29.754"	"52.04"	"237.947"	"296.167"	"437.025"	"198.006"	"41.831"	"9.638"	"2.081"
"1941"	"15.29"	"1.646"	"7.725"	"1.232"	"45.798"	"248.698"	"173.123"	"265.932"	"210.18"	"120.902"	"20.648"	"0"
"1942"	"3.654"	"42.7"	"15.534"	"57.047"	"9.07"	"112.033"	"325.498"	"379.719"	"244.377"	"39.724"	"26.24"	"0"
"1943"	"26.06"	"2.033"	"3.417"	"103.962"	"16.028"	"154.528"	"353.38"	"417.91"	"142.141"	"105.463"	"5.592"	"0"
"1944"	"16.885"	"96.367"	"125.194"	"68.921"	"20.764"	"125.186"	"316.526"	"318.41"	"164.612"	"85.237"	"3.957"	"0"
"1945"	"11.605"	"5.307"	"0.877"	"116.654"	"28.282"	"110.376"	"379.813"	"156.631"	"256.763"	"130.211"	"12.463"	"7.662"
"1946"	"0"	"5.303"	"10.27"	"35.138"	"39.988"	"252.594"	"424.117"	"450.44"	"172.064"	"103.383"	"45.806"	"0.173"
"1947"	"22.244"	"33.316"	"15.096"	"12.017"	"6.526"	"210.518"	"391.94"	"263.219"	"272.147"	"51.198"	"9.92"	"7.729"
"1948"	"10.242"	"57.165"	"12.557"	"91.461"	"20.987"	"166.086"	"256.362"	"302.074"	"252.691"	"35.761"	"70.338"	"0.173"
"1949"	"0"	"7.144"	"9.286"	"25.174"	"45.212"	"139.842"	"203.066"	"347.339"	"270.755"	"133.821"	"0.149"	"0"
"1950"	"1.034"	"26.033"	"57.76"	"35.106"	"13.215"	"152.216"	"254.811"	"212.664"	"49.863"	"45.871"	"31.535"	"1.175"
"1951"	"0.761"	"0.681"	"33.947"	"72.23"	"14.944"	"143.654"	"384.999"	"362.718"	"241.189"	"43.174"	"25.751"	"0"
"1952"	"0.452"	"5.5"	"31.889"	"73.301"	"21.141"	"181.604"	"258.36"	"247.209"	"224.523"	"107.496"	"0.149"	"4.444"
"1953"	"20.395"	"0.214"	"0.214"	"4.728"	"7.766"	"144.812"	"149.217"	"461.348"	"230.618"	"43.456"	"41.549"	"0"
"1954"	"0.824"	"18.37"	"1.423"	"1.355"	"33.888"	"201.578"	"53.036"	"111.768"	"310.851"	"77.732"	"0.149"	"4.303"
"1955"	"2.247"	"3.308"	"28.402"	"37.807"	"45.935"	"139.988"	"161.134"	"316.945"	"270.695"	"161.278"	"28.566"	"0"
"1956"	"1.739"	"31.535"	"5.856"	"31.853"	"74.774"	"311.716"	"683.426"	"563.15"	"239.943"	"93.777"	"12.24"	"0.835"
"1957"	"5.356"	"10.841"	"21.461"	"8.5"	"12.597"	"129.029"	"343.662"	"399.825"	"85.906"	"39.149"	"0.149"	"0"
"1958"	"13.014"	"33.783"	"12.808"	"106.484"	"21.352"	"113.729"	"571.057"	"265.388"	"221.885"	"142.674"	"45.793"	"0"
"1959"	"11.487"	"7.315"	"0.67"	"3.924"	"49.833"	"225.761"	"348.995"	"143.258"	"190.517"	"142.418"	"0.149"	"3.001"
"1960"	"0.661"	"0.214"	"21.598"	"7.237"	"42.641"	"185.824"	"458.753"	"331.178"	"134.254"	"54.527"	"0.299"	"1.649"
"1961"	"21.735"	"79.135"	"1.924"	"6.031"	"46.643"	"195.656"	"183.265"	"391.495"	"282.899"	"88.872"	"13.846"	"1.086"
"1962"	"3.183"	"27.097"	"2.406"	"5.442"	"9.629"	"160.3"	"480.47"	"181.043"	"212.395"	"169.169"	"2.843"	"7.297"
"1963"	"1.034"	"0.991"	"18.719"	"116.029"	"69.036"	"115.341"	"192.64"	"263.292"	"209.467"	"151.208"	"4.646"	"0"
"1964"	"0.408"	"48.979"	"11.228"	"55.58"	"34.988"	"103.504"	"251.423"	"481.582"	"220.787"	"58.866"	"8.807"	"0"
"1965"	"6.12"	"9.719"	"33.936"	"40.35"	"17.7"	"110.551"	"571.724"	"262.392"	"193.577"	"45.516"	"0.149"	"0.474"
"1966"	"50.001"	"11.318"	"0.476"	"1.183"	"7.758"	"175.989"	"131.479"	"202.839"	"207.997"	"49.336"	"39.865"	"3.796"
"1967"	"22.836"	"0.214"	"114.373"	"9.75"	"5.247"	"229.287"	"286.263"	"311.545"	"253.454"	"32.225"	"0.149"	"12.681"
"1968"	"14.677"	"33.862"	"3.174"	"2.997"	"15.079"	"201.657"	"375.698"	"182.102"	"266.868"	"93.072"	"26.524"	"0.784"
"1969"	"0"	"0.825"	"27.038"	"13.056"	"32.966"	"86.254"	"449.395"	"195.957"	"232.458"	"19.542"	"32.732"	"14.8"
"1970"	"4.104"	"35.632"	"66.33"	"6.578"	"37.807"	"299.563"	"228.235"	"321.576"	"112.521"	"46.615"	"5.171"	"0"
"1971"	"13.908"	"61.855"	"1.48"	"79.63"	"72.124"	"394.042"	"231.851"	"363.239"	"142.389"	"71.331"	"0.149"	"0"
"1972"	"1.287"	"34.586"	"0.604"	"34.627"	"8.624"	"94.351"	"201.612"	"292.659"	"265.824"	"113.812"	"34.46"	"0.173"
"1973"	"0.298"	"0.214"	"4.851"	"15.905"	"24.529"	"137.685"	"226.065"	"348.213"	"116.75"	"126.259"	"9.38"	"14.469"
"1974"	"0"	"1.127"	"67.215"	"0.931"	"29.976"	"191.503"	"265.845"	"236.416"	"123.538"	"118.713"	"16.373"	"0"
"1975"	"0.823"	"10.84"	"15.404"	"1.309"	"25.968"	"304.82"	"411.895"	"261.032"	"253.734"	"135.741"	"19.328"	"0"
"1976"	"1.557"	"1.199"	"1.275"	"102.714"	"27.895"	"89.225"	"464.537"	"346.241"	"269.737"	"34.531"	"29.951"	"0.665"
"1977"	"1.121"	"0.903"	"0.214"	"62.693"	"78.136"	"182.717"	"352.021"	"330.426"	"180.946"	"59.336"	"66.252"	"4.291"
"1978"	"7.943"	"30.984"	"31.542"	"43.597"	"36.695"	"203.256"	"395.459"	"385.895"	"197.776"	"56.097"	"19.716"	"19.335"
"1979"	"1.302"	"23.262"	"1.435"	"27.134"	"4.018"	"192.605"	"237.912"	"148.3"	"162.156"	"21.334"	"8.909"	"3.836"
"1980"	"26.12"	"27.198"	"24.841"	"13.071"	"23.57"	"304.224"	"355.317"	"328.123"	"212.287"	"53.014"	"0.149"	"6.558"
"1981"	"20.14"	"7.782"	"69.803"	"14.643"	"26.399"	"110.354"	"262.927"	"321.758"	"313.924"	"18.912"	"2.286"	"1.793"
"1982"	"2.421"	"8.822"	"34.423"	"40.516"	"22.151"	"145.424"	"293.732"	"377.554"	"169.537"	"16.789"	"26.573"	"0.244"
"1983"	"0.572"	"43.496"	"27.284"	"12.118"	"48.112"	"161.369"	"306.047"	"263.937"	"149.285"	"79.646"	"2.361"	"1.929"
"1984"	"12.473"	"17.376"	"3.322"	"20.551"	"46.013"	"337.096"	"269.109"	"294.647"	"101.62"	"42.96"	"1.566"	"0.021"
"1985"	"28.295"	"1.734"	"3.352"	"7.503"	"21.199"	"236.359"	"330.647"	"291.151"	"181.745"	"141.343"	"0.397"	"0.354"
"1986"	"25.417"	"36.904"	"2.159"	"24.044"	"23.669"	"180.962"	"335.448"	"315.109"	"213.94"	"41.599"	"64.051"	"2.881"
"1987"	"3.862"	"2.58"	"14.955"	"20.683"	"40.164"	"84.027"	"278.378"	"334.66"	"145.228"	"50.507"	"37.743"	"1.986"
"1988"	"0.55"	"19.404"	"9.876"	"27.175"	"52.879"	"114.165"	"372.486"	"252.291"	"197.233"	"41.947"	"2.843"	"0.266"
"1989"	"0"	"0.214"	"36.27"	"4.588"	"86.469"	"238.901"	"274.613"	"283.582"	"154.067"	"56.955"	"3.379"	"3.969"
"1990"	"1.197"	"74.41"	"65.152"	"11.667"	"90.293"	"247.396"	"471.096"	"377.688"	"160.369"	"174.625"	"21.578"	"1.739"
"1991"	"11.755"	"3.735"	"27.495"	"17.328"	"12.715"	"159.061"	"364.054"	"324.975"	"153.96"	"61.742"	"13.348"	"7.063"
"1992"	"8.096"	"4.231"	"0.214"	"6.647"	"87.039"	"153.243"	"371.187"	"247.651"	"142.025"	"36.744"	"16.089"	"0"
"1993"	"0.533"	"0.278"	"29.347"	"23.502"	"41.445"	"241.649"	"326.746"	"219.491"	"199.814"	"138.844"	"5.958"	"0"
"1994"	"3.264"	"16.173"	"30.767"	"18.432"	"35.089"	"193.983"	"393.34"	"314.884"	"183.291"	"127.859"	"10.207"	"0"
"1995"	"8.014"	"7.989"	"53.95"	"11.826"	"55.528"	"143.67"	"398.139"	"209.801"	"188.107"	"121.556"	"24.515"	"0"
"1996"	"7.484"	"6.418"	"11.011"	"30.756"	"13.077"	"163.626"	"258.669"	"288.643"	"83.89"	"65.394"	"15.287"	"0.047"
"1997"	"19.205"	"4.786"	"66.082"	"41.165"	"12.479"	"123.286"	"289.962"	"243.083"	"200.162"	"19.086"	"48.625"	"14.284"
"1998"	"7.531"	"52.887"	"6.912"	"19.42"	"45.397"	"165.579"	"247.58"	"150.927"	"200.799"	"168.14"	"73.994"	"0"
"1999"	"1.157"	"1.139"	"0.214"	"0.299"	"75.188"	"193.297"	"195.541"	"533.418"	"139.632"	"62.742"	"8.823"	"0"
"2000"	"0.743"	"80.095"	"0.214"	"26.597"	"39.415"	"316.714"	"212.848"	"267.899"	"102.415"	"35.227"	"5.297"	"0.055"
"2001"	"0.393"	"1.426"	"28.824"	"23.14"	"53.781"	"308.19"	"297.913"	"347.764"	"111.825"	"71.915"	"39.341"	"0.012"
"2002"	"49.694"	"5.846"	"7.588"	"30.392"	"51.819"	"164.305"	"243.715"	"366.407"	"130.872"	"32.721"	"20.646"	"0"
