
"Year"	"Jan"	"Feb"	"Mar"	"Apr"	"May"	"Jun"	"Jul"	"Aug"	"Sep"	"Oct"	"Nov"	"Dec"
"1901"	"19.714"	"21.1"	"26.791"	"31.16"	"34.185"	"32.78"	"27.499"	"25.163"	"26.627"	"26.546"	"21.823"	"19.654"
"1902"	"21.687"	"23.527"	"29.064"	"32.565"	"34.787"	"33.066"	"27.627"	"27.248"	"26.279"	"25.806"	"21.12"	"19.023"
"1903"	"20.9"	"21.372"	"26.213"	"31.008"	"32.539"	"33.396"	"27.774"	"26.176"	"26.086"	"24.625"	"20.364"	"18.8"
"1904"	"20.938"	"22.263"	"26.316"	"32.232"	"34.171"	"30.827"	"26.385"	"25.82"	"25.782"	"25.812"	"20.885"	"19.806"
"1905"	"19.577"	"19.333"	"25.615"	"29.293"	"35.451"	"33.276"	"27.219"	"26.702"	"25.999"	"25.51"	"22.651"	"18.926"
"1906"	"19.591"	"21.688"	"26.451"	"31.888"	"35.303"	"30.491"	"26.708"	"26.563"	"25.283"	"24.913"	"22.565"	"20.113"
"1907"	"20.919"	"21.668"	"26.043"	"29.326"	"32.679"	"31.689"	"28.436"	"25.011"	"27.194"	"27.378"	"23.411"	"18.592"
"1908"	"19.658"	"22.6"	"25.965"	"32.324"	"34.16"	"31.961"	"25.995"	"25.257"	"26.743"	"25.903"	"21.707"	"18.323"
"1909"	"21.478"	"22.842"	"28.3"	"29.882"	"33.883"	"30.156"	"26.159"	"26.246"	"25.638"	"25.269"	"22.128"	"19.899"
"1910"	"20.446"	"22.209"	"27.237"	"31.297"	"33.947"	"29.871"	"27.074"	"26.052"	"25.905"	"24.408"	"20.055"	"19.734"
"1911"	"21.502"	"21.528"	"25.276"	"31.224"	"35.136"	"29.727"	"27.767"	"25.813"	"25.902"	"26.134"	"22.837"	"20.092"
"1912"	"21.153"	"23.591"	"27.115"	"31.626"	"34.654"	"33.747"	"27.584"	"25.829"	"26.341"	"25.85"	"21.364"	"18.671"
"1913"	"20.003"	"23.297"	"25.926"	"32.864"	"33.172"	"29.578"	"26.802"	"25.777"	"26.807"	"26.794"	"22.189"	"19.963"
"1914"	"21.409"	"23.174"	"26.237"	"30.808"	"33.808"	"30.296"	"26.522"	"26.157"	"26.557"	"26.127"	"23.484"	"19.724"
"1915"	"20.327"	"21.628"	"26.363"	"30.696"	"34.606"	"33.608"	"28.113"	"25.877"	"26.814"	"26.193"	"23.435"	"19.36"
"1916"	"20.191"	"21.813"	"28.36"	"32.362"	"34.484"	"28.455"	"27.456"	"25.91"	"26.274"	"25.262"	"21.232"	"18.447"
"1917"	"20.339"	"21.378"	"25.877"	"29.493"	"31.637"	"29.528"	"26.092"	"26.221"	"25.619"	"24.816"	"20.44"	"19.759"
"1918"	"18.626"	"22.939"	"27.107"	"30.426"	"34.162"	"29.624"	"28.14"	"26.001"	"27.19"	"26.494"	"23.103"	"19.465"
"1919"	"21.081"	"22.479"	"27.67"	"30.82"	"33.638"	"30.189"	"26.158"	"25.453"	"26.283"	"24.811"	"22.912"	"19.324"
"1920"	"20.367"	"21.943"	"27.412"	"31.469"	"31.699"	"31.343"	"26.372"	"26.264"	"27.387"	"27.647"	"22.904"	"20.545"
"1921"	"21.496"	"22.601"	"29.091"	"33.042"	"35.164"	"30.236"	"28.199"	"25.787"	"25.377"	"25.231"	"20.949"	"20.755"
"1922"	"19.841"	"23.843"	"27.64"	"32.024"	"34.349"	"30.365"	"26.503"	"25.816"	"25.707"	"25.197"	"21.129"	"18.117"
"1923"	"20.19"	"21.801"	"27.347"	"31.589"	"33.39"	"33.778"	"26.987"	"25.278"	"26.204"	"24.435"	"21.763"	"20.585"
"1924"	"21.017"	"23.633"	"28.813"	"32.764"	"33.788"	"32.547"	"27.071"	"26.162"	"25.91"	"24.225"	"20.382"	"19.582"
"1925"	"18.483"	"21.197"	"27.261"	"32.857"	"32.539"	"29.35"	"25.646"	"26.072"	"26.68"	"26.524"	"21.996"	"18.689"
"1926"	"20.748"	"23.652"	"26.543"	"28.558"	"33.078"	"33.961"	"27.504"	"25.663"	"26.092"	"24.752"	"20.414"	"18.576"
"1927"	"20.352"	"21.778"	"25.85"	"31.164"	"33.878"	"31.36"	"26.361"	"26.049"	"26.711"	"25.115"	"19.483"	"19.853"
"1928"	"20.316"	"22.299"	"27.077"	"31.127"	"34.644"	"30.933"	"26.274"	"26.401"	"26.46"	"25.491"	"22.533"	"18.958"
"1929"	"19.722"	"21.37"	"28.203"	"31.093"	"34.832"	"30.487"	"26.456"	"26.002"	"26.571"	"25.384"	"22.464"	"19.32"
"1930"	"20.561"	"21.117"	"27.736"	"31.051"	"33.874"	"31.372"	"26.192"	"25.636"	"26.373"	"26.64"	"21.247"	"20.674"
"1931"	"21.855"	"23.053"	"27.164"	"32.971"	"34.812"	"33.04"	"27.401"	"25.967"	"25.849"	"24.354"	"21.477"	"19.267"
"1932"	"21.452"	"20.942"	"26.402"	"30.79"	"34.248"	"31.693"	"26.426"	"26.145"	"26.269"	"26.357"	"22.161"	"19.942"
"1933"	"20.347"	"23.425"	"27.617"	"30.718"	"31.314"	"29.676"	"27.308"	"25.934"	"25.582"	"25.017"	"21.984"	"19.538"
"1934"	"19.282"	"22.56"	"26.625"	"31.924"	"34.19"	"31.262"	"26.385"	"25.461"	"25.281"	"24.41"	"20.59"	"19.676"
"1935"	"18.97"	"22.124"	"26.487"	"29.106"	"34.414"	"31.505"	"25.969"	"25.469"	"25.475"	"25.607"	"22.245"	"20.395"
"1936"	"19.896"	"22.145"	"26.88"	"30.444"	"34.692"	"29.315"	"27.076"	"25.71"	"25.871"	"25.054"	"22.478"	"19.355"
"1937"	"19.089"	"22.773"	"25.887"	"30.037"	"33.735"	"31.391"	"26.094"	"26.082"	"26.064"	"24.81"	"22.765"	"19.224"
"1938"	"21.792"	"20.823"	"28.608"	"31.877"	"34.494"	"27.253"	"25.928"	"26.175"	"26.873"	"24.978"	"21.299"	"19.549"
"1939"	"21.531"	"23.595"	"25.678"	"31.052"	"34.125"	"30.685"	"26.358"	"26.252"	"25.856"	"26.042"	"21.449"	"18.899"
"1940"	"20.268"	"22.834"	"25.403"	"30.931"	"34.186"	"30.929"	"26.256"	"25.537"	"26.289"	"25.708"	"22.466"	"19.913"
"1941"	"20.141"	"22.431"	"28.506"	"32.687"	"34.893"	"32.364"	"26.877"	"25.983"	"27.01"	"27.028"	"22.727"	"21.17"
"1942"	"19.919"	"22.537"	"28.016"	"32.548"	"34.6"	"32.58"	"25.614"	"25.579"	"25.523"	"25.575"	"21.827"	"19.288"
"1943"	"21.27"	"21.149"	"27.385"	"30.829"	"34.511"	"30.26"	"26.277"	"25.225"	"25.916"	"24.453"	"23.382"	"18.549"
"1944"	"20.009"	"21.725"	"25.806"	"30.475"	"34.9"	"31.115"	"26.103"	"25.573"	"26.355"	"24.819"	"21.759"	"21.23"
"1945"	"19.092"	"21.471"	"27.152"	"30.256"	"34.231"	"31.953"	"26.402"	"26.226"	"25.747"	"25.007"	"20.79"	"18.406"
"1946"	"20.502"	"23.566"	"27.294"	"32.689"	"33.907"	"29.601"	"26.302"	"25.475"	"26.174"	"26.115"	"21.559"	"21.163"
"1947"	"19.498"	"22.501"	"27.301"	"31.256"	"34.861"	"32.142"	"26.716"	"26.714"	"25.826"	"24.216"	"22.48"	"20.392"
"1948"	"20.307"	"21.887"	"26.988"	"32.516"	"35.644"	"30.805"	"26.633"	"25.761"	"25.487"	"26.46"	"22.248"	"18.712"
"1949"	"21.078"	"21.958"	"28.012"	"32.56"	"34.592"	"30.408"	"26.793"	"26.694"	"25.723"	"25.475"	"21.056"	"19.79"
"1950"	"21.042"	"21.455"	"26.33"	"31.493"	"34.6"	"32.215"	"26.86"	"26.567"	"26.278"	"25.275"	"20.802"	"19.587"
"1951"	"19.303"	"22.315"	"27.58"	"30.47"	"34.555"	"31.712"	"28.318"	"25.745"	"26.959"	"27.389"	"23.335"	"19.133"
"1952"	"21.168"	"24.288"	"26.747"	"32.786"	"35.372"	"31.445"	"27.242"	"25.358"	"26.945"	"26.382"	"21.625"	"21.697"
"1953"	"19.931"	"25.168"	"29.986"	"32.355"	"34.738"	"32.74"	"26.978"	"25.835"	"26.82"	"25.511"	"21.822"	"20.477"
"1954"	"19.316"	"23.888"	"27.729"	"32.549"	"35.638"	"31.823"	"27.218"	"26.221"	"24.943"	"23.953"	"21.763"	"19.962"
"1955"	"20.97"	"24.037"	"29.143"	"30.075"	"34.28"	"30.837"	"26.975"	"25.682"	"25.87"	"24.382"	"20.594"	"19.505"
"1956"	"20.971"	"22.859"	"28.293"	"32.225"	"34.034"	"29.046"	"25.618"	"25.534"	"25.919"	"24.959"	"20.939"	"20.18"
"1957"	"20.638"	"21.449"	"25.752"	"30.803"	"33.325"	"31.97"	"26.801"	"26.173"	"26.114"	"25.963"	"23.987"	"21.852"
"1958"	"21.755"	"22.902"	"27.711"	"32.919"	"35.062"	"33.267"	"26.579"	"26.544"	"25.681"	"25.083"	"23.104"	"20.482"
"1959"	"21.058"	"22.856"	"28.483"	"32.054"	"34.681"	"31.757"	"26.301"	"25.445"	"25.639"	"25.84"	"22.67"	"20.685"
"1960"	"19.551"	"24.158"	"26.487"	"31.733"	"34.525"	"31.201"	"27.112"	"24.925"	"26.594"	"25.095"	"21.748"	"21.52"
"1961"	"20.905"	"20.798"	"28.538"	"31.728"	"34.087"	"30.503"	"26.058"	"25.85"	"24.884"	"24.054"	"21.869"	"18.966"
"1962"	"18.659"	"22.263"	"26.268"	"30.692"	"33.746"	"31.535"	"27.108"	"25.895"	"25.335"	"24.171"	"22.413"	"20.129"
"1963"	"19.336"	"23.356"	"26.307"	"29.443"	"32.933"	"29.779"	"26.53"	"25.071"	"25.874"	"25.729"	"23.871"	"20.307"
"1964"	"19.961"	"23.004"	"28.893"	"33.098"	"33.681"	"31.214"	"27.032"	"25.496"	"26.257"	"26.34"	"21.796"	"20.245"
"1965"	"21.1"	"22.746"	"26.776"	"30.732"	"34.581"	"31.663"	"27.014"	"26.479"	"25.852"	"26.274"	"22.508"	"20.068"
"1966"	"19.883"	"23.796"	"26.33"	"30.975"	"32.785"	"31.323"	"28.552"	"26.124"	"27.024"	"27.269"	"24.332"	"19.959"
"1967"	"20.347"	"24.234"	"26.221"	"30.638"	"34.606"	"31.141"	"27.169"	"25.702"	"25.834"	"26.847"	"23.55"	"20.997"
"1968"	"19.457"	"21.907"	"27.218"	"29.972"	"32.939"	"30.828"	"26.957"	"25.14"	"27.196"	"25.36"	"22.669"	"20.4"
"1969"	"20.575"	"24.082"	"29.292"	"31.703"	"34.08"	"31.03"	"26.483"	"25.005"	"25.325"	"27.016"	"24.219"	"20.439"
"1970"	"20.869"	"23.728"	"27.841"	"33.385"	"35.266"	"29.336"	"27.52"	"25.669"	"25.689"	"25.36"	"21.131"	"19.087"
"1971"	"20.158"	"23.206"	"26.782"	"32.278"	"32.381"	"28.662"	"26.486"	"26.302"	"26.503"	"25.346"	"21.705"	"18.771"
"1972"	"20.232"	"21.775"	"28.932"	"31.101"	"34.247"	"31.912"	"27.637"	"25.556"	"26.061"	"26.098"	"22.533"	"21.311"
"1973"	"20.895"	"23.626"	"28.23"	"33.685"	"35.455"	"31.584"	"25.893"	"25.853"	"25.683"	"25.405"	"21.356"	"20.139"
"1974"	"19.382"	"22.5"	"28.085"	"32.081"	"33.029"	"31.295"	"27.624"	"25.488"	"27.738"	"25.656"	"20.952"	"19.359"
"1975"	"18.382"	"22.581"	"26.856"	"32.358"	"34.4"	"30.325"	"26.106"	"25.801"	"25.565"	"25.72"	"20.17"	"18.858"
"1976"	"19.917"	"23.158"	"27.425"	"31.224"	"33.833"	"29.777"	"27.033"	"25.606"	"25.872"	"26.611"	"25.081"	"21.524"
"1977"	"20.311"	"23.68"	"29.577"	"31.499"	"32.786"	"31.265"	"27.099"	"25.697"	"25.832"	"26.009"	"23.863"	"19.952"
"1978"	"19.593"	"22.117"	"26.048"	"31.325"	"35.485"	"30.234"	"26.042"	"25.047"	"26.756"	"26.54"	"24.566"	"19.365"
"1979"	"21.493"	"21.529"	"26.288"	"31.599"	"32.53"	"32.026"	"26.984"	"25.333"	"27.633"	"27.464"	"24.87"	"20.791"
"1980"	"21.588"	"23.838"	"27.975"	"32.999"	"34.451"	"29.145"	"26.869"	"25.294"	"27.324"	"27.089"	"24.396"	"19.913"
"1981"	"19.043"	"24.014"	"26.648"	"31.567"	"33.885"	"32.096"	"25.784"	"25.739"	"26.618"	"26.239"	"21.663"	"19.599"
"1982"	"21.643"	"22.164"	"26.12"	"30.849"	"32.705"	"32.008"	"27.872"	"25.885"	"26.884"	"26.809"	"23.499"	"22.044"
"1983"	"20.583"	"22.433"	"27.309"	"30.57"	"34.131"	"32.727"	"27.76"	"26.629"	"26.178"	"24.876"	"21.03"	"19.423"
"1984"	"20.641"	"21.238"	"28.06"	"31.955"	"35.32"	"30.726"	"27.574"	"25.021"	"26.114"	"26.308"	"22.224"	"21.136"
"1985"	"21.973"	"23.044"	"29.368"	"31.776"	"34.63"	"30.805"	"27.215"	"25.622"	"27.252"	"24.718"	"22.47"	"21.563"
"1986"	"21.006"	"23.079"	"27.793"	"31.946"	"34.155"	"30.771"	"26.285"	"25.437"	"27.863"	"26.525"	"22.945"	"20.527"
"1987"	"21.001"	"23.673"	"27.541"	"32.249"	"32.917"	"32.306"	"27.954"	"26.969"	"27.975"	"26.64"	"23.963"	"20.302"
"1988"	"22.203"	"24.716"	"28.026"	"32.234"	"35.598"	"31.403"	"26.695"	"26.871"	"27.334"	"25.367"	"22.544"	"20.148"
"1989"	"20.144"	"22.816"	"26.537"	"31.118"	"34.755"	"29.973"	"27.052"	"25.128"	"26.559"	"26.194"	"23.926"	"19.847"
"1990"	"22.056"	"22.916"	"25.846"	"31.988"	"31.9"	"28.571"	"25.968"	"26.307"	"26.105"	"25.801"	"23.375"	"20.65"
"1991"	"19.76"	"24.281"	"28.181"	"31.049"	"35.104"	"30.61"	"27.181"	"25.545"	"27.349"	"26.728"	"22.806"	"20.073"
"1992"	"21.172"	"22.351"	"28.712"	"31.686"	"33.959"	"32.391"	"28.359"	"25.671"	"26.158"	"25.897"	"22.537"	"20.186"
"1993"	"21.414"	"22.581"	"25.923"	"31.756"	"35.405"	"32.597"	"27.116"	"25.986"	"25.989"	"26.343"	"22.645"	"19.27"
"1994"	"21.183"	"22.292"	"28.397"	"30.022"	"35.04"	"29.671"	"25.601"	"25.17"	"26.087"	"26.253"	"22.636"	"19.746"
"1995"	"18.2"	"22.587"	"26.036"	"30.862"	"33.643"	"33.649"	"27.564"	"26.684"	"27.015"	"26.803"	"23.233"	"22.126"
"1996"	"21.927"	"23.96"	"28.956"	"31.968"	"34.936"	"32.213"	"27.88"	"25.985"	"26.753"	"25.321"	"22.548"	"19.778"
"1997"	"19.111"	"21.627"	"27.685"	"29.258"	"32.535"	"29.851"	"26.564"	"26.212"	"26.196"	"25.381"	"24.156"	"19.855"
"1998"	"20.308"	"22.605"	"26.389"	"32.121"	"35.561"	"32.869"	"27.675"	"27.073"	"26.997"	"26.96"	"23.094"	"20.135"
"1999"	"19.983"	"23.518"	"27.982"	"33.001"	"33.74"	"29.729"	"27.01"	"25.722"	"25.579"	"25.606"	"23.192"	"19.672"
"2000"	"21.321"	"21.989"	"26.767"	"33.453"	"32.794"	"29.751"	"26.233"	"27.087"	"27.105"	"27.991"	"24.665"	"21.144"
"2001"	"20.886"	"24.47"	"28.113"	"30.621"	"34.288"	"29.096"	"26.359"	"26.268"	"27.824"	"26.671"	"23.807"	"22.588"
"2002"	"20.308"	"24.402"	"28.271"	"32.767"	"35.027"	"30.71"	"28.233"	"25.114"	"26.051"	"26.854"	"23.257"	"22.241"
