
"Year"	"Jan"	"Feb"	"Mar"	"Apr"	"May"	"Jun"	"Jul"	"Aug"	"Sep"	"Oct"	"Nov"	"Dec"
"1901"	"23.397"	"63.844"	"33.563"	"61.56"	"13.665"	"143.611"	"237.044"	"368.424"	"127.879"	"3.565"	"2.611"	"0.147"
"1902"	"2.451"	"0.165"	"0"	"1.259"	"2.396"	"51.065"	"293.745"	"269.313"	"123.912"	"18.605"	"7.375"	"35.165"
"1903"	"0.51"	"2.415"	"0.084"	"1.772"	"64.962"	"175.538"	"683.32"	"387.69"	"159.154"	"98.679"	"0.534"	"5.738"
"1904"	"1.423"	"4.031"	"30.058"	"0.054"	"13.64"	"203.523"	"159.83"	"281.4"	"194.612"	"38.93"	"0.002"	"4.17"
"1905"	"4.67"	"15.35"	"6.186"	"31.386"	"11.119"	"171.643"	"244.35"	"412.791"	"484.148"	"0.821"	"0"	"0.174"
"1906"	"6.517"	"17.625"	"14.594"	"0.054"	"17.114"	"422.155"	"398.35"	"456.298"	"114.132"	"5.777"	"1.288"	"8.844"
"1907"	"1.832"	"45.552"	"1.528"	"50.073"	"2.99"	"286.311"	"243.25"	"397.285"	"126.799"	"0.713"	"9.804"	"2.682"
"1908"	"7.836"	"5.987"	"12.666"	"0.517"	"3.641"	"269.928"	"393.456"	"376.643"	"254.11"	"5.02"	"0"	"5.559"
"1909"	"0.537"	"10.484"	"1.42"	"45.764"	"52.935"	"176.656"	"580.948"	"227.15"	"106.141"	"4.533"	"0"	"75.562"
"1910"	"0.155"	"0.147"	"0"	"1.043"	"26.983"	"359.604"	"377.153"	"347.857"	"295.25"	"67.858"	"48.462"	"0.147"
"1911"	"6.514"	"0.218"	"5.681"	"0.08"	"4.93"	"376.802"	"181.817"	"519.857"	"196.634"	"38.15"	"34.633"	"0.154"
"1912"	"0.973"	"90.484"	"0"	"30.569"	"6.352"	"27.578"	"532.262"	"543.196"	"128.369"	"2.885"	"9.07"	"0.575"
"1913"	"0"	"49.16"	"29.835"	"2.455"	"36.81"	"268.111"	"338.375"	"422.116"	"185.15"	"9.336"	"0.011"	"20.692"
"1914"	"0"	"14.633"	"13.835"	"74.126"	"37.171"	"205.477"	"414.906"	"378.379"	"339.89"	"3.772"	"0.93"	"7.296"
"1915"	"30.711"	"12.851"	"37.21"	"66.523"	"6.977"	"204.73"	"431.756"	"259.8"	"247.357"	"85.896"	"2.037"	"1.624"
"1916"	"0"	"29.353"	"0.442"	"3.283"	"21.415"	"194.478"	"342.609"	"386.384"	"270.265"	"185.222"	"15.695"	"0.147"
"1917"	"0"	"79.687"	"19.552"	"6.484"	"49.466"	"234.361"	"241.335"	"217.706"	"289.052"	"101.565"	"0.015"	"0.147"
"1918"	"8.171"	"9.077"	"3.403"	"1.618"	"52.59"	"266.483"	"235.507"	"325.8"	"70.219"	"6.814"	"35.687"	"33.902"
"1919"	"64.773"	"89.471"	"16.461"	"2.474"	"13.845"	"467.733"	"375.489"	"511.479"	"93.824"	"109.024"	"9.937"	"3.787"
"1920"	"8.994"	"0.154"	"13.247"	"16.642"	"5.188"	"121.285"	"329.397"	"151.022"	"136.59"	"2.372"	"0"	"0.147"
"1921"	"9.371"	"0.189"	"0"	"1.605"	"0.095"	"180.21"	"209.271"	"334.389"	"214.475"	"3.337"	"0.189"	"0.147"
"1922"	"15.792"	"0.995"	"0"	"4.331"	"5.072"	"191.248"	"358.448"	"164.31"	"367.286"	"5.978"	"31.16"	"0.147"
"1923"	"0.044"	"14.382"	"30.322"	"11.285"	"0.996"	"38.862"	"506.011"	"300.033"	"322.766"	"13.298"	"0.666"	"0.147"
"1924"	"15.667"	"0.803"	"4.108"	"14.168"	"2.245"	"42.59"	"310.86"	"193.739"	"269.806"	"101.162"	"36.198"	"1.679"
"1925"	"0"	"0.147"	"3.59"	"3.832"	"64.302"	"223.736"	"336.687"	"603.682"	"113.598"	"55.646"	"44.957"	"1.234"
"1926"	"48.625"	"0.35"	"49.94"	"73.467"	"54.049"	"52.278"	"520.15"	"514.535"	"140.576"	"47.391"	"0.418"	"9.889"
"1927"	"1.319"	"48.59"	"16.33"	"2.537"	"9.511"	"353.006"	"477.003"	"347.019"	"128.985"	"47.891"	"55.763"	"2.359"
"1928"	"1.032"	"46.858"	"5.911"	"0.792"	"5.239"	"142.705"	"374.835"	"124.412"	"267.545"	"72.535"	"0"	"1.794"
"1929"	"3.303"	"51.143"	"0.15"	"7.728"	"0.907"	"153.576"	"310.69"	"262.567"	"205.939"	"43.893"	"0"	"42.266"
"1930"	"0"	"3.469"	"3.685"	"68.816"	"4.504"	"201.283"	"313.408"	"183.607"	"154.875"	"40.431"	"7.034"	"2.596"
"1931"	"7.416"	"2.118"	"35.585"	"5.854"	"8.412"	"135.625"	"482.521"	"385.1"	"211.632"	"190.053"	"35.064"	"0.47"
"1932"	"0"	"33.218"	"6.674"	"12.889"	"20.176"	"254.742"	"577.231"	"239.494"	"198.048"	"19.747"	"5.121"	"0.147"
"1933"	"3.14"	"58.223"	"28.441"	"22.672"	"64.166"	"187.138"	"570.881"	"487.397"	"327.954"	"62.162"	"12.732"	"5.767"
"1934"	"0.895"	"0.147"	"0.214"	"31.869"	"0.082"	"191.067"	"287.091"	"427.916"	"284.453"	"32.406"	"21.517"	"0.728"
"1935"	"13.236"	"7.932"	"0.397"	"37.844"	"0.822"	"205.984"	"504.739"	"242.393"	"174.576"	"3.918"	"0"	"2.871"
"1936"	"5.763"	"68.955"	"15.419"	"9.427"	"16.679"	"351.729"	"404.302"	"386.941"	"213.288"	"134.509"	"36.829"	"14.269"
"1937"	"0"	"59.769"	"57.297"	"77.028"	"8.366"	"192.406"	"587.186"	"395.219"	"244.321"	"104.737"	"0"	"2.067"
"1938"	"4.178"	"8.922"	"5.756"	"27.652"	"37.924"	"320.494"	"450.516"	"353.187"	"198.567"	"104.603"	"1.295"	"0.147"
"1939"	"2.097"	"1.157"	"36.917"	"10.706"	"0.088"	"134.139"	"338.5"	"374.796"	"84.892"	"25.361"	"0.892"	"0.148"
"1940"	"0"	"13.792"	"2.6"	"7.881"	"8.983"	"413.548"	"682.985"	"483.115"	"67.66"	"75.01"	"7.502"	"8.019"
"1941"	"3.168"	"18.702"	"32.092"	"3.431"	"5.132"	"152.922"	"449.959"	"188.405"	"161.967"	"6.882"	"0.891"	"0.147"
"1942"	"2.668"	"101.008"	"0.026"	"13.305"	"1.608"	"140.159"	"582.256"	"474.874"	"324.11"	"9.446"	"0.157"	"11.421"
"1943"	"59.918"	"0.148"	"1.124"	"17.087"	"15.636"	"144.123"	"258.898"	"212.082"	"230.196"	"76.032"	"0.403"	"0.147"
"1944"	"7.184"	"104.502"	"80.031"	"2.776"	"7.075"	"162.031"	"609.462"	"355.641"	"153.535"	"52.55"	"2.341"	"0.147"
"1945"	"16.863"	"0.147"	"0"	"51.388"	"4.291"	"175.253"	"559.751"	"307.485"	"232.295"	"34.182"	"1.529"	"1.214"
"1946"	"0"	"29.915"	"4.302"	"36.584"	"7.638"	"302.048"	"427.938"	"387.704"	"96.041"	"9.667"	"22.562"	"11.634"
"1947"	"50.754"	"42.119"	"18.033"	"2.241"	"8.02"	"131.767"	"502.853"	"481.48"	"158.926"	"6.449"	"1.196"	"2.563"
"1948"	"62.963"	"17.996"	"13.803"	"2.774"	"2.421"	"137.772"	"456.59"	"313.639"	"206.791"	"23.519"	"55.38"	"0.147"
"1949"	"0.994"	"2.85"	"0.389"	"5.928"	"15.828"	"152.772"	"451.962"	"222.18"	"199.927"	"143.234"	"0"	"0.641"
"1950"	"0.017"	"22.191"	"19.655"	"0.686"	"7.332"	"103.478"	"317.243"	"176.299"	"105.326"	"7.654"	"3.168"	"0.542"
"1951"	"3.425"	"0.534"	"80.011"	"28.01"	"18.097"	"106.77"	"338.033"	"397.125"	"176.465"	"104.208"	"0.035"	"0.147"
"1952"	"0"	"11.717"	"10.013"	"6.018"	"1.905"	"79.838"	"171.872"	"269.731"	"112.237"	"15.224"	"0"	"4.349"
"1953"	"5.852"	"5.34"	"0"	"19.892"	"1.175"	"124.812"	"217.627"	"466.122"	"171.434"	"59.554"	"0.291"	"0.147"
"1954"	"0.017"	"0.259"	"8.014"	"40.534"	"1.792"	"194.506"	"471.775"	"424.986"	"293.654"	"8.191"	"0"	"0.317"
"1955"	"16.016"	"0.235"	"4.827"	"36.71"	"1.219"	"277.009"	"335.3"	"503.862"	"218.521"	"160.723"	"0.245"	"0.147"
"1956"	"0"	"2.765"	"3.461"	"0.118"	"54.121"	"220.438"	"397.253"	"251.545"	"299.613"	"28.644"	"42.359"	"1.129"
"1957"	"9.165"	"3.191"	"37.31"	"80.855"	"4.497"	"134.927"	"343.999"	"443.024"	"75.463"	"16.624"	"0"	"0.763"
"1958"	"1.623"	"1.976"	"1.701"	"25.313"	"2.136"	"99.639"	"369.206"	"338.185"	"219.356"	"72.996"	"7.517"	"0.147"
"1959"	"15.319"	"1.875"	"0.598"	"16.068"	"9.747"	"308.568"	"531.137"	"359.833"	"330.559"	"79.572"	"0.162"	"0.964"
"1960"	"49.794"	"0.147"	"26.865"	"21.319"	"5.604"	"135.97"	"431.747"	"412.547"	"158.266"	"37.72"	"0"	"0.147"
"1961"	"8.586"	"11.623"	"4.074"	"9.551"	"28.778"	"130.671"	"343.235"	"443.254"	"449.997"	"132.911"	"2.026"	"12.356"
"1962"	"3.339"	"12.184"	"19.587"	"60.953"	"35.312"	"60.716"	"342.14"	"320.262"	"378.082"	"1.346"	"8.074"	"112.696"
"1963"	"0"	"19.506"	"3.947"	"41.176"	"7.048"	"180.733"	"247.774"	"382.889"	"112.75"	"78.007"	"0"	"0.147"
"1964"	"0"	"9.12"	"5.731"	"3.923"	"0.584"	"107.037"	"188.058"	"527.294"	"203.873"	"31.783"	"3.44"	"0.147"
"1965"	"15.363"	"21.449"	"24.488"	"22.58"	"2.223"	"257.511"	"250.817"	"189.979"	"182.055"	"0.786"	"0"	"0.147"
"1966"	"22.162"	"0.147"	"8.472"	"4.545"	"87.441"	"85.003"	"422.25"	"253.526"	"196.477"	"2.915"	"15.708"	"34.259"
"1967"	"0.025"	"0.147"	"67.307"	"2.455"	"3.393"	"201.552"	"478.746"	"167.785"	"99.708"	"2.482"	"0"	"95.059"
"1968"	"16.233"	"55.384"	"28.629"	"51.023"	"1.503"	"148.289"	"349.716"	"161.742"	"289.558"	"10.256"	"1.123"	"18.092"
"1969"	"0.178"	"0.147"	"1.004"	"3.42"	"7.897"	"110.53"	"497.889"	"191.468"	"276.126"	"5.653"	"1.704"	"15.635"
"1970"	"11.17"	"6.997"	"48.799"	"7.383"	"30.027"	"318.204"	"359.163"	"579.952"	"264.56"	"1.173"	"0"	"0.147"
"1971"	"8.164"	"4.828"	"21.075"	"12.691"	"24.831"	"265.478"	"152.327"	"113.555"	"190.722"	"109.676"	"0"	"0.147"
"1972"	"0"	"7.493"	"0"	"2.481"	"1.37"	"92.225"	"263.993"	"244.814"	"41.389"	"18.771"	"15.909"	"0.585"
"1973"	"0.079"	"2.626"	"0.705"	"2.343"	"0.257"	"70.477"	"363.08"	"276.174"	"188.114"	"192.969"	"0"	"0.196"
"1974"	"0"	"4.297"	"0.519"	"0.75"	"2.605"	"177.966"	"343.345"	"298.97"	"78.963"	"197.827"	"20.621"	"0.147"
"1975"	"2.855"	"25.809"	"18.359"	"1.081"	"1.753"	"359.569"	"400.39"	"364.279"	"323.498"	"96.038"	"0.035"	"0.147"
"1976"	"4.27"	"0.147"	"16.748"	"13.113"	"23.298"	"81.77"	"450.813"	"346.995"	"259.405"	"0.431"	"32.88"	"0.73"
"1977"	"0.085"	"0.695"	"5.841"	"11.016"	"9.214"	"156.772"	"379.13"	"377.874"	"207.507"	"15.611"	"52.262"	"8.858"
"1978"	"21.484"	"42.27"	"36.755"	"19.074"	"5.161"	"194.801"	"325.157"	"403.906"	"72.265"	"4.096"	"23.128"	"31.252"
"1979"	"41.889"	"78.795"	"0"	"2.62"	"14.147"	"169.983"	"324.291"	"374.276"	"155.403"	"7.611"	"11.123"	"11.954"
"1980"	"0.48"	"0.64"	"0.606"	"11.961"	"0.938"	"195.921"	"272.299"	"345.758"	"145.328"	"2.544"	"0"	"23.488"
"1981"	"22.737"	"0.157"	"33.733"	"4.48"	"9.36"	"209.221"	"312.573"	"365.092"	"393.244"	"27.407"	"0"	"6.496"
"1982"	"50.553"	"24.645"	"3.144"	"35.217"	"14.891"	"114.328"	"307.287"	"151.944"	"243.061"	"20.972"	"4.582"	"0.147"
"1983"	"5.977"	"3.855"	"1.157"	"7.942"	"23.783"	"158.821"	"474.972"	"337.452"	"277.933"	"60.274"	"0.089"	"14.211"
"1984"	"49.428"	"47.616"	"0.332"	"7.875"	"4.061"	"103.863"	"309.251"	"270.259"	"79.858"	"25.233"	"0"	"0.147"
"1985"	"21.588"	"4.118"	"2.166"	"12.231"	"12.442"	"192.955"	"413.586"	"349.399"	"101.974"	"260.623"	"0"	"3.629"
"1986"	"27.679"	"40.633"	"0.835"	"2.894"	"17.162"	"203.51"	"241.747"	"342.426"	"120.896"	"7.409"	"11.525"	"53.343"
"1987"	"8.198"	"8.364"	"21.08"	"0.786"	"15.965"	"125.901"	"281.325"	"370.799"	"36.45"	"53.172"	"41.343"	"8.291"
"1988"	"0.085"	"1.459"	"6.784"	"35.864"	"2.486"	"165.886"	"287.21"	"328.177"	"266.042"	"34.634"	"14.416"	"2.717"
"1989"	"0"	"0.147"	"55.704"	"0.281"	"4.687"	"170.916"	"284.961"	"284.856"	"118.554"	"9.594"	"0.153"	"27.855"
"1990"	"0.823"	"23.202"	"18.287"	"0.49"	"68.612"	"279.468"	"317.418"	"435.103"	"105.214"	"73.853"	"1.504"	"26.223"
"1991"	"19.914"	"5.044"	"1.556"	"13.657"	"2.579"	"201.358"	"430.861"	"334.565"	"37.527"	"6.079"	"5.096"	"1.065"
"1992"	"1.083"	"5.658"	"0"	"9.353"	"7.799"	"95.673"	"268.065"	"437.757"	"264.053"	"28.469"	"6.509"	"0.147"
"1993"	"0.062"	"20.545"	"58.205"	"4.221"	"20.327"	"185.023"	"461.499"	"255.253"	"304.943"	"63.785"	"0"	"2.875"
"1994"	"28.18"	"56.245"	"20.638"	"12.633"	"6.834"	"149.298"	"724.601"	"398.008"	"297.607"	"127.545"	"1.272"	"0.147"
"1995"	"39.388"	"0.979"	"76.737"	"12.916"	"8.518"	"180.928"	"426.736"	"307.24"	"269.196"	"39.554"	"1.431"	"0.348"
"1996"	"1.527"	"11.776"	"5.091"	"41.102"	"0.37"	"33.057"	"307.006"	"292.026"	"145.39"	"52.554"	"15.25"	"0.147"
"1997"	"21.976"	"0.147"	"6.074"	"10.465"	"9.902"	"79.274"	"260.712"	"237.686"	"225.024"	"74.61"	"46.188"	"93.658"
"1998"	"22.561"	"46.009"	"31.273"	"12.945"	"16.549"	"101.209"	"247.198"	"334.728"	"203.732"	"50.813"	"56.368"	"0.147"
"1999"	"1.138"	"21.042"	"0"	"0.243"	"35.081"	"115.749"	"281.053"	"408.347"	"246.488"	"93.718"	"0"	"0.147"
"2000"	"0.062"	"31.923"	"0"	"1.237"	"38.089"	"175.603"	"425.077"	"210.595"	"92.127"	"17.384"	"0"	"0.282"
"2001"	"3.778"	"0.147"	"15.612"	"33.339"	"30.675"	"268.811"	"308.062"	"344.01"	"109.681"	"132.675"	"2.321"	"0.147"
"2002"	"15.1"	"16.548"	"1.641"	"8.95"	"31.834"	"310.744"	"151.566"	"366.003"	"131.111"	"27.367"	"0.175"	"0.183"
