
"Year"	"Jan"	"Feb"	"Mar"	"Apr"	"May"	"Jun"	"Jul"	"Aug"	"Sep"	"Oct"	"Nov"	"Dec"
"1901"	"33.733"	"1.269"	"8.893"	"1.011"	"7.362"	"52.439"	"416.493"	"423.138"	"90.635"	"24.312"	"0.199"	"0.568"
"1902"	"9.227"	"1.601"	"0"	"2.78"	"0.986"	"32.219"	"358.94"	"145.832"	"236.308"	"12.813"	"127.778"	"7.102"
"1903"	"2.355"	"0"	"0"	"0"	"12.042"	"47.45"	"361.349"	"267.296"	"355.174"	"26.156"	"0.199"	"0"
"1904"	"0.203"	"6.526"	"22.358"	"0"	"20.412"	"74.295"	"386.315"	"153.161"	"112.128"	"8.752"	"1.467"	"10.139"
"1905"	"1.546"	"4.85"	"1.427"	"0"	"3.935"	"19.251"	"330.596"	"163.165"	"283.703"	"0.199"	"0.281"	"1.156"
"1906"	"0"	"3.986"	"1.746"	"0"	"1.962"	"144.995"	"474.129"	"183.08"	"388.407"	"1.38"	"0.199"	"6.772"
"1907"	"17.263"	"19.282"	"0.607"	"10.012"	"4.018"	"76.3"	"265.054"	"405.416"	"16.01"	"0.199"	"11.976"	"0"
"1908"	"4.922"	"0"	"10.546"	"2.942"	"0.187"	"83.631"	"454.723"	"406.022"	"87.919"	"0.732"	"4.773"	"0.3"
"1909"	"5.652"	"4.174"	"0"	"7.898"	"6.954"	"162.733"	"298.342"	"310.291"	"231.578"	"0.199"	"0.199"	"19.072"
"1910"	"0.788"	"0.016"	"0"	"1.423"	"5.076"	"135.284"	"176.027"	"318.391"	"282.776"	"17.669"	"34.681"	"0"
"1911"	"6.085"	"0"	"7.936"	"0"	"0"	"154.603"	"180.213"	"196.355"	"240.253"	"4.122"	"73.056"	"0.709"
"1912"	"1.014"	"5.365"	"0"	"1.472"	"0.319"	"41.316"	"369.601"	"273.938"	"120.837"	"0.626"	"101.319"	"0.867"
"1913"	"0"	"3.899"	"2.32"	"0"	"17.384"	"139.151"	"286.029"	"151.939"	"155.463"	"0.199"	"0.199"	"15.817"
"1914"	"0"	"0.948"	"10.889"	"2.521"	"29.635"	"116.844"	"446.377"	"175.286"	"281.394"	"0.496"	"5.98"	"4.625"
"1915"	"4.784"	"19.536"	"29.539"	"11.526"	"10.087"	"92.045"	"270.808"	"310.982"	"209.669"	"56.305"	"2.676"	"4.07"
"1916"	"0"	"6.875"	"0"	"1.308"	"7.473"	"107.738"	"322.241"	"315.846"	"277.498"	"48.15"	"19.788"	"0"
"1917"	"6.213"	"12.299"	"2.536"	"1.643"	"39.078"	"97.929"	"299.376"	"313.753"	"374.163"	"27.365"	"0.199"	"0.234"
"1918"	"0.584"	"1.138"	"0.386"	"0"	"20.416"	"113.997"	"199.486"	"185.588"	"97.088"	"0.349"	"26.106"	"3.847"
"1919"	"29.905"	"0.191"	"0"	"14.584"	"12.831"	"122.227"	"334.94"	"538.618"	"122.246"	"40.268"	"23.051"	"2.642"
"1920"	"5.904"	"0.452"	"0.171"	"0.106"	"26.893"	"114.441"	"358.125"	"114.401"	"96.095"	"0.199"	"0.199"	"0"
"1921"	"7.66"	"1.363"	"0"	"0"	"0"	"199.638"	"238.01"	"284.227"	"297.09"	"0.817"	"0.199"	"0"
"1922"	"16.31"	"3.464"	"0.31"	"0"	"1.255"	"134.529"	"410.653"	"131.815"	"325.441"	"2.31"	"39.97"	"7.506"
"1923"	"2.411"	"0.908"	"8.005"	"2.731"	"7.259"	"17.533"	"607.051"	"412.28"	"332.924"	"9.864"	"2.619"	"10.219"
"1924"	"9.179"	"0.279"	"0"	"0"	"9.571"	"55.887"	"283.923"	"281.725"	"247.549"	"31.305"	"0.246"	"7.696"
"1925"	"0"	"0"	"0"	"0"	"33.88"	"96.703"	"428.51"	"253.856"	"100.92"	"3.703"	"62.601"	"1.096"
"1926"	"5.011"	"1.902"	"11.307"	"6.616"	"26.569"	"23.198"	"270.21"	"478.763"	"272.702"	"13.192"	"5.924"	"1.536"
"1927"	"0"	"4.996"	"11.613"	"5.613"	"0.14"	"75.748"	"484.407"	"137.749"	"156.915"	"37.441"	"137.968"	"15.112"
"1928"	"2.328"	"29.644"	"2.799"	"2.582"	"1.286"	"63.365"	"438.95"	"151.764"	"187.357"	"34.929"	"2.023"	"93.986"
"1929"	"4.707"	"9.415"	"0"	"14.268"	"0"	"111.084"	"423.441"	"298.119"	"96.138"	"3.632"	"0.199"	"17.512"
"1930"	"0.523"	"1.098"	"0"	"3.366"	"7.823"	"119.888"	"482.111"	"177.579"	"235.66"	"3.819"	"8.232"	"0"
"1931"	"1.394"	"3.491"	"0"	"0"	"2.066"	"79.562"	"366.206"	"420.932"	"442.712"	"71.077"	"110.051"	"0.427"
"1932"	"0"	"12.941"	"13.739"	"4.446"	"0"	"47.35"	"723.124"	"204.513"	"291.533"	"12.64"	"0.199"	"0"
"1933"	"0.117"	"2.735"	"4.037"	"8.288"	"20.281"	"206.969"	"251.368"	"298.316"	"494.907"	"7.596"	"7.862"	"13.244"
"1934"	"9.511"	"0"	"3.454"	"0"	"0"	"200.581"	"433.274"	"617.811"	"568.722"	"1.696"	"80.205"	"21.539"
"1935"	"3.651"	"3.891"	"0"	"20.653"	"3.244"	"108.798"	"489.288"	"280.641"	"302.644"	"23.061"	"2.313"	"25.215"
"1936"	"0"	"3.679"	"8.451"	"5.49"	"14.819"	"179.746"	"226.286"	"155.345"	"317.819"	"0.199"	"94.231"	"1.044"
"1937"	"0"	"14.103"	"1.768"	"8.366"	"2.546"	"182.805"	"403.011"	"172.025"	"245.687"	"26.743"	"12.869"	"2.229"
"1938"	"11.048"	"0"	"3.487"	"0.29"	"31.509"	"280.614"	"432.522"	"215.024"	"173.622"	"70.566"	"0.281"	"0"
"1939"	"7.493"	"0.752"	"5.821"	"1.269"	"0"	"70.602"	"487.963"	"297.223"	"141.511"	"4.386"	"5.952"	"5.405"
"1940"	"3.06"	"4.494"	"5.643"	"3.059"	"26.483"	"124.825"	"509.342"	"332.222"	"135.933"	"13.597"	"12.579"	"12.935"
"1941"	"16.775"	"19.232"	"10.577"	"1.128"	"1.528"	"54.634"	"311.114"	"202.12"	"134.746"	"0.199"	"0.199"	"0"
"1942"	"16.84"	"13.093"	"0.66"	"3.097"	"0.812"	"111.672"	"620.693"	"439.92"	"191.526"	"0.817"	"0.199"	"25.22"
"1943"	"20.027"	"0"	"0"	"8.185"	"16.056"	"113.635"	"347.293"	"216.546"	"216.119"	"23.899"	"0.199"	"0"
"1944"	"8.568"	"9.006"	"24.621"	"12.027"	"0.57"	"76.86"	"725.716"	"487.79"	"187.336"	"21.113"	"0.199"	"5.081"
"1945"	"27.141"	"0"	"0"	"9.489"	"4.304"	"161.239"	"461.799"	"332.778"	"320.623"	"2.372"	"0.199"	"0"
"1946"	"0"	"5.5"	"0"	"11.143"	"5.174"	"235.968"	"327.514"	"434.343"	"94.642"	"11.466"	"97.878"	"12.21"
"1947"	"18.666"	"7.351"	"4.867"	"3.85"	"0.868"	"69.37"	"536.962"	"478.153"	"408.936"	"9.132"	"0.872"	"11.583"
"1948"	"46.664"	"0.497"	"0.64"	"3.47"	"5.234"	"148.851"	"459.25"	"287.353"	"186.189"	"7.69"	"91.28"	"0"
"1949"	"0"	"0.304"	"0"	"0.16"	"6.024"	"115.195"	"308.186"	"245.228"	"511.485"	"40.489"	"0.199"	"0"
"1950"	"7.447"	"0.957"	"3.461"	"0"	"2.774"	"28.506"	"375.749"	"255.005"	"246.573"	"1.303"	"0.405"	"25.641"
"1951"	"2.752"	"10.382"	"2.941"	"7.619"	"9.55"	"54.126"	"363.88"	"232.2"	"211.61"	"19.994"	"3.607"	"0"
"1952"	"0"	"9.248"	"1.055"	"2.176"	"1.501"	"149.64"	"365.262"	"273.735"	"75.085"	"0.46"	"0.199"	"15.221"
"1953"	"5.938"	"0"	"0"	"1.971"	"0.701"	"39.632"	"375.861"	"276.01"	"153.258"	"11.985"	"0.199"	"0"
"1954"	"25.203"	"7.215"	"5.328"	"0"	"0"	"61.6"	"271.938"	"263.752"	"550.07"	"11.64"	"0.199"	"0"
"1955"	"14.236"	"0"	"0"	"0.132"	"0.603"	"149.581"	"194.663"	"451.329"	"440.972"	"51.794"	"0.199"	"0"
"1956"	"13.594"	"0"	"0.878"	"4.377"	"5.85"	"170.362"	"612.03"	"323.508"	"203.303"	"16.783"	"57.057"	"4.804"
"1957"	"8.657"	"0"	"13.528"	"4.684"	"9.26"	"82.22"	"281.791"	"274.08"	"179.071"	"3.214"	"2.767"	"0.914"
"1958"	"4.626"	"0.101"	"1.33"	"1.165"	"9.341"	"83.559"	"473.803"	"353.939"	"258.09"	"75.515"	"20.601"	"0.335"
"1959"	"20"	"1.792"	"0"	"6.225"	"22.985"	"93.53"	"374.682"	"482.663"	"464.773"	"34.086"	"24.339"	"0"
"1960"	"36.979"	"0"	"6.016"	"2.175"	"4.931"	"128.718"	"272.608"	"588.745"	"81.461"	"57.806"	"0.199"	"0.869"
"1961"	"20.048"	"0.655"	"1.009"	"0.939"	"12.786"	"95.492"	"402.98"	"327.344"	"314.769"	"98.116"	"29.51"	"8.576"
"1962"	"4.364"	"5.61"	"14.16"	"19.032"	"4.974"	"46.116"	"377.066"	"411.995"	"460.282"	"0.199"	"23.97"	"41.055"
"1963"	"13.129"	"7.845"	"1.459"	"5.24"	"3.803"	"102.22"	"308.838"	"263.132"	"295.343"	"10.392"	"22.32"	"2.487"
"1964"	"0"	"0.236"	"11.385"	"0"	"15.096"	"124.548"	"297.971"	"400.745"	"201.782"	"3.446"	"0.199"	"0.335"
"1965"	"13.913"	"0.867"	"2.424"	"8.932"	"1.301"	"48.067"	"270.26"	"257.168"	"168.288"	"3.811"	"0.199"	"19.329"
"1966"	"1.334"	"0.476"	"4.142"	"0"	"14.636"	"60.148"	"332.631"	"173.628"	"136.781"	"0.199"	"72.616"	"5.576"
"1967"	"0.226"	"0"	"21.787"	"0.557"	"0.117"	"100.203"	"303.201"	"324.135"	"178.166"	"1.358"	"0.199"	"103.09"
"1968"	"4.633"	"8.392"	"7.339"	"0.953"	"0"	"57.497"	"434.996"	"385.096"	"87.773"	"23.462"	"0.199"	"0.583"
"1969"	"3.267"	"0.258"	"0.607"	"0"	"7.605"	"48.68"	"500.51"	"405.021"	"274.313"	"0.199"	"117.197"	"0"
"1970"	"23.516"	"6.321"	"14.23"	"8.761"	"12.909"	"192.373"	"134.825"	"421.964"	"260.207"	"1.496"	"0.199"	"0"
"1971"	"4.916"	"0.966"	"0.106"	"1.21"	"17.127"	"199.962"	"293.143"	"256.68"	"191.67"	"59.041"	"0.425"	"0"
"1972"	"0.093"	"0.406"	"0"	"0"	"2.359"	"64.162"	"133.998"	"440.821"	"205.064"	"31.936"	"32.062"	"5.071"
"1973"	"0.39"	"8.087"	"0"	"0"	"3.875"	"53.551"	"514.527"	"452.847"	"230.178"	"21.991"	"0.199"	"20.804"
"1974"	"0"	"6.04"	"0.31"	"12.506"	"21.379"	"89.097"	"297.915"	"489.902"	"104.873"	"37.665"	"0.199"	"0"
"1975"	"3.296"	"6.194"	"1.445"	"0"	"3.263"	"128.646"	"323.705"	"394.309"	"270.47"	"23.981"	"0.199"	"0"
"1976"	"4.532"	"0.25"	"5.443"	"6.95"	"6.982"	"94.218"	"359.748"	"312.314"	"185.799"	"0.199"	"59.509"	"7.034"
"1977"	"2.433"	"0.483"	"9.276"	"1.899"	"6.705"	"280.959"	"299.192"	"328.932"	"191.383"	"15.918"	"86.106"	"0.715"
"1978"	"15.645"	"44.214"	"20.666"	"5.707"	"0"	"178.003"	"320.405"	"502.283"	"168.427"	"6.525"	"10.983"	"46.113"
"1979"	"32.131"	"11.52"	"2.992"	"0"	"18.465"	"76.71"	"388.858"	"266.799"	"56.318"	"10.961"	"47.078"	"7.22"
"1980"	"1.391"	"0.766"	"0.939"	"0"	"0"	"193.448"	"245.806"	"346.614"	"76.121"	"0.661"	"0.425"	"35.749"
"1981"	"12.595"	"0.968"	"3.506"	"0"	"10.243"	"49.447"	"195.714"	"331.488"	"132.022"	"6.947"	"8.908"	"15.892"
"1982"	"48.174"	"3.445"	"5.067"	"2.675"	"4.239"	"83.697"	"215.67"	"579.556"	"126.975"	"9.463"	"84.403"	"1.958"
"1983"	"3.915"	"0.338"	"0.364"	"2.008"	"4.982"	"88.513"	"465.294"	"385.756"	"532.968"	"39.204"	"0.199"	"1.312"
"1984"	"24.597"	"15.661"	"1.189"	"0.849"	"3"	"81.965"	"166.491"	"357.554"	"54.811"	"13.293"	"0.634"	"1.438"
"1985"	"6.498"	"0"	"1.452"	"15.379"	"14.128"	"66.113"	"326.256"	"362.257"	"192.163"	"81.536"	"0.199"	"0"
"1986"	"4.097"	"15.949"	"7.635"	"0"	"10.114"	"103.905"	"345.042"	"203.498"	"58.856"	"11.103"	"0.199"	"24.34"
"1987"	"12.821"	"17.391"	"2.187"	"0"	"15.424"	"76.024"	"196.822"	"360.099"	"148.58"	"11.128"	"4.472"	"32.168"
"1988"	"2.522"	"1.097"	"0.473"	"9.667"	"0.149"	"152.244"	"260.923"	"224.482"	"146.573"	"13.088"	"0.473"	"1.883"
"1989"	"2.652"	"0"	"16.131"	"0"	"2.913"	"112.085"	"164.229"	"324.293"	"99.787"	"0.199"	"0.199"	"8.981"
"1990"	"0.388"	"16.007"	"1.32"	"0"	"26.66"	"294.501"	"494.027"	"485.475"	"358.993"	"4.021"	"1.219"	"15.796"
"1991"	"0"	"1.92"	"7.107"	"11.16"	"7.393"	"126.633"	"229.764"	"331.927"	"42.058"	"0.349"	"3.634"	"2.948"
"1992"	"5.253"	"2.985"	"0"	"0"	"27.281"	"28.691"	"86.547"	"225.585"	"365.498"	"7.104"	"0.199"	"0"
"1993"	"0"	"3.223"	"2.363"	"0.179"	"8.04"	"99.838"	"243.374"	"188.853"	"157.82"	"12.585"	"0.687"	"2.163"
"1994"	"31.181"	"5.548"	"11.422"	"3.421"	"14.94"	"244.923"	"557.907"	"368.973"	"137.707"	"5.467"	"0.285"	"0"
"1995"	"20.253"	"3.344"	"20.079"	"5.681"	"5.024"	"81.382"	"405.591"	"139.662"	"233.279"	"18.309"	"4.334"	"16.712"
"1996"	"19.974"	"2.958"	"6.974"	"19.223"	"9.304"	"75.754"	"369.528"	"398.016"	"111.394"	"17.45"	"0.473"	"0"
"1997"	"5.859"	"0"	"0"	"5.385"	"9.539"	"80.026"	"383.585"	"319.33"	"98.113"	"29.159"	"129.747"	"64.877"
"1998"	"3.597"	"3.194"	"15.535"	"2.107"	"2.786"	"93.744"	"170.312"	"295.296"	"297.661"	"12.892"	"69.656"	"0"
"1999"	"2.983"	"31.717"	"0"	"0"	"5.929"	"83.783"	"310.024"	"288.136"	"344.537"	"50.029"	"0.199"	"1.382"
"2000"	"0"	"1.766"	"0"	"0.077"	"20.251"	"86.736"	"595.544"	"128.271"	"45.133"	"3.844"	"0.677"	"0"
"2001"	"4.935"	"0.283"	"4.511"	"1.728"	"27.06"	"304.193"	"303.894"	"138.427"	"13.754"	"23.44"	"3.275"	"0"
"2002"	"0"	"23.963"	"5.215"	"7.557"	"12.131"	"117.305"	"60.429"	"328.471"	"130.387"	"5.104"	"15.465"	"2.96"
