
"Year"	"Jan"	"Feb"	"Mar"	"Apr"	"May"	"Jun"	"Jul"	"Aug"	"Sep"	"Oct"	"Nov"	"Dec"
"1901"	"23.811"	"24.303"	"28.329"	"30.76"	"29.464"	"27.311"	"25.537"	"25.336"	"26.419"	"26.314"	"23.755"	"22.511"
"1902"	"23.661"	"25.087"	"29.13"	"30.57"	"31.194"	"28.233"	"26.658"	"26.624"	"25.629"	"26.422"	"23.008"	"22.835"
"1903"	"23.301"	"24.568"	"28.105"	"30.705"	"29.986"	"28.517"	"25.615"	"25.464"	"25.785"	"25.089"	"22.808"	"21.705"
"1904"	"22.863"	"24.417"	"27.796"	"30.627"	"30.133"	"27.029"	"25.766"	"26.239"	"25.814"	"25.938"	"22.579"	"21.894"
"1905"	"22.617"	"24.413"	"27.465"	"29.158"	"30.912"	"28.486"	"26.287"	"25.774"	"25.785"	"26.499"	"24.085"	"21.845"
"1906"	"23.464"	"24.893"	"27.927"	"31.616"	"31.527"	"27.191"	"25.858"	"25.772"	"25.12"	"25.611"	"24.133"	"22.885"
"1907"	"23.119"	"25.374"	"28.095"	"29.278"	"29.757"	"27.349"	"25.879"	"24.569"	"25.858"	"26.608"	"24.6"	"21.927"
"1908"	"22.865"	"24.77"	"27.981"	"31.425"	"30.497"	"28.294"	"25.156"	"25.123"	"25.846"	"26.065"	"22.877"	"20.891"
"1909"	"23.841"	"25.37"	"29.34"	"29.454"	"30.61"	"26.818"	"25.009"	"25.878"	"25.374"	"25.861"	"24.067"	"23.603"
"1910"	"23.266"	"24.839"	"28.724"	"31.282"	"30.781"	"27.614"	"26.307"	"25.616"	"25.132"	"25.246"	"22.032"	"21.179"
"1911"	"23.569"	"24.13"	"28.019"	"30.874"	"31.237"	"27.24"	"26.27"	"25.163"	"26.319"	"27.075"	"25.113"	"23.264"
"1912"	"23.526"	"26.047"	"29.023"	"31.342"	"31.298"	"29.225"	"26.117"	"25.645"	"26.433"	"26.214"	"23.419"	"21.859"
"1913"	"22.076"	"26.006"	"28.373"	"31.613"	"30.492"	"26.798"	"25.563"	"25.813"	"26.392"	"26.015"	"23.834"	"23.684"
"1914"	"22.849"	"25.91"	"28.316"	"30.164"	"30.959"	"27.776"	"25.41"	"25.341"	"25.728"	"25.926"	"24.245"	"23.186"
"1915"	"23.432"	"25.229"	"27.883"	"30.755"	"30.526"	"28.751"	"26.348"	"25.888"	"25.926"	"25.869"	"24.916"	"21.552"
"1916"	"23.168"	"25.169"	"29.159"	"31.104"	"30.865"	"26.417"	"26.489"	"25.772"	"25.934"	"25.766"	"23.876"	"21.356"
"1917"	"22.427"	"24.262"	"27.225"	"29.336"	"29.64"	"26.3"	"26.109"	"25.983"	"25.553"	"24.986"	"23.046"	"21.726"
"1918"	"22.017"	"24.676"	"27.582"	"29.855"	"28.808"	"27.146"	"27.146"	"26.183"	"26.374"	"27.123"	"25.414"	"23.411"
"1919"	"24.298"	"26.257"	"28.843"	"30.823"	"30.352"	"26.749"	"26.058"	"25.911"	"26.173"	"25.812"	"24.507"	"22.155"
"1920"	"23.502"	"24.895"	"28.793"	"30.284"	"30.161"	"27.693"	"25.699"	"26.118"	"26.432"	"26.581"	"24.074"	"22.412"
"1921"	"23.869"	"24.939"	"29.53"	"31.17"	"31.487"	"27.701"	"26.068"	"25.466"	"25.501"	"25.572"	"22.548"	"22.063"
"1922"	"23.513"	"25.254"	"28.856"	"31.274"	"30.469"	"27.544"	"25.41"	"25.765"	"25.527"	"25.687"	"23.498"	"21.118"
"1923"	"22.534"	"24.17"	"27.941"	"30.305"	"30.17"	"29.14"	"25.413"	"25.636"	"25.413"	"25.413"	"23.782"	"23.085"
"1924"	"23.881"	"25.936"	"29.328"	"31.723"	"31.257"	"28.193"	"26.416"	"26.305"	"25.675"	"24.92"	"22.51"	"21.985"
"1925"	"22.357"	"24.521"	"28.536"	"31.545"	"29.806"	"27.108"	"25.71"	"25.675"	"26.274"	"25.764"	"24.314"	"22.064"
"1926"	"23.982"	"26.057"	"28.724"	"29.197"	"30.412"	"29.402"	"26.633"	"25.897"	"25.974"	"26.362"	"23.656"	"22.604"
"1927"	"24.31"	"25.67"	"29.41"	"31.223"	"30.72"	"27.289"	"25.179"	"25.61"	"26.351"	"25.836"	"22.579"	"22.656"
"1928"	"23.841"	"25.374"	"28.582"	"30.884"	"31.088"	"27.987"	"25.959"	"25.813"	"25.608"	"25.877"	"24.131"	"22.706"
"1929"	"23.708"	"25.28"	"29.154"	"30.011"	"31.123"	"27.406"	"25.998"	"26.13"	"26.426"	"25.877"	"24.094"	"23.493"
"1930"	"24.003"	"23.922"	"28.731"	"30.153"	"30.664"	"28.072"	"25.461"	"25.609"	"25.893"	"26.015"	"23.056"	"23.392"
"1931"	"23.143"	"25.856"	"28.408"	"31.664"	"31.199"	"28.481"	"25.622"	"25.825"	"25.493"	"25.259"	"23.405"	"21.947"
"1932"	"22.142"	"24.068"	"27.555"	"30.252"	"30.162"	"27.444"	"25.328"	"26.224"	"25.678"	"26.404"	"24.094"	"22.225"
"1933"	"22.963"	"25.498"	"27.862"	"30.066"	"28.781"	"26.294"	"25.256"	"25.099"	"25.323"	"25.086"	"24.02"	"21.995"
"1934"	"22.396"	"24.728"	"27.727"	"30.721"	"30.738"	"27.635"	"25.455"	"25.141"	"25.585"	"26.034"	"22.643"	"21.527"
"1935"	"22.813"	"25.148"	"27.725"	"29.347"	"31.206"	"28.033"	"25.362"	"25.662"	"25.041"	"26.291"	"22.846"	"23.003"
"1936"	"23.9"	"24.697"	"27.932"	"30.314"	"30.963"	"26.364"	"25.718"	"25.512"	"26.374"	"26.015"	"24.306"	"22.646"
"1937"	"22.577"	"25.511"	"28.118"	"29.973"	"30.708"	"27.891"	"25.208"	"25.965"	"26.006"	"25.458"	"23.574"	"22.552"
"1938"	"24.371"	"24.902"	"29.227"	"30.961"	"30.347"	"25.609"	"25.102"	"25.445"	"25.154"	"24.516"	"22.856"	"21.939"
"1939"	"23.078"	"25.187"	"27.6"	"30.208"	"30.708"	"27.831"	"25.246"	"25.636"	"25.526"	"26.115"	"22.588"	"21.446"
"1940"	"21.875"	"25.028"	"27.726"	"30.166"	"30.257"	"27.552"	"25.013"	"25.123"	"25.925"	"25.709"	"24.469"	"22.671"
"1941"	"23.45"	"25.93"	"29.635"	"31.812"	"31.529"	"28.127"	"26.6"	"26.363"	"26.475"	"26.871"	"24.804"	"24.312"
"1942"	"23.768"	"25.682"	"29.535"	"30.6"	"31.238"	"27.752"	"25.156"	"25.046"	"25.003"	"26.032"	"23.634"	"23.116"
"1943"	"24.265"	"24.079"	"28.109"	"30.042"	"29.298"	"26.302"	"25.175"	"25.466"	"24.831"	"25.257"	"24.191"	"21.266"
"1944"	"23.574"	"24.58"	"26.634"	"29.74"	"31.237"	"27.874"	"25.56"	"25.876"	"26.012"	"25.735"	"23.845"	"22.848"
"1945"	"22.706"	"24.83"	"28.633"	"29.642"	"30.796"	"27.502"	"25.508"	"25.535"	"25.168"	"25.521"	"22.806"	"21.278"
"1946"	"21.994"	"24.596"	"28.568"	"29.968"	"29.946"	"26.622"	"25.558"	"25.394"	"25.769"	"26.722"	"24.33"	"23.679"
"1947"	"23.842"	"25.086"	"28.731"	"29.95"	"30.898"	"28.259"	"25.619"	"26.103"	"25.212"	"24.769"	"23.31"	"22.439"
"1948"	"23.942"	"25.188"	"28.134"	"30.248"	"30.948"	"27.902"	"25.984"	"25.704"	"25.169"	"26.148"	"25.146"	"20.963"
"1949"	"22.952"	"24.35"	"28.467"	"30.223"	"29.707"	"27.104"	"25.822"	"25.928"	"25.277"	"25.935"	"22.854"	"22.282"
"1950"	"22.923"	"24.435"	"27.541"	"30.479"	"30.347"	"27.488"	"25.536"	"26.231"	"25.252"	"25.095"	"23.116"	"22.182"
"1951"	"23.256"	"24.899"	"28.368"	"30.002"	"30.609"	"27.259"	"25.936"	"25.716"	"26.863"	"26.677"	"25.06"	"21.812"
"1952"	"23.569"	"25.799"	"27.723"	"31.192"	"31.148"	"27.914"	"26.399"	"25.524"	"25.974"	"25.988"	"22.618"	"23.827"
"1953"	"23.272"	"26.055"	"30.29"	"30.438"	"31.828"	"28.735"	"25.965"	"25.381"	"25.64"	"26.097"	"23.512"	"21.77"
"1954"	"22.963"	"26.125"	"28.308"	"30.961"	"31.392"	"27.769"	"25.266"	"25.655"	"24.852"	"24.929"	"22.705"	"23.13"
"1955"	"23.741"	"26.129"	"28.682"	"30.224"	"29.983"	"27.074"	"25.625"	"24.801"	"26.108"	"25.685"	"22.383"	"21.759"
"1956"	"23.049"	"24.447"	"29.111"	"31.083"	"29.27"	"26.652"	"24.359"	"24.93"	"24.98"	"25.11"	"23.952"	"22.312"
"1957"	"23.61"	"25.1"	"27.339"	"30.384"	"30.707"	"28.277"	"25.708"	"25.186"	"25.929"	"26.824"	"24.535"	"23.789"
"1958"	"23.742"	"25.537"	"28.727"	"31.073"	"31.11"	"29.397"	"25.426"	"25.744"	"25.481"	"25.923"	"24.955"	"23.087"
"1959"	"24.094"	"26.447"	"29.008"	"30.896"	"31.456"	"27.472"	"25.156"	"25.535"	"25.863"	"25.899"	"24.303"	"23.413"
"1960"	"24.215"	"25.588"	"28.399"	"30.664"	"30.471"	"27.544"	"26.307"	"26.124"	"25.97"	"25.798"	"24.344"	"23.369"
"1961"	"23.922"	"24.892"	"29.841"	"31.486"	"29.58"	"26.964"	"25.105"	"25.582"	"25.323"	"25.404"	"23.797"	"22.965"
"1962"	"22.156"	"25.484"	"28.331"	"30.183"	"30.369"	"28.129"	"25.658"	"25.524"	"25.533"	"26.243"	"23.488"	"22.27"
"1963"	"22.968"	"24.725"	"28.583"	"29.435"	"30.506"	"26.802"	"25.951"	"24.946"	"25.773"	"25.727"	"24.428"	"23.463"
"1964"	"23.555"	"26.042"	"29.479"	"31.289"	"30.903"	"27.847"	"25.841"	"24.935"	"25.075"	"25.808"	"23.255"	"21.871"
"1965"	"23.274"	"25.114"	"28.27"	"30.088"	"30.559"	"27.62"	"25.214"	"26.123"	"26.231"	"27.065"	"25.218"	"24.199"
"1966"	"24.161"	"26.564"	"29.473"	"31.328"	"30.339"	"28.462"	"26.619"	"26.527"	"26.007"	"26.344"	"24.941"	"22.813"
"1967"	"23.574"	"25.733"	"28.355"	"31.225"	"31.599"	"28.566"	"25.752"	"25.615"	"25.629"	"25.808"	"24.113"	"24.404"
"1968"	"22.908"	"26.005"	"28.233"	"30.565"	"31.091"	"28.153"	"25.879"	"25.824"	"26.092"	"25.319"	"24.019"	"23.654"
"1969"	"23.364"	"26.68"	"30.314"	"32.037"	"31.361"	"28.572"	"25.806"	"26.256"	"25.383"	"26.318"	"25.3"	"23.047"
"1970"	"24.015"	"26.403"	"29.492"	"31.524"	"31.055"	"26.876"	"26.103"	"25.243"	"25.6"	"26.103"	"23.653"	"21.152"
"1971"	"22.559"	"26.121"	"28.324"	"31.508"	"30.91"	"26.952"	"26.429"	"25.759"	"26.687"	"25.206"	"23.301"	"21.91"
"1972"	"23.124"	"25.028"	"29.818"	"31.097"	"31.051"	"29.405"	"26.811"	"26.665"	"27.277"	"27.369"	"24.832"	"24.045"
"1973"	"24.964"	"26.758"	"30.125"	"32.271"	"32.301"	"27.711"	"25.917"	"25.245"	"25.64"	"24.918"	"23.142"	"22.532"
"1974"	"23.627"	"26.093"	"29.427"	"31.546"	"29.423"	"26.898"	"26.147"	"25.566"	"25.798"	"25.109"	"23.858"	"21.963"
"1975"	"22.382"	"25.962"	"28.901"	"31.567"	"30.757"	"27.31"	"25.479"	"25.862"	"25.576"	"25.821"	"22.656"	"21.302"
"1976"	"21.787"	"24.489"	"28.829"	"30.053"	"30.786"	"27.453"	"25.824"	"25.29"	"26.232"	"27.557"	"25.682"	"23.891"
"1977"	"23.352"	"26.46"	"29.331"	"30.097"	"29.86"	"27.488"	"25.927"	"25.503"	"27.148"	"26.274"	"25.756"	"22.35"
"1978"	"23.779"	"24.886"	"28.14"	"30.021"	"30.229"	"26.694"	"25.2"	"24.416"	"25.475"	"25.934"	"25.139"	"23.404"
"1979"	"24.104"	"25.457"	"28.64"	"31.073"	"29.816"	"28.46"	"26.571"	"25.731"	"25.539"	"27.134"	"24.75"	"23.464"
"1980"	"24.07"	"26.77"	"28.971"	"29.715"	"31.24"	"26.709"	"26.046"	"24.801"	"26.49"	"28.183"	"25.835"	"23.439"
"1981"	"23.162"	"26.429"	"28.052"	"31.01"	"30.089"	"27.354"	"26.506"	"25.39"	"25.581"	"26.334"	"24.486"	"22.877"
"1982"	"24.217"	"27.057"	"29.359"	"30.6"	"30.429"	"28.102"	"26.16"	"26.183"	"26.169"	"27.019"	"24.845"	"23.474"
"1983"	"23.441"	"25.51"	"29.346"	"31.611"	"32.147"	"29.028"	"26.511"	"26.005"	"25.39"	"25.634"	"23.699"	"23.052"
"1984"	"24.27"	"25.593"	"29.331"	"31.225"	"32.803"	"27.908"	"25.758"	"25.519"	"26.217"	"26.15"	"23.815"	"24.108"
"1985"	"24.827"	"26.31"	"29.64"	"31.114"	"30.871"	"27.334"	"25.757"	"25.921"	"26.91"	"25.712"	"24.889"	"24.33"
"1986"	"23.216"	"25.996"	"30.08"	"31.931"	"31.357"	"27.439"	"26.67"	"25.604"	"27.018"	"28.225"	"25.829"	"24.143"
"1987"	"24.547"	"25.656"	"29.229"	"31.896"	"30.599"	"28.602"	"26.695"	"26.522"	"27.973"	"26.617"	"24.805"	"22.848"
"1988"	"23.886"	"26.922"	"29.544"	"31.132"	"31.673"	"28.271"	"25.88"	"25.788"	"25.944"	"27.056"	"24.777"	"23.062"
"1989"	"23.976"	"25.261"	"27.725"	"31.316"	"31.618"	"27.251"	"25.609"	"25.364"	"25.777"	"26.731"	"24.89"	"23.111"
"1990"	"24.163"	"25.127"	"27.897"	"31.01"	"28.33"	"26.272"	"25.602"	"25.583"	"26.622"	"25.972"	"25.241"	"23.371"
"1991"	"24.262"	"26.332"	"29.778"	"30.495"	"31.325"	"26.978"	"25.071"	"25.973"	"27.116"	"26.861"	"24.871"	"23.049"
"1992"	"22.383"	"24.42"	"29.049"	"31.2"	"31.312"	"28.324"	"26.912"	"25.743"	"26.94"	"26.984"	"25.076"	"22.365"
"1993"	"24.038"	"24.943"	"27.993"	"31.493"	"31.63"	"29.134"	"26.426"	"25.688"	"26.016"	"26.202"	"25.23"	"21.911"
"1994"	"23.744"	"25.336"	"30.078"	"29.905"	"31.722"	"27.358"	"25.553"	"25.982"	"27.177"	"25.961"	"24.032"	"22.15"
"1995"	"21.69"	"25.558"	"28.914"	"31.644"	"29.893"	"30.025"	"26.283"	"27.276"	"26.784"	"26.189"	"25.155"	"24.006"
"1996"	"24.758"	"26.405"	"30.329"	"31.107"	"32.043"	"28.735"	"26.698"	"25.932"	"26.155"	"25.641"	"24.833"	"23.076"
"1997"	"22.895"	"24.821"	"29.218"	"29.693"	"31.113"	"28.699"	"26.519"	"25.949"	"26.556"	"27.008"	"26.338"	"25.152"
"1998"	"24.853"	"26.074"	"29.835"	"32.32"	"32.25"	"29.582"	"26.876"	"26.524"	"26.473"	"26.324"	"24.973"	"22.382"
"1999"	"22.794"	"26.898"	"29.945"	"31.852"	"30.37"	"27.087"	"25.989"	"25.866"	"25.81"	"26.357"	"24.749"	"22.966"
"2000"	"24.416"	"25.636"	"28.738"	"31.941"	"30.379"	"27.008"	"25.558"	"25.943"	"26.475"	"26.971"	"25.076"	"22.762"
"2001"	"24.281"	"26.81"	"28.862"	"31.216"	"31.61"	"27.644"	"26.154"	"25.643"	"26.833"	"26.13"	"25.601"	"23.423"
"2002"	"23.46"	"26.829"	"30.286"	"32.152"	"31.632"	"27.912"	"26.68"	"25.505"	"26.485"	"27.012"	"24.787"	"23.713"
