
"Year"	"Jan"	"Feb"	"Mar"	"Apr"	"May"	"Jun"	"Jul"	"Aug"	"Sep"	"Oct"	"Nov"	"Dec"
"1901"	"41.444"	"13.688"	"12.489"	"1.156"	"25.654"	"31.132"	"274.555"	"401.133"	"78.503"	"1.378"	"0"	"7.018"
"1902"	"0.2"	"2.423"	"4.352"	"12.411"	"13.78"	"87.103"	"294.288"	"227.121"	"115.202"	"11.319"	"0"	"0"
"1903"	"16.755"	"2.812"	"13.557"	"2.416"	"9.936"	"20.775"	"156.578"	"203.25"	"74.977"	"39.615"	"0"	"1.578"
"1904"	"10.416"	"0.978"	"27.168"	"1.856"	"21.504"	"77.704"	"195.122"	"352.264"	"203.201"	"3.925"	"18.727"	"12.646"
"1905"	"67.327"	"33.043"	"8.788"	"5.092"	"11.613"	"24.796"	"160.365"	"140.084"	"127.804"	"1.527"	"0"	"6.946"
"1906"	"10.892"	"58.47"	"14.2"	"2.177"	"3.749"	"119.641"	"171.047"	"282.02"	"239.858"	"3.7"	"0"	"4.385"
"1907"	"15.925"	"35.954"	"30.225"	"29.367"	"10.055"	"34.74"	"202.344"	"181.148"	"5.597"	"0.714"	"0"	"0"
"1908"	"36.378"	"17.96"	"1.249"	"4.153"	"11.775"	"37.504"	"259.193"	"450.628"	"48.842"	"0.594"	"0.596"	"1.32"
"1909"	"24.881"	"13.991"	"0.316"	"29.92"	"15.176"	"232.84"	"392.314"	"228.42"	"122.226"	"3.213"	"0"	"32.691"
"1910"	"18.517"	"13.04"	"1.686"	"3.853"	"16.83"	"120.082"	"291.602"	"255.333"	"181.058"	"12.875"	"1.14"	"1.918"
"1911"	"60.311"	"0.666"	"43.65"	"6.163"	"1.936"	"100.083"	"55.816"	"206.794"	"222.307"	"15.807"	"39.977"	"0"
"1912"	"34.65"	"15.318"	"7.619"	"19.583"	"17.917"	"57.683"	"203.229"	"291.323"	"232.803"	"1.014"	"18.855"	"3.658"
"1913"	"3.047"	"34.609"	"18.018"	"4.054"	"35.542"	"190.975"	"150.892"	"163.883"	"21.158"	"2.125"	"5.742"	"15.884"
"1914"	"2.408"	"26.923"	"19.997"	"17.365"	"19.838"	"71.44"	"357.732"	"190.041"	"390.972"	"20.119"	"11.194"	"1.586"
"1915"	"16.93"	"52.412"	"38.575"	"17.616"	"9.889"	"64.725"	"149.568"	"404.842"	"119.914"	"8.092"	"0"	"3.742"
"1916"	"0.2"	"19.255"	"0.38"	"5.193"	"20.231"	"144.938"	"343.353"	"272.281"	"175.976"	"25.592"	"0"	"0"
"1917"	"9.104"	"18.586"	"17.831"	"20.369"	"41.26"	"159.462"	"267.811"	"234.192"	"261.87"	"52.793"	"0"	"6.527"
"1918"	"5.941"	"0.275"	"12.194"	"17.367"	"6.376"	"85.49"	"61.148"	"195.09"	"18.58"	"2.029"	"16.311"	"2.279"
"1919"	"68.929"	"7.996"	"9.129"	"15.155"	"16.722"	"50.456"	"223.536"	"240.081"	"99.693"	"9.815"	"2.591"	"6.187"
"1920"	"8.377"	"10.797"	"20.735"	"1.206"	"25.527"	"168.652"	"273.153"	"154.417"	"23.568"	"2.273"	"0"	"0.643"
"1921"	"37.726"	"1.781"	"1.407"	"2.084"	"1.287"	"35.98"	"202.583"	"398.434"	"167.645"	"36.424"	"0"	"1.211"
"1922"	"28.392"	"10.482"	"0.279"	"2.771"	"2.014"	"57.673"	"271.446"	"380.847"	"231.005"	"13.8"	"3.465"	"32.754"
"1923"	"12.769"	"52.586"	"1.005"	"2.81"	"14.263"	"19.454"	"215.348"	"290.129"	"137.657"	"38.851"	"13.74"	"21.702"
"1924"	"30.111"	"24.571"	"4.896"	"2.386"	"18.398"	"30.774"	"193.516"	"283.622"	"352.087"	"59.374"	"2.586"	"19.144"
"1925"	"16.25"	"0.741"	"2.618"	"4.751"	"23.627"	"192.709"	"328.411"	"301.904"	"42.738"	"3.883"	"21.349"	"0"
"1926"	"9.798"	"4.359"	"41.936"	"17.766"	"17.373"	"10.403"	"308.718"	"354.139"	"53.474"	"4.061"	"9.237"	"2.925"
"1927"	"1.231"	"28.208"	"11.295"	"5.773"	"35.161"	"32.841"	"167.373"	"404.086"	"52.312"	"73.71"	"0.832"	"11.281"
"1928"	"34.202"	"50.801"	"10.159"	"16.129"	"4.564"	"59.95"	"203.139"	"112.508"	"38.943"	"6.783"	"16.71"	"18.903"
"1929"	"37.261"	"1.416"	"4.393"	"14.468"	"6.225"	"99.533"	"146.469"	"304.788"	"32.532"	"23.051"	"0"	"36.103"
"1930"	"30.968"	"17.976"	"4.885"	"7.445"	"10.529"	"85.216"	"316.101"	"194.208"	"53.862"	"25.204"	"9.991"	"9.391"
"1931"	"6.932"	"30.089"	"10.945"	"2.786"	"13.406"	"15.511"	"274.975"	"204.09"	"256.868"	"75.74"	"1.14"	"0"
"1932"	"2.937"	"4.476"	"14.483"	"4.768"	"9.786"	"38.223"	"142.912"	"197.749"	"280.365"	"4.426"	"0.596"	"11.365"
"1933"	"12.751"	"24.931"	"5.879"	"9.772"	"37.284"	"171.57"	"263.63"	"402.291"	"230.026"	"71.395"	"0.996"	"0.3"
"1934"	"26.032"	"1.644"	"26.079"	"0.748"	"8.609"	"76.992"	"263.261"	"412.871"	"46.293"	"0.2"	"0"	"15.073"
"1935"	"45.502"	"26.781"	"6.615"	"14.045"	"1.697"	"33.233"	"234.661"	"166.78"	"155.812"	"1.859"	"11.07"	"11.422"
"1936"	"2.901"	"22.859"	"15.399"	"9.737"	"16.815"	"332.867"	"449.24"	"343.85"	"173.742"	"8.446"	"3.466"	"43.318"
"1937"	"1.491"	"63.371"	"0.604"	"20.766"	"14.337"	"74.855"	"290.934"	"130.602"	"164.876"	"10.216"	"0.619"	"12.439"
"1938"	"54.77"	"16.251"	"5.351"	"2.197"	"2.951"	"157.042"	"230.896"	"219.576"	"43.582"	"9.343"	"1.14"	"0"
"1939"	"8.208"	"27.314"	"11.463"	"7.137"	"4.693"	"117.748"	"153.554"	"154.703"	"80.47"	"14.564"	"0"	"0"
"1940"	"35.649"	"47.801"	"12.789"	"6.201"	"8.574"	"52.272"	"222.907"	"249.813"	"31.872"	"2.393"	"0"	"7.165"
"1941"	"37.814"	"9.396"	"3.696"	"0.079"	"23.018"	"77.237"	"65.848"	"181.813"	"108.241"	"4.061"	"1.14"	"11.543"
"1942"	"32.243"	"24.312"	"3.82"	"14.788"	"13.021"	"79.785"	"438.765"	"210.041"	"131.442"	"0.66"	"0"	"20.501"
"1943"	"19.955"	"2.58"	"5.61"	"20.849"	"4.111"	"102.168"	"147.686"	"323.531"	"75.835"	"0.2"	"0"	"0"
"1944"	"30.075"	"32.464"	"28.656"	"26.401"	"0.362"	"111.441"	"263.59"	"102.813"	"128.546"	"25.052"	"0.596"	"1.539"
"1945"	"25.442"	"0.2"	"5.469"	"14.982"	"7.797"	"39.624"	"291.508"	"255.894"	"266.331"	"36.532"	"0"	"0.047"
"1946"	"0.516"	"14.346"	"3.409"	"13.057"	"29.32"	"110.129"	"269.588"	"192.766"	"48.54"	"21.21"	"10.421"	"9.124"
"1947"	"15.134"	"17.665"	"18.243"	"1.047"	"7.176"	"25.891"	"174.803"	"251.887"	"224.301"	"16.325"	"1.14"	"5.237"
"1948"	"21.884"	"28.551"	"28.842"	"2.257"	"7.863"	"26.655"	"211.654"	"473.584"	"140.01"	"18.661"	"0.754"	"3.901"
"1949"	"2.31"	"29.259"	"6.582"	"9.677"	"14.316"	"31.902"	"469.736"	"202.369"	"178.065"	"19.437"	"0.596"	"1.152"
"1950"	"29.686"	"11.937"	"21.517"	"0.669"	"13.996"	"104.809"	"392.685"	"262.884"	"183.571"	"0.339"	"0.596"	"0.897"
"1951"	"21.32"	"10.403"	"26.514"	"14.444"	"12.931"	"44.176"	"131.632"	"192.326"	"128.573"	"12.129"	"26.085"	"0"
"1952"	"11.851"	"16.43"	"28.488"	"6.619"	"27.865"	"82.037"	"134.311"	"333.086"	"19.973"	"0.558"	"8.711"	"0.191"
"1953"	"56.611"	"1.182"	"1.584"	"6.761"	"4.2"	"59.696"	"361.566"	"281.044"	"77.053"	"0.658"	"0.386"	"1.297"
"1954"	"33.394"	"55.339"	"7.92"	"0.417"	"1.983"	"36.428"	"315.027"	"173.875"	"135.568"	"39.695"	"0"	"0.897"
"1955"	"31.497"	"2.033"	"11.801"	"16.556"	"8.599"	"69.501"	"230.661"	"274.509"	"219.325"	"82.58"	"0"	"0.988"
"1956"	"21.404"	"4.847"	"16.112"	"1.682"	"31.068"	"74.693"	"279.856"	"218.771"	"52.109"	"80.882"	"0.475"	"4.82"
"1957"	"58.673"	"0.564"	"25.558"	"10.997"	"11.499"	"56.868"	"235.594"	"203.757"	"223.265"	"21.558"	"9.263"	"25.664"
"1958"	"18.656"	"5.394"	"12.066"	"5.892"	"4.051"	"54.973"	"310.327"	"344.236"	"234.365"	"57.156"	"3.276"	"16.624"
"1959"	"30.134"	"9.761"	"8.69"	"5.301"	"25.989"	"28.584"	"294.198"	"239.228"	"103.414"	"27.552"	"16.303"	"0"
"1960"	"21.652"	"0.2"	"19.522"	"7.866"	"3.528"	"48.034"	"236.631"	"297.69"	"96.001"	"78.635"	"0"	"2.217"
"1961"	"41.01"	"38.926"	"0.721"	"7.288"	"17.258"	"79.787"	"291.159"	"447.488"	"116.54"	"75.676"	"0.545"	"14.323"
"1962"	"36.582"	"16.686"	"15.528"	"3.691"	"12.24"	"75.173"	"236.503"	"223.013"	"232.691"	"0.676"	"7.267"	"11.971"
"1963"	"7.013"	"8.884"	"21.953"	"9.942"	"22.841"	"97.976"	"145.037"	"311.44"	"250.33"	"7.263"	"11.345"	"13.321"
"1964"	"7.768"	"2.987"	"8.778"	"4.857"	"27.111"	"39.079"	"485.729"	"250.947"	"187.49"	"0.2"	"0.293"	"11.79"
"1965"	"9.742"	"22.548"	"11.16"	"15.626"	"10.245"	"14.942"	"199.156"	"226.138"	"89.323"	"8.144"	"1.732"	"0"
"1966"	"5.42"	"26.04"	"2.818"	"1.386"	"32.091"	"119.796"	"241.291"	"363.263"	"119.211"	"23.943"	"6.788"	"2.395"
"1967"	"0.743"	"5.153"	"43.212"	"2.66"	"1.854"	"47.059"	"241.085"	"523.105"	"97.493"	"11.631"	"6.778"	"34.782"
"1968"	"39.866"	"18.679"	"9.277"	"5.137"	"4.162"	"81.686"	"235.665"	"218.507"	"48.349"	"10.586"	"0"	"2.982"
"1969"	"15.458"	"8.187"	"13.813"	"11.768"	"21.616"	"53.521"	"260.547"	"257.765"	"306.969"	"2.024"	"1.14"	"0"
"1970"	"36.939"	"22.817"	"21.979"	"0.362"	"41.923"	"110.335"	"127.966"	"265.311"	"94.34"	"22.492"	"0"	"0"
"1971"	"16.135"	"14.644"	"8.162"	"12.128"	"44.054"	"115.705"	"299.651"	"387.89"	"187.46"	"57.515"	"10.323"	"0.204"
"1972"	"8.608"	"19.636"	"4.51"	"12.257"	"1.266"	"45.615"	"317.624"	"279.058"	"186.036"	"25.641"	"5.611"	"2.007"
"1973"	"25.755"	"12.54"	"11.425"	"0.079"	"17.668"	"111.21"	"144.792"	"347.942"	"96.21"	"51.488"	"0"	"3.811"
"1974"	"7.796"	"6.329"	"4.109"	"1.092"	"10.32"	"49.247"	"283.351"	"146.246"	"19.055"	"11.691"	"0"	"15.33"
"1975"	"41.438"	"15.363"	"14.502"	"0.734"	"3.488"	"101.904"	"374.234"	"286.916"	"262.854"	"26.075"	"0"	"0"
"1976"	"2.648"	"33.066"	"9.876"	"12.471"	"28.054"	"75.414"	"267.28"	"527.349"	"83.524"	"6.883"	"0"	"0.798"
"1977"	"27.919"	"1.809"	"0.961"	"25.181"	"43.788"	"102.058"	"339.048"	"159.439"	"121.375"	"22.329"	"0.047"	"12.845"
"1978"	"3.685"	"14.673"	"30.689"	"7.705"	"2.306"	"103.455"	"223.863"	"381.938"	"200.277"	"4.376"	"3.999"	"4.638"
"1979"	"19.185"	"33.524"	"21.762"	"6.969"	"27.515"	"67.441"	"158.678"	"139.128"	"37.065"	"3.26"	"14.492"	"5.873"
"1980"	"7.007"	"11.658"	"26.259"	"3.047"	"5.921"	"131.539"	"518.496"	"325.287"	"200.009"	"20.838"	"2.609"	"5.408"
"1981"	"40.836"	"13.327"	"29.873"	"0.778"	"19.805"	"116.748"	"373.562"	"103.066"	"71.061"	"2.57"	"35.504"	"5.626"
"1982"	"24.263"	"7.041"	"56.207"	"30.709"	"44.191"	"51.239"	"199.049"	"386.401"	"36.819"	"16.71"	"5.759"	"11.539"
"1983"	"54.951"	"14.675"	"14.713"	"40.912"	"47.967"	"98.166"	"247.156"	"196.783"	"260.17"	"31.741"	"0"	"7.015"
"1984"	"6.143"	"43.591"	"3.541"	"19.528"	"1.258"	"88.862"	"215.389"	"252.678"	"84.548"	"1.014"	"0"	"6.022"
"1985"	"11.783"	"0.899"	"0.852"	"14.265"	"19.924"	"87.943"	"338.973"	"302.798"	"128.548"	"67.568"	"0.194"	"30.18"
"1986"	"12.044"	"29.821"	"9.882"	"13.249"	"36.319"	"60.438"	"279.756"	"199.867"	"126.922"	"11.608"	"6.86"	"35.504"
"1987"	"20.606"	"21.976"	"10.135"	"5.185"	"44.222"	"14.419"	"54.27"	"189.693"	"47.958"	"2.187"	"0"	"6.06"
"1988"	"4.274"	"21.815"	"23.92"	"11.961"	"10.448"	"75.288"	"364.734"	"420.057"	"139.02"	"0.879"	"0.596"	"11.319"
"1989"	"58.679"	"7.086"	"21.643"	"0.565"	"11.559"	"77.792"	"182.825"	"205.344"	"111.26"	"4.29"	"6.899"	"5.341"
"1990"	"0.432"	"41.557"	"19.039"	"5.993"	"34.024"	"70.029"	"302.729"	"332.821"	"180.605"	"9.036"	"10.349"	"33.049"
"1991"	"1.652"	"29.622"	"11.813"	"14.339"	"36.469"	"49.842"	"66.542"	"343.135"	"77.646"	"0.248"	"11.596"	"12.731"
"1992"	"25.462"	"32.567"	"6.275"	"6.659"	"15.358"	"46.009"	"150.059"	"261.685"	"93.104"	"10.546"	"32.4"	"0"
"1993"	"16.089"	"10.863"	"12.158"	"6.24"	"21.908"	"185.717"	"312.145"	"133.823"	"241.268"	"0.2"	"0"	"0"
"1994"	"13.573"	"2.608"	"18.07"	"8.439"	"26.501"	"58.744"	"359.65"	"301.082"	"55.811"	"0.738"	"0"	"1.562"
"1995"	"44.275"	"34.484"	"41.622"	"6.666"	"1.818"	"54.899"	"166.764"	"476.534"	"217.996"	"1.028"	"11.955"	"0.49"
"1996"	"28.756"	"25.378"	"8.035"	"4.903"	"27.318"	"165.969"	"201.542"	"325.669"	"257.247"	"22.288"	"0"	"0"
"1997"	"15.171"	"4.493"	"10.41"	"15.892"	"33.412"	"157.743"	"110.66"	"214.792"	"67.079"	"40.426"	"17.396"	"9.333"
"1998"	"5.112"	"23.184"	"29.381"	"15.463"	"11.97"	"51.529"	"245.251"	"342.812"	"142.131"	"41.984"	"11.191"	"0.191"
"1999"	"25.621"	"3.992"	"0.783"	"0"	"15.937"	"91.743"	"103.793"	"94.18"	"126.686"	"22.331"	"0"	"4.579"
"2000"	"18.719"	"44.342"	"11.318"	"2.257"	"22.081"	"142.794"	"238.105"	"225.087"	"58.017"	"0.2"	"1.009"	"10.268"
"2001"	"9.751"	"10.189"	"4.445"	"22.054"	"51.757"	"91.863"	"179.458"	"134.742"	"43.447"	"2.94"	"0"	"1.441"
"2002"	"21.382"	"27.097"	"21.231"	"5.45"	"3.895"	"40.183"	"79.804"	"164.282"	"230.758"	"2.21"	"0.399"	"4.77"
