
"Year"	"Jan"	"Feb"	"Mar"	"Apr"	"May"	"Jun"	"Jul"	"Aug"	"Sep"	"Oct"	"Nov"	"Dec"
"1901"	"46.101"	"12.182"	"18.31"	"4.087"	"25.239"	"29.759"	"305.328"	"200.772"	"53.472"	"0.388"	"0"	"6.256"
"1902"	"0.29"	"4.421"	"13.528"	"16.3"	"16.857"	"60.607"	"209.204"	"155.014"	"102.975"	"5.801"	"3.19"	"0"
"1903"	"24.536"	"8.383"	"18.962"	"2.99"	"11.867"	"26.259"	"288.091"	"168.925"	"72.615"	"10.796"	"0"	"5.212"
"1904"	"28.995"	"2.336"	"51.256"	"5.798"	"16.812"	"65.346"	"143.296"	"181.946"	"87.808"	"3.841"	"22.38"	"6.881"
"1905"	"73.003"	"41.629"	"11.116"	"5.289"	"7.592"	"29.776"	"120.845"	"124.973"	"228.435"	"3.208"	"0"	"16.268"
"1906"	"11.59"	"82.606"	"16.584"	"5.733"	"21.631"	"61.555"	"101.011"	"230.848"	"246.047"	"1.087"	"0"	"4.311"
"1907"	"18.509"	"51.95"	"40.266"	"30.054"	"6.796"	"84.635"	"139.722"	"205.618"	"8.767"	"1.825"	"0.201"	"0"
"1908"	"39.822"	"16.56"	"1.676"	"13.382"	"18.386"	"63.097"	"165.981"	"409.387"	"174.245"	"0.689"	"0.589"	"5.129"
"1909"	"30.186"	"14.57"	"2.33"	"41.686"	"4.553"	"155.815"	"338.469"	"192.602"	"220.337"	"0.788"	"2.666"	"51.787"
"1910"	"32.35"	"11.982"	"3.982"	"19.273"	"13.368"	"137.589"	"215.435"	"209.778"	"77.716"	"2.054"	"1.177"	"5.8"
"1911"	"66.067"	"4.739"	"68.724"	"9.677"	"6.191"	"74.831"	"97.775"	"173.135"	"127.729"	"4.211"	"40.806"	"1.388"
"1912"	"46.858"	"12.644"	"11.368"	"22.946"	"16.171"	"41.881"	"123.463"	"206.365"	"80.753"	"0.398"	"22.347"	"9.467"
"1913"	"14.136"	"41.996"	"31.839"	"9.68"	"46.406"	"107.105"	"169.67"	"216.88"	"31.439"	"1.696"	"5.887"	"19.54"
"1914"	"20.275"	"44.972"	"27.703"	"19.582"	"18.108"	"58.909"	"293.145"	"159.322"	"271.046"	"20.562"	"15.323"	"11.345"
"1915"	"8.374"	"66.146"	"26.673"	"9.535"	"8.77"	"61.953"	"86.518"	"271.559"	"104.009"	"18.306"	"0"	"5.244"
"1916"	"2.321"	"12.072"	"2.593"	"7.066"	"16.379"	"94.752"	"392.813"	"177.485"	"111.635"	"10.09"	"0.311"	"0"
"1917"	"7.314"	"16.296"	"19.352"	"28.053"	"31.148"	"140.207"	"171.365"	"338.715"	"256.27"	"21.39"	"0"	"8.535"
"1918"	"3.355"	"1.729"	"28.622"	"30.433"	"3.452"	"78.169"	"72.558"	"115.874"	"33.522"	"0.598"	"19.035"	"9.628"
"1919"	"67.854"	"18.811"	"16.117"	"18.536"	"15.048"	"29.389"	"241.6"	"153.194"	"71.781"	"3.385"	"2.477"	"10.834"
"1920"	"24.194"	"20.851"	"22.514"	"8.468"	"19.185"	"77.023"	"115.731"	"127.021"	"64.275"	"0.905"	"0"	"0.589"
"1921"	"23.455"	"2.056"	"2.873"	"3.53"	"12.365"	"70.707"	"221.62"	"236.716"	"104.491"	"14.052"	"0"	"13.621"
"1922"	"26.866"	"22.502"	"7.135"	"5.992"	"9.227"	"59.079"	"162.32"	"207.097"	"309.883"	"4.597"	"3.531"	"43.632"
"1923"	"28.984"	"52.478"	"4.967"	"17.345"	"18.112"	"11.707"	"257.406"	"228.635"	"81.321"	"14.758"	"14.215"	"28.341"
"1924"	"40.149"	"49.56"	"9.794"	"4.253"	"22.517"	"12.159"	"257.336"	"114.592"	"236.04"	"12.866"	"1.766"	"47.819"
"1925"	"17.339"	"2.958"	"5.033"	"5.238"	"19.29"	"178.053"	"257.095"	"245.691"	"38.294"	"2.496"	"22.172"	"0"
"1926"	"15.767"	"6.45"	"46.256"	"18.282"	"14.526"	"20.473"	"181.889"	"281.939"	"77.691"	"1.286"	"8.448"	"10.838"
"1927"	"1.693"	"28.71"	"12.446"	"7.816"	"24.029"	"32.631"	"122.602"	"276.602"	"58.768"	"17.777"	"0"	"25.636"
"1928"	"27.015"	"42.113"	"10.788"	"18.293"	"4.521"	"42.431"	"175.185"	"137.37"	"191.074"	"0.189"	"20.687"	"21.366"
"1929"	"33.717"	"3.079"	"5.445"	"9.463"	"5.192"	"145.201"	"159.717"	"307.672"	"25.497"	"7.068"	"0"	"54.72"
"1930"	"30.335"	"11.848"	"6.134"	"19.796"	"8.175"	"40.136"	"260.534"	"133.882"	"41.788"	"5.492"	"10.086"	"9.751"
"1931"	"28.908"	"40.001"	"16.694"	"10.628"	"19.01"	"19.401"	"352.67"	"222.787"	"186.344"	"25.117"	"1.177"	"0"
"1932"	"17.689"	"4.611"	"16.36"	"6.675"	"8.077"	"55.42"	"139.434"	"132.118"	"108.388"	"1.276"	"0.589"	"29.993"
"1933"	"14.238"	"24.618"	"14.216"	"15.973"	"15.959"	"71.349"	"188.413"	"318.753"	"146.412"	"17.83"	"8.496"	"0.825"
"1934"	"21.513"	"6.351"	"17.063"	"1.515"	"6.066"	"50.864"	"195.493"	"276.924"	"27.781"	"0"	"0"	"17.476"
"1935"	"66.421"	"50.19"	"10.264"	"19.366"	"9.323"	"5.263"	"121.038"	"127.052"	"74.214"	"0.752"	"18.438"	"10.795"
"1936"	"6.829"	"40.681"	"31.66"	"17.199"	"12.423"	"263.419"	"377.159"	"202.545"	"101.539"	"11.659"	"2.942"	"35.54"
"1937"	"6.034"	"82.631"	"7.945"	"28.032"	"12.884"	"47.416"	"305.846"	"71.706"	"109.014"	"8.418"	"1.097"	"20.474"
"1938"	"51.163"	"28.265"	"2.245"	"5.673"	"1.667"	"183.872"	"154.395"	"164.889"	"24.87"	"7.4"	"1.286"	"1.678"
"1939"	"17.8"	"48.606"	"24.846"	"10.787"	"6.05"	"65.184"	"143.918"	"92.29"	"63.992"	"7.889"	"0"	"0"
"1940"	"41.156"	"46.83"	"23.076"	"10.725"	"10.197"	"102.302"	"116.98"	"179.018"	"76.19"	"1.113"	"0.862"	"7.695"
"1941"	"29.787"	"15.028"	"6.64"	"5.851"	"24.063"	"68.376"	"117.814"	"89.103"	"191.001"	"1.176"	"2.228"	"14.732"
"1942"	"40.371"	"44.179"	"12.734"	"23.712"	"19.775"	"67.476"	"286.376"	"198.61"	"96.101"	"2.261"	"1.388"	"28.79"
"1943"	"27.567"	"3.777"	"9.718"	"17.714"	"6.563"	"106.656"	"104.351"	"161.043"	"77.779"	"0"	"0"	"0"
"1944"	"34.815"	"36.725"	"20.837"	"21.415"	"2.419"	"91.266"	"150.105"	"177.557"	"99.776"	"1.004"	"3.67"	"9.714"
"1945"	"32.379"	"1.496"	"18.317"	"37.292"	"9.676"	"82.458"	"281.994"	"129.679"	"212.453"	"13.215"	"0.201"	"2.829"
"1946"	"2.156"	"15.839"	"9.11"	"15.026"	"24.71"	"83.452"	"186.875"	"155.664"	"30.263"	"14.442"	"12.038"	"13.093"
"1947"	"17.673"	"22.502"	"18.981"	"1.441"	"8.001"	"24.398"	"140.604"	"260.857"	"108.105"	"10.789"	"1.286"	"13.998"
"1948"	"5.905"	"40.228"	"47.764"	"11.14"	"9.538"	"77.98"	"296.284"	"277.622"	"90.394"	"4.831"	"3.684"	"15.007"
"1949"	"10.03"	"49.81"	"16.15"	"12.194"	"11.563"	"37.893"	"346.887"	"128.738"	"126.572"	"6.769"	"0.906"	"2.112"
"1950"	"79.69"	"26.952"	"41.775"	"5.354"	"13.257"	"65.11"	"334.661"	"214.297"	"313.465"	"0.634"	"0.697"	"1.105"
"1951"	"28.339"	"23.891"	"27.642"	"17.777"	"19.083"	"62.984"	"139.379"	"171.611"	"73.549"	"4.572"	"24.381"	"2.012"
"1952"	"19.959"	"20.254"	"31.463"	"7.325"	"17.522"	"63.842"	"132.076"	"131.974"	"13.351"	"1.1"	"9.539"	"7.513"
"1953"	"45.788"	"10.735"	"11.379"	"10.494"	"4.209"	"54.684"	"331.281"	"217.068"	"170.656"	"4.086"	"2.939"	"10.004"
"1954"	"32.1"	"68.821"	"6.518"	"1.662"	"11.63"	"46.452"	"245.588"	"108.775"	"345.449"	"12.967"	"0"	"2.038"
"1955"	"28.181"	"2.786"	"31.864"	"14.955"	"16.527"	"46.798"	"161.017"	"185.149"	"249.127"	"27.311"	"0"	"3.931"
"1956"	"24.013"	"13.278"	"25.884"	"11.756"	"19.765"	"133.169"	"200.828"	"197.501"	"28.145"	"32.001"	"0"	"6.104"
"1957"	"81.439"	"6.24"	"29.507"	"31.798"	"13.163"	"45.704"	"137.856"	"333.554"	"91.491"	"11.254"	"14.874"	"25.351"
"1958"	"13.48"	"8.056"	"11.942"	"9.195"	"5.942"	"55.051"	"167.523"	"205.869"	"253.465"	"20.194"	"2.354"	"33.491"
"1959"	"35.253"	"18.747"	"17.256"	"6.385"	"33.406"	"16.746"	"393.822"	"220.062"	"71.803"	"14.426"	"32.329"	"0.743"
"1960"	"26.295"	"2.638"	"26.594"	"12.709"	"9.182"	"55.222"	"190.595"	"158.401"	"93.199"	"14.022"	"0"	"7.763"
"1961"	"94.856"	"37.022"	"10.262"	"15.312"	"9.752"	"32.389"	"286.191"	"172.918"	"160.234"	"18.558"	"2.114"	"18.564"
"1962"	"42.956"	"29.953"	"22.749"	"1.718"	"10.973"	"18.067"	"178.706"	"153.706"	"239.62"	"0"	"12.783"	"16.094"
"1963"	"3.293"	"28.119"	"50.025"	"7.842"	"24.5"	"27.368"	"124.998"	"130.403"	"115.276"	"1.504"	"5.427"	"20.915"
"1964"	"27.682"	"7.41"	"12.335"	"11.081"	"18.102"	"60.891"	"336.896"	"180.685"	"106.019"	"0"	"2.964"	"10.447"
"1965"	"11.382"	"35.333"	"21.546"	"37.981"	"15.938"	"7.91"	"185.447"	"161.138"	"9.093"	"13.56"	"10.511"	"0"
"1966"	"3.812"	"58.278"	"27.423"	"14.598"	"22.425"	"122.116"	"171.494"	"199.601"	"204.18"	"16.111"	"16.263"	"1.375"
"1967"	"0.3"	"24.688"	"50.476"	"6.604"	"3.546"	"13.813"	"129.385"	"363.787"	"50.634"	"3.85"	"3.012"	"49.959"
"1968"	"36.414"	"37.284"	"12.86"	"5.102"	"6.022"	"31.911"	"174.161"	"219.1"	"13.861"	"11.711"	"0"	"9.794"
"1969"	"10.47"	"13.278"	"27.651"	"39.296"	"25.975"	"20.745"	"244.878"	"179.656"	"203.511"	"3.009"	"0.553"	"0"
"1970"	"27.085"	"23.584"	"11.285"	"0.59"	"14.346"	"62.307"	"74.733"	"227.046"	"68.592"	"3.571"	"0"	"0.198"
"1971"	"6.604"	"19.467"	"7.78"	"21.495"	"52.309"	"98.157"	"211.94"	"301.196"	"75.552"	"15.756"	"5.146"	"0"
"1972"	"15.52"	"20.943"	"7.357"	"7.403"	"4.958"	"22.452"	"131.01"	"157.937"	"248.97"	"18.904"	"15.319"	"10.154"
"1973"	"20.82"	"17.987"	"13.239"	"1.217"	"15.936"	"84.878"	"190.05"	"297.076"	"103.867"	"10.33"	"0"	"16.201"
"1974"	"13.418"	"16.516"	"2.795"	"1.261"	"20.213"	"40.892"	"216.311"	"108.586"	"32.678"	"1.356"	"0"	"11.396"
"1975"	"36.713"	"30.048"	"31.021"	"3.738"	"1.412"	"131.893"	"240.946"	"205.606"	"228.631"	"4.526"	"0"	"0"
"1976"	"16.005"	"37.534"	"15.353"	"12.269"	"14.713"	"165.591"	"202.907"	"539.184"	"158.469"	"12.314"	"0"	"0.182"
"1977"	"41.522"	"2.736"	"1.69"	"42.883"	"42.695"	"166.184"	"235.241"	"162.35"	"81.168"	"21.158"	"0.927"	"10.447"
"1978"	"6.476"	"10.494"	"63.506"	"12.002"	"0.724"	"101.563"	"328.076"	"395.487"	"225.731"	"0.633"	"12.319"	"2.215"
"1979"	"16.431"	"55.474"	"36.646"	"6.89"	"24.744"	"49.266"	"194.992"	"97.552"	"119.654"	"7.1"	"11.785"	"1.917"
"1980"	"15.246"	"21.844"	"24.958"	"6.243"	"10.066"	"129.107"	"489.558"	"324.921"	"126.059"	"7.971"	"9.355"	"10.89"
"1981"	"88.637"	"22.317"	"43.61"	"7.64"	"11.911"	"16.551"	"422.603"	"126.63"	"16.811"	"7.156"	"45.766"	"0.868"
"1982"	"28.83"	"20.848"	"91.625"	"20.184"	"37.582"	"16.706"	"72.293"	"236.625"	"10.624"	"1.329"	"24.277"	"23.832"
"1983"	"53.178"	"27.296"	"49.424"	"43.045"	"62.361"	"81.659"	"211.234"	"251.757"	"112.797"	"21.629"	"0"	"3.369"
"1984"	"2.433"	"69.942"	"9.309"	"18.604"	"0.609"	"39.506"	"436.693"	"256.889"	"174.758"	"0.161"	"0"	"21.132"
"1985"	"18.234"	"1.67"	"9.582"	"27.896"	"19.91"	"96.169"	"378.613"	"212.338"	"137.448"	"22.48"	"1.846"	"25.088"
"1986"	"4.077"	"41.436"	"18.276"	"13.824"	"31.274"	"89.134"	"292.249"	"225.745"	"159.162"	"8.096"	"4.28"	"35.673"
"1987"	"38.143"	"26.815"	"19.123"	"10.677"	"23.51"	"61.461"	"95.506"	"128.715"	"13.404"	"13.938"	"0"	"13.028"
"1988"	"7.699"	"17.331"	"52.069"	"11.384"	"3.349"	"71.614"	"337.647"	"197.907"	"162.223"	"20.782"	"0.262"	"28.865"
"1989"	"58.363"	"8.68"	"18.214"	"2.989"	"8.78"	"43.722"	"276.723"	"145.054"	"70.99"	"0.887"	"9.332"	"4.309"
"1990"	"4.868"	"77.127"	"60.793"	"12.942"	"36.169"	"29.768"	"224.6"	"261.6"	"245.38"	"3.716"	"14.748"	"41.981"
"1991"	"1.912"	"26.39"	"14.342"	"41.417"	"23.778"	"119.248"	"36.637"	"197.301"	"85.927"	"2.809"	"3.88"	"10.071"
"1992"	"49.511"	"48.361"	"19.739"	"10.296"	"33.498"	"39.274"	"155.092"	"217.012"	"113.439"	"4.145"	"31.878"	"1.946"
"1993"	"14.772"	"19.625"	"20.495"	"20.444"	"16.195"	"72.957"	"182.034"	"42.271"	"182.942"	"0"	"0"	"0"
"1994"	"23.575"	"13.757"	"10.623"	"6.909"	"51.476"	"43.754"	"210.228"	"156.923"	"142.933"	"2.054"	"0"	"7.245"
"1995"	"40.127"	"99.592"	"27.959"	"6.306"	"0.751"	"90.603"	"183.63"	"343.471"	"139.555"	"2.369"	"23.444"	"1.319"
"1996"	"46.878"	"43.647"	"25.407"	"10.808"	"28.572"	"212.723"	"148.958"	"355.73"	"86.822"	"9.884"	"0"	"2.537"
"1997"	"23.846"	"12.184"	"18.841"	"44.624"	"21.93"	"147.871"	"239.979"	"301.671"	"79.858"	"19.273"	"20.939"	"5.401"
"1998"	"35.834"	"40.381"	"41.57"	"26.996"	"23.901"	"17.713"	"222.999"	"176.333"	"97.553"	"17.842"	"4.12"	"2.546"
"1999"	"16.865"	"13.548"	"8.407"	"7.17"	"17.033"	"79.732"	"104.482"	"168.934"	"100.042"	"4.417"	"2.348"	"4.391"
"2000"	"20.084"	"35.982"	"10.045"	"3.153"	"16.96"	"94.128"	"215.905"	"143.746"	"63.664"	"0"	"3.523"	"0.942"
"2001"	"8.737"	"10.62"	"13.251"	"13.464"	"27.596"	"74.851"	"279.644"	"70.025"	"59.834"	"0.942"	"2.457"	"2.408"
"2002"	"17.295"	"35.664"	"33.044"	"7.966"	"12.769"	"64.37"	"96.213"	"147.965"	"200.045"	"0.923"	"0"	"3.881"
