
"Year"	"Jan"	"Feb"	"Mar"	"Apr"	"May"	"Jun"	"Jul"	"Aug"	"Sep"	"Oct"	"Nov"	"Dec"
"1901"	"34.24"	"35.301"	"6.011"	"22.667"	"59.373"	"102.761"	"271.778"	"350.499"	"222.268"	"50.263"	"24.475"	"0"
"1902"	"0.672"	"0.22"	"31.356"	"76.735"	"79.15"	"122.259"	"336.581"	"270.729"	"351.908"	"44.344"	"0.419"	"5.799"
"1903"	"5.001"	"18.04"	"20.399"	"49.534"	"59.097"	"181.059"	"133.852"	"307.175"	"204.324"	"161.449"	"2.229"	"0"
"1904"	"0"	"15.993"	"59.923"	"5.597"	"242.505"	"406.75"	"364.393"	"288.416"	"98.474"	"15.296"	"5.153"	"0.005"
"1905"	"18.589"	"56.052"	"75.754"	"48.819"	"125.553"	"54.462"	"404.168"	"373.96"	"253.504"	"50.212"	"0.005"	"0.315"
"1906"	"34.212"	"112.807"	"51.286"	"1.606"	"59.045"	"224.321"	"249.946"	"240.779"	"134.925"	"170.039"	"3.075"	"0.043"
"1907"	"0.377"	"40.404"	"82.259"	"41.937"	"65.245"	"285.508"	"197.521"	"239.963"	"205.82"	"28.159"	"0"	"4.871"
"1908"	"14.442"	"42.306"	"7.361"	"1.414"	"56.644"	"403.279"	"366.432"	"312.862"	"138.976"	"24.982"	"0.297"	"0.315"
"1909"	"12.84"	"9.145"	"0.264"	"112.458"	"51.526"	"378.075"	"186.093"	"465.124"	"212.906"	"35.205"	"1.597"	"6.55"
"1910"	"7.866"	"44.447"	"34.022"	"48.813"	"56.787"	"194.979"	"308.569"	"357.19"	"212.058"	"104.934"	"3.136"	"0"
"1911"	"0.495"	"0.589"	"48.136"	"12.211"	"51.66"	"583.546"	"140.772"	"289.694"	"241.702"	"140.248"	"10.62"	"0"
"1912"	"0.069"	"8.2"	"52.407"	"58.433"	"77.354"	"216.714"	"300.51"	"293.583"	"63.978"	"55.825"	"24.562"	"0.422"
"1913"	"0.271"	"51.336"	"51.605"	"9.337"	"124.946"	"585.171"	"199.3"	"372.293"	"186.209"	"81.682"	"3.981"	"10.282"
"1914"	"0"	"42.086"	"25.736"	"42.126"	"121.518"	"154.125"	"460.57"	"352.042"	"120.971"	"32.404"	"0"	"10.845"
"1915"	"4.239"	"21.115"	"64.088"	"15.308"	"87.469"	"251.659"	"243.875"	"356.175"	"222.823"	"62.721"	"20.243"	"0"
"1916"	"0.002"	"7.202"	"4.65"	"29.206"	"39.377"	"445.324"	"272.702"	"352.476"	"325.384"	"317.379"	"9.583"	"0"
"1917"	"1.504"	"42.687"	"22.113"	"24.577"	"130.273"	"217.458"	"298.013"	"225.373"	"304.8"	"290.394"	"5.297"	"0"
"1918"	"2.296"	"0.245"	"18.492"	"60.472"	"107.32"	"300.451"	"107.051"	"518.564"	"200.851"	"13.354"	"0.297"	"4.346"
"1919"	"15.979"	"31.792"	"23.139"	"31.753"	"92.348"	"258.875"	"268.641"	"468.008"	"156.813"	"111.175"	"14.589"	"0"
"1920"	"0.03"	"34.646"	"107.013"	"8.144"	"49.605"	"118.417"	"457.336"	"322.16"	"330.228"	"37.137"	"0.067"	"0"
"1921"	"37.571"	"4.695"	"16.22"	"27.311"	"37.269"	"246.997"	"272.454"	"449.498"	"177.547"	"30.027"	"0"	"0"
"1922"	"8.004"	"5.07"	"0.306"	"11.718"	"30.311"	"507.655"	"297.279"	"378.452"	"328.466"	"44.351"	"0.321"	"4.761"
"1923"	"0.795"	"72.716"	"12.02"	"7.898"	"22.406"	"150.016"	"249.709"	"371.006"	"140.36"	"102.213"	"5.101"	"1.767"
"1924"	"6.775"	"14.167"	"0.795"	"23.11"	"32.894"	"270.775"	"323.8"	"383.776"	"246.719"	"87.323"	"30.878"	"0"
"1925"	"48.941"	"15.304"	"11.841"	"82.345"	"70.725"	"300.914"	"447.228"	"276.629"	"219.274"	"63.387"	"3.697"	"0"
"1926"	"29.123"	"3.961"	"113.474"	"23.908"	"113.166"	"81.805"	"442.979"	"394.687"	"210.749"	"62.025"	"0.171"	"7.578"
"1927"	"19.143"	"108.731"	"51.1"	"13.206"	"72.058"	"281.757"	"272.354"	"294.35"	"105.257"	"56.712"	"14.007"	"0"
"1928"	"45.024"	"1.472"	"2.75"	"30.1"	"105.563"	"473.566"	"436.001"	"242.597"	"237.691"	"113.788"	"0.077"	"0.66"
"1929"	"33.718"	"6.695"	"37.55"	"35.819"	"50.235"	"168.254"	"331.629"	"218.382"	"113.949"	"310.947"	"0.075"	"5.589"
"1930"	"0.2"	"17.231"	"11.848"	"14.124"	"64.175"	"182.554"	"403.881"	"285.804"	"163.381"	"62.153"	"23.123"	"3.909"
"1931"	"14.68"	"93.164"	"36.853"	"6.925"	"79.463"	"155.487"	"392.306"	"210.385"	"394.187"	"70.328"	"10.313"	"0.523"
"1932"	"0.07"	"52.513"	"11.598"	"26.868"	"134.014"	"80.472"	"329.296"	"266.237"	"240.312"	"55.24"	"29.183"	"3.14"
"1933"	"44.378"	"25.977"	"2.778"	"55.374"	"102.573"	"308.119"	"298.105"	"443.322"	"158.392"	"106.244"	"0"	"0"
"1934"	"8.326"	"35.482"	"2.417"	"51.689"	"44.948"	"205.409"	"229.766"	"348.912"	"271.885"	"79.55"	"7.574"	"2.847"
"1935"	"16.572"	"18.174"	"18.239"	"19.215"	"17.904"	"168.514"	"188.389"	"549.282"	"301.351"	"11.481"	"0"	"1.865"
"1936"	"7.457"	"13.536"	"23.105"	"5.541"	"154.057"	"270.807"	"279.457"	"230.735"	"464.46"	"105.398"	"0.069"	"17.016"
"1937"	"0"	"51.986"	"10.193"	"56.981"	"78.97"	"266.651"	"179.919"	"418.803"	"286.822"	"154.088"	"1.072"	"0.825"
"1938"	"3.936"	"31.147"	"12.657"	"2.719"	"169.709"	"298.231"	"158.27"	"282.789"	"94.3"	"59.108"	"1.468"	"0"
"1939"	"8.261"	"20.981"	"11.754"	"19.843"	"43.267"	"228.554"	"446.997"	"373.906"	"303.533"	"156.482"	"2.444"	"0.264"
"1940"	"0"	"32.722"	"125.288"	"8.331"	"78.679"	"150.779"	"237.758"	"340.624"	"184.138"	"53.615"	"0.005"	"1.656"
"1941"	"35.045"	"0.591"	"14.296"	"19.339"	"53.224"	"367.118"	"327.56"	"446.965"	"244.321"	"195.095"	"24.95"	"0"
"1942"	"0.439"	"69.682"	"14.832"	"17.257"	"17.86"	"111.258"	"400.293"	"541.146"	"433.308"	"90.464"	"2.319"	"0.314"
"1943"	"44.541"	"20.298"	"23.486"	"113.779"	"63.764"	"190.975"	"588.696"	"368.666"	"222.364"	"68.929"	"0"	"0"
"1944"	"19.389"	"55.904"	"81.511"	"39.29"	"53.892"	"197.996"	"355.037"	"522.188"	"133.96"	"67.62"	"0"	"0"
"1945"	"29.816"	"31.232"	"9.826"	"79.517"	"70.473"	"198.441"	"225.861"	"361.663"	"296.991"	"189.386"	"0"	"0.66"
"1946"	"0"	"3.916"	"26.147"	"41.606"	"93.419"	"196.666"	"275.526"	"300.99"	"271.569"	"193.344"	"18.285"	"0.043"
"1947"	"2.337"	"12.849"	"40.413"	"6.689"	"65.544"	"213.643"	"325.358"	"324.383"	"336.686"	"67.581"	"0.073"	"6.396"
"1948"	"6.681"	"17.664"	"40.05"	"87.893"	"78.793"	"208.141"	"288.934"	"310.782"	"123.163"	"122.041"	"27.724"	"0.043"
"1949"	"1.103"	"14.824"	"30.489"	"59.373"	"156.826"	"331.678"	"317.373"	"441.443"	"180.993"	"59.119"	"0"	"0"
"1950"	"0.006"	"8.308"	"66.541"	"18.874"	"43.513"	"428.466"	"289.446"	"308.392"	"166.507"	"83.541"	"20.989"	"0.193"
"1951"	"5.276"	"0.218"	"70.303"	"16.089"	"35.747"	"220.503"	"429.734"	"360.076"	"300.925"	"111.098"	"22.321"	"0"
"1952"	"0"	"12.194"	"49.282"	"65.828"	"38.465"	"245.402"	"319.175"	"299.3"	"222.821"	"123.009"	"18.784"	"0.064"
"1953"	"42.234"	"18.363"	"50.633"	"2.17"	"34.955"	"236.432"	"350.862"	"276.184"	"295.125"	"21.417"	"2.074"	"0"
"1954"	"17.765"	"9.568"	"1.265"	"2.654"	"63.979"	"271.992"	"253.76"	"305.994"	"283.927"	"76.383"	"0"	"6.936"
"1955"	"31.519"	"9.382"	"21.506"	"29.142"	"34.343"	"186.298"	"305.113"	"192.916"	"177.411"	"146.423"	"23.923"	"0.007"
"1956"	"10.978"	"50.846"	"43.694"	"53.841"	"110.635"	"372.707"	"236.895"	"360.427"	"316.057"	"173.896"	"18.576"	"3.617"
"1957"	"31.448"	"19.536"	"33.293"	"9.555"	"4.555"	"125.365"	"263.168"	"181.174"	"255.82"	"94.871"	"0"	"0.009"
"1958"	"9.04"	"44.264"	"18.258"	"21.585"	"28.378"	"103.164"	"315.007"	"498.182"	"219.524"	"139.258"	"4.17"	"0"
"1959"	"8.989"	"3.46"	"16.926"	"24.392"	"70.01"	"189.835"	"240.492"	"332.01"	"292.716"	"374.363"	"0"	"0.646"
"1960"	"0.749"	"0.218"	"56.445"	"2.16"	"47.143"	"131.358"	"322.234"	"276.163"	"229.127"	"76.326"	"1.717"	"0"
"1961"	"16.09"	"103.997"	"1.951"	"1.264"	"50.398"	"229.178"	"142.785"	"387.491"	"287.943"	"129.707"	"1.459"	"2.452"
"1962"	"13.241"	"18.915"	"4.372"	"12.176"	"58.28"	"179.971"	"209.124"	"417.605"	"149.947"	"94.644"	"0"	"1.519"
"1963"	"0.75"	"3.532"	"36.971"	"79.772"	"120.284"	"285.441"	"260.689"	"150.587"	"242.194"	"237.961"	"8.579"	"0.074"
"1964"	"0.223"	"3.038"	"20.02"	"71.975"	"70.815"	"178.49"	"310.974"	"267.012"	"167.512"	"81.429"	"7.886"	"0"
"1965"	"0.475"	"23.194"	"14.801"	"35.446"	"22.948"	"147.556"	"257.102"	"383.362"	"233.282"	"52.37"	"3.073"	"1.923"
"1966"	"42.243"	"2.538"	"2.216"	"10.562"	"16.222"	"208.005"	"112.843"	"302.017"	"154.09"	"44.293"	"25.161"	"15.356"
"1967"	"10.33"	"1.195"	"69.784"	"62.831"	"34.905"	"164.571"	"218.993"	"408.544"	"155.297"	"49.931"	"0"	"1.59"
"1968"	"12.493"	"11.651"	"18.645"	"14.907"	"21.949"	"433.895"	"348.592"	"379.744"	"98.91"	"144.099"	"11.918"	"2.134"
"1969"	"5.468"	"5.871"	"42.386"	"53.24"	"73.699"	"158.197"	"283.017"	"409.793"	"222.247"	"73.442"	"10.266"	"0"
"1970"	"18.592"	"12.506"	"34.704"	"6.34"	"45.609"	"254.268"	"269.695"	"251.036"	"338.503"	"181.348"	"7.389"	"0"
"1971"	"31.783"	"38.462"	"8.809"	"170.318"	"114.035"	"357.496"	"434.535"	"609.767"	"303.592"	"103.737"	"6.245"	"0"
"1972"	"6.388"	"44.412"	"1.592"	"17.542"	"18.843"	"77.191"	"172.864"	"449.274"	"168.324"	"80.464"	"3.755"	"0.152"
"1973"	"3.224"	"8.5"	"41.226"	"11.311"	"133.703"	"397.489"	"236.122"	"263.87"	"493.583"	"185.603"	"24.117"	"20.673"
"1974"	"1.59"	"0.219"	"89.576"	"20.746"	"87.071"	"102.212"	"283.904"	"230.338"	"361.281"	"107.287"	"3.077"	"0.75"
"1975"	"7.419"	"13.323"	"10.678"	"12.287"	"73.208"	"149.392"	"333.087"	"194.443"	"211.197"	"114.982"	"10.6"	"0"
"1976"	"0.019"	"23.806"	"8.046"	"29.621"	"105.66"	"74.285"	"350.052"	"276.49"	"298.2"	"27.96"	"1.208"	"0"
"1977"	"4.496"	"36.431"	"1.514"	"44.822"	"138.673"	"392.33"	"576.013"	"200.093"	"159.168"	"89.907"	"18.475"	"24.231"
"1978"	"0.902"	"63.278"	"72.195"	"67.893"	"100.813"	"276.17"	"323.233"	"335.205"	"556.967"	"162.742"	"18.652"	"4.207"
"1979"	"34.576"	"37.626"	"6.952"	"45.89"	"26.805"	"99.029"	"261.712"	"241.996"	"203.025"	"70.76"	"5.974"	"28.097"
"1980"	"23.744"	"26.281"	"80.143"	"2.517"	"89.46"	"313.678"	"252.979"	"291.381"	"120.677"	"86.781"	"3.676"	"0.152"
"1981"	"14.776"	"27.521"	"66.573"	"102.617"	"129.735"	"138.049"	"347.432"	"220.197"	"204.373"	"1.076"	"1.946"	"11.35"
"1982"	"3.336"	"14.315"	"45.636"	"83.498"	"34.052"	"119.362"	"154.997"	"326.412"	"180.388"	"28.351"	"8.487"	"0.423"
"1983"	"9.009"	"29.259"	"45.268"	"35"	"118.872"	"205.081"	"310.867"	"260.523"	"126.235"	"151.969"	"0.301"	"4.425"
"1984"	"27.626"	"13.907"	"5.863"	"52.664"	"58.038"	"575.063"	"324.38"	"335.825"	"307.669"	"64.066"	"0"	"0"
"1985"	"8.042"	"8.436"	"1.87"	"24.697"	"54.579"	"156.021"	"378.335"	"202.81"	"176.608"	"95.933"	"0.84"	"10.149"
"1986"	"10.261"	"9.009"	"1.077"	"47.481"	"96.179"	"198.206"	"308.371"	"217.442"	"460.519"	"83.855"	"27.365"	"3.394"
"1987"	"0.923"	"3.636"	"21.895"	"52.584"	"67.057"	"102.349"	"257.231"	"245.701"	"119.432"	"36.704"	"14.826"	"2.774"
"1988"	"4.488"	"34.432"	"34.418"	"11.984"	"69.2"	"209.887"	"261.555"	"429.78"	"134.518"	"77.911"	"22.782"	"2.106"
"1989"	"4.004"	"3.448"	"6.233"	"1.862"	"103.451"	"230.489"	"206.766"	"284.786"	"267.75"	"109.893"	"5.443"	"4.496"
"1990"	"0.004"	"21.348"	"42.731"	"29.798"	"199.932"	"299.841"	"515.163"	"240.259"	"287.414"	"257.885"	"7.707"	"0.638"
"1991"	"5.808"	"6.407"	"47.308"	"12.829"	"49.28"	"202.534"	"271.186"	"488.857"	"238.368"	"99.659"	"2.821"	"14.469"
"1992"	"12.654"	"8.277"	"2.385"	"11.258"	"62.288"	"209.446"	"319.102"	"196.837"	"165.503"	"53.278"	"0.186"	"0.071"
"1993"	"7.086"	"2.324"	"56.18"	"65.412"	"85.708"	"323.783"	"258.708"	"335.256"	"330.024"	"126.018"	"7.646"	"0"
"1994"	"21.046"	"37.339"	"47.263"	"54.567"	"70.651"	"150.23"	"266.606"	"352.369"	"114.589"	"166.049"	"4.123"	"0.005"
"1995"	"16.688"	"25.296"	"23.486"	"17.991"	"70.543"	"115.258"	"252.93"	"244.178"	"385.255"	"96.121"	"16.751"	"0.341"
"1996"	"8.015"	"16.452"	"8.4"	"38.18"	"44.383"	"204.116"	"157.005"	"443.205"	"137.353"	"154.618"	"0"	"0"
"1997"	"23.048"	"12.998"	"37.129"	"51.476"	"120.836"	"65.679"	"306.5"	"373.005"	"242.23"	"68.224"	"12.321"	"12.169"
"1998"	"17.903"	"57.35"	"27.994"	"37.809"	"103.87"	"149.118"	"195.371"	"244.364"	"233.334"	"302.487"	"22.339"	"0"
"1999"	"5.725"	"4.317"	"1.303"	"1.239"	"118.423"	"192.308"	"256.94"	"410.632"	"370.68"	"79.92"	"9.681"	"0.005"
"2000"	"4.276"	"38.559"	"4.435"	"53.44"	"104.988"	"214.122"	"149.719"	"241.783"	"205.048"	"35.05"	"4.497"	"1.174"
"2001"	"0.872"	"6.073"	"56.514"	"29.425"	"106.367"	"195.847"	"187.57"	"257.092"	"113.39"	"151.316"	"6.71"	"0"
"2002"	"21.107"	"10.114"	"13.384"	"54.036"	"49.423"	"190.68"	"222.533"	"336.445"	"206.487"	"101.698"	"11.41"	"0"
