
"Year"	"Jan"	"Feb"	"Mar"	"Apr"	"May"	"Jun"	"Jul"	"Aug"	"Sep"	"Oct"	"Nov"	"Dec"
"1901"	"12.956"	"15.862"	"23.125"	"28.446"	"32.825"	"35.918"	"32.938"	"29.976"	"30.341"	"28.353"	"21.323"	"16.129"
"1902"	"15.861"	"18.353"	"25.034"	"29.455"	"33.384"	"33.598"	"30.836"	"30.934"	"29.324"	"26.621"	"20.372"	"14.742"
"1903"	"14.511"	"16.371"	"21.813"	"27.656"	"32.344"	"35.886"	"33.237"	"29.817"	"30.274"	"26.125"	"19.735"	"14.533"
"1904"	"13.973"	"17.513"	"22.414"	"29.747"	"32.393"	"34.634"	"29.947"	"28.947"	"29.023"	"26.493"	"19.663"	"15.554"
"1905"	"12.559"	"12.592"	"19.322"	"26.305"	"33.794"	"35.756"	"31.955"	"30.217"	"31.051"	"27.276"	"21.861"	"15.772"
"1906"	"13.58"	"15.178"	"20.674"	"28.617"	"35.223"	"33.587"	"31.536"	"29.587"	"28.825"	"26.986"	"21.505"	"16.229"
"1907"	"15.995"	"14.982"	"19.792"	"26.328"	"31.446"	"34.519"	"33.584"	"29.378"	"30.774"	"27.326"	"20.872"	"14.382"
"1908"	"13.884"	"17.183"	"22.566"	"29.889"	"32.903"	"35.467"	"29.968"	"28.507"	"29.334"	"26.137"	"19.903"	"14.631"
"1909"	"13.56"	"15.791"	"22.938"	"26.88"	"32.137"	"32.539"	"29.72"	"29.268"	"29.028"	"26.797"	"21.682"	"14.712"
"1910"	"13.746"	"16.973"	"22.816"	"28.07"	"33.444"	"33.647"	"30.999"	"29.688"	"29.484"	"25.314"	"19.661"	"14.9"
"1911"	"15.748"	"17.392"	"20.683"	"28.637"	"34.657"	"34.686"	"32.965"	"30.768"	"28.923"	"26.976"	"18.536"	"14.771"
"1912"	"14.781"	"17.894"	"22.058"	"28.705"	"33.662"	"35.884"	"31.916"	"29.717"	"28.306"	"26.593"	"19.43"	"14.938"
"1913"	"14.922"	"16.57"	"20.535"	"30.005"	"31.315"	"32.297"	"31.189"	"31.096"	"31.213"	"27.722"	"20.211"	"15.104"
"1914"	"16.253"	"16.71"	"22.263"	"29.345"	"33.341"	"33.697"	"30.809"	"29.715"	"29.733"	"25.386"	"20.88"	"14.481"
"1915"	"14.253"	"15.215"	"22.386"	"28.516"	"35.323"	"34.576"	"33.204"	"30.836"	"30.963"	"28.436"	"20.713"	"15.799"
"1916"	"15.163"	"16.482"	"25.479"	"30.525"	"33.236"	"33.167"	"31.038"	"29.109"	"29.224"	"25.975"	"18.776"	"14.221"
"1917"	"14.752"	"17.132"	"22.292"	"25.667"	"28.981"	"33.147"	"30.078"	"28.89"	"28.155"	"25.025"	"17.998"	"15.09"
"1918"	"13.592"	"17.278"	"22.355"	"26.697"	"34.923"	"33.948"	"34.123"	"31.762"	"30.722"	"27.223"	"20.381"	"14.328"
"1919"	"14.36"	"15.965"	"23.15"	"28.064"	"32.501"	"36.133"	"30.248"	"29.147"	"29.465"	"26.166"	"19.824"	"14.491"
"1920"	"14.507"	"16.182"	"22.719"	"28.585"	"30.123"	"33.105"	"30.316"	"30.424"	"31.291"	"28.202"	"21.91"	"16.161"
"1921"	"15.298"	"18.053"	"25.746"	"31.904"	"36.163"	"35.194"	"33.342"	"29.377"	"28.711"	"25.764"	"20.302"	"16.849"
"1922"	"14.039"	"18.271"	"24.405"	"29.706"	"33.886"	"33.658"	"31.195"	"28.938"	"28.524"	"25.977"	"19.972"	"14.737"
"1923"	"14.214"	"16.081"	"23.337"	"29.805"	"32.766"	"36.665"	"31.796"	"28.87"	"29.503"	"25.584"	"20.062"	"15.11"
"1924"	"13.322"	"16.463"	"23.946"	"29.517"	"30.612"	"36.317"	"31.226"	"29.407"	"28.583"	"25.647"	"19.873"	"15.331"
"1925"	"12.423"	"14.927"	"22.825"	"30.737"	"32.735"	"31.058"	"29.17"	"30.208"	"30.311"	"26.744"	"19.192"	"14.841"
"1926"	"14.522"	"18.082"	"21.432"	"25.805"	"30.937"	"35.818"	"31.746"	"29.24"	"28.708"	"25.475"	"18.163"	"14.411"
"1927"	"12.674"	"15.063"	"21.447"	"27.909"	"31.974"	"34.417"	"30.659"	"28.758"	"29.224"	"26.325"	"19.721"	"16.291"
"1928"	"13.752"	"17.222"	"22.976"	"28.525"	"34.643"	"34.196"	"31.646"	"31.457"	"30.735"	"27.435"	"21.24"	"14.98"
"1929"	"14.102"	"15.603"	"24.645"	"29.854"	"34.294"	"34.296"	"30.919"	"29.057"	"30.85"	"26.702"	"20.893"	"14.175"
"1930"	"13.598"	"16.663"	"23.915"	"28.718"	"33.143"	"33.639"	"29.54"	"29.477"	"29.686"	"26.593"	"19.941"	"15.041"
"1931"	"15.465"	"15.38"	"21.847"	"30.168"	"33.332"	"35.338"	"31.658"	"29.949"	"28.805"	"25.814"	"19.515"	"15.462"
"1932"	"15.954"	"15.962"	"23.703"	"28.825"	"32.154"	"35.895"	"31.887"	"28.881"	"29.144"	"26.451"	"19.815"	"14.67"
"1933"	"12.226"	"17.28"	"22.976"	"27.284"	"30.154"	"32.921"	"29.659"	"28.1"	"28.088"	"25.426"	"19.655"	"15.518"
"1934"	"12.714"	"18.064"	"21.624"	"28.608"	"32.474"	"32.999"	"30.608"	"28.329"	"29.714"	"25.393"	"19.791"	"15.811"
"1935"	"12.472"	"17.364"	"22.587"	"25.906"	"33.705"	"35.588"	"30.628"	"29.037"	"28.997"	"25.974"	"20.829"	"14.977"
"1936"	"12.943"	"17.109"	"22.367"	"28.555"	"34.842"	"31.598"	"29.998"	"28.87"	"28.795"	"26.063"	"20.263"	"15.098"
"1937"	"13.273"	"16.999"	"21.154"	"26.877"	"32.903"	"34.489"	"30.709"	"31.003"	"29.742"	"25.844"	"19.963"	"14.241"
"1938"	"13.472"	"15.51"	"24.196"	"30.075"	"35.041"	"32.846"	"31.457"	"30.344"	"30.87"	"27.521"	"18.912"	"14.865"
"1939"	"14.923"	"17.149"	"20.293"	"27.717"	"34.914"	"32.577"	"31.046"	"31.075"	"29.724"	"27.296"	"19.806"	"15.433"
"1940"	"14.214"	"16.382"	"21.062"	"27.704"	"34.179"	"35.225"	"31.896"	"28.74"	"29.253"	"26.428"	"21.063"	"14.945"
"1941"	"13.303"	"17.841"	"25.176"	"31.824"	"34.822"	"32.99"	"33.585"	"30.576"	"30.104"	"28.893"	"20.649"	"16.492"
"1942"	"12.923"	"18.262"	"24.588"	"30.603"	"34.341"	"35.647"	"29.901"	"28.479"	"28.068"	"26.218"	"21.203"	"14.31"
"1943"	"14.491"	"17.193"	"23.627"	"27.355"	"33.138"	"33.867"	"30.429"	"28.469"	"29.733"	"26.207"	"21.245"	"16.27"
"1944"	"13.41"	"16.532"	"21.485"	"27.737"	"34.903"	"33.288"	"30.391"	"29.908"	"29.296"	"25.835"	"20.882"	"16.363"
"1945"	"12.221"	"16.204"	"23.636"	"27.897"	"33.007"	"35.336"	"31.109"	"30.016"	"28.604"	"25.785"	"20.492"	"13.991"
"1946"	"15.056"	"18.695"	"22.467"	"30.085"	"33.252"	"33.946"	"30.579"	"29.6"	"29.843"	"26.873"	"20.195"	"14.995"
"1947"	"13.271"	"17.614"	"23.905"	"30.534"	"34.032"	"36.186"	"32.105"	"30.206"	"29.135"	"25.394"	"21.39"	"15.451"
"1948"	"13.688"	"16.521"	"21.388"	"31.343"	"34.644"	"35.781"	"31.288"	"28.747"	"29.304"	"27.151"	"19.682"	"15.277"
"1949"	"16.083"	"17.412"	"23.266"	"30.174"	"34.172"	"35.167"	"30.637"	"29.648"	"30.162"	"26.563"	"19.202"	"14.427"
"1950"	"15.45"	"15.188"	"21.624"	"27.887"	"33.605"	"34.875"	"30.48"	"29.392"	"28.655"	"25.806"	"19.505"	"13.74"
"1951"	"13.45"	"16.803"	"22.754"	"26.814"	"33.145"	"34.128"	"32.887"	"30.114"	"29.681"	"29.293"	"21.872"	"15.739"
"1952"	"15.534"	"19.432"	"22.704"	"31.323"	"33.944"	"33.197"	"31.327"	"28.85"	"30.603"	"27.293"	"20.923"	"15.958"
"1953"	"13.477"	"19.091"	"26.493"	"30.176"	"34.433"	"35.398"	"31.091"	"29.208"	"29.724"	"26.843"	"20.341"	"17.607"
"1954"	"13.241"	"18.112"	"23.206"	"30.067"	"35.092"	"35.217"	"31.537"	"30.626"	"29.95"	"24.406"	"20.787"	"15.403"
"1955"	"14.021"	"17.673"	"25.325"	"27.525"	"32.025"	"35.345"	"31.786"	"28.93"	"29.144"	"25.134"	"19.815"	"15.545"
"1956"	"14.496"	"17.835"	"23.365"	"30.117"	"34.794"	"34.325"	"30.056"	"29.268"	"30.403"	"25.394"	"19.493"	"15.82"
"1957"	"13.671"	"16.147"	"21.884"	"27.886"	"32.174"	"33.822"	"31.165"	"30.167"	"28.238"	"26.493"	"21.333"	"15.92"
"1958"	"16.102"	"16.929"	"24.335"	"31.217"	"33.434"	"35.157"	"30.45"	"29.24"	"29.153"	"26.307"	"20.702"	"16.692"
"1959"	"14.405"	"16.743"	"24.156"	"29.384"	"32.845"	"35.008"	"30.766"	"29.819"	"29.865"	"27.463"	"20.831"	"16.522"
"1960"	"14.103"	"20.305"	"22.645"	"28.178"	"33.514"	"35.305"	"30.908"	"29.132"	"30.074"	"25.946"	"19.923"	"16.363"
"1961"	"14.992"	"15.49"	"23.506"	"28.62"	"33.074"	"33.827"	"30.944"	"28.899"	"29.645"	"25.593"	"19.053"	"12.962"
"1962"	"13.345"	"17.941"	"22.904"	"29.982"	"33.343"	"34.888"	"31.728"	"30.197"	"28.562"	"25.008"	"20.648"	"15.423"
"1963"	"13.688"	"19.083"	"23.014"	"28.555"	"32.036"	"33.89"	"32.544"	"29.066"	"28.336"	"27.078"	"22.022"	"15.561"
"1964"	"12.936"	"17.245"	"24.885"	"30.076"	"31.454"	"34.649"	"29.43"	"29.829"	"28.209"	"26.099"	"19.523"	"15.717"
"1965"	"16.103"	"17.019"	"22.284"	"27.019"	"32.066"	"35.739"	"31.215"	"29.796"	"28.838"	"26.653"	"21.449"	"15.141"
"1966"	"15.275"	"19.673"	"23.176"	"29.526"	"33.137"	"33.119"	"32.387"	"29.466"	"28.948"	"26.916"	"20.634"	"14.814"
"1967"	"13.268"	"19.353"	"21.988"	"28.307"	"32.907"	"35.015"	"30.795"	"28.517"	"28.167"	"25.794"	"20.121"	"15.629"
"1968"	"13.679"	"15.682"	"22.695"	"28.358"	"32.676"	"34.476"	"30.396"	"29.447"	"30.223"	"26.013"	"20.748"	"15.832"
"1969"	"14.573"	"18.104"	"25.618"	"29.583"	"31.924"	"35.515"	"30.806"	"29.843"	"28.824"	"27.184"	"21.702"	"15.911"
"1970"	"15.01"	"16.512"	"22.485"	"30.368"	"33.633"	"32.15"	"31.935"	"29.737"	"29.594"	"27.046"	"20.352"	"16.192"
"1971"	"13.455"	"17.81"	"23.326"	"29.933"	"31.143"	"32.023"	"29.755"	"28.304"	"28.625"	"26.075"	"20.41"	"16.132"
"1972"	"14.944"	"15.391"	"23.906"	"28.475"	"34.624"	"35.455"	"32.065"	"29.29"	"28.33"	"26.014"	"21.329"	"16.249"
"1973"	"14.632"	"19.071"	"23.105"	"31.029"	"34.201"	"34.495"	"31.565"	"29.297"	"29.513"	"26.216"	"20.472"	"14.202"
"1974"	"14.142"	"16.235"	"24.765"	"31.105"	"33.074"	"34.072"	"30.398"	"30.053"	"30.281"	"26.857"	"20.401"	"14.749"
"1975"	"13.51"	"16.344"	"23.025"	"30.638"	"34.573"	"32.568"	"30.337"	"29.137"	"27.854"	"26.816"	"19.662"	"16.129"
"1976"	"15.751"	"17.832"	"22.617"	"28.565"	"32.465"	"32.144"	"31.254"	"28.396"	"28.851"	"27.123"	"21.762"	"15.702"
"1977"	"14.345"	"17.763"	"24.776"	"28.636"	"31.084"	"32.808"	"29.137"	"29.546"	"27.973"	"26.912"	"22.672"	"17.611"
"1978"	"14.214"	"16.142"	"21.054"	"28.935"	"35.772"	"33.575"	"29.618"	"28.895"	"28.665"	"26.632"	"21.288"	"16.041"
"1979"	"15.261"	"16.197"	"21.275"	"30.004"	"30.743"	"33.955"	"31.056"	"30.327"	"29.676"	"27.845"	"22.63"	"16.756"
"1980"	"14.662"	"18.6"	"22.326"	"31.583"	"36.494"	"33.223"	"29.547"	"29.705"	"29.231"	"27.365"	"21.098"	"16.377"
"1981"	"14.82"	"18.282"	"22.126"	"29.872"	"33.181"	"34.834"	"29.756"	"29.744"	"30.172"	"26.743"	"20.221"	"15.789"
"1982"	"15.052"	"16.181"	"20.313"	"27.878"	"30.096"	"33.609"	"32.256"	"29.464"	"29.443"	"27.024"	"21.351"	"16.748"
"1983"	"13.951"	"16.209"	"22.146"	"26.046"	"31.107"	"32.887"	"30.643"	"29.219"	"29.301"	"25.954"	"20.189"	"15.985"
"1984"	"13.73"	"15.611"	"24.864"	"29.793"	"35.365"	"34.424"	"30.177"	"29.119"	"28.136"	"26.217"	"20.656"	"16.567"
"1985"	"14.34"	"18.033"	"25.226"	"29.975"	"34.2"	"34.207"	"30.037"	"29.465"	"28.534"	"24.984"	"21.037"	"16.985"
"1986"	"14.482"	"16.674"	"22.882"	"29.144"	"31.216"	"33.558"	"30.056"	"30.066"	"29.423"	"26.114"	"21.789"	"14.979"
"1987"	"15.23"	"19.02"	"24.127"	"30.156"	"30.575"	"35.156"	"33.894"	"30.737"	"31.105"	"27.934"	"21.522"	"16.322"
"1988"	"16.354"	"19.152"	"23.418"	"30.659"	"35.274"	"33.288"	"30.116"	"28.93"	"29.753"	"26.706"	"21.169"	"16.457"
"1989"	"13.771"	"16.863"	"22.764"	"28.016"	"33.655"	"32.975"	"31.103"	"29.625"	"29.324"	"26.784"	"20.846"	"15.349"
"1990"	"16.773"	"17.432"	"21.333"	"28.785"	"32.422"	"34.357"	"30.215"	"29.686"	"28.784"	"25.915"	"21.31"	"16.336"
"1991"	"13.678"	"18.183"	"23.114"	"28.174"	"33.404"	"33.596"	"32.974"	"29.437"	"29.771"	"25.865"	"20.132"	"15.785"
"1992"	"15.029"	"16.391"	"23.063"	"28.789"	"32.484"	"34.853"	"30.868"	"29.205"	"28.473"	"26.125"	"20.303"	"16.686"
"1993"	"14.592"	"19.312"	"21.103"	"28.523"	"34.013"	"34.406"	"30.742"	"30.307"	"28.106"	"26.144"	"21.501"	"15.961"
"1994"	"16.034"	"17.381"	"24.304"	"27.567"	"33.753"	"34.459"	"30.291"	"29.496"	"29.075"	"25.955"	"20.751"	"16.54"
"1995"	"13.931"	"17.753"	"21.988"	"28.907"	"34.578"	"35.649"	"31.566"	"28.298"	"29.293"	"27.266"	"20.952"	"16.23"
"1996"	"14.338"	"17.693"	"24.045"	"29.478"	"33.087"	"32.509"	"30.595"	"28.365"	"28.905"	"26.279"	"20.003"	"14.991"
"1997"	"13.556"	"16.941"	"22.584"	"27.468"	"31.153"	"32.006"	"31.571"	"29.269"	"29.283"	"24.424"	"19.914"	"13.78"
"1998"	"13.167"	"17.691"	"21.146"	"29.654"	"34.243"	"33.78"	"30.946"	"29.367"	"29.634"	"26.587"	"21.486"	"16.05"
"1999"	"13.852"	"18.327"	"24.407"	"31.35"	"33.735"	"33.326"	"31.748"	"30.528"	"29.356"	"26.768"	"21.844"	"16.112"
"2000"	"14.644"	"16.235"	"22.665"	"31.055"	"34.242"	"32.288"	"30.149"	"29.957"	"29.574"	"27.177"	"22.305"	"16.471"
"2001"	"13.772"	"18.092"	"23.325"	"29.143"	"32.784"	"31.67"	"31.108"	"30.567"	"30.262"	"27.715"	"21.723"	"16.758"
"2002"	"14.726"	"17.452"	"24.134"	"30.786"	"34.315"	"33.809"	"33.168"	"30.368"	"27.914"	"27.065"	"21.272"	"16.578"
