
"Year"	"Jan"	"Feb"	"Mar"	"Apr"	"May"	"Jun"	"Jul"	"Aug"	"Sep"	"Oct"	"Nov"	"Dec"
"1901"	"21.392"	"22.112"	"27.507"	"31.025"	"32.807"	"30.703"	"26.561"	"24.966"	"26.452"	"26.576"	"22.075"	"20.434"
"1902"	"22.661"	"24.473"	"29.052"	"32.255"	"33.582"	"31.413"	"27.281"	"27.061"	"26.038"	"26.299"	"21.747"	"20.305"
"1903"	"21.782"	"22.133"	"26.61"	"30.945"	"31.673"	"31.499"	"26.699"	"25.957"	"25.874"	"25.109"	"20.816"	"19.804"
"1904"	"21.974"	"23.314"	"26.958"	"31.909"	"33.334"	"29.449"	"26.564"	"26.109"	"25.692"	"26.058"	"21.042"	"20.753"
"1905"	"20.649"	"21.001"	"26.333"	"29.13"	"34.383"	"31.34"	"26.668"	"26.313"	"25.641"	"25.92"	"22.895"	"19.568"
"1906"	"20.674"	"22.809"	"27.273"	"31.668"	"33.746"	"28.928"	"26.388"	"26.219"	"25.037"	"25.214"	"23.034"	"21.061"
"1907"	"21.737"	"23.082"	"26.949"	"29.382"	"31.643"	"30.094"	"27.385"	"24.811"	"26.772"	"27.568"	"23.972"	"19.736"
"1908"	"20.842"	"23.314"	"26.504"	"31.904"	"32.817"	"29.887"	"25.627"	"25.062"	"26.372"	"26.251"	"22.073"	"19.052"
"1909"	"22.77"	"24.221"	"29.046"	"30.216"	"33.002"	"29.241"	"25.966"	"26.199"	"25.402"	"25.407"	"22.326"	"21.362"
"1910"	"21.684"	"22.962"	"27.592"	"31.177"	"32.654"	"28.828"	"26.737"	"25.925"	"25.454"	"24.655"	"20.344"	"20.426"
"1911"	"22.212"	"22.093"	"25.924"	"30.961"	"33.745"	"28.935"	"27.35"	"25.632"	"26.007"	"27.01"	"24.475"	"21.65"
"1912"	"22.269"	"24.637"	"27.875"	"31.919"	"33.544"	"32.299"	"27.139"	"25.556"	"26.479"	"26.255"	"22.119"	"19.763"
"1913"	"20.76"	"24.928"	"26.897"	"32.695"	"32.484"	"28.787"	"26.461"	"25.521"	"26.212"	"26.658"	"22.562"	"21.491"
"1914"	"21.851"	"24.322"	"26.912"	"30.797"	"33.021"	"29.068"	"26.145"	"26.02"	"26.268"	"26.292"	"23.916"	"20.889"
"1915"	"21.323"	"23.25"	"27.223"	"30.685"	"33.276"	"32.141"	"27.672"	"25.802"	"26.392"	"26.211"	"24.382"	"20.039"
"1916"	"21.099"	"22.976"	"28.585"	"32.197"	"33.464"	"27.691"	"27.109"	"25.787"	"26.079"	"25.818"	"22.343"	"19.64"
"1917"	"21.312"	"22.525"	"26.622"	"29.533"	"31.155"	"28.35"	"25.906"	"26.311"	"25.226"	"24.809"	"20.992"	"20.414"
"1918"	"19.717"	"23.849"	"27.372"	"30.12"	"32.358"	"28.388"	"27.59"	"26.036"	"26.964"	"26.731"	"23.896"	"21.121"
"1919"	"22.535"	"24.251"	"28.474"	"30.778"	"32.942"	"28.467"	"26.174"	"25.642"	"26.13"	"25.171"	"23.998"	"20.44"
"1920"	"21.664"	"22.754"	"27.945"	"31.28"	"31.103"	"30.201"	"26.109"	"26.21"	"27.061"	"27.674"	"23.049"	"21.054"
"1921"	"22.407"	"23.417"	"29.259"	"32.611"	"33.57"	"28.925"	"27.527"	"25.84"	"25.091"	"25.368"	"21.177"	"21.225"
"1922"	"21.269"	"24.715"	"27.885"	"31.784"	"33.058"	"29.312"	"26.116"	"25.777"	"25.415"	"25.472"	"21.457"	"18.718"
"1923"	"21.252"	"22.522"	"27.784"	"31.082"	"32.207"	"31.851"	"26.294"	"25.424"	"25.812"	"24.684"	"22.05"	"21.8"
"1924"	"22.695"	"24.951"	"29.433"	"32.557"	"33.091"	"30.82"	"26.947"	"26.199"	"25.714"	"24.143"	"20.671"	"20.761"
"1925"	"19.532"	"22.048"	"27.634"	"32.694"	"32.026"	"28.351"	"25.839"	"25.812"	"26.612"	"27.062"	"23.375"	"20.011"
"1926"	"22.143"	"24.908"	"27.806"	"29.03"	"32.818"	"32.504"	"27.143"	"25.416"	"26.015"	"26.168"	"21.847"	"20.366"
"1927"	"22.465"	"23.786"	"27.444"	"31.409"	"32.83"	"29.641"	"25.863"	"25.842"	"26.366"	"25.681"	"20.149"	"21.028"
"1928"	"21.695"	"23.304"	"27.819"	"31.206"	"33.445"	"29.797"	"26.042"	"26.019"	"25.642"	"25.645"	"22.922"	"20.414"
"1929"	"20.706"	"23.063"	"28.833"	"31.115"	"33.826"	"29.053"	"26.361"	"26.349"	"26.353"	"25.873"	"22.923"	"20.797"
"1930"	"21.848"	"21.64"	"28.188"	"31.242"	"33.109"	"30.06"	"25.985"	"25.371"	"26.072"	"26.721"	"21.674"	"21.804"
"1931"	"22.445"	"24.592"	"27.657"	"32.566"	"33.606"	"31.646"	"26.626"	"25.577"	"25.503"	"24.874"	"22.13"	"20.129"
"1932"	"21.47"	"21.811"	"26.918"	"30.542"	"33.298"	"29.774"	"25.926"	"26.099"	"26.116"	"26.816"	"22.519"	"20.631"
"1933"	"21.56"	"24.224"	"28.087"	"30.966"	"30.805"	"28.128"	"26.786"	"25.548"	"25.387"	"25.423"	"22.771"	"20.458"
"1934"	"20.509"	"23.27"	"27.237"	"31.795"	"33.2"	"29.942"	"26.101"	"25.076"	"25.035"	"24.941"	"20.946"	"20.678"
"1935"	"20.218"	"23.085"	"26.634"	"29.367"	"33.217"	"29.951"	"25.537"	"25.399"	"24.916"	"26.229"	"22.332"	"21.71"
"1936"	"21.443"	"23.075"	"27.448"	"30.197"	"33.412"	"27.923"	"26.7"	"25.553"	"25.874"	"25.568"	"23.365"	"20.595"
"1937"	"20.055"	"23.975"	"26.757"	"30.166"	"32.753"	"29.96"	"25.463"	"26.002"	"25.736"	"25.305"	"23.111"	"20.512"
"1938"	"23.369"	"21.926"	"29.06"	"31.618"	"32.816"	"26.357"	"25.526"	"26.015"	"26.168"	"25.011"	"21.713"	"20.304"
"1939"	"22.407"	"24.914"	"26.585"	"30.851"	"32.716"	"29.752"	"26.165"	"26.175"	"25.746"	"26.289"	"21.536"	"19.642"
"1940"	"21.258"	"24.228"	"25.95"	"30.865"	"33.039"	"29.552"	"25.617"	"25.337"	"26.146"	"26.017"	"23.03"	"21.282"
"1941"	"21.331"	"23.772"	"29.019"	"32.306"	"33.706"	"31.361"	"26.269"	"25.936"	"26.736"	"27.167"	"23.125"	"22.084"
"1942"	"21.742"	"23.9"	"28.752"	"32.389"	"33.174"	"30.766"	"25.401"	"25.409"	"25.186"	"25.935"	"22.08"	"20.611"
"1943"	"22.444"	"21.726"	"27.761"	"30.816"	"33.055"	"28.761"	"25.728"	"25.307"	"25.362"	"24.696"	"22.86"	"19.16"
"1944"	"21.391"	"22.892"	"26.804"	"30.273"	"33.69"	"30.136"	"25.868"	"25.331"	"26.133"	"25.437"	"22.163"	"22.116"
"1945"	"20.64"	"22.447"	"27.411"	"30.269"	"33.217"	"30.482"	"25.912"	"25.925"	"25.463"	"25.752"	"21.274"	"19.466"
"1946"	"21.02"	"24.252"	"27.854"	"32.166"	"32.451"	"28.487"	"25.868"	"25.342"	"25.851"	"26.684"	"22.783"	"22.899"
"1947"	"21.408"	"24.044"	"27.836"	"30.663"	"33.562"	"30.981"	"26.685"	"26.812"	"25.639"	"24.584"	"23.07"	"21.419"
"1948"	"22.055"	"23.403"	"27.858"	"32.146"	"34.174"	"29.403"	"25.937"	"25.5"	"25.19"	"27.002"	"23.97"	"19.676"
"1949"	"21.87"	"22.704"	"28.644"	"32.14"	"33.293"	"28.675"	"26.545"	"26.65"	"25.203"	"26.01"	"21.848"	"21.045"
"1950"	"21.996"	"22.567"	"27.248"	"31.594"	"33.216"	"30.648"	"26.361"	"26.897"	"25.964"	"25.488"	"21.231"	"20.958"
"1951"	"20.696"	"23.383"	"28.269"	"30.403"	"33.617"	"30.013"	"27.598"	"25.584"	"27.186"	"27.348"	"23.75"	"20.064"
"1952"	"21.88"	"25.188"	"27.134"	"32.545"	"33.78"	"30.128"	"27.048"	"25.385"	"26.562"	"26.597"	"21.85"	"23.32"
"1953"	"21.656"	"26.273"	"30.047"	"31.918"	"33.333"	"30.767"	"26.668"	"25.461"	"26.684"	"25.902"	"22.336"	"20.92"
"1954"	"20.582"	"24.962"	"28.382"	"32.239"	"34.273"	"30.042"	"26.564"	"26.195"	"24.6"	"24.446"	"22.047"	"20.908"
"1955"	"22.516"	"25.175"	"29.442"	"29.916"	"33.218"	"29.391"	"26.8"	"25.378"	"25.709"	"25.383"	"21.135"	"20.441"
"1956"	"22.356"	"24.004"	"28.833"	"31.972"	"32.395"	"28.261"	"25.176"	"25.597"	"25.855"	"25.49"	"22.23"	"21.199"
"1957"	"22.167"	"22.637"	"27.221"	"30.972"	"32.718"	"30.86"	"26.627"	"25.911"	"26.31"	"26.554"	"24.428"	"23.298"
"1958"	"22.588"	"23.94"	"28.211"	"32.582"	"34.017"	"31.776"	"26.453"	"26.366"	"25.573"	"26.149"	"24.065"	"21.573"
"1959"	"22.637"	"24.452"	"28.907"	"31.964"	"34.075"	"30.643"	"25.786"	"25.262"	"25.389"	"26.11"	"23.358"	"21.81"
"1960"	"21.191"	"24.842"	"26.937"	"31.606"	"32.953"	"28.761"	"26.744"	"24.926"	"26.328"	"25.71"	"22.545"	"22.716"
"1961"	"22.718"	"22.204"	"29.206"	"31.868"	"32.895"	"29.313"	"25.915"	"25.925"	"24.786"	"24.708"	"23.106"	"20.569"
"1962"	"19.875"	"23.831"	"27.273"	"30.683"	"32.969"	"30.317"	"26.735"	"26.152"	"25.355"	"25.128"	"23.086"	"21.017"
"1963"	"21.138"	"24.584"	"27.845"	"30.427"	"32.782"	"29.452"	"26.999"	"25.239"	"26.103"	"26.329"	"24.316"	"21.711"
"1964"	"21.174"	"23.981"	"29.137"	"32.818"	"32.555"	"29.687"	"26.388"	"25.064"	"26.053"	"26.52"	"22.275"	"21.123"
"1965"	"22.284"	"23.738"	"27.621"	"30.872"	"33.83"	"30.201"	"26.222"	"26.049"	"25.801"	"26.628"	"23.103"	"21.314"
"1966"	"20.755"	"24.458"	"26.72"	"31.123"	"31.57"	"30.923"	"27.826"	"26.211"	"26.172"	"27.347"	"24.825"	"21.331"
"1967"	"21.333"	"24.843"	"27.74"	"30.887"	"33.192"	"29.947"	"26.853"	"25.541"	"26.002"	"26.596"	"23.921"	"22.661"
"1968"	"20.44"	"22.917"	"26.8"	"30.218"	"32.392"	"30.529"	"26.776"	"24.862"	"27.049"	"25.367"	"22.389"	"21.212"
"1969"	"21.868"	"25.086"	"30.14"	"32.588"	"33.687"	"30.637"	"26.165"	"25.1"	"25.063"	"26.087"	"24.698"	"21.483"
"1970"	"21.956"	"25.282"	"28.161"	"32.494"	"33.844"	"27.892"	"26.992"	"25.635"	"25.602"	"25.786"	"21.525"	"19.566"
"1971"	"20.936"	"24.012"	"27.362"	"32.495"	"31.785"	"28.161"	"26.753"	"26.297"	"26.454"	"25.445"	"21.785"	"19.666"
"1972"	"20.555"	"22.401"	"29.609"	"31.204"	"33.143"	"30.575"	"27.126"	"25.438"	"26.407"	"27.187"	"23.006"	"22.494"
"1973"	"22.097"	"24.83"	"28.74"	"33.719"	"34.517"	"30.278"	"25.388"	"25.275"	"25.072"	"25.705"	"22.004"	"21.905"
"1974"	"20.75"	"23.986"	"29.289"	"32.091"	"32.236"	"30"	"27.325"	"25.489"	"27.597"	"25.858"	"21.584"	"20.127"
"1975"	"19.921"	"23.634"	"27.692"	"32.85"	"33.019"	"28.87"	"26.164"	"25.187"	"25.213"	"26.197"	"20.722"	"19.257"
"1976"	"20.623"	"23.844"	"27.965"	"30.844"	"32.406"	"28.424"	"26.432"	"25.348"	"25.606"	"27.312"	"25.486"	"22.6"
"1977"	"21.226"	"24.659"	"30.135"	"31.246"	"32.12"	"29.562"	"26.715"	"25.395"	"25.375"	"26.548"	"24.864"	"20.557"
"1978"	"20.236"	"23.238"	"26.331"	"31.246"	"33.841"	"28.677"	"25.813"	"25.272"	"26.623"	"26.703"	"25.107"	"20.963"
"1979"	"23.469"	"23.054"	"26.984"	"31.344"	"32.286"	"31.277"	"27.126"	"25.337"	"26.901"	"27.255"	"24.814"	"21.617"
"1980"	"22.462"	"24.689"	"28.237"	"32.543"	"33.951"	"27.899"	"26.366"	"25.131"	"26.926"	"27.832"	"25.415"	"21.128"
"1981"	"19.939"	"24.975"	"27.262"	"31.435"	"32.805"	"30.392"	"26.02"	"25.53"	"26.03"	"26.456"	"22.166"	"20.738"
"1982"	"22.712"	"23.275"	"26.971"	"30.719"	"31.772"	"30.724"	"27.582"	"26.072"	"26.687"	"27.343"	"24.384"	"23.096"
"1983"	"21.928"	"23.532"	"27.867"	"30.602"	"33.769"	"31.266"	"27.792"	"26.339"	"25.829"	"25.172"	"21.667"	"20.465"
"1984"	"21.87"	"22.691"	"28.86"	"31.904"	"33.957"	"29.387"	"26.789"	"25.081"	"25.987"	"26.493"	"22.726"	"22.277"
"1985"	"23.17"	"23.981"	"29.667"	"31.486"	"33.343"	"29.432"	"26.521"	"25.772"	"27.326"	"25.155"	"23.044"	"22.569"
"1986"	"22.314"	"24.489"	"28.945"	"32.23"	"33.138"	"29.277"	"26.299"	"25.184"	"27.685"	"27.968"	"23.577"	"21.617"
"1987"	"23.157"	"24.779"	"28.422"	"31.954"	"31.924"	"30.607"	"27.74"	"26.574"	"27.973"	"26.795"	"24.607"	"21.244"
"1988"	"23.088"	"25.586"	"28.494"	"31.975"	"33.948"	"29.801"	"25.983"	"26.441"	"26.659"	"25.57"	"22.951"	"20.989"
"1989"	"21.504"	"23.632"	"26.788"	"31.069"	"33.308"	"28.605"	"26.52"	"24.677"	"25.835"	"26.249"	"24.768"	"21.017"
"1990"	"22.846"	"23.931"	"26.514"	"31.722"	"31.025"	"27.498"	"25.915"	"25.628"	"26.011"	"25.565"	"23.799"	"21.626"
"1991"	"21.064"	"24.724"	"28.448"	"30.817"	"33.634"	"29.155"	"26.385"	"25.579"	"27.122"	"27.018"	"23.832"	"21.013"
"1992"	"21.998"	"23.187"	"28.983"	"31.372"	"33.368"	"31.536"	"27.979"	"25.521"	"25.84"	"26.344"	"23.346"	"20.977"
"1993"	"22.573"	"23.441"	"26.792"	"31.634"	"33.881"	"31.618"	"26.645"	"25.887"	"25.988"	"26.695"	"23.459"	"20.187"
"1994"	"21.924"	"23.489"	"28.898"	"29.962"	"33.559"	"28.518"	"25.363"	"25.096"	"25.612"	"26.819"	"23.086"	"20.728"
"1995"	"19.326"	"23.854"	"27.116"	"31.098"	"32.501"	"32.201"	"27.333"	"26.973"	"26.879"	"27.006"	"24.283"	"23.497"
"1996"	"23.822"	"25.366"	"29.938"	"32.045"	"33.557"	"30.407"	"27.588"	"25.967"	"26.251"	"25.531"	"22.878"	"21.152"
"1997"	"19.915"	"22.155"	"27.952"	"29.078"	"31.708"	"28.626"	"26.276"	"25.943"	"25.719"	"25.988"	"25.65"	"22.56"
"1998"	"21.922"	"23.408"	"27.859"	"32.544"	"34.654"	"31.862"	"27.376"	"26.889"	"26.246"	"27.047"	"23.887"	"20.692"
"1999"	"20.649"	"24.966"	"28.648"	"32.559"	"32.367"	"28.404"	"26.494"	"25.788"	"25.44"	"25.833"	"23.08"	"20.546"
"2000"	"22.047"	"23.17"	"27.289"	"33.126"	"31.893"	"28.865"	"25.802"	"26.944"	"26.951"	"27.869"	"24.757"	"21.619"
"2001"	"22.073"	"25.154"	"28.614"	"30.671"	"33.13"	"28.438"	"26.35"	"25.748"	"27.654"	"26.343"	"23.797"	"23.295"
"2002"	"21.448"	"25.683"	"28.571"	"32.391"	"33.423"	"29.115"	"27.121"	"24.624"	"25.503"	"26.852"	"23.567"	"22.491"
