
"Year"	"Jan"	"Feb"	"Mar"	"Apr"	"May"	"Jun"	"Jul"	"Aug"	"Sep"	"Oct"	"Nov"	"Dec"
"1901"	"72.007"	"24.788"	"4.192"	"5.45"	"7.488"	"68.591"	"158.395"	"282.655"	"212.002"	"13.411"	"3.985"	"0"
"1902"	"7.7"	"3.489"	"2.804"	"4.83"	"2.712"	"53.517"	"344.667"	"158.138"	"308.884"	"8.3"	"1.231"	"0"
"1903"	"5.246"	"3.286"	"3.038"	"1.931"	"17.736"	"119.531"	"112.6"	"241.931"	"145.531"	"85.032"	"0"	"0"
"1904"	"3.311"	"2.92"	"27.707"	"0.353"	"75.536"	"50.826"	"274.809"	"492.532"	"81.577"	"78.039"	"10.091"	"5.206"
"1905"	"10.432"	"19.924"	"28.218"	"4.291"	"4.92"	"15.395"	"384.071"	"278.051"	"356.581"	"6.374"	"0"	"0.848"
"1906"	"6.756"	"54.541"	"21.687"	"0.55"	"7.517"	"100.828"	"413.96"	"244.296"	"212.975"	"51.715"	"0.392"	"0.848"
"1907"	"0.2"	"67.948"	"23.656"	"24.149"	"7.759"	"188.557"	"177.515"	"318.57"	"108.539"	"7.202"	"0"	"0.848"
"1908"	"12.614"	"44.819"	"5.292"	"0.522"	"2.508"	"37.364"	"285.334"	"332.589"	"71.678"	"69.176"	"0"	"0.564"
"1909"	"2.894"	"5.65"	"0"	"25.952"	"1.938"	"196.465"	"429.888"	"276.44"	"146.165"	"3.199"	"0"	"7.208"
"1910"	"7.552"	"3.835"	"16.209"	"4.003"	"8.845"	"134.212"	"236.81"	"326.579"	"197.934"	"35.407"	"43.777"	"0"
"1911"	"14.029"	"0.2"	"24.669"	"2.246"	"6.273"	"254.534"	"135.888"	"282.253"	"242.515"	"95.779"	"54.268"	"0"
"1912"	"3.092"	"6.977"	"3.426"	"7.762"	"16.046"	"66.273"	"295.159"	"319.424"	"56.95"	"7.354"	"25.046"	"0.134"
"1913"	"0.2"	"60.621"	"32.347"	"0.56"	"25.012"	"255.859"	"217.744"	"320.16"	"116.796"	"56.657"	"2.797"	"11.471"
"1914"	"2.611"	"20.111"	"19.486"	"19.791"	"29.77"	"46.455"	"276.765"	"390.163"	"140.46"	"5.342"	"0"	"1.678"
"1915"	"8.275"	"61.022"	"23.071"	"1.954"	"7.444"	"87.451"	"281.037"	"243.864"	"239.405"	"63.651"	"26.393"	"0.73"
"1916"	"0.2"	"24.696"	"0.498"	"2.123"	"4.304"	"177.608"	"328.571"	"346.732"	"130.153"	"113.604"	"3.908"	"0"
"1917"	"3.248"	"39.006"	"6.408"	"2.528"	"36.658"	"152.72"	"261.788"	"504.645"	"127.212"	"150.94"	"0"	"2.278"
"1918"	"0.2"	"0.29"	"5.923"	"2.554"	"6.788"	"222.421"	"146.683"	"395.07"	"154.242"	"3.249"	"0.43"	"0"
"1919"	"50.12"	"9.293"	"14.27"	"7.803"	"25.785"	"108.3"	"297.315"	"451.328"	"169.141"	"93.156"	"0.392"	"0.232"
"1920"	"0.2"	"29.337"	"28.71"	"0.575"	"11.192"	"49.667"	"538.271"	"311.427"	"92.011"	"7.869"	"0"	"0"
"1921"	"41.522"	"8.222"	"0.509"	"1.289"	"1.291"	"173.321"	"254.094"	"427.706"	"93.514"	"5.145"	"0"	"0"
"1922"	"20.616"	"7.936"	"0.382"	"4.675"	"0.815"	"209.676"	"416"	"363.704"	"317.063"	"52.131"	"7.184"	"8.338"
"1923"	"0.288"	"54.307"	"0.498"	"0.711"	"1.707"	"70.719"	"305.395"	"528.005"	"207.492"	"27.89"	"5.024"	"1.036"
"1924"	"11.184"	"12.532"	"1.486"	"10.791"	"6.367"	"70.032"	"365.484"	"209.56"	"249.996"	"82.935"	"44.358"	"0.73"
"1925"	"5.692"	"2.334"	"4.762"	"0.76"	"18.82"	"86.706"	"399.491"	"493.868"	"186.911"	"11.155"	"21.564"	"0"
"1926"	"13.855"	"0.818"	"50.049"	"5.186"	"36.621"	"25.723"	"369.503"	"303.322"	"171.042"	"37.964"	"3.992"	"5.46"
"1927"	"18.778"	"37.742"	"35.997"	"0.749"	"7.719"	"39.444"	"345.936"	"423.031"	"119.962"	"58.372"	"47.098"	"0.134"
"1928"	"23.017"	"19.858"	"1.386"	"10.573"	"13.426"	"93.186"	"378.805"	"161.598"	"105.823"	"106.05"	"0"	"2.928"
"1929"	"40.236"	"4.26"	"3.232"	"2.611"	"6.841"	"105.17"	"404.445"	"328.311"	"71.215"	"181.585"	"0"	"14.638"
"1930"	"11.991"	"10.642"	"3.313"	"6.669"	"3.139"	"59.745"	"307.151"	"218.455"	"191.551"	"19.511"	"30.561"	"10.929"
"1931"	"1.254"	"45.718"	"15.641"	"0.55"	"3.782"	"59.363"	"424.862"	"362.914"	"190.498"	"71.699"	"12.387"	"1.486"
"1932"	"0.2"	"13.541"	"1.479"	"1.044"	"17.437"	"86.705"	"275.44"	"343.459"	"130.004"	"25.14"	"35.94"	"4.039"
"1933"	"21.198"	"28.236"	"2.515"	"17.848"	"19.48"	"124.05"	"312.195"	"380.597"	"128.376"	"65.058"	"0"	"0"
"1934"	"27.325"	"12.111"	"1.615"	"4.365"	"1.342"	"121.488"	"282.931"	"394.351"	"189.244"	"34.583"	"20.6"	"0.777"
"1935"	"5.272"	"19.048"	"2.476"	"8.827"	"2.469"	"124.874"	"287.051"	"512.533"	"181.281"	"7.202"	"0"	"2.096"
"1936"	"4.305"	"25.643"	"14.894"	"2.764"	"27.67"	"188.386"	"422.392"	"311.793"	"251.518"	"101.458"	"1.754"	"14.148"
"1937"	"0.2"	"53.089"	"3.492"	"15.338"	"10.746"	"62.976"	"295.34"	"314.66"	"184.916"	"95.856"	"0"	"0"
"1938"	"25.454"	"18.942"	"1.457"	"3.65"	"24.121"	"255.136"	"288.816"	"311.125"	"152.776"	"35.505"	"0"	"0"
"1939"	"9.883"	"26.999"	"10.777"	"3.941"	"2.402"	"161.618"	"364.234"	"267.281"	"196.992"	"30.36"	"0"	"0"
"1940"	"0.516"	"43.075"	"53.433"	"5.499"	"8.188"	"66.216"	"328.117"	"397.539"	"140.287"	"7.158"	"0"	"4.581"
"1941"	"19.73"	"7.512"	"9.715"	"0.55"	"12.428"	"129.26"	"222.221"	"379.314"	"169.035"	"41.334"	"1.628"	"0"
"1942"	"49.523"	"52.112"	"14.352"	"5.437"	"2.185"	"110.977"	"261.09"	"397.375"	"280.777"	"5.585"	"0"	"3.016"
"1943"	"17.904"	"12.316"	"1.947"	"19.967"	"16.394"	"55.2"	"294.867"	"598.614"	"207.828"	"32.91"	"0"	"0"
"1944"	"25.334"	"43.757"	"50.292"	"4.086"	"5.663"	"104.419"	"293.734"	"465.976"	"117.905"	"63.088"	"0"	"0.604"
"1945"	"52.715"	"21.011"	"0.82"	"2.377"	"13.036"	"111.738"	"220.047"	"139.979"	"218.961"	"102.038"	"0"	"6.73"
"1946"	"0.2"	"29.193"	"14.154"	"10.856"	"13.56"	"146.927"	"394.202"	"421.029"	"269.93"	"60.168"	"32.465"	"1.87"
"1947"	"25.149"	"11.51"	"18.212"	"0.375"	"5.062"	"63.983"	"386.942"	"241.002"	"302.751"	"54.968"	"2.166"	"1.416"
"1948"	"12.654"	"14.109"	"5.777"	"1.32"	"12.997"	"166.895"	"386.923"	"316.706"	"260.973"	"49.082"	"37.089"	"0.563"
"1949"	"3.154"	"48.721"	"10.455"	"3.879"	"29.442"	"118.572"	"335.737"	"478.753"	"148.323"	"108.357"	"0.059"	"0"
"1950"	"9.977"	"13.943"	"41.852"	"0.342"	"2.312"	"143.07"	"282.456"	"428.622"	"114.885"	"13.138"	"0.392"	"7.065"
"1951"	"8.531"	"7.467"	"35.109"	"15.875"	"3.471"	"117.61"	"301.428"	"319.52"	"189.843"	"44.391"	"12.295"	"0"
"1952"	"0.508"	"16.954"	"24.613"	"2.605"	"6.615"	"234.897"	"166.928"	"251.956"	"184.721"	"31.718"	"0"	"1.094"
"1953"	"50.711"	"11.328"	"0.629"	"3.519"	"1.843"	"139.092"	"368.791"	"367.762"	"206.137"	"4.667"	"0"	"1.434"
"1954"	"13.924"	"17.327"	"3.867"	"0.975"	"5.76"	"99.761"	"225.79"	"281.46"	"209.408"	"20.109"	"0"	"0.281"
"1955"	"20.468"	"20.706"	"1.753"	"2.013"	"1.37"	"97.798"	"455.68"	"159.3"	"94.756"	"96.156"	"0.392"	"1.274"
"1956"	"25.409"	"14.775"	"7.661"	"2.605"	"28.202"	"224.556"	"210.663"	"364.877"	"345.418"	"79.387"	"51.715"	"6.866"
"1957"	"18.428"	"1.915"	"23.283"	"0.872"	"1.099"	"99.191"	"367.657"	"267.589"	"118.975"	"0.472"	"0"	"1.593"
"1958"	"29.621"	"8.322"	"28.8"	"7.176"	"0.443"	"107.827"	"308.616"	"257.765"	"184.204"	"95.123"	"0"	"0.604"
"1959"	"78.051"	"2.994"	"0"	"0"	"20.963"	"65.71"	"224.7"	"314.148"	"191.171"	"152.364"	"0"	"0"
"1960"	"5.277"	"0.2"	"20.651"	"3.496"	"0.411"	"70.098"	"337.792"	"437.185"	"134.59"	"41.319"	"0"	"0"
"1961"	"22.878"	"36.2"	"0"	"0"	"3.537"	"144.297"	"245.933"	"369.521"	"200.092"	"68.362"	"4.744"	"5.115"
"1962"	"20.905"	"12.036"	"6.132"	"7.88"	"1.86"	"84.194"	"266.066"	"277.957"	"288.874"	"11.525"	"0"	"3.685"
"1963"	"11.902"	"5.931"	"30.025"	"4.161"	"35.23"	"111.453"	"391.57"	"371.499"	"169.9"	"52.329"	"16.586"	"0.604"
"1964"	"0.2"	"6.081"	"4.767"	"7.669"	"9.104"	"111.305"	"349.034"	"400.505"	"191.432"	"33.564"	"17.199"	"0"
"1965"	"2.513"	"0.327"	"14.125"	"20.52"	"4.111"	"33.168"	"285.884"	"155.871"	"135.679"	"32.573"	"3.541"	"2.219"
"1966"	"28.725"	"15.786"	"0"	"0"	"0.079"	"170.924"	"118.155"	"161.191"	"46.282"	"0.999"	"46.769"	"10.907"
"1967"	"9.798"	"0.2"	"32.152"	"4.136"	"6.157"	"53.904"	"293.112"	"495.179"	"166.266"	"8.171"	"0"	"10.036"
"1968"	"32.448"	"5.835"	"1.713"	"1.076"	"1.42"	"112.281"	"236.704"	"279.232"	"61.139"	"41.134"	"0"	"4.774"
"1969"	"4.47"	"14.632"	"1.001"	"5.096"	"29.648"	"111.793"	"404.544"	"290.947"	"172.227"	"3.041"	"24.779"	"0"
"1970"	"19.16"	"34.319"	"7.963"	"0.449"	"21.538"	"178.13"	"342.219"	"251.9"	"359.384"	"37.997"	"0"	"0"
"1971"	"22.201"	"11.953"	"3.885"	"17.682"	"46.684"	"325.355"	"318.697"	"470.255"	"120.499"	"91.426"	"0"	"0"
"1972"	"14.446"	"65.465"	"2.899"	"13.672"	"2.285"	"18.036"	"167.225"	"341.253"	"114.993"	"148.46"	"29.855"	"0.563"
"1973"	"48.119"	"3.244"	"2.166"	"0.462"	"4.012"	"108.611"	"299.004"	"363.143"	"205.976"	"134.288"	"2.851"	"0"
"1974"	"6.192"	"3.343"	"0.781"	"0.726"	"7.759"	"89.647"	"486.354"	"213.942"	"115.352"	"56.617"	"3.055"	"1.391"
"1975"	"53.694"	"9.426"	"21.706"	"1.911"	"7.626"	"95.901"	"359.991"	"178.81"	"185.753"	"48.578"	"1.661"	"0"
"1976"	"17.08"	"18.625"	"0.781"	"12.691"	"5.254"	"70.288"	"253.072"	"179.967"	"405.349"	"0.837"	"0.785"	"0"
"1977"	"9.43"	"9.942"	"0.68"	"20.784"	"58.415"	"91.101"	"372.058"	"263.011"	"190.938"	"57.458"	"24.291"	"11.182"
"1978"	"19.783"	"65.255"	"27.706"	"20.097"	"2.456"	"195.583"	"207.63"	"294.122"	"323.378"	"56.206"	"0.535"	"11.878"
"1979"	"23.405"	"14.211"	"1.041"	"8.326"	"1.972"	"104.647"	"374.336"	"176.721"	"96.377"	"7.353"	"69.635"	"7.844"
"1980"	"11.595"	"5.264"	"12.446"	"0.224"	"9.795"	"196.263"	"380.807"	"371.671"	"101.552"	"15.118"	"0.088"	"3.902"
"1981"	"18.299"	"7.692"	"20.92"	"3.762"	"16.443"	"65.804"	"374.916"	"262.455"	"178.464"	"0.472"	"15.02"	"3.349"
"1982"	"41.992"	"17.566"	"44.421"	"7.084"	"27.571"	"91.454"	"198.725"	"288.05"	"333.637"	"13.855"	"34.823"	"2.87"
"1983"	"16.733"	"4.262"	"3.665"	"12.513"	"36.209"	"106.878"	"344.061"	"177.319"	"119.476"	"68.791"	"0"	"4.314"
"1984"	"37.783"	"32.546"	"2.067"	"10.934"	"2.78"	"194.042"	"241.706"	"211.868"	"303.799"	"32.08"	"0.243"	"0"
"1985"	"18.551"	"2.85"	"0.421"	"4.957"	"5.252"	"80.335"	"332.89"	"282.466"	"184.502"	"86.092"	"0"	"6.145"
"1986"	"13.047"	"28.111"	"3.045"	"5.414"	"26.621"	"101.862"	"316.36"	"339.643"	"181.592"	"5.683"	"3.992"	"11.269"
"1987"	"8.202"	"14.615"	"8.191"	"2.649"	"12.553"	"95.767"	"229.431"	"385.272"	"370.488"	"78.592"	"10.405"	"2.353"
"1988"	"10.771"	"17.827"	"25.692"	"3.231"	"19.286"	"153.716"	"251.835"	"226.451"	"112.702"	"27.596"	"0"	"8.498"
"1989"	"7.292"	"9.847"	"6.433"	"1.263"	"28.896"	"135.115"	"281.979"	"241.066"	"144.683"	"42.268"	"12.824"	"16.122"
"1990"	"0.2"	"30.259"	"9.756"	"4.023"	"30.787"	"177.092"	"348.582"	"241.711"	"198.952"	"39.421"	"0"	"0.604"
"1991"	"22.498"	"7.383"	"23.519"	"7.462"	"10.196"	"106.886"	"137.418"	"402.065"	"139.702"	"9.403"	"1.136"	"15.431"
"1992"	"26.009"	"5.727"	"0.809"	"3.32"	"7.792"	"19.825"	"146.446"	"124.524"	"107.801"	"63.091"	"8.306"	"0"
"1993"	"10.953"	"0.2"	"9.951"	"1.752"	"19.944"	"30.512"	"110.319"	"183.803"	"251"	"54.198"	"0.2"	"0"
"1994"	"72.414"	"17.164"	"25.524"	"8.892"	"4.851"	"177.968"	"253.177"	"299.519"	"66.476"	"73.833"	"0"	"0"
"1995"	"19.069"	"20.669"	"19.397"	"3.094"	"10.147"	"22.984"	"198.938"	"263.303"	"185.455"	"6.337"	"22.762"	"4.031"
"1996"	"35.607"	"15.611"	"1.564"	"1.505"	"4.301"	"148.194"	"211.916"	"322.796"	"121.626"	"118.401"	"0"	"0"
"1997"	"19.292"	"1.418"	"2.215"	"4.902"	"39.821"	"72.624"	"175.225"	"318.612"	"126.176"	"26.056"	"36.21"	"11.372"
"1998"	"4.648"	"10.911"	"8.109"	"6.221"	"42.909"	"13.025"	"175.956"	"265.696"	"135.51"	"87.827"	"25.549"	"0"
"1999"	"33.232"	"19.791"	"0.458"	"0"	"17.247"	"65.341"	"242.12"	"234.862"	"117.227"	"23.517"	"0.392"	"0.471"
"2000"	"11.541"	"19.817"	"2.563"	"6.852"	"5.648"	"109.01"	"105.511"	"119.66"	"205.368"	"0.472"	"0"	"0.184"
"2001"	"3.243"	"1.529"	"24.43"	"6.906"	"6.337"	"45.032"	"215.846"	"263.543"	"35.521"	"75.015"	"0"	"0.27"
"2002"	"26.387"	"13.405"	"6.773"	"3.901"	"4.891"	"24.719"	"140.105"	"276.503"	"161.129"	"95.905"	"20.904"	"0.193"
