
"Year"	"Jan"	"Feb"	"Mar"	"Apr"	"May"	"Jun"	"Jul"	"Aug"	"Sep"	"Oct"	"Nov"	"Dec"
"1901"	"16.511"	"18.905"	"22.757"	"26.065"	"26.151"	"26.925"	"27.034"	"27.035"	"26.864"	"25.64"	"21.251"	"18.068"
"1902"	"17.187"	"18.701"	"23.652"	"24.156"	"26.143"	"26.225"	"26.979"	"26.999"	"26.833"	"24.428"	"20.659"	"17.561"
"1903"	"16.174"	"17.979"	"22.466"	"26.052"	"26.358"	"26.265"	"27.451"	"26.132"	"26.689"	"25.906"	"21.791"	"18.153"
"1904"	"16.568"	"18.901"	"23.719"	"24.86"	"25.565"	"26.826"	"26.756"	"26.734"	"26.954"	"25.034"	"21.138"	"17.344"
"1905"	"16.252"	"15.942"	"21.468"	"23.508"	"26.075"	"26.847"	"27.194"	"26.527"	"27.244"	"25.333"	"21.535"	"18.088"
"1906"	"16.702"	"18.379"	"21.572"	"25.604"	"26.816"	"26.71"	"27.548"	"26.124"	"27.754"	"24.933"	"21.627"	"18.274"
"1907"	"18.047"	"17.909"	"21.735"	"24.134"	"25.731"	"26.098"	"26.643"	"27.15"	"26.625"	"25.335"	"21.543"	"18.164"
"1908"	"16.888"	"18.379"	"23.466"	"26.833"	"25.866"	"26.456"	"26.722"	"27.036"	"27.034"	"25.034"	"21.167"	"18.232"
"1909"	"16.851"	"18.666"	"24.162"	"24.543"	"25.968"	"25.833"	"27.738"	"26.32"	"27.648"	"26.048"	"22.559"	"18.36"
"1910"	"16.689"	"18.276"	"22.257"	"23.716"	"26.052"	"25.82"	"26.163"	"26.633"	"27.07"	"24.833"	"21.651"	"17.175"
"1911"	"16.845"	"18.067"	"21.978"	"24.128"	"25.432"	"26.019"	"26.542"	"26.598"	"26.752"	"25.135"	"21.236"	"17.097"
"1912"	"16.789"	"19.065"	"22.65"	"23.584"	"26.033"	"26.267"	"26.82"	"26.613"	"26.452"	"24.733"	"21.793"	"17.961"
"1913"	"17.648"	"20.395"	"22.635"	"25.499"	"25.131"	"25.916"	"27.3"	"26.533"	"26.655"	"24.733"	"20.927"	"16.891"
"1914"	"16.669"	"18.574"	"22.588"	"23.801"	"25.523"	"26.147"	"27.072"	"26.041"	"26.763"	"23.818"	"21.25"	"18.169"
"1915"	"18.169"	"18.699"	"22.49"	"25.381"	"25.503"	"25.826"	"25.855"	"26.776"	"26.654"	"26.635"	"23.029"	"18.769"
"1916"	"16.696"	"18.872"	"23.516"	"24.55"	"26.203"	"26.526"	"26.433"	"26.634"	"26.861"	"25.053"	"21.974"	"17.383"
"1917"	"16.452"	"18.13"	"21.866"	"24.137"	"25.343"	"25.832"	"26.673"	"26.631"	"26.536"	"25.138"	"22.188"	"17.463"
"1918"	"16.692"	"18.369"	"22.774"	"24.479"	"26.102"	"24.832"	"26.848"	"26.344"	"26.855"	"24.953"	"21.123"	"17.975"
"1919"	"17.888"	"18.409"	"24.166"	"24.982"	"26.158"	"26.491"	"26.628"	"27.156"	"25.84"	"24.827"	"21.835"	"18.086"
"1920"	"17.895"	"18.205"	"22.344"	"24.371"	"25.737"	"26.117"	"27.378"	"26.532"	"26.861"	"25.036"	"21.655"	"18.359"
"1921"	"18.565"	"19.177"	"22.958"	"24.887"	"26.147"	"25.689"	"27.038"	"26.842"	"26.639"	"23.903"	"21.266"	"17.861"
"1922"	"17.991"	"19.31"	"23.727"	"26.099"	"26.445"	"26.207"	"27.245"	"26.943"	"26.754"	"24.851"	"22.057"	"18.258"
"1923"	"18.167"	"18.308"	"22.984"	"25.567"	"25.538"	"26.436"	"26.851"	"27.231"	"27.035"	"24.521"	"21.865"	"18.341"
"1924"	"17.376"	"18.565"	"24.935"	"25.787"	"25.528"	"26.526"	"27.138"	"26.858"	"26.363"	"25.958"	"22.089"	"17.76"
"1925"	"15.41"	"17.318"	"22.759"	"24.71"	"25.995"	"26.227"	"26.557"	"26.634"	"26.263"	"24.008"	"20.874"	"17.783"
"1926"	"17.057"	"18.563"	"22.165"	"24.559"	"25.853"	"25.824"	"26.837"	"27.051"	"26.538"	"25.16"	"20.79"	"18.804"
"1927"	"16.373"	"17.898"	"21.16"	"24.935"	"25.531"	"26.133"	"26.857"	"26.751"	"26.262"	"24.945"	"21.153"	"18.345"
"1928"	"17.716"	"19.788"	"23.327"	"25.591"	"25.38"	"25.943"	"27.056"	"26.852"	"26.919"	"24.726"	"20.621"	"18.676"
"1929"	"17.3"	"17.804"	"22.885"	"24.789"	"25.615"	"25.985"	"26.865"	"26.734"	"26.77"	"25.16"	"20.873"	"17.583"
"1930"	"15.316"	"19.066"	"22.56"	"24.844"	"26.123"	"25.513"	"26.987"	"26.738"	"27.535"	"24.362"	"21.844"	"17.989"
"1931"	"16.234"	"17.717"	"22.578"	"25.789"	"24.851"	"25.851"	"26.375"	"27.135"	"26.534"	"26.222"	"21.727"	"18.676"
"1932"	"17.48"	"18.505"	"23.659"	"25.482"	"26.509"	"25.933"	"26.693"	"26.809"	"27.129"	"25.91"	"22.229"	"18.299"
"1933"	"16.324"	"18.739"	"23.698"	"25.153"	"25.432"	"26.621"	"27.008"	"26.72"	"27.332"	"25.571"	"20.391"	"17.795"
"1934"	"17.148"	"18.426"	"23.472"	"25.494"	"25.152"	"25.265"	"26.56"	"26.505"	"26.94"	"25.478"	"20.475"	"17.909"
"1935"	"16.435"	"18.708"	"23.449"	"25.016"	"27.133"	"25.922"	"26.826"	"26.234"	"26.849"	"25.601"	"21.834"	"17.055"
"1936"	"15.602"	"17.914"	"23.396"	"25.382"	"25.874"	"26.814"	"26.948"	"27.043"	"26.937"	"24.965"	"22.027"	"18.262"
"1937"	"15.118"	"18.766"	"23.05"	"26.442"	"26.544"	"26.986"	"27.144"	"26.465"	"26.835"	"25.189"	"20.5"	"18.25"
"1938"	"17.66"	"17.985"	"25.163"	"26.274"	"25.776"	"26.442"	"26.689"	"26.697"	"26.717"	"25.618"	"20.384"	"18.356"
"1939"	"16.909"	"19.12"	"23.215"	"26.625"	"26.031"	"26.174"	"26.691"	"27.233"	"26.871"	"25.027"	"21.985"	"18.549"
"1940"	"16.174"	"18.269"	"21.549"	"26.185"	"25.826"	"26.511"	"26.832"	"27.233"	"26.403"	"25.45"	"21.937"	"18.721"
"1941"	"16.543"	"18.803"	"24.531"	"25.72"	"25.45"	"26.267"	"27.181"	"27.196"	"26.704"	"24.79"	"20.518"	"19.203"
"1942"	"17.202"	"19.478"	"23.374"	"24.937"	"25.452"	"26.15"	"27.523"	"27.227"	"26.477"	"25.838"	"21.953"	"17.578"
"1943"	"17.608"	"17.549"	"22.106"	"23.744"	"26.086"	"26.341"	"26.952"	"26.392"	"26.815"	"25.02"	"22.065"	"17.885"
"1944"	"16.404"	"17.701"	"22.81"	"24.132"	"26.834"	"26.14"	"27.429"	"26.937"	"26.107"	"25.295"	"20.855"	"18.635"
"1945"	"16.672"	"17.539"	"23.28"	"25.048"	"25.39"	"26.297"	"26.819"	"26.557"	"27.199"	"24.569"	"21.381"	"17.987"
"1946"	"17.446"	"20.526"	"23.112"	"23.919"	"25.632"	"26.386"	"26.814"	"27.306"	"26.915"	"24.674"	"22.126"	"18.815"
"1947"	"17.099"	"19.104"	"23.773"	"25.771"	"26.188"	"26.572"	"26.965"	"26.865"	"26.702"	"24.333"	"21.438"	"18.97"
"1948"	"17.655"	"18.492"	"22.544"	"24.623"	"24.834"	"26.666"	"26.558"	"26.942"	"27.033"	"24.703"	"22.054"	"17.882"
"1949"	"17.368"	"18.734"	"23.168"	"22.9"	"25.029"	"25.95"	"26.598"	"26.499"	"26.659"	"25.888"	"21.217"	"16.914"
"1950"	"16.922"	"18.375"	"22.65"	"24.881"	"26.324"	"26.208"	"26.881"	"26.219"	"27.277"	"25.428"	"21.395"	"18.569"
"1951"	"16.712"	"19.26"	"23.73"	"26.853"	"25.523"	"25.79"	"26.465"	"27.418"	"26.891"	"25.593"	"21.942"	"19.613"
"1952"	"17.66"	"20.533"	"22.182"	"25.524"	"25.736"	"27.244"	"27.113"	"27.209"	"26.434"	"25.933"	"22.123"	"18.734"
"1953"	"16.58"	"19.847"	"24.234"	"25.786"	"25.335"	"26.477"	"26.647"	"27.433"	"26.846"	"25.29"	"21.519"	"19.825"
"1954"	"15.981"	"20.623"	"23.272"	"25.98"	"26.408"	"25.57"	"26.359"	"26.473"	"27.18"	"24.594"	"20.718"	"18.531"
"1955"	"16.88"	"18.532"	"23.52"	"24.802"	"26.066"	"26.368"	"26.255"	"26.218"	"27.266"	"26.112"	"22.391"	"17.941"
"1956"	"16.867"	"18.99"	"23.428"	"25.616"	"25.736"	"25.832"	"27.063"	"26.909"	"26.754"	"25.779"	"21.865"	"18.344"
"1957"	"17.405"	"17.98"	"22.939"	"26.146"	"26.05"	"26.274"	"26.89"	"27.242"	"26.864"	"24.534"	"21.084"	"18.296"
"1958"	"17.347"	"18.57"	"23.113"	"26.101"	"25.737"	"28.004"	"27.574"	"26.235"	"27.361"	"25.609"	"21.469"	"18.393"
"1959"	"17.104"	"18.042"	"22.545"	"25.201"	"25.452"	"26.413"	"27.38"	"27.122"	"26.454"	"24.481"	"20.952"	"18.585"
"1960"	"16.914"	"19.676"	"22.382"	"26.756"	"27.616"	"26.825"	"26.473"	"27.714"	"26.669"	"25.448"	"21.295"	"18.567"
"1961"	"17.847"	"17.516"	"23.398"	"25.982"	"26.71"	"26.738"	"27.558"	"27.414"	"27.232"	"25.505"	"20.724"	"16.919"
"1962"	"15.693"	"18.267"	"23.115"	"26.107"	"26.263"	"26.033"	"27.456"	"26.138"	"27.422"	"25.024"	"20.972"	"17.896"
"1963"	"16.683"	"20.309"	"23.247"	"24.954"	"25.33"	"26.028"	"26.648"	"26.907"	"27.354"	"24.893"	"20.959"	"18.18"
"1964"	"16.595"	"18.956"	"23.592"	"24.181"	"25.645"	"25.675"	"26.038"	"27.083"	"27.293"	"26.01"	"22.525"	"18.139"
"1965"	"16.869"	"18.372"	"21.866"	"25.441"	"26.422"	"26.124"	"26.351"	"25.833"	"26.633"	"25.306"	"21.415"	"19.162"
"1966"	"17.585"	"20.26"	"23.696"	"25.954"	"26.496"	"25.219"	"27.057"	"26.405"	"26.656"	"24.262"	"22.57"	"18.092"
"1967"	"17.325"	"19.742"	"22.347"	"24.644"	"26.259"	"26.508"	"26.969"	"27.337"	"26.466"	"24.842"	"20.185"	"18.578"
"1968"	"16.797"	"17.909"	"23.103"	"25.086"	"25.244"	"25.943"	"26.954"	"26.947"	"26.475"	"25.329"	"21.481"	"17.736"
"1969"	"16.504"	"18.838"	"24.033"	"25.522"	"26.817"	"26.103"	"27.385"	"26.147"	"27.154"	"25.301"	"21.18"	"18.105"
"1970"	"16.019"	"18.676"	"23.041"	"25.927"	"26.213"	"26.718"	"26.456"	"26.929"	"26.408"	"24.821"	"21.472"	"18.166"
"1971"	"16.617"	"17.844"	"23.121"	"24.418"	"26.687"	"26.369"	"26.542"	"26.026"	"26.604"	"25.263"	"20.754"	"17.613"
"1972"	"17.117"	"17.734"	"22.968"	"24.577"	"26.439"	"26.482"	"27.242"	"26.942"	"26.767"	"25.356"	"21.816"	"18.508"
"1973"	"17.138"	"19.674"	"22.804"	"26.581"	"25.504"	"26.07"	"27.374"	"26.85"	"26.945"	"25.483"	"22.008"	"17.474"
"1974"	"16.424"	"18.413"	"22.942"	"24.551"	"25.645"	"26.148"	"25.382"	"26.737"	"26.144"	"26.013"	"22.557"	"16.809"
"1975"	"16.351"	"19.154"	"23.369"	"26.059"	"26.006"	"27.145"	"26.165"	"26.918"	"26.364"	"25.833"	"21.059"	"17.181"
"1976"	"17.082"	"19.587"	"23.26"	"25.192"	"25.85"	"24.934"	"26.365"	"26.261"	"26.747"	"24.719"	"22.444"	"17.877"
"1977"	"16.105"	"17.831"	"24.317"	"23.011"	"24.273"	"25.319"	"27.128"	"26.544"	"26.955"	"24.341"	"22.277"	"18.279"
"1978"	"15.7"	"19.261"	"22.562"	"25.429"	"25.382"	"26.267"	"26.85"	"27.993"	"26.541"	"26.288"	"22.285"	"18.727"
"1979"	"18.145"	"19.285"	"23.448"	"26.479"	"27.782"	"27.362"	"27.143"	"26.955"	"26.554"	"24.955"	"22.705"	"18.981"
"1980"	"16.893"	"18.885"	"22.958"	"26.162"	"25.011"	"27.112"	"27.618"	"27.13"	"27.125"	"24.635"	"21.972"	"19.533"
"1981"	"17.579"	"19.284"	"22.819"	"24.073"	"25.786"	"27.313"	"26.954"	"27.235"	"27.064"	"25.82"	"22.623"	"18.755"
"1982"	"18.161"	"19.142"	"22.886"	"24.371"	"26.847"	"26.381"	"26.942"	"27.156"	"26.925"	"25.706"	"21.351"	"18.168"
"1983"	"17.769"	"18.729"	"22.723"	"25.101"	"25.451"	"26.704"	"26.844"	"27.126"	"27.217"	"26.307"	"22.488"	"17.846"
"1984"	"16.006"	"18.582"	"24.279"	"25.897"	"24.861"	"26.777"	"26.648"	"27.319"	"26.055"	"25.796"	"21.759"	"18.154"
"1985"	"17.168"	"18.49"	"22.901"	"25.009"	"26.208"	"26.022"	"26.068"	"27.127"	"26.559"	"25.768"	"21.366"	"19.73"
"1986"	"17.244"	"19.931"	"24.223"	"24.177"	"26.44"	"27.116"	"26.579"	"27.05"	"26.167"	"24.16"	"21.755"	"18.521"
"1987"	"17.983"	"20.064"	"22.522"	"24.585"	"26.145"	"27.575"	"26.655"	"26.561"	"26.648"	"24.923"	"22.93"	"18.859"
"1988"	"17.872"	"20.053"	"22.697"	"26.626"	"25.477"	"26.686"	"27.059"	"26.177"	"26.469"	"25.566"	"22.822"	"20.195"
"1989"	"15.455"	"19.251"	"22.818"	"26.329"	"27.413"	"26.519"	"26.375"	"27.14"	"26.56"	"25.447"	"21.061"	"18.162"
"1990"	"17.17"	"19.228"	"21.178"	"23.033"	"26.364"	"26.465"	"26.693"	"27.394"	"26.466"	"24.991"	"23.458"	"18.907"
"1991"	"16.012"	"19.646"	"23.943"	"25.288"	"24.184"	"26.046"	"27.059"	"27.244"	"26.552"	"25.743"	"20.975"	"17.695"
"1992"	"16.678"	"16.672"	"24.01"	"26.247"	"25.423"	"27.087"	"25.693"	"27.222"	"27.006"	"24.885"	"21.852"	"16.857"
"1993"	"16.178"	"18.91"	"21.806"	"24.194"	"24.44"	"25.49"	"26.732"	"26.54"	"26.366"	"25.793"	"22.244"	"19.883"
"1994"	"18.163"	"18.54"	"23.413"	"24.949"	"26.613"	"26.487"	"27.609"	"27.494"	"27.945"	"24.643"	"22.613"	"18.38"
"1995"	"17.309"	"19.423"	"24.218"	"26.438"	"27.492"	"26.639"	"26.726"	"27.119"	"26.921"	"26.255"	"23.339"	"18.418"
"1996"	"16.991"	"19.57"	"23.272"	"26.813"	"25.919"	"26.5"	"26.805"	"26.599"	"27.484"	"25.412"	"22.556"	"20.14"
"1997"	"16.949"	"18.084"	"23.021"	"24.288"	"26.504"	"27.032"	"27.07"	"27.831"	"26.822"	"25.265"	"22.635"	"19.289"
"1998"	"17.083"	"19.463"	"21.853"	"26.22"	"27.497"	"27.182"	"27.657"	"27.206"	"28.025"	"26.77"	"23.553"	"19.847"
"1999"	"18.278"	"22.872"	"24.738"	"27.168"	"26.489"	"27.432"	"27.583"	"26.82"	"27.199"	"25.99"	"22.96"	"19.523"
"2000"	"16.553"	"19.403"	"22.171"	"25.15"	"26.152"	"26.894"	"27.962"	"26.76"	"26.529"	"25.532"	"21.852"	"18.791"
"2001"	"17.608"	"20.068"	"23.568"	"25.871"	"26.664"	"27.205"	"27.968"	"27.572"	"28.402"	"25.943"	"22.239"	"18.99"
"2002"	"17.896"	"20.431"	"23.903"	"25.48"	"26.167"	"26.442"	"27.671"	"27.142"	"26.861"	"25.527"	"22.358"	"19.243"
