
"Year"	"Jan"	"Feb"	"Mar"	"Apr"	"May"	"Jun"	"Jul"	"Aug"	"Sep"	"Oct"	"Nov"	"Dec"
"1901"	"23.391"	"24.425"	"25.257"	"27.202"	"26.001"	"24.267"	"23.676"	"23.836"	"24.711"	"24.228"	"23.264"	"21.743"
"1902"	"22.104"	"23.225"	"25.953"	"27.018"	"26.629"	"24.926"	"23.812"	"24.57"	"23.818"	"23.798"	"23.225"	"22.86"
"1903"	"22.913"	"24.103"	"26.198"	"27.236"	"26.196"	"24.65"	"23.522"	"23.614"	"23.689"	"23.584"	"22.167"	"21.41"
"1904"	"21.502"	"22.788"	"25.183"	"26.802"	"25.441"	"23.208"	"22.769"	"23.669"	"24.19"	"24.167"	"22.603"	"21.864"
"1905"	"22.282"	"24.208"	"25.659"	"26.436"	"26.27"	"24.663"	"23.962"	"24.021"	"24.328"	"24.006"	"23.391"	"21.983"
"1906"	"23.239"	"24.412"	"25.328"	"28.095"	"27.385"	"24.38"	"23.377"	"23.536"	"23.367"	"23.931"	"23.288"	"22.278"
"1907"	"22.098"	"23.805"	"25.527"	"26.147"	"26.031"	"24.066"	"23.427"	"22.889"	"24.254"	"24.315"	"23.199"	"22.314"
"1908"	"22.488"	"23.433"	"24.983"	"27.339"	"25.905"	"24.534"	"22.678"	"23.421"	"24.175"	"24.313"	"22.796"	"21.927"
"1909"	"22.288"	"23.74"	"25.98"	"26.589"	"25.738"	"24.35"	"23.022"	"23.721"	"23.577"	"24.127"	"23.529"	"22.876"
"1910"	"22.517"	"23.607"	"25.905"	"27.206"	"26.667"	"24.198"	"23.649"	"23.15"	"23.156"	"23.627"	"22.197"	"21.451"
"1911"	"22.423"	"22.387"	"25.449"	"26.899"	"26.058"	"24.087"	"23.065"	"23.608"	"24.737"	"23.929"	"23.475"	"22.636"
"1912"	"21.865"	"24.637"	"26.185"	"27.413"	"27.222"	"24.266"	"23.353"	"23.584"	"24.241"	"23.708"	"22.74"	"21.649"
"1913"	"21.631"	"23.907"	"25.854"	"27.472"	"26.859"	"24.337"	"23.09"	"23.806"	"24.744"	"23.798"	"23.109"	"22.977"
"1914"	"21.828"	"24.199"	"26.139"	"27.037"	"26.879"	"25.184"	"23.547"	"23.634"	"24.636"	"24.146"	"23.454"	"23.03"
"1915"	"22.904"	"24.322"	"25.583"	"27.171"	"26.621"	"24.942"	"23.976"	"24.407"	"24.478"	"24.523"	"23.338"	"21.85"
"1916"	"21.667"	"23.836"	"26.024"	"27.547"	"26.32"	"23.553"	"23.838"	"23.511"	"23.817"	"23.741"	"22.875"	"21.64"
"1917"	"21.744"	"23.071"	"24.948"	"26.837"	"25.662"	"23.491"	"24.138"	"23.736"	"23.692"	"23.142"	"23.066"	"22.004"
"1918"	"21.79"	"22.297"	"24.583"	"26.7"	"24.852"	"24.042"	"24.196"	"23.913"	"24.238"	"25"	"24.17"	"22.615"
"1919"	"23.317"	"24.401"	"25.622"	"27.757"	"26.109"	"24.064"	"23.549"	"23.668"	"24.314"	"24.352"	"23.111"	"22.666"
"1920"	"22.127"	"24.162"	"26.309"	"26.879"	"26.792"	"24.34"	"23.681"	"23.719"	"24.188"	"24.266"	"23.173"	"21.934"
"1921"	"23.008"	"23.509"	"26.147"	"26.359"	"26.929"	"24.416"	"23.559"	"23.653"	"23.588"	"23.931"	"22.592"	"21.843"
"1922"	"22.522"	"23.396"	"26.042"	"27.184"	"25.932"	"24.102"	"23.102"	"23.556"	"24.056"	"23.795"	"22.905"	"21.412"
"1923"	"21.493"	"23.009"	"24.707"	"26.591"	"26.169"	"24.674"	"22.801"	"23.459"	"23.73"	"24.003"	"23.455"	"22.682"
"1924"	"22.383"	"24.165"	"25.657"	"27.647"	"26.943"	"24.18"	"23.201"	"23.848"	"24.015"	"23.967"	"22.733"	"21.765"
"1925"	"22.441"	"23.414"	"25.303"	"27.239"	"25.665"	"24.26"	"23.525"	"23.738"	"24.538"	"23.878"	"22.736"	"21.806"
"1926"	"22.682"	"23.799"	"26.121"	"26.752"	"26.98"	"25.197"	"24.566"	"24.297"	"24.216"	"24.003"	"23.109"	"22.471"
"1927"	"23.028"	"24.327"	"26.451"	"27.692"	"26.424"	"24.224"	"23.073"	"24.035"	"24.181"	"23.805"	"22.564"	"22.561"
"1928"	"22.85"	"23.741"	"25.411"	"27.291"	"27.212"	"24.782"	"23.773"	"23.524"	"24.558"	"23.771"	"23.051"	"22.002"
"1929"	"22.752"	"23.804"	"25.391"	"26.183"	"26.224"	"24.095"	"23.722"	"24.305"	"24.65"	"23.928"	"23.159"	"22.692"
"1930"	"22.704"	"23.569"	"25.585"	"26.988"	"25.626"	"24.484"	"23.723"	"23.83"	"24.377"	"23.919"	"22.992"	"22.639"
"1931"	"22.577"	"23.909"	"26.182"	"27.588"	"27.393"	"24.924"	"23.884"	"24.033"	"23.99"	"24.414"	"23.286"	"22.325"
"1932"	"21.532"	"23.422"	"24.875"	"27.313"	"25.733"	"24.286"	"23.183"	"24.13"	"23.856"	"24.07"	"23.183"	"22.16"
"1933"	"22.314"	"23.927"	"25.27"	"26.903"	"25.267"	"23.383"	"23.024"	"23.284"	"23.523"	"23.291"	"23.378"	"22.034"
"1934"	"22.442"	"23.004"	"25.048"	"26.787"	"26.544"	"24.364"	"23.621"	"23.544"	"24.791"	"24.4"	"22.264"	"21.565"
"1935"	"22.729"	"23.998"	"25.784"	"26.818"	"27.066"	"24.586"	"23.089"	"23.249"	"23.523"	"23.967"	"22.324"	"22.461"
"1936"	"23.084"	"24.243"	"25.248"	"27.147"	"26.394"	"23.147"	"23.1"	"23.26"	"24.21"	"23.989"	"23.225"	"22.959"
"1937"	"22.507"	"24.5"	"26.103"	"26.534"	"26.355"	"24.114"	"22.936"	"23.986"	"24.425"	"23.766"	"22.768"	"22.136"
"1938"	"22.724"	"24.567"	"26.182"	"27.079"	"26.531"	"23.713"	"23.026"	"23.111"	"23.63"	"23.201"	"22.763"	"22.573"
"1939"	"21.953"	"23.141"	"25.149"	"26.474"	"26.455"	"24.179"	"22.684"	"23.341"	"23.816"	"24.046"	"22.765"	"21.879"
"1940"	"21.461"	"23.265"	"25.71"	"26.306"	"26.231"	"24.152"	"23.163"	"23.284"	"24.268"	"24.181"	"22.768"	"22.313"
"1941"	"22.863"	"23.866"	"26.47"	"27.612"	"26.83"	"24.101"	"24.052"	"24.049"	"23.955"	"24.29"	"23.59"	"22.437"
"1942"	"22.353"	"23.997"	"26.014"	"27.353"	"26.975"	"24.44"	"23.323"	"23.387"	"24.09"	"24.112"	"22.802"	"22.816"
"1943"	"22.598"	"23.346"	"26.112"	"26.454"	"25.462"	"23.401"	"22.701"	"23.584"	"23.068"	"22.899"	"22.94"	"22.076"
"1944"	"22.686"	"23.626"	"25.135"	"26.315"	"26.614"	"24.286"	"23.03"	"23.989"	"24.134"	"24.086"	"23.364"	"22.205"
"1945"	"22.621"	"24.524"	"25.915"	"26.656"	"26.655"	"24.547"	"23.466"	"23.45"	"23.95"	"24.141"	"22.832"	"22.5"
"1946"	"21.6"	"23.536"	"25.923"	"26.83"	"26.36"	"24.196"	"23.261"	"23.157"	"23.89"	"24.225"	"23.104"	"22.256"
"1947"	"22.95"	"23.314"	"25.723"	"26.091"	"27.217"	"24.4"	"23.185"	"23.648"	"23.552"	"23.561"	"22.854"	"22.599"
"1948"	"22.945"	"24.322"	"25.807"	"27.186"	"26.134"	"24.365"	"23.227"	"23.297"	"23.824"	"24.225"	"23.837"	"22.163"
"1949"	"22.108"	"23.491"	"26.208"	"27.075"	"26.124"	"24.122"	"23.092"	"23.525"	"23.426"	"24.204"	"22.664"	"21.758"
"1950"	"22.282"	"23.836"	"25.777"	"27.176"	"26.931"	"24.001"	"22.738"	"23.572"	"23.262"	"23.302"	"22.559"	"21.973"
"1951"	"22.547"	"23.692"	"25.985"	"26.747"	"26.421"	"23.545"	"23.086"	"24.083"	"24.642"	"24.416"	"23.868"	"22.106"
"1952"	"22.847"	"24.331"	"26.051"	"27.61"	"26.529"	"24.362"	"23.585"	"23.487"	"23.99"	"23.481"	"23.032"	"22.421"
"1953"	"22.699"	"23.424"	"26.701"	"26.444"	"27.364"	"25.254"	"23.154"	"23.774"	"23.918"	"24.128"	"22.827"	"22.263"
"1954"	"23.045"	"24.406"	"25.624"	"27.452"	"26.483"	"24.347"	"22.868"	"23.209"	"23.545"	"23.368"	"22.387"	"22.557"
"1955"	"22.683"	"24.381"	"25.811"	"26.788"	"25.297"	"23.877"	"23.311"	"22.922"	"24.335"	"24.04"	"22.492"	"21.591"
"1956"	"22.265"	"23.712"	"26.428"	"27.675"	"25.636"	"23.667"	"22.408"	"23.43"	"23.735"	"23.322"	"23.085"	"22.146"
"1957"	"22.384"	"24.103"	"25.285"	"26.929"	"26.759"	"24.171"	"23.31"	"23.63"	"24.236"	"24.291"	"23.255"	"23.127"
"1958"	"23.042"	"24.856"	"26.357"	"27.26"	"25.991"	"24.872"	"23.468"	"23.83"	"23.776"	"23.823"	"23.651"	"22.701"
"1959"	"23.243"	"24.559"	"26.269"	"27.486"	"26.972"	"24.126"	"22.882"	"23.632"	"24.112"	"24.236"	"23.473"	"22.748"
"1960"	"23.243"	"24.154"	"26.238"	"27.287"	"26.129"	"24.622"	"23.774"	"24.048"	"23.684"	"24.092"	"22.565"	"22.567"
"1961"	"22.873"	"24.622"	"26.876"	"27.588"	"26.003"	"23.984"	"22.794"	"23.642"	"23.886"	"23.925"	"23.151"	"22.728"
"1962"	"22.666"	"24.031"	"25.825"	"26.556"	"25.776"	"25.126"	"23.799"	"23.485"	"24.02"	"23.773"	"23.276"	"22.747"
"1963"	"22.466"	"23.282"	"25.789"	"26.676"	"26.757"	"24.495"	"24.06"	"23.75"	"24.63"	"24.167"	"23.722"	"22.741"
"1964"	"22.52"	"24.319"	"26.385"	"28.216"	"27.473"	"24.667"	"23.889"	"23.411"	"23.334"	"24.279"	"22.44"	"22.056"
"1965"	"22.009"	"23.686"	"25.8"	"26.621"	"26.627"	"24.553"	"23.507"	"23.478"	"24.278"	"25.21"	"24.027"	"22.791"
"1966"	"23.466"	"24.865"	"26.594"	"27.415"	"26.529"	"24.82"	"23.705"	"24.516"	"24.187"	"23.874"	"23.29"	"22.669"
"1967"	"22.292"	"23.361"	"25.291"	"27.388"	"26.622"	"24.557"	"22.67"	"23.074"	"23.728"	"23.338"	"23.189"	"22.964"
"1968"	"22.516"	"24.184"	"25.745"	"26.57"	"26.823"	"24.524"	"23.032"	"23.917"	"24.125"	"24.033"	"23.494"	"22.674"
"1969"	"22.622"	"24.575"	"26.823"	"27.678"	"26.627"	"24.762"	"23.336"	"23.914"	"23.602"	"23.802"	"23.394"	"22.538"
"1970"	"22.907"	"23.921"	"26.052"	"27.314"	"26.001"	"24.099"	"23.401"	"23.225"	"23.845"	"23.671"	"22.767"	"21.849"
"1971"	"23.049"	"23.901"	"25.322"	"27.027"	"26.139"	"23.201"	"23.264"	"23.42"	"24.04"	"23.637"	"22.481"	"21.782"
"1972"	"21.767"	"23.894"	"25.411"	"27.392"	"25.828"	"25.366"	"23.586"	"23.919"	"24.744"	"24.294"	"23.544"	"22.913"
"1973"	"23.076"	"24.541"	"26.529"	"28.202"	"27.232"	"24.682"	"23.951"	"22.898"	"24.124"	"23.97"	"23.183"	"22.263"
"1974"	"22.587"	"23.778"	"26.172"	"27.682"	"26.107"	"24.546"	"23.465"	"23.14"	"23.722"	"23.631"	"23.322"	"22.447"
"1975"	"22.417"	"24.881"	"26.34"	"27.796"	"26.197"	"23.784"	"23.038"	"23.284"	"23.45"	"23.38"	"22.626"	"21.894"
"1976"	"21.249"	"23.195"	"26.308"	"26.531"	"26.928"	"25.127"	"23.786"	"23.519"	"24.343"	"24.647"	"23.482"	"22.993"
"1977"	"22.696"	"24.391"	"26.195"	"27.45"	"25.7"	"24.468"	"23.447"	"24.016"	"24.446"	"24.076"	"23.567"	"22.62"
"1978"	"22.89"	"24.059"	"26.082"	"27.366"	"25.8"	"23.345"	"22.758"	"23.181"	"24.043"	"24.401"	"23.762"	"22.793"
"1979"	"23.537"	"24.709"	"26.239"	"27.507"	"26.562"	"24.513"	"22.387"	"23.622"	"23.949"	"24.151"	"23.451"	"23.474"
"1980"	"22.581"	"24.326"	"26.125"	"27.177"	"26.986"	"23.472"	"23.173"	"23.438"	"24.469"	"24.328"	"23.708"	"23.403"
"1981"	"23.237"	"24.446"	"25.911"	"27.282"	"26.534"	"23.769"	"23.758"	"23.112"	"23.927"	"24.228"	"23.358"	"22.517"
"1982"	"22.578"	"24.617"	"26.592"	"27.742"	"26.553"	"24.311"	"23.802"	"23.97"	"24.627"	"25.148"	"24.075"	"22.782"
"1983"	"22.95"	"25.787"	"27.306"	"28.284"	"27.676"	"25.341"	"24.298"	"23.833"	"23.855"	"24.346"	"23.458"	"23.028"
"1984"	"23.241"	"23.766"	"25.208"	"26.687"	"27.497"	"23.848"	"23.257"	"23.599"	"24.31"	"23.883"	"23.61"	"22.972"
"1985"	"23.577"	"25.016"	"26.814"	"27.663"	"26.842"	"23.696"	"23.451"	"23.781"	"24.739"	"23.962"	"23.157"	"23.379"
"1986"	"22.777"	"24.103"	"26.538"	"28.011"	"27.128"	"24.367"	"24.164"	"23.483"	"24.411"	"24.802"	"23.592"	"23.49"
"1987"	"22.937"	"23.659"	"25.762"	"27.439"	"26.954"	"24.698"	"24.786"	"24.025"	"25.551"	"24.813"	"24.184"	"23.269"
"1988"	"22.838"	"25.388"	"26.975"	"26.971"	"26.707"	"25.012"	"23.777"	"23.774"	"24.063"	"24.74"	"23.718"	"22.807"
"1989"	"22.888"	"23.993"	"25.636"	"27.352"	"26.685"	"24.195"	"23.387"	"23.6"	"24.256"	"24.616"	"23.614"	"23.002"
"1990"	"22.826"	"24.65"	"26.527"	"27.919"	"25.78"	"24.369"	"23.566"	"23.43"	"24.727"	"24.429"	"23.702"	"22.955"
"1991"	"24.019"	"24.765"	"26.958"	"27.265"	"27.261"	"24.319"	"23.194"	"23.095"	"24.829"	"24.145"	"23.133"	"22.506"
"1992"	"21.907"	"24.535"	"25.851"	"27.441"	"26.343"	"24.434"	"23.521"	"23.66"	"24.341"	"24.15"	"23.799"	"22.169"
"1993"	"22.669"	"24.208"	"26.148"	"27.475"	"27.13"	"24.672"	"23.595"	"24.046"	"24.068"	"24.165"	"23.564"	"22.535"
"1994"	"23.021"	"24.557"	"26.463"	"26.941"	"26.99"	"24.495"	"23.267"	"24.059"	"24.564"	"24.264"	"23.154"	"22.166"
"1995"	"23.007"	"24.993"	"25.96"	"27.296"	"25.835"	"25.392"	"23.844"	"24.173"	"24.561"	"24.628"	"24.613"	"22.829"
"1996"	"23.409"	"24.444"	"26.609"	"27.044"	"27.591"	"24.716"	"24.083"	"23.808"	"24.311"	"24.181"	"24.091"	"22.417"
"1997"	"23.207"	"24.683"	"26.16"	"26.288"	"26.973"	"25.794"	"24.237"	"24.059"	"24.965"	"24.832"	"24.649"	"23.929"
"1998"	"23.954"	"25.697"	"27.346"	"28.171"	"27.325"	"25.584"	"23.955"	"24.286"	"24.338"	"24.456"	"24.257"	"23.24"
"1999"	"23.275"	"24.424"	"26.996"	"27.101"	"25.212"	"24.225"	"23.727"	"24.124"	"25.085"	"24.604"	"23.892"	"22.832"
"2000"	"23.627"	"24.937"	"26.19"	"27.306"	"26.326"	"23.903"	"23.621"	"23.586"	"24.651"	"24.324"	"24.125"	"22.663"
"2001"	"23.741"	"25.946"	"26.852"	"27.35"	"26.632"	"24.625"	"24.084"	"23.723"	"25.027"	"24.235"	"24.092"	"22.962"
"2002"	"23.879"	"24.127"	"26.806"	"27.728"	"26.784"	"24.762"	"24.382"	"24.319"	"25.649"	"25.027"	"24.093"	"23.522"
