
"Year"	"Jan"	"Feb"	"Mar"	"Apr"	"May"	"Jun"	"Jul"	"Aug"	"Sep"	"Oct"	"Nov"	"Dec"
"1901"	"7.009"	"8.67"	"15.879"	"20.258"	"24.79"	"28.65"	"27.678"	"26.998"	"23.993"	"21.807"	"15.355"	"10.228"
"1902"	"10.246"	"12.374"	"16.336"	"20.868"	"25.724"	"27.848"	"26.688"	"26.122"	"24.431"	"19.962"	"14.446"	"10.039"
"1903"	"8.161"	"10.066"	"13.149"	"19.67"	"24.272"	"28.97"	"27.946"	"26.281"	"25.221"	"21.123"	"14.509"	"10.398"
"1904"	"6.914"	"11.314"	"14.919"	"22.057"	"25.025"	"28.511"	"26.792"	"26.099"	"23.948"	"20.186"	"13.922"	"10.029"
"1905"	"6.476"	"6.019"	"11.392"	"18.867"	"25.971"	"28.799"	"27.182"	"26.937"	"24.704"	"21.041"	"15.049"	"9.38"
"1906"	"6.403"	"7.856"	"13.254"	"20.789"	"26.53"	"28.106"	"27.577"	"26.44"	"24.649"	"21.071"	"15.922"	"11.49"
"1907"	"10.731"	"8.428"	"11.829"	"19.67"	"23.972"	"27.734"	"27.203"	"26.344"	"24.937"	"21.34"	"15.772"	"10.027"
"1908"	"9.709"	"10.549"	"15.222"	"21.5"	"25.145"	"29.259"	"27.734"	"26.107"	"24.458"	"20.353"	"14.004"	"9.073"
"1909"	"6.151"	"8.294"	"15.784"	"20.436"	"25.369"	"27.048"	"26.535"	"26.253"	"24.229"	"20.612"	"15.53"	"9.197"
"1910"	"8.434"	"9.918"	"14.798"	"20.137"	"25.739"	"28.058"	"26.57"	"26.566"	"25.165"	"20.428"	"13.566"	"8.852"
"1911"	"7.925"	"10.246"	"12.42"	"20.885"	"26.626"	"28.497"	"28"	"27.286"	"24.817"	"20.749"	"12.96"	"9.53"
"1912"	"8.889"	"12.067"	"14.488"	"20.349"	"24.87"	"28.937"	"27.861"	"26.375"	"23.906"	"20.873"	"13.406"	"9.671"
"1913"	"9.233"	"9.682"	"12.672"	"21.142"	"24.263"	"26.546"	"26.58"	"26.379"	"24.365"	"20.427"	"13.25"	"8.537"
"1914"	"10.319"	"9.429"	"13.905"	"20.002"	"24.947"	"28.488"	"27.441"	"26.123"	"25.063"	"18.565"	"14.148"	"8.94"
"1915"	"7.379"	"8.383"	"15.678"	"20.761"	"27.642"	"28.564"	"27.936"	"26.869"	"25.898"	"22.505"	"15.102"	"10.145"
"1916"	"9.011"	"9.702"	"17.474"	"21.674"	"24.806"	"27.091"	"26.741"	"26.598"	"24.902"	"21.018"	"13.831"	"9.169"
"1917"	"8.37"	"11.019"	"13.97"	"17.678"	"22.422"	"27.005"	"26.919"	"26.423"	"24.697"	"19.908"	"14.221"	"9.064"
"1918"	"6.883"	"10.728"	"14.291"	"18.708"	"27.478"	"27.736"	"27.151"	"26.806"	"24.171"	"20.229"	"13.709"	"7.892"
"1919"	"7.372"	"9.43"	"14.341"	"19.673"	"24.21"	"29.447"	"27.37"	"26.549"	"24.048"	"20.432"	"13.977"	"8.672"
"1920"	"9.133"	"7.997"	"13.484"	"19.685"	"21.846"	"27.098"	"27.591"	"25.945"	"24.445"	"21.041"	"14.912"	"10.861"
"1921"	"7.866"	"11.405"	"17.461"	"23.325"	"27.627"	"28.634"	"27.758"	"26.021"	"24.402"	"19.049"	"13.992"	"10.071"
"1922"	"7.565"	"11.989"	"16.222"	"20.434"	"25.502"	"27.214"	"27.441"	"26.578"	"24.839"	"19.603"	"14.073"	"8.775"
"1923"	"8.363"	"9.593"	"16.088"	"22.421"	"24.797"	"29.032"	"26.674"	"26.448"	"24.127"	"19.03"	"13.699"	"9.359"
"1924"	"7.123"	"10.109"	"16.382"	"21.427"	"21.692"	"29.93"	"27.917"	"26.402"	"23.793"	"21.208"	"14.094"	"10.59"
"1925"	"7.155"	"9.544"	"16.034"	"23.161"	"24.498"	"26.86"	"27.01"	"26.143"	"24.573"	"20.485"	"13.177"	"10.097"
"1926"	"8.642"	"11.538"	"13.321"	"18.113"	"23.252"	"29.215"	"27.908"	"27.065"	"24.785"	"20.668"	"12.266"	"9.639"
"1927"	"7.5"	"8.233"	"14.006"	"20.253"	"24.131"	"28.144"	"27.632"	"26.295"	"24.66"	"20.916"	"14.373"	"10.904"
"1928"	"8.135"	"10.814"	"15.191"	"20.841"	"27.746"	"28.2"	"27.689"	"26.818"	"24.996"	"21.744"	"14.204"	"9.201"
"1929"	"7.469"	"8.507"	"17.159"	"21.711"	"25.967"	"28.339"	"27.149"	"25.962"	"25.051"	"19.939"	"14.666"	"6.973"
"1930"	"6.619"	"10.094"	"15.831"	"20.024"	"24.997"	"27.008"	"26.963"	"26.394"	"24.768"	"19.998"	"14.035"	"10.332"
"1931"	"10.292"	"8.13"	"15.218"	"22.564"	"25.084"	"28.715"	"26.537"	"27.6"	"24.845"	"21.344"	"14.705"	"10.5"
"1932"	"9.881"	"9.723"	"16.048"	"21.905"	"24.096"	"29.492"	"27.907"	"26.204"	"25.165"	"20.813"	"15.188"	"9.477"
"1933"	"6.899"	"10.736"	"14.983"	"18.604"	"23.871"	"28.166"	"27.55"	"25.746"	"23.725"	"20.369"	"14.505"	"11.16"
"1934"	"6.372"	"13.427"	"14.898"	"21.559"	"24.134"	"27.884"	"27.798"	"26.228"	"26.039"	"20.86"	"14.497"	"9.55"
"1935"	"6.097"	"10.404"	"15.523"	"17.662"	"25.85"	"29.007"	"27.47"	"26.104"	"24.651"	"20.419"	"14.374"	"9.115"
"1936"	"7.315"	"10.283"	"14.449"	"20.477"	"27.573"	"26.787"	"27.141"	"26.589"	"25.115"	"21.052"	"14.436"	"8.643"
"1937"	"8.24"	"10.278"	"15.597"	"19.952"	"25.505"	"29.019"	"27.01"	"27.073"	"24.777"	"19.703"	"13.119"	"8.675"
"1938"	"6.84"	"8.844"	"14.693"	"21.997"	"27.722"	"27.289"	"27.822"	"26.606"	"24.148"	"21.091"	"12.811"	"11.08"
"1939"	"8.696"	"10.047"	"12.696"	"19.355"	"26.613"	"27.182"	"27.511"	"26.73"	"24.963"	"20.99"	"14.875"	"10.88"
"1940"	"9.029"	"10.274"	"13.402"	"19.704"	"25.861"	"27.905"	"27.787"	"25.874"	"23.989"	"20.953"	"15.102"	"9.125"
"1941"	"7.579"	"11.189"	"17.271"	"23.415"	"26.721"	"27.795"	"27.387"	"26.997"	"24.678"	"22.316"	"14.622"	"11.575"
"1942"	"7.463"	"10.353"	"17.324"	"22.19"	"25.372"	"28.897"	"27.17"	"25.943"	"24.579"	"21.044"	"15.598"	"9.583"
"1943"	"7.152"	"11.037"	"15.691"	"19.947"	"24.453"	"27.6"	"27.33"	"26.204"	"25.683"	"20.939"	"15.609"	"10.78"
"1944"	"6.916"	"8.211"	"14.485"	"20.684"	"27.02"	"27.411"	"28.231"	"26.744"	"24.263"	"21.023"	"14.565"	"10.583"
"1945"	"6.371"	"9.422"	"15.432"	"19.32"	"25.296"	"28.779"	"27.604"	"26.685"	"25.373"	"20.42"	"14.761"	"8.966"
"1946"	"10.35"	"13.062"	"14.712"	"23.455"	"25.969"	"28.099"	"27.982"	"27.519"	"25.552"	"21.269"	"14.314"	"8.313"
"1947"	"6.265"	"10.17"	"16.077"	"22.748"	"26.603"	"30.327"	"28.064"	"26.549"	"24.646"	"19.568"	"14.997"	"9.799"
"1948"	"7.729"	"8.131"	"13.563"	"22.84"	"26.836"	"28.552"	"26.895"	"25.928"	"24.722"	"20.856"	"13.384"	"8.934"
"1949"	"10.147"	"8.67"	"15.498"	"22.485"	"26.785"	"27.882"	"27.193"	"26.245"	"25.556"	"20.894"	"13.355"	"8.656"
"1950"	"8.466"	"9.191"	"13.832"	"19.559"	"25.12"	"28.82"	"27.657"	"26.278"	"22.987"	"19.587"	"14.246"	"8.999"
"1951"	"7.436"	"10.316"	"15.443"	"18.542"	"24.978"	"28.613"	"27.494"	"26.998"	"25.478"	"22.279"	"15.61"	"11.314"
"1952"	"8.617"	"12.571"	"14.095"	"22.862"	"25.873"	"28.223"	"27.275"	"26.563"	"25.238"	"20.373"	"15.014"	"10.186"
"1953"	"6.867"	"13.03"	"18.424"	"21.838"	"26.364"	"28.955"	"27.914"	"26.286"	"24.843"	"21.023"	"14.731"	"11.897"
"1954"	"6.726"	"10.301"	"16.339"	"22.241"	"25.801"	"28.123"	"27.163"	"26.71"	"25.312"	"18.944"	"13.887"	"8.96"
"1955"	"8.108"	"11.758"	"17.185"	"19.062"	"23.104"	"29.086"	"27.138"	"26.473"	"24.77"	"19.883"	"14.926"	"9.768"
"1956"	"7.708"	"11.889"	"15.172"	"22.153"	"28.262"	"28.309"	"26.837"	"25.637"	"25.456"	"19.999"	"14.084"	"9.126"
"1957"	"7.284"	"9.672"	"14.303"	"19.071"	"23.387"	"27.319"	"27.832"	"26.019"	"24.163"	"20.066"	"14.521"	"10.149"
"1958"	"10.157"	"11.626"	"15.998"	"23.148"	"24.734"	"28.676"	"27.702"	"26.307"	"24.99"	"21.002"	"15.339"	"11.179"
"1959"	"8"	"8.924"	"16.614"	"21.896"	"24.696"	"29.369"	"26.694"	"27.151"	"25.149"	"21.934"	"14.181"	"10.977"
"1960"	"7.776"	"14.244"	"14.21"	"19.858"	"25.962"	"28.94"	"27.655"	"27.018"	"25.221"	"20.848"	"14.029"	"11.57"
"1961"	"8.844"	"9.21"	"16.323"	"20.997"	"25.695"	"29.212"	"27.618"	"26.964"	"26.635"	"21.7"	"14.044"	"8.28"
"1962"	"8.423"	"11.81"	"15.636"	"22.183"	"24.977"	"28.586"	"27.916"	"26.782"	"24.601"	"20.417"	"14.935"	"8.883"
"1963"	"8.458"	"11.424"	"14.76"	"20.7"	"24.689"	"29.042"	"27.597"	"26.311"	"24.455"	"21.632"	"15.524"	"9.727"
"1964"	"7.372"	"9.691"	"16.041"	"21.55"	"24.051"	"27.455"	"26.185"	"26.942"	"25.281"	"21.402"	"14.374"	"10.502"
"1965"	"8.869"	"10.516"	"14.992"	"19.605"	"24.228"	"27.947"	"26.829"	"25.18"	"24.597"	"21.317"	"15.914"	"9.591"
"1966"	"7.67"	"11.628"	"15.196"	"20.673"	"25.019"	"28.27"	"27.051"	"26.458"	"23.974"	"19.572"	"13.63"	"9.424"
"1967"	"7.638"	"12.014"	"14.76"	"20.682"	"24.083"	"28.419"	"28.032"	"26.325"	"25.202"	"19.239"	"14.03"	"9.71"
"1968"	"6.17"	"7.844"	"15.568"	"21.244"	"24.39"	"28.993"	"27.179"	"26.069"	"25.667"	"19.245"	"13.99"	"9.951"
"1969"	"8.086"	"11.034"	"17.771"	"20.884"	"24.733"	"28.312"	"27.302"	"27.307"	"24.865"	"21.47"	"16.153"	"10.369"
"1970"	"9.269"	"10.919"	"15.709"	"22.634"	"27.106"	"28.206"	"27.85"	"26.819"	"26.006"	"21.478"	"14.53"	"10.426"
"1971"	"8.54"	"11.087"	"16.625"	"22.028"	"25.55"	"28.83"	"27.065"	"26.15"	"24.114"	"21.182"	"14.708"	"10.691"
"1972"	"9.748"	"8.506"	"16.642"	"20.302"	"25.519"	"28.784"	"26.693"	"25.526"	"23.827"	"18.698"	"15.037"	"10.324"
"1973"	"8.613"	"12.038"	"15.048"	"22.838"	"26.109"	"29.265"	"27.616"	"26.413"	"25.58"	"20.322"	"15.052"	"9.59"
"1974"	"8.556"	"8.87"	"16.945"	"22.966"	"25.704"	"27.07"	"26.526"	"26.335"	"24.354"	"20.866"	"13.777"	"8.434"
"1975"	"8.076"	"9.131"	"13.874"	"21.055"	"25.266"	"27.142"	"25.317"	"25.456"	"24.434"	"21.191"	"13.054"	"9.999"
"1976"	"9.147"	"9.827"	"14.714"	"20.417"	"25.368"	"27.286"	"27.61"	"25.394"	"24.162"	"20.558"	"14.995"	"10.012"
"1977"	"8.76"	"10.348"	"16.999"	"21.448"	"24.149"	"26.875"	"27.538"	"26.192"	"24.406"	"21.278"	"16.12"	"10.115"
"1978"	"8.26"	"10.245"	"13.448"	"20.94"	"27.2"	"29.562"	"27.04"	"26.41"	"24.406"	"20.976"	"13.707"	"10.815"
"1979"	"7.839"	"10.532"	"14.371"	"23.048"	"24.118"	"28.413"	"27.109"	"26.634"	"23.196"	"21.723"	"15.779"	"10.846"
"1980"	"8.99"	"10.817"	"15.166"	"23.076"	"26.546"	"28.268"	"26.871"	"26.199"	"23.869"	"20.272"	"14.453"	"8.997"
"1981"	"9.039"	"11.637"	"17.444"	"21.773"	"26.94"	"27.727"	"26.706"	"25.663"	"24.158"	"19.926"	"13.802"	"9.129"
"1982"	"9.43"	"9.495"	"13.678"	"20.322"	"23.609"	"27.412"	"26.837"	"26.042"	"23.597"	"20.022"	"14.497"	"10.256"
"1983"	"8.18"	"9.496"	"13.122"	"19.254"	"24.33"	"26.335"	"26.025"	"26.255"	"25.351"	"19.894"	"14.012"	"10"
"1984"	"8.159"	"9.274"	"17.4"	"21.406"	"27.249"	"29.754"	"26.49"	"26.922"	"23.386"	"20.141"	"14.137"	"10.412"
"1985"	"8.394"	"11.662"	"17.768"	"22.321"	"25.995"	"28.21"	"26.732"	"26.45"	"25.018"	"20.293"	"14.01"	"10.892"
"1986"	"6.054"	"10.751"	"14.898"	"20.701"	"23.778"	"27.437"	"26.204"	"25.866"	"24.205"	"20.241"	"15.193"	"8.309"
"1987"	"6.792"	"11.706"	"16.354"	"21.577"	"22.608"	"27.132"	"27.5"	"26.785"	"25.586"	"20.765"	"15.104"	"10.124"
"1988"	"10.5"	"12.23"	"15.115"	"22.866"	"26.745"	"27.787"	"27.085"	"25.742"	"24.63"	"20.035"	"15.129"	"10.448"
"1989"	"7.58"	"10.631"	"15.055"	"19.893"	"24.973"	"26.874"	"26.263"	"24.542"	"24.265"	"20.434"	"14.387"	"10.249"
"1990"	"11.207"	"11.761"	"14.048"	"20.568"	"26.814"	"29.393"	"26.753"	"26.039"	"24.842"	"20.087"	"13.895"	"9.85"
"1991"	"5.884"	"10.536"	"15.654"	"19.728"	"24.946"	"27.553"	"27.523"	"25.965"	"24.609"	"19.71"	"14.059"	"10.679"
"1992"	"9.524"	"10.01"	"14.996"	"20.783"	"24.265"	"27.406"	"26.101"	"25.849"	"23.963"	"20.561"	"14.863"	"11.414"
"1993"	"8.167"	"12.373"	"13.584"	"21.431"	"26.119"	"28.012"	"26.102"	"26.448"	"24.507"	"20.406"	"15.662"	"10.421"
"1994"	"9.648"	"10.482"	"17.276"	"19.552"	"25.929"	"28.972"	"27.723"	"26.467"	"24.141"	"20.015"	"15.075"	"10.412"
"1995"	"6.503"	"10.012"	"14.948"	"20.166"	"26.873"	"29.41"	"26.548"	"25.574"	"24.016"	"20.814"	"14.921"	"10.271"
"1996"	"8.647"	"12.325"	"16.435"	"21.815"	"24.387"	"27.152"	"26.251"	"24.355"	"24.737"	"19.977"	"14.08"	"8.989"
"1997"	"9.152"	"11.068"	"15.673"	"21.135"	"24.153"	"26.711"	"27.799"	"25.581"	"25.344"	"19.373"	"14.316"	"9.7"
"1998"	"6.747"	"11.712"	"14.156"	"21.704"	"26.405"	"28.658"	"27.557"	"26.694"	"25.499"	"21.649"	"14.292"	"10.258"
"1999"	"8.424"	"13.549"	"17.033"	"24.967"	"26.498"	"27.302"	"28.127"	"26.686"	"26.033"	"21.634"	"16.195"	"11.158"
"2000"	"9.692"	"9.701"	"15.319"	"23.242"	"27.662"	"27.388"	"27.216"	"26.383"	"25.417"	"22.419"	"16.773"	"11.782"
"2001"	"9.879"	"12.049"	"16.885"	"21.713"	"27.37"	"26.995"	"27.857"	"26.98"	"24.863"	"22.22"	"15.887"	"11.477"
"2002"	"9.829"	"11.215"	"16.918"	"22.303"	"27.217"	"28.411"	"27.872"	"26.875"	"23.169"	"21.71"	"16.534"	"10.643"
