
"Year"	"Jan"	"Feb"	"Mar"	"Apr"	"May"	"Jun"	"Jul"	"Aug"	"Sep"	"Oct"	"Nov"	"Dec"
"1901"	"5.282"	"8.167"	"14.149"	"19.075"	"21.845"	"24.949"	"22.764"	"21.575"	"20.307"	"18.865"	"14.34"	"10.091"
"1902"	"9.428"	"10.924"	"14.991"	"18.757"	"22.36"	"23.165"	"21.367"	"21.404"	"20.237"	"16.209"	"13.225"	"10.348"
"1903"	"7.598"	"7.956"	"11.614"	"18.509"	"22.487"	"23.858"	"23.221"	"21.298"	"20.856"	"17.197"	"13.693"	"10.319"
"1904"	"7.861"	"11.031"	"13.541"	"20.189"	"21.323"	"23.028"	"21.421"	"21.076"	"19.81"	"17.367"	"12.281"	"9.466"
"1905"	"5.076"	"5.332"	"9.288"	"15.809"	"22.292"	"23.722"	"21.767"	"21.485"	"20.335"	"17.867"	"13.808"	"9.012"
"1906"	"6.487"	"6.448"	"12.055"	"19.584"	"23.63"	"22.914"	"21.919"	"21.136"	"20.508"	"17.543"	"14.816"	"11.121"
"1907"	"10.301"	"6.496"	"9.616"	"16.924"	"20.679"	"23.579"	"22.616"	"21.651"	"21.09"	"18.737"	"13.958"	"10.406"
"1908"	"8.625"	"9.938"	"14.193"	"21.449"	"22.566"	"24.521"	"21.502"	"21.011"	"20.591"	"17.767"	"12.64"	"9.431"
"1909"	"7.133"	"8.658"	"15.846"	"17.748"	"22.528"	"21.952"	"21.776"	"21.864"	"21.32"	"18.834"	"13.858"	"10.852"
"1910"	"9.503"	"9.248"	"14.432"	"19.392"	"22.275"	"22.568"	"21.023"	"21.552"	"20.523"	"16.753"	"12.292"	"9.332"
"1911"	"8.127"	"10.351"	"11.381"	"19.388"	"23.832"	"22.911"	"23.165"	"22.09"	"20.11"	"17.054"	"11.785"	"9.595"
"1912"	"7.544"	"10.401"	"13.531"	"18.605"	"21.776"	"23.408"	"21.823"	"21.255"	"19.908"	"17.566"	"11.486"	"9.41"
"1913"	"8.272"	"7.419"	"11.296"	"19.26"	"20.775"	"21.507"	"21.631"	"22.202"	"21.29"	"17.37"	"11.553"	"7.631"
"1914"	"9.687"	"8.235"	"12.34"	"18.318"	"21.503"	"23.016"	"21.749"	"21.703"	"20.352"	"15.67"	"12.948"	"9.319"
"1915"	"8.746"	"8.137"	"12.937"	"19.219"	"23.26"	"23.127"	"22.448"	"21.905"	"20.824"	"19.512"	"14.439"	"10.194"
"1916"	"8.616"	"8.972"	"17.692"	"20.51"	"23.301"	"22.24"	"21.375"	"21.852"	"20.211"	"17.575"	"13.716"	"8.635"
"1917"	"8.143"	"9.253"	"12.597"	"15.666"	"18.655"	"22.027"	"21.624"	"21.725"	"19.449"	"16.636"	"13.938"	"9.128"
"1918"	"7.37"	"10.563"	"14.161"	"17.562"	"23.118"	"22.027"	"22.473"	"21.851"	"20.908"	"17.753"	"12.334"	"7.882"
"1919"	"5.801"	"8.391"	"13.424"	"17.081"	"20.781"	"23.156"	"21.471"	"21.651"	"19.904"	"17.491"	"13.014"	"8.637"
"1920"	"9.739"	"7.6"	"11.735"	"19.021"	"19.35"	"22.268"	"21.446"	"21.549"	"20.409"	"17.61"	"13.706"	"11.152"
"1921"	"7.174"	"10.454"	"16.937"	"21.16"	"25.046"	"22.29"	"21.355"	"20.652"	"19.054"	"16.223"	"12.737"	"9.873"
"1922"	"6.273"	"10.685"	"15.76"	"19.092"	"23.494"	"22.267"	"21.52"	"20.749"	"19.782"	"16.512"	"12.838"	"7.597"
"1923"	"8.462"	"7.52"	"14.88"	"20.752"	"22.42"	"25.027"	"21.446"	"21.658"	"19.801"	"16.5"	"13.201"	"9.234"
"1924"	"6.921"	"9.649"	"15.517"	"20.357"	"19.819"	"25.083"	"21.799"	"21.226"	"19.224"	"17.61"	"12.738"	"10.148"
"1925"	"5.994"	"9.174"	"14.337"	"20.434"	"22.034"	"21.17"	"21.122"	"21.451"	"20.082"	"17.156"	"11.871"	"10.454"
"1926"	"7.693"	"10.545"	"11.498"	"15.576"	"20.392"	"25.02"	"21.965"	"21.351"	"20.407"	"17.109"	"10.794"	"9.56"
"1927"	"7.013"	"7.061"	"12.872"	"18.78"	"20.96"	"23.294"	"21.723"	"20.852"	"20.433"	"17.216"	"12.453"	"10.676"
"1928"	"7.011"	"9.558"	"13.878"	"18.228"	"23.585"	"22.771"	"21.766"	"22.102"	"21.415"	"18.393"	"12.836"	"8.998"
"1929"	"6.835"	"8.865"	"15.585"	"19.472"	"23.325"	"22.61"	"21.676"	"20.851"	"20.151"	"16.564"	"13.442"	"7.127"
"1930"	"5.936"	"8.84"	"15.305"	"18.97"	"22.194"	"22.473"	"21.381"	"21.451"	"20.76"	"16.669"	"12.696"	"10.041"
"1931"	"9.048"	"6.714"	"13.775"	"20.891"	"22.224"	"24.534"	"21.694"	"22.35"	"19.909"	"17.069"	"12.905"	"9.906"
"1932"	"9.784"	"8.103"	"14.84"	"19.271"	"21.686"	"24.463"	"22.023"	"21.221"	"20.236"	"17.425"	"14.392"	"9.321"
"1933"	"6.477"	"9.3"	"14.504"	"17.238"	"19.225"	"22.481"	"21.321"	"21.451"	"19.959"	"16.966"	"13.88"	"10.575"
"1934"	"6.217"	"11.545"	"13.397"	"19.851"	"22.184"	"22.412"	"21.264"	"20.653"	"20.744"	"17.392"	"13.158"	"8.088"
"1935"	"4.947"	"9.55"	"14.195"	"15.681"	"23.684"	"24.38"	"21.291"	"20.827"	"20.008"	"17.042"	"12.387"	"7.473"
"1936"	"6.343"	"7.515"	"13.748"	"18.045"	"22.186"	"20.1"	"20.583"	"20.435"	"19.525"	"16.27"	"12.941"	"8.476"
"1937"	"6.941"	"7.825"	"12.778"	"16.089"	"21.376"	"22.82"	"21.579"	"21.321"	"20.309"	"16.41"	"11.188"	"8.632"
"1938"	"6.338"	"7.415"	"15.093"	"20.273"	"22.459"	"21.386"	"20.908"	"21.195"	"20.393"	"17.456"	"11.273"	"10.669"
"1939"	"7.911"	"7.859"	"10.939"	"18.183"	"23.777"	"21.767"	"21.496"	"21.493"	"20.242"	"17.011"	"13.539"	"10.882"
"1940"	"7.982"	"8.395"	"11.013"	"18.136"	"22.303"	"23.228"	"21.697"	"21.406"	"19.509"	"17.867"	"13.639"	"8.13"
"1941"	"6.54"	"10.215"	"16.26"	"21.977"	"22.846"	"22.628"	"22.375"	"21.852"	"20.432"	"17.987"	"13.238"	"11.691"
"1942"	"6.976"	"9.869"	"15.986"	"19.641"	"22.435"	"24.394"	"21.728"	"21.009"	"19.809"	"17.664"	"13.863"	"8.578"
"1943"	"6.412"	"10.288"	"14.688"	"16.991"	"23.088"	"22.765"	"21.67"	"21.026"	"20.877"	"17.623"	"14.739"	"10.203"
"1944"	"5.8"	"7.776"	"12.986"	"17.69"	"24.426"	"22.424"	"21.868"	"21.711"	"20.363"	"17.666"	"13.493"	"11.136"
"1945"	"4.898"	"8.315"	"14.234"	"17.472"	"22.897"	"24.268"	"21.521"	"21.577"	"20.183"	"16.498"	"13.839"	"8.934"
"1946"	"10.476"	"11.731"	"13.847"	"18.964"	"20.738"	"22.722"	"21.464"	"22.046"	"20.861"	"16.716"	"13.322"	"9.71"
"1947"	"6.5"	"10.153"	"14.47"	"20.575"	"22.915"	"24.272"	"21.574"	"21.719"	"20.361"	"16.422"	"13.944"	"10.04"
"1948"	"8.289"	"8.667"	"12.879"	"20.809"	"23.397"	"24.616"	"21.519"	"21.049"	"20.061"	"16.41"	"12.251"	"8.927"
"1949"	"9.836"	"9.079"	"14.442"	"19.708"	"21.663"	"23.88"	"21.372"	"21.352"	"20.202"	"18.142"	"12.889"	"7.982"
"1950"	"8.555"	"8.294"	"12.529"	"18.778"	"22.494"	"22.503"	"21.167"	"20.946"	"19.56"	"17.013"	"13.321"	"8.98"
"1951"	"6.29"	"10.268"	"13.956"	"17.066"	"22.649"	"23.549"	"22.706"	"22.092"	"20.365"	"19.168"	"13.751"	"10.662"
"1952"	"9.605"	"11.095"	"12.516"	"20"	"22.514"	"22.43"	"21.724"	"21.269"	"20.909"	"17.867"	"13.55"	"10.069"
"1953"	"6.01"	"12.194"	"16.883"	"20.095"	"23.15"	"23.992"	"21.728"	"21.606"	"20.868"	"17.439"	"13.831"	"10.763"
"1954"	"6.286"	"9.716"	"15.516"	"20.902"	"23.957"	"23.429"	"21.694"	"21.622"	"20.523"	"15.967"	"13.124"	"7.968"
"1955"	"6.778"	"11.012"	"16.086"	"17.489"	"21.623"	"23.796"	"21.721"	"21.125"	"20.109"	"16.358"	"13.531"	"9.393"
"1956"	"7.179"	"11.36"	"14.355"	"20.761"	"23.509"	"22.526"	"21.304"	"21.484"	"20.539"	"16.469"	"13.278"	"8.384"
"1957"	"6.596"	"8.962"	"12.844"	"18.246"	"21.903"	"22.563"	"21.905"	"21.675"	"20.125"	"17.365"	"14.349"	"10.342"
"1958"	"8.825"	"9.902"	"15.068"	"21.145"	"22.709"	"24.26"	"21.699"	"21.185"	"20.868"	"18.135"	"14.383"	"10.771"
"1959"	"8.489"	"9.246"	"15.427"	"19.934"	"22.617"	"23.489"	"21.224"	"22.049"	"21.114"	"17.584"	"13.356"	"11.199"
"1960"	"7.109"	"14.067"	"13.328"	"18.448"	"23.482"	"24.008"	"21.938"	"22.051"	"20.907"	"17.097"	"13.05"	"12.655"
"1961"	"8.235"	"8.004"	"15.515"	"19.961"	"22.722"	"23.729"	"22.398"	"22.155"	"22.056"	"18.057"	"12.514"	"8.03"
"1962"	"7.632"	"10.09"	"14.427"	"19.957"	"22.454"	"24.024"	"22.739"	"21.985"	"20.772"	"17.858"	"14.509"	"9.572"
"1963"	"8.693"	"11.544"	"13.406"	"18.532"	"21.86"	"23.427"	"22.63"	"21.615"	"20.23"	"18.522"	"14.281"	"10.547"
"1964"	"8.104"	"10.314"	"16.337"	"20.512"	"20.768"	"23.593"	"21.032"	"21.982"	"20.704"	"18.989"	"13.973"	"10.84"
"1965"	"10.133"	"8.946"	"12.873"	"17.976"	"21.786"	"24.329"	"21.621"	"21.047"	"20.506"	"17.886"	"14.409"	"10.302"
"1966"	"8.767"	"11.543"	"14.912"	"19.682"	"22.61"	"23.332"	"22.116"	"21.651"	"20.259"	"17.072"	"12.698"	"9.977"
"1967"	"8.169"	"11.725"	"12.723"	"18.527"	"21.636"	"23.666"	"21.87"	"20.915"	"20.506"	"16.619"	"11.724"	"9.224"
"1968"	"6.234"	"7.71"	"13.79"	"18.916"	"22.189"	"22.822"	"21.295"	"21.174"	"21.026"	"16.844"	"13.038"	"10.281"
"1969"	"8.033"	"10.919"	"16.765"	"18.818"	"21.188"	"23.156"	"21.264"	"21.377"	"19.57"	"17.669"	"14.655"	"11.034"
"1970"	"7.962"	"9.092"	"13.726"	"20.547"	"22.904"	"22.344"	"21.852"	"21.454"	"21.078"	"18.049"	"13.138"	"11.14"
"1971"	"7.418"	"9.795"	"14.533"	"19.212"	"20.052"	"22.22"	"21.277"	"20.515"	"19.761"	"17.721"	"13.337"	"11.438"
"1972"	"10.063"	"7.941"	"15.845"	"17.952"	"23.484"	"23.879"	"21.878"	"21.072"	"19.031"	"16.412"	"13.019"	"10.931"
"1973"	"8.577"	"10.393"	"13.432"	"21.364"	"22.45"	"22.659"	"21.823"	"21.529"	"20.626"	"16.9"	"13.522"	"8.864"
"1974"	"7.671"	"9.386"	"16.241"	"21.252"	"21.891"	"22.211"	"21.321"	"20.983"	"19.987"	"18.594"	"13.221"	"8.587"
"1975"	"6.81"	"8.632"	"12.705"	"19.351"	"22.378"	"21.655"	"20.414"	"20.83"	"19.531"	"18.269"	"12.441"	"10.463"
"1976"	"9.15"	"10.254"	"14.083"	"18.266"	"21.618"	"21.81"	"21.41"	"20.754"	"19.807"	"17.364"	"14.693"	"10.607"
"1977"	"8.838"	"10.266"	"16.578"	"19.015"	"20.118"	"22.055"	"21.073"	"20.935"	"19.478"	"17.513"	"14.789"	"9.814"
"1978"	"7.448"	"8.078"	"10.214"	"17.92"	"23.914"	"23.375"	"21.206"	"20.735"	"19.666"	"17.781"	"11.431"	"7.814"
"1979"	"7.485"	"8.683"	"12.286"	"19.878"	"21.375"	"22.963"	"21.057"	"21.587"	"19.264"	"18.138"	"15.056"	"9.948"
"1980"	"8.071"	"10.469"	"13.099"	"20.373"	"23.279"	"22.272"	"21.031"	"21.187"	"20.065"	"16.925"	"13.513"	"10.716"
"1981"	"6.733"	"10.368"	"13.28"	"19.053"	"21.888"	"23.023"	"21.535"	"21.151"	"19.953"	"17.486"	"11.951"	"8.617"
"1982"	"9.035"	"8.887"	"11.481"	"17.969"	"19.817"	"22.41"	"22.022"	"21.186"	"19.665"	"17.11"	"13.44"	"10.59"
"1983"	"7.386"	"7.117"	"12.414"	"16.264"	"21.143"	"21.514"	"21.472"	"21.537"	"20.366"	"16.567"	"12.603"	"9.478"
"1984"	"6.695"	"8.478"	"16.793"	"19.207"	"24.369"	"23.841"	"20.647"	"21.323"	"19.771"	"17.755"	"12.842"	"9.722"
"1985"	"6.594"	"9.865"	"17.519"	"20.103"	"21.273"	"23.289"	"20.676"	"21.547"	"19.564"	"16.615"	"12.215"	"10.454"
"1986"	"8.226"	"9.659"	"13.333"	"18.752"	"19.815"	"22.442"	"20.821"	"21.088"	"19.578"	"16.445"	"14.133"	"8.718"
"1987"	"7.794"	"10.868"	"15.551"	"19.876"	"20.079"	"23.478"	"22.31"	"21.585"	"20.66"	"18.226"	"14.788"	"10.998"
"1988"	"10.808"	"11.793"	"14.95"	"20.848"	"23.368"	"22.573"	"21.435"	"21.21"	"20.309"	"18.299"	"13.311"	"10.175"
"1989"	"6.029"	"9.712"	"14.537"	"18.429"	"22.187"	"21.519"	"21.411"	"20.619"	"20.122"	"17.674"	"13.139"	"9.688"
"1990"	"12.193"	"9.484"	"11.677"	"18.17"	"21.972"	"23.963"	"20.931"	"21.154"	"20.123"	"16.628"	"13.768"	"10.412"
"1991"	"5.359"	"10.39"	"14.949"	"17.932"	"22.61"	"22.328"	"22.486"	"21.037"	"20.158"	"17.473"	"12.382"	"9.887"
"1992"	"8.899"	"7.949"	"14.275"	"19.861"	"20.739"	"21.923"	"20.575"	"20.791"	"19.773"	"16.987"	"13.341"	"10.332"
"1993"	"8.511"	"11.872"	"12.087"	"18.529"	"22.77"	"22.761"	"21.404"	"21.825"	"19.734"	"17.7"	"14.405"	"11.185"
"1994"	"9.575"	"9.207"	"16.426"	"17.537"	"23.088"	"24.252"	"22.119"	"21.279"	"20.203"	"17.368"	"13.441"	"10.886"
"1995"	"6.909"	"9.291"	"13.715"	"18.688"	"24.284"	"24.859"	"20.715"	"19.877"	"19.972"	"18.117"	"12.459"	"9.992"
"1996"	"8.428"	"9.941"	"14.266"	"19.169"	"22.079"	"22.351"	"20.483"	"19.308"	"19.807"	"17.299"	"13.516"	"9.718"
"1997"	"8.761"	"9.688"	"14.304"	"18.892"	"20.931"	"21.874"	"23.303"	"21.309"	"20.479"	"14.974"	"12.972"	"8.785"
"1998"	"2.864"	"10.737"	"12.754"	"19.353"	"23.127"	"24.519"	"21.524"	"21.125"	"21.107"	"17.906"	"15.557"	"13.678"
"1999"	"8.379"	"13.827"	"17.86"	"24.65"	"23.275"	"22.475"	"22.878"	"22.507"	"20.667"	"18.599"	"15.757"	"12.132"
"2000"	"10.155"	"9.338"	"13.644"	"21.44"	"22.612"	"21.877"	"21.826"	"21.997"	"21.51"	"19.438"	"15.792"	"12.376"
"2001"	"8.895"	"10.764"	"15.392"	"18.524"	"22.662"	"22.481"	"22.651"	"22.574"	"22.068"	"19.47"	"16.098"	"11.981"
"2002"	"9.388"	"10.928"	"16.042"	"20.3"	"24.529"	"23.973"	"23.592"	"22.395"	"19.009"	"18.858"	"14.489"	"10.223"
