
"Year"	"Jan"	"Feb"	"Mar"	"Apr"	"May"	"Jun"	"Jul"	"Aug"	"Sep"	"Oct"	"Nov"	"Dec"
"1901"	"11.887"	"13.602"	"16.55"	"19.868"	"20.065"	"20.622"	"20.571"	"20.518"	"20.702"	"19.755"	"15.912"	"13.015"
"1902"	"12.151"	"13.342"	"17.287"	"18.244"	"20.241"	"20.175"	"20.672"	"20.324"	"20.502"	"18.407"	"15.205"	"12.505"
"1903"	"11.16"	"12.49"	"16.664"	"19.773"	"20.342"	"20.521"	"21.059"	"19.591"	"20.516"	"19.798"	"15.952"	"13.124"
"1904"	"11.424"	"13.526"	"16.95"	"18.469"	"19.914"	"20.526"	"20.476"	"20.274"	"20.712"	"19.166"	"15.354"	"12.045"
"1905"	"11.152"	"10.542"	"15.59"	"17.6"	"20.309"	"20.981"	"20.871"	"19.849"	"21.077"	"19.303"	"15.95"	"13.133"
"1906"	"12.1"	"12.929"	"15.827"	"18.799"	"20.727"	"20.694"	"21.181"	"19.521"	"21.513"	"18.966"	"15.952"	"13.012"
"1907"	"12.757"	"12.498"	"15.859"	"18.042"	"19.47"	"19.747"	"20.167"	"20.518"	"20.308"	"19.367"	"16.078"	"12.754"
"1908"	"11.924"	"12.908"	"17.173"	"20.083"	"19.763"	"20.422"	"20.277"	"20.346"	"20.647"	"19.066"	"15.506"	"12.839"
"1909"	"11.764"	"13.125"	"17.506"	"18.431"	"19.19"	"19.613"	"21.099"	"19.718"	"21.398"	"20.131"	"16.91"	"13.103"
"1910"	"11.824"	"12.69"	"16.151"	"18.55"	"20.037"	"19.613"	"19.767"	"20.009"	"20.813"	"18.866"	"16.123"	"12.084"
"1911"	"12.166"	"12.448"	"15.987"	"18.473"	"19.173"	"19.985"	"20.107"	"20.009"	"20.519"	"19.171"	"15.882"	"12.192"
"1912"	"11.824"	"13.381"	"16.596"	"18.005"	"19.771"	"20.212"	"20.267"	"19.909"	"20.285"	"18.702"	"16.007"	"12.804"
"1913"	"12.357"	"14.312"	"15.914"	"18.349"	"18.858"	"19.812"	"20.634"	"19.919"	"20.413"	"18.839"	"15.243"	"11.88"
"1914"	"11.517"	"12.961"	"16.755"	"17.945"	"19.336"	"20.184"	"20.672"	"19.336"	"20.448"	"17.856"	"15.814"	"13.125"
"1915"	"12.961"	"13.317"	"16.865"	"18.995"	"19.082"	"19.715"	"19.571"	"19.949"	"20.318"	"20.635"	"17.248"	"13.716"
"1916"	"11.622"	"13.526"	"16.887"	"18.248"	"19.931"	"20.216"	"20.33"	"20.018"	"20.516"	"18.899"	"16.334"	"12.505"
"1917"	"11.424"	"12.525"	"15.652"	"17.568"	"19.396"	"19.631"	"20.258"	"20.018"	"20.022"	"19.098"	"16.615"	"11.957"
"1918"	"11.652"	"12.827"	"16.419"	"18.234"	"20.03"	"18.738"	"20.566"	"19.808"	"20.625"	"19.225"	"15.427"	"12.799"
"1919"	"12.924"	"12.998"	"17.783"	"18.732"	"20.25"	"20.214"	"20.103"	"20.433"	"19.626"	"18.956"	"16.233"	"12.712"
"1920"	"12.835"	"12.894"	"16.076"	"18.244"	"19.564"	"19.92"	"20.785"	"19.909"	"20.449"	"19.066"	"15.501"	"12.967"
"1921"	"13.279"	"12.879"	"16.797"	"18.74"	"19.727"	"19.419"	"20.414"	"20.137"	"20.413"	"17.77"	"15.428"	"12.799"
"1922"	"12.96"	"13.536"	"16.96"	"18.99"	"20.54"	"19.742"	"20.424"	"20.137"	"20.323"	"18.68"	"15.771"	"13.026"
"1923"	"13.051"	"13.179"	"17.043"	"19.147"	"19.163"	"20.321"	"20.113"	"20.134"	"20.521"	"18.303"	"16.188"	"13.125"
"1924"	"12.36"	"13.026"	"17.998"	"19.536"	"19.062"	"20.318"	"20.513"	"20.028"	"20.022"	"19.605"	"16.493"	"12.575"
"1925"	"10.805"	"12.339"	"16.654"	"18.908"	"19.461"	"20.194"	"19.982"	"20.018"	"20.102"	"17.866"	"15.146"	"12.413"
"1926"	"12.292"	"12.925"	"15.99"	"18.061"	"19.864"	"19.615"	"20.29"	"20.124"	"20.48"	"19.062"	"15.183"	"13.775"
"1927"	"11.593"	"12.593"	"14.977"	"17.894"	"19.259"	"19.911"	"20.566"	"20.113"	"19.947"	"18.704"	"15.355"	"13.12"
"1928"	"12.992"	"14.032"	"16.907"	"19.607"	"19.506"	"19.617"	"20.277"	"20.319"	"20.612"	"18.762"	"15.11"	"13.425"
"1929"	"12.591"	"12.588"	"16.846"	"18.74"	"19.635"	"19.343"	"20.468"	"20.244"	"20.422"	"19.07"	"15.409"	"12.779"
"1930"	"10.7"	"13.526"	"16.378"	"18.567"	"19.938"	"19.151"	"20.668"	"20.118"	"21.14"	"18.534"	"16.387"	"13.092"
"1931"	"11.838"	"12.754"	"16.754"	"19.94"	"19.385"	"19.698"	"19.98"	"20.539"	"20.403"	"19.93"	"15.683"	"13.693"
"1932"	"12.526"	"12.762"	"17.415"	"19.405"	"20.674"	"19.892"	"20.382"	"20.11"	"20.632"	"19.762"	"16.509"	"13.406"
"1933"	"11.873"	"13.47"	"17.651"	"18.935"	"19.178"	"20.521"	"20.571"	"20.03"	"20.71"	"19.445"	"14.948"	"12.326"
"1934"	"12.499"	"12.836"	"17.351"	"19.536"	"19.885"	"19.488"	"20.29"	"19.84"	"20.767"	"19.533"	"14.829"	"12.681"
"1935"	"11.252"	"13.526"	"17.297"	"18.725"	"21.172"	"20.155"	"20.558"	"19.619"	"20.761"	"19.564"	"16.115"	"12.389"
"1936"	"10.9"	"12.615"	"17.381"	"19.231"	"20.041"	"20.297"	"20.568"	"20.428"	"20.42"	"18.854"	"16.51"	"13.416"
"1937"	"10.487"	"13.449"	"16.788"	"20.069"	"20.067"	"20.406"	"20.858"	"20.004"	"20.763"	"19.325"	"15.299"	"13.563"
"1938"	"12.655"	"12.777"	"18.577"	"20.175"	"19.43"	"20.308"	"20.263"	"20.374"	"20.641"	"19.605"	"14.969"	"13.58"
"1939"	"11.654"	"13.837"	"16.866"	"20.131"	"19.836"	"20.175"	"20.36"	"20.615"	"20.592"	"19.165"	"16.501"	"13.598"
"1940"	"10.912"	"13.201"	"14.946"	"20.023"	"19.552"	"20.395"	"20.158"	"20.602"	"20.099"	"19.453"	"16.042"	"13.613"
"1941"	"11.822"	"13.342"	"18.433"	"19.79"	"19.615"	"19.813"	"20.592"	"20.773"	"20.3"	"18.938"	"15.187"	"14.03"
"1942"	"12.03"	"13.885"	"17.577"	"19.334"	"19.74"	"20.05"	"20.592"	"20.007"	"19.8"	"19.59"	"16.223"	"12.685"
"1943"	"12.224"	"11.822"	"15.783"	"18.088"	"20.207"	"19.99"	"20.209"	"19.518"	"20.143"	"19.069"	"16.341"	"13.431"
"1944"	"11.323"	"12.412"	"16.768"	"18.213"	"20.132"	"19.824"	"20.392"	"20.292"	"19.988"	"19.138"	"15.587"	"13.493"
"1945"	"11.919"	"12.307"	"17.172"	"19.478"	"19.727"	"20.885"	"20.579"	"20.108"	"21.12"	"18.467"	"16.155"	"13.005"
"1946"	"12.329"	"14.85"	"17.387"	"18.358"	"19.801"	"20.184"	"20.471"	"20.683"	"20.712"	"18.839"	"16.696"	"13.993"
"1947"	"12.232"	"13.697"	"17.687"	"19.185"	"20.305"	"20.519"	"20.414"	"20.498"	"20.739"	"18.374"	"15.803"	"14.191"
"1948"	"12.254"	"13.144"	"15.939"	"18.442"	"18.393"	"20.046"	"20.249"	"20.508"	"20.716"	"18.767"	"16.746"	"12.919"
"1949"	"12.124"	"13.135"	"16.041"	"17.104"	"18.833"	"19.815"	"20.071"	"19.808"	"20.386"	"19.775"	"15.822"	"11.989"
"1950"	"11.549"	"12.726"	"16.387"	"18.741"	"20.24"	"19.92"	"20.382"	"19.726"	"20.726"	"19.443"	"15.811"	"13.221"
"1951"	"11.435"	"13.762"	"17.224"	"19.786"	"19.269"	"19.715"	"20.253"	"20.805"	"20.639"	"19.559"	"16.195"	"14.71"
"1952"	"12.448"	"14.637"	"15.948"	"19.336"	"19.912"	"20.949"	"20.689"	"20.775"	"20.488"	"20.308"	"16.412"	"13.134"
"1953"	"11.62"	"14.191"	"17.916"	"19.743"	"19.143"	"20.502"	"20.422"	"20.797"	"20.586"	"19.436"	"16.078"	"14.752"
"1954"	"10.92"	"14.866"	"17.151"	"19.867"	"19.983"	"19.598"	"20.189"	"20.126"	"20.927"	"18.822"	"14.976"	"13.49"
"1955"	"11.989"	"13.043"	"17.114"	"18.814"	"19.869"	"20.303"	"19.767"	"19.708"	"20.718"	"19.952"	"16.711"	"12.285"
"1956"	"11.662"	"13.064"	"17.283"	"19.638"	"19.253"	"19.443"	"20.482"	"20.319"	"20.118"	"19.568"	"16.092"	"13.148"
"1957"	"12.317"	"12.616"	"16.355"	"19.853"	"20.464"	"20.189"	"20.387"	"20.505"	"20.571"	"18.467"	"15.234"	"13.316"
"1958"	"11.358"	"12.953"	"16.674"	"20.042"	"19.703"	"21.427"	"20.802"	"19.518"	"20.981"	"19.328"	"15.393"	"13.171"
"1959"	"12.115"	"12.348"	"16.119"	"18.933"	"19.438"	"19.614"	"20.802"	"20.021"	"20.013"	"18.748"	"15.22"	"13.688"
"1960"	"12.074"	"13.098"	"16.274"	"20.042"	"21.025"	"20.604"	"19.801"	"20.825"	"20.484"	"19.321"	"16.058"	"12.854"
"1961"	"11.889"	"12.374"	"16.653"	"19.465"	"20.442"	"20.209"	"20.665"	"20.514"	"20.809"	"19.367"	"15.114"	"11.795"
"1962"	"10.965"	"13.089"	"16.454"	"19.588"	"19.801"	"19.717"	"21.004"	"19.823"	"20.92"	"18.831"	"15.438"	"13.026"
"1963"	"11.652"	"14.381"	"17.123"	"18.229"	"19.141"	"19.516"	"20.135"	"20.3"	"21.2"	"18.702"	"15.318"	"13.308"
"1964"	"11.638"	"13.462"	"17.308"	"18.217"	"19.451"	"19.7"	"19.485"	"20.433"	"20.889"	"20.035"	"16.79"	"12.955"
"1965"	"11.719"	"12.593"	"15.699"	"19.216"	"20.377"	"20.142"	"19.944"	"19.281"	"20.225"	"19.003"	"15.622"	"13.801"
"1966"	"12.424"	"14.426"	"17.507"	"19.936"	"20.851"	"19.12"	"20.703"	"19.821"	"20.403"	"18.467"	"17.386"	"13.265"
"1967"	"12.872"	"14.04"	"16.364"	"18.924"	"20.364"	"20.752"	"20.699"	"20.918"	"20.403"	"18.956"	"15.051"	"13.25"
"1968"	"11.956"	"12.653"	"17.205"	"18.781"	"19.34"	"19.74"	"20.544"	"20.618"	"20.491"	"19.121"	"16.113"	"13.119"
"1969"	"11.66"	"13.654"	"17.587"	"19.662"	"20.219"	"19.717"	"21.077"	"19.818"	"20.944"	"19.367"	"16.14"	"13.316"
"1970"	"11.331"	"13.23"	"17.1"	"19.601"	"20.243"	"20.62"	"20.08"	"20.329"	"20.077"	"19.042"	"16.011"	"13.319"
"1971"	"12.038"	"13.029"	"17.587"	"18.297"	"19.738"	"19.841"	"19.969"	"19.251"	"20.604"	"19.17"	"15.409"	"13.221"
"1972"	"12.63"	"12.708"	"16.903"	"18.676"	"20.776"	"20.685"	"20.885"	"20.292"	"21.128"	"19.567"	"16.717"	"13.402"
"1973"	"12.817"	"14.191"	"17.264"	"20.442"	"19.631"	"20.184"	"21.105"	"20.292"	"20.685"	"19.179"	"15.982"	"12.601"
"1974"	"11.746"	"13.455"	"16.483"	"18.358"	"19.547"	"20.151"	"19.212"	"20.137"	"19.899"	"19.925"	"17.486"	"12.38"
"1975"	"11.824"	"13.526"	"17.555"	"19.728"	"19.804"	"20.941"	"19.668"	"20.319"	"20.108"	"19.828"	"15.503"	"12.244"
"1976"	"11.839"	"14.153"	"17.38"	"19.269"	"19.529"	"18.689"	"19.931"	"19.851"	"20.346"	"18.767"	"16.714"	"12.688"
"1977"	"11.295"	"12.802"	"17.547"	"16.771"	"18.424"	"19.288"	"20.277"	"20.101"	"20.784"	"18.402"	"16.318"	"13.276"
"1978"	"11.192"	"14.093"	"16.586"	"19.113"	"19.52"	"20.194"	"20.263"	"20.766"	"19.85"	"20.057"	"16.323"	"13.419"
"1979"	"12.849"	"13.701"	"17.392"	"20.35"	"21.744"	"21.141"	"20.861"	"20.429"	"20.303"	"19.17"	"17.647"	"13.857"
"1980"	"12.156"	"13.163"	"16.856"	"20.247"	"19.396"	"20.648"	"21.031"	"20.419"	"20.852"	"18.767"	"16.818"	"14.017"
"1981"	"12.524"	"13.622"	"16.466"	"17.701"	"19.833"	"20.741"	"20.877"	"20.726"	"20.707"	"19.706"	"16.843"	"13.424"
"1982"	"12.841"	"13.397"	"16.887"	"18.236"	"20.986"	"20.017"	"20.677"	"20.683"	"20.511"	"19.362"	"15.729"	"12.94"
"1983"	"11.959"	"12.561"	"16.187"	"18.344"	"19.514"	"20.82"	"20.715"	"20.406"	"20.744"	"19.925"	"16.412"	"12.443"
"1984"	"11.173"	"12.971"	"16.853"	"18.926"	"18.81"	"19.709"	"20.29"	"20.429"	"19.802"	"19.054"	"15.808"	"14.411"
"1985"	"12.459"	"13.254"	"17.363"	"19.103"	"19.76"	"19.703"	"19.972"	"20.519"	"20.413"	"19.996"	"15.714"	"14.357"
"1986"	"12.333"	"14.671"	"18.024"	"18.508"	"19.834"	"20.818"	"20.305"	"20.631"	"20.212"	"18.494"	"15.501"	"13.524"
"1987"	"12.872"	"14.145"	"16.059"	"18.136"	"20.313"	"21.017"	"20.574"	"20.417"	"20.381"	"18.776"	"17.389"	"13.425"
"1988"	"13.132"	"14.616"	"16.925"	"20.453"	"19.916"	"20.414"	"20.659"	"19.952"	"20.496"	"19.833"	"17.056"	"14.939"
"1989"	"11.082"	"13.82"	"16.778"	"19.963"	"21.316"	"20.523"	"20.084"	"20.635"	"20.336"	"19.579"	"15.582"	"13.291"
"1990"	"12.834"	"13.651"	"15.085"	"16.934"	"20.014"	"20.446"	"20.313"	"21.032"	"20.336"	"19.316"	"17.965"	"13.762"
"1991"	"11.317"	"14.296"	"17.937"	"19.443"	"18.717"	"19.876"	"20.771"	"20.746"	"20.726"	"20.189"	"15.477"	"12.729"
"1992"	"11.896"	"11.135"	"18.37"	"20.301"	"19.649"	"21.107"	"20.513"	"20.718"	"20.952"	"18.894"	"16.315"	"11.619"
"1993"	"11.619"	"13.15"	"15.774"	"18.134"	"18.646"	"19.493"	"20.675"	"20.08"	"20.321"	"20.258"	"17.009"	"14.626"
"1994"	"13.006"	"13.098"	"17.368"	"18.585"	"20.472"	"20.24"	"20.886"	"20.765"	"21.64"	"18.521"	"16.938"	"13.364"
"1995"	"12.447"	"13.925"	"18.224"	"20.289"	"21.368"	"20.475"	"20.372"	"20.641"	"20.552"	"20.268"	"17.902"	"13.213"
"1996"	"12.21"	"13.958"	"16.776"	"20.345"	"19.823"	"20.069"	"20.422"	"20.09"	"21.122"	"19.665"	"17.211"	"14.996"
"1997"	"11.924"	"12.601"	"16.763"	"17.874"	"20.342"	"20.653"	"20.355"	"20.852"	"20.25"	"18.963"	"17.118"	"14.323"
"1998"	"12.224"	"13.79"	"15.824"	"19.369"	"20.981"	"21.024"	"20.996"	"20.419"	"21.319"	"20.831"	"17.815"	"14.624"
"1999"	"13.392"	"17.05"	"18.281"	"20.493"	"20.245"	"20.904"	"21.006"	"20.3"	"20.872"	"20.255"	"17.238"	"14.088"
"2000"	"11.659"	"13.541"	"16.059"	"19.23"	"19.766"	"20.258"	"21.467"	"20.263"	"20.045"	"19.571"	"16.115"	"13.724"
"2001"	"12.833"	"14.535"	"17.293"	"19.836"	"20.261"	"20.809"	"21.368"	"20.922"	"22.029"	"19.872"	"16.485"	"13.99"
"2002"	"12.92"	"14.81"	"17.648"	"19.34"	"20.023"	"20.281"	"21.159"	"20.429"	"20.573"	"19.463"	"16.793"	"14.287"
