
"Year"	"Jan"	"Feb"	"Mar"	"Apr"	"May"	"Jun"	"Jul"	"Aug"	"Sep"	"Oct"	"Nov"	"Dec"
"1901"	"41.6"	"11.1"	"16.7"	"2.9"	"26.3"	"21.9"	"260.9"	"203.7"	"44.1"	"0.4"	"0"	"5.1"
"1902"	"0.2"	"2.9"	"9.1"	"11.9"	"14.5"	"38.9"	"165.6"	"144.7"	"92.5"	"5.3"	"0.5"	"0"
"1903"	"19.9"	"4.1"	"16.9"	"2.3"	"12.8"	"18.7"	"153.3"	"165.5"	"69.9"	"10.6"	"0"	"4.6"
"1904"	"24"	"1.2"	"50.1"	"4.6"	"11.9"	"54.5"	"102.4"	"181.7"	"72.6"	"1.9"	"15.7"	"5.2"
"1905"	"65.6"	"38.1"	"9.7"	"4"	"7.5"	"21.6"	"111.7"	"82.6"	"223.4"	"3.4"	"0"	"12"
"1906"	"9.4"	"71"	"14.4"	"3.5"	"7.4"	"55.5"	"96.2"	"185.8"	"236.7"	"1.1"	"0"	"3.9"
"1907"	"15.8"	"46"	"34.2"	"26.8"	"6.8"	"53"	"135.8"	"163.6"	"4"	"1.6"	"0.2"	"0"
"1908"	"37.8"	"13.2"	"1.5"	"10.4"	"8.7"	"54"	"166.9"	"416.4"	"72.1"	"0.7"	"0.4"	"4.3"
"1909"	"26.3"	"13.6"	"0.7"	"38.6"	"3.6"	"155.5"	"306.6"	"166.5"	"164.6"	"0.8"	"0.4"	"45.4"
"1910"	"26.2"	"9.2"	"1.8"	"12.8"	"11.8"	"130.7"	"185.4"	"178.4"	"59.5"	"2.4"	"0.9"	"3.6"
"1911"	"61.3"	"2.7"	"61.5"	"8.7"	"6.6"	"75.7"	"51.5"	"154.8"	"79.5"	"4"	"30.8"	"0.2"
"1912"	"41.2"	"8.2"	"9.3"	"21.2"	"11.2"	"37.3"	"110.4"	"217.5"	"72.1"	"0.3"	"16.5"	"5.2"
"1913"	"4.5"	"34.4"	"25.1"	"4.1"	"49.4"	"102.7"	"166.4"	"199.4"	"15.7"	"1.5"	"4.3"	"15.5"
"1914"	"15.2"	"39.8"	"23.5"	"18"	"18.8"	"52.8"	"293.2"	"130.7"	"231.2"	"21.6"	"10.7"	"9.1"
"1915"	"7.5"	"54.7"	"23.7"	"8.6"	"6.7"	"52.7"	"85.6"	"215"	"90.4"	"15"	"0"	"4.4"
"1916"	"0.7"	"10.4"	"1.9"	"5.1"	"16.5"	"81.1"	"384.6"	"157.4"	"87.5"	"10.4"	"0.3"	"0"
"1917"	"5.8"	"14.5"	"16.9"	"25.6"	"32.5"	"117.7"	"155.5"	"266"	"207.4"	"21.7"	"0"	"5.3"
"1918"	"3.3"	"1.5"	"24.2"	"27.8"	"3.5"	"76.3"	"42.7"	"122.1"	"19.4"	"0.6"	"13.5"	"5.1"
"1919"	"64.7"	"16.5"	"11.4"	"16.5"	"16"	"27.4"	"246.2"	"158.9"	"59"	"2.9"	"1.9"	"9.4"
"1920"	"18.6"	"16"	"18.3"	"2.5"	"20"	"71.1"	"116.4"	"137.7"	"25.2"	"0.6"	"0"	"0.5"
"1921"	"21.3"	"1.9"	"1.7"	"1.8"	"4.3"	"52.8"	"233.1"	"222.6"	"88.8"	"12.9"	"0"	"6.9"
"1922"	"22.9"	"14.8"	"2.5"	"4.4"	"4"	"53.7"	"164.1"	"194.4"	"277.2"	"3.7"	"2.6"	"35.2"
"1923"	"27.4"	"44.8"	"3.7"	"16.4"	"19"	"10.4"	"153.5"	"196.7"	"68.2"	"14.3"	"10.3"	"24.2"
"1924"	"34.7"	"39.7"	"7.1"	"2.9"	"22.5"	"10"	"241"	"116.5"	"176.9"	"12.4"	"1.3"	"39.1"
"1925"	"16.1"	"1.8"	"4.6"	"4.6"	"19"	"179.9"	"230.7"	"205.5"	"25.8"	"2.5"	"16.8"	"0"
"1926"	"12.7"	"4.9"	"41.4"	"16.4"	"14.3"	"8.8"	"165.2"	"303.4"	"46.3"	"1.2"	"6"	"7.6"
"1927"	"1.1"	"25.2"	"5.8"	"6.7"	"24.4"	"25.6"	"127"	"238.8"	"39"	"17"	"0"	"22.7"
"1928"	"23.6"	"37.5"	"8.7"	"16.1"	"4.9"	"42.7"	"167.1"	"127.2"	"110.7"	"0.2"	"15.2"	"17.7"
"1929"	"30.3"	"3"	"4.7"	"7.6"	"4.5"	"145"	"124.6"	"325.2"	"23.6"	"6.9"	"0"	"47.5"
"1930"	"19"	"10.2"	"5.3"	"18.5"	"8.7"	"39.4"	"246.4"	"118.8"	"39.4"	"5.4"	"7.3"	"7.2"
"1931"	"24.4"	"31.7"	"14.9"	"4.3"	"16.3"	"10.8"	"257.2"	"222.2"	"156.1"	"25.6"	"0.9"	"0"
"1932"	"17.3"	"4.2"	"14.5"	"4.4"	"8.1"	"34.7"	"147.7"	"117.6"	"97.7"	"1.3"	"0.4"	"25.6"
"1933"	"11.3"	"20.4"	"9.7"	"14.6"	"16.3"	"66.6"	"179.4"	"258.8"	"122.2"	"17.4"	"5.5"	"0.3"
"1934"	"18.2"	"3.7"	"15"	"1.1"	"5.9"	"50.7"	"146.8"	"238.8"	"24.9"	"0"	"0"	"13"
"1935"	"64.4"	"45.9"	"7.6"	"15.1"	"4.7"	"5.1"	"122"	"114.5"	"61.2"	"0"	"12.8"	"7.7"
"1936"	"3.4"	"33.4"	"20.2"	"14"	"11.5"	"241.1"	"301.8"	"203.3"	"95.1"	"10.5"	"2.1"	"28.6"
"1937"	"2.2"	"79.7"	"3.4"	"26.8"	"10.7"	"39.2"	"259.8"	"69.1"	"85.1"	"5.2"	"0.6"	"17.2"
"1938"	"45.5"	"25.9"	"1.7"	"4.8"	"1.7"	"178.6"	"131.1"	"128.7"	"17.4"	"7.6"	"0.9"	"0.5"
"1939"	"11.8"	"42.4"	"18.8"	"7.7"	"5.7"	"65.3"	"121.4"	"85.3"	"62.5"	"5.9"	"0"	"0"
"1940"	"43.1"	"42"	"17.4"	"7.3"	"6.8"	"85.1"	"108.4"	"144.9"	"43"	"0.8"	"0"	"5.6"
"1941"	"28.4"	"9.8"	"5.1"	"1.6"	"21.5"	"65.6"	"96.6"	"93.5"	"133.5"	"1.2"	"1"	"11.3"
"1942"	"30.5"	"30.6"	"12.5"	"20.8"	"18.4"	"61.2"	"231.8"	"188.7"	"74.7"	"1.6"	"0.2"	"25.3"
"1943"	"27.2"	"2.8"	"6.9"	"15.6"	"7.3"	"103.9"	"110"	"166.3"	"31.7"	"0"	"0"	"0"
"1944"	"28.4"	"31.4"	"17.5"	"21.6"	"0.7"	"77.4"	"139.5"	"132.8"	"69"	"0.7"	"0.9"	"7.7"
"1945"	"31.3"	"0.3"	"10.9"	"33.5"	"8.3"	"60"	"221.4"	"128.9"	"173.4"	"10.5"	"0.2"	"0.8"
"1946"	"1.1"	"13.6"	"8.2"	"13"	"25.6"	"78.3"	"177.4"	"163.2"	"17"	"15.3"	"8.4"	"10.7"
"1947"	"15.7"	"18.9"	"15.8"	"0.8"	"4.6"	"15.4"	"98.5"	"237.4"	"99.1"	"9.4"	"0.9"	"8.1"
"1948"	"4.6"	"34.6"	"38.7"	"8.9"	"5.9"	"48.5"	"246.2"	"252.4"	"61.5"	"4.4"	"3.8"	"13.9"
"1949"	"5.7"	"39.4"	"14.3"	"9"	"8.2"	"22.7"	"381.2"	"112.6"	"109.2"	"5.7"	"0.5"	"1.2"
"1950"	"61.4"	"24.5"	"37"	"2.3"	"9.1"	"54.7"	"303.1"	"205.7"	"262.2"	"0.2"	"0.4"	"0.7"
"1951"	"25"	"12.8"	"22.9"	"16.8"	"16.8"	"35.9"	"136.5"	"140.2"	"53.1"	"3.1"	"17"	"0.3"
"1952"	"13"	"14"	"24.8"	"5.5"	"16.9"	"62.8"	"139.5"	"132.4"	"12.1"	"1.2"	"7"	"1.2"
"1953"	"42.8"	"3.8"	"3.3"	"8.3"	"4.6"	"38.7"	"249.9"	"217.9"	"124.4"	"0.8"	"2.2"	"4.9"
"1954"	"27.7"	"56.7"	"5.2"	"1"	"5.8"	"34.9"	"250.3"	"104.2"	"246.2"	"13.8"	"0"	"0.9"
"1955"	"23.6"	"2.5"	"21.6"	"13.1"	"12.9"	"43.3"	"156.5"	"154.6"	"232.9"	"26.9"	"0"	"3.4"
"1956"	"20.6"	"6.8"	"20"	"3.6"	"19.9"	"120.8"	"201.4"	"178.2"	"24.7"	"31.3"	"0"	"3.8"
"1957"	"75.5"	"2.4"	"25.4"	"24"	"12.2"	"32"	"142.3"	"259.2"	"79.4"	"5.4"	"8.6"	"17.4"
"1958"	"9.4"	"6.3"	"8.6"	"6.6"	"2.9"	"54.3"	"168.4"	"177"	"228.7"	"20.1"	"1.7"	"26.8"
"1959"	"32.5"	"15.7"	"13.3"	"4.7"	"21"	"12.7"	"280.3"	"241.7"	"67.1"	"14.2"	"24.1"	"0"
"1960"	"25.9"	"0.5"	"23.8"	"10.7"	"3.7"	"38.1"	"141.4"	"131.1"	"88"	"13.7"	"0"	"6.2"
"1961"	"76.9"	"34.4"	"4.5"	"13.3"	"10.4"	"39.1"	"259.8"	"192.8"	"137.9"	"21.5"	"0.5"	"12.9"
"1962"	"35.7"	"27.5"	"20.3"	"2.8"	"12.8"	"31.5"	"180"	"171.6"	"201.6"	"0.2"	"9.9"	"8.5"
"1963"	"5.2"	"13"	"28.9"	"8.6"	"25.5"	"36.2"	"126.3"	"136.9"	"111.3"	"2.3"	"7.3"	"14.8"
"1964"	"21.4"	"4.8"	"11.1"	"9.1"	"21.3"	"50.8"	"332.9"	"153.9"	"109.3"	"0"	"1.8"	"8.8"
"1965"	"10.4"	"29.6"	"16.9"	"29.9"	"15.2"	"8.1"	"172.3"	"141.2"	"11.5"	"6.7"	"6.8"	"0"
"1966"	"3.6"	"45.9"	"11"	"6.5"	"23.4"	"96.6"	"192.3"	"201.4"	"172.1"	"12.4"	"6.1"	"1.8"
"1967"	"0.5"	"15.4"	"47.3"	"5.1"	"3.5"	"21"	"140.6"	"366.7"	"50.7"	"3.5"	"2.7"	"38.2"
"1968"	"40.1"	"30.7"	"11.5"	"4.7"	"5.7"	"44.3"	"139.7"	"187.7"	"22.8"	"10.7"	"0"	"7.3"
"1969"	"13.3"	"10.2"	"21"	"22.8"	"20.5"	"24.5"	"229.2"	"147"	"168.5"	"1.6"	"0.8"	"0"
"1970"	"24.5"	"15.7"	"9.9"	"0.6"	"20.3"	"62.5"	"84.5"	"206.2"	"47.8"	"5.8"	"0"	"0"
"1971"	"8.5"	"17.4"	"9.3"	"17.1"	"37.2"	"89"	"203.5"	"301.9"	"75.6"	"17"	"6.9"	"0"
"1972"	"10.7"	"21"	"7.2"	"8.2"	"1.6"	"23.4"	"166.9"	"148.2"	"168.2"	"11.4"	"8.7"	"7.3"
"1973"	"19.9"	"17.6"	"14.8"	"0.9"	"16.7"	"69.2"	"149"	"252.2"	"89.4"	"10.5"	"0"	"11.3"
"1974"	"9.9"	"10.7"	"3.5"	"1.3"	"13.1"	"35.3"	"199.7"	"98.9"	"14.5"	"1.4"	"0"	"12.4"
"1975"	"35.9"	"26.5"	"22.4"	"2.5"	"2"	"112.5"	"254.2"	"173.5"	"183.4"	"2.4"	"0"	"0"
"1976"	"12.9"	"35.1"	"13.9"	"12.6"	"13.7"	"84"	"183.9"	"502.5"	"129.3"	"10.7"	"0"	"0.3"
"1977"	"29.2"	"1.6"	"1.7"	"27.3"	"42.7"	"103.1"	"210.2"	"152.7"	"65.3"	"18.4"	"0.6"	"9.7"
"1978"	"6.5"	"9.9"	"51.9"	"7.8"	"1.3"	"86.1"	"250.1"	"342.4"	"150.5"	"1.1"	"5.8"	"2.9"
"1979"	"16.1"	"40"	"32.9"	"7.1"	"26.6"	"44.8"	"152.9"	"109.4"	"67.2"	"5.4"	"12.4"	"2.7"
"1980"	"13.5"	"12.5"	"25.4"	"5.5"	"4.1"	"125.9"	"470"	"318.2"	"128.6"	"8.9"	"6.3"	"7.9"
"1981"	"79"	"18.5"	"42.6"	"1.9"	"9.2"	"22.4"	"425.2"	"105.7"	"22.5"	"6"	"32.5"	"0.8"
"1982"	"28.9"	"16.5"	"83.2"	"16.5"	"36.7"	"17.7"	"85.2"	"261.9"	"17.5"	"1.7"	"15.8"	"18"
"1983"	"54.2"	"22"	"31.4"	"35.8"	"58.5"	"58"	"176.4"	"224"	"130.9"	"19.4"	"0"	"4.1"
"1984"	"4.3"	"63.6"	"8.4"	"17"	"0.7"	"50.7"	"351.7"	"215.4"	"104.7"	"0.3"	"0"	"15.2"
"1985"	"12.3"	"1.6"	"4.6"	"18.6"	"22.3"	"75.4"	"252.3"	"205.7"	"126.3"	"22.4"	"1.2"	"23.6"
"1986"	"4.1"	"36.9"	"12.4"	"14.5"	"32.2"	"79.7"	"276.2"	"210.1"	"107.1"	"6.5"	"4.7"	"26.1"
"1987"	"24.4"	"25.4"	"14.6"	"7.8"	"26.5"	"48"	"80.4"	"108.9"	"20.1"	"10.6"	"0"	"4.4"
"1988"	"7.1"	"19"	"34.3"	"11.4"	"5.4"	"54.9"	"287.4"	"200"	"135"	"15.8"	"0.4"	"20.4"
"1989"	"47.8"	"8"	"17.3"	"2"	"10.2"	"52.1"	"240.6"	"157"	"67.1"	"1"	"6.9"	"3.5"
"1990"	"3"	"58.9"	"45.8"	"11"	"20.8"	"33.3"	"236.7"	"246"	"193.3"	"4.2"	"11.5"	"36.5"
"1991"	"1.2"	"25.1"	"15.1"	"33.8"	"24.1"	"95.5"	"45.5"	"204.7"	"59.2"	"2.2"	"5.2"	"8.3"
"1992"	"32.4"	"39.7"	"11.9"	"8.8"	"31.2"	"35.7"	"128.7"	"220.8"	"95"	"4.6"	"23.1"	"1.2"
"1993"	"14.3"	"15.5"	"15.7"	"15.3"	"19.1"	"77.1"	"202.2"	"57.5"	"158.5"	"0"	"0"	"0"
"1994"	"14.4"	"7.4"	"12.8"	"7"	"47.4"	"42.7"	"187.4"	"154.2"	"118"	"1.7"	"0"	"5"
"1995"	"30.5"	"72"	"35.7"	"7.1"	"1.1"	"69.7"	"167.5"	"304.6"	"139.9"	"1.8"	"12.3"	"1"
"1996"	"37.4"	"31.4"	"16.8"	"5.8"	"23.2"	"187"	"134.5"	"287.3"	"79.7"	"8.6"	"0"	"0.4"
"1997"	"23.7"	"10.2"	"15.3"	"39.8"	"22.7"	"132.5"	"234.1"	"268.4"	"57.8"	"22.2"	"15.1"	"3.8"
"1998"	"24.6"	"32.2"	"34.6"	"21.6"	"19.7"	"12.6"	"231.3"	"179.6"	"55.5"	"17.8"	"3"	"0.4"
"1999"	"8.1"	"6.9"	"6.1"	"1.2"	"14.6"	"78.9"	"75.9"	"124.4"	"92.8"	"4.3"	"0.3"	"3.6"
"2000"	"15.8"	"27.7"	"6"	"1.9"	"15"	"87.6"	"236.5"	"134.6"	"46"	"0"	"2.9"	"0.2"
"2001"	"7.1"	"6.4"	"11.9"	"10.3"	"27"	"68.7"	"268.4"	"31.5"	"37.2"	"0.3"	"0.4"	"1.3"
"2002"	"12.6"	"24"	"23.3"	"5.4"	"14.1"	"48.2"	"94.9"	"120.9"	"160"	"0.6"	"0"	"4"
