
"Year"	"Jan"	"Feb"	"Mar"	"Apr"	"May"	"Jun"	"Jul"	"Aug"	"Sep"	"Oct"	"Nov"	"Dec"
"1901"	"76.631"	"14.781"	"16.147"	"0.027"	"3.075"	"18.742"	"289.439"	"499.007"	"143.37"	"5.639"	"0.15"	"2.015"
"1902"	"11.813"	"4.071"	"0"	"2.669"	"2.659"	"35.658"	"465.703"	"231.544"	"219.095"	"3.182"	"66.584"	"0.366"
"1903"	"4.824"	"0.961"	"1.511"	"0.32"	"7.104"	"29.439"	"191.558"	"434.117"	"280.089"	"64.902"	"0.15"	"0"
"1904"	"5.931"	"6.154"	"31.212"	"0.038"	"4.408"	"77.712"	"477.375"	"427.56"	"61.031"	"44.308"	"12.77"	"28.077"
"1905"	"15.933"	"8.953"	"12.216"	"1.112"	"0.032"	"20.712"	"233.636"	"264.889"	"160.77"	"0.28"	"0.15"	"1.073"
"1906"	"3.271"	"14.547"	"6.082"	"0"	"2.682"	"123.838"	"396.337"	"211.609"	"305.146"	"1.141"	"0.15"	"2.052"
"1907"	"6.887"	"61.144"	"5.022"	"13.484"	"2.935"	"52.53"	"205.38"	"542.59"	"3.779"	"0.28"	"5.396"	"0"
"1908"	"22.486"	"4.367"	"7.615"	"1.441"	"0.524"	"26.381"	"458.904"	"583.658"	"56.013"	"4.887"	"2.949"	"1.198"
"1909"	"10.218"	"10.366"	"0.011"	"13.838"	"2.531"	"258.966"	"405.24"	"269.367"	"125.64"	"0.28"	"0.15"	"29.49"
"1910"	"9.258"	"1.051"	"0"	"1.635"	"2.612"	"99.92"	"188.526"	"335.555"	"243.256"	"24.309"	"65.134"	"0"
"1911"	"27.006"	"0.017"	"35.354"	"1.361"	"0"	"123.19"	"140.615"	"240.591"	"336.767"	"49.258"	"76.051"	"2.415"
"1912"	"9.202"	"8.978"	"5.103"	"1.344"	"0.451"	"32.422"	"316.821"	"327.783"	"150.738"	"0.28"	"71.059"	"1.806"
"1913"	"0.199"	"31.686"	"15.614"	"0"	"14.328"	"149.17"	"160.068"	"209.562"	"45.539"	"0.28"	"0.15"	"21.744"
"1914"	"3.682"	"3.574"	"22.346"	"4.129"	"12.945"	"85.063"	"518.969"	"258.645"	"116.957"	"3.77"	"0.582"	"0.053"
"1915"	"14.969"	"36.793"	"55.462"	"11.782"	"3.696"	"68.192"	"306.873"	"464.06"	"181.231"	"60.25"	"1.221"	"2.838"
"1916"	"0.199"	"23.04"	"0"	"1.435"	"0.966"	"132.505"	"289.972"	"513.609"	"191.619"	"71.014"	"12.145"	"0"
"1917"	"16.232"	"41.443"	"17.612"	"3.121"	"21.785"	"155.516"	"395.821"	"425.904"	"269.699"	"28.257"	"0.15"	"8.594"
"1918"	"5.77"	"1.772"	"0.825"	"0.176"	"3.464"	"179.326"	"143.504"	"352.96"	"92.836"	"0.28"	"9.165"	"2.478"
"1919"	"87.366"	"6.431"	"0.458"	"15.999"	"7.602"	"49.898"	"362.538"	"689.478"	"94.642"	"44.894"	"7.127"	"4.449"
"1920"	"6.135"	"7.757"	"9.962"	"0"	"14.56"	"108.164"	"564.098"	"159.942"	"78.645"	"0.611"	"0.15"	"0"
"1921"	"42.067"	"2.971"	"0"	"0"	"0"	"169.349"	"151.693"	"375.828"	"255.534"	"3.221"	"0.15"	"0"
"1922"	"41.243"	"3.491"	"0.589"	"1.327"	"0.694"	"99.096"	"475.248"	"377.833"	"248.989"	"0.284"	"13.272"	"22.444"
"1923"	"5.225"	"8.947"	"4.994"	"1.328"	"3.993"	"14.101"	"431.406"	"576.375"	"248.098"	"30.077"	"2.241"	"12.322"
"1924"	"20.211"	"2.633"	"0.042"	"0"	"1.422"	"31.077"	"348.183"	"448.011"	"238.024"	"12.488"	"5.614"	"12.583"
"1925"	"0.199"	"0.017"	"0"	"0"	"18.853"	"136.078"	"741.637"	"286.257"	"214.795"	"4.987"	"57.184"	"0"
"1926"	"9.161"	"2.762"	"46.043"	"8.472"	"15.242"	"19.75"	"277.954"	"430.727"	"316.619"	"27.005"	"0.161"	"1.812"
"1927"	"5.965"	"19.669"	"25.568"	"5.479"	"0.74"	"53.527"	"520.383"	"212.981"	"137.178"	"54.363"	"118.428"	"11.246"
"1928"	"15.388"	"45.465"	"3.592"	"7.413"	"1.028"	"42.217"	"404.996"	"127.502"	"88.96"	"53.644"	"5.349"	"60.314"
"1929"	"43.619"	"5.496"	"0"	"5.634"	"0"	"61.461"	"547.795"	"482.053"	"74.944"	"15.306"	"0.15"	"37.22"
"1930"	"6.218"	"12.225"	"1.485"	"4.626"	"0.948"	"95.949"	"598.126"	"253.871"	"120.942"	"13.453"	"12.581"	"13.241"
"1931"	"1.931"	"15.582"	"0.037"	"0.011"	"1.416"	"57.12"	"272.152"	"356.945"	"385.704"	"103.935"	"65.755"	"0.011"
"1932"	"0.199"	"11.278"	"11.909"	"4.15"	"0.838"	"28.202"	"516.405"	"372.57"	"182.482"	"18.582"	"3.808"	"0"
"1933"	"0.199"	"12.262"	"8.928"	"18.901"	"14.899"	"214.446"	"229.064"	"315.858"	"271.561"	"26.582"	"0.767"	"0.23"
"1934"	"20.951"	"0.017"	"19.06"	"0"	"0"	"180.006"	"313.414"	"491.633"	"404.774"	"2.267"	"30.896"	"24.434"
"1935"	"18.398"	"15.77"	"0.097"	"16.226"	"1.844"	"133.929"	"456.534"	"417.833"	"235.552"	"3.545"	"1.179"	"26.762"
"1936"	"2.314"	"29.924"	"11.032"	"5.197"	"1.739"	"205.575"	"397.498"	"329.971"	"270.109"	"0.903"	"38.651"	"20.413"
"1937"	"0.199"	"49.646"	"4.325"	"11.566"	"2.431"	"174.59"	"354.36"	"335.322"	"141.706"	"39.962"	"10.437"	"6.843"
"1938"	"50.201"	"3.272"	"0.887"	"1.877"	"3.453"	"243"	"390.902"	"300.682"	"176.964"	"84.132"	"0.15"	"0"
"1939"	"28.122"	"7.251"	"2.333"	"3.731"	"0"	"139.33"	"472.902"	"330.98"	"200.077"	"7.069"	"0.15"	"0.345"
"1940"	"11.08"	"13.734"	"22.872"	"5.162"	"11.589"	"84.962"	"370.589"	"432.859"	"133.672"	"3.03"	"4.055"	"8.706"
"1941"	"31.857"	"10.768"	"9.713"	"0"	"2.825"	"77.857"	"204.494"	"240.332"	"109.846"	"0.28"	"0.15"	"0"
"1942"	"66.854"	"34.248"	"0.887"	"4.961"	"0.159"	"101.876"	"555.625"	"406.406"	"211.097"	"1.189"	"0.15"	"17.437"
"1943"	"43.71"	"0.856"	"0.23"	"11.426"	"7.903"	"71.872"	"327.95"	"564.006"	"187.344"	"19.688"	"0.166"	"0"
"1944"	"25.304"	"30.048"	"49.725"	"14.721"	"0"	"51.814"	"608.204"	"593.264"	"80.108"	"20.968"	"0.15"	"5.829"
"1945"	"54.107"	"0.346"	"0"	"13.639"	"3.364"	"153.508"	"404.054"	"378.642"	"210.424"	"11.052"	"0.15"	"20.257"
"1946"	"0.199"	"16.562"	"0"	"10.81"	"2.024"	"158.05"	"382.158"	"559.556"	"28.452"	"26.69"	"53.538"	"10.405"
"1947"	"34.669"	"15.954"	"9.169"	"2.39"	"0.435"	"72.675"	"590.424"	"524.293"	"290.826"	"20.032"	"5.085"	"1.185"
"1948"	"70.982"	"7.101"	"0.048"	"1.446"	"1.076"	"182.474"	"462.495"	"515.984"	"193.328"	"20.351"	"80.563"	"0"
"1949"	"0.199"	"15.265"	"0.565"	"0.011"	"1.215"	"59.314"	"358.414"	"439.149"	"339.075"	"64.61"	"0.282"	"0"
"1950"	"26.772"	"4.569"	"27.623"	"0.049"	"1.472"	"55.441"	"353.533"	"506.061"	"114.433"	"0.28"	"0.15"	"25.187"
"1951"	"15.949"	"26.047"	"21.978"	"2.361"	"5.825"	"118.237"	"352.504"	"448.128"	"223.555"	"1.728"	"12.311"	"0"
"1952"	"0.486"	"23.267"	"20.061"	"2.047"	"1.055"	"186.259"	"340.737"	"515.978"	"67.233"	"0.28"	"0.15"	"16.445"
"1953"	"27.901"	"13.126"	"0"	"2.271"	"0.37"	"85.432"	"406.139"	"342.243"	"140.614"	"6.295"	"0.15"	"5.513"
"1954"	"38.493"	"24.139"	"9.156"	"0"	"0"	"73.611"	"257.538"	"348.234"	"330.432"	"29.054"	"0.15"	"0"
"1955"	"48.776"	"11.657"	"1.352"	"0.011"	"0.812"	"153.864"	"358.051"	"505.011"	"272.016"	"89.822"	"0.15"	"0.787"
"1956"	"25.165"	"10.108"	"9.953"	"0"	"1.798"	"196.239"	"597.492"	"439.369"	"219.024"	"69.071"	"79.766"	"11.222"
"1957"	"28.748"	"0.346"	"39.882"	"3.791"	"4.143"	"76.648"	"329.066"	"383.699"	"172.748"	"4.423"	"2.136"	"2.366"
"1958"	"13.161"	"3.234"	"22.392"	"0.257"	"0"	"50.301"	"455.149"	"390.736"	"199.852"	"98.812"	"0.314"	"3.557"
"1959"	"44.566"	"6.09"	"0"	"3.922"	"23.866"	"55.557"	"277.367"	"573.655"	"209.554"	"64.392"	"2.658"	"0"
"1960"	"43.231"	"0.017"	"16.077"	"1.781"	"0.971"	"52.957"	"399.67"	"826.691"	"67.808"	"85.952"	"0.15"	"2.415"
"1961"	"48.242"	"9.371"	"1.701"	"1.622"	"4.415"	"87.596"	"357.19"	"580.695"	"237.593"	"104.983"	"23.958"	"3.591"
"1962"	"23.814"	"15.75"	"7.54"	"19.184"	"1.634"	"31.195"	"381.322"	"595.251"	"377.378"	"0.28"	"0.224"	"8.907"
"1963"	"32.581"	"12.204"	"8.055"	"8.444"	"4.358"	"96.27"	"448.14"	"397.42"	"320.116"	"1.999"	"7.815"	"6.618"
"1964"	"0.199"	"3.372"	"17.005"	"1.414"	"10.647"	"68.876"	"357.474"	"414.322"	"230.396"	"4.632"	"0.15"	"1.185"
"1965"	"9.801"	"2.952"	"13.944"	"15.434"	"1.272"	"29.069"	"244.903"	"211.837"	"190.585"	"22.317"	"0.15"	"13.54"
"1966"	"1.956"	"4.701"	"0.032"	"0.011"	"2.171"	"215.042"	"240.169"	"231.961"	"23.724"	"0.638"	"90.079"	"8.668"
"1967"	"1.49"	"0.017"	"41.44"	"1.666"	"0.05"	"51.511"	"312.673"	"607.756"	"223.362"	"0.334"	"0.15"	"75.593"
"1968"	"27.587"	"3.526"	"8.758"	"0.037"	"0"	"78.285"	"404.958"	"178.61"	"49.43"	"42.861"	"0.15"	"5.077"
"1969"	"3.142"	"4.216"	"0.903"	"0"	"10.887"	"14.984"	"586.23"	"416.447"	"132.732"	"0.28"	"79.015"	"0"
"1970"	"45.904"	"41.494"	"19.824"	"0"	"9.739"	"114.391"	"233.079"	"428.638"	"372.901"	"15.935"	"0.15"	"0"
"1971"	"20.936"	"7.567"	"1.812"	"9.705"	"12.434"	"299.732"	"324.009"	"428.337"	"176.595"	"114.028"	"1.074"	"0"
"1972"	"14.786"	"18.081"	"0"	"0.242"	"1.417"	"19.576"	"108.074"	"490.459"	"169.47"	"82.209"	"29.223"	"4.621"
"1973"	"7.325"	"2.792"	"0"	"0"	"2.271"	"10.056"	"571.991"	"613.055"	"188.074"	"44.31"	"0.15"	"14.042"
"1974"	"0.199"	"0.958"	"0.464"	"0.792"	"3.042"	"68.169"	"332.67"	"431.62"	"41.956"	"46.907"	"0.563"	"0"
"1975"	"8.456"	"13.024"	"9.596"	"1.767"	"0"	"178.45"	"334.906"	"345.84"	"202.535"	"33.078"	"0.15"	"0"
"1976"	"26.064"	"0.442"	"3.755"	"10.069"	"6.07"	"109.249"	"263.834"	"400.816"	"220.427"	"0.28"	"51.365"	"0.001"
"1977"	"24.515"	"6.372"	"3.054"	"5.185"	"5.892"	"229.674"	"409.867"	"368.011"	"171.569"	"43.043"	"27.647"	"5.905"
"1978"	"17.695"	"71.513"	"29.922"	"7.657"	"0.016"	"210.468"	"255.354"	"510.454"	"241.351"	"4.348"	"1.108"	"34.112"
"1979"	"51.514"	"26.605"	"2.333"	"1.261"	"11.449"	"98.595"	"330.026"	"193.358"	"28.192"	"0.358"	"58.561"	"2.619"
"1980"	"0.548"	"3.112"	"4.994"	"0"	"0.127"	"208.965"	"439.274"	"588.241"	"95.616"	"6.385"	"1.074"	"33.953"
"1981"	"10.357"	"2.105"	"11.31"	"0.016"	"5.507"	"140.502"	"312.09"	"394.708"	"108.683"	"0.394"	"15.741"	"11.903"
"1982"	"118.602"	"8.845"	"17.881"	"3.967"	"6.919"	"65.263"	"228.094"	"772.385"	"246.079"	"3.608"	"97.312"	"8.624"
"1983"	"14.272"	"1.3"	"0.459"	"9.218"	"10.359"	"102.439"	"368.73"	"383.792"	"361.962"	"56.451"	"0.15"	"2.403"
"1984"	"62.362"	"30.676"	"0"	"7.403"	"2.001"	"129.142"	"148.558"	"370.778"	"114.925"	"9.806"	"0.15"	"0"
"1985"	"21.946"	"0.017"	"0.825"	"11.475"	"5.296"	"74.99"	"395.235"	"422.392"	"218.187"	"110.976"	"0.15"	"6.406"
"1986"	"19.159"	"37.572"	"10.932"	"0"	"15.496"	"103.181"	"267.421"	"299.928"	"101.783"	"20.427"	"0.177"	"40.633"
"1987"	"29.483"	"28.45"	"7.152"	"0"	"8.621"	"28.563"	"156.413"	"319.295"	"101.071"	"35.433"	"0.283"	"15.063"
"1988"	"7.16"	"2.742"	"10.986"	"5.553"	"1.691"	"172.802"	"261.777"	"299.775"	"80.654"	"4.935"	"0.198"	"16.832"
"1989"	"5.282"	"0.017"	"17.481"	"0.266"	"0.37"	"86.433"	"296.165"	"309.335"	"92.463"	"8.729"	"11.865"	"20.805"
"1990"	"0.199"	"24.635"	"2.986"	"3.573"	"11.259"	"306.913"	"518.669"	"481.088"	"323.729"	"4.105"	"0.15"	"4.79"
"1991"	"5.339"	"10.721"	"12.513"	"14.709"	"6.076"	"83.791"	"104.205"	"293.071"	"81.589"	"0.28"	"1.256"	"30.093"
"1992"	"29.475"	"9.288"	"2.871"	"0.68"	"13.83"	"16.339"	"78.042"	"251.033"	"257.919"	"34.453"	"23.483"	"0"
"1993"	"6.276"	"7.233"	"8.067"	"0.684"	"7.399"	"73.29"	"174.791"	"186.246"	"173.095"	"20.328"	"0.15"	"0.69"
"1994"	"37.012"	"20.854"	"27.662"	"4.427"	"7.086"	"229.354"	"592.505"	"391.884"	"112.499"	"8.596"	"0.15"	"0"
"1995"	"46.317"	"14.375"	"23.499"	"7.842"	"0.507"	"76.845"	"272.745"	"255.476"	"199.308"	"8.553"	"21.093"	"27.56"
"1996"	"44.525"	"12.57"	"5.536"	"14.648"	"3.769"	"146.786"	"243.823"	"437.836"	"146.152"	"48.759"	"0.192"	"0"
"1997"	"8.469"	"0.017"	"1.812"	"4.473"	"7.356"	"94.264"	"190.515"	"289.144"	"175.159"	"41.113"	"89.547"	"48.573"
"1998"	"0.273"	"1.506"	"28.946"	"3.001"	"6.246"	"115.345"	"262.897"	"463.569"	"191.01"	"18.034"	"37.519"	"0.009"
"1999"	"26.736"	"55.815"	"0"	"0"	"7.195"	"57.295"	"429.062"	"354.72"	"275.582"	"62.177"	"0.15"	"1.582"
"2000"	"7.329"	"3.597"	"0.421"	"0.267"	"7.73"	"85.933"	"503.41"	"183.62"	"158.645"	"0.28"	"0.15"	"0"
"2001"	"10.883"	"2.539"	"7.156"	"4.224"	"14.028"	"240.744"	"290.418"	"241.155"	"61.417"	"44.014"	"8.602"	"0"
"2002"	"15.619"	"33.116"	"2.424"	"1.344"	"6.447"	"67.466"	"87.702"	"376.901"	"154.494"	"38.249"	"16.478"	"6.265"
