
"Year"	"Jan"	"Feb"	"Mar"	"Apr"	"May"	"Jun"	"Jul"	"Aug"	"Sep"	"Oct"	"Nov"	"Dec"
"1901"	"24.813"	"25.554"	"26.842"	"28.687"	"27.842"	"25.461"	"24.839"	"24.815"	"25.565"	"25.583"	"25.173"	"23.935"
"1902"	"24.426"	"25.232"	"27.585"	"28.719"	"28.331"	"26.116"	"25.027"	"25.569"	"24.844"	"25.633"	"25.25"	"24.589"
"1903"	"24.723"	"25.402"	"27.004"	"28.4"	"27.513"	"25.697"	"24.59"	"24.683"	"24.731"	"25.093"	"24.102"	"23.299"
"1904"	"23.824"	"24.893"	"26.609"	"28.243"	"27.233"	"24.641"	"24.219"	"24.743"	"25.117"	"25.693"	"24.523"	"23.784"
"1905"	"23.989"	"25.502"	"26.492"	"27.499"	"27.675"	"26.125"	"25.071"	"25.069"	"25.312"	"25.676"	"25.35"	"23.732"
"1906"	"24.644"	"25.371"	"26.6"	"28.921"	"28.473"	"25.437"	"24.504"	"24.678"	"24.59"	"25.502"	"25.262"	"24.217"
"1907"	"24.381"	"25.373"	"26.861"	"27.189"	"27.421"	"25.314"	"24.586"	"23.976"	"25.209"	"25.764"	"25.242"	"24.024"
"1908"	"24.413"	"25.078"	"26.218"	"28.487"	"27.313"	"25.672"	"23.875"	"24.392"	"25.117"	"25.711"	"24.429"	"23.472"
"1909"	"23.782"	"25.13"	"27.152"	"27.844"	"27.431"	"25.43"	"24.044"	"24.71"	"24.592"	"25.465"	"24.983"	"24.151"
"1910"	"24.356"	"25.369"	"27.093"	"28.353"	"27.791"	"25.123"	"24.805"	"24.279"	"24.33"	"25.011"	"23.711"	"23.22"
"1911"	"24.39"	"24.322"	"26.71"	"28.001"	"27.469"	"25.21"	"24.437"	"24.614"	"25.603"	"25.577"	"25.368"	"24.676"
"1912"	"24.114"	"26.099"	"27.416"	"28.741"	"28.305"	"25.599"	"24.614"	"24.569"	"25.315"	"25.403"	"24.655"	"23.599"
"1913"	"23.885"	"25.466"	"26.768"	"28.527"	"28.162"	"25.417"	"24.359"	"24.85"	"25.52"	"25.408"	"24.869"	"24.319"
"1914"	"24.139"	"25.535"	"26.941"	"28.1"	"28.213"	"26.122"	"24.722"	"24.654"	"25.553"	"26.007"	"25.572"	"24.492"
"1915"	"24.704"	"25.505"	"26.851"	"28.448"	"28.076"	"26.119"	"25.126"	"25.237"	"25.333"	"25.783"	"25.233"	"23.662"
"1916"	"23.964"	"25.034"	"27.385"	"28.65"	"27.727"	"24.828"	"25.008"	"24.72"	"24.899"	"25.178"	"24.821"	"23.557"
"1917"	"24.076"	"25.032"	"26.37"	"28.107"	"27.103"	"24.689"	"25.236"	"24.69"	"24.713"	"24.581"	"24.356"	"23.476"
"1918"	"23.899"	"24.161"	"26.376"	"27.886"	"26.424"	"25.222"	"25.372"	"25.052"	"25.315"	"26.284"	"25.959"	"24.076"
"1919"	"24.947"	"25.594"	"26.721"	"28.725"	"27.617"	"25.327"	"24.668"	"24.668"	"25.354"	"25.811"	"25.068"	"24.205"
"1920"	"24.508"	"25.644"	"27.53"	"28.2"	"28.041"	"25.45"	"24.748"	"24.71"	"25.239"	"25.893"	"25.101"	"23.739"
"1921"	"24.776"	"25.172"	"27.446"	"27.954"	"28.172"	"25.576"	"24.531"	"24.554"	"24.604"	"25.577"	"24.573"	"23.776"
"1922"	"24.382"	"25.234"	"27.172"	"28.461"	"27.449"	"25.21"	"24.183"	"24.457"	"24.865"	"25.46"	"24.884"	"23.299"
"1923"	"23.878"	"24.656"	"26.486"	"28.12"	"27.549"	"25.877"	"24.037"	"24.459"	"24.799"	"25.595"	"24.931"	"24.491"
"1924"	"24.262"	"25.562"	"27.398"	"28.932"	"28.254"	"25.467"	"24.469"	"24.908"	"25.042"	"25.386"	"24.499"	"23.707"
"1925"	"23.95"	"24.63"	"26.861"	"28.638"	"27.367"	"25.099"	"24.732"	"24.807"	"25.516"	"25.922"	"25.16"	"24"
"1926"	"24.612"	"25.613"	"27.389"	"27.983"	"28.126"	"26.349"	"25.517"	"25.228"	"25.229"	"25.493"	"24.855"	"24.088"
"1927"	"24.487"	"25.616"	"27.364"	"28.575"	"27.605"	"25.255"	"24.241"	"24.888"	"25.239"	"25.414"	"24.198"	"24.27"
"1928"	"24.771"	"25.101"	"26.761"	"28.592"	"28.351"	"25.706"	"24.85"	"24.51"	"25.221"	"25.294"	"25.165"	"23.971"
"1929"	"24.393"	"25.244"	"27.101"	"28.012"	"27.914"	"25.008"	"24.827"	"25.096"	"25.516"	"25.452"	"25.413"	"24.191"
"1930"	"24.361"	"25.162"	"26.87"	"28.219"	"27.279"	"25.451"	"24.78"	"24.77"	"25.333"	"25.733"	"24.973"	"24.477"
"1931"	"24.879"	"25.541"	"27.222"	"28.931"	"28.602"	"26.219"	"24.844"	"24.959"	"25.082"	"25.636"	"25.291"	"24.198"
"1932"	"24.151"	"25.172"	"26.47"	"28.533"	"27.26"	"25.559"	"24.249"	"24.967"	"24.99"	"25.685"	"25.206"	"24.076"
"1933"	"24.453"	"25.367"	"26.661"	"28.232"	"26.805"	"24.626"	"24.373"	"24.261"	"24.532"	"24.894"	"25.335"	"23.896"
"1934"	"24.068"	"24.802"	"26.31"	"28.116"	"27.833"	"25.335"	"24.562"	"24.432"	"25.52"	"25.835"	"24.085"	"23.65"
"1935"	"24.32"	"25.3"	"27.079"	"27.896"	"28.225"	"25.631"	"24.185"	"24.269"	"24.379"	"25.493"	"24.433"	"24.239"
"1936"	"24.617"	"25.637"	"26.561"	"28.233"	"27.694"	"24.326"	"24.309"	"24.328"	"25.117"	"25.493"	"25.192"	"24.489"
"1937"	"24.226"	"25.845"	"27.023"	"27.735"	"27.609"	"25.217"	"24.026"	"24.87"	"25.233"	"25.199"	"24.932"	"23.689"
"1938"	"24.464"	"25.788"	"27.416"	"28.432"	"27.954"	"24.668"	"24.127"	"24.196"	"24.618"	"24.391"	"24.441"	"24.398"
"1939"	"24.171"	"24.883"	"26.358"	"27.761"	"27.717"	"25.417"	"23.842"	"24.369"	"24.792"	"25.493"	"24.835"	"23.926"
"1940"	"23.54"	"25.056"	"26.663"	"27.515"	"27.771"	"25.317"	"24.337"	"24.351"	"25.225"	"25.693"	"25.054"	"24.099"
"1941"	"24.447"	"25.744"	"27.75"	"29.151"	"28.464"	"25.587"	"25.194"	"25.228"	"25.277"	"26.146"	"25.996"	"24.768"
"1942"	"24.232"	"25.796"	"27.77"	"28.315"	"28.483"	"25.434"	"24.183"	"24.125"	"24.645"	"25.889"	"24.827"	"24.853"
"1943"	"24.754"	"25.094"	"27.065"	"27.911"	"26.821"	"24.415"	"23.879"	"24.569"	"24.018"	"24.603"	"25.065"	"23.904"
"1944"	"24.543"	"24.86"	"26.175"	"27.608"	"28.07"	"25.408"	"24.237"	"24.871"	"25.206"	"25.546"	"25.343"	"24.357"
"1945"	"24.049"	"25.734"	"27.291"	"27.873"	"27.925"	"25.52"	"24.498"	"24.641"	"24.695"	"25.469"	"24.857"	"23.986"
"1946"	"23.612"	"25.193"	"27.108"	"27.958"	"27.477"	"24.964"	"24.286"	"24.101"	"24.744"	"25.821"	"25.068"	"24.521"
"1947"	"24.809"	"24.978"	"27.018"	"27.257"	"28.268"	"25.613"	"24.22"	"24.805"	"24.518"	"24.792"	"24.527"	"24.391"
"1948"	"24.915"	"25.435"	"27.144"	"28.149"	"27.631"	"25.576"	"24.369"	"24.411"	"24.502"	"25.596"	"25.801"	"23.698"
"1949"	"24.121"	"24.883"	"27.275"	"28.224"	"27.152"	"25.05"	"24.368"	"24.692"	"24.406"	"25.469"	"24.512"	"23.693"
"1950"	"24.19"	"24.939"	"26.669"	"28.289"	"28.011"	"25.298"	"23.888"	"24.675"	"24.175"	"24.716"	"24.287"	"23.859"
"1951"	"24.471"	"25.273"	"27.009"	"27.69"	"27.872"	"24.785"	"24.322"	"24.926"	"25.774"	"25.953"	"26.093"	"23.669"
"1952"	"24.815"	"25.925"	"26.796"	"28.608"	"28.263"	"25.335"	"24.87"	"24.569"	"24.932"	"25.007"	"23.803"	"24.782"
"1953"	"24.361"	"25.261"	"28.153"	"27.623"	"28.524"	"26.384"	"24.142"	"24.637"	"24.878"	"25.617"	"24.816"	"23.999"
"1954"	"24.728"	"25.845"	"26.919"	"28.386"	"27.712"	"25.408"	"23.805"	"24.22"	"24.233"	"24.795"	"24.258"	"24.435"
"1955"	"24.681"	"26.155"	"27.032"	"27.935"	"26.772"	"24.845"	"24.425"	"23.801"	"25.396"	"25.39"	"24.178"	"23.487"
"1956"	"23.959"	"25.006"	"27.573"	"28.889"	"26.373"	"24.529"	"23.387"	"24.027"	"24.288"	"24.795"	"25.051"	"23.964"
"1957"	"24.313"	"25.503"	"26.191"	"28.282"	"28.054"	"25.412"	"24.614"	"24.333"	"24.994"	"26.058"	"25.394"	"25.287"
"1958"	"24.719"	"25.717"	"27.206"	"28.643"	"27.779"	"26.309"	"24.6"	"24.724"	"24.599"	"25.228"	"25.661"	"24.702"
"1959"	"25.111"	"26.027"	"27.475"	"28.604"	"28.165"	"25.196"	"23.894"	"24.569"	"24.974"	"25.483"	"25.451"	"24.841"
"1960"	"25.111"	"25.836"	"27.142"	"28.381"	"27.335"	"25.617"	"24.724"	"25.205"	"24.617"	"25.478"	"24.995"	"24.49"
"1961"	"24.953"	"25.542"	"27.934"	"28.831"	"27.001"	"24.865"	"23.517"	"24.47"	"24.529"	"25.182"	"25.208"	"24.78"
"1962"	"24.117"	"25.872"	"27.051"	"28.055"	"27.464"	"26.449"	"24.78"	"24.469"	"24.998"	"25.704"	"25.4"	"24.659"
"1963"	"24.724"	"25.288"	"27.253"	"27.764"	"27.969"	"25.275"	"25.032"	"24.422"	"25.397"	"25.537"	"25.925"	"24.999"
"1964"	"24.403"	"26.025"	"27.633"	"29.327"	"28.576"	"25.817"	"24.916"	"24.207"	"24.406"	"25.583"	"24.451"	"23.957"
"1965"	"24.289"	"25.357"	"26.991"	"28.048"	"28.011"	"25.24"	"24.164"	"24.437"	"24.998"	"26.559"	"26.14"	"25.141"
"1966"	"25.093"	"26.488"	"27.736"	"28.693"	"27.61"	"26.102"	"25.037"	"25.629"	"25.509"	"25.712"	"25.305"	"24.431"
"1967"	"24.416"	"25.326"	"26.679"	"28.714"	"28.525"	"26.192"	"24.246"	"24.513"	"24.91"	"25.333"	"25.599"	"25.369"
"1968"	"24.413"	"25.902"	"26.98"	"27.896"	"28.226"	"25.75"	"24.207"	"24.926"	"25.246"	"25.525"	"25.566"	"24.603"
"1969"	"24.593"	"26.325"	"28.166"	"29.032"	"28.567"	"26.227"	"24.264"	"25.052"	"24.532"	"25.537"	"25.518"	"24.775"
"1970"	"24.919"	"25.704"	"27.032"	"28.514"	"27.429"	"25.051"	"24.504"	"24.101"	"24.513"	"25.17"	"24.718"	"23.532"
"1971"	"24.108"	"25.565"	"26.568"	"28.304"	"27.028"	"24.216"	"24.316"	"24.359"	"25.12"	"24.586"	"24.728"	"24.008"
"1972"	"23.728"	"24.857"	"26.705"	"28.309"	"27.048"	"26.366"	"24.957"	"25.109"	"25.402"	"26.009"	"25.793"	"25.085"
"1973"	"24.817"	"26.195"	"27.488"	"29.469"	"28.545"	"25.229"	"24.83"	"23.838"	"25.061"	"25.499"	"24.935"	"24.147"
"1974"	"24.249"	"25.461"	"27.433"	"28.738"	"27.582"	"25.015"	"24.065"	"24.459"	"25.204"	"24.956"	"24.73"	"23.91"
"1975"	"23.875"	"25.956"	"27.131"	"28.877"	"27.384"	"25.908"	"24.068"	"24.255"	"24.436"	"24.894"	"24.345"	"23.51"
"1976"	"23.408"	"25.256"	"27.645"	"27.862"	"27.723"	"25.819"	"24.513"	"24.89"	"25.094"	"26.646"	"26.178"	"25.612"
"1977"	"24.625"	"26.383"	"28.088"	"28.578"	"27.69"	"25.654"	"24.384"	"24.899"	"25.218"	"25.712"	"26.166"	"24.407"
"1978"	"25.007"	"25.735"	"27.396"	"28.129"	"27.274"	"24.531"	"24.019"	"24.383"	"24.802"	"25.634"	"25.987"	"24.857"
"1979"	"25.645"	"26.055"	"27.205"	"28.185"	"27.954"	"26.498"	"24.662"	"24.4"	"25.205"	"26.051"	"25.657"	"25.519"
"1980"	"24.666"	"26.247"	"27.786"	"28.556"	"28.59"	"25.328"	"24.513"	"24.737"	"24.882"	"25.805"	"25.112"	"24.627"
"1981"	"24.54"	"25.338"	"26.913"	"28.102"	"27.947"	"25.567"	"24.637"	"23.866"	"24.952"	"25.902"	"25.242"	"24.79"
"1982"	"24.681"	"26.071"	"27.733"	"28.54"	"27.843"	"25.805"	"24.915"	"24.87"	"25.412"	"26.693"	"25.849"	"25.19"
"1983"	"24.764"	"25.879"	"27.526"	"28.487"	"28.877"	"26.601"	"25.298"	"24.736"	"24.963"	"25.732"	"24.897"	"25.043"
"1984"	"24.947"	"26.123"	"27.414"	"28.043"	"29.086"	"25.12"	"24.278"	"24.562"	"25.025"	"25.452"	"25.315"	"24.857"
"1985"	"25.78"	"26.341"	"28.162"	"28.898"	"27.852"	"24.673"	"24.538"	"24.545"	"25.502"	"25.186"	"25.246"	"25.564"
"1986"	"24.85"	"25.553"	"28.272"	"29.03"	"28.421"	"25.707"	"25.128"	"24.37"	"25.634"	"26.316"	"25.658"	"25.365"
"1987"	"24.999"	"25.565"	"27.114"	"28.632"	"28.353"	"25.831"	"25.659"	"25.084"	"26.389"	"26.253"	"26.172"	"25.294"
"1988"	"24.981"	"26.738"	"28.006"	"28.811"	"28.411"	"26.134"	"24.953"	"24.837"	"25.06"	"25.951"	"25.649"	"24.815"
"1989"	"25.082"	"25.887"	"27.134"	"28.618"	"28.063"	"25.172"	"24.527"	"24.535"	"25.204"	"25.921"	"25.792"	"24.978"
"1990"	"25.121"	"25.831"	"27.063"	"28.594"	"27.104"	"25.488"	"24.722"	"24.414"	"25.513"	"25.953"	"25.358"	"25.026"
"1991"	"25.437"	"26.245"	"28.057"	"28.299"	"28.529"	"26.003"	"24.214"	"24.279"	"25.79"	"25.609"	"25.467"	"23.885"
"1992"	"24.098"	"25.52"	"27.897"	"28.699"	"28.111"	"26.133"	"24.767"	"24.728"	"25.333"	"25.431"	"25.783"	"23.953"
"1993"	"24.698"	"25.796"	"26.834"	"28.735"	"28.554"	"25.981"	"24.502"	"25.015"	"24.958"	"25.793"	"25.677"	"24.481"
"1994"	"24.886"	"25.831"	"28.104"	"28.033"	"28.412"	"25.373"	"24.394"	"24.781"	"25.299"	"25.693"	"25.126"	"24.023"
"1995"	"24.507"	"26.315"	"27.215"	"28.626"	"27.641"	"26.938"	"25.204"	"25.256"	"25.431"	"26.074"	"26.062"	"24.797"
"1996"	"25.161"	"26.225"	"28.088"	"28.379"	"28.984"	"26.144"	"25.083"	"24.815"	"25.232"	"25.322"	"25.855"	"24.331"
"1997"	"24.596"	"25.606"	"27.575"	"27.651"	"28.395"	"26.655"	"25.385"	"24.892"	"25.859"	"26.609"	"26.692"	"26.107"
"1998"	"25.583"	"26.766"	"28.058"	"29.446"	"29.029"	"26.638"	"25.31"	"25.377"	"25.13"	"25.742"	"25.841"	"24.93"
"1999"	"24.806"	"26.449"	"28.151"	"28.543"	"26.731"	"25.101"	"24.719"	"25.056"	"25.584"	"26.052"	"25.837"	"24.752"
"2000"	"25.459"	"25.997"	"27.136"	"28.683"	"27.367"	"25.159"	"24.576"	"24.555"	"25.477"	"25.793"	"26.121"	"24.454"
"2001"	"25.419"	"26.839"	"27.532"	"28.727"	"28.017"	"25.92"	"25.085"	"24.728"	"25.781"	"25.651"	"26.227"	"24.998"
"2002"	"25.218"	"26.218"	"28.504"	"29.122"	"28.465"	"25.844"	"25.225"	"25.04"	"26.086"	"26.413"	"26.149"	"25.23"
