
"Year"	"Jan"	"Feb"	"Mar"	"Apr"	"May"	"Jun"	"Jul"	"Aug"	"Sep"	"Oct"	"Nov"	"Dec"
"1901"	"1.109"	"13.437"	"2.591"	"15.054"	"114.224"	"97.741"	"119.454"	"78.568"	"105.226"	"136.101"	"71.092"	"11.347"
"1902"	"0.545"	"0"	"0.412"	"42.978"	"73.514"	"87.8"	"127.057"	"43.274"	"66.582"	"340.242"	"69.546"	"42.311"
"1903"	"0.175"	"0"	"0"	"8.297"	"174.289"	"182.814"	"213.146"	"160.529"	"190.634"	"198.384"	"116.952"	"22.654"
"1904"	"2.593"	"0"	"15.475"	"36.749"	"125.551"	"205.165"	"195.643"	"38.028"	"49.065"	"194.486"	"3.482"	"0.025"
"1905"	"1.232"	"3.766"	"9.408"	"9.754"	"84.661"	"129.292"	"101.006"	"82.701"	"31.61"	"138.895"	"20.925"	"0"
"1906"	"11.933"	"0"	"0"	"1.592"	"39.576"	"168.75"	"163.84"	"302.492"	"105.449"	"162.44"	"12.965"	"42.11"
"1907"	"0.416"	"0"	"18.69"	"94.314"	"27.297"	"132.512"	"203.044"	"134.141"	"153.75"	"30.107"	"58.864"	"14.019"
"1908"	"0.173"	"4.839"	"21.609"	"28.437"	"69.588"	"89.045"	"198.572"	"67.928"	"60.465"	"28.82"	"0.507"	"0"
"1909"	"10.028"	"0"	"11.152"	"23.731"	"184.718"	"81.821"	"162.561"	"219.008"	"80.432"	"97.2"	"39.461"	"15.585"
"1910"	"0"	"0.504"	"12.848"	"20.582"	"84.261"	"115.102"	"337.601"	"264.963"	"93.663"	"194.925"	"80.961"	"0"
"1911"	"0"	"0"	"5.233"	"28.372"	"91.313"	"82.575"	"167.397"	"66.474"	"68.678"	"170.319"	"27.151"	"2.648"
"1912"	"0"	"1.421"	"3.175"	"28.397"	"100.313"	"124.285"	"232.067"	"136.278"	"124.07"	"211.998"	"56.253"	"0"
"1913"	"0"	"0"	"0"	"13.839"	"87.191"	"78.639"	"242.675"	"53.978"	"112.829"	"82.941"	"0.508"	"0.127"
"1914"	"0"	"1.054"	"4.166"	"5.572"	"61.054"	"33.956"	"227.51"	"133.755"	"64.666"	"95.22"	"69.023"	"17.964"
"1915"	"3.382"	"1.511"	"41.489"	"26.83"	"75.981"	"211.169"	"165.985"	"43.08"	"115.637"	"68.776"	"83.945"	"5.47"
"1916"	"0"	"0"	"1.15"	"12.31"	"177.685"	"127.853"	"175.228"	"109.57"	"68.929"	"169.435"	"157.638"	"0.429"
"1917"	"0"	"7.421"	"29.666"	"14.064"	"93.826"	"98.585"	"98.329"	"183.31"	"225.616"	"178.79"	"92.713"	"0"
"1918"	"2.955"	"0"	"43.601"	"31.496"	"60.853"	"27.619"	"22.395"	"36.134"	"81.153"	"27.097"	"163.531"	"13.627"
"1919"	"9.548"	"0"	"1.433"	"40.785"	"104.983"	"203.396"	"136.455"	"49.95"	"241.716"	"80.117"	"138.93"	"5.48"
"1920"	"6.402"	"0"	"0"	"18.379"	"94.865"	"57.225"	"107.16"	"71.637"	"133.058"	"94.57"	"13.315"	"0"
"1921"	"7.417"	"0"	"20.012"	"76.795"	"35.358"	"90.283"	"128.762"	"66.155"	"39.048"	"203.123"	"136.648"	"0"
"1922"	"1.098"	"0"	"0"	"28.322"	"110.72"	"70.059"	"157.705"	"73.873"	"26.804"	"94.292"	"121.531"	"1.283"
"1923"	"4.715"	"7.354"	"51.653"	"20.305"	"97.432"	"70.462"	"331.123"	"87.011"	"72.673"	"16.525"	"6.659"	"1.337"
"1924"	"1.227"	"0"	"2.42"	"35.457"	"129.735"	"95.184"	"248.795"	"82.025"	"126.161"	"62.521"	"36.435"	"18.413"
"1925"	"0"	"0"	"3.586"	"46.568"	"203.697"	"55.931"	"114.351"	"84.59"	"74.417"	"62.737"	"110.18"	"43.246"
"1926"	"9.592"	"0.185"	"2.444"	"50.548"	"94.656"	"157.641"	"209.937"	"123.902"	"88.56"	"104.491"	"2.179"	"0.84"
"1927"	"0"	"0.237"	"14.079"	"12.206"	"81.381"	"68.829"	"145.551"	"43.259"	"147.83"	"16.549"	"97.128"	"0"
"1928"	"0"	"10.968"	"11.693"	"35.32"	"105.302"	"196.202"	"104.205"	"168.254"	"32.82"	"283.26"	"16.158"	"8.732"
"1929"	"5.693"	"0.57"	"0"	"63.174"	"100.451"	"107.322"	"101.481"	"72.404"	"133.525"	"98.548"	"113.472"	"2.819"
"1930"	"6.304"	"4.206"	"31.919"	"24.877"	"143.165"	"88.649"	"67.443"	"68.092"	"123.892"	"282.326"	"13.681"	"33.277"
"1931"	"0"	"0"	"0.256"	"30.544"	"124.956"	"143.959"	"88.016"	"133.277"	"153.49"	"19.883"	"119.608"	"29.967"
"1932"	"0"	"0.184"	"0"	"12.916"	"104.669"	"50.511"	"185.002"	"249.718"	"75.286"	"222.102"	"164.337"	"1.765"
"1933"	"0"	"1.526"	"30.719"	"60.869"	"183.683"	"84.614"	"170.555"	"265.033"	"160.981"	"244.622"	"11.111"	"18.595"
"1934"	"6.323"	"0"	"0"	"55.328"	"96.226"	"135.261"	"107.434"	"89.687"	"33.103"	"180.53"	"18.562"	"0"
"1935"	"0.718"	"1.735"	"16.226"	"41.208"	"38.541"	"253.847"	"118.859"	"192.564"	"46.43"	"205.614"	"0.944"	"3.15"
"1936"	"1.556"	"10.926"	"28.621"	"14.745"	"85.848"	"136.936"	"74.329"	"56.718"	"126.756"	"69.672"	"130.88"	"3.03"
"1937"	"0"	"6.192"	"28.268"	"53.546"	"85.271"	"53.257"	"151.343"	"54.687"	"140.973"	"99.854"	"3.993"	"16.459"
"1938"	"0"	"0.084"	"29.053"	"44.311"	"34.058"	"69.19"	"79.235"	"310.142"	"128.902"	"14.368"	"13.84"	"1.019"
"1939"	"0"	"0"	"20.701"	"104.823"	"26.556"	"126.377"	"149.219"	"260.162"	"70.446"	"180.177"	"105.64"	"0"
"1940"	"0"	"0"	"0"	"63.067"	"127.316"	"140.123"	"193.204"	"124.617"	"76.144"	"242.868"	"95.295"	"11.179"
"1941"	"6.048"	"14.835"	"0"	"34.897"	"63.151"	"126.447"	"123.335"	"155.089"	"133.561"	"129.676"	"14.497"	"32.504"
"1942"	"0"	"6.136"	"0"	"22.672"	"124.438"	"210.618"	"216.851"	"109.926"	"52.836"	"83.47"	"14.613"	"12.66"
"1943"	"1.902"	"0"	"6.515"	"31.802"	"143.355"	"49.039"	"138.082"	"54.977"	"86.4"	"248.326"	"34.905"	"0"
"1944"	"0"	"13.088"	"26.371"	"30.925"	"108.033"	"86.246"	"214.828"	"27.487"	"70.504"	"168.37"	"97.319"	"2.698"
"1945"	"0.487"	"0"	"0"	"37.499"	"87.003"	"59.858"	"173.708"	"64.763"	"47.494"	"38.289"	"22.706"	"0"
"1946"	"0"	"6.342"	"25.055"	"39.277"	"108.93"	"87.425"	"160.955"	"150.067"	"115.524"	"103.222"	"157.382"	"15.156"
"1947"	"3.672"	"2.863"	"5.648"	"13.65"	"37.869"	"104.372"	"152.525"	"285.203"	"91.887"	"119.775"	"4.294"	"14.96"
"1948"	"5.403"	"0"	"11.706"	"48.634"	"201.078"	"94.556"	"175.294"	"262.444"	"35.687"	"88.254"	"127.155"	"3.031"
"1949"	"0"	"0"	"7.846"	"9.409"	"93.47"	"93.002"	"74.912"	"118.169"	"79.015"	"123.917"	"14.27"	"0"
"1950"	"0"	"10.774"	"7.555"	"1.328"	"92.798"	"64.291"	"193.077"	"162.47"	"128.04"	"110.881"	"88.204"	"0.063"
"1951"	"0"	"0"	"29.703"	"47.588"	"170.538"	"146.675"	"149.357"	"38.221"	"167.888"	"131.589"	"23.336"	"0"
"1952"	"0"	"10.631"	"1.433"	"22.453"	"83.379"	"39.39"	"133.76"	"89.564"	"62.125"	"219.901"	"0.507"	"15.332"
"1953"	"0.24"	"0"	"0.001"	"82.096"	"19.994"	"102.711"	"272.937"	"81.701"	"83.104"	"293.055"	"0.894"	"0"
"1954"	"1.033"	"0.041"	"3.436"	"49.324"	"178.336"	"77.554"	"218.851"	"133.451"	"21.692"	"211.733"	"0.508"	"25.932"
"1955"	"0"	"0.472"	"38.21"	"63.944"	"266.358"	"82.322"	"67.477"	"142.194"	"189.357"	"187.984"	"12.882"	"1.017"
"1956"	"0"	"2.932"	"0.671"	"123.291"	"38.066"	"133.535"	"192.832"	"82.966"	"62.739"	"260.156"	"158.423"	"0.396"
"1957"	"0"	"0.892"	"5.881"	"16.418"	"140.034"	"187.452"	"146.971"	"85.092"	"29.65"	"208.68"	"81.074"	"0"
"1958"	"0.482"	"0.237"	"26.434"	"54.643"	"126.214"	"143.056"	"195.57"	"181.823"	"103.587"	"158.761"	"50.143"	"2.011"
"1959"	"0"	"0.286"	"0"	"20.636"	"100.794"	"248.466"	"265.778"	"94.513"	"151.926"	"34.149"	"58.795"	"3.439"
"1960"	"1.141"	"0"	"31.149"	"30.04"	"77.873"	"76.166"	"156.38"	"46.187"	"99.087"	"121.653"	"51.653"	"0"
"1961"	"0.182"	"0.903"	"7.444"	"70.564"	"185.561"	"136.296"	"272.173"	"95.084"	"30.234"	"181.519"	"12.714"	"0"
"1962"	"0"	"3.105"	"21.452"	"83.338"	"120.898"	"39.042"	"147.307"	"109.231"	"93.05"	"214"	"47.42"	"51.598"
"1963"	"0.303"	"0"	"40.095"	"47.171"	"61.047"	"77.002"	"139.684"	"133.558"	"78.828"	"199.134"	"12.352"	"5.467"
"1964"	"0"	"0"	"0"	"26.519"	"49.696"	"117.18"	"340.552"	"171.4"	"128.145"	"86.982"	"74.7"	"1.512"
"1965"	"3.193"	"2.1"	"2.562"	"21.863"	"50.428"	"96.162"	"132.3"	"97.829"	"67.346"	"6.611"	"46.914"	"31.936"
"1966"	"8.265"	"0"	"4.978"	"41.035"	"129.491"	"72.652"	"252.535"	"49.954"	"181.761"	"184.789"	"138.396"	"15.055"
"1967"	"9.507"	"0"	"6.023"	"28.347"	"78.479"	"72.102"	"258.546"	"74.39"	"19.422"	"142.751"	"7.834"	"13.66"
"1968"	"0"	"8.942"	"17.86"	"65.814"	"61.886"	"91.372"	"128.15"	"47.5"	"185.958"	"125.814"	"24.397"	"1.828"
"1969"	"0"	"0"	"7.805"	"49.644"	"117.348"	"35.571"	"152.936"	"218.746"	"45.209"	"202.085"	"42.689"	"9.121"
"1970"	"0.568"	"0"	"3.454"	"61.089"	"173.013"	"60.042"	"116.024"	"93.854"	"67.242"	"193.753"	"6.033"	"0.42"
"1971"	"0"	"0"	"0.589"	"32.962"	"85.012"	"126.098"	"54.674"	"180.366"	"109.071"	"63.731"	"8.499"	"7.316"
"1972"	"0"	"0"	"0"	"22.574"	"151.446"	"94.821"	"145.679"	"53.282"	"173.62"	"113.43"	"23.517"	"18.497"
"1973"	"0"	"0"	"0"	"23.049"	"95.643"	"218.873"	"244.494"	"189.596"	"59.954"	"233.657"	"30.657"	"9.38"
"1974"	"0"	"0"	"2.958"	"47.722"	"105.366"	"39.668"	"150.094"	"91.474"	"230.202"	"105.272"	"2.722"	"0"
"1975"	"2.576"	"0.305"	"3.705"	"39.074"	"135.019"	"110.484"	"210.576"	"118.922"	"130.859"	"107.066"	"89.172"	"1.968"
"1976"	"0"	"0"	"0.747"	"129.418"	"13.968"	"106.032"	"98.258"	"65.947"	"30.299"	"25.426"	"75.813"	"0"
"1977"	"0"	"0.207"	"11.603"	"60.541"	"182.678"	"79.55"	"125.519"	"158.982"	"131.017"	"188.929"	"106.42"	"0"
"1978"	"0"	"10.595"	"5.029"	"95.082"	"113.148"	"109.264"	"188.104"	"95.191"	"102.102"	"124.147"	"95.487"	"44.755"
"1979"	"0"	"5.642"	"16.832"	"60.314"	"54.192"	"171.757"	"92.044"	"203.514"	"127.611"	"100.358"	"120.073"	"0"
"1980"	"0"	"0"	"0.778"	"53.804"	"70.968"	"103.643"	"157.339"	"59.392"	"181.682"	"93.907"	"109.697"	"0.957"
"1981"	"0.371"	"0"	"24.512"	"39.072"	"75.921"	"24.313"	"77.729"	"166.814"	"132.741"	"136.424"	"56.558"	"3.372"
"1982"	"0"	"0"	"0.163"	"23.673"	"64.868"	"105.634"	"96.599"	"81.591"	"103.442"	"116.595"	"61.193"	"0.135"
"1983"	"0"	"0"	"0"	"2.266"	"80.718"	"215.995"	"80.754"	"144.571"	"85.614"	"109.31"	"15.797"	"26.119"
"1984"	"0.216"	"2.178"	"66.641"	"58.736"	"40.238"	"142.759"	"138.735"	"30.05"	"115.022"	"119.706"	"9.635"	"4.081"
"1985"	"0.896"	"0"	"13.05"	"15.987"	"65.278"	"92.037"	"101.371"	"74.869"	"56.391"	"87.825"	"42.626"	"2.049"
"1986"	"6.171"	"3.388"	"0"	"28.228"	"42.747"	"138.047"	"91.962"	"102.548"	"147.482"	"67.505"	"82.068"	"9.907"
"1987"	"0.248"	"0.205"	"18.377"	"42.047"	"83.029"	"86.667"	"82.97"	"102.375"	"83.869"	"125.829"	"30.937"	"31.114"
"1988"	"0"	"1.487"	"0"	"83.641"	"93.286"	"72.185"	"277.284"	"177.122"	"199.351"	"26.185"	"15.343"	"14.039"
"1989"	"0"	"0"	"14.739"	"42.076"	"57.18"	"119.81"	"248.077"	"47.698"	"101.164"	"128.474"	"5.541"	"1.915"
"1990"	"0.303"	"0"	"3.906"	"36.767"	"134.572"	"75.062"	"71.838"	"96.801"	"43.186"	"125.776"	"37.526"	"2.017"
"1991"	"0"	"0"	"0"	"80.259"	"126.377"	"187.509"	"134.108"	"107.699"	"94.714"	"186.685"	"21.406"	"0"
"1992"	"0"	"0"	"0"	"18.854"	"79.355"	"187.724"	"186.073"	"106.243"	"126.251"	"149.489"	"91.819"	"0"
"1993"	"0"	"0"	"28.017"	"41.341"	"74.174"	"139.539"	"156.249"	"108.708"	"86.007"	"176.385"	"17.2"	"31.533"
"1994"	"0.576"	"0.236"	"6.691"	"47.775"	"49.921"	"93.604"	"192.248"	"83.061"	"45.959"	"217.427"	"21.43"	"2.108"
"1995"	"7.561"	"0"	"12.038"	"33.584"	"104.598"	"93.475"	"141.109"	"146.529"	"114.808"	"201.133"	"17.746"	"0"
"1996"	"0"	"0.205"	"0"	"82.779"	"65.519"	"207.541"	"91.4"	"185.286"	"128.508"	"161.834"	"18.689"	"4.666"
"1997"	"3.6"	"0"	"20.74"	"69.551"	"45.491"	"116.909"	"81.252"	"155.854"	"80.626"	"218.862"	"106.503"	"33.093"
"1998"	"0"	"0"	"0"	"62.167"	"74.834"	"102.604"	"262.548"	"237.394"	"103.256"	"166.032"	"46.64"	"11.876"
"1999"	"0"	"2.551"	"0"	"50.416"	"142.431"	"102.549"	"163.903"	"69.507"	"58.672"	"220.08"	"30.477"	"0.374"
"2000"	"0"	"3.284"	"0"	"70.893"	"70.391"	"108.104"	"151.397"	"189.592"	"128.098"	"194.664"	"10.474"	"3.525"
"2001"	"0.564"	"0"	"6.524"	"89.538"	"38.228"	"58.579"	"118.888"	"79.663"	"96.433"	"138.109"	"37.22"	"2.62"
"2002"	"0.564"	"0.443"	"1.491"	"19.666"	"118.656"	"180.808"	"47.165"	"78.352"	"30.963"	"181.248"	"13.774"	"1.04"
