
"Year"	"Jan"	"Feb"	"Mar"	"Apr"	"May"	"Jun"	"Jul"	"Aug"	"Sep"	"Oct"	"Nov"	"Dec"
"1901"	"23.669"	"24.881"	"26.683"	"29.922"	"29.664"	"28.337"	"26.732"	"26.233"	"26.881"	"25.604"	"23.41"	"21.611"
"1902"	"22.295"	"23.733"	"27.659"	"29.922"	"31.172"	"28.913"	"27.62"	"27.199"	"25.907"	"25.188"	"22.865"	"22.44"
"1903"	"22.788"	"24.715"	"27.67"	"30.03"	"29.443"	"28.588"	"26.48"	"26.004"	"25.655"	"24.82"	"22.293"	"21.236"
"1904"	"21.894"	"23.33"	"26.976"	"30.222"	"29.434"	"27.638"	"26.621"	"26.836"	"26.423"	"25.341"	"22.691"	"21.435"
"1905"	"21.843"	"24.298"	"27.561"	"29.234"	"30.099"	"29.184"	"27.956"	"26.651"	"26.602"	"25.281"	"23.622"	"21.523"
"1906"	"23.176"	"25.283"	"26.675"	"30.988"	"31.62"	"27.995"	"27.189"	"26.111"	"25.759"	"25.275"	"23.423"	"22.095"
"1907"	"22.013"	"24.299"	"27.132"	"29.032"	"30.256"	"28.129"	"26.984"	"26.084"	"26.567"	"25.681"	"23.672"	"21.871"
"1908"	"22.215"	"24.05"	"26.589"	"30.779"	"30.706"	"29.165"	"26.678"	"26.283"	"25.707"	"25.288"	"22.388"	"21.12"
"1909"	"22.632"	"24.529"	"27.587"	"29.04"	"29.918"	"27.728"	"26.234"	"26.301"	"25.555"	"25.743"	"23.974"	"22.96"
"1910"	"22.578"	"24.215"	"27.278"	"30.552"	"30.887"	"28.076"	"27.148"	"26.08"	"25.369"	"25.092"	"22.203"	"20.936"
"1911"	"22.499"	"22.972"	"27.191"	"30.247"	"30.626"	"28.329"	"27.286"	"26.446"	"26.953"	"25.696"	"23.835"	"22.218"
"1912"	"22.015"	"25.159"	"27.994"	"29.974"	"31.283"	"29.506"	"26.985"	"26.452"	"26.559"	"25.392"	"22.922"	"21.248"
"1913"	"21.559"	"24.839"	"27.642"	"30.611"	"30.377"	"28.383"	"26.651"	"27.075"	"27.011"	"25.12"	"23.162"	"22.664"
"1914"	"21.801"	"24.644"	"27.666"	"29.452"	"30.638"	"28.821"	"26.84"	"26.003"	"25.84"	"25.053"	"23.402"	"22.629"
"1915"	"22.585"	"24.669"	"26.959"	"29.874"	"30.773"	"28.961"	"27.161"	"27.016"	"26.212"	"25.856"	"23.908"	"21.323"
"1916"	"22.12"	"24.667"	"27.203"	"30.188"	"30.071"	"27.379"	"26.673"	"26.356"	"26.117"	"25.2"	"23.104"	"21.091"
"1917"	"21.528"	"23.342"	"26.085"	"29.219"	"29.568"	"26.665"	"26.936"	"26.239"	"25.437"	"24.793"	"23.079"	"21.522"
"1918"	"21.507"	"23.074"	"26.297"	"29.545"	"28.743"	"27.721"	"28.168"	"26.964"	"26.661"	"26.029"	"24.022"	"22.281"
"1919"	"23.688"	"25.361"	"27.305"	"30.434"	"30.285"	"27.621"	"27.021"	"26.947"	"26.342"	"25.291"	"23.475"	"21.978"
"1920"	"22.132"	"24.571"	"27.685"	"29.6"	"30.439"	"28.706"	"27.676"	"27.237"	"26.844"	"25.975"	"23.636"	"21.862"
"1921"	"23.142"	"23.905"	"27.886"	"29.767"	"32.06"	"28.439"	"26.668"	"26.512"	"25.936"	"24.664"	"21.988"	"21.434"
"1922"	"22.213"	"23.707"	"27.631"	"30.434"	"30.272"	"28.371"	"26.969"	"26.957"	"26.245"	"24.84"	"23.117"	"20.94"
"1923"	"21.412"	"23.759"	"26.379"	"29.898"	"30.405"	"29.799"	"26.851"	"26.934"	"25.873"	"24.972"	"23.376"	"22.124"
"1924"	"22.456"	"24.764"	"27.207"	"30.891"	"31.002"	"28.842"	"27.06"	"26.979"	"25.654"	"25.096"	"22.516"	"21.2"
"1925"	"21.935"	"23.665"	"26.775"	"30.314"	"29.344"	"28.322"	"27.084"	"26.202"	"26.56"	"24.755"	"22.915"	"21.259"
"1926"	"22.681"	"24.255"	"27.831"	"29.612"	"30.422"	"29.868"	"27.675"	"26.814"	"26.293"	"25.387"	"22.917"	"21.975"
"1927"	"23.404"	"25.151"	"28.423"	"30.917"	"30.869"	"28.353"	"26.746"	"26.885"	"26.516"	"25.452"	"22.461"	"22.165"
"1928"	"23.036"	"24.585"	"27.007"	"30.099"	"31.541"	"28.771"	"27.147"	"26.585"	"26.512"	"25.264"	"23.488"	"22.071"
"1929"	"23.11"	"24.055"	"26.962"	"29.243"	"30.914"	"28.395"	"27.581"	"27.024"	"26.49"	"25.386"	"23.321"	"22.85"
"1930"	"22.817"	"23.939"	"27.38"	"29.676"	"29.925"	"28.426"	"27.48"	"26.964"	"26.418"	"24.98"	"22.716"	"22.474"
"1931"	"22.248"	"24.691"	"27.53"	"30.478"	"30.959"	"28.677"	"26.817"	"26.793"	"26.019"	"25.547"	"22.948"	"21.791"
"1932"	"21.401"	"23.834"	"26.655"	"29.705"	"29.42"	"28.439"	"26.746"	"26.732"	"26.065"	"25.505"	"23.542"	"21.764"
"1933"	"22.341"	"24.607"	"26.77"	"29.432"	"28.681"	"27.725"	"26.493"	"26.104"	"26.249"	"24.518"	"23.269"	"21.492"
"1934"	"21.987"	"23.497"	"26.689"	"29.968"	"30.913"	"28.454"	"26.841"	"26.209"	"26.605"	"25.46"	"22.333"	"21.134"
"1935"	"22.55"	"24.426"	"27.183"	"29.553"	"31.519"	"28.767"	"26.846"	"26.344"	"25.732"	"25.372"	"22.586"	"22.211"
"1936"	"23.445"	"24.811"	"26.64"	"30.139"	"30.185"	"27.223"	"26.959"	"26.251"	"26.608"	"25.487"	"23.248"	"22.374"
"1937"	"22.047"	"25.056"	"27.351"	"29.528"	"30.679"	"28.965"	"26.582"	"26.938"	"26.654"	"24.919"	"22.955"	"21.646"
"1938"	"22.971"	"25.039"	"27.99"	"30.121"	"30.944"	"26.748"	"26.526"	"26.145"	"25.641"	"24.873"	"22.526"	"21.602"
"1939"	"21.841"	"23.574"	"26.64"	"29.421"	"31.118"	"28.734"	"26.739"	"26.889"	"26.226"	"25.413"	"22.339"	"21.389"
"1940"	"20.957"	"23.828"	"27.568"	"29.338"	"30.038"	"28.184"	"26.427"	"26.323"	"26.418"	"25.27"	"23.33"	"22.216"
"1941"	"23.001"	"24.663"	"28.165"	"30.816"	"31.126"	"28.474"	"28.105"	"27.332"	"26.226"	"25.578"	"23.519"	"22.599"
"1942"	"22.645"	"24.656"	"27.365"	"30.145"	"31.005"	"28.62"	"27.078"	"26.35"	"26.225"	"25.091"	"23.006"	"22.51"
"1943"	"23.023"	"23.348"	"27.228"	"29.527"	"29.026"	"27.352"	"26.353"	"26.508"	"25.356"	"24.236"	"23.196"	"21.206"
"1944"	"22.811"	"24.413"	"25.825"	"29.379"	"30.561"	"28.314"	"26.345"	"26.787"	"26.052"	"25.339"	"23.175"	"21.865"
"1945"	"22.427"	"24.696"	"27.432"	"29.586"	"30.893"	"28.532"	"26.736"	"26.11"	"25.661"	"25.139"	"22.227"	"21.379"
"1946"	"21.212"	"23.627"	"27.691"	"29.681"	"30.462"	"27.726"	"26.968"	"26.275"	"26"	"25.715"	"23.669"	"22.311"
"1947"	"23.176"	"23.991"	"27.623"	"29.935"	"30.891"	"28.908"	"26.53"	"26.311"	"25.52"	"24.445"	"22.847"	"21.876"
"1948"	"22.784"	"24.962"	"27.048"	"29.793"	"30.841"	"28.878"	"27.098"	"26.356"	"25.991"	"25.48"	"24.236"	"21.133"
"1949"	"21.786"	"23.769"	"27.543"	"30.086"	"29.574"	"27.408"	"26.295"	"26.246"	"25.427"	"25.711"	"22.473"	"21.4"
"1950"	"21.782"	"24.227"	"26.933"	"30.015"	"30.584"	"28.129"	"26.551"	"26.602"	"25.408"	"24.68"	"22.584"	"21.452"
"1951"	"22.254"	"23.759"	"27.642"	"29.896"	"30.278"	"27.97"	"26.675"	"26.92"	"26.626"	"26.016"	"24.084"	"21.658"
"1952"	"22.619"	"24.916"	"27.651"	"30.733"	"30.52"	"28.654"	"27.542"	"26.545"	"26.593"	"25.179"	"22.785"	"22.299"
"1953"	"22.658"	"24.441"	"28.835"	"30.157"	"32.455"	"29.402"	"27.08"	"26.784"	"25.959"	"25.283"	"22.829"	"21.456"
"1954"	"22.488"	"25.164"	"27.461"	"30.92"	"31.365"	"28.631"	"26.166"	"26.132"	"25.7"	"24.544"	"22.075"	"22.111"
"1955"	"22.311"	"24.75"	"27.583"	"29.856"	"29.313"	"27.754"	"26.416"	"25.238"	"25.963"	"25.329"	"22.212"	"20.977"
"1956"	"22.088"	"23.618"	"27.929"	"30.674"	"30.379"	"27.396"	"25.486"	"25.951"	"25.594"	"24.444"	"23.163"	"21.561"
"1957"	"22.378"	"24.463"	"26.593"	"29.633"	"30.5"	"28.194"	"26.442"	"25.766"	"26.24"	"25.748"	"23.528"	"22.555"
"1958"	"22.809"	"25.416"	"28.148"	"30.326"	"30.343"	"29.931"	"26.693"	"26.289"	"26.324"	"25.288"	"23.838"	"22.124"
"1959"	"23.082"	"25.611"	"27.82"	"30.516"	"31.059"	"27.695"	"26.197"	"26.568"	"26.354"	"25.68"	"23.44"	"22.21"
"1960"	"23.105"	"24.363"	"27.736"	"30.317"	"30.579"	"28.32"	"27.206"	"27.516"	"25.987"	"25.486"	"22.8"	"22.291"
"1961"	"22.839"	"25.105"	"28.743"	"30.841"	"30.163"	"27.654"	"26.16"	"26.129"	"25.882"	"25.112"	"22.791"	"21.753"
"1962"	"21.833"	"24.422"	"27.384"	"29.646"	"29.675"	"28.214"	"26.918"	"26.227"	"25.819"	"24.957"	"22.975"	"21.917"
"1963"	"21.559"	"23.416"	"27.389"	"29.095"	"30.473"	"27.878"	"27.24"	"26.102"	"26.408"	"25.434"	"23.482"	"22.171"
"1964"	"22.614"	"25.158"	"28.535"	"31.034"	"31.872"	"28.612"	"27.059"	"26.031"	"25.378"	"25.775"	"22.415"	"21.429"
"1965"	"22.18"	"24.513"	"27.642"	"29.401"	"30.856"	"28.711"	"26.722"	"26.262"	"26.419"	"26.267"	"24.024"	"22.951"
"1966"	"23.449"	"25.45"	"28.703"	"30.695"	"31.108"	"28.545"	"27.381"	"27.094"	"25.901"	"25.1"	"23.958"	"22.106"
"1967"	"22.581"	"24.261"	"27.189"	"30.533"	"30.951"	"28.475"	"26.279"	"25.95"	"25.867"	"24.579"	"22.808"	"22.866"
"1968"	"22.142"	"25.151"	"27.402"	"29.616"	"30.819"	"28.635"	"27.139"	"27.332"	"26.119"	"24.953"	"23.41"	"22.644"
"1969"	"22.427"	"25.458"	"28.943"	"31.239"	"30.653"	"29.062"	"27.06"	"26.996"	"26.137"	"25.153"	"24.004"	"21.812"
"1970"	"22.888"	"25.197"	"28.643"	"30.743"	"30.705"	"27.672"	"26.969"	"25.817"	"26.051"	"25.188"	"22.872"	"20.749"
"1971"	"22.136"	"25.152"	"27.109"	"30.132"	"29.854"	"27.024"	"27.061"	"26.372"	"26.289"	"24.748"	"22.818"	"21.132"
"1972"	"21.499"	"24.714"	"27.222"	"30.061"	"29.957"	"29.299"	"27.461"	"27.809"	"27.023"	"25.473"	"23.826"	"22.951"
"1973"	"23.369"	"25.555"	"28.266"	"31.422"	"31.871"	"28.251"	"27.745"	"25.932"	"26.536"	"25.426"	"22.825"	"21.62"
"1974"	"21.983"	"24.353"	"27.928"	"30.763"	"30.125"	"27.94"	"27.011"	"26.647"	"25.964"	"25.088"	"23.159"	"21.328"
"1975"	"22.001"	"25.263"	"28.063"	"30.988"	"31.181"	"28.201"	"26.118"	"26.625"	"25.448"	"25.074"	"22.654"	"21.003"
"1976"	"21.622"	"23.893"	"27.854"	"29.96"	"30.12"	"28.675"	"26.52"	"25.893"	"26.55"	"26.28"	"24.249"	"23.145"
"1977"	"22.337"	"25.17"	"27.886"	"30.287"	"28.85"	"27.426"	"26.99"	"25.743"	"27.237"	"24.975"	"24.119"	"22.047"
"1978"	"22.915"	"24.768"	"27.653"	"30.154"	"30.442"	"27.527"	"26.371"	"25.778"	"25.973"	"25.785"	"24.253"	"22.579"
"1979"	"23.317"	"25.616"	"28.081"	"30.83"	"29.996"	"28.852"	"27.236"	"27.167"	"26.018"	"25.778"	"23.511"	"22.835"
"1980"	"22.979"	"25.706"	"28.262"	"30.344"	"31.736"	"28.005"	"27.086"	"25.907"	"27.217"	"26.652"	"24.114"	"22.873"
"1981"	"23.096"	"25.432"	"27.698"	"30.756"	"30.73"	"28.129"	"27.472"	"25.855"	"25.508"	"25.373"	"23.679"	"21.818"
"1982"	"22.912"	"26.026"	"28.616"	"30.54"	"30.62"	"28.548"	"27.268"	"27.246"	"27.004"	"26.324"	"24.063"	"22.354"
"1983"	"22.487"	"26.204"	"29.187"	"31.179"	"31.302"	"29.156"	"27.859"	"26.544"	"25.739"	"25.456"	"23.319"	"22.192"
"1984"	"23.478"	"24.387"	"27.668"	"30.108"	"32.145"	"28.523"	"26.295"	"27.24"	"26.687"	"25.626"	"23.525"	"23.007"
"1985"	"23.446"	"25.794"	"28.557"	"31.268"	"31.348"	"28.005"	"26.797"	"26.684"	"27.123"	"25.187"	"23.267"	"23.026"
"1986"	"22.038"	"24.897"	"28.589"	"31.152"	"31.615"	"28.71"	"28.006"	"27.092"	"27.444"	"25.962"	"24.288"	"23.405"
"1987"	"23.481"	"24.452"	"27.855"	"31.167"	"30.777"	"29.176"	"28.157"	"27.131"	"27.889"	"25.738"	"24.102"	"22.661"
"1988"	"22.928"	"26.104"	"29.473"	"30.033"	"31.762"	"29.548"	"26.53"	"26.059"	"25.902"	"26.155"	"23.628"	"22.464"
"1989"	"22.772"	"24.511"	"27.141"	"30.554"	"31.426"	"28.127"	"26.335"	"26.945"	"26.264"	"26.261"	"23.791"	"22.502"
"1990"	"23.073"	"25.607"	"28.6"	"31.25"	"28.457"	"27.628"	"27.045"	"26.594"	"27.237"	"25.238"	"24.044"	"22.57"
"1991"	"23.576"	"25.536"	"29.065"	"30.782"	"31.7"	"27.63"	"26.868"	"26.829"	"27.34"	"26.168"	"23.307"	"22.297"
"1992"	"21.944"	"25.434"	"28.169"	"30.878"	"31.011"	"29.166"	"27.864"	"26.589"	"27.14"	"25.967"	"24.294"	"21.87"
"1993"	"22.856"	"24.524"	"28.562"	"31.072"	"31.501"	"29.238"	"27.897"	"26.889"	"26.601"	"25.392"	"23.906"	"21.713"
"1994"	"23.12"	"25.508"	"28.796"	"30.385"	"31.762"	"28.981"	"26.921"	"26.961"	"27.925"	"25.293"	"23.027"	"21.621"
"1995"	"22.488"	"25.637"	"28.465"	"31.246"	"29.918"	"30.1"	"27.27"	"26.909"	"26.71"	"25.671"	"24.856"	"22.659"
"1996"	"23.718"	"25.355"	"28.78"	"30.199"	"32.139"	"28.273"	"27.453"	"26.476"	"26.187"	"25.098"	"24.356"	"22.049"
"1997"	"22.689"	"25.004"	"28.348"	"29.506"	"31.171"	"29.551"	"27.998"	"27.229"	"26.962"	"26.065"	"24.848"	"23.308"
"1998"	"24.596"	"26.556"	"29.458"	"31.555"	"31.897"	"30.141"	"27.912"	"27.026"	"26.76"	"25.792"	"24.421"	"22.323"
"1999"	"22.835"	"25.573"	"29.188"	"31.109"	"29.829"	"28.013"	"26.811"	"26.844"	"26.61"	"25.85"	"24.102"	"22.466"
"2000"	"23.77"	"25.889"	"27.99"	"31.215"	"30.499"	"27.478"	"26.808"	"26.534"	"26.715"	"25.961"	"24.361"	"22.317"
"2001"	"23.753"	"26.513"	"29.148"	"30.634"	"31.653"	"28.331"	"27.875"	"26.737"	"27.268"	"25.477"	"24.596"	"22.597"
"2002"	"23.649"	"25.168"	"28.917"	"31.378"	"31.524"	"28.466"	"28.28"	"26.827"	"27.513"	"26.128"	"23.829"	"22.864"
