
"Year"	"Jan"	"Feb"	"Mar"	"Apr"	"May"	"Jun"	"Jul"	"Aug"	"Sep"	"Oct"	"Nov"	"Dec"
"1901"	"8.042"	"8.335"	"8.736"	"9.216"	"9.014"	"8.241"	"8.073"	"8.043"	"8.242"	"8.288"	"8.135"	"7.84"
"1902"	"7.948"	"8.242"	"8.922"	"9.262"	"9.153"	"8.397"	"8.058"	"8.259"	"8.072"	"8.35"	"8.212"	"8.011"
"1903"	"8.057"	"8.258"	"8.707"	"9.138"	"8.86"	"8.305"	"7.949"	"8.012"	"8.011"	"8.149"	"7.872"	"7.624"
"1904"	"7.763"	"8.102"	"8.582"	"9.061"	"8.799"	"7.98"	"7.84"	"8.042"	"8.134"	"8.335"	"7.981"	"7.78"
"1905"	"7.81"	"8.289"	"8.552"	"8.859"	"8.907"	"8.397"	"8.104"	"8.104"	"8.21"	"8.335"	"8.242"	"7.731"
"1906"	"7.966"	"8.151"	"8.628"	"9.248"	"9.093"	"8.166"	"7.888"	"7.996"	"8.026"	"8.302"	"8.167"	"7.872"
"1907"	"7.933"	"8.227"	"8.69"	"8.738"	"8.859"	"8.18"	"7.949"	"7.763"	"8.134"	"8.336"	"8.182"	"7.826"
"1908"	"7.933"	"8.164"	"8.505"	"9.107"	"8.799"	"8.242"	"7.701"	"7.917"	"8.134"	"8.335"	"7.918"	"7.64"
"1909"	"7.686"	"8.119"	"8.752"	"8.953"	"8.874"	"8.181"	"7.763"	"7.98"	"7.995"	"8.257"	"8.042"	"7.811"
"1910"	"7.903"	"8.227"	"8.721"	"9.062"	"8.907"	"8.043"	"7.98"	"7.872"	"7.948"	"8.118"	"7.763"	"7.624"
"1911"	"7.903"	"7.934"	"8.628"	"9.014"	"8.859"	"8.089"	"7.902"	"7.98"	"8.274"	"8.303"	"8.242"	"8.027"
"1912"	"7.826"	"8.428"	"8.829"	"9.216"	"9.061"	"8.242"	"7.964"	"7.949"	"8.195"	"8.257"	"8.041"	"7.716"
"1913"	"7.825"	"8.258"	"8.628"	"9.139"	"9.077"	"8.181"	"7.902"	"8.058"	"8.226"	"8.272"	"8.102"	"7.902"
"1914"	"7.887"	"8.258"	"8.676"	"9.046"	"9.077"	"8.352"	"8.011"	"7.98"	"8.288"	"8.473"	"8.319"	"7.934"
"1915"	"8.012"	"8.227"	"8.66"	"9.138"	"9.03"	"8.427"	"8.104"	"8.119"	"8.195"	"8.351"	"8.167"	"7.747"
"1916"	"7.825"	"8.104"	"8.829"	"9.169"	"8.954"	"8.011"	"8.088"	"8.042"	"8.088"	"8.149"	"8.057"	"7.716"
"1917"	"7.902"	"8.179"	"8.551"	"9.046"	"8.768"	"7.996"	"8.165"	"8.011"	"8.011"	"8.009"	"7.888"	"7.64"
"1918"	"7.794"	"7.855"	"8.566"	"8.984"	"8.535"	"8.15"	"8.165"	"8.104"	"8.195"	"8.504"	"8.382"	"7.841"
"1919"	"8.073"	"8.258"	"8.598"	"9.217"	"8.907"	"8.165"	"7.949"	"7.98"	"8.21"	"8.366"	"8.088"	"7.887"
"1920"	"7.996"	"8.304"	"8.892"	"9.061"	"9.03"	"8.151"	"8.011"	"7.98"	"8.165"	"8.381"	"8.119"	"7.747"
"1921"	"8.012"	"8.164"	"8.845"	"8.999"	"9.046"	"8.242"	"7.918"	"7.918"	"8.011"	"8.303"	"8.026"	"7.748"
"1922"	"7.888"	"8.212"	"8.737"	"9.123"	"8.814"	"8.089"	"7.794"	"7.888"	"8.027"	"8.287"	"8.057"	"7.624"
"1923"	"7.825"	"8.025"	"8.597"	"9.091"	"8.907"	"8.291"	"7.778"	"7.888"	"8.057"	"8.303"	"8.087"	"7.995"
"1924"	"7.873"	"8.273"	"8.875"	"9.263"	"9.077"	"8.166"	"7.872"	"8.043"	"8.133"	"8.242"	"7.981"	"7.779"
"1925"	"7.764"	"8.025"	"8.675"	"9.154"	"8.829"	"8.044"	"7.98"	"8.011"	"8.258"	"8.457"	"8.196"	"7.826"
"1926"	"7.996"	"8.333"	"8.829"	"9.014"	"9.031"	"8.428"	"8.196"	"8.165"	"8.195"	"8.272"	"8.102"	"7.856"
"1927"	"7.935"	"8.289"	"8.798"	"9.154"	"8.83"	"8.104"	"7.809"	"8.043"	"8.165"	"8.257"	"7.903"	"7.918"
"1928"	"8.057"	"8.149"	"8.644"	"9.169"	"9.108"	"8.259"	"8.042"	"7.918"	"8.149"	"8.21"	"8.211"	"7.871"
"1929"	"7.888"	"8.181"	"8.798"	"9.015"	"9.03"	"8.042"	"8.011"	"8.089"	"8.226"	"8.272"	"8.289"	"7.902"
"1930"	"7.918"	"8.195"	"8.706"	"9.046"	"8.814"	"8.166"	"8.042"	"8.012"	"8.195"	"8.38"	"8.15"	"7.979"
"1931"	"8.087"	"8.288"	"8.783"	"9.248"	"9.186"	"8.413"	"8.011"	"8.042"	"8.118"	"8.319"	"8.212"	"7.903"
"1932"	"7.857"	"8.164"	"8.567"	"9.138"	"8.768"	"8.242"	"7.856"	"8.058"	"8.103"	"8.303"	"8.181"	"7.841"
"1933"	"7.964"	"8.242"	"8.613"	"9.031"	"8.629"	"7.948"	"7.871"	"7.825"	"7.949"	"8.087"	"8.212"	"7.81"
"1934"	"7.856"	"8.041"	"8.505"	"9.015"	"8.938"	"8.15"	"7.934"	"7.918"	"8.243"	"8.366"	"7.857"	"7.732"
"1935"	"7.919"	"8.211"	"8.737"	"8.954"	"9.092"	"8.242"	"7.824"	"7.856"	"7.902"	"8.272"	"7.965"	"7.903"
"1936"	"8.012"	"8.304"	"8.582"	"9.046"	"8.891"	"7.857"	"7.857"	"7.887"	"8.134"	"8.272"	"8.181"	"7.995"
"1937"	"7.903"	"8.366"	"8.737"	"8.923"	"8.891"	"8.119"	"7.763"	"8.043"	"8.18"	"8.195"	"8.118"	"7.748"
"1938"	"7.965"	"8.336"	"8.829"	"9.092"	"8.985"	"7.965"	"7.794"	"7.84"	"7.979"	"7.948"	"7.964"	"7.964"
"1939"	"7.857"	"8.087"	"8.536"	"8.906"	"8.938"	"8.181"	"7.732"	"7.887"	"8.042"	"8.272"	"8.087"	"7.84"
"1940"	"7.701"	"8.134"	"8.613"	"8.829"	"8.968"	"8.15"	"7.887"	"7.887"	"8.18"	"8.335"	"8.134"	"7.886"
"1941"	"7.95"	"8.334"	"8.923"	"9.355"	"9.138"	"8.257"	"8.165"	"8.15"	"8.135"	"8.458"	"8.428"	"7.981"
"1942"	"7.795"	"8.366"	"8.954"	"9.168"	"9.153"	"8.181"	"7.84"	"7.84"	"8.042"	"8.381"	"8.057"	"8.119"
"1943"	"8.012"	"8.164"	"8.767"	"8.999"	"8.675"	"7.872"	"7.717"	"7.949"	"7.793"	"8.01"	"8.119"	"7.886"
"1944"	"7.98"	"8.104"	"8.521"	"8.922"	"8.984"	"8.151"	"7.841"	"8.058"	"8.195"	"8.304"	"8.242"	"7.964"
"1945"	"7.811"	"8.336"	"8.829"	"9.029"	"9.03"	"8.212"	"7.903"	"7.964"	"8.027"	"8.257"	"8.119"	"7.841"
"1946"	"7.685"	"8.211"	"8.767"	"9.029"	"8.907"	"8.043"	"7.857"	"7.764"	"8.011"	"8.381"	"8.151"	"8.011"
"1947"	"8.103"	"8.18"	"8.752"	"8.798"	"9.138"	"8.242"	"7.794"	"7.965"	"7.949"	"8.071"	"7.981"	"7.965"
"1948"	"8.072"	"8.242"	"8.828"	"9.077"	"8.937"	"8.242"	"7.857"	"7.872"	"7.949"	"8.319"	"8.335"	"7.81"
"1949"	"7.857"	"8.104"	"8.845"	"9.153"	"8.751"	"8.027"	"7.841"	"7.996"	"7.948"	"8.257"	"8.041"	"7.732"
"1950"	"7.841"	"8.088"	"8.613"	"9.092"	"9.03"	"8.135"	"7.686"	"7.98"	"7.824"	"8.056"	"7.887"	"7.779"
"1951"	"7.965"	"8.211"	"8.737"	"8.908"	"8.999"	"8.026"	"7.841"	"8.088"	"8.305"	"8.427"	"8.444"	"7.764"
"1952"	"8.057"	"8.427"	"8.659"	"9.154"	"9.077"	"8.119"	"7.996"	"7.949"	"8.073"	"8.118"	"7.795"	"8.057"
"1953"	"7.918"	"8.196"	"9.046"	"8.968"	"9.17"	"8.521"	"7.764"	"8.027"	"8.073"	"8.335"	"8.119"	"7.886"
"1954"	"8.072"	"8.366"	"8.721"	"9.108"	"8.923"	"8.151"	"7.671"	"7.841"	"7.902"	"8.071"	"7.933"	"7.964"
"1955"	"8.042"	"8.473"	"8.752"	"8.999"	"8.659"	"8.012"	"7.887"	"7.747"	"8.21"	"8.227"	"7.902"	"7.747"
"1956"	"7.779"	"8.149"	"8.907"	"9.278"	"8.505"	"7.949"	"7.577"	"7.81"	"7.902"	"8.056"	"8.151"	"7.871"
"1957"	"7.888"	"8.273"	"8.489"	"9.108"	"9.03"	"8.166"	"7.964"	"7.902"	"8.103"	"8.442"	"8.242"	"8.228"
"1958"	"8.042"	"8.321"	"8.783"	"9.185"	"8.892"	"8.398"	"7.979"	"7.98"	"8.026"	"8.164"	"8.275"	"8.088"
"1959"	"8.15"	"8.382"	"8.876"	"9.216"	"8.986"	"8.089"	"7.763"	"7.949"	"8.073"	"8.257"	"8.274"	"8.088"
"1960"	"8.15"	"8.382"	"8.737"	"9.092"	"8.752"	"8.242"	"7.965"	"8.119"	"7.933"	"8.242"	"8.088"	"7.964"
"1961"	"8.103"	"8.242"	"8.907"	"9.232"	"8.706"	"8.012"	"7.578"	"7.934"	"7.964"	"8.149"	"8.212"	"8.088"
"1962"	"7.871"	"8.382"	"8.722"	"9.061"	"8.844"	"8.582"	"8.057"	"7.918"	"8.133"	"8.35"	"8.38"	"8.133"
"1963"	"8.165"	"8.272"	"8.814"	"8.968"	"9.03"	"8.165"	"8.088"	"7.903"	"8.273"	"8.319"	"8.489"	"8.134"
"1964"	"7.903"	"8.413"	"8.906"	"9.462"	"9.262"	"8.306"	"8.012"	"7.872"	"7.948"	"8.288"	"7.965"	"7.871"
"1965"	"7.948"	"8.273"	"8.737"	"9.076"	"9.015"	"8.074"	"7.794"	"7.825"	"8.012"	"8.52"	"8.46"	"8.166"
"1966"	"8.104"	"8.537"	"8.907"	"9.153"	"8.906"	"8.397"	"8.103"	"8.289"	"8.304"	"8.38"	"8.212"	"7.949"
"1967"	"7.933"	"8.212"	"8.613"	"9.201"	"9.138"	"8.428"	"7.856"	"8.026"	"8.133"	"8.304"	"8.365"	"8.243"
"1968"	"7.933"	"8.365"	"8.721"	"8.876"	"8.985"	"8.242"	"7.764"	"8.088"	"8.119"	"8.35"	"8.351"	"7.996"
"1969"	"8.026"	"8.474"	"9.031"	"9.293"	"9.169"	"8.459"	"7.809"	"8.104"	"7.949"	"8.257"	"8.198"	"8.057"
"1970"	"8.027"	"8.289"	"8.629"	"9.016"	"8.753"	"8.042"	"7.888"	"7.764"	"7.903"	"8.103"	"7.95"	"7.701"
"1971"	"7.887"	"8.228"	"8.582"	"9.091"	"8.751"	"7.794"	"7.84"	"7.872"	"8.133"	"8.024"	"8.027"	"7.856"
"1972"	"7.732"	"7.996"	"8.612"	"9.107"	"8.705"	"8.474"	"8.027"	"8.058"	"8.226"	"8.426"	"8.35"	"8.134"
"1973"	"8.012"	"8.443"	"8.845"	"9.432"	"9.139"	"8.149"	"7.98"	"7.701"	"8.103"	"8.288"	"8.181"	"7.918"
"1974"	"7.887"	"8.258"	"8.845"	"9.201"	"8.814"	"8.088"	"7.763"	"7.887"	"8.195"	"8.103"	"8.027"	"7.855"
"1975"	"7.81"	"8.412"	"8.722"	"9.201"	"8.784"	"8.336"	"7.763"	"7.857"	"7.887"	"8.087"	"7.98"	"7.7"
"1976"	"7.639"	"8.227"	"8.906"	"8.984"	"8.954"	"8.305"	"7.888"	"7.981"	"8.134"	"8.614"	"8.413"	"8.243"
"1977"	"7.981"	"8.521"	"9.045"	"9.246"	"8.922"	"8.242"	"7.902"	"8.073"	"8.227"	"8.365"	"8.428"	"8.01"
"1978"	"8.103"	"8.366"	"8.829"	"9"	"8.768"	"7.933"	"7.763"	"7.902"	"8.042"	"8.35"	"8.413"	"8.15"
"1979"	"8.365"	"8.505"	"8.798"	"9.015"	"8.985"	"8.536"	"7.918"	"7.98"	"8.18"	"8.442"	"8.335"	"8.32"
"1980"	"8.027"	"8.458"	"8.939"	"9.2"	"9.154"	"8.195"	"7.994"	"8.041"	"8.012"	"8.304"	"8.151"	"7.981"
"1981"	"7.935"	"8.181"	"8.66"	"8.985"	"8.984"	"8.257"	"7.965"	"7.717"	"8.042"	"8.381"	"8.166"	"8.103"
"1982"	"8.042"	"8.428"	"8.892"	"9.169"	"8.923"	"8.366"	"8.043"	"8.043"	"8.226"	"8.644"	"8.444"	"8.212"
"1983"	"8.057"	"8.29"	"8.785"	"9.109"	"9.324"	"8.63"	"8.165"	"8.027"	"8.118"	"8.366"	"8.119"	"8.182"
"1984"	"8.104"	"8.535"	"8.874"	"8.999"	"9.37"	"8.089"	"7.84"	"7.964"	"8.103"	"8.272"	"8.288"	"8.088"
"1985"	"8.381"	"8.505"	"9.076"	"9.278"	"8.969"	"7.965"	"7.979"	"7.934"	"8.243"	"8.226"	"8.258"	"8.32"
"1986"	"8.135"	"8.304"	"9.122"	"9.309"	"9.168"	"8.32"	"8.149"	"7.902"	"8.274"	"8.551"	"8.366"	"8.303"
"1987"	"8.166"	"8.288"	"8.828"	"9.169"	"9.123"	"8.306"	"8.335"	"8.104"	"8.536"	"8.519"	"8.52"	"8.258"
"1988"	"8.135"	"8.644"	"9"	"9.262"	"9.123"	"8.443"	"8.103"	"8.073"	"8.133"	"8.442"	"8.335"	"8.119"
"1989"	"8.166"	"8.335"	"8.767"	"9.154"	"9.045"	"8.119"	"7.918"	"7.979"	"8.165"	"8.412"	"8.413"	"8.134"
"1990"	"8.15"	"8.366"	"8.707"	"9.169"	"8.736"	"8.258"	"8.011"	"7.918"	"8.242"	"8.427"	"8.227"	"8.165"
"1991"	"8.273"	"8.49"	"8.985"	"9.108"	"9.232"	"8.413"	"7.856"	"7.872"	"8.351"	"8.319"	"8.289"	"7.81"
"1992"	"7.857"	"8.212"	"8.938"	"9.232"	"9.077"	"8.489"	"7.965"	"8.011"	"8.195"	"8.227"	"8.335"	"7.841"
"1993"	"8.027"	"8.366"	"8.644"	"9.216"	"9.169"	"8.351"	"7.903"	"8.104"	"8.133"	"8.366"	"8.35"	"8.026"
"1994"	"8.087"	"8.366"	"9.03"	"8.984"	"9.138"	"8.181"	"7.917"	"8.011"	"8.211"	"8.335"	"8.241"	"7.902"
"1995"	"7.995"	"8.52"	"8.782"	"9.185"	"8.953"	"8.675"	"8.18"	"8.165"	"8.227"	"8.488"	"8.398"	"8.088"
"1996"	"8.167"	"8.505"	"9.045"	"9.123"	"9.324"	"8.458"	"8.104"	"8.043"	"8.165"	"8.227"	"8.397"	"7.903"
"1997"	"7.996"	"8.32"	"8.891"	"8.905"	"9.123"	"8.537"	"8.181"	"8.073"	"8.351"	"8.598"	"8.645"	"8.506"
"1998"	"8.32"	"8.66"	"9"	"9.402"	"9.309"	"8.537"	"8.18"	"8.196"	"8.134"	"8.351"	"8.397"	"8.134"
"1999"	"8.088"	"8.552"	"9.061"	"9.154"	"8.629"	"8.104"	"7.98"	"8.104"	"8.289"	"8.442"	"8.397"	"8.088"
"2000"	"8.243"	"8.413"	"8.767"	"9.185"	"8.814"	"8.104"	"7.949"	"7.934"	"8.226"	"8.366"	"8.49"	"7.995"
"2001"	"8.258"	"8.645"	"8.861"	"9.186"	"9.015"	"8.336"	"8.089"	"8.011"	"8.336"	"8.335"	"8.491"	"8.166"
"2002"	"8.212"	"8.473"	"9.17"	"9.324"	"9.153"	"8.306"	"8.149"	"8.119"	"8.443"	"8.567"	"8.49"	"8.227"
