
"Year"	"Jan"	"Feb"	"Mar"	"Apr"	"May"	"Jun"	"Jul"	"Aug"	"Sep"	"Oct"	"Nov"	"Dec"
"1901"	"12.176"	"20.892"	"5.876"	"23.967"	"42.433"	"80.041"	"217.009"	"211.539"	"179.65"	"60.3"	"54.594"	"0"
"1902"	"2.175"	"0"	"3.436"	"26.148"	"31.161"	"80.648"	"218.815"	"229.741"	"214.713"	"26.661"	"15.169"	"22.632"
"1903"	"0"	"2.408"	"0.147"	"15.956"	"26.516"	"167.898"	"470.851"	"265.862"	"228.417"	"113.982"	"25.624"	"10.921"
"1904"	"0"	"0.014"	"5.019"	"0.256"	"56.922"	"137.884"	"149.298"	"203.582"	"219.568"	"135.14"	"0.286"	"4.725"
"1905"	"0.14"	"13.222"	"19.568"	"114.245"	"57.51"	"85.934"	"139.401"	"272.005"	"387.704"	"10.429"	"0.286"	"0"
"1906"	"4.776"	"10.236"	"14.278"	"0.256"	"1.604"	"297.748"	"260.394"	"175.27"	"132.992"	"24.918"	"17.442"	"1.495"
"1907"	"0"	"0.232"	"13.194"	"66.223"	"12.577"	"243.734"	"173.067"	"296.251"	"78.103"	"8.605"	"12.052"	"5.42"
"1908"	"6.909"	"0.613"	"0.142"	"20.61"	"36.497"	"84.102"	"240.967"	"318.337"	"320.813"	"2.948"	"0.286"	"0.014"
"1909"	"0.372"	"12.393"	"0.454"	"87.838"	"6.837"	"114.939"	"258.204"	"177.605"	"120.318"	"7.025"	"0.286"	"0.658"
"1910"	"0"	"0"	"0"	"19.759"	"29.488"	"237.06"	"276.934"	"205.264"	"258.873"	"218.678"	"38.924"	"0"
"1911"	"0"	"0"	"9.802"	"18.507"	"22.399"	"201.747"	"209.864"	"209.988"	"185.399"	"92.868"	"39.849"	"9.199"
"1912"	"0"	"22.174"	"0.419"	"28.199"	"35.552"	"72.17"	"311.803"	"228.455"	"215.245"	"36.905"	"26.21"	"7.184"
"1913"	"0"	"15.995"	"0.278"	"33.213"	"13.352"	"124.548"	"319.641"	"184.274"	"173.256"	"61.686"	"11.49"	"1.53"
"1914"	"0"	"0.582"	"4.846"	"29.919"	"51.903"	"293.054"	"291.3"	"157.136"	"274.69"	"21.626"	"1.21"	"4.132"
"1915"	"11.657"	"16.152"	"23.034"	"34.679"	"40.393"	"181.513"	"324.302"	"255.746"	"186.567"	"66.766"	"12.666"	"0.01"
"1916"	"0"	"14.84"	"0"	"6.223"	"12.432"	"183.839"	"204.411"	"295.918"	"238.406"	"103.837"	"26.255"	"0"
"1917"	"0"	"20.855"	"5.02"	"25.199"	"82.588"	"232.095"	"335.904"	"128.082"	"382.655"	"277.395"	"27.307"	"0.2"
"1918"	"9.136"	"5.604"	"18.291"	"62.087"	"60.076"	"188.907"	"212.736"	"216.024"	"138.442"	"26.925"	"28.729"	"9.44"
"1919"	"11.071"	"30.737"	"18.403"	"2.949"	"29.384"	"172.879"	"216.147"	"181.546"	"136.132"	"133.833"	"92.185"	"1.753"
"1920"	"4.103"	"0.331"	"6.697"	"17.204"	"20.127"	"87.354"	"201.836"	"127.09"	"111.501"	"22.49"	"4.952"	"0"
"1921"	"5.838"	"0"	"0"	"20.583"	"3.802"	"187.728"	"197.066"	"152.925"	"235.693"	"71.99"	"1.791"	"0"
"1922"	"3.648"	"0"	"0"	"6.826"	"27.357"	"160.564"	"284.029"	"176.069"	"202.486"	"52.041"	"43.408"	"0"
"1923"	"1.174"	"13.143"	"13.405"	"14.748"	"8.688"	"44.86"	"231.033"	"148.759"	"208.774"	"90.283"	"11.607"	"0"
"1924"	"8.636"	"0"	"2.995"	"24.951"	"24.849"	"83.957"	"155.258"	"214.518"	"341.516"	"92.601"	"137.054"	"0.045"
"1925"	"0.056"	"0"	"0.207"	"63.293"	"123.44"	"207.48"	"383.716"	"264.727"	"150.641"	"120.468"	"4.155"	"6.412"
"1926"	"18.313"	"0.175"	"27.09"	"35.787"	"50.456"	"103.617"	"317.613"	"295.781"	"195.008"	"40.826"	"1.06"	"0"
"1927"	"6.835"	"3.229"	"48.041"	"12.504"	"22.358"	"243.366"	"378.998"	"270.176"	"124.989"	"113.271"	"25.442"	"0"
"1928"	"0"	"9.498"	"22.696"	"4.323"	"24.045"	"169.681"	"376.514"	"176.889"	"291.518"	"103.925"	"0.286"	"3.455"
"1929"	"0"	"37.511"	"0.271"	"28.03"	"14.381"	"223.796"	"314.264"	"320.601"	"258.172"	"70.474"	"0.85"	"6.547"
"1930"	"0"	"7.211"	"24.221"	"37.919"	"13.352"	"226.727"	"160.834"	"137.932"	"216.745"	"107.328"	"87.424"	"0.944"
"1931"	"0"	"2.7"	"12.755"	"15.118"	"45.756"	"186.401"	"266.985"	"278.918"	"216.421"	"204.336"	"60.049"	"0"
"1932"	"0"	"26.6"	"0"	"24.473"	"32.386"	"102.466"	"348.882"	"243.873"	"228.836"	"24.212"	"79.269"	"0"
"1933"	"10.654"	"18.201"	"14.431"	"21.678"	"55.242"	"215.389"	"248.232"	"219.823"	"268.201"	"101.127"	"32.686"	"8.3"
"1934"	"0.006"	"0"	"0.215"	"21.961"	"5.177"	"210.731"	"365.814"	"330.521"	"172.734"	"84.137"	"24.698"	"0"
"1935"	"1.352"	"1.69"	"0.207"	"28.483"	"10.395"	"89.059"	"315.341"	"145.895"	"263.831"	"27.224"	"0.286"	"0.152"
"1936"	"0.274"	"46.221"	"25.407"	"4.726"	"113.736"	"272.636"	"369.954"	"274.589"	"212.468"	"173.216"	"42.667"	"4.959"
"1937"	"0"	"34.683"	"15.431"	"80.146"	"3.161"	"71.076"	"301.815"	"141.758"	"133.353"	"69.189"	"1.539"	"0.924"
"1938"	"0.147"	"17.381"	"27.474"	"21.641"	"66.383"	"217.137"	"259.205"	"248.975"	"212.01"	"162.566"	"19.868"	"0"
"1939"	"0.643"	"1.076"	"27.07"	"21.26"	"1.643"	"104.138"	"209.299"	"194.004"	"123.148"	"201.863"	"13.086"	"0"
"1940"	"0"	"6.976"	"11.682"	"44.658"	"73.365"	"147.868"	"349.65"	"261.953"	"72.846"	"104.281"	"32.327"	"1.508"
"1941"	"1.877"	"8.115"	"12.062"	"3.508"	"36.756"	"195.688"	"95.517"	"100.136"	"239.917"	"102.283"	"16.044"	"0.249"
"1942"	"0"	"12.424"	"0.476"	"62.635"	"18.405"	"115.149"	"334.487"	"304.811"	"111.814"	"20.881"	"11.678"	"0"
"1943"	"9.208"	"0.231"	"0.507"	"46.821"	"34.091"	"177.995"	"215.482"	"143.642"	"200.422"	"86.894"	"12.381"	"0"
"1944"	"2.588"	"29.19"	"47.486"	"31.185"	"27.099"	"88.268"	"319.011"	"207.351"	"221.306"	"143.501"	"18.27"	"0"
"1945"	"6.374"	"0"	"0"	"57.887"	"7.438"	"103.638"	"284.707"	"259.599"	"289.692"	"111.03"	"48.653"	"4.866"
"1946"	"0"	"20.36"	"1.169"	"63.563"	"42.939"	"198.701"	"389.853"	"206.929"	"129.513"	"72.651"	"79.249"	"0"
"1947"	"5.716"	"9.911"	"6.594"	"7.22"	"12.322"	"114.096"	"394.973"	"269.495"	"315.694"	"70.481"	"52.763"	"7.814"
"1948"	"0.491"	"9.262"	"10.412"	"22.494"	"63.482"	"81.133"	"205.383"	"177.884"	"173.744"	"43.99"	"77.034"	"0"
"1949"	"0.455"	"0.651"	"0.207"	"21.946"	"66.935"	"130.921"	"258.772"	"140.866"	"261.592"	"193.324"	"0.286"	"0"
"1950"	"0"	"34.271"	"18.877"	"6.355"	"44.34"	"81.205"	"302.924"	"177.476"	"205.773"	"19.47"	"65.444"	"0"
"1951"	"0"	"0.126"	"41.94"	"30.94"	"55.101"	"161.616"	"384.474"	"208.626"	"134.316"	"88.54"	"5.321"	"5.291"
"1952"	"0"	"4.815"	"0.834"	"36.687"	"24.698"	"101.55"	"307.647"	"187.701"	"251.7"	"90.371"	"0.286"	"7.885"
"1953"	"6.954"	"0.264"	"0"	"39.05"	"9.029"	"238.405"	"175.483"	"405.117"	"201.014"	"148.877"	"3.867"	"0"
"1954"	"0"	"0"	"7.176"	"14.832"	"41.853"	"61.48"	"328.123"	"271.677"	"346.773"	"81.047"	"0.286"	"4.296"
"1955"	"0"	"0.371"	"14.663"	"35.375"	"34.282"	"201.53"	"236.241"	"313.563"	"237.189"	"205.198"	"7.042"	"0"
"1956"	"0"	"9.439"	"0.278"	"13.376"	"62.696"	"223.335"	"420.231"	"262.413"	"145.499"	"127.319"	"14.233"	"0"
"1957"	"0.087"	"2.926"	"18.304"	"21.944"	"23.163"	"232.455"	"291.647"	"256.259"	"114.434"	"110.007"	"0.962"	"0"
"1958"	"5.437"	"12.457"	"5.774"	"36.6"	"28.119"	"93.946"	"339.547"	"244.043"	"191.865"	"140.044"	"33.241"	"0"
"1959"	"2.752"	"0.437"	"0"	"26.479"	"43.972"	"233.552"	"335.22"	"370.177"	"298.172"	"101.087"	"1.442"	"1"
"1960"	"0"	"0"	"33.201"	"9.566"	"37.684"	"191.416"	"245.61"	"148.956"	"188.587"	"105.244"	"0.605"	"2.487"
"1961"	"0.179"	"16.185"	"9.961"	"9.229"	"44.714"	"224.231"	"320.807"	"238.124"	"169.203"	"184.722"	"32.25"	"0.023"
"1962"	"1.441"	"31.794"	"0.639"	"81.191"	"13.772"	"114.212"	"255.893"	"262.914"	"267.809"	"65.522"	"47.63"	"27.552"
"1963"	"0"	"0"	"9.82"	"64.837"	"21.281"	"171.77"	"198.52"	"352.514"	"172.405"	"168.623"	"0.286"	"0"
"1964"	"0"	"13.392"	"1.197"	"34.677"	"8.343"	"111.108"	"122.698"	"269.403"	"312.869"	"111.385"	"7.098"	"0"
"1965"	"2.656"	"0.306"	"10.685"	"29.707"	"29.694"	"117.127"	"361.628"	"142.682"	"208.589"	"6.152"	"0.286"	"0.422"
"1966"	"23.575"	"0"	"1.095"	"13.028"	"6.59"	"88.05"	"294.766"	"196.385"	"251.229"	"46.837"	"8.08"	"6.157"
"1967"	"4.252"	"0"	"57.101"	"21.48"	"3.481"	"208.964"	"305.775"	"204.891"	"189.838"	"24.143"	"0.286"	"25.764"
"1968"	"6.73"	"28.159"	"11.226"	"38.741"	"31.602"	"114.342"	"249.288"	"67.426"	"296.091"	"141.175"	"21.762"	"0.501"
"1969"	"2.22"	"0"	"3.996"	"8.308"	"106.659"	"169.146"	"409.693"	"203.339"	"278.197"	"118.352"	"47.815"	"27.902"
"1970"	"5.23"	"8.506"	"20.287"	"29.708"	"67.153"	"277.392"	"210.193"	"433.142"	"194.47"	"23.149"	"0.286"	"0"
"1971"	"1.665"	"20.701"	"14.129"	"27.717"	"89.832"	"165.426"	"145.089"	"204.572"	"143.686"	"129.732"	"0.286"	"0"
"1972"	"0"	"9.631"	"0"	"13.27"	"28.386"	"145.724"	"232.991"	"137.684"	"213.064"	"76.588"	"99.005"	"1.629"
"1973"	"0"	"0.18"	"8.774"	"12.619"	"11.206"	"164.074"	"161.877"	"222.846"	"76.781"	"272.308"	"9.857"	"0"
"1974"	"0"	"1.141"	"1.874"	"13.881"	"41.244"	"205.293"	"189.326"	"148.343"	"121.323"	"189.589"	"45.446"	"0"
"1975"	"0.919"	"18.069"	"7.396"	"10.976"	"50.741"	"225.156"	"283.851"	"275.391"	"397.508"	"217.749"	"12.755"	"0"
"1976"	"0"	"0.129"	"2.63"	"18.379"	"42.34"	"91.171"	"366.575"	"266.471"	"129.474"	"11.77"	"50.943"	"0.829"
"1977"	"0.028"	"0.042"	"1.903"	"49.401"	"68.603"	"125.201"	"243.371"	"221.394"	"112.459"	"65.64"	"116.919"	"9.513"
"1978"	"12.161"	"7.156"	"4.784"	"18.019"	"37.63"	"260.944"	"375.086"	"385.478"	"150.024"	"58.451"	"41.018"	"0.92"
"1979"	"2.674"	"7.292"	"0.27"	"29.806"	"33.072"	"197.568"	"194.436"	"183.45"	"247.933"	"67.481"	"45.72"	"1.801"
"1980"	"1.331"	"0"	"11.413"	"23.375"	"20.087"	"299.233"	"273.682"	"262.008"	"168.435"	"25.521"	"2.622"	"5.419"
"1981"	"10.215"	"0"	"27.936"	"22.097"	"51.144"	"180.727"	"311.922"	"239.124"	"236.456"	"78.046"	"12.799"	"3.442"
"1982"	"0.309"	"1.321"	"3.306"	"35.14"	"38.369"	"128.188"	"298.288"	"266.09"	"148.887"	"69.49"	"31.644"	"0"
"1983"	"0"	"8.277"	"3.306"	"1.878"	"50.725"	"166.093"	"292.721"	"313.404"	"255.389"	"175.758"	"3.386"	"4.669"
"1984"	"5.633"	"2.718"	"5.033"	"30.072"	"34.533"	"137.435"	"239.006"	"142.034"	"153.496"	"90.054"	"1.698"	"0.032"
"1985"	"12.5"	"0.08"	"9.018"	"2.712"	"16.771"	"219.845"	"247.04"	"200.083"	"141.497"	"195.066"	"0.295"	"4.2"
"1986"	"19.83"	"18.814"	"0.63"	"36.067"	"16.676"	"197.529"	"223.748"	"324.404"	"82.194"	"60.709"	"73.791"	"8.81"
"1987"	"3.585"	"0.186"	"22.949"	"27.668"	"37.621"	"118.648"	"216.663"	"252.372"	"78.892"	"93.901"	"80.802"	"2.516"
"1988"	"0"	"2.345"	"1.152"	"38.992"	"32.768"	"131.01"	"407.151"	"249.93"	"202.699"	"33.082"	"9.546"	"6.767"
"1989"	"0"	"0"	"28.824"	"3.519"	"35.041"	"168.16"	"404.092"	"223.228"	"192.972"	"48.778"	"3.039"	"2.346"
"1990"	"1.615"	"27.666"	"33.43"	"5.272"	"137.114"	"211.168"	"246.931"	"358.19"	"153.738"	"211.146"	"34.704"	"3.16"
"1991"	"4.153"	"0.093"	"4.816"	"17.631"	"40.143"	"315.833"	"287.642"	"235.81"	"204.166"	"63.644"	"30.159"	"0.264"
"1992"	"1.483"	"0.415"	"0"	"7.327"	"33.482"	"152.572"	"250.372"	"303.863"	"144.243"	"46.274"	"35.501"	"0"
"1993"	"0"	"0.455"	"7.366"	"10.493"	"42.292"	"142.64"	"275.82"	"183.32"	"194.567"	"197.636"	"0.567"	"2.388"
"1994"	"7.968"	"7.431"	"8.368"	"17.885"	"44.447"	"129.683"	"342.542"	"268.463"	"139.446"	"155.707"	"43.815"	"0"
"1995"	"12.649"	"0.195"	"31.061"	"11.049"	"62.426"	"148.244"	"365.996"	"205.199"	"213.166"	"228.774"	"30.252"	"0"
"1996"	"2.06"	"1.192"	"3.472"	"39.097"	"5.673"	"135.078"	"286.541"	"282.231"	"132.068"	"89.253"	"53.123"	"0.774"
"1997"	"7.101"	"0"	"24.739"	"44.809"	"10.636"	"52.125"	"241.336"	"186.104"	"199.109"	"50.019"	"90.492"	"21.755"
"1998"	"1.651"	"9.297"	"1.24"	"17.051"	"34.125"	"102.488"	"257.248"	"217.47"	"167.844"	"204.507"	"94.516"	"0"
"1999"	"0"	"1.033"	"0"	"4.105"	"60.51"	"131.4"	"185.895"	"354.004"	"160.809"	"84.552"	"0.743"	"0"
"2000"	"0"	"36.133"	"0"	"14.31"	"49.603"	"315.176"	"221.745"	"418.21"	"92.938"	"87.457"	"1.535"	"0.439"
"2001"	"0.787"	"0"	"4.852"	"23.023"	"54.133"	"247.598"	"198.14"	"332.19"	"108.195"	"108.305"	"50.915"	"0"
"2002"	"22.198"	"0.357"	"6.362"	"14.299"	"42.684"	"182.066"	"152.567"	"297.993"	"62.519"	"64.381"	"4.684"	"0"
