
"Year"	"Jan"	"Feb"	"Mar"	"Apr"	"May"	"Jun"	"Jul"	"Aug"	"Sep"	"Oct"	"Nov"	"Dec"
"1901"	"15.808"	"19.09"	"24.139"	"30.175"	"31.221"	"32.051"	"29.811"	"29.142"	"28.798"	"27.57"	"21.784"	"17.629"
"1902"	"17.801"	"19.462"	"25.741"	"28.556"	"31.099"	"31.168"	"29.147"	"29.509"	"28.798"	"26.144"	"21.24"	"16.578"
"1903"	"16.706"	"18.624"	"23.68"	"29.78"	"32.23"	"30.83"	"30.412"	"28.933"	"29.077"	"26.79"	"21.249"	"16.837"
"1904"	"16.703"	"19.207"	"24.659"	"30.531"	"30.168"	"30.263"	"28.789"	"28.86"	"28.798"	"26.522"	"20.859"	"17.545"
"1905"	"15.494"	"15.2"	"21.816"	"26.71"	"29.981"	"32.193"	"29.212"	"28.285"	"28.575"	"26.858"	"21.735"	"16.98"
"1906"	"16.256"	"18.33"	"22.372"	"30.242"	"31.989"	"31.024"	"29.592"	"28.564"	"29.329"	"26.623"	"22.017"	"17.804"
"1907"	"17.916"	"18.462"	"21.532"	"27.254"	"30.542"	"31.071"	"29.559"	"29.765"	"29.179"	"27.103"	"21.517"	"17.199"
"1908"	"15.047"	"18.585"	"24.703"	"32.045"	"31.809"	"31.364"	"29.309"	"29.849"	"29.097"	"27.124"	"21.09"	"16.458"
"1909"	"17.361"	"18.847"	"25.939"	"27.888"	"31.71"	"29.817"	"29.409"	"28.723"	"29.455"	"27.182"	"21.97"	"17.742"
"1910"	"16.074"	"18.909"	"24.607"	"29.845"	"31.188"	"30.183"	"28.779"	"29.367"	"29.131"	"26.424"	"20.97"	"16.821"
"1911"	"17.702"	"18.183"	"22.959"	"29.476"	"32.056"	"30.162"	"30.18"	"29.039"	"28.575"	"26.389"	"20.496"	"16.142"
"1912"	"16.873"	"19.948"	"24.027"	"27.924"	"30.62"	"31.168"	"29.094"	"29.107"	"28.798"	"26.623"	"20.49"	"16.736"
"1913"	"16.277"	"18.603"	"22.38"	"30.63"	"30.024"	"28.995"	"29.411"	"28.824"	"29.241"	"26.238"	"20.355"	"16.64"
"1914"	"16.921"	"19.098"	"23.56"	"27.503"	"30.48"	"30.295"	"29.189"	"28.747"	"28.798"	"25.444"	"21.337"	"17.902"
"1915"	"17.274"	"18.785"	"23.44"	"29.224"	"31.369"	"30.304"	"30.1"	"29.383"	"29.044"	"28.403"	"23.255"	"17.357"
"1916"	"16.289"	"18.824"	"26.485"	"29.925"	"33.418"	"29.993"	"29.133"	"28.998"	"28.998"	"26.861"	"21.77"	"16.537"
"1917"	"16.076"	"18.503"	"23.259"	"28.095"	"29.085"	"30.083"	"29.312"	"29.142"	"28.494"	"26.323"	"21.614"	"16.976"
"1918"	"15.232"	"18.503"	"24.862"	"28.356"	"31.111"	"29.36"	"30.303"	"28.262"	"29.243"	"26.905"	"21.358"	"16.217"
"1919"	"17.024"	"17.803"	"25.013"	"28.476"	"31.009"	"30.615"	"29.411"	"29.341"	"28.697"	"26.602"	"21.69"	"17.157"
"1920"	"16.891"	"18.747"	"23.259"	"29.445"	"30.548"	"31.531"	"29.665"	"29.207"	"28.798"	"27.124"	"21.938"	"17.75"
"1921"	"17.294"	"18.946"	"25.985"	"30.492"	"33.521"	"30.992"	"29.532"	"29.137"	"28.652"	"25.724"	"21.018"	"16.117"
"1922"	"17.118"	"19.683"	"25.739"	"30.709"	"32.909"	"29.762"	"29.312"	"28.774"	"28.429"	"25.8"	"21.435"	"17.352"
"1923"	"16.689"	"18.647"	"24.717"	"30.424"	"31.83"	"32.074"	"29.411"	"29.601"	"29.018"	"26.123"	"21.535"	"17.5"
"1924"	"16.268"	"19.004"	"26.306"	"30.777"	"31.35"	"32.76"	"29.312"	"29.062"	"28.196"	"27.056"	"21.235"	"17.719"
"1925"	"15.194"	"17.157"	"24.318"	"29.162"	"30.853"	"30.322"	"28.991"	"28.971"	"28.718"	"26.025"	"21.059"	"16.646"
"1926"	"16.395"	"19.223"	"22.98"	"27.632"	"30.841"	"33.249"	"29.414"	"29.062"	"28.798"	"26.555"	"20.275"	"17.672"
"1927"	"15.934"	"18.668"	"22.786"	"29.665"	"30.341"	"31.392"	"29.512"	"28.995"	"29.065"	"26.88"	"21.578"	"17.629"
"1928"	"15.794"	"18.956"	"25.348"	"29.374"	"31.689"	"30.218"	"29.246"	"29.507"	"29.776"	"27.226"	"21.323"	"18.004"
"1929"	"16.618"	"18.083"	"24.983"	"29.277"	"32.477"	"31.633"	"29.191"	"28.975"	"28.998"	"25.958"	"21.238"	"16.939"
"1930"	"15.641"	"18.5"	"24.908"	"29.224"	"31.489"	"30.792"	"29.209"	"29.042"	"29.097"	"26.646"	"21.038"	"16.661"
"1931"	"17.434"	"18.716"	"24.271"	"30.715"	"31.209"	"32.303"	"29.314"	"29.758"	"29.118"	"27.079"	"21.258"	"18.002"
"1932"	"17.677"	"18.151"	"25.171"	"29.588"	"32.485"	"31.739"	"29.911"	"29.341"	"29.597"	"27.223"	"22.052"	"17.086"
"1933"	"15.032"	"19.727"	"24.918"	"27.709"	"30.702"	"30.419"	"29.145"	"28.64"	"28.798"	"26.62"	"21.417"	"17.502"
"1934"	"16.256"	"18.906"	"24.139"	"29.922"	"31.575"	"30.271"	"29.411"	"29.323"	"29.311"	"26.224"	"21.116"	"17.725"
"1935"	"16.007"	"19.5"	"24.973"	"28.527"	"32.533"	"31.472"	"30.012"	"28.543"	"28.998"	"26.557"	"21.669"	"17.328"
"1936"	"15.839"	"19.504"	"24.859"	"29.286"	"31.188"	"29.986"	"29.264"	"29.473"	"28.652"	"25.958"	"22.09"	"17.779"
"1937"	"15.209"	"18.967"	"23.537"	"29.326"	"31.152"	"31.722"	"30.065"	"28.617"	"29.432"	"25.744"	"21.114"	"16.872"
"1938"	"17.232"	"17.557"	"25.859"	"30.867"	"30.886"	"30.247"	"29.332"	"29.012"	"29.729"	"27.124"	"20.757"	"17.334"
"1939"	"17.177"	"19.568"	"23.214"	"30.588"	"32.268"	"30.721"	"29.743"	"29.135"	"29.174"	"26.543"	"21.949"	"17.907"
"1940"	"16.606"	"19.093"	"22.401"	"29.121"	"32.187"	"31.472"	"29.645"	"29.276"	"28.904"	"27.345"	"22.337"	"17.582"
"1941"	"16.759"	"19.707"	"26.386"	"31.089"	"31.369"	"30.51"	"30.178"	"29.013"	"29.016"	"26.588"	"21.637"	"18.716"
"1942"	"16.884"	"18.999"	"25.005"	"29.303"	"33.124"	"32.17"	"29.85"	"29.117"	"28.094"	"26.557"	"22.559"	"17.372"
"1943"	"18.423"	"18.128"	"24.871"	"27.656"	"32.168"	"31.542"	"29.233"	"28.836"	"29.077"	"27.003"	"21.914"	"18.661"
"1944"	"16.343"	"18.929"	"23.674"	"27.353"	"32.889"	"31.602"	"29.53"	"29.273"	"30.381"	"26.236"	"21.517"	"18.347"
"1945"	"16.186"	"17.587"	"24.859"	"28.208"	"30.985"	"32.051"	"30.533"	"29.427"	"28.993"	"25.676"	"21.001"	"16.298"
"1946"	"16.805"	"20.749"	"24.521"	"27.717"	"30.256"	"31.001"	"29.33"	"29.559"	"28.957"	"26.259"	"21.332"	"18.083"
"1947"	"16.605"	"19.415"	"25.363"	"30.753"	"31.405"	"32.351"	"29.565"	"29.604"	"28.998"	"26.676"	"21.737"	"17.936"
"1948"	"17.29"	"19.566"	"24.577"	"30.367"	"31.85"	"32.932"	"29.009"	"29.175"	"28.868"	"26.141"	"21.97"	"17.258"
"1949"	"17.376"	"18.693"	"24.336"	"27.999"	"29.877"	"30.736"	"29.212"	"29.276"	"28.798"	"27.329"	"21.261"	"16.528"
"1950"	"17.249"	"18.661"	"23.739"	"29.13"	"31.93"	"30.556"	"29.665"	"28.742"	"28.747"	"26.496"	"20.443"	"17.696"
"1951"	"16.385"	"19.233"	"25.171"	"29.408"	"32.465"	"31.787"	"29.312"	"29.704"	"29.212"	"28.105"	"22.416"	"17.696"
"1952"	"17.762"	"20.586"	"23.531"	"29.45"	"31.38"	"31.203"	"29.624"	"29.017"	"28.476"	"27.38"	"21.714"	"17.081"
"1953"	"16.127"	"20.169"	"27.016"	"30.194"	"32.374"	"31.027"	"29.094"	"29.295"	"28.638"	"26.52"	"21.211"	"18.985"
"1954"	"15.694"	"20.751"	"25.09"	"31.496"	"32.64"	"30.865"	"29.283"	"28.985"	"29.194"	"25.762"	"20.46"	"17.087"
"1955"	"16.377"	"18.267"	"26.232"	"28.935"	"32.009"	"31.015"	"28.67"	"28.497"	"28.649"	"26.901"	"22.181"	"17.061"
"1956"	"16.053"	"18.589"	"25.55"	"30.83"	"32.506"	"29.661"	"29.612"	"29.047"	"28.073"	"26.796"	"21.243"	"18.205"
"1957"	"17.011"	"18.552"	"23.78"	"30.056"	"33.66"	"31.704"	"29.809"	"29.477"	"29.723"	"26.954"	"21.943"	"18.864"
"1958"	"18.466"	"19.912"	"25.25"	"30.809"	"32.924"	"32.898"	"30.209"	"28.742"	"29.095"	"27.452"	"22.693"	"18.478"
"1959"	"17.343"	"19.127"	"24.586"	"30.212"	"31.886"	"31.257"	"29.932"	"29.897"	"28.534"	"26.427"	"21.714"	"18.137"
"1960"	"16.887"	"21.782"	"23.539"	"30.512"	"32.37"	"31.88"	"29.332"	"30.12"	"28.798"	"27.097"	"21.388"	"18.628"
"1961"	"17.765"	"18.423"	"25.033"	"30.017"	"32.394"	"30.515"	"29.491"	"29.691"	"28.957"	"26.702"	"20.872"	"15.111"
"1962"	"15.559"	"19.47"	"24.123"	"29.636"	"31.271"	"30.969"	"29.979"	"28.347"	"28.549"	"26.323"	"21.637"	"17.419"
"1963"	"15.696"	"20.124"	"24.112"	"28.677"	"30.302"	"30.682"	"29.409"	"29"	"28.388"	"27.276"	"22.384"	"18.941"
"1964"	"16.425"	"19.605"	"25.739"	"29.977"	"30.32"	"31.822"	"28.708"	"29.476"	"28.993"	"28.058"	"21.867"	"17.864"
"1965"	"17.513"	"19.601"	"23.256"	"28.582"	"32.031"	"32.045"	"29.145"	"28.992"	"28.044"	"26.832"	"22.276"	"16.047"
"1966"	"16.52"	"20.135"	"25.191"	"30.45"	"32.745"	"32.108"	"29.748"	"28.504"	"28.763"	"26.314"	"22.928"	"17.91"
"1967"	"17.079"	"20.454"	"23.327"	"28.182"	"31.709"	"31.707"	"29.582"	"29.174"	"28.798"	"26.149"	"20.912"	"18.614"
"1968"	"16.46"	"18.398"	"24.51"	"29.296"	"32.05"	"29.732"	"29.094"	"29.174"	"29.57"	"26.303"	"22.097"	"17.82"
"1969"	"16.014"	"19.399"	"26.338"	"30.309"	"30.982"	"31.551"	"29.656"	"28.479"	"28.494"	"27.068"	"23.119"	"17.862"
"1970"	"16.54"	"18.72"	"24.671"	"30.473"	"32.406"	"30.414"	"29.444"	"29.341"	"28.777"	"27.461"	"21.749"	"17.337"
"1971"	"16.082"	"16.615"	"23.997"	"27.112"	"29.032"	"29.256"	"28.426"	"27.563"	"28.476"	"26.389"	"20.684"	"17.702"
"1972"	"16.343"	"16.962"	"24.419"	"28.795"	"32.291"	"31.262"	"29.514"	"29.145"	"27.571"	"25.641"	"21.135"	"16.99"
"1973"	"16.618"	"19.318"	"23.229"	"29.985"	"30.583"	"29.779"	"29.312"	"29.207"	"28.729"	"26.67"	"21.358"	"17.48"
"1974"	"16.39"	"18.482"	"24.439"	"29.804"	"30.767"	"31.091"	"28.814"	"28.765"	"28.798"	"27.85"	"21.337"	"15.607"
"1975"	"16.191"	"18.838"	"24.238"	"29.603"	"31.291"	"30.606"	"28.15"	"28.977"	"28.441"	"27.62"	"21.367"	"17.043"
"1976"	"16.859"	"19.882"	"24.712"	"29.241"	"30.315"	"30.466"	"29.285"	"28.517"	"28.396"	"26.88"	"22.879"	"17.238"
"1977"	"16.15"	"19.202"	"25.714"	"28.697"	"28.694"	"30.049"	"29.243"	"29.279"	"29.429"	"26.046"	"23.105"	"17.06"
"1978"	"15.425"	"18.224"	"22.944"	"28.125"	"31.271"	"30.132"	"29.11"	"29.29"	"28.643"	"26.567"	"22.561"	"17.731"
"1979"	"17.214"	"17.424"	"24.406"	"29.689"	"32.75"	"31.298"	"29.679"	"30.833"	"28.244"	"27.012"	"23.782"	"18.945"
"1980"	"16.661"	"19.367"	"24.118"	"31.056"	"31.268"	"30.463"	"29.653"	"28.957"	"28.753"	"26.212"	"22.105"	"18.098"
"1981"	"15.96"	"18.986"	"23.707"	"27.312"	"29.488"	"30.971"	"29.012"	"29.056"	"28.977"	"26.811"	"21.411"	"17.261"
"1982"	"17.439"	"18.847"	"22.933"	"29.183"	"32.756"	"30.735"	"30.818"	"29.388"	"29.172"	"26.564"	"22.158"	"15.752"
"1983"	"16.026"	"19.841"	"24.082"	"28.67"	"30.221"	"31.771"	"30.032"	"29.63"	"29.923"	"26.838"	"21.642"	"17.891"
"1984"	"15.869"	"18.131"	"25.498"	"30.309"	"32.115"	"30.208"	"28.965"	"28.795"	"28.551"	"27.837"	"20.692"	"17.898"
"1985"	"17.182"	"18.597"	"26.394"	"30.256"	"30.829"	"31.607"	"28.712"	"29.241"	"28.646"	"26.478"	"21.867"	"18.719"
"1986"	"16.747"	"18.642"	"24.265"	"29.024"	"29.769"	"31.261"	"29.341"	"28.821"	"27.658"	"25.841"	"22.929"	"17.158"
"1987"	"16.321"	"20.965"	"24.259"	"29.024"	"31.152"	"31.678"	"29.312"	"28.099"	"29.176"	"27.084"	"22.417"	"19.06"
"1988"	"17.928"	"19.903"	"24.286"	"29.909"	"31.741"	"30.313"	"29.565"	"28.693"	"30.036"	"28.295"	"22.595"	"19.366"
"1989"	"15.576"	"18.525"	"24.859"	"30.091"	"31.948"	"30.26"	"29.409"	"28.391"	"29.577"	"28.088"	"22.21"	"16.631"
"1990"	"15.982"	"18.852"	"23.338"	"29.863"	"29.875"	"31.359"	"29.232"	"29.154"	"29.497"	"26.681"	"22.909"	"18.299"
"1991"	"17.337"	"19.642"	"25.069"	"29.142"	"32.003"	"29.933"	"29.535"	"28.712"	"29.174"	"27.361"	"21.895"	"17.54"
"1992"	"14.96"	"16.897"	"25.951"	"30.323"	"30.12"	"30.93"	"29.515"	"28.801"	"29.394"	"27.602"	"22.265"	"17.61"
"1993"	"17.288"	"21.065"	"23.654"	"28.603"	"31.029"	"31.178"	"30.178"	"28.417"	"28.798"	"27.523"	"22.434"	"18.607"
"1994"	"17.617"	"18.571"	"25.647"	"28.97"	"31.495"	"31.362"	"29.776"	"28.948"	"29.311"	"27.091"	"22.379"	"17.702"
"1995"	"14.771"	"21.714"	"24.732"	"29.555"	"32.345"	"31.625"	"29.215"	"28.561"	"29.211"	"27.223"	"22.755"	"18.843"
"1996"	"16.682"	"19.274"	"25.765"	"28.865"	"31.789"	"30.133"	"29.312"	"27.817"	"29.597"	"27.203"	"22.997"	"19.093"
"1997"	"15.759"	"18.388"	"24.936"	"29.743"	"30.694"	"31.306"	"29.73"	"29.294"	"28.299"	"25.926"	"22.579"	"17.744"
"1998"	"16.618"	"19.835"	"23.571"	"29.03"	"31.771"	"32.592"	"29.397"	"29.397"	"29.397"	"29.305"	"23.137"	"18.807"
"1999"	"17.411"	"20.388"	"25.372"	"31.924"	"32.033"	"30.839"	"29.233"	"28.998"	"28.904"	"27.817"	"23.188"	"18.701"
"2000"	"17.914"	"18.835"	"24.623"	"30.203"	"31.221"	"31.1"	"29.858"	"29.065"	"28.52"	"28.038"	"23.887"	"18.359"
"2001"	"17.558"	"19.803"	"24.286"	"30.242"	"32.118"	"30.4"	"29.476"	"29.562"	"29.776"	"28.417"	"24.205"	"19.564"
"2002"	"16.618"	"20.337"	"25.718"	"29.638"	"31.915"	"31.768"	"30.559"	"28.98"	"28.834"	"27.124"	"22.639"	"18.766"
