
"Year"	"Jan"	"Feb"	"Mar"	"Apr"	"May"	"Jun"	"Jul"	"Aug"	"Sep"	"Oct"	"Nov"	"Dec"
"1901"	"0.748"	"10.872"	"4.57"	"46.007"	"114.362"	"339.839"	"273.974"	"194.915"	"118.468"	"121.465"	"44.052"	"11.035"
"1902"	"0.5"	"0"	"0.915"	"27.209"	"59.419"	"258.275"	"340.55"	"84.758"	"100.733"	"321.128"	"67.277"	"43.725"
"1903"	"0.003"	"0"	"0"	"5.514"	"199.389"	"381.739"	"513.823"	"345.551"	"204.356"	"171.724"	"72.019"	"27.679"
"1904"	"1.008"	"0"	"13.376"	"42.76"	"112.584"	"559.651"	"450.936"	"96.176"	"64.031"	"163.037"	"2.421"	"0.013"
"1905"	"0.006"	"2.522"	"8.707"	"5.601"	"93.401"	"322.1"	"198.715"	"142.589"	"45.92"	"152.964"	"23.099"	"0.013"
"1906"	"15.582"	"0"	"0"	"2.288"	"36.883"	"402.073"	"393.673"	"522.719"	"133.466"	"136.353"	"6.065"	"40.416"
"1907"	"0.626"	"0"	"18.328"	"113.901"	"19.241"	"317.507"	"445.401"	"286.23"	"214.139"	"26.938"	"59.626"	"14.199"
"1908"	"0.003"	"4.94"	"18.283"	"53.295"	"78.488"	"218.391"	"514.078"	"173.81"	"70.459"	"25.935"	"0.917"	"0.013"
"1909"	"8.351"	"0"	"13.525"	"8.992"	"193.277"	"236.449"	"366.294"	"352.552"	"106.35"	"80.726"	"38.236"	"12.446"
"1910"	"0"	"0.021"	"14.303"	"11.743"	"73.548"	"297.389"	"686.089"	"502.905"	"119.771"	"193.558"	"71.635"	"0.013"
"1911"	"0"	"0"	"5.542"	"22.106"	"82.01"	"169.479"	"428.081"	"170.28"	"98.012"	"159.141"	"34.038"	"1.328"
"1912"	"0"	"0.596"	"5.796"	"19.62"	"117.432"	"304.613"	"526.948"	"276.039"	"115.045"	"186.493"	"56.153"	"0.779"
"1913"	"0"	"0"	"0"	"15.084"	"72.534"	"221.121"	"519.832"	"127.42"	"122.195"	"120.353"	"2.345"	"0.015"
"1914"	"0.01"	"0.919"	"2.804"	"5.024"	"64.802"	"101.511"	"570.494"	"323.256"	"102.28"	"93.346"	"60.795"	"17.478"
"1915"	"8.223"	"0.04"	"29.647"	"38.086"	"89.49"	"426.511"	"310.106"	"104.283"	"161.427"	"62.249"	"70.36"	"8.265"
"1916"	"0"	"0"	"1.258"	"10.475"	"168.066"	"328.981"	"365.178"	"182.488"	"117.894"	"171.948"	"179.399"	"0.026"
"1917"	"0"	"11.236"	"29.422"	"1.03"	"74.667"	"209.161"	"252.104"	"354.739"	"292.037"	"219.25"	"98.616"	"0.013"
"1918"	"3.672"	"0"	"34.372"	"23.582"	"167.138"	"87.244"	"63.571"	"97.992"	"91.367"	"31.385"	"174.301"	"13.719"
"1919"	"4.389"	"0.004"	"0.005"	"20.751"	"115.065"	"484.265"	"342.576"	"129.168"	"231.476"	"114.329"	"131.575"	"3.523"
"1920"	"5.599"	"0"	"1.268"	"60.222"	"102.726"	"143.038"	"245.39"	"131.435"	"150.815"	"107.524"	"6.368"	"0.013"
"1921"	"5.185"	"0"	"21.316"	"59.616"	"24.496"	"183.163"	"289.752"	"143.13"	"53.58"	"190.557"	"144.219"	"0.013"
"1922"	"3.008"	"0.026"	"0"	"40.161"	"115.468"	"197.19"	"409.6"	"146.858"	"48.378"	"78.647"	"126.603"	"1.359"
"1923"	"0.218"	"6.248"	"49.413"	"10.405"	"130.534"	"183.052"	"765.743"	"201.797"	"102.039"	"6.757"	"0.795"	"1.71"
"1924"	"1.239"	"0"	"3.067"	"42.907"	"116.043"	"267.186"	"557.178"	"151.588"	"154.032"	"46.156"	"19.498"	"19.822"
"1925"	"0"	"0"	"3.351"	"27.418"	"219.85"	"200.443"	"251.207"	"203.068"	"84.559"	"84.886"	"91.312"	"36.93"
"1926"	"11.24"	"0.003"	"0.589"	"18.38"	"99.345"	"389.227"	"490.745"	"276.731"	"93.41"	"99.515"	"1.662"	"0.048"
"1927"	"0"	"0.001"	"11.213"	"15.166"	"79.596"	"142.161"	"351.014"	"102.082"	"183.133"	"22.988"	"119.905"	"0.013"
"1928"	"0"	"11.744"	"8.475"	"25.187"	"105.03"	"490.46"	"261.828"	"370.694"	"33.865"	"318.128"	"8.008"	"9.678"
"1929"	"2.916"	"0.315"	"0"	"106.328"	"141.379"	"322.313"	"219.775"	"172.621"	"153.42"	"126.717"	"122.842"	"2.327"
"1930"	"4.475"	"0.144"	"33.611"	"16.365"	"120.304"	"247.338"	"153.356"	"155.594"	"142.583"	"263.052"	"5.688"	"37.943"
"1931"	"0"	"0"	"1.701"	"15.605"	"119.472"	"340.362"	"263.319"	"283.998"	"151.536"	"55.519"	"130.163"	"35.331"
"1932"	"0"	"0.001"	"0"	"18.042"	"119.632"	"137.542"	"468.162"	"520.68"	"94.705"	"238.784"	"163.084"	"2.14"
"1933"	"0"	"1.912"	"28.11"	"47.8"	"195.576"	"255.313"	"363.493"	"551.701"	"231.459"	"240.296"	"16.877"	"14.99"
"1934"	"5.443"	"0"	"0"	"38.451"	"123.411"	"353.799"	"266.338"	"207.305"	"53.565"	"185.679"	"25.874"	"0.013"
"1935"	"2.097"	"0"	"10.51"	"31.053"	"37.391"	"539.562"	"267.756"	"357.597"	"66.671"	"199.413"	"5.923"	"0.144"
"1936"	"1.579"	"10.81"	"21.494"	"58.579"	"82.936"	"358.993"	"166.93"	"107.098"	"161.618"	"81.958"	"146.239"	"3.8"
"1937"	"0"	"2.637"	"12.136"	"45.58"	"47.376"	"126.891"	"392.375"	"109.156"	"155.629"	"118.437"	"0.614"	"16.857"
"1938"	"0"	"0.004"	"23.345"	"37.221"	"47.384"	"181.943"	"207.598"	"537.616"	"188.501"	"44.019"	"13.361"	"0.056"
"1939"	"0"	"0"	"10.546"	"78.698"	"22.255"	"330.354"	"343.424"	"517.864"	"73.599"	"183.694"	"124.784"	"0.013"
"1940"	"0"	"0"	"0"	"41.019"	"93.417"	"270.98"	"462.175"	"312.509"	"96.039"	"239.627"	"57.768"	"11.469"
"1941"	"6.055"	"10.368"	"0"	"39.632"	"63.032"	"280.026"	"263.027"	"299.9"	"141.665"	"130.234"	"11.089"	"35.626"
"1942"	"0"	"7.66"	"0"	"37.136"	"132.187"	"513.266"	"514.625"	"226.855"	"56.875"	"74.002"	"6.167"	"17.121"
"1943"	"1.305"	"0"	"2.174"	"20.537"	"196.963"	"127.79"	"329.305"	"115.406"	"137.813"	"227.429"	"41.718"	"0.013"
"1944"	"0"	"13.812"	"19.405"	"28.666"	"96.323"	"222.279"	"496.303"	"81.516"	"58.225"	"216.411"	"91.987"	"0.126"
"1945"	"0.492"	"0"	"0"	"32.307"	"46.966"	"192.367"	"424.728"	"149.024"	"68.602"	"43.149"	"22.733"	"0.013"
"1946"	"0"	"4.726"	"18.48"	"72.484"	"112.818"	"255.823"	"387.117"	"300.57"	"158.615"	"119.383"	"132.009"	"14.49"
"1947"	"5.217"	"0.637"	"6.635"	"13.924"	"33.487"	"274.96"	"374.406"	"551.297"	"123.654"	"114.115"	"5.235"	"17.715"
"1948"	"5.551"	"0"	"8.012"	"34.008"	"188.102"	"252.541"	"426.882"	"545.478"	"70.122"	"76.832"	"162.258"	"0.139"
"1949"	"0"	"0"	"1.76"	"13.148"	"142.802"	"177.741"	"217.432"	"227.029"	"118.936"	"118.341"	"21.048"	"0.013"
"1950"	"0"	"10.322"	"0"	"2.885"	"139.651"	"179.573"	"449.766"	"330.526"	"209.505"	"92.75"	"87"	"0.016"
"1951"	"0"	"0"	"28.085"	"48.205"	"177.874"	"399.838"	"354.549"	"94.136"	"192.965"	"170.904"	"22.954"	"0.013"
"1952"	"0"	"6.482"	"0"	"31.463"	"95.75"	"154.243"	"297.932"	"209.294"	"65.184"	"216.464"	"0.546"	"15.082"
"1953"	"0.291"	"0"	"1.868"	"83.242"	"19.179"	"274.4"	"609.684"	"197.581"	"88.528"	"263.161"	"0.617"	"0.013"
"1954"	"0.039"	"0.003"	"2.595"	"89.177"	"173.71"	"163.143"	"478.059"	"253.539"	"55.305"	"228.1"	"1.603"	"27.884"
"1955"	"0"	"0.02"	"27.126"	"71.529"	"332.417"	"242.816"	"196.222"	"318.071"	"249.872"	"189.834"	"24.714"	"0.606"
"1956"	"0"	"3.635"	"0.029"	"108.524"	"97.593"	"318.084"	"486.988"	"204.601"	"70.892"	"244.999"	"181.874"	"0.02"
"1957"	"0"	"0.038"	"6.446"	"9.962"	"147.217"	"444.376"	"337.191"	"255.473"	"35.744"	"215.291"	"106.882"	"0.013"
"1958"	"0.019"	"0.001"	"26.162"	"33.363"	"176.55"	"346.28"	"477.174"	"382.487"	"134.792"	"156.669"	"46.632"	"1.257"
"1959"	"0"	"0.005"	"0"	"17.637"	"129.494"	"571.904"	"641.883"	"184.193"	"181.106"	"28.057"	"68.58"	"2.589"
"1960"	"0.068"	"0"	"24.08"	"44.407"	"152.384"	"200.11"	"357.26"	"119.283"	"118.702"	"110.725"	"39.698"	"0.013"
"1961"	"0"	"0.004"	"0.605"	"43.674"	"285.915"	"312.121"	"694.205"	"189.954"	"84.755"	"196.218"	"2.442"	"0.013"
"1962"	"0"	"6.277"	"21.67"	"67.995"	"155.282"	"107.782"	"338.982"	"255.585"	"111.429"	"192.385"	"41.021"	"65.427"
"1963"	"0.048"	"0.032"	"58.757"	"74.014"	"72.917"	"201.829"	"273.015"	"307.413"	"76.635"	"203.54"	"9.064"	"2.928"
"1964"	"0"	"0"	"0.607"	"15.906"	"43.907"	"216.392"	"656.733"	"399.873"	"153.131"	"106.542"	"37.308"	"2.828"
"1965"	"3.961"	"1.871"	"2.509"	"13.971"	"62.285"	"241.117"	"328.133"	"223.88"	"100.72"	"6.598"	"39.681"	"49.818"
"1966"	"8.587"	"0.013"	"3.735"	"33.68"	"143.287"	"165.031"	"578.484"	"60.076"	"191.57"	"188.449"	"182.72"	"15.808"
"1967"	"6.994"	"0"	"5.69"	"32.257"	"75.968"	"178.114"	"511.348"	"160.325"	"47.996"	"139.102"	"3.905"	"9.35"
"1968"	"0"	"11.366"	"7.784"	"50.654"	"61.757"	"235.198"	"297.933"	"105.036"	"203.14"	"163.261"	"20.027"	"1.047"
"1969"	"0"	"0"	"5.956"	"59.634"	"102.986"	"103.46"	"338.34"	"433.758"	"94.246"	"190.33"	"38.562"	"3.633"
"1970"	"0.783"	"0"	"0.14"	"49.606"	"215.26"	"170.89"	"291.206"	"248.224"	"102.575"	"163.179"	"3.824"	"0.031"
"1971"	"0"	"0"	"0.01"	"37.907"	"83.39"	"343.349"	"182.782"	"303.612"	"146.738"	"46.236"	"4.304"	"4.685"
"1972"	"0"	"0.003"	"0.221"	"16.666"	"136.771"	"199.216"	"349.732"	"124.705"	"198.589"	"96.078"	"17.784"	"14.993"
"1973"	"0"	"0"	"0"	"25.24"	"99.052"	"507.327"	"544.634"	"407.017"	"69.666"	"211.684"	"21.649"	"9.357"
"1974"	"0"	"0"	"30.226"	"39.275"	"131.002"	"115.733"	"350.123"	"230.281"	"320.483"	"120.675"	"0.56"	"0.013"
"1975"	"3.334"	"0.027"	"2.755"	"25.921"	"128.806"	"297.694"	"451.182"	"230.986"	"164.857"	"106.978"	"88.386"	"2.288"
"1976"	"0"	"0"	"0.874"	"100.21"	"10.699"	"308.8"	"252.742"	"149.97"	"58.691"	"29.686"	"89.04"	"0.013"
"1977"	"0"	"0.399"	"6.687"	"44.218"	"187.376"	"211.672"	"310.095"	"300.267"	"154.039"	"197.595"	"139.843"	"0.013"
"1978"	"0"	"15.422"	"0.214"	"72.275"	"172.71"	"275.727"	"433.127"	"211.168"	"93.949"	"120.354"	"103.72"	"42.677"
"1979"	"0"	"1.716"	"8.785"	"46.343"	"58.316"	"349.787"	"171.318"	"357.125"	"157.511"	"91.459"	"133.79"	"0.013"
"1980"	"0"	"0"	"0.151"	"55.298"	"61.091"	"253.097"	"348.539"	"165.855"	"197.123"	"86.357"	"121.869"	"1.814"
"1981"	"0.278"	"0"	"22.21"	"32.725"	"78.137"	"113.589"	"187.296"	"365.166"	"144.266"	"127.857"	"48.165"	"0.643"
"1982"	"0"	"0"	"0.003"	"24.791"	"105.367"	"252.453"	"250.914"	"197.57"	"134.374"	"120.88"	"68.106"	"0.121"
"1983"	"0"	"0"	"0"	"0.423"	"85.959"	"462.151"	"207.744"	"359.604"	"154.564"	"109.133"	"24.289"	"29.788"
"1984"	"0.093"	"1.683"	"66.968"	"101.188"	"40.944"	"325.762"	"278.157"	"97.547"	"165.39"	"163.452"	"10.508"	"11.592"
"1985"	"0.668"	"0"	"9.937"	"18.421"	"76.487"	"224.058"	"215.09"	"179.642"	"71.718"	"102.27"	"34.385"	"1.285"
"1986"	"4.506"	"3.024"	"0"	"22.683"	"39.29"	"305.78"	"201.504"	"218.986"	"153.65"	"61.771"	"87.5"	"8.354"
"1987"	"0.171"	"0.382"	"15.145"	"29.844"	"97.62"	"196.252"	"175.756"	"182.022"	"129.999"	"120.529"	"31.352"	"40.473"
"1988"	"0"	"0.882"	"0.099"	"72.245"	"82.924"	"213.246"	"548.791"	"350.752"	"261.612"	"31.151"	"12.176"	"13.627"
"1989"	"0"	"0"	"17.467"	"53.108"	"61.403"	"275.121"	"470.768"	"101.849"	"136.312"	"95.598"	"5.413"	"1.666"
"1990"	"0.216"	"0"	"2.694"	"34.847"	"117.879"	"175.746"	"174.323"	"192.249"	"50.68"	"123.002"	"41.44"	"1.689"
"1991"	"0"	"0"	"0.048"	"83.505"	"129.422"	"389.921"	"327.925"	"222.254"	"135.464"	"155.014"	"20.551"	"0.013"
"1992"	"0"	"0"	"0"	"20.518"	"84.442"	"438.605"	"371.827"	"220.21"	"196.276"	"163.294"	"124.776"	"0.013"
"1993"	"0"	"0"	"30.402"	"35.186"	"81.763"	"316.038"	"364.975"	"221.652"	"89.641"	"179.253"	"18.008"	"35.379"
"1994"	"0.404"	"0.155"	"7.75"	"52.653"	"51.269"	"271.205"	"480.159"	"191.138"	"64.635"	"227.062"	"15.054"	"1.871"
"1995"	"6.068"	"0"	"8.62"	"30.277"	"94.977"	"191.222"	"289.273"	"263.264"	"145.57"	"197.771"	"15.296"	"0.013"
"1996"	"0"	"0.382"	"0.283"	"59.131"	"60.137"	"465.803"	"204.247"	"309.337"	"168.754"	"179.388"	"11.28"	"4.184"
"1997"	"3.497"	"0"	"20.188"	"52.127"	"40.885"	"322.108"	"210.781"	"349.02"	"81.071"	"199.158"	"98.453"	"40.356"
"1998"	"0"	"0.065"	"0.076"	"41.317"	"78.671"	"289.793"	"494.15"	"419.911"	"131.106"	"139.846"	"52.601"	"11.135"
"1999"	"0"	"2.149"	"0.187"	"33.661"	"134.978"	"269.812"	"366.753"	"131.624"	"61.695"	"252.384"	"24.959"	"0.275"
"2000"	"0"	"2.55"	"0"	"59.438"	"76.22"	"232.72"	"325.513"	"322.932"	"189.933"	"180.729"	"13.103"	"3.253"
"2001"	"0.404"	"0.03"	"4.393"	"66.231"	"40.701"	"133.976"	"257.108"	"157.919"	"116.64"	"132.171"	"47.62"	"2.84"
"2002"	"0.404"	"0.711"	"1.001"	"21.909"	"107.608"	"397.448"	"98.396"	"188.965"	"33.232"	"198.204"	"11.583"	"0.882"
