
"Year"	"Jan"	"Feb"	"Mar"	"Apr"	"May"	"Jun"	"Jul"	"Aug"	"Sep"	"Oct"	"Nov"	"Dec"
"1901"	"18.573"	"74.692"	"8.47"	"10.738"	"42.321"	"99.056"	"211.966"	"249.831"	"252.262"	"31.555"	"45.078"	"0"
"1902"	"9.284"	"2.36"	"6.377"	"19.234"	"34.872"	"140.461"	"315.404"	"361.717"	"254.029"	"16.501"	"1.37"	"15.595"
"1903"	"4.373"	"37.489"	"5.693"	"4.982"	"25.764"	"145.402"	"462.456"	"243.293"	"212.147"	"78.111"	"6.22"	"0.685"
"1904"	"0.466"	"7.287"	"40.412"	"0.698"	"131.558"	"230.883"	"326.736"	"573.813"	"147.615"	"59.876"	"0.697"	"3.604"
"1905"	"4.901"	"20.148"	"60.149"	"80.633"	"74.245"	"67.28"	"391.476"	"381.364"	"423.109"	"17.634"	"0.008"	"0.506"
"1906"	"4.633"	"83.772"	"32.164"	"0.212"	"10.178"	"214.151"	"444.951"	"249.171"	"190.739"	"61.019"	"10.481"	"1.372"
"1907"	"0"	"41.921"	"54.111"	"106.154"	"30.638"	"283.004"	"176.597"	"348.738"	"90.796"	"9.376"	"1.809"	"12.892"
"1908"	"12.307"	"24.404"	"6.22"	"7.011"	"33.71"	"332.401"	"306.175"	"451.774"	"177.794"	"55.386"	"0.008"	"0.104"
"1909"	"0.393"	"28.013"	"0.263"	"78.337"	"10.062"	"227.74"	"337.739"	"297.25"	"168.304"	"8.9"	"0.008"	"4.363"
"1910"	"9.876"	"3.491"	"20.487"	"12.262"	"14.624"	"233.654"	"380.536"	"592.27"	"176.769"	"63.088"	"13.985"	"0"
"1911"	"1.599"	"2.002"	"36.661"	"4.3"	"20.979"	"433.901"	"103.692"	"322.968"	"318.738"	"49.41"	"25.548"	"0"
"1912"	"0.123"	"46.251"	"18.375"	"18.665"	"28.449"	"131.59"	"293.025"	"359.748"	"151.697"	"31.82"	"45.431"	"0"
"1913"	"0"	"64.337"	"38.554"	"3.201"	"40.909"	"218.957"	"387.14"	"303.512"	"120.651"	"83.99"	"9.223"	"4.618"
"1914"	"0.505"	"48.192"	"23.46"	"74.095"	"50.116"	"209.383"	"246.14"	"325.681"	"249.106"	"4.786"	"0.008"	"6.817"
"1915"	"3.991"	"51.905"	"54.047"	"28.956"	"21.75"	"158.258"	"242.068"	"503.411"	"271.967"	"70.094"	"44.089"	"0"
"1916"	"0"	"12.51"	"0.263"	"5.853"	"10.445"	"384.573"	"304.273"	"382.393"	"148.652"	"115.414"	"34.351"	"0"
"1917"	"0.427"	"117.351"	"18.25"	"13.397"	"66.18"	"256.638"	"221.604"	"628.879"	"133.764"	"174.685"	"3.967"	"0.227"
"1918"	"0.698"	"0.343"	"17.413"	"10.759"	"44.492"	"330.945"	"215.828"	"438.611"	"216.491"	"5.226"	"0.389"	"1.452"
"1919"	"42.309"	"29.177"	"18.547"	"20.067"	"43.304"	"276.234"	"446.387"	"598.51"	"122.161"	"84.001"	"25.919"	"0.629"
"1920"	"0.162"	"21.364"	"71.926"	"0.212"	"26.432"	"124.297"	"421.557"	"452.144"	"139.7"	"41.301"	"0.008"	"0"
"1921"	"38.294"	"9.585"	"2.797"	"20.497"	"4.312"	"283.921"	"348.972"	"436.654"	"191.471"	"34.955"	"0.008"	"0"
"1922"	"6.809"	"5.717"	"0.263"	"8.62"	"9.873"	"300.131"	"297.849"	"430.36"	"318.327"	"45.093"	"17.092"	"0.227"
"1923"	"0"	"107.926"	"4.406"	"14.456"	"3.783"	"117.877"	"335.941"	"450.004"	"242.552"	"49.907"	"23.902"	"4.513"
"1924"	"16.569"	"18.955"	"0.644"	"16.259"	"21.446"	"62.918"	"279.377"	"327.842"	"271.006"	"67.257"	"45.176"	"0"
"1925"	"0.162"	"2.7"	"6.648"	"39.461"	"85.164"	"416.654"	"382.577"	"473.067"	"113.501"	"108.429"	"8.108"	"11.397"
"1926"	"3.027"	"4.691"	"99.181"	"28.509"	"52.109"	"121.125"	"350.571"	"408.57"	"261.667"	"46.682"	"2.872"	"3.107"
"1927"	"1.341"	"22.789"	"140.038"	"5.093"	"19.148"	"126.243"	"405.804"	"520.141"	"179.588"	"27.486"	"12.339"	"0"
"1928"	"1.797"	"7.197"	"1.235"	"55.633"	"61.266"	"225.204"	"407.643"	"342.966"	"217.893"	"151.793"	"1.884"	"0.594"
"1929"	"5.933"	"33.847"	"12.632"	"25.443"	"31.539"	"148.303"	"249.657"	"525.729"	"99.13"	"177.657"	"0.008"	"8.056"
"1930"	"0.631"	"8.729"	"2.994"	"32.329"	"62.336"	"169.649"	"499.876"	"325.495"	"217.149"	"32.223"	"44.441"	"2.669"
"1931"	"1.841"	"37.565"	"23.351"	"5.255"	"18.871"	"102.562"	"304.483"	"440.786"	"234.18"	"111.901"	"25.341"	"3.656"
"1932"	"0"	"27.383"	"2.62"	"52.401"	"49.162"	"72.499"	"379.513"	"384.548"	"184.946"	"32.723"	"46.014"	"0.418"
"1933"	"15.643"	"18.53"	"2.284"	"39.209"	"41.862"	"286.021"	"367.624"	"396.35"	"217.671"	"86.227"	"4.431"	"1.122"
"1934"	"1.993"	"9.494"	"3.751"	"10.234"	"4.925"	"227.836"	"332.935"	"516.777"	"184.793"	"45.052"	"16.492"	"0.227"
"1935"	"1.225"	"8.74"	"5.85"	"33.729"	"4.015"	"141.775"	"296.729"	"412.252"	"170.836"	"25.549"	"0.008"	"0"
"1936"	"3.101"	"66.845"	"16.843"	"8.218"	"99.001"	"466.43"	"474.669"	"401.597"	"218.976"	"109.408"	"10.05"	"3.435"
"1937"	"0"	"97.705"	"7.083"	"56.958"	"27.373"	"168.135"	"374.725"	"346.5"	"168.923"	"101.628"	"0.008"	"0"
"1938"	"7.81"	"19.223"	"2.002"	"2.034"	"113.234"	"209.017"	"189.481"	"326.139"	"343.305"	"57.838"	"4.043"	"0"
"1939"	"7.767"	"9.727"	"27.919"	"7.824"	"11.685"	"160.989"	"367.173"	"402.402"	"274.364"	"68.415"	"4.313"	"1.137"
"1940"	"0"	"44.331"	"160.065"	"21.706"	"47.206"	"236.225"	"323.092"	"526.972"	"215.902"	"32.214"	"3.233"	"2.61"
"1941"	"17.618"	"3.965"	"10.389"	"1.992"	"41.249"	"264.182"	"232.81"	"405.165"	"215.145"	"104.187"	"14.134"	"0"
"1942"	"5.772"	"49.668"	"22.566"	"40.599"	"6.887"	"128.827"	"376.658"	"477.339"	"290.006"	"37.759"	"15.226"	"0"
"1943"	"15.976"	"4.969"	"5.188"	"84.734"	"18.671"	"156.157"	"419.49"	"558.934"	"159.083"	"80.7"	"3.812"	"0"
"1944"	"15.413"	"105.889"	"141.031"	"47.628"	"19.933"	"150.29"	"361.676"	"464.394"	"159.144"	"76.843"	"1.623"	"0"
"1945"	"6.831"	"12.966"	"2.024"	"81.197"	"31.168"	"142.323"	"379.203"	"185.366"	"264.25"	"121.354"	"3.498"	"9.62"
"1946"	"0"	"7.765"	"15.782"	"29.008"	"41.865"	"317.745"	"435.087"	"542.797"	"229.39"	"97.353"	"43.608"	"0.418"
"1947"	"16.987"	"52.896"	"23.627"	"8.163"	"11.267"	"235.191"	"419.452"	"333.467"	"297.009"	"49.323"	"2.799"	"8.722"
"1948"	"12.019"	"82.983"	"25.328"	"60.512"	"23.621"	"189.6"	"304.208"	"382.105"	"258.251"	"42.669"	"48.572"	"0.418"
"1949"	"0.052"	"14.329"	"15.93"	"25.901"	"54.285"	"123.15"	"259.098"	"443.85"	"267.019"	"113.081"	"0.008"	"0"
"1950"	"1.546"	"23.028"	"71.903"	"25.693"	"13.796"	"190.134"	"300.788"	"302.528"	"75.636"	"41.824"	"25.814"	"2.444"
"1951"	"1.179"	"1.662"	"54.564"	"56.891"	"13.937"	"154.441"	"386.293"	"432.806"	"256.719"	"44.408"	"21.572"	"0"
"1952"	"0.512"	"8.156"	"43.611"	"56.426"	"17.271"	"240.434"	"272.012"	"308.166"	"194.253"	"86.543"	"0.008"	"2.546"
"1953"	"17.327"	"0.326"	"0.263"	"4.283"	"4.474"	"133.602"	"194.288"	"538.011"	"265.179"	"31.903"	"34.537"	"0"
"1954"	"1.424"	"31.737"	"1.373"	"0.815"	"34.317"	"258.232"	"65.004"	"175.154"	"291.842"	"58.908"	"0.008"	"5.905"
"1955"	"3.249"	"5.533"	"26.092"	"24.849"	"52.783"	"146.713"	"196.265"	"350.358"	"295.281"	"141.978"	"22.61"	"0"
"1956"	"2.804"	"48.124"	"11.439"	"21.651"	"83.871"	"378.657"	"658.715"	"631.401"	"325.015"	"81.102"	"10.944"	"1.849"
"1957"	"7.897"	"15.044"	"23.884"	"7.703"	"5.079"	"110.217"	"404.66"	"444.239"	"108.036"	"31.215"	"0.008"	"0"
"1958"	"15.341"	"51.826"	"18.87"	"75.343"	"8.311"	"140.201"	"606.602"	"312.199"	"236.778"	"125.887"	"36.223"	"0"
"1959"	"10.36"	"11.725"	"1.506"	"7.146"	"52.892"	"196.15"	"366.527"	"208.414"	"170.531"	"139.936"	"0.008"	"3.233"
"1960"	"0.969"	"0.299"	"33.934"	"6.768"	"26.299"	"173.628"	"515.012"	"434.968"	"123.541"	"48.425"	"0.008"	"2.283"
"1961"	"24.944"	"94.991"	"0.771"	"3.709"	"39.993"	"214.889"	"199.13"	"490.667"	"319.529"	"78.238"	"3.883"	"2.264"
"1962"	"1.717"	"20.605"	"3.765"	"4.915"	"4.698"	"169.722"	"480.636"	"226.473"	"253.33"	"126.401"	"0.806"	"3.759"
"1963"	"1.612"	"2.312"	"28.817"	"79.55"	"83.624"	"136.113"	"238.525"	"341.645"	"198.521"	"140.269"	"5.392"	"0"
"1964"	"0.472"	"34.797"	"15.757"	"47.019"	"42.809"	"125.138"	"339.313"	"571.169"	"243.288"	"52.078"	"12.581"	"0"
"1965"	"4.465"	"14.429"	"36.401"	"38.223"	"9.449"	"93.435"	"578.827"	"326.567"	"216.957"	"42.959"	"0.008"	"1.021"
"1966"	"37.002"	"18.126"	"0.898"	"0.685"	"4.393"	"213.21"	"130.797"	"248.764"	"203.265"	"36.825"	"33.943"	"5.867"
"1967"	"25.806"	"0.299"	"121.885"	"10.267"	"6.214"	"230.532"	"310.727"	"418.518"	"300.911"	"27.452"	"0.008"	"6.26"
"1968"	"11.275"	"43.187"	"4.635"	"1.754"	"7.96"	"221.946"	"409.863"	"310.677"	"230.223"	"70.293"	"18.77"	"0.966"
"1969"	"0.18"	"2.031"	"28.746"	"18.504"	"37.323"	"91.14"	"475.52"	"296.359"	"211.829"	"18.371"	"26.134"	"6.673"
"1970"	"3.677"	"53.872"	"72.187"	"4.933"	"44.999"	"339.401"	"268.346"	"372.994"	"131.26"	"50.93"	"4.516"	"0"
"1971"	"13.554"	"84.615"	"2.203"	"69.279"	"70.178"	"508.303"	"339.846"	"497.377"	"144.984"	"75.091"	"0.026"	"0"
"1972"	"1.943"	"47.187"	"0.954"	"31.925"	"3.918"	"78.259"	"241.884"	"413.567"	"253.405"	"110.246"	"21.197"	"0.418"
"1973"	"1.801"	"0.533"	"10.953"	"11.6"	"28.743"	"116.688"	"243.139"	"431.21"	"149.909"	"121.134"	"8.361"	"19.625"
"1974"	"0.175"	"2.747"	"77.092"	"1.101"	"23.365"	"131.45"	"348.603"	"308.983"	"138.719"	"111.847"	"10.53"	"0"
"1975"	"1.891"	"10"	"23.381"	"1.001"	"19.526"	"270.912"	"471.92"	"301.059"	"215.844"	"110.252"	"17.145"	"0"
"1976"	"2.362"	"2.9"	"2.408"	"77.096"	"28.187"	"87.785"	"502.822"	"402.198"	"309.829"	"23.63"	"18.39"	"0.315"
"1977"	"1.619"	"2.206"	"0.263"	"54.582"	"105.842"	"205.949"	"433.867"	"406.739"	"236.054"	"51.728"	"43.693"	"3.325"
"1978"	"2.649"	"49.067"	"46.278"	"44.564"	"35.629"	"243.949"	"420.157"	"457.938"	"240.733"	"54.506"	"8.627"	"28.353"
"1979"	"2.28"	"30.885"	"2.671"	"25.182"	"2.229"	"162.478"	"297.335"	"194.352"	"152.003"	"18.166"	"11.084"	"4.845"
"1980"	"29.948"	"44.862"	"38.602"	"8.504"	"24.31"	"320.087"	"389.875"	"406.976"	"208.877"	"46.642"	"0.008"	"9.034"
"1981"	"15.776"	"16.73"	"82.133"	"18.169"	"34.926"	"105.306"	"335.37"	"357.721"	"304.056"	"12.073"	"3.307"	"3"
"1982"	"4.138"	"15.104"	"53.561"	"37.608"	"26.05"	"144.955"	"296.827"	"487.029"	"187.355"	"9.589"	"18.422"	"0.64"
"1983"	"0.819"	"50.265"	"36.392"	"15.999"	"54.292"	"172.372"	"332.785"	"325.118"	"148.338"	"77.421"	"1.337"	"2.065"
"1984"	"13.884"	"21.538"	"3.012"	"22.652"	"38.841"	"410.444"	"310.951"	"384.53"	"111.573"	"41.956"	"0.85"	"0"
"1985"	"21.15"	"3.226"	"3.049"	"8.389"	"19.973"	"220.925"	"404.412"	"360.285"	"180.354"	"117.991"	"0.008"	"0.287"
"1986"	"18.995"	"42.781"	"2.551"	"20.42"	"26.83"	"187.429"	"394.875"	"366.044"	"270.847"	"34.39"	"45.002"	"3.501"
"1987"	"3.686"	"6.282"	"15.912"	"19.37"	"35.153"	"66.434"	"335.579"	"466.816"	"227.45"	"47.375"	"32.56"	"2.889"
"1988"	"1.022"	"26.351"	"20.947"	"20.669"	"51.89"	"125.367"	"388.843"	"317.661"	"226.103"	"41.561"	"0.877"	"0.28"
"1989"	"0.219"	"0.299"	"34.751"	"3.119"	"98.366"	"288.65"	"301.005"	"339.077"	"145.392"	"64.285"	"4.916"	"7.718"
"1990"	"0.003"	"74.626"	"70.025"	"9.957"	"71.577"	"286.895"	"600.213"	"411.731"	"174.096"	"134.41"	"14.383"	"1.507"
"1991"	"8.177"	"7.329"	"41.94"	"14.431"	"13.991"	"181.135"	"378.961"	"464.495"	"148.297"	"53.088"	"8.49"	"12.1"
"1992"	"8.214"	"6.033"	"0.263"	"5.917"	"96.982"	"143.642"	"390.405"	"267.311"	"155.93"	"40.88"	"8.402"	"0"
"1993"	"0.859"	"0.376"	"38.166"	"22.465"	"36.033"	"263.164"	"354.84"	"288.581"	"210.655"	"114.455"	"5.382"	"0"
"1994"	"5.983"	"26.314"	"36.735"	"19.506"	"19.12"	"255.744"	"426.56"	"396.611"	"185.681"	"124.238"	"5.996"	"0"
"1995"	"7.292"	"14.263"	"57.841"	"8.802"	"50.69"	"118.914"	"416.691"	"268.714"	"198.598"	"91.439"	"18.326"	"0"
"1996"	"6.765"	"11.059"	"11.35"	"22.876"	"15.504"	"221.396"	"285.343"	"399.956"	"83.918"	"76.489"	"8.461"	"0"
"1997"	"16.941"	"7.486"	"65.03"	"33.167"	"30.226"	"147.262"	"349.427"	"348.739"	"212.186"	"20.771"	"33.304"	"14.878"
"1998"	"8.775"	"63.449"	"11.462"	"17.752"	"50.391"	"175.73"	"268.176"	"206.606"	"233.335"	"161.05"	"50.607"	"0"
"1999"	"2.42"	"3.153"	"0.263"	"0.212"	"82.716"	"199.521"	"249.938"	"608.786"	"135.479"	"48.424"	"7.681"	"0"
"2000"	"1.323"	"87.16"	"0.263"	"26.21"	"39.603"	"329.318"	"224.98"	"299.416"	"127.658"	"24.265"	"4.687"	"0.258"
"2001"	"0.353"	"2.275"	"43.352"	"19.398"	"45.796"	"329.329"	"308.278"	"403.02"	"116.568"	"71.665"	"24.033"	"0"
"2002"	"35.971"	"10.558"	"8.711"	"25.435"	"52.466"	"166.702"	"275.308"	"447.131"	"168.093"	"42.242"	"16.505"	"0"
