
"Year"	"Jan"	"Feb"	"Mar"	"Apr"	"May"	"Jun"	"Jul"	"Aug"	"Sep"	"Oct"	"Nov"	"Dec"
"1901"	"32.423"	"20.964"	"51.974"	"183.162"	"166.427"	"371.051"	"320.247"	"341.394"	"293.829"	"132.749"	"111.633"	"8.765"
"1902"	"18.733"	"22.953"	"71.226"	"239.843"	"265.691"	"371.253"	"531.452"	"388.564"	"478.86"	"61.818"	"8.505"	"1.752"
"1903"	"35.093"	"36.942"	"97.994"	"135.262"	"205.692"	"464.753"	"273.701"	"497.415"	"235.79"	"145.787"	"39.526"	"2.624"
"1904"	"28.583"	"43.037"	"97.448"	"294.081"	"252.784"	"214.216"	"321.315"	"473.954"	"174.569"	"49.752"	"38.408"	"2.92"
"1905"	"32.944"	"17.661"	"107.6"	"152.518"	"182.794"	"207.191"	"374.461"	"475.698"	"117.489"	"73.305"	"32.746"	"34.82"
"1906"	"20.386"	"63.692"	"92.147"	"332.046"	"161.931"	"329.321"	"334.526"	"383.729"	"160.646"	"87.596"	"24.84"	"0.998"
"1907"	"19.96"	"58.509"	"106.169"	"240.36"	"186.624"	"369.811"	"462.604"	"258.145"	"311.022"	"20.308"	"0.748"	"9.039"
"1908"	"20.574"	"36.424"	"32.547"	"257.323"	"304.187"	"527.258"	"545.178"	"204"	"303.916"	"84.765"	"6.173"	"1.324"
"1909"	"60.737"	"9.538"	"9.301"	"171.955"	"337.998"	"555.097"	"330.331"	"435.64"	"134.56"	"82.126"	"6.698"	"3.093"
"1910"	"13.807"	"44.165"	"127.281"	"148.609"	"151.054"	"631.784"	"425.625"	"321.599"	"120.844"	"251.066"	"21.277"	"35.333"
"1911"	"47.439"	"31.967"	"54.814"	"178.613"	"383.079"	"377.149"	"437.038"	"329.886"	"275.933"	"277.679"	"45.533"	"6.936"
"1912"	"17.255"	"77.159"	"63.336"	"167.933"	"188.25"	"366.127"	"548.708"	"417.408"	"293.18"	"124.059"	"33.727"	"11.383"
"1913"	"17.673"	"72.951"	"68.078"	"327.229"	"460.725"	"356.443"	"280.24"	"318.452"	"222.742"	"300.645"	"5.142"	"67.406"
"1914"	"8.19"	"48.646"	"72.083"	"160.066"	"188.911"	"258.371"	"430.442"	"397.932"	"180.007"	"70.108"	"18.474"	"4.989"
"1915"	"8.802"	"51.152"	"110.965"	"117.585"	"383.434"	"463.777"	"639.763"	"403.306"	"237.129"	"128.361"	"18.505"	"11.445"
"1916"	"29.07"	"27.311"	"93.249"	"170.101"	"371.822"	"409.691"	"389.806"	"354.432"	"149.828"	"99.802"	"18.034"	"9.221"
"1917"	"16.608"	"108.465"	"42.52"	"219.429"	"204.151"	"518.464"	"550.391"	"361.008"	"218.483"	"129.552"	"34.729"	"0.694"
"1918"	"11.512"	"26.429"	"97.094"	"97.411"	"213.271"	"610.575"	"446.171"	"309.776"	"222.072"	"79.098"	"5.183"	"1.156"
"1919"	"13.119"	"30.982"	"10.634"	"121.069"	"301.669"	"434.005"	"535.332"	"188.925"	"274.433"	"293.384"	"19.628"	"1.389"
"1920"	"14.689"	"54.741"	"143.407"	"102.575"	"205.929"	"381.897"	"337.714"	"357.103"	"210.055"	"67.361"	"2.679"	"18.197"
"1921"	"35.867"	"36.411"	"120.045"	"285.023"	"395.12"	"375.373"	"274.737"	"476.344"	"311.835"	"189.253"	"10.678"	"26.536"
"1922"	"32.218"	"13.638"	"45.654"	"113.058"	"207.88"	"358.234"	"438.88"	"416.753"	"204.975"	"99.444"	"11.68"	"7.359"
"1923"	"2.247"	"77.839"	"10.684"	"147.598"	"345.851"	"390.931"	"552.271"	"279.685"	"374.724"	"68.46"	"14.357"	"13.111"
"1924"	"14.898"	"32.149"	"31.925"	"114.557"	"347.681"	"364.644"	"634.272"	"418.711"	"274.941"	"161.377"	"61.596"	"1.324"
"1925"	"19.513"	"32.11"	"75.532"	"123.357"	"430.731"	"372.317"	"448.675"	"356.766"	"313.205"	"62.586"	"2.591"	"1.156"
"1926"	"16.662"	"14.896"	"94.637"	"133.621"	"279.302"	"317.079"	"513.489"	"211.017"	"125.766"	"238.266"	"44.885"	"12.388"
"1927"	"33.5"	"70.407"	"100.234"	"210.042"	"173.219"	"358.3"	"418.951"	"360.034"	"475.248"	"243.215"	"14.616"	"0.892"
"1928"	"13.234"	"23.97"	"76.144"	"117.273"	"377.603"	"443.431"	"365.324"	"422.126"	"326.926"	"186.122"	"36.32"	"9.22"
"1929"	"17.411"	"13.18"	"56.148"	"158.837"	"570.905"	"386.076"	"303.093"	"330.222"	"185.029"	"97.112"	"49.561"	"7.9"
"1930"	"16.137"	"28.225"	"67.33"	"242.802"	"99.428"	"414.796"	"210.404"	"425.129"	"452.549"	"278.467"	"79.037"	"9.332"
"1931"	"11.287"	"64.004"	"45.583"	"309.149"	"271.345"	"534.576"	"559.316"	"278.905"	"235.043"	"134.693"	"20.033"	"60.144"
"1932"	"40.812"	"44.197"	"55.191"	"108.466"	"432.348"	"525.253"	"357.15"	"379.566"	"235.979"	"152.132"	"101.221"	"50.732"
"1933"	"21.966"	"57.712"	"31.898"	"190.244"	"237.047"	"466.09"	"337.3"	"498.629"	"121.817"	"106.348"	"4.524"	"6.662"
"1934"	"21.108"	"56.693"	"22.783"	"272.573"	"377.679"	"542.426"	"376.134"	"226.763"	"240.487"	"122.731"	"32.922"	"9.292"
"1935"	"14.279"	"55.978"	"57.937"	"95.739"	"206.933"	"601.75"	"424.801"	"350.644"	"334.078"	"13.632"	"23.13"	"8.647"
"1936"	"36.086"	"82.226"	"47.564"	"145.337"	"274.658"	"532.23"	"467.702"	"295.071"	"298.026"	"97.92"	"47.529"	"39.896"
"1937"	"21.768"	"57.984"	"42.201"	"123.907"	"252.355"	"231.804"	"323.591"	"447.838"	"220.999"	"99.979"	"8.904"	"6.221"
"1938"	"52.606"	"60.95"	"101.639"	"192.447"	"150.712"	"396.48"	"519.559"	"424.41"	"249.169"	"201.864"	"71.357"	"8.489"
"1939"	"8.872"	"47.991"	"27.919"	"151.765"	"251.49"	"451.054"	"359.647"	"187.46"	"308.343"	"117.653"	"0.721"	"1.631"
"1940"	"3.982"	"55.731"	"166.512"	"67.235"	"294.112"	"408.521"	"283.323"	"206.352"	"255.441"	"91.426"	"16.51"	"59.572"
"1941"	"21.299"	"39.546"	"86.406"	"95.667"	"381.977"	"410.366"	"263.719"	"335.954"	"359.72"	"50.688"	"8.448"	"19.952"
"1942"	"4.035"	"31.845"	"127.17"	"163.232"	"402.807"	"411.801"	"306.644"	"328.35"	"317.616"	"7.171"	"8.239"	"0.2"
"1943"	"53.045"	"34.626"	"128.731"	"146.947"	"378.039"	"336.296"	"337.154"	"413.633"	"287.216"	"125.608"	"4.804"	"8.253"
"1944"	"24.766"	"38.086"	"51.034"	"94.489"	"268.726"	"408.198"	"351.437"	"286.368"	"279.774"	"127.649"	"15.234"	"45.203"
"1945"	"36.269"	"41.742"	"63.817"	"110.942"	"304.656"	"469.324"	"516.835"	"295.212"	"240.369"	"188.041"	"0.748"	"26.993"
"1946"	"0.199"	"10.751"	"61.631"	"85.464"	"196.849"	"458.256"	"427.27"	"331.282"	"224.319"	"194.825"	"8.941"	"0.889"
"1947"	"12.612"	"17.784"	"52.902"	"213.385"	"230.876"	"270.643"	"561.424"	"361.823"	"440.583"	"291.255"	"10.317"	"12.312"
"1948"	"18.23"	"34.584"	"78.365"	"221.803"	"654.546"	"358.781"	"591.824"	"336.995"	"127.513"	"140.425"	"25.731"	"10.47"
"1949"	"25.057"	"16.027"	"100.18"	"219.741"	"365.527"	"359.951"	"362.231"	"350.547"	"384.132"	"179.408"	"18.619"	"22.291"
"1950"	"16.769"	"58.434"	"79.622"	"107.073"	"245.843"	"455.232"	"367.819"	"381.547"	"222.874"	"200.314"	"32.231"	"11.969"
"1951"	"12.809"	"21.589"	"75.553"	"174.031"	"201.877"	"535.791"	"373.3"	"211.063"	"186.964"	"145.76"	"60.08"	"51.229"
"1952"	"18.297"	"17.262"	"104.224"	"105.805"	"278.396"	"302.679"	"347.042"	"440.649"	"436.794"	"162.449"	"43.818"	"3.522"
"1953"	"22.794"	"40.13"	"162.293"	"127.427"	"349.099"	"452.111"	"408.784"	"219.127"	"198.031"	"176.452"	"3.601"	"9.875"
"1954"	"32.75"	"85.93"	"32.011"	"221.125"	"343.855"	"377.903"	"428.523"	"450.722"	"328.376"	"152.929"	"0.666"	"50.105"
"1955"	"9.34"	"35.706"	"130.448"	"105.526"	"278.229"	"402.364"	"662.438"	"316.133"	"160.617"	"92.946"	"10.245"	"22.705"
"1956"	"43.149"	"9.848"	"144.428"	"158.674"	"346.721"	"428.932"	"247.472"	"275.655"	"163.443"	"139.197"	"56.31"	"15.01"
"1957"	"43.718"	"53.816"	"29.683"	"176.494"	"336.341"	"460.989"	"433.23"	"267.972"	"240.838"	"86.281"	"29.342"	"32.829"
"1958"	"23.16"	"38.959"	"6.098"	"78.065"	"545.461"	"286.12"	"510.499"	"474.609"	"243.795"	"257.433"	"0.239"	"17.731"
"1959"	"31.046"	"45.896"	"70.334"	"140.4"	"508.661"	"437.728"	"298.049"	"203.686"	"227.386"	"205.54"	"20.923"	"23.135"
"1960"	"2.369"	"32.132"	"20.186"	"78.606"	"252.716"	"340.508"	"512.672"	"337.916"	"239.887"	"16.059"	"10.246"	"20.179"
"1961"	"17.023"	"14.964"	"147.539"	"177.53"	"331.554"	"243.693"	"384.407"	"312.784"	"289.187"	"158.863"	"25.844"	"8.866"
"1962"	"39.217"	"49.8"	"52.984"	"165.663"	"202.46"	"404.824"	"271.909"	"474.686"	"126.318"	"66.168"	"13.739"	"14.695"
"1963"	"7.455"	"19.602"	"35.083"	"135.037"	"218.635"	"308.521"	"459.388"	"331.617"	"136.586"	"108.663"	"26.459"	"10.402"
"1964"	"22.926"	"47.255"	"108.598"	"155.664"	"149.76"	"443.01"	"455.876"	"303.409"	"216.625"	"151.029"	"5.506"	"38.815"
"1965"	"6.255"	"59.577"	"47.264"	"164.223"	"193.03"	"384.206"	"413.587"	"373.767"	"283.539"	"44.019"	"121.796"	"7.258"
"1966"	"12.485"	"21.215"	"20.106"	"123.32"	"302.276"	"526.512"	"367.022"	"565.051"	"211.31"	"76.314"	"39.046"	"6.908"
"1967"	"15.824"	"25.166"	"103.736"	"93.087"	"200.824"	"333.993"	"276.644"	"219.206"	"242.19"	"36.063"	"20.806"	"3.775"
"1968"	"30.391"	"78.406"	"55.726"	"157.488"	"468.462"	"311.334"	"403.161"	"349.652"	"289.334"	"77.263"	"0.602"	"0.2"
"1969"	"50.293"	"2.864"	"129.486"	"107.179"	"194.857"	"283.756"	"440.156"	"440.427"	"155.44"	"78.106"	"13.777"	"4.159"
"1970"	"39.855"	"63.539"	"99.001"	"162.283"	"438.127"	"316.572"	"450.977"	"420.822"	"269.401"	"182.017"	"7.342"	"0.199"
"1971"	"26.879"	"30.266"	"53.911"	"148.689"	"205.266"	"364.44"	"436.556"	"370.337"	"199.821"	"277"	"74.159"	"13.514"
"1972"	"34.665"	"23.252"	"75.576"	"229.694"	"282.464"	"263.747"	"441.733"	"225.045"	"121.609"	"38.271"	"3.421"	"10.427"
"1973"	"23.129"	"42.583"	"19.521"	"244.924"	"261.548"	"606.705"	"234.904"	"340.352"	"366.568"	"78.593"	"26.284"	"47.225"
"1974"	"40.208"	"17.09"	"42.733"	"223.221"	"172.628"	"345.46"	"554.341"	"341.384"	"287.509"	"34.134"	"14.506"	"3.43"
"1975"	"13.882"	"66.99"	"42.74"	"130.698"	"305.287"	"272.419"	"362.58"	"440.325"	"200.204"	"124.957"	"9.822"	"16.132"
"1976"	"17.607"	"60.509"	"108.94"	"164.553"	"173.975"	"464.232"	"491.305"	"254.761"	"97.162"	"45.319"	"17.82"	"6.322"
"1977"	"13.526"	"42.313"	"81.018"	"332.471"	"312.901"	"420.475"	"488.722"	"487.534"	"185.768"	"170.277"	"37.575"	"53.735"
"1978"	"7.442"	"44.14"	"42.56"	"134.629"	"193.294"	"397.085"	"407.214"	"179.098"	"209.27"	"103.251"	"79.943"	"0.199"
"1979"	"11.243"	"10.204"	"37.203"	"53.519"	"145.022"	"259.41"	"446.554"	"262.385"	"262.433"	"245.29"	"13.727"	"67.88"
"1980"	"28.8"	"17.215"	"105.625"	"259.417"	"233.873"	"273.18"	"435.094"	"488.329"	"227.217"	"136.346"	"0.757"	"0.199"
"1981"	"35.171"	"43.443"	"84.603"	"158.184"	"276.936"	"334.449"	"475.381"	"437.919"	"157.194"	"67.225"	"1.087"	"51.538"
"1982"	"2.197"	"46.973"	"50.202"	"240.737"	"159.833"	"297.092"	"301.28"	"353.49"	"208.853"	"22.838"	"81.256"	"37.686"
"1983"	"43.903"	"47.995"	"39.656"	"154.446"	"270.548"	"344.887"	"521.92"	"265.02"	"327.776"	"120.279"	"5.56"	"37.376"
"1984"	"12.41"	"10.523"	"49.008"	"223.772"	"308.624"	"291.769"	"449.146"	"221.572"	"287.888"	"107.696"	"4.163"	"53.523"
"1985"	"9.54"	"23.731"	"105.015"	"235.308"	"163.577"	"427.913"	"516.246"	"251.982"	"211.528"	"59.631"	"10.941"	"22.238"
"1986"	"6.565"	"24.613"	"39.542"	"236.138"	"78.859"	"209.67"	"432.621"	"295.485"	"288.388"	"192.348"	"24.927"	"4.873"
"1987"	"4.413"	"40.613"	"111.37"	"184.259"	"217.566"	"200.226"	"458.177"	"334.661"	"358.743"	"75.694"	"9.448"	"19.222"
"1988"	"13.119"	"28.465"	"91.221"	"171.708"	"400.413"	"197.917"	"517.088"	"565.111"	"268.466"	"203.707"	"50.012"	"18.357"
"1989"	"9.859"	"83.395"	"25.749"	"146.821"	"173.165"	"305.993"	"415.901"	"290.833"	"340.345"	"189.493"	"22.518"	"15.701"
"1990"	"11.48"	"49.344"	"64.013"	"203.997"	"190.777"	"553.446"	"529.845"	"248.665"	"443.572"	"130.243"	"1.737"	"12.567"
"1991"	"12.5"	"11.247"	"72.165"	"124.556"	"349.602"	"490.457"	"448.047"	"409.09"	"329.965"	"212.991"	"12.934"	"46.089"
"1992"	"30.459"	"91.603"	"92.031"	"224.257"	"213.068"	"361.765"	"381.278"	"246.308"	"288.27"	"127.938"	"6.899"	"9.769"
"1993"	"40.86"	"79.955"	"110.782"	"78.893"	"335.648"	"453.261"	"286.203"	"504.905"	"340.398"	"82.213"	"5.481"	"0.935"
"1994"	"27.746"	"42.217"	"125.808"	"204.476"	"237.221"	"305.552"	"258.332"	"259.733"	"227.029"	"273.594"	"17.108"	"0.596"
"1995"	"23.783"	"51.791"	"65.204"	"105.505"	"389.932"	"503.545"	"408.478"	"329.171"	"392.078"	"52.007"	"42.003"	"23.623"
"1996"	"23.449"	"36.076"	"140.355"	"139.247"	"610.103"	"176.179"	"389.175"	"177.418"	"147.097"	"175.748"	"0.241"	"0.199"
"1997"	"16.989"	"58.646"	"110.372"	"99.305"	"199.986"	"385.062"	"335.178"	"186.832"	"280.626"	"27.522"	"23.851"	"42.341"
"1998"	"16.411"	"63.539"	"126.796"	"119.352"	"334.032"	"685.508"	"431.133"	"335.997"	"140.784"	"126.317"	"13.381"	"0.402"
"1999"	"1.746"	"38.071"	"30.041"	"192.086"	"327.923"	"360.27"	"356.527"	"341.267"	"188.55"	"161.889"	"11.44"	"0.434"
"2000"	"41.748"	"14.801"	"81.913"	"227.04"	"356.07"	"311.069"	"363.396"	"442.057"	"284.204"	"52.058"	"7.652"	"0.566"
"2001"	"0.675"	"26.772"	"33.284"	"192.271"	"303.237"	"262.107"	"455.894"	"261.449"	"262.348"	"189.802"	"13.965"	"5.155"
"2002"	"31.181"	"32.891"	"66.716"	"275.739"	"376.336"	"322.907"	"424.088"	"303.655"	"318.207"	"44.47"	"40.94"	"0.2"
