
"Year"	"Jan"	"Feb"	"Mar"	"Apr"	"May"	"Jun"	"Jul"	"Aug"	"Sep"	"Oct"	"Nov"	"Dec"
"1901"	"16.189"	"19.539"	"23.637"	"27.755"	"27.378"	"28.839"	"28.661"	"28.793"	"28.162"	"26.942"	"22.125"	"18.018"
"1902"	"17.907"	"19.702"	"24.963"	"25.755"	"27.523"	"28.176"	"28.47"	"29.167"	"28.003"	"25.668"	"21.656"	"17.591"
"1903"	"16.244"	"18.644"	"23.084"	"27.113"	"27.485"	"27.447"	"29.012"	"28.395"	"28.261"	"27.063"	"22.394"	"17.943"
"1904"	"17.012"	"19.17"	"24.169"	"26.645"	"26.251"	"27.919"	"28.042"	"28.793"	"28.218"	"26.141"	"21.604"	"17.97"
"1905"	"16.172"	"16.318"	"21.932"	"24.46"	"26.282"	"28.551"	"28.369"	"28.165"	"27.946"	"26.54"	"22.672"	"18.363"
"1906"	"16.538"	"18.549"	"22.179"	"27.208"	"27.415"	"28.146"	"28.869"	"28.164"	"28.908"	"26.236"	"22.651"	"18.599"
"1907"	"18.018"	"18.742"	"21.633"	"25.033"	"26.784"	"27.676"	"28.148"	"29.183"	"27.925"	"26.486"	"22.348"	"17.806"
"1908"	"16.456"	"19.07"	"23.775"	"28.766"	"27.257"	"28.321"	"28.663"	"28.796"	"28.223"	"26.54"	"21.899"	"17.576"
"1909"	"17.292"	"18.897"	"25.237"	"26.005"	"27.184"	"27.469"	"28.67"	"28.414"	"28.917"	"26.935"	"23.231"	"18.734"
"1910"	"17.081"	"19.315"	"23.409"	"26.542"	"26.736"	"27.595"	"27.548"	"28.64"	"28.546"	"26.242"	"22.178"	"18.009"
"1911"	"18.423"	"18.671"	"22.906"	"26.626"	"26.814"	"27.834"	"28.368"	"28.468"	"27.845"	"25.705"	"21.479"	"17.235"
"1912"	"17.481"	"19.84"	"22.648"	"24.633"	"26.93"	"28.04"	"27.992"	"28.468"	"28.218"	"26.141"	"21.854"	"18.142"
"1913"	"17.094"	"19.258"	"21.802"	"27.12"	"26.077"	"27.018"	"28.397"	"28.682"	"28.212"	"26.057"	"21.303"	"17.663"
"1914"	"17.138"	"19.296"	"23.306"	"24.655"	"27.072"	"28.285"	"28.642"	"28.437"	"27.794"	"25.063"	"22.004"	"18.728"
"1915"	"18.26"	"19.339"	"23.03"	"26.387"	"26.71"	"27.49"	"28.563"	"28.957"	"28.066"	"28.258"	"24.199"	"18.669"
"1916"	"17.207"	"19.46"	"24.987"	"26.464"	"28.083"	"28.191"	"27.912"	"28.735"	"28.266"	"26.269"	"22.751"	"17.736"
"1917"	"16.686"	"19.039"	"22.662"	"26.251"	"27.088"	"27.791"	"28.291"	"29.003"	"28.045"	"26.111"	"22.658"	"18.242"
"1918"	"16.358"	"18.867"	"23.817"	"26.053"	"27.949"	"27.137"	"28.223"	"28.042"	"28.266"	"26.336"	"22.125"	"17.625"
"1919"	"17.942"	"18.719"	"24.863"	"26.187"	"27.104"	"28.47"	"28.491"	"29.41"	"27.761"	"26.486"	"23.041"	"18.642"
"1920"	"17.915"	"18.839"	"22.87"	"26.059"	"26.59"	"28.251"	"29.07"	"28.588"	"27.903"	"26.84"	"22.705"	"19.63"
"1921"	"17.68"	"18.982"	"24.583"	"26.711"	"27.872"	"27.451"	"28.375"	"29.008"	"28.33"	"25.341"	"22.046"	"18.515"
"1922"	"17.689"	"20.013"	"25.036"	"28.802"	"28.286"	"27.439"	"28.303"	"28.714"	"28.045"	"25.999"	"22.554"	"18.399"
"1923"	"17.62"	"19.033"	"24.303"	"27.233"	"26.984"	"28.055"	"28.396"	"29.088"	"28.224"	"26.042"	"22.721"	"18.788"
"1924"	"17.474"	"19.296"	"25.528"	"28.011"	"27.037"	"28.675"	"28.296"	"28.594"	"27.566"	"27.163"	"22.284"	"18.7"
"1925"	"15.908"	"18.133"	"23.731"	"26.321"	"26.004"	"28.187"	"28.27"	"28.957"	"27.544"	"25.442"	"22.025"	"17.087"
"1926"	"17.065"	"19.418"	"22.492"	"25.757"	"27.005"	"28.55"	"28.148"	"28.742"	"28.339"	"26.54"	"21.374"	"18.896"
"1927"	"17.056"	"18.419"	"21.758"	"26.542"	"26.383"	"27.924"	"28.59"	"28.564"	"27.645"	"26.54"	"22.052"	"18.474"
"1928"	"17.039"	"19.946"	"24.347"	"27.153"	"26.93"	"27.87"	"28.47"	"28.595"	"28.938"	"26.22"	"21.683"	"18.327"
"1929"	"16.672"	"18.512"	"24.13"	"26.312"	"27.141"	"28.151"	"28.264"	"28.61"	"28.223"	"25.891"	"21.971"	"18.136"
"1930"	"16.032"	"18.876"	"23.414"	"26.282"	"27.379"	"27.151"	"28.633"	"28.766"	"28.224"	"25.984"	"21.905"	"17.943"
"1931"	"18.263"	"19.828"	"23.705"	"27.23"	"26.617"	"28.576"	"28.218"	"29.464"	"27.627"	"26.801"	"21.752"	"18.624"
"1932"	"17.326"	"17.503"	"24.168"	"27.039"	"27.341"	"27.981"	"28.742"	"29.03"	"28.715"	"26.869"	"23.154"	"18.739"
"1933"	"16.156"	"19.725"	"24.609"	"25.639"	"26.759"	"28.092"	"28.534"	"28.51"	"28.309"	"26.62"	"22.076"	"18.363"
"1934"	"17.054"	"19.285"	"23.737"	"27.11"	"26.547"	"27.145"	"28.417"	"28.766"	"28.917"	"25.74"	"21.693"	"18.043"
"1935"	"16.891"	"19.694"	"24.418"	"27.18"	"27.87"	"27.793"	"29.135"	"28.137"	"28.326"	"26.481"	"22.842"	"18.048"
"1936"	"16.112"	"18.776"	"24.244"	"27.237"	"27.361"	"28.103"	"28.642"	"29.289"	"28.17"	"25.794"	"23.366"	"18.837"
"1937"	"16.12"	"19.348"	"23.131"	"28.152"	"27.35"	"28.967"	"29.415"	"28.721"	"28.588"	"25.941"	"22.027"	"18.639"
"1938"	"18.136"	"18.54"	"25.005"	"28.571"	"27.13"	"28.347"	"28.347"	"29.06"	"28.672"	"26.941"	"21.228"	"18.523"
"1939"	"17.788"	"19.65"	"23.601"	"29.25"	"27.656"	"28.14"	"28.59"	"29.136"	"28.251"	"26.068"	"22.755"	"18.745"
"1940"	"17.129"	"19.185"	"21.58"	"27.147"	"27.688"	"28.296"	"28.612"	"29.205"	"28.212"	"26.762"	"22.806"	"18.808"
"1941"	"17.013"	"19.609"	"24.994"	"27.675"	"26.834"	"28.136"	"28.853"	"29.238"	"28.811"	"25.944"	"21.808"	"19.417"
"1942"	"17.564"	"19.888"	"24.171"	"26.287"	"27.563"	"28.852"	"29.375"	"28.794"	"28.045"	"26.733"	"23.325"	"17.907"
"1943"	"18.33"	"18.658"	"23.267"	"24.723"	"26.924"	"28.061"	"28.371"	"28.541"	"28.524"	"26.413"	"23.446"	"19.381"
"1944"	"17.035"	"18.907"	"23.999"	"25.988"	"28.396"	"28.983"	"29.024"	"29.286"	"28.328"	"26.8"	"22.581"	"19.488"
"1945"	"17.473"	"17.956"	"24.578"	"27.613"	"27.015"	"28.685"	"29.191"	"28.877"	"29.003"	"26.407"	"22.374"	"18.035"
"1946"	"18.12"	"20.489"	"23.785"	"25.129"	"26.876"	"28.206"	"28.599"	"29.389"	"28.578"	"25.826"	"23.194"	"19.241"
"1947"	"17.672"	"19.956"	"23.971"	"27.61"	"27.641"	"28.747"	"28.523"	"28.871"	"28.261"	"26.091"	"22.357"	"19.404"
"1948"	"18.016"	"19.39"	"24.002"	"26.427"	"26.755"	"28.157"	"28.321"	"28.961"	"28.763"	"25.823"	"22.703"	"18.117"
"1949"	"17.788"	"19.4"	"24.211"	"24.558"	"26.444"	"27.691"	"28.464"	"28.709"	"28.223"	"27.346"	"22.399"	"17.241"
"1950"	"17.587"	"19.17"	"23.442"	"27.257"	"28.082"	"27.856"	"28.979"	"28.215"	"28.787"	"26.401"	"22.214"	"18.809"
"1951"	"17.303"	"19.997"	"24.93"	"26.963"	"27.688"	"27.973"	"28.282"	"29.488"	"28.87"	"27.265"	"22.82"	"18.991"
"1952"	"17.99"	"20.32"	"22.308"	"27.04"	"26.323"	"28.625"	"28.266"	"28.845"	"28.015"	"27.22"	"22.852"	"18.586"
"1953"	"16.635"	"20.118"	"24.512"	"27.127"	"27.542"	"27.691"	"27.896"	"29.41"	"27.998"	"26.309"	"22.326"	"19.838"
"1954"	"16.493"	"20.789"	"24.609"	"28.643"	"27.922"	"27.091"	"27.791"	"28.585"	"28.997"	"25.594"	"21.915"	"18.609"
"1955"	"17.396"	"19.422"	"24.566"	"26.403"	"28.096"	"27.67"	"27.713"	"28.015"	"28.591"	"27.482"	"23.325"	"17.713"
"1956"	"17.839"	"19.317"	"24.593"	"27.896"	"28.934"	"28.038"	"28.199"	"28.494"	"28.417"	"26.519"	"22.867"	"18.029"
"1957"	"17.235"	"18.729"	"22.936"	"27.556"	"28.139"	"27.903"	"28.89"	"29.137"	"28.642"	"25.585"	"22.252"	"19.009"
"1958"	"18.741"	"19.169"	"24.541"	"28.084"	"28.732"	"28.823"	"29.345"	"28.735"	"28.945"	"27.609"	"23.569"	"19.094"
"1959"	"17.596"	"18.834"	"24.025"	"28.027"	"27.455"	"27.942"	"29.12"	"29.749"	"28.244"	"26.411"	"22.892"	"19.269"
"1960"	"17.425"	"21.798"	"23.384"	"29.309"	"28.952"	"28.542"	"28.39"	"29.485"	"27.987"	"27.178"	"22.747"	"19.961"
"1961"	"18.997"	"18.832"	"24.567"	"28.142"	"28.273"	"28.767"	"29.045"	"29.693"	"28.843"	"26.913"	"21.779"	"16.652"
"1962"	"16.241"	"20.365"	"24.222"	"28.856"	"27.834"	"29.26"	"29.309"	"28.938"	"29.074"	"26.437"	"22.291"	"18.572"
"1963"	"17.388"	"20.699"	"23.933"	"26.257"	"26.658"	"28.049"	"28.759"	"29.337"	"28.72"	"26.375"	"22.575"	"18.995"
"1964"	"16.877"	"19.286"	"25.241"	"27.102"	"26.968"	"28.341"	"27.991"	"29.088"	"28.518"	"27.15"	"23.263"	"18.966"
"1965"	"18.299"	"19.8"	"23.033"	"26.813"	"27.814"	"28.092"	"28.261"	"27.812"	"27.938"	"26.311"	"21.704"	"19.171"
"1966"	"16.71"	"21.319"	"24.82"	"27.79"	"28.652"	"28.146"	"28.691"	"28.796"	"27.773"	"25.099"	"23.02"	"18.814"
"1967"	"18.04"	"20.436"	"22.986"	"25.918"	"26.833"	"28.021"	"28.575"	"28.741"	"28.017"	"25.395"	"21.016"	"18.791"
"1968"	"17.013"	"18.783"	"24.235"	"26.356"	"27.385"	"27.025"	"28.143"	"28.871"	"28.443"	"25.605"	"22.242"	"18.187"
"1969"	"17.086"	"20.506"	"25.403"	"27.05"	"27.873"	"28.517"	"28.661"	"28.255"	"28.17"	"25.995"	"23.188"	"19.223"
"1970"	"16.979"	"19.705"	"23.17"	"27.535"	"28.437"	"28.218"	"28.217"	"28.643"	"28.444"	"26.528"	"21.98"	"18.715"
"1971"	"16.958"	"19.234"	"23.315"	"25.849"	"26.221"	"27.734"	"27.918"	"27.81"	"27.778"	"26.705"	"22.487"	"19.338"
"1972"	"18.88"	"18.688"	"24.909"	"26.724"	"28.493"	"28.076"	"28.838"	"28.412"	"27.769"	"26.589"	"22.07"	"18.83"
"1973"	"18.449"	"20.693"	"23.46"	"28.209"	"27.119"	"27.912"	"28.368"	"28.884"	"28.148"	"25.691"	"22.124"	"18.618"
"1974"	"17.039"	"19.901"	"23.653"	"26.954"	"27.051"	"27.818"	"27.92"	"28.667"	"27.66"	"28.194"	"23.204"	"17.766"
"1975"	"17.346"	"19.839"	"24.209"	"27.73"	"27.424"	"28.539"	"27.66"	"28.746"	"28.009"	"28.186"	"22.324"	"17.943"
"1976"	"17.133"	"20.764"	"24.382"	"27.203"	"26.675"	"27.541"	"28.118"	"27.989"	"27.9"	"26.396"	"24.373"	"18.542"
"1977"	"17.98"	"20.582"	"25.396"	"26.111"	"25.852"	"27.119"	"28.442"	"29.009"	"28.363"	"25.99"	"23.799"	"18.322"
"1978"	"15.411"	"19.157"	"22.193"	"26.149"	"27.092"	"27.545"	"28.169"	"29.113"	"28.266"	"27.633"	"23.553"	"19.336"
"1979"	"18.405"	"19.166"	"24.063"	"27.43"	"28.89"	"28.946"	"28.491"	"29.114"	"27.852"	"26.945"	"24.9"	"18.787"
"1980"	"17.013"	"19.883"	"23.951"	"27.941"	"26.496"	"28.465"	"28.59"	"28.896"	"28.567"	"26.193"	"23.126"	"20.294"
"1981"	"16.762"	"20.457"	"23.288"	"25.846"	"26.824"	"28.645"	"28.585"	"29.338"	"28.057"	"27.215"	"22.744"	"18.484"
"1982"	"18.506"	"19.14"	"22.818"	"26.308"	"27.833"	"28.094"	"28.99"	"28.933"	"28.496"	"25.972"	"22.55"	"19.169"
"1983"	"16.49"	"18.023"	"23.688"	"25.75"	"26.471"	"28.772"	"28.838"	"29.167"	"28.569"	"26.937"	"22.735"	"17.866"
"1984"	"16.839"	"20.028"	"25.255"	"27.408"	"27.581"	"28.315"	"27.793"	"28.82"	"27.197"	"27.742"	"21.947"	"19.342"
"1985"	"17.609"	"19.664"	"26.035"	"27.461"	"27.25"	"28.287"	"27.648"	"29.289"	"27.991"	"26.144"	"21.78"	"19.368"
"1986"	"18.184"	"20.232"	"24.314"	"25.785"	"26.301"	"28.597"	"27.942"	"29.006"	"27.587"	"25.734"	"23.353"	"18.548"
"1987"	"17.401"	"20.794"	"23.972"	"26.708"	"27.475"	"28.966"	"28.411"	"28.461"	"28.518"	"25.924"	"22.008"	"19.844"
"1988"	"19.027"	"21.308"	"24.306"	"27.402"	"27.623"	"28.036"	"28.443"	"28.695"	"28.547"	"27.096"	"23.098"	"19.92"
"1989"	"17.105"	"19.4"	"24.025"	"26.788"	"27.951"	"27.997"	"28.185"	"28.893"	"28.491"	"27.167"	"22.324"	"17.775"
"1990"	"19.63"	"19.784"	"22.286"	"25.6"	"27.496"	"28.694"	"28.442"	"29.009"	"28.521"	"26.146"	"24.208"	"19.193"
"1991"	"16.067"	"20.479"	"24.467"	"26.802"	"26.303"	"28.17"	"28.745"	"29.17"	"27.616"	"26.548"	"22.277"	"18"
"1992"	"17.677"	"18.224"	"25.094"	"27.458"	"26.304"	"28.278"	"27.463"	"28.866"	"28.079"	"26.554"	"22.681"	"17.772"
"1993"	"17.457"	"20.968"	"22.467"	"25.926"	"26.102"	"27.843"	"28.623"	"28.915"	"27.792"	"27.076"	"23.514"	"20.566"
"1994"	"18.628"	"19.055"	"24.783"	"26.499"	"28.275"	"28.47"	"29.39"	"29.511"	"28.787"	"26.814"	"22.78"	"18.72"
"1995"	"16.327"	"19.414"	"24.431"	"27.105"	"29.174"	"28.868"	"28.461"	"28.957"	"28.409"	"27.515"	"23.283"	"19.593"
"1996"	"17.831"	"20.032"	"24.457"	"26.947"	"27.946"	"27.739"	"28.615"	"28.909"	"28.547"	"26.817"	"23.272"	"19.757"
"1997"	"17.535"	"19.075"	"25.115"	"26.734"	"27.879"	"28.623"	"28.933"	"29.831"	"27.766"	"26.334"	"23.136"	"19.196"
"1998"	"17.342"	"21.006"	"23.225"	"28.549"	"28.945"	"29.165"	"28.916"	"29.364"	"29.131"	"28.294"	"24.204"	"20.117"
"1999"	"18.998"	"22.2"	"25.342"	"30.275"	"27.935"	"29.402"	"28.491"	"28.735"	"28.64"	"27.499"	"24.099"	"20.287"
"2000"	"18.31"	"20.43"	"23.382"	"26.897"	"27.721"	"29.195"	"29.169"	"28.763"	"28.036"	"27.287"	"23.429"	"19.084"
"2001"	"17.933"	"20.623"	"24.512"	"27.512"	"28.623"	"29.018"	"29.568"	"29.636"	"28.865"	"27.399"	"24.077"	"19.635"
"2002"	"18.01"	"21.281"	"25.009"	"26.953"	"27.972"	"28.59"	"29.418"	"28.936"	"28.465"	"26.883"	"23.498"	"19.542"
