
"Year"	"Jan"	"Feb"	"Mar"	"Apr"	"May"	"Jun"	"Jul"	"Aug"	"Sep"	"Oct"	"Nov"	"Dec"
"1901"	"30.879"	"23.112"	"56.367"	"182.565"	"170.16"	"371.571"	"317.942"	"344.196"	"301.159"	"145.72"	"128.652"	"5.004"
"1902"	"20.002"	"27.054"	"54.286"	"227.91"	"271.157"	"380.521"	"553.762"	"402.009"	"516.483"	"65.462"	"9.643"	"1.33"
"1903"	"36.597"	"33.86"	"98.476"	"140.949"	"196.852"	"471.578"	"280.527"	"511.094"	"220.886"	"153.097"	"50.889"	"2.275"
"1904"	"33.361"	"44.864"	"108.19"	"309.886"	"242.743"	"186.056"	"302.746"	"496.42"	"174.922"	"42.918"	"45.674"	"2.572"
"1905"	"33.65"	"18.08"	"119.263"	"144.319"	"169.048"	"211.562"	"399.585"	"468.281"	"103.052"	"93.725"	"38.474"	"34.726"
"1906"	"20.992"	"71.641"	"97.753"	"353.922"	"155.414"	"332.449"	"340.401"	"421.639"	"147.799"	"78.465"	"29.388"	"0.457"
"1907"	"17.384"	"65.509"	"97.474"	"233.751"	"176.331"	"361.364"	"467.674"	"262.669"	"311.433"	"21.607"	"0.548"	"7.688"
"1908"	"21.834"	"39.984"	"32.627"	"260.433"	"293.738"	"559.784"	"573.672"	"187.799"	"325.002"	"97.335"	"4.962"	"0.654"
"1909"	"67.496"	"10.477"	"9.836"	"168.982"	"343.529"	"563.587"	"319.095"	"475.601"	"130.072"	"77.949"	"7.887"	"2.202"
"1910"	"13.609"	"49.644"	"138.955"	"143.676"	"143.938"	"701.382"	"431.54"	"348.043"	"129.991"	"280.235"	"25.1"	"38.791"
"1911"	"47.521"	"37.704"	"58.613"	"185.553"	"409.102"	"393.478"	"444.752"	"320.89"	"264.59"	"316.304"	"52.12"	"6.966"
"1912"	"19.542"	"80.338"	"64.345"	"139.799"	"176.528"	"352.027"	"551.609"	"407.337"	"313.934"	"151.038"	"41.938"	"13.39"
"1913"	"19.638"	"75.047"	"70.054"	"358.761"	"472.302"	"362.184"	"273.941"	"326.492"	"223.204"	"321.66"	"5.562"	"53.913"
"1914"	"8.533"	"50.119"	"82.323"	"141.079"	"191.166"	"260.697"	"422.808"	"402.799"	"167.47"	"79.467"	"18.397"	"6.172"
"1915"	"10.084"	"49.489"	"113.957"	"102.803"	"389.842"	"451.112"	"661.78"	"418.965"	"246.441"	"157.874"	"22.135"	"11.48"
"1916"	"31.408"	"29.747"	"103.098"	"174.118"	"413.303"	"429.886"	"399.453"	"360.04"	"153.854"	"102.38"	"24.7"	"10.102"
"1917"	"17.594"	"121.074"	"43.733"	"219.389"	"223.072"	"549.843"	"504.005"	"351.732"	"190.456"	"133.347"	"43.71"	"0.362"
"1918"	"12.87"	"23.315"	"105.668"	"96.233"	"222.218"	"643.668"	"430.075"	"283.514"	"217.031"	"82.682"	"4.948"	"0.504"
"1919"	"12.556"	"32.569"	"10.08"	"111.537"	"317.289"	"446.486"	"541.526"	"181.246"	"270.647"	"344.553"	"23.516"	"1.363"
"1920"	"12.138"	"60.165"	"151.244"	"90.29"	"210.056"	"385"	"332.951"	"384.89"	"209.037"	"70.35"	"2.182"	"18.871"
"1921"	"33.509"	"35.947"	"124.168"	"261.195"	"428.274"	"381.261"	"238.346"	"486.761"	"340.014"	"206.88"	"10.427"	"28.091"
"1922"	"33.669"	"13.956"	"57.17"	"129.982"	"204.361"	"380.969"	"440.275"	"406.535"	"202.38"	"119.846"	"13.662"	"7.142"
"1923"	"1.988"	"86.074"	"10.458"	"144.039"	"356.018"	"377.566"	"586.156"	"258.497"	"397.588"	"74.988"	"15.206"	"10.408"
"1924"	"15.312"	"32.451"	"34.699"	"112.091"	"347.711"	"377.144"	"663.88"	"433.991"	"272.868"	"185.572"	"72.724"	"0.564"
"1925"	"22.351"	"38.486"	"83.65"	"121.99"	"443.674"	"383.452"	"435.92"	"385.465"	"319.655"	"65.232"	"2.78"	"0.639"
"1926"	"17.46"	"17.544"	"87.489"	"129.572"	"284.016"	"347.786"	"535.929"	"212.491"	"135.098"	"266.234"	"54.9"	"12.251"
"1927"	"31.829"	"62.541"	"101.097"	"219.032"	"167.318"	"366.269"	"416.21"	"339.644"	"505.224"	"281.337"	"15.516"	"0.417"
"1928"	"11.234"	"25.894"	"85.349"	"108.951"	"373.028"	"470.354"	"389.242"	"418.315"	"374.16"	"201.882"	"40.198"	"9.472"
"1929"	"16.367"	"13.987"	"51.689"	"163.531"	"594.961"	"386.754"	"303.542"	"303"	"195.935"	"100.128"	"60.36"	"7.302"
"1930"	"17.272"	"23.439"	"60.899"	"245.576"	"87.779"	"424.84"	"182.464"	"410.328"	"465.077"	"308.291"	"93.419"	"9.737"
"1931"	"11.99"	"71.124"	"38.637"	"331.66"	"266.603"	"581.434"	"546.061"	"243.053"	"235.911"	"141.938"	"23.459"	"60.458"
"1932"	"45.783"	"46.004"	"54.906"	"96.977"	"477.299"	"564.528"	"357.231"	"428.272"	"235.412"	"160.918"	"124.387"	"47.871"
"1933"	"20.562"	"62.065"	"35.402"	"187.889"	"233.374"	"498.348"	"321.643"	"536.384"	"124.251"	"86.992"	"4.323"	"6.74"
"1934"	"21.172"	"53.833"	"25.213"	"286.76"	"364.242"	"549.665"	"370.213"	"223.554"	"252.474"	"126.322"	"34.593"	"9.97"
"1935"	"15.653"	"58.36"	"60.838"	"103.222"	"221.412"	"641.258"	"412.464"	"372.664"	"353.248"	"17.458"	"27.958"	"8.641"
"1936"	"40.283"	"86.128"	"49.726"	"142.023"	"264.577"	"552.645"	"463.674"	"283.952"	"306.601"	"107.446"	"56.972"	"41.613"
"1937"	"23.782"	"57.985"	"46.108"	"125.824"	"254.831"	"241.436"	"322.557"	"422.935"	"207.15"	"105.679"	"9.58"	"7.098"
"1938"	"59.6"	"50.598"	"97.629"	"197.412"	"149.226"	"425.208"	"487.355"	"442.147"	"266.861"	"223.098"	"83.367"	"8.732"
"1939"	"9.35"	"56.1"	"31.084"	"164.568"	"253.821"	"478.55"	"355.041"	"198.091"	"306.058"	"119.863"	"1.171"	"1.344"
"1940"	"4.327"	"55.93"	"173.763"	"60.823"	"296.814"	"393.53"	"276.594"	"195.377"	"249.535"	"101.092"	"17.55"	"60.228"
"1941"	"22.404"	"47.096"	"100.474"	"85.565"	"386.445"	"406.041"	"279.432"	"352.327"	"388.747"	"47.843"	"5.677"	"20.68"
"1942"	"6.147"	"34.171"	"119.413"	"151.128"	"430.277"	"431.926"	"299.289"	"311.156"	"294.963"	"6.772"	"10.596"	"0.2"
"1943"	"53.542"	"41.894"	"129.278"	"129.805"	"394.264"	"340.488"	"321.617"	"440.688"	"286.286"	"143.79"	"4.728"	"8.151"
"1944"	"25.453"	"44.796"	"55.772"	"98.255"	"292.499"	"440.793"	"363.833"	"300.812"	"294.564"	"151.038"	"18.53"	"49.577"
"1945"	"31.89"	"46.86"	"69.26"	"110.615"	"296.304"	"480.505"	"525.33"	"307.211"	"237.274"	"194.456"	"0.458"	"29.461"
"1946"	"0.245"	"8.671"	"48.944"	"85.565"	"190.6"	"479.155"	"445.021"	"366.038"	"228.426"	"177.693"	"7.988"	"0.981"
"1947"	"14.388"	"21.157"	"53.418"	"226.278"	"220.395"	"271.21"	"553.628"	"368.505"	"475.868"	"344.551"	"12.817"	"13.756"
"1948"	"20.38"	"44.858"	"68.942"	"239.486"	"648.921"	"391.564"	"635.544"	"344.706"	"117.028"	"135.518"	"25.403"	"11.516"
"1949"	"23.886"	"17.141"	"122.39"	"218.809"	"369.396"	"384.821"	"385.13"	"335.963"	"358.918"	"200.649"	"22.323"	"24.214"
"1950"	"18.691"	"69.256"	"87.579"	"112.119"	"257.416"	"470.261"	"356.856"	"393.624"	"241.768"	"218.331"	"37.442"	"12.676"
"1951"	"13.874"	"17.019"	"76.199"	"179.65"	"207.046"	"551.183"	"374.117"	"199.719"	"196.908"	"148.774"	"62.931"	"56.616"
"1952"	"20.611"	"10.026"	"108.037"	"114.985"	"263.396"	"306.393"	"347.577"	"432.642"	"459.043"	"176.685"	"49.122"	"3.885"
"1953"	"21.03"	"40.101"	"170.126"	"122.979"	"372.065"	"490.533"	"424.844"	"237.62"	"185.233"	"220.434"	"4.67"	"5.33"
"1954"	"28.761"	"106.334"	"38.17"	"235.325"	"361.738"	"415.962"	"439.636"	"432.425"	"358.953"	"185.941"	"0.881"	"52.964"
"1955"	"8.75"	"40.357"	"142.525"	"88.416"	"303.392"	"400.42"	"675.516"	"307.706"	"168.89"	"103.891"	"13.569"	"15.541"
"1956"	"47.042"	"8.368"	"147.991"	"142.44"	"351.746"	"411.867"	"243.661"	"238.662"	"152.298"	"159.574"	"67.418"	"13.75"
"1957"	"48.55"	"59.612"	"32.737"	"169.632"	"344.122"	"492.835"	"389.032"	"261.449"	"241.389"	"88.924"	"35.849"	"29.581"
"1958"	"20.734"	"40.307"	"6.551"	"77.047"	"573.923"	"305.887"	"517.463"	"490.108"	"256.965"	"303.716"	"0.296"	"19.729"
"1959"	"29.163"	"55.31"	"67.065"	"146.652"	"542.302"	"449.326"	"291.432"	"225.101"	"217.672"	"211.666"	"25.93"	"26.384"
"1960"	"0.756"	"23.415"	"21.497"	"89.633"	"265.979"	"359.044"	"527.336"	"369.843"	"235.457"	"15.559"	"13.131"	"21.963"
"1961"	"19.116"	"16.556"	"163.993"	"195.25"	"330.784"	"242.485"	"390.18"	"298.815"	"265.923"	"190.472"	"30.215"	"10.259"
"1962"	"41.047"	"54.967"	"52.152"	"166.151"	"194.983"	"349.327"	"269.175"	"490.763"	"91.854"	"64.939"	"17.306"	"16.291"
"1963"	"5.845"	"16.829"	"30.686"	"144.247"	"189.549"	"317.163"	"456.489"	"309.788"	"144.433"	"110.066"	"27.469"	"10.247"
"1964"	"28.388"	"56.181"	"109.027"	"155.88"	"146.986"	"477.166"	"476.703"	"318.318"	"233.324"	"178.656"	"6.89"	"44.274"
"1965"	"7.27"	"66.51"	"48.138"	"155.672"	"151.194"	"415.873"	"401.741"	"380.052"	"301.87"	"46.439"	"133.029"	"10.047"
"1966"	"9.872"	"24.5"	"21.738"	"128.629"	"303.297"	"520.422"	"375.878"	"585.27"	"208.542"	"81.534"	"46.201"	"10.419"
"1967"	"20.83"	"27.801"	"97.635"	"70.963"	"197.841"	"346.225"	"285.012"	"220.244"	"237.189"	"45.803"	"20.99"	"3.959"
"1968"	"30.491"	"58.211"	"63.103"	"157.158"	"478.845"	"305.584"	"410.532"	"369.943"	"308.094"	"83.629"	"1.114"	"0.2"
"1969"	"55.05"	"3.394"	"115.032"	"122.199"	"210.033"	"270.927"	"455.151"	"451.179"	"138.208"	"74.907"	"15.915"	"4.772"
"1970"	"45.577"	"72.744"	"120.593"	"174.365"	"469.516"	"287.056"	"442.235"	"432.886"	"284.578"	"170.655"	"6.992"	"0.2"
"1971"	"31.585"	"33.647"	"29.531"	"144.804"	"212.885"	"344.815"	"436.322"	"370.567"	"213.693"	"310.936"	"73.8"	"14.486"
"1972"	"38.865"	"26.747"	"82.6"	"242.639"	"280.078"	"271.775"	"445.224"	"210.811"	"105.306"	"43.705"	"2.117"	"11.877"
"1973"	"27.025"	"43.943"	"19.869"	"245.141"	"258.64"	"643.677"	"213.882"	"348.807"	"382.129"	"88.196"	"29.302"	"34.734"
"1974"	"42.618"	"20.62"	"51.992"	"250.567"	"170.692"	"337.103"	"546.537"	"329.459"	"319.193"	"29.856"	"19.229"	"3.87"
"1975"	"14.793"	"45.531"	"45.9"	"139.173"	"321.854"	"265.276"	"345.594"	"465.982"	"181.672"	"130.339"	"15.154"	"18.204"
"1976"	"5.231"	"67.856"	"126.899"	"173.225"	"174.316"	"445.855"	"529.085"	"252.142"	"88.01"	"45.735"	"21.215"	"7.059"
"1977"	"13.442"	"56.548"	"87.602"	"318.767"	"298.57"	"426.041"	"483.921"	"509.244"	"168.341"	"173.777"	"41.892"	"56.286"
"1978"	"8.166"	"52.54"	"42.901"	"122.94"	"176.739"	"398.316"	"401.858"	"132.867"	"193.125"	"93.109"	"95.455"	"0.2"
"1979"	"13.205"	"8.135"	"28.344"	"53.356"	"143.071"	"244.423"	"438.195"	"267.747"	"273.536"	"255.146"	"16.218"	"64.47"
"1980"	"16.942"	"16.963"	"114.808"	"276.337"	"213.003"	"250.684"	"421.182"	"485.077"	"234.294"	"156.471"	"0.446"	"0.425"
"1981"	"31.942"	"50.382"	"96.357"	"130.608"	"268.116"	"350.223"	"464.055"	"464.257"	"155.055"	"81.678"	"1.141"	"41.939"
"1982"	"2.25"	"55.22"	"52.823"	"220.333"	"164.207"	"308.118"	"313.924"	"378.018"	"226.32"	"16.593"	"91.045"	"39.124"
"1983"	"45.74"	"49.614"	"37.785"	"146.234"	"264.31"	"379.02"	"570.229"	"271.179"	"324.356"	"113.93"	"7.043"	"42.09"
"1984"	"12.63"	"12.657"	"55.321"	"229.779"	"331.898"	"291.593"	"440.195"	"228.104"	"283.733"	"127.884"	"2.509"	"60.624"
"1985"	"11.432"	"22.016"	"122.819"	"244.025"	"149.161"	"460.205"	"465.962"	"272.805"	"202.488"	"70.516"	"13.198"	"19.634"
"1986"	"7.774"	"28.487"	"44.58"	"222.315"	"80.059"	"204.175"	"401.243"	"296.673"	"297.68"	"175.568"	"31.339"	"5.261"
"1987"	"3.376"	"36.839"	"117.188"	"180.922"	"223.869"	"205.961"	"435.464"	"316.545"	"370.137"	"76.439"	"12.243"	"24.159"
"1988"	"13.379"	"30.632"	"101.924"	"155.954"	"396.578"	"200.145"	"537.689"	"587.853"	"273.035"	"232.147"	"33.847"	"18.267"
"1989"	"11.778"	"90.224"	"27.988"	"153.696"	"169.533"	"316.955"	"404.582"	"289.165"	"342.679"	"215.43"	"28.172"	"16.769"
"1990"	"13.709"	"59.38"	"59.637"	"205.575"	"197.32"	"576.356"	"508.544"	"253.736"	"479.022"	"105.083"	"3.061"	"14.445"
"1991"	"14.585"	"11.636"	"77.395"	"119.172"	"361.824"	"484.798"	"442.467"	"382.293"	"331.407"	"214.545"	"17.248"	"54.296"
"1992"	"31.922"	"104.222"	"98.541"	"182.8"	"218.557"	"378.773"	"389.154"	"238.106"	"311.183"	"129.667"	"8.042"	"9.84"
"1993"	"43.038"	"85.338"	"116.645"	"73.322"	"338.217"	"481.799"	"288.146"	"515.112"	"348.908"	"88.723"	"4.836"	"0.959"
"1994"	"27.853"	"47.888"	"133.458"	"184.692"	"244.007"	"321.135"	"239.541"	"254.888"	"249.193"	"306.717"	"18.746"	"0.86"
"1995"	"16.979"	"60.971"	"70.542"	"89.231"	"394.92"	"503.232"	"382.987"	"318.189"	"394.235"	"59.52"	"40.678"	"25.191"
"1996"	"24.44"	"38.299"	"162.56"	"154.687"	"621.462"	"152.831"	"398.821"	"157.999"	"136.983"	"181.303"	"0.476"	"0.29"
"1997"	"15.584"	"53.656"	"113.731"	"81.757"	"198.804"	"392.584"	"349.758"	"187.537"	"279.443"	"29.431"	"26.61"	"43.175"
"1998"	"19.233"	"77.699"	"132.783"	"101.456"	"363.247"	"703.832"	"438.214"	"324.399"	"120.895"	"111.312"	"21.744"	"0.34"
"1999"	"1.852"	"37.238"	"31.446"	"208.816"	"312.365"	"355.408"	"351.518"	"322.651"	"171.133"	"175.63"	"10.111"	"0.529"
"2000"	"44.91"	"16.336"	"75.274"	"257.995"	"341.01"	"293.126"	"369.582"	"434.122"	"288.585"	"58.819"	"8.179"	"0.843"
"2001"	"0.464"	"29.647"	"38.177"	"189.111"	"304.23"	"231.676"	"456.584"	"276.851"	"267.732"	"194.406"	"16.625"	"5.549"
"2002"	"35.657"	"29.439"	"70.005"	"274.71"	"380.863"	"321.873"	"428.242"	"306.324"	"320.376"	"46.237"	"44.778"	"0.335"
