
"Year"	"Jan"	"Feb"	"Mar"	"Apr"	"May"	"Jun"	"Jul"	"Aug"	"Sep"	"Oct"	"Nov"	"Dec"
"1901"	"0.329"	"0"	"1.682"	"0.48"	"27.891"	"65.619"	"277.75"	"207.662"	"15.502"	"20.981"	"0.264"	"0"
"1902"	"1.396"	"0"	"0"	"0.329"	"8.314"	"32.382"	"207.68"	"268.575"	"235.648"	"3.655"	"11.161"	"3.356"
"1903"	"0"	"0"	"0"	"0"	"16.86"	"22.94"	"511.151"	"169.996"	"244.975"	"0.874"	"0.264"	"0"
"1904"	"0"	"6.551"	"11.296"	"0"	"8.64"	"104.861"	"249.341"	"68.437"	"109.293"	"6.274"	"0.264"	"1.97"
"1905"	"0"	"0"	"2.313"	"0"	"1.448"	"52.836"	"640.295"	"41.932"	"127.522"	"0.075"	"0.264"	"0"
"1906"	"0"	"2.078"	"0"	"0"	"0"	"220.914"	"499.754"	"303.636"	"248.616"	"0.373"	"0.264"	"0.074"
"1907"	"0.074"	"1.898"	"0"	"0.869"	"0"	"45.436"	"405.149"	"349.403"	"17.109"	"0.075"	"2.718"	"0"
"1908"	"4.287"	"0.68"	"0.436"	"0.329"	"0"	"119.368"	"503.996"	"418.838"	"11.443"	"0.075"	"0.264"	"0"
"1909"	"0"	"1.915"	"0.229"	"10.271"	"1.484"	"126.519"	"351.357"	"252.679"	"148.8"	"0.079"	"0.264"	"16.63"
"1910"	"8.173"	"0"	"0"	"7.638"	"2.194"	"355.361"	"342.827"	"392.816"	"58.987"	"25.822"	"51.281"	"0"
"1911"	"4.989"	"0"	"15.112"	"0"	"0"	"195.512"	"82.09"	"52.033"	"73.564"	"0.452"	"27.518"	"0"
"1912"	"0"	"0.096"	"0"	"2.567"	"4.056"	"91.741"	"494.321"	"256.232"	"39.856"	"18.614"	"56.828"	"0"
"1913"	"0"	"0"	"0.229"	"0"	"22.13"	"229.798"	"584.838"	"207.479"	"112.368"	"0.112"	"2.365"	"0.65"
"1914"	"0"	"2.265"	"0"	"0.114"	"10.736"	"187"	"373.406"	"134.217"	"166.658"	"10.634"	"6.738"	"0.059"
"1915"	"3.17"	"0.773"	"12.043"	"4.649"	"6.236"	"100.171"	"142.556"	"119.483"	"54.615"	"50.85"	"0.909"	"1.654"
"1916"	"0"	"0.216"	"0"	"0"	"7.273"	"224.129"	"189.663"	"409.618"	"164.993"	"14.448"	"19.909"	"0"
"1917"	"0.273"	"1.877"	"0"	"8.812"	"33.223"	"200.588"	"288.595"	"325.268"	"396.806"	"57.436"	"0.264"	"0"
"1918"	"0"	"0"	"1.39"	"0"	"16.371"	"91.258"	"102.224"	"259.574"	"18.063"	"0.075"	"3.053"	"0"
"1919"	"9.697"	"0"	"0"	"4.589"	"19.431"	"148.85"	"368.767"	"592.499"	"63.364"	"12.945"	"28.144"	"0.705"
"1920"	"1.47"	"1.045"	"0.543"	"0.191"	"33.094"	"271.207"	"488.285"	"86.071"	"38.553"	"0.075"	"0.264"	"0"
"1921"	"0.475"	"0"	"0"	"0"	"0"	"99.145"	"460.921"	"229.491"	"462.978"	"1.86"	"0.264"	"0"
"1922"	"0.374"	"0"	"0"	"0"	"0.54"	"99.096"	"380.49"	"126.903"	"302.618"	"0.24"	"36.772"	"0.483"
"1923"	"0"	"1.046"	"1.792"	"0.03"	"7.836"	"1.815"	"343.586"	"145.816"	"89.493"	"0.075"	"0.593"	"0.074"
"1924"	"0.577"	"0"	"0.229"	"0"	"10.949"	"83.14"	"364.326"	"260.012"	"255.444"	"9.407"	"0.264"	"4.86"
"1925"	"0"	"0"	"0"	"0"	"7.757"	"308.3"	"244.98"	"77.573"	"18.027"	"0.075"	"28.95"	"0.192"
"1926"	"9.753"	"0"	"0.557"	"11.054"	"2.656"	"19.482"	"390.523"	"442.372"	"270.949"	"0.075"	"0.707"	"0.497"
"1927"	"0"	"0.874"	"0.074"	"0"	"3.384"	"111.84"	"582.008"	"318.325"	"86.828"	"15.83"	"58.404"	"13.327"
"1928"	"0"	"0.701"	"1.63"	"0"	"0.656"	"120.42"	"359.88"	"256.244"	"93.819"	"34.751"	"76.768"	"6.44"
"1929"	"4.279"	"0.345"	"0"	"1.698"	"0"	"201.157"	"427.008"	"180.407"	"25.823"	"0.273"	"0.264"	"5.088"
"1930"	"4.984"	"0"	"0"	"0"	"1.041"	"103.116"	"520.451"	"223.246"	"195.512"	"24.773"	"0.293"	"0"
"1931"	"0.074"	"0"	"0"	"0"	"0"	"15.448"	"224.119"	"467.642"	"128.34"	"78.415"	"10.462"	"8.763"
"1932"	"0"	"0"	"2.759"	"0"	"0"	"77.484"	"574.507"	"130.844"	"161.437"	"12.603"	"0.264"	"0"
"1933"	"0"	"0.43"	"0"	"9.542"	"24.235"	"195.656"	"387.128"	"561.645"	"220.349"	"8.357"	"10.78"	"1.361"
"1934"	"0.235"	"0"	"0.657"	"0"	"0"	"320.729"	"343.881"	"481.061"	"212.045"	"3.275"	"20.841"	"0.074"
"1935"	"3.743"	"1.474"	"0"	"2.211"	"1.437"	"69.656"	"524.27"	"111.038"	"269.906"	"14.517"	"0.879"	"0"
"1936"	"0"	"0.969"	"16.087"	"0.678"	"4.844"	"272.878"	"157.249"	"43.058"	"208.079"	"0.075"	"87.899"	"0"
"1937"	"0"	"1.494"	"0.543"	"0"	"0"	"263.945"	"456.291"	"41.177"	"317.858"	"1.02"	"0.264"	"1.235"
"1938"	"0"	"0"	"1.478"	"0"	"13.073"	"355.141"	"413.889"	"140.274"	"30.594"	"19.257"	"0.264"	"0"
"1939"	"0"	"2.996"	"13.278"	"0"	"0"	"18.203"	"207.535"	"276.97"	"204.635"	"0.186"	"1.986"	"0.103"
"1940"	"2.378"	"1.72"	"1.936"	"6.769"	"3.254"	"195.569"	"255.808"	"223.327"	"74.341"	"32.997"	"61.08"	"0"
"1941"	"0.94"	"4.729"	"0.163"	"6.419"	"0"	"12.475"	"544.889"	"492.811"	"94.564"	"0.075"	"0.264"	"0"
"1942"	"1.024"	"1.628"	"0"	"0"	"14.958"	"76.697"	"640.137"	"382.706"	"94.242"	"0.075"	"0.264"	"0.886"
"1943"	"0.51"	"0"	"0"	"0.587"	"11.237"	"128.132"	"362.21"	"120.341"	"195.67"	"14.049"	"0.264"	"0"
"1944"	"0.419"	"0"	"8.096"	"0.001"	"0.216"	"203.776"	"630.508"	"701.538"	"102.969"	"35.428"	"0.264"	"0"
"1945"	"0.864"	"0"	"0"	"0.228"	"13.214"	"310.82"	"484.173"	"166.813"	"297.958"	"0.634"	"0.264"	"0"
"1946"	"0"	"0.677"	"0"	"0.03"	"2.737"	"275.279"	"292.102"	"366.059"	"76.864"	"0.112"	"67.173"	"16.496"
"1947"	"0"	"0"	"0.133"	"3.672"	"0.237"	"8.171"	"265.54"	"340.648"	"267.099"	"35.847"	"0.264"	"1.303"
"1948"	"5.721"	"0.145"	"0.796"	"0.359"	"0.325"	"131.867"	"271.448"	"168.096"	"103.187"	"17.626"	"107.257"	"0.454"
"1949"	"0"	"0"	"0"	"0"	"1.2"	"64.016"	"367.449"	"260.756"	"208.464"	"18.36"	"2.615"	"0"
"1950"	"0"	"0"	"1.404"	"0"	"1.067"	"19.799"	"557.577"	"76.026"	"369.281"	"0.186"	"0.264"	"0.281"
"1951"	"0"	"0"	"0.059"	"1.845"	"1.159"	"68.371"	"279.4"	"204.391"	"19.665"	"5.89"	"0.264"	"0"
"1952"	"0"	"0"	"0"	"0.465"	"0.059"	"170.643"	"398.613"	"224.155"	"29.595"	"0.075"	"0.264"	"0"
"1953"	"13.206"	"0"	"0"	"0.03"	"0"	"90.129"	"257.584"	"440.89"	"89.68"	"1.225"	"0.264"	"0"
"1954"	"0.676"	"0.281"	"0.288"	"0"	"0"	"148.526"	"419.45"	"216.24"	"551.829"	"7.128"	"0.264"	"0.003"
"1955"	"1.161"	"0.68"	"0"	"0"	"0.104"	"145.413"	"76.982"	"536.572"	"456.821"	"58.089"	"0.264"	"0"
"1956"	"0.441"	"0"	"0"	"0.089"	"5.011"	"181.11"	"469.559"	"358.463"	"206.393"	"53.585"	"5.868"	"0.963"
"1957"	"0"	"0"	"2.054"	"4.492"	"2.331"	"202.931"	"290.595"	"250.676"	"21.28"	"16.289"	"12.422"	"0.569"
"1958"	"0.887"	"0"	"0.811"	"0.557"	"0.458"	"118.386"	"381.248"	"284.073"	"368.393"	"49.907"	"23.912"	"0"
"1959"	"1.297"	"0"	"0"	"1.575"	"1.061"	"83.626"	"659.768"	"268.339"	"414.499"	"73.682"	"10.975"	"0"
"1960"	"1.858"	"0"	"2.463"	"0"	"3.901"	"220.967"	"284.822"	"263.686"	"66.673"	"5.612"	"0.264"	"0"
"1961"	"0.111"	"3.016"	"0"	"0"	"3.434"	"94.089"	"387.284"	"168.284"	"485.142"	"15.818"	"11.395"	"0.443"
"1962"	"0.547"	"0"	"11.467"	"1.001"	"3.507"	"32.042"	"345.083"	"191.116"	"327.715"	"0.075"	"9.125"	"5.771"
"1963"	"0.898"	"0.442"	"0.826"	"0"	"0.91"	"121.25"	"276.344"	"463.628"	"317.039"	"61.842"	"48.455"	"0.074"
"1964"	"0"	"0"	"3.565"	"0"	"1.529"	"121.547"	"321.292"	"253.099"	"133.153"	"1.235"	"0.27"	"0"
"1965"	"1.186"	"0"	"10.703"	"3.35"	"0.104"	"11.231"	"335.525"	"177.003"	"52.143"	"0.678"	"0.613"	"1.995"
"1966"	"0.75"	"0"	"0.177"	"0"	"8.469"	"121.286"	"226.71"	"82.765"	"170.403"	"0.791"	"11.978"	"0.059"
"1967"	"0"	"0"	"20.534"	"0.795"	"0.104"	"193.201"	"335.203"	"210.179"	"168.803"	"0.171"	"0.264"	"24.229"
"1968"	"0"	"0.002"	"16.44"	"0"	"0"	"28.012"	"240.567"	"292.977"	"54.384"	"4.669"	"0.264"	"0"
"1969"	"0.151"	"0"	"0"	"0"	"0"	"167.413"	"301.666"	"183.318"	"82.94"	"0.075"	"39.329"	"0"
"1970"	"0"	"0.145"	"0"	"2.168"	"8.823"	"322.413"	"237.794"	"354.269"	"228.982"	"1.896"	"0.264"	"0"
"1971"	"0"	"0"	"0"	"0"	"5.91"	"207.844"	"345.377"	"196.064"	"115.822"	"7.373"	"0.264"	"0"
"1972"	"0"	"0.782"	"0"	"0.104"	"2.729"	"63.66"	"235.568"	"296.015"	"26.008"	"0.076"	"1.017"	"0"
"1973"	"4.792"	"1.403"	"0"	"0"	"1.669"	"142.389"	"453.554"	"385.191"	"438.449"	"8.418"	"0.264"	"2.708"
"1974"	"0"	"0"	"0"	"0.251"	"38.391"	"22.809"	"142.585"	"196.059"	"70.345"	"45.296"	"0.264"	"6.901"
"1975"	"0"	"0.003"	"0.059"	"0"	"1.367"	"227.873"	"278.569"	"369.361"	"345.261"	"56.012"	"0.264"	"0"
"1976"	"6.914"	"0"	"0.34"	"0"	"0"	"199.673"	"292.479"	"328.939"	"108.838"	"0.075"	"98.164"	"0.163"
"1977"	"0"	"0.296"	"0.838"	"5.904"	"12.99"	"238.352"	"441.376"	"236.152"	"185.525"	"0.326"	"24.512"	"0.376"
"1978"	"0"	"3.916"	"0.251"	"10.265"	"0"	"142.07"	"276.758"	"373.551"	"32.573"	"18.029"	"34.478"	"12.015"
"1979"	"1.319"	"1.678"	"0.442"	"0"	"0.349"	"124.136"	"138.791"	"393.467"	"25.646"	"8.468"	"114.652"	"0.903"
"1980"	"0"	"1.033"	"0"	"0"	"0"	"404.032"	"275.067"	"339.547"	"25.124"	"0.075"	"1.84"	"31.117"
"1981"	"0.235"	"0"	"1.072"	"0"	"5.563"	"94.53"	"325.228"	"456.059"	"115.613"	"10.193"	"73.207"	"0.03"
"1982"	"0.766"	"0.216"	"0.163"	"0.543"	"16.021"	"36.09"	"355.912"	"139.182"	"43.591"	"8.13"	"187.94"	"0"
"1983"	"0"	"0"	"0"	"0.543"	"0.656"	"93.58"	"343.787"	"353.609"	"202.519"	"48.296"	"0.264"	"0"
"1984"	"0"	"0.045"	"0"	"0"	"0"	"22.539"	"276.663"	"573.441"	"80.073"	"5.688"	"0.264"	"0.679"
"1985"	"0"	"0"	"0.215"	"5.229"	"1.329"	"22.264"	"254.417"	"245.844"	"54.113"	"54.518"	"4.87"	"0"
"1986"	"0"	"0.36"	"0"	"0"	"4.285"	"226.433"	"241.775"	"250.758"	"38.542"	"3.308"	"0.265"	"0.993"
"1987"	"1.177"	"0.928"	"2.571"	"0"	"7.562"	"86.461"	"122.542"	"286.856"	"6.95"	"11.039"	"11.109"	"18.468"
"1988"	"0"	"0"	"0.044"	"6.594"	"0.354"	"99.352"	"406.639"	"256.975"	"159.979"	"17.412"	"1.22"	"0"
"1989"	"0.473"	"0"	"9.151"	"0.079"	"3.014"	"175.351"	"174.939"	"301.435"	"101.681"	"0.157"	"0.264"	"0.45"
"1990"	"0"	"1.373"	"0"	"0"	"24.264"	"72.244"	"274.393"	"567.593"	"180.968"	"9.296"	"4.66"	"19.249"
"1991"	"0"	"0"	"0.556"	"0.104"	"0.687"	"138.009"	"428.171"	"119.962"	"19.496"	"0.427"	"4.009"	"0.26"
"1992"	"0"	"0"	"0"	"0"	"7.011"	"82.738"	"195.609"	"182.026"	"277.927"	"9.231"	"3.256"	"0"
"1993"	"0"	"0"	"1.655"	"0"	"2.637"	"99.458"	"486.762"	"151.549"	"152.538"	"7.518"	"11.282"	"0.664"
"1994"	"5.495"	"0"	"2.975"	"0.794"	"1.562"	"209.731"	"345.003"	"388.252"	"406.983"	"0.812"	"0.982"	"0"
"1995"	"1.238"	"0"	"5.641"	"1.575"	"5.696"	"43.566"	"400.294"	"139.783"	"124.258"	"11.593"	"3.192"	"2.364"
"1996"	"1.436"	"0.052"	"1.794"	"1.082"	"3.938"	"108.399"	"555.385"	"267.038"	"136.688"	"35.554"	"1.364"	"0"
"1997"	"3.489"	"0"	"0"	"6.261"	"6.094"	"198.945"	"320.659"	"345.994"	"76.221"	"7.585"	"22.498"	"6.115"
"1998"	"0.787"	"0.286"	"2.571"	"0.471"	"3.838"	"112.622"	"360.056"	"221.959"	"258.943"	"30.542"	"5.716"	"0"
"1999"	"0"	"1.699"	"0"	"0"	"2.058"	"245.033"	"242.953"	"82.609"	"161.336"	"43.329"	"0.264"	"0.705"
"2000"	"0"	"0.045"	"0"	"0"	"14.529"	"100.954"	"411.556"	"144.164"	"14.201"	"3.559"	"0.884"	"0"
"2001"	"0.162"	"0"	"1.873"	"0.421"	"18.728"	"299.474"	"214.229"	"147.244"	"9.066"	"24.894"	"1.089"	"0"
"2002"	"0"	"1.188"	"4.288"	"5.589"	"0.643"	"221.256"	"50.916"	"205.076"	"97.804"	"0.128"	"2.02"	"0.379"
