
"Year"	"Jan"	"Feb"	"Mar"	"Apr"	"May"	"Jun"	"Jul"	"Aug"	"Sep"	"Oct"	"Nov"	"Dec"
"1901"	"12.578"	"15.184"	"19.573"	"23.584"	"23.9"	"25.6"	"25.289"	"25.389"	"24.395"	"23.489"	"18.684"	"14.973"
"1902"	"14.573"	"15.479"	"20.673"	"21.689"	"24.3"	"24.9"	"25.089"	"25.684"	"24.395"	"21.984"	"18.283"	"14.762"
"1903"	"12.678"	"14.578"	"18.373"	"22.789"	"23.706"	"24.5"	"25.695"	"25.084"	"24.794"	"23.684"	"19.378"	"15.062"
"1904"	"13.662"	"15.078"	"19.773"	"22.2"	"22.8"	"24.994"	"24.789"	"25.289"	"24.395"	"22.783"	"18.078"	"15.267"
"1905"	"12.268"	"11.867"	"17.267"	"20.189"	"23.3"	"25.1"	"25.089"	"24.483"	"24.494"	"23.184"	"19.378"	"15.362"
"1906"	"13.067"	"14.378"	"18.073"	"22.794"	"24.105"	"24.8"	"25.589"	"24.69"	"25.294"	"22.789"	"19.679"	"15.868"
"1907"	"14.473"	"14.573"	"16.968"	"20.789"	"23.195"	"24.5"	"24.989"	"25.889"	"24.5"	"23.283"	"19.078"	"15.267"
"1908"	"12.562"	"14.773"	"19.479"	"24.395"	"23.7"	"25.5"	"25.289"	"25.695"	"24.595"	"23.084"	"18.484"	"14.762"
"1909"	"13.662"	"14.679"	"21.173"	"21.984"	"23.505"	"24.395"	"25.389"	"25.084"	"25.595"	"23.884"	"19.873"	"15.963"
"1910"	"13.268"	"14.973"	"19.179"	"22.195"	"23.206"	"24.494"	"24.089"	"25.489"	"24.994"	"22.778"	"18.873"	"15.262"
"1911"	"14.468"	"14.473"	"18.373"	"22.389"	"23.411"	"24.895"	"25.095"	"25.089"	"24.294"	"22.189"	"17.778"	"14.562"
"1912"	"13.768"	"15.679"	"18.278"	"20.495"	"23.6"	"24.8"	"24.69"	"25.195"	"24.395"	"22.783"	"18.373"	"15.256"
"1913"	"13.367"	"14.773"	"17.373"	"22.495"	"22.6"	"24.19"	"24.994"	"25.289"	"24.7"	"22.783"	"17.778"	"14.868"
"1914"	"13.668"	"15.073"	"18.873"	"20.689"	"23.8"	"25.389"	"25.389"	"24.983"	"24.1"	"21.484"	"18.578"	"15.868"
"1915"	"14.367"	"14.773"	"18.873"	"22.189"	"23.505"	"24.494"	"25.089"	"25.483"	"24.494"	"24.978"	"20.679"	"15.567"
"1916"	"13.367"	"14.973"	"21.179"	"22.395"	"24.01"	"25.19"	"24.389"	"25.184"	"24.595"	"22.783"	"19.578"	"14.963"
"1917"	"13.067"	"14.873"	"18.273"	"21.484"	"23.489"	"24.69"	"24.895"	"25.584"	"24.294"	"22.584"	"19.578"	"15.463"
"1918"	"12.468"	"14.473"	"19.473"	"21.789"	"25"	"24.289"	"24.6"	"24.584"	"24.695"	"22.884"	"18.479"	"14.562"
"1919"	"13.968"	"14.267"	"20.373"	"21.589"	"23.2"	"25.489"	"25.089"	"25.879"	"24.095"	"23.078"	"19.673"	"15.657"
"1920"	"13.968"	"14.673"	"18.373"	"21.695"	"22.495"	"24.494"	"25.589"	"25.089"	"24.395"	"23.384"	"19.378"	"16.557"
"1921"	"13.773"	"14.679"	"20.778"	"22.506"	"24.411"	"23.9"	"24.789"	"25.483"	"24.489"	"21.884"	"18.778"	"15.051"
"1922"	"13.968"	"15.679"	"20.979"	"24.389"	"24.805"	"24.494"	"24.889"	"25.278"	"24.489"	"22.584"	"19.078"	"15.562"
"1923"	"13.668"	"14.578"	"20.273"	"23.094"	"23.305"	"24.906"	"24.989"	"25.889"	"24.395"	"22.484"	"19.373"	"15.662"
"1924"	"13.367"	"14.878"	"21.273"	"23.789"	"22.8"	"25.4"	"24.989"	"25.089"	"23.794"	"23.778"	"18.878"	"15.968"
"1925"	"12.073"	"13.468"	"19.673"	"22.6"	"22.506"	"24.69"	"24.889"	"25.289"	"23.794"	"21.99"	"18.378"	"14.468"
"1926"	"13.367"	"15.073"	"17.873"	"21.084"	"23.2"	"24.906"	"24.789"	"25.184"	"24.794"	"23.084"	"17.673"	"15.567"
"1927"	"12.867"	"14.078"	"17.679"	"21.99"	"22.805"	"24.595"	"25.19"	"25.089"	"23.9"	"22.783"	"18.378"	"15.562"
"1928"	"12.763"	"15.468"	"19.773"	"22.789"	"23.605"	"24.895"	"25.19"	"25.089"	"25.494"	"22.789"	"18.179"	"15.468"
"1929"	"12.673"	"14.272"	"20.179"	"22.094"	"23.51"	"24.4"	"24.989"	"25.184"	"24.494"	"22.484"	"18.778"	"14.963"
"1930"	"12.073"	"14.673"	"19.378"	"22.089"	"23.805"	"23.7"	"25.284"	"25.289"	"24.695"	"22.283"	"18.479"	"14.862"
"1931"	"14.067"	"14.973"	"19.479"	"22.794"	"23.105"	"25.105"	"24.789"	"25.983"	"23.5"	"23.084"	"18.278"	"15.662"
"1932"	"13.578"	"13.284"	"19.578"	"22.589"	"22.411"	"24.9"	"25.19"	"25.384"	"24.794"	"23.184"	"20.078"	"15.256"
"1933"	"12.062"	"15.378"	"20.473"	"21.484"	"22.495"	"24.994"	"25.19"	"25.084"	"24.595"	"23.184"	"18.979"	"15.567"
"1934"	"13.168"	"15.184"	"19.473"	"22.99"	"22.905"	"23.895"	"24.895"	"25.483"	"25.395"	"22.484"	"18.484"	"15.662"
"1935"	"13.662"	"15.873"	"20.668"	"22.778"	"25.4"	"25.595"	"25.589"	"24.884"	"25.19"	"23.078"	"19.378"	"15.662"
"1936"	"13.168"	"14.584"	"20.273"	"23.184"	"24.2"	"24.589"	"25.284"	"25.884"	"24.589"	"22.378"	"19.973"	"16.062"
"1937"	"13.263"	"14.979"	"19.567"	"23.879"	"24.1"	"26.19"	"26.284"	"25.084"	"24.695"	"22.679"	"19.073"	"15.567"
"1938"	"14.367"	"13.973"	"21.173"	"24.19"	"23.8"	"25.389"	"24.789"	"25.978"	"24.695"	"23.384"	"17.184"	"15.662"
"1939"	"14.067"	"15.578"	"19.067"	"24.284"	"24.206"	"24.589"	"24.794"	"25.584"	"24.395"	"22.484"	"19.078"	"16.062"
"1940"	"13.567"	"15.078"	"16.968"	"22.49"	"23.605"	"24.9"	"24.989"	"25.584"	"24.294"	"23.184"	"19.078"	"16.062"
"1941"	"12.773"	"15.184"	"21.084"	"23.489"	"23.706"	"23.994"	"25.294"	"25.384"	"24.884"	"22.189"	"18.878"	"16.373"
"1942"	"13.567"	"15.673"	"19.968"	"22.294"	"25.51"	"25.895"	"25.584"	"25.389"	"24.19"	"22.984"	"19.679"	"15.473"
"1943"	"14.578"	"14.773"	"19.179"	"20.995"	"24.311"	"25.505"	"24.489"	"25.384"	"25.089"	"23.283"	"20.067"	"16.067"
"1944"	"12.968"	"14.384"	"19.468"	"20.884"	"24.805"	"26.095"	"25.289"	"25.69"	"25.51"	"23.179"	"19.078"	"16.762"
"1945"	"13.268"	"13.673"	"20.073"	"22.479"	"23.305"	"25.805"	"25.794"	"25.784"	"25.19"	"22.278"	"18.473"	"14.462"
"1946"	"13.867"	"16.378"	"19.773"	"21.195"	"23.494"	"25.395"	"25.184"	"25.889"	"25.289"	"22.584"	"19.468"	"16.463"
"1947"	"13.651"	"15.468"	"20.078"	"24.289"	"23.794"	"26.2"	"25.095"	"25.69"	"24.595"	"23.184"	"19.078"	"16.857"
"1948"	"13.867"	"15.078"	"19.668"	"23.105"	"24.111"	"26.311"	"24.989"	"25.784"	"25.384"	"22.479"	"19.979"	"15.267"
"1949"	"14.473"	"15.073"	"19.868"	"21.395"	"23.494"	"24.395"	"24.989"	"25.289"	"24.4"	"23.784"	"18.673"	"14.267"
"1950"	"14.073"	"14.878"	"19.273"	"22.778"	"24.51"	"24.505"	"25.489"	"24.889"	"24.895"	"22.584"	"18.473"	"16.062"
"1951"	"12.973"	"15.578"	"20.673"	"22.589"	"24.605"	"25.494"	"25.679"	"25.884"	"25.184"	"24.584"	"19.484"	"15.067"
"1952"	"13.768"	"15.778"	"17.984"	"22.589"	"23.5"	"24.994"	"24.695"	"25.289"	"24.19"	"23.889"	"19.278"	"15.067"
"1953"	"12.768"	"15.679"	"21.289"	"23.3"	"24.706"	"24.8"	"24.494"	"26.084"	"24.489"	"22.884"	"18.873"	"16.562"
"1954"	"12.973"	"16.979"	"20.878"	"24.784"	"25.206"	"24.4"	"24.389"	"24.889"	"25.089"	"22.684"	"18.578"	"15.162"
"1955"	"13.662"	"15.573"	"20.783"	"22.289"	"25.089"	"24.6"	"24.595"	"24.784"	"24.784"	"24.278"	"19.878"	"14.868"
"1956"	"13.573"	"14.984"	"20.378"	"24.395"	"26.294"	"25.289"	"24.2"	"24.989"	"23.994"	"23.778"	"19.873"	"14.567"
"1957"	"13.29"	"14.968"	"18.479"	"22.794"	"24.711"	"24.7"	"25.395"	"24.989"	"24.9"	"22.484"	"19.378"	"16.562"
"1958"	"14.573"	"14.778"	"19.278"	"23.889"	"24.4"	"25.5"	"25.584"	"25.184"	"24.994"	"24.478"	"20.773"	"16.468"
"1959"	"13.962"	"14.679"	"20.262"	"24.089"	"24.406"	"25.19"	"25.095"	"25.489"	"24.3"	"23.679"	"19.868"	"16.662"
"1960"	"12.773"	"17.062"	"18.873"	"23.489"	"25.311"	"25.384"	"24.989"	"25.69"	"24.289"	"23.378"	"18.973"	"17.452"
"1961"	"14.873"	"15.457"	"20.584"	"23.7"	"25.1"	"25.395"	"25.294"	"26.078"	"25.095"	"23.478"	"17.679"	"12.962"
"1962"	"13.273"	"14.283"	"18.968"	"23.1"	"23.611"	"25.19"	"25.19"	"24.784"	"24.695"	"22.373"	"19.468"	"15.162"
"1963"	"13.056"	"15.567"	"18.957"	"21.695"	"23.406"	"25"	"25.195"	"25.578"	"24.489"	"23.162"	"18.773"	"15.862"
"1964"	"13.779"	"15.468"	"20.668"	"23.9"	"23.006"	"25.294"	"24.589"	"25.384"	"24.895"	"24.663"	"19.584"	"15.657"
"1965"	"13.873"	"14.278"	"17.979"	"22.6"	"24.4"	"24.895"	"24.389"	"24.679"	"23.789"	"21.878"	"18.084"	"15.452"
"1966"	"11"	"16.273"	"20.573"	"23.195"	"25.195"	"25.184"	"25.384"	"25.673"	"23.589"	"21.479"	"19.783"	"15.584"
"1967"	"14.184"	"16.567"	"18.878"	"21.889"	"23.7"	"24.989"	"25.095"	"25.1"	"24.4"	"21.378"	"16.789"	"15.662"
"1968"	"12.273"	"14.673"	"20.078"	"22.395"	"24.206"	"24.395"	"24.784"	"25.289"	"25.19"	"21.078"	"17.006"	"13.684"
"1969"	"12.773"	"16.173"	"21.168"	"22.789"	"24.195"	"25.289"	"24.989"	"25.184"	"24.494"	"22.389"	"20.578"	"16.067"
"1970"	"13.268"	"14.278"	"18.684"	"23.389"	"25.206"	"24.994"	"25.389"	"25.489"	"24.895"	"23.384"	"17.984"	"15.567"
"1971"	"13.578"	"14.868"	"19.078"	"21.979"	"22.695"	"24.784"	"24.289"	"24.478"	"24.4"	"23.384"	"18.767"	"16.256"
"1972"	"15.351"	"14.873"	"20.767"	"22.184"	"25.206"	"24.695"	"25.7"	"24.889"	"23.389"	"22.778"	"17.773"	"15.657"
"1973"	"15.051"	"15.668"	"18.767"	"23.389"	"23.994"	"24.584"	"25.089"	"25.289"	"24.695"	"22.121"	"18.195"	"15.662"
"1974"	"13.263"	"16.362"	"20.157"	"23.789"	"23.794"	"24.695"	"24.584"	"25.289"	"24.095"	"25.373"	"18.773"	"14.468"
"1975"	"13.168"	"15.173"	"19.368"	"23.289"	"24"	"25.095"	"24.084"	"24.983"	"24.284"	"25.267"	"19.484"	"15.168"
"1976"	"12.973"	"16.463"	"20.473"	"22.789"	"23.494"	"24.6"	"24.489"	"24.784"	"23.794"	"23.078"	"22.073"	"15.862"
"1977"	"14.556"	"16.662"	"21.578"	"22.789"	"21.99"	"23.895"	"24.978"	"25.584"	"24.6"	"22.778"	"20.756"	"14.762"
"1978"	"11.178"	"14.468"	"17.689"	"21.789"	"24.395"	"24.789"	"24.69"	"24.879"	"24.395"	"23.767"	"20.378"	"16.057"
"1979"	"14.267"	"14.168"	"19.673"	"23.089"	"24.9"	"25.1"	"24.994"	"25.794"	"23.895"	"23.679"	"21.767"	"15.567"
"1980"	"13.195"	"15.968"	"19.573"	"23.794"	"23.289"	"25.095"	"25.294"	"25.684"	"24.895"	"22.783"	"19.479"	"17.457"
"1981"	"11.984"	"16.262"	"19.073"	"22.179"	"23.195"	"25.095"	"25.184"	"25.983"	"24.395"	"23.673"	"18.973"	"15.062"
"1982"	"14.562"	"14.773"	"18.673"	"22.778"	"23.605"	"24.794"	"25.9"	"25.6"	"24.9"	"21.895"	"19.267"	"16.652"
"1983"	"12.389"	"13.279"	"19.573"	"21.278"	"23.195"	"25.1"	"25.7"	"25.889"	"25.395"	"23.483"	"18.173"	"14.679"
"1984"	"13.573"	"15.868"	"21.562"	"22.889"	"25.305"	"24.895"	"24.69"	"24.884"	"23.695"	"24.673"	"18.067"	"17.573"
"1985"	"13.668"	"16.179"	"22.668"	"23.69"	"23.494"	"25.2"	"23.983"	"25.884"	"24.489"	"22.506"	"18.294"	"16.668"
"1986"	"14.462"	"15.562"	"19.767"	"21.9"	"22"	"25.3"	"24.595"	"25.195"	"24.095"	"22.179"	"19.968"	"14.567"
"1987"	"13.067"	"15.662"	"19.773"	"22.189"	"23.189"	"25.7"	"25.294"	"24.978"	"24.994"	"21.7"	"17.111"	"16.062"
"1988"	"15.546"	"17.152"	"20.657"	"23.483"	"24.4"	"24.494"	"25.078"	"25.684"	"25.2"	"23.584"	"18.979"	"16.256"
"1989"	"13.862"	"15.689"	"20.373"	"22.794"	"24.406"	"24.494"	"25.1"	"25.179"	"25.3"	"23.978"	"19.267"	"14.868"
"1990"	"17.046"	"15.473"	"18.273"	"21.9"	"24.195"	"25.889"	"25.095"	"25.578"	"25.089"	"22.884"	"20.479"	"16.562"
"1991"	"12.089"	"16.673"	"20.473"	"23.179"	"24.505"	"24.784"	"25.69"	"25.573"	"24.589"	"23.879"	"19.094"	"15.362"
"1992"	"14.256"	"13.968"	"22.173"	"23.189"	"22.6"	"24.4"	"24.19"	"25.278"	"24.695"	"23.679"	"19.089"	"15.168"
"1993"	"14.862"	"17.073"	"18.473"	"22.084"	"23.494"	"25"	"25.489"	"25.578"	"24.395"	"24.379"	"20.468"	"17.463"
"1994"	"14.367"	"14.173"	"20.968"	"22.094"	"24.3"	"25.595"	"25.6"	"25.483"	"25.294"	"23.278"	"18.389"	"15.368"
"1995"	"11.168"	"15"	"20.473"	"22.3"	"26"	"26.084"	"25.294"	"25.478"	"24.895"	"24.179"	"18.362"	"17.251"
"1996"	"13.957"	"15.067"	"19.984"	"22.49"	"24.695"	"24.095"	"25.384"	"25.273"	"24.6"	"23.879"	"20.283"	"16.968"
"1997"	"12.562"	"14.573"	"20.378"	"23.1"	"23.895"	"24.994"	"25.289"	"25.784"	"23.895"	"21.878"	"19.078"	"16.062"
"1998"	"13.873"	"16.473"	"19.273"	"22.99"	"25.395"	"26.095"	"24.989"	"25.584"	"25.195"	"25.184"	"20.479"	"16.562"
"1999"	"14.673"	"17.062"	"21.468"	"27.089"	"25.2"	"25.69"	"24.789"	"25.289"	"24.69"	"23.983"	"20.578"	"16.557"
"2000"	"14.673"	"15.168"	"19.578"	"22.1"	"23.994"	"25.695"	"25.589"	"24.989"	"24.195"	"24.084"	"20.384"	"16.468"
"2001"	"14.673"	"16.767"	"19.267"	"23.294"	"25.1"	"25.395"	"25.784"	"26.078"	"25.494"	"23.989"	"20.884"	"17.267"
"2002"	"13.862"	"16.773"	"20.778"	"22.794"	"23.8"	"25.6"	"25.789"	"25.289"	"24.595"	"23.184"	"20.078"	"16.862"
