
"Year"	"Jan"	"Feb"	"Mar"	"Apr"	"May"	"Jun"	"Jul"	"Aug"	"Sep"	"Oct"	"Nov"	"Dec"
"1901"	"15.424"	"17.989"	"21.78"	"25.131"	"25.1"	"26.304"	"26.41"	"26.494"	"26.042"	"24.839"	"20.588"	"17.09"
"1902"	"16.324"	"17.872"	"22.957"	"23.051"	"25.157"	"25.51"	"26.308"	"26.646"	"25.976"	"23.613"	"19.986"	"16.57"
"1903"	"15.279"	"17.151"	"21.047"	"25.109"	"25.315"	"25.083"	"26.799"	"25.632"	"25.905"	"25.231"	"21.252"	"17.125"
"1904"	"15.893"	"17.979"	"23.15"	"24.069"	"24.251"	"26.243"	"26.029"	"26.209"	"26.134"	"24.16"	"20.545"	"16.601"
"1905"	"15.474"	"15.032"	"20.142"	"22.38"	"24.839"	"25.884"	"26.513"	"26.032"	"26.34"	"24.532"	"20.88"	"17.08"
"1906"	"15.513"	"17.475"	"20.288"	"25.06"	"25.767"	"25.852"	"26.825"	"25.588"	"26.933"	"24.043"	"21.116"	"17.466"
"1907"	"17.366"	"17.1"	"20.364"	"23.017"	"24.879"	"25.462"	"26.034"	"26.798"	"25.849"	"24.528"	"20.815"	"17.465"
"1908"	"15.998"	"17.591"	"22.566"	"26.348"	"24.883"	"25.668"	"26.07"	"26.623"	"26.266"	"24.245"	"20.614"	"17.399"
"1909"	"15.99"	"17.863"	"23.714"	"23.554"	"25.467"	"25.181"	"27.159"	"25.816"	"26.847"	"25.247"	"22.002"	"17.562"
"1910"	"15.773"	"17.595"	"21.202"	"22.003"	"24.88"	"25.145"	"25.441"	"26.199"	"26.348"	"23.987"	"20.983"	"16.377"
"1911"	"15.936"	"17.38"	"20.847"	"22.861"	"24.628"	"25.256"	"25.845"	"26.096"	"25.833"	"24.273"	"20.335"	"16.094"
"1912"	"15.971"	"18.354"	"21.403"	"22.045"	"25.209"	"25.438"	"26.203"	"26.229"	"25.613"	"23.941"	"21.165"	"17.135"
"1913"	"16.96"	"19.825"	"22.024"	"25.272"	"24.324"	"25.191"	"26.756"	"26.115"	"25.841"	"23.909"	"20.301"	"16.023"
"1914"	"15.993"	"17.862"	"21.381"	"22.54"	"24.744"	"25.398"	"26.511"	"25.69"	"25.964"	"22.939"	"20.58"	"17.304"
"1915"	"17.484"	"17.809"	"21.011"	"24.518"	"24.808"	"25.08"	"25.178"	"26.383"	"25.872"	"25.99"	"22.552"	"17.849"
"1916"	"15.966"	"17.928"	"22.906"	"23.691"	"25.427"	"26.001"	"25.436"	"26.204"	"26.198"	"24.518"	"21.468"	"16.354"
"1917"	"15.597"	"17.43"	"20.985"	"23.61"	"24.44"	"25.217"	"26.068"	"26.15"	"25.998"	"24.518"	"21.561"	"17.034"
"1918"	"15.875"	"17.514"	"21.965"	"23.651"	"25.335"	"24.172"	"26.027"	"25.892"	"26.039"	"23.969"	"20.583"	"17.163"
"1919"	"16.992"	"17.542"	"23.42"	"24.13"	"24.973"	"25.984"	"26.07"	"26.927"	"24.997"	"23.992"	"21.261"	"17.596"
"1920"	"17.146"	"17.188"	"21.472"	"23.38"	"24.806"	"25.345"	"26.959"	"26.097"	"26.144"	"24.461"	"21.532"	"18.174"
"1921"	"17.801"	"18.967"	"22.031"	"23.974"	"25.498"	"24.968"	"26.543"	"26.544"	"25.795"	"23.236"	"20.839"	"17.013"
"1922"	"17.172"	"18.81"	"23.244"	"26.046"	"25.401"	"25.693"	"26.874"	"26.596"	"26.098"	"24.293"	"22.03"	"17.427"
"1923"	"17.323"	"17.236"	"21.846"	"24.824"	"24.847"	"25.631"	"26.487"	"27.264"	"26.368"	"24.001"	"21.363"	"17.788"
"1924"	"16.489"	"17.822"	"24.625"	"25.035"	"24.917"	"25.856"	"26.627"	"26.53"	"25.647"	"25.548"	"21.392"	"17.07"
"1925"	"14.277"	"16.057"	"21.78"	"23.562"	"24.91"	"25.475"	"26.026"	"26.189"	"25.368"	"23.397"	"20.448"	"16.986"
"1926"	"16.011"	"17.824"	"21.094"	"23.867"	"24.788"	"25.166"	"26.287"	"26.875"	"25.681"	"24.599"	"20.254"	"17.834"
"1927"	"15.437"	"16.821"	"20.22"	"24.758"	"24.728"	"25.524"	"26.104"	"26.299"	"25.463"	"24.448"	"20.731"	"17.537"
"1928"	"16.582"	"19.121"	"22.523"	"24.537"	"24.298"	"25.497"	"26.785"	"26.374"	"26.199"	"23.82"	"19.891"	"17.809"
"1929"	"16.071"	"16.743"	"21.86"	"23.805"	"24.501"	"25.662"	"26.287"	"26.224"	"26.129"	"24.509"	"20.251"	"16.538"
"1930"	"14.28"	"18.19"	"21.621"	"23.971"	"25.24"	"24.955"	"26.393"	"26.305"	"26.786"	"23.434"	"20.815"	"16.964"
"1931"	"16.757"	"18.538"	"21.55"	"25.172"	"24.637"	"25.638"	"25.998"	"27.05"	"25.699"	"25.339"	"20.439"	"17.627"
"1932"	"16.209"	"16.461"	"22.481"	"24.875"	"25.727"	"25.735"	"26.083"	"26.157"	"26.28"	"24.876"	"22.105"	"17.493"
"1933"	"15.592"	"17.938"	"22.931"	"23.685"	"24.594"	"25.562"	"26.171"	"26.201"	"26.11"	"24.694"	"20.289"	"16.84"
"1934"	"15.829"	"17.772"	"22.095"	"24.525"	"24.712"	"24.654"	"26.172"	"26.578"	"26.709"	"23.935"	"19.73"	"16.469"
"1935"	"15.3"	"17.584"	"22.389"	"24.58"	"26.188"	"25.145"	"26.377"	"25.797"	"25.978"	"24.221"	"20.996"	"16.727"
"1936"	"14.607"	"17.148"	"22.479"	"24.863"	"24.902"	"25.806"	"26.141"	"26.638"	"25.824"	"23.77"	"21.305"	"17.104"
"1937"	"14.504"	"17.684"	"21.907"	"25.175"	"24.804"	"25.838"	"26.858"	"26.539"	"26.282"	"24.448"	"19.63"	"17.619"
"1938"	"16.807"	"17.069"	"23.787"	"26.188"	"25.023"	"25.923"	"25.996"	"26.314"	"26.24"	"24.934"	"19.924"	"17.542"
"1939"	"16.198"	"18.411"	"21.97"	"26.509"	"25.278"	"25.453"	"26.015"	"26.722"	"25.981"	"24.367"	"21.322"	"17.427"
"1940"	"15.38"	"17.4"	"19.738"	"25.504"	"25.176"	"25.523"	"26.119"	"26.407"	"25.604"	"24.429"	"21.169"	"17.789"
"1941"	"15.882"	"18.06"	"23.304"	"25.407"	"24.733"	"25.636"	"26.391"	"26.702"	"26.042"	"24.428"	"20.077"	"18.176"
"1942"	"16.36"	"18.983"	"22.266"	"24.124"	"24.736"	"25.692"	"27.258"	"26.318"	"25.841"	"25.013"	"21.683"	"16.584"
"1943"	"16.664"	"16.719"	"20.95"	"22.845"	"25.498"	"25.705"	"26.553"	"25.959"	"26.266"	"24.515"	"21.842"	"17.93"
"1944"	"15.758"	"17.019"	"21.78"	"23.482"	"25.346"	"25.518"	"27.111"	"26.87"	"25.539"	"24.705"	"20.132"	"17.361"
"1945"	"16.356"	"16.351"	"22.475"	"24.41"	"24.404"	"25.916"	"26.65"	"25.874"	"26.403"	"24.135"	"20.886"	"17.172"
"1946"	"16.812"	"19.941"	"22.174"	"23.262"	"24.467"	"25.696"	"26.199"	"26.669"	"26.099"	"24.128"	"21.315"	"17.604"
"1947"	"16.274"	"18.165"	"21.967"	"25.332"	"25.313"	"25.493"	"26.328"	"26.388"	"26.092"	"23.452"	"20.664"	"18.369"
"1948"	"16.699"	"17.482"	"21.613"	"23.837"	"24.717"	"25.574"	"25.998"	"26.162"	"26.023"	"23.725"	"20.637"	"16.772"
"1949"	"16.097"	"17.361"	"21.972"	"21.87"	"24.197"	"25.045"	"25.867"	"26.049"	"26.131"	"25.276"	"20.492"	"15.335"
"1950"	"16.235"	"17.759"	"21.679"	"24.257"	"25.744"	"25.584"	"26.03"	"25.756"	"26.415"	"24.886"	"20.464"	"17.18"
"1951"	"15.971"	"18.417"	"22.885"	"24.178"	"25.043"	"25.239"	"25.742"	"26.657"	"26.131"	"24.608"	"21.085"	"18.66"
"1952"	"17.006"	"19.477"	"21.272"	"24.771"	"24.152"	"25.986"	"26.266"	"26.281"	"25.887"	"25.303"	"20.713"	"16.797"
"1953"	"15.528"	"18.552"	"22.456"	"24.558"	"24.372"	"25.103"	"25.991"	"26.814"	"25.702"	"23.898"	"20.829"	"18.444"
"1954"	"15.405"	"18.985"	"22.669"	"24.692"	"24.947"	"24.617"	"25.53"	"26.115"	"26.485"	"23.674"	"20.027"	"17.602"
"1955"	"16.237"	"18.216"	"22.652"	"24.067"	"25.084"	"25.09"	"25.515"	"25.704"	"25.934"	"25.17"	"21.564"	"16.453"
"1956"	"15.753"	"17.851"	"22.652"	"25.102"	"26.011"	"25.21"	"26.278"	"26.206"	"26.684"	"24.744"	"21.187"	"17.397"
"1957"	"16.329"	"17.123"	"21.376"	"25.515"	"24.711"	"25.679"	"26.624"	"27.427"	"26.691"	"23.848"	"20.642"	"17.311"
"1958"	"17.451"	"17.434"	"23.513"	"25.082"	"25.95"	"26.644"	"27.167"	"26.18"	"26.571"	"25.213"	"21.266"	"17.511"
"1959"	"16.033"	"17.162"	"21.915"	"25.135"	"24.659"	"25.398"	"27.319"	"27.046"	"25.901"	"23.98"	"20.929"	"17.897"
"1960"	"17.102"	"20.642"	"21.757"	"26.319"	"26.316"	"25.972"	"25.994"	"27.188"	"25.947"	"24.725"	"21.009"	"18.245"
"1961"	"17.854"	"16.957"	"22.753"	"25.387"	"25.622"	"26.497"	"27.032"	"27.154"	"26.508"	"24.888"	"20.387"	"16.403"
"1962"	"14.551"	"17.131"	"22.94"	"25.982"	"25.84"	"27.103"	"27.019"	"26.691"	"27.339"	"24.709"	"19.971"	"17.346"
"1963"	"16.001"	"19.548"	"22.514"	"24.167"	"24.424"	"25.234"	"26.593"	"26.767"	"26.729"	"24.253"	"20.865"	"17.505"
"1964"	"16.03"	"17.597"	"22.915"	"23.601"	"24.864"	"25.104"	"25.589"	"26.53"	"26.347"	"25.065"	"21.994"	"17.566"
"1965"	"16.547"	"18.047"	"21.115"	"24.437"	"25.198"	"25.364"	"25.878"	"25.265"	"25.877"	"24.524"	"20.549"	"18.459"
"1966"	"16.769"	"20.052"	"22.962"	"24.899"	"25.991"	"24.687"	"26.305"	"25.941"	"25.69"	"23.243"	"21.526"	"17.587"
"1967"	"16.907"	"18.641"	"20.901"	"23.721"	"24.327"	"25.049"	"26.218"	"26.315"	"25.449"	"23.797"	"19.118"	"17.001"
"1968"	"16.44"	"17.395"	"22.347"	"23.531"	"24.202"	"24.181"	"25.778"	"26.317"	"25.635"	"24.538"	"21.073"	"17.867"
"1969"	"16.428"	"19.32"	"24.222"	"24.776"	"25.612"	"25.879"	"26.562"	"25.379"	"25.971"	"24.239"	"20.833"	"17.809"
"1970"	"15.498"	"18.259"	"21.659"	"24.604"	"24.897"	"25.86"	"25.172"	"25.556"	"26.055"	"23.948"	"20.666"	"17.689"
"1971"	"16.092"	"17.604"	"21.453"	"23.594"	"24.902"	"25.513"	"26.147"	"25.378"	"25.937"	"24.736"	"21.273"	"17.658"
"1972"	"16.574"	"16.773"	"22.671"	"23.092"	"24.659"	"25.512"	"26.595"	"26.339"	"25.68"	"24.812"	"20.794"	"17.734"
"1973"	"16.527"	"19.108"	"21.703"	"25.521"	"24.788"	"25.229"	"26.153"	"26.747"	"25.91"	"24.903"	"21.543"	"17.198"
"1974"	"15.428"	"17.24"	"22.021"	"23.946"	"24.745"	"25.322"	"25.306"	"26.2"	"25.244"	"25.4"	"21.956"	"15.982"
"1975"	"15.599"	"18.483"	"22.622"	"25.226"	"24.722"	"26.127"	"25.472"	"26.684"	"25.699"	"24.992"	"20.329"	"16.395"
"1976"	"16.245"	"18.735"	"22.287"	"24.515"	"24.277"	"24.703"	"25.964"	"25.387"	"26.007"	"23.938"	"21.548"	"17.097"
"1977"	"15.519"	"17.803"	"23.23"	"22.284"	"23.518"	"24.541"	"26.098"	"25.989"	"26.542"	"23.276"	"21.025"	"17.2"
"1978"	"14.401"	"18.061"	"21.526"	"24.291"	"24.584"	"24.612"	"25.781"	"27.278"	"26.087"	"25.749"	"21.141"	"18.332"
"1979"	"17.243"	"18"	"22.28"	"25.38"	"25.902"	"26.724"	"26.282"	"26.572"	"25.688"	"24.067"	"22.044"	"17.628"
"1980"	"15.674"	"17.921"	"22.004"	"24.987"	"24.041"	"26.3"	"26.755"	"26.071"	"26.451"	"23.897"	"21.381"	"18.477"
"1981"	"16.656"	"18.275"	"21.485"	"22.986"	"24.579"	"26.456"	"26.025"	"26.706"	"26.294"	"24.99"	"22.012"	"18.027"
"1982"	"17.596"	"17.921"	"22.012"	"23.152"	"25.832"	"25.786"	"26.581"	"26.962"	"26.173"	"24.661"	"20.495"	"16.965"
"1983"	"15.775"	"17.115"	"21.742"	"23.904"	"24.25"	"26.324"	"26.588"	"26.604"	"26.005"	"25.473"	"21.964"	"16.81"
"1984"	"15.214"	"18.311"	"23.322"	"25.097"	"24.006"	"26.398"	"25.237"	"26.795"	"24.635"	"24.837"	"20.712"	"16.686"
"1985"	"15.995"	"17.036"	"22.254"	"23.929"	"24.88"	"25.665"	"25.356"	"26.671"	"25.614"	"24.754"	"20.44"	"18.107"
"1986"	"16.455"	"18.555"	"22.737"	"23.174"	"25.102"	"26.18"	"25.55"	"26.606"	"25.485"	"23.381"	"20.925"	"18.018"
"1987"	"16.985"	"19.487"	"21.758"	"24.01"	"25.383"	"26.886"	"26.013"	"25.954"	"26.042"	"24.562"	"22.269"	"19.499"
"1988"	"17.044"	"19.529"	"21.885"	"25.258"	"24.997"	"26.131"	"26.255"	"25.147"	"25.571"	"25.081"	"22.357"	"19.313"
"1989"	"15.158"	"17.49"	"21.85"	"23.83"	"25.716"	"25.558"	"25.685"	"26.219"	"25.669"	"24.804"	"20.373"	"16.836"
"1990"	"16.321"	"18.2"	"20.34"	"22.292"	"25.02"	"25.569"	"26.019"	"26.495"	"25.678"	"24.018"	"22.253"	"17.817"
"1991"	"15.293"	"18.205"	"22.824"	"23.844"	"22.888"	"25.4"	"25.97"	"26.263"	"25.247"	"24.176"	"20.927"	"16.631"
"1992"	"15.375"	"16.033"	"21.683"	"24.848"	"24.24"	"26.048"	"24.822"	"26.275"	"25.58"	"23.904"	"21.124"	"16.075"
"1993"	"14.923"	"18.47"	"20.778"	"23.341"	"23.231"	"24.753"	"25.749"	"25.803"	"25.281"	"24.015"	"20.979"	"19.39"
"1994"	"17.907"	"18.27"	"22.45"	"24.736"	"26.379"	"26.033"	"27.585"	"27.255"	"26.96"	"24.303"	"22.118"	"17.558"
"1995"	"16.576"	"18.971"	"23.24"	"25.7"	"26.481"	"26.006"	"26.298"	"26.615"	"26.197"	"25.355"	"22.485"	"18.107"
"1996"	"16.535"	"19.127"	"23.424"	"26.148"	"25.169"	"26.16"	"26.083"	"26.187"	"26.798"	"24.575"	"21.715"	"19.203"
"1997"	"16.403"	"17.685"	"23.32"	"23.523"	"25.872"	"26.296"	"27.148"	"27.768"	"26.418"	"24.896"	"21.674"	"18.251"
"1998"	"16.156"	"19.379"	"21.276"	"26.68"	"26.818"	"26.514"	"27.034"	"26.994"	"27.04"	"25.949"	"23.033"	"19.768"
"1999"	"17.818"	"22.244"	"24.025"	"26.756"	"25.311"	"27.287"	"26.66"	"26.304"	"26.529"	"25.501"	"22.451"	"19.999"
"2000"	"16.592"	"19.035"	"21.506"	"24.521"	"25.528"	"26.849"	"27.066"	"26.602"	"26.189"	"25.096"	"21.368"	"17.854"
"2001"	"16.581"	"19.385"	"22.813"	"24.831"	"26.023"	"26.837"	"27.475"	"27.229"	"27.544"	"25.172"	"21.974"	"18.057"
"2002"	"17.154"	"19.852"	"23.043"	"24.457"	"25.4"	"25.861"	"27.137"	"26.801"	"26.207"	"24.837"	"21.756"	"18.17"
