
"Year"	"Jan"	"Feb"	"Mar"	"Apr"	"May"	"Jun"	"Jul"	"Aug"	"Sep"	"Oct"	"Nov"	"Dec"
"1901"	"4.25"	"2.121"	"12.969"	"41.764"	"48.141"	"94.517"	"58.337"	"50.649"	"48.274"	"61.726"	"110.94"	"31.809"
"1902"	"19.094"	"0.104"	"25.767"	"24.391"	"26.437"	"57.134"	"111.34"	"47.235"	"104.028"	"140.234"	"60.33"	"87.303"
"1903"	"11.752"	"1.046"	"0.089"	"16.522"	"72.517"	"35.778"	"99.914"	"48.908"	"73.685"	"114.586"	"100.377"	"52.331"
"1904"	"66.707"	"0.723"	"3.421"	"12.724"	"35.723"	"103.847"	"80.946"	"40.233"	"46.172"	"118.391"	"0.875"	"12.11"
"1905"	"0.119"	"1.651"	"1.194"	"23.205"	"46.876"	"114.922"	"71.257"	"38.107"	"40.479"	"107.89"	"23.362"	"0.371"
"1906"	"14.463"	"1.488"	"1.714"	"18.361"	"31.543"	"52.267"	"96.59"	"60.442"	"29.629"	"58.293"	"56.728"	"53.945"
"1907"	"28.203"	"0.369"	"17.681"	"64.096"	"20.258"	"90.438"	"82.809"	"92.761"	"72.083"	"73.604"	"71.805"	"59.446"
"1908"	"3.566"	"18.429"	"23.238"	"25.002"	"40.649"	"81.45"	"94.069"	"44.544"	"51.992"	"123.639"	"8.16"	"9.746"
"1909"	"31.161"	"3.928"	"7.856"	"34.693"	"75.196"	"68.736"	"83.928"	"56.197"	"60.584"	"63.291"	"43.623"	"25.315"
"1910"	"6.568"	"17.448"	"0.813"	"41.253"	"35.037"	"81.656"	"80.86"	"76.744"	"50.117"	"116.359"	"110.61"	"0.371"
"1911"	"0.476"	"14.452"	"1.326"	"26.808"	"49.8"	"137.114"	"80.428"	"22.073"	"16.831"	"100.896"	"62.454"	"67.48"
"1912"	"0.535"	"4.848"	"2.756"	"30.91"	"53.733"	"152.269"	"68.549"	"65.182"	"57.268"	"150.494"	"78.625"	"12.819"
"1913"	"6.34"	"1.017"	"2.759"	"23.264"	"54.229"	"57.19"	"80.643"	"26.291"	"39.51"	"141.114"	"26.629"	"16.396"
"1914"	"0.817"	"0.957"	"9.407"	"7.196"	"42.957"	"62.74"	"101.445"	"45.559"	"55.317"	"119.78"	"36.252"	"51.985"
"1915"	"7.18"	"4.202"	"20.051"	"36.397"	"33.592"	"72.862"	"90.479"	"44.826"	"118.048"	"33.08"	"157.74"	"19.972"
"1916"	"0.119"	"2.597"	"2.657"	"36.13"	"66.31"	"75.211"	"109.77"	"61.596"	"95.541"	"99.633"	"74.855"	"1.798"
"1917"	"0.505"	"6.047"	"27.356"	"10.391"	"73.971"	"88.644"	"43.112"	"65.572"	"139.322"	"67.216"	"112.563"	"30.705"
"1918"	"21.534"	"1.937"	"5.203"	"12.068"	"154.531"	"53.057"	"29.702"	"48.612"	"17.062"	"83.238"	"143.842"	"41.353"
"1919"	"31.335"	"1.976"	"15.828"	"5.751"	"65.35"	"87.35"	"64.717"	"55.585"	"84.596"	"74.87"	"104.517"	"38.859"
"1920"	"79.218"	"0.487"	"9.946"	"29.863"	"13.884"	"116.179"	"98.364"	"38.279"	"22.802"	"145.814"	"124.915"	"5.795"
"1921"	"12.301"	"0.957"	"0.884"	"56.058"	"26.06"	"84.117"	"51.389"	"93.569"	"42.139"	"127.516"	"79.643"	"9.518"
"1922"	"11.794"	"3.782"	"1.43"	"20.454"	"98.258"	"126.021"	"92.399"	"45.565"	"39.497"	"90.288"	"105.549"	"20.447"
"1923"	"26.765"	"0.594"	"42.906"	"7.258"	"21.781"	"64.538"	"92.117"	"107.124"	"53.954"	"62.267"	"23.405"	"10.35"
"1924"	"12.903"	"0.089"	"16.778"	"23.696"	"38.427"	"115.59"	"118.951"	"63.057"	"60.638"	"71.968"	"89.001"	"34.139"
"1925"	"4.324"	"3.249"	"28.652"	"16.301"	"31.129"	"84.084"	"57.549"	"69.821"	"24.581"	"76.949"	"74.683"	"42.327"
"1926"	"47.688"	"0.265"	"2.565"	"3.543"	"56.734"	"49.029"	"79.102"	"58.748"	"62.7"	"87.743"	"44.082"	"6.296"
"1927"	"4.333"	"35.533"	"14.138"	"30.275"	"58.232"	"107.39"	"102.767"	"52.982"	"74.855"	"46.7"	"42.176"	"5.341"
"1928"	"4.34"	"58.863"	"2.58"	"28.362"	"14.001"	"65.648"	"67.648"	"66.631"	"30.399"	"104.383"	"72.937"	"39.751"
"1929"	"3.35"	"16.115"	"9.047"	"71.391"	"27.102"	"138.164"	"107.991"	"33.074"	"61.218"	"151.501"	"60.658"	"17.218"
"1930"	"5.539"	"8.863"	"13.378"	"38.07"	"108.75"	"81.032"	"32.869"	"40.15"	"100.245"	"144.18"	"117.252"	"69.639"
"1931"	"7.474"	"0.089"	"0.295"	"25.809"	"31.384"	"71.621"	"71.522"	"122.668"	"40.02"	"40.811"	"67.042"	"106.873"
"1932"	"0.119"	"1.15"	"4.801"	"40.474"	"106.542"	"43.131"	"54.97"	"67.187"	"80.204"	"167.947"	"117.38"	"19.588"
"1933"	"0.119"	"3.36"	"10.17"	"35.632"	"126.528"	"103.025"	"87.581"	"79.023"	"96.246"	"112.503"	"46.061"	"27.722"
"1934"	"88.348"	"0.089"	"7.576"	"32.672"	"22.124"	"108.669"	"37.115"	"41.206"	"7.647"	"90.591"	"31.325"	"0.371"
"1935"	"87.506"	"2.152"	"3.93"	"39.619"	"12.629"	"115.451"	"77.073"	"55.157"	"70.829"	"90.075"	"86.636"	"4.863"
"1936"	"0.476"	"8.859"	"22.732"	"6.338"	"95.817"	"72.067"	"80.944"	"44.449"	"93.926"	"47.124"	"103.868"	"4.482"
"1937"	"5.343"	"6.881"	"17.69"	"58.778"	"27.893"	"36.566"	"94.245"	"47.571"	"28.551"	"106.521"	"60.711"	"8.081"
"1938"	"0.222"	"21.456"	"11.622"	"24.174"	"41.202"	"61.738"	"91.077"	"45.721"	"40.445"	"62.229"	"19.581"	"11.881"
"1939"	"43.646"	"3.322"	"4.686"	"64.018"	"51.937"	"79.559"	"80.451"	"54.09"	"30.532"	"91.389"	"125.939"	"17.792"
"1940"	"0.222"	"0.089"	"0.993"	"49.523"	"54.991"	"73.375"	"104.013"	"73.614"	"19.282"	"87.299"	"119.178"	"24.407"
"1941"	"16.279"	"2.476"	"0.339"	"63.223"	"74.096"	"105.329"	"44.592"	"76.628"	"61.671"	"95.896"	"66.527"	"79.982"
"1942"	"0.149"	"0.089"	"9.844"	"40.596"	"58.276"	"87.796"	"83.799"	"45.636"	"26.001"	"130.892"	"41.727"	"144.453"
"1943"	"42.337"	"2.638"	"7.687"	"44.688"	"106.816"	"115.919"	"77.392"	"23.691"	"34.954"	"115.093"	"106.736"	"19.511"
"1944"	"0.934"	"30.285"	"28.848"	"21.013"	"87.418"	"109.55"	"77.262"	"35.492"	"42.973"	"92.385"	"65.935"	"45.672"
"1945"	"3.352"	"5.206"	"1.739"	"33.005"	"13.329"	"38.435"	"67.888"	"44.482"	"20.376"	"75.66"	"119.422"	"2.447"
"1946"	"0.653"	"0.221"	"20.543"	"31.132"	"33.011"	"137.262"	"51.891"	"85.646"	"77.386"	"75.002"	"120.568"	"148.351"
"1947"	"21.867"	"4.6"	"21.618"	"45.954"	"19.9"	"68.166"	"100.774"	"84.896"	"87.355"	"66"	"9.484"	"30.22"
"1948"	"14.384"	"1.802"	"18.429"	"14.341"	"72.92"	"86.953"	"90.164"	"69.519"	"31.555"	"52.677"	"119.096"	"22.554"
"1949"	"4.677"	"0.089"	"0.089"	"22.312"	"96.765"	"76.067"	"88.83"	"66.616"	"68.892"	"50.447"	"38.182"	"0.371"
"1950"	"0.222"	"21.575"	"7.178"	"16.833"	"45.928"	"74.393"	"71.198"	"65.711"	"64.316"	"74.339"	"48.43"	"0.877"
"1951"	"0.446"	"0.089"	"4.483"	"77.735"	"30.033"	"87.4"	"74.759"	"35.124"	"74.633"	"81.593"	"65.684"	"2.315"
"1952"	"74.657"	"43.569"	"6.972"	"33.904"	"60.525"	"62.55"	"63.37"	"63.884"	"15.115"	"111.418"	"22.445"	"33.371"
"1953"	"3.103"	"5.496"	"4.769"	"58.304"	"25.21"	"54.548"	"105.436"	"34.033"	"39.451"	"116.688"	"37.63"	"0.712"
"1954"	"29.896"	"0.915"	"20.484"	"59.311"	"50.559"	"78.369"	"67.518"	"79.097"	"40.023"	"61.978"	"13.532"	"58.592"
"1955"	"1.04"	"2.29"	"1.43"	"42.423"	"150.692"	"99.854"	"48.639"	"39.092"	"104.173"	"131.913"	"98.819"	"18.127"
"1956"	"20.968"	"15.133"	"0.354"	"67.991"	"52.74"	"128.244"	"39.704"	"62.486"	"39.626"	"142.975"	"68.398"	"1.885"
"1957"	"0.431"	"3.212"	"5.602"	"13.428"	"116.665"	"164.913"	"113.22"	"43.462"	"15.668"	"67.436"	"84.879"	"4.967"
"1958"	"1.115"	"13.119"	"11.35"	"24.374"	"128.834"	"96.583"	"44.141"	"60.973"	"22.061"	"64.973"	"96.546"	"5.332"
"1959"	"0.594"	"2.962"	"1.152"	"57.927"	"64.848"	"114.571"	"115.923"	"40.66"	"89.159"	"85.659"	"91.427"	"42.995"
"1960"	"0.119"	"3.286"	"9.955"	"51.172"	"100.686"	"49.767"	"100.52"	"34.093"	"72.558"	"96.477"	"139.117"	"5.266"
"1961"	"16.797"	"35.835"	"11.008"	"24.706"	"119.205"	"88.541"	"107.116"	"88.229"	"89.487"	"90.951"	"30.105"	"8.829"
"1962"	"34.631"	"45.699"	"8.528"	"18.203"	"142.78"	"15.663"	"93.085"	"73.386"	"62.579"	"142.41"	"14.64"	"61.701"
"1963"	"12.253"	"4.631"	"32.257"	"16.47"	"22.953"	"69.463"	"96.55"	"76.078"	"58.112"	"62.458"	"66.602"	"38.486"
"1964"	"0.119"	"1.37"	"42.727"	"4.719"	"31.303"	"50.358"	"110.849"	"71.015"	"76.052"	"91.982"	"66.044"	"45.826"
"1965"	"0.609"	"4.079"	"6.475"	"16.522"	"73.42"	"54.672"	"45.8"	"57.383"	"56.824"	"63.362"	"72.997"	"75.056"
"1966"	"3.161"	"4.878"	"7.448"	"33.241"	"35.753"	"62.992"	"23.36"	"56.616"	"73.076"	"169.783"	"97.429"	"96.608"
"1967"	"23.392"	"0.089"	"17.199"	"7.067"	"82.933"	"85.094"	"58.853"	"85.732"	"17.788"	"60.492"	"16.964"	"30.004"
"1968"	"0.119"	"16.978"	"25.213"	"84.182"	"14.039"	"62.824"	"133.508"	"50.28"	"48.208"	"39.021"	"60.986"	"8.319"
"1969"	"9.935"	"1.261"	"3.305"	"33.942"	"57.599"	"68.507"	"100.345"	"60.929"	"42.499"	"111.501"	"22.964"	"26.297"
"1970"	"56.723"	"2.462"	"5.809"	"60.651"	"65.723"	"70.963"	"62.431"	"82.162"	"53.261"	"88.147"	"75.187"	"2.024"
"1971"	"9.67"	"9.386"	"2.599"	"23.665"	"67.692"	"114.53"	"83.959"	"83.548"	"71.164"	"64.516"	"7.634"	"77.113"
"1972"	"4.267"	"0.104"	"0.089"	"15.104"	"132.726"	"109.828"	"98.084"	"46.846"	"53.493"	"111.258"	"78.623"	"156.552"
"1973"	"0.119"	"0.46"	"1.891"	"36.335"	"26.631"	"85.372"	"75.866"	"49.858"	"19.007"	"71.823"	"30.23"	"18.616"
"1974"	"0.119"	"4.791"	"2.06"	"32.683"	"51.01"	"27.588"	"104.184"	"74.372"	"95.672"	"35.894"	"39.028"	"5.079"
"1975"	"0.386"	"6.645"	"34.483"	"40.693"	"41.891"	"84.476"	"124.918"	"80.304"	"96.098"	"122.191"	"97.774"	"10.579"
"1976"	"0.267"	"0.089"	"3.927"	"65.075"	"30.253"	"30.181"	"50.237"	"56.301"	"45.977"	"89.58"	"131.496"	"33.948"
"1977"	"0.119"	"10.138"	"10.262"	"20.442"	"79.919"	"93.456"	"66.5"	"57.075"	"66.414"	"148.545"	"138.833"	"13.589"
"1978"	"0.605"	"15.6"	"1.68"	"23.295"	"42.18"	"60.75"	"97.444"	"58.661"	"38.801"	"49.183"	"89.823"	"11.798"
"1979"	"15.995"	"41.572"	"4.872"	"22.517"	"41.483"	"83.512"	"73.213"	"53.148"	"58.868"	"71.404"	"152.72"	"26.864"
"1980"	"0.164"	"2.52"	"7.551"	"43.892"	"55.713"	"89.358"	"82.603"	"55.645"	"28.628"	"104.821"	"49.533"	"66.668"
"1981"	"3.537"	"1.494"	"15.974"	"24.183"	"66.792"	"110.48"	"95.063"	"81.393"	"94.616"	"96.594"	"64.799"	"5.414"
"1982"	"0.119"	"0.089"	"2.448"	"11.121"	"75.899"	"95.463"	"62.4"	"58.977"	"17.962"	"39.961"	"58.307"	"5.342"
"1983"	"0.119"	"0.089"	"0.089"	"10.322"	"32.72"	"64.795"	"69.651"	"67.364"	"73.833"	"35.858"	"90.49"	"83.718"
"1984"	"22.609"	"25.634"	"14.575"	"26.592"	"10.051"	"81.308"	"89.723"	"29.056"	"41.662"	"98.773"	"16.755"	"20.706"
"1985"	"28.882"	"8.133"	"9.446"	"16.346"	"52.735"	"67.605"	"44.559"	"31.17"	"36.08"	"48.667"	"82.35"	"15.164"
"1986"	"38.383"	"15.819"	"0.966"	"29.98"	"41.853"	"74.116"	"46.035"	"72.59"	"71.82"	"46.797"	"89.581"	"13.988"
"1987"	"0.52"	"0.089"	"7.629"	"33.452"	"46.957"	"58.533"	"29.511"	"117.905"	"32.325"	"122.284"	"59.418"	"137.983"
"1988"	"0.119"	"2.964"	"4.954"	"48.335"	"41.791"	"93.544"	"126.708"	"68.065"	"118.569"	"7.19"	"58.004"	"24.276"
"1989"	"20.248"	"0.089"	"4.064"	"18.072"	"37.687"	"95.716"	"113.148"	"41.788"	"58.642"	"102.58"	"23.174"	"6.499"
"1990"	"3.209"	"4.03"	"4.255"	"8.734"	"88.799"	"46.626"	"85.104"	"34.586"	"22.101"	"98.072"	"95.265"	"13.015"
"1991"	"2.85"	"4.875"	"5.663"	"25.828"	"49.049"	"201.607"	"98.124"	"60.429"	"12.529"	"130.438"	"32.146"	"2.491"
"1992"	"5.195"	"0.089"	"0.089"	"10.206"	"50.09"	"147.906"	"112.884"	"47.862"	"40.888"	"112.538"	"95.765"	"8.155"
"1993"	"0.119"	"0.844"	"9.262"	"17.397"	"41.275"	"100.685"	"99.686"	"35.795"	"31.676"	"117.792"	"142.18"	"89.511"
"1994"	"6.739"	"14.21"	"6.11"	"27.075"	"54.665"	"57.701"	"109.558"	"61.243"	"29.625"	"124.094"	"37.866"	"13.639"
"1995"	"32.272"	"0.089"	"5.833"	"39.672"	"89.677"	"71.387"	"73.725"	"61.799"	"47.166"	"70.912"	"59.689"	"0.371"
"1996"	"9.589"	"4.252"	"2.234"	"60.512"	"23.97"	"125.229"	"77.427"	"87.468"	"59.801"	"110.386"	"18.907"	"36.175"
"1997"	"8.954"	"0.089"	"11.354"	"23.412"	"33.493"	"75.02"	"69.141"	"67.366"	"116.003"	"116.249"	"148.739"	"42.404"
"1998"	"0.787"	"1.876"	"0.625"	"36.801"	"78.313"	"63.588"	"107.069"	"115.759"	"104.437"	"132.172"	"91.492"	"80.519"
"1999"	"2.85"	"20.838"	"8.424"	"40.714"	"102.891"	"83.479"	"74.573"	"37.934"	"22.09"	"139.195"	"52.645"	"6.248"
"2000"	"0.267"	"20.093"	"4.593"	"43.012"	"12.407"	"71.277"	"51.313"	"148.178"	"47.755"	"101.592"	"34.146"	"38.548"
"2001"	"5.195"	"7.072"	"1.068"	"80.981"	"50.709"	"51.343"	"108.618"	"71.425"	"119.435"	"80.935"	"44.303"	"10.849"
"2002"	"0.267"	"3.808"	"6.107"	"14.479"	"83.213"	"86.787"	"25.008"	"36.681"	"15.441"	"145.138"	"71.855"	"3.327"
