
"Year"	"Jan"	"Feb"	"Mar"	"Apr"	"May"	"Jun"	"Jul"	"Aug"	"Sep"	"Oct"	"Nov"	"Dec"
"1901"	"13.162"	"15.696"	"23.134"	"28.196"	"32.738"	"35.717"	"32.595"	"29.754"	"30.183"	"28.346"	"21.461"	"16.548"
"1902"	"16.009"	"18.214"	"25.234"	"29.494"	"33.295"	"33.416"	"30.917"	"30.877"	"29.059"	"26.723"	"20.657"	"14.946"
"1903"	"14.807"	"16.392"	"21.796"	"27.372"	"32.194"	"35.913"	"33.026"	"29.576"	"29.961"	"26.215"	"19.836"	"14.701"
"1904"	"14.205"	"17.292"	"22.24"	"29.496"	"32.568"	"34.453"	"29.871"	"28.652"	"28.782"	"26.5"	"19.958"	"15.863"
"1905"	"12.984"	"12.373"	"19.511"	"26.293"	"33.989"	"35.599"	"32.02"	"30.021"	"30.961"	"27.439"	"22.28"	"16.028"
"1906"	"13.788"	"15.195"	"20.832"	"28.198"	"35.172"	"33.493"	"31.474"	"29.542"	"28.503"	"27.119"	"21.658"	"16.524"
"1907"	"16.206"	"15.114"	"20.155"	"26.216"	"31.295"	"34.165"	"33.527"	"28.981"	"30.32"	"27.22"	"21.158"	"14.6"
"1908"	"14.081"	"17.089"	"22.49"	"29.399"	"32.968"	"35.174"	"29.678"	"28.029"	"28.962"	"26.117"	"20.062"	"14.999"
"1909"	"13.807"	"15.813"	"22.733"	"26.767"	"32.045"	"32.513"	"29.227"	"28.781"	"28.387"	"26.62"	"21.961"	"14.727"
"1910"	"13.783"	"17.012"	"22.734"	"27.575"	"33.471"	"33.496"	"30.749"	"29.229"	"29.185"	"25.396"	"19.763"	"15.224"
"1911"	"16.131"	"17.313"	"20.812"	"28.416"	"34.496"	"34.402"	"32.921"	"30.792"	"28.733"	"27.021"	"18.683"	"15.144"
"1912"	"15.203"	"18.008"	"22.012"	"28.714"	"33.597"	"35.896"	"31.63"	"29.306"	"27.982"	"26.62"	"19.738"	"15.324"
"1913"	"15.184"	"16.737"	"20.538"	"29.874"	"31.293"	"32.043"	"30.634"	"30.632"	"30.79"	"27.868"	"20.658"	"15.531"
"1914"	"16.603"	"16.698"	"22.316"	"29.125"	"33.537"	"33.497"	"30.472"	"29.402"	"29.41"	"25.564"	"21.26"	"14.703"
"1915"	"14.406"	"15.09"	"22.486"	"28.348"	"35.35"	"34.614"	"33.222"	"30.676"	"30.828"	"28.248"	"20.933"	"16.224"
"1916"	"15.483"	"16.274"	"25.29"	"30.254"	"32.995"	"32.973"	"30.772"	"28.602"	"28.863"	"25.778"	"18.639"	"14.504"
"1917"	"15.028"	"17.242"	"22.469"	"25.571"	"29.093"	"32.877"	"29.628"	"28.381"	"27.689"	"24.824"	"17.836"	"15.425"
"1918"	"13.761"	"17.284"	"22.335"	"26.396"	"34.972"	"33.895"	"33.931"	"31.486"	"30.193"	"27.244"	"20.66"	"14.78"
"1919"	"14.784"	"15.891"	"23.213"	"27.976"	"32.475"	"36.153"	"30.119"	"28.68"	"29.042"	"26.217"	"19.961"	"14.804"
"1920"	"14.407"	"16.216"	"22.917"	"28.276"	"29.879"	"32.636"	"30.081"	"29.984"	"31.088"	"28.227"	"22.141"	"16.184"
"1921"	"15.686"	"17.893"	"25.688"	"31.731"	"35.811"	"35.392"	"33.33"	"29.101"	"28.711"	"25.843"	"20.561"	"17.325"
"1922"	"14.488"	"18.237"	"24.194"	"29.552"	"33.553"	"33.473"	"31.123"	"28.773"	"28.205"	"25.846"	"20.162"	"15.281"
"1923"	"14.382"	"16.214"	"23.43"	"29.551"	"32.574"	"36.379"	"31.552"	"28.424"	"29.284"	"25.74"	"20.164"	"15.501"
"1924"	"13.583"	"16.412"	"23.932"	"29.273"	"30.52"	"35.953"	"31.196"	"29.08"	"28.07"	"25.498"	"19.92"	"15.58"
"1925"	"12.661"	"14.59"	"22.983"	"30.648"	"32.647"	"30.749"	"28.822"	"29.969"	"30.304"	"26.963"	"19.481"	"15.123"
"1926"	"14.88"	"18.231"	"21.612"	"25.695"	"30.819"	"35.596"	"31.646"	"28.826"	"28.261"	"25.442"	"18.437"	"14.677"
"1927"	"12.838"	"14.918"	"21.411"	"27.693"	"31.918"	"34.217"	"30.425"	"28.423"	"28.785"	"26.462"	"19.939"	"16.506"
"1928"	"14.029"	"17.289"	"23.053"	"28.47"	"34.595"	"34.192"	"31.426"	"31.106"	"30.094"	"27.421"	"21.465"	"15.109"
"1929"	"14.384"	"15.567"	"24.808"	"29.674"	"33.957"	"34.271"	"30.581"	"28.799"	"30.546"	"26.746"	"21.084"	"14.608"
"1930"	"13.91"	"16.614"	"23.74"	"28.301"	"32.932"	"33.299"	"29.148"	"29.177"	"29.376"	"26.764"	"20.066"	"15.224"
"1931"	"15.652"	"15.319"	"21.756"	"29.993"	"33.295"	"35.169"	"31.373"	"29.429"	"28.507"	"25.819"	"19.63"	"15.921"
"1932"	"16.124"	"15.959"	"23.841"	"28.703"	"32.04"	"35.676"	"31.381"	"28.254"	"28.852"	"26.541"	"19.812"	"15.043"
"1933"	"12.5"	"17.368"	"22.838"	"27.245"	"30.022"	"32.64"	"29.297"	"27.4"	"27.609"	"25.396"	"19.707"	"15.855"
"1934"	"12.907"	"18.139"	"21.706"	"28.346"	"32.294"	"32.966"	"30.347"	"27.874"	"29.511"	"25.745"	"20.064"	"16.228"
"1935"	"12.785"	"17.292"	"22.535"	"25.893"	"33.45"	"35.277"	"30.177"	"28.725"	"28.511"	"25.952"	"20.941"	"15.427"
"1936"	"13.261"	"17.368"	"22.238"	"28.471"	"34.973"	"31.585"	"29.845"	"28.548"	"28.508"	"26.296"	"20.409"	"15.429"
"1937"	"13.581"	"17.161"	"21.112"	"26.96"	"32.842"	"34.289"	"30.104"	"30.76"	"29.388"	"25.846"	"20.255"	"14.429"
"1938"	"13.731"	"15.515"	"24.236"	"29.776"	"35.195"	"32.654"	"31.445"	"30.276"	"30.783"	"27.794"	"19.183"	"15.045"
"1939"	"15.154"	"17.336"	"20.314"	"27.525"	"34.807"	"32.366"	"30.945"	"31.046"	"29.752"	"27.538"	"20.057"	"15.894"
"1940"	"14.528"	"16.489"	"21.289"	"27.644"	"34.324"	"35.031"	"31.578"	"28.173"	"28.865"	"26.462"	"21.209"	"15.503"
"1941"	"13.434"	"17.89"	"25.19"	"31.702"	"34.828"	"32.666"	"33.311"	"30.177"	"29.636"	"29.07"	"20.729"	"16.578"
"1942"	"13.108"	"18.116"	"24.513"	"30.573"	"34.276"	"35.376"	"29.377"	"27.855"	"27.458"	"26.121"	"21.266"	"14.455"
"1943"	"14.758"	"16.993"	"23.732"	"27.369"	"33.113"	"33.652"	"29.804"	"28.004"	"29.265"	"26.121"	"21.165"	"16.551"
"1944"	"13.71"	"16.712"	"21.631"	"27.767"	"34.728"	"33.169"	"29.801"	"29.354"	"28.832"	"25.622"	"20.987"	"16.452"
"1945"	"12.313"	"16.04"	"23.659"	"27.794"	"32.7"	"35.127"	"30.634"	"29.605"	"28.036"	"25.798"	"20.464"	"14.032"
"1946"	"15.005"	"18.538"	"22.361"	"30.185"	"33.396"	"33.796"	"30.196"	"29.082"	"29.074"	"26.849"	"20.112"	"14.927"
"1947"	"13.658"	"17.215"	"23.885"	"30.254"	"33.899"	"36.201"	"32.316"	"29.88"	"28.493"	"25.546"	"21.639"	"15.633"
"1948"	"13.528"	"16.493"	"21.552"	"31.43"	"34.692"	"35.422"	"30.973"	"28.124"	"29.007"	"27.494"	"19.809"	"15.599"
"1949"	"16.38"	"17.461"	"23.279"	"30.193"	"34.461"	"34.876"	"30.321"	"29.279"	"29.989"	"26.423"	"19.262"	"14.924"
"1950"	"15.806"	"14.911"	"21.906"	"27.67"	"33.541"	"34.971"	"30.023"	"28.813"	"28.21"	"25.69"	"19.387"	"13.874"
"1951"	"13.858"	"16.593"	"22.744"	"26.701"	"32.779"	"33.776"	"32.703"	"29.659"	"29.564"	"29.542"	"22.087"	"16.004"
"1952"	"15.729"	"19.199"	"22.838"	"31.38"	"33.934"	"33.663"	"31.205"	"28.328"	"30.219"	"27.277"	"20.92"	"16.228"
"1953"	"14.064"	"19.221"	"26.544"	"29.893"	"34.122"	"34.807"	"30.699"	"28.556"	"29.243"	"26.875"	"20.563"	"18.222"
"1954"	"13.71"	"17.992"	"22.962"	"29.7"	"34.846"	"35"	"31.304"	"30.363"	"29.7"	"24.245"	"20.741"	"16.086"
"1955"	"14.482"	"17.566"	"25.299"	"27.252"	"31.76"	"35.13"	"31.722"	"28.473"	"28.607"	"24.995"	"19.863"	"15.954"
"1956"	"14.567"	"17.478"	"23.27"	"29.827"	"34.795"	"34.249"	"29.81"	"28.633"	"30.139"	"25.227"	"19.367"	"16.206"
"1957"	"13.866"	"15.653"	"21.772"	"27.575"	"31.944"	"33.681"	"30.859"	"29.512"	"27.901"	"26.423"	"21.335"	"16.077"
"1958"	"16.325"	"16.335"	"24.24"	"31.072"	"33.169"	"35.116"	"29.998"	"28.78"	"28.718"	"26.266"	"20.762"	"16.825"
"1959"	"14.239"	"16.369"	"23.918"	"29.022"	"32.521"	"34.659"	"30.557"	"29.26"	"29.268"	"27.501"	"20.794"	"16.504"
"1960"	"14.141"	"19.725"	"22.348"	"27.651"	"33.342"	"35.053"	"30.649"	"28.427"	"29.738"	"25.942"	"19.942"	"16.254"
"1961"	"15.023"	"15.562"	"23.489"	"28.467"	"33.137"	"33.845"	"30.823"	"28.499"	"29.284"	"25.665"	"19.328"	"13.228"
"1962"	"13.41"	"18.014"	"23.032"	"30.091"	"33.37"	"34.695"	"31.754"	"29.857"	"28.108"	"24.867"	"20.535"	"15.689"
"1963"	"13.576"	"19.222"	"23.223"	"28.733"	"32.202"	"33.958"	"32.642"	"28.799"	"28.102"	"27.403"	"22.519"	"15.634"
"1964"	"12.88"	"17.136"	"24.999"	"30.134"	"31.634"	"34.494"	"29.475"	"29.494"	"27.851"	"25.911"	"19.464"	"15.826"
"1965"	"16.374"	"17.095"	"22.479"	"27.004"	"32.083"	"35.54"	"31.145"	"29.593"	"28.57"	"26.886"	"21.902"	"15.158"
"1966"	"15.431"	"19.78"	"23.155"	"29.415"	"33.081"	"32.845"	"32.533"	"29.08"	"28.598"	"27.078"	"20.8"	"14.919"
"1967"	"13.275"	"19.356"	"22.08"	"28.142"	"32.861"	"34.903"	"30.841"	"28.349"	"28.02"	"26.104"	"20.673"	"16.139"
"1968"	"14.039"	"15.615"	"22.689"	"28.216"	"32.591"	"34.689"	"30.478"	"29.489"	"30.199"	"26.378"	"20.966"	"16.074"
"1969"	"14.952"	"17.84"	"25.58"	"29.931"	"31.916"	"35.824"	"30.872"	"29.708"	"28.514"	"27.774"	"22.178"	"16.246"
"1970"	"15.288"	"16.49"	"22.491"	"30"	"33.626"	"32.329"	"31.946"	"29.567"	"29.26"	"27.194"	"20.583"	"16.374"
"1971"	"13.585"	"17.628"	"22.955"	"29.95"	"31.39"	"31.815"	"29.555"	"27.936"	"28.164"	"25.997"	"20.684"	"16.065"
"1972"	"15.006"	"15.152"	"23.812"	"28.277"	"34.235"	"35.156"	"31.97"	"29.06"	"27.97"	"26.046"	"21.564"	"16.648"
"1973"	"14.928"	"19.125"	"23.015"	"30.741"	"34.199"	"34.842"	"31.664"	"28.363"	"29.598"	"25.82"	"20.303"	"14.158"
"1974"	"14.243"	"15.94"	"24.636"	"30.854"	"32.847"	"33.647"	"30.223"	"29.528"	"30.236"	"26.908"	"20.445"	"15.053"
"1975"	"13.908"	"16.291"	"22.8"	"30.453"	"34.237"	"32.372"	"29.91"	"28.639"	"27.604"	"26.482"	"19.523"	"16.254"
"1976"	"15.675"	"17.838"	"22.269"	"27.974"	"32.186"	"31.762"	"29.939"	"27.843"	"28.733"	"27.242"	"21.427"	"15.42"
"1977"	"14.29"	"17.377"	"24.614"	"28.397"	"30.575"	"31.977"	"28.401"	"28.878"	"27.52"	"26.425"	"22.126"	"17.306"
"1978"	"14.074"	"15.321"	"20.735"	"28.414"	"35.847"	"33.002"	"29.185"	"28.012"	"28.102"	"26.097"	"20.847"	"15.509"
"1979"	"14.998"	"16.269"	"20.879"	"29.155"	"29.587"	"33.684"	"29.804"	"29.742"	"28.354"	"27.652"	"22.577"	"16.684"
"1980"	"14.623"	"18.4"	"22.457"	"30.997"	"34.346"	"32.702"	"28.704"	"28.5"	"28.723"	"27.402"	"20.981"	"15.943"
"1981"	"15.186"	"18.171"	"22.234"	"29.593"	"32.436"	"33.423"	"28.425"	"29.057"	"29.417"	"26.264"	"19.842"	"15.776"
"1982"	"14.828"	"15.951"	"20.392"	"27.359"	"29.678"	"33.133"	"32.003"	"28.409"	"29.691"	"26.858"	"21.474"	"16.387"
"1983"	"13.684"	"16.149"	"22.19"	"25.701"	"31.396"	"32.868"	"30.658"	"28.746"	"29.255"	"26.215"	"19.632"	"15.762"
"1984"	"13.749"	"15.351"	"23.862"	"29.795"	"35.729"	"34.282"	"29.762"	"28.846"	"27.879"	"25.143"	"20.18"	"16.264"
"1985"	"13.999"	"17.921"	"25.253"	"29.893"	"34.438"	"34.073"	"29.629"	"29.158"	"28.268"	"24.356"	"20.479"	"16.504"
"1986"	"14.804"	"16.589"	"23.253"	"29.098"	"31.479"	"33.754"	"30.377"	"29.824"	"29.299"	"26.34"	"22.78"	"15.546"
"1987"	"15.506"	"18.873"	"24.057"	"30.137"	"30.202"	"35.376"	"34.358"	"30.794"	"31.124"	"28.119"	"21.474"	"16.077"
"1988"	"16.407"	"18.894"	"23.139"	"30.372"	"35.392"	"33.244"	"29.728"	"28.591"	"29.603"	"26.326"	"21.318"	"16.641"
"1989"	"13.865"	"16.693"	"22.614"	"27.75"	"33.855"	"33.143"	"30.39"	"29.405"	"28.985"	"26.537"	"21.388"	"15.41"
"1990"	"16.62"	"17.374"	"21.513"	"28.719"	"32.591"	"34.223"	"30.002"	"29.306"	"28.462"	"25.869"	"21.42"	"16.566"
"1991"	"14.262"	"17.995"	"23.036"	"28.17"	"33.294"	"33.563"	"32.809"	"29.082"	"29.607"	"25.843"	"20.418"	"15.852"
"1992"	"15.175"	"16.535"	"22.915"	"28.616"	"32.615"	"35.191"	"30.762"	"29.025"	"28.162"	"26.221"	"20.44"	"16.754"
"1993"	"15.148"	"19.028"	"21.505"	"28.842"	"34.097"	"33.882"	"30.359"	"30.34"	"27.606"	"26.264"	"21.665"	"16.084"
"1994"	"16.416"	"17.095"	"24.408"	"27.468"	"33.696"	"34.171"	"29.794"	"28.76"	"28.544"	"25.942"	"20.941"	"16.666"
"1995"	"13.966"	"17.571"	"21.815"	"28.596"	"34.173"	"35.564"	"31.505"	"28.113"	"29.028"	"27.264"	"21.041"	"16.31"
"1996"	"14.432"	"17.644"	"24.185"	"29.323"	"32.774"	"32.099"	"30.7"	"28.297"	"28.486"	"26.329"	"20.066"	"15.158"
"1997"	"13.606"	"16.99"	"22.56"	"27.172"	"30.879"	"31.6"	"31.007"	"29.052"	"28.984"	"24.371"	"20.085"	"13.71"
"1998"	"14.081"	"17.494"	"21.208"	"29.572"	"34.194"	"33.418"	"30.748"	"29.241"	"29.308"	"26.566"	"21.363"	"15.951"
"1999"	"14.007"	"17.792"	"24.112"	"30.87"	"33.67"	"33.27"	"31.405"	"30.178"	"29.058"	"26.641"	"21.861"	"16.106"
"2000"	"14.827"	"15.895"	"22.712"	"30.894"	"34.303"	"32.288"	"29.748"	"29.721"	"29.303"	"26.971"	"22.189"	"16.625"
"2001"	"14.003"	"17.994"	"23.333"	"29.173"	"32.673"	"31.273"	"30.585"	"30.202"	"30.004"	"27.642"	"21.763"	"16.928"
"2002"	"14.784"	"17.37"	"24.09"	"30.791"	"34.192"	"33.743"	"32.678"	"30.076"	"27.822"	"27.067"	"21.558"	"17.069"
