
"Year"	"Jan"	"Feb"	"Mar"	"Apr"	"May"	"Jun"	"Jul"	"Aug"	"Sep"	"Oct"	"Nov"	"Dec"
"1901"	"13.353"	"16.5"	"23.218"	"29.269"	"33.676"	"36.868"	"33.167"	"29.699"	"29.848"	"27.99"	"21.524"	"16.199"
"1902"	"16.343"	"18.733"	"25.353"	"30.152"	"34.067"	"34.618"	"30.832"	"30.374"	"29.175"	"26.216"	"20.481"	"15.093"
"1903"	"15.094"	"16.684"	"22.287"	"28.678"	"33.47"	"36.148"	"33.231"	"29.667"	"29.973"	"25.75"	"20.073"	"15.001"
"1904"	"14.946"	"18.076"	"23.045"	"30.468"	"32.91"	"34.815"	"29.891"	"28.643"	"28.817"	"26.273"	"19.881"	"15.61"
"1905"	"13.078"	"13.209"	"19.97"	"26.918"	"33.824"	"36.45"	"31.699"	"29.939"	"30.414"	"26.797"	"21.898"	"15.668"
"1906"	"14.21"	"15.794"	"21.387"	"29.586"	"35.568"	"34.218"	"31.283"	"29.55"	"28.935"	"26.674"	"21.799"	"16.417"
"1907"	"16.627"	"15.769"	"20.361"	"27.378"	"32.218"	"35.291"	"33.857"	"29.3"	"30.517"	"27.399"	"21.3"	"14.634"
"1908"	"14.235"	"17.836"	"23.045"	"31.129"	"33.962"	"36.033"	"30.377"	"28.91"	"29.459"	"26.166"	"20.332"	"14.86"
"1909"	"15.155"	"16.299"	"23.803"	"27.619"	"33.02"	"32.615"	"30.1"	"29.468"	"29.168"	"26.691"	"21.573"	"15.31"
"1910"	"14.479"	"17.525"	"23.445"	"29.153"	"33.832"	"33.948"	"31.366"	"29.681"	"29.417"	"25.292"	"19.855"	"14.975"
"1911"	"16.445"	"17.8"	"21.128"	"29.326"	"35.242"	"34.913"	"32.517"	"29.832"	"28.592"	"26.699"	"19.167"	"14.876"
"1912"	"15.219"	"18.478"	"22.478"	"29.318"	"34.058"	"36.065"	"31.814"	"29.648"	"28.434"	"26.306"	"19.716"	"15.042"
"1913"	"15.177"	"17.185"	"21.028"	"30.55"	"31.985"	"32.64"	"31.599"	"30.956"	"30.914"	"27.591"	"20.406"	"15.259"
"1914"	"16.719"	"17.692"	"22.585"	"29.85"	"33.692"	"34.558"	"30.947"	"29.557"	"29.698"	"25.509"	"21.317"	"14.995"
"1915"	"15.203"	"16.051"	"22.404"	"29.044"	"35.568"	"34.948"	"32.64"	"30.232"	"30.272"	"27.922"	"21.141"	"16.023"
"1916"	"15.377"	"17.135"	"25.702"	"30.959"	"34.093"	"32.998"	"31.141"	"29.201"	"29.117"	"26.033"	"19.366"	"14.283"
"1917"	"15.119"	"17.367"	"22.318"	"26.427"	"29.619"	"33.406"	"30.492"	"29.242"	"28.484"	"25.435"	"18.741"	"15.31"
"1918"	"13.952"	"17.893"	"23.12"	"27.811"	"35.057"	"33.671"	"34.04"	"31.113"	"30.457"	"27.007"	"20.691"	"14.477"
"1919"	"14.802"	"16.224"	"23.428"	"28.518"	"33.102"	"35.948"	"30.283"	"29.242"	"29.31"	"25.949"	"20.332"	"14.852"
"1920"	"15.276"	"16.818"	"22.936"	"29.369"	"31.086"	"33.942"	"30.358"	"30.107"	"30.841"	"27.848"	"21.999"	"16.291"
"1921"	"15.603"	"18.425"	"25.969"	"32.076"	"36.576"	"35.123"	"33.099"	"29.007"	"28.517"	"25.642"	"20.348"	"16.959"
"1922"	"14.503"	"18.834"	"24.669"	"30.217"	"34.803"	"34.083"	"30.759"	"28.625"	"28.559"	"25.799"	"20.425"	"14.734"
"1923"	"14.919"	"16.725"	"23.735"	"30.509"	"33.827"	"37.173"	"31.673"	"29.1"	"29.409"	"25.51"	"20.533"	"15.46"
"1924"	"13.904"	"17.252"	"24.721"	"30.344"	"31.829"	"37.033"	"30.764"	"29.226"	"28.809"	"25.942"	"20.299"	"15.517"
"1925"	"13.028"	"15.901"	"23.01"	"30.841"	"33.018"	"31.894"	"29.492"	"30.174"	"29.781"	"26.699"	"19.657"	"15.05"
"1926"	"14.744"	"18.634"	"21.719"	"26.46"	"31.852"	"36.499"	"32.042"	"29.467"	"28.693"	"25.46"	"18.6"	"14.736"
"1927"	"13.212"	"15.976"	"21.844"	"28.911"	"32.75"	"34.966"	"30.844"	"28.968"	"29.36"	"26.349"	"19.889"	"16.542"
"1928"	"14.487"	"17.819"	"23.502"	"29.026"	"35.01"	"34.381"	"31.39"	"31.374"	"30.842"	"27.382"	"21.607"	"15.46"
"1929"	"14.587"	"16.284"	"24.694"	"30.36"	"34.985"	"34.649"	"30.943"	"28.883"	"30.558"	"26.324"	"21.073"	"14.953"
"1930"	"14.135"	"17.135"	"24.436"	"29.494"	"33.775"	"34.358"	"30.067"	"29.293"	"29.832"	"26.608"	"20.282"	"15.351"
"1931"	"16.318"	"16.26"	"22.71"	"31.001"	"34.11"	"35.91"	"31.857"	"30.225"	"28.96"	"25.785"	"20.258"	"16.142"
"1932"	"17.044"	"16.601"	"23.735"	"29.211"	"33.128"	"36.241"	"32.516"	"29.284"	"29.51"	"26.324"	"20.199"	"15.06"
"1933"	"12.912"	"17.819"	"23.744"	"27.476"	"30.867"	"33.556"	"30.525"	"29.118"	"28.669"	"25.678"	"20.349"	"15.5"
"1934"	"13.77"	"18.319"	"22.029"	"29.361"	"33.47"	"33.508"	"30.775"	"28.892"	"29.392"	"24.702"	"19.925"	"15.852"
"1935"	"13.078"	"17.791"	"23.21"	"26.727"	"34.336"	"36.173"	"30.947"	"29.05"	"29.167"	"25.518"	"20.847"	"15.058"
"1936"	"13.437"	"17.176"	"23.202"	"28.918"	"34.775"	"32.307"	"30.107"	"29.042"	"28.842"	"25.809"	"20.906"	"15.786"
"1937"	"13.627"	"17.632"	"21.653"	"27.809"	"33.358"	"35.055"	"31.467"	"30.005"	"29.524"	"25.59"	"20.841"	"14.586"
"1938"	"14.396"	"15.817"	"24.728"	"30.626"	"34.923"	"32.764"	"31.07"	"29.706"	"30.181"	"27.034"	"19.482"	"15.368"
"1939"	"15.712"	"17.642"	"21.171"	"28.311"	"35.143"	"33.416"	"30.856"	"30.404"	"29.075"	"26.924"	"20.241"	"15.517"
"1940"	"14.719"	"16.659"	"21.22"	"28.111"	"34.259"	"35.44"	"32.082"	"29.367"	"29.084"	"26.449"	"21.683"	"15.033"
"1941"	"14.22"	"18.2"	"25.503"	"32.034"	"34.849"	"33.813"	"33.207"	"30.732"	"30.223"	"28.53"	"21.13"	"16.933"
"1942"	"13.704"	"18.692"	"24.893"	"30.676"	"34.969"	"36.016"	"30.717"	"29.1"	"28.592"	"26.333"	"21.859"	"15.152"
"1943"	"15.779"	"17.844"	"24.245"	"27.86"	"34.303"	"34.601"	"31.341"	"28.633"	"29.684"	"26.291"	"21.774"	"16.667"
"1944"	"14.212"	"16.951"	"21.97"	"28.059"	"35.291"	"33.833"	"31.074"	"30.107"	"29.648"	"25.892"	"21.557"	"17.159"
"1945"	"13.011"	"16.959"	"24.119"	"28.276"	"33.91"	"35.491"	"31.767"	"30.259"	"29.185"	"25.542"	"20.823"	"14.51"
"1946"	"15.92"	"19.642"	"23.202"	"30.482"	"33.466"	"34.164"	"30.989"	"29.899"	"30.074"	"26.79"	"21.024"	"16.552"
"1947"	"13.77"	"18.874"	"24.62"	"31.16"	"34.702"	"35.991"	"31.457"	"29.981"	"29.36"	"25.269"	"21.75"	"16.117"
"1948"	"15.296"	"17.201"	"22.188"	"31.069"	"35.209"	"36.406"	"31.357"	"29.45"	"29.208"	"26.69"	"20.357"	"15.791"
"1949"	"16.494"	"18.159"	"24.002"	"30.626"	"34.399"	"35.591"	"31.341"	"29.55"	"29.698"	"26.667"	"19.641"	"14.477"
"1950"	"15.744"	"16.544"	"22.071"	"28.577"	"34.209"	"34.856"	"30.856"	"29.45"	"29.059"	"25.992"	"20.241"	"14.654"
"1951"	"13.761"	"17.36"	"22.977"	"27.52"	"33.8"	"34.691"	"32.522"	"29.89"	"29.218"	"28.99"	"22.182"	"15.975"
"1952"	"16.269"	"20.083"	"22.977"	"31.009"	"34.767"	"33.076"	"30.825"	"29.083"	"30.199"	"27.075"	"20.898"	"16.217"
"1953"	"13.639"	"19.236"	"26.602"	"30.659"	"35.15"	"35.889"	"31.281"	"29.274"	"29.449"	"26.306"	"20.409"	"17.409"
"1954"	"13.404"	"18.984"	"23.886"	"30.844"	"35.643"	"35.464"	"31.699"	"30.006"	"29.218"	"24.634"	"21.015"	"15.019"
"1955"	"14.463"	"18.051"	"25.503"	"28.235"	"33.495"	"35.164"	"31.063"	"29.218"	"29.342"	"25.259"	"20.341"	"15.752"
"1956"	"15.119"	"18.176"	"23.869"	"30.644"	"35.167"	"33.821"	"30.034"	"29.383"	"29.647"	"25.527"	"19.998"	"15.971"
"1957"	"14.564"	"17.009"	"22.328"	"28.844"	"33.143"	"34.176"	"31.242"	"30.275"	"28.735"	"26.349"	"21.991"	"16.609"
"1958"	"16.877"	"18.841"	"24.785"	"31.751"	"34.627"	"35.618"	"31.116"	"29.492"	"29.201"	"26.291"	"21.416"	"17.191"
"1959"	"15.462"	"17.616"	"24.861"	"30.235"	"33.835"	"35.258"	"30.751"	"29.724"	"29.782"	"27.031"	"21.3"	"17.132"
"1960"	"14.877"	"21.1"	"23.544"	"29.269"	"34.126"	"35.759"	"31.099"	"29.5"	"29.741"	"26.017"	"20.323"	"16.901"
"1961"	"15.454"	"16.158"	"24.12"	"29.404"	"33.827"	"33.909"	"30.776"	"29.076"	"29.449"	"25.617"	"19.781"	"13.35"
"1962"	"14.177"	"18.284"	"23.285"	"30.093"	"33.692"	"35.896"	"32.083"	"29.681"	"28.674"	"25.2"	"21.325"	"16.591"
"1963"	"14.751"	"19.724"	"23.568"	"29.161"	"32.833"	"34.049"	"31.89"	"29.268"	"28.592"	"27.117"	"22.867"	"16.241"
"1964"	"14.254"	"17.942"	"25.544"	"30.701"	"32.186"	"34.966"	"30.024"	"30.107"	"28.717"	"26.7"	"20.308"	"16.541"
"1965"	"16.968"	"17.86"	"22.794"	"27.935"	"33.128"	"36.476"	"31.384"	"30.108"	"29.117"	"26.741"	"22.05"	"16.016"
"1966"	"16.118"	"20.626"	"23.895"	"30.386"	"34.168"	"33.701"	"32.534"	"29.4"	"29.683"	"27.408"	"21.818"	"15.643"
"1967"	"14.337"	"19.899"	"22.485"	"29.152"	"33.75"	"35.151"	"30.592"	"28.076"	"28.186"	"25.86"	"20.774"	"16.401"
"1968"	"13.978"	"16.334"	"23.103"	"29.069"	"33.278"	"34.139"	"29.943"	"29.086"	"30.009"	"25.892"	"20.999"	"16.309"
"1969"	"15.252"	"19.01"	"26.502"	"29.994"	"32.542"	"35.976"	"30.35"	"28.933"	"28.542"	"26.951"	"22.135"	"16.285"
"1970"	"15.479"	"17.11"	"22.902"	"31.226"	"33.942"	"32.641"	"31.591"	"29.691"	"28.975"	"26.708"	"20.766"	"16.675"
"1971"	"14.319"	"17.865"	"23.241"	"29.339"	"31.417"	"31.217"	"29.309"	"27.8"	"28.652"	"25.935"	"20.766"	"16.45"
"1972"	"15.36"	"15.942"	"24.402"	"29.143"	"34.918"	"35.199"	"32.158"	"28.767"	"27.977"	"25.6"	"21.574"	"16.542"
"1973"	"15.311"	"18.984"	"23.417"	"31.742"	"34.759"	"34.09"	"31.267"	"28.987"	"28.994"	"26.026"	"20.623"	"14.86"
"1974"	"14.319"	"17.175"	"25.026"	"31.651"	"34.077"	"34.417"	"30.35"	"28.858"	"29.535"	"27.476"	"20.892"	"15.066"
"1975"	"14.254"	"17.486"	"23.342"	"31.467"	"35.176"	"33.168"	"30.232"	"28.867"	"28.027"	"27.169"	"20.131"	"16.265"
"1976"	"15.916"	"18.341"	"23.552"	"28.824"	"32.748"	"32.671"	"30.759"	"27.85"	"28.544"	"27.117"	"22.407"	"16.5"
"1977"	"15.008"	"18.5"	"25.402"	"29.209"	"31.558"	"33.742"	"29.377"	"29.067"	"27.952"	"26.808"	"23.156"	"16.858"
"1978"	"14.868"	"17.025"	"21.342"	"29.224"	"35.891"	"33.409"	"29.734"	"28.361"	"28.017"	"26.534"	"21.917"	"16.299"
"1979"	"15.929"	"16.443"	"21.961"	"29.956"	"30.851"	"34.141"	"30.698"	"30.174"	"30.209"	"27.933"	"23.051"	"16.659"
"1980"	"15.254"	"18.849"	"23.094"	"31.423"	"34.678"	"32.497"	"28.932"	"28.831"	"28.783"	"27.056"	"21.525"	"16.56"
"1981"	"15.253"	"18.626"	"22.62"	"29.781"	"33.232"	"34.488"	"29.648"	"29.375"	"29.081"	"26.55"	"20.365"	"15.66"
"1982"	"15.853"	"16.651"	"20.895"	"28.701"	"31.794"	"33.739"	"32.518"	"29.218"	"28.867"	"26.841"	"21.5"	"16.851"
"1983"	"14.11"	"16.668"	"22.737"	"27.169"	"32.186"	"33.927"	"31.067"	"29.492"	"28.935"	"25.852"	"20.208"	"16.019"
"1984"	"14.878"	"15.843"	"24.726"	"30.284"	"35.626"	"33.729"	"30.359"	"29.158"	"28.244"	"26.259"	"20.458"	"16.643"
"1985"	"14.922"	"18.218"	"25.612"	"30.493"	"34.784"	"34.875"	"30.132"	"29.268"	"28.144"	"24.936"	"21.434"	"17.311"
"1986"	"15.137"	"17.494"	"23.403"	"29.768"	"32.127"	"34.544"	"29.967"	"29.881"	"29.502"	"25.899"	"21.716"	"15.386"
"1987"	"15.235"	"19.458"	"24.526"	"30.541"	"32.087"	"36.352"	"33.13"	"30.883"	"30.639"	"27.499"	"21.574"	"16.409"
"1988"	"16.86"	"19.29"	"24.051"	"31.251"	"35.423"	"33.7"	"30.317"	"29.259"	"30.035"	"26.633"	"21.325"	"16.594"
"1989"	"14.127"	"17.442"	"23.111"	"29.021"	"34.357"	"32.691"	"30.402"	"28.596"	"29.276"	"26.424"	"20.518"	"15.675"
"1990"	"16.868"	"17.758"	"21.727"	"29.684"	"32.869"	"34.544"	"29.941"	"29.624"	"28.702"	"26.042"	"21.6"	"16.142"
"1991"	"13.872"	"18.911"	"23.735"	"28.845"	"34.537"	"34.475"	"32.734"	"29.04"	"29.591"	"25.858"	"20.216"	"15.744"
"1992"	"15.304"	"16.849"	"23.56"	"29.977"	"33.017"	"34.874"	"31.358"	"29.284"	"28.627"	"25.884"	"21.185"	"16.057"
"1993"	"15.195"	"19.324"	"21.095"	"28.528"	"33.997"	"34.596"	"31.434"	"30.164"	"28.415"	"26.424"	"21.859"	"16.392"
"1994"	"16.943"	"17.734"	"24.644"	"28.529"	"34.552"	"34.799"	"30.65"	"29.383"	"28.96"	"25.992"	"21.3"	"16.701"
"1995"	"14.386"	"18.327"	"22.711"	"30.069"	"35.846"	"35.991"	"31.44"	"29.025"	"29.375"	"27.416"	"21.634"	"16.994"
"1996"	"14.832"	"18.135"	"24.494"	"29.992"	"34.47"	"33.709"	"31.116"	"28.501"	"29.285"	"26.372"	"20.708"	"15.344"
"1997"	"14.455"	"17.266"	"23.177"	"28.312"	"32.078"	"33.527"	"32.501"	"29.326"	"28.925"	"24.776"	"20.608"	"15.171"
"1998"	"13.219"	"18.635"	"21.72"	"30.118"	"34.71"	"34.758"	"30.759"	"29.492"	"29.583"	"27.126"	"22.767"	"16.769"
"1999"	"14.446"	"19.318"	"24.678"	"31.877"	"33.975"	"33.532"	"31.541"	"30.014"	"29.108"	"27.034"	"22.96"	"16.811"
"2000"	"15.319"	"17.461"	"23.095"	"31.434"	"34.057"	"32.624"	"30.625"	"29.924"	"28.949"	"27.542"	"23.724"	"16.769"
"2001"	"14.345"	"18.567"	"23.608"	"29.201"	"33.218"	"32.349"	"30.915"	"30.358"	"30.124"	"27.692"	"22.358"	"16.826"
"2002"	"15.511"	"17.14"	"24.511"	"30.916"	"35.002"	"34.442"	"33.474"	"30.082"	"28.227"	"27.025"	"21.733"	"16.634"
