
"Year"	"Jan"	"Feb"	"Mar"	"Apr"	"May"	"Jun"	"Jul"	"Aug"	"Sep"	"Oct"	"Nov"	"Dec"
"1901"	"13.268"	"16.612"	"23.921"	"29.37"	"34.053"	"37.127"	"33.47"	"29.491"	"30.417"	"28.658"	"21.628"	"16.488"
"1902"	"16.278"	"18.871"	"26.072"	"30.518"	"34.493"	"34.791"	"30.963"	"30.695"	"29.233"	"26.961"	"20.575"	"14.844"
"1903"	"15.079"	"17.062"	"22.913"	"28.521"	"33.238"	"36.932"	"33.479"	"29.499"	"30.123"	"25.911"	"19.737"	"14.496"
"1904"	"14.588"	"17.863"	"23.306"	"30.608"	"33.353"	"35.515"	"29.579"	"28.298"	"28.836"	"26.621"	"19.994"	"15.646"
"1905"	"13.186"	"13.213"	"20.481"	"27.362"	"34.701"	"37.126"	"32.073"	"30.096"	"31.157"	"27.507"	"22.433"	"16.063"
"1906"	"14.221"	"16.121"	"21.582"	"29.569"	"36.242"	"34.573"	"31.324"	"29.707"	"28.632"	"27.053"	"21.637"	"16.238"
"1907"	"16.326"	"16.023"	"21.083"	"27.561"	"32.503"	"35.774"	"34.179"	"29.046"	"30.62"	"27.427"	"21.245"	"14.296"
"1908"	"13.879"	"17.671"	"23.115"	"30.721"	"33.901"	"36.425"	"29.884"	"28.597"	"29.293"	"26.182"	"20.335"	"14.596"
"1909"	"14.29"	"16.528"	"23.629"	"27.561"	"32.756"	"33.419"	"29.788"	"29.089"	"28.93"	"26.719"	"22.085"	"14.746"
"1910"	"13.887"	"17.772"	"23.582"	"28.921"	"34.343"	"34.516"	"31.531"	"29.794"	"29.432"	"25.371"	"19.927"	"15.054"
"1911"	"16.577"	"17.967"	"21.672"	"29.561"	"35.644"	"35.926"	"32.815"	"30.085"	"28.579"	"27.211"	"19.057"	"14.954"
"1912"	"15.379"	"18.528"	"22.68"	"29.762"	"34.742"	"37.122"	"32.279"	"29.747"	"28.241"	"26.719"	"19.836"	"15.135"
"1913"	"15.217"	"17.571"	"21.571"	"30.96"	"32.351"	"33.459"	"31.768"	"31.228"	"31.57"	"28.32"	"20.893"	"15.737"
"1914"	"16.737"	"17.963"	"23.263"	"30.689"	"34.535"	"34.866"	"31.18"	"29.447"	"30.028"	"26.129"	"21.503"	"14.655"
"1915"	"14.631"	"15.823"	"22.92"	"29.111"	"36.084"	"35.741"	"33.414"	"30.576"	"31.215"	"28.7"	"20.895"	"16.044"
"1916"	"15.517"	"17.16"	"26.01"	"31.306"	"34.204"	"33.895"	"31.626"	"28.956"	"29.288"	"25.911"	"18.744"	"14.243"
"1917"	"15.226"	"17.652"	"23.011"	"26.67"	"30.161"	"34.116"	"30.281"	"28.798"	"28.45"	"25.284"	"17.854"	"15.346"
"1918"	"13.769"	"17.682"	"23.133"	"27.73"	"35.785"	"34.962"	"34.602"	"31.809"	"30.868"	"27.529"	"20.944"	"14.548"
"1919"	"14.977"	"16.518"	"23.971"	"29.06"	"33.684"	"37.046"	"30.18"	"28.889"	"29.43"	"26.221"	"20.245"	"14.747"
"1920"	"14.678"	"17.171"	"23.872"	"29.468"	"31.344"	"34.084"	"30.23"	"30.235"	"31.561"	"28.708"	"22.436"	"16.151"
"1921"	"15.93"	"18.56"	"26.319"	"32.551"	"36.826"	"36.294"	"34.016"	"29.091"	"28.541"	"26.172"	"20.633"	"17.288"
"1922"	"14.906"	"19.073"	"24.971"	"30.651"	"34.743"	"34.482"	"31.319"	"28.505"	"28.49"	"26.319"	"20.345"	"15.086"
"1923"	"14.578"	"17.071"	"24.073"	"30.461"	"33.788"	"37.922"	"32.37"	"28.799"	"29.532"	"25.862"	"20.445"	"15.346"
"1924"	"13.638"	"17.08"	"24.772"	"30.268"	"31.955"	"37.214"	"30.885"	"29.107"	"28.938"	"25.673"	"20.088"	"15.338"
"1925"	"12.778"	"15.341"	"23.23"	"31.4"	"33.323"	"31.687"	"29.18"	"30.438"	"30.467"	"27.311"	"19.794"	"14.934"
"1926"	"15.008"	"18.82"	"22.371"	"26.803"	"32.095"	"36.883"	"32.08"	"29.298"	"28.54"	"25.454"	"18.478"	"14.239"
"1927"	"12.677"	"15.964"	"22.052"	"28.803"	"33.103"	"35.374"	"30.979"	"28.699"	"29.144"	"26.653"	"19.869"	"16.439"
"1928"	"14.378"	"17.862"	"23.873"	"29.361"	"35.386"	"35.123"	"31.762"	"31.471"	"30.921"	"27.663"	"21.888"	"15.236"
"1929"	"14.52"	"16.07"	"25.213"	"30.694"	"35.135"	"35.364"	"30.755"	"28.895"	"31.02"	"27.101"	"21.342"	"14.795"
"1930"	"14.379"	"17.362"	"24.818"	"29.693"	"34.036"	"34.872"	"29.778"	"29.091"	"30.176"	"27.129"	"20.426"	"15.252"
"1931"	"16.287"	"16.521"	"22.881"	"30.969"	"34.404"	"36.181"	"32.279"	"30.097"	"28.947"	"25.807"	"20.186"	"16.157"
"1932"	"17.275"	"16.863"	"24.007"	"29.162"	"33.304"	"36.864"	"32.858"	"29.246"	"29.671"	"26.521"	"19.545"	"14.863"
"1933"	"12.497"	"17.732"	"23.924"	"27.918"	"31.442"	"34.121"	"30.488"	"28.607"	"28.293"	"25.523"	"20.094"	"15.196"
"1934"	"13.329"	"18.119"	"22.081"	"29.071"	"33.355"	"33.782"	"30.87"	"28.708"	"29.214"	"24.082"	"19.347"	"16.284"
"1935"	"13.129"	"18.051"	"23.471"	"26.96"	"34.247"	"36.763"	"31.27"	"29.091"	"29.378"	"25.671"	"21.316"	"15.438"
"1936"	"13.13"	"17.815"	"23.423"	"29.305"	"35.833"	"33.174"	"30.289"	"29.091"	"29.17"	"26.262"	"21.166"	"15.626"
"1937"	"13.578"	"18.31"	"21.773"	"28.262"	"34.043"	"36.212"	"31.564"	"30.777"	"29.97"	"26.358"	"21.254"	"14.548"
"1938"	"14.339"	"16.22"	"25.263"	"30.902"	"36.124"	"33.489"	"31.763"	"29.996"	"30.876"	"27.501"	"19.598"	"15.005"
"1939"	"15.777"	"18.166"	"21.374"	"28.321"	"35.436"	"33.975"	"31.145"	"31.274"	"29.328"	"27.51"	"20.095"	"15.345"
"1940"	"14.822"	"16.92"	"21.963"	"28.17"	"34.834"	"36.161"	"32.659"	"29.089"	"29.378"	"26.664"	"21.927"	"15.338"
"1941"	"14.178"	"18.411"	"25.854"	"32.095"	"35.584"	"34.483"	"33.95"	"31.119"	"30.726"	"29.648"	"21.395"	"17.143"
"1942"	"13.378"	"18.951"	"25.354"	"31.4"	"35.437"	"36.673"	"30.62"	"28.897"	"28.488"	"26.371"	"21.827"	"15.045"
"1943"	"15.772"	"17.652"	"24.473"	"28.218"	"34.213"	"34.812"	"31.321"	"28.447"	"29.629"	"26.362"	"21.664"	"16.777"
"1944"	"14.276"	"17.415"	"22.265"	"28.461"	"35.345"	"34.126"	"30.995"	"30.279"	"29.822"	"25.903"	"21.537"	"16.847"
"1945"	"13.118"	"17.162"	"24.673"	"28.898"	"34.138"	"35.914"	"31.872"	"30.097"	"29.074"	"25.862"	"20.817"	"14.394"
"1946"	"15.187"	"19.624"	"23.523"	"31.601"	"34.633"	"34.955"	"31.27"	"29.687"	"30.128"	"27.36"	"20.859"	"16.345"
"1947"	"13.421"	"19.247"	"25.306"	"31.292"	"35.185"	"36.465"	"31.863"	"30.046"	"29.135"	"25.024"	"21.837"	"16.193"
"1948"	"14.921"	"17.213"	"22.382"	"31.069"	"35.596"	"37.098"	"31.826"	"29.546"	"29.381"	"27.362"	"20.427"	"16.103"
"1949"	"16.327"	"18.56"	"24.373"	"31.11"	"35.582"	"35.964"	"31.38"	"29.597"	"29.873"	"26.514"	"19.493"	"14.746"
"1950"	"15.818"	"16.47"	"22.42"	"28.517"	"34.644"	"35.922"	"31.279"	"29.486"	"28.945"	"26.119"	"19.936"	"14.053"
"1951"	"13.727"	"17.128"	"23.18"	"27.378"	"34.193"	"35.131"	"33.026"	"29.845"	"29.339"	"29.8"	"22.484"	"15.734"
"1952"	"16.027"	"20.355"	"23.943"	"31.599"	"35.494"	"33.341"	"30.849"	"28.987"	"30.52"	"27.418"	"20.892"	"16.144"
"1953"	"13.277"	"18.732"	"26.873"	"31.107"	"36.024"	"36.921"	"32.059"	"29.444"	"29.587"	"26.71"	"20.145"	"17.586"
"1954"	"13.178"	"19.461"	"23.874"	"30.81"	"36.09"	"36.463"	"31.977"	"30.229"	"29.115"	"24.572"	"21.35"	"15.055"
"1955"	"14.328"	"17.828"	"25.863"	"28.41"	"33.751"	"36.01"	"31.767"	"29.108"	"29.629"	"25.354"	"20.027"	"15.988"
"1956"	"14.929"	"18.066"	"24.131"	"30.56"	"35.634"	"34.985"	"29.73"	"29.269"	"30.26"	"25.571"	"19.726"	"16.193"
"1957"	"14.372"	"16.813"	"22.697"	"28.91"	"33.043"	"34.344"	"31.229"	"30.296"	"28.53"	"26.573"	"22.145"	"16.595"
"1958"	"17.127"	"19.202"	"25.263"	"32.104"	"34.794"	"35.834"	"30.755"	"29.356"	"28.93"	"26.356"	"20.934"	"17.477"
"1959"	"15.218"	"17.953"	"25.221"	"30.268"	"33.793"	"35.765"	"30.631"	"29.588"	"29.821"	"27.652"	"21.337"	"17.325"
"1960"	"14.919"	"21.102"	"24.162"	"29.421"	"34.261"	"36.224"	"31.28"	"29.131"	"29.88"	"26.162"	"20.236"	"16.505"
"1961"	"15.317"	"16.452"	"24.181"	"29.021"	"34.044"	"34.173"	"30.57"	"28.656"	"29.37"	"25.806"	"20.036"	"13.405"
"1962"	"14.11"	"18.553"	"23.454"	"30.491"	"33.843"	"35.717"	"32.07"	"29.828"	"28.731"	"25.106"	"21.254"	"16.884"
"1963"	"14.41"	"19.949"	"24.144"	"29.368"	"33.324"	"34.844"	"32.341"	"28.889"	"28.48"	"27.502"	"23.426"	"16.283"
"1964"	"14.028"	"18.061"	"25.912"	"30.968"	"32.554"	"35.177"	"30.145"	"30.237"	"28.831"	"26.53"	"20.045"	"16.637"
"1965"	"17.201"	"18.164"	"23.462"	"28.167"	"33.244"	"36.665"	"31.44"	"30.347"	"29.171"	"27.172"	"22.236"	"16.043"
"1966"	"16.109"	"20.95"	"23.945"	"30.145"	"34.177"	"33.383"	"32.835"	"29.089"	"29.798"	"28.019"	"21.954"	"15.542"
"1967"	"13.935"	"20.119"	"23.052"	"29.451"	"34.201"	"35.264"	"30.588"	"27.807"	"27.688"	"26.247"	"21.294"	"16.685"
"1968"	"14.076"	"16.478"	"23.556"	"29.152"	"33.135"	"35.154"	"29.548"	"28.755"	"29.788"	"26.08"	"21.217"	"16.495"
"1969"	"15.368"	"18.87"	"26.705"	"30.18"	"33.041"	"36.637"	"30.336"	"28.888"	"28.63"	"27.506"	"22.153"	"16.243"
"1970"	"15.62"	"17.128"	"23.39"	"31.578"	"34.361"	"33.082"	"32.069"	"29.688"	"29.045"	"26.963"	"20.785"	"16.685"
"1971"	"13.977"	"18.127"	"23.888"	"30.539"	"32.409"	"31.373"	"28.987"	"27.773"	"28.308"	"26.148"	"20.719"	"16.227"
"1972"	"15.131"	"16.011"	"24.662"	"29.712"	"35.261"	"36.076"	"32.779"	"28.589"	"27.708"	"26.221"	"21.775"	"16.478"
"1973"	"15.358"	"19.4"	"23.942"	"32.26"	"35.578"	"35.405"	"31.461"	"28.478"	"29.137"	"26.073"	"20.567"	"14.703"
"1974"	"14.278"	"17.027"	"25.452"	"32.11"	"34.386"	"34.684"	"30.153"	"28.778"	"29.955"	"27.371"	"20.711"	"15.266"
"1975"	"14.091"	"17.222"	"23.727"	"32.005"	"35.653"	"33.433"	"30.459"	"28.699"	"27.898"	"26.983"	"20.02"	"16.524"
"1976"	"16.279"	"18.917"	"23.995"	"29.618"	"33.677"	"32.444"	"30.94"	"28.08"	"28.491"	"27.296"	"22.137"	"16.45"
"1977"	"14.666"	"18.544"	"25.703"	"29.592"	"32.144"	"33.591"	"28.799"	"28.746"	"27.541"	"26.886"	"23.249"	"17.508"
"1978"	"14.96"	"17.171"	"22.005"	"29.647"	"36.515"	"33.818"	"29.565"	"27.649"	"28.028"	"26.611"	"22.014"	"16.226"
"1979"	"15.544"	"16.471"	"22.395"	"30.463"	"29.624"	"34.334"	"30.584"	"30.01"	"30.191"	"28.556"	"22.901"	"16.951"
"1980"	"14.962"	"19.418"	"23.571"	"31.887"	"35.46"	"33"	"29.11"	"28.793"	"29.018"	"27.937"	"21.514"	"16.136"
"1981"	"15.608"	"18.86"	"23.271"	"30.286"	"33.883"	"35.018"	"29.362"	"29.214"	"29.88"	"26.897"	"20.404"	"15.905"
"1982"	"15.511"	"16.608"	"21.355"	"29.094"	"31.68"	"34.446"	"32.439"	"28.913"	"28.868"	"27.407"	"21.514"	"16.737"
"1983"	"14.227"	"16.712"	"23.179"	"27.201"	"32.343"	"33.726"	"30.838"	"29.246"	"28.85"	"26.021"	"19.83"	"16.146"
"1984"	"14.792"	"15.909"	"24.973"	"30.642"	"36.545"	"34.879"	"30.424"	"28.92"	"28.023"	"26.072"	"20.346"	"16.595"
"1985"	"14.632"	"18.366"	"25.822"	"30.828"	"35.565"	"35.244"	"30.562"	"29.046"	"27.908"	"24.558"	"21.046"	"17.146"
"1986"	"14.99"	"17.171"	"23.945"	"30.284"	"32.766"	"34.504"	"29.819"	"30.147"	"29.988"	"26.626"	"22.259"	"15.454"
"1987"	"15.475"	"19.652"	"24.901"	"31.1"	"32.038"	"36.483"	"34.155"	"31.165"	"31.333"	"28.069"	"21.403"	"15.739"
"1988"	"16.265"	"19.619"	"24.517"	"31.403"	"36.343"	"33.922"	"30.277"	"29.248"	"30.055"	"26.563"	"21.226"	"16.579"
"1989"	"14.025"	"17.479"	"23.372"	"28.83"	"34.919"	"33.375"	"30.283"	"29.543"	"29.489"	"26.668"	"20.331"	"15.694"
"1990"	"16.535"	"18.079"	"22.444"	"30.222"	"33.509"	"34.669"	"30.066"	"29.704"	"28.595"	"26.48"	"21.585"	"16.389"
"1991"	"14.057"	"18.779"	"23.966"	"28.816"	"34.397"	"35.301"	"33.197"	"29.187"	"29.908"	"26.129"	"20.508"	"15.549"
"1992"	"15.004"	"17.418"	"23.962"	"29.803"	"33.699"	"35.951"	"31.85"	"29.447"	"28.432"	"26.376"	"20.905"	"16.337"
"1993"	"15.516"	"19.441"	"21.834"	"29.073"	"35.309"	"35.404"	"31.705"	"30.704"	"28.216"	"26.739"	"22.103"	"16.193"
"1994"	"17.098"	"17.813"	"25.031"	"28.398"	"34.903"	"35.117"	"30.502"	"29.262"	"28.92"	"26.272"	"21.315"	"16.786"
"1995"	"14.168"	"18.255"	"22.765"	"29.749"	"35.272"	"36.207"	"32.026"	"28.948"	"29.471"	"27.663"	"21.343"	"16.855"
"1996"	"14.286"	"18.042"	"24.549"	"29.769"	"34.081"	"33.727"	"30.854"	"28.39"	"29.073"	"26.801"	"20.544"	"14.914"
"1997"	"13.987"	"17.519"	"23.582"	"28.259"	"32.244"	"33.576"	"31.923"	"29.248"	"29.239"	"25.181"	"20.555"	"14.332"
"1998"	"14.025"	"18.562"	"21.923"	"30.403"	"35.152"	"34.833"	"31.236"	"29.513"	"29.747"	"27.232"	"21.99"	"16.103"
"1999"	"14.247"	"18.663"	"24.712"	"31.61"	"34.443"	"34.112"	"31.728"	"30.03"	"29.17"	"27.013"	"22.395"	"16.246"
"2000"	"15.045"	"17.114"	"23.47"	"31.719"	"34.666"	"33.121"	"30.477"	"29.947"	"29.159"	"27.64"	"23.207"	"16.601"
"2001"	"14.148"	"18.838"	"23.977"	"29.8"	"33.644"	"32.424"	"30.917"	"30.296"	"30.246"	"27.929"	"22.103"	"16.911"
"2002"	"15.078"	"17.676"	"24.821"	"31.458"	"35.203"	"34.629"	"33.578"	"30.038"	"28.306"	"27.387"	"21.747"	"17.07"
