
"Year"	"Jan"	"Feb"	"Mar"	"Apr"	"May"	"Jun"	"Jul"	"Aug"	"Sep"	"Oct"	"Nov"	"Dec"
"1901"	"12.697"	"3.153"	"11.668"	"2.477"	"19.535"	"9.956"	"128.307"	"55.187"	"1.774"	"0"	"0"	"0.106"
"1902"	"0"	"0.308"	"6.084"	"3.829"	"9.265"	"26.41"	"44.859"	"54.056"	"38.535"	"2.052"	"0"	"0"
"1903"	"5.079"	"0.539"	"5.376"	"0.317"	"10.022"	"6.622"	"82.48"	"73.457"	"40.003"	"0.982"	"0"	"6.415"
"1904"	"12.366"	"0.125"	"56.422"	"4.796"	"4.094"	"20.369"	"18.236"	"42.454"	"26.616"	"0.672"	"4.261"	"6.066"
"1905"	"21.088"	"14.052"	"4.752"	"1.516"	"0.63"	"9.516"	"43.582"	"1.762"	"118.811"	"2.13"	"0"	"8.312"
"1906"	"0.104"	"73.03"	"19.071"	"1.89"	"2.116"	"21.285"	"41.152"	"62.619"	"120.005"	"0.01"	"0"	"11.39"
"1907"	"5.673"	"30.754"	"10.198"	"27.147"	"2.402"	"23.687"	"55.288"	"94.389"	"0.403"	"0.94"	"0.089"	"0"
"1908"	"16.795"	"1.241"	"0.168"	"19.448"	"1.96"	"25.828"	"131.878"	"267.792"	"30.639"	"0.36"	"0"	"3.684"
"1909"	"5.616"	"10.74"	"0.153"	"46.649"	"2.861"	"69.059"	"162.625"	"88.451"	"102.886"	"0.01"	"0"	"38.673"
"1910"	"11.482"	"1.365"	"0.589"	"15.555"	"1.201"	"55.528"	"55.483"	"112.056"	"9.491"	"0.742"	"0.01"	"2.016"
"1911"	"21.463"	"1.674"	"58.974"	"6.964"	"6.712"	"36.115"	"16.507"	"44.483"	"12.899"	"3.272"	"11.188"	"0.015"
"1912"	"18.081"	"1.725"	"3.566"	"22.127"	"2.514"	"14.759"	"34.271"	"105.152"	"8.196"	"1.181"	"2.711"	"2.186"
"1913"	"0.342"	"19.982"	"13.976"	"2.769"	"41.933"	"36.492"	"90.96"	"92.074"	"7.968"	"0.642"	"1.826"	"8.2"
"1914"	"12.979"	"16.278"	"3.999"	"17.281"	"14.635"	"27.398"	"165.538"	"40.153"	"74.81"	"12.63"	"6.128"	"8.649"
"1915"	"6.72"	"45.236"	"20.743"	"6.918"	"0.202"	"18.442"	"21.778"	"16.042"	"36.084"	"12.525"	"0"	"1.898"
"1916"	"0.504"	"7.547"	"2.501"	"11.581"	"13.144"	"21.937"	"219.707"	"97.16"	"29.456"	"7.656"	"0.254"	"0"
"1917"	"3.622"	"0.984"	"3.43"	"37.236"	"27.526"	"41.276"	"56.932"	"154.916"	"143.603"	"10.539"	"0"	"3.605"
"1918"	"1.309"	"1.259"	"20.668"	"22.035"	"0.194"	"27.203"	"5.367"	"59.185"	"7.035"	"0"	"1.486"	"6.872"
"1919"	"25.636"	"11.88"	"4.663"	"16.553"	"10.479"	"0.572"	"124.339"	"113.489"	"45.826"	"0.035"	"1.512"	"10.113"
"1920"	"8.621"	"8.458"	"7.072"	"15.588"	"11.34"	"29.309"	"58.861"	"68.33"	"3.377"	"0"	"0"	"0.01"
"1921"	"1.54"	"0.155"	"0.158"	"1.865"	"1.758"	"20.529"	"170.245"	"97.303"	"36.802"	"2.942"	"0"	"6.829"
"1922"	"4.782"	"3.897"	"2.071"	"7.192"	"2.619"	"26.54"	"56.565"	"30.787"	"137.455"	"1.304"	"0.035"	"21.378"
"1923"	"14.184"	"20.288"	"3.779"	"20.599"	"19.57"	"7.023"	"76.696"	"105.514"	"2.746"	"3.024"	"0.143"	"30.178"
"1924"	"23.954"	"23.64"	"3.968"	"2.306"	"18.599"	"3.409"	"124.035"	"41.996"	"50.586"	"0.83"	"0.145"	"40.724"
"1925"	"3.377"	"0.913"	"2.274"	"0.839"	"12.47"	"88.417"	"94.73"	"50.043"	"3.296"	"1.095"	"11.932"	"0"
"1926"	"4.833"	"0.483"	"27.522"	"9.084"	"10.344"	"0.87"	"73.519"	"162.54"	"19.967"	"0.015"	"0.25"	"12.16"
"1927"	"0.01"	"14.819"	"3.972"	"4.396"	"11.166"	"11.346"	"90.96"	"62.056"	"7.552"	"1.473"	"0"	"30.543"
"1928"	"2.912"	"8.436"	"4.687"	"12.701"	"4.746"	"18.319"	"68.12"	"91.386"	"58.612"	"0.495"	"4.566"	"8.277"
"1929"	"1.625"	"1.572"	"0.249"	"5.123"	"5.251"	"67.884"	"91.128"	"144.796"	"6.535"	"0.424"	"0"	"39.689"
"1930"	"6.875"	"5.145"	"0.358"	"24.782"	"9.094"	"23.641"	"143.801"	"23.495"	"12.959"	"0.427"	"1.443"	"0.145"
"1931"	"11.706"	"11.73"	"10.51"	"3.848"	"11.775"	"2.953"	"145.228"	"136.036"	"31.163"	"9.196"	"0.01"	"0"
"1932"	"8.947"	"0.49"	"10.104"	"5.385"	"5.135"	"8.574"	"102.074"	"42.472"	"14.056"	"0.015"	"0"	"18.906"
"1933"	"0.581"	"7.826"	"8.064"	"10.573"	"6.172"	"31.29"	"63.499"	"156.476"	"46.901"	"0.66"	"4.787"	"0"
"1934"	"4.935"	"1.566"	"18.172"	"0.711"	"2.731"	"26.486"	"64.516"	"79.527"	"3.547"	"0"	"0"	"15.385"
"1935"	"25.926"	"36.34"	"9.541"	"45.487"	"2.971"	"3.719"	"53.539"	"61.936"	"31.961"	"0.476"	"6.397"	"0.731"
"1936"	"0.744"	"18.764"	"11.622"	"7.778"	"0.898"	"108.901"	"56.172"	"58.881"	"30.81"	"5.623"	"5.86"	"11.324"
"1937"	"0.045"	"67.988"	"2.461"	"22.372"	"2.167"	"6.249"	"161.373"	"4.262"	"24.603"	"1.079"	"0.099"	"12.879"
"1938"	"13.819"	"11.048"	"2.346"	"6.245"	"0.113"	"77.559"	"23.34"	"28.999"	"1.271"	"3.695"	"0.01"	"2.852"
"1939"	"2.271"	"35.842"	"15.979"	"1.79"	"3.325"	"40.791"	"36.996"	"29.208"	"28.45"	"0.976"	"0"	"0"
"1940"	"20.991"	"17.981"	"5.61"	"2.185"	"1.214"	"45.059"	"30.349"	"75.294"	"13.556"	"0.13"	"0"	"0.084"
"1941"	"15.597"	"2.385"	"4.197"	"0.917"	"14.307"	"41.349"	"49.94"	"27.475"	"51.16"	"0.015"	"0.015"	"5.401"
"1942"	"6.479"	"16.359"	"10.894"	"17.465"	"18.895"	"30.4"	"127.388"	"98.624"	"59.112"	"0.922"	"0.015"	"16.597"
"1943"	"9.395"	"0.177"	"0.936"	"13.17"	"6.622"	"43.991"	"92.252"	"17.287"	"10.255"	"0"	"0"	"0"
"1944"	"13.036"	"27.921"	"25.905"	"27.456"	"0.604"	"24.712"	"87.207"	"108.119"	"25.437"	"0.971"	"0.015"	"7.132"
"1945"	"30.572"	"0.12"	"4.817"	"45.042"	"13.589"	"38.438"	"85.672"	"66.524"	"77.08"	"0.429"	"0.105"	"0.382"
"1946"	"0.187"	"4.216"	"5.678"	"2.872"	"11.714"	"43.665"	"70.052"	"102.214"	"2.022"	"7.364"	"0.639"	"6.072"
"1947"	"4.357"	"6.64"	"1.644"	"0.033"	"0.598"	"0.502"	"7.353"	"104.497"	"43.056"	"7.955"	"0.01"	"5.701"
"1948"	"7.622"	"24.943"	"24.623"	"10.142"	"1.453"	"23.421"	"138.338"	"72.394"	"21.437"	"0.263"	"3.655"	"15.228"
"1949"	"7.171"	"22.479"	"11.184"	"0.89"	"0.641"	"4.875"	"240.517"	"31.136"	"35.076"	"0.064"	"0"	"0.271"
"1950"	"24.859"	"14.048"	"30.106"	"1.641"	"2.473"	"2.401"	"213.738"	"118.866"	"129.738"	"0"	"0"	"0.01"
"1951"	"9.162"	"0.967"	"18.622"	"19.426"	"11.163"	"9.025"	"81.591"	"61.844"	"3.252"	"0.132"	"12.462"	"0"
"1952"	"3.068"	"5.774"	"16.092"	"1.93"	"6.651"	"26.861"	"74.178"	"54.027"	"1.047"	"0.75"	"0.613"	"1.317"
"1953"	"18.642"	"1.18"	"0.172"	"5.235"	"3.434"	"9.821"	"72.492"	"127.234"	"58.049"	"0.01"	"2.024"	"3.527"
"1954"	"6.37"	"40.167"	"1.294"	"0.75"	"4.084"	"20.71"	"114.45"	"16.254"	"148.792"	"7.422"	"0.053"	"0.015"
"1955"	"6.797"	"1.37"	"16.23"	"9.046"	"11.593"	"21.836"	"40.485"	"98.033"	"110.528"	"10.888"	"0"	"2.919"
"1956"	"12.015"	"1.3"	"21.967"	"2.858"	"0.394"	"62.134"	"114.612"	"105.78"	"1.255"	"17.021"	"0.036"	"3.872"
"1957"	"35.599"	"1.025"	"18.427"	"20.919"	"10.562"	"13.764"	"72.729"	"128.714"	"7.906"	"1.753"	"6.315"	"2.324"
"1958"	"11.319"	"1.147"	"3.069"	"2.181"	"1.507"	"19.084"	"86.583"	"34.33"	"133.758"	"3.112"	"4.332"	"25.67"
"1959"	"14.112"	"8.528"	"7.803"	"0.807"	"8.522"	"8.061"	"142.906"	"154.719"	"61.071"	"4.494"	"15.421"	"0"
"1960"	"8.731"	"0.12"	"16.366"	"8.753"	"0.147"	"23.109"	"54.935"	"53.295"	"26.291"	"1.474"	"0"	"9.926"
"1961"	"29.68"	"20.599"	"3.233"	"12.687"	"9.203"	"23.278"	"124.667"	"89.428"	"77.125"	"7.526"	"3.349"	"4.998"
"1962"	"10.936"	"16.746"	"17.749"	"0.044"	"8.577"	"2.231"	"101.27"	"72.383"	"88.481"	"0"	"5.878"	"6.567"
"1963"	"0.054"	"6.058"	"5.28"	"3.212"	"17.945"	"9.73"	"53.884"	"49.463"	"26.471"	"0.288"	"0.14"	"11.119"
"1964"	"8.712"	"1.829"	"4.893"	"9.093"	"13.898"	"27.622"	"175.707"	"118.315"	"33.788"	"0"	"1.571"	"4.909"
"1965"	"4.763"	"11.518"	"7.588"	"29.488"	"12.088"	"2.88"	"111.529"	"47.523"	"5.191"	"2.258"	"6.001"	"0"
"1966"	"1.183"	"43.682"	"6.41"	"6.109"	"28.619"	"50.044"	"76.783"	"72.806"	"85.57"	"8.356"	"1.872"	"0.109"
"1967"	"0"	"9.321"	"49.941"	"5.508"	"2.789"	"4.887"	"52.153"	"179.943"	"30.925"	"4.619"	"6.428"	"33.455"
"1968"	"9.515"	"18.534"	"6.896"	"1.176"	"6.96"	"6.962"	"61.5"	"90.746"	"0.62"	"5.367"	"0"	"5.472"
"1969"	"1.208"	"5.856"	"15.338"	"19.645"	"14.605"	"8.174"	"127.412"	"35.346"	"30.639"	"1.595"	"0.01"	"0"
"1970"	"11.231"	"32.851"	"15.377"	"4.807"	"8.04"	"26.838"	"24.654"	"95.131"	"40.49"	"0.381"	"0"	"0"
"1971"	"1.615"	"8.296"	"2.155"	"20.394"	"29.852"	"45.914"	"67.495"	"157.025"	"12.216"	"2.381"	"0.099"	"0"
"1972"	"7.494"	"7.211"	"3.686"	"9.069"	"0.103"	"20.98"	"58.267"	"86.372"	"43.846"	"4.507"	"5.536"	"7.499"
"1973"	"5.71"	"8.529"	"4.967"	"1.01"	"12.647"	"7.668"	"94.26"	"127.23"	"33.65"	"0.739"	"0"	"12.077"
"1974"	"1.772"	"3.58"	"1.479"	"7.599"	"13.692"	"17.056"	"161.219"	"32.126"	"3.338"	"0.27"	"0"	"9.301"
"1975"	"8.038"	"13.899"	"15.146"	"3.23"	"0.445"	"64.833"	"132.106"	"82.145"	"83.449"	"0.99"	"0"	"1.951"
"1976"	"9.208"	"12.537"	"10.572"	"11.915"	"13.259"	"35.971"	"114.868"	"254.294"	"85.844"	"6.5"	"0"	"0.018"
"1977"	"13.646"	"0.139"	"0.891"	"25.774"	"27.665"	"66.392"	"149.141"	"71.495"	"59.083"	"10.586"	"2.225"	"3.962"
"1978"	"2.362"	"9.016"	"35.981"	"12.153"	"0.098"	"45.501"	"201.65"	"161.322"	"61.214"	"0.125"	"2.165"	"0.133"
"1979"	"8.104"	"37.486"	"26.678"	"5.096"	"20.39"	"21.92"	"73.62"	"44.647"	"39.412"	"4.864"	"3.852"	"3.571"
"1980"	"5.882"	"3.017"	"17.772"	"4.617"	"2.666"	"55.243"	"235.363"	"128.842"	"31.981"	"3.377"	"9.387"	"10.606"
"1981"	"33.724"	"12.307"	"33.531"	"0.04"	"5.989"	"10.845"	"260.243"	"54.121"	"5.612"	"3.544"	"23.415"	"0.8"
"1982"	"14.743"	"14.169"	"70.48"	"26.267"	"40.828"	"15.733"	"118.129"	"130.834"	"0.556"	"2.612"	"12.954"	"15.961"
"1983"	"18.952"	"16.091"	"25.321"	"27.27"	"65.269"	"21.338"	"116.684"	"160.938"	"29.807"	"9.933"	"0"	"0.911"
"1984"	"0.072"	"25.268"	"5.743"	"15.982"	"0.62"	"10.176"	"210.227"	"123.347"	"54.106"	"0"	"0"	"11.279"
"1985"	"1.007"	"0.756"	"3.298"	"19.985"	"16.369"	"30.458"	"132.457"	"94.43"	"45.909"	"8.282"	"0.992"	"11.258"
"1986"	"3.408"	"30.339"	"8.207"	"8.259"	"19.987"	"56.755"	"140.621"	"111.828"	"33.146"	"2.078"	"0.069"	"6.449"
"1987"	"13.232"	"20.692"	"18.712"	"5.458"	"16.869"	"33.401"	"56.331"	"35.517"	"1.83"	"8.592"	"0"	"0.464"
"1988"	"2.172"	"6.698"	"43.375"	"5.059"	"0.287"	"27.205"	"127.289"	"78.697"	"68.727"	"14.448"	"0"	"12.759"
"1989"	"25.726"	"2.736"	"12.864"	"1.88"	"4.647"	"14.15"	"139.859"	"86.055"	"26.485"	"0.028"	"4.812"	"0.346"
"1990"	"1.396"	"39.427"	"30.866"	"10.656"	"17.729"	"9.828"	"94.6"	"114.958"	"95.397"	"1.427"	"5.532"	"21.066"
"1991"	"0.015"	"16.81"	"6.175"	"31.01"	"18.257"	"57.092"	"21.492"	"70.172"	"27.629"	"1.669"	"0.757"	"12.8"
"1992"	"22.184"	"24.013"	"6.167"	"8.327"	"29.462"	"10.154"	"50.365"	"113.172"	"55.448"	"5.238"	"7.393"	"1.344"
"1993"	"4.166"	"7.905"	"12.63"	"18.073"	"11.496"	"11.041"	"125.238"	"23.493"	"35.731"	"1.083"	"0"	"0"
"1994"	"14.178"	"5.905"	"4.082"	"5.934"	"45.946"	"23.21"	"92.968"	"56.976"	"60.5"	"1.027"	"0"	"4.665"
"1995"	"16.066"	"56.635"	"11.536"	"7.291"	"0.098"	"36.643"	"119.121"	"142.069"	"49.465"	"2.438"	"2.848"	"0.851"
"1996"	"10.892"	"14.291"	"14.563"	"3.015"	"4.135"	"126.253"	"63.756"	"142.008"	"14.008"	"1.415"	"0"	"0"
"1997"	"10.96"	"7.487"	"12.844"	"20.725"	"20.962"	"70.487"	"162.983"	"195.518"	"24.364"	"16.198"	"10.324"	"3.802"
"1998"	"0.256"	"18.858"	"9.094"	"27.015"	"3.626"	"17.168"	"150.728"	"45.453"	"28.067"	"9.903"	"1.186"	"3.813"
"1999"	"10.388"	"3.602"	"5.953"	"0.02"	"17.563"	"33.615"	"50.353"	"62.436"	"30.074"	"0.751"	"0"	"0.054"
"2000"	"8.275"	"8.43"	"2.493"	"0.057"	"5.269"	"26.505"	"180.634"	"42.934"	"12.211"	"0"	"3.986"	"1.779"
"2001"	"2.35"	"2.093"	"12.21"	"7.264"	"17.683"	"46.048"	"168.082"	"17.256"	"22.903"	"0.766"	"0"	"0.02"
"2002"	"0.913"	"2.861"	"3.35"	"4.231"	"16.011"	"24.854"	"41.561"	"47.052"	"48.637"	"0"	"2.965"	"14.8"
