
"Year"	"Jan"	"Feb"	"Mar"	"Apr"	"May"	"Jun"	"Jul"	"Aug"	"Sep"	"Oct"	"Nov"	"Dec"
"1901"	"20.832"	"22.003"	"25.137"	"27.838"	"29.068"	"29.812"	"26.838"	"26.241"	"26.84"	"26.167"	"22.294"	"19.815"
"1902"	"20.699"	"22.551"	"26.107"	"27.244"	"29.118"	"29.24"	"26.423"	"26.95"	"26.759"	"25.968"	"22.362"	"20.178"
"1903"	"21.065"	"21.701"	"25.79"	"28.114"	"29.371"	"28.205"	"26.846"	"26.653"	"26.392"	"25.31"	"21.806"	"19.212"
"1904"	"20.262"	"21.598"	"25.387"	"28.032"	"28.162"	"27.191"	"26.318"	"26.122"	"26.343"	"25.59"	"22.16"	"20.211"
"1905"	"20.295"	"21.188"	"24.885"	"26.394"	"28.036"	"30.289"	"26.516"	"26.875"	"26.259"	"25.51"	"22.39"	"19.588"
"1906"	"21.101"	"22.636"	"24.334"	"28.367"	"29.85"	"28.126"	"26.788"	"26.57"	"26.915"	"25.808"	"22.465"	"20.811"
"1907"	"20.562"	"22.761"	"24.669"	"25.943"	"28.059"	"27.575"	"26.855"	"25.443"	"26.6"	"25.911"	"23.149"	"19.41"
"1908"	"18.819"	"22.348"	"24.928"	"28.367"	"28.983"	"28.318"	"26.248"	"25.432"	"26.515"	"25.478"	"21.579"	"18.766"
"1909"	"21.285"	"22.364"	"25.464"	"25.326"	"28.493"	"26.792"	"25.944"	"26.287"	"26.204"	"25.352"	"22.534"	"20.313"
"1910"	"20.474"	"22.109"	"25.171"	"27.578"	"29.096"	"27.913"	"26.302"	"26.39"	"26.334"	"25.215"	"20.892"	"18.799"
"1911"	"21.168"	"21.494"	"24.808"	"27.076"	"28.748"	"26.68"	"27.112"	"25.882"	"26.218"	"25.337"	"22.85"	"19.492"
"1912"	"20.535"	"22.775"	"26.139"	"27.109"	"29.654"	"28.751"	"26.205"	"26.077"	"26.381"	"25.406"	"21.408"	"18.424"
"1913"	"19.334"	"22.317"	"24.919"	"27.589"	"28.255"	"26.815"	"26.227"	"26.254"	"26.65"	"25.012"	"21.467"	"19.805"
"1914"	"19.849"	"22.765"	"24.988"	"25.679"	"27.173"	"27.122"	"26.056"	"26.103"	"26.041"	"25.475"	"22.46"	"20.2"
"1915"	"20.349"	"22.255"	"24.875"	"27.428"	"28.867"	"28.55"	"27.102"	"26.887"	"26.313"	"26.038"	"23.44"	"19.304"
"1916"	"19.69"	"22.634"	"25.415"	"27.517"	"29.312"	"26.854"	"26.612"	"26.398"	"26.545"	"25.518"	"22.498"	"19.238"
"1917"	"19.634"	"21.414"	"23.908"	"26.992"	"26.816"	"26.776"	"26.43"	"26.359"	"26.29"	"25.275"	"21.973"	"19.481"
"1918"	"19.205"	"21.536"	"25.075"	"26.891"	"27.691"	"26.212"	"27.449"	"26.201"	"26.915"	"25.946"	"23.513"	"20.334"
"1919"	"21.334"	"22.522"	"25.706"	"27.712"	"28.831"	"26.903"	"26.634"	"26.246"	"26.635"	"25.377"	"22.456"	"19.621"
"1920"	"20.1"	"22.381"	"25.582"	"27.043"	"28.339"	"28.156"	"26.032"	"26.35"	"26.635"	"25.651"	"22.493"	"19.006"
"1921"	"20.047"	"21.527"	"25.809"	"27.316"	"31.194"	"27.93"	"26.471"	"26.101"	"25.954"	"24.45"	"20.556"	"19.75"
"1922"	"19.587"	"22.072"	"25.864"	"27.8"	"29.398"	"27.299"	"25.744"	"26.081"	"25.692"	"24.258"	"21.703"	"18.453"
"1923"	"18.787"	"21.495"	"23.651"	"27.095"	"29.326"	"29.933"	"26.403"	"25.977"	"26.163"	"24.999"	"21.502"	"19.458"
"1924"	"19.771"	"22.435"	"25.501"	"28.508"	"28.373"	"29.585"	"26.816"	"26.365"	"25.969"	"25.389"	"21.761"	"18.941"
"1925"	"19.33"	"21.484"	"25.333"	"27.323"	"28.931"	"27.744"	"25.513"	"26.345"	"26.468"	"24.824"	"22.2"	"18.574"
"1926"	"19.789"	"22.467"	"24.707"	"27.108"	"28.763"	"30.315"	"26.737"	"25.888"	"26.41"	"24.684"	"21.113"	"19.711"
"1927"	"21.002"	"22.876"	"25.496"	"28.48"	"29.687"	"28.865"	"26.325"	"26.235"	"26.584"	"25.415"	"21.793"	"20.008"
"1928"	"20.275"	"22.618"	"25.624"	"27.104"	"29.228"	"27.254"	"26.236"	"26.623"	"26.545"	"25.508"	"22.151"	"20.136"
"1929"	"20.937"	"21.273"	"25.439"	"27.788"	"29.876"	"28.152"	"25.879"	"25.973"	"26.427"	"24.53"	"21.645"	"20.247"
"1930"	"19.933"	"20.898"	"25.258"	"27.589"	"28.595"	"28.184"	"26.406"	"26.009"	"26.301"	"25.556"	"21.348"	"19.345"
"1931"	"20.373"	"22.607"	"25.561"	"28.401"	"29.226"	"30.045"	"26.154"	"26.361"	"26.626"	"25.19"	"21.842"	"19.713"
"1932"	"20.133"	"21.332"	"25.369"	"27.6"	"28.635"	"28.599"	"25.907"	"26.322"	"26.606"	"26.035"	"22.572"	"19.878"
"1933"	"19.771"	"21.832"	"25.153"	"27.286"	"27.637"	"27.168"	"26.144"	"26.152"	"26.241"	"25.337"	"22.123"	"19.912"
"1934"	"19.424"	"21.658"	"25.35"	"28.119"	"30.433"	"27.828"	"26.253"	"25.966"	"26.318"	"24.908"	"21.059"	"19.801"
"1935"	"19.832"	"22.475"	"25.378"	"26.886"	"30.45"	"28.844"	"26.006"	"26.23"	"26.383"	"25.644"	"21.907"	"20.391"
"1936"	"21.782"	"21.783"	"25.704"	"27.942"	"28.133"	"27.142"	"26.395"	"25.928"	"26.334"	"24.943"	"23.237"	"20.431"
"1937"	"19.307"	"22.298"	"25.045"	"26.514"	"28.913"	"28.137"	"26.325"	"26.338"	"26.144"	"24.962"	"22.262"	"19.048"
"1938"	"21.424"	"21.496"	"26.353"	"27.82"	"28.452"	"26.202"	"25.954"	"26.177"	"26.211"	"24.994"	"20.96"	"18.99"
"1939"	"20.18"	"22.218"	"24.732"	"27.883"	"29.626"	"28.401"	"25.772"	"26.408"	"26.419"	"25.702"	"21.495"	"19.418"
"1940"	"18.484"	"21.813"	"24.318"	"27.694"	"28.259"	"27.73"	"25.672"	"26.022"	"26.7"	"25.581"	"23.749"	"20.304"
"1941"	"21.183"	"22.489"	"25.948"	"28.806"	"29.161"	"27.513"	"26.429"	"26.984"	"26.658"	"25.242"	"20.901"	"20.663"
"1942"	"20.328"	"22.076"	"25.872"	"27.36"	"30.29"	"29.199"	"26.284"	"26.177"	"26.166"	"25.17"	"21.68"	"20.203"
"1943"	"20.898"	"20.556"	"25.067"	"26.693"	"29.006"	"28.157"	"26.462"	"25.876"	"26.434"	"25.588"	"22.348"	"19.67"
"1944"	"20.415"	"21.428"	"24.075"	"26.329"	"29.721"	"28.856"	"26.029"	"26.191"	"26.656"	"25.431"	"22.107"	"20.815"
"1945"	"19.555"	"22.032"	"25.997"	"27.297"	"30.145"	"29.496"	"26.536"	"26.809"	"26.396"	"24.967"	"21.684"	"18.697"
"1946"	"19.057"	"22.343"	"26.11"	"25.82"	"28.506"	"27.384"	"26.256"	"26.12"	"26.468"	"25.533"	"23.574"	"21.306"
"1947"	"21.009"	"21.998"	"25.871"	"29.161"	"30.043"	"28.69"	"26.02"	"26.414"	"26.659"	"25.143"	"22.215"	"19.79"
"1948"	"20.564"	"22.642"	"25.005"	"27.722"	"29.46"	"29.273"	"26.607"	"26.401"	"26.422"	"25.625"	"23.29"	"18.935"
"1949"	"20.287"	"21.961"	"25.705"	"27.196"	"28.612"	"28.625"	"26.598"	"26.228"	"26.33"	"25.605"	"21.316"	"19.625"
"1950"	"20.168"	"22.172"	"24.241"	"27.952"	"29.104"	"27.541"	"25.715"	"26.302"	"26.365"	"25.232"	"21.167"	"19.121"
"1951"	"19.446"	"22.12"	"25.044"	"27.097"	"28.963"	"28.087"	"26.48"	"26.384"	"27.236"	"26.243"	"22.565"	"20.117"
"1952"	"20.44"	"22.827"	"24.738"	"27.509"	"29.35"	"29.122"	"26.666"	"26.257"	"26.578"	"25.319"	"22.235"	"21.12"
"1953"	"20.359"	"23.292"	"27.393"	"28.952"	"30.82"	"28.854"	"26.886"	"26.25"	"26.661"	"25.729"	"21.92"	"20.11"
"1954"	"19.651"	"23.696"	"25.36"	"29.137"	"29.57"	"27.572"	"26.805"	"26.666"	"26.032"	"24.635"	"20.809"	"20.247"
"1955"	"19.946"	"23.164"	"25.944"	"27.86"	"28.459"	"28.771"	"26.625"	"26.36"	"26.121"	"24.842"	"21.336"	"19.674"
"1956"	"21.055"	"21.156"	"26.193"	"28.664"	"29.033"	"26.246"	"25.851"	"26.352"	"26.324"	"24.744"	"22.081"	"20.489"
"1957"	"21.242"	"22.315"	"24.571"	"27.842"	"30.57"	"29.719"	"26.427"	"26.359"	"26.831"	"26.225"	"22.757"	"21.171"
"1958"	"21.613"	"23.074"	"25.677"	"28.645"	"30.492"	"30.652"	"26.28"	"26.766"	"26.432"	"25.637"	"22.959"	"20.82"
"1959"	"20.811"	"22.858"	"25.933"	"27.995"	"30.095"	"28.165"	"26.293"	"25.937"	"26.324"	"25.151"	"21.753"	"19.471"
"1960"	"20.01"	"22.403"	"24.864"	"28.643"	"29.704"	"28.808"	"26.141"	"26.643"	"27.209"	"25.572"	"22.281"	"21.206"
"1961"	"20.432"	"20.948"	"26.581"	"28.517"	"29.68"	"27.762"	"25.735"	"26.625"	"25.706"	"24.694"	"21.271"	"18.496"
"1962"	"18.523"	"21.627"	"25.369"	"27.296"	"29.696"	"27.919"	"26.569"	"26.321"	"26.739"	"25.027"	"21.918"	"20.38"
"1963"	"19.08"	"22.585"	"25.419"	"27.013"	"28.657"	"28.178"	"26.318"	"26.498"	"26.685"	"25.496"	"23.431"	"20.429"
"1964"	"21.639"	"23.311"	"26.716"	"28.021"	"29.277"	"28.98"	"26.224"	"25.902"	"26.446"	"25.709"	"22.705"	"20.209"
"1965"	"20.665"	"22.677"	"25.083"	"27.256"	"29.608"	"29.758"	"26.262"	"26.669"	"26.516"	"25.716"	"22.832"	"20.651"
"1966"	"19.703"	"23.061"	"25.653"	"27.377"	"30.452"	"28.303"	"27.403"	"27.337"	"27.469"	"25.673"	"24.112"	"20.089"
"1967"	"20.105"	"23.43"	"24.496"	"27.401"	"30.041"	"29.55"	"27.042"	"26.352"	"26.805"	"25.755"	"22.72"	"22.612"
"1968"	"20.645"	"23.066"	"25.814"	"27.506"	"29.758"	"28.116"	"27.145"	"26.846"	"26.805"	"24.848"	"22.279"	"20.299"
"1969"	"20.744"	"24.465"	"27.359"	"28.836"	"28.315"	"28.964"	"26.461"	"26.469"	"26.809"	"26.335"	"23.708"	"20.391"
"1970"	"20.991"	"24.11"	"25.959"	"27.836"	"28.844"	"27.269"	"26.463"	"26.477"	"26.604"	"25.419"	"21.677"	"18.476"
"1971"	"20.402"	"22.534"	"24.459"	"25.256"	"26.32"	"26.093"	"25.697"	"25.184"	"26.402"	"25.41"	"22.622"	"19.31"
"1972"	"20.467"	"21.899"	"26.342"	"28.059"	"30.673"	"30.447"	"27.176"	"27.046"	"26.811"	"25.895"	"23.283"	"21.894"
"1973"	"22.433"	"24.11"	"25.614"	"29.228"	"29.599"	"29.523"	"26.509"	"26.473"	"26.843"	"25.535"	"21.947"	"19.897"
"1974"	"20.753"	"22.734"	"26.154"	"28.047"	"29.145"	"28.907"	"27.029"	"27.132"	"27.007"	"25.675"	"22.358"	"19.089"
"1975"	"19.281"	"22.735"	"25.951"	"27.987"	"29.936"	"27.785"	"26.071"	"26.335"	"25.875"	"25.772"	"21.131"	"18.877"
"1976"	"19.061"	"22.355"	"25.89"	"27.335"	"28.797"	"28.4"	"26.244"	"26.044"	"26.646"	"26.231"	"24.127"	"20.8"
"1977"	"20.32"	"22.714"	"26.426"	"26.716"	"27.461"	"27.886"	"26.402"	"26.408"	"26.443"	"25.165"	"23.657"	"19.555"
"1978"	"19.831"	"22.069"	"25"	"26.949"	"29.697"	"28.347"	"26.139"	"25.816"	"26.622"	"26.017"	"23.657"	"20.612"
"1979"	"21.007"	"22.416"	"25.293"	"27.75"	"29.26"	"28.316"	"27.637"	"26.98"	"26.549"	"26.126"	"24.195"	"20.833"
"1980"	"21.285"	"23.458"	"25.8"	"28.204"	"29.142"	"27.132"	"25.96"	"26.04"	"26.881"	"25.341"	"23.01"	"20.905"
"1981"	"20.001"	"23.535"	"25.187"	"27.416"	"28.319"	"28.612"	"26.888"	"26.62"	"26.661"	"26.231"	"22.934"	"20.548"
"1982"	"21.952"	"23.551"	"25.417"	"27.621"	"29.418"	"28.449"	"28.066"	"26.157"	"27.193"	"26.497"	"23.677"	"21.4"
"1983"	"21.292"	"22.977"	"26.332"	"27.668"	"28.801"	"29.514"	"27.144"	"26.718"	"26.697"	"25.617"	"22.769"	"20.132"
"1984"	"21.111"	"22.1"	"25.959"	"28.052"	"29.779"	"27.523"	"26.501"	"26.479"	"26.698"	"26.004"	"21.943"	"21.21"
"1985"	"21.15"	"22.589"	"26.101"	"27.675"	"28.244"	"27.568"	"25.195"	"25.138"	"26.531"	"23.553"	"21.372"	"20.247"
"1986"	"19.085"	"22.004"	"25.192"	"26.488"	"27.631"	"26.657"	"25.802"	"25.986"	"26.223"	"24.522"	"21.85"	"20.089"
"1987"	"19.127"	"21.004"	"23.847"	"26.39"	"27.557"	"28.475"	"26.135"	"25.925"	"26.469"	"25"	"21.479"	"19.177"
"1988"	"19.415"	"21.565"	"24.792"	"26.006"	"27.403"	"26.517"	"25.494"	"26.947"	"27.017"	"25.888"	"23.226"	"21.601"
"1989"	"20.397"	"23.216"	"25.791"	"28.499"	"29.298"	"27.531"	"26.844"	"26.617"	"26.655"	"26.207"	"22.934"	"19.945"
"1990"	"21.658"	"22.789"	"24.092"	"26.682"	"27.177"	"27.462"	"26.111"	"26.649"	"26.64"	"24.996"	"22.997"	"20.644"
"1991"	"20.873"	"24.029"	"26.684"	"27.731"	"29.314"	"27.957"	"27.072"	"27.205"	"27.266"	"25.835"	"22.105"	"19.912"
"1992"	"19.703"	"22.376"	"25.527"	"27.731"	"28.746"	"28.319"	"26.973"	"26.327"	"26.814"	"25.862"	"22.967"	"19.711"
"1993"	"20.985"	"22.354"	"25.18"	"27.316"	"28.845"	"28.428"	"27.033"	"27.099"	"26.392"	"26.072"	"22.819"	"20.101"
"1994"	"20.989"	"22.468"	"26.5"	"27.361"	"29.467"	"28.068"	"26.119"	"26.018"	"26.703"	"25.753"	"22.467"	"19.969"
"1995"	"19.737"	"22.488"	"25.684"	"27.902"	"27.939"	"29.124"	"26.49"	"27.342"	"26.92"	"25.504"	"22.879"	"20.773"
"1996"	"21.377"	"22.301"	"26.256"	"27.258"	"30.002"	"27.985"	"27.298"	"26.104"	"27.103"	"25.452"	"22.997"	"20.245"
"1997"	"19.833"	"22.182"	"25.749"	"25.981"	"28.628"	"29.206"	"27.242"	"26.551"	"26.632"	"25.625"	"24.237"	"21.825"
"1998"	"21.236"	"23.084"	"25.225"	"27.374"	"29.427"	"29.183"	"26.93"	"26.93"	"27.037"	"26.57"	"23.985"	"20.13"
"1999"	"20.032"	"23.914"	"26.696"	"29.195"	"28.463"	"27.879"	"26.892"	"26.578"	"26.536"	"26.114"	"22.569"	"20.174"
"2000"	"21.557"	"22.905"	"25.563"	"28.436"	"29.081"	"27.55"	"26.638"	"26.818"	"27.03"	"26.316"	"23.322"	"19.921"
"2001"	"20.465"	"23.596"	"26.319"	"27.623"	"29.481"	"27.323"	"26.823"	"26.636"	"27.752"	"26.332"	"23.96"	"20.545"
"2002"	"21.342"	"23.381"	"26.684"	"27.749"	"29.945"	"28.111"	"27.431"	"26.328"	"27.234"	"26.116"	"22.532"	"20.929"
