
"Year"	"Jan"	"Feb"	"Mar"	"Apr"	"May"	"Jun"	"Jul"	"Aug"	"Sep"	"Oct"	"Nov"	"Dec"
"1901"	"10.947"	"14.167"	"20.85"	"26.785"	"30.331"	"33.366"	"30.397"	"29.282"	"27.94"	"26.027"	"20.328"	"14.723"
"1902"	"14.929"	"17.481"	"22.114"	"26.835"	"30.819"	"31.408"	"28.99"	"29.267"	"27.865"	"23.517"	"19.296"	"14.801"
"1903"	"13.024"	"14.622"	"18.8"	"26.366"	"30.794"	"32.653"	"30.82"	"29.177"	"28.557"	"24.636"	"19.709"	"15.284"
"1904"	"13.114"	"17.387"	"20.426"	"28.203"	"29.773"	"31.492"	"29.04"	"28.793"	"27.562"	"24.629"	"18.327"	"14.104"
"1905"	"10.329"	"11.462"	"16.437"	"23.961"	"30.873"	"32.27"	"29.442"	"29.6"	"28.239"	"25.063"	"19.793"	"14.131"
"1906"	"11.858"	"12.716"	"18.763"	"27.396"	"32.32"	"31.257"	"29.661"	"28.608"	"27.953"	"24.716"	"20.979"	"15.797"
"1907"	"15.624"	"12.723"	"16.37"	"24.506"	"29.095"	"31.966"	"30.341"	"29.055"	"28.97"	"26.104"	"19.822"	"14.789"
"1908"	"14.01"	"16.373"	"21.102"	"29.038"	"30.782"	"33.087"	"29.029"	"28.247"	"28.134"	"25.031"	"18.771"	"14.121"
"1909"	"12.282"	"14.849"	"22.464"	"25.505"	"30.944"	"30.272"	"29.065"	"29.175"	"28.741"	"25.989"	"19.615"	"15.012"
"1910"	"14.174"	"15.425"	"21.372"	"27.084"	"30.769"	"30.847"	"28.457"	"28.886"	"28.115"	"23.969"	"18.489"	"13.996"
"1911"	"13.31"	"16.65"	"18.018"	"26.894"	"32.384"	"31.107"	"30.806"	"29.77"	"27.78"	"24.534"	"17.624"	"14.128"
"1912"	"12.941"	"16.671"	"20.493"	"26.181"	"30.393"	"32.017"	"29.354"	"28.723"	"27.365"	"24.791"	"17.508"	"14.035"
"1913"	"13.782"	"14.026"	"18.065"	"27.546"	"29.069"	"29.644"	"29.04"	"29.639"	"28.907"	"24.668"	"17.796"	"12.434"
"1914"	"15.02"	"14.287"	"19.164"	"25.978"	"30.037"	"31.068"	"29.1"	"29.207"	"27.756"	"22.757"	"18.963"	"13.984"
"1915"	"13.951"	"14.557"	"20.248"	"27.059"	"32.046"	"31.431"	"30.186"	"29.541"	"28.492"	"26.325"	"20.295"	"14.674"
"1916"	"13.896"	"15.192"	"24.398"	"28.352"	"31.515"	"30.445"	"28.801"	"29.121"	"27.761"	"24.634"	"19.615"	"13.591"
"1917"	"13.382"	"15.483"	"19.461"	"23.4"	"26.515"	"30.267"	"28.823"	"28.922"	"26.871"	"23.734"	"19.605"	"13.978"
"1918"	"12.731"	"16.818"	"20.924"	"25.197"	"31.819"	"30.363"	"30.275"	"29.481"	"28.567"	"24.939"	"18.59"	"12.627"
"1919"	"11.742"	"14.836"	"20.379"	"24.934"	"29.117"	"31.777"	"28.941"	"29.044"	"27.713"	"24.643"	"18.865"	"13.372"
"1920"	"15.116"	"13.923"	"18.923"	"26.84"	"27.483"	"30.526"	"28.858"	"29.163"	"28.227"	"24.973"	"19.865"	"16.338"
"1921"	"12.72"	"16.851"	"24.103"	"29.238"	"33.917"	"31.163"	"29.314"	"28.228"	"26.804"	"23.375"	"18.858"	"14.796"
"1922"	"11.484"	"16.907"	"22.743"	"27.155"	"32.062"	"30.683"	"29.027"	"28.295"	"27.267"	"23.648"	"18.817"	"12.421"
"1923"	"13.814"	"13.88"	"21.696"	"28.628"	"30.742"	"33.335"	"28.959"	"28.724"	"27.527"	"23.544"	"19.013"	"14.05"
"1924"	"12.202"	"15.741"	"22.474"	"28.183"	"28.025"	"33.845"	"29.423"	"28.637"	"26.747"	"24.746"	"18.729"	"14.832"
"1925"	"11.237"	"15.466"	"21.337"	"28.696"	"30.539"	"29.406"	"28.386"	"28.881"	"27.808"	"24.216"	"17.748"	"14.827"
"1926"	"13.053"	"16.817"	"18.306"	"23.408"	"28.564"	"33.384"	"29.607"	"28.742"	"27.897"	"24.248"	"16.89"	"14.398"
"1927"	"12.42"	"13.304"	"19.895"	"26.409"	"29.362"	"31.775"	"29.08"	"28.281"	"28.023"	"24.299"	"18.514"	"15.372"
"1928"	"12.434"	"15.977"	"21.029"	"26.243"	"32.291"	"31.192"	"29.444"	"29.775"	"29.019"	"25.564"	"18.881"	"13.939"
"1929"	"12.589"	"14.973"	"22.642"	"27.362"	"31.982"	"31.189"	"29.165"	"28.32"	"27.922"	"23.967"	"19.521"	"12.095"
"1930"	"11.587"	"15.237"	"22.105"	"26.754"	"30.559"	"30.692"	"28.528"	"28.984"	"28.199"	"23.942"	"18.514"	"14.948"
"1931"	"14.725"	"13.179"	"20.603"	"28.802"	"30.715"	"32.92"	"29.344"	"29.718"	"27.378"	"24.187"	"18.89"	"14.817"
"1932"	"15.175"	"14.456"	"21.625"	"27.168"	"29.973"	"33.104"	"29.516"	"28.668"	"27.824"	"24.696"	"20.202"	"14.333"
"1933"	"11.973"	"15.713"	"21.244"	"24.843"	"27.508"	"30.946"	"28.607"	"28.551"	"27.365"	"24.082"	"19.464"	"15.297"
"1934"	"11.377"	"17.924"	"20.17"	"27.728"	"30.405"	"30.86"	"28.84"	"28.023"	"28.632"	"24.702"	"19.259"	"13.043"
"1935"	"10.464"	"15.628"	"20.908"	"23.456"	"31.948"	"33.011"	"28.911"	"28.342"	"27.56"	"24.261"	"18.792"	"12.805"
"1936"	"11.838"	"14.262"	"20.663"	"26.174"	"31.246"	"28.672"	"28.255"	"28.204"	"27.157"	"23.566"	"18.953"	"13.328"
"1937"	"12.437"	"14.563"	"19.7"	"24.331"	"29.954"	"31.513"	"28.982"	"29.185"	"27.91"	"23.654"	"17.654"	"13.501"
"1938"	"11.863"	"13.734"	"22.037"	"28.084"	"31.445"	"29.942"	"28.762"	"28.901"	"28.206"	"24.968"	"17.209"	"15.59"
"1939"	"13.55"	"14.583"	"17.942"	"25.948"	"32.326"	"30.044"	"28.959"	"29.208"	"27.821"	"24.564"	"19.496"	"15.428"
"1940"	"13.298"	"14.637"	"17.867"	"25.744"	"31.005"	"31.64"	"29.264"	"28.714"	"27.203"	"24.895"	"19.628"	"12.878"
"1941"	"11.75"	"16.522"	"23.236"	"29.893"	"31.495"	"30.742"	"30.137"	"29.332"	"28.109"	"25.371"	"19.217"	"16.255"
"1942"	"12.158"	"16.542"	"22.997"	"27.876"	"30.908"	"32.895"	"28.789"	"28.222"	"27.269"	"24.911"	"20.041"	"13.428"
"1943"	"11.943"	"16.801"	"21.64"	"25.012"	"31.238"	"31.34"	"28.918"	"28.204"	"28.516"	"24.921"	"20.956"	"15.213"
"1944"	"11.359"	"14.154"	"19.618"	"25.7"	"32.864"	"30.906"	"29.019"	"29.057"	"27.931"	"24.935"	"19.525"	"15.965"
"1945"	"10.623"	"14.63"	"21.242"	"25.138"	"31.053"	"32.676"	"28.959"	"29.12"	"27.562"	"23.582"	"19.657"	"13.501"
"1946"	"15.704"	"17.989"	"20.649"	"27.187"	"29.42"	"31.253"	"29.008"	"29.514"	"28.516"	"23.952"	"19.25"	"14.407"
"1947"	"12.008"	"16.446"	"21.22"	"28.561"	"31.493"	"33.289"	"29.554"	"29.31"	"27.839"	"23.657"	"19.714"	"14.819"
"1948"	"13.528"	"14.756"	"19.636"	"29.156"	"32.266"	"33.166"	"29.275"	"28.321"	"27.699"	"23.973"	"18.207"	"13.481"
"1949"	"15.261"	"15.146"	"21.463"	"27.981"	"30.725"	"32.469"	"28.839"	"28.851"	"28.135"	"25.301"	"18.754"	"12.795"
"1950"	"13.853"	"14.671"	"19.341"	"26.907"	"31.305"	"31.373"	"28.845"	"28.665"	"27.108"	"24.352"	"19.435"	"13.761"
"1951"	"11.801"	"16.683"	"21.069"	"24.837"	"30.866"	"31.982"	"30.425"	"29.596"	"28.118"	"26.413"	"20.036"	"15.456"
"1952"	"14.733"	"17.698"	"19.409"	"28.231"	"31.082"	"30.934"	"29.223"	"28.688"	"28.654"	"25.018"	"19.745"	"15.195"
"1953"	"11.481"	"18.627"	"24.307"	"28.102"	"31.48"	"32.414"	"28.976"	"29.063"	"28.301"	"24.829"	"19.841"	"16.163"
"1954"	"11.801"	"16.124"	"22.327"	"28.64"	"32.41"	"31.81"	"29.223"	"29.198"	"28.207"	"22.991"	"19.063"	"13.29"
"1955"	"12.494"	"17.237"	"23.141"	"25.276"	"29.733"	"32.33"	"29.236"	"28.395"	"27.649"	"23.394"	"19.482"	"13.697"
"1956"	"12.878"	"17.503"	"21.122"	"28.582"	"32.213"	"31.09"	"28.37"	"28.777"	"28.184"	"23.558"	"18.977"	"13.211"
"1957"	"11.899"	"15.452"	"19.446"	"25.954"	"30.134"	"31.137"	"29.493"	"29.307"	"27.542"	"24.692"	"20.228"	"14.874"
"1958"	"14.347"	"16.024"	"21.907"	"29.073"	"31.245"	"32.798"	"28.966"	"28.873"	"28.269"	"24.997"	"20.468"	"15.498"
"1959"	"13.852"	"15.363"	"22.502"	"27.627"	"31.101"	"32.207"	"28.636"	"29.446"	"28.451"	"24.805"	"19.208"	"15.937"
"1960"	"12.432"	"20.302"	"20.026"	"26.466"	"31.986"	"32.604"	"29.315"	"29.216"	"28.531"	"24.322"	"19.007"	"17.091"
"1961"	"13.504"	"13.855"	"22.173"	"27.676"	"31.086"	"31.644"	"29.651"	"29.221"	"28.907"	"24.137"	"17.641"	"12.446"
"1962"	"12.436"	"16.04"	"21.091"	"27.742"	"31.13"	"32.218"	"30.154"	"29.232"	"27.388"	"25.189"	"19.811"	"14.257"
"1963"	"13.926"	"18.061"	"20.533"	"26.11"	"29.831"	"31.409"	"29.885"	"28.561"	"27.469"	"25.266"	"19.348"	"14.737"
"1964"	"12.488"	"16.095"	"22.89"	"27.915"	"29"	"32.47"	"28.245"	"29.287"	"27.565"	"25.675"	"19.132"	"14.73"
"1965"	"14.887"	"14.959"	"19.868"	"25.377"	"30.216"	"33.258"	"28.975"	"28.473"	"28.032"	"24.514"	"19.593"	"14.035"
"1966"	"14.057"	"17.791"	"21.858"	"28.04"	"31.678"	"31.774"	"29.889"	"29.055"	"27.902"	"24.539"	"19.021"	"14.702"
"1967"	"13.484"	"18.464"	"19.826"	"26.545"	"30.678"	"32.443"	"29.185"	"28.224"	"28.031"	"23.894"	"17.776"	"13.916"
"1968"	"11.645"	"14.266"	"20.959"	"26.967"	"31.11"	"31.064"	"28.688"	"28.829"	"28.961"	"24.041"	"19.125"	"14.821"
"1969"	"12.96"	"17.347"	"24.031"	"26.911"	"29.455"	"32.046"	"28.944"	"28.892"	"27.11"	"24.835"	"20.226"	"15.581"
"1970"	"13.098"	"15.678"	"20.757"	"28.772"	"31.489"	"30.053"	"29.483"	"28.859"	"28.299"	"24.957"	"19.113"	"15.577"
"1971"	"12.899"	"16.381"	"21.312"	"26.601"	"27.831"	"29.421"	"28.455"	"27.64"	"27.393"	"24.64"	"18.913"	"15.9"
"1972"	"14.433"	"14.266"	"22.654"	"26.026"	"32.196"	"33.07"	"29.518"	"28.557"	"26.808"	"23.513"	"19.391"	"15.381"
"1973"	"13.418"	"16.923"	"20.7"	"29.614"	"30.931"	"30.706"	"29.312"	"28.937"	"27.93"	"23.974"	"19.426"	"13.476"
"1974"	"13.145"	"15.214"	"22.7"	"29.033"	"30.352"	"30.965"	"28.75"	"28.876"	"28.08"	"25.544"	"19.199"	"13.218"
"1975"	"12.1"	"15.487"	"20.391"	"28.122"	"31.552"	"30.023"	"28.12"	"28.561"	"26.76"	"25.695"	"18.528"	"15.247"
"1976"	"13.894"	"15.831"	"20.617"	"25.958"	"29.926"	"29.987"	"29.051"	"28.158"	"27.639"	"24.788"	"20.442"	"14.903"
"1977"	"13.568"	"16.388"	"23.053"	"26.428"	"27.948"	"30.473"	"28.157"	"28.726"	"26.707"	"24.368"	"20.559"	"14.555"
"1978"	"12.88"	"14.696"	"17.836"	"26.115"	"32.517"	"31.196"	"28.5"	"28.521"	"27.083"	"24.917"	"18.74"	"14.871"
"1979"	"13.843"	"14.477"	"19.081"	"27.888"	"30.15"	"31.466"	"28.701"	"29.42"	"27.618"	"25.43"	"21.164"	"14.789"
"1980"	"13.526"	"16.796"	"19.99"	"28.722"	"32.179"	"30.224"	"28.203"	"28.757"	"27.455"	"24.284"	"19.391"	"15.333"
"1981"	"12.034"	"16.557"	"19.881"	"27.002"	"29.845"	"31.576"	"28.461"	"28.582"	"27.873"	"24.762"	"18.681"	"13.819"
"1982"	"14.109"	"15.106"	"17.738"	"25.37"	"27.837"	"31.199"	"29.945"	"28.559"	"28.059"	"24.552"	"19.444"	"15.584"
"1983"	"12.638"	"14.045"	"19.694"	"24.038"	"29.194"	"30.47"	"29.418"	"28.906"	"27.793"	"23.667"	"18.763"	"14.24"
"1984"	"11.56"	"14.527"	"23.272"	"27.004"	"33.099"	"31.36"	"28.285"	"28.83"	"27.316"	"24.672"	"18.675"	"14.173"
"1985"	"12.665"	"16.665"	"24.084"	"27.881"	"29.873"	"31.798"	"28.13"	"28.644"	"26.935"	"23.311"	"18.427"	"14.996"
"1986"	"13.565"	"15.887"	"20.038"	"26.605"	"28.028"	"30.803"	"28.176"	"28.746"	"27.241"	"23.479"	"19.906"	"13.619"
"1987"	"13.909"	"17.302"	"22.328"	"27.949"	"28.23"	"32.356"	"30.523"	"29.501"	"28.696"	"25.693"	"20.778"	"16.561"
"1988"	"16.068"	"18.037"	"21.779"	"29.085"	"32.125"	"30.852"	"28.422"	"28.403"	"27.768"	"25.756"	"19.653"	"15.041"
"1989"	"12.319"	"15.973"	"21.31"	"26.414"	"30.693"	"29.69"	"29.055"	"27.804"	"27.702"	"25.001"	"19.077"	"14.533"
"1990"	"17.135"	"15.36"	"18.534"	"26.287"	"29.569"	"32.076"	"28.023"	"28.492"	"27.13"	"23.581"	"19.799"	"14.783"
"1991"	"11.165"	"16.693"	"21.439"	"25.605"	"31.179"	"30.269"	"29.895"	"28.454"	"27.502"	"24.362"	"18.051"	"14.467"
"1992"	"13.678"	"14.429"	"21.045"	"27.363"	"29.188"	"30.624"	"28.137"	"27.786"	"27.029"	"24.128"	"19.263"	"15.133"
"1993"	"12.711"	"17.724"	"18.6"	"26.06"	"30.911"	"31.314"	"28.498"	"29.141"	"27.375"	"24.702"	"20.066"	"15.358"
"1994"	"14.777"	"15.791"	"22.909"	"25.266"	"31.459"	"32.609"	"29.385"	"28.759"	"27.458"	"24.472"	"19.428"	"15.156"
"1995"	"12.903"	"15.885"	"20.192"	"26.644"	"32.933"	"33.393"	"27.774"	"27.091"	"27.517"	"25.242"	"19.375"	"15.081"
"1996"	"13.341"	"16.3"	"21.485"	"27.155"	"30.613"	"30.058"	"27.464"	"26.087"	"27.219"	"24.361"	"18.891"	"13.655"
"1997"	"13.488"	"15.848"	"20.928"	"26.243"	"29.096"	"29.866"	"30.252"	"28.694"	"27.982"	"21.776"	"18.821"	"13.299"
"1998"	"8.177"	"16.774"	"19.445"	"27.16"	"31.731"	"32.847"	"28.837"	"28.627"	"28.467"	"24.838"	"21.229"	"17.748"
"1999"	"13.395"	"19.839"	"24.591"	"32.623"	"31.756"	"30.557"	"30.293"	"29.82"	"28.273"	"25.559"	"21.718"	"16.57"
"2000"	"15.085"	"15.241"	"20.448"	"29.449"	"31.195"	"30.044"	"29.102"	"29.277"	"28.957"	"26.568"	"21.769"	"17.092"
"2001"	"13.933"	"16.959"	"22.161"	"26.42"	"31.181"	"30.291"	"29.924"	"30.093"	"29.47"	"26.47"	"21.892"	"16.798"
"2002"	"14.928"	"17.004"	"22.334"	"28.468"	"33.16"	"32.041"	"31.241"	"29.643"	"26.516"	"25.627"	"20.348"	"15.188"
