
"Year"	"Jan"	"Feb"	"Mar"	"Apr"	"May"	"Jun"	"Jul"	"Aug"	"Sep"	"Oct"	"Nov"	"Dec"
"1901"	"12.915"	"15.769"	"22.992"	"28.188"	"32.673"	"35.685"	"32.68"	"29.812"	"30.376"	"28.285"	"21.212"	"16.2"
"1902"	"15.8"	"18.184"	"25.085"	"29.389"	"33.274"	"33.297"	"30.72"	"30.904"	"29.192"	"26.681"	"20.32"	"14.612"
"1903"	"14.508"	"16.378"	"21.866"	"27.389"	"32.092"	"35.789"	"33.088"	"29.611"	"30.184"	"26.015"	"19.531"	"14.327"
"1904"	"13.82"	"17.284"	"22.273"	"29.489"	"32.393"	"34.569"	"29.731"	"28.715"	"28.985"	"26.401"	"19.619"	"15.777"
"1905"	"12.701"	"12.473"	"19.381"	"26.189"	"33.794"	"35.666"	"31.908"	"30.011"	"31.169"	"27.208"	"21.908"	"15.796"
"1906"	"13.597"	"15.262"	"20.6"	"28.284"	"35.173"	"33.397"	"31.412"	"29.412"	"28.6"	"26.908"	"21.327"	"16.208"
"1907"	"15.823"	"14.981"	"19.885"	"26.092"	"31.277"	"34.176"	"33.577"	"29.104"	"30.677"	"27.108"	"20.82"	"14.226"
"1908"	"13.73"	"17"	"22.4"	"29.489"	"32.885"	"35.277"	"29.711"	"28.192"	"29.185"	"25.919"	"19.808"	"14.619"
"1909"	"13.509"	"15.689"	"22.604"	"26.611"	"31.912"	"32.304"	"29.304"	"28.9"	"28.688"	"26.511"	"21.704"	"14.508"
"1910"	"13.435"	"16.888"	"22.601"	"27.685"	"33.385"	"33.481"	"30.792"	"29.388"	"29.384"	"25.212"	"19.6"	"14.904"
"1911"	"15.889"	"17.281"	"20.686"	"28.388"	"34.481"	"34.554"	"32.901"	"30.627"	"28.808"	"26.901"	"18.324"	"14.716"
"1912"	"14.812"	"17.8"	"21.9"	"28.588"	"33.661"	"35.869"	"31.776"	"29.485"	"28.1"	"26.5"	"19.505"	"15.001"
"1913"	"14.911"	"16.67"	"20.477"	"29.881"	"31.189"	"32.073"	"30.872"	"30.872"	"31.158"	"27.781"	"20.308"	"15.37"
"1914"	"16.216"	"16.758"	"22.272"	"29.255"	"33.374"	"33.481"	"30.493"	"29.5"	"29.669"	"25.301"	"20.909"	"14.411"
"1915"	"14.116"	"14.996"	"22.303"	"28.3"	"35.373"	"34.485"	"33.189"	"30.704"	"30.973"	"28.192"	"20.535"	"15.812"
"1916"	"15.119"	"16.374"	"25.204"	"30.376"	"32.985"	"32.985"	"30.788"	"28.707"	"29.085"	"25.8"	"18.431"	"14.207"
"1917"	"14.708"	"17.097"	"22.385"	"25.493"	"28.982"	"32.973"	"29.788"	"28.507"	"27.972"	"24.8"	"17.542"	"15.104"
"1918"	"13.516"	"17.016"	"22.196"	"26.389"	"34.973"	"33.885"	"34.162"	"31.765"	"30.65"	"27.188"	"20.404"	"14.501"
"1919"	"14.501"	"15.796"	"23.177"	"28.066"	"32.563"	"36.262"	"30.015"	"28.804"	"29.376"	"26.015"	"19.712"	"14.505"
"1920"	"14.127"	"16.173"	"22.953"	"28.377"	"30.058"	"32.957"	"30.192"	"30.276"	"31.362"	"28.27"	"21.993"	"16.008"
"1921"	"15.489"	"17.885"	"25.596"	"31.873"	"36.065"	"35.278"	"33.462"	"29.195"	"28.797"	"25.697"	"20.308"	"16.997"
"1922"	"14.196"	"18.177"	"24.281"	"29.581"	"33.676"	"33.485"	"31.096"	"28.723"	"28.384"	"25.792"	"19.912"	"14.993"
"1923"	"14.028"	"16.081"	"23.204"	"29.589"	"32.581"	"36.558"	"31.673"	"28.503"	"29.481"	"25.508"	"20.001"	"15.115"
"1924"	"13.312"	"16.293"	"23.796"	"29.292"	"30.562"	"36.076"	"31.111"	"29.199"	"28.46"	"25.411"	"19.804"	"15.311"
"1925"	"12.412"	"14.508"	"22.715"	"30.596"	"32.593"	"30.792"	"28.812"	"29.993"	"30.381"	"26.701"	"19.116"	"14.72"
"1926"	"14.52"	"17.996"	"21.485"	"25.682"	"30.777"	"35.584"	"31.596"	"28.9"	"28.492"	"25.308"	"18.119"	"14.323"
"1927"	"12.531"	"14.97"	"21.296"	"27.6"	"31.874"	"34.184"	"30.4"	"28.5"	"29.077"	"26.208"	"19.712"	"16.296"
"1928"	"13.708"	"17.105"	"22.801"	"28.393"	"34.577"	"34.089"	"31.489"	"31.284"	"30.553"	"27.3"	"21.288"	"14.985"
"1929"	"14.108"	"15.492"	"24.604"	"29.773"	"34.162"	"34.188"	"30.696"	"28.808"	"30.954"	"26.685"	"20.808"	"14.381"
"1930"	"13.689"	"16.577"	"23.774"	"28.468"	"33.07"	"33.373"	"29.199"	"29.211"	"29.477"	"26.592"	"19.896"	"14.911"
"1931"	"15.311"	"15.362"	"21.597"	"29.9"	"33.274"	"35.096"	"31.477"	"29.592"	"28.681"	"25.704"	"19.312"	"15.424"
"1932"	"15.792"	"15.878"	"23.704"	"28.7"	"31.977"	"35.773"	"31.658"	"28.48"	"28.977"	"26.401"	"19.535"	"14.615"
"1933"	"12.039"	"17.289"	"22.785"	"27.192"	"30.062"	"32.588"	"29.292"	"27.585"	"27.787"	"25.216"	"19.415"	"15.524"
"1934"	"12.612"	"17.919"	"21.508"	"28.308"	"32.281"	"32.808"	"30.392"	"27.988"	"29.607"	"25.366"	"19.739"	"15.989"
"1935"	"12.504"	"17.281"	"22.396"	"25.788"	"33.489"	"35.373"	"30.372"	"28.796"	"28.774"	"25.909"	"20.716"	"15.186"
"1936"	"12.923"	"17.277"	"22.185"	"28.481"	"34.969"	"31.474"	"29.8"	"28.597"	"28.681"	"26.104"	"20.193"	"15.19"
"1937"	"13.219"	"17.066"	"20.996"	"26.785"	"32.862"	"34.266"	"30.36"	"30.981"	"29.669"	"25.785"	"19.985"	"14.196"
"1938"	"13.497"	"15.477"	"24.089"	"29.876"	"35.169"	"32.772"	"31.393"	"30.304"	"30.973"	"27.605"	"18.9"	"14.627"
"1939"	"14.896"	"17.265"	"20.277"	"27.5"	"34.881"	"32.37"	"30.896"	"30.992"	"29.707"	"27.304"	"19.635"	"15.347"
"1940"	"14.119"	"16.389"	"21.182"	"27.596"	"34.282"	"35.169"	"31.765"	"28.292"	"29.173"	"26.22"	"20.993"	"15.193"
"1941"	"13.285"	"17.79"	"25.093"	"31.7"	"34.873"	"32.673"	"33.566"	"30.368"	"29.957"	"28.978"	"20.404"	"16.389"
"1942"	"12.812"	"18.169"	"24.396"	"30.58"	"34.358"	"35.474"	"29.485"	"28.081"	"27.769"	"26.007"	"21.1"	"14.281"
"1943"	"14.573"	"16.992"	"23.5"	"27.288"	"32.9"	"33.684"	"30.065"	"28.104"	"29.577"	"26.004"	"21.008"	"16.292"
"1944"	"13.493"	"16.582"	"21.401"	"27.604"	"34.785"	"33.096"	"29.977"	"29.577"	"29.073"	"25.6"	"20.796"	"16.201"
"1945"	"12.189"	"16.068"	"23.577"	"27.78"	"32.772"	"35.188"	"30.868"	"29.784"	"28.365"	"25.7"	"20.304"	"13.889"
"1946"	"14.727"	"18.485"	"22.284"	"30.069"	"33.362"	"33.781"	"30.28"	"29.199"	"29.645"	"26.874"	"19.993"	"14.773"
"1947"	"13.32"	"17.346"	"23.865"	"30.376"	"33.965"	"36.197"	"32.115"	"30"	"28.966"	"25.328"	"21.405"	"15.397"
"1948"	"13.385"	"16.477"	"21.212"	"31.412"	"34.585"	"35.474"	"31.081"	"28.365"	"29.181"	"27.3"	"19.597"	"15.374"
"1949"	"16.02"	"17.37"	"23.093"	"30.092"	"34.274"	"34.978"	"30.38"	"29.4"	"30.189"	"26.397"	"19.016"	"14.601"
"1950"	"15.508"	"14.877"	"21.608"	"27.604"	"33.481"	"34.884"	"30.174"	"29.254"	"28.472"	"25.596"	"19.211"	"13.604"
"1951"	"13.517"	"16.592"	"22.696"	"26.696"	"32.961"	"33.881"	"32.788"	"29.892"	"29.699"	"29.301"	"21.897"	"15.712"
"1952"	"15.416"	"19.358"	"22.773"	"31.393"	"33.862"	"33.155"	"31.212"	"28.492"	"30.573"	"27.2"	"20.889"	"15.996"
"1953"	"13.727"	"19.031"	"26.497"	"29.969"	"34.335"	"35.142"	"30.773"	"28.781"	"29.577"	"26.8"	"20.236"	"17.813"
"1954"	"13.332"	"18.055"	"22.98"	"29.784"	"34.958"	"35.069"	"31.389"	"30.504"	"29.997"	"24.195"	"20.855"	"15.72"
"1955"	"14.119"	"17.503"	"25.292"	"27.377"	"31.757"	"35.273"	"31.696"	"28.589"	"28.954"	"24.985"	"19.619"	"15.777"
"1956"	"14.403"	"17.592"	"23.285"	"29.892"	"34.777"	"34.277"	"29.908"	"28.884"	"30.38"	"25.284"	"19.3"	"15.989"
"1957"	"13.696"	"15.869"	"21.87"	"27.677"	"31.973"	"33.781"	"30.993"	"29.869"	"27.904"	"26.393"	"21.189"	"15.885"
"1958"	"16.084"	"16.527"	"24.27"	"31.084"	"33.258"	"35"	"30.085"	"28.9"	"28.989"	"26.115"	"20.516"	"16.673"
"1959"	"14.184"	"16.551"	"23.973"	"29.169"	"32.578"	"34.869"	"30.692"	"29.496"	"29.668"	"27.489"	"20.781"	"16.378"
"1960"	"14.077"	"19.962"	"22.546"	"27.862"	"33.289"	"35.172"	"30.692"	"28.596"	"29.985"	"25.804"	"19.804"	"16.1"
"1961"	"14.992"	"15.473"	"23.396"	"28.32"	"32.988"	"33.712"	"30.811"	"28.515"	"29.489"	"25.501"	"19.001"	"12.908"
"1962"	"13.2"	"17.973"	"22.804"	"29.992"	"33.293"	"34.688"	"31.511"	"30"	"28.372"	"24.715"	"20.3"	"15.285"
"1963"	"13.309"	"18.896"	"22.981"	"28.496"	"31.893"	"33.708"	"32.504"	"28.808"	"28.104"	"26.924"	"22.085"	"15.481"
"1964"	"12.692"	"16.992"	"24.7"	"29.899"	"31.393"	"34.399"	"29.12"	"29.497"	"27.892"	"25.712"	"19.304"	"15.754"
"1965"	"16.001"	"17.07"	"22.284"	"26.792"	"31.889"	"35.488"	"31.099"	"29.589"	"28.597"	"26.6"	"21.504"	"15.069"
"1966"	"15.104"	"19.577"	"23"	"29.3"	"32.893"	"32.811"	"32.304"	"29.199"	"28.681"	"26.789"	"20.489"	"14.6"
"1967"	"12.923"	"19.192"	"21.889"	"28.082"	"32.689"	"34.899"	"30.712"	"28.327"	"27.927"	"25.716"	"20.201"	"15.693"
"1968"	"13.804"	"15.58"	"22.597"	"28.1"	"32.499"	"34.493"	"30.338"	"29.239"	"30.208"	"25.928"	"20.893"	"15.796"
"1969"	"14.604"	"17.877"	"25.392"	"29.608"	"31.874"	"35.489"	"30.724"	"29.812"	"28.784"	"27.231"	"21.724"	"15.816"
"1970"	"15.093"	"16.392"	"22.396"	"30.077"	"33.593"	"31.924"	"31.897"	"29.505"	"29.489"	"27.011"	"20.308"	"16.096"
"1971"	"13.312"	"17.777"	"23.169"	"29.978"	"31.186"	"32"	"29.615"	"28.108"	"28.484"	"25.909"	"20.408"	"15.996"
"1972"	"14.716"	"15.273"	"23.696"	"28.369"	"34.466"	"35.376"	"31.985"	"29.284"	"28.292"	"25.989"	"21.397"	"16.304"
"1973"	"14.604"	"19.181"	"22.98"	"30.685"	"34.262"	"34.605"	"31.508"	"29.246"	"29.515"	"26.181"	"20.388"	"14.08"
"1974"	"14.108"	"15.973"	"24.581"	"30.973"	"32.957"	"34.061"	"30.208"	"29.992"	"30.392"	"26.611"	"20.392"	"14.88"
"1975"	"13.696"	"16.193"	"22.961"	"30.277"	"34.55"	"32.385"	"30.174"	"28.899"	"27.696"	"26.592"	"19.493"	"16.084"
"1976"	"15.769"	"17.774"	"22.454"	"28.442"	"32.366"	"31.988"	"31.122"	"28.192"	"28.812"	"27.097"	"21.577"	"15.466"
"1977"	"14.192"	"17.562"	"24.585"	"28.469"	"31.131"	"32.546"	"28.884"	"29.384"	"27.884"	"26.858"	"22.641"	"18.019"
"1978"	"14.172"	"15.927"	"21.05"	"28.754"	"35.781"	"33.472"	"29.395"	"28.683"	"28.576"	"26.476"	"21.342"	"15.858"
"1979"	"14.918"	"16.281"	"21.153"	"29.834"	"30.576"	"33.781"	"30.829"	"30.08"	"29.415"	"27.768"	"22.597"	"16.958"
"1980"	"14.596"	"18.557"	"22.284"	"31.537"	"36.625"	"33.161"	"29.269"	"29.445"	"29.169"	"27.381"	"21.08"	"16.361"
"1981"	"14.985"	"18.181"	"22.086"	"29.865"	"33.211"	"34.699"	"29.437"	"29.572"	"30.153"	"26.569"	"20.173"	"15.874"
"1982"	"14.977"	"16.08"	"20.372"	"27.654"	"29.853"	"33.369"	"32.091"	"29.246"	"29.434"	"26.981"	"21.401"	"16.757"
"1983"	"13.877"	"16.269"	"22.089"	"25.866"	"30.912"	"32.704"	"30.342"	"28.8"	"29.304"	"25.92"	"20.165"	"16.154"
"1984"	"13.774"	"15.477"	"24.645"	"29.777"	"35.312"	"34.385"	"29.989"	"28.812"	"27.912"	"25.945"	"20.846"	"16.65"
"1985"	"14.461"	"17.896"	"25.009"	"29.884"	"34.267"	"34.084"	"29.78"	"29.3"	"28.503"	"24.873"	"21.046"	"17.13"
"1986"	"14.419"	"16.496"	"22.993"	"29.162"	"31.182"	"33.408"	"29.939"	"29.892"	"29.373"	"26.104"	"21.944"	"15.111"
"1987"	"15.212"	"18.969"	"23.892"	"29.988"	"30.357"	"35.005"	"34.012"	"30.619"	"31.088"	"27.908"	"21.412"	"16.111"
"1988"	"16.116"	"18.977"	"23.177"	"30.392"	"35.282"	"33.104"	"29.884"	"28.597"	"29.688"	"26.396"	"21.2"	"16.589"
"1989"	"13.704"	"16.685"	"22.589"	"27.788"	"33.585"	"33"	"31.076"	"29.493"	"29.185"	"26.692"	"21.027"	"15.289"
"1990"	"16.519"	"17.466"	"21.385"	"28.676"	"32.481"	"34.2"	"30.092"	"29.489"	"28.685"	"25.788"	"21.3"	"16.485"
"1991"	"13.912"	"18.073"	"22.98"	"28.092"	"33.278"	"33.47"	"32.977"	"29.292"	"29.773"	"25.704"	"20.204"	"15.984"
"1992"	"15.104"	"16.381"	"22.972"	"28.496"	"32.477"	"34.989"	"30.677"	"29.089"	"28.384"	"26.1"	"20.208"	"16.889"
"1993"	"14.708"	"19.176"	"21.204"	"28.608"	"34.073"	"34.157"	"30.654"	"30.208"	"27.787"	"26.008"	"21.5"	"15.9"
"1994"	"15.82"	"17.265"	"24.203"	"27.393"	"33.677"	"34.192"	"29.8"	"29.261"	"28.973"	"25.804"	"20.708"	"16.589"
"1995"	"13.896"	"17.669"	"21.789"	"28.673"	"34.277"	"35.407"	"31.576"	"27.996"	"29.177"	"27.097"	"20.901"	"16.185"
"1996"	"14.5"	"17.593"	"23.997"	"29.297"	"32.869"	"32.177"	"30.689"	"28.293"	"28.774"	"26.008"	"19.9"	"14.997"
"1997"	"13.319"	"16.888"	"22.484"	"27.192"	"31.061"	"31.765"	"31.188"	"28.923"	"29.185"	"24.373"	"19.812"	"13.677"
"1998"	"13.685"	"17.573"	"21.004"	"29.581"	"34.177"	"33.396"	"30.788"	"29.115"	"29.485"	"26.405"	"21.208"	"15.8"
"1999"	"13.716"	"17.808"	"24.016"	"30.823"	"33.593"	"33.192"	"31.5"	"30.304"	"29.199"	"26.507"	"21.616"	"15.908"
"2000"	"14.431"	"15.973"	"22.593"	"30.888"	"34.285"	"32.104"	"29.8"	"29.707"	"29.4"	"26.9"	"22.093"	"16.315"
"2001"	"13.628"	"17.98"	"23.199"	"29.176"	"32.684"	"31.296"	"30.792"	"30.3"	"30.095"	"27.503"	"21.52"	"16.704"
"2002"	"14.524"	"17.3"	"23.993"	"30.697"	"34.096"	"33.515"	"32.869"	"30.111"	"27.796"	"26.905"	"21.22"	"16.7"
