
"Year"	"Jan"	"Feb"	"Mar"	"Apr"	"May"	"Jun"	"Jul"	"Aug"	"Sep"	"Oct"	"Nov"	"Dec"
"1901"	"21.005"	"22.675"	"27.719"	"31.803"	"34.775"	"33.192"	"28.293"	"26.524"	"27.614"	"26.885"	"22.302"	"19.788"
"1902"	"22.308"	"23.897"	"29.766"	"33.041"	"35.994"	"34.27"	"28.665"	"27.974"	"27.247"	"26.478"	"21.934"	"19.582"
"1903"	"21.508"	"22.169"	"27.9"	"32.578"	"33.255"	"33.084"	"28.159"	"27.487"	"27.093"	"24.999"	"20.505"	"18.868"
"1904"	"21.454"	"23.329"	"28.106"	"33.771"	"34.981"	"31.235"	"28.131"	"27.17"	"26.881"	"26.185"	"21.626"	"20.305"
"1905"	"20.733"	"21.102"	"27.675"	"30.414"	"35.288"	"34.423"	"28.029"	"27.559"	"26.498"	"25.825"	"22.551"	"19.446"
"1906"	"20.786"	"23.631"	"27.175"	"33.463"	"36.348"	"31.378"	"27.597"	"27.285"	"26.789"	"25.78"	"22.401"	"20.438"
"1907"	"20.947"	"23.192"	"27.325"	"29.502"	"33.957"	"32.308"	"28.61"	"25.937"	"27.781"	"27.079"	"23.011"	"19.078"
"1908"	"19.586"	"23.697"	"27.534"	"33.547"	"35.854"	"33.349"	"27.381"	"26.377"	"27.382"	"26.005"	"21.534"	"18.284"
"1909"	"22.028"	"23.737"	"29.055"	"29.659"	"34.5"	"30.928"	"27.223"	"27.652"	"26.831"	"25.893"	"22.182"	"20.388"
"1910"	"20.76"	"22.648"	"28.282"	"33.332"	"35.253"	"30.607"	"28.001"	"27.163"	"26.927"	"25.656"	"20.57"	"19.188"
"1911"	"21.663"	"22.431"	"27.409"	"32.589"	"36.326"	"30.781"	"28.804"	"26.72"	"27.126"	"26.43"	"23.008"	"19.445"
"1912"	"21.059"	"24.05"	"28.694"	"32.048"	"35.353"	"35.229"	"28.391"	"27.076"	"27.382"	"26.318"	"21.941"	"18.956"
"1913"	"20.121"	"24.13"	"27.796"	"34.025"	"34.248"	"30.595"	"28.017"	"26.957"	"27.779"	"26.669"	"22.32"	"20.171"
"1914"	"20.796"	"24.443"	"28.003"	"30.492"	"34.51"	"31.167"	"27.93"	"27.331"	"27.187"	"26.311"	"23.027"	"19.983"
"1915"	"20.566"	"23.037"	"26.971"	"31.78"	"35.688"	"34.537"	"28.923"	"27.262"	"27.575"	"27.024"	"24.033"	"19.326"
"1916"	"20.455"	"23.499"	"28.7"	"33.404"	"34.925"	"29.319"	"28.456"	"27.346"	"27.282"	"26.486"	"22.783"	"18.582"
"1917"	"20.42"	"22.111"	"26.526"	"30.47"	"32.585"	"29.941"	"27.636"	"27.458"	"26.631"	"26.087"	"21.572"	"19.918"
"1918"	"19.392"	"23.572"	"27.999"	"31.943"	"33.562"	"29.224"	"28.941"	"26.983"	"27.932"	"25.955"	"23.093"	"20.065"
"1919"	"21.904"	"23"	"27.94"	"31.483"	"33.765"	"30.44"	"27.901"	"26.762"	"27.533"	"25.655"	"23.197"	"19.444"
"1920"	"20.953"	"23.434"	"28.271"	"31.737"	"33.384"	"33.203"	"27.668"	"27.677"	"28.182"	"27.28"	"22.607"	"20.012"
"1921"	"21.616"	"23.43"	"30.007"	"33.709"	"37.652"	"31.562"	"28.517"	"27.357"	"26.826"	"26.082"	"20.856"	"20.217"
"1922"	"20.641"	"23.861"	"29.32"	"33.364"	"35.92"	"31.527"	"27.656"	"27.352"	"26.82"	"25.75"	"22.26"	"18.856"
"1923"	"20.807"	"23.043"	"27.465"	"32.544"	"35.358"	"35.636"	"27.656"	"26.501"	"27.218"	"24.851"	"22.147"	"20.223"
"1924"	"21.516"	"24.799"	"29.537"	"33.643"	"35.449"	"34.542"	"28.251"	"27.564"	"27.113"	"25.486"	"21.301"	"19.775"
"1925"	"19.897"	"22.836"	"28.125"	"33.699"	"33.432"	"30.611"	"26.806"	"27.219"	"27.826"	"26.554"	"22.896"	"19.145"
"1926"	"21.186"	"24.198"	"27.908"	"30.196"	"32.803"	"35.43"	"28.636"	"26.963"	"27.32"	"25.655"	"20.884"	"19.539"
"1927"	"22.573"	"23.907"	"27.629"	"33.357"	"35.391"	"32.28"	"27.331"	"27.232"	"27.693"	"25.993"	"20.852"	"20.216"
"1928"	"21.727"	"23.343"	"28.339"	"32.271"	"36.259"	"32.074"	"27.662"	"28.132"	"27.693"	"26.486"	"22.388"	"20.094"
"1929"	"21.648"	"21.954"	"28.443"	"31.386"	"36.019"	"31.448"	"27.367"	"26.969"	"27.185"	"25.924"	"21.719"	"20.116"
"1930"	"21.066"	"22.144"	"28.595"	"31.482"	"34.891"	"32.287"	"27.77"	"27.16"	"27.492"	"26.792"	"21.519"	"20.443"
"1931"	"21.263"	"25.294"	"28.127"	"33.349"	"36.181"	"33.663"	"27.861"	"26.957"	"27.575"	"25.712"	"21.901"	"19.519"
"1932"	"21.194"	"22.048"	"27.932"	"32.245"	"34.808"	"33.403"	"27.368"	"27.664"	"27.425"	"27.118"	"23.001"	"20.006"
"1933"	"21.604"	"24.935"	"28.332"	"31.257"	"31.622"	"30.047"	"28.113"	"27.163"	"26.881"	"25.819"	"22.141"	"20.04"
"1934"	"19.778"	"23.392"	"28.226"	"32.781"	"35.69"	"32.173"	"27.756"	"26.87"	"26.525"	"25.162"	"21.013"	"19.812"
"1935"	"20.684"	"23.642"	"28.164"	"30.508"	"36.292"	"33.202"	"27.037"	"27.148"	"26.881"	"26.475"	"22.374"	"21.107"
"1936"	"22.7"	"22.973"	"28.594"	"31.976"	"35.481"	"29.424"	"28.169"	"27.088"	"27.163"	"25.688"	"23.421"	"20.331"
"1937"	"19.878"	"23.736"	"27.003"	"31.247"	"34.329"	"32.718"	"27.374"	"27.05"	"27.232"	"25.655"	"22.619"	"19.669"
"1938"	"23.279"	"22.607"	"29.724"	"32.383"	"35.316"	"28.579"	"27.164"	"27.352"	"27.475"	"25.56"	"21.675"	"19.538"
"1939"	"21.771"	"24.467"	"27.158"	"32.363"	"36.347"	"31.949"	"27.361"	"27.171"	"27.119"	"26.704"	"21.763"	"19.698"
"1940"	"20.076"	"23.899"	"27.725"	"32.136"	"35.087"	"31.761"	"26.929"	"27.076"	"27.603"	"26.469"	"22.84"	"20.37"
"1941"	"21.941"	"23.357"	"29.184"	"33.969"	"36.326"	"32.536"	"28.414"	"27.745"	"28.124"	"26.98"	"22.187"	"21.244"
"1942"	"21.154"	"23.183"	"28.763"	"32.737"	"36.582"	"33.836"	"26.767"	"26.966"	"27.133"	"26.091"	"22.181"	"19.914"
"1943"	"22.248"	"21.936"	"28.626"	"32.035"	"34.943"	"30.942"	"27.456"	"26.296"	"26.814"	"25.27"	"21.907"	"18.123"
"1944"	"20.799"	"22.387"	"26.244"	"31.043"	"36.189"	"32.773"	"27.168"	"26.969"	"27.225"	"25.612"	"21.778"	"21.349"
"1945"	"20.354"	"22.999"	"28.626"	"30.874"	"35.652"	"32.835"	"27.324"	"27.439"	"26.893"	"25.555"	"21.087"	"18.712"
"1946"	"20.203"	"23.44"	"28.758"	"31.661"	"35.157"	"29.816"	"27.656"	"26.863"	"26.595"	"27.006"	"23.247"	"21.732"
"1947"	"21.506"	"23.004"	"28.295"	"32.996"	"35.935"	"33.441"	"27.33"	"27.558"	"26.982"	"25.542"	"22.538"	"20.701"
"1948"	"21.454"	"23.76"	"27.738"	"33.237"	"37.176"	"32.806"	"27.984"	"27.163"	"26.813"	"27.212"	"23.834"	"18.705"
"1949"	"21.022"	"22.999"	"28.964"	"32.998"	"35.02"	"30.747"	"27.663"	"27.495"	"27.008"	"26.324"	"21.16"	"19.785"
"1950"	"21.183"	"22.731"	"27.126"	"32.653"	"35.846"	"32.168"	"27.229"	"27.603"	"27.252"	"25.719"	"21.408"	"19.806"
"1951"	"20.098"	"24.03"	"28.516"	"31.608"	"35.026"	"32.647"	"28.718"	"26.945"	"27.925"	"27.786"	"23.008"	"20.064"
"1952"	"21.547"	"24.711"	"27.964"	"33.744"	"36.651"	"33.573"	"28.463"	"27.038"	"27.627"	"26.774"	"21.801"	"21.77"
"1953"	"21.223"	"25.478"	"31.011"	"33.144"	"36.985"	"34.518"	"28.063"	"26.831"	"27.901"	"26.151"	"21.902"	"20.392"
"1954"	"20.353"	"25.179"	"28.9"	"33.581"	"37.026"	"32.975"	"27.663"	"27.657"	"26.419"	"24.907"	"21.375"	"20.733"
"1955"	"21.328"	"24.83"	"29.705"	"31.321"	"34.994"	"32.167"	"27.756"	"27.13"	"27.014"	"25.562"	"20.721"	"19.517"
"1956"	"21.359"	"23.173"	"29.797"	"33.933"	"35.297"	"30.005"	"27.019"	"27.162"	"26.726"	"25.819"	"21.971"	"20.719"
"1957"	"22.121"	"22.768"	"26.277"	"31.294"	"34.371"	"32.954"	"27.536"	"27.312"	"27.721"	"26.651"	"23.413"	"21.91"
"1958"	"21.919"	"24.505"	"28.749"	"33.411"	"35.995"	"34.88"	"27.59"	"27.75"	"27.026"	"26.124"	"23.67"	"20.25"
"1959"	"21.572"	"23.974"	"29.032"	"32.639"	"35.759"	"31.679"	"27.163"	"26.663"	"26.926"	"26.685"	"22.512"	"20.356"
"1960"	"20.497"	"23.977"	"27.169"	"32.069"	"35.359"	"32.042"	"27.769"	"26.706"	"27.919"	"25.732"	"21.839"	"21.6"
"1961"	"22.222"	"22.581"	"29.87"	"33.082"	"35.114"	"31.012"	"27.163"	"27.038"	"26.076"	"25.493"	"21.982"	"19.378"
"1962"	"19.609"	"23.304"	"28.022"	"31.954"	"34.246"	"32.228"	"27.741"	"27.257"	"27.026"	"25.483"	"22.376"	"20.25"
"1963"	"19.747"	"23.766"	"27.708"	"30.655"	"34.446"	"30.968"	"27.863"	"27.17"	"27.52"	"26.611"	"23.576"	"20.357"
"1964"	"21.873"	"24.463"	"29.331"	"34.025"	"35.786"	"32.375"	"27.784"	"26.638"	"27.582"	"26.811"	"21.84"	"20.001"
"1965"	"21.065"	"23.548"	"27.964"	"31.79"	"36.503"	"32.375"	"27.93"	"27.696"	"27.05"	"26.826"	"23.217"	"21.171"
"1966"	"20.909"	"25.008"	"28.976"	"33.442"	"35.279"	"33.037"	"29.792"	"27.571"	"27.682"	"27.092"	"24.774"	"20.145"
"1967"	"21.454"	"24.772"	"27.531"	"32.013"	"35.579"	"32.947"	"28.324"	"26.902"	"27.219"	"26.119"	"23.009"	"22.083"
"1968"	"20.154"	"23.176"	"26.681"	"30.588"	"34.653"	"32.861"	"28.214"	"26.696"	"27.993"	"25.874"	"22.534"	"20.377"
"1969"	"21.347"	"25.604"	"30.74"	"34.072"	"34.864"	"33.248"	"27.736"	"27.038"	"26.92"	"26.292"	"24.176"	"20.3"
"1970"	"21.628"	"25.426"	"28.555"	"33.044"	"36.048"	"29.424"	"27.77"	"26.957"	"27.219"	"26.544"	"21.308"	"19.018"
"1971"	"20.993"	"23.707"	"26.891"	"32.197"	"33.25"	"28.985"	"27.377"	"27.295"	"27.503"	"26.169"	"21.155"	"18.818"
"1972"	"20.449"	"23.011"	"29.638"	"32.565"	"35.763"	"34.36"	"28.439"	"26.736"	"27.337"	"26.133"	"22.532"	"21.698"
"1973"	"22.459"	"25.021"	"29.554"	"35.319"	"37.557"	"33.027"	"27.242"	"26.964"	"27.07"	"25.69"	"21.621"	"20.438"
"1974"	"20.079"	"24.069"	"29.572"	"33.749"	"34.378"	"32.003"	"28.667"	"27.097"	"28.548"	"26.382"	"21.64"	"19.41"
"1975"	"19.466"	"23.555"	"28.164"	"33.418"	"36.738"	"31.95"	"27.488"	"27.445"	"27.413"	"27.174"	"20.592"	"18.707"
"1976"	"19.772"	"24.461"	"28.625"	"31.82"	"34.94"	"31.918"	"27.771"	"27.263"	"27.251"	"27.223"	"26.082"	"22.438"
"1977"	"21.471"	"25.176"	"30.213"	"32.667"	"33.449"	"32.305"	"28.156"	"27.043"	"27.45"	"26.802"	"24.839"	"20.283"
"1978"	"20.258"	"23.006"	"27.215"	"31.988"	"36.888"	"31.269"	"27.124"	"26.198"	"27.824"	"26.82"	"25.15"	"19.834"
"1979"	"22.212"	"22.414"	"27.922"	"32.168"	"33.227"	"33.226"	"28.185"	"27.256"	"27.576"	"27.88"	"25.776"	"21.083"
"1980"	"22.773"	"25.445"	"29.506"	"33.423"	"36.722"	"29.91"	"27.617"	"26.819"	"27.456"	"26.924"	"23.991"	"20.391"
"1981"	"20.005"	"24.942"	"27.278"	"32.225"	"34.111"	"32.602"	"27.282"	"27.048"	"27.554"	"26.723"	"22.059"	"19.86"
"1982"	"22.659"	"24.333"	"27.612"	"32.117"	"33.812"	"32.792"	"29.462"	"26.875"	"28.18"	"26.712"	"23.6"	"21.912"
"1983"	"21.485"	"23.964"	"28.935"	"32.06"	"34.947"	"34.286"	"28.808"	"27.857"	"27.686"	"25.799"	"21.166"	"19.384"
"1984"	"21.431"	"22.7"	"28.504"	"32.422"	"36.986"	"31.713"	"27.936"	"26.829"	"27.384"	"26.912"	"21.869"	"21.417"
"1985"	"22.779"	"24.068"	"30.37"	"33.223"	"36.046"	"31.288"	"27.44"	"27.149"	"27.952"	"25.65"	"22.2"	"21.489"
"1986"	"20.666"	"24.096"	"28.365"	"32.953"	"35.156"	"32.119"	"27.965"	"26.869"	"28.486"	"26.501"	"23.673"	"21.371"
"1987"	"21.024"	"23.65"	"27.862"	"33.115"	"33.972"	"34.087"	"28.465"	"28.219"	"28.947"	"26.826"	"23.661"	"20.123"
"1988"	"22.669"	"25.311"	"29.107"	"32.477"	"37.453"	"32.545"	"27.73"	"27.863"	"28.194"	"26.011"	"22.506"	"20.684"
"1989"	"21.08"	"24.46"	"27.476"	"32.848"	"36.484"	"31.066"	"28.262"	"27.23"	"28.075"	"26.775"	"23.769"	"20.184"
"1990"	"22.977"	"24.397"	"27.693"	"33.074"	"31.34"	"28.901"	"26.94"	"27.717"	"27.645"	"25.829"	"24.026"	"21.183"
"1991"	"20.887"	"25.796"	"29.356"	"32.046"	"36.734"	"31.272"	"28.224"	"26.896"	"28.806"	"26.499"	"22.575"	"20.437"
"1992"	"21.188"	"23.865"	"30.099"	"33.206"	"35.524"	"33.487"	"29.66"	"26.967"	"27.845"	"26.979"	"23.345"	"19.973"
"1993"	"22.127"	"23.79"	"27.518"	"32.768"	"36.709"	"32.644"	"28.506"	"27.503"	"27.646"	"26.736"	"22.546"	"19.305"
"1994"	"22.327"	"23.577"	"29.669"	"31.447"	"36.306"	"30.605"	"26.752"	"26.575"	"27.42"	"26.643"	"22.96"	"20.199"
"1995"	"19.193"	"23.867"	"27.534"	"31.593"	"33.133"	"34.215"	"28.15"	"28.09"	"28.252"	"26.786"	"23.307"	"22.187"
"1996"	"23.227"	"24.958"	"29.638"	"31.776"	"36.37"	"33.962"	"28.5"	"27.258"	"28.225"	"26.156"	"23.239"	"20.071"
"1997"	"19.864"	"23.075"	"28.969"	"30.245"	"34.553"	"32.225"	"28.232"	"27.708"	"27.807"	"26.424"	"24.934"	"20.848"
"1998"	"21.855"	"23.613"	"26.798"	"31.939"	"35.326"	"33.187"	"28.726"	"28.164"	"28.107"	"27.624"	"23.382"	"19.53"
"1999"	"19.571"	"25.036"	"29.065"	"34.108"	"34.708"	"30.974"	"27.799"	"26.99"	"26.92"	"26.831"	"23.161"	"20.055"
"2000"	"21.95"	"23.47"	"27.814"	"33.969"	"34.253"	"29.712"	"27.463"	"27.819"	"27.451"	"27.587"	"24.087"	"20.47"
"2001"	"21.58"	"25.494"	"29.204"	"31.426"	"35.671"	"29.812"	"27.501"	"27.169"	"28.814"	"26.993"	"24.576"	"21.136"
"2002"	"21.193"	"25.003"	"29.27"	"33.469"	"36.545"	"31.486"	"28.961"	"26.663"	"27.812"	"27.207"	"23.586"	"22.706"
