
"Year"	"Jan"	"Feb"	"Mar"	"Apr"	"May"	"Jun"	"Jul"	"Aug"	"Sep"	"Oct"	"Nov"	"Dec"
"1901"	"37.188"	"3.237"	"7.014"	"0.531"	"8.133"	"33.769"	"277.221"	"327.445"	"51.979"	"19.71"	"0.148"	"2.9"
"1902"	"9.973"	"1.468"	"0"	"2.069"	"0.68"	"36.7"	"304.307"	"124.096"	"154.428"	"10.909"	"75.416"	"2.82"
"1903"	"3.35"	"0.48"	"0.756"	"0"	"10.202"	"19.928"	"259.453"	"238.6"	"195.73"	"23.636"	"0.148"	"0"
"1904"	"2.309"	"6.526"	"25.833"	"0"	"22.231"	"69.935"	"338.322"	"198.921"	"66.54"	"6.261"	"9.723"	"7.57"
"1905"	"6.809"	"9.495"	"2.816"	"0"	"4.75"	"15.146"	"238.216"	"96.084"	"164.593"	"0.163"	"0.228"	"1.023"
"1906"	"0.257"	"7.565"	"2.916"	"0"	"1.724"	"131.269"	"326.649"	"140.335"	"266.085"	"1.002"	"0.148"	"5.434"
"1907"	"19.964"	"25.898"	"1.14"	"11"	"5.305"	"49.398"	"171.695"	"376.178"	"8.001"	"0.163"	"5.686"	"0"
"1908"	"12.321"	"0"	"5.292"	"1.56"	"1.881"	"56.563"	"428.586"	"365.304"	"52.377"	"2.111"	"2.507"	"0.596"
"1909"	"11.971"	"4.457"	"0"	"4.748"	"8.306"	"111.597"	"295.692"	"240.239"	"154.512"	"0.163"	"0.148"	"11.499"
"1910"	"3.794"	"0.629"	"0"	"1.425"	"5.526"	"91.82"	"153.38"	"274.452"	"183.652"	"5.063"	"13.121"	"0"
"1911"	"12.664"	"0"	"10.746"	"0"	"0"	"94.899"	"121.893"	"144.129"	"200.099"	"2.7"	"75.806"	"3.447"
"1912"	"8.649"	"4.568"	"0.968"	"1.099"	"0.132"	"28.271"	"288.35"	"229.71"	"108.213"	"0.168"	"63.482"	"1.376"
"1913"	"0.026"	"11.878"	"2.146"	"0"	"18.891"	"100.302"	"196.382"	"97.149"	"90.572"	"0.163"	"0.148"	"7.687"
"1914"	"0.026"	"1.242"	"9.807"	"2.507"	"32.315"	"100.658"	"384.403"	"150.272"	"207.183"	"3.68"	"3.71"	"1.998"
"1915"	"8.055"	"15.16"	"29.335"	"9.058"	"10.143"	"66.463"	"208.415"	"235.281"	"124.465"	"46.442"	"1.531"	"1.74"
"1916"	"0.026"	"8.781"	"0"	"1.211"	"7.287"	"79.299"	"277.144"	"272.931"	"168.829"	"34.942"	"10.663"	"0"
"1917"	"6.752"	"12.64"	"2.837"	"4.009"	"41.016"	"64.861"	"299.886"	"274.757"	"271.551"	"29.701"	"0.148"	"1.152"
"1918"	"6.133"	"0.83"	"1.535"	"0"	"20.517"	"69.227"	"141.371"	"161.11"	"68.626"	"0.216"	"16.351"	"1.544"
"1919"	"34.713"	"0"	"0.207"	"12.002"	"11.2"	"73.169"	"272.98"	"453.493"	"80.933"	"28.724"	"19.933"	"3.776"
"1920"	"7.06"	"4.329"	"1.367"	"0"	"21.882"	"91.753"	"307.464"	"89.672"	"70.337"	"0.163"	"0.148"	"0"
"1921"	"16.255"	"1.28"	"0"	"0.049"	"0"	"123.007"	"170.6"	"208.057"	"245.047"	"0.541"	"0.148"	"0"
"1922"	"18.83"	"3.101"	"0.348"	"0.315"	"1.037"	"95.289"	"308.558"	"143.958"	"225.455"	"2.016"	"23.669"	"16.336"
"1923"	"2.313"	"2.872"	"4.195"	"1.975"	"6.202"	"10.523"	"404.746"	"325.423"	"244.007"	"7.385"	"1.498"	"7.433"
"1924"	"7.799"	"2.715"	"0"	"0"	"10.078"	"34.577"	"212.645"	"236.808"	"217.967"	"23.49"	"1.091"	"12.682"
"1925"	"0.026"	"0"	"0"	"0"	"35.881"	"114.036"	"422.979"	"173.969"	"61.769"	"2.511"	"73.578"	"0.51"
"1926"	"7.508"	"3.466"	"19.371"	"5.966"	"26.789"	"22.521"	"225.552"	"378.038"	"179.97"	"8.234"	"6.201"	"0.644"
"1927"	"0.026"	"8.85"	"8.941"	"4.232"	"1.254"	"47.287"	"357.635"	"173.675"	"114.052"	"26.184"	"98.198"	"11.98"
"1928"	"3.372"	"32.96"	"2.358"	"1.98"	"1.654"	"40.312"	"314.456"	"116.129"	"124.112"	"41.226"	"10.815"	"50.913"
"1929"	"4.989"	"9.429"	"0"	"12.03"	"0"	"81.013"	"293.391"	"204.92"	"51.204"	"5.33"	"0.148"	"14.297"
"1930"	"3.549"	"2.446"	"0"	"2.349"	"9.139"	"109.686"	"406.94"	"163.859"	"83.833"	"8.5"	"3.365"	"0"
"1931"	"0.92"	"4.14"	"0"	"0.049"	"1.878"	"55.109"	"252.779"	"316.554"	"304.068"	"59.983"	"56.347"	"0"
"1932"	"0.026"	"13.036"	"10.416"	"3.814"	"0.31"	"31.384"	"442.057"	"209.445"	"208.29"	"6.711"	"0.148"	"0"
"1933"	"0.026"	"2.254"	"5.183"	"6.636"	"22.912"	"216.67"	"179.71"	"257.793"	"335.917"	"9.959"	"3.635"	"7.527"
"1934"	"13.556"	"0"	"5.689"	"0"	"0"	"150.979"	"301.761"	"442.355"	"320.537"	"0.694"	"50.304"	"21.973"
"1935"	"10.412"	"3.917"	"0.017"	"15.73"	"3.053"	"65.541"	"387.753"	"209.557"	"182.731"	"17.864"	"1.004"	"13.099"
"1936"	"0.091"	"3.823"	"13.66"	"4.041"	"15.736"	"190.236"	"196.535"	"192.164"	"186.605"	"0.163"	"76.734"	"5.185"
"1937"	"0.026"	"21.333"	"0.017"	"6.309"	"3.973"	"111.126"	"249.761"	"135.056"	"162.803"	"15.34"	"11.317"	"9.878"
"1938"	"12.818"	"0"	"2.201"	"0.241"	"30.435"	"161.884"	"364.488"	"160.131"	"102.846"	"46.679"	"0.228"	"0"
"1939"	"11.625"	"2.351"	"4.762"	"0.972"	"0"	"70.425"	"382.038"	"187.272"	"99.246"	"2.277"	"2.796"	"3.589"
"1940"	"7.886"	"7.06"	"11.246"	"3.383"	"26.914"	"83.887"	"314.925"	"264.89"	"84.527"	"9.387"	"9.703"	"6.47"
"1941"	"20.815"	"19.378"	"6.555"	"0.531"	"4.146"	"38.614"	"234.891"	"151.24"	"83.784"	"0.163"	"0.148"	"0"
"1942"	"22.23"	"13.772"	"0.565"	"2.577"	"1.081"	"71.126"	"486.447"	"371.931"	"185.81"	"0.541"	"0.148"	"12.021"
"1943"	"22.77"	"0"	"0.113"	"9.243"	"18.706"	"95.757"	"241.25"	"241.845"	"168.934"	"14.26"	"0.148"	"0"
"1944"	"14.474"	"10.214"	"29.66"	"11.949"	"0.451"	"50.263"	"537.003"	"334.596"	"121.49"	"11.114"	"0.148"	"2.215"
"1945"	"31.105"	"0"	"0"	"8.066"	"7.508"	"98.091"	"312.229"	"305.968"	"246.574"	"1.562"	"0.148"	"0"
"1946"	"0.026"	"5.699"	"0"	"8.608"	"8.226"	"153.765"	"272.423"	"344.598"	"59.097"	"8.458"	"66.804"	"7.107"
"1947"	"18.712"	"7.428"	"3.315"	"2.09"	"0.835"	"48.258"	"400.639"	"376.141"	"321.922"	"16.763"	"0.488"	"6.971"
"1948"	"57.714"	"2.608"	"0"	"3.048"	"8.237"	"76.439"	"412.645"	"233.152"	"151.16"	"9.335"	"53.729"	"0"
"1949"	"0.028"	"3.012"	"0.272"	"0"	"7.066"	"66.18"	"316.395"	"261.971"	"332.814"	"26.802"	"0.148"	"0"
"1950"	"7.387"	"0.83"	"3.828"	"0"	"5.861"	"14.551"	"290.348"	"233.62"	"189.852"	"1.396"	"0.413"	"10.81"
"1951"	"5.129"	"9.242"	"5.207"	"7.214"	"8.999"	"45.638"	"256.161"	"211.969"	"179.389"	"23.971"	"24.906"	"0"
"1952"	"0.026"	"12.163"	"1.671"	"2.298"	"2.226"	"104.688"	"270.32"	"337.529"	"51.204"	"0.558"	"0.148"	"18.215"
"1953"	"17.359"	"0"	"0"	"1.543"	"0.517"	"24.425"	"285.171"	"221.684"	"85.169"	"8.333"	"0.148"	"0"
"1954"	"29.46"	"13.846"	"5.416"	"0"	"0"	"32.041"	"233.853"	"230.988"	"341.785"	"19.151"	"0.151"	"0"
"1955"	"17.694"	"0"	"0.017"	"0.194"	"0.68"	"135.059"	"200.012"	"398.951"	"279.777"	"53.427"	"0.148"	"0.001"
"1956"	"16.238"	"0.306"	"6.066"	"3.924"	"4.461"	"120.634"	"488.363"	"259.852"	"116.383"	"33.125"	"34.523"	"7.667"
"1957"	"17.253"	"0"	"18.198"	"5.004"	"10.192"	"54.784"	"299.232"	"199.256"	"151.986"	"4.977"	"5.101"	"1.968"
"1958"	"1.332"	"1.125"	"1.346"	"0.876"	"9.552"	"47.645"	"415.643"	"321.386"	"218.427"	"57.089"	"11.924"	"1.75"
"1959"	"13.93"	"1.721"	"0"	"4.67"	"27.278"	"62.042"	"288.543"	"349.074"	"276.009"	"26.814"	"21.699"	"0"
"1960"	"27.452"	"0"	"6.895"	"0.972"	"7.791"	"81.401"	"234.602"	"502.949"	"69.209"	"54.865"	"0.148"	"3.446"
"1961"	"29.157"	"6.38"	"0.848"	"1.061"	"11.735"	"77.173"	"284.692"	"367.91"	"171.251"	"78.155"	"20.811"	"4.023"
"1962"	"11.611"	"5.355"	"12.521"	"14.774"	"6.402"	"31.735"	"293.512"	"315.343"	"291.571"	"0.163"	"13.991"	"17.906"
"1963"	"12.673"	"7.174"	"1.851"	"4.232"	"4.114"	"70.255"	"237.622"	"232.147"	"245.587"	"6.817"	"22.093"	"5.266"
"1964"	"0.026"	"0.174"	"10.089"	"0"	"15.683"	"69.096"	"313.654"	"338.147"	"197.714"	"2.634"	"0.148"	"1.75"
"1965"	"13.4"	"2.076"	"2.414"	"7.3"	"1.501"	"27.728"	"262.261"	"200.406"	"119.01"	"11.403"	"0.148"	"8.572"
"1966"	"1.05"	"1.053"	"0.234"	"0"	"21.666"	"62.578"	"255.71"	"211.516"	"82.188"	"0.163"	"73.106"	"2.234"
"1967"	"0.198"	"0"	"28.845"	"0.521"	"0.31"	"67.946"	"267.617"	"363.362"	"131.072"	"1.081"	"0.148"	"54.478"
"1968"	"12.673"	"9.181"	"9.281"	"0.577"	"0"	"39.953"	"334.529"	"304.665"	"57.509"	"23.732"	"0.148"	"0.191"
"1969"	"1.747"	"2.715"	"0.565"	"0"	"10.17"	"39.197"	"396.054"	"310.27"	"179.997"	"0.163"	"82.339"	"0"
"1970"	"32.251"	"12.229"	"14.061"	"7.858"	"16.728"	"141.524"	"111.558"	"371.038"	"175.392"	"0.894"	"0.148"	"0"
"1971"	"9.505"	"2.464"	"0"	"1.143"	"15.101"	"164.988"	"250.581"	"215.573"	"127.427"	"48.602"	"2.133"	"0"
"1972"	"0.905"	"3.917"	"0"	"0"	"2.091"	"45.546"	"110.491"	"338.306"	"150.332"	"21.647"	"22.175"	"4.212"
"1973"	"4.088"	"13.66"	"0"	"0"	"3.386"	"32.209"	"360.068"	"384.21"	"163.124"	"28.431"	"0.148"	"9.009"
"1974"	"0.026"	"6.393"	"0.28"	"11.103"	"22.81"	"52.545"	"224.391"	"338.07"	"64.523"	"41.773"	"0.148"	"0.001"
"1975"	"3.635"	"5.104"	"0.088"	"0"	"3.611"	"99.936"	"295.404"	"300.06"	"181.797"	"21.18"	"0.148"	"0"
"1976"	"4.392"	"0.507"	"1.873"	"4.858"	"5.755"	"101.392"	"268.264"	"265.552"	"118.375"	"0.163"	"49.154"	"2.982"
"1977"	"9.062"	"0.593"	"6.783"	"3.859"	"6.728"	"159.105"	"306.707"	"257.797"	"162.5"	"18.617"	"50.838"	"0.259"
"1978"	"16.316"	"44.18"	"22.079"	"4.197"	"0"	"143.84"	"256.656"	"354.656"	"137.863"	"4.937"	"6.98"	"23.822"
"1979"	"30.778"	"18.353"	"1.58"	"0.049"	"19.273"	"44.679"	"285.593"	"175.682"	"33.676"	"8.571"	"28.709"	"5.475"
"1980"	"1.888"	"1.513"	"4.749"	"0.049"	"0.616"	"132.576"	"211.948"	"298.131"	"46.13"	"3.809"	"2.133"	"28.659"
"1981"	"14.28"	"0.83"	"7.588"	"0"	"12.925"	"115.048"	"226.935"	"267.363"	"84.544"	"4.646"	"11.118"	"6.864"
"1982"	"49.96"	"3.29"	"8.14"	"2.715"	"7.271"	"67.392"	"153.077"	"476.385"	"72.934"	"6.096"	"82.91"	"5.051"
"1983"	"7.803"	"1.163"	"0.168"	"6.679"	"11.455"	"68.769"	"285.912"	"371.317"	"322.377"	"31.326"	"0.148"	"1.449"
"1984"	"24.017"	"13.536"	"5.53"	"6.8"	"3.091"	"71.202"	"154.263"	"238.126"	"59.934"	"8.748"	"0.475"	"0"
"1985"	"8.94"	"0"	"3.811"	"13.389"	"21.611"	"50.348"	"303.49"	"309.587"	"140.32"	"64.713"	"0.148"	"3.738"
"1986"	"6.322"	"18.63"	"8.26"	"0"	"17.012"	"81.049"	"247.505"	"107.681"	"34.526"	"14.164"	"0.148"	"16.072"
"1987"	"20.241"	"18.716"	"0.375"	"0"	"19.611"	"45.802"	"132.309"	"236.861"	"111.987"	"3.962"	"0.283"	"14.719"
"1988"	"7.652"	"1.534"	"2.429"	"10.145"	"0.271"	"114.616"	"178.547"	"182.32"	"103.694"	"0.66"	"0.149"	"1.048"
"1989"	"7.884"	"0"	"9.403"	"0"	"0.954"	"49.172"	"165.441"	"307.112"	"53.465"	"0.472"	"3.221"	"5.186"
"1990"	"0.03"	"22.35"	"1.193"	"0"	"20.152"	"224.031"	"365.185"	"387.2"	"283.628"	"2.931"	"0.176"	"9.45"
"1991"	"0.026"	"4.101"	"6.208"	"7.528"	"12.08"	"70.775"	"143.428"	"315.884"	"55.077"	"0.163"	"1.844"	"9.148"
"1992"	"10.752"	"4.553"	"1.459"	"0.298"	"28.616"	"7.033"	"70.186"	"192.087"	"232.18"	"7.233"	"11.703"	"0"
"1993"	"1.236"	"2.654"	"2.306"	"0.633"	"9.848"	"85.281"	"187.442"	"163.901"	"139.525"	"15.216"	"0.397"	"0.732"
"1994"	"36.552"	"8.57"	"10.293"	"3.454"	"18.367"	"152.654"	"529.203"	"306.309"	"69.521"	"4.942"	"0.148"	"0"
"1995"	"26.903"	"4.113"	"18.403"	"5.766"	"1.288"	"56.849"	"302.165"	"135.571"	"152.413"	"13.384"	"3.413"	"6.144"
"1996"	"19.023"	"2.766"	"7.458"	"19.053"	"12.823"	"110.941"	"199.077"	"410.865"	"91.895"	"12.481"	"0.149"	"0"
"1997"	"6.345"	"0"	"0.339"	"2.028"	"14.5"	"64.159"	"238.817"	"272.793"	"101.705"	"29.56"	"114.213"	"35.567"
"1998"	"0.119"	"9.56"	"13.828"	"4.853"	"0.572"	"105.097"	"114.135"	"250.368"	"205.385"	"20.485"	"53.618"	"0.017"
"1999"	"8.366"	"35.404"	"0"	"0"	"4.902"	"69.4"	"261.743"	"286.067"	"250.268"	"45.435"	"0.148"	"0.028"
"2000"	"1.406"	"3.69"	"0.207"	"0.404"	"19.737"	"49.976"	"503.56"	"94.514"	"37.81"	"2.816"	"1.694"	"0"
"2001"	"6.987"	"1.13"	"3.822"	"3.643"	"32.337"	"217.956"	"267.191"	"156.409"	"16.579"	"19.543"	"2.572"	"0"
"2002"	"1.666"	"20.797"	"1.873"	"1.903"	"14.977"	"62.564"	"45.046"	"233.57"	"98.53"	"4.206"	"12.759"	"3.508"
