
"Year"	"Jan"	"Feb"	"Mar"	"Apr"	"May"	"Jun"	"Jul"	"Aug"	"Sep"	"Oct"	"Nov"	"Dec"
"1901"	"13.655"	"16.754"	"24.131"	"29.448"	"33.871"	"35.971"	"31.336"	"27.535"	"28.431"	"27.736"	"21.27"	"16.785"
"1902"	"16.783"	"19.227"	"26.535"	"30.576"	"34.234"	"34.205"	"29.399"	"29.012"	"27.453"	"26.059"	"20.107"	"15.091"
"1903"	"15.667"	"17.334"	"23.132"	"28.543"	"32.644"	"36.028"	"31.478"	"27.762"	"27.97"	"25.022"	"19.443"	"14.876"
"1904"	"15.324"	"18.047"	"23.329"	"30.545"	"33.156"	"34.022"	"27.663"	"26.676"	"27.171"	"25.936"	"19.935"	"15.976"
"1905"	"13.984"	"13.479"	"21.121"	"27.416"	"34.663"	"36.012"	"30.101"	"28.513"	"29"	"26.671"	"22.144"	"16.171"
"1906"	"14.627"	"16.466"	"22.251"	"29.765"	"35.771"	"33.334"	"29.209"	"28.169"	"26.791"	"25.859"	"21.37"	"16.498"
"1907"	"16.756"	"16.551"	"21.829"	"27.566"	"32.179"	"34.595"	"32.121"	"27.149"	"28.612"	"26.884"	"21.238"	"14.677"
"1908"	"14.606"	"18.189"	"23.309"	"30.771"	"33.641"	"35.229"	"27.975"	"26.897"	"27.624"	"25.568"	"20.213"	"14.912"
"1909"	"15.056"	"17.245"	"24.403"	"27.592"	"32.736"	"32.254"	"27.934"	"27.305"	"27.104"	"25.909"	"21.721"	"15.084"
"1910"	"14.677"	"18.283"	"24.107"	"29.041"	"33.97"	"32.818"	"29.326"	"27.943"	"27.605"	"24.541"	"19.43"	"15.645"
"1911"	"17.142"	"18.355"	"22.064"	"29.549"	"35.178"	"33.647"	"30.83"	"28.313"	"26.788"	"26.351"	"19.111"	"15.57"
"1912"	"16.026"	"19.112"	"23.221"	"29.752"	"34.372"	"35.929"	"30.205"	"27.867"	"26.674"	"25.895"	"19.543"	"15.356"
"1913"	"15.656"	"17.909"	"21.98"	"31.015"	"32.103"	"31.997"	"29.592"	"28.853"	"29.442"	"27.649"	"20.775"	"15.897"
"1914"	"17.37"	"18.283"	"23.439"	"30.231"	"34.05"	"33.32"	"28.984"	"27.745"	"28.227"	"25.705"	"21.604"	"15.254"
"1915"	"15.376"	"16.167"	"23.316"	"29.144"	"35.295"	"35.056"	"31.363"	"28.524"	"29.358"	"27.579"	"20.824"	"16.434"
"1916"	"16.071"	"17.462"	"26.331"	"31.095"	"33.891"	"32.032"	"29.87"	"27.29"	"27.66"	"25.006"	"18.613"	"14.606"
"1917"	"15.857"	"17.842"	"23.231"	"27.018"	"30.185"	"32.564"	"28.298"	"27.109"	"26.824"	"24.54"	"17.917"	"15.762"
"1918"	"14.157"	"18.332"	"23.729"	"27.983"	"35.261"	"33.468"	"32.027"	"29.359"	"28.819"	"26.948"	"21.049"	"14.867"
"1919"	"15.497"	"17.003"	"24.348"	"29.054"	"33.136"	"35.11"	"28.163"	"26.996"	"27.512"	"25.407"	"20.183"	"15.163"
"1920"	"15.362"	"17.688"	"24.374"	"29.494"	"30.856"	"32.823"	"28.212"	"28.12"	"29.486"	"27.84"	"22.134"	"16.783"
"1921"	"16.476"	"18.811"	"26.593"	"32.251"	"35.942"	"34.577"	"31.814"	"27.303"	"26.699"	"25.534"	"20.457"	"17.591"
"1922"	"15.101"	"19.517"	"25.264"	"30.56"	"34.17"	"33.238"	"29.1"	"26.906"	"26.853"	"25.541"	"20.171"	"15.264"
"1923"	"15.198"	"17.496"	"24.481"	"30.368"	"33.177"	"36.637"	"30.128"	"26.827"	"27.711"	"25.07"	"20.384"	"15.863"
"1924"	"14.418"	"17.786"	"25.297"	"30.464"	"31.841"	"35.67"	"29.029"	"27.447"	"27.097"	"24.791"	"19.634"	"15.567"
"1925"	"13.405"	"16.149"	"23.976"	"31.344"	"32.538"	"30.749"	"27.233"	"28.572"	"28.651"	"26.574"	"19.694"	"15.285"
"1926"	"15.605"	"19.396"	"22.64"	"26.485"	"31.741"	"35.813"	"30.025"	"27.577"	"26.824"	"24.41"	"18.116"	"14.256"
"1927"	"13.19"	"16.054"	"22.111"	"28.644"	"32.905"	"34.165"	"28.954"	"27.023"	"27.54"	"25.573"	"19.035"	"16.452"
"1928"	"14.841"	"18.133"	"24.039"	"29.288"	"34.642"	"33.832"	"29.35"	"29.123"	"28.827"	"26.49"	"21.517"	"15.148"
"1929"	"14.898"	"16.334"	"25.454"	"30.149"	"34.443"	"33.93"	"28.893"	"27.072"	"28.869"	"26.063"	"21.279"	"15.036"
"1930"	"15.139"	"17.701"	"25.039"	"29.286"	"33.414"	"33.688"	"27.863"	"27.348"	"28.393"	"26.649"	"20.108"	"15.94"
"1931"	"17.078"	"16.96"	"23.422"	"31.163"	"34.133"	"35.236"	"30.334"	"28.221"	"27.333"	"24.721"	"19.985"	"16.063"
"1932"	"18.013"	"17.177"	"24.045"	"29.121"	"33.12"	"35.301"	"30.295"	"27.585"	"27.83"	"25.924"	"19.507"	"15.687"
"1933"	"13.607"	"18.338"	"24.257"	"28.049"	"30.945"	"32.866"	"28.918"	"27.109"	"26.56"	"24.735"	"19.997"	"15.605"
"1934"	"13.904"	"18.71"	"22.622"	"29.319"	"33.041"	"32.921"	"28.74"	"27.131"	"27.102"	"23.735"	"19.342"	"16.325"
"1935"	"13.56"	"18.147"	"23.726"	"26.828"	"33.839"	"35.115"	"28.941"	"27.235"	"27.396"	"24.913"	"20.94"	"15.667"
"1936"	"13.674"	"17.979"	"23.644"	"29.098"	"35.23"	"31.986"	"28.56"	"27.304"	"27.24"	"25.423"	"20.618"	"15.599"
"1937"	"14.253"	"18.541"	"22.187"	"28.21"	"33.592"	"34.675"	"29.212"	"28.57"	"27.986"	"25.32"	"21.212"	"14.853"
"1938"	"15.018"	"16.526"	"25.58"	"30.697"	"35.413"	"31.362"	"29.335"	"28.158"	"29.055"	"26.41"	"19.485"	"15.585"
"1939"	"16.492"	"18.354"	"21.744"	"28.467"	"34.598"	"32.766"	"28.992"	"29.219"	"27.428"	"26.621"	"20.135"	"15.658"
"1940"	"15.336"	"17.444"	"22.347"	"28.363"	"34.237"	"34.554"	"30.235"	"27.261"	"27.533"	"25.839"	"21.507"	"15.471"
"1941"	"14.704"	"18.576"	"25.939"	"31.726"	"34.906"	"33.612"	"31.138"	"28.806"	"28.814"	"28.503"	"21.372"	"17.57"
"1942"	"13.843"	"18.905"	"25.444"	"31.329"	"34.815"	"35.464"	"28.315"	"27.123"	"26.876"	"25.67"	"21.315"	"15.161"
"1943"	"16.112"	"17.727"	"24.801"	"28.485"	"34.069"	"33.311"	"28.992"	"26.663"	"27.791"	"25.328"	"22.149"	"16.668"
"1944"	"14.756"	"17.554"	"22.468"	"28.656"	"34.702"	"32.844"	"28.827"	"28.058"	"27.905"	"24.846"	"21.093"	"17.208"
"1945"	"13.434"	"17.447"	"24.924"	"28.68"	"33.586"	"34.543"	"29.403"	"28.213"	"27.211"	"24.901"	"20.201"	"14.568"
"1946"	"15.916"	"19.88"	"23.858"	"31.608"	"34.116"	"33.276"	"28.969"	"27.512"	"28.043"	"26.367"	"19.91"	"16.506"
"1947"	"13.762"	"18.811"	"25.203"	"30.732"	"34.677"	"34.897"	"29.559"	"28.269"	"27.182"	"24.277"	"21.414"	"16.455"
"1948"	"15.134"	"17.354"	"23.038"	"31.108"	"35.292"	"35.148"	"29.771"	"27.69"	"27.411"	"26.429"	"19.835"	"16.022"
"1949"	"17.02"	"18.746"	"24.794"	"31.145"	"35.08"	"34.538"	"29.408"	"27.847"	"27.898"	"25.551"	"19.42"	"15.335"
"1950"	"16.421"	"16.874"	"22.809"	"28.772"	"34.315"	"34.836"	"29.311"	"27.484"	"27.346"	"25.322"	"19.657"	"14.785"
"1951"	"14.279"	"17.657"	"23.761"	"27.712"	"33.735"	"34.117"	"31.033"	"27.812"	"27.583"	"28.788"	"22.269"	"16"
"1952"	"16.782"	"20.369"	"23.954"	"31.487"	"35.377"	"32.938"	"29.006"	"26.912"	"28.549"	"26.586"	"20.778"	"16.728"
"1953"	"13.927"	"19.602"	"27.366"	"31.274"	"35.244"	"35.499"	"29.801"	"27.647"	"27.82"	"25.856"	"20.206"	"18.066"
"1954"	"13.957"	"19.677"	"24.288"	"30.842"	"35.651"	"35.009"	"30.005"	"27.977"	"26.961"	"23.87"	"21.115"	"15.877"
"1955"	"15.15"	"18.607"	"26.022"	"28.315"	"33.557"	"34.461"	"29.706"	"27.491"	"27.742"	"24.316"	"19.685"	"16.271"
"1956"	"15.382"	"18.183"	"24.571"	"30.536"	"35.059"	"33.034"	"27.74"	"27.125"	"27.921"	"24.686"	"19.134"	"16.465"
"1957"	"14.782"	"16.822"	"22.359"	"28.814"	"32.744"	"33.334"	"28.98"	"28.299"	"26.598"	"25.843"	"22.082"	"16.991"
"1958"	"17.663"	"19.047"	"25.282"	"31.852"	"34.408"	"35.134"	"28.9"	"27.673"	"27.025"	"25.194"	"20.813"	"17.576"
"1959"	"15.492"	"17.954"	"25.49"	"30.23"	"33.438"	"34.352"	"28.734"	"27.498"	"27.64"	"26.43"	"21.114"	"17.415"
"1960"	"14.898"	"21.039"	"24.058"	"29.635"	"34.427"	"35.178"	"29.443"	"26.97"	"28.034"	"25.122"	"20.041"	"17.071"
"1961"	"15.248"	"16.535"	"24.681"	"29.343"	"33.784"	"33.124"	"28.709"	"27.045"	"27.179"	"24.572"	"19.745"	"14.054"
"1962"	"14.179"	"18.408"	"23.555"	"30.128"	"33.53"	"34.251"	"30.065"	"27.604"	"26.667"	"24.014"	"20.876"	"17.036"
"1963"	"14.633"	"19.979"	"23.713"	"28.415"	"32.574"	"32.918"	"29.668"	"26.812"	"26.569"	"26.41"	"23.022"	"16.472"
"1964"	"14.421"	"18.512"	"26.287"	"31.323"	"32.627"	"33.535"	"28.883"	"28.221"	"27.052"	"26.053"	"19.999"	"16.891"
"1965"	"17.178"	"18.441"	"23.583"	"28.536"	"33.059"	"35.259"	"29.811"	"28.605"	"27.388"	"26.485"	"21.899"	"16.276"
"1966"	"16.333"	"21.02"	"24.097"	"29.882"	"33.525"	"32.325"	"31.214"	"27.304"	"28.373"	"27.435"	"22.082"	"15.89"
"1967"	"14.817"	"20.625"	"22.902"	"29.164"	"34.167"	"33.882"	"29.078"	"26.562"	"26.349"	"26.402"	"21.46"	"16.893"
"1968"	"14.668"	"17.131"	"24.528"	"28.91"	"32.56"	"33.529"	"28.226"	"27.292"	"28.392"	"25.693"	"21.46"	"16.891"
"1969"	"15.741"	"19.289"	"26.473"	"29.776"	"32.702"	"34.534"	"28.826"	"27.095"	"26.853"	"27.803"	"22.419"	"16.768"
"1970"	"16.041"	"17.743"	"24.12"	"31.82"	"34.423"	"32.322"	"30.271"	"27.786"	"27.24"	"26.089"	"20.451"	"16.788"
"1971"	"14.297"	"18.714"	"23.789"	"30.204"	"32.299"	"30.244"	"26.794"	"26.448"	"26.932"	"25.629"	"20.083"	"16.116"
"1972"	"15.224"	"16.387"	"24.832"	"29.509"	"34.872"	"35.193"	"31.351"	"26.718"	"26.476"	"25.49"	"21.356"	"16.634"
"1973"	"15.526"	"19.427"	"23.684"	"32.169"	"35.411"	"34.571"	"28.985"	"27.225"	"27.232"	"25.282"	"20.238"	"15.465"
"1974"	"14.745"	"16.965"	"25.553"	"31.632"	"33.557"	"33.607"	"27.931"	"26.964"	"28.683"	"26.426"	"20.057"	"15.263"
"1975"	"13.988"	"17.475"	"23.469"	"30.868"	"35.154"	"32.416"	"28.35"	"27.131"	"26.545"	"26.126"	"19.358"	"16.561"
"1976"	"16.198"	"19.163"	"24.02"	"29.69"	"34.012"	"31.541"	"29.387"	"27.031"	"27.234"	"26.211"	"22.178"	"16.46"
"1977"	"14.701"	"18.562"	"25.997"	"29.279"	"31.902"	"32.094"	"26.928"	"27.003"	"26.059"	"26.025"	"22.609"	"17.606"
"1978"	"15.198"	"17.63"	"22.399"	"29.25"	"35.707"	"33.161"	"27.782"	"25.886"	"26.403"	"26.464"	"22.379"	"16.462"
"1979"	"16.524"	"16.922"	"22.458"	"29.641"	"30.466"	"32.056"	"27.954"	"27.751"	"28.863"	"27.616"	"23.586"	"17.391"
"1980"	"15.578"	"20.008"	"24.013"	"30.783"	"33.698"	"31.011"	"27.246"	"26.297"	"28.24"	"27.581"	"21.804"	"16.459"
"1981"	"15.828"	"19.328"	"23.739"	"29.649"	"32.92"	"33.856"	"27.442"	"27.232"	"28.767"	"26.639"	"20.569"	"15.851"
"1982"	"16.046"	"17.113"	"21.88"	"28.969"	"31.125"	"33.561"	"30.683"	"26.897"	"27.714"	"27.433"	"21.632"	"17.248"
"1983"	"14.925"	"17.173"	"23.536"	"27.3"	"32.029"	"32.874"	"29.037"	"27.674"	"27.337"	"25.198"	"19.25"	"16.453"
"1984"	"15.088"	"16.158"	"25.691"	"30.449"	"36.638"	"33.978"	"29.296"	"26.811"	"26.606"	"25.533"	"20.374"	"16.965"
"1985"	"15.496"	"19.411"	"26.176"	"31.021"	"34.817"	"34.358"	"29.3"	"27.181"	"26.776"	"23.818"	"21.211"	"17.815"
"1986"	"15.176"	"17.513"	"23.953"	"30.126"	"32.428"	"32.744"	"27.661"	"28.117"	"28.483"	"26.848"	"21.992"	"15.788"
"1987"	"16.025"	"19.766"	"25.022"	"30.884"	"31.796"	"35.069"	"31.781"	"29.717"	"28.956"	"27.112"	"21.334"	"16.327"
"1988"	"15.845"	"20.082"	"24.89"	"31.274"	"36.099"	"32.959"	"28.354"	"27.721"	"28.771"	"25.784"	"20.95"	"17.379"
"1989"	"14.469"	"18.198"	"23.725"	"29.232"	"34.283"	"32.082"	"29.754"	"27.952"	"28.13"	"26.755"	"20.62"	"16.296"
"1990"	"17.452"	"18.546"	"23.136"	"30.542"	"33.36"	"33.01"	"27.947"	"27.55"	"26.832"	"25.993"	"21.467"	"16.805"
"1991"	"15.003"	"19.264"	"24.45"	"28.993"	"34.225"	"34.567"	"31.24"	"27.394"	"27.897"	"25.658"	"20.638"	"16.772"
"1992"	"15.887"	"17.77"	"24.415"	"29.572"	"32.74"	"35.574"	"29.947"	"27.677"	"26.629"	"25.863"	"21.012"	"17.395"
"1993"	"15.778"	"19.278"	"22.503"	"29.271"	"35.227"	"34.151"	"29.955"	"29.007"	"26.594"	"26.412"	"22.092"	"16.501"
"1994"	"17.262"	"18.089"	"25.637"	"28.533"	"34.707"	"33.468"	"28.04"	"27.022"	"26.959"	"25.717"	"21.065"	"16.841"
"1995"	"14.42"	"18.361"	"22.915"	"29.416"	"34.405"	"35.143"	"30.08"	"27.238"	"27.803"	"27.041"	"20.95"	"17.226"
"1996"	"15.547"	"18.327"	"24.872"	"29.383"	"33.518"	"33.18"	"28.951"	"26.551"	"27.606"	"25.714"	"20.546"	"14.861"
"1997"	"14.73"	"18.038"	"24.348"	"28.129"	"31.764"	"32.121"	"29.476"	"27.606"	"27.725"	"24.624"	"20.691"	"14.156"
"1998"	"14.72"	"18.773"	"22.28"	"30.196"	"34.9"	"33.907"	"29.443"	"28.171"	"28.465"	"26.628"	"21.549"	"16.777"
"1999"	"15.273"	"18.838"	"25.047"	"31.699"	"34.05"	"32.847"	"29.825"	"27.93"	"27.233"	"26.148"	"22.224"	"16.498"
"2000"	"16.195"	"17.28"	"23.781"	"31.844"	"33.662"	"32.039"	"28.526"	"28.361"	"27.914"	"27.411"	"22.998"	"17.362"
"2001"	"15.188"	"19.651"	"24.644"	"29.682"	"33.457"	"31.072"	"28.615"	"28.583"	"28.968"	"27.35"	"22.331"	"17.882"
"2002"	"15.731"	"18.688"	"25.279"	"31.573"	"35.029"	"33.636"	"31.633"	"28.049"	"27.076"	"26.991"	"21.84"	"18.227"
