
"Year"	"Jan"	"Feb"	"Mar"	"Apr"	"May"	"Jun"	"Jul"	"Aug"	"Sep"	"Oct"	"Nov"	"Dec"
"1901"	"44.359"	"13.87"	"14.187"	"1.857"	"29.673"	"28.519"	"293.951"	"362.935"	"73.462"	"1.101"	"0"	"7.457"
"1902"	"0.219"	"2.938"	"5.84"	"14.027"	"15.607"	"65.484"	"266.455"	"213.435"	"110.659"	"10.293"	"0.069"	"0"
"1903"	"20.395"	"3.538"	"16.256"	"2.883"	"12.404"	"23.017"	"159.753"	"212.628"	"74.955"	"30.319"	"0"	"2.77"
"1904"	"15.742"	"1.176"	"33.987"	"2.995"	"19.519"	"76.994"	"174.201"	"320.444"	"150.711"	"3.526"	"20.494"	"10.342"
"1905"	"73.998"	"38.423"	"9.771"	"5.564"	"12.265"	"25.055"	"154.523"	"136.562"	"170.28"	"3.12"	"0"	"9.567"
"1906"	"12.364"	"66.164"	"14.089"	"2.959"	"4.938"	"99.54"	"152.522"	"276.886"	"237.043"	"3.02"	"0"	"3.96"
"1907"	"16.217"	"40.027"	"35.074"	"29.809"	"10.708"	"46.363"	"208.996"	"184.662"	"5.346"	"1.413"	"0"	"0"
"1908"	"38.523"	"18.168"	"1.527"	"6.276"	"11.565"	"49.832"	"231.226"	"453.923"	"56.647"	"0.804"	"0.623"	"2.49"
"1909"	"28.577"	"14.225"	"0.425"	"34.44"	"10.554"	"220.432"	"395.208"	"231.004"	"132.946"	"2.348"	"0.03"	"38.864"
"1910"	"21.111"	"12.779"	"1.698"	"6.848"	"18.111"	"143.608"	"281.18"	"249.218"	"132.923"	"8.673"	"1.332"	"2.663"
"1911"	"64.105"	"1.274"	"52.44"	"8.102"	"4.006"	"98.203"	"57.392"	"214.925"	"161.921"	"9.883"	"41.829"	"0.021"
"1912"	"37.106"	"13.386"	"8.898"	"20.996"	"17.52"	"55.841"	"184.474"	"285.882"	"169.527"	"0.836"	"22.475"	"4.532"
"1913"	"3.381"	"35.582"	"21.432"	"4.387"	"45.565"	"172.998"	"171.781"	"197.05"	"18.596"	"2.291"	"6.611"	"17.314"
"1914"	"6.523"	"34.412"	"24.155"	"18.787"	"21.103"	"74.233"	"363.758"	"187.568"	"337.111"	"24.786"	"12.785"	"4.136"
"1915"	"13.071"	"56.518"	"33.28"	"14.822"	"10.492"	"67.51"	"143.603"	"381.245"	"107.585"	"14.092"	"0"	"4.553"
"1916"	"0.259"	"15.629"	"0.809"	"5.739"	"22.751"	"139.22"	"400.591"	"235.32"	"145.856"	"21.408"	"0.103"	"0"
"1917"	"8.386"	"19.525"	"19.529"	"24.47"	"44.95"	"157.39"	"243.842"	"270.107"	"245.433"	"43.016"	"0"	"6.754"
"1918"	"5.165"	"0.621"	"15.977"	"23.232"	"6.252"	"94.119"	"60.217"	"176.09"	"19.378"	"1.666"	"19.17"	"3.446"
"1919"	"72.155"	"11.409"	"10.467"	"18.361"	"19.245"	"50.223"	"257.902"	"225.882"	"92.557"	"8.019"	"2.705"	"7.082"
"1920"	"11.464"	"13.002"	"21.045"	"1.572"	"27.333"	"147.872"	"230.52"	"161.307"	"24.604"	"1.759"	"0"	"0.719"
"1921"	"35.385"	"2.13"	"1.707"	"1.956"	"2.225"	"46.399"	"241.691"	"356.316"	"136.071"	"29.63"	"0"	"3.014"
"1922"	"29.194"	"13.24"	"0.73"	"3.738"	"2.811"	"59.615"	"265.888"	"347.21"	"254.342"	"10.561"	"3.971"	"36.705"
"1923"	"18.496"	"51.893"	"1.752"	"7.313"	"18.058"	"19.121"	"198.107"	"262.859"	"122.557"	"32.667"	"15.777"	"23.99"
"1924"	"30.737"	"30.009"	"5.966"	"2.964"	"22.071"	"24.103"	"235.428"	"232.824"	"291.617"	"41.208"	"2.438"	"27.749"
"1925"	"18.232"	"1.138"	"3.569"	"5.657"	"24.297"	"212.063"	"318.754"	"296.583"	"40.35"	"3.868"	"21.405"	"0"
"1926"	"11.184"	"5.269"	"42.971"	"19.272"	"18.505"	"10.717"	"275.905"	"366.39"	"50.912"	"3.3"	"9.907"	"4.743"
"1927"	"1.379"	"29.532"	"8.881"	"6.708"	"36.325"	"33.632"	"159.856"	"381.162"	"51.734"	"53.544"	"0.353"	"14.543"
"1928"	"33.859"	"50.382"	"10.069"	"17.646"	"5.061"	"57.999"	"218.109"	"136.12"	"63.896"	"2.858"	"17.977"	"20.167"
"1929"	"41.314"	"2.047"	"5.228"	"12.861"	"6.777"	"133.57"	"151.001"	"355.09"	"32.351"	"18.785"	"0"	"43.363"
"1930"	"25.992"	"15.765"	"5.795"	"12.129"	"11.072"	"72.284"	"307.081"	"189.76"	"50.368"	"17.609"	"11.338"	"10.119"
"1931"	"12.681"	"32.977"	"12.86"	"2.946"	"16.314"	"15.772"	"282.115"	"234.445"	"231.744"	"59.176"	"1.332"	"0"
"1932"	"7.782"	"5.013"	"15.056"	"4.579"	"10.678"	"41.692"	"160.695"	"187.622"	"210.099"	"3.564"	"0.623"	"17.58"
"1933"	"14.316"	"26.119"	"7.074"	"13.041"	"32.693"	"132.908"	"262.652"	"351.909"	"180.774"	"53.345"	"2.735"	"0.277"
"1934"	"24.232"	"2.389"	"21.375"	"0.979"	"8.971"	"73.624"	"226.344"	"381.093"	"42.962"	"0.097"	"0"	"16.052"
"1935"	"55.369"	"31.548"	"7.247"	"15.853"	"2.849"	"20.181"	"215.416"	"159.821"	"113.094"	"0.735"	"13.637"	"11.375"
"1936"	"3.093"	"26.978"	"17.669"	"12.836"	"18.111"	"322.539"	"448.1"	"324.45"	"145.204"	"11.682"	"3.649"	"40.405"
"1937"	"1.816"	"70.403"	"1.246"	"24.681"	"15.382"	"68.735"	"304.84"	"124.93"	"135.446"	"9.407"	"0.744"	"15.573"
"1938"	"53.729"	"21.374"	"3.773"	"3.167"	"2.964"	"188.559"	"219.577"	"212.53"	"34.271"	"10.394"	"1.332"	"0.072"
"1939"	"10.56"	"32.035"	"14.001"	"8.657"	"5.888"	"106.366"	"158.262"	"139.093"	"73.459"	"12.749"	"0"	"0"
"1940"	"38.598"	"49.326"	"15.842"	"7.664"	"9.385"	"72.526"	"194.662"	"224.032"	"37.143"	"1.95"	"0.009"	"7.763"
"1941"	"34.067"	"10.289"	"4.263"	"0.454"	"25.275"	"77.865"	"86.717"	"164.074"	"122.716"	"3.296"	"1.356"	"12.389"
"1942"	"35.388"	"28.032"	"6.566"	"18.113"	"16.891"	"82.582"	"390.789"	"218.528"	"108.696"	"1.346"	"0.017"	"24.433"
"1943"	"24.39"	"3.079"	"6.809"	"21.442"	"5.802"	"116.67"	"141.662"	"304.81"	"52.828"	"0.097"	"0"	"0"
"1944"	"30.667"	"31.147"	"24.081"	"24.232"	"0.446"	"109.288"	"220.139"	"125.383"	"99.384"	"10.647"	"0.691"	"3.624"
"1945"	"26.5"	"0.212"	"7.573"	"22.82"	"8.597"	"50.395"	"295.741"	"210.827"	"243.144"	"28.771"	"0"	"0.279"
"1946"	"0.759"	"15.406"	"5.155"	"15.619"	"32.729"	"101.77"	"258.309"	"192.685"	"35.234"	"22.619"	"12.121"	"10.869"
"1947"	"16.758"	"20.022"	"19.481"	"1.093"	"7.047"	"25.547"	"164.064"	"281.774"	"172.423"	"13.13"	"1.332"	"6.122"
"1948"	"13.482"	"31.059"	"33.904"	"4.584"	"8.06"	"37.188"	"237.198"	"422.387"	"101.808"	"13.492"	"2.041"	"7.656"
"1949"	"3.308"	"34.539"	"9.09"	"11.331"	"13.787"	"32.721"	"468.143"	"187.514"	"157.847"	"15.638"	"0.627"	"1.379"
"1950"	"42.196"	"17.033"	"27.209"	"1.208"	"13.617"	"101.243"	"375.271"	"264.757"	"214.633"	"0.285"	"0.627"	"0.988"
"1951"	"23.309"	"12.488"	"24.551"	"15.458"	"16.515"	"46.085"	"142.172"	"192.495"	"103.278"	"8.809"	"26.643"	"0.03"
"1952"	"12.937"	"16.755"	"27.232"	"7.037"	"27.011"	"85.052"	"153.563"	"273.942"	"19.1"	"1.084"	"10.144"	"0.259"
"1953"	"53.466"	"1.884"	"2.049"	"8.111"	"4.912"	"56.47"	"351.044"	"276.391"	"95.2"	"0.495"	"1.116"	"2.493"
"1954"	"33.909"	"58.654"	"7.434"	"0.63"	"3.297"	"39.143"	"319.371"	"171.783"	"182.24"	"28.825"	"0"	"1.001"
"1955"	"30.567"	"2.35"	"14.946"	"16.588"	"11.011"	"65.928"	"229.832"	"245.905"	"224.336"	"63.607"	"0"	"1.873"
"1956"	"20.718"	"5.934"	"17.606"	"1.986"	"33.063"	"102.715"	"267.445"	"215.068"	"45.308"	"62.449"	"0.269"	"5.198"
"1957"	"67.836"	"1.047"	"25.452"	"16.475"	"13.18"	"51.248"	"213.438"	"244.772"	"171.35"	"13.226"	"9.491"	"25.816"
"1958"	"15.863"	"6.412"	"11.319"	"7.108"	"3.589"	"63.698"	"263.604"	"306.862"	"229.435"	"48.593"	"3.179"	"22.092"
"1959"	"31.15"	"12.897"	"10.899"	"6.158"	"26.801"	"24.487"	"318.891"	"259.331"	"90.042"	"26.252"	"22.412"	"0.013"
"1960"	"25.373"	"0.229"	"21.307"	"9.474"	"3.996"	"48.056"	"215.142"	"241.596"	"102.061"	"50.609"	"0"	"3.783"
"1961"	"57.32"	"39.881"	"1.647"	"10.149"	"15.991"	"70.109"	"306.002"	"361.027"	"129.377"	"54.379"	"0.459"	"15.397"
"1962"	"38.638"	"20.897"	"18.51"	"4.224"	"14.826"	"69.046"	"233.933"	"231.056"	"227.316"	"0.561"	"9.563"	"10.65"
"1963"	"7.813"	"9.675"	"26.588"	"11.07"	"27.058"	"79.034"	"157.605"	"262.214"	"198.392"	"6.121"	"12.669"	"13.642"
"1964"	"13.032"	"3.826"	"10.714"	"6.519"	"29.112"	"47.317"	"453.357"	"207.118"	"161.397"	"0.097"	"0.905"	"11.5"
"1965"	"10.574"	"27.279"	"14.238"	"21.218"	"13.422"	"14.625"	"204.018"	"208.987"	"50.933"	"8.74"	"3.829"	"0"
"1966"	"5.489"	"32.59"	"4.819"	"2.79"	"30.394"	"113.601"	"255.42"	"335.557"	"144.541"	"20.066"	"7.711"	"2.657"
"1967"	"0.815"	"8.267"	"46.387"	"3.701"	"2.817"	"42.824"	"221.892"	"492.326"	"77.802"	"7.451"	"5.559"	"35.81"
"1968"	"45.864"	"23.952"	"10.417"	"5.905"	"4.943"	"79.619"	"205.837"	"215.631"	"44.344"	"13.173"	"0"	"4.746"
"1969"	"17.637"	"9.007"	"16.017"	"16.687"	"22.513"	"45.337"	"267.633"	"238.867"	"267.678"	"2.194"	"1.324"	"0"
"1970"	"33.509"	"18.414"	"16.469"	"0.488"	"38.18"	"98.243"	"128.498"	"263.6"	"71.426"	"17.628"	"0"	"0"
"1971"	"15.096"	"16.602"	"9.809"	"14.478"	"44.769"	"117.312"	"293.702"	"379.154"	"150.539"	"46.412"	"11.731"	"0.132"
"1972"	"9.394"	"22.158"	"5.855"	"12.424"	"1.451"	"41.496"	"287.8"	"236.193"	"192.352"	"19.971"	"7.395"	"3.945"
"1973"	"25.013"	"15.335"	"14.236"	"0.391"	"19.408"	"112.152"	"153.629"	"329.45"	"97.25"	"35.625"	"0"	"6.01"
"1974"	"9.71"	"8.466"	"4.231"	"1.384"	"12.515"	"50.058"	"259.196"	"140.18"	"18.046"	"6.52"	"0"	"16.432"
"1975"	"44.517"	"20.281"	"17.564"	"0.776"	"3.614"	"106.353"	"363.958"	"256.435"	"230.076"	"13.026"	"0"	"0"
"1976"	"6.088"	"36.756"	"11.241"	"14.26"	"22.407"	"80.21"	"240.754"	"565.814"	"101.872"	"10.888"	"0"	"0.645"
"1977"	"28.587"	"1.929"	"1.305"	"25.888"	"49.099"	"107.046"	"301.013"	"173.878"	"98.199"	"22.608"	"0.271"	"12.753"
"1978"	"5.24"	"12.949"	"38.811"	"7.876"	"2.426"	"102.599"	"239.342"	"389.801"	"175.958"	"3.527"	"5.413"	"4.699"
"1979"	"19.39"	"35.44"	"25.833"	"7.84"	"31.323"	"60.214"	"168.587"	"145.126"	"45.407"	"5.013"	"17.315"	"5.184"
"1980"	"9.585"	"12.643"	"27.794"	"4.251"	"5.133"	"144.514"	"547.002"	"365.238"	"188.388"	"18.046"	"4.296"	"6.377"
"1981"	"55.36"	"15.06"	"36.869"	"1.068"	"13.531"	"79.102"	"437.938"	"114.053"	"53.201"	"5.264"	"38.239"	"3.518"
"1982"	"27.738"	"8.452"	"66.699"	"26.126"	"43.921"	"37.405"	"164.306"	"375.505"	"33.841"	"9.149"	"10.075"	"14.515"
"1983"	"58.184"	"16.457"	"19.781"	"41.074"	"51.774"	"91.903"	"232.482"	"218.492"	"225.979"	"29.26"	"0"	"6.688"
"1984"	"6.659"	"56.168"	"5.358"	"19.518"	"1.063"	"86.774"	"280.635"	"243.017"	"85.967"	"0.828"	"0"	"9.736"
"1985"	"14.61"	"1.268"	"1.845"	"16.099"	"24.395"	"91.301"	"308.336"	"286.035"	"135.128"	"49.908"	"0.579"	"30.414"
"1986"	"8.5"	"31.991"	"10.811"	"15.633"	"40.015"	"73.432"	"318.261"	"220.047"	"122.874"	"11.142"	"7.809"	"35.732"
"1987"	"21.232"	"24.432"	"10.798"	"6.959"	"41.914"	"23.932"	"55.179"	"171.297"	"40.372"	"5.079"	"0"	"5.504"
"1988"	"5.924"	"22.679"	"25.157"	"13.591"	"10.35"	"72.594"	"366.069"	"350.541"	"135.191"	"6.45"	"0.619"	"15.584"
"1989"	"55.738"	"8.091"	"20.129"	"1.069"	"13.092"	"79.758"	"228.993"	"209.418"	"93.008"	"3.227"	"7.429"	"5.586"
"1990"	"1.196"	"48.294"	"28.192"	"8.192"	"31.438"	"62.215"	"313.822"	"324.433"	"177.359"	"8.385"	"12.97"	"36.989"
"1991"	"1.504"	"27.912"	"14.324"	"22.322"	"33.993"	"71.6"	"77.781"	"326.479"	"67.983"	"0.902"	"11.763"	"10.757"
"1992"	"26.647"	"39.121"	"8.516"	"7.471"	"23.815"	"48.936"	"159.352"	"268.335"	"88.758"	"9.145"	"35.204"	"0.214"
"1993"	"16.492"	"14.38"	"10.63"	"8.089"	"24.109"	"173.864"	"290.909"	"117.833"	"211.772"	"0.097"	"0"	"0"
"1994"	"11.944"	"3.537"	"17.773"	"8.494"	"37.473"	"54.397"	"303.847"	"277.182"	"84.256"	"1.516"	"0"	"2.639"
"1995"	"39.125"	"46.111"	"43.678"	"8.075"	"1.933"	"64.1"	"189.254"	"425.419"	"193.695"	"1.663"	"14.501"	"0.735"
"1996"	"35.367"	"28.66"	"10.82"	"5.879"	"20.166"	"182.756"	"190.682"	"326.681"	"164.351"	"17.899"	"0"	"0.069"
"1997"	"19.388"	"6.49"	"10.836"	"37.491"	"31.638"	"162.984"	"168.082"	"201.829"	"61.892"	"34.495"	"18.5"	"7.909"
"1998"	"6.482"	"26.345"	"33.079"	"19.648"	"11.319"	"31.277"	"267.039"	"309.206"	"95.592"	"37.14"	"8.54"	"0.141"
"1999"	"17.206"	"5.077"	"2.15"	"0.168"	"17.188"	"95.493"	"97.244"	"112.766"	"120.185"	"14.679"	"0.03"	"5.04"
"2000"	"16.958"	"40.476"	"9.527"	"2.459"	"22.4"	"140.211"	"246.859"	"209.35"	"56.355"	"0.097"	"1.748"	"5.301"
"2001"	"8.934"	"9.111"	"6.509"	"19.161"	"46.571"	"85.327"	"228.458"	"84.459"	"40.319"	"1.427"	"0.03"	"1.615"
"2002"	"20.023"	"28.817"	"24.808"	"6.39"	"8.237"	"44.726"	"97.91"	"158.004"	"208.053"	"1.692"	"0.142"	"3.963"
