
"Year"	"Jan"	"Feb"	"Mar"	"Apr"	"May"	"Jun"	"Jul"	"Aug"	"Sep"	"Oct"	"Nov"	"Dec"
"1901"	"23.472"	"24.114"	"25.937"	"28.139"	"27.416"	"25.175"	"24.286"	"24.225"	"25.044"	"24.909"	"24.523"	"22.953"
"1902"	"23.311"	"24.128"	"26.775"	"28.016"	"27.929"	"25.92"	"24.747"	"25.056"	"24.198"	"25.027"	"24.359"	"23.53"
"1903"	"23.342"	"24.11"	"26.021"	"27.797"	"27.203"	"25.421"	"24.255"	"24.212"	"24.228"	"24.434"	"23.135"	"22.289"
"1904"	"22.706"	"23.879"	"25.883"	"27.752"	"26.926"	"24.48"	"23.877"	"24.262"	"24.544"	"25.067"	"23.602"	"22.696"
"1905"	"22.752"	"24.067"	"25.521"	"26.759"	"27.441"	"26.039"	"24.624"	"24.621"	"24.613"	"25.068"	"24.527"	"22.781"
"1906"	"23.463"	"24.322"	"25.61"	"28.304"	"28.331"	"25.317"	"24.163"	"24.255"	"23.838"	"24.796"	"24.565"	"23.327"
"1907"	"23.262"	"24.3"	"26.023"	"26.542"	"27.024"	"25.076"	"24.211"	"23.614"	"24.643"	"25.196"	"24.521"	"23.034"
"1908"	"23.243"	"23.863"	"25.258"	"28.065"	"27.003"	"25.65"	"23.614"	"23.92"	"24.581"	"25.11"	"23.663"	"22.396"
"1909"	"22.732"	"24.07"	"26.456"	"27.248"	"27.16"	"25.284"	"23.671"	"24.355"	"23.813"	"24.776"	"24.337"	"23.41"
"1910"	"23.189"	"24.359"	"26.387"	"27.964"	"27.582"	"25.093"	"24.548"	"23.857"	"23.608"	"24.366"	"22.548"	"22.095"
"1911"	"23.281"	"23.164"	"25.816"	"27.364"	"27.244"	"25.113"	"24.158"	"24.11"	"24.95"	"24.995"	"24.601"	"23.826"
"1912"	"23.133"	"25.087"	"26.517"	"28.265"	"28.174"	"25.544"	"24.247"	"24.193"	"24.736"	"24.768"	"23.828"	"22.589"
"1913"	"22.573"	"24.381"	"25.985"	"27.996"	"27.808"	"25.148"	"23.918"	"24.362"	"24.969"	"24.722"	"23.971"	"23.347"
"1914"	"22.959"	"24.476"	"26.093"	"27.431"	"27.936"	"26.059"	"24.282"	"24.219"	"24.905"	"25.293"	"24.727"	"23.596"
"1915"	"23.578"	"24.384"	"26.102"	"27.934"	"27.802"	"25.861"	"24.855"	"24.9"	"24.743"	"25.076"	"24.593"	"22.589"
"1916"	"22.803"	"23.921"	"26.652"	"28.162"	"27.41"	"24.578"	"24.604"	"24.179"	"24.298"	"24.595"	"24.024"	"22.489"
"1917"	"22.775"	"23.733"	"25.522"	"27.461"	"26.672"	"24.393"	"24.769"	"24.205"	"24.136"	"23.832"	"23.491"	"22.465"
"1918"	"22.668"	"23.288"	"25.501"	"27.103"	"26.127"	"24.889"	"25.147"	"24.656"	"24.698"	"25.643"	"25.241"	"23.132"
"1919"	"23.817"	"24.549"	"25.98"	"28.08"	"27.268"	"25.141"	"24.362"	"24.255"	"24.743"	"25.167"	"24.488"	"23.177"
"1920"	"23.461"	"24.508"	"26.657"	"27.65"	"27.665"	"25.417"	"24.323"	"24.359"	"24.743"	"25.318"	"24.426"	"22.735"
"1921"	"23.708"	"24.1"	"26.652"	"27.53"	"27.947"	"25.42"	"24.289"	"24.2"	"23.913"	"24.921"	"23.597"	"22.825"
"1922"	"23.414"	"24.108"	"26.519"	"28.024"	"27.295"	"25.115"	"23.862"	"24.103"	"24.288"	"24.788"	"24.225"	"22.254"
"1923"	"22.661"	"23.482"	"25.72"	"27.375"	"27.129"	"25.943"	"23.662"	"24.151"	"24.165"	"24.932"	"24.05"	"23.468"
"1924"	"23.116"	"24.476"	"26.642"	"28.512"	"28.002"	"25.508"	"24.293"	"24.594"	"24.396"	"24.628"	"23.505"	"22.69"
"1925"	"22.726"	"23.298"	"26.201"	"28.314"	"27.115"	"24.922"	"24.383"	"24.456"	"24.906"	"25.251"	"24.479"	"23.141"
"1926"	"23.57"	"24.601"	"26.559"	"27.216"	"27.803"	"26.446"	"25.197"	"24.661"	"24.598"	"24.808"	"23.919"	"23.066"
"1927"	"23.3"	"24.438"	"26.543"	"27.97"	"27.481"	"25.214"	"23.929"	"24.456"	"24.702"	"24.767"	"23.141"	"23.223"
"1928"	"23.545"	"23.893"	"25.957"	"28.086"	"28.011"	"25.554"	"24.376"	"24.158"	"24.552"	"24.668"	"24.302"	"22.896"
"1929"	"23.316"	"24.083"	"26.308"	"27.509"	"27.531"	"24.863"	"24.425"	"24.701"	"24.97"	"24.73"	"24.495"	"23.118"
"1930"	"23.158"	"23.842"	"25.958"	"27.683"	"27.053"	"25.352"	"24.197"	"24.237"	"24.643"	"25.087"	"23.963"	"23.523"
"1931"	"23.768"	"24.396"	"26.313"	"28.513"	"28.303"	"26.206"	"24.462"	"24.649"	"24.561"	"24.785"	"24.487"	"23.154"
"1932"	"23.143"	"24.032"	"25.766"	"27.996"	"27.155"	"25.29"	"23.862"	"24.602"	"24.4"	"25.162"	"24.428"	"23.141"
"1933"	"23.259"	"24.158"	"25.909"	"27.793"	"26.663"	"24.445"	"24.12"	"23.95"	"24.01"	"24.332"	"24.521"	"22.851"
"1934"	"22.692"	"23.804"	"25.504"	"27.687"	"27.604"	"25.061"	"24.171"	"23.92"	"24.85"	"25.266"	"23.144"	"22.712"
"1935"	"22.948"	"24.058"	"26.236"	"27.289"	"27.85"	"25.466"	"23.762"	"23.951"	"23.743"	"24.967"	"23.561"	"23.232"
"1936"	"23.283"	"24.402"	"25.808"	"27.691"	"27.574"	"24.088"	"23.93"	"23.947"	"24.578"	"24.867"	"24.376"	"23.331"
"1937"	"22.855"	"24.539"	"26.055"	"27.098"	"27.337"	"25.02"	"23.564"	"24.403"	"24.54"	"24.567"	"24.141"	"22.619"
"1938"	"23.214"	"24.412"	"26.652"	"28.08"	"27.672"	"24.281"	"23.725"	"23.857"	"24.006"	"23.616"	"23.485"	"23.35"
"1939"	"23.096"	"23.845"	"25.512"	"27.287"	"27.399"	"25.276"	"23.436"	"23.957"	"24.107"	"24.801"	"23.957"	"22.908"
"1940"	"22.216"	"24.001"	"25.755"	"27.029"	"27.524"	"25.122"	"23.917"	"23.922"	"24.55"	"25.029"	"24.38"	"23.038"
"1941"	"23.129"	"24.803"	"27.003"	"28.689"	"28.445"	"25.473"	"24.705"	"25.009"	"24.99"	"25.772"	"25.438"	"24.462"
"1942"	"23.476"	"24.742"	"27.105"	"27.194"	"28.257"	"25.221"	"23.574"	"23.501"	"23.67"	"25.381"	"24.089"	"23.789"
"1943"	"23.827"	"23.918"	"25.875"	"27.234"	"26.371"	"24.136"	"23.564"	"24.057"	"23.407"	"24.027"	"24.389"	"22.473"
"1944"	"23.29"	"23.498"	"24.878"	"26.896"	"27.999"	"25.406"	"23.958"	"24.355"	"24.55"	"24.763"	"24.392"	"23.348"
"1945"	"22.69"	"24.357"	"26.408"	"26.944"	"27.45"	"25.23"	"24.071"	"24.408"	"23.955"	"24.677"	"23.806"	"22.704"
"1946"	"22.467"	"23.817"	"26.162"	"26.977"	"26.757"	"24.54"	"23.863"	"23.95"	"24.144"	"25.259"	"24.229"	"23.772"
"1947"	"23.406"	"23.641"	"25.99"	"26.568"	"27.598"	"25.505"	"24.015"	"24.707"	"23.907"	"24.027"	"23.625"	"23.285"
"1948"	"23.838"	"24.099"	"26.027"	"27.244"	"27.247"	"25.42"	"24.1"	"24.208"	"23.691"	"24.867"	"25.155"	"22.21"
"1949"	"22.91"	"23.602"	"26.162"	"27.152"	"26.75"	"24.976"	"24.214"	"24.408"	"23.75"	"24.715"	"23.345"	"22.84"
"1950"	"23.1"	"23.662"	"25.717"	"27.542"	"27.446"	"25.179"	"23.747"	"24.392"	"23.644"	"23.975"	"23.585"	"23.037"
"1951"	"23.311"	"24.115"	"25.966"	"26.875"	"27.509"	"24.464"	"24.115"	"24.303"	"25.395"	"25.358"	"25.38"	"22.437"
"1952"	"23.691"	"24.742"	"25.602"	"28.119"	"28.102"	"25.256"	"24.604"	"24.105"	"24.343"	"24.557"	"22.786"	"24.041"
"1953"	"23.086"	"24.34"	"27.598"	"26.726"	"28.181"	"25.965"	"23.956"	"23.96"	"24.149"	"24.874"	"23.735"	"22.687"
"1954"	"23.154"	"24.803"	"25.957"	"27.717"	"27.477"	"25.41"	"23.463"	"23.86"	"23.365"	"24.083"	"23.243"	"23.527"
"1955"	"23.606"	"25.1"	"26.057"	"27.176"	"26.413"	"24.468"	"23.963"	"23.262"	"24.9"	"24.772"	"23.048"	"22.295"
"1956"	"22.834"	"23.654"	"26.658"	"28.143"	"25.801"	"23.984"	"22.927"	"23.367"	"23.388"	"24.167"	"24.229"	"22.794"
"1957"	"23.297"	"24.305"	"25.16"	"27.601"	"27.699"	"25.41"	"24.267"	"23.88"	"24.4"	"25.561"	"24.566"	"24.4"
"1958"	"23.538"	"24.441"	"26.309"	"28.186"	"27.759"	"26.446"	"24.125"	"24.355"	"23.75"	"24.662"	"25.114"	"23.601"
"1959"	"23.945"	"25.139"	"26.651"	"27.782"	"28.19"	"25.02"	"23.463"	"24.205"	"24.504"	"24.81"	"24.528"	"24.041"
"1960"	"23.946"	"24.795"	"26.255"	"27.738"	"27.197"	"25.317"	"24.399"	"24.703"	"24.241"	"24.857"	"24.476"	"23.76"
"1961"	"23.803"	"24.203"	"27.44"	"28.428"	"26.459"	"24.57"	"23.256"	"24.005"	"23.782"	"24.567"	"24.302"	"23.789"
"1962"	"22.596"	"24.854"	"26.213"	"27.347"	"27.261"	"25.833"	"24.074"	"24.057"	"24.311"	"25.216"	"23.958"	"23.112"
"1963"	"23.126"	"23.981"	"26.404"	"26.992"	"27.505"	"24.831"	"24.566"	"23.861"	"24.453"	"24.621"	"24.84"	"24.233"
"1964"	"23.274"	"25"	"26.851"	"28.344"	"27.808"	"25.619"	"24.566"	"23.572"	"23.65"	"24.805"	"23.528"	"22.699"
"1965"	"23.002"	"23.955"	"25.962"	"27.203"	"27.612"	"25.156"	"23.668"	"24.44"	"24.794"	"26.218"	"25.421"	"24.33"
"1966"	"24.08"	"25.494"	"26.944"	"28.38"	"27.051"	"25.864"	"24.654"	"25.155"	"24.803"	"25.027"	"24.566"	"23.479"
"1967"	"23.338"	"24.499"	"25.91"	"28.227"	"28.546"	"26.173"	"23.923"	"23.865"	"24.11"	"24.523"	"24.539"	"24.67"
"1968"	"23.302"	"25.087"	"26.123"	"27.773"	"28.348"	"25.767"	"24.157"	"24.362"	"24.858"	"24.588"	"24.523"	"23.878"
"1969"	"23.251"	"25.53"	"27.548"	"28.613"	"28.452"	"25.965"	"23.998"	"24.656"	"24.007"	"25.123"	"25.211"	"23.847"
"1970"	"24.024"	"24.831"	"26.634"	"28.467"	"27.589"	"24.928"	"24.255"	"23.851"	"24.038"	"24.855"	"24.374"	"22.298"
"1971"	"22.651"	"24.794"	"25.995"	"28.129"	"27.537"	"24.454"	"23.908"	"23.902"	"24.981"	"23.968"	"23.689"	"23.043"
"1972"	"22.977"	"23.92"	"27.016"	"28.129"	"27.336"	"26.414"	"24.814"	"24.829"	"25.276"	"25.992"	"25.213"	"24.464"
"1973"	"24.642"	"25.344"	"27.184"	"28.843"	"28.351"	"25.268"	"24.355"	"24.156"	"24.626"	"24.245"	"23.406"	"22.721"
"1974"	"23.587"	"24.507"	"26.269"	"28.42"	"27.652"	"24.882"	"23.808"	"24.103"	"24.529"	"24.28"	"23.943"	"22.761"
"1975"	"22.646"	"25.088"	"26.713"	"28.774"	"26.653"	"25.052"	"24.085"	"23.747"	"24.176"	"24.205"	"23.118"	"22.487"
"1976"	"22.294"	"23.541"	"26.545"	"27.192"	"27.161"	"25.316"	"24.435"	"24.633"	"24.686"	"26.224"	"25.995"	"24.766"
"1977"	"23.581"	"25.098"	"26.733"	"27.527"	"27.128"	"25.514"	"23.767"	"24.694"	"24.624"	"25.178"	"25.411"	"22.858"
"1978"	"23.871"	"24.16"	"26.152"	"27.809"	"27.267"	"24.373"	"23.877"	"24.001"	"24.139"	"25.164"	"25.169"	"23.91"
"1979"	"24.363"	"24.132"	"26.257"	"27.973"	"27.793"	"25.695"	"24.404"	"23.784"	"24.592"	"25.524"	"24.637"	"24.49"
"1980"	"23.525"	"25.141"	"26.555"	"27.699"	"28.241"	"24.984"	"23.805"	"24.173"	"24.561"	"25.64"	"24.816"	"23.446"
"1981"	"23.122"	"24.637"	"26.434"	"27.727"	"27.548"	"25.036"	"24.255"	"23.647"	"24.556"	"25.029"	"24.321"	"23.711"
"1982"	"23.429"	"25.293"	"27.153"	"27.814"	"27.773"	"25.688"	"24.6"	"24.445"	"24.528"	"26.189"	"24.879"	"24.208"
"1983"	"23.537"	"24.607"	"26.813"	"28.125"	"28.366"	"26.594"	"25.026"	"24.398"	"24.34"	"24.748"	"23.754"	"24.032"
"1984"	"24.034"	"25.059"	"26.798"	"27.59"	"28.82"	"25.006"	"24.015"	"24.005"	"24.361"	"24.854"	"24.221"	"24.399"
"1985"	"24.733"	"25.243"	"27.41"	"28.278"	"27.553"	"24.431"	"24.045"	"24.1"	"24.927"	"24.586"	"24.432"	"24.875"
"1986"	"23.288"	"24.454"	"27.572"	"28.897"	"28.116"	"25.568"	"24.606"	"23.957"	"25.143"	"25.785"	"24.978"	"24.478"
"1987"	"23.234"	"24.574"	"26.187"	"28.329"	"28.052"	"25.805"	"25.057"	"25.163"	"25.706"	"25.197"	"25.219"	"24.041"
"1988"	"23.731"	"25.604"	"27.247"	"28.365"	"28.608"	"25.901"	"24.498"	"24.416"	"24.595"	"25.126"	"24.8"	"23.358"
"1989"	"23.794"	"24.96"	"25.973"	"28.139"	"27.813"	"24.909"	"24.311"	"23.931"	"24.497"	"24.84"	"24.582"	"24.027"
"1990"	"24.017"	"24.62"	"26.097"	"28.041"	"27.437"	"24.989"	"24.127"	"23.843"	"24.83"	"25.271"	"24.438"	"24.085"
"1991"	"23.822"	"25.249"	"27.444"	"27.619"	"28.084"	"25.836"	"23.961"	"23.877"	"25.217"	"25.029"	"24.719"	"22.821"
"1992"	"23.131"	"24.349"	"27.492"	"28.231"	"27.851"	"25.952"	"24.913"	"24.276"	"24.871"	"24.879"	"25.028"	"22.799"
"1993"	"23.759"	"24.078"	"25.84"	"28.299"	"28.434"	"25.999"	"24.199"	"24.331"	"24.186"	"25.252"	"24.958"	"23.143"
"1994"	"23.68"	"24.453"	"27.476"	"27.475"	"28.167"	"25.036"	"23.927"	"24.26"	"24.661"	"24.907"	"24.004"	"22.865"
"1995"	"23.026"	"25.093"	"26.832"	"28.45"	"27.311"	"26.822"	"24.726"	"25.078"	"24.791"	"25.31"	"25.458"	"24.065"
"1996"	"24.483"	"25.335"	"27.661"	"28.059"	"28.707"	"25.96"	"24.629"	"24.285"	"24.666"	"24.349"	"24.847"	"23.346"
"1997"	"23.095"	"23.955"	"26.909"	"27.093"	"28.348"	"26.462"	"24.729"	"24.388"	"25.191"	"25.973"	"25.864"	"25.145"
"1998"	"24.319"	"24.86"	"27.475"	"29.11"	"28.71"	"26.885"	"24.724"	"25.015"	"24.822"	"25.009"	"24.91"	"23.373"
"1999"	"22.881"	"25.683"	"27.356"	"28.208"	"27.295"	"24.91"	"24.255"	"24.558"	"24.795"	"25.281"	"24.882"	"23.456"
"2000"	"24.337"	"24.362"	"26.438"	"28.318"	"27.518"	"25.222"	"23.983"	"24.347"	"25.125"	"25.205"	"25.088"	"23.341"
"2001"	"24.044"	"25.775"	"26.355"	"28.323"	"28.168"	"25.778"	"24.517"	"24.261"	"25.185"	"24.874"	"25.566"	"23.845"
"2002"	"23.697"	"25.482"	"27.905"	"28.63"	"28.398"	"25.86"	"24.714"	"24.467"	"25.262"	"25.857"	"25.232"	"24.311"
