
"Year"	"Jan"	"Feb"	"Mar"	"Apr"	"May"	"Jun"	"Jul"	"Aug"	"Sep"	"Oct"	"Nov"	"Dec"
"1901"	"47.754"	"3.046"	"35.85"	"3.447"	"7.06"	"87.621"	"430.743"	"433.397"	"96.796"	"13.273"	"0.208"	"0.076"
"1902"	"4.074"	"1.828"	"0.035"	"3.239"	"0.729"	"34.4"	"368.306"	"181.835"	"208.966"	"28.475"	"106.663"	"9.939"
"1903"	"3.143"	"0.05"	"0.035"	"0"	"17.987"	"72.822"	"341.761"	"286.155"	"385.251"	"61.687"	"0.208"	"0.076"
"1904"	"0.016"	"5.604"	"38.259"	"0"	"8.271"	"80.186"	"344.864"	"170.151"	"138.829"	"13.984"	"0.208"	"19.053"
"1905"	"1.39"	"4.344"	"2.465"	"0.546"	"3.614"	"42.658"	"298.519"	"224.91"	"381.407"	"0.325"	"0.208"	"0.903"
"1906"	"0"	"6.037"	"12.595"	"0"	"2.538"	"201.04"	"466.189"	"265.242"	"321.79"	"1.848"	"0.208"	"7.931"
"1907"	"6.643"	"37.984"	"1.068"	"10.672"	"4.632"	"80.646"	"203.781"	"422.738"	"10.547"	"0.325"	"25.873"	"0.467"
"1908"	"4.962"	"0.549"	"22.056"	"9.987"	"0"	"116.993"	"408.006"	"377.306"	"92.654"	"5.12"	"3.898"	"1.962"
"1909"	"3.41"	"5.872"	"1.486"	"12.703"	"20.04"	"168.192"	"209.715"	"270.6"	"146.968"	"0.325"	"0.208"	"45.341"
"1910"	"0.563"	"0"	"0.035"	"1.001"	"1.276"	"161.027"	"192.176"	"387.404"	"306.25"	"30.648"	"108.901"	"0.076"
"1911"	"6.841"	"0.058"	"14.393"	"0"	"0"	"161.743"	"146.067"	"213.383"	"300.526"	"13.898"	"87.061"	"0.076"
"1912"	"1.43"	"15.557"	"0.035"	"2.437"	"0.356"	"39.891"	"344.139"	"308.313"	"169.053"	"0.576"	"97.965"	"1.746"
"1913"	"0"	"5.823"	"9.934"	"0.117"	"19.217"	"149.635"	"317.121"	"261.766"	"118.255"	"1.205"	"0.208"	"17.934"
"1914"	"0"	"5.048"	"29.547"	"10.622"	"14.459"	"130"	"382.731"	"185.836"	"189.76"	"1.571"	"5.983"	"5.413"
"1915"	"2.89"	"18.255"	"61.566"	"8.392"	"7.366"	"120.456"	"287.246"	"326.714"	"185.087"	"75.436"	"4.52"	"3.539"
"1916"	"0"	"8.856"	"0.035"	"1.061"	"9.915"	"208.851"	"275.649"	"374.038"	"312.984"	"87.603"	"33.306"	"0.076"
"1917"	"5.042"	"20.793"	"18.499"	"1.148"	"42.326"	"129.32"	"354.809"	"357.581"	"333.835"	"54.086"	"0.208"	"0.076"
"1918"	"0"	"3.587"	"2.933"	"0.15"	"16.32"	"178.309"	"170.433"	"186.983"	"78.409"	"1.694"	"19.72"	"9.578"
"1919"	"36.636"	"4.208"	"2.11"	"12.062"	"16.231"	"165.799"	"306.403"	"561.43"	"137.644"	"48.658"	"36.938"	"3.224"
"1920"	"23.43"	"0"	"3.042"	"0.801"	"20.355"	"109.048"	"336.574"	"158.685"	"109.867"	"0.325"	"0.208"	"0.076"
"1921"	"6.564"	"1.529"	"0.035"	"0.044"	"0"	"233.919"	"250.217"	"292.742"	"277.587"	"1.092"	"0.208"	"0.076"
"1922"	"24.524"	"5.358"	"0.581"	"0.044"	"1.336"	"196.723"	"386.395"	"152.052"	"371.183"	"1.097"	"50.438"	"4.139"
"1923"	"2.759"	"0.859"	"22.821"	"3.991"	"9.595"	"18.607"	"614.92"	"433.837"	"291.082"	"15.58"	"2.223"	"8.162"
"1924"	"18.54"	"1.245"	"3.04"	"0.413"	"3.267"	"55.525"	"323.565"	"329.322"	"222.493"	"46.873"	"1.683"	"15.253"
"1925"	"0"	"0"	"0.035"	"0"	"30.193"	"107.317"	"415.397"	"307.231"	"92.931"	"5.328"	"69.69"	"0.252"
"1926"	"10.407"	"1.983"	"24.615"	"10.011"	"37.341"	"27.783"	"292.423"	"548.334"	"276.654"	"35.421"	"0.659"	"1.464"
"1927"	"0.737"	"5.019"	"29.475"	"4.055"	"0"	"121.062"	"408.292"	"159.149"	"92.775"	"62.981"	"143.073"	"10.679"
"1928"	"2.159"	"36.244"	"9.698"	"1.965"	"1.466"	"110.861"	"523.764"	"168.531"	"136.984"	"45.945"	"0.431"	"98.763"
"1929"	"3.893"	"9.542"	"0.035"	"6.996"	"0.251"	"127.91"	"461.878"	"324.142"	"190.355"	"2.268"	"0.208"	"18.774"
"1930"	"0.156"	"0.973"	"0.035"	"5.341"	"2.653"	"125.423"	"539.308"	"212.021"	"160.8"	"14.62"	"21.44"	"0.552"
"1931"	"3.278"	"4.629"	"2.793"	"0.642"	"3.592"	"57.616"	"456.739"	"411.93"	"427.171"	"130.89"	"93.935"	"3.351"
"1932"	"0"	"10.226"	"41.272"	"3.361"	"0.625"	"92.846"	"753.174"	"166.467"	"247.685"	"43.935"	"2.118"	"0.076"
"1933"	"0.841"	"12.77"	"14.438"	"11.984"	"21.097"	"167.5"	"315.48"	"360.4"	"399.776"	"30.999"	"19.222"	"6.712"
"1934"	"5.174"	"0"	"4.868"	"0.142"	"0"	"217.849"	"348.353"	"595.059"	"563.506"	"10.585"	"61.898"	"17.628"
"1935"	"3.871"	"5.435"	"0.035"	"19.556"	"2.641"	"147.102"	"547.359"	"313.918"	"292.602"	"25.093"	"1.798"	"22.075"
"1936"	"0.63"	"8.992"	"22.159"	"5.27"	"11.201"	"225.373"	"248.618"	"188.188"	"271.492"	"7.586"	"83.043"	"0.231"
"1937"	"0"	"19.468"	"29.069"	"13.296"	"2.13"	"260.638"	"523.786"	"186.648"	"224.959"	"83.709"	"10.245"	"0.157"
"1938"	"13.18"	"0.475"	"5.501"	"1.52"	"23.802"	"339.187"	"369.75"	"288.929"	"97.849"	"135.976"	"0.208"	"0.076"
"1939"	"6.818"	"2.086"	"32.459"	"1.744"	"0"	"83.286"	"464.211"	"395.795"	"135.287"	"18.122"	"14.194"	"0.977"
"1940"	"2.35"	"7.041"	"4.682"	"3.898"	"17.757"	"122.85"	"684.909"	"420.709"	"98.195"	"26.761"	"23.106"	"15.231"
"1941"	"19.137"	"14.973"	"23.114"	"3.821"	"1.25"	"70.544"	"303.679"	"288.885"	"135.821"	"0.325"	"0.208"	"0.076"
"1942"	"11.747"	"29.231"	"1.45"	"3.895"	"2.771"	"140.905"	"675.189"	"345.534"	"214.944"	"3.308"	"0.208"	"19.993"
"1943"	"32.355"	"0"	"0.035"	"4.899"	"18.398"	"107.904"	"345.111"	"222.362"	"229.884"	"75.026"	"0.827"	"0.076"
"1944"	"8.346"	"24.814"	"68.376"	"8.321"	"0.919"	"115.606"	"690.052"	"627.453"	"190.039"	"80.732"	"0.771"	"4.511"
"1945"	"36.332"	"0"	"0.035"	"9.741"	"3.852"	"200.677"	"503.965"	"245.32"	"249.623"	"7.648"	"0.208"	"0.076"
"1946"	"0"	"7.008"	"0.035"	"9.254"	"3.024"	"207.261"	"313.318"	"412.714"	"68.522"	"16.647"	"92.974"	"6.71"
"1947"	"33.685"	"11.903"	"15.009"	"4.71"	"1.297"	"85.604"	"586.245"	"515.071"	"331.464"	"11.515"	"0.728"	"3.131"
"1948"	"39.01"	"0.972"	"6.005"	"2.115"	"1.237"	"237.852"	"418.318"	"362.483"	"211.739"	"17.904"	"135.116"	"0.076"
"1949"	"0"	"1.05"	"0.035"	"0.397"	"13"	"130.617"	"367.022"	"233.219"	"551.776"	"89.203"	"0.208"	"0.076"
"1950"	"6.92"	"5.322"	"10.457"	"0.319"	"1.469"	"68.109"	"381.385"	"218.233"	"176.777"	"1.658"	"0.276"	"34.195"
"1951"	"5.242"	"11.243"	"9.649"	"1.425"	"9.025"	"110.326"	"346.17"	"289.07"	"210.39"	"62.412"	"0.208"	"0.076"
"1952"	"0"	"9.462"	"3.724"	"4.293"	"1.519"	"158.611"	"362.672"	"263.194"	"51.88"	"3.487"	"0.208"	"10.198"
"1953"	"3.796"	"0"	"0.035"	"2.484"	"1.103"	"37.984"	"338.279"	"362.668"	"222.167"	"18.102"	"0.208"	"0.076"
"1954"	"14.095"	"7.634"	"9.294"	"0.037"	"0.209"	"96.536"	"348.264"	"252.23"	"515.209"	"14.129"	"0.208"	"0.076"
"1955"	"13.124"	"0"	"0.73"	"1.428"	"0.727"	"152.207"	"230.109"	"447.068"	"447.954"	"95.244"	"0.208"	"0.076"
"1956"	"3.551"	"0"	"0.259"	"0.527"	"13.799"	"194.657"	"608.396"	"277.297"	"199.488"	"43.15"	"109.703"	"7.137"
"1957"	"8.185"	"0"	"38.271"	"15.966"	"9.171"	"84.381"	"230.462"	"322.819"	"146.219"	"5.707"	"1.014"	"1.288"
"1958"	"3.007"	"0.941"	"3.666"	"2.014"	"6.267"	"98.995"	"429.122"	"284.144"	"201.727"	"98.074"	"32.61"	"0.076"
"1959"	"9.569"	"3.039"	"0.035"	"7.079"	"26.114"	"119.777"	"402.426"	"482.296"	"448.844"	"50.274"	"10.683"	"0.076"
"1960"	"28.604"	"0"	"13.449"	"8.12"	"3.265"	"94.217"	"332.944"	"550.338"	"51.678"	"89.332"	"0.208"	"1.002"
"1961"	"14.46"	"0.98"	"2.711"	"1.027"	"10.825"	"77.837"	"414.709"	"355.457"	"481.664"	"91.978"	"25.368"	"5.518"
"1962"	"4.019"	"8.118"	"23.025"	"14.387"	"4.061"	"46.14"	"398.625"	"468.683"	"488.777"	"1.19"	"37.285"	"38.689"
"1963"	"9.211"	"12.304"	"2.373"	"4.629"	"9.492"	"108.853"	"278.392"	"266.336"	"357.329"	"28.01"	"8.611"	"1.372"
"1964"	"0"	"1.027"	"21.453"	"0"	"11.957"	"142.703"	"362.952"	"380.146"	"154.932"	"3.535"	"0.208"	"0.076"
"1965"	"11.505"	"0.777"	"7.133"	"13.27"	"1.642"	"74.082"	"231.549"	"237.371"	"222.591"	"5.328"	"0.44"	"14.795"
"1966"	"2.919"	"0.476"	"7.437"	"0.66"	"11.467"	"69.452"	"302.338"	"175.519"	"96.273"	"2.07"	"63.715"	"7.523"
"1967"	"0.156"	"0"	"45.619"	"0.393"	"1.724"	"106.325"	"273.473"	"292.258"	"166.316"	"0.594"	"0.208"	"120.094"
"1968"	"7.799"	"5.58"	"24.072"	"2.949"	"0"	"70.98"	"449.338"	"307.94"	"133.53"	"34.146"	"0.208"	"0.982"
"1969"	"3.875"	"0.203"	"1.875"	"0"	"6.945"	"40.432"	"499.381"	"434.248"	"239.464"	"0.325"	"95.813"	"0.076"
"1970"	"13.226"	"7.312"	"33.966"	"1.057"	"15.919"	"173.482"	"185.083"	"456.413"	"305.223"	"5.42"	"0.208"	"0.076"
"1971"	"4.994"	"5.08"	"3.201"	"2.054"	"26.694"	"221.565"	"341.745"	"223.311"	"237.811"	"90.058"	"0.208"	"0.076"
"1972"	"0"	"0.423"	"0.035"	"0.415"	"1.905"	"69.813"	"175.287"	"542.045"	"140.776"	"42.737"	"21.582"	"5.394"
"1973"	"0.077"	"14.303"	"0.035"	"0.266"	"3.082"	"71.646"	"660.21"	"422.834"	"259.089"	"17.325"	"0.208"	"19.405"
"1974"	"0"	"2.202"	"0.801"	"2.127"	"15.49"	"82.95"	"235.38"	"458.763"	"63.908"	"75.76"	"0.234"	"0.076"
"1975"	"7.169"	"14.798"	"3.008"	"0"	"0.82"	"167.246"	"258.491"	"438.097"	"341.754"	"35.209"	"0.208"	"0.076"
"1976"	"5.075"	"0.128"	"12.372"	"15.544"	"11.393"	"85.115"	"338.931"	"359.565"	"240.9"	"0.325"	"68.569"	"4.266"
"1977"	"0.663"	"1.963"	"16.016"	"0.931"	"9.453"	"314.862"	"245.447"	"345.227"	"233.986"	"28.74"	"98.43"	"5.289"
"1978"	"7.463"	"52.617"	"42.763"	"10.892"	"0.682"	"193.401"	"329.042"	"527.517"	"129.28"	"6.41"	"10.434"	"49.551"
"1979"	"35.06"	"31.647"	"3.363"	"0"	"18.761"	"101.582"	"331.668"	"388.377"	"43.788"	"10.313"	"56.281"	"2.116"
"1980"	"0.936"	"1.776"	"1.137"	"0.525"	"0"	"182.768"	"207.272"	"351.132"	"56.812"	"0.989"	"0.208"	"27.884"
"1981"	"9.547"	"1.624"	"10.033"	"0.531"	"16.354"	"73.576"	"182.269"	"226.487"	"191.68"	"13.462"	"2.97"	"17.058"
"1982"	"61.984"	"12.246"	"4.305"	"2.072"	"6.416"	"80.04"	"270.683"	"581.4"	"145.317"	"22.565"	"72.201"	"0.903"
"1983"	"3.25"	"0.368"	"1.65"	"0.958"	"3.886"	"89.568"	"367.598"	"412.096"	"503.2"	"56.677"	"0.208"	"3.922"
"1984"	"43.492"	"30.366"	"0.035"	"0.099"	"2.362"	"96.524"	"166.324"	"565.152"	"41.924"	"27.292"	"0.243"	"0.942"
"1985"	"17.891"	"0.107"	"0.035"	"11.01"	"10.387"	"135.342"	"374.065"	"373.977"	"186.701"	"114.721"	"0.208"	"0.139"
"1986"	"4.328"	"31.321"	"16.192"	"0"	"8.344"	"139.981"	"387.345"	"238.47"	"62.867"	"13.693"	"1.007"	"32.777"
"1987"	"11.579"	"22.068"	"2.366"	"0"	"15.51"	"104.809"	"180.339"	"304.177"	"170.01"	"19.505"	"20.887"	"25.524"
"1988"	"0"	"1.367"	"0.292"	"6.102"	"4.166"	"162.974"	"325.676"	"255.859"	"190.733"	"30.015"	"3.324"	"1.907"
"1989"	"0.802"	"0"	"41.564"	"0"	"4.921"	"118.945"	"177.474"	"355.918"	"108.753"	"0.446"	"0.208"	"18.8"
"1990"	"0.153"	"12.94"	"3.622"	"0"	"30.043"	"277.615"	"516.519"	"511.201"	"303.882"	"25.456"	"0.654"	"9.808"
"1991"	"0.663"	"4.591"	"15.748"	"15.058"	"5.208"	"128.384"	"194.811"	"345.84"	"25.993"	"0.393"	"7.559"	"0.076"
"1992"	"2.691"	"3.821"	"0.035"	"0.12"	"26.781"	"28.906"	"72.465"	"281.609"	"366.172"	"10.2"	"0.864"	"0.076"
"1993"	"0"	"8.276"	"25.369"	"0.052"	"6.823"	"85.14"	"233.968"	"186.077"	"143.962"	"35.963"	"0.337"	"5.752"
"1994"	"12.088"	"10.602"	"23.855"	"3.236"	"13.876"	"250.694"	"534.051"	"318.924"	"159.391"	"17.026"	"4.178"	"0.076"
"1995"	"24.713"	"4.171"	"54.411"	"4.697"	"5.792"	"106.915"	"405.537"	"112.876"	"289.359"	"20.703"	"4.186"	"21.746"
"1996"	"15.685"	"5.237"	"13.217"	"16.617"	"5.867"	"33.189"	"303.2"	"396.765"	"184.176"	"47.926"	"1.601"	"0.076"
"1997"	"11.179"	"0"	"0.035"	"5.343"	"8.818"	"69.834"	"324.296"	"299.638"	"96.865"	"43.708"	"165.263"	"74.49"
"1998"	"2.47"	"1.065"	"35.273"	"0.232"	"1.385"	"78.959"	"181.9"	"329.462"	"356.668"	"19.382"	"89.821"	"0.076"
"1999"	"0.835"	"45.642"	"0.035"	"0"	"10.263"	"89.104"	"328.075"	"369.589"	"327.044"	"75.902"	"0.208"	"0.629"
"2000"	"0"	"2.05"	"0.035"	"0"	"21.239"	"107.299"	"563.999"	"163.479"	"58.215"	"2.085"	"0.208"	"0.076"
"2001"	"10.103"	"0.336"	"12.094"	"4.314"	"24.306"	"296.486"	"252.747"	"178.524"	"14.943"	"29.297"	"3.12"	"0.076"
"2002"	"0.972"	"23.93"	"8.166"	"3.73"	"11.408"	"148.148"	"69.079"	"400.117"	"161.674"	"16.967"	"15.274"	"1.907"
