
"Year"	"Jan"	"Feb"	"Mar"	"Apr"	"May"	"Jun"	"Jul"	"Aug"	"Sep"	"Oct"	"Nov"	"Dec"
"1901"	"38.928"	"8.392"	"20.373"	"4.937"	"25.797"	"24.68"	"270.082"	"133.771"	"29.862"	"0.204"	"0"	"3.587"
"1902"	"0.208"	"3.205"	"15.696"	"14.33"	"17.361"	"49.295"	"150.85"	"125.612"	"89.524"	"4.802"	"2.396"	"0.008"
"1903"	"18.952"	"6.637"	"16.297"	"2.285"	"13.527"	"19.664"	"246.495"	"145.122"	"69.143"	"6.26"	"0"	"6.42"
"1904"	"29.253"	"1.717"	"66.705"	"7.251"	"14.231"	"48.074"	"98.127"	"122.057"	"54.166"	"3.058"	"11.928"	"4.191"
"1905"	"56.41"	"31.998"	"10.044"	"3.748"	"4.888"	"24.73"	"98.089"	"82.694"	"248.564"	"3.93"	"0"	"16.613"
"1906"	"6.75"	"72.532"	"18.687"	"6.01"	"21.269"	"43.937"	"77.666"	"172.841"	"250.831"	"0.556"	"0"	"5.238"
"1907"	"16.955"	"50.296"	"32.751"	"33.809"	"4.593"	"71.18"	"88.257"	"189.772"	"6.136"	"2.048"	"0.205"	"0.008"
"1908"	"36.343"	"9.7"	"1.194"	"17.742"	"16.174"	"56.318"	"150.71"	"423.506"	"147.384"	"0.744"	"0.254"	"6.37"
"1909"	"23.141"	"13.003"	"2.405"	"50.264"	"3.84"	"124.638"	"280.99"	"153.034"	"224.357"	"0.412"	"2.025"	"57.173"
"1910"	"32.1"	"7.547"	"3.97"	"24.931"	"9.41"	"115.308"	"154.2"	"170.336"	"43.399"	"1.174"	"0.576"	"5.942"
"1911"	"58.143"	"4.867"	"70.585"	"9.875"	"8.293"	"63.543"	"80.452"	"134.744"	"84.138"	"4.164"	"26.186"	"1.385"
"1912"	"46.118"	"8.407"	"10.171"	"27.512"	"12.983"	"29.859"	"84.951"	"186.931"	"40.489"	"0.211"	"12.655"	"8.943"
"1913"	"11.721"	"36.652"	"32.343"	"9.293"	"53.904"	"72.529"	"161.259"	"211.148"	"25.55"	"1.597"	"2.778"	"17.197"
"1914"	"22.22"	"38.115"	"20.563"	"21.914"	"20.068"	"41.927"	"256.875"	"123.855"	"210.372"	"24.017"	"11.859"	"14.798"
"1915"	"7.038"	"58.052"	"25.895"	"9.101"	"6.288"	"48.192"	"53.09"	"171.333"	"95.688"	"20.27"	"0"	"4.69"
"1916"	"2.095"	"10.821"	"3.513"	"6.744"	"12.933"	"56.179"	"363.474"	"153.99"	"76.535"	"8.631"	"0.4"	"0.008"
"1917"	"5.229"	"8.79"	"13.872"	"30.67"	"25.965"	"109.697"	"128.232"	"314.17"	"232.955"	"19.666"	"0"	"6.644"
"1918"	"2.499"	"2.129"	"35.182"	"34.958"	"2.118"	"62.26"	"52.877"	"103.828"	"28.406"	"0.327"	"10.288"	"9.953"
"1919"	"55.49"	"18.593"	"15.594"	"16.053"	"14.294"	"14.025"	"226.937"	"132.48"	"45.171"	"1.984"	"1.641"	"13.572"
"1920"	"25.573"	"19.452"	"19.53"	"8.92"	"16.638"	"38.151"	"69.896"	"123.198"	"50.757"	"0.563"	"0"	"0.33"
"1921"	"12.568"	"1.233"	"2.377"	"3.796"	"12.602"	"57.861"	"206.866"	"185.881"	"82.955"	"10.639"	"0"	"15.473"
"1922"	"19.273"	"17.828"	"8.381"	"6.399"	"9.24"	"53.473"	"102.154"	"135.439"	"309.194"	"2.744"	"1.667"	"40.504"
"1923"	"30.52"	"42.922"	"6.666"	"26.231"	"20.534"	"5.866"	"212.659"	"207.06"	"42.769"	"10.801"	"6.696"	"31.263"
"1924"	"41.241"	"48.97"	"9.852"	"3.868"	"25.222"	"6.329"	"242.56"	"76.653"	"163.917"	"6.779"	"0.83"	"54.332"
"1925"	"13.109"	"2.826"	"5.212"	"3.863"	"19.163"	"150.447"	"205.482"	"191.277"	"23.746"	"2.456"	"18.296"	"0.008"
"1926"	"14.734"	"4.237"	"46.296"	"17.363"	"13.639"	"14.639"	"128.76"	"267.184"	"65.611"	"0.71"	"4.093"	"12.294"
"1927"	"1.047"	"20.754"	"12.636"	"8.198"	"19.298"	"25.209"	"114.055"	"201.472"	"42.373"	"9.371"	"0"	"33.81"
"1928"	"17.243"	"26.93"	"9.753"	"18.937"	"5.336"	"34.768"	"134.857"	"125.486"	"187.731"	"0.006"	"15.879"	"18.871"
"1929"	"18.765"	"2.987"	"3.474"	"7.882"	"3.679"	"135.816"	"133.639"	"293.351"	"18.332"	"4.025"	"0"	"56.192"
"1930"	"25.657"	"8.358"	"4.052"	"25.665"	"7.995"	"27.116"	"234.729"	"93.31"	"35.202"	"2.928"	"4.758"	"6.063"
"1931"	"32.012"	"31.663"	"17.274"	"12.56"	"19.822"	"12.912"	"315.121"	"216.725"	"132.993"	"20.165"	"0.576"	"0.008"
"1932"	"21.064"	"2.797"	"15.956"	"7.803"	"7.159"	"41.552"	"129.936"	"95.748"	"60.175"	"0.656"	"0.254"	"34.42"
"1933"	"8.962"	"15.177"	"16.266"	"16.976"	"10.784"	"51.447"	"136.369"	"288.92"	"125.276"	"9.248"	"8.666"	"0.719"
"1934"	"16.988"	"5.92"	"18.69"	"1.627"	"4.561"	"39.017"	"157.127"	"207.003"	"14.367"	"0"	"0"	"13.781"
"1935"	"63.712"	"56.969"	"10.012"	"22.96"	"10.004"	"3.501"	"73.984"	"106.419"	"56.48"	"0.684"	"14.361"	"7.087"
"1936"	"5.811"	"39.243"	"31.608"	"17.624"	"8.443"	"214.061"	"263.741"	"149.859"	"78.899"	"12.735"	"1.402"	"28.335"
"1937"	"4.808"	"80.559"	"9.565"	"32.742"	"10.201"	"29.414"	"265.01"	"41.978"	"80.367"	"6.851"	"0.73"	"20.322"
"1938"	"43.037"	"24.844"	"2.561"	"7.518"	"0.976"	"160.719"	"97.717"	"110.701"	"14.641"	"7.835"	"0.606"	"1.751"
"1939"	"14.6"	"50.782"	"27.938"	"9.234"	"6.148"	"50.381"	"113.699"	"70.259"	"60.662"	"5.922"	"0"	"0.008"
"1940"	"42.559"	"34.572"	"20.552"	"9.672"	"8.225"	"94.021"	"77.754"	"141.906"	"66.729"	"0.739"	"0.65"	"4.829"
"1941"	"27.995"	"11.633"	"7.187"	"6.658"	"23.702"	"60.672"	"109.661"	"61.092"	"173.223"	"0.619"	"1.336"	"13.374"
"1942"	"29.712"	"37.384"	"17.291"	"27.942"	"21.905"	"50.716"	"200.061"	"187.345"	"77.32"	"2.45"	"1.032"	"28.092"
"1943"	"25.318"	"2.457"	"7.907"	"14.365"	"8.288"	"91.153"	"94.92"	"93.779"	"60.035"	"0"	"0"	"0.008"
"1944"	"30.146"	"36.817"	"22.201"	"28.85"	"2.259"	"68.273"	"128.231"	"166.114"	"84.851"	"0.601"	"2.554"	"12.473"
"1945"	"49.03"	"1.386"	"19.248"	"47.686"	"10.651"	"75.498"	"218.296"	"112.513"	"160.035"	"8.1"	"0.205"	"2.898"
"1946"	"1.812"	"11.55"	"10.868"	"11.581"	"22.332"	"73.453"	"143.924"	"153.429"	"19.607"	"14.775"	"6.363"	"11.783"
"1947"	"14.5"	"16.667"	"12.763"	"1.252"	"6.429"	"14.708"	"92.025"	"226.206"	"81.066"	"12.258"	"0.606"	"15.036"
"1948"	"6.119"	"38.404"	"48.094"	"15.139"	"8.286"	"69.087"	"285.351"	"206.078"	"73.723"	"2.728"	"4.454"	"19.492"
"1949"	"9.861"	"44.004"	"20.089"	"9.223"	"8.649"	"25.439"	"321.91"	"90.874"	"95.915"	"3.89"	"0.523"	"1.716"
"1950"	"78.077"	"26.685"	"48.526"	"6.164"	"11.163"	"33.473"	"304.605"	"188.841"	"321.349"	"0.522"	"0.356"	"0.776"
"1951"	"26.656"	"17.922"	"31.269"	"23.009"	"19.808"	"45.494"	"136.313"	"137.496"	"42.554"	"3.013"	"16.01"	"1.979"
"1952"	"16.618"	"14.761"	"32.569"	"6.365"	"13.987"	"48.435"	"119.693"	"82.675"	"7.845"	"1.39"	"4.923"	"7.278"
"1953"	"38.519"	"9.84"	"11.416"	"11.07"	"4.581"	"39.708"	"253.388"	"200.256"	"169.883"	"3.524"	"3.154"	"10.953"
"1954"	"24.653"	"57.625"	"4.716"	"1.955"	"12.607"	"38.528"	"209.948"	"71.327"	"338.954"	"13.859"	"0"	"1.634"
"1955"	"21.472"	"2.239"	"36.276"	"14.622"	"18.45"	"33.797"	"116.038"	"143.367"	"253.57"	"21.942"	"0"	"4.98"
"1956"	"23.532"	"10.734"	"28"	"13.191"	"11.779"	"126.655"	"175.107"	"184.338"	"14.93"	"30.856"	"0"	"4.193"
"1957"	"76.919"	"5.899"	"32.114"	"38.806"	"13.795"	"31.934"	"112.543"	"317.644"	"46.886"	"9.558"	"12.496"	"16.375"
"1958"	"9.184"	"5.747"	"10.048"	"8.404"	"5.815"	"44.503"	"142.75"	"145.419"	"253.679"	"13.441"	"1.09"	"34.858"
"1959"	"34.563"	"16.199"	"17.268"	"4.507"	"30.339"	"10.23"	"328.472"	"226.053"	"61.624"	"12.435"	"27.243"	"0.762"
"1960"	"22.798"	"2.34"	"29.136"	"14.791"	"8.142"	"43.119"	"144.515"	"118.849"	"77.672"	"7.256"	"0"	"9.184"
"1961"	"88.169"	"28.442"	"11.585"	"18.482"	"9.188"	"23.376"	"248.407"	"135.937"	"153.117"	"15.331"	"1.661"	"14.744"
"1962"	"35.354"	"29.931"	"21.565"	"0.962"	"10.81"	"4.445"	"156.377"	"131.453"	"216.776"	"0"	"10.728"	"14.429"
"1963"	"0.936"	"24.792"	"43.379"	"6.217"	"25.999"	"15.807"	"101.469"	"88.708"	"79.288"	"0.79"	"1.373"	"22.545"
"1964"	"27.349"	"6.894"	"10.293"	"14.694"	"16.322"	"57.536"	"293.698"	"175.961"	"86.416"	"0"	"2.901"	"8.743"
"1965"	"10.115"	"29.058"	"20.582"	"47.452"	"18.175"	"4.11"	"168.312"	"129.111"	"3.704"	"11.427"	"10.174"	"0.008"
"1966"	"1.952"	"58.481"	"29.953"	"16.94"	"24.957"	"105.669"	"137.544"	"143.018"	"210.037"	"15.602"	"9.816"	"0.56"
"1967"	"0.258"	"25.024"	"51.297"	"7.782"	"5.423"	"5.875"	"97.588"	"330.163"	"43.326"	"4.123"	"2.171"	"54.152"
"1968"	"26.934"	"34.311"	"13.146"	"4.14"	"7.353"	"16.739"	"143.063"	"207.226"	"3.952"	"12.274"	"0.012"	"11.142"
"1969"	"6.001"	"12.802"	"31.491"	"42.569"	"26.814"	"14.626"	"219.549"	"127.167"	"136.768"	"2.932"	"0.138"	"0.008"
"1970"	"21.865"	"23.747"	"13.889"	"0.805"	"10.187"	"48.318"	"51.726"	"197.728"	"56.707"	"1.537"	"0"	"0.142"
"1971"	"2.592"	"16.672"	"5.414"	"25.621"	"49.709"	"77.218"	"160.947"	"282.598"	"40.298"	"9.069"	"1.233"	"0.008"
"1972"	"13.952"	"16.232"	"9.27"	"5.137"	"5.604"	"14.163"	"93.629"	"133.467"	"194.713"	"16.877"	"12.766"	"12.114"
"1973"	"17.637"	"16.834"	"11.972"	"2.307"	"16.674"	"50.176"	"174.045"	"264.104"	"93.368"	"5.17"	"0"	"19.886"
"1974"	"11.839"	"15.048"	"3.116"	"1.208"	"19.591"	"31.427"	"198.352"	"88.335"	"24.896"	"0.656"	"0.008"	"8.623"
"1975"	"26.079"	"28.95"	"33.926"	"5.279"	"1.055"	"121.968"	"208.513"	"176.027"	"198.176"	"3.023"	"0"	"0.058"
"1976"	"17.433"	"30.026"	"18.101"	"11.571"	"15.977"	"129.714"	"184.35"	"512.875"	"160.926"	"13.574"	"0"	"0.075"
"1977"	"36.773"	"1.881"	"1.837"	"48.612"	"43.319"	"133.928"	"199.439"	"148.58"	"64.504"	"23.394"	"1.005"	"8.82"
"1978"	"6.456"	"9.36"	"70.307"	"13.085"	"0.548"	"88.322"	"315.417"	"368.129"	"192.946"	"0.15"	"9.29"	"0.901"
"1979"	"13.324"	"51.401"	"42.501"	"6.994"	"24.874"	"42.776"	"168.613"	"85.154"	"112.415"	"7.62"	"6.831"	"0.865"
"1980"	"15.407"	"17.256"	"22.162"	"7.549"	"9.058"	"111.029"	"440.042"	"293.878"	"92.312"	"6.924"	"8.865"	"11.744"
"1981"	"90.638"	"22.203"	"43.89"	"7.819"	"9.379"	"6.79"	"398.541"	"115.876"	"6.404"	"8.032"	"33.973"	"0.452"
"1982"	"26.43"	"23.85"	"103.284"	"20.452"	"41.08"	"13.411"	"49.793"	"200.368"	"3.281"	"1.162"	"23.859"	"25.502"
"1983"	"47.021"	"28.654"	"56.613"	"42.09"	"74.299"	"55.616"	"180.601"	"250.703"	"69.503"	"21.875"	"0"	"1.748"
"1984"	"0.722"	"57.342"	"11.122"	"21.199"	"1.409"	"23.464"	"432.867"	"245.644"	"162.22"	"0"	"0.019"	"23.607"
"1985"	"12.259"	"1.573"	"11"	"31.717"	"20.736"	"75.99"	"323.099"	"182.111"	"124.413"	"19.572"	"1.816"	"21.322"
"1986"	"3.791"	"41.852"	"19.512"	"13.734"	"29.864"	"84.619"	"246.342"	"220.045"	"129.078"	"6.896"	"1.973"	"25.925"
"1987"	"34.692"	"23.99"	"24.136"	"12.067"	"20.808"	"66.224"	"100.994"	"97.767"	"5.179"	"16.734"	"0"	"10.289"
"1988"	"7.759"	"13.107"	"63.489"	"10.111"	"1.279"	"57.251"	"287.534"	"156.525"	"163.006"	"24.83"	"0.066"	"30.089"
"1989"	"49.927"	"7.059"	"19.524"	"3.831"	"8.368"	"29.595"	"255.833"	"128.736"	"60.208"	"0.593"	"8.221"	"2.518"
"1990"	"5.787"	"72.214"	"70.544"	"16.201"	"29.921"	"19.157"	"187.131"	"232.067"	"245.193"	"3.177"	"10.833"	"41.63"
"1991"	"1.748"	"25.183"	"13.354"	"51.563"	"22.326"	"114.33"	"27.744"	"161.001"	"75.313"	"3.36"	"0.953"	"10.513"
"1992"	"59.383"	"40.09"	"20.196"	"12.696"	"39.021"	"27.914"	"126.074"	"202.962"	"118.035"	"3.737"	"19.776"	"2.625"
"1993"	"12.622"	"16.751"	"24.574"	"27.84"	"15.983"	"32.839"	"162.545"	"29.062"	"125.557"	"0"	"0"	"0.008"
"1994"	"24.441"	"14.609"	"7.378"	"7.395"	"60.355"	"38.124"	"168.03"	"112.04"	"146.475"	"2.291"	"0"	"9.374"
"1995"	"33.906"	"100.498"	"19.468"	"5.663"	"0.455"	"79.634"	"164.929"	"303.76"	"116.282"	"2.532"	"15.197"	"1.726"
"1996"	"38.955"	"37.932"	"29.13"	"10.359"	"21.719"	"201.09"	"119.399"	"331.409"	"53.138"	"6.298"	"0"	"2.432"
"1997"	"23.309"	"12.648"	"22.405"	"39.812"	"22.33"	"120.645"	"262.481"	"347.207"	"73.643"	"22.009"	"16.279"	"4.065"
"1998"	"24.578"	"39.321"	"31.618"	"28.672"	"18.953"	"16.537"	"199.611"	"124.919"	"81.925"	"17.483"	"1.92"	"2.496"
"1999"	"14.516"	"12.015"	"11.649"	"7.745"	"16.966"	"68.301"	"89.128"	"162.202"	"81.24"	"2.57"	"1.819"	"2.522"
"2000"	"19.4"	"24.803"	"8.612"	"2.556"	"13.806"	"63.754"	"225.931"	"110.983"	"50.823"	"0"	"3.828"	"0.877"
"2001"	"7.426"	"7.923"	"18.119"	"10.382"	"22.912"	"67.618"	"289.395"	"53.622"	"52.313"	"0.719"	"1.851"	"1.715"
"2002"	"10.726"	"24.314"	"25.15"	"6.753"	"17.466"	"59.199"	"86.837"	"128.268"	"164.918"	"0.633"	"0"	"5.493"
