
"Year"	"Jan"	"Feb"	"Mar"	"Apr"	"May"	"Jun"	"Jul"	"Aug"	"Sep"	"Oct"	"Nov"	"Dec"
"1901"	"13.501"	"16.939"	"23.843"	"29.669"	"34.107"	"36.814"	"32.172"	"28.513"	"28.826"	"27.451"	"20.964"	"16.188"
"1902"	"16.494"	"19.017"	"26.386"	"30.79"	"34.498"	"34.861"	"30.01"	"29.537"	"28.154"	"26.014"	"19.774"	"14.706"
"1903"	"15.457"	"17.233"	"23.27"	"28.999"	"33.45"	"36.338"	"32.148"	"28.694"	"28.755"	"25.041"	"19.248"	"14.538"
"1904"	"15.267"	"18.011"	"23.618"	"30.637"	"33.407"	"34.634"	"28.506"	"27.575"	"27.817"	"25.846"	"19.55"	"15.744"
"1905"	"13.815"	"13.572"	"21.264"	"27.507"	"34.421"	"36.686"	"30.678"	"28.939"	"29.393"	"26.252"	"21.536"	"15.659"
"1906"	"14.6"	"16.672"	"22.364"	"29.971"	"35.894"	"34.169"	"30.045"	"28.67"	"27.745"	"26.039"	"21.106"	"16.158"
"1907"	"16.524"	"16.683"	"21.836"	"27.865"	"32.683"	"35.232"	"33.025"	"28.093"	"29.465"	"27.007"	"21.017"	"14.367"
"1908"	"14.205"	"18.144"	"23.499"	"31.276"	"34.331"	"35.986"	"29.185"	"27.904"	"28.603"	"25.677"	"20.026"	"14.668"
"1909"	"15.71"	"16.819"	"24.364"	"27.964"	"33.345"	"32.248"	"28.728"	"28.264"	"27.887"	"25.823"	"21.308"	"14.998"
"1910"	"14.415"	"18.125"	"24.085"	"29.446"	"34.145"	"33.601"	"30.354"	"28.614"	"28.418"	"24.75"	"19.184"	"15.043"
"1911"	"17.11"	"18.017"	"22.104"	"29.707"	"35.446"	"34.247"	"31.275"	"28.664"	"27.487"	"26.233"	"18.99"	"14.911"
"1912"	"15.705"	"19.044"	"23.185"	"29.84"	"34.545"	"36.306"	"30.796"	"28.656"	"27.548"	"25.846"	"19.445"	"14.858"
"1913"	"15.296"	"18.073"	"22.003"	"31.106"	"32.354"	"32.221"	"30.443"	"29.648"	"29.876"	"27.545"	"20.399"	"15.636"
"1914"	"17.029"	"18.601"	"23.471"	"30.221"	"34.073"	"34.356"	"29.723"	"28.435"	"28.788"	"25.579"	"21.173"	"15.031"
"1915"	"15.288"	"16.373"	"23.152"	"29.335"	"35.817"	"35.243"	"31.535"	"29.004"	"29.271"	"27.37"	"20.55"	"15.812"
"1916"	"15.544"	"17.519"	"26.014"	"31.228"	"34.306"	"32.279"	"30.272"	"28.086"	"28.223"	"25.431"	"18.479"	"14.139"
"1917"	"15.353"	"17.731"	"23.141"	"27.169"	"30.311"	"33.074"	"29.306"	"28.126"	"27.674"	"25.112"	"17.813"	"15.372"
"1918"	"13.97"	"18.277"	"23.866"	"28.379"	"35.384"	"33.406"	"32.754"	"29.928"	"29.436"	"26.769"	"20.674"	"14.668"
"1919"	"15.41"	"16.718"	"24.303"	"29.336"	"33.649"	"35.735"	"28.897"	"28.013"	"28.34"	"25.421"	"20.001"	"14.92"
"1920"	"15.006"	"17.645"	"24.226"	"29.79"	"31.502"	"33.902"	"29.078"	"28.932"	"30.005"	"27.792"	"21.768"	"16.123"
"1921"	"16.306"	"18.583"	"26.453"	"32.405"	"36.508"	"34.969"	"32.288"	"27.955"	"27.67"	"25.457"	"19.889"	"17.216"
"1922"	"15.078"	"19.425"	"25.153"	"30.686"	"34.899"	"33.83"	"29.713"	"27.665"	"27.653"	"25.513"	"20.025"	"14.988"
"1923"	"14.958"	"17.544"	"24.427"	"30.637"	"33.922"	"37.204"	"30.667"	"27.872"	"28.541"	"25.122"	"20.181"	"15.678"
"1924"	"14.366"	"17.787"	"25.454"	"30.769"	"32.487"	"36.659"	"29.597"	"28.264"	"27.997"	"25.33"	"19.722"	"15.258"
"1925"	"13.364"	"16.209"	"23.808"	"31.17"	"32.909"	"31.774"	"28.105"	"29.232"	"28.799"	"26.442"	"19.328"	"14.63"
"1926"	"15.129"	"19.144"	"22.78"	"26.834"	"32.204"	"36.434"	"31.005"	"28.494"	"27.622"	"24.665"	"18.164"	"14.24"
"1927"	"13.251"	"16.497"	"22.201"	"29.142"	"33.307"	"34.863"	"29.746"	"28.026"	"28.549"	"25.837"	"19.089"	"16.212"
"1928"	"14.754"	"18.162"	"24.198"	"29.437"	"35.107"	"34.226"	"30.014"	"29.901"	"29.58"	"26.759"	"21.415"	"15.26"
"1929"	"14.901"	"16.472"	"25.265"	"30.599"	"35.167"	"34.5"	"29.733"	"27.712"	"29.733"	"25.88"	"20.671"	"14.706"
"1930"	"14.741"	"17.612"	"24.994"	"29.622"	"33.993"	"34.364"	"28.804"	"28.117"	"28.681"	"26.555"	"19.818"	"15.256"
"1931"	"16.738"	"17.106"	"23.436"	"31.371"	"34.485"	"35.843"	"30.949"	"29.084"	"28.06"	"25.089"	"19.716"	"15.834"
"1932"	"17.475"	"17.112"	"24.245"	"29.495"	"33.537"	"36"	"31.305"	"28.246"	"28.507"	"25.973"	"19.402"	"15.172"
"1933"	"13.322"	"18.505"	"24.422"	"28.013"	"31.223"	"33.305"	"29.633"	"28.126"	"27.627"	"25.18"	"19.75"	"15.268"
"1934"	"14.142"	"18.525"	"22.764"	"29.598"	"33.702"	"33.519"	"29.596"	"28.026"	"28.037"	"24.062"	"19.337"	"16.156"
"1935"	"13.61"	"18.209"	"23.922"	"27.264"	"34.413"	"35.819"	"29.663"	"28.013"	"28.136"	"25.073"	"20.641"	"15.416"
"1936"	"13.663"	"18.011"	"23.88"	"29.327"	"35.284"	"32.506"	"29.182"	"28.117"	"27.988"	"25.551"	"20.494"	"15.532"
"1937"	"13.905"	"18.411"	"22.304"	"28.467"	"33.846"	"34.911"	"30.243"	"28.806"	"28.46"	"25.103"	"20.87"	"14.57"
"1938"	"15.065"	"16.335"	"25.505"	"30.927"	"35.356"	"32.026"	"29.92"	"28.737"	"29.331"	"26.537"	"19.379"	"15.073"
"1939"	"16.215"	"18.545"	"22.212"	"28.77"	"35.208"	"33.334"	"29.744"	"29.313"	"27.955"	"26.61"	"19.801"	"15.159"
"1940"	"15.006"	"17.323"	"22.304"	"28.569"	"34.543"	"35.267"	"30.914"	"28.239"	"28.239"	"25.874"	"21.237"	"15.235"
"1941"	"14.712"	"18.512"	"26.047"	"32.122"	"35.113"	"33.808"	"31.926"	"29.501"	"29.325"	"28.269"	"20.821"	"16.783"
"1942"	"13.862"	"18.908"	"25.309"	"31.18"	"35.45"	"35.916"	"29.373"	"28.126"	"27.651"	"25.893"	"21.311"	"15.215"
"1943"	"16.566"	"17.805"	"24.98"	"28.569"	"34.646"	"34.381"	"30.169"	"27.463"	"28.597"	"25.57"	"21.641"	"16.433"
"1944"	"14.762"	"17.612"	"22.568"	"28.631"	"35.351"	"33.672"	"29.642"	"28.923"	"28.665"	"25.061"	"21.079"	"17.019"
"1945"	"13.411"	"17.463"	"24.894"	"28.775"	"34.023"	"35.234"	"30.592"	"29.292"	"28.06"	"25.041"	"20.003"	"14.315"
"1946"	"15.767"	"20.019"	"24.002"	"31.327"	"34.217"	"33.64"	"29.713"	"28.561"	"28.966"	"26.518"	"20.127"	"16.562"
"1947"	"13.957"	"19.043"	"25.466"	"31.299"	"35.063"	"35.65"	"30.181"	"28.966"	"28.213"	"24.759"	"21.312"	"16.117"
"1948"	"15.358"	"17.569"	"23.164"	"31.39"	"35.597"	"35.836"	"30.239"	"28.465"	"28.156"	"26.542"	"19.831"	"15.702"
"1949"	"16.703"	"18.81"	"24.802"	"31.16"	"34.984"	"35.229"	"30.253"	"28.536"	"28.708"	"26"	"19.04"	"14.74"
"1950"	"16.083"	"16.973"	"22.879"	"28.87"	"34.544"	"34.946"	"29.886"	"28.413"	"28.248"	"25.393"	"19.546"	"14.559"
"1951"	"14.153"	"17.555"	"23.736"	"28.13"	"34.047"	"34.666"	"31.52"	"28.656"	"28.321"	"28.58"	"21.94"	"15.536"
"1952"	"16.533"	"20.541"	"24.021"	"31.477"	"35.397"	"33.099"	"29.725"	"27.884"	"29.16"	"26.645"	"20.428"	"16.247"
"1953"	"14.118"	"19.657"	"27.434"	"31.009"	"35.478"	"35.85"	"30.149"	"28.178"	"28.371"	"25.736"	"19.85"	"17.435"
"1954"	"13.795"	"19.663"	"24.279"	"31.065"	"35.822"	"35.344"	"30.778"	"28.871"	"27.985"	"24.102"	"20.589"	"15.43"
"1955"	"14.997"	"18.377"	"26.252"	"28.765"	"33.936"	"34.821"	"29.871"	"28.264"	"28.288"	"24.665"	"19.565"	"16.065"
"1956"	"15.464"	"18.293"	"24.812"	"30.866"	"35.342"	"33.17"	"28.834"	"28.062"	"28.366"	"25.079"	"19.112"	"16.274"
"1957"	"15.091"	"17.24"	"22.885"	"29.265"	"33.33"	"34.244"	"30.054"	"29.212"	"27.568"	"25.974"	"21.722"	"16.766"
"1958"	"17.324"	"19.279"	"25.448"	"32.104"	"34.912"	"35.656"	"29.713"	"28.588"	"27.948"	"25.465"	"20.698"	"17.125"
"1959"	"15.611"	"18.002"	"25.575"	"30.589"	"33.904"	"35.081"	"29.672"	"28.433"	"28.532"	"26.579"	"20.941"	"16.896"
"1960"	"15.095"	"21.049"	"24.372"	"29.87"	"34.378"	"35.843"	"29.941"	"28.08"	"28.689"	"25.47"	"19.818"	"16.649"
"1961"	"15.597"	"16.618"	"24.884"	"29.626"	"34.154"	"33.661"	"29.401"	"27.875"	"27.962"	"24.965"	"19.536"	"13.595"
"1962"	"14.168"	"18.572"	"23.774"	"30.288"	"33.904"	"35.643"	"30.801"	"28.38"	"27.465"	"24.336"	"20.618"	"16.705"
"1963"	"14.373"	"19.754"	"23.928"	"29.067"	"32.827"	"33.402"	"30.058"	"27.988"	"27.447"	"26.439"	"22.864"	"16.136"
"1964"	"14.511"	"18.344"	"26.193"	"31.219"	"32.741"	"34.634"	"29.167"	"28.934"	"27.81"	"26.106"	"19.86"	"16.568"
"1965"	"17.058"	"18.693"	"23.669"	"28.471"	"33.402"	"36.056"	"30.487"	"29.365"	"27.988"	"26.522"	"21.812"	"16.089"
"1966"	"16.191"	"21.087"	"24.326"	"30.367"	"34.119"	"33.199"	"31.675"	"28.28"	"29.054"	"27.398"	"21.881"	"15.407"
"1967"	"14.491"	"20.315"	"23.057"	"29.352"	"34.258"	"34.756"	"29.54"	"27.13"	"26.978"	"25.947"	"21.041"	"16.564"
"1968"	"14.534"	"17.067"	"24.245"	"29.202"	"33.098"	"33.759"	"28.947"	"28.004"	"29.029"	"25.584"	"21.063"	"16.439"
"1969"	"15.602"	"19.373"	"26.843"	"30.186"	"32.976"	"35.307"	"29.209"	"27.73"	"27.641"	"27.278"	"22.112"	"16.14"
"1970"	"15.933"	"17.578"	"23.988"	"31.846"	"34.459"	"32.62"	"30.626"	"28.561"	"27.737"	"26.219"	"20.246"	"16.383"
"1971"	"14.127"	"18.388"	"23.185"	"29.959"	"32.159"	"30.731"	"28.002"	"27.101"	"27.748"	"25.812"	"19.881"	"16.018"
"1972"	"15.098"	"16.375"	"25.016"	"29.908"	"35.309"	"36.074"	"31.858"	"27.643"	"27.279"	"25.238"	"21.169"	"16.258"
"1973"	"15.601"	"19.281"	"24.004"	"32.05"	"35.819"	"34.981"	"29.679"	"28.387"	"28.017"	"25.537"	"20.001"	"14.991"
"1974"	"14.656"	"17.003"	"25.485"	"32.205"	"34.426"	"34.348"	"28.758"	"27.543"	"29.017"	"27.029"	"20.193"	"14.968"
"1975"	"14.224"	"18.001"	"23.584"	"31.142"	"35.844"	"33.347"	"28.846"	"28.026"	"27.282"	"26.688"	"19.466"	"15.944"
"1976"	"15.874"	"18.955"	"24.001"	"29.718"	"33.531"	"32.484"	"29.888"	"27.477"	"28.008"	"26.369"	"22.276"	"16.131"
"1977"	"14.529"	"18.755"	"25.939"	"29.439"	"32.065"	"33.18"	"28.378"	"27.707"	"26.978"	"25.969"	"22.602"	"16.878"
"1978"	"14.941"	"17.482"	"22.174"	"28.905"	"35.965"	"33.488"	"28.572"	"27.086"	"26.965"	"26.381"	"22.183"	"15.971"
"1979"	"16.202"	"16.919"	"22.602"	"29.758"	"31.484"	"33.016"	"29.152"	"28.694"	"29.584"	"28.214"	"23.855"	"16.94"
"1980"	"15.496"	"19.654"	"24.136"	"31.123"	"34.288"	"31.205"	"27.781"	"27.099"	"28.235"	"27.321"	"21.451"	"16.427"
"1981"	"15.671"	"19.178"	"23.706"	"29.44"	"33.178"	"33.97"	"28.074"	"28.063"	"28.912"	"26.568"	"20.331"	"15.592"
"1982"	"16.127"	"17.564"	"21.864"	"29.222"	"32.036"	"33.683"	"31.669"	"27.769"	"28.254"	"27.121"	"21.55"	"16.772"
"1983"	"14.578"	"17.271"	"23.836"	"27.64"	"32.436"	"33.923"	"30.064"	"28.528"	"28.136"	"25.438"	"19.653"	"16.158"
"1984"	"15.13"	"16.197"	"25.247"	"30.666"	"36.529"	"34.128"	"30.005"	"27.658"	"27.598"	"25.967"	"20.291"	"16.983"
"1985"	"15.4"	"19.218"	"26.42"	"31.24"	"35.076"	"34.981"	"29.487"	"28.113"	"27.592"	"24.502"	"21.097"	"17.365"
"1986"	"15.294"	"17.634"	"24.194"	"30.136"	"32.535"	"34.04"	"28.598"	"28.974"	"28.268"	"26.237"	"21.66"	"15.653"
"1987"	"15.548"	"19.578"	"24.938"	"31.084"	"32.382"	"36.338"	"31.927"	"30.399"	"29.307"	"26.983"	"21.25"	"16.05"
"1988"	"15.99"	"19.657"	"24.648"	"31.438"	"35.989"	"33.689"	"29.32"	"28.497"	"29.502"	"25.874"	"20.778"	"16.928"
"1989"	"14.281"	"18.047"	"23.695"	"29.592"	"34.504"	"32.602"	"30.183"	"27.765"	"28.394"	"26.468"	"20.335"	"15.706"
"1990"	"17.073"	"18.526"	"23.075"	"30.49"	"33.299"	"33.745"	"28.656"	"28.867"	"27.745"	"26.11"	"21.312"	"16.294"
"1991"	"14.701"	"19.534"	"24.437"	"29.475"	"35.078"	"34.711"	"32.228"	"27.926"	"28.718"	"25.577"	"20.283"	"16.285"
"1992"	"15.834"	"17.454"	"24.568"	"30.225"	"32.976"	"35.851"	"30.454"	"28.499"	"27.739"	"25.886"	"21.086"	"16.484"
"1993"	"15.705"	"19.334"	"22.307"	"29.307"	"34.919"	"34.639"	"31.143"	"29.617"	"27.054"	"26.429"	"21.928"	"16.156"
"1994"	"17.042"	"18.065"	"25.241"	"28.85"	"35.169"	"34.41"	"29.134"	"27.928"	"27.949"	"25.577"	"21.076"	"16.604"
"1995"	"14.401"	"18.517"	"23.275"	"30.188"	"35.202"	"35.639"	"30.846"	"28.097"	"28.416"	"26.974"	"21.049"	"17.132"
"1996"	"15.662"	"18.149"	"24.991"	"29.658"	"34.223"	"33.809"	"29.697"	"27.494"	"28.444"	"25.81"	"20.561"	"14.759"
"1997"	"14.645"	"17.749"	"24.269"	"28.556"	"32.503"	"33.678"	"31.06"	"28.376"	"28.025"	"24.905"	"20.511"	"14.924"
"1998"	"14.305"	"19.201"	"22.402"	"30.437"	"35.144"	"34.566"	"29.941"	"28.779"	"28.826"	"27.034"	"22.131"	"16.4"
"1999"	"14.818"	"19.138"	"24.852"	"31.608"	"34.145"	"33.333"	"30.249"	"28.581"	"27.888"	"26.469"	"22.535"	"16.397"
"2000"	"15.641"	"17.878"	"23.88"	"31.809"	"33.946"	"32.435"	"29.408"	"28.999"	"27.869"	"27.411"	"23.376"	"16.644"
"2001"	"14.72"	"19.329"	"24.308"	"29.599"	"33.526"	"31.862"	"29.312"	"29.234"	"29.228"	"27.276"	"21.983"	"16.946"
"2002"	"15.635"	"17.645"	"25.206"	"31.38"	"35.277"	"34.234"	"32.361"	"28.779"	"27.687"	"26.802"	"21.603"	"17.18"
