
"Year"	"Jan"	"Feb"	"Mar"	"Apr"	"May"	"Jun"	"Jul"	"Aug"	"Sep"	"Oct"	"Nov"	"Dec"
"1901"	"0"	"0"	"0"	"0"	"6.447"	"21.168"	"69.064"	"56.022"	"25.994"	"1.636"	"0.173"	"0.374"
"1902"	"0"	"0"	"0"	"0"	"1.673"	"9.121"	"131.853"	"120.061"	"172.404"	"5.522"	"0.173"	"1.342"
"1903"	"0.016"	"0"	"1.135"	"0"	"2.37"	"7.499"	"285.8"	"115.361"	"67.678"	"1.199"	"0.173"	"0"
"1904"	"0.18"	"8.638"	"18.02"	"0"	"0.008"	"13.547"	"139.115"	"1.945"	"7.329"	"0.637"	"0.853"	"0"
"1905"	"0.157"	"1.283"	"0.198"	"0.051"	"0.008"	"9.159"	"193.707"	"18.476"	"5.402"	"0.29"	"0.173"	"0.034"
"1906"	"1.447"	"13.58"	"0.491"	"0"	"0.008"	"88.654"	"184.286"	"152.442"	"58.276"	"24.082"	"0.173"	"2.409"
"1907"	"0"	"5.574"	"0"	"3.511"	"0.008"	"47.028"	"143.815"	"138.414"	"2.531"	"0.177"	"0.173"	"0"
"1908"	"4.377"	"0"	"0"	"0"	"0.008"	"42.478"	"214.89"	"91.28"	"6.41"	"0.264"	"0.173"	"0"
"1909"	"0"	"5.228"	"0"	"6.493"	"0.201"	"170.482"	"263.545"	"24.903"	"163.421"	"4.275"	"0.173"	"19.237"
"1910"	"0.127"	"0"	"0"	"0.492"	"0.008"	"205.489"	"145.199"	"193.919"	"28.296"	"0.177"	"0.173"	"0"
"1911"	"0.178"	"0"	"12.765"	"0"	"1.636"	"40.185"	"8.771"	"21.07"	"31.464"	"1.895"	"0.185"	"1.637"
"1912"	"0.001"	"0"	"0.191"	"4.089"	"0.008"	"128.474"	"339.848"	"87.214"	"33.485"	"2.28"	"3.28"	"0"
"1913"	"0"	"0"	"0"	"0"	"0.008"	"169.012"	"252.567"	"61.791"	"55.933"	"0.716"	"0.173"	"0"
"1914"	"0"	"1.802"	"0.191"	"0"	"3.888"	"190.926"	"127.951"	"54.036"	"201.016"	"1.277"	"3.716"	"0"
"1915"	"2.341"	"0"	"0.407"	"3.799"	"4.086"	"37.207"	"117.206"	"9.801"	"41.922"	"28.077"	"0.173"	"2.834"
"1916"	"0"	"0"	"0"	"0"	"0.008"	"46.947"	"131.6"	"153.525"	"97.31"	"66.63"	"0.173"	"0"
"1917"	"0.029"	"0.545"	"0"	"3.42"	"22.653"	"93.817"	"138.514"	"193.522"	"81.01"	"166.96"	"0.173"	"0.195"
"1918"	"0"	"0"	"0.076"	"0"	"9.058"	"5.923"	"60.846"	"15.075"	"22.31"	"0.177"	"0.173"	"0"
"1919"	"0.717"	"0"	"0"	"0.024"	"1.204"	"25.664"	"227.709"	"142.305"	"26.658"	"0.177"	"31.856"	"0"
"1920"	"1.014"	"2.714"	"0.781"	"0"	"26.594"	"228.467"	"138.557"	"29.89"	"25.407"	"0.177"	"0.173"	"0"
"1921"	"0"	"0"	"0"	"0"	"0.008"	"43.946"	"226.793"	"37.56"	"174.015"	"2.182"	"0.173"	"0"
"1922"	"0"	"0"	"0"	"0.008"	"0.008"	"14.476"	"115.464"	"29.351"	"96.002"	"23.501"	"0.173"	"6.889"
"1923"	"0"	"12.222"	"0"	"7.21"	"0.008"	"0.914"	"64.45"	"56.998"	"30.988"	"0.839"	"0.173"	"0"
"1924"	"0"	"0.004"	"0"	"0"	"2.618"	"111.042"	"94.098"	"79.313"	"43.194"	"0.643"	"0.173"	"0.012"
"1925"	"0"	"0"	"0"	"0"	"25.955"	"220.327"	"54.309"	"19.011"	"20.896"	"0.256"	"8.743"	"0"
"1926"	"0.945"	"0"	"0"	"0.087"	"17.776"	"66.434"	"193.055"	"154.621"	"201.245"	"0.506"	"0.173"	"0"
"1927"	"0"	"2.746"	"0"	"0"	"0.186"	"85.484"	"370.366"	"32.695"	"72.711"	"12.76"	"0.185"	"11.321"
"1928"	"0"	"0"	"0"	"0.087"	"0.008"	"1.02"	"290.484"	"93.191"	"58.609"	"34.5"	"5.641"	"0"
"1929"	"1.832"	"0"	"0"	"0.077"	"0.042"	"68.425"	"278.99"	"32.783"	"10.988"	"13.606"	"0.353"	"3.235"
"1930"	"1.373"	"0.444"	"0"	"0"	"0.008"	"124.358"	"313.433"	"44.247"	"21.025"	"5.072"	"0.173"	"0.551"
"1931"	"0"	"0.701"	"0"	"0"	"13.955"	"23.857"	"148.12"	"86.996"	"13.759"	"42.537"	"0.842"	"0"
"1932"	"0"	"0"	"0"	"0"	"0.274"	"5.534"	"361.163"	"17.367"	"4.587"	"32.938"	"0.173"	"0"
"1933"	"0"	"4.766"	"0.002"	"0"	"45.021"	"101.135"	"225.585"	"168.145"	"118.954"	"2.912"	"0.173"	"0.262"
"1934"	"0"	"0"	"0.332"	"0.016"	"0.008"	"167.584"	"103.381"	"58.198"	"28.568"	"0.477"	"0.173"	"0"
"1935"	"4.731"	"0"	"0"	"1.041"	"0.008"	"97.599"	"409.27"	"53.559"	"20.011"	"2.891"	"0.173"	"0"
"1936"	"0"	"0.187"	"0"	"0"	"0.505"	"129.127"	"92.992"	"9.95"	"92.537"	"0.177"	"31.936"	"0.401"
"1937"	"0"	"3.093"	"0"	"0"	"0.008"	"137.711"	"298.625"	"5.303"	"96.523"	"5.523"	"0.173"	"3.707"
"1938"	"0"	"0"	"0"	"0"	"25.233"	"164.677"	"124.116"	"37.355"	"3.415"	"11.624"	"0.173"	"0.13"
"1939"	"0"	"0.218"	"7.106"	"0"	"0.008"	"7.832"	"29.606"	"28.57"	"5.105"	"7.842"	"0.413"	"0"
"1940"	"1.457"	"0.014"	"3.709"	"0.039"	"0.101"	"114.497"	"68.908"	"79.111"	"10.845"	"0.261"	"41.534"	"0"
"1941"	"0.001"	"0.092"	"0"	"0"	"0.008"	"6.998"	"296.307"	"4.676"	"4.201"	"4.598"	"0.173"	"5.368"
"1942"	"0.078"	"3.408"	"0"	"0"	"1.511"	"5.63"	"122.864"	"122.761"	"15.497"	"0.177"	"0.173"	"0"
"1943"	"0.002"	"0.002"	"0"	"0.008"	"4.536"	"131.79"	"419.519"	"9.883"	"92.154"	"5.898"	"2.069"	"0"
"1944"	"0.006"	"0"	"0.09"	"0"	"9.787"	"72.552"	"302.409"	"119.567"	"3.577"	"0.177"	"0.173"	"0.29"
"1945"	"2.341"	"0"	"0.513"	"4.089"	"0.008"	"169.7"	"303.768"	"70.169"	"91.837"	"0.842"	"0.173"	"0"
"1946"	"0"	"0.004"	"0"	"0"	"0.211"	"150.32"	"138.64"	"83.16"	"11.862"	"0.177"	"14.56"	"2.037"
"1947"	"0"	"0"	"0"	"0.02"	"0.008"	"0.914"	"57.064"	"166.009"	"169.857"	"0.177"	"0.173"	"0"
"1948"	"1.437"	"0"	"0"	"0"	"0.008"	"22.123"	"18.198"	"57.424"	"112.411"	"50.814"	"9.953"	"3.125"
"1949"	"0"	"0"	"0"	"0"	"0.008"	"18.595"	"231.52"	"163.516"	"42.464"	"2.964"	"0.173"	"0"
"1950"	"0.005"	"0"	"0"	"0"	"0.008"	"1.329"	"362.723"	"17.512"	"27.683"	"0.177"	"0.173"	"0"
"1951"	"0"	"0"	"1.635"	"1.19"	"0.322"	"110.829"	"114.492"	"97.149"	"5.777"	"0.621"	"3.398"	"0"
"1952"	"0"	"0.007"	"0"	"0"	"0.008"	"72.966"	"315.626"	"17.253"	"8.129"	"5.05"	"0.657"	"0"
"1953"	"1.919"	"0"	"0"	"0"	"0.008"	"72.164"	"129.054"	"340.172"	"86.186"	"0.177"	"0.173"	"0"
"1954"	"0.733"	"1.445"	"4.923"	"0"	"0.008"	"63.279"	"175.433"	"170.873"	"121.614"	"0.177"	"0.207"	"1.121"
"1955"	"0"	"0"	"0.006"	"0"	"0.583"	"13.57"	"28.934"	"107.117"	"160.099"	"12.233"	"0.173"	"4.06"
"1956"	"0.578"	"0"	"0"	"0.114"	"1.429"	"102.737"	"409.867"	"155.501"	"101.511"	"95.461"	"1.149"	"0.377"
"1957"	"2.54"	"0"	"0"	"4.857"	"3.335"	"73.867"	"198.088"	"61.963"	"12.306"	"9.562"	"36.437"	"0.106"
"1958"	"0.665"	"0"	"0"	"5.32"	"0.008"	"34.164"	"242.146"	"74.422"	"229.774"	"61.388"	"20.517"	"1.996"
"1959"	"0.004"	"0"	"0"	"3.025"	"1.676"	"77.839"	"473.641"	"62.133"	"173.316"	"89.649"	"3.933"	"0"
"1960"	"0"	"0"	"2.775"	"0"	"1.768"	"176.048"	"171.692"	"22.573"	"20.949"	"0.177"	"0.173"	"0"
"1961"	"0.527"	"5.635"	"0"	"0"	"0.008"	"138.684"	"366.683"	"103.374"	"155.303"	"20.64"	"0.173"	"0"
"1962"	"0"	"0"	"3.082"	"0"	"0.604"	"5.59"	"208.314"	"105.777"	"89.997"	"0.177"	"34.952"	"0.401"
"1963"	"0"	"0"	"0"	"0"	"0.469"	"27.879"	"88.476"	"100.355"	"29.512"	"52.06"	"37.856"	"0"
"1964"	"0.001"	"0"	"0"	"0"	"3.329"	"106.06"	"197.311"	"152.915"	"75.535"	"0.177"	"0.173"	"0"
"1965"	"4.442"	"0"	"0"	"1.388"	"0.808"	"0.914"	"207.904"	"101.21"	"20.192"	"0.274"	"5.532"	"0"
"1966"	"0.092"	"0"	"0"	"0"	"0.008"	"80.361"	"157.799"	"5.055"	"53.469"	"0.642"	"0.173"	"0"
"1967"	"0"	"0"	"15.931"	"0.363"	"0.008"	"92.819"	"320.761"	"50.426"	"11.133"	"0.259"	"0.173"	"15.809"
"1968"	"0.721"	"0.336"	"0.002"	"0"	"0.008"	"8.653"	"97.545"	"206.595"	"29.498"	"13.083"	"0.173"	"0"
"1969"	"0"	"0.106"	"0"	"0"	"0.008"	"32.371"	"239.045"	"22.787"	"4.054"	"0.177"	"11.178"	"0.194"
"1970"	"0.157"	"0.083"	"0"	"0.023"	"28.108"	"123.653"	"156.572"	"290.874"	"181.932"	"23.978"	"0.173"	"0"
"1971"	"0"	"0"	"0"	"0"	"5.369"	"115.407"	"134.957"	"75.069"	"53.901"	"0.983"	"0.173"	"0"
"1972"	"0"	"7.052"	"0"	"0"	"1.195"	"99.776"	"135.511"	"12.837"	"0.622"	"0.177"	"0.173"	"0"
"1973"	"0.161"	"0.019"	"0"	"0"	"0.434"	"56.977"	"185.698"	"45.651"	"24.853"	"0.728"	"0.173"	"0"
"1974"	"0"	"0"	"0"	"0.492"	"7.19"	"24.133"	"25.462"	"36.223"	"30.373"	"46.171"	"0.173"	"4.039"
"1975"	"0.004"	"0"	"0"	"0"	"1.167"	"102.327"	"56.981"	"126.271"	"93.362"	"119.602"	"0.173"	"0"
"1976"	"0.135"	"0.001"	"0.004"	"0"	"0.008"	"60.139"	"128.102"	"144.486"	"92.687"	"2.985"	"45.837"	"0"
"1977"	"0.325"	"0"	"0"	"0"	"5.954"	"117.178"	"245.711"	"116.338"	"117.986"	"1.811"	"8.574"	"0"
"1978"	"0"	"0.106"	"0"	"3.767"	"0.008"	"288.843"	"100.166"	"101.131"	"7.947"	"13.091"	"14.74"	"0.222"
"1979"	"0"	"2.051"	"0"	"0.129"	"0.053"	"218.129"	"36.557"	"319.702"	"37.83"	"19.316"	"77.708"	"0"
"1980"	"1.08"	"0.313"	"0"	"0"	"0.053"	"364.766"	"310.575"	"53.88"	"18.792"	"2.166"	"3.87"	"11.131"
"1981"	"0.279"	"0"	"1.032"	"0.129"	"1.056"	"47.593"	"207.82"	"139.281"	"81.473"	"30.645"	"66.571"	"0"
"1982"	"0"	"0"	"0.001"	"0.024"	"41.245"	"1.873"	"141.148"	"95.661"	"34.071"	"2.428"	"56.983"	"0"
"1983"	"0.002"	"1.026"	"0"	"1.681"	"0.008"	"191.999"	"219.216"	"145.304"	"26.16"	"16.049"	"0.173"	"0"
"1984"	"0"	"0"	"0"	"0"	"0.008"	"50.283"	"67.26"	"98.111"	"179.488"	"0.177"	"0.173"	"0"
"1985"	"0"	"0"	"0"	"0.052"	"54.153"	"14.31"	"49.447"	"172.902"	"52.717"	"43.241"	"0.173"	"0"
"1986"	"0"	"0.052"	"0.34"	"0"	"0.727"	"188.925"	"10.711"	"54.141"	"2.215"	"0.177"	"0.173"	"1.77"
"1987"	"0"	"0.28"	"0"	"0"	"0.28"	"12.038"	"9.158"	"24.404"	"3.004"	"0.177"	"0.173"	"1.544"
"1988"	"0"	"0"	"0"	"0.733"	"0.008"	"13.548"	"373.267"	"69.676"	"99.472"	"0.411"	"0.173"	"0"
"1989"	"2.397"	"0"	"0"	"0"	"0.008"	"198.562"	"176.18"	"45.147"	"5.855"	"0.177"	"0.173"	"0"
"1990"	"0"	"1.639"	"0.001"	"0"	"12.237"	"15.927"	"30.02"	"150.134"	"62.672"	"7.011"	"0.173"	"3.616"
"1991"	"0"	"0.541"	"0"	"0"	"0.008"	"3.653"	"122.273"	"39.602"	"2.606"	"0.181"	"0.173"	"8.893"
"1992"	"0.741"	"0.004"	"0"	"0"	"0.008"	"9.62"	"467.424"	"65.352"	"56.512"	"8.888"	"0.701"	"0"
"1993"	"0.125"	"6.377"	"0"	"0"	"2.06"	"8.749"	"167.73"	"5.637"	"19.72"	"12.339"	"23.689"	"0"
"1994"	"1.579"	"0"	"0.779"	"0"	"0.008"	"30.437"	"173.631"	"63.744"	"281.337"	"0.177"	"0.173"	"0"
"1995"	"0.127"	"0"	"0"	"0.129"	"0.008"	"3.645"	"167.832"	"13.98"	"11.007"	"2.806"	"2.593"	"0.322"
"1996"	"0.165"	"0"	"0.001"	"0"	"0.292"	"103.058"	"216.235"	"28.852"	"16.19"	"28.247"	"0.173"	"0"
"1997"	"0.808"	"0"	"1.606"	"0.621"	"1.336"	"131.28"	"290.269"	"86.218"	"291.01"	"2.953"	"0.701"	"0"
"1998"	"0"	"1.118"	"4.389"	"0"	"0.008"	"165.347"	"467.843"	"78.737"	"28.169"	"161.067"	"0.173"	"0"
"1999"	"0"	"0.395"	"0"	"0"	"8.409"	"178.204"	"67.063"	"18.804"	"20.983"	"90.872"	"0.173"	"0"
"2000"	"0"	"0"	"0"	"0"	"5.469"	"10.964"	"391.218"	"99.939"	"1.754"	"2.407"	"0.173"	"0"
"2001"	"0"	"0"	"0"	"0"	"65.767"	"222.151"	"336.296"	"33.021"	"1.822"	"20.798"	"0.175"	"0"
"2002"	"0"	"0"	"0"	"0"	"0.008"	"92.5"	"10.176"	"97.151"	"5.399"	"0.177"	"0.175"	"5.316"
