
"Year"	"Jan"	"Feb"	"Mar"	"Apr"	"May"	"Jun"	"Jul"	"Aug"	"Sep"	"Oct"	"Nov"	"Dec"
"1901"	"15.188"	"18.723"	"23.954"	"30.518"	"33.192"	"34.756"	"30.556"	"29.09"	"28.517"	"27.086"	"21.218"	"16.457"
"1902"	"17.22"	"19.157"	"26.456"	"29.993"	"33.896"	"34.527"	"29.959"	"29.954"	"28.785"	"26.092"	"20.719"	"15.921"
"1903"	"16.721"	"18.354"	"24.324"	"30.89"	"34.251"	"33.657"	"31.19"	"29.655"	"29.356"	"26.39"	"20.219"	"15.657"
"1904"	"16.359"	"18.754"	"24.858"	"31.688"	"32.725"	"32.118"	"28.988"	"28.788"	"28.785"	"26.255"	"20.32"	"17.026"
"1905"	"15.322"	"15.293"	"22.657"	"27.691"	"32.699"	"35.826"	"29.79"	"29.055"	"28.588"	"26.121"	"21.084"	"16.524"
"1906"	"15.922"	"18.755"	"22.959"	"30.921"	"34.725"	"33.623"	"30.153"	"29.091"	"29.285"	"26.356"	"21.453"	"17.026"
"1907"	"17.219"	"18.091"	"22.392"	"27.992"	"32.52"	"32.95"	"30.792"	"29.386"	"29.253"	"26.758"	"20.985"	"15.854"
"1908"	"14.623"	"19.023"	"24.488"	"32.656"	"34.457"	"34.26"	"30.122"	"29.751"	"29.419"	"26.387"	"20.42"	"15.623"
"1909"	"17.691"	"18.787"	"25.052"	"28.556"	"34.025"	"31.215"	"29.585"	"29.056"	"29.15"	"26.221"	"21.319"	"17.221"
"1910"	"15.72"	"18.856"	"24.923"	"30.955"	"33.657"	"32.153"	"29.757"	"29.287"	"29.188"	"26.293"	"20.488"	"16.121"
"1911"	"18.456"	"18.257"	"23.323"	"30.391"	"34.759"	"31.682"	"31.39"	"28.727"	"28.588"	"26.356"	"20.725"	"15.687"
"1912"	"16.617"	"20.023"	"24.589"	"29.694"	"33.292"	"34.157"	"30.024"	"29.188"	"28.783"	"26.39"	"20.289"	"15.822"
"1913"	"16.156"	"18.859"	"22.721"	"31.456"	"32.225"	"30.319"	"29.887"	"28.957"	"29.082"	"25.891"	"19.989"	"16.091"
"1914"	"16.789"	"19.626"	"23.757"	"28.891"	"32.29"	"32.425"	"29.76"	"29.254"	"28.785"	"25.29"	"21.62"	"16.986"
"1915"	"17.021"	"19.053"	"23.993"	"30.525"	"34.399"	"33.426"	"31.054"	"29.689"	"29.051"	"27.886"	"22.719"	"16.424"
"1916"	"15.555"	"19.259"	"26.357"	"31.494"	"35.386"	"31.215"	"29.891"	"29.023"	"29.051"	"26.793"	"21.288"	"15.355"
"1917"	"16.085"	"18.857"	"23.689"	"28.857"	"30.558"	"31.785"	"29.788"	"28.99"	"28.651"	"26.398"	"20.452"	"16.386"
"1918"	"15.156"	"18.859"	"25.055"	"29.423"	"33.393"	"30.616"	"31.353"	"28.358"	"29.082"	"26.053"	"20.652"	"15.723"
"1919"	"18.215"	"18.154"	"25.155"	"29.49"	"32.955"	"32.25"	"29.518"	"29.125"	"28.686"	"25.987"	"21.223"	"16.223"
"1920"	"16.253"	"18.957"	"24.261"	"30.588"	"32.318"	"34.356"	"29.753"	"29.188"	"28.919"	"26.79"	"21.488"	"16.558"
"1921"	"17.121"	"18.591"	"26.456"	"31.859"	"36.193"	"33.184"	"30.391"	"28.522"	"28.584"	"25.49"	"19.886"	"16.531"
"1922"	"16.387"	"19.66"	"25.554"	"30.85"	"35.02"	"31.116"	"29.251"	"28.423"	"28.081"	"24.854"	"20.386"	"15.957"
"1923"	"16.218"	"18.591"	"24.086"	"31.291"	"34.492"	"35.092"	"29.786"	"29.087"	"29.085"	"25.521"	"20.719"	"17.224"
"1924"	"16.156"	"19.193"	"26.356"	"31.589"	"33.855"	"35.521"	"29.518"	"29.188"	"28.388"	"26.39"	"20.887"	"16.721"
"1925"	"15.02"	"17.658"	"24.323"	"30.393"	"32.923"	"32.183"	"29.02"	"29.19"	"28.988"	"26.123"	"20.888"	"16.123"
"1926"	"16.319"	"19.561"	"23.624"	"28.052"	"32.42"	"35.949"	"30.359"	"29.19"	"28.62"	"25.823"	"19.385"	"16.389"
"1927"	"15.952"	"18.955"	"22.923"	"30.352"	"32.591"	"34.122"	"30.156"	"28.89"	"29.453"	"26.459"	"21.118"	"17.289"
"1928"	"16.324"	"19.094"	"25.49"	"29.755"	"33.89"	"31.95"	"29.522"	"29.589"	"29.883"	"27.258"	"21.354"	"17.385"
"1929"	"16.422"	"18.058"	"25.291"	"30.626"	"34.923"	"33.917"	"29.587"	"28.585"	"29.353"	"25.59"	"20.788"	"16.222"
"1930"	"15.687"	"18.457"	"25.223"	"30.023"	"33.254"	"33.623"	"29.419"	"28.988"	"29.253"	"26.858"	"20.791"	"16.188"
"1931"	"17.85"	"18.757"	"24.222"	"31.355"	"34.024"	"34.452"	"29.891"	"29.589"	"29.287"	"26.788"	"20.988"	"17.223"
"1932"	"17.687"	"18.457"	"25.121"	"30.289"	"33.752"	"34.69"	"30.322"	"29.222"	"29.419"	"26.824"	"21.387"	"16.421"
"1933"	"15.12"	"19.758"	"25.026"	"28.387"	"32.25"	"32.084"	"29.653"	"28.759"	"29.051"	"26.193"	"20.719"	"16.621"
"1934"	"15.924"	"18.858"	"24.424"	"30.791"	"34.022"	"32.926"	"29.822"	"29.287"	"29.251"	"25.789"	"20.691"	"17.154"
"1935"	"15.518"	"19.457"	"24.856"	"28.454"	"34.225"	"34.087"	"30.385"	"28.653"	"28.785"	"26.023"	"21.019"	"17.15"
"1936"	"15.521"	"18.988"	"25.224"	"29.686"	"33.657"	"31.313"	"29.519"	"29.186"	"28.684"	"25.322"	"21.52"	"17.026"
"1937"	"14.62"	"19.524"	"23.522"	"29.251"	"32.989"	"33.852"	"30.222"	"28.721"	"29.22"	"25.59"	"20.923"	"15.653"
"1938"	"17.151"	"17.655"	"26.224"	"31.186"	"33.192"	"31.516"	"29.888"	"28.953"	"29.382"	"26.79"	"20.486"	"16.055"
"1939"	"17.023"	"19.955"	"23.621"	"30.25"	"34.593"	"32.888"	"29.719"	"28.785"	"28.72"	"26.39"	"20.916"	"16.655"
"1940"	"15.654"	"19.089"	"23.026"	"29.322"	"33.756"	"33.856"	"29.719"	"29.09"	"28.785"	"26.822"	"22.085"	"17.021"
"1941"	"16.784"	"19.325"	"26.522"	"32.256"	"33.794"	"32.584"	"30.652"	"29.151"	"29.153"	"26.324"	"21.119"	"17.519"
"1942"	"16.115"	"18.89"	"25.022"	"30.221"	"35.187"	"34.555"	"30.118"	"28.953"	"28.017"	"26.055"	"22.221"	"16.923"
"1943"	"18.486"	"17.961"	"25.224"	"28.657"	"34.355"	"33.72"	"29.855"	"28.419"	"29.054"	"26.726"	"21.289"	"17.494"
"1944"	"16.353"	"19.052"	"23.554"	"28.156"	"34.987"	"33.588"	"29.886"	"28.953"	"30.15"	"25.49"	"21.156"	"18.155"
"1945"	"15.583"	"17.76"	"25.022"	"28.691"	"33.192"	"34.253"	"30.883"	"30.022"	"28.791"	"25.191"	"20.488"	"15.326"
"1946"	"16.362"	"20.462"	"24.52"	"28.893"	"32.561"	"32.782"	"29.518"	"29.321"	"28.756"	"26.059"	"21.056"	"18.256"
"1947"	"16.254"	"19.094"	"25.621"	"31.455"	"33.793"	"34.618"	"29.989"	"29.488"	"29.088"	"26.19"	"21.39"	"17.358"
"1948"	"17.52"	"19.59"	"24.555"	"31.359"	"34.36"	"34.886"	"29.488"	"29.188"	"28.65"	"26.023"	"21.622"	"16.424"
"1949"	"17.057"	"18.823"	"24.492"	"29.462"	"32.227"	"33.588"	"29.856"	"28.957"	"28.79"	"26.89"	"19.855"	"15.544"
"1950"	"16.715"	"18.686"	"23.82"	"29.786"	"34.025"	"32.418"	"29.918"	"28.791"	"28.653"	"25.986"	"20.054"	"16.782"
"1951"	"15.585"	"18.926"	"24.89"	"29.684"	"34.154"	"33.961"	"29.922"	"29.727"	"29.187"	"28.253"	"21.99"	"16.727"
"1952"	"17.491"	"21.064"	"23.99"	"30.824"	"34.261"	"33.387"	"30.321"	"29.157"	"28.619"	"26.591"	"21.087"	"16.921"
"1953"	"16.325"	"20.726"	"27.59"	"30.858"	"34.591"	"33.974"	"29.454"	"29.224"	"28.586"	"26.088"	"20.685"	"18.333"
"1954"	"15.521"	"21.158"	"24.627"	"32.187"	"34.559"	"33.452"	"30.354"	"29.422"	"29.085"	"24.924"	"19.559"	"16.695"
"1955"	"16.691"	"19.03"	"26.623"	"29.689"	"34.524"	"33.656"	"28.987"	"28.86"	"28.651"	"26.089"	"21.085"	"16.823"
"1956"	"16.621"	"19.065"	"25.726"	"31.79"	"34.557"	"30.787"	"29.918"	"28.762"	"27.885"	"25.822"	"20.086"	"18.086"
"1957"	"17.475"	"18.553"	"24.058"	"30.786"	"35.387"	"34.552"	"30.021"	"29.593"	"29.315"	"27.119"	"21.453"	"18.217"
"1958"	"18.182"	"20.386"	"26.324"	"31.923"	"35.32"	"35.853"	"30.856"	"29.084"	"28.79"	"26.823"	"22.42"	"18.184"
"1959"	"17.236"	"18.878"	"25.091"	"31.192"	"34.227"	"33.955"	"30.421"	"29.287"	"28.553"	"26.06"	"21.19"	"17.023"
"1960"	"17"	"20.842"	"23.993"	"31.454"	"34.321"	"34.755"	"29.785"	"29.69"	"28.919"	"26.723"	"20.62"	"17.714"
"1961"	"17.355"	"18.32"	"25.36"	"30.626"	"34.524"	"32.089"	"29.687"	"29.384"	"28.785"	"26.287"	"20.223"	"13.955"
"1962"	"14.755"	"19.094"	"23.695"	"30.098"	"33.063"	"33.43"	"30.755"	"28.788"	"28.42"	"25.093"	"21.286"	"17.226"
"1963"	"15.055"	"20.557"	"24.361"	"30.023"	"32.491"	"32.587"	"29.687"	"29.29"	"28.288"	"26.79"	"21.799"	"18.189"
"1964"	"16.319"	"18.826"	"25.86"	"31.158"	"32.489"	"32.895"	"27.992"	"29.287"	"28.785"	"26.986"	"20.954"	"17.36"
"1965"	"17.157"	"19.561"	"23.462"	"28.397"	"32.398"	"34.659"	"30.221"	"29.192"	"28.087"	"26.464"	"22.088"	"16.092"
"1966"	"16.363"	"20.765"	"25.158"	"31.592"	"34.397"	"33.819"	"31.021"	"28.956"	"29.09"	"26.724"	"23.514"	"17.018"
"1967"	"17.051"	"20.958"	"23.987"	"29.222"	"33.525"	"34.986"	"30.651"	"28.819"	"28.621"	"25.46"	"20.628"	"18.258"
"1968"	"16.354"	"18.59"	"24.458"	"29.724"	"33.364"	"32.184"	"29.589"	"28.824"	"29.524"	"25.889"	"21.323"	"16.599"
"1969"	"16.124"	"20.527"	"26.528"	"31.157"	"32.989"	"33.824"	"30.186"	"28.754"	"28.288"	"26.792"	"22.753"	"17.455"
"1970"	"17.354"	"18.892"	"24.458"	"31.492"	"33.858"	"31.722"	"29.524"	"29.089"	"28.42"	"26.388"	"20.721"	"16.225"
"1971"	"15.823"	"17.663"	"23.722"	"28.39"	"30.787"	"30.156"	"28.486"	"27.756"	"28.287"	"26.09"	"20.553"	"16.723"
"1972"	"15.755"	"16.86"	"24.523"	"29.957"	"34.16"	"34.489"	"30.193"	"29.255"	"27.818"	"25.324"	"21.383"	"16.757"
"1973"	"16.388"	"20.128"	"23.59"	"31.225"	"33.69"	"32.39"	"30.023"	"29.288"	"28.486"	"26.322"	"21.02"	"17.023"
"1974"	"15.683"	"18.454"	"24.791"	"31.025"	"33.157"	"33.883"	"29.588"	"29.088"	"28.986"	"27.424"	"20.888"	"15.157"
"1975"	"15.555"	"19.258"	"24.359"	"30.758"	"34.024"	"32.856"	"29.182"	"28.986"	"28.385"	"27.19"	"20.918"	"16.358"
"1976"	"16.325"	"20.156"	"24.958"	"29.788"	"32.862"	"33.256"	"29.891"	"28.788"	"28.286"	"26.689"	"22.889"	"17.289"
"1977"	"16.122"	"19.628"	"26.224"	"30.223"	"31.022"	"32.256"	"29.22"	"29.286"	"29.083"	"26.092"	"22.989"	"16.629"
"1978"	"15.421"	"18.756"	"22.853"	"29.523"	"33.927"	"32.487"	"29.422"	"29.285"	"28.751"	"26.255"	"22.555"	"16.955"
"1979"	"17.223"	"17.19"	"23.99"	"30.289"	"34.154"	"33.422"	"30.552"	"30.522"	"28.453"	"27.422"	"23.992"	"18.456"
"1980"	"16.89"	"19.928"	"24.159"	"31.956"	"33.824"	"32.152"	"29.786"	"28.788"	"28.619"	"26.396"	"22.155"	"17.523"
"1981"	"15.922"	"19.262"	"24.29"	"29.488"	"32.454"	"33.582"	"29.586"	"29.489"	"29.45"	"26.324"	"21.022"	"16.624"
"1982"	"18.088"	"19.153"	"23.615"	"30.118"	"32.993"	"32.585"	"31.854"	"29.551"	"29.318"	"26.396"	"21.98"	"16.762"
"1983"	"15.556"	"19.618"	"24.822"	"29.351"	"32.385"	"33.923"	"30.583"	"30.054"	"30.011"	"26.224"	"20.854"	"17.552"
"1984"	"16.585"	"18.355"	"25.385"	"31.255"	"34.326"	"31.288"	"29.222"	"28.625"	"28.486"	"27.086"	"20.388"	"17.426"
"1985"	"17.587"	"19.126"	"26.854"	"31.192"	"34.056"	"34.054"	"29.186"	"29.288"	"29.117"	"26.087"	"21.523"	"18.424"
"1986"	"16.388"	"18.894"	"24.388"	"30.523"	"32.217"	"32.886"	"29.217"	"28.588"	"28.088"	"25.527"	"22.785"	"17.027"
"1987"	"15.956"	"20.588"	"24.521"	"30.322"	"32.823"	"34.792"	"29.956"	"28.724"	"28.985"	"26.196"	"21.625"	"17.624"
"1988"	"17.19"	"20.158"	"24.627"	"30.756"	"34.158"	"31.724"	"29.883"	"29.289"	"30.186"	"26.991"	"21.593"	"18.492"
"1989"	"15.459"	"18.93"	"25.218"	"30.657"	"34.254"	"31.852"	"29.685"	"28.728"	"29.482"	"27.021"	"21.988"	"16.792"
"1990"	"16.994"	"19.726"	"23.523"	"30.72"	"31.729"	"32.95"	"28.852"	"29.058"	"29.417"	"25.89"	"22.352"	"17.758"
"1991"	"16.324"	"20.396"	"24.658"	"29.626"	"33.997"	"31.49"	"30.356"	"28.357"	"28.785"	"26.259"	"20.599"	"16.723"
"1992"	"15.39"	"17.262"	"25.722"	"30.724"	"32.225"	"32.817"	"30.985"	"29.088"	"29.281"	"27.087"	"22.556"	"17.423"
"1993"	"17.65"	"21.356"	"24.45"	"29.919"	"34.186"	"34.382"	"30.853"	"29.025"	"28.785"	"27.292"	"21.092"	"17.357"
"1994"	"17.824"	"19.124"	"25.892"	"29.592"	"33.8"	"33.253"	"29.455"	"28.722"	"28.985"	"27.085"	"22.385"	"17.49"
"1995"	"15.089"	"20.551"	"24.417"	"30.454"	"33.334"	"34.788"	"29.891"	"28.625"	"28.783"	"26.889"	"22.384"	"17.959"
"1996"	"17.089"	"18.695"	"26.086"	"29.028"	"34.257"	"31.789"	"29.688"	"28.19"	"29.484"	"26.756"	"22.38"	"17.352"
"1997"	"15.825"	"18.028"	"24.921"	"28.793"	"32.726"	"34.615"	"29.889"	"28.925"	"28.385"	"26.783"	"22.521"	"18.119"
"1998"	"16.417"	"19.796"	"22.424"	"28.964"	"32.632"	"35.415"	"29.258"	"29.425"	"29.285"	"28.951"	"22.787"	"18.456"
"1999"	"16.125"	"20.324"	"25.356"	"32.185"	"33.623"	"32.885"	"29.687"	"29.088"	"28.72"	"27.819"	"23.255"	"18.426"
"2000"	"16.886"	"18.89"	"24.194"	"31.423"	"33.391"	"32.153"	"30.651"	"29.39"	"28.353"	"28.219"	"24.019"	"17.787"
"2001"	"16.459"	"19.261"	"24.791"	"30.555"	"34.125"	"31.189"	"29.057"	"29.587"	"29.65"	"28.617"	"24.191"	"19.289"
"2002"	"16.422"	"20.357"	"25.821"	"30.659"	"34.527"	"34.018"	"31.255"	"29.054"	"28.785"	"26.79"	"22.287"	"18.491"
