
"Year"	"Jan"	"Feb"	"Mar"	"Apr"	"May"	"Jun"	"Jul"	"Aug"	"Sep"	"Oct"	"Nov"	"Dec"
"1901"	"14.394"	"15.824"	"21.836"	"24.966"	"26.84"	"27.268"	"25.703"	"24.235"	"23.891"	"23.333"	"20.663"	"17.483"
"1902"	"16.212"	"17.79"	"22.463"	"25.804"	"26.891"	"26.373"	"25.923"	"24.827"	"24.279"	"24.424"	"20.867"	"16.659"
"1903"	"14.983"	"16.749"	"19.954"	"23.43"	"26.797"	"27.183"	"25.677"	"24.632"	"24.779"	"23.848"	"19.032"	"15.932"
"1904"	"15.353"	"17.817"	"20.612"	"25.098"	"26.725"	"26.684"	"24.814"	"24.266"	"24.214"	"23.823"	"20.478"	"16.812"
"1905"	"14.363"	"14.849"	"19.385"	"23.387"	"27.109"	"26.7"	"25.432"	"24.736"	"24.883"	"23.974"	"21.243"	"16.848"
"1906"	"14.671"	"16.062"	"19.895"	"23.878"	"26.839"	"26.457"	"25.49"	"24.172"	"24.16"	"23.856"	"20.772"	"17.309"
"1907"	"16.762"	"17.077"	"21.133"	"24.606"	"26.122"	"26.3"	"26.267"	"23.708"	"23.792"	"22.778"	"20.836"	"16.003"
"1908"	"15.502"	"17.19"	"20.313"	"24.742"	"26.445"	"26.893"	"24.494"	"23.572"	"23.746"	"23.641"	"19.332"	"15.772"
"1909"	"14.662"	"17.091"	"21.37"	"24.224"	"26.183"	"26.651"	"24.516"	"23.436"	"23.4"	"23.005"	"20.036"	"15.743"
"1910"	"15.239"	"17.592"	"21.015"	"24.079"	"26.207"	"26.768"	"24.549"	"23.769"	"23.91"	"22.924"	"19.287"	"15.883"
"1911"	"15.323"	"17.238"	"19.736"	"23.775"	"26.629"	"26.051"	"25.046"	"23.839"	"23.744"	"22.858"	"18.911"	"16.629"
"1912"	"16.351"	"18.222"	"20.9"	"24.883"	"26.733"	"27.17"	"25.051"	"24.043"	"23.822"	"23.429"	"19.213"	"16.094"
"1913"	"15.758"	"17.021"	"19.323"	"24.633"	"26.407"	"26.778"	"24.904"	"23.696"	"23.379"	"23.493"	"19.738"	"15.991"
"1914"	"16.208"	"16.658"	"20.458"	"24.253"	"26.954"	"26.455"	"24.838"	"24.012"	"24.174"	"23.77"	"21.237"	"15.523"
"1915"	"14.991"	"16.364"	"21.466"	"23.938"	"26.584"	"26.986"	"25.7"	"24.511"	"24.422"	"24.304"	"20.326"	"16.683"
"1916"	"16.435"	"16.512"	"21.929"	"24.676"	"26.349"	"26.478"	"25.445"	"23.796"	"24.031"	"23.416"	"18.651"	"16.051"
"1917"	"16.221"	"17.841"	"21.033"	"23.876"	"25.886"	"26.344"	"24.751"	"23.609"	"23.25"	"22.844"	"19.286"	"15.633"
"1918"	"14.765"	"17.203"	"21.024"	"23.405"	"26.447"	"26.043"	"25.217"	"24.185"	"23.657"	"22.83"	"20.314"	"15.64"
"1919"	"14.982"	"17.15"	"20.838"	"24.033"	"26.545"	"26.528"	"24.849"	"23.577"	"23.522"	"23.424"	"20.067"	"15.958"
"1920"	"15.801"	"17.087"	"21.645"	"24.538"	"26.058"	"26.126"	"24.732"	"23.86"	"24.504"	"24.053"	"20.609"	"15.476"
"1921"	"15.668"	"17.298"	"22.144"	"25.364"	"26.731"	"27.259"	"25.608"	"24.02"	"23.771"	"23.277"	"20.337"	"17.158"
"1922"	"15.068"	"17.73"	"21.238"	"25.202"	"26.416"	"26.802"	"25.461"	"23.998"	"23.612"	"22.987"	"19.881"	"16.201"
"1923"	"15.528"	"16.853"	"21.609"	"24.629"	"26.039"	"26.623"	"25.146"	"23.692"	"24.18"	"22.578"	"18.877"	"15.83"
"1924"	"14.886"	"17.395"	"22.583"	"25.045"	"26.58"	"27.12"	"25.573"	"24.017"	"23.584"	"22.778"	"18.729"	"16.446"
"1925"	"14.313"	"15.869"	"21.813"	"25.794"	"26.944"	"26.457"	"24.684"	"24.297"	"23.942"	"24.243"	"20.066"	"16.788"
"1926"	"15.706"	"18.822"	"21.276"	"23.371"	"25.86"	"27.073"	"25.612"	"24.346"	"23.106"	"22.503"	"18.591"	"15.976"
"1927"	"13.92"	"16.41"	"20.323"	"23.664"	"26.043"	"26.712"	"24.541"	"23.403"	"23.993"	"23.374"	"19.245"	"16.69"
"1928"	"15.474"	"17.039"	"21.455"	"24.925"	"26.615"	"26.408"	"24.949"	"23.786"	"23.486"	"22.916"	"19.588"	"15.507"
"1929"	"14.688"	"16.679"	"22.101"	"25.176"	"26.98"	"26.823"	"25.087"	"23.497"	"23.485"	"23.366"	"21.004"	"15.028"
"1930"	"15.036"	"16.997"	"21.2"	"24.313"	"26.445"	"26.794"	"24.199"	"23.542"	"24.379"	"23.878"	"19.764"	"16.569"
"1931"	"15.891"	"15.831"	"20.791"	"25.242"	"26.871"	"27.445"	"25.854"	"24.673"	"24.074"	"22.873"	"20.413"	"17.1"
"1932"	"16.746"	"17.918"	"21.639"	"24.734"	"26.735"	"26.227"	"24.93"	"23.473"	"24.04"	"24.258"	"19.94"	"17.144"
"1933"	"15.144"	"17.799"	"21.139"	"24.474"	"26.281"	"26.623"	"24.89"	"23.497"	"23.908"	"23.873"	"20.445"	"16.944"
"1934"	"13.627"	"18.06"	"20.839"	"24.916"	"26.5"	"26.535"	"24.692"	"24.188"	"23.901"	"22.928"	"20.184"	"17.526"
"1935"	"14.037"	"17.346"	"21.262"	"23.92"	"26.211"	"27.053"	"24.645"	"23.469"	"23.508"	"23.144"	"20.426"	"16.905"
"1936"	"14.839"	"17.962"	"20.701"	"24.2"	"26.828"	"26.157"	"24.679"	"24.157"	"23.826"	"23.118"	"20.547"	"16.86"
"1937"	"15.348"	"17.956"	"20.728"	"23.899"	"26.173"	"26.763"	"24.496"	"23.906"	"23.773"	"23.182"	"20.083"	"15.683"
"1938"	"14.739"	"16.824"	"22.068"	"24.861"	"26.949"	"26.61"	"24.839"	"24.002"	"23.833"	"23.345"	"19.169"	"16.763"
"1939"	"15.933"	"17.747"	"20.203"	"23.577"	"26.108"	"26.482"	"24.927"	"24.284"	"24.017"	"23.372"	"20.789"	"17.875"
"1940"	"16.866"	"18.099"	"20.496"	"24.009"	"26.83"	"26.627"	"25.25"	"24.034"	"23.611"	"24.028"	"21.285"	"16.585"
"1941"	"15.3"	"18.828"	"22.411"	"25.424"	"26.919"	"27.09"	"24.437"	"24.343"	"24.211"	"24.65"	"20.67"	"17.435"
"1942"	"15.094"	"17.782"	"21.954"	"25.473"	"26.518"	"27.193"	"24.767"	"23.603"	"23.565"	"23.425"	"20.611"	"15.856"
"1943"	"14.84"	"17.896"	"22.006"	"24.654"	"27.294"	"26.457"	"24.763"	"23.355"	"23.131"	"23.685"	"20.757"	"17.669"
"1944"	"15.567"	"16.948"	"20.941"	"24.283"	"26.433"	"26.899"	"24.387"	"23.418"	"23.957"	"23.409"	"20.666"	"16.984"
"1945"	"14.069"	"17.28"	"21.549"	"24.038"	"26.263"	"26.83"	"24.307"	"24.055"	"23.767"	"23.057"	"19.989"	"15.635"
"1946"	"15.383"	"17.912"	"21.035"	"25.609"	"26.345"	"26.905"	"24.853"	"23.294"	"23.561"	"23.705"	"19.261"	"15.193"
"1947"	"15.239"	"17.589"	"21.506"	"24.953"	"26.856"	"26.996"	"25.284"	"24.432"	"23.345"	"22.414"	"20.362"	"16.684"
"1948"	"14.919"	"17.093"	"21.585"	"25.31"	"27.072"	"26.808"	"25.601"	"23.763"	"23.655"	"23.846"	"19.62"	"16.908"
"1949"	"16.1"	"17.668"	"21.769"	"25.531"	"27.052"	"26.913"	"25.109"	"23.902"	"23.874"	"22.891"	"19.045"	"16.328"
"1950"	"15.725"	"15.758"	"20.87"	"24.251"	"26.303"	"26.252"	"24.209"	"23.527"	"23.696"	"23.487"	"19.218"	"15.437"
"1951"	"14.374"	"17.066"	"21.475"	"23.635"	"26.31"	"26.989"	"25.731"	"24.054"	"24.295"	"24.555"	"21.02"	"16.939"
"1952"	"15.937"	"18.232"	"21.488"	"25.254"	"27.174"	"26.803"	"24.45"	"23.366"	"23.407"	"23.315"	"19.774"	"16.522"
"1953"	"15.24"	"18.974"	"22.916"	"24.441"	"26.144"	"26.591"	"25.118"	"23.585"	"23.75"	"23.629"	"20.095"	"18.141"
"1954"	"14.919"	"18.024"	"21.718"	"24.808"	"26.638"	"26.71"	"24.941"	"24.127"	"23.332"	"22.285"	"20.093"	"16.38"
"1955"	"15.331"	"17.949"	"22.467"	"23.76"	"26.265"	"26.418"	"25.008"	"23.582"	"23.457"	"23.141"	"19.356"	"16.653"
"1956"	"15.171"	"16.942"	"21.976"	"24.817"	"26.614"	"26.456"	"23.451"	"22.681"	"23.419"	"22.447"	"19.594"	"16.585"
"1957"	"15.07"	"16.28"	"20.384"	"23.366"	"25.736"	"26.601"	"25.255"	"24.288"	"23.682"	"23.337"	"21.226"	"16.986"
"1958"	"17.12"	"18.049"	"21.818"	"25.557"	"26.828"	"27.131"	"24.813"	"24.711"	"23.473"	"23.566"	"20.437"	"17.531"
"1959"	"15.356"	"17.669"	"22.371"	"25.472"	"27.205"	"26.747"	"24.161"	"23.598"	"23.054"	"23.656"	"19.766"	"16.533"
"1960"	"15.197"	"18.644"	"20.507"	"23.949"	"26.126"	"26.413"	"25.077"	"23.905"	"24.091"	"23.361"	"20.319"	"16.982"
"1961"	"15.542"	"16.622"	"22.015"	"23.979"	"26.346"	"25.807"	"24.224"	"24.046"	"23.338"	"22.995"	"19.566"	"15.661"
"1962"	"14.724"	"18.138"	"21.102"	"24.667"	"26.67"	"26.419"	"24.881"	"23.749"	"23.505"	"22.828"	"20.03"	"16.543"
"1963"	"15.903"	"18.987"	"21.883"	"24.516"	"26.202"	"26.531"	"25.222"	"23.8"	"23.941"	"23.51"	"20.8"	"17.581"
"1964"	"13.946"	"17.398"	"22.273"	"25.485"	"26.588"	"26.01"	"24.673"	"24.021"	"23.859"	"22.576"	"19.345"	"16.006"
"1965"	"16.919"	"18.169"	"21.294"	"23.195"	"25.792"	"26.536"	"24.635"	"23.866"	"23.751"	"24.002"	"20.678"	"16.219"
"1966"	"16.391"	"19.479"	"21.098"	"23.765"	"26.57"	"26.298"	"25.204"	"24.246"	"24.064"	"24.358"	"20.022"	"16.322"
"1967"	"14.32"	"18.576"	"21.29"	"24.223"	"26.474"	"26.164"	"24.641"	"23.794"	"23.978"	"23.798"	"20.86"	"16.638"
"1968"	"14.727"	"16.581"	"21.422"	"24.342"	"25.604"	"26.91"	"25.753"	"23.698"	"24.103"	"24.298"	"21.115"	"16.861"
"1969"	"15.721"	"17.734"	"22.645"	"25.155"	"26.497"	"27.021"	"25.527"	"23.809"	"23.768"	"24.014"	"21.113"	"17.887"
"1970"	"16.016"	"17.987"	"21.254"	"25.165"	"26.983"	"26.644"	"24.81"	"24.054"	"23.571"	"24.264"	"19.865"	"16.492"
"1971"	"15.071"	"17.846"	"21.487"	"26.136"	"26.003"	"25.701"	"24.037"	"23.488"	"24.037"	"22.36"	"20.072"	"16.769"
"1972"	"15.652"	"15.092"	"21.544"	"23.861"	"26.468"	"26.748"	"24.989"	"24.092"	"24.046"	"23.671"	"20.412"	"16.705"
"1973"	"14.409"	"18.671"	"21.482"	"25.817"	"27.017"	"26.56"	"24.41"	"23.864"	"23.364"	"23.325"	"19.826"	"16.024"
"1974"	"15.635"	"16.071"	"22.682"	"25.019"	"26.462"	"26.468"	"25.616"	"24.765"	"24.936"	"23.668"	"19.522"	"16.229"
"1975"	"14.745"	"17.254"	"20.419"	"24.447"	"26.674"	"26.495"	"24.917"	"24.04"	"23.72"	"23.568"	"18.861"	"16.872"
"1976"	"15.872"	"17.623"	"21.36"	"24.282"	"25.802"	"26.126"	"24.717"	"23.711"	"23.217"	"24.035"	"21.296"	"16.811"
"1977"	"15.385"	"17.934"	"23.423"	"25.436"	"26.976"	"25.873"	"24.137"	"23.968"	"23.431"	"24.459"	"21.932"	"17.782"
"1978"	"15.233"	"17.494"	"20.578"	"25.041"	"26.744"	"26.011"	"24.123"	"23.675"	"23.11"	"23.718"	"20.895"	"17.425"
"1979"	"15.964"	"16.896"	"19.977"	"24.442"	"25.517"	"27.057"	"25.179"	"22.986"	"24.133"	"22.627"	"21.253"	"17.18"
"1980"	"15.553"	"18.097"	"21.513"	"25.748"	"27.16"	"26.097"	"24.54"	"23.993"	"24.068"	"24.442"	"20.904"	"16.648"
"1981"	"16.381"	"18.294"	"21.928"	"25.136"	"26.407"	"27.081"	"24.676"	"23.434"	"24.564"	"23.839"	"19.036"	"16.96"
"1982"	"16.049"	"17.378"	"20.478"	"24.371"	"25.886"	"27.001"	"25.387"	"24.148"	"24.377"	"24.771"	"20.416"	"17.304"
"1983"	"15.534"	"16.782"	"20.299"	"23.099"	"26.654"	"26.744"	"25.244"	"24.056"	"24.441"	"23.393"	"19.482"	"16.231"
"1984"	"14.566"	"15.673"	"22.264"	"25.682"	"26.933"	"26.488"	"24.322"	"22.986"	"23.248"	"22.915"	"20.184"	"16.932"
"1985"	"15.179"	"17.774"	"22.696"	"24.623"	"26.68"	"26.17"	"24.552"	"23.458"	"23.939"	"23.76"	"20.857"	"17.051"
"1986"	"15.637"	"17.27"	"21.664"	"25.289"	"26.965"	"26.641"	"25.18"	"23.411"	"23.794"	"23.865"	"20.964"	"15.821"
"1987"	"15.991"	"18.557"	"21.977"	"25.023"	"26.528"	"27.315"	"26.258"	"25.683"	"25.317"	"25.299"	"21.528"	"17.108"
"1988"	"16.986"	"19.017"	"21.595"	"25.891"	"27.368"	"27.139"	"24.745"	"24.15"	"25.018"	"23.947"	"20.064"	"17.394"
"1989"	"14.697"	"16.926"	"21.02"	"24.511"	"26.497"	"25.822"	"24.378"	"23.387"	"23.885"	"23.368"	"20.988"	"16.725"
"1990"	"16.713"	"17.744"	"20.138"	"24.857"	"27"	"26.61"	"24.687"	"23.554"	"23.558"	"23.185"	"20.408"	"16.768"
"1991"	"15.24"	"17.084"	"21.725"	"25.074"	"26.614"	"27.09"	"24.962"	"23.68"	"23.235"	"23.002"	"20.344"	"17.264"
"1992"	"15.797"	"16.967"	"20.871"	"23.712"	"26.644"	"27.029"	"25.019"	"23.779"	"23.133"	"23.424"	"20.15"	"18.009"
"1993"	"16.606"	"19"	"21.142"	"24.732"	"26.835"	"26.934"	"25.151"	"24.832"	"24.463"	"24.302"	"21.362"	"17.9"
"1994"	"16.438"	"17.688"	"22.958"	"24.659"	"27.285"	"26.391"	"23.776"	"23.159"	"23.56"	"23.071"	"20.474"	"16.567"
"1995"	"15.318"	"18.005"	"20.565"	"24.124"	"26.947"	"27.207"	"24.853"	"24.106"	"24.131"	"24.222"	"20.085"	"17.336"
"1996"	"15.947"	"18.605"	"22.926"	"24.895"	"26.84"	"26.468"	"24.917"	"23.468"	"23.717"	"23.46"	"19.685"	"16.907"
"1997"	"15.44"	"17.751"	"21.677"	"23.934"	"26.204"	"26.185"	"25.462"	"24.152"	"24.063"	"23.257"	"20.594"	"16.076"
"1998"	"15.752"	"17.817"	"21.393"	"26.07"	"27.549"	"27.162"	"25.177"	"24.467"	"24.093"	"24.343"	"20.378"	"17.474"
"1999"	"15.757"	"18.576"	"21.779"	"25.402"	"26.214"	"25.819"	"24.792"	"23.778"	"24.146"	"24.046"	"20.94"	"17.106"
"2000"	"16.303"	"17.331"	"21.56"	"25.761"	"26.706"	"26.836"	"24.58"	"24.043"	"23.831"	"24.511"	"20.904"	"17.456"
"2001"	"15.442"	"17.676"	"21.881"	"25.214"	"27.041"	"25.77"	"23.861"	"24.03"	"24.306"	"24.469"	"21.042"	"17.77"
"2002"	"16.55"	"17.37"	"22.291"	"25.606"	"27.465"	"26.841"	"24.457"	"23.517"	"23.759"	"23.908"	"20.717"	"17.683"
