
"Year"	"Jan"	"Feb"	"Mar"	"Apr"	"May"	"Jun"	"Jul"	"Aug"	"Sep"	"Oct"	"Nov"	"Dec"
"1901"	"24.026"	"7.623"	"12.596"	"1.219"	"18.335"	"20.335"	"166.089"	"129.016"	"6.996"	"0"	"0"	"1.123"
"1902"	"0.099"	"0.331"	"4.65"	"5.175"	"11.043"	"63.823"	"132.98"	"105.427"	"55.543"	"1.676"	"0"	"0"
"1903"	"5.331"	"0.547"	"5.819"	"0.331"	"9.666"	"6.403"	"95.826"	"94.319"	"45.76"	"3.923"	"0"	"1.915"
"1904"	"10.293"	"0.099"	"37.629"	"2.036"	"14.297"	"30.933"	"77.66"	"111.72"	"81.367"	"0.348"	"16.534"	"6.961"
"1905"	"31.115"	"14.943"	"5.742"	"1.294"	"2.067"	"15.341"	"86.644"	"12.481"	"130.019"	"1.649"	"0"	"3.808"
"1906"	"1.185"	"39.656"	"16.663"	"1.05"	"2.264"	"63.39"	"95.773"	"81.605"	"182.442"	"0.148"	"0"	"4.508"
"1907"	"12.612"	"31.676"	"12.65"	"29.13"	"2.186"	"20.26"	"39.421"	"125.521"	"0.699"	"0.733"	"0.2"	"0"
"1908"	"27.137"	"7.449"	"0.215"	"6.66"	"5.486"	"24.496"	"195.652"	"409.916"	"23.407"	"0.299"	"0.099"	"1.815"
"1909"	"9.82"	"11.294"	"0.099"	"29.872"	"16.492"	"126.678"	"207.466"	"81.393"	"120.154"	"0.314"	"0"	"25.902"
"1910"	"18.078"	"6.521"	"1.433"	"6.895"	"2.877"	"56.486"	"110.885"	"109.384"	"65.365"	"2.007"	"0.198"	"1.081"
"1911"	"41.323"	"0.934"	"32.775"	"2.898"	"4.722"	"60.423"	"26.629"	"61.247"	"89.996"	"5.566"	"40.911"	"0"
"1912"	"32.107"	"10.287"	"4.042"	"21.097"	"7.829"	"22.578"	"87.327"	"173.86"	"85.4"	"0"	"5.827"	"1.512"
"1913"	"1.313"	"26.533"	"13.089"	"1.88"	"37.418"	"79.434"	"106.68"	"121.763"	"9.684"	"0.548"	"1.003"	"7.294"
"1914"	"6.519"	"12.636"	"4.14"	"15.923"	"20.262"	"22.484"	"216.87"	"64.775"	"163.479"	"11.895"	"13.703"	"4.133"
"1915"	"14.672"	"43.023"	"43.844"	"17.688"	"1.368"	"28.38"	"43.697"	"63.153"	"73.141"	"6.574"	"0"	"1.311"
"1916"	"0.099"	"19.225"	"0.884"	"3.032"	"5.192"	"32.961"	"213.536"	"171.271"	"60.082"	"5.147"	"0.3"	"0"
"1917"	"5.221"	"6.263"	"7.863"	"15.471"	"16.989"	"78.746"	"135.42"	"154.965"	"156.121"	"13.356"	"0"	"2.023"
"1918"	"4.107"	"0.669"	"15.037"	"13.423"	"2.025"	"36.573"	"17.063"	"123.286"	"8.339"	"0.065"	"4.165"	"1.564"
"1919"	"42.573"	"6.051"	"6.043"	"5.022"	"9.153"	"3.953"	"146.659"	"133.025"	"16.912"	"0.378"	"2.179"	"7.473"
"1920"	"11.493"	"8.148"	"15.648"	"0.567"	"12.725"	"46.304"	"128.959"	"107.731"	"5.248"	"0.131"	"0"	"0"
"1921"	"15.594"	"0.215"	"0.198"	"2.084"	"1.3"	"24.76"	"123.258"	"188.078"	"80.802"	"5.242"	"0"	"2.566"
"1922"	"12.894"	"2.974"	"0.784"	"1.434"	"1.299"	"42.785"	"77.512"	"106.648"	"171.417"	"1.091"	"0.592"	"16.503"
"1923"	"13.774"	"38.452"	"2.053"	"9.189"	"13.766"	"1.865"	"128.336"	"197.387"	"17.872"	"4.593"	"2.402"	"20.81"
"1924"	"31.794"	"22.216"	"3.163"	"0.664"	"18.331"	"12.708"	"128.808"	"125.14"	"121.281"	"7.956"	"1.879"	"16.593"
"1925"	"6.847"	"0.5"	"1.432"	"0.862"	"18.82"	"101.753"	"167.592"	"106.444"	"3.695"	"1.047"	"30.029"	"0"
"1926"	"7.739"	"0.695"	"39.524"	"11.564"	"11.002"	"2.192"	"147.101"	"230.663"	"26.081"	"0.148"	"3.597"	"2.996"
"1927"	"0.148"	"15.162"	"14.093"	"4.167"	"16.162"	"13.849"	"125.094"	"128.472"	"9.407"	"7.966"	"0"	"16.649"
"1928"	"14.102"	"27.055"	"8.575"	"12.435"	"5.399"	"33.654"	"70.847"	"57.45"	"55.736"	"2.359"	"18.474"	"9.321"
"1929"	"5.818"	"0.932"	"0.626"	"11.748"	"0.974"	"71.247"	"76.282"	"186.231"	"7.442"	"1.302"	"0"	"22.516"
"1930"	"24.985"	"13.637"	"0.725"	"8.613"	"7.81"	"40.975"	"220.078"	"44.909"	"24.347"	"3.382"	"2.144"	"1.353"
"1931"	"12.233"	"16.512"	"8.777"	"4.388"	"10.36"	"2.404"	"190.039"	"143.843"	"77.357"	"14.542"	"0.198"	"0"
"1932"	"8.02"	"1.212"	"12.824"	"5.687"	"5.024"	"12.176"	"91.777"	"61.457"	"102.66"	"0.181"	"0.099"	"9.72"
"1933"	"2.184"	"9.808"	"6.484"	"5.383"	"23.764"	"102.278"	"97.323"	"285.863"	"131.977"	"6.519"	"4.939"	"0"
"1934"	"17.178"	"0.949"	"33.939"	"0.384"	"2.956"	"37.506"	"164.381"	"153.885"	"4.008"	"0"	"0"	"5.228"
"1935"	"34.919"	"35.131"	"5.13"	"15.349"	"2.151"	"24.73"	"84.7"	"82.507"	"81.536"	"0.731"	"10.97"	"3.317"
"1936"	"1.762"	"19.413"	"10.971"	"4.514"	"2.558"	"185.752"	"130.251"	"123.928"	"77.43"	"4.609"	"1.66"	"23.045"
"1937"	"0.198"	"55.704"	"1.419"	"19.128"	"4.098"	"23.191"	"167.297"	"18.351"	"66.597"	"1.193"	"0.299"	"6.5"
"1938"	"37.524"	"8.31"	"7.78"	"3.087"	"0.797"	"88.687"	"65.65"	"36.754"	"12.56"	"3.425"	"0.198"	"0"
"1939"	"2.758"	"28.955"	"11.281"	"1.543"	"2.83"	"64.957"	"64.398"	"66.723"	"50.452"	"1.258"	"0"	"0"
"1940"	"34.458"	"27.747"	"4.553"	"1.628"	"1.454"	"41.688"	"103.169"	"116.727"	"16.751"	"0.099"	"0"	"0.889"
"1941"	"33.329"	"4.476"	"3.415"	"0.434"	"16.218"	"52.791"	"42.029"	"63.99"	"61.484"	"0.148"	"0.198"	"5.899"
"1942"	"11.892"	"13.935"	"6.039"	"14.043"	"12.048"	"31.251"	"196.283"	"142.433"	"63.264"	"0.716"	"0"	"10.889"
"1943"	"13.096"	"0.331"	"1.176"	"11.807"	"5.786"	"54.912"	"104.238"	"59.218"	"39.249"	"0"	"0"	"0"
"1944"	"20.944"	"33.877"	"35.92"	"35.461"	"0.2"	"48.163"	"191.528"	"72.483"	"75.668"	"8.837"	"0.099"	"3.399"
"1945"	"29.152"	"0.034"	"3.014"	"17.189"	"8.216"	"36.671"	"115.818"	"166.864"	"90.242"	"2.528"	"0.2"	"0.2"
"1946"	"0.266"	"7.122"	"3.151"	"2.72"	"14.69"	"77.925"	"130.076"	"147.401"	"18.638"	"6.451"	"2.327"	"3.588"
"1947"	"8.032"	"7.536"	"7.843"	"0.432"	"2.641"	"3.109"	"47.893"	"109.236"	"107.5"	"8.763"	"0.198"	"4.808"
"1948"	"23.71"	"24.926"	"20.981"	"4.425"	"3.508"	"24.288"	"177.418"	"194.635"	"80.119"	"2.187"	"3.771"	"6.114"
"1949"	"2.931"	"18.771"	"8.053"	"1.573"	"5.448"	"5.523"	"330.929"	"62.317"	"66.677"	"0.922"	"0.099"	"0.198"
"1950"	"27.01"	"9.033"	"21.865"	"0.768"	"7.352"	"13.201"	"287.699"	"142.5"	"165.878"	"0"	"0.099"	"0.099"
"1951"	"17.207"	"1.923"	"33.142"	"18.25"	"8.876"	"12.218"	"106.945"	"72.395"	"33.763"	"1.375"	"25.122"	"0"
"1952"	"6.602"	"8.535"	"30.684"	"3.396"	"15.655"	"33.134"	"76.429"	"133.212"	"2.315"	"0.616"	"2.015"	"0.232"
"1953"	"40.635"	"0.667"	"0.215"	"4.517"	"3.548"	"24.527"	"154.655"	"179.991"	"71.94"	"0.283"	"2.069"	"1.683"
"1954"	"18.105"	"37.335"	"6.009"	"0.384"	"3.152"	"20.769"	"178.716"	"30.844"	"121.608"	"11.602"	"0"	"0.099"
"1955"	"18.055"	"0.982"	"12.133"	"13.2"	"9.618"	"29.538"	"85.122"	"121.649"	"169.61"	"19.904"	"0"	"1.416"
"1956"	"20.337"	"1.512"	"15.928"	"2.218"	"3.62"	"65.546"	"181.163"	"152.417"	"9.202"	"22.782"	"0.883"	"0.66"
"1957"	"45.184"	"0.601"	"28.407"	"11.53"	"9.378"	"23.493"	"143.968"	"156.156"	"69.126"	"6.328"	"14.528"	"6.445"
"1958"	"11.355"	"1.511"	"10.139"	"1.996"	"3.932"	"22.69"	"220.152"	"122.11"	"176.041"	"4.499"	"2.16"	"10.162"
"1959"	"27.295"	"4.562"	"5.16"	"0.609"	"14.425"	"10.494"	"136.047"	"198.288"	"53.426"	"4.416"	"18.904"	"0"
"1960"	"12.508"	"0.034"	"19.959"	"7.337"	"0.496"	"23.373"	"116.182"	"150.746"	"33.488"	"13.685"	"0"	"2.448"
"1961"	"29.682"	"24.641"	"1.603"	"6.957"	"14.439"	"35.847"	"170.6"	"254.085"	"76.837"	"17.436"	"1.117"	"4.863"
"1962"	"22.453"	"14.517"	"9.387"	"0.412"	"6.29"	"13.615"	"140.87"	"97.93"	"122.509"	"0"	"8.36"	"8.046"
"1963"	"0.741"	"8.18"	"6.138"	"4.293"	"18.357"	"46.347"	"60.833"	"133.462"	"101.572"	"0.479"	"2.775"	"11.761"
"1964"	"7.863"	"1.548"	"2.906"	"6.408"	"14.626"	"31.314"	"322.371"	"216.395"	"83.057"	"0"	"1.653"	"6.032"
"1965"	"6.671"	"10.919"	"5.491"	"19.556"	"11.002"	"2.42"	"129.2"	"109.177"	"53.299"	"1.728"	"5.822"	"0"
"1966"	"1.609"	"25.82"	"3.803"	"3.072"	"34.407"	"91.346"	"98.366"	"128.753"	"93.271"	"8.344"	"2.002"	"0.28"
"1967"	"0.099"	"5.92"	"38.258"	"2.519"	"2.052"	"12.127"	"123.152"	"334.715"	"52.542"	"4.653"	"9.358"	"30.475"
"1968"	"14.619"	"12.796"	"7.828"	"1.395"	"6.186"	"18.065"	"155.735"	"167.159"	"3.924"	"4.525"	"0"	"2.713"
"1969"	"2.881"	"6.714"	"15.565"	"8.103"	"21.527"	"26.731"	"175.237"	"82.857"	"90.657"	"0.449"	"0.198"	"0"
"1970"	"25.979"	"27.613"	"32.327"	"0.217"	"26.427"	"59.786"	"41.78"	"149.946"	"55.993"	"1.62"	"0"	"0"
"1971"	"6.575"	"9.359"	"2.423"	"12.943"	"35.773"	"55.188"	"130.745"	"260.907"	"54.779"	"4.182"	"1.794"	"0"
"1972"	"7.274"	"9.502"	"2.763"	"6.459"	"0.249"	"16.5"	"149.012"	"169.474"	"57.954"	"7.56"	"8.648"	"2.981"
"1973"	"16.648"	"8.061"	"4.171"	"0.451"	"14.157"	"18.353"	"112.713"	"213.018"	"51.545"	"6.912"	"0"	"6.894"
"1974"	"2.258"	"2.513"	"2.68"	"0.433"	"7.211"	"16.949"	"217.955"	"69.709"	"3.533"	"2.823"	"0"	"4.945"
"1975"	"16.579"	"10.481"	"12.344"	"1.337"	"0.612"	"82.181"	"237.644"	"158.334"	"146.838"	"7.673"	"0"	"0"
"1976"	"5.518"	"17.795"	"11.216"	"7.029"	"34.227"	"51.642"	"210.184"	"349.675"	"77.955"	"4.676"	"0"	"0.415"
"1977"	"22.163"	"0.599"	"0.55"	"28.903"	"33.092"	"69.067"	"233.03"	"96.243"	"60.205"	"12.092"	"0.534"	"6.196"
"1978"	"2.198"	"13.593"	"27.759"	"7.987"	"0.348"	"69.43"	"205.042"	"273.264"	"117.833"	"0.181"	"2.794"	"1.06"
"1979"	"11.841"	"30.642"	"22.796"	"4.599"	"18.199"	"48.774"	"99.769"	"62.925"	"41.264"	"2.729"	"5.305"	"2.49"
"1980"	"6.877"	"5.807"	"19.078"	"2.752"	"5.313"	"75.217"	"321.938"	"174.425"	"53.725"	"3.902"	"6.003"	"4.642"
"1981"	"42.766"	"12.748"	"19.197"	"0.099"	"4.1"	"66.934"	"242.607"	"65.887"	"24.351"	"2.731"	"41.516"	"4.788"
"1982"	"16.755"	"9.575"	"55.737"	"31.96"	"47.64"	"35.639"	"114.953"	"186.22"	"2.97"	"4.217"	"16.042"	"8.65"
"1983"	"37.146"	"17.121"	"16.202"	"26.912"	"60.733"	"33.243"	"158.537"	"182.063"	"71.26"	"11.688"	"0"	"2.672"
"1984"	"0.975"	"17.422"	"3.151"	"19.66"	"1.484"	"23.647"	"224.478"	"214.236"	"76.736"	"0"	"0"	"5.677"
"1985"	"2.102"	"0.5"	"1.669"	"15.561"	"12.487"	"45.875"	"255.897"	"174.301"	"65.546"	"16.06"	"1.05"	"14.469"
"1986"	"11.729"	"29.53"	"9.379"	"7.279"	"22.656"	"51.934"	"121.272"	"155.712"	"55.597"	"2.06"	"1.201"	"12.779"
"1987"	"19.273"	"15.44"	"15.654"	"4.519"	"31.399"	"31.819"	"57.971"	"83.737"	"10.773"	"5.564"	"0"	"2.806"
"1988"	"2.247"	"12.701"	"36.39"	"5.777"	"2.869"	"40.194"	"186.657"	"227.616"	"102.533"	"8.148"	"0.099"	"7.47"
"1989"	"44.583"	"3.528"	"24.573"	"0.884"	"5.272"	"22.094"	"113.648"	"99.932"	"55.722"	"0.63"	"10.179"	"1.89"
"1990"	"1.183"	"34.224"	"18.754"	"6.557"	"21.384"	"31.45"	"135.876"	"204.997"	"157.312"	"1.294"	"7.868"	"19.384"
"1991"	"0.148"	"27.872"	"6.005"	"16.355"	"25.242"	"63.044"	"50.325"	"194.665"	"49.199"	"1.132"	"11.026"	"10.876"
"1992"	"16.125"	"20.912"	"3.113"	"7.306"	"18.791"	"13.902"	"74.438"	"166.886"	"70.599"	"2.093"	"28.811"	"0.635"
"1993"	"9.779"	"7.694"	"9.652"	"11.053"	"13.884"	"62.325"	"203.437"	"71.993"	"102.669"	"0"	"0"	"0"
"1994"	"17.914"	"4.787"	"12.365"	"6.767"	"34.763"	"37.346"	"235.503"	"126.376"	"54.409"	"0.816"	"0"	"2.699"
"1995"	"35.351"	"37.431"	"25.524"	"2.496"	"0.299"	"39.311"	"78.409"	"312.174"	"98.857"	"0.916"	"5.528"	"0.65"
"1996"	"12.667"	"16.587"	"8.201"	"1.663"	"9.817"	"146.307"	"109.15"	"235.088"	"56.075"	"4.11"	"0"	"0"
"1997"	"11.952"	"4.386"	"10.484"	"31.235"	"31.351"	"98.046"	"146.76"	"233.05"	"44.311"	"16.226"	"21.54"	"4.916"
"1998"	"2.766"	"20.963"	"20.106"	"9.549"	"9.027"	"46.878"	"143.633"	"128.154"	"91.917"	"13.676"	"13.917"	"0.232"
"1999"	"24.755"	"2.398"	"2.905"	"0"	"12.073"	"54.38"	"66.852"	"80.479"	"50.343"	"4.032"	"0"	"0.428"
"2000"	"18.123"	"29.581"	"11.34"	"0.648"	"10.377"	"64.605"	"225.153"	"92.954"	"20.608"	"0"	"3.603"	"10.543"
"2001"	"7.485"	"7.192"	"7.84"	"17.563"	"37.973"	"69.854"	"178.348"	"93.863"	"24.939"	"0.914"	"0"	"0.148"
"2002"	"9.068"	"10.106"	"4.62"	"1.444"	"9.662"	"36.565"	"41.124"	"92.583"	"104.817"	"0.131"	"0"	"6.041"
