
"Year"	"Jan"	"Feb"	"Mar"	"Apr"	"May"	"Jun"	"Jul"	"Aug"	"Sep"	"Oct"	"Nov"	"Dec"
"1901"	"12.783"	"14.8"	"21.7"	"26.949"	"31.4"	"35.353"	"32.621"	"31.422"	"30.822"	"27.986"	"20.951"	"15.767"
"1902"	"15.217"	"17.467"	"23.768"	"28.317"	"32.168"	"33.22"	"31.957"	"32.306"	"29.821"	"26.504"	"20.318"	"14.332"
"1903"	"13.817"	"15.767"	"20.252"	"26.298"	"31.366"	"35.889"	"33.756"	"31.023"	"30.888"	"26.754"	"19.818"	"14.499"
"1904"	"13.099"	"16.497"	"20.732"	"28.449"	"31.902"	"34.688"	"31.673"	"30.756"	"29.805"	"26.52"	"19.67"	"15.553"
"1905"	"12.217"	"11.766"	"18.002"	"24.951"	"33.302"	"35.254"	"33.041"	"32.423"	"31.473"	"27.27"	"21.335"	"15.536"
"1906"	"12.867"	"14.418"	"19.517"	"27.182"	"34.386"	"33.638"	"32.957"	"30.021"	"29.371"	"27.27"	"21.367"	"16.351"
"1907"	"15.416"	"13.95"	"18.335"	"24.516"	"30.216"	"33.367"	"33.79"	"30.355"	"31.489"	"27.485"	"20.718"	"14.467"
"1908"	"13.967"	"16.583"	"21.634"	"28.281"	"32.335"	"35.387"	"31.157"	"28.771"	"29.737"	"26.319"	"19.451"	"14.868"
"1909"	"13.017"	"14.966"	"21.714"	"26.083"	"32.084"	"32.37"	"30.053"	"29.737"	"29.185"	"26.768"	"21.352"	"14.499"
"1910"	"13.431"	"16.1"	"21.549"	"26.531"	"32.802"	"33.421"	"30.822"	"29.804"	"29.92"	"25.636"	"19.351"	"14.751"
"1911"	"15.002"	"16.515"	"19.318"	"27.2"	"33.567"	"33.837"	"33.973"	"32.541"	"30.122"	"27.07"	"17.833"	"14.583"
"1912"	"14.335"	"17.385"	"21.284"	"27.333"	"32.717"	"35.505"	"32.039"	"30.004"	"28.839"	"26.669"	"19.32"	"14.734"
"1913"	"14.734"	"15.669"	"18.95"	"28.818"	"30.467"	"31.453"	"30.753"	"30.987"	"30.67"	"27.236"	"19.803"	"14.669"
"1914"	"15.618"	"15.384"	"20.851"	"27.15"	"32.102"	"33.154"	"30.67"	"30.705"	"29.655"	"24.618"	"20.386"	"14.45"
"1915"	"13.883"	"14.515"	"21.685"	"27.901"	"35.053"	"34.272"	"33.924"	"32.024"	"31.006"	"27.617"	"20.667"	"15.585"
"1916"	"14.884"	"15.666"	"24.466"	"29.467"	"32.183"	"33.238"	"30.753"	"29.636"	"29.522"	"26.403"	"18.732"	"14.418"
"1917"	"14.099"	"16.935"	"21.586"	"24.5"	"28.134"	"32.72"	"30.355"	"29.421"	"27.836"	"24.819"	"17.981"	"14.934"
"1918"	"13.45"	"16.632"	"21.166"	"25.082"	"34.386"	"33.454"	"34.409"	"32.222"	"30.755"	"27.07"	"20.12"	"14.602"
"1919"	"14.034"	"15.283"	"22.168"	"26.901"	"31.636"	"36.408"	"31.089"	"29.987"	"29.988"	"26.437"	"19.518"	"14.285"
"1920"	"13.931"	"15.15"	"21.301"	"27.249"	"29.018"	"33.038"	"31.541"	"31.24"	"31.356"	"27.887"	"21.552"	"16.132"
"1921"	"14.886"	"17.334"	"24.818"	"31.185"	"35.652"	"35.24"	"33.591"	"30.356"	"29.874"	"25.602"	"20.17"	"16.635"
"1922"	"13.5"	"17.15"	"23.384"	"28.518"	"33.065"	"33.538"	"31.923"	"30.539"	"28.938"	"25.484"	"19.702"	"14.853"
"1923"	"13.715"	"15.002"	"22.217"	"28.834"	"31.717"	"35.954"	"31.523"	"29.17"	"30.038"	"25.619"	"19.751"	"15.151"
"1924"	"13.25"	"15.782"	"22.717"	"28.534"	"29.401"	"36.138"	"32.558"	"30.405"	"28.387"	"25.818"	"19.719"	"15.55"
"1925"	"12.234"	"14.163"	"22.502"	"29.934"	"32.551"	"31.504"	"29.72"	"30.304"	"30.622"	"26.302"	"18.533"	"14.633"
"1926"	"14.484"	"17.317"	"20.269"	"24.451"	"29.5"	"35.37"	"32.256"	"29.471"	"29.187"	"25.635"	"18.069"	"14.785"
"1927"	"12.918"	"14"	"20.433"	"26.498"	"30.767"	"34.071"	"30.838"	"29.438"	"29.62"	"26.252"	"19.869"	"15.933"
"1928"	"13.017"	"16.585"	"21.499"	"27.519"	"34.052"	"34.089"	"32.172"	"31.923"	"30.336"	"27.252"	"20.418"	"14.633"
"1929"	"13.884"	"15.134"	"24.035"	"28.818"	"33.468"	"34.24"	"31.523"	"29.838"	"31.124"	"26.353"	"20.317"	"13.669"
"1930"	"12.751"	"15.748"	"22.283"	"26.932"	"32.335"	"32.886"	"29.904"	"30.555"	"28.869"	"26.302"	"19.334"	"14.783"
"1931"	"14.765"	"13.747"	"20.616"	"28.682"	"32.302"	"34.535"	"31.622"	"30.587"	"29.289"	"26.187"	"19.436"	"15.55"
"1932"	"15.6"	"15.651"	"22.651"	"27.849"	"30.9"	"35.737"	"31.571"	"29.454"	"29.705"	"26.352"	"19.45"	"14.768"
"1933"	"11.715"	"16.517"	"21.232"	"25.498"	"29.787"	"33.826"	"30.606"	"28.554"	"28.071"	"25.385"	"19.586"	"15.867"
"1934"	"12.135"	"17.665"	"20.516"	"27.331"	"31.318"	"33.287"	"31.373"	"29.372"	"30.637"	"25.75"	"19.651"	"15.97"
"1935"	"12.403"	"16.517"	"21.467"	"24.048"	"32.599"	"35.319"	"31.055"	"29.57"	"29.605"	"25.952"	"20.336"	"14.768"
"1936"	"12.567"	"16.401"	"20.681"	"27.032"	"34.503"	"31.656"	"30.572"	"29.855"	"29.238"	"26.051"	"19.818"	"15.003"
"1937"	"13.084"	"16.167"	"20.017"	"25.916"	"31.967"	"34.254"	"30.687"	"31.839"	"29.92"	"25.233"	"19.552"	"13.815"
"1938"	"13.334"	"14.649"	"22.7"	"28.699"	"34.586"	"32.619"	"32.491"	"31.289"	"31.59"	"27.335"	"18.919"	"15.116"
"1939"	"14.751"	"16.149"	"18.999"	"25.964"	"33.8"	"32.454"	"31.506"	"31.572"	"30.657"	"27.754"	"19.885"	"15.816"
"1940"	"14.15"	"15.7"	"20.237"	"26.35"	"33.133"	"34.219"	"31.622"	"29.404"	"29.623"	"26.437"	"20.869"	"15.053"
"1941"	"13.336"	"17.117"	"24"	"30.75"	"34.069"	"32.252"	"32.802"	"30.721"	"30.12"	"28.804"	"20.553"	"16.585"
"1942"	"12.751"	"16.715"	"23.249"	"29.283"	"33.101"	"34.667"	"30.272"	"28.62"	"28.337"	"26.1"	"21.186"	"14.268"
"1943"	"13.65"	"16.365"	"22.2"	"26.484"	"32.136"	"33.888"	"30.99"	"29.422"	"30.405"	"26.386"	"20.867"	"16.535"
"1944"	"13.135"	"15.451"	"20.418"	"26.717"	"33.7"	"34.006"	"30.671"	"30.388"	"29.489"	"26.102"	"20.568"	"15.883"
"1945"	"12.002"	"15.417"	"22.368"	"25.898"	"30.678"	"33.497"	"30.97"	"30.202"	"28.67"	"25.77"	"20.102"	"14.218"
"1946"	"14.95"	"18.953"	"21.116"	"29.836"	"32.753"	"33.503"	"30.804"	"30.087"	"30.555"	"26.838"	"20.086"	"14.283"
"1947"	"13.233"	"16.683"	"22.718"	"30.019"	"33.77"	"36.873"	"32.973"	"31.591"	"28.467"	"25.351"	"21.12"	"15.268"
"1948"	"14.288"	"15.885"	"20.819"	"30.264"	"33.014"	"35.237"	"31.606"	"29.422"	"30.006"	"27.221"	"18.833"	"14.835"
"1949"	"16.118"	"16.618"	"22.787"	"29.987"	"34.773"	"34.653"	"30.705"	"31.009"	"31.375"	"26.469"	"18.918"	"14.484"
"1950"	"15.352"	"14.433"	"20.835"	"27.201"	"33.854"	"35.307"	"31.524"	"30.105"	"28.436"	"25.401"	"19.434"	"13.264"
"1951"	"13.384"	"16.332"	"22.185"	"25.885"	"32.251"	"34.371"	"33.623"	"30.888"	"30.941"	"28.853"	"21.652"	"16.016"
"1952"	"15.401"	"18.733"	"22.607"	"30.718"	"33.47"	"33.42"	"31.689"	"29.604"	"31.257"	"27.321"	"20.567"	"15.567"
"1953"	"13.735"	"18.983"	"25.935"	"29.471"	"34.373"	"34.67"	"31.106"	"30.507"	"30.407"	"27.07"	"20.485"	"18.001"
"1954"	"13.384"	"17.435"	"22.234"	"29.184"	"34.472"	"35.138"	"31.956"	"32.041"	"30.487"	"24.369"	"20.153"	"15.502"
"1955"	"14.034"	"17.334"	"24.418"	"26.585"	"30.953"	"35.438"	"32.674"	"30.105"	"29.17"	"25.002"	"19.936"	"15.702"
"1956"	"14.469"	"17.668"	"22.603"	"29.452"	"35.49"	"34.221"	"30.873"	"29.838"	"31.325"	"25.252"	"19.318"	"15.654"
"1957"	"13.551"	"15.384"	"21.521"	"26.735"	"31.385"	"33.939"	"32.257"	"30.42"	"28.487"	"26.369"	"20.533"	"15.434"
"1958"	"15.801"	"16.603"	"23.72"	"31.138"	"33.038"	"35.338"	"31.158"	"30.34"	"29.235"	"26.537"	"21.437"	"15.948"
"1959"	"13.916"	"15.716"	"22.966"	"28.87"	"32.27"	"35.087"	"31.791"	"30.487"	"29.586"	"25.997"	"20.252"	"15.982"
"1960"	"13.534"	"19.75"	"21.434"	"27.805"	"34.358"	"35.673"	"32.225"	"30.674"	"30.403"	"26.269"	"19.402"	"15.212"
"1961"	"14.952"	"14.867"	"22.85"	"27.766"	"32.968"	"34.622"	"31.656"	"29.954"	"30.355"	"25.737"	"18.384"	"13.067"
"1962"	"12.666"	"17.218"	"21.767"	"29.503"	"33.052"	"34.354"	"32.422"	"30.888"	"28.185"	"27.706"	"19.484"	"14.416"
"1963"	"13.131"	"18.265"	"22.035"	"27.685"	"31.084"	"34.156"	"32.304"	"29.153"	"28.687"	"26.752"	"20.635"	"14.766"
"1964"	"12.283"	"15.765"	"22.064"	"28.098"	"30.35"	"35.004"	"29.804"	"30.454"	"28.873"	"25.749"	"18.832"	"14.766"
"1965"	"15.701"	"16.602"	"21.871"	"26.017"	"31.434"	"35.57"	"31.354"	"30.004"	"29.555"	"26.302"	"20.501"	"13.732"
"1966"	"13.882"	"18.083"	"21.782"	"28.634"	"33.084"	"33.719"	"32.639"	"30.355"	"29.404"	"26.218"	"19.702"	"14.499"
"1967"	"12.999"	"18.782"	"21.468"	"27.45"	"32.118"	"35.237"	"31.506"	"29.705"	"29.421"	"25.452"	"19.603"	"15.235"
"1968"	"13.318"	"15.085"	"22.202"	"28.118"	"32.618"	"34.807"	"31.272"	"30.338"	"31.306"	"25.418"	"20.401"	"15.651"
"1969"	"14.352"	"17.501"	"24.919"	"28.769"	"31.52"	"35.439"	"31.774"	"31.257"	"29.656"	"27.471"	"21.384"	"15.85"
"1970"	"14.635"	"16.467"	"22.286"	"29.484"	"34.054"	"32.287"	"32.891"	"30.221"	"30.021"	"27.27"	"19.934"	"15.666"
"1971"	"13.417"	"17.385"	"22.152"	"29.555"	"31.305"	"32.739"	"30.806"	"28.538"	"29.021"	"26.554"	"20.436"	"16.2"
"1972"	"14.768"	"14.834"	"23.284"	"27.151"	"33.936"	"35.302"	"32.806"	"30.188"	"29.24"	"26.302"	"20.934"	"15.465"
"1973"	"14.618"	"18.735"	"21.767"	"29.934"	"32.769"	"34.618"	"30.484"	"28.934"	"29.369"	"25.166"	"19.549"	"13.682"
"1974"	"13.665"	"14.715"	"22.866"	"29.983"	"32.251"	"32.368"	"30.27"	"30.202"	"29.886"	"25.532"	"19.733"	"13.981"
"1975"	"13.818"	"16.049"	"21.482"	"29.165"	"33.599"	"33.488"	"30.35"	"29.784"	"28.17"	"27.519"	"19.469"	"15.95"
"1976"	"14.515"	"16.667"	"21.719"	"27.519"	"32.369"	"31.903"	"31.472"	"28.25"	"28.771"	"26.735"	"20.633"	"14.985"
"1977"	"13.834"	"16.133"	"22.686"	"27.386"	"29.635"	"31.117"	"29.886"	"29.501"	"28.135"	"26.165"	"21.886"	"16.282"
"1978"	"12.666"	"14.998"	"20.235"	"27.285"	"34.421"	"33.139"	"29.554"	"29.22"	"28.233"	"26.218"	"20.833"	"15.701"
"1979"	"14.128"	"15.601"	"20.333"	"29.351"	"30.913"	"34.273"	"30.973"	"31.137"	"28.952"	"26.948"	"21.7"	"16.832"
"1980"	"14.433"	"17.501"	"21.266"	"30.33"	"34.279"	"33.323"	"30.104"	"30.437"	"29.037"	"26.918"	"20.119"	"15.333"
"1981"	"14.251"	"17.251"	"21.333"	"28.601"	"32.483"	"34.118"	"30.019"	"30.39"	"30.069"	"25.868"	"19.615"	"15.536"
"1982"	"15.019"	"15.55"	"19.484"	"26.102"	"29.389"	"33.973"	"32.539"	"29.888"	"30.388"	"26.636"	"20.818"	"16.216"
"1983"	"13.318"	"15.934"	"21.234"	"25.452"	"30.016"	"33.155"	"31.489"	"29.686"	"30.038"	"25.536"	"19.568"	"15.668"
"1984"	"12.918"	"14.649"	"23.5"	"28.432"	"35.236"	"34.491"	"30.538"	"29.937"	"28.253"	"25.349"	"19.868"	"15.832"
"1985"	"14.049"	"17.486"	"23.918"	"28.851"	"33.97"	"34.171"	"30.205"	"30.071"	"29.354"	"24.934"	"20.584"	"16.884"
"1986"	"13.716"	"15.916"	"21.651"	"28.136"	"30.335"	"33.606"	"30.371"	"30.37"	"29.387"	"25.418"	"21.217"	"14.55"
"1987"	"14.785"	"17.982"	"22.433"	"28.868"	"29.051"	"34.72"	"34.688"	"31.905"	"31.74"	"27.802"	"20.984"	"16.084"
"1988"	"15.684"	"17.884"	"22.035"	"29.85"	"34.771"	"33.338"	"30.238"	"29.238"	"29.42"	"25.935"	"20.801"	"16.284"
"1989"	"13.217"	"15.967"	"21.4"	"26.768"	"32.804"	"32.804"	"31.754"	"28.836"	"29.204"	"26.384"	"20.501"	"15.134"
"1990"	"15.967"	"16.598"	"20.368"	"27.834"	"32.237"	"34.737"	"30.036"	"29.804"	"28.638"	"25.018"	"20.784"	"15.7"
"1991"	"13.884"	"16.981"	"21.6"	"26.517"	"32.702"	"32.804"	"33.072"	"29.788"	"29.589"	"25.385"	"19.804"	"15.885"
"1992"	"14.768"	"15.684"	"21.7"	"27.733"	"31.686"	"34.587"	"30.353"	"29.572"	"28.872"	"25.635"	"20.152"	"16.767"
"1993"	"14.184"	"18.467"	"20.368"	"28.087"	"33.97"	"34.207"	"30.888"	"31.591"	"28.121"	"25.602"	"20.984"	"15.634"
"1994"	"14.65"	"16.683"	"23.534"	"26.853"	"33.321"	"34.622"	"30.137"	"29.554"	"28.788"	"25.235"	"20.5"	"16.483"
"1995"	"13.851"	"16.8"	"20.835"	"27.133"	"34.12"	"35.589"	"31.822"	"28.47"	"29.404"	"26.701"	"20.718"	"16.368"
"1996"	"14.317"	"17.334"	"22.867"	"28.784"	"32.352"	"32.287"	"31.791"	"29.307"	"28.923"	"25.802"	"19.769"	"14.834"
"1997"	"13.568"	"16.383"	"21.584"	"26.802"	"30.384"	"31.788"	"31.639"	"29.503"	"29.821"	"24.171"	"19.619"	"13.332"
"1998"	"13.357"	"16.983"	"20.252"	"28.618"	"33.652"	"34.004"	"31.221"	"30.205"	"29.652"	"26.369"	"21.066"	"15.529"
"1999"	"13.483"	"17.73"	"23.314"	"30.698"	"33.502"	"32.903"	"32.037"	"30.854"	"30.238"	"26.819"	"21.449"	"16.049"
"2000"	"14.281"	"15.417"	"21.668"	"30.333"	"34.438"	"32.555"	"30.304"	"30.47"	"29.802"	"27.284"	"21.432"	"16.299"
"2001"	"13.433"	"17.634"	"22.65"	"28.267"	"32.985"	"31.586"	"31.12"	"31.287"	"30.302"	"27.601"	"21.55"	"16.549"
"2002"	"15.451"	"16.281"	"21.414"	"30.451"	"34.285"	"33.685"	"32.904"	"30.938"	"28.221"	"26.416"	"21.386"	"16.552"
