
"Year"	"Jan"	"Feb"	"Mar"	"Apr"	"May"	"Jun"	"Jul"	"Aug"	"Sep"	"Oct"	"Nov"	"Dec"
"1901"	"22.982"	"34.5"	"11.305"	"42.1"	"71.068"	"100.888"	"165.238"	"182.258"	"217.668"	"42.111"	"68.206"	"0"
"1902"	"7.177"	"0.021"	"0.138"	"8.141"	"47.315"	"166.661"	"289.055"	"386.303"	"224.181"	"22.547"	"4.167"	"33.317"
"1903"	"1.665"	"7.317"	"0.684"	"1.834"	"62.236"	"208.491"	"674.092"	"250.877"	"217.767"	"82.152"	"12.117"	"17.56"
"1904"	"0.267"	"1.624"	"12.875"	"0.406"	"164.056"	"219.263"	"221.891"	"523.523"	"203.659"	"82.843"	"0.159"	"11.864"
"1905"	"2.303"	"9.534"	"22.461"	"198.992"	"127.088"	"111.151"	"294.356"	"413.009"	"502.995"	"8.272"	"0.159"	"0"
"1906"	"14.024"	"28.946"	"8.475"	"0.406"	"15.179"	"381.033"	"379.592"	"256.129"	"174.865"	"53.748"	"5.908"	"3.375"
"1907"	"0.358"	"11.513"	"19.623"	"236.288"	"40.99"	"299.659"	"158.673"	"346.129"	"85.649"	"13.134"	"7.548"	"7.264"
"1908"	"11.328"	"1.154"	"3.933"	"18.332"	"57.837"	"295.767"	"216.412"	"405.737"	"251.81"	"29.634"	"0.159"	"0.634"
"1909"	"0"	"29.235"	"0.272"	"134.197"	"37.922"	"177.416"	"321"	"247.084"	"169.636"	"6.779"	"0.159"	"3.092"
"1910"	"2.506"	"0.293"	"3.941"	"29.518"	"28.643"	"224.902"	"469.959"	"450.939"	"230.283"	"166.384"	"19.553"	"0"
"1911"	"0.33"	"0.227"	"17.126"	"2.896"	"41.646"	"281.186"	"233.749"	"366.593"	"348.259"	"95.764"	"27.157"	"0.314"
"1912"	"0"	"42.794"	"0.597"	"39.109"	"40.498"	"60.677"	"371.331"	"337.472"	"272.054"	"41.973"	"28.477"	"0"
"1913"	"0"	"27.211"	"7.769"	"17.467"	"24.719"	"161.61"	"353.432"	"251.989"	"205.495"	"93.432"	"4.191"	"1.253"
"1914"	"0.076"	"7.683"	"14.967"	"93.272"	"52.985"	"354.424"	"294.603"	"273.144"	"370.363"	"14.336"	"0.177"	"9.975"
"1915"	"34.313"	"35.766"	"28.72"	"52.788"	"46.245"	"188.791"	"240.972"	"458.065"	"244.887"	"91.443"	"31.069"	"0"
"1916"	"0"	"2.523"	"0.021"	"14.979"	"22.287"	"189.605"	"283.243"	"314.774"	"176.865"	"82.126"	"25.477"	"0"
"1917"	"0.05"	"40.996"	"4.372"	"26.701"	"85.881"	"306.434"	"252.46"	"361.443"	"355.693"	"270.788"	"4.054"	"0.524"
"1918"	"24.993"	"0.021"	"10.191"	"11.633"	"72.186"	"271.777"	"265.243"	"447.773"	"213.602"	"11.678"	"4.292"	"7.42"
"1919"	"32.716"	"49.627"	"22.11"	"10.367"	"43.31"	"290.757"	"412.998"	"449.39"	"158.763"	"154.519"	"48.154"	"4.832"
"1920"	"6.538"	"3.052"	"16.503"	"27.018"	"26.381"	"135.74"	"288.751"	"310.519"	"116.238"	"48.116"	"0.213"	"0"
"1921"	"22.286"	"0.793"	"0.021"	"29.13"	"0.501"	"242.255"	"296"	"302.691"	"247.374"	"58.546"	"0.159"	"0"
"1922"	"3.22"	"0.687"	"0.021"	"7.038"	"32.25"	"246.796"	"363.331"	"294.15"	"279.127"	"71.626"	"36.222"	"0.011"
"1923"	"0"	"30.243"	"2.456"	"42.113"	"10.536"	"83.391"	"219.502"	"244.379"	"230.255"	"73.129"	"27.732"	"1.389"
"1924"	"33.813"	"1.835"	"0.645"	"27.808"	"37.479"	"114.445"	"210.367"	"333.962"	"344.886"	"93.952"	"46.238"	"0"
"1925"	"0"	"0.176"	"1.534"	"56.941"	"189.814"	"354.564"	"456.754"	"448.307"	"139.063"	"96.757"	"2.579"	"3.489"
"1926"	"25.585"	"0.598"	"36.607"	"71.174"	"51.927"	"218.545"	"298.149"	"532.711"	"365.767"	"53.268"	"0.746"	"0.77"
"1927"	"4.036"	"3.866"	"72.343"	"4.942"	"33.832"	"323.015"	"493.724"	"575.386"	"142.641"	"85.243"	"12.597"	"0"
"1928"	"0.272"	"1.255"	"6.007"	"56.956"	"55.889"	"163.275"	"503.657"	"297.2"	"351.827"	"145.76"	"0.773"	"0.152"
"1929"	"1.204"	"44.269"	"1.095"	"62.829"	"32.582"	"274.322"	"454.728"	"637.209"	"171.284"	"128.252"	"0.169"	"10.778"
"1930"	"0.05"	"1.448"	"21.696"	"48.417"	"59.866"	"232.128"	"358.525"	"240.5"	"274.076"	"65.403"	"72.936"	"2.357"
"1931"	"0.456"	"4.586"	"7.287"	"35.976"	"27.176"	"50.699"	"235.72"	"467.968"	"247.353"	"162.156"	"60.767"	"1.06"
"1932"	"0"	"19.741"	"0.032"	"72.906"	"41.63"	"91.472"	"433.387"	"403.609"	"238.708"	"21.535"	"64.406"	"0.055"
"1933"	"4.536"	"2.32"	"6.316"	"34.959"	"72.035"	"312.885"	"365.501"	"324.642"	"250.57"	"74.116"	"23.205"	"10.257"
"1934"	"0.33"	"1.08"	"1.645"	"19.114"	"2.855"	"289.909"	"446.413"	"543.348"	"237.81"	"100.553"	"18.994"	"0.011"
"1935"	"1.371"	"0.993"	"0.947"	"37.524"	"13.228"	"127.376"	"362.043"	"268.442"	"226.758"	"26.076"	"0.159"	"0"
"1936"	"0.764"	"62.65"	"10.148"	"9.15"	"116.682"	"444.608"	"579.943"	"414.619"	"229.522"	"102.474"	"24.904"	"0.893"
"1937"	"0"	"47.488"	"18.077"	"101.642"	"19.178"	"123.061"	"424.224"	"228.125"	"167.721"	"69.127"	"0.159"	"0"
"1938"	"2.509"	"18.912"	"13.631"	"27.858"	"103.235"	"220.767"	"219.941"	"275.706"	"355.842"	"185.112"	"23.861"	"0"
"1939"	"4.508"	"4.152"	"22.024"	"31.682"	"9.691"	"134.64"	"306.11"	"247.791"	"264.305"	"149.502"	"16.787"	"0.356"
"1940"	"0"	"19.57"	"56.465"	"33.726"	"79.651"	"273.465"	"304.299"	"437.089"	"128.777"	"80.149"	"19.227"	"3.17"
"1941"	"5.103"	"1.123"	"14.934"	"5.839"	"68.434"	"306.079"	"150.326"	"235.233"	"180.695"	"83.099"	"21.037"	"0"
"1942"	"1.082"	"29.69"	"6.134"	"92.782"	"38.075"	"122.456"	"426.799"	"392.348"	"197.771"	"24.883"	"16.518"	"0"
"1943"	"32.471"	"0.73"	"0.929"	"93.927"	"59.482"	"183.793"	"351.403"	"359.74"	"167.425"	"92.63"	"6.479"	"0"
"1944"	"13.357"	"40.051"	"82.35"	"89.859"	"50.994"	"107.146"	"412.647"	"310.274"	"239.948"	"99.766"	"7.212"	"0"
"1945"	"17.268"	"1.054"	"0.021"	"124.156"	"26.127"	"111.471"	"404.221"	"257.119"	"388.152"	"103.453"	"27.257"	"7.559"
"1946"	"0"	"3.799"	"5.604"	"68.914"	"56.023"	"209.728"	"520.205"	"438.191"	"208.306"	"100.749"	"17.432"	"0.06"
"1947"	"23.121"	"7.094"	"15.794"	"24.684"	"9.738"	"209.876"	"493.47"	"323.859"	"323.125"	"75.358"	"21.82"	"10.469"
"1948"	"3.055"	"17.694"	"10.778"	"87.608"	"28.408"	"180.218"	"238.111"	"277.851"	"319.1"	"37.503"	"82.644"	"0.055"
"1949"	"0.488"	"1.418"	"2.907"	"24.797"	"45.966"	"196.891"	"188.387"	"365.598"	"268.848"	"195.042"	"0.159"	"0"
"1950"	"0.336"	"21.657"	"26.195"	"35.776"	"16.512"	"128.992"	"318.562"	"260.651"	"63.149"	"30.723"	"50.4"	"0.619"
"1951"	"0.232"	"0.111"	"35.371"	"60.544"	"52.891"	"165.028"	"498.095"	"358.846"	"197.936"	"54.377"	"11.555"	"0"
"1952"	"0.07"	"3.724"	"11.904"	"78.362"	"37.33"	"131.965"	"419.066"	"275.292"	"339.476"	"96.272"	"0.159"	"13.992"
"1953"	"18.929"	"0.021"	"0.021"	"21.635"	"21.032"	"210.045"	"173.262"	"537.303"	"227.745"	"83.569"	"17.427"	"0"
"1954"	"0.267"	"3.594"	"8.11"	"26.597"	"40.24"	"132.695"	"264.478"	"274.531"	"405.519"	"95.387"	"0.159"	"2.658"
"1955"	"0.705"	"1.766"	"35.448"	"54.949"	"34.675"	"150.281"	"236.612"	"425.661"	"263.896"	"193.055"	"14.143"	"0"
"1956"	"0.581"	"8.949"	"1.074"	"25.217"	"91.345"	"270.092"	"634.419"	"565.439"	"179.073"	"74.277"	"4.032"	"0.468"
"1957"	"1.628"	"3.846"	"25.813"	"23.414"	"36.539"	"200.267"	"429.715"	"455.316"	"83.402"	"89.423"	"0.605"	"0"
"1958"	"4.568"	"8.86"	"11.732"	"100.401"	"61.099"	"85.92"	"491.105"	"318.094"	"294.821"	"153.125"	"27.428"	"0"
"1959"	"12.435"	"1.792"	"0.021"	"7.121"	"52.993"	"320.878"	"360.537"	"254.494"	"265.914"	"119.375"	"0.159"	"3.969"
"1960"	"0.226"	"0.021"	"17.26"	"23.307"	"94.589"	"249.515"	"398.771"	"317.228"	"188.481"	"91.68"	"0.669"	"0.937"
"1961"	"7.142"	"43.657"	"24.334"	"24.716"	"74.3"	"232.292"	"282.72"	"349.212"	"269.123"	"147.389"	"29.922"	"0.642"
"1962"	"5.621"	"23.224"	"1.248"	"45.282"	"27.491"	"186.19"	"446.635"	"290.548"	"207.879"	"96.922"	"6.391"	"24.01"
"1963"	"0.336"	"0.171"	"10.613"	"128.8"	"66.996"	"114.077"	"215.603"	"345.872"	"274.434"	"168.153"	"1.526"	"0"
"1964"	"0.031"	"42.598"	"6.015"	"88.347"	"28.54"	"125.697"	"214.191"	"495.734"	"237.6"	"105.373"	"3.673"	"0"
"1965"	"6.21"	"2.465"	"23.603"	"33.286"	"46.489"	"162.788"	"516.795"	"239.354"	"195.393"	"21.709"	"0.159"	"1.354"
"1966"	"51.167"	"2.212"	"1.475"	"22.898"	"19.073"	"173.964"	"215.858"	"273.839"	"235.025"	"41.859"	"18.236"	"5.81"
"1967"	"7.648"	"0.021"	"73.764"	"24.699"	"7.681"	"276.761"	"285.886"	"333.42"	"220.033"	"28.908"	"0.159"	"43.874"
"1968"	"15.786"	"15.077"	"19.482"	"59.134"	"37.059"	"205.799"	"373.93"	"132.235"	"355.041"	"130.538"	"22.354"	"1.585"
"1969"	"0"	"0.131"	"12.862"	"17.431"	"47.705"	"110.294"	"556.954"	"237.388"	"321.445"	"39.94"	"28.718"	"49.688"
"1970"	"3.993"	"10.893"	"43.815"	"43.378"	"36.496"	"304.159"	"244.887"	"484.809"	"153.554"	"26.251"	"1.655"	"0"
"1971"	"7.539"	"22.488"	"0.521"	"97.865"	"118.957"	"302.659"	"206.649"	"380.391"	"170.454"	"63.367"	"0.159"	"0"
"1972"	"0.395"	"21.45"	"0.168"	"26.786"	"22.751"	"144.381"	"340.222"	"259.479"	"316.903"	"88.73"	"52.536"	"0.06"
"1973"	"0.076"	"0.021"	"4.647"	"26.559"	"18.42"	"225.167"	"126.844"	"299.559"	"105.7"	"154.467"	"3.312"	"5.972"
"1974"	"0"	"0.181"	"24.87"	"10.108"	"58.007"	"338.531"	"249.223"	"199.691"	"125.897"	"106.894"	"19.118"	"0"
"1975"	"1.406"	"8.785"	"5.181"	"21.897"	"55.396"	"422.078"	"350.389"	"351.363"	"360.342"	"195.012"	"8.981"	"0"
"1976"	"0.473"	"0.438"	"4.68"	"95.407"	"62.708"	"111.938"	"456.937"	"385.897"	"243.219"	"19.467"	"36.693"	"2.317"
"1977"	"0.361"	"0.147"	"0.037"	"90.963"	"69.502"	"192.565"	"349.252"	"389.757"	"146.296"	"51.601"	"87.259"	"12.3"
"1978"	"14.677"	"16.041"	"18.484"	"57.51"	"46.883"	"240.585"	"382.927"	"411.904"	"211.011"	"46.316"	"33.117"	"8.577"
"1979"	"0.738"	"12.145"	"0.234"	"25.748"	"14.347"	"303.099"	"302.606"	"280.919"	"216.37"	"60.121"	"7.514"	"5.162"
"1980"	"7.796"	"5.348"	"8.758"	"25.467"	"31.419"	"367.983"	"428.431"	"279.367"	"239.328"	"40.799"	"0.97"	"2.79"
"1981"	"19.449"	"1.018"	"38.892"	"45.22"	"48.427"	"138.062"	"256.774"	"334.65"	"303.958"	"26.702"	"1.506"	"0.737"
"1982"	"1.422"	"4.644"	"17.75"	"51.008"	"31.975"	"188.111"	"354.604"	"408.023"	"203.976"	"24.718"	"29.669"	"0.177"
"1983"	"0.116"	"24.509"	"14.78"	"9.729"	"61.565"	"189.244"	"336.729"	"301.201"	"182.278"	"72.305"	"2.961"	"3.335"
"1984"	"6.932"	"11.218"	"3.019"	"18.809"	"69.968"	"307.156"	"338.172"	"307.419"	"116.65"	"39.615"	"0.89"	"0.145"
"1985"	"30.19"	"0.303"	"3.075"	"4.596"	"30.966"	"313.663"	"314.696"	"343.265"	"218.618"	"166.257"	"0.639"	"0.784"
"1986"	"25.933"	"23.85"	"1.803"	"36.86"	"25.764"	"220.601"	"328.514"	"414.849"	"150.257"	"39.853"	"59.759"	"5.491"
"1987"	"2.916"	"0.506"	"13.25"	"21.214"	"66.727"	"133.939"	"258.579"	"331.581"	"110.187"	"48.928"	"23.716"	"0.91"
"1988"	"0.137"	"8.187"	"4.437"	"46.968"	"77.857"	"160.433"	"425.834"	"267.268"	"184.611"	"33.825"	"6.348"	"0.758"
"1989"	"0"	"0.021"	"33.47"	"8.365"	"86.236"	"216.104"	"303.07"	"349.255"	"206.018"	"30.232"	"1.187"	"3.333"
"1990"	"2.591"	"54.664"	"52.341"	"15.984"	"150.229"	"271.376"	"407.285"	"507.592"	"181.011"	"213.838"	"21.836"	"3.697"
"1991"	"10.804"	"0.753"	"16.04"	"30.27"	"58.812"	"314.759"	"409.974"	"298.407"	"206.899"	"59.092"	"15.291"	"3.788"
"1992"	"5.887"	"1.429"	"0.021"	"10.332"	"72.821"	"198.88"	"400.524"	"322.847"	"143.039"	"33.173"	"22.898"	"0"
"1993"	"0.282"	"0.032"	"16.753"	"21.834"	"74.632"	"225.613"	"336.332"	"218.798"	"240.073"	"157.656"	"1.899"	"0"
"1994"	"1.186"	"3.736"	"19.11"	"20.222"	"88.673"	"173.641"	"431.637"	"356.721"	"191.813"	"88.232"	"12.688"	"0"
"1995"	"6.131"	"1.573"	"46.077"	"19.225"	"86.225"	"167.219"	"446.292"	"229.724"	"218.946"	"139.97"	"20.825"	"0"
"1996"	"7.271"	"1.857"	"8.911"	"50.811"	"10.466"	"138.486"	"286.612"	"275.554"	"112.451"	"49.787"	"21.159"	"0.307"
"1997"	"15.69"	"0.965"	"55.577"	"61.058"	"15.205"	"88.679"	"260.595"	"231.625"	"204.277"	"12.379"	"60.543"	"25.861"
"1998"	"2.84"	"27.54"	"1.697"	"26.219"	"68.099"	"164.656"	"269.37"	"159.243"	"183.825"	"159.505"	"83.312"	"0"
"1999"	"0.444"	"0.283"	"0.021"	"0.406"	"76.586"	"225.634"	"174.124"	"647.269"	"175.273"	"73.907"	"3.297"	"0.019"
"2000"	"0.216"	"48.605"	"0.021"	"29.508"	"47.225"	"360.304"	"231.403"	"330.199"	"106.98"	"77.491"	"1.639"	"0"
"2001"	"0.431"	"0.237"	"14.259"	"37.172"	"86.579"	"295.033"	"345.143"	"438.176"	"116.865"	"61.513"	"46.929"	"0.062"
"2002"	"51.829"	"1.171"	"6.443"	"44.07"	"59.945"	"182.881"	"240.713"	"422.57"	"97.665"	"24.093"	"9.134"	"0"
