
"Year"	"Jan"	"Feb"	"Mar"	"Apr"	"May"	"Jun"	"Jul"	"Aug"	"Sep"	"Oct"	"Nov"	"Dec"
"1901"	"13.609"	"16.796"	"23.518"	"29.543"	"34.001"	"37.063"	"33.22"	"29.687"	"29.754"	"27.912"	"21.379"	"16.217"
"1902"	"16.473"	"18.821"	"25.812"	"30.549"	"34.37"	"34.853"	"30.679"	"30.414"	"29.074"	"26.308"	"20.29"	"15.03"
"1903"	"15.357"	"16.918"	"22.795"	"28.968"	"33.797"	"36.313"	"33.182"	"29.682"	"29.873"	"25.715"	"19.809"	"14.873"
"1904"	"15.266"	"18.052"	"23.475"	"30.695"	"33.3"	"34.955"	"29.735"	"28.617"	"28.758"	"26.237"	"19.787"	"15.789"
"1905"	"13.468"	"13.437"	"20.545"	"27.217"	"34.091"	"36.744"	"31.678"	"29.825"	"30.365"	"26.712"	"21.812"	"15.759"
"1906"	"14.514"	"16.207"	"21.864"	"29.867"	"35.869"	"34.453"	"31.209"	"29.556"	"28.883"	"26.686"	"21.574"	"16.436"
"1907"	"16.703"	"16.201"	"21.001"	"27.773"	"32.594"	"35.437"	"34.02"	"29.276"	"30.463"	"27.405"	"21.226"	"14.578"
"1908"	"14.251"	"17.977"	"23.368"	"31.387"	"34.363"	"36.18"	"30.365"	"28.965"	"29.447"	"26.147"	"20.269"	"14.92"
"1909"	"15.66"	"16.412"	"24.099"	"27.92"	"33.345"	"32.516"	"29.933"	"29.376"	"28.989"	"26.515"	"21.559"	"15.303"
"1910"	"14.487"	"17.759"	"23.727"	"29.411"	"34.121"	"34.008"	"31.414"	"29.609"	"29.364"	"25.305"	"19.689"	"14.999"
"1911"	"16.91"	"17.863"	"21.596"	"29.553"	"35.505"	"34.944"	"32.451"	"29.785"	"28.498"	"26.737"	"19.199"	"14.858"
"1912"	"15.479"	"18.737"	"22.786"	"29.658"	"34.427"	"36.276"	"31.749"	"29.656"	"28.389"	"26.285"	"19.769"	"15.052"
"1913"	"15.325"	"17.606"	"21.456"	"30.865"	"32.294"	"32.576"	"31.567"	"30.876"	"30.771"	"27.749"	"20.449"	"15.569"
"1914"	"16.916"	"18.159"	"23.066"	"30.149"	"34.033"	"34.733"	"30.782"	"29.45"	"29.678"	"25.639"	"21.326"	"15.109"
"1915"	"15.368"	"16.273"	"22.79"	"29.284"	"35.963"	"35.114"	"32.521"	"30.124"	"30.087"	"27.87"	"20.957"	"15.949"
"1916"	"15.484"	"17.347"	"25.806"	"31.211"	"34.337"	"32.844"	"31.096"	"29.087"	"29.064"	"26.088"	"19.077"	"14.251"
"1917"	"15.315"	"17.611"	"22.723"	"26.79"	"30.007"	"33.424"	"30.441"	"29.219"	"28.464"	"25.536"	"18.371"	"15.401"
"1918"	"14.067"	"18.03"	"23.511"	"28.127"	"35.337"	"33.613"	"34.059"	"31.099"	"30.396"	"27.044"	"20.69"	"14.689"
"1919"	"15.158"	"16.37"	"23.891"	"28.964"	"33.559"	"36.138"	"30.108"	"29.219"	"29.263"	"25.921"	"20.263"	"14.983"
"1920"	"15.219"	"17.166"	"23.523"	"29.642"	"31.495"	"34.204"	"30.25"	"30.066"	"30.859"	"27.965"	"21.919"	"16.152"
"1921"	"16.026"	"18.474"	"26.201"	"32.37"	"36.805"	"35.287"	"33.218"	"28.967"	"28.564"	"25.733"	"20.196"	"17.163"
"1922"	"14.938"	"19.06"	"24.902"	"30.518"	"35.114"	"34.232"	"30.74"	"28.592"	"28.546"	"25.842"	"20.363"	"15.005"
"1923"	"14.993"	"17.107"	"24.043"	"30.689"	"34.172"	"37.313"	"31.57"	"29.077"	"29.421"	"25.569"	"20.463"	"15.631"
"1924"	"14.188"	"17.478"	"25.111"	"30.626"	"32.316"	"37.169"	"30.59"	"29.192"	"28.863"	"25.988"	"20.257"	"15.536"
"1925"	"13.34"	"15.957"	"23.291"	"30.986"	"33.246"	"32.084"	"29.334"	"30.215"	"29.711"	"26.79"	"19.625"	"14.947"
"1926"	"14.973"	"18.853"	"22.254"	"26.8"	"32.237"	"36.59"	"32.056"	"29.482"	"28.558"	"25.447"	"18.605"	"14.754"
"1927"	"13.376"	"16.337"	"22.138"	"29.22"	"33.153"	"35.133"	"30.784"	"29.024"	"29.347"	"26.421"	"19.774"	"16.594"
"1928"	"14.757"	"18.037"	"23.891"	"29.359"	"35.306"	"34.465"	"31.241"	"31.272"	"30.727"	"27.378"	"21.643"	"15.619"
"1929"	"14.856"	"16.432"	"24.96"	"30.7"	"35.336"	"34.806"	"30.784"	"28.804"	"30.684"	"26.36"	"20.894"	"15.03"
"1930"	"14.478"	"17.353"	"24.744"	"29.753"	"34.105"	"34.538"	"29.982"	"29.234"	"29.69"	"26.774"	"20.228"	"15.294"
"1931"	"16.516"	"16.649"	"23.033"	"31.237"	"34.453"	"36.063"	"31.837"	"30.191"	"28.988"	"25.805"	"20.122"	"16.24"
"1932"	"17.279"	"16.855"	"24.085"	"29.52"	"33.478"	"36.349"	"32.531"	"29.209"	"29.462"	"26.369"	"19.936"	"15.125"
"1933"	"13.083"	"18.132"	"24.127"	"27.675"	"31.21"	"33.6"	"30.498"	"29.16"	"28.672"	"25.777"	"20.157"	"15.478"
"1934"	"14.124"	"18.384"	"22.416"	"29.562"	"33.814"	"33.665"	"30.715"	"28.934"	"29.293"	"24.65"	"19.824"	"16.163"
"1935"	"13.462"	"18.07"	"23.585"	"27.142"	"34.615"	"36.259"	"30.889"	"29.052"	"29.08"	"25.511"	"20.801"	"15.311"
"1936"	"13.698"	"17.58"	"23.585"	"29.217"	"35.108"	"32.513"	"30.072"	"29.058"	"28.863"	"25.974"	"20.837"	"15.92"
"1937"	"13.815"	"17.993"	"21.975"	"28.265"	"33.685"	"35.14"	"31.414"	"29.826"	"29.396"	"25.56"	"20.997"	"14.684"
"1938"	"14.847"	"16.029"	"25.107"	"30.86"	"35.224"	"32.727"	"30.981"	"29.672"	"30.113"	"27.126"	"19.526"	"15.272"
"1939"	"16.021"	"18.081"	"21.763"	"28.586"	"35.405"	"33.547"	"30.7"	"30.275"	"28.968"	"27.002"	"20.105"	"15.436"
"1940"	"14.914"	"16.912"	"21.761"	"28.385"	"34.568"	"35.606"	"32.047"	"29.376"	"29.122"	"26.421"	"21.637"	"15.264"
"1941"	"14.603"	"18.364"	"25.843"	"32.247"	"35.139"	"33.824"	"33.163"	"30.725"	"30.196"	"28.634"	"20.964"	"16.869"
"1942"	"13.981"	"18.864"	"25.113"	"30.934"	"35.442"	"36.107"	"30.652"	"29.135"	"28.547"	"26.394"	"21.822"	"15.372"
"1943"	"16.393"	"17.965"	"24.673"	"28.249"	"34.621"	"34.815"	"31.357"	"28.585"	"29.605"	"26.303"	"21.57"	"16.753"
"1944"	"14.651"	"17.317"	"22.332"	"28.317"	"35.5"	"33.976"	"31.015"	"30.066"	"29.621"	"25.805"	"21.521"	"17.22"
"1945"	"13.363"	"17.212"	"24.548"	"28.575"	"34.147"	"35.591"	"31.813"	"30.334"	"29.157"	"25.58"	"20.632"	"14.535"
"1946"	"15.97"	"19.847"	"23.591"	"30.82"	"33.872"	"34.129"	"30.823"	"29.827"	"30.016"	"26.944"	"20.957"	"16.725"
"1947"	"14.124"	"19.08"	"25.154"	"31.436"	"35.054"	"36.132"	"31.389"	"29.95"	"29.341"	"25.378"	"21.722"	"16.24"
"1948"	"15.581"	"17.489"	"22.664"	"31.336"	"35.553"	"36.417"	"31.247"	"29.45"	"29.133"	"26.848"	"20.32"	"15.907"
"1949"	"16.658"	"18.517"	"24.39"	"30.959"	"34.766"	"35.685"	"31.357"	"29.509"	"29.678"	"26.688"	"19.415"	"14.648"
"1950"	"15.973"	"16.779"	"22.533"	"28.738"	"34.51"	"34.946"	"30.724"	"29.451"	"29.106"	"25.962"	"20.058"	"14.792"
"1951"	"14.098"	"17.473"	"23.332"	"27.909"	"34.022"	"34.79"	"32.407"	"29.802"	"29.163"	"29.019"	"22.185"	"15.93"
"1952"	"16.499"	"20.37"	"23.511"	"31.334"	"35.175"	"33.163"	"30.773"	"29.004"	"30.096"	"27.079"	"20.78"	"16.283"
"1953"	"14.071"	"19.447"	"27.033"	"30.87"	"35.486"	"35.903"	"31.081"	"29.084"	"29.322"	"26.237"	"20.205"	"17.541"
"1954"	"13.73"	"19.316"	"24.121"	"31.079"	"35.906"	"35.54"	"31.72"	"29.967"	"29.157"	"24.686"	"20.895"	"15.279"
"1955"	"14.836"	"18.101"	"25.89"	"28.591"	"33.837"	"35.176"	"30.758"	"29.192"	"29.28"	"25.347"	"20.199"	"16.042"
"1956"	"15.404"	"18.248"	"24.331"	"30.879"	"35.463"	"33.75"	"30.023"	"29.303"	"29.464"	"25.646"	"19.81"	"16.336"
"1957"	"15.077"	"17.189"	"22.79"	"29.184"	"33.513"	"34.4"	"31.157"	"30.25"	"28.642"	"26.368"	"21.885"	"16.789"
"1958"	"17.22"	"19.127"	"25.201"	"32.059"	"34.977"	"35.847"	"31.097"	"29.492"	"29.093"	"26.297"	"21.21"	"17.316"
"1959"	"15.699"	"17.821"	"25.202"	"30.538"	"34.073"	"35.431"	"30.788"	"29.645"	"29.673"	"27.096"	"21.309"	"17.11"
"1960"	"15.257"	"21.11"	"24.013"	"29.59"	"34.289"	"35.938"	"30.849"	"29.428"	"29.663"	"26.062"	"20.175"	"16.82"
"1961"	"15.757"	"16.46"	"24.516"	"29.687"	"34.178"	"34.018"	"30.676"	"28.971"	"29.31"	"25.663"	"19.786"	"13.406"
"1962"	"14.367"	"18.564"	"23.668"	"30.401"	"33.989"	"36.266"	"32.082"	"29.609"	"28.574"	"25.1"	"21.173"	"16.723"
"1963"	"14.661"	"19.816"	"24.001"	"29.578"	"33.115"	"34.102"	"31.734"	"29.27"	"28.54"	"27.162"	"23.049"	"16.3"
"1964"	"14.497"	"18.154"	"25.843"	"31"	"32.543"	"34.984"	"29.957"	"30.06"	"28.664"	"26.599"	"20.205"	"16.7"
"1965"	"17.189"	"18.306"	"23.297"	"28.285"	"33.471"	"36.609"	"31.446"	"30.204"	"29.011"	"26.833"	"22.127"	"16.1"
"1966"	"16.314"	"20.911"	"24.247"	"30.704"	"34.472"	"33.772"	"32.563"	"29.376"	"29.711"	"27.58"	"21.875"	"15.594"
"1967"	"14.434"	"20.013"	"22.859"	"29.411"	"34.012"	"35.3"	"30.54"	"28.024"	"28.061"	"25.958"	"20.902"	"16.647"
"1968"	"14.32"	"16.601"	"23.456"	"29.295"	"33.549"	"34.234"	"29.955"	"29.102"	"29.983"	"25.952"	"21.016"	"16.407"
"1969"	"15.573"	"19.191"	"26.837"	"30.421"	"32.91"	"36.184"	"30.25"	"28.886"	"28.522"	"27.123"	"22.199"	"16.283"
"1970"	"15.82"	"17.295"	"23.296"	"31.459"	"34.21"	"32.774"	"31.578"	"29.693"	"28.774"	"26.77"	"20.721"	"16.653"
"1971"	"14.448"	"17.946"	"23.339"	"29.394"	"31.755"	"31.21"	"29.266"	"27.788"	"28.721"	"26.046"	"20.674"	"16.429"
"1972"	"15.307"	"16.155"	"24.601"	"29.522"	"35.159"	"35.403"	"32.286"	"28.777"	"28.027"	"25.603"	"21.537"	"16.595"
"1973"	"15.525"	"19.222"	"23.711"	"31.833"	"35.234"	"34.247"	"31.161"	"29.185"	"29.03"	"26.2"	"20.432"	"14.973"
"1974"	"14.555"	"17.246"	"25.212"	"31.964"	"34.448"	"34.763"	"30.238"	"28.746"	"29.533"	"27.578"	"20.857"	"15.21"
"1975"	"14.692"	"17.82"	"23.587"	"31.727"	"35.647"	"33.422"	"30.083"	"28.923"	"28.036"	"27.284"	"19.926"	"16.228"
"1976"	"15.963"	"18.545"	"23.954"	"29.015"	"32.973"	"32.962"	"30.805"	"27.811"	"28.627"	"27.163"	"22.352"	"16.456"
"1977"	"14.949"	"18.558"	"25.554"	"29.38"	"31.987"	"33.941"	"29.406"	"29.071"	"28.015"	"26.868"	"23.058"	"16.96"
"1978"	"15.096"	"17.229"	"21.734"	"29.295"	"36.091"	"33.575"	"29.782"	"28.386"	"27.868"	"26.655"	"22.08"	"16.287"
"1979"	"16.204"	"16.779"	"22.36"	"29.959"	"31.443"	"34.024"	"30.441"	"30.049"	"30.228"	"28.086"	"23.29"	"16.864"
"1980"	"15.492"	"18.992"	"23.59"	"31.49"	"34.501"	"32.273"	"28.594"	"28.487"	"28.727"	"27.172"	"21.516"	"16.578"
"1981"	"15.591"	"18.853"	"23.055"	"29.806"	"33.364"	"34.327"	"29.419"	"29.256"	"28.889"	"26.539"	"20.332"	"15.753"
"1982"	"16.093"	"16.939"	"21.403"	"28.969"	"32.274"	"33.629"	"32.63"	"29.139"	"28.843"	"26.945"	"21.564"	"16.899"
"1983"	"14.237"	"17.036"	"23.239"	"27.578"	"32.49"	"34.267"	"31.053"	"29.476"	"28.988"	"25.958"	"20.147"	"16.238"
"1984"	"15.284"	"15.994"	"24.866"	"30.653"	"35.893"	"33.655"	"30.448"	"29.04"	"28.273"	"26.292"	"20.38"	"16.789"
"1985"	"15.388"	"18.444"	"25.833"	"30.807"	"35.139"	"35.169"	"30.091"	"29.323"	"28.267"	"25.071"	"21.493"	"17.582"
"1986"	"15.347"	"17.762"	"23.974"	"30.081"	"32.563"	"34.829"	"29.935"	"29.914"	"29.527"	"26.009"	"21.649"	"15.68"
"1987"	"15.331"	"19.658"	"24.664"	"30.686"	"32.52"	"36.73"	"32.991"	"31.052"	"30.47"	"27.485"	"21.41"	"16.366"
"1988"	"16.749"	"19.288"	"24.228"	"31.406"	"35.707"	"33.857"	"30.257"	"29.209"	"30.226"	"26.456"	"21.297"	"16.874"
"1989"	"14.309"	"17.6"	"23.391"	"29.405"	"34.632"	"32.839"	"30.526"	"28.249"	"29.18"	"26.471"	"20.53"	"15.7"
"1990"	"16.799"	"18.071"	"22.26"	"30.041"	"33.306"	"34.693"	"29.855"	"29.657"	"28.779"	"26.173"	"21.563"	"16.206"
"1991"	"14.477"	"19.221"	"24.043"	"29.31"	"35.004"	"34.709"	"32.868"	"28.926"	"29.484"	"25.867"	"20.275"	"16.058"
"1992"	"15.635"	"17.085"	"23.902"	"30.32"	"33.283"	"35.209"	"31.293"	"29.399"	"28.684"	"26.022"	"21.289"	"16.045"
"1993"	"15.574"	"19.317"	"21.602"	"28.996"	"34.241"	"34.444"	"31.567"	"30.197"	"28.12"	"26.517"	"21.881"	"16.477"
"1994"	"16.936"	"17.946"	"24.991"	"28.879"	"34.941"	"34.826"	"30.498"	"29.25"	"28.947"	"26.016"	"21.309"	"16.8"
"1995"	"14.549"	"18.541"	"23.117"	"30.457"	"36.186"	"35.978"	"31.464"	"29.035"	"29.268"	"27.42"	"21.64"	"17.22"
"1996"	"15.298"	"18.259"	"24.83"	"30.188"	"34.861"	"33.948"	"31.039"	"28.598"	"29.299"	"26.248"	"20.71"	"15.376"
"1997"	"14.672"	"17.412"	"23.638"	"28.569"	"32.495"	"33.999"	"32.518"	"29.293"	"28.863"	"25.022"	"20.611"	"15.469"
"1998"	"13.826"	"18.978"	"22.116"	"30.412"	"35.012"	"34.799"	"30.723"	"29.539"	"29.51"	"27.3"	"22.807"	"16.636"
"1999"	"14.588"	"19.293"	"24.722"	"31.764"	"34.163"	"33.632"	"31.331"	"29.855"	"28.927"	"27.095"	"22.961"	"16.804"
"2000"	"15.431"	"17.803"	"23.533"	"31.66"	"34.284"	"32.649"	"30.54"	"29.94"	"28.639"	"27.548"	"23.711"	"16.667"
"2001"	"14.488"	"18.76"	"23.819"	"29.475"	"33.453"	"32.368"	"30.661"	"30.25"	"29.962"	"27.658"	"22.237"	"16.749"
"2002"	"15.681"	"17.077"	"24.792"	"31.133"	"35.237"	"34.475"	"33.456"	"29.962"	"28.3"	"27.016"	"21.717"	"16.76"
