
"Year"	"Jan"	"Feb"	"Mar"	"Apr"	"May"	"Jun"	"Jul"	"Aug"	"Sep"	"Oct"	"Nov"	"Dec"
"1901"	"27.082"	"5.915"	"18.687"	"3.789"	"26.159"	"16.91"	"214.909"	"96.237"	"15.163"	"0.049"	"0"	"1.963"
"1902"	"0.072"	"1.498"	"11.468"	"8.705"	"14.987"	"30.083"	"91.801"	"95.758"	"71.938"	"3.63"	"0.516"	"0"
"1903"	"11.367"	"2.652"	"12.646"	"1.258"	"14.724"	"11.964"	"128.929"	"120.087"	"60.834"	"3.882"	"0"	"6.302"
"1904"	"21.508"	"0.569"	"67.647"	"6.129"	"8.242"	"33.383"	"48.534"	"86.667"	"31.205"	"1.252"	"6.71"	"2.109"
"1905"	"37.526"	"24.272"	"7.879"	"1.783"	"3.218"	"16.854"	"78.666"	"31.636"	"230.669"	"3.829"	"0"	"13.213"
"1906"	"2.922"	"56.226"	"16.425"	"3.661"	"8.318"	"32.336"	"61.839"	"105.298"	"225.864"	"0.283"	"0"	"5.168"
"1907"	"12.04"	"42.111"	"22.95"	"29.896"	"3.419"	"44.041"	"61.079"	"139.707"	"1.88"	"1.805"	"0.212"	"0"
"1908"	"28.018"	"4.575"	"0.794"	"15.232"	"6.36"	"45.503"	"139.057"	"394.771"	"64.063"	"0.717"	"0.049"	"6.062"
"1909"	"14.82"	"10.923"	"0.815"	"46.894"	"2.588"	"107.277"	"224.53"	"106.589"	"172.364"	"0.229"	"0.441"	"53.77"
"1910"	"23.034"	"3.739"	"1.691"	"19.17"	"5.775"	"97.375"	"103.011"	"119.277"	"19.164"	"0.638"	"0.283"	"4.087"
"1911"	"43.175"	"3.071"	"61.063"	"8.4"	"9.537"	"56.65"	"39.228"	"95.23"	"35.289"	"3.609"	"20.165"	"0.304"
"1912"	"34.837"	"3.361"	"7.342"	"25.638"	"6.669"	"21.757"	"57.124"	"168.731"	"20.871"	"0.049"	"8.754"	"5.185"
"1913"	"3.311"	"27.039"	"24.621"	"3.421"	"58.521"	"55.015"	"148.723"	"178.516"	"12"	"1.313"	"1.511"	"13.479"
"1914"	"16.143"	"29.743"	"13.219"	"19.752"	"20.989"	"30.623"	"231.384"	"80.063"	"151.909"	"22.989"	"9.709"	"13.952"
"1915"	"5.004"	"43.377"	"21.712"	"7.523"	"3.069"	"35.543"	"36.604"	"79.74"	"77.052"	"16.351"	"0"	"3.868"
"1916"	"0.72"	"8.49"	"2.996"	"4.452"	"10.756"	"32.968"	"330.953"	"117.887"	"45.56"	"7.28"	"0.412"	"0"
"1917"	"2.835"	"4.63"	"9.192"	"27.283"	"23.547"	"80.426"	"94.94"	"230.027"	"206.099"	"16.976"	"0"	"3.374"
"1918"	"1.784"	"1.956"	"31.49"	"31.755"	"1.296"	"52.466"	"22.791"	"93.273"	"15.809"	"0.097"	"6.405"	"6.287"
"1919"	"40.452"	"15.589"	"10.243"	"12.349"	"14.18"	"7.341"	"214.635"	"115.443"	"26.247"	"0.947"	"1.303"	"13.27"
"1920"	"18.482"	"14.221"	"13.651"	"2.907"	"15.378"	"20.5"	"49.155"	"117.133"	"18.338"	"0.125"	"0"	"0.224"
"1921"	"5.861"	"0.711"	"0.952"	"2.004"	"5.409"	"39.404"	"200.058"	"139.456"	"60.634"	"7.469"	"0"	"10.332"
"1922"	"11.383"	"9.654"	"4.088"	"4.63"	"4.492"	"45.348"	"74.71"	"86.084"	"263.343"	"1.178"	"0.897"	"32.992"
"1923"	"24.954"	"31.554"	"5.676"	"26.441"	"21.888"	"2.903"	"115.657"	"159.518"	"20.563"	"7.899"	"3.632"	"28.808"
"1924"	"31.499"	"38.427"	"6.84"	"2.302"	"25.773"	"2.939"	"215.568"	"55.463"	"93.845"	"3.566"	"0.472"	"49.183"
"1925"	"8.939"	"1.768"	"4.531"	"2.611"	"18.134"	"133.886"	"158.324"	"126.738"	"10.026"	"2.117"	"16.506"	"0"
"1926"	"10.156"	"2.168"	"39.614"	"14.213"	"12.479"	"5.075"	"90.739"	"250.165"	"37.287"	"0.37"	"2.166"	"10.07"
"1927"	"0.352"	"14.397"	"5.847"	"6.78"	"16.47"	"17.379"	"108.935"	"129.034"	"22.105"	"4.949"	"0"	"33.836"
"1928"	"9.328"	"17.132"	"6.963"	"15.941"	"5.931"	"30.483"	"107.452"	"102.777"	"121.072"	"0.002"	"10.569"	"15.458"
"1929"	"9.07"	"2.679"	"2.011"	"5.222"	"2.2"	"124.379"	"93.949"	"271.501"	"13.767"	"2.4"	"0"	"51.044"
"1930"	"13.198"	"5.598"	"2.451"	"24.784"	"8.073"	"21.105"	"205.116"	"59.011"	"29.112"	"1.61"	"2.612"	"2.953"
"1931"	"24.959"	"21.047"	"14.95"	"6.524"	"17.277"	"5.125"	"222.739"	"193.979"	"88.594"	"16.452"	"0.283"	"0"
"1932"	"18.372"	"1.636"	"13.295"	"5.587"	"6.468"	"22.545"	"126.153"	"63.134"	"35.548"	"0.371"	"0.049"	"32.16"
"1933"	"4.056"	"8.27"	"11.911"	"14.884"	"8.132"	"39.408"	"103.586"	"212.959"	"94.236"	"4.996"	"7.762"	"0.16"
"1934"	"10.836"	"3.435"	"16.355"	"1.152"	"3.5"	"32.954"	"102.331"	"135.958"	"7.789"	"0"	"0"	"9.185"
"1935"	"51.09"	"52.078"	"6.948"	"28.854"	"6.011"	"2.763"	"52.493"	"80.494"	"38.91"	"0.141"	"11.754"	"3.567"
"1936"	"2.424"	"30.863"	"19.265"	"13.628"	"5.248"	"172.729"	"156.302"	"115.409"	"62.206"	"10.909"	"0.755"	"20.968"
"1937"	"1.412"	"72.357"	"5.312"	"31.066"	"6.538"	"17.323"	"206.519"	"24.404"	"51.074"	"3.491"	"0.477"	"17.682"
"1938"	"30.026"	"20.434"	"2.067"	"6.834"	"0.596"	"140.655"	"54.981"	"55.959"	"5.978"	"7.141"	"0.283"	"0.686"
"1939"	"7.561"	"43.595"	"21.961"	"5.259"	"5.688"	"54.662"	"81.506"	"50.613"	"54.017"	"3.288"	"0"	"0"
"1940"	"37.028"	"24.994"	"13.302"	"5.598"	"3.997"	"75.539"	"52.83"	"92.597"	"37.938"	"0.305"	"0.135"	"2.317"
"1941"	"21.894"	"6.031"	"5.514"	"2.583"	"20.554"	"52.994"	"87.646"	"46.867"	"118.094"	"0.353"	"0.517"	"10.295"
"1942"	"15.703"	"23.004"	"17.788"	"24.906"	"21.068"	"38.857"	"120.214"	"159.308"	"52.543"	"1.804"	"0.229"	"25.35"
"1943"	"20.262"	"1.257"	"4.293"	"10.53"	"9.45"	"79.169"	"91.214"	"61.18"	"21.326"	"0"	"0"	"0"
"1944"	"19.884"	"30.578"	"18.525"	"29.554"	"0.663"	"48.921"	"107.067"	"118.319"	"54.621"	"0.29"	"0.762"	"11.584"
"1945"	"46.609"	"0.421"	"11.614"	"44.451"	"9.64"	"55.516"	"142.66"	"94.833"	"108.265"	"3.756"	"0.212"	"1.171"
"1946"	"0.775"	"7.735"	"10.055"	"7.931"	"21.156"	"62.875"	"114.249"	"143.177"	"6.857"	"13.656"	"3.677"	"9.544"
"1947"	"9.89"	"11.122"	"7.106"	"0.486"	"2.573"	"5.652"	"40.18"	"176.786"	"61.469"	"10.488"	"0.283"	"10.384"
"1948"	"4.464"	"31.242"	"37.308"	"13.308"	"4.243"	"44.738"	"235.466"	"142.473"	"45.062"	"1.421"	"5.358"	"19.976"
"1949"	"5.57"	"31.777"	"18.664"	"4.808"	"3.906"	"11.036"	"321.49"	"57.054"	"68.965"	"1.796"	"0.119"	"0.928"
"1950"	"53.712"	"23.039"	"44.008"	"3.139"	"6.208"	"15.682"	"258.536"	"155.667"	"265.14"	"0.117"	"0.097"	"0.324"
"1951"	"19.751"	"6.842"	"26.541"	"22.308"	"17.569"	"21.439"	"127.54"	"91.477"	"17.804"	"1.155"	"17.184"	"0.439"
"1952"	"8.698"	"7.556"	"25.202"	"3.952"	"11.232"	"40.102"	"114.503"	"55.409"	"4.944"	"1.347"	"3.07"	"1.842"
"1953"	"28.117"	"3.828"	"3.245"	"8.505"	"4.827"	"23.264"	"156.706"	"175.566"	"126.816"	"0.879"	"3.115"	"6.933"
"1954"	"15.673"	"41.597"	"2.625"	"1.304"	"7.703"	"26.996"	"189.94"	"46.711"	"247.199"	"13.074"	"0"	"0.574"
"1955"	"13.042"	"1.64"	"26.366"	"11.887"	"15.735"	"25.716"	"90.104"	"94.444"	"224.03"	"19.758"	"0"	"4.788"
"1956"	"17.481"	"4.589"	"21.787"	"5.249"	"7.47"	"109.598"	"157.771"	"150.106"	"7.93"	"26.426"	"0"	"1.798"
"1957"	"59.158"	"2.633"	"27.639"	"31.32"	"12.772"	"17.755"	"100.809"	"235.59"	"23.434"	"4.276"	"9.366"	"7.562"
"1958"	"3.963"	"3.344"	"5.803"	"5.088"	"3.009"	"38.139"	"127.627"	"89.754"	"217.428"	"9.529"	"0.615"	"29.92"
"1959"	"26.922"	"12.161"	"12.693"	"2.086"	"17.224"	"5.287"	"212.023"	"221.181"	"50.891"	"10.141"	"24.459"	"0.158"
"1960"	"17.739"	"0.632"	"25.964"	"12.621"	"2.724"	"26.729"	"86.791"	"74.792"	"63.864"	"3.902"	"0"	"8.265"
"1961"	"62.156"	"22.018"	"6.708"	"16.545"	"9.067"	"21.146"	"207.011"	"119.441"	"125.817"	"14.061"	"0.741"	"9.342"
"1962"	"23.399"	"26.12"	"17.778"	"0.955"	"11.714"	"6.263"	"138.661"	"120.158"	"165.962"	"0"	"9.863"	"7.973"
"1963"	"1.038"	"12.359"	"20.275"	"5.684"	"26.846"	"15.765"	"88.729"	"67.876"	"59.916"	"0.884"	"1.954"	"18.103"
"1964"	"19.241"	"4.045"	"7.681"	"12.667"	"17.123"	"45.375"	"260.859"	"140.873"	"73.904"	"0"	"2.567"	"6.818"
"1965"	"7.456"	"21.134"	"15.173"	"40.476"	"18.184"	"2.763"	"143.115"	"93.904"	"2.912"	"5.65"	"9.047"	"0"
"1966"	"0.977"	"46.257"	"15.288"	"9.78"	"25.761"	"81.196"	"128.734"	"108.091"	"168.471"	"11.457"	"3.363"	"0.676"
"1967"	"0.072"	"16.82"	"45.673"	"6.306"	"4.693"	"6.532"	"86.946"	"289.249"	"37.142"	"3.538"	"2.072"	"46.297"
"1968"	"21.218"	"26.735"	"11.381"	"2.944"	"7.559"	"17.172"	"103.339"	"165.12"	"5.029"	"10.476"	"0"	"9.404"
"1969"	"4.748"	"9.112"	"25.408"	"26.501"	"22.397"	"13.504"	"192.264"	"76.733"	"87.112"	"1.508"	"0.183"	"0"
"1970"	"15.027"	"17.098"	"12.696"	"0.668"	"11.801"	"40.715"	"45.325"	"157.529"	"37.189"	"1.69"	"0"	"0.012"
"1971"	"1.896"	"13.282"	"5.488"	"21.36"	"35.867"	"60.719"	"127.048"	"248.707"	"26.677"	"6.315"	"1.83"	"0"
"1972"	"8.73"	"13.192"	"7.566"	"4.577"	"1.757"	"11.108"	"91.071"	"105.581"	"117.995"	"9.812"	"9.704"	"10.415"
"1973"	"12.515"	"14.531"	"11.239"	"1.606"	"16.848"	"28.382"	"136.069"	"197.589"	"74.396"	"2.922"	"0"	"17.263"
"1974"	"6.186"	"8.589"	"2.568"	"1.147"	"13.408"	"21.306"	"171.811"	"67.562"	"8.743"	"0.374"	"0"	"8.03"
"1975"	"17.603"	"23.608"	"24.599"	"4.266"	"0.745"	"101.757"	"187.67"	"123.812"	"147.463"	"1.061"	"0"	"0.023"
"1976"	"13.234"	"23.206"	"16.657"	"10.694"	"15.473"	"69.144"	"159.052"	"426.214"	"131.242"	"11.471"	"0"	"0.023"
"1977"	"22.602"	"0.676"	"1.738"	"34.196"	"42.476"	"83.896"	"162.454"	"124.799"	"45.574"	"19.683"	"0.865"	"7.413"
"1978"	"5.019"	"7.86"	"58.869"	"9.075"	"0.469"	"69.108"	"246.528"	"294.024"	"125.648"	"0.265"	"5.317"	"0.902"
"1979"	"9.918"	"36.665"	"38.622"	"6.61"	"25.341"	"36.001"	"126.981"	"78.131"	"71.223"	"6.02"	"6.838"	"0.838"
"1980"	"11.91"	"8.161"	"19.841"	"6.747"	"3.752"	"96.682"	"386.325"	"252.05"	"73.133"	"6.202"	"7.884"	"9.66"
"1981"	"71.224"	"17.923"	"40.19"	"2.101"	"5.562"	"5.282"	"372.048"	"88.952"	"5.963"	"6.77"	"27.232"	"0.318"
"1982"	"21.298"	"20.09"	"94.455"	"16.105"	"41.139"	"12.012"	"46.16"	"180.954"	"3.849"	"0.613"	"20.924"	"21.24"
"1983"	"37.587"	"23.567"	"39.883"	"32.432"	"75.603"	"30.058"	"137.411"	"213.161"	"59.913"	"18.336"	"0"	"1.868"
"1984"	"0.85"	"45.112"	"10.204"	"18.984"	"0.963"	"22.644"	"362.549"	"197.064"	"106.291"	"0"	"0"	"19.715"
"1985"	"5.011"	"1.363"	"6.702"	"23.184"	"22.087"	"54.6"	"214.458"	"146.938"	"104.118"	"16.222"	"1.612"	"18.423"
"1986"	"3.094"	"35.834"	"13.294"	"12.936"	"28.975"	"72.022"	"206.569"	"188.746"	"81.177"	"4.877"	"1.545"	"15.989"
"1987"	"20.728"	"20.083"	"20.75"	"8.76"	"20.623"	"54.326"	"91.008"	"66.344"	"5.983"	"13.691"	"0"	"3.151"
"1988"	"5.467"	"11.4"	"48.41"	"8.769"	"1.609"	"38.99"	"223.298"	"125.903"	"128.827"	"20.607"	"0.037"	"23.629"
"1989"	"33.581"	"5.332"	"17.883"	"2.901"	"8.363"	"27.42"	"213.032"	"114.354"	"50.022"	"0.298"	"7.42"	"1.367"
"1990"	"3.399"	"53.432"	"56.998"	"14.24"	"14.537"	"16.457"	"164.121"	"190.678"	"194.874"	"2.837"	"9.471"	"36.905"
"1991"	"0.618"	"21.898"	"12.409"	"44.866"	"20.796"	"93.87"	"27.979"	"135.96"	"51.29"	"2.804"	"1.388"	"9.266"
"1992"	"43.11"	"28.608"	"12.079"	"11.289"	"39.167"	"20.878"	"93.267"	"180.424"	"94.194"	"3.366"	"14.389"	"2.184"
"1993"	"9.177"	"11.867"	"19.943"	"24.204"	"17.237"	"19.468"	"153.769"	"29.431"	"81.994"	"0"	"0"	"0"
"1994"	"15.176"	"9.377"	"6.737"	"6.736"	"60.292"	"33.51"	"130.309"	"80.051"	"119.698"	"1.929"	"0"	"7.569"
"1995"	"21.293"	"75.784"	"21.428"	"5.532"	"0.424"	"60.301"	"131.474"	"238.378"	"99.13"	"1.975"	"8.401"	"1.432"
"1996"	"24.441"	"24.799"	"20.871"	"4.931"	"11.241"	"169.946"	"92.982"	"248.411"	"34.53"	"3.41"	"0"	"0.533"
"1997"	"19.201"	"10.487"	"19.085"	"31.213"	"22.495"	"95.59"	"256.682"	"312.922"	"52.136"	"21.364"	"15.094"	"2.248"
"1998"	"8.755"	"30.399"	"19.419"	"22.405"	"10.679"	"12.176"	"187.523"	"94.706"	"44.732"	"15.441"	"1.095"	"0.539"
"1999"	"6.228"	"5.991"	"9.958"	"1.93"	"14.342"	"60.15"	"59.799"	"116.791"	"64.957"	"1.559"	"0.387"	"1.371"
"2000"	"13.434"	"13.773"	"3.991"	"0.993"	"9.998"	"46.769"	"234.383"	"81.909"	"32.15"	"0"	"3.999"	"0.212"
"2001"	"4.914"	"3.537"	"17.653"	"5.936"	"19.262"	"57.598"	"273.781"	"17.988"	"31.759"	"0.161"	"0.399"	"0.663"
"2002"	"4.152"	"10.717"	"12.154"	"3.62"	"20.383"	"44.424"	"78.597"	"91.781"	"116.813"	"0.142"	"0"	"6.139"
