
"Year"	"Jan"	"Feb"	"Mar"	"Apr"	"May"	"Jun"	"Jul"	"Aug"	"Sep"	"Oct"	"Nov"	"Dec"
"1901"	"14.452"	"16.567"	"20.005"	"22.998"	"23.592"	"24.975"	"25.091"	"25.165"	"24.861"	"23.555"	"19.297"	"15.911"
"1902"	"15.157"	"16.384"	"20.985"	"20.898"	"23.803"	"24.152"	"25.15"	"25.153"	"24.696"	"22.129"	"18.568"	"15.228"
"1903"	"13.99"	"15.902"	"19.516"	"22.832"	"23.682"	"24.118"	"25.66"	"24.388"	"24.861"	"23.868"	"19.742"	"15.908"
"1904"	"14.478"	"16.568"	"20.849"	"21.72"	"22.962"	"25.049"	"25.014"	"24.95"	"24.947"	"22.982"	"18.935"	"15.153"
"1905"	"14.07"	"13.734"	"18.447"	"20.377"	"23.593"	"24.973"	"25.388"	"24.481"	"25.304"	"23.113"	"19.397"	"15.677"
"1906"	"14.486"	"15.995"	"18.748"	"22.208"	"24.13"	"24.777"	"25.725"	"24.105"	"25.761"	"22.846"	"19.646"	"15.987"
"1907"	"15.852"	"15.769"	"18.641"	"20.826"	"23.151"	"23.973"	"24.587"	"25.415"	"24.407"	"23.252"	"19.629"	"16.093"
"1908"	"14.78"	"16.341"	"20.823"	"23.868"	"23.196"	"24.514"	"24.774"	"25.176"	"24.872"	"22.958"	"19.194"	"15.851"
"1909"	"14.576"	"16.443"	"21.773"	"21.414"	"23.191"	"23.801"	"25.674"	"24.466"	"25.721"	"24.102"	"20.787"	"16.34"
"1910"	"14.619"	"16.225"	"19.57"	"20.578"	"23.43"	"23.649"	"24.108"	"24.765"	"25.168"	"22.754"	"19.725"	"15.365"
"1911"	"15.057"	"15.867"	"19.154"	"21.138"	"22.943"	"24.018"	"24.514"	"24.665"	"24.696"	"22.961"	"19.113"	"14.882"
"1912"	"14.773"	"16.76"	"19.605"	"20.104"	"23.453"	"24.128"	"24.712"	"24.709"	"24.496"	"22.576"	"19.778"	"15.84"
"1913"	"15.411"	"17.762"	"19.85"	"22.177"	"22.254"	"23.902"	"25.273"	"24.765"	"24.659"	"22.737"	"18.827"	"14.851"
"1914"	"14.722"	"16.268"	"19.737"	"20.594"	"23.054"	"24.344"	"25.285"	"24.089"	"24.69"	"21.61"	"19.26"	"16.133"
"1915"	"16.148"	"16.607"	"19.626"	"22.388"	"23.03"	"23.569"	"23.941"	"24.68"	"24.563"	"25.027"	"21.256"	"16.655"
"1916"	"14.823"	"16.55"	"20.974"	"21.521"	"23.432"	"24.683"	"24.075"	"24.86"	"25.115"	"23.119"	"20.316"	"15.258"
"1917"	"14.282"	"15.887"	"19.344"	"21.066"	"23.069"	"23.912"	"24.833"	"24.861"	"24.804"	"23.286"	"20.406"	"15.802"
"1918"	"14.576"	"16.131"	"20.148"	"21.601"	"24.035"	"22.836"	"24.708"	"24.555"	"24.861"	"22.9"	"19.287"	"15.881"
"1919"	"15.649"	"16.229"	"21.706"	"21.968"	"23.451"	"24.512"	"24.873"	"25.775"	"23.779"	"22.621"	"20.15"	"16.345"
"1920"	"16.008"	"15.833"	"19.427"	"21.193"	"22.991"	"23.999"	"25.703"	"24.665"	"24.958"	"23.199"	"20.151"	"17.051"
"1921"	"16.365"	"17.254"	"20.305"	"21.741"	"23.559"	"23.492"	"25.158"	"25.052"	"24.57"	"21.87"	"19.591"	"15.857"
"1922"	"15.787"	"17.351"	"21.195"	"23.299"	"23.801"	"24.149"	"25.397"	"25.05"	"25.015"	"23.054"	"20.631"	"16.157"
"1923"	"15.979"	"15.951"	"20.619"	"22.65"	"22.865"	"24.283"	"25.1"	"25.939"	"24.995"	"22.661"	"20.197"	"16.586"
"1924"	"15.13"	"16.364"	"22.569"	"22.721"	"22.966"	"24.574"	"25.175"	"24.979"	"24.477"	"24.319"	"20.193"	"16.015"
"1925"	"13.295"	"14.91"	"20.005"	"21.64"	"22.303"	"24.353"	"24.902"	"24.717"	"23.984"	"22.19"	"19.168"	"15.527"
"1926"	"14.811"	"16.388"	"19.227"	"21.558"	"23.241"	"23.864"	"24.907"	"25.488"	"24.778"	"23.409"	"19.095"	"16.613"
"1927"	"14.348"	"15.314"	"18.401"	"21.859"	"23.046"	"24.026"	"25.009"	"24.991"	"24.107"	"23.134"	"19.475"	"16.161"
"1928"	"15.27"	"17.688"	"20.803"	"22.764"	"22.831"	"24.167"	"25.521"	"24.989"	"24.893"	"22.334"	"18.46"	"16.335"
"1929"	"14.777"	"15.463"	"20.275"	"21.7"	"22.571"	"23.977"	"25.084"	"25.006"	"24.867"	"23.046"	"18.999"	"15.234"
"1930"	"13.212"	"16.571"	"19.799"	"21.705"	"23.742"	"23.475"	"25.467"	"25.076"	"25.337"	"22.037"	"19.391"	"15.595"
"1931"	"15.25"	"16.67"	"20.026"	"22.586"	"22.699"	"24.253"	"24.641"	"25.555"	"24.506"	"24.164"	"19.352"	"16.288"
"1932"	"15.076"	"15.266"	"20.809"	"22.757"	"23.381"	"24.374"	"24.953"	"24.756"	"24.904"	"23.509"	"20.515"	"16.204"
"1933"	"14.342"	"16.549"	"21.214"	"21.658"	"22.754"	"24.219"	"24.982"	"24.86"	"25.247"	"23.443"	"18.816"	"15.649"
"1934"	"14.817"	"16.458"	"20.636"	"22.339"	"22.633"	"23.094"	"25.12"	"25.267"	"25.321"	"22.766"	"18.744"	"15.331"
"1935"	"14.111"	"16.141"	"20.748"	"22.25"	"24.066"	"23.455"	"25.197"	"24.383"	"24.611"	"23.219"	"20.071"	"15.248"
"1936"	"13.42"	"15.62"	"20.837"	"22.504"	"23.593"	"24.569"	"25.022"	"25.159"	"24.915"	"22.515"	"20.027"	"15.988"
"1937"	"13.242"	"16.373"	"20.251"	"23.13"	"23.612"	"24.872"	"25.564"	"25.119"	"25.052"	"23.289"	"18.544"	"16.418"
"1938"	"15.358"	"15.943"	"21.475"	"23.507"	"23.747"	"24.51"	"24.762"	"24.933"	"24.922"	"23.598"	"18.518"	"16.201"
"1939"	"15.141"	"16.863"	"20.535"	"23.31"	"23.585"	"24.1"	"24.848"	"25.508"	"24.795"	"23.026"	"19.976"	"16.139"
"1940"	"14.294"	"16.163"	"18.31"	"23.197"	"23.364"	"24.389"	"25.04"	"25.354"	"24.499"	"23.256"	"19.739"	"16.673"
"1941"	"14.506"	"16.608"	"21.556"	"23.049"	"23.127"	"24.607"	"25.41"	"25.34"	"24.78"	"23.106"	"18.8"	"16.893"
"1942"	"15.181"	"17.659"	"20.573"	"22.204"	"22.959"	"24.307"	"26.049"	"25.301"	"24.715"	"23.892"	"20.233"	"15.349"
"1943"	"15.408"	"15.471"	"19.45"	"20.888"	"23.399"	"24.509"	"25.404"	"24.627"	"24.969"	"22.89"	"20.487"	"16.539"
"1944"	"14.474"	"15.739"	"20.315"	"21.485"	"23.603"	"24.279"	"25.862"	"25.462"	"24.097"	"23.434"	"18.95"	"16.503"
"1945"	"15.05"	"15.057"	"20.599"	"22.579"	"22.738"	"24.751"	"25.178"	"24.618"	"25.26"	"22.691"	"19.458"	"15.703"
"1946"	"15.643"	"18.499"	"20.482"	"21.651"	"23.217"	"24.42"	"24.884"	"25.526"	"24.971"	"22.861"	"20.184"	"16.362"
"1947"	"15.029"	"16.963"	"20.826"	"22.686"	"23.545"	"24.25"	"24.841"	"25.002"	"24.96"	"22.255"	"19.479"	"17"
"1948"	"15.505"	"16.069"	"19.803"	"22.038"	"22.513"	"24.325"	"24.694"	"24.904"	"25.107"	"22.463"	"19.77"	"15.421"
"1949"	"15.087"	"16.295"	"20.191"	"20.027"	"22.669"	"23.832"	"24.638"	"24.648"	"24.933"	"23.876"	"19.155"	"14.398"
"1950"	"15.012"	"16.253"	"19.925"	"22.064"	"23.709"	"24.117"	"24.914"	"24.373"	"25.031"	"23.392"	"19.415"	"16.167"
"1951"	"14.884"	"16.838"	"21.013"	"22.085"	"23.205"	"23.852"	"24.41"	"25.444"	"24.907"	"23.426"	"19.901"	"17.141"
"1952"	"15.749"	"18.202"	"19.749"	"22.897"	"22.942"	"25.03"	"25.182"	"25.06"	"24.588"	"23.79"	"19.955"	"16.303"
"1953"	"14.574"	"17.35"	"21.047"	"22.562"	"22.971"	"24.324"	"24.824"	"25.592"	"24.682"	"22.662"	"19.517"	"17.281"
"1954"	"14.19"	"17.838"	"20.84"	"22.438"	"23.38"	"23.506"	"24.149"	"24.464"	"25.18"	"22.315"	"18.857"	"16.263"
"1955"	"15.082"	"16.639"	"20.62"	"22.011"	"23.56"	"23.779"	"24.376"	"24.359"	"25.198"	"23.744"	"20.403"	"15.473"
"1956"	"14.662"	"16.841"	"20.543"	"23.043"	"23.832"	"24.041"	"25.185"	"25.001"	"25.393"	"23.42"	"19.854"	"16.34"
"1957"	"15.276"	"15.612"	"20.046"	"22.953"	"23.057"	"24.681"	"25.473"	"25.889"	"25.337"	"22.478"	"19.682"	"16.261"
"1958"	"16.031"	"16.016"	"21.507"	"23.262"	"23.486"	"25.998"	"26.148"	"24.557"	"25.6"	"23.692"	"20.07"	"16.486"
"1959"	"15.078"	"15.655"	"20.07"	"22.97"	"23"	"24.526"	"26.174"	"25.884"	"24.769"	"22.68"	"19.416"	"16.748"
"1960"	"15.341"	"18.783"	"20.232"	"24.056"	"25.066"	"24.923"	"25.071"	"26.121"	"24.856"	"23.766"	"19.656"	"17.281"
"1961"	"16.539"	"15.58"	"20.486"	"23.245"	"23.959"	"25.372"	"26.043"	"25.901"	"25.434"	"23.52"	"18.871"	"15.346"
"1962"	"14.248"	"16.727"	"20.527"	"23.851"	"23.195"	"24.871"	"25.729"	"24.701"	"25.661"	"23.174"	"18.953"	"16.087"
"1963"	"14.627"	"17.822"	"20.68"	"22.107"	"22.975"	"24.152"	"25.188"	"25.041"	"25.499"	"22.67"	"19.02"	"16.179"
"1964"	"14.547"	"16.297"	"20.364"	"21.27"	"23.168"	"23.34"	"24.118"	"24.984"	"24.818"	"23.697"	"20.411"	"15.882"
"1965"	"14.919"	"16.239"	"19.069"	"22.176"	"23.585"	"24.261"	"24.631"	"24.008"	"24.528"	"23.205"	"18.908"	"16.985"
"1966"	"15.582"	"18.229"	"21.345"	"22.675"	"24.148"	"23.187"	"25.157"	"24.396"	"24.527"	"22.06"	"20.558"	"16.202"
"1967"	"15.558"	"17.294"	"19.312"	"21.869"	"23.171"	"23.883"	"25.012"	"25.386"	"24.353"	"22.564"	"18.077"	"16.254"
"1968"	"15.04"	"15.733"	"20.312"	"21.672"	"22.544"	"23.754"	"24.866"	"25.12"	"24.838"	"22.489"	"19.573"	"16.012"
"1969"	"14.695"	"17.207"	"21.778"	"22.709"	"24.301"	"24.477"	"25.381"	"24.198"	"25.019"	"23.048"	"19.358"	"16.341"
"1970"	"14.101"	"16.494"	"20.077"	"22.599"	"23.14"	"24.632"	"24.401"	"24.781"	"24.46"	"22.662"	"19.535"	"16.072"
"1971"	"14.618"	"15.792"	"20.211"	"21.963"	"23.756"	"24.455"	"24.945"	"24.224"	"24.706"	"23.048"	"19.135"	"15.749"
"1972"	"15.236"	"15.697"	"20.394"	"20.863"	"23.273"	"24.461"	"25.316"	"25.317"	"24.423"	"23.362"	"19.459"	"16.369"
"1973"	"15.31"	"17.387"	"20.317"	"23.623"	"23.539"	"24.091"	"25.477"	"25.381"	"24.981"	"23.306"	"19.918"	"15.573"
"1974"	"14.34"	"16.325"	"20.311"	"21.384"	"23.267"	"24.246"	"23.857"	"25.017"	"24.22"	"24.158"	"20.694"	"14.835"
"1975"	"14.469"	"17.096"	"20.677"	"23.341"	"23.188"	"25.272"	"24.396"	"25.147"	"24.616"	"23.713"	"19.232"	"15.083"
"1976"	"15.043"	"17.184"	"20.293"	"22.293"	"23.085"	"23.394"	"24.78"	"24.408"	"24.899"	"22.569"	"20.332"	"15.843"
"1977"	"14.192"	"16.24"	"21.609"	"20.455"	"22.045"	"23.135"	"25.23"	"24.601"	"25.188"	"22.012"	"19.666"	"16.077"
"1978"	"13.509"	"16.517"	"19.782"	"22.23"	"23.286"	"24.117"	"24.813"	"26.165"	"24.766"	"24.208"	"19.672"	"16.598"
"1979"	"15.812"	"16.721"	"20.521"	"23.496"	"24.495"	"25.699"	"25.018"	"25.325"	"24.518"	"22.611"	"20.63"	"16.424"
"1980"	"14.522"	"16.528"	"20.162"	"22.722"	"22.844"	"25.256"	"25.598"	"24.995"	"25.228"	"22.603"	"19.87"	"17.203"
"1981"	"15.465"	"17.176"	"19.817"	"21.243"	"23.392"	"25.363"	"24.951"	"25.436"	"25.175"	"23.717"	"20.574"	"16.675"
"1982"	"16.269"	"16.585"	"20.227"	"21.073"	"24.205"	"24.433"	"25.147"	"25.648"	"24.89"	"23.31"	"19.216"	"15.86"
"1983"	"14.626"	"15.849"	"19.853"	"21.647"	"22.807"	"24.731"	"25.078"	"25.349"	"24.742"	"24.282"	"20.55"	"15.483"
"1984"	"14.05"	"16.792"	"21.763"	"22.926"	"22.457"	"25.257"	"24.264"	"25.531"	"23.743"	"23.737"	"19.224"	"15.609"
"1985"	"14.903"	"15.935"	"20.365"	"21.926"	"23.637"	"24.276"	"24.124"	"25.503"	"24.5"	"23.639"	"19.239"	"17.111"
"1986"	"15.488"	"17.514"	"21.201"	"21.119"	"23.948"	"25.173"	"24.687"	"25.179"	"24.209"	"21.976"	"19.646"	"16.518"
"1987"	"15.923"	"18.065"	"19.845"	"21.864"	"23.62"	"25.536"	"24.694"	"24.619"	"24.655"	"23.111"	"20.678"	"17.386"
"1988"	"15.577"	"17.94"	"20.052"	"22.922"	"23.125"	"25.272"	"25.031"	"24.207"	"24.507"	"23.659"	"20.848"	"18.135"
"1989"	"14.086"	"16.278"	"20.48"	"22.081"	"24.522"	"24.493"	"24.458"	"25.157"	"24.615"	"23.616"	"19.144"	"15.912"
"1990"	"15.611"	"16.85"	"18.727"	"20.004"	"23.803"	"24.478"	"25.028"	"25.591"	"24.578"	"22.897"	"21.177"	"17.248"
"1991"	"14.708"	"17.913"	"21.403"	"22.103"	"21.662"	"24.273"	"25.278"	"25.4"	"24.816"	"23.757"	"19.125"	"15.753"
"1992"	"14.974"	"14.957"	"20.755"	"23.096"	"22.875"	"24.842"	"24.15"	"25.45"	"25.127"	"22.907"	"19.805"	"15.208"
"1993"	"14.686"	"17.198"	"19.405"	"21.799"	"22.571"	"23.755"	"25.053"	"24.96"	"24.702"	"23.874"	"20.617"	"17.799"
"1994"	"16.16"	"16.602"	"20.34"	"22.453"	"24.662"	"25.06"	"25.375"	"25.878"	"25.967"	"22.444"	"19.956"	"16.24"
"1995"	"15.018"	"17.165"	"21.834"	"23.307"	"24.721"	"24.856"	"24.971"	"25.408"	"24.861"	"24.1"	"21.193"	"16.83"
"1996"	"15.448"	"17.942"	"20.916"	"24.374"	"23.545"	"24.972"	"25.078"	"25.109"	"25.594"	"23.51"	"20.718"	"17.76"
"1997"	"15.067"	"15.894"	"20.777"	"21.566"	"24.067"	"25.004"	"25.762"	"26.36"	"24.923"	"23.451"	"19.909"	"17.106"
"1998"	"15.059"	"17.705"	"19.552"	"24.056"	"25.468"	"24.867"	"25.843"	"25.518"	"26.049"	"24.851"	"21.738"	"18.109"
"1999"	"16.358"	"20.772"	"22.38"	"24.349"	"24.16"	"25.974"	"25.643"	"24.963"	"25.522"	"23.946"	"21.127"	"18.071"
"2000"	"15.069"	"17.682"	"19.698"	"22.207"	"23.883"	"25.485"	"26.057"	"25.269"	"24.839"	"23.83"	"19.937"	"16.631"
"2001"	"15.538"	"18.028"	"21.173"	"22.645"	"24.291"	"25.635"	"26.021"	"26.024"	"26.117"	"23.78"	"20.721"	"16.929"
"2002"	"15.908"	"18.553"	"21.32"	"22.484"	"23.781"	"24.734"	"25.81"	"25.531"	"25.162"	"23.6"	"20.7"	"16.922"
