
"Year"	"Jan"	"Feb"	"Mar"	"Apr"	"May"	"Jun"	"Jul"	"Aug"	"Sep"	"Oct"	"Nov"	"Dec"
"1901"	"31.896"	"9.799"	"62.017"	"266.445"	"237.902"	"713.681"	"461.527"	"413.751"	"361.772"	"280.224"	"166.4"	"1.8"
"1902"	"6.727"	"8.91"	"86.473"	"316.099"	"318.27"	"851.325"	"781.59"	"573.012"	"475.349"	"55.14"	"6.485"	"0.594"
"1903"	"11.529"	"22.163"	"145.373"	"208.507"	"244.831"	"817.09"	"508.189"	"737.132"	"186.177"	"141.472"	"118.097"	"0.941"
"1904"	"11.719"	"66.163"	"99.974"	"606.854"	"386.901"	"399.075"	"452.473"	"564.705"	"186.321"	"78.585"	"60.298"	"2.43"
"1905"	"12.479"	"13.057"	"176.925"	"153.709"	"346.785"	"537.626"	"584.532"	"820.38"	"352.502"	"355.343"	"24.157"	"18.838"
"1906"	"13.617"	"91.239"	"98.315"	"414.28"	"225.293"	"463.619"	"813.274"	"751.692"	"287.624"	"138.557"	"42.814"	"0.026"
"1907"	"28.872"	"81.459"	"134.685"	"266.318"	"192.73"	"656.833"	"726.499"	"368.555"	"303.83"	"51.962"	"1.671"	"6.641"
"1908"	"13.085"	"18.729"	"22.601"	"225.776"	"374.353"	"695.108"	"601.333"	"258.386"	"433.587"	"110.604"	"4.018"	"0.637"
"1909"	"25.374"	"15.013"	"7.581"	"206.445"	"511.128"	"836.187"	"391.545"	"549.139"	"149.925"	"153.472"	"16.045"	"4.2"
"1910"	"6.464"	"39.706"	"301.591"	"219.306"	"242.829"	"998.704"	"828.93"	"547.063"	"188.017"	"265.228"	"43.844"	"9.89"
"1911"	"44.846"	"27.546"	"77.686"	"328.366"	"682.461"	"896.117"	"657.757"	"517.624"	"371.124"	"493.266"	"26.683"	"1.896"
"1912"	"10.352"	"74.103"	"170.999"	"219.328"	"176.312"	"614.818"	"620.606"	"496.387"	"303.604"	"324.425"	"97.388"	"18.958"
"1913"	"9.803"	"76.099"	"129.751"	"429.828"	"529.334"	"641.359"	"444.383"	"438.08"	"291.731"	"366.455"	"7.878"	"23.457"
"1914"	"1.825"	"59.828"	"95.722"	"144.727"	"370.026"	"663.373"	"487.723"	"658.051"	"200.441"	"79.16"	"7.173"	"11.108"
"1915"	"9.329"	"54.03"	"119.087"	"121.146"	"953.198"	"606.594"	"908.049"	"624.026"	"260.979"	"178.521"	"15.778"	"2.079"
"1916"	"11.073"	"20.568"	"199.928"	"289.062"	"794.229"	"569.684"	"528.295"	"524.108"	"273.575"	"380.453"	"111.767"	"3.961"
"1917"	"4.033"	"94.613"	"42.336"	"185.282"	"386.049"	"806.409"	"628.771"	"443.202"	"209.241"	"239.513"	"138.235"	"0.026"
"1918"	"4.547"	"7.92"	"132.74"	"116.633"	"421.526"	"1145.249"	"751.967"	"555.426"	"337.721"	"99.077"	"1.689"	"0.487"
"1919"	"14.298"	"9.299"	"12.434"	"126.868"	"379.856"	"651.897"	"640.4"	"274.492"	"439.137"	"437.193"	"57.908"	"1.28"
"1920"	"3.396"	"35.645"	"240.473"	"150.301"	"343.949"	"574.259"	"382.682"	"620.836"	"427.271"	"105.213"	"1.013"	"3.508"
"1921"	"30.649"	"14.164"	"126.574"	"266.974"	"900.684"	"735.757"	"695.573"	"560.022"	"348.498"	"163.564"	"6.75"	"5.479"
"1922"	"14.692"	"4.152"	"158.088"	"315.016"	"289.15"	"809.3"	"561.896"	"441.53"	"213.819"	"345.5"	"10.577"	"6.201"
"1923"	"0.404"	"85.646"	"19.53"	"245.153"	"483.894"	"833.559"	"618.589"	"304.943"	"344.39"	"62.254"	"7.565"	"3.148"
"1924"	"9.717"	"16.56"	"23.709"	"243.59"	"331.782"	"776.982"	"892.151"	"548.512"	"421.63"	"143.702"	"158.766"	"0.071"
"1925"	"18.588"	"31.076"	"99.831"	"252.532"	"707.128"	"458.23"	"542.367"	"447.555"	"352.208"	"87.612"	"7.396"	"0.741"
"1926"	"22.868"	"19.11"	"121.05"	"138.148"	"257.807"	"782.538"	"760.541"	"342.17"	"233.093"	"301.276"	"26.782"	"15.715"
"1927"	"36.301"	"34.439"	"76.962"	"320.915"	"233.59"	"745.136"	"538.662"	"393.293"	"731.599"	"349.57"	"24.572"	"0.026"
"1928"	"6.841"	"17.587"	"106.656"	"94.353"	"512.371"	"652.389"	"627.37"	"436.483"	"419.865"	"365.992"	"21.698"	"1.783"
"1929"	"18.084"	"4.466"	"72.8"	"324.768"	"855.407"	"737.052"	"475.345"	"382.707"	"291.768"	"128.229"	"36.212"	"4.698"
"1930"	"17.878"	"28.056"	"97.387"	"240.474"	"175.47"	"847.474"	"257.754"	"626.779"	"366.074"	"282.102"	"165.833"	"2.618"
"1931"	"4.236"	"34.213"	"34.53"	"463.854"	"408.194"	"1002.063"	"896.888"	"251.014"	"295.625"	"115.376"	"17.261"	"17.22"
"1932"	"15.741"	"34.105"	"43.48"	"123.726"	"927.443"	"829.483"	"474.725"	"751.969"	"282.193"	"117.552"	"152.895"	"10.617"
"1933"	"6.777"	"20.933"	"29.353"	"235.633"	"316.718"	"717.871"	"459.603"	"567.626"	"174.606"	"76.583"	"3.322"	"1.442"
"1934"	"23.112"	"64.086"	"23.217"	"351.603"	"469.005"	"1152.639"	"689.28"	"367.989"	"294.762"	"411.555"	"34.495"	"4.828"
"1935"	"4.754"	"31.898"	"65.038"	"105.183"	"458.352"	"1023.23"	"444.078"	"819.756"	"392.541"	"25.911"	"13.618"	"1.702"
"1936"	"21.655"	"53.732"	"75.516"	"192.584"	"482.977"	"631.267"	"639.523"	"359.924"	"417.292"	"285.686"	"23.581"	"21.137"
"1937"	"5.378"	"35.542"	"33.746"	"106.382"	"493.526"	"546.754"	"508.007"	"588.929"	"202.014"	"97.928"	"4.403"	"3.5"
"1938"	"42.443"	"16.273"	"183.073"	"205.876"	"324.81"	"961.692"	"683.039"	"663.478"	"593.108"	"188.286"	"75.039"	"2.185"
"1939"	"2.748"	"29.95"	"23.87"	"223.615"	"369.87"	"922.464"	"597.726"	"314.786"	"427.856"	"199.057"	"2.539"	"0.729"
"1940"	"1.287"	"53.319"	"196.489"	"50.416"	"449.689"	"649.774"	"480.355"	"342.659"	"510.678"	"147.896"	"10.813"	"16.028"
"1941"	"6.532"	"47.406"	"131.604"	"183.367"	"585.519"	"761.686"	"504.844"	"418.082"	"506.888"	"154.87"	"6.567"	"6.279"
"1942"	"19.633"	"24.351"	"193.212"	"152.781"	"590.682"	"951.636"	"322.642"	"374.631"	"446.325"	"10.79"	"12.79"	"0.026"
"1943"	"24.015"	"38.998"	"170.937"	"184.123"	"582.106"	"665.039"	"495.447"	"479.323"	"460.941"	"99.194"	"4.685"	"2.702"
"1944"	"43.841"	"19.086"	"70.647"	"111.469"	"877.886"	"590.807"	"407.101"	"349.389"	"443.994"	"155.7"	"11.469"	"13.713"
"1945"	"41.292"	"34.59"	"145.688"	"124.898"	"377.538"	"708.009"	"677.405"	"599.49"	"244.009"	"246.519"	"0.36"	"7.82"
"1946"	"0.544"	"21.702"	"97.526"	"139.519"	"359.407"	"735.232"	"704.296"	"470.914"	"344.114"	"449.063"	"7.869"	"0.252"
"1947"	"5.685"	"8.126"	"67.79"	"363.649"	"484.287"	"632.814"	"814.417"	"360.743"	"512.5"	"408.001"	"7.489"	"10.742"
"1948"	"6.772"	"43.522"	"66.783"	"357.73"	"964.295"	"815.346"	"815.48"	"472.549"	"278.447"	"204.603"	"44.928"	"4.099"
"1949"	"14.176"	"13.114"	"125.023"	"371.747"	"465.877"	"851.9"	"586.715"	"464.283"	"496.382"	"202.891"	"15.439"	"7.032"
"1950"	"9.171"	"63.375"	"111.383"	"175.42"	"336.905"	"678.09"	"487.078"	"600.331"	"214.851"	"247.313"	"86.24"	"3.64"
"1951"	"5.294"	"4.358"	"100.575"	"244.783"	"450.794"	"900.28"	"827.192"	"504.527"	"345.885"	"378.656"	"51.523"	"18.466"
"1952"	"14.059"	"2.271"	"131.847"	"153.052"	"424.948"	"497.64"	"731.985"	"539.267"	"495.583"	"319.413"	"80.272"	"1.111"
"1953"	"14.779"	"15.909"	"263.944"	"220.93"	"613.911"	"822.456"	"579.001"	"370.68"	"445.833"	"242.077"	"12.411"	"1.706"
"1954"	"12.934"	"85.611"	"61.158"	"283.934"	"650.978"	"950.6"	"752.967"	"511.184"	"355.985"	"226.203"	"0.778"	"23.059"
"1955"	"8.778"	"18.497"	"196.88"	"183.562"	"415.44"	"723.34"	"847.162"	"478.502"	"354.652"	"180.133"	"100.567"	"4.61"
"1956"	"22.988"	"3.276"	"198.396"	"243.129"	"703.128"	"1102.377"	"519.762"	"479.697"	"174.938"	"143.017"	"54.721"	"9.922"
"1957"	"40.708"	"28.832"	"29.239"	"229.019"	"600.644"	"793.912"	"501.332"	"415.3"	"298.362"	"93.216"	"21.229"	"9.115"
"1958"	"15.044"	"76.841"	"15.136"	"170.758"	"736.012"	"508.41"	"576.611"	"710.428"	"388.983"	"320.453"	"2.245"	"14.6"
"1959"	"29.343"	"36.795"	"125.491"	"227.171"	"756.109"	"933.389"	"478.002"	"394.371"	"307.589"	"296.541"	"15.036"	"7.867"
"1960"	"0.035"	"6.064"	"45.638"	"94.964"	"425.798"	"527.502"	"824.578"	"360.142"	"347.896"	"55.704"	"17.616"	"7.147"
"1961"	"7.216"	"7.53"	"152.66"	"180.472"	"303.356"	"590.198"	"559.757"	"442.148"	"335.558"	"186.644"	"21.017"	"4.578"
"1962"	"24.746"	"30.143"	"18.847"	"119.541"	"318.688"	"634.66"	"381.422"	"551.951"	"60.544"	"105.412"	"10.118"	"4.887"
"1963"	"1.736"	"9.958"	"72.22"	"201.89"	"346.509"	"735.751"	"661.75"	"439.106"	"300.388"	"142.49"	"24.749"	"3.136"
"1964"	"16.14"	"49.755"	"160.907"	"348.093"	"314.754"	"952.133"	"830.432"	"402.534"	"278.865"	"254.661"	"22.748"	"13.189"
"1965"	"2.458"	"65.633"	"96.077"	"170.891"	"262.726"	"773.505"	"568.849"	"505.729"	"360.497"	"87.7"	"111.286"	"6.365"
"1966"	"6.418"	"7.782"	"59.818"	"161.051"	"311.383"	"1022.965"	"615.181"	"704.731"	"247.863"	"137.757"	"43.415"	"25.072"
"1967"	"30.423"	"12.596"	"146.299"	"152.553"	"284.262"	"526.381"	"523.667"	"334.355"	"371.986"	"94.322"	"12.886"	"1.156"
"1968"	"22.042"	"25.73"	"92.878"	"215.329"	"633.27"	"710.065"	"798.955"	"526.408"	"300.535"	"106.563"	"7.312"	"0.026"
"1969"	"28.924"	"1.055"	"111.65"	"220.063"	"278.735"	"602.908"	"663.554"	"634.181"	"140.044"	"83.82"	"30.204"	"1.732"
"1970"	"42.614"	"44.882"	"202.887"	"302.294"	"571.149"	"714.372"	"967.634"	"517.528"	"415.979"	"321.122"	"21.172"	"0.026"
"1971"	"22.838"	"15.339"	"40.782"	"133.483"	"174.206"	"610.587"	"560.725"	"501.635"	"233.968"	"334.136"	"110.523"	"10.379"
"1972"	"14.768"	"44.825"	"134.344"	"310.974"	"352.46"	"654.932"	"618.364"	"277.607"	"177.806"	"105.528"	"1.389"	"3.55"
"1973"	"13.95"	"76.849"	"22.048"	"379.195"	"422.485"	"980.296"	"498.962"	"356.673"	"388.447"	"107.663"	"106.153"	"44.213"
"1974"	"15.417"	"6.485"	"78.137"	"438.069"	"318.613"	"749.043"	"1234.258"	"598.951"	"749.811"	"383.912"	"18.869"	"1.111"
"1975"	"6.237"	"18.481"	"34.303"	"277.465"	"431.142"	"460.219"	"670.588"	"497.085"	"281.577"	"255.539"	"46.736"	"5.445"
"1976"	"0.719"	"27.788"	"215.814"	"192.959"	"246.124"	"823.874"	"732.126"	"430.223"	"112.776"	"96.803"	"27.588"	"2.103"
"1977"	"5.781"	"44.233"	"188.32"	"541.898"	"531.829"	"688.885"	"608.655"	"654.355"	"175.689"	"262.894"	"58.849"	"20.796"
"1978"	"2.523"	"20.205"	"49.569"	"129.264"	"371.075"	"685.076"	"548.303"	"177.135"	"211.071"	"100.191"	"62.217"	"0.043"
"1979"	"5.349"	"6.574"	"47.274"	"86.02"	"350.838"	"496.427"	"864.212"	"312.371"	"431.481"	"363.264"	"21.057"	"54.243"
"1980"	"4.65"	"36.47"	"110.094"	"266.896"	"275.045"	"297.149"	"383.349"	"338.333"	"238.799"	"193.922"	"0.36"	"0.298"
"1981"	"29.855"	"30.079"	"123.481"	"194.557"	"440.659"	"367.153"	"570.581"	"524.687"	"295.683"	"65.004"	"0.588"	"43.256"
"1982"	"0.603"	"27.331"	"50.775"	"338.655"	"286.941"	"632.147"	"589.595"	"570.508"	"370.498"	"43.773"	"62.383"	"20.424"
"1983"	"20.493"	"71.191"	"157.993"	"217.919"	"327.811"	"569.983"	"825.941"	"501.528"	"450.929"	"168.001"	"4.484"	"28.207"
"1984"	"12.941"	"7.809"	"69.671"	"259.667"	"839.555"	"571.934"	"876.943"	"366.47"	"594.472"	"178.46"	"4.155"	"35.691"
"1985"	"7.911"	"28.422"	"260.832"	"349.68"	"284.115"	"825.388"	"724.955"	"375.453"	"285.974"	"64.107"	"7.944"	"17.29"
"1986"	"7.576"	"9.295"	"47.273"	"346.806"	"100.685"	"424.355"	"510.267"	"395.144"	"356.322"	"306.186"	"96.108"	"2.804"
"1987"	"9.212"	"22.184"	"147.282"	"319.754"	"262.546"	"361.855"	"735.618"	"509.107"	"444.192"	"95.719"	"25.043"	"16.338"
"1988"	"8.004"	"37.478"	"160.068"	"172.944"	"643.095"	"518.202"	"865.134"	"960.234"	"430.369"	"364.317"	"105.252"	"52.581"
"1989"	"14.764"	"78.284"	"25.276"	"346.702"	"221.956"	"693.148"	"837.085"	"379.011"	"580.582"	"343.347"	"22.963"	"6.288"
"1990"	"13.689"	"47.524"	"116.232"	"419.75"	"260.645"	"675.93"	"738.93"	"209.643"	"610.271"	"183.121"	"14.421"	"6.088"
"1991"	"12.485"	"18.964"	"117.926"	"200.742"	"760.6"	"481.955"	"472.12"	"568.898"	"358.483"	"557.226"	"14.544"	"43.018"
"1992"	"15.345"	"56.706"	"76.678"	"174.741"	"399.491"	"665.632"	"759.734"	"663.64"	"355.731"	"163.903"	"7.812"	"24.367"
"1993"	"46.818"	"89.392"	"149.827"	"116.645"	"477.295"	"926.842"	"736.352"	"646.331"	"463.831"	"80.789"	"1.568"	"0.033"
"1994"	"22.299"	"50.628"	"219.926"	"225.503"	"295.237"	"698.139"	"410.072"	"562.568"	"222.023"	"156.213"	"18.028"	"3.071"
"1995"	"16.261"	"38.596"	"50.319"	"115.856"	"311.136"	"712.66"	"617.511"	"222.426"	"429.309"	"53.4"	"143.4"	"4.951"
"1996"	"8.994"	"30.68"	"273.616"	"234.876"	"706.813"	"408.537"	"809.21"	"422.786"	"138.82"	"164.734"	"2.271"	"0.696"
"1997"	"8.311"	"28.695"	"75.912"	"94.275"	"306.473"	"568.56"	"551.854"	"356.033"	"431.059"	"28.095"	"10.718"	"44.137"
"1998"	"14.479"	"76.796"	"196.534"	"116.509"	"536.926"	"400.462"	"770.026"	"546.077"	"164.514"	"85.468"	"109.685"	"0.026"
"1999"	"0.404"	"0.905"	"29.928"	"127.07"	"466.616"	"450.545"	"659.741"	"442.82"	"178.599"	"251.219"	"13.103"	"1.857"
"2000"	"28.648"	"26.269"	"105.86"	"383.712"	"584.317"	"252.623"	"453.218"	"685.645"	"337.67"	"104.643"	"4.923"	"4.9"
"2001"	"2.585"	"22.036"	"46.079"	"247.125"	"480.169"	"547.722"	"532.981"	"592.496"	"345.064"	"245.363"	"27.109"	"1.052"
"2002"	"37.518"	"6.36"	"117.658"	"399.063"	"409.106"	"881.235"	"812.636"	"383.367"	"250.114"	"80.107"	"42.736"	"1.085"
