
"Year"	"Jan"	"Feb"	"Mar"	"Apr"	"May"	"Jun"	"Jul"	"Aug"	"Sep"	"Oct"	"Nov"	"Dec"
"1901"	"25.613"	"16.056"	"33.941"	"316.239"	"308.619"	"513.498"	"339.694"	"341.222"	"300.897"	"294.401"	"179.562"	"1.282"
"1902"	"2.226"	"6.338"	"54.827"	"275.444"	"321.021"	"762.6"	"531.925"	"480.393"	"294.173"	"44.935"	"8.285"	"2.781"
"1903"	"1.978"	"22.186"	"90.4"	"197.55"	"252.051"	"669.598"	"392.099"	"619.999"	"144.757"	"96.297"	"149.476"	"1.218"
"1904"	"3.69"	"83.231"	"46.936"	"590.417"	"421.961"	"382.083"	"340.161"	"411.57"	"156.343"	"91.833"	"64.901"	"1.938"
"1905"	"4.39"	"17.888"	"241.502"	"158.437"	"446.763"	"503.155"	"431.552"	"754.099"	"393.178"	"405.901"	"14.647"	"9.26"
"1906"	"8.588"	"110.546"	"48.998"	"283.625"	"234.813"	"354.929"	"653.697"	"646.749"	"285.6"	"148.669"	"49.609"	"0"
"1907"	"23.776"	"96.037"	"106.092"	"203.833"	"199.623"	"573.267"	"498.823"	"330.837"	"205.993"	"73.494"	"7.338"	"5.195"
"1908"	"7.899"	"15.503"	"7.376"	"148.844"	"345.895"	"448.495"	"351.454"	"236.141"	"356.899"	"95.397"	"7.534"	"1.388"
"1909"	"6.811"	"19.503"	"2.999"	"176.293"	"512.661"	"603.422"	"280.882"	"420.668"	"129.977"	"165.976"	"29.976"	"4.079"
"1910"	"4.802"	"38.369"	"224.397"	"208.731"	"327.347"	"663.7"	"629.923"	"484.077"	"196.577"	"171.971"	"54.162"	"1.115"
"1911"	"23.781"	"24.965"	"57.749"	"288.043"	"735.76"	"820.082"	"438.654"	"433.435"	"364.175"	"457.11"	"1.806"	"0.453"
"1912"	"4.689"	"80.837"	"129.783"	"207.119"	"216.931"	"549.252"	"364.147"	"412.779"	"231.387"	"332.765"	"132.799"	"13.01"
"1913"	"3.804"	"82.667"	"94.522"	"344.584"	"428.774"	"563.212"	"327.307"	"356.359"	"260.928"	"310.295"	"14.265"	"10.315"
"1914"	"1.479"	"64.778"	"53.092"	"102.466"	"492.295"	"618.389"	"308.238"	"573.146"	"159.358"	"49.562"	"9.746"	"6.702"
"1915"	"6.786"	"61.349"	"61.371"	"114.035"	"1197.533"	"433.71"	"578.254"	"522.215"	"183.433"	"147.72"	"20.431"	"2.548"
"1916"	"6.538"	"19.069"	"138.177"	"265.208"	"846.171"	"477.055"	"349.063"	"485.837"	"269.034"	"451.122"	"155.928"	"0.724"
"1917"	"0.905"	"92.407"	"21.098"	"109.424"	"430.799"	"609.949"	"377.073"	"377.459"	"177.833"	"265.533"	"183.119"	"2.359"
"1918"	"0.847"	"6.9"	"89.53"	"93.108"	"513.007"	"908.96"	"561.527"	"497.734"	"294.402"	"76.003"	"3.146"	"0.981"
"1919"	"10.898"	"2.986"	"7.229"	"100.757"	"324.044"	"543.55"	"416.515"	"256.156"	"372.313"	"404.229"	"68.828"	"0.702"
"1920"	"0.254"	"34.871"	"161.824"	"137.704"	"409.527"	"418.751"	"237.342"	"545.304"	"417.796"	"109.862"	"4.507"	"0.63"
"1921"	"18.637"	"8.863"	"63.215"	"216.166"	"974.765"	"631.706"	"559.47"	"443.125"	"255.654"	"79.126"	"4.712"	"0.218"
"1922"	"7.037"	"1.941"	"119.258"	"328.269"	"260.124"	"751.716"	"335.797"	"325.886"	"186.897"	"388.945"	"6.189"	"5.5"
"1923"	"2.07"	"91.509"	"13.739"	"252.637"	"493.939"	"774.841"	"349.565"	"232.532"	"235.981"	"92.389"	"7.337"	"0.331"
"1924"	"5.881"	"10.802"	"7.683"	"270.184"	"287.924"	"661.75"	"592.159"	"446.413"	"359.834"	"115.418"	"206.306"	"0"
"1925"	"15.616"	"28.413"	"56.287"	"256.033"	"700.07"	"339.808"	"360.228"	"345.278"	"284.1"	"83.621"	"8.183"	"1.361"
"1926"	"16.392"	"15.837"	"87.641"	"101.774"	"179.909"	"729.862"	"475.612"	"307.638"	"216.692"	"285.553"	"5.212"	"12.765"
"1927"	"25.813"	"36.418"	"31.848"	"272.689"	"300.525"	"669.119"	"366.557"	"298.485"	"581.349"	"286.448"	"24.308"	"0.29"
"1928"	"4.35"	"21.703"	"62.063"	"78.132"	"486.272"	"559.819"	"469.982"	"310.026"	"311.906"	"325.931"	"13.229"	"0"
"1929"	"14.233"	"1.732"	"44.132"	"346.364"	"881"	"634.209"	"365.638"	"311.176"	"277.797"	"105.316"	"9.583"	"5.558"
"1930"	"13.621"	"33.428"	"69.269"	"146.912"	"305.953"	"757.446"	"209.781"	"540.72"	"202.026"	"153.08"	"200.106"	"0.639"
"1931"	"0.853"	"24.982"	"20.522"	"378.186"	"436.404"	"775.164"	"624.411"	"187.363"	"225.854"	"54.486"	"10.877"	"1.867"
"1932"	"5.219"	"34.425"	"16.798"	"104.765"	"1002.53"	"619.121"	"376.808"	"674.535"	"241.023"	"83.852"	"162.824"	"1.54"
"1933"	"1.858"	"20.807"	"12.494"	"191.605"	"407.074"	"526.344"	"362.472"	"456.577"	"173.316"	"61.085"	"2.769"	"0"
"1934"	"16.895"	"66.699"	"11.036"	"322.085"	"394.393"	"1003.868"	"531.619"	"348.629"	"243.783"	"451.251"	"21.227"	"3.06"
"1935"	"1.578"	"44.529"	"33.06"	"78.913"	"496.889"	"780.686"	"276.144"	"741.25"	"332.485"	"41.093"	"6.072"	"2.622"
"1936"	"11.654"	"46.288"	"47.828"	"150.052"	"579.575"	"489.301"	"468.119"	"288.812"	"343.189"	"303.867"	"5.143"	"11.394"
"1937"	"0.254"	"30.296"	"11.62"	"46.506"	"576.048"	"525.585"	"474.961"	"427.988"	"159.399"	"83.615"	"2.409"	"3.148"
"1938"	"26.875"	"7.591"	"127.127"	"182.952"	"530.399"	"874.651"	"509.686"	"581.091"	"556.854"	"102.646"	"56.998"	"0.023"
"1939"	"0.157"	"26.819"	"9.216"	"187.276"	"424.025"	"761.784"	"485.383"	"305.842"	"370.626"	"196.991"	"10.165"	"1.207"
"1940"	"0.018"	"69.95"	"167.751"	"26.869"	"518.17"	"506.792"	"391.96"	"339.796"	"502.921"	"135.194"	"4.951"	"1.203"
"1941"	"0.263"	"53.882"	"84.138"	"182.969"	"574.979"	"646.718"	"389.738"	"329.287"	"402.269"	"210.479"	"7.914"	"0.877"
"1942"	"18.908"	"22.334"	"153.217"	"132.894"	"570.358"	"911.424"	"202.144"	"344.013"	"395.922"	"26.424"	"16.838"	"0.013"
"1943"	"16.576"	"53.484"	"110.296"	"167.254"	"571.977"	"579.167"	"368.185"	"372.799"	"414.657"	"28.291"	"9.439"	"0.536"
"1944"	"37.508"	"10.811"	"46.218"	"82.071"	"1009.911"	"432.472"	"259.447"	"287.984"	"368.973"	"126.046"	"7.129"	"1.946"
"1945"	"32.054"	"33.668"	"122.521"	"112.177"	"352.787"	"532.311"	"431.493"	"579.034"	"196.467"	"200.739"	"1.675"	"0.587"
"1946"	"1.372"	"38.566"	"87.668"	"150.315"	"418.911"	"524.636"	"485.679"	"376.204"	"302.369"	"513.277"	"10.58"	"0.218"
"1947"	"3.426"	"8.088"	"47.723"	"351.614"	"573.148"	"627.345"	"545.851"	"317.048"	"535.856"	"420.946"	"5.077"	"21.332"
"1948"	"2.077"	"86.318"	"76.466"	"425.169"	"708.354"	"806.208"	"893.358"	"379.102"	"366.142"	"194.046"	"31.652"	"1.572"
"1949"	"4.111"	"3.124"	"174.113"	"564.875"	"330.474"	"989.854"	"663.555"	"530.84"	"362.538"	"198.21"	"8.558"	"2.126"
"1950"	"3.061"	"49.961"	"67.974"	"113.171"	"222.855"	"481.301"	"333.877"	"526.156"	"219.831"	"302.72"	"97.8"	"1.103"
"1951"	"1.692"	"2.125"	"62.426"	"314.697"	"435.528"	"724.508"	"787.883"	"526.888"	"379.466"	"411.721"	"57.754"	"5.015"
"1952"	"14.188"	"0.928"	"71.25"	"435.618"	"390.722"	"871.473"	"671.125"	"434.874"	"559.312"	"382.33"	"106.086"	"0.36"
"1953"	"5.857"	"8.891"	"102.86"	"122.528"	"578.097"	"871.44"	"522.485"	"377.529"	"471.519"	"211.133"	"9.958"	"0.411"
"1954"	"7.882"	"82.593"	"113.082"	"229.379"	"404.824"	"1078.831"	"456.588"	"395.331"	"283.172"	"253.165"	"0.673"	"4.775"
"1955"	"1.624"	"6.926"	"165"	"135.765"	"363.777"	"519.177"	"697.004"	"397.17"	"315.207"	"80.659"	"142.748"	"1.054"
"1956"	"11.376"	"4.356"	"170.688"	"236.443"	"577.451"	"973.824"	"496.309"	"433.863"	"327.512"	"130.96"	"34.952"	"4.722"
"1957"	"32.124"	"61.88"	"18.228"	"156.71"	"403.973"	"650.727"	"398.203"	"652.233"	"371.467"	"76.259"	"11.298"	"3.567"
"1958"	"5.807"	"135.232"	"52.964"	"156.65"	"492.303"	"419.27"	"407.13"	"648.694"	"327.688"	"323.174"	"2.625"	"5.078"
"1959"	"22.195"	"84.588"	"207.863"	"171.753"	"609.049"	"850.829"	"464.085"	"480.792"	"288.609"	"332.791"	"8.12"	"2.371"
"1960"	"0"	"2.882"	"59.973"	"62.157"	"337.433"	"493.132"	"652.894"	"340.351"	"414.774"	"107.604"	"41.165"	"1.892"
"1961"	"2.767"	"13.005"	"68.464"	"166.135"	"159.178"	"610.126"	"407.652"	"475.144"	"205.527"	"163.155"	"9.256"	"1.166"
"1962"	"10.701"	"61.06"	"3.798"	"155.752"	"284.887"	"621.34"	"405.126"	"356.456"	"86.734"	"185.264"	"5.494"	"1.427"
"1963"	"0.139"	"15.861"	"97.84"	"265.415"	"392.478"	"537.238"	"426.117"	"354.167"	"257.078"	"147.834"	"13.912"	"0.496"
"1964"	"22.326"	"65.149"	"110.156"	"355.524"	"393.586"	"819.069"	"830.615"	"418.96"	"379.57"	"410.81"	"28.662"	"4.012"
"1965"	"0.761"	"37.544"	"49.126"	"57.096"	"146.572"	"879.343"	"543.579"	"655.625"	"315.861"	"74.239"	"112.538"	"19.851"
"1966"	"12.425"	"3.551"	"73.544"	"115.319"	"270.772"	"746.021"	"452.982"	"480.38"	"454.023"	"287.928"	"28.451"	"45.615"
"1967"	"43.025"	"1.802"	"153.093"	"199.702"	"239.566"	"379.996"	"382.565"	"365.892"	"436.557"	"171.978"	"2.127"	"0.261"
"1968"	"18.89"	"20.94"	"78.974"	"184.27"	"525.143"	"522.192"	"764.22"	"625.81"	"250.837"	"87.596"	"22.793"	"0.013"
"1969"	"8.811"	"0.493"	"102.194"	"327.603"	"359.157"	"805.265"	"574.378"	"582.234"	"277.687"	"59.077"	"33.319"	"0.466"
"1970"	"31.897"	"37.448"	"126.309"	"237.805"	"230.857"	"374.442"	"685.026"	"345.331"	"189.38"	"272.646"	"49.581"	"0.007"
"1971"	"8.538"	"15.849"	"18.346"	"35.403"	"74.471"	"344.684"	"368.394"	"352.64"	"212.156"	"268.809"	"80.16"	"1.433"
"1972"	"5.155"	"45.159"	"61.35"	"238.832"	"305.222"	"530.684"	"371.551"	"334.037"	"126.656"	"105.297"	"0.819"	"1.058"
"1973"	"11.098"	"72.994"	"66.251"	"213.392"	"567.366"	"765.692"	"393.832"	"222.004"	"218.85"	"162.422"	"117.764"	"11.872"
"1974"	"4.226"	"3.059"	"111.27"	"350.453"	"367.21"	"669.501"	"778.402"	"371.236"	"454.431"	"302.266"	"44.984"	"0.361"
"1975"	"1.408"	"44.335"	"17.338"	"148.839"	"335.969"	"373.162"	"491.234"	"314.357"	"270.801"	"167.231"	"105.667"	"1.639"
"1976"	"0.025"	"21.869"	"82.095"	"107.859"	"316.852"	"760.151"	"649.003"	"393.977"	"65.119"	"114.632"	"28.117"	"0.627"
"1977"	"1.203"	"91.336"	"56.27"	"566.919"	"494.771"	"605.482"	"466.724"	"290.418"	"168.609"	"202.97"	"58.259"	"11.982"
"1978"	"0.191"	"1.948"	"28.559"	"126.832"	"626.314"	"604.398"	"345.928"	"183.261"	"195.78"	"67.562"	"6.91"	"0.098"
"1979"	"7.792"	"10.048"	"56.063"	"50.8"	"243.189"	"391.731"	"423.106"	"385.657"	"365.678"	"176.536"	"25.712"	"33.238"
"1980"	"1.308"	"19.251"	"106.743"	"235.9"	"535.801"	"315.375"	"464.889"	"404.867"	"294.817"	"244.687"	"0.442"	"2.548"
"1981"	"22.125"	"30.406"	"156.483"	"480.871"	"687.614"	"424.511"	"609.389"	"375.843"	"231.109"	"35.397"	"0.47"	"42.814"
"1982"	"0.212"	"26.78"	"28.736"	"373.604"	"342.789"	"710.133"	"325.914"	"550.436"	"252.427"	"42.746"	"46.048"	"9.639"
"1983"	"7.042"	"39.198"	"214.644"	"201.895"	"399.559"	"419.391"	"542.23"	"496.744"	"404.566"	"210.966"	"11.109"	"28.433"
"1984"	"13.428"	"10.859"	"24.909"	"168.97"	"780.126"	"536.089"	"475.116"	"435.587"	"418.565"	"203.967"	"1.88"	"7.955"
"1985"	"5.159"	"24.01"	"155.869"	"283.659"	"250.159"	"568.746"	"344.196"	"322.663"	"301.096"	"50.311"	"4.067"	"6.673"
"1986"	"6.054"	"4.831"	"21.931"	"308.465"	"117.412"	"323.928"	"414.829"	"302.059"	"372.692"	"292.919"	"138.717"	"1.904"
"1987"	"2.804"	"13.261"	"94.238"	"306.142"	"180.526"	"269.362"	"499.002"	"422.342"	"373.382"	"139.652"	"45.56"	"21.755"
"1988"	"1.195"	"30.777"	"120.673"	"91.897"	"710.529"	"487.851"	"552.324"	"565.636"	"301.797"	"310.815"	"82.679"	"20.714"
"1989"	"2.814"	"37.892"	"28.546"	"182.629"	"381.537"	"557.904"	"467.676"	"219.782"	"394.953"	"253.249"	"8.732"	"1.95"
"1990"	"6.27"	"61.642"	"148.399"	"404.543"	"297.018"	"397.09"	"420.448"	"134.032"	"514.527"	"150.355"	"31.66"	"6.366"
"1991"	"11.39"	"50.005"	"95.771"	"112.792"	"672.056"	"416.943"	"344.089"	"465.042"	"264.603"	"499.123"	"9.294"	"28.507"
"1992"	"8.801"	"47.323"	"29.771"	"110.434"	"451.299"	"443.33"	"608.622"	"492.53"	"293.359"	"134.878"	"8.538"	"16.652"
"1993"	"39.291"	"64.761"	"117.688"	"115.003"	"442.701"	"790.774"	"589.201"	"480.634"	"368.662"	"73.47"	"8.039"	"0"
"1994"	"16.608"	"51.569"	"219.363"	"210.933"	"304.765"	"589.709"	"353.252"	"483.953"	"148.357"	"40.428"	"17.435"	"3.723"
"1995"	"15.277"	"34.16"	"12.638"	"107.26"	"371.139"	"623.911"	"480.656"	"335.278"	"288.638"	"48.146"	"141.736"	"0.559"
"1996"	"1.463"	"28.117"	"180.333"	"247.333"	"615.02"	"420.267"	"479.533"	"448.841"	"205.307"	"145.085"	"4.878"	"0.903"
"1997"	"5.778"	"16.458"	"82.529"	"109.292"	"262.829"	"396.861"	"587.027"	"333.582"	"424.746"	"33.504"	"11.293"	"25.484"
"1998"	"9.779"	"43.375"	"139.127"	"198.328"	"541.205"	"350.461"	"606.718"	"563.272"	"168.518"	"68.805"	"115.096"	"0"
"1999"	"4.693"	"4.006"	"25.719"	"49.682"	"522.217"	"339.376"	"461.514"	"339.131"	"119.732"	"226.404"	"7.016"	"2.322"
"2000"	"17.775"	"40.71"	"73.947"	"399.69"	"655.614"	"164.937"	"270.082"	"589.803"	"257.582"	"117.379"	"10.803"	"4.774"
"2001"	"3.313"	"17.867"	"66.986"	"197.95"	"520.317"	"478.748"	"359.171"	"588.837"	"260.841"	"216.809"	"29.599"	"0.982"
"2002"	"26.569"	"4.869"	"84.178"	"358.431"	"396.757"	"845.166"	"592.049"	"328.12"	"232.456"	"95.856"	"41.504"	"1.488"
