
"Year"	"Jan"	"Feb"	"Mar"	"Apr"	"May"	"Jun"	"Jul"	"Aug"	"Sep"	"Oct"	"Nov"	"Dec"
"1901"	"10.702"	"14.71"	"15.528"	"40.214"	"22.384"	"113.855"	"209.964"	"172.811"	"131.645"	"71.453"	"3.678"	"0"
"1902"	"0.601"	"0"	"0.772"	"22.584"	"12.242"	"68.313"	"179.725"	"167.465"	"164.504"	"46.663"	"50.751"	"18.751"
"1903"	"9.805"	"0.741"	"0.016"	"12.132"	"37.666"	"100.721"	"360.431"	"290.408"	"209.194"	"210.191"	"36.608"	"12.429"
"1904"	"0"	"0.158"	"6.431"	"1.113"	"15.299"	"141.273"	"169.718"	"63.344"	"198.727"	"103.071"	"0.222"	"0.151"
"1905"	"0.097"	"6.506"	"7.329"	"55.207"	"28.079"	"106.336"	"74.932"	"287.772"	"296.735"	"7.371"	"0.222"	"0"
"1906"	"11.145"	"1.109"	"15.412"	"2.352"	"7.041"	"249.732"	"199.488"	"203.407"	"144.692"	"31.667"	"18.853"	"6.959"
"1907"	"1.64"	"3.396"	"6.026"	"56.303"	"0.393"	"205.634"	"153.104"	"223.443"	"126.964"	"0.968"	"4.024"	"7.192"
"1908"	"4.111"	"10.139"	"6.042"	"5.404"	"4.891"	"86.924"	"188.296"	"252.102"	"460.427"	"0.861"	"0.222"	"0"
"1909"	"0.814"	"1.307"	"0.567"	"45.203"	"4.119"	"125.644"	"260.838"	"147.335"	"90.291"	"1.095"	"0.222"	"0.38"
"1910"	"0"	"0"	"0.252"	"6.821"	"14.077"	"175.033"	"189.639"	"177.571"	"327.857"	"116.341"	"58.551"	"0"
"1911"	"0"	"0"	"2.185"	"1.625"	"6.641"	"128.102"	"158.412"	"141.684"	"178.683"	"30.14"	"10.312"	"1.081"
"1912"	"0"	"27.092"	"0"	"15.025"	"12.91"	"54.237"	"228.335"	"193.739"	"131.947"	"25.46"	"36.617"	"1.35"
"1913"	"0"	"16.776"	"0.197"	"17.826"	"34.524"	"109.419"	"344.71"	"124.213"	"114.844"	"58.444"	"0.81"	"2.393"
"1914"	"0"	"0.083"	"1.844"	"25.752"	"26.817"	"226.555"	"278.135"	"203.887"	"329.249"	"20.017"	"2.822"	"5.906"
"1915"	"21.939"	"9.781"	"50.994"	"11.353"	"12.313"	"194.854"	"141.785"	"189.268"	"186.066"	"118.402"	"20.066"	"0.042"
"1916"	"0.17"	"16.23"	"0"	"2.138"	"15.373"	"203.445"	"224.365"	"184.492"	"280.853"	"158.808"	"59.239"	"0"
"1917"	"0"	"25.017"	"15.235"	"31.797"	"52.481"	"199.914"	"307.382"	"134.905"	"395.524"	"107.922"	"10.386"	"0"
"1918"	"6.263"	"0.37"	"15.208"	"10.528"	"86.353"	"75.133"	"138.452"	"106.768"	"90.922"	"2.022"	"17.239"	"26.13"
"1919"	"19.198"	"9.298"	"16.461"	"13.772"	"40.6"	"162.176"	"166.128"	"119.346"	"123.642"	"84.046"	"83.1"	"5.216"
"1920"	"3.432"	"0"	"1.614"	"20.569"	"10.124"	"82.953"	"184.443"	"79.599"	"92.168"	"3.461"	"0.456"	"0"
"1921"	"2.49"	"0"	"0.116"	"11.728"	"4.708"	"239.418"	"197.233"	"152.311"	"197.837"	"44.602"	"34.484"	"0"
"1922"	"33.82"	"0"	"0"	"7.479"	"26.76"	"125.585"	"212.759"	"164.791"	"203.15"	"18.086"	"43.452"	"0"
"1923"	"4.067"	"5.204"	"19.697"	"12.413"	"10.671"	"13.471"	"226.487"	"72.087"	"298.432"	"16.325"	"0.431"	"0"
"1924"	"4.371"	"0"	"1.726"	"12.383"	"24.042"	"55.351"	"140.826"	"137.306"	"333.903"	"85.39"	"102.5"	"0.207"
"1925"	"0"	"0"	"0"	"37.778"	"56.209"	"153.158"	"270.645"	"168.299"	"138.366"	"141.341"	"14.815"	"11.547"
"1926"	"34.238"	"0.181"	"14.318"	"41.585"	"39.91"	"37.09"	"219.976"	"243.464"	"101.416"	"25.055"	"0.624"	"0"
"1927"	"20.451"	"4.053"	"33.759"	"6.865"	"11.465"	"188.705"	"243.988"	"137.104"	"130.823"	"86.585"	"64.864"	"0"
"1928"	"0"	"15.656"	"26.464"	"3.612"	"13.323"	"182.75"	"213.342"	"125.116"	"395.151"	"88.85"	"0.222"	"8.669"
"1929"	"0"	"23.175"	"0.088"	"25.449"	"3.63"	"183.289"	"111.574"	"146.232"	"212.582"	"44.08"	"0.222"	"7.301"
"1930"	"0"	"4.494"	"4.182"	"21.551"	"1.707"	"171.288"	"128.697"	"119.091"	"249.428"	"88.025"	"42.103"	"0.571"
"1931"	"0"	"2.553"	"19.32"	"4.282"	"19.275"	"208.495"	"280.387"	"148.546"	"280.687"	"134.7"	"33.856"	"0.052"
"1932"	"0"	"15.007"	"0.012"	"13.176"	"18.77"	"140.196"	"279.346"	"191.818"	"161.25"	"21.405"	"46.032"	"0"
"1933"	"20.73"	"21.733"	"8.726"	"24.228"	"60.042"	"227.665"	"174.236"	"170.705"	"232.517"	"84.556"	"14.694"	"17.655"
"1934"	"0.066"	"0"	"0.895"	"16.313"	"6.123"	"114.058"	"301.175"	"208.067"	"130.532"	"24.012"	"21.051"	"0"
"1935"	"10.656"	"1.785"	"0"	"65.877"	"1.37"	"117.547"	"290.052"	"127.53"	"202.916"	"48.383"	"0.222"	"0.27"
"1936"	"1.809"	"28.842"	"24.64"	"6.56"	"84.444"	"197.705"	"248.901"	"207.821"	"151.875"	"126.646"	"57.53"	"1.298"
"1937"	"0"	"19.129"	"20.523"	"73.067"	"2.398"	"68.482"	"263.209"	"98.7"	"131.601"	"45.229"	"2.201"	"1.498"
"1938"	"0.012"	"16.39"	"5.687"	"16.605"	"27.083"	"281.671"	"241.164"	"279.192"	"253.743"	"56.789"	"0.635"	"0.091"
"1939"	"0.094"	"0.047"	"22.931"	"4.365"	"0.563"	"96.952"	"148.647"	"169.444"	"159.349"	"68.029"	"11.016"	"0"
"1940"	"0"	"2.209"	"1.468"	"28.191"	"54.52"	"97.696"	"262.904"	"199.883"	"91.785"	"74.898"	"15.527"	"1.467"
"1941"	"6.533"	"2.677"	"4.967"	"1.013"	"16.309"	"84.881"	"84.958"	"162.876"	"197.797"	"27.343"	"1.421"	"0.615"
"1942"	"0"	"7.983"	"0.602"	"38.008"	"10.355"	"143.265"	"246.629"	"288.869"	"73.743"	"10.328"	"2.027"	"1.342"
"1943"	"27.569"	"0.021"	"2.829"	"34.239"	"15.754"	"154.007"	"184.24"	"104.405"	"267.354"	"69.319"	"4.637"	"0"
"1944"	"0.328"	"24.425"	"42.84"	"16.1"	"10.587"	"90.337"	"207.507"	"173.199"	"239.075"	"95.114"	"19.933"	"0"
"1945"	"6.288"	"0"	"0"	"44.753"	"5.227"	"151.594"	"233.182"	"191.03"	"202.292"	"112.919"	"14.454"	"0.498"
"1946"	"0"	"14.404"	"9.921"	"18.537"	"16.123"	"157.358"	"286.563"	"167.315"	"73.806"	"14.643"	"71.562"	"4.296"
"1947"	"3.287"	"11.264"	"1.641"	"1.397"	"7.287"	"50.148"	"250.989"	"264.151"	"323.243"	"30.338"	"18.393"	"4.916"
"1948"	"0.065"	"7.162"	"8.922"	"19.038"	"14.153"	"78.456"	"218.694"	"151.176"	"343.15"	"43.169"	"85.981"	"0"
"1949"	"1.378"	"0.127"	"0.229"	"16.873"	"75.781"	"124.317"	"269.424"	"155.683"	"289.077"	"117.272"	"0.487"	"0"
"1950"	"0"	"25.559"	"24.656"	"0.321"	"15.9"	"66.454"	"204.132"	"100.015"	"348.696"	"16.312"	"8.454"	"0"
"1951"	"0"	"0.058"	"33.074"	"37.864"	"49.272"	"121.74"	"306.49"	"109.698"	"151.17"	"86.015"	"0.376"	"1.489"
"1952"	"0"	"6.193"	"0.026"	"21.199"	"35.002"	"86.075"	"191.706"	"133.455"	"135.891"	"114.25"	"0.222"	"3.005"
"1953"	"2.779"	"0.264"	"0"	"27.438"	"0.434"	"222.975"	"198.429"	"271.34"	"263.409"	"167.319"	"0.296"	"0"
"1954"	"0"	"0"	"1.713"	"5.432"	"6.573"	"92.262"	"263.69"	"179.515"	"279.905"	"32.805"	"0.222"	"1.175"
"1955"	"0.061"	"0"	"9.659"	"17.974"	"20.353"	"199.735"	"255.641"	"281.652"	"289.037"	"129.282"	"11.012"	"0"
"1956"	"0"	"2.041"	"0.197"	"10.696"	"47.867"	"214.957"	"336.107"	"183.315"	"186.112"	"87.431"	"46.791"	"0.899"
"1957"	"0.335"	"3.41"	"21.614"	"36.046"	"21.875"	"166.275"	"189.475"	"279.131"	"78.686"	"112.807"	"0.222"	"0"
"1958"	"4.902"	"12.968"	"5.283"	"25.95"	"5.859"	"52.541"	"370.358"	"273.41"	"61.582"	"65.199"	"21.654"	"0"
"1959"	"0.418"	"0.005"	"0.005"	"13.838"	"13.781"	"206.067"	"354.444"	"284.707"	"288.911"	"53.365"	"9.293"	"0.032"
"1960"	"0.003"	"0"	"40.494"	"2.163"	"19.762"	"168.572"	"166.539"	"111.379"	"206.81"	"85.968"	"8.789"	"5.034"
"1961"	"3.739"	"1.549"	"0.308"	"15.342"	"31.992"	"143.095"	"318.147"	"185.231"	"188.322"	"208.1"	"9.874"	"0"
"1962"	"0.2"	"23.618"	"2.34"	"64.036"	"20.813"	"61.55"	"211.98"	"264.203"	"310.593"	"18.505"	"29.862"	"34.626"
"1963"	"0"	"0.029"	"3.832"	"27.809"	"39.293"	"181.272"	"208.549"	"356.714"	"113.942"	"144.951"	"0.222"	"0"
"1964"	"2.808"	"1.128"	"0.039"	"4.023"	"0.506"	"90.885"	"190.986"	"234.358"	"350.929"	"50.826"	"14.469"	"0"
"1965"	"4.777"	"0.075"	"6.839"	"10.752"	"6.663"	"129.589"	"392.229"	"140.265"	"297.541"	"1.024"	"0.222"	"0.034"
"1966"	"42.426"	"8.003"	"0.763"	"5.709"	"2.252"	"79.99"	"297.232"	"205.919"	"322.776"	"24.712"	"5.946"	"22.906"
"1967"	"0.446"	"0.027"	"46.327"	"7.17"	"0.802"	"133.28"	"331.673"	"135.414"	"143.936"	"6.333"	"0.291"	"21.165"
"1968"	"30.839"	"15.117"	"6.819"	"14.786"	"3.564"	"78.747"	"173.205"	"37.792"	"263.791"	"87.354"	"35.809"	"0.062"
"1969"	"4.45"	"0"	"3.553"	"12.413"	"62.894"	"121.596"	"261.903"	"149.784"	"339.976"	"45.782"	"59.382"	"13.652"
"1970"	"10.586"	"1.19"	"4.628"	"29.392"	"40.524"	"235.155"	"138.909"	"320.457"	"183.976"	"17.443"	"0.222"	"0"
"1971"	"2.519"	"6.764"	"10.292"	"22.88"	"59.39"	"125.523"	"91.047"	"173.243"	"123.643"	"153.99"	"0.222"	"0"
"1972"	"0"	"8.922"	"0"	"29.862"	"5.789"	"152.376"	"124.674"	"132.891"	"74.405"	"44.39"	"64.452"	"2.028"
"1973"	"0"	"0.196"	"1.534"	"11.757"	"1.709"	"113.694"	"170.686"	"296.76"	"80.654"	"342.845"	"4.62"	"0"
"1974"	"0"	"1.12"	"0.646"	"13.956"	"30.595"	"107.852"	"111.517"	"154.548"	"134.921"	"220.667"	"13.987"	"0"
"1975"	"10.577"	"16.672"	"22.461"	"7.263"	"15.167"	"102.883"	"289.157"	"193.863"	"432.066"	"138.222"	"4.936"	"0"
"1976"	"0"	"0"	"0.954"	"27.564"	"19.662"	"66.671"	"423.492"	"214.692"	"114.811"	"4.312"	"12.641"	"0.079"
"1977"	"0"	"0.004"	"0.992"	"18.891"	"61.374"	"76.348"	"203.657"	"192.49"	"135.419"	"36.057"	"80.385"	"7.322"
"1978"	"45.32"	"14.281"	"3.941"	"10.35"	"32.492"	"226.478"	"354.618"	"334.792"	"158.987"	"41.086"	"20.218"	"0.099"
"1979"	"16.747"	"10.804"	"0.017"	"22.337"	"78.442"	"130.044"	"130.023"	"135.492"	"284.781"	"24.107"	"56.238"	"1.692"
"1980"	"3.154"	"0"	"13.955"	"19.766"	"8.744"	"234.131"	"185.271"	"285.127"	"132.571"	"13.318"	"1.626"	"5.86"
"1981"	"11.53"	"0"	"32.436"	"13.501"	"37.77"	"209.119"	"239.68"	"254.797"	"236.776"	"40.174"	"1.086"	"2.593"
"1982"	"2.339"	"0.081"	"2.013"	"26.641"	"22.76"	"64.45"	"307.054"	"184.323"	"184.417"	"121.896"	"18.095"	"0"
"1983"	"0"	"2.473"	"0.77"	"1.371"	"41.627"	"152.57"	"293.547"	"438.231"	"380.74"	"193.252"	"9.97"	"4.732"
"1984"	"2.915"	"3.062"	"0.265"	"13.682"	"4.13"	"60.387"	"197.703"	"117.455"	"156.004"	"72.292"	"0.797"	"0.25"
"1985"	"10.231"	"0.191"	"15.844"	"5.333"	"6.782"	"155.543"	"248.337"	"113.215"	"69.326"	"183.726"	"0.222"	"5.002"
"1986"	"34.378"	"9.738"	"0.196"	"29.786"	"7.357"	"183.708"	"170.788"	"274.797"	"91.901"	"43.484"	"40.181"	"18.859"
"1987"	"15.603"	"0.434"	"24.781"	"5.298"	"22.127"	"101.734"	"218.778"	"229.254"	"69.488"	"102.885"	"52.111"	"3.351"
"1988"	"0"	"19.289"	"1.032"	"36.387"	"5.872"	"107.347"	"346.58"	"240.036"	"241.987"	"36.877"	"9.219"	"12.394"
"1989"	"0"	"0"	"29.828"	"1.049"	"6.134"	"143.143"	"459.698"	"172.044"	"168.552"	"64.965"	"2.543"	"4.812"
"1990"	"4.032"	"4.677"	"18.779"	"1.314"	"113.597"	"175.388"	"188.891"	"296.011"	"118.374"	"115.724"	"25.116"	"3.551"
"1991"	"7.644"	"0.257"	"0.963"	"13.482"	"13.004"	"211.558"	"232.45"	"248.17"	"154.429"	"34.982"	"21.613"	"0.005"
"1992"	"0.795"	"0.348"	"0"	"7.264"	"26.188"	"118.451"	"163.112"	"326.444"	"158.37"	"35.325"	"17.056"	"0"
"1993"	"0"	"1.012"	"8.806"	"9.658"	"17.61"	"117.618"	"273.897"	"208.967"	"189.841"	"165.644"	"0.222"	"5.898"
"1994"	"35.871"	"6.976"	"7.856"	"22.093"	"10.607"	"118.753"	"274.089"	"259.983"	"134.389"	"197.637"	"28.248"	"0"
"1995"	"37.218"	"0"	"35.112"	"1.27"	"42.178"	"150.341"	"315.384"	"204.715"	"211.251"	"222.548"	"24.469"	"0"
"1996"	"1.221"	"0.63"	"1.31"	"31.843"	"4.895"	"74.514"	"266.409"	"357.702"	"152.055"	"86.599"	"57.836"	"0.013"
"1997"	"16.459"	"0"	"10.061"	"37.493"	"11.576"	"39.054"	"240.182"	"197.961"	"134.135"	"86.012"	"64.58"	"21.449"
"1998"	"4.052"	"3.616"	"4.231"	"7.367"	"16.689"	"62.679"	"267.951"	"295.702"	"183.732"	"178.422"	"51.687"	"0"
"1999"	"0.112"	"1.871"	"0"	"4.797"	"55.792"	"68.202"	"206.689"	"215.847"	"171.46"	"66.753"	"0.262"	"0"
"2000"	"0"	"16.491"	"0"	"8.315"	"44.85"	"231.495"	"214.992"	"472.427"	"70.141"	"33.428"	"1.703"	"1.11"
"2001"	"26.523"	"0"	"28.144"	"18.503"	"16.405"	"241.091"	"123.292"	"276.031"	"104.887"	"140.054"	"11.568"	"0"
"2002"	"40.398"	"0.793"	"8.41"	"5.359"	"38.697"	"196.24"	"108.196"	"244.325"	"72.458"	"68.813"	"1.649"	"0"
