
"Year"	"Jan"	"Feb"	"Mar"	"Apr"	"May"	"Jun"	"Jul"	"Aug"	"Sep"	"Oct"	"Nov"	"Dec"
"1901"	"23.009"	"24.03"	"27.401"	"30.913"	"31.861"	"30.067"	"26.599"	"25.682"	"27.335"	"26.291"	"23.098"	"21.146"
"1902"	"22.785"	"24.383"	"28.91"	"31.339"	"34.275"	"31.276"	"27.962"	"27.412"	"26.37"	"26.296"	"22.027"	"21.382"
"1903"	"22.464"	"24.002"	"28.172"	"31.454"	"31.704"	"31.427"	"26.319"	"25.89"	"26.27"	"24.957"	"21.592"	"20.162"
"1904"	"21.944"	"23.62"	"27.644"	"31.978"	"32.553"	"29.126"	"27.057"	"26.78"	"26.228"	"25.737"	"21.934"	"20.592"
"1905"	"21.778"	"23.047"	"27.684"	"29.895"	"32.986"	"31.521"	"27.628"	"26.351"	"26.189"	"25.834"	"23.394"	"20.601"
"1906"	"22.635"	"24.672"	"27.279"	"32.244"	"34.325"	"29.32"	"26.989"	"26.364"	"26.207"	"25.627"	"22.958"	"21.604"
"1907"	"21.851"	"24.551"	"27.313"	"29.189"	"32.172"	"29.779"	"27.279"	"24.904"	"26.865"	"26.613"	"24.069"	"20.657"
"1908"	"21.19"	"24.432"	"27.326"	"32.284"	"33.818"	"31.198"	"26.511"	"25.592"	"26.032"	"25.531"	"21.861"	"19.412"
"1909"	"22.882"	"24.761"	"28.32"	"29.188"	"32.872"	"28.714"	"25.949"	"26.531"	"26.182"	"25.77"	"23.022"	"22.241"
"1910"	"22.078"	"23.882"	"28.129"	"32.123"	"33.469"	"29.577"	"27.548"	"26.581"	"25.909"	"25.441"	"20.881"	"19.73"
"1911"	"22.186"	"23.273"	"27.708"	"31.825"	"34.204"	"29.539"	"27.527"	"25.443"	"27.105"	"26.603"	"23.875"	"21.072"
"1912"	"22.267"	"25.1"	"28.628"	"30.949"	"33.663"	"32.772"	"26.992"	"25.943"	"26.727"	"26.125"	"22.518"	"20.057"
"1913"	"20.782"	"25.161"	"27.856"	"32.249"	"32.583"	"29.32"	"26.73"	"26.535"	"27.249"	"26.079"	"22.908"	"21.949"
"1914"	"21.404"	"25.326"	"27.961"	"30.004"	"32.612"	"29.368"	"26.416"	"25.728"	"25.876"	"25.659"	"23.225"	"21.439"
"1915"	"21.529"	"24.065"	"26.525"	"30.767"	"33.035"	"31.742"	"27.551"	"26.299"	"26.41"	"26.258"	"24.348"	"20.004"
"1916"	"22.057"	"24.711"	"28.061"	"31.262"	"32.758"	"28.005"	"27.104"	"26.535"	"26.444"	"25.785"	"22.846"	"19.445"
"1917"	"20.834"	"22.813"	"25.901"	"29.322"	"31.518"	"27.949"	"26.556"	"26.419"	"25.816"	"25.507"	"22.118"	"20.369"
"1918"	"20.423"	"23.593"	"27.208"	"30.709"	"30.904"	"28.836"	"28.47"	"26.288"	"27.145"	"26.003"	"23.874"	"21.363"
"1919"	"23.299"	"25.287"	"28.265"	"31.072"	"32.479"	"28.455"	"27.315"	"26.482"	"26.913"	"25.297"	"23.103"	"20.317"
"1920"	"21.693"	"23.987"	"28.203"	"30.476"	"32.204"	"30.966"	"27.258"	"27.532"	"27.361"	"27.045"	"23.475"	"21.073"
"1921"	"22.57"	"24.226"	"29.372"	"31.81"	"35.645"	"29.735"	"27.046"	"26.406"	"26.33"	"25.047"	"20.746"	"20.438"
"1922"	"21.622"	"23.918"	"28.43"	"31.875"	"33.349"	"29.917"	"26.836"	"26.962"	"25.97"	"25.332"	"22.899"	"19.781"
"1923"	"21.281"	"23.861"	"26.913"	"31.598"	"33.487"	"33.136"	"26.5"	"26.143"	"26.169"	"24.781"	"22.695"	"21.111"
"1924"	"22.373"	"25.46"	"28.427"	"32.515"	"33.936"	"31.645"	"27.583"	"26.973"	"26.171"	"25.016"	"21.661"	"20.146"
"1925"	"21.108"	"23.625"	"27.632"	"32.031"	"31.448"	"29.574"	"26.789"	"25.844"	"26.87"	"25.378"	"23.003"	"20.011"
"1926"	"22.416"	"24.651"	"28.041"	"29.604"	"31.846"	"33.018"	"27.698"	"26.508"	"26.743"	"25.856"	"22.266"	"21.05"
"1927"	"23.889"	"25.358"	"28.89"	"32.432"	"33.57"	"30.244"	"26.311"	"26.377"	"27.197"	"25.651"	"21.598"	"21.31"
"1928"	"22.749"	"24.65"	"27.945"	"30.997"	"34.336"	"30.166"	"26.889"	"26.968"	"26.718"	"26.019"	"23.244"	"21.57"
"1929"	"23.242"	"23.607"	"28.047"	"30.126"	"34.365"	"29.936"	"27.25"	"26.844"	"26.561"	"25.819"	"22.981"	"22.563"
"1930"	"22.813"	"23.448"	"28.313"	"30.551"	"33.417"	"30.995"	"27.369"	"26.82"	"26.769"	"26.061"	"22.264"	"21.998"
"1931"	"21.635"	"25.792"	"28.055"	"31.939"	"33.77"	"30.654"	"26.583"	"26.281"	"26.487"	"25.475"	"22.062"	"20.585"
"1932"	"20.994"	"23.264"	"26.56"	"30.624"	"32.326"	"30.546"	"26.309"	"26.844"	"26.404"	"26.634"	"23.639"	"20.85"
"1933"	"22.146"	"25.677"	"27.261"	"30.054"	"30.078"	"28.744"	"26.113"	"25.702"	"26.487"	"24.933"	"22.74"	"20.665"
"1934"	"20.909"	"23.987"	"27.565"	"31.473"	"34.059"	"30.604"	"26.599"	"25.93"	"26.195"	"25.572"	"21.529"	"20.326"
"1935"	"22.318"	"24.775"	"27.675"	"29.589"	"34.561"	"31.054"	"26.329"	"26.493"	"25.975"	"26.051"	"22.33"	"21.895"
"1936"	"24.165"	"24.172"	"27.35"	"30.828"	"32.942"	"28.331"	"27.389"	"26.19"	"27.086"	"25.927"	"23.274"	"21.284"
"1937"	"21.03"	"25.031"	"27.243"	"30.652"	"33.276"	"31.196"	"26.589"	"26.92"	"26.887"	"25.35"	"23.057"	"21.05"
"1938"	"23.822"	"24.478"	"28.997"	"31.332"	"33.185"	"27.072"	"26.062"	"26.181"	"26.077"	"24.764"	"21.566"	"20.11"
"1939"	"21.748"	"24.366"	"26.904"	"30.876"	"34.318"	"30.627"	"26.623"	"26.484"	"26.451"	"26.056"	"21.42"	"20.071"
"1940"	"20.254"	"24.355"	"27.232"	"30.569"	"32.395"	"29.86"	"25.652"	"25.82"	"26.764"	"25.762"	"23.728"	"21.715"
"1941"	"22.984"	"24.762"	"29.289"	"32.606"	"34.084"	"30.542"	"28.107"	"26.882"	"26.982"	"26.404"	"22.966"	"22.636"
"1942"	"22.628"	"24.683"	"28.562"	"31.42"	"33.98"	"30.894"	"26.428"	"26.106"	"26.148"	"25.101"	"22.556"	"21.758"
"1943"	"23.477"	"22.673"	"27.709"	"30.484"	"31.749"	"28.622"	"26.42"	"26.119"	"25.659"	"25.206"	"22.822"	"19.306"
"1944"	"22.468"	"24.059"	"25.744"	"29.918"	"33.799"	"30.621"	"26.423"	"26.721"	"26.583"	"25.548"	"22.363"	"21.363"
"1945"	"21.815"	"23.924"	"27.985"	"30.016"	"33.917"	"30.115"	"26.416"	"25.885"	"25.836"	"25.087"	"21.225"	"19.462"
"1946"	"20.217"	"23.452"	"28.34"	"30.454"	"33.06"	"28.609"	"26.889"	"26.179"	"26.572"	"26.837"	"23.891"	"22.57"
"1947"	"23.205"	"24.384"	"28.549"	"31.729"	"34.082"	"31.129"	"26.345"	"26.508"	"25.956"	"24.598"	"22.386"	"21.033"
"1948"	"22.564"	"24.899"	"27.114"	"31.093"	"34.34"	"30.678"	"27.346"	"26.292"	"26.049"	"26.357"	"24.421"	"19.27"
"1949"	"21.392"	"23.456"	"28.01"	"31.179"	"32.395"	"29.018"	"26.61"	"26.623"	"26.126"	"26.028"	"21.761"	"20.562"
"1950"	"21.533"	"23.783"	"26.547"	"31.215"	"33.475"	"29.844"	"26.597"	"27.114"	"26.158"	"25.232"	"21.974"	"20.386"
"1951"	"21.668"	"24.095"	"28.068"	"30.992"	"32.86"	"30.197"	"27.219"	"26.473"	"27.23"	"27.006"	"23.899"	"20.842"
"1952"	"22.269"	"25.221"	"27.619"	"31.981"	"33.944"	"31.245"	"27.944"	"26.535"	"26.839"	"26.005"	"21.635"	"22.305"
"1953"	"22.34"	"25.61"	"29.996"	"31.82"	"35.685"	"32.196"	"27.291"	"26.08"	"26.536"	"25.981"	"22.364"	"20.407"
"1954"	"21.609"	"25.487"	"28.008"	"32.19"	"34.935"	"30.675"	"26.688"	"26.7"	"25.84"	"24.583"	"21.447"	"21.708"
"1955"	"22.12"	"25.423"	"28.668"	"30.842"	"32.723"	"29.979"	"26.663"	"25.665"	"26.351"	"25.48"	"21.252"	"20.273"
"1956"	"22.041"	"23.545"	"28.907"	"31.958"	"32.885"	"29.045"	"25.55"	"25.989"	"26.03"	"25.007"	"22.913"	"21.197"
"1957"	"22.598"	"24.302"	"26.473"	"30.347"	"32.933"	"30.933"	"26.601"	"25.728"	"26.796"	"26.76"	"23.741"	"22.215"
"1958"	"22.509"	"25.133"	"28.269"	"31.532"	"33.685"	"32.909"	"26.25"	"26.542"	"26.44"	"25.876"	"23.997"	"21.312"
"1959"	"22.652"	"25.686"	"28.466"	"31.524"	"34.102"	"29.806"	"26.395"	"26.036"	"26.51"	"26.316"	"23.282"	"21.651"
"1960"	"22.786"	"24.442"	"27.623"	"31.054"	"33.308"	"30.024"	"27.525"	"27.159"	"27.047"	"25.604"	"22.984"	"22.232"
"1961"	"22.797"	"24.3"	"29.592"	"32.129"	"32.653"	"29.52"	"26.501"	"26.535"	"26.095"	"25.233"	"22.195"	"20.757"
"1962"	"20.625"	"24.043"	"27.631"	"30.363"	"32.396"	"30.419"	"26.91"	"26.48"	"26.188"	"25.74"	"22.5"	"20.704"
"1963"	"20.597"	"23.568"	"27.705"	"29.479"	"32.952"	"29.071"	"27.089"	"25.864"	"26.717"	"25.777"	"23.434"	"21.487"
"1964"	"22.829"	"25.56"	"29.256"	"32.076"	"34.159"	"30.466"	"26.915"	"25.791"	"26.062"	"25.927"	"22.259"	"20.466"
"1965"	"22.019"	"24.494"	"27.904"	"30.543"	"33.666"	"30.514"	"26.629"	"27.006"	"26.661"	"26.644"	"24.1"	"22.839"
"1966"	"22.851"	"25.822"	"29.321"	"32.018"	"33.755"	"31.175"	"28.389"	"27.229"	"26.516"	"26.145"	"24.602"	"21.118"
"1967"	"22.529"	"24.895"	"27.44"	"31.494"	"33.994"	"31.057"	"27.008"	"26.508"	"26.372"	"25.595"	"23.083"	"22.962"
"1968"	"21.378"	"25.078"	"27.064"	"30.192"	"33.207"	"30.666"	"27.191"	"26.519"	"26.506"	"25.105"	"23.209"	"22.431"
"1969"	"22.436"	"26.23"	"30.297"	"32.955"	"33.092"	"31.368"	"27.119"	"27.008"	"25.994"	"25.94"	"24.29"	"20.878"
"1970"	"22.631"	"26.178"	"29.448"	"31.9"	"33.831"	"28.503"	"27.388"	"26.001"	"26.549"	"25.994"	"22.208"	"19.591"
"1971"	"22.461"	"25.52"	"27.425"	"31.736"	"32.355"	"28.231"	"27.961"	"27.35"	"27.28"	"25.873"	"21.733"	"19.998"
"1972"	"21.391"	"24.677"	"29.068"	"31.728"	"33.944"	"32.49"	"27.837"	"26.963"	"27.681"	"26.23"	"23.446"	"22.903"
"1973"	"23.762"	"26.398"	"29.729"	"33.92"	"35.667"	"30.83"	"27.022"	"26.442"	"26.951"	"25.783"	"22.388"	"21.387"
"1974"	"21.634"	"25.583"	"29.223"	"32.625"	"32.626"	"30.012"	"28.334"	"26.72"	"27.264"	"25.866"	"22.226"	"20.183"
"1975"	"21.146"	"25.043"	"28.213"	"32.233"	"34.67"	"29.8"	"27.026"	"26.779"	"26.244"	"26.382"	"21.745"	"19.577"
"1976"	"20.95"	"24.753"	"28.486"	"31.657"	"33.024"	"30.452"	"26.596"	"26.59"	"26.797"	"26.728"	"25.675"	"23.04"
"1977"	"21.648"	"26.275"	"29.595"	"31.399"	"31.272"	"30.625"	"27.628"	"25.933"	"27.134"	"26.65"	"25.367"	"21.388"
"1978"	"22.542"	"24.876"	"28.326"	"31.457"	"34.092"	"28.5"	"25.848"	"25.143"	"26.85"	"26.758"	"25.262"	"22.148"
"1979"	"23.745"	"25.099"	"28.566"	"31.366"	"31.516"	"31.234"	"27.284"	"26.693"	"26.895"	"27.359"	"25.499"	"22.322"
"1980"	"24.138"	"26.868"	"29.078"	"31.95"	"34.657"	"27.953"	"26.978"	"25.596"	"26.582"	"26.824"	"25.083"	"22.275"
"1981"	"21.445"	"25.95"	"27.983"	"31.642"	"31.707"	"30.068"	"25.861"	"25.49"	"26.126"	"26.377"	"22.901"	"22.264"
"1982"	"23.929"	"26.805"	"29.517"	"31.665"	"32.701"	"31.108"	"28.421"	"26.644"	"26.997"	"26.245"	"24.237"	"22.419"
"1983"	"22.73"	"25.935"	"29.831"	"32.09"	"33.756"	"32.354"	"28.189"	"27.168"	"26.543"	"25.597"	"22.531"	"21.047"
"1984"	"23.801"	"25.003"	"29.004"	"31.768"	"35.381"	"30.397"	"27.15"	"26.952"	"27.459"	"26.415"	"22.316"	"23.206"
"1985"	"24.429"	"25.992"	"30.324"	"32.677"	"34.473"	"29.201"	"27.475"	"26.801"	"27.89"	"25.354"	"23.425"	"22.832"
"1986"	"21.75"	"25.013"	"29.125"	"32.538"	"34.705"	"30.45"	"28.257"	"27.05"	"27.993"	"27.253"	"23.632"	"22.937"
"1987"	"22.965"	"24.77"	"28.416"	"32.345"	"32.262"	"32.083"	"28.027"	"27.096"	"28.646"	"26.769"	"23.926"	"22.149"
"1988"	"22.9"	"26.323"	"29.68"	"31.758"	"35.573"	"31.349"	"26.549"	"27.041"	"27.007"	"25.661"	"23.127"	"21.939"
"1989"	"22.768"	"24.587"	"27.397"	"31.965"	"34.984"	"29.476"	"27.236"	"25.867"	"27.191"	"26.142"	"23.596"	"21.637"
"1990"	"22.835"	"25.072"	"28.125"	"32.112"	"29.65"	"27.592"	"27.277"	"26.35"	"27.306"	"25.425"	"24.743"	"22.641"
"1991"	"22.825"	"26.256"	"29.399"	"31.731"	"34.492"	"29.183"	"26.951"	"26.612"	"27.841"	"26.231"	"23.248"	"21.537"
"1992"	"21.534"	"24.439"	"29.387"	"31.656"	"34.582"	"31.675"	"28.739"	"26.042"	"27.333"	"25.984"	"23.915"	"20.031"
"1993"	"22.595"	"24.544"	"29.203"	"31.901"	"34.58"	"31.74"	"27.814"	"26.974"	"27.117"	"26.708"	"23.332"	"19.825"
"1994"	"22.68"	"25.279"	"29.527"	"31.322"	"34.909"	"29.295"	"26.297"	"25.923"	"26.923"	"26.533"	"22.958"	"20.596"
"1995"	"20.266"	"24.58"	"28.53"	"31.553"	"31.84"	"32.198"	"27.51"	"27.93"	"27.62"	"25.959"	"23.949"	"22.779"
"1996"	"24.236"	"25.685"	"29.253"	"31.079"	"35.326"	"31.483"	"27.896"	"26.808"	"27.42"	"25.808"	"23.978"	"21.249"
"1997"	"21.656"	"24.631"	"28.784"	"29.76"	"33.408"	"31.493"	"27.938"	"27.279"	"27.341"	"26.58"	"25.806"	"23.698"
"1998"	"24.19"	"26.166"	"29.103"	"32.625"	"34.754"	"32.313"	"28.62"	"27.283"	"27.373"	"26.843"	"24.436"	"20.896"
"1999"	"21.652"	"26.115"	"29.567"	"33.157"	"32.623"	"29.503"	"27.35"	"26.556"	"26.488"	"26.534"	"24.018"	"21.707"
"2000"	"23.556"	"25.55"	"28.377"	"33.058"	"32.631"	"28.502"	"26.815"	"26.737"	"27.076"	"27.423"	"24.656"	"21.728"
"2001"	"23.17"	"26.624"	"29.319"	"31.242"	"34.584"	"29.143"	"27.58"	"26.489"	"28.061"	"26.411"	"25.22"	"22.234"
"2002"	"22.767"	"25.936"	"29.673"	"32.981"	"34.491"	"29.994"	"28.389"	"26.017"	"27.323"	"26.841"	"23.705"	"22.851"
