
"Year"	"Jan"	"Feb"	"Mar"	"Apr"	"May"	"Jun"	"Jul"	"Aug"	"Sep"	"Oct"	"Nov"	"Dec"
"1901"	"24.384"	"25.068"	"27.596"	"30.828"	"32.053"	"30.973"	"28.041"	"27.471"	"28.687"	"27.409"	"24.818"	"22.78"
"1902"	"23.587"	"25.006"	"28.406"	"30.958"	"33.845"	"31.983"	"28.88"	"28.745"	"27.685"	"27.569"	"24.057"	"23.13"
"1903"	"23.515"	"25.157"	"28.237"	"31.051"	"31.902"	"31.873"	"27.665"	"27.531"	"27.594"	"26.68"	"23.618"	"22.058"
"1904"	"23.001"	"24.237"	"27.578"	"31.284"	"32.217"	"30.363"	"28.394"	"28.288"	"27.678"	"27.029"	"23.999"	"22.199"
"1905"	"23.005"	"24.353"	"27.853"	"30.186"	"32.507"	"32.012"	"28.996"	"27.735"	"27.531"	"27.241"	"24.997"	"22.411"
"1906"	"24.13"	"25.631"	"27.309"	"31.645"	"33.978"	"30.346"	"28.402"	"27.699"	"27.882"	"27.216"	"24.633"	"23.378"
"1907"	"23.108"	"25.329"	"27.51"	"29.324"	"32.35"	"30.56"	"28.38"	"26.638"	"28.155"	"27.7"	"25.526"	"22.524"
"1908"	"22.37"	"25.016"	"27.459"	"31.584"	"33.358"	"32.119"	"28.143"	"27.203"	"27.554"	"26.993"	"23.733"	"21.429"
"1909"	"23.736"	"25.444"	"27.977"	"29.436"	"32.68"	"29.864"	"27.693"	"27.663"	"27.559"	"27.299"	"25.012"	"23.781"
"1910"	"23.494"	"24.743"	"27.947"	"31.437"	"33.219"	"31.206"	"28.622"	"28.19"	"27.722"	"27.183"	"22.857"	"21.385"
"1911"	"23.441"	"24.188"	"27.811"	"31.352"	"33.509"	"30.637"	"28.699"	"27.303"	"28.33"	"27.704"	"25.289"	"22.769"
"1912"	"23.324"	"25.9"	"28.692"	"30.7"	"33.408"	"32.977"	"28.085"	"27.335"	"27.902"	"27.388"	"24.155"	"21.729"
"1913"	"22.066"	"25.709"	"27.927"	"31.459"	"32.66"	"30.544"	"27.97"	"28.322"	"28.534"	"27.085"	"24.51"	"23.394"
"1914"	"22.513"	"25.762"	"27.997"	"29.558"	"32.393"	"30.422"	"27.826"	"27.163"	"27.46"	"27.085"	"24.792"	"23.209"
"1915"	"22.88"	"24.97"	"27.01"	"30.697"	"32.953"	"31.891"	"28.744"	"27.801"	"27.578"	"27.419"	"25.613"	"21.87"
"1916"	"23.355"	"25.722"	"27.879"	"30.876"	"32.812"	"29.536"	"28.05"	"27.955"	"27.842"	"26.935"	"24.447"	"21.629"
"1917"	"22.278"	"24.157"	"26.44"	"29.773"	"31.616"	"29.188"	"28.095"	"27.828"	"27.283"	"26.803"	"23.948"	"22.007"
"1918"	"22.146"	"24.171"	"27.242"	"30.521"	"31.209"	"30.252"	"29.493"	"27.858"	"28.499"	"27.467"	"25.396"	"23.19"
"1919"	"24.432"	"26.37"	"28.483"	"31.122"	"32.915"	"29.927"	"28.683"	"28.402"	"28.282"	"26.856"	"24.662"	"22.401"
"1920"	"23.103"	"25.152"	"28.436"	"30.617"	"32.64"	"31.675"	"29.079"	"29.087"	"28.725"	"28.075"	"25.215"	"22.57"
"1921"	"23.71"	"25.022"	"28.862"	"31.069"	"35.002"	"31.285"	"28.368"	"28.071"	"27.907"	"26.409"	"22.859"	"22.21"
"1922"	"22.956"	"24.841"	"28.425"	"31.455"	"33.216"	"31.397"	"28.488"	"28.855"	"27.749"	"26.798"	"24.718"	"21.727"
"1923"	"22.36"	"24.737"	"27.095"	"31.301"	"33.27"	"33.577"	"28.221"	"28.363"	"27.514"	"26.618"	"24.457"	"22.802"
"1924"	"23.221"	"26.1"	"28.218"	"32.076"	"33.664"	"32.224"	"28.968"	"28.458"	"27.443"	"26.931"	"23.782"	"21.906"
"1925"	"22.636"	"24.58"	"27.769"	"31.286"	"31.847"	"30.844"	"28.366"	"27.621"	"28.199"	"26.594"	"24.674"	"21.925"
"1926"	"23.546"	"25.248"	"28.13"	"30.133"	"32.467"	"33.394"	"28.838"	"28.002"	"28.026"	"27.285"	"24.205"	"22.737"
"1927"	"24.672"	"25.926"	"28.982"	"31.912"	"33.491"	"31.125"	"28.017"	"28.045"	"28.355"	"27.176"	"23.71"	"22.91"
"1928"	"23.378"	"25.476"	"27.881"	"30.751"	"34.031"	"31.309"	"28.2"	"28.497"	"28.008"	"27.227"	"24.854"	"23.222"
"1929"	"24.291"	"24.596"	"27.906"	"30.402"	"33.984"	"31.069"	"28.913"	"28.47"	"27.925"	"27.047"	"24.55"	"23.918"
"1930"	"23.685"	"24.177"	"27.95"	"30.452"	"32.97"	"31.637"	"28.911"	"28.386"	"27.944"	"27.058"	"23.897"	"23.247"
"1931"	"22.549"	"25.651"	"27.902"	"31.407"	"33.279"	"31.479"	"27.909"	"28.17"	"27.771"	"26.936"	"23.809"	"22.553"
"1932"	"21.949"	"24.239"	"27.596"	"30.568"	"32.064"	"31.287"	"27.814"	"28.19"	"27.865"	"27.759"	"25.188"	"22.426"
"1933"	"23.105"	"25.829"	"27.133"	"30.137"	"30.866"	"30.133"	"27.676"	"27.272"	"28.166"	"26.457"	"24.408"	"22.366"
"1934"	"22.236"	"24.568"	"27.46"	"31.037"	"33.706"	"31.495"	"27.948"	"27.519"	"27.825"	"26.969"	"23.258"	"21.96"
"1935"	"23.167"	"25.255"	"27.594"	"29.905"	"34.098"	"31.693"	"28.092"	"28.178"	"27.531"	"27.385"	"23.841"	"23.214"
"1936"	"24.982"	"24.897"	"27.273"	"30.701"	"32.613"	"29.738"	"28.747"	"27.711"	"28.301"	"27.288"	"24.825"	"22.992"
"1937"	"22.401"	"25.688"	"27.524"	"30.584"	"33.234"	"32.052"	"28.152"	"28.491"	"28.263"	"26.732"	"24.668"	"22.38"
"1938"	"24.41"	"25.474"	"28.65"	"31.015"	"33.224"	"28.872"	"27.655"	"27.844"	"27.365"	"26.441"	"23.18"	"21.55"
"1939"	"22.53"	"24.497"	"27.086"	"30.668"	"33.837"	"31.924"	"28.197"	"28.243"	"28.072"	"27.226"	"23.347"	"21.898"
"1940"	"21.29"	"24.96"	"27.392"	"30.386"	"32.466"	"30.873"	"27.389"	"27.5"	"28.105"	"27.059"	"25.432"	"23.385"
"1941"	"24.16"	"25.755"	"29.588"	"32.703"	"34.012"	"30.767"	"29.34"	"28.42"	"28.07"	"27.547"	"24.198"	"24.04"
"1942"	"23.374"	"25.315"	"28.231"	"31.159"	"34.334"	"32.001"	"28.205"	"27.746"	"28.046"	"26.686"	"24.266"	"23.42"
"1943"	"24.387"	"23.813"	"27.997"	"30.504"	"32.046"	"29.978"	"27.951"	"27.903"	"27.379"	"26.934"	"24.804"	"21.587"
"1944"	"23.278"	"25.295"	"26.462"	"30.142"	"33.495"	"32.152"	"27.77"	"28.173"	"27.849"	"27.089"	"24.282"	"22.628"
"1945"	"22.908"	"24.898"	"28.251"	"30.332"	"34.221"	"31.754"	"27.826"	"27.603"	"27.246"	"26.666"	"23.379"	"21.152"
"1946"	"21.286"	"23.999"	"28.821"	"30.502"	"33.666"	"30.278"	"28.252"	"27.789"	"28.28"	"28.099"	"25.73"	"24.103"
"1947"	"24.394"	"24.947"	"29.018"	"32.602"	"34.256"	"32.479"	"27.758"	"27.914"	"27.627"	"26.484"	"24.079"	"22.566"
"1948"	"23.683"	"26.166"	"27.8"	"31.411"	"34.592"	"32.877"	"28.95"	"28.074"	"27.619"	"27.628"	"25.872"	"21.368"
"1949"	"22.632"	"24.582"	"28.483"	"31.423"	"33.034"	"30.937"	"27.841"	"28.033"	"27.792"	"27.7"	"24.145"	"21.832"
"1950"	"22.568"	"24.969"	"27.348"	"31.243"	"33.552"	"31.241"	"27.963"	"28.803"	"27.68"	"26.826"	"23.884"	"21.797"
"1951"	"22.873"	"24.921"	"28.368"	"31.025"	"32.947"	"31.076"	"28.616"	"28.212"	"28.65"	"28.545"	"25.515"	"22.834"
"1952"	"23.472"	"25.937"	"28.206"	"31.815"	"33.481"	"32.795"	"29.666"	"28.351"	"28.343"	"27.178"	"23.881"	"24.082"
"1953"	"23.471"	"25.775"	"29.773"	"31.811"	"35.692"	"33.02"	"28.986"	"27.928"	"28.132"	"27.475"	"24.409"	"22.176"
"1954"	"22.922"	"26.084"	"28.359"	"32.304"	"34.312"	"32.227"	"28.226"	"28.494"	"27.604"	"26.365"	"23.198"	"23.183"
"1955"	"23.115"	"25.956"	"28.687"	"31.149"	"32.716"	"31.779"	"28.547"	"27.496"	"27.919"	"27.098"	"23.254"	"22.046"
"1956"	"23.206"	"24.202"	"28.747"	"31.874"	"33.398"	"30.648"	"27.231"	"27.929"	"27.797"	"26.395"	"24.864"	"22.769"
"1957"	"23.764"	"25.352"	"27.282"	"30.592"	"33.129"	"32.119"	"28.417"	"27.416"	"28.591"	"28.143"	"25.03"	"23.524"
"1958"	"23.67"	"25.981"	"28.737"	"31.474"	"33.802"	"34.073"	"27.771"	"27.953"	"28.13"	"27.305"	"25.594"	"23.198"
"1959"	"23.746"	"26.447"	"28.565"	"31.448"	"33.897"	"31.203"	"28.094"	"27.627"	"28.188"	"27.46"	"24.595"	"22.907"
"1960"	"23.642"	"25.013"	"27.936"	"31.09"	"33.417"	"31.607"	"28.786"	"29.044"	"28.28"	"27.236"	"24.618"	"23.488"
"1961"	"23.565"	"25.267"	"29.502"	"31.918"	"33.126"	"30.951"	"27.792"	"28.074"	"27.595"	"26.707"	"24.115"	"22.025"
"1962"	"21.607"	"24.594"	"27.81"	"30.602"	"32.825"	"31.218"	"28.197"	"27.799"	"27.634"	"27.086"	"24.133"	"22.619"
"1963"	"21.938"	"24.241"	"28.097"	"29.553"	"33.096"	"30.853"	"28.541"	"27.54"	"28.411"	"27.33"	"24.97"	"23.121"
"1964"	"23.855"	"26.155"	"29.178"	"31.74"	"34.521"	"31.395"	"28.456"	"27.337"	"27.288"	"27.361"	"24.267"	"22.246"
"1965"	"23.301"	"25.264"	"27.764"	"30.227"	"32.92"	"31.978"	"28.311"	"28.522"	"28.28"	"27.982"	"25.548"	"24.211"
"1966"	"23.859"	"26.015"	"29.164"	"31.624"	"34.685"	"32.026"	"29.302"	"28.88"	"27.971"	"27.276"	"25.754"	"22.696"
"1967"	"23.518"	"25.386"	"27.564"	"31.172"	"33.941"	"31.975"	"28.522"	"27.878"	"27.85"	"26.781"	"24.213"	"23.988"
"1968"	"22.611"	"25.765"	"27.656"	"30.028"	"33.004"	"31.979"	"28.768"	"28.696"	"27.751"	"26.487"	"24.678"	"23.442"
"1969"	"23.094"	"26.211"	"29.536"	"32.197"	"32.317"	"32.007"	"28.091"	"28.29"	"27.533"	"26.955"	"25.245"	"22.198"
"1970"	"23.336"	"26.184"	"29.07"	"31.262"	"33.598"	"29.848"	"28.425"	"27.404"	"27.924"	"26.859"	"23.833"	"20.909"
"1971"	"23.036"	"26.138"	"27.734"	"30.825"	"32.155"	"29.291"	"29.174"	"28.484"	"28.124"	"26.757"	"23.079"	"21.447"
"1972"	"22.004"	"25.162"	"28.629"	"31.965"	"34.752"	"34.112"	"29.756"	"29.143"	"29.196"	"27.219"	"24.987"	"24.411"
"1973"	"24.826"	"27.007"	"29.489"	"33.118"	"35.268"	"32.344"	"29.062"	"28.304"	"28.707"	"27.274"	"24.235"	"22.806"
"1974"	"22.793"	"26.115"	"29.271"	"31.998"	"32.974"	"31.167"	"29.735"	"28.566"	"28.338"	"27.251"	"24.231"	"21.989"
"1975"	"22.477"	"26.043"	"28.983"	"32.076"	"34.861"	"31.019"	"28.406"	"28.569"	"27.358"	"27.535"	"23.808"	"21.404"
"1976"	"22.306"	"25.291"	"28.869"	"31.47"	"32.944"	"31.53"	"27.324"	"28.015"	"27.67"	"27.226"	"25.741"	"23.149"
"1977"	"22.436"	"26.468"	"29.304"	"31.103"	"32.036"	"31.835"	"29.126"	"27.81"	"28.874"	"27.588"	"26.53"	"23.233"
"1978"	"23.898"	"25.871"	"28.741"	"31.387"	"34.425"	"30.573"	"27.883"	"27.042"	"28.325"	"28.251"	"26.561"	"23.81"
"1979"	"24.607"	"26.557"	"28.829"	"31.623"	"32.276"	"32.137"	"29.873"	"29.053"	"28.368"	"28.491"	"26.649"	"24.183"
"1980"	"25.123"	"27.287"	"29.521"	"31.975"	"34.476"	"29.692"	"28.682"	"27.827"	"28.297"	"27.932"	"26.037"	"23.998"
"1981"	"23.115"	"26.445"	"28.533"	"31.672"	"32.708"	"31.978"	"28.258"	"27.799"	"28.049"	"27.821"	"24.641"	"23.704"
"1982"	"24.531"	"27.094"	"29.695"	"31.699"	"32.76"	"32.198"	"29.682"	"28.199"	"28.457"	"27.562"	"25.734"	"23.85"
"1983"	"23.966"	"27.095"	"29.91"	"31.892"	"33.349"	"32.903"	"29.371"	"28.444"	"27.91"	"27.312"	"24.578"	"23.037"
"1984"	"24.885"	"26.039"	"28.678"	"31.451"	"34.324"	"31.824"	"28.627"	"29.093"	"28.834"	"27.676"	"24.182"	"24.501"
"1985"	"24.946"	"26.404"	"29.766"	"32.503"	"34.277"	"30.677"	"28.502"	"28.301"	"28.927"	"26.707"	"24.868"	"23.872"
"1986"	"22.843"	"25.591"	"28.795"	"31.721"	"34.185"	"31.542"	"29.81"	"28.647"	"29.387"	"28.054"	"25.322"	"24.412"
"1987"	"24.168"	"25.063"	"28.036"	"32.021"	"32.188"	"33.316"	"29.401"	"28.659"	"29.795"	"27.861"	"25.432"	"23.844"
"1988"	"24.084"	"26.781"	"29.566"	"31.18"	"34.773"	"32.57"	"27.829"	"28.244"	"28.266"	"27.401"	"24.774"	"23.651"
"1989"	"23.835"	"25.416"	"27.768"	"31.646"	"34.289"	"30.672"	"28.425"	"27.825"	"28.346"	"27.786"	"25.03"	"23.219"
"1990"	"24.242"	"26.234"	"28.894"	"31.994"	"30.408"	"29.739"	"28.898"	"28.313"	"28.76"	"26.938"	"26.208"	"24.187"
"1991"	"24.471"	"26.761"	"29.42"	"31.708"	"33.784"	"30.29"	"28.798"	"28.391"	"29.019"	"27.613"	"24.577"	"22.998"
"1992"	"22.668"	"25.776"	"29.088"	"31.382"	"33.94"	"32.172"	"30.014"	"27.953"	"28.766"	"27.596"	"25.647"	"22.257"
"1993"	"23.812"	"25.208"	"29.061"	"31.264"	"33.576"	"32.576"	"29.447"	"29.185"	"28.827"	"28.091"	"25.111"	"22.206"
"1994"	"23.951"	"26.033"	"29.332"	"31.458"	"34.507"	"31.427"	"28.22"	"28.028"	"28.754"	"27.716"	"24.464"	"22.432"
"1995"	"22.308"	"25.534"	"28.806"	"31.161"	"31.456"	"32.963"	"28.874"	"29.458"	"28.823"	"27.402"	"25.888"	"23.784"
"1996"	"24.717"	"25.903"	"29.031"	"30.948"	"34.699"	"31.976"	"29.242"	"28.571"	"28.885"	"27.296"	"25.677"	"22.837"
"1997"	"22.893"	"25.564"	"28.812"	"30.052"	"33.42"	"33.16"	"29.785"	"29.408"	"28.78"	"27.936"	"27.018"	"25.541"
"1998"	"25.501"	"27.17"	"29.648"	"32.13"	"34.607"	"33.501"	"29.846"	"28.94"	"28.947"	"28.156"	"26.23"	"22.66"
"1999"	"22.919"	"26.595"	"29.591"	"32.703"	"32.546"	"31.176"	"29.259"	"28.529"	"28.228"	"27.962"	"25.51"	"23.229"
"2000"	"24.656"	"26.509"	"28.636"	"32.507"	"33.421"	"29.979"	"28.552"	"28.09"	"28.988"	"28.624"	"25.836"	"23.085"
"2001"	"24.065"	"26.825"	"29.359"	"30.864"	"34.339"	"30.611"	"29.676"	"28.213"	"29.376"	"28.038"	"26.489"	"23.606"
"2002"	"24.174"	"26.265"	"29.547"	"32.345"	"34.64"	"30.981"	"30.08"	"28.114"	"29.388"	"28.092"	"24.989"	"23.931"
