
"Year"	"Jan"	"Feb"	"Mar"	"Apr"	"May"	"Jun"	"Jul"	"Aug"	"Sep"	"Oct"	"Nov"	"Dec"
"1901"	"39.053"	"59.016"	"4.25"	"7.738"	"61.517"	"79.251"	"153.618"	"145.342"	"286.602"	"115.033"	"236.957"	"0.405"
"1902"	"16.682"	"0.547"	"8.791"	"27.53"	"58.072"	"144.713"	"228.538"	"287.013"	"182.648"	"91.361"	"2.803"	"25.314"
"1903"	"8.281"	"36.178"	"4.673"	"7.282"	"15.082"	"132.948"	"356.602"	"162.726"	"242.538"	"193.144"	"37.84"	"1.763"
"1904"	"0.447"	"4.803"	"16.414"	"1.55"	"97.327"	"188.89"	"240.054"	"294.246"	"187.053"	"140.56"	"1.485"	"6.389"
"1905"	"7.375"	"19.595"	"41.196"	"94.26"	"112.446"	"58.316"	"290.17"	"218.562"	"363.48"	"87.037"	"1.851"	"0.186"
"1906"	"9.769"	"66.306"	"18.89"	"0.207"	"15.472"	"166.27"	"233.31"	"186.366"	"163.017"	"159.14"	"51.037"	"1.378"
"1907"	"0.359"	"10.372"	"38.715"	"89.016"	"41.014"	"152.666"	"116.004"	"210.502"	"73.001"	"44.712"	"7.282"	"19.82"
"1908"	"26.699"	"0.758"	"0.335"	"7.923"	"49.331"	"304.214"	"240.512"	"275.174"	"230.074"	"43.343"	"2.498"	"0.124"
"1909"	"0.442"	"30.659"	"0.2"	"64.747"	"19.801"	"155.741"	"172.749"	"222.137"	"178.366"	"55.438"	"1.409"	"15.101"
"1910"	"18.72"	"0.822"	"4.431"	"10.324"	"21.492"	"202.487"	"318.981"	"377.099"	"169.432"	"243.987"	"6.594"	"0.022"
"1911"	"0"	"2.59"	"16.351"	"8.688"	"24.322"	"263.842"	"99.188"	"177.651"	"321.425"	"67.08"	"3.514"	"0.19"
"1912"	"0.443"	"30.662"	"30.56"	"16.541"	"27.27"	"138.987"	"197.565"	"251.731"	"201.771"	"136.28"	"224.688"	"0"
"1913"	"0.529"	"38.739"	"6.169"	"7.157"	"38.011"	"129.955"	"284.806"	"150.023"	"115.606"	"250.043"	"44.724"	"3.851"
"1914"	"0"	"46.974"	"4.384"	"64.264"	"57.082"	"195.688"	"218.787"	"137.168"	"355.383"	"16.871"	"1.848"	"8.384"
"1915"	"6.34"	"25.065"	"48.232"	"38.195"	"34.005"	"174.53"	"173.518"	"378.336"	"251.158"	"230.634"	"140.303"	"0.247"
"1916"	"0.359"	"3.153"	"0.2"	"7.612"	"18.253"	"349.967"	"178.293"	"240.558"	"187.06"	"393.607"	"190.106"	"0.02"
"1917"	"0"	"105.07"	"15.735"	"14.889"	"61.365"	"227.084"	"149.261"	"333.388"	"157.387"	"408.585"	"28.036"	"2.615"
"1918"	"0.607"	"0.263"	"12.516"	"20.636"	"66.218"	"230.132"	"164.805"	"219.963"	"212.607"	"22.396"	"6.541"	"1.227"
"1919"	"76.879"	"20.734"	"3.559"	"17.929"	"29.405"	"196.844"	"297.889"	"352.711"	"85.746"	"142.609"	"153.825"	"0.225"
"1920"	"0.741"	"16.682"	"52.391"	"0.393"	"27.818"	"120.463"	"192.046"	"269.071"	"165.185"	"194.162"	"4.504"	"0.012"
"1921"	"72.695"	"0.935"	"4.323"	"28.204"	"10.238"	"169.333"	"209.083"	"208.075"	"243.178"	"142.401"	"1.786"	"0.186"
"1922"	"10.163"	"7.266"	"0.2"	"5.216"	"15.98"	"219.662"	"157.808"	"275.968"	"296.348"	"73.162"	"58.155"	"0.124"
"1923"	"0.548"	"98.696"	"8.809"	"16.329"	"11.814"	"83.908"	"180.806"	"189.26"	"216.918"	"214.328"	"107.998"	"7.85"
"1924"	"31.889"	"7.884"	"0.2"	"2.145"	"25.987"	"39.809"	"130.71"	"231.105"	"298.995"	"143.143"	"137.002"	"0.02"
"1925"	"1.561"	"0.623"	"4.788"	"54.663"	"109.039"	"398.488"	"281.134"	"217.643"	"115.782"	"435.865"	"7.105"	"21.076"
"1926"	"7.826"	"4.898"	"58.127"	"33.353"	"28.705"	"105.946"	"260.231"	"270.385"	"276.76"	"125.875"	"0.753"	"0.538"
"1927"	"3.726"	"6.924"	"90.654"	"9.33"	"24.832"	"120.239"	"235.276"	"279.885"	"204.5"	"65.331"	"22.805"	"0.128"
"1928"	"0.448"	"3.68"	"0.795"	"55.34"	"69.626"	"203.994"	"270.745"	"275.538"	"243.733"	"375.639"	"11.981"	"0"
"1929"	"1.26"	"33.485"	"15.189"	"29.026"	"38.461"	"137.24"	"125.143"	"335.743"	"131.58"	"367.99"	"4.366"	"8.298"
"1930"	"0.525"	"18.019"	"2.588"	"24.658"	"100.041"	"171.67"	"376.558"	"232.238"	"198.605"	"115.692"	"142.872"	"0.128"
"1931"	"3.898"	"5.186"	"10.228"	"10.086"	"35.87"	"110.205"	"155.737"	"232.342"	"249.878"	"369.517"	"85.008"	"5.322"
"1932"	"0.11"	"17.062"	"4.07"	"57.805"	"61.196"	"53.017"	"163.944"	"209.274"	"196.637"	"104.063"	"219.977"	"0.261"
"1933"	"30.406"	"3.62"	"2.213"	"22.809"	"46.838"	"228.553"	"297.413"	"209.896"	"240.25"	"262.297"	"13.108"	"0.949"
"1934"	"0"	"9.044"	"3.048"	"8.248"	"10.68"	"190.376"	"228.626"	"276.106"	"174.503"	"136.958"	"12.211"	"1.093"
"1935"	"2.134"	"7.214"	"5.903"	"26.664"	"7.066"	"115.294"	"139.686"	"146.501"	"140.051"	"107.612"	"2.086"	"0.027"
"1936"	"7.974"	"57.477"	"3.039"	"9.307"	"104.955"	"359.762"	"303.656"	"232.18"	"209.247"	"196.983"	"39.541"	"1.165"
"1937"	"0.442"	"82.998"	"5.347"	"44.617"	"35.948"	"174.86"	"191.877"	"205.01"	"161.026"	"233.657"	"1.264"	"0.466"
"1938"	"8.283"	"12.699"	"3.075"	"0.348"	"134.245"	"167.879"	"101.106"	"174.908"	"358.257"	"173.806"	"20.808"	"0.015"
"1939"	"12.959"	"2.285"	"25.883"	"7.185"	"18.835"	"94.865"	"203.127"	"282.417"	"285.859"	"274.958"	"17.414"	"3.085"
"1940"	"0"	"24.274"	"105.144"	"16.333"	"94.719"	"236.823"	"213.135"	"286.628"	"248.672"	"139.049"	"8.085"	"3.87"
"1941"	"30.486"	"8.475"	"0.55"	"3.976"	"46.506"	"191.556"	"159.864"	"244.252"	"206.53"	"373.853"	"72.521"	"0.131"
"1942"	"1.331"	"15.551"	"2.33"	"40.949"	"9.585"	"90.483"	"217.541"	"254.465"	"264.207"	"186.978"	"79.953"	"0.875"
"1943"	"32.738"	"2.29"	"4.854"	"80.883"	"6.744"	"146.832"	"262.637"	"253.56"	"124.356"	"249.055"	"25.827"	"0.022"
"1944"	"29.175"	"68.975"	"81.348"	"48.984"	"26.73"	"148.201"	"200.32"	"225.389"	"169.182"	"178.093"	"6.775"	"0.128"
"1945"	"6.697"	"0.599"	"3.223"	"94.015"	"27.001"	"64.51"	"247.991"	"121.833"	"246.536"	"345.781"	"2.553"	"15.743"
"1946"	"0.493"	"1.726"	"2.386"	"24.936"	"43.394"	"247.133"	"268.563"	"270.412"	"189.765"	"226.775"	"186.732"	"0.186"
"1947"	"34.42"	"58.52"	"8.201"	"9.791"	"19.511"	"223.21"	"310.624"	"234.529"	"267.939"	"109.245"	"8.869"	"16.716"
"1948"	"22.734"	"88.149"	"29.481"	"66.056"	"24.508"	"123.923"	"175.185"	"237.2"	"209.72"	"120.08"	"149.121"	"1.252"
"1949"	"1.697"	"7.832"	"7.883"	"36.585"	"61.727"	"108.716"	"168.791"	"193.531"	"337.627"	"243.132"	"2.128"	"0"
"1950"	"0"	"9.806"	"22.578"	"31.589"	"25.319"	"157.072"	"186.077"	"101.927"	"70.25"	"179.527"	"178.453"	"0.018"
"1951"	"0.513"	"0.208"	"24.699"	"41.596"	"26.845"	"132.659"	"340.429"	"288.529"	"262.918"	"76.081"	"130.553"	"0.132"
"1952"	"1.331"	"1.444"	"17.869"	"74.989"	"23.48"	"191.556"	"253.825"	"187.588"	"136.808"	"296.46"	"1.345"	"0.801"
"1953"	"33.361"	"2.326"	"0.2"	"0.614"	"8.151"	"109.447"	"73.927"	"329.081"	"283.449"	"139.147"	"193.349"	"0.008"
"1954"	"0.489"	"26.644"	"0.2"	"1.624"	"47.686"	"263.144"	"55.422"	"96.303"	"293.199"	"215.504"	"1.727"	"11.658"
"1955"	"0.443"	"0.691"	"22.36"	"27.742"	"92.255"	"149.109"	"108.061"	"268.433"	"405.659"	"464.092"	"142.054"	"0.398"
"1956"	"0.716"	"45.233"	"10.377"	"26.095"	"74.806"	"328.377"	"483.791"	"397.683"	"315.042"	"292.955"	"59.445"	"0.008"
"1957"	"11.208"	"16.307"	"15.604"	"10.756"	"1.341"	"91.311"	"227.386"	"305.315"	"109.461"	"150.664"	"3.264"	"0"
"1958"	"26.957"	"52.334"	"2.01"	"72.31"	"2.561"	"139.269"	"363.167"	"178.924"	"225.071"	"225.019"	"216.379"	"0.186"
"1959"	"13.224"	"18.063"	"2.297"	"15.041"	"71.999"	"173.479"	"233.693"	"106.229"	"149.719"	"354.11"	"0.97"	"5.198"
"1960"	"0.442"	"0.695"	"11.46"	"0.528"	"27.837"	"144.658"	"392.986"	"232.15"	"108.444"	"135.976"	"0.866"	"4.776"
"1961"	"46.832"	"82.878"	"1.195"	"4.353"	"53.456"	"143.987"	"116.439"	"295.504"	"366.635"	"201.027"	"4.395"	"0.018"
"1962"	"1.582"	"9.739"	"0.524"	"10.805"	"5.834"	"125.292"	"333.311"	"128.256"	"268.843"	"472.015"	"1.963"	"0.8"
"1963"	"0.433"	"0.617"	"4.777"	"96.455"	"83.31"	"119.431"	"173.76"	"153.066"	"197.526"	"400.885"	"17.824"	"0.132"
"1964"	"1.336"	"25.627"	"7.569"	"27.964"	"53.068"	"54.479"	"265.677"	"312.243"	"260.914"	"121.493"	"7.206"	"0.581"
"1965"	"9.037"	"17.923"	"26.838"	"22.308"	"3.34"	"72.807"	"402.917"	"268.712"	"238.392"	"133.495"	"1.277"	"1.155"
"1966"	"78.963"	"19.494"	"1.374"	"1.453"	"8.644"	"150.787"	"118.958"	"179.792"	"254.086"	"150.281"	"202.548"	"1.138"
"1967"	"54.059"	"0.474"	"90.75"	"10.579"	"3.764"	"201.064"	"212.921"	"188.895"	"306.322"	"77.865"	"0.583"	"5.522"
"1968"	"19.271"	"40.969"	"7.389"	"3.5"	"7.894"	"220.232"	"326.368"	"195.06"	"266.629"	"253.656"	"102.312"	"0.018"
"1969"	"0.435"	"0.608"	"27.902"	"22.456"	"33.169"	"63.595"	"286.542"	"169.777"	"180.686"	"97.439"	"110.605"	"1.256"
"1970"	"2.223"	"50.385"	"66.858"	"7.992"	"65.857"	"298.176"	"170.931"	"248.935"	"19.858"	"179.713"	"28.198"	"0.02"
"1971"	"23.513"	"96.771"	"2.971"	"71.63"	"47.285"	"387.531"	"186.841"	"268.35"	"165.793"	"201.631"	"0.897"	"0.008"
"1972"	"0.005"	"13.324"	"0.271"	"13.95"	"3.569"	"61.919"	"154.401"	"250.357"	"302.328"	"168.681"	"27.742"	"0.128"
"1973"	"0.012"	"0.828"	"16.778"	"9.739"	"51.329"	"53.206"	"188.045"	"279.227"	"125.115"	"229.956"	"46.2"	"34.659"
"1974"	"0.359"	"1.166"	"82.242"	"4.192"	"20.641"	"95.037"	"170.723"	"222.131"	"166.175"	"340.729"	"39.154"	"0"
"1975"	"1.389"	"3.287"	"0.991"	"1.998"	"18.503"	"255.785"	"236.984"	"248.756"	"231.272"	"359.022"	"80.593"	"0.137"
"1976"	"0"	"0.793"	"4.419"	"65.428"	"47.621"	"77.777"	"343.458"	"298.672"	"176.702"	"89.728"	"103.07"	"0.61"
"1977"	"0.869"	"0.631"	"0.2"	"32.028"	"80.986"	"168.002"	"250.782"	"242.012"	"242.776"	"136.973"	"102.572"	"0.083"
"1978"	"7.595"	"20.253"	"15.009"	"20.579"	"53.261"	"114.273"	"330.189"	"292.729"	"163.694"	"151.139"	"29.843"	"39.418"
"1979"	"0.775"	"27.751"	"3.716"	"21.225"	"9.718"	"107.755"	"184.622"	"132.702"	"157.936"	"72.995"	"14.018"	"7.824"
"1980"	"59.701"	"37.611"	"25.82"	"3.564"	"32.085"	"238.331"	"260.814"	"269.76"	"261.407"	"176.525"	"7.091"	"15.868"
"1981"	"12.643"	"17.744"	"54.456"	"27.729"	"43.276"	"107.987"	"206.211"	"273.364"	"349.434"	"30.649"	"2.525"	"3.309"
"1982"	"0.148"	"7.469"	"10.492"	"49.996"	"10.941"	"84.977"	"272.324"	"219.688"	"160.715"	"214.006"	"29.68"	"0.032"
"1983"	"1.348"	"69.842"	"19.4"	"6.566"	"37.169"	"168.888"	"170.433"	"279.074"	"120.643"	"241.825"	"7.417"	"4.191"
"1984"	"19.369"	"31.009"	"0.355"	"13.909"	"52.375"	"313.739"	"231.735"	"275.037"	"105.255"	"76.791"	"5.86"	"1.841"
"1985"	"28.004"	"2.365"	"0.922"	"10.01"	"15.914"	"199.276"	"275.2"	"199.241"	"156.447"	"299.652"	"15.951"	"0.589"
"1986"	"27.878"	"22.57"	"2.876"	"20.81"	"35.845"	"137.497"	"221.104"	"338.325"	"395.671"	"137.469"	"207.74"	"6.928"
"1987"	"5.806"	"1.218"	"46.786"	"25.957"	"40.816"	"52.786"	"190.748"	"281.642"	"91.948"	"171.44"	"153.675"	"4.402"
"1988"	"0"	"18.002"	"3.548"	"20.132"	"56.905"	"33.17"	"314.577"	"255.315"	"305.085"	"160.265"	"4.353"	"0.325"
"1989"	"0.438"	"0.214"	"32.785"	"2.043"	"121.79"	"222.398"	"359.201"	"207.802"	"135.146"	"199.663"	"1.22"	"0"
"1990"	"0.045"	"56.728"	"69.543"	"19.24"	"78.472"	"169.634"	"350.675"	"305.712"	"163.241"	"259.982"	"63.083"	"8.48"
"1991"	"20.832"	"4.377"	"15.758"	"4.256"	"15.035"	"131.158"	"226.404"	"218.357"	"172.982"	"233.759"	"42.602"	"14.962"
"1992"	"13.296"	"7.5"	"0.2"	"2.61"	"156.476"	"138.419"	"305.821"	"223.359"	"210.345"	"129.703"	"85.82"	"0"
"1993"	"3.755"	"0.367"	"24.466"	"36.837"	"34.15"	"283.044"	"220.907"	"234.391"	"190.343"	"340.509"	"27.902"	"0"
"1994"	"1.949"	"24.371"	"40.536"	"23.089"	"14.18"	"138.001"	"327.262"	"235.575"	"252.454"	"320.129"	"35.233"	"0"
"1995"	"24.705"	"11.249"	"21.623"	"13.09"	"42.633"	"105.684"	"258.511"	"160.671"	"188.379"	"424.194"	"83.079"	"0"
"1996"	"4.111"	"7.069"	"5.073"	"28.774"	"26.41"	"171.88"	"119.863"	"290.375"	"78.879"	"263.556"	"17.928"	"4.017"
"1997"	"25.626"	"9.852"	"58.841"	"40.275"	"9.651"	"164.163"	"331.493"	"232.565"	"281.001"	"92.753"	"55.692"	"16.475"
"1998"	"35.804"	"97.315"	"10.076"	"21.738"	"28.067"	"194.359"	"266.737"	"191.491"	"294.39"	"400.204"	"133.897"	"0"
"1999"	"0.394"	"0.2"	"0.2"	"0.2"	"114.598"	"177.373"	"143.44"	"340.431"	"142.739"	"177.903"	"40.626"	"0.634"
"2000"	"0.45"	"68.653"	"0.2"	"23.563"	"58.547"	"285.937"	"160.974"	"250.816"	"91.34"	"110.995"	"25.061"	"0.736"
"2001"	"0.041"	"2.365"	"18.899"	"16.668"	"62.77"	"356.838"	"146.808"	"262.274"	"166.639"	"233.472"	"79.797"	"1.288"
"2002"	"39.865"	"8.003"	"1.806"	"53.301"	"76.247"	"173.915"	"195.775"	"301.006"	"186.864"	"67.966"	"44.915"	"0"
