
"Year"	"Jan"	"Feb"	"Mar"	"Apr"	"May"	"Jun"	"Jul"	"Aug"	"Sep"	"Oct"	"Nov"	"Dec"
"1901"	"61.412"	"23.488"	"25.597"	"9.71"	"47.289"	"61.524"	"359.141"	"299.65"	"97.813"	"2.379"	"0.355"	"13.578"
"1902"	"3.694"	"10.919"	"17.807"	"48.965"	"37.945"	"96.426"	"342.375"	"185.186"	"107.601"	"18.669"	"5.068"	"1.144"
"1903"	"44.684"	"22.221"	"36.751"	"11.635"	"19.836"	"64.113"	"150.042"	"177.786"	"47.659"	"44.531"	"0.25"	"2.625"
"1904"	"33.161"	"7.605"	"48.549"	"13.443"	"49.132"	"129.417"	"267.088"	"258.194"	"146.198"	"18.313"	"33.2"	"15.379"
"1905"	"118.698"	"67.701"	"21.293"	"23.058"	"26.981"	"61.65"	"154.13"	"241.412"	"64.782"	"1.221"	"0.527"	"20.217"
"1906"	"27.674"	"116.932"	"21.865"	"18.164"	"74.838"	"124.101"	"136.865"	"349.811"	"117.362"	"5.603"	"0.275"	"2.447"
"1907"	"25.376"	"59.082"	"83.75"	"53.915"	"22.58"	"165.965"	"235.578"	"218.202"	"21.057"	"2.842"	"0.252"	"0.564"
"1908"	"45.416"	"44.124"	"5.635"	"20.722"	"75.942"	"90.578"	"152.351"	"242.695"	"257.936"	"1.387"	"1.804"	"3.088"
"1909"	"51.844"	"19.539"	"6.907"	"55.348"	"16.107"	"225.024"	"427.444"	"258.95"	"178.991"	"4.248"	"8.171"	"36.711"
"1910"	"39.649"	"29.128"	"12.104"	"39.182"	"47.022"	"193.355"	"334.058"	"277.015"	"148.186"	"9.242"	"3.238"	"9.413"
"1911"	"82.916"	"9.251"	"98.842"	"20.888"	"4.922"	"96.754"	"165.719"	"232.93"	"239.706"	"8.445"	"56.346"	"4.402"
"1912"	"50.965"	"32.776"	"23.449"	"33.55"	"60.257"	"87.53"	"202.11"	"174.443"	"145.974"	"2.344"	"43.876"	"18.146"
"1913"	"33.485"	"65.823"	"56.396"	"40.073"	"57.95"	"215.812"	"146.717"	"191.353"	"58.729"	"4.245"	"14.357"	"27.695"
"1914"	"21.454"	"67.274"	"63.269"	"36.399"	"28.566"	"120.428"	"307.48"	"232.071"	"329.46"	"13.366"	"22.253"	"5.513"
"1915"	"12.935"	"101.016"	"42.522"	"24.831"	"34.764"	"118.398"	"141.443"	"483.436"	"92.017"	"34.439"	"0.45"	"7.46"
"1916"	"6.935"	"18.187"	"4.099"	"21.909"	"46.938"	"246.793"	"349.871"	"206.078"	"175.004"	"23.612"	"0.3"	"0.785"
"1917"	"15.613"	"39.516"	"45.312"	"50.148"	"80.245"	"262.624"	"245.903"	"390.076"	"218.754"	"44.598"	"0.45"	"17.698"
"1918"	"6.226"	"2.631"	"31.796"	"49.209"	"13.529"	"116.736"	"142.527"	"103.774"	"54.774"	"2.895"	"40.7"	"16.317"
"1919"	"88.811"	"21.796"	"34.259"	"51.03"	"31.794"	"86.235"	"195.858"	"149.011"	"117.616"	"16.221"	"4.56"	"4.346"
"1920"	"26.576"	"32.396"	"47.276"	"30.083"	"47.433"	"213.291"	"187.146"	"84.438"	"129.251"	"4.732"	"0.355"	"1.696"
"1921"	"53.106"	"5.769"	"9.198"	"12.827"	"47.791"	"117.935"	"169.447"	"303.691"	"125.366"	"46.834"	"0.321"	"21.627"
"1922"	"50.873"	"48.58"	"18.347"	"16.418"	"35.167"	"75.875"	"277.244"	"321.396"	"195.522"	"21.608"	"8.78"	"56.344"
"1923"	"22.594"	"86.551"	"6.806"	"3.75"	"25.984"	"41.427"	"432.72"	"256.722"	"149.878"	"48.747"	"35.185"	"21.624"
"1924"	"40.168"	"63.582"	"20.212"	"14.537"	"36.404"	"39.546"	"240.376"	"162.51"	"371.44"	"57.404"	"4.626"	"36.769"
"1925"	"32.365"	"6.378"	"8.693"	"18.026"	"41.88"	"216.858"	"334.501"	"344.968"	"75.957"	"5.107"	"24.727"	"0.564"
"1926"	"22.449"	"16.014"	"69.861"	"42.459"	"39.821"	"67.206"	"274.954"	"197.439"	"119.606"	"6.482"	"20.483"	"11.248"
"1927"	"5.482"	"54.164"	"33.235"	"17.699"	"66.814"	"73.93"	"104.413"	"403.584"	"100.004"	"83.846"	"1.522"	"5.116"
"1928"	"55.592"	"86.961"	"22.902"	"39.349"	"6.101"	"59.921"	"228.459"	"140.586"	"229.157"	"1.431"	"22.534"	"29.037"
"1929"	"75.53"	"4.352"	"14.857"	"30.454"	"19.256"	"135.727"	"225.229"	"236.96"	"35.38"	"32.625"	"0.25"	"49.54"
"1930"	"55.182"	"23.578"	"16.24"	"20.983"	"18.426"	"80.859"	"269.888"	"205.168"	"40.404"	"25.596"	"23.412"	"21.624"
"1931"	"23.591"	"73.231"	"24.968"	"36.802"	"44.711"	"64.057"	"405.822"	"171.934"	"260.244"	"68.475"	"3.238"	"0.634"
"1932"	"10.103"	"11.075"	"27.808"	"17.971"	"21.158"	"147.182"	"111.519"	"201.484"	"181.286"	"6.292"	"1.806"	"20.035"
"1933"	"32.817"	"54.375"	"24.785"	"31.469"	"51.587"	"136.925"	"278.86"	"366.349"	"157.039"	"79.22"	"6.617"	"2.578"
"1934"	"36.999"	"15.045"	"24.836"	"5.25"	"20.241"	"80.346"	"298.901"	"400.368"	"51.552"	"0.65"	"0.38"	"31.097"
"1935"	"62.947"	"31.635"	"21.58"	"37.115"	"27.094"	"13.888"	"193.875"	"154.558"	"105.132"	"4.726"	"26.443"	"24.589"
"1936"	"9.042"	"49.57"	"57.835"	"41.637"	"46.699"	"410.491"	"626.961"	"265.352"	"110.733"	"18.767"	"7.757"	"57.002"
"1937"	"14.992"	"94.437"	"9.554"	"52.447"	"44.054"	"116.621"	"343.936"	"139.294"	"145.639"	"25.194"	"2.936"	"23.699"
"1938"	"74.229"	"37.47"	"5.2"	"7.749"	"9.158"	"221.211"	"242.963"	"254.677"	"49.275"	"13.632"	"4.14"	"4.013"
"1939"	"30.233"	"48.741"	"36.887"	"33.562"	"16.339"	"111.618"	"213.24"	"129.474"	"57.669"	"27.512"	"0.897"	"0.853"
"1940"	"38.569"	"78.778"	"46.335"	"32.16"	"33.189"	"128.094"	"177.682"	"226.528"	"101.932"	"6.035"	"1.761"	"16.871"
"1941"	"32.319"	"34.035"	"12.246"	"24.725"	"58.335"	"83.155"	"135.119"	"121.485"	"230.795"	"6.479"	"6.319"	"21.056"
"1942"	"64.632"	"75.674"	"9.308"	"42.145"	"62.428"	"115.899"	"386.207"	"160.878"	"109.743"	"3.059"	"1.975"	"32.954"
"1943"	"29.913"	"8.528"	"24.926"	"53.169"	"5.518"	"134.694"	"146.033"	"291.878"	"171.282"	"0.2"	"0.001"	"0.196"
"1944"	"55.359"	"38.239"	"29.57"	"23.739"	"7.225"	"173.529"	"152.815"	"183.365"	"97.296"	"3.715"	"8.752"	"4.668"
"1945"	"33.109"	"5.381"	"40.48"	"44.295"	"21.074"	"122.35"	"429.471"	"166.418"	"273.252"	"57.834"	"0.001"	"5.906"
"1946"	"4.027"	"31.784"	"12.061"	"47.754"	"57.565"	"115.643"	"238.409"	"105.951"	"55.389"	"20.345"	"27.651"	"17.392"
"1947"	"27.835"	"41.578"	"47.341"	"6.057"	"35.538"	"69.57"	"220.003"	"297.866"	"127.719"	"13.527"	"2.894"	"13.526"
"1948"	"4.807"	"52.556"	"79.336"	"12.447"	"23.529"	"117.781"	"351.243"	"342.364"	"95.003"	"19.242"	"0.001"	"7.673"
"1949"	"14.116"	"67.307"	"16.35"	"41.299"	"47.374"	"79.107"	"298.174"	"233.921"	"154.331"	"26.579"	"1.836"	"3.178"
"1950"	"108.054"	"66.011"	"49.931"	"10.126"	"48.262"	"168.369"	"302.51"	"196.318"	"195.302"	"1.793"	"9.172"	"2.077"
"1951"	"30.098"	"50.502"	"51.344"	"22.837"	"35.422"	"133.185"	"111.569"	"344.451"	"114.651"	"14.14"	"66.891"	"0.251"
"1952"	"27.132"	"35.667"	"46.89"	"20.331"	"50.335"	"104.001"	"109.231"	"199.023"	"28.314"	"8.161"	"21.916"	"18.121"
"1953"	"67.113"	"22.582"	"45.935"	"26.866"	"6.496"	"123.215"	"488.855"	"178.71"	"134.425"	"28.327"	"10.716"	"12.534"
"1954"	"56.577"	"127.355"	"15.941"	"4.064"	"30.909"	"114.125"	"242.233"	"180.55"	"259.246"	"33.618"	"0.001"	"6.119"
"1955"	"48.433"	"4.53"	"49.473"	"40.609"	"32.587"	"108.704"	"226.409"	"269.454"	"123.696"	"73.009"	"0.001"	"1.549"
"1956"	"39.134"	"28.376"	"39.862"	"38.662"	"71.345"	"130.649"	"193.503"	"181.502"	"49.888"	"71.848"	"0.001"	"16.641"
"1957"	"97.798"	"15.634"	"40.063"	"57.08"	"26.011"	"120.377"	"166.631"	"382.242"	"166.481"	"42.439"	"20.71"	"54.886"
"1958"	"28.702"	"16.181"	"26.771"	"28.288"	"22.365"	"77.753"	"185.832"	"314.729"	"153.695"	"72.754"	"5.832"	"33.487"
"1959"	"35.333"	"27.63"	"30.215"	"23.955"	"113.891"	"50.81"	"433.674"	"136.717"	"64.061"	"36.141"	"35.127"	"3.328"
"1960"	"31.165"	"7.443"	"34.085"	"28.687"	"39.37"	"113.517"	"313.252"	"220.597"	"94.914"	"63.123"	"0.45"	"5.221"
"1961"	"128.672"	"59.55"	"25.523"	"21.012"	"19.903"	"41.961"	"324.774"	"170.075"	"113.754"	"35.242"	"6.441"	"36.882"
"1962"	"71.401"	"26.334"	"38.273"	"4.075"	"16.194"	"32.684"	"174.11"	"123.014"	"229.367"	"0.289"	"12.033"	"35.219"
"1963"	"5.264"	"70.922"	"146.434"	"17.978"	"38.356"	"38.43"	"136.71"	"177.317"	"145.421"	"3.632"	"8.133"	"24.162"
"1964"	"35.531"	"15.921"	"25.308"	"14.572"	"33.487"	"82.123"	"330.95"	"177.375"	"84.983"	"0.2"	"2.33"	"15.687"
"1965"	"14.236"	"60.179"	"42.443"	"59.816"	"24.527"	"20.463"	"192.425"	"216.812"	"14.2"	"64.995"	"8.582"	"0.196"
"1966"	"9.194"	"71.852"	"75.886"	"52.244"	"31.903"	"202.115"	"161.194"	"269.024"	"134.01"	"44.718"	"52.93"	"1.625"
"1967"	"0.503"	"42.594"	"67.667"	"13.174"	"4.56"	"21.944"	"144.461"	"305.474"	"37.175"	"5.917"	"3.184"	"47.366"
"1968"	"47.404"	"51.903"	"18.462"	"15.721"	"7.41"	"46.883"	"255.543"	"224.028"	"16.111"	"17.953"	"0.001"	"8.842"
"1969"	"16.181"	"21.06"	"41.828"	"131.3"	"67.978"	"26.354"	"242.086"	"304.204"	"320.855"	"13.398"	"0.868"	"0.196"
"1970"	"42.824"	"36.357"	"10.559"	"0.89"	"27.805"	"91.604"	"91.107"	"250.421"	"96.246"	"9.875"	"0.001"	"0.609"
"1971"	"13.183"	"27.722"	"11.512"	"39.131"	"171.412"	"161.368"	"285.742"	"236.772"	"122.945"	"62.042"	"7.667"	"0.196"
"1972"	"27.152"	"30.786"	"8.633"	"19.113"	"25.461"	"45.333"	"126.603"	"180.004"	"393.621"	"77.599"	"25.123"	"7.778"
"1973"	"29.584"	"18.305"	"17.329"	"1.465"	"27.04"	"243.38"	"234.117"	"359.725"	"90.543"	"48.148"	"0.001"	"11.249"
"1974"	"28.349"	"36.102"	"3.592"	"2.044"	"69.12"	"89.198"	"213.895"	"134.733"	"74.664"	"6.158"	"0.001"	"13.167"
"1975"	"63.556"	"35.005"	"58.291"	"5.829"	"4.365"	"155.945"	"227.522"	"277.378"	"248.222"	"25.917"	"0.001"	"0.197"
"1976"	"13.617"	"58.627"	"14.733"	"22.563"	"27.282"	"480.358"	"205.38"	"490.359"	"102.06"	"18.093"	"0.001"	"0.286"
"1977"	"74.53"	"7.979"	"1.741"	"119.578"	"82.45"	"406.251"	"284.26"	"151.721"	"103.723"	"30.977"	"0.755"	"13.628"
"1978"	"5.675"	"12.536"	"90.606"	"34.825"	"1.624"	"157.921"	"389.216"	"409.618"	"314.743"	"1.804"	"23.844"	"3.714"
"1979"	"22.07"	"91.745"	"38.16"	"10.849"	"43.437"	"63.031"	"264.925"	"74.424"	"165.625"	"15.116"	"14.301"	"2.996"
"1980"	"13.954"	"57.099"	"37.861"	"8.65"	"46.945"	"146.958"	"476.687"	"291.025"	"137.91"	"15.224"	"7.884"	"11.647"
"1981"	"74.729"	"25.903"	"55.084"	"41.168"	"46.328"	"40.235"	"320.916"	"144.074"	"22.98"	"10.184"	"58.564"	"1.899"
"1982"	"27.054"	"16.186"	"98.743"	"49.68"	"61.732"	"19.365"	"81.105"	"198.98"	"12.349"	"5.493"	"20.1"	"24.867"
"1983"	"53.918"	"27.79"	"95.399"	"88.397"	"82.939"	"235.556"	"282.476"	"204.005"	"123.407"	"39.802"	"0.001"	"4.301"
"1984"	"3.422"	"104.9"	"8.905"	"28.26"	"0.857"	"57.368"	"433.072"	"257.364"	"231.113"	"0.429"	"0.001"	"20.639"
"1985"	"47.867"	"1.542"	"22.332"	"72.825"	"28.369"	"194.759"	"608.202"	"229.073"	"100.418"	"53.487"	"1.469"	"30.719"
"1986"	"3.513"	"38.652"	"37.952"	"22.085"	"65.956"	"90.615"	"334.379"	"182.859"	"238.409"	"26.684"	"8.181"	"73.835"
"1987"	"70.503"	"32.028"	"21.296"	"27.814"	"50.576"	"54.739"	"68.505"	"192.644"	"14.173"	"18.847"	"0.001"	"38.276"
"1988"	"9.326"	"22.42"	"83.795"	"25.885"	"9.347"	"155.184"	"439.95"	"229.754"	"119.158"	"26.964"	"0.416"	"36.402"
"1989"	"92.379"	"13.931"	"21.337"	"6.676"	"16.665"	"59.225"	"297.239"	"119.132"	"59.481"	"4.18"	"8.512"	"10.064"
"1990"	"7.929"	"117.877"	"90.075"	"17.398"	"156.952"	"50.815"	"233.901"	"265.471"	"182.614"	"6.976"	"19.447"	"40"
"1991"	"5.229"	"25.5"	"18.821"	"60.576"	"54.53"	"141.23"	"30.184"	"204.179"	"110"	"3.675"	"5.804"	"9.158"
"1992"	"45.255"	"84.221"	"48.188"	"13.87"	"49.251"	"79.369"	"221.726"	"165.977"	"74.203"	"7.551"	"64.141"	"1.22"
"1993"	"19.558"	"34.096"	"28.692"	"24.927"	"24.069"	"209.516"	"142.199"	"34.759"	"174.327"	"0.2"	"0.001"	"0.196"
"1994"	"37.998"	"25.131"	"18.272"	"10.745"	"76.149"	"47.08"	"284.411"	"225.054"	"88.534"	"2.919"	"0.001"	"6.06"
"1995"	"71.21"	"137.935"	"35.853"	"10.766"	"2.327"	"152.193"	"216.353"	"384.68"	"109.584"	"5.045"	"60.293"	"0.963"
"1996"	"76.66"	"72.251"	"45.568"	"38.726"	"43.485"	"233.297"	"241.466"	"362.418"	"148.816"	"26.443"	"0.127"	"7.381"
"1997"	"20.429"	"14.407"	"20.68"	"71.523"	"40.737"	"213.08"	"113.821"	"166.254"	"77.921"	"18.736"	"28.383"	"12.293"
"1998"	"21.5"	"49.56"	"67.897"	"60.284"	"18.085"	"37.226"	"199.844"	"258.351"	"132.039"	"41.148"	"10.234"	"7.294"
"1999"	"35.915"	"25.918"	"6.834"	"32.315"	"38.988"	"96.694"	"156.227"	"202.125"	"101.531"	"18.183"	"5.965"	"9.453"
"2000"	"20.2"	"66.698"	"19.299"	"11.959"	"51.085"	"191.409"	"143.574"	"181.698"	"68.985"	"0.2"	"1.18"	"1.146"
"2001"	"11.232"	"18.285"	"9.47"	"41.282"	"74.565"	"87.163"	"241"	"119.255"	"55.511"	"14.239"	"3.537"	"16.854"
"2002"	"67.704"	"67.264"	"70.431"	"27.5"	"8.779"	"77.868"	"228.084"	"140.333"	"226.835"	"3.357"	"0.348"	"2.424"
