
"Year"	"Jan"	"Feb"	"Mar"	"Apr"	"May"	"Jun"	"Jul"	"Aug"	"Sep"	"Oct"	"Nov"	"Dec"
"1901"	"22.695"	"2.656"	"10.108"	"58.583"	"83.414"	"426.944"	"335.02"	"402.66"	"259.827"	"93.101"	"26.778"	"3.977"
"1902"	"0.004"	"0.003"	"47.465"	"140.173"	"148.713"	"387.656"	"473.044"	"354.694"	"445.955"	"51.513"	"0.008"	"0.005"
"1903"	"4.631"	"12.65"	"30.268"	"76.146"	"243.53"	"602.196"	"231.467"	"468.11"	"333.179"	"156.505"	"11.102"	"0.004"
"1904"	"0.483"	"15.295"	"23.182"	"81.233"	"578.949"	"492.411"	"502.693"	"375.3"	"201.827"	"76.072"	"9.943"	"0.779"
"1905"	"7.989"	"11.76"	"40.412"	"78.688"	"279.024"	"172.597"	"471.982"	"621.158"	"339.303"	"44.249"	"1.981"	"6.383"
"1906"	"7.388"	"29.492"	"28.911"	"33.187"	"177.156"	"347.861"	"516.799"	"300.829"	"274.923"	"208.327"	"4.267"	"0.004"
"1907"	"14.941"	"20.27"	"60.815"	"102.169"	"182.891"	"543.994"	"442.263"	"295.411"	"370.487"	"34.293"	"0.004"	"3.621"
"1908"	"4.583"	"13.094"	"7.61"	"45.603"	"247.278"	"386.799"	"374.181"	"360.623"	"224.023"	"30.653"	"1.593"	"0.641"
"1909"	"2.149"	"2.329"	"0.206"	"137.402"	"199.966"	"606.605"	"475.587"	"369.083"	"269.905"	"97.456"	"1.23"	"2.591"
"1910"	"3.14"	"7.966"	"36.426"	"108.377"	"172.1"	"438.26"	"582.055"	"349.418"	"169.303"	"120.259"	"7.35"	"0.003"
"1911"	"18.142"	"1.015"	"23.373"	"48.836"	"228.247"	"602.224"	"404.652"	"433.412"	"426.92"	"161.665"	"10.787"	"0.003"
"1912"	"0.545"	"19.516"	"21.666"	"143.097"	"227.401"	"497.042"	"535.614"	"456.679"	"122.013"	"54.993"	"10.987"	"3.737"
"1913"	"0.027"	"32.125"	"40.521"	"43.858"	"281.746"	"685.491"	"355.411"	"390.816"	"300.319"	"152.267"	"0.496"	"37.723"
"1914"	"0.001"	"23.73"	"15.809"	"93.114"	"249.277"	"286.957"	"553.286"	"482.936"	"253.909"	"40.915"	"2.966"	"1.696"
"1915"	"0.496"	"29.209"	"32.987"	"76.75"	"390.236"	"582.901"	"519.728"	"408.534"	"250.497"	"45.318"	"4.359"	"0.004"
"1916"	"0.472"	"6.657"	"14.255"	"65.948"	"119.67"	"357.604"	"419.193"	"388.913"	"326.99"	"306.04"	"11.934"	"0.003"
"1917"	"0.406"	"19.441"	"10.647"	"67.937"	"216.433"	"445.794"	"778.175"	"341.794"	"516.871"	"273.318"	"16.099"	"0.003"
"1918"	"0.269"	"6.684"	"16.243"	"74.485"	"289.637"	"482.254"	"568.508"	"670.58"	"341.897"	"62.114"	"0.297"	"0.006"
"1919"	"10.434"	"4.148"	"10.366"	"52.735"	"231.897"	"352.805"	"486.407"	"405.702"	"377.336"	"106.814"	"6.948"	"0.003"
"1920"	"7.114"	"16.266"	"49.753"	"60.464"	"178.104"	"332.248"	"451.634"	"305.048"	"450.006"	"57.618"	"0.004"	"0.003"
"1921"	"22.616"	"7.203"	"24.518"	"113.511"	"182.085"	"410.914"	"647.337"	"496.816"	"243.655"	"76.555"	"1.97"	"0.323"
"1922"	"6.06"	"4.282"	"0.9"	"17.995"	"138.659"	"689.945"	"560.255"	"488.051"	"335.95"	"54.568"	"0.393"	"11.056"
"1923"	"0.005"	"28.17"	"1.273"	"48.062"	"173.937"	"503.308"	"306.18"	"414.215"	"179.811"	"93.531"	"1.698"	"3.792"
"1924"	"2.584"	"7.815"	"1.826"	"63.505"	"214.025"	"422.898"	"550.571"	"450.911"	"406.6"	"66.126"	"39.677"	"0.003"
"1925"	"7.221"	"2.167"	"9.786"	"144.388"	"349.342"	"285.736"	"606.32"	"271.274"	"344.607"	"60.219"	"1.688"	"0.004"
"1926"	"11.044"	"1.013"	"75.858"	"55.921"	"305.922"	"184.134"	"604.659"	"341.136"	"223.872"	"104.318"	"0.005"	"7.087"
"1927"	"20.833"	"38.092"	"47.547"	"41.177"	"176.892"	"358.25"	"462.161"	"526.228"	"266.206"	"63.744"	"18.518"	"0.004"
"1928"	"13.087"	"6.191"	"3.508"	"49.426"	"345.802"	"393.243"	"446.696"	"404.732"	"219.409"	"164.043"	"3.213"	"1.213"
"1929"	"17.328"	"0.204"	"23.719"	"74.536"	"326.353"	"504.615"	"446.834"	"409.427"	"144.907"	"266.758"	"1.534"	"5.912"
"1930"	"5.034"	"12.638"	"19.324"	"69.799"	"167.228"	"411.537"	"421.014"	"475.929"	"305.652"	"84.278"	"24.525"	"7.301"
"1931"	"1.736"	"13.325"	"28.227"	"44.751"	"227.561"	"281.185"	"867.591"	"416.772"	"460.883"	"90.041"	"2.222"	"5.668"
"1932"	"0.004"	"13.304"	"13.438"	"72.584"	"240.171"	"399.741"	"354.803"	"279.101"	"335.461"	"80.563"	"33.019"	"13.341"
"1933"	"14.554"	"10.502"	"2.395"	"91.531"	"253.302"	"256.782"	"664.613"	"463.887"	"182.152"	"196.791"	"0.204"	"0.003"
"1934"	"13.158"	"30.966"	"1.101"	"83.001"	"306.543"	"615.938"	"596.804"	"368.27"	"311.368"	"173.512"	"7.543"	"0.59"
"1935"	"2.058"	"20.353"	"15.461"	"9.494"	"252.328"	"320.157"	"301.313"	"635.485"	"395.679"	"23.852"	"0.003"	"0.823"
"1936"	"2.841"	"23.483"	"19.466"	"51"	"358.986"	"398.613"	"523.993"	"390.905"	"536.652"	"119.947"	"0.259"	"17.184"
"1937"	"0"	"25.109"	"7.64"	"101.858"	"255.699"	"333.816"	"344.597"	"636.827"	"472.94"	"129.373"	"1.671"	"0.198"
"1938"	"1.776"	"31.061"	"32.397"	"61.16"	"269.604"	"581.504"	"550.185"	"433.035"	"210.983"	"83.25"	"7.21"	"0.003"
"1939"	"0.977"	"11.371"	"7.799"	"26.151"	"208.331"	"392.935"	"563.46"	"257.439"	"464.605"	"170.458"	"0.003"	"0.004"
"1940"	"0.368"	"28.8"	"35.78"	"31.45"	"227.233"	"473.561"	"568.583"	"384.301"	"359.042"	"61.096"	"2.237"	"7.668"
"1941"	"4.783"	"5.166"	"17.189"	"51.035"	"280.903"	"517.403"	"330.209"	"380.234"	"323.486"	"172.406"	"2.493"	"1.944"
"1942"	"5.645"	"18.686"	"28.205"	"60.857"	"138.151"	"328.284"	"344.435"	"635.52"	"634.376"	"51.906"	"0.662"	"0.639"
"1943"	"11.565"	"7.923"	"47.154"	"177.175"	"282.451"	"307.544"	"531.94"	"338.921"	"369.914"	"55.388"	"1.871"	"1.426"
"1944"	"19.811"	"7.785"	"48.542"	"66.683"	"230.827"	"380.475"	"283.245"	"448.059"	"245.92"	"54.242"	"0.489"	"0"
"1945"	"31.57"	"10.83"	"12.595"	"110.125"	"213.004"	"445.817"	"440.977"	"468.573"	"436.82"	"225.773"	"0.004"	"1.212"
"1946"	"0"	"12.544"	"38.232"	"73.924"	"252.394"	"359.548"	"470.443"	"256.445"	"264.643"	"311.948"	"10.256"	"0"
"1947"	"3.713"	"2.371"	"30.856"	"39.842"	"219.717"	"373.926"	"738.051"	"370.514"	"399.422"	"59.486"	"0.002"	"4.42"
"1948"	"1.729"	"4.851"	"11.544"	"110.724"	"399.38"	"273.189"	"482.639"	"356.662"	"267.36"	"182.707"	"14.648"	"0"
"1949"	"7.405"	"16.205"	"11.587"	"103.719"	"334.025"	"588.079"	"438.557"	"592.326"	"461.568"	"92.873"	"0.888"	"0.004"
"1950"	"0.479"	"8.961"	"40.463"	"25.358"	"81.504"	"579.145"	"408.537"	"407.037"	"175.765"	"141.532"	"7.867"	"0.003"
"1951"	"2.826"	"0.042"	"41.778"	"33.229"	"137.669"	"409.137"	"644.201"	"471.054"	"190.689"	"146.135"	"14.571"	"0"
"1952"	"0.004"	"6.115"	"23.286"	"160.899"	"133.775"	"540.93"	"412.212"	"477.438"	"479.702"	"137.831"	"9.391"	"0"
"1953"	"25.641"	"2.704"	"37.285"	"18.659"	"157.027"	"449.853"	"562.41"	"242.629"	"387.767"	"12.668"	"0.141"	"8.464"
"1954"	"21.186"	"0.907"	"3.08"	"9.876"	"264.266"	"781.558"	"659.386"	"275.087"	"289.833"	"85.351"	"0"	"5.424"
"1955"	"16.827"	"3.198"	"6.889"	"89.722"	"109.339"	"565.856"	"947.423"	"575.19"	"239.547"	"33.493"	"3.701"	"0.55"
"1956"	"11.253"	"3.676"	"22.439"	"29.347"	"276.102"	"576.278"	"478.814"	"388.008"	"245.993"	"239.059"	"15.252"	"1.483"
"1957"	"17.264"	"2.037"	"6.569"	"26.596"	"150.445"	"273.65"	"416.838"	"312.844"	"126.568"	"32.804"	"1.405"	"3.258"
"1958"	"11.265"	"3.243"	"16.68"	"76.891"	"182.998"	"155.12"	"465.439"	"643.132"	"286.81"	"49.26"	"2.532"	"0.27"
"1959"	"28.924"	"0.3"	"11.495"	"79.576"	"286.641"	"435.128"	"454.211"	"328.122"	"259.31"	"324.696"	"0.093"	"0"
"1960"	"0.208"	"0.797"	"36.812"	"13.818"	"201.932"	"288.059"	"536.373"	"252.845"	"507.607"	"61.718"	"0.121"	"0.119"
"1961"	"0.566"	"20.288"	"10.624"	"55.737"	"175.704"	"409.525"	"353.945"	"233.954"	"227.838"	"225.566"	"4.061"	"3.55"
"1962"	"11.898"	"6.432"	"10.658"	"47.601"	"274.253"	"468.026"	"305.864"	"559.87"	"243.872"	"49.649"	"0"	"0.444"
"1963"	"0.531"	"0.32"	"52.857"	"79.569"	"215.646"	"392.57"	"579.841"	"324.388"	"317.758"	"83.167"	"6.367"	"0.238"
"1964"	"3.049"	"4.888"	"8.684"	"62.824"	"203.751"	"463.399"	"557.72"	"226.431"	"204.39"	"133.708"	"0.923"	"0"
"1965"	"0"	"10.289"	"24.941"	"75.568"	"238.431"	"247.947"	"365.673"	"564.859"	"158.4"	"19.695"	"21.142"	"0.609"
"1966"	"18.284"	"3.033"	"5.923"	"29.587"	"175.159"	"253.641"	"336.595"	"413.535"	"172.775"	"33.489"	"17.975"	"2.006"
"1967"	"0.992"	"1.155"	"82.023"	"132.469"	"75.175"	"243.282"	"482.274"	"251.419"	"374.506"	"122.923"	"1.91"	"0"
"1968"	"10.91"	"1.279"	"13.176"	"63.576"	"189.767"	"438.827"	"611.012"	"359.212"	"188.691"	"383.823"	"3.52"	"1.372"
"1969"	"14.864"	"0.632"	"35.076"	"76.577"	"235.059"	"370.33"	"584.107"	"457.732"	"316.712"	"53.754"	"28.007"	"0"
"1970"	"16.93"	"17.655"	"13.418"	"46.429"	"140.653"	"484.175"	"455.889"	"453.397"	"283.531"	"44.564"	"3.448"	"0"
"1971"	"8.276"	"2.628"	"9.605"	"53.041"	"214.789"	"271.645"	"427.63"	"434.014"	"366.62"	"253.541"	"31.293"	"0.238"
"1972"	"4.674"	"22.846"	"36.221"	"59.127"	"149.617"	"233.277"	"386.013"	"257.716"	"343.436"	"82.249"	"9.316"	"0"
"1973"	"8.335"	"11.449"	"8.478"	"45.968"	"272.451"	"653.524"	"361.873"	"250.399"	"435.203"	"361.56"	"16.947"	"3.218"
"1974"	"8.191"	"0"	"12.84"	"99.772"	"255.559"	"438.621"	"893.006"	"412.012"	"586.629"	"152.347"	"0.442"	"0.487"
"1975"	"2.892"	"3.452"	"4.011"	"104.78"	"277.32"	"322.05"	"611.489"	"196.184"	"441.742"	"79.238"	"0"	"0.06"
"1976"	"3.353"	"9.962"	"7.15"	"104.099"	"215.434"	"450.456"	"441.297"	"455.152"	"210.103"	"42.406"	"0.804"	"0"
"1977"	"0.741"	"1.346"	"11.469"	"132.251"	"289.369"	"407.781"	"454.138"	"387.67"	"169.76"	"189.668"	"12.376"	"11.65"
"1978"	"4.397"	"3.564"	"25.894"	"112.991"	"317.285"	"441.267"	"547.408"	"320.009"	"426.545"	"66.638"	"23"	"0.002"
"1979"	"2.345"	"14.753"	"2.563"	"54.416"	"119.719"	"306.008"	"633.083"	"500.666"	"253.938"	"122.462"	"9.84"	"42.196"
"1980"	"1.969"	"8.377"	"24.453"	"59.774"	"299.486"	"400.932"	"397.59"	"487.021"	"310.211"	"70.364"	"0"	"0.56"
"1981"	"24.304"	"7.829"	"20.263"	"115.605"	"345.356"	"217.213"	"478.482"	"342.788"	"278.675"	"1.713"	"3.392"	"27.623"
"1982"	"0"	"7.415"	"11.833"	"84.589"	"97.704"	"523.002"	"415.838"	"312.105"	"367.54"	"84.453"	"8.507"	"1.285"
"1983"	"7.532"	"8.038"	"28.933"	"46.584"	"262.158"	"323.907"	"656.769"	"324.333"	"291.44"	"166.578"	"0"	"25.388"
"1984"	"24.328"	"7.577"	"14.116"	"118.557"	"380.61"	"852.661"	"740.316"	"408.018"	"571.177"	"110.754"	"0.808"	"3.227"
"1985"	"0.635"	"18.113"	"22.003"	"150.212"	"252.455"	"426.805"	"781.573"	"322.903"	"366"	"236.763"	"4.169"	"25.07"
"1986"	"0.06"	"1.533"	"4.081"	"128.32"	"187.034"	"411.3"	"517.495"	"271.373"	"443.55"	"151.937"	"15.808"	"32.821"
"1987"	"2.454"	"13.591"	"57.261"	"92.971"	"159.893"	"405.564"	"981.863"	"539.733"	"394.319"	"284.508"	"3.117"	"1.873"
"1988"	"0.623"	"19.379"	"24.313"	"127.891"	"259.354"	"332.479"	"584.831"	"624.069"	"383.369"	"16.539"	"22.242"	"17.961"
"1989"	"20.184"	"27.256"	"14.203"	"27"	"469.348"	"463.579"	"738.182"	"197.462"	"468.71"	"55.172"	"8.977"	"3.623"
"1990"	"0.573"	"36.118"	"48.309"	"107.713"	"299.183"	"404.048"	"447.21"	"367.029"	"434.356"	"230.332"	"0"	"0"
"1991"	"30.536"	"15.105"	"26.995"	"24.651"	"189.697"	"492.168"	"400.939"	"556.424"	"557.505"	"76.179"	"0.306"	"17.833"
"1992"	"6.369"	"4.319"	"17.75"	"77.274"	"338.926"	"241.514"	"672.111"	"444.089"	"295.894"	"28.374"	"1.11"	"2.627"
"1993"	"36.222"	"12.15"	"43.771"	"115.543"	"293.71"	"463.942"	"398.751"	"510.245"	"412.612"	"48.516"	"3.597"	"0"
"1994"	"33.839"	"13.541"	"32.662"	"124.948"	"170.401"	"422.793"	"395.135"	"493.595"	"215.607"	"61.854"	"28.089"	"1.263"
"1995"	"32.586"	"17.414"	"7.204"	"69.922"	"187.074"	"429.26"	"479.401"	"314.821"	"435.865"	"37.604"	"26.743"	"6.859"
"1996"	"9.682"	"11.766"	"10.342"	"94.634"	"323.712"	"177.324"	"459.276"	"414.451"	"231.706"	"110.38"	"0"	"0"
"1997"	"9.631"	"12.742"	"19.52"	"73.533"	"339.04"	"222.018"	"321.465"	"363.703"	"426.689"	"57.76"	"12.388"	"22.698"
"1998"	"0.773"	"14.246"	"29.623"	"83.75"	"304.875"	"183.949"	"383.598"	"423.561"	"348.688"	"291.099"	"9.968"	"0"
"1999"	"3.994"	"2.015"	"4.305"	"7.841"	"320.332"	"346.828"	"509.391"	"505.551"	"308.708"	"129.516"	"9.226"	"0.502"
"2000"	"9.368"	"10.161"	"21.35"	"35.87"	"281.312"	"428.419"	"266.757"	"447.361"	"336.463"	"35.931"	"0.395"	"0.508"
"2001"	"1.45"	"5.254"	"24.242"	"73.744"	"308.886"	"318.507"	"396.501"	"322.409"	"257.201"	"145.765"	"3.136"	"0"
"2002"	"9.833"	"3.236"	"23.99"	"121.097"	"195.953"	"359.938"	"392.832"	"339.014"	"264.038"	"108.397"	"17.286"	"0"
