
"Year"	"Jan"	"Feb"	"Mar"	"Apr"	"May"	"Jun"	"Jul"	"Aug"	"Sep"	"Oct"	"Nov"	"Dec"
"1901"	"15.917"	"19.243"	"23.535"	"27.823"	"27.809"	"29.353"	"28.919"	"28.985"	"28.111"	"27.039"	"22.104"	"18.024"
"1902"	"18.013"	"19.614"	"24.903"	"25.881"	"27.997"	"28.684"	"28.735"	"29.315"	"28.177"	"25.743"	"21.704"	"17.65"
"1903"	"16.382"	"18.499"	"22.93"	"27.18"	"27.998"	"28.052"	"29.388"	"28.529"	"28.383"	"27.058"	"22.392"	"18.036"
"1904"	"17.041"	"19.014"	"24.03"	"26.917"	"26.709"	"28.373"	"28.337"	"28.926"	"28.379"	"26.24"	"21.533"	"18.118"
"1905"	"16.13"	"15.947"	"21.663"	"24.498"	"26.74"	"29.132"	"28.706"	"28.215"	"28.079"	"26.639"	"22.633"	"18.367"
"1906"	"16.613"	"18.397"	"22.022"	"27.292"	"27.99"	"28.654"	"29.194"	"28.286"	"28.969"	"26.341"	"22.636"	"18.734"
"1907"	"18.111"	"18.539"	"21.361"	"25.044"	"27.21"	"28.194"	"28.575"	"29.386"	"28.149"	"26.639"	"22.307"	"18.018"
"1908"	"16.32"	"18.827"	"23.703"	"28.893"	"27.789"	"28.896"	"28.935"	"29.167"	"28.381"	"26.651"	"21.891"	"17.638"
"1909"	"17.381"	"18.642"	"25.145"	"26.03"	"27.69"	"27.912"	"28.992"	"28.614"	"29.071"	"27.04"	"23.124"	"18.878"
"1910"	"17.028"	"19.129"	"23.402"	"26.694"	"27.277"	"28.084"	"27.905"	"28.84"	"28.677"	"26.341"	"22.122"	"18.135"
"1911"	"18.331"	"18.428"	"22.721"	"26.724"	"27.47"	"28.284"	"28.788"	"28.627"	"27.98"	"25.839"	"21.323"	"17.337"
"1912"	"17.442"	"19.611"	"22.615"	"24.793"	"27.339"	"28.553"	"28.305"	"28.628"	"28.379"	"26.241"	"21.792"	"18.223"
"1913"	"17.028"	"18.931"	"21.646"	"27.26"	"26.52"	"27.473"	"28.718"	"28.814"	"28.382"	"26.141"	"21.234"	"17.807"
"1914"	"17.225"	"19.101"	"23.131"	"24.783"	"27.498"	"28.702"	"28.935"	"28.585"	"27.95"	"25.141"	"22.003"	"18.878"
"1915"	"18.157"	"19.031"	"22.933"	"26.48"	"27.29"	"27.995"	"28.918"	"29.027"	"28.204"	"28.34"	"24.133"	"18.733"
"1916"	"17.129"	"19.13"	"25.028"	"26.694"	"28.668"	"28.601"	"28.216"	"28.814"	"28.381"	"26.351"	"22.663"	"17.836"
"1917"	"16.7"	"18.741"	"22.532"	"26.13"	"27.335"	"28.213"	"28.617"	"29.117"	"28.108"	"26.141"	"22.634"	"18.338"
"1918"	"16.232"	"18.599"	"23.725"	"26.102"	"28.428"	"27.604"	"28.658"	"28.117"	"28.395"	"26.438"	"22.091"	"17.566"
"1919"	"17.83"	"18.359"	"24.661"	"26.199"	"27.507"	"28.902"	"28.806"	"29.503"	"27.892"	"26.501"	"22.934"	"18.665"
"1920"	"17.828"	"18.611"	"22.734"	"26.193"	"27.005"	"28.693"	"29.335"	"28.783"	"28.078"	"26.938"	"22.634"	"19.656"
"1921"	"17.697"	"18.812"	"24.614"	"26.961"	"28.569"	"27.961"	"28.704"	"29.115"	"28.381"	"25.439"	"21.995"	"18.284"
"1922"	"17.699"	"19.742"	"24.947"	"28.743"	"28.889"	"27.883"	"28.606"	"28.815"	"28.165"	"26.059"	"22.492"	"18.537"
"1923"	"17.531"	"18.74"	"24.233"	"27.393"	"27.557"	"28.676"	"28.704"	"29.286"	"28.377"	"26.07"	"22.632"	"18.736"
"1924"	"17.23"	"19.043"	"25.446"	"28.111"	"27.475"	"29.273"	"28.675"	"28.715"	"27.68"	"27.229"	"22.234"	"18.763"
"1925"	"15.899"	"17.757"	"23.634"	"26.484"	"26.59"	"28.514"	"28.593"	"29.014"	"27.691"	"25.551"	"21.933"	"17.276"
"1926"	"17.03"	"19.142"	"22.329"	"25.642"	"27.406"	"29.225"	"28.517"	"28.814"	"28.469"	"26.639"	"21.292"	"18.938"
"1927"	"16.861"	"18.211"	"21.718"	"26.593"	"26.878"	"28.463"	"28.905"	"28.686"	"27.849"	"26.635"	"22.015"	"18.548"
"1928"	"16.83"	"19.558"	"24.243"	"27.142"	"27.5"	"28.314"	"28.806"	"28.807"	"29.082"	"26.432"	"21.704"	"18.517"
"1929"	"16.712"	"18.298"	"24.104"	"26.423"	"27.771"	"28.661"	"28.604"	"28.783"	"28.379"	"25.942"	"22.003"	"18.236"
"1930"	"16.041"	"18.629"	"23.426"	"26.382"	"27.821"	"27.731"	"28.893"	"28.925"	"28.381"	"26.053"	"21.833"	"17.965"
"1931"	"18.141"	"19.417"	"23.633"	"27.374"	"27.102"	"29.231"	"28.519"	"29.585"	"27.827"	"26.839"	"21.716"	"18.706"
"1932"	"17.394"	"17.381"	"24.114"	"27.08"	"27.86"	"28.567"	"29.116"	"29.128"	"28.848"	"26.938"	"23.096"	"18.664"
"1933"	"16.029"	"19.568"	"24.463"	"25.643"	"27.117"	"28.514"	"28.807"	"28.616"	"28.381"	"26.67"	"22.106"	"18.507"
"1934"	"17.027"	"19.044"	"23.62"	"27.213"	"27.158"	"27.653"	"28.705"	"28.984"	"29.013"	"25.854"	"21.705"	"18.221"
"1935"	"17.139"	"19.753"	"24.584"	"27.27"	"28.888"	"28.707"	"29.504"	"28.286"	"28.65"	"26.638"	"22.802"	"18.221"
"1936"	"16.286"	"18.695"	"24.315"	"27.441"	"27.908"	"28.639"	"29.075"	"29.498"	"28.379"	"25.953"	"23.389"	"19.009"
"1937"	"16.456"	"19.211"	"23.275"	"28.37"	"27.991"	"29.734"	"29.876"	"28.897"	"28.691"	"25.96"	"22.342"	"18.555"
"1938"	"18.1"	"18.228"	"25.156"	"28.625"	"27.54"	"28.941"	"28.703"	"29.356"	"28.86"	"27.026"	"21.185"	"18.539"
"1939"	"17.729"	"19.528"	"23.351"	"29.127"	"28.191"	"28.58"	"28.975"	"29.218"	"28.391"	"26.14"	"22.77"	"18.879"
"1940"	"17.11"	"18.944"	"21.501"	"27.098"	"28.256"	"28.851"	"28.975"	"29.314"	"28.377"	"26.85"	"22.812"	"18.739"
"1941"	"17.008"	"19.324"	"25.015"	"27.878"	"27.391"	"28.466"	"29.107"	"29.303"	"29.049"	"25.87"	"22.055"	"19.437"
"1942"	"17.5"	"19.532"	"24.273"	"26.383"	"28.445"	"29.633"	"29.705"	"28.985"	"28.165"	"26.646"	"23.301"	"17.868"
"1943"	"18.253"	"18.428"	"23.453"	"24.897"	"27.576"	"28.498"	"28.604"	"28.715"	"28.819"	"26.64"	"23.391"	"19.279"
"1944"	"16.861"	"18.559"	"23.638"	"25.606"	"28.976"	"29.584"	"29.293"	"29.249"	"28.506"	"26.757"	"22.451"	"19.456"
"1945"	"17.148"	"17.63"	"24.362"	"27.193"	"27.337"	"29.196"	"29.504"	"29.098"	"29.068"	"26.176"	"22.222"	"17.714"
"1946"	"18.097"	"20.284"	"23.633"	"24.892"	"27.41"	"28.923"	"29.075"	"29.514"	"29.021"	"26.08"	"23.248"	"19.408"
"1947"	"17.709"	"19.696"	"24.185"	"28.12"	"28.249"	"29.619"	"28.958"	"29.101"	"28.381"	"26.55"	"22.472"	"19.61"
"1948"	"17.842"	"19.212"	"24.17"	"26.54"	"27.476"	"29.035"	"28.762"	"29.267"	"29.109"	"26.179"	"22.874"	"18.15"
"1949"	"17.801"	"19.2"	"24.302"	"24.796"	"26.841"	"28.112"	"28.79"	"28.896"	"28.379"	"27.52"	"22.32"	"17.348"
"1950"	"17.542"	"18.931"	"23.335"	"27.129"	"28.687"	"28.433"	"29.373"	"28.328"	"28.892"	"26.438"	"22.052"	"18.938"
"1951"	"17.125"	"19.741"	"24.834"	"27.079"	"28.374"	"28.723"	"28.959"	"29.626"	"29.275"	"27.684"	"22.813"	"18.665"
"1952"	"17.828"	"19.858"	"21.976"	"26.648"	"26.973"	"28.9"	"28.379"	"29.013"	"28.01"	"27.273"	"22.66"	"18.24"
"1953"	"16.531"	"19.912"	"24.77"	"27.225"	"28.191"	"28.194"	"28.147"	"29.585"	"28.319"	"26.438"	"22.374"	"19.836"
"1954"	"16.515"	"20.781"	"24.533"	"29.372"	"28.674"	"27.599"	"28.047"	"28.695"	"29.179"	"25.745"	"21.833"	"18.385"
"1955"	"17.429"	"19.137"	"24.544"	"26.344"	"28.766"	"28.194"	"27.95"	"28.059"	"28.847"	"27.63"	"23.302"	"17.807"
"1956"	"17.577"	"19.111"	"24.612"	"27.93"	"29.318"	"28.583"	"28.403"	"28.613"	"28.34"	"26.642"	"22.696"	"18.032"
"1957"	"17.06"	"18.35"	"22.913"	"27.371"	"29.173"	"28.383"	"29.204"	"28.849"	"28.541"	"25.49"	"22.236"	"19.291"
"1958"	"18.699"	"19.094"	"24.076"	"28.364"	"29.185"	"29.54"	"29.685"	"28.814"	"29.148"	"27.811"	"23.776"	"19.389"
"1959"	"17.711"	"18.599"	"23.936"	"28.113"	"28.17"	"28.566"	"29.232"	"29.571"	"28.391"	"26.616"	"22.894"	"19.339"
"1960"	"16.89"	"21.487"	"23.078"	"28.888"	"29.487"	"29.083"	"28.717"	"29.584"	"28.011"	"27.227"	"22.619"	"20.208"
"1961"	"18.858"	"18.702"	"24.695"	"28.208"	"29.139"	"29.099"	"29.314"	"29.814"	"29.061"	"26.968"	"21.631"	"16.451"
"1962"	"16.565"	"19.767"	"23.957"	"28.401"	"27.941"	"29.234"	"29.35"	"28.679"	"28.926"	"26.275"	"22.544"	"18.604"
"1963"	"17.229"	"20.257"	"23.569"	"26.142"	"27.108"	"28.746"	"28.993"	"29.346"	"28.778"	"26.641"	"22.422"	"19.119"
"1964"	"16.856"	"19.185"	"25.119"	"27.549"	"27.223"	"29.104"	"28.307"	"29.228"	"28.69"	"27.599"	"23.201"	"18.796"
"1965"	"18.114"	"19.243"	"22.687"	"26.814"	"28.473"	"28.666"	"28.436"	"28.099"	"27.977"	"26.255"	"21.715"	"18.969"
"1966"	"16.36"	"20.928"	"24.815"	"28.075"	"29.12"	"28.935"	"29.076"	"29.086"	"27.878"	"25.238"	"22.934"	"18.763"
"1967"	"17.859"	"20.301"	"22.765"	"25.682"	"27.562"	"28.734"	"28.918"	"28.897"	"28.331"	"25.437"	"20.83"	"18.736"
"1968"	"16.588"	"18.278"	"24.12"	"26.606"	"28.253"	"27.848"	"28.575"	"29.085"	"28.834"	"25.386"	"21.674"	"17.598"
"1969"	"16.701"	"19.985"	"25.169"	"27.094"	"28.19"	"28.982"	"28.823"	"28.488"	"28.226"	"26.029"	"23.382"	"19.117"
"1970"	"16.937"	"19.137"	"23.088"	"27.781"	"29.236"	"28.604"	"28.86"	"29.044"	"28.499"	"26.711"	"21.795"	"18.459"
"1971"	"16.796"	"18.918"	"23.207"	"25.739"	"26.445"	"28.115"	"28.042"	"27.904"	"27.794"	"26.683"	"22.095"	"19.244"
"1972"	"18.828"	"18.436"	"24.726"	"26.975"	"29.486"	"28.57"	"29.2"	"28.429"	"27.438"	"26.464"	"21.714"	"18.701"
"1973"	"18.408"	"20.21"	"23.042"	"28.012"	"27.553"	"28.265"	"28.788"	"28.925"	"28.354"	"25.673"	"21.936"	"18.637"
"1974"	"16.853"	"19.961"	"23.63"	"27.379"	"27.441"	"28.35"	"28.235"	"28.815"	"27.838"	"28.517"	"22.673"	"17.478"
"1975"	"17.158"	"19.531"	"23.779"	"27.71"	"27.979"	"28.89"	"27.801"	"28.755"	"28.079"	"28.475"	"22.566"	"18.048"
"1976"	"16.929"	"20.517"	"24.425"	"27.186"	"27.209"	"28.201"	"28.416"	"28.28"	"27.883"	"26.663"	"24.756"	"18.704"
"1977"	"18.078"	"20.407"	"25.505"	"26.58"	"26.121"	"27.584"	"28.792"	"29.257"	"28.393"	"26.216"	"23.956"	"18.041"
"1978"	"15.287"	"18.716"	"21.965"	"25.974"	"27.53"	"28.23"	"28.565"	"29.043"	"28.239"	"27.466"	"23.759"	"19.167"
"1979"	"18.23"	"18.745"	"23.909"	"27.41"	"29.47"	"29.268"	"28.805"	"29.321"	"27.977"	"27.197"	"25.219"	"18.739"
"1980"	"17.022"	"19.802"	"23.929"	"28.205"	"26.917"	"28.813"	"28.918"	"29.19"	"28.677"	"26.342"	"23.101"	"20.424"
"1981"	"16.264"	"20.277"	"23.22"	"25.909"	"27.038"	"28.988"	"28.894"	"29.417"	"28.091"	"27.33"	"22.475"	"18.28"
"1982"	"18.342"	"18.828"	"22.394"	"26.597"	"28.287"	"28.481"	"29.492"	"28.845"	"28.761"	"25.868"	"22.628"	"19.496"
"1983"	"16.318"	"17.751"	"23.724"	"25.654"	"26.934"	"29.273"	"29.188"	"29.328"	"28.874"	"26.859"	"22.425"	"17.849"
"1984"	"16.923"	"19.595"	"25.234"	"27.409"	"28.65"	"28.426"	"28.359"	"28.832"	"27.532"	"28.019"	"21.738"	"19.872"
"1985"	"17.529"	"19.69"	"26.338"	"27.782"	"27.592"	"28.777"	"27.936"	"29.404"	"28.165"	"26.059"	"21.797"	"19.602"
"1986"	"18.288"	"19.917"	"24.113"	"26.005"	"26.362"	"29.094"	"28.376"	"28.852"	"27.704"	"25.841"	"23.491"	"18.35"
"1987"	"17.07"	"20.403"	"23.931"	"26.627"	"27.699"	"29.393"	"28.72"	"28.602"	"28.678"	"25.837"	"21.389"	"19.602"
"1988"	"19.196"	"21.131"	"24.414"	"27.449"	"28.133"	"28.22"	"28.842"	"29.237"	"29.001"	"27.303"	"22.856"	"19.929"
"1989"	"17.364"	"19.569"	"24.101"	"27.255"	"28.385"	"28.364"	"28.587"	"29.073"	"28.762"	"27.436"	"22.579"	"17.999"
"1990"	"20.134"	"19.614"	"22.245"	"25.877"	"27.902"	"29.342"	"28.806"	"29.267"	"28.92"	"26.27"	"24.265"	"19.489"
"1991"	"15.917"	"20.763"	"24.443"	"27.107"	"27.552"	"28.578"	"29.346"	"29.473"	"28.031"	"27.002"	"22.584"	"18.231"
"1992"	"17.854"	"18.173"	"25.716"	"27.668"	"26.695"	"28.762"	"27.888"	"29.085"	"28.462"	"26.811"	"22.766"	"18.089"
"1993"	"17.863"	"20.968"	"22.434"	"26.001"	"26.856"	"28.549"	"29.246"	"29.262"	"28.118"	"27.74"	"23.92"	"20.396"
"1994"	"18.259"	"18.402"	"24.708"	"26.284"	"28.469"	"28.982"	"29.517"	"29.434"	"28.878"	"26.859"	"22.382"	"18.648"
"1995"	"15.688"	"18.969"	"24.264"	"26.813"	"29.71"	"29.472"	"28.719"	"28.957"	"28.493"	"27.618"	"22.726"	"19.754"
"1996"	"17.579"	"19.319"	"24.086"	"26.741"	"28.469"	"27.923"	"28.992"	"28.932"	"28.589"	"27.028"	"23.316"	"19.593"
"1997"	"17.203"	"18.869"	"24.948"	"27.013"	"28.212"	"29.069"	"29.125"	"29.967"	"27.867"	"26.378"	"23.222"	"19.168"
"1998"	"17.429"	"20.58"	"23.134"	"28.551"	"29.315"	"29.665"	"29.343"	"29.472"	"29.167"	"28.522"	"24.12"	"20.064"
"1999"	"18.987"	"21.633"	"25.154"	"30.169"	"28.414"	"29.773"	"28.804"	"28.838"	"28.705"	"27.696"	"24.092"	"20.165"
"2000"	"18.386"	"19.861"	"23.346"	"27.432"	"28.096"	"29.668"	"29.493"	"28.814"	"28.069"	"27.443"	"23.597"	"19.222"
"2001"	"18.012"	"20.321"	"24.176"	"27.623"	"29.038"	"29.387"	"29.821"	"29.645"	"28.994"	"27.622"	"24.186"	"19.904"
"2002"	"17.759"	"20.918"	"24.946"	"27.012"	"28.394"	"29.163"	"29.706"	"29.013"	"28.511"	"26.938"	"23.49"	"19.719"
