
"Year"	"Jan"	"Feb"	"Mar"	"Apr"	"May"	"Jun"	"Jul"	"Aug"	"Sep"	"Oct"	"Nov"	"Dec"
"1901"	"13.548"	"15.343"	"18.656"	"21.72"	"22.483"	"23.613"	"23.691"	"23.723"	"23.588"	"22.329"	"17.913"	"14.754"
"1902"	"13.996"	"15.185"	"19.507"	"19.735"	"22.709"	"22.833"	"23.79"	"23.628"	"23.411"	"20.901"	"17.158"	"14.105"
"1903"	"12.852"	"14.665"	"18.401"	"21.515"	"22.551"	"23.107"	"24.289"	"22.921"	"23.617"	"22.536"	"18.21"	"14.805"
"1904"	"13.203"	"15.39"	"19.173"	"20.297"	"22.028"	"23.692"	"23.666"	"23.494"	"23.687"	"21.821"	"17.433"	"13.919"
"1905"	"12.898"	"12.402"	"17.3"	"19.232"	"22.608"	"23.887"	"24.023"	"22.956"	"24.079"	"21.853"	"17.963"	"14.574"
"1906"	"13.573"	"14.79"	"17.601"	"20.64"	"22.954"	"23.562"	"24.385"	"22.616"	"24.488"	"21.629"	"18.147"	"14.776"
"1907"	"14.572"	"14.582"	"17.505"	"19.64"	"21.858"	"22.588"	"23.162"	"23.829"	"23.083"	"22.028"	"18.267"	"14.809"
"1908"	"13.648"	"15.119"	"19.403"	"22.25"	"22.008"	"23.262"	"23.359"	"23.631"	"23.558"	"21.729"	"17.707"	"14.548"
"1909"	"13.417"	"15.189"	"20.099"	"20.139"	"21.609"	"22.437"	"24.188"	"22.93"	"24.464"	"22.904"	"19.318"	"15.049"
"1910"	"13.528"	"14.887"	"18.252"	"19.862"	"22.383"	"22.305"	"22.716"	"23.229"	"23.886"	"21.528"	"18.339"	"14.165"
"1911"	"14.03"	"14.558"	"17.906"	"20.093"	"21.655"	"22.766"	"23.116"	"23.149"	"23.487"	"21.749"	"17.834"	"13.848"
"1912"	"13.628"	"15.413"	"18.377"	"19.234"	"22.199"	"22.925"	"23.267"	"23.137"	"23.263"	"21.33"	"18.289"	"14.653"
"1913"	"14.127"	"16.232"	"18.189"	"20.328"	"20.955"	"22.614"	"23.766"	"23.229"	"23.387"	"21.525"	"17.363"	"13.728"
"1914"	"13.479"	"14.96"	"18.6"	"19.531"	"21.756"	"23.077"	"23.89"	"22.499"	"23.395"	"20.429"	"17.93"	"14.986"
"1915"	"14.901"	"15.416"	"18.626"	"21.028"	"21.658"	"22.305"	"22.591"	"23.024"	"23.255"	"23.86"	"19.717"	"15.545"
"1916"	"13.608"	"15.386"	"19.411"	"20.171"	"22.134"	"23.28"	"22.931"	"23.378"	"23.766"	"21.78"	"18.893"	"14.086"
"1917"	"13.153"	"14.59"	"17.936"	"19.545"	"21.896"	"22.538"	"23.404"	"23.329"	"23.375"	"21.876"	"19.111"	"14.321"
"1918"	"13.432"	"14.87"	"18.661"	"20.298"	"22.837"	"21.534"	"23.427"	"23.029"	"23.588"	"21.604"	"17.727"	"14.845"
"1919"	"14.616"	"15.022"	"20.187"	"20.596"	"22.404"	"23.149"	"23.375"	"24.109"	"22.539"	"21.428"	"18.648"	"15.03"
"1920"	"14.808"	"14.607"	"18.031"	"19.89"	"21.727"	"22.685"	"24.292"	"23.128"	"23.638"	"21.809"	"18.474"	"15.596"
"1921"	"15.104"	"15.896"	"18.955"	"20.444"	"22.134"	"22.109"	"23.798"	"23.628"	"23.339"	"20.532"	"18.119"	"14.534"
"1922"	"14.699"	"15.974"	"19.519"	"21.426"	"22.698"	"22.656"	"24.065"	"23.648"	"23.667"	"21.809"	"19.054"	"15.029"
"1923"	"14.805"	"14.835"	"19.393"	"21.195"	"21.434"	"23.054"	"23.646"	"24.257"	"23.755"	"21.277"	"18.72"	"15.333"
"1924"	"14.048"	"15.09"	"20.767"	"21.313"	"21.516"	"23.233"	"23.91"	"23.628"	"23.188"	"22.956"	"18.972"	"14.662"
"1925"	"12.406"	"13.766"	"18.656"	"20.547"	"21.664"	"23.197"	"23.401"	"23.249"	"22.907"	"20.759"	"17.623"	"14.52"
"1926"	"13.844"	"14.995"	"17.88"	"20.046"	"22.104"	"22.513"	"23.595"	"23.976"	"23.4"	"22.109"	"17.719"	"15.645"
"1927"	"13.262"	"14.263"	"17.055"	"20.001"	"21.739"	"22.642"	"23.683"	"23.621"	"22.813"	"21.682"	"17.923"	"15.049"
"1928"	"14.461"	"16.469"	"19.336"	"21.545"	"21.684"	"22.717"	"24.022"	"23.624"	"23.555"	"21.153"	"17.006"	"15.372"
"1929"	"14.017"	"14.334"	"18.952"	"20.439"	"21.431"	"22.365"	"23.787"	"23.429"	"23.588"	"21.916"	"17.539"	"14.296"
"1930"	"12.274"	"15.434"	"18.456"	"20.389"	"22.488"	"22.089"	"24.045"	"23.433"	"24.062"	"20.999"	"18.311"	"14.574"
"1931"	"13.404"	"14.414"	"18.777"	"21.256"	"21.276"	"22.464"	"23.096"	"23.829"	"23.126"	"22.884"	"18.276"	"15.269"
"1932"	"14.114"	"14.576"	"19.556"	"21.353"	"22.119"	"22.597"	"23.588"	"23.348"	"23.676"	"22.357"	"18.781"	"15.049"
"1933"	"13.269"	"15.248"	"19.785"	"20.638"	"21.479"	"23.215"	"23.69"	"23.349"	"24.043"	"22.304"	"17.166"	"14.57"
"1934"	"13.968"	"15.032"	"19.454"	"21.135"	"21.343"	"21.711"	"23.556"	"23.331"	"23.61"	"21.927"	"17.324"	"14.539"
"1935"	"13.095"	"15.058"	"19.447"	"20.695"	"22.855"	"22.21"	"23.736"	"22.833"	"23.364"	"22.32"	"18.716"	"13.842"
"1936"	"12.381"	"14.347"	"19.484"	"21.023"	"22.415"	"23.432"	"23.723"	"23.628"	"23.734"	"21.524"	"18.726"	"15.104"
"1937"	"12.073"	"15.331"	"18.955"	"21.911"	"22.71"	"23.685"	"23.936"	"23.275"	"23.593"	"22.03"	"17.354"	"15.111"
"1938"	"14.216"	"14.811"	"20.153"	"21.84"	"22.463"	"23.056"	"23.304"	"23.387"	"23.488"	"22.324"	"16.978"	"15.006"
"1939"	"13.86"	"15.546"	"19.244"	"21.518"	"22.307"	"22.787"	"23.401"	"24.024"	"23.512"	"21.642"	"18.505"	"15.089"
"1940"	"13.081"	"14.971"	"17.235"	"21.787"	"22.038"	"23.213"	"23.609"	"24.025"	"23.101"	"22.132"	"18.269"	"15.62"
"1941"	"13.29"	"15.295"	"20.151"	"21.474"	"21.907"	"23.223"	"24.071"	"23.79"	"23.308"	"21.662"	"17.315"	"15.803"
"1942"	"13.996"	"16.092"	"19.354"	"21.041"	"21.709"	"22.797"	"24.378"	"23.875"	"23.273"	"22.585"	"18.574"	"14.297"
"1943"	"14.144"	"14.265"	"18.07"	"19.575"	"21.949"	"23.066"	"23.826"	"22.992"	"23.494"	"21.554"	"18.91"	"14.988"
"1944"	"13.17"	"14.382"	"18.952"	"20.145"	"22.573"	"22.894"	"24.176"	"23.716"	"22.662"	"21.97"	"17.66"	"15.559"
"1945"	"13.711"	"13.994"	"19.205"	"21.276"	"21.735"	"23.371"	"23.592"	"23.186"	"23.984"	"21.238"	"18.031"	"14.503"
"1946"	"14.363"	"17.181"	"19.162"	"20.557"	"22.166"	"23.029"	"23.49"	"24.112"	"23.645"	"21.557"	"18.959"	"15.488"
"1947"	"13.823"	"15.744"	"19.755"	"20.98"	"22.702"	"22.974"	"23.678"	"23.624"	"23.684"	"21.072"	"18.254"	"15.746"
"1948"	"14.309"	"14.913"	"18.319"	"20.73"	"20.867"	"23.119"	"23.29"	"23.664"	"23.872"	"21.371"	"18.879"	"14.485"
"1949"	"14.126"	"15.291"	"18.742"	"18.843"	"21.461"	"22.542"	"23.192"	"23.051"	"23.444"	"22.575"	"17.829"	"13.802"
"1950"	"13.748"	"14.844"	"18.556"	"20.62"	"22.371"	"22.706"	"23.595"	"22.925"	"23.738"	"21.981"	"18.193"	"15.342"
"1951"	"13.659"	"15.698"	"19.531"	"21.296"	"21.756"	"22.438"	"23.016"	"24.049"	"23.678"	"22.32"	"18.623"	"16.116"
"1952"	"14.479"	"17.036"	"18.369"	"21.575"	"22.078"	"24.007"	"23.957"	"23.835"	"23.15"	"22.573"	"18.952"	"15.758"
"1953"	"13.526"	"16.293"	"20.022"	"21.44"	"21.763"	"23.401"	"23.269"	"24.129"	"23.583"	"21.744"	"18.226"	"16.46"
"1954"	"12.908"	"16.956"	"19.336"	"21.311"	"22.334"	"22.27"	"22.835"	"22.905"	"23.811"	"21.236"	"17.51"	"15.093"
"1955"	"13.879"	"15.256"	"19.099"	"20.652"	"22.387"	"22.75"	"23.033"	"22.882"	"24.201"	"22.556"	"19.167"	"14.67"
"1956"	"13.637"	"15.835"	"19.094"	"21.628"	"22.038"	"22.572"	"23.957"	"23.624"	"23.793"	"22.294"	"18.443"	"15.224"
"1957"	"14.233"	"14.41"	"18.955"	"21.514"	"22.056"	"23.293"	"23.875"	"24.033"	"23.766"	"21.179"	"18.087"	"15.213"
"1958"	"14.164"	"14.881"	"19.503"	"22.045"	"21.73"	"24.944"	"24.619"	"22.838"	"24.268"	"22.16"	"18.359"	"15.267"
"1959"	"14.012"	"14.414"	"18.509"	"21.28"	"21.783"	"23.172"	"24.543"	"24.14"	"23.368"	"21.326"	"17.751"	"15.557"
"1960"	"13.804"	"16.467"	"18.745"	"22.399"	"23.893"	"23.714"	"23.552"	"24.592"	"23.568"	"22.489"	"18.164"	"15.704"
"1961"	"14.729"	"14.307"	"18.785"	"21.775"	"22.765"	"23.781"	"24.507"	"24.257"	"24.071"	"22.132"	"17.288"	"14.299"
"1962"	"13.071"	"15.458"	"19.073"	"22.428"	"21.988"	"22.721"	"24.266"	"22.825"	"23.967"	"21.609"	"17.763"	"14.902"
"1963"	"13.446"	"16.467"	"19.28"	"20.581"	"21.731"	"22.774"	"23.49"	"23.357"	"24.213"	"21.305"	"17.313"	"14.998"
"1964"	"13.252"	"15.265"	"18.777"	"19.839"	"21.764"	"21.961"	"22.566"	"23.473"	"23.595"	"22.549"	"18.869"	"14.545"
"1965"	"13.503"	"14.713"	"17.58"	"20.835"	"22.511"	"23.006"	"23.139"	"22.528"	"23.163"	"21.884"	"17.49"	"15.632"
"1966"	"14.384"	"16.648"	"19.961"	"21.44"	"22.92"	"21.834"	"23.839"	"22.857"	"23.312"	"20.979"	"19.413"	"14.977"
"1967"	"14.348"	"16.158"	"18.205"	"20.748"	"22.528"	"23.061"	"23.736"	"24.169"	"23.184"	"21.448"	"17.008"	"15.433"
"1968"	"13.752"	"14.483"	"18.951"	"20.612"	"21.478"	"22.939"	"23.691"	"23.799"	"23.473"	"21.431"	"18.135"	"14.543"
"1969"	"13.272"	"15.559"	"19.812"	"21.49"	"23.049"	"22.99"	"24.108"	"22.95"	"23.937"	"21.974"	"17.96"	"14.99"
"1970"	"12.878"	"15.109"	"18.951"	"21.399"	"22.147"	"23.409"	"23.291"	"23.703"	"22.914"	"21.481"	"18.262"	"14.796"
"1971"	"13.469"	"14.524"	"19.368"	"20.628"	"22.725"	"23.179"	"23.384"	"22.777"	"23.464"	"21.656"	"17.282"	"14.387"
"1972"	"14.114"	"14.684"	"18.777"	"19.88"	"22.548"	"23.355"	"23.89"	"23.808"	"23.396"	"22.073"	"18.327"	"15.062"
"1973"	"14.314"	"16.013"	"19.246"	"22.42"	"22.32"	"22.954"	"24.408"	"23.708"	"23.766"	"21.86"	"18.274"	"14.23"
"1974"	"13.368"	"15.383"	"18.886"	"19.915"	"22.116"	"23.009"	"22.267"	"23.621"	"23.017"	"22.813"	"19.409"	"13.845"
"1975"	"13.446"	"15.745"	"19.333"	"22"	"22.059"	"24.137"	"22.995"	"23.621"	"23.267"	"22.48"	"17.868"	"13.989"
"1976"	"13.866"	"16.004"	"18.985"	"21.04"	"22.143"	"21.819"	"23.271"	"23.153"	"23.585"	"21.33"	"18.994"	"14.604"
"1977"	"12.933"	"14.788"	"20.121"	"19.03"	"20.808"	"21.837"	"23.894"	"23.149"	"23.762"	"20.949"	"18.362"	"15.049"
"1978"	"12.698"	"15.567"	"18.5"	"20.963"	"22.137"	"23.246"	"23.595"	"24.635"	"23.275"	"22.788"	"18.341"	"15.076"
"1979"	"14.623"	"15.657"	"19.306"	"22.32"	"23.677"	"24.391"	"23.711"	"23.854"	"23.212"	"21.465"	"19.42"	"15.566"
"1980"	"13.668"	"15.315"	"18.781"	"21.56"	"21.784"	"23.96"	"24.292"	"23.728"	"23.838"	"21.378"	"18.536"	"15.984"
"1981"	"14.381"	"15.97"	"18.673"	"19.954"	"22.409"	"24.036"	"23.768"	"23.929"	"23.838"	"22.392"	"19.094"	"15.408"
"1982"	"14.979"	"15.465"	"18.9"	"19.939"	"23.145"	"22.98"	"23.64"	"24.053"	"23.542"	"22.047"	"17.938"	"14.852"
"1983"	"13.684"	"14.721"	"18.386"	"20.251"	"21.708"	"23.329"	"23.588"	"23.829"	"23.582"	"22.938"	"18.949"	"14.329"
"1984"	"12.878"	"15.224"	"19.988"	"21.269"	"21.235"	"23.559"	"23.211"	"23.984"	"22.712"	"22.363"	"17.793"	"15.104"
"1985"	"14.017"	"15.08"	"19.041"	"20.769"	"22.521"	"22.737"	"22.868"	"24.004"	"23.332"	"22.606"	"17.942"	"16.256"
"1986"	"14.184"	"16.462"	"19.947"	"19.959"	"22.794"	"23.945"	"23.576"	"23.697"	"22.964"	"20.826"	"18.121"	"15.273"
"1987"	"14.753"	"16.694"	"18.316"	"20.357"	"22.383"	"24.097"	"23.335"	"23.318"	"23.292"	"21.677"	"19.357"	"15.509"
"1988"	"14.449"	"16.586"	"18.702"	"21.879"	"21.827"	"23.874"	"23.711"	"22.963"	"23.284"	"22.356"	"19.305"	"16.952"
"1989"	"12.766"	"15.522"	"19.016"	"21.455"	"23.683"	"23.309"	"23.092"	"23.829"	"23.362"	"22.31"	"17.74"	"14.873"
"1990"	"14.514"	"15.609"	"17.332"	"18.624"	"22.722"	"23.217"	"23.623"	"24.275"	"23.163"	"21.824"	"20.038"	"16.009"
"1991"	"13.34"	"16.622"	"20.006"	"20.883"	"20.753"	"22.914"	"23.89"	"23.949"	"23.462"	"22.681"	"17.711"	"14.553"
"1992"	"13.804"	"13.424"	"19.639"	"21.708"	"21.783"	"23.654"	"22.875"	"24.053"	"23.98"	"21.705"	"18.472"	"13.788"
"1993"	"13.433"	"15.751"	"18.016"	"20.578"	"21.243"	"22.443"	"23.687"	"23.38"	"23.368"	"22.748"	"19.266"	"16.629"
"1994"	"14.912"	"15.302"	"18.999"	"20.759"	"23.191"	"23.623"	"24.07"	"24.434"	"24.721"	"21.101"	"18.779"	"15.049"
"1995"	"13.949"	"15.889"	"20.11"	"21.946"	"23.45"	"23.542"	"23.588"	"24.05"	"23.588"	"22.928"	"19.951"	"15.312"
"1996"	"14.064"	"16.425"	"19.066"	"22.601"	"22.242"	"23.598"	"23.67"	"23.617"	"24.362"	"22.305"	"19.337"	"16.725"
"1997"	"13.781"	"14.445"	"18.63"	"20.2"	"22.664"	"23.733"	"23.93"	"24.659"	"23.351"	"21.889"	"18.822"	"16.081"
"1998"	"13.928"	"16.029"	"18.017"	"21.878"	"24.144"	"23.508"	"24.396"	"23.785"	"24.743"	"23.658"	"20.413"	"16.463"
"1999"	"14.987"	"19.437"	"20.886"	"22.778"	"23.151"	"24.35"	"24.437"	"23.429"	"24.168"	"22.504"	"19.622"	"16.064"
"2000"	"13.42"	"16.249"	"18.186"	"20.698"	"22.63"	"23.753"	"24.784"	"23.592"	"23.247"	"22.413"	"18.443"	"15.47"
"2001"	"14.446"	"16.764"	"19.736"	"21.44"	"22.863"	"23.997"	"24.662"	"24.505"	"24.883"	"22.728"	"19.196"	"15.828"
"2002"	"14.828"	"17.261"	"20.053"	"21.22"	"22.563"	"23.388"	"24.396"	"24.008"	"23.859"	"22.326"	"19.343"	"15.806"
