
"Year"	"Jan"	"Feb"	"Mar"	"Apr"	"May"	"Jun"	"Jul"	"Aug"	"Sep"	"Oct"	"Nov"	"Dec"
"1901"	"0.61"	"1.635"	"4.61"	"48.688"	"90.701"	"163.963"	"70.413"	"61.261"	"101.169"	"93.602"	"78.676"	"2.479"
"1902"	"0.083"	"0"	"1.276"	"24.451"	"115.013"	"154.101"	"74.794"	"40.244"	"80.104"	"159.302"	"73.528"	"10.963"
"1903"	"0.105"	"0"	"0"	"3.696"	"61.636"	"126.4"	"201.217"	"117.666"	"120.072"	"160.571"	"68.729"	"10.356"
"1904"	"2.81"	"0"	"43.225"	"18.812"	"131.427"	"144.589"	"119.748"	"36.368"	"62.256"	"211.627"	"0.807"	"0.007"
"1905"	"0.096"	"4.44"	"12.179"	"55.929"	"39.566"	"132.193"	"49.677"	"162.195"	"27.657"	"98.954"	"5.093"	"0"
"1906"	"8.833"	"0"	"0"	"2.545"	"32.147"	"191.817"	"115.949"	"219.116"	"97.686"	"114.406"	"17.709"	"36.35"
"1907"	"0.28"	"0"	"11.37"	"124.41"	"1.767"	"124.713"	"176.198"	"110.094"	"124.185"	"7.943"	"28.854"	"5.155"
"1908"	"0.131"	"0.716"	"27.675"	"19.17"	"55.389"	"51.044"	"108.283"	"55.665"	"180.253"	"19.813"	"1.118"	"0"
"1909"	"8.788"	"0"	"8.202"	"35.641"	"65.495"	"50.75"	"106.424"	"231.952"	"143.644"	"34.268"	"14.868"	"0.664"
"1910"	"0"	"0"	"25.894"	"6.018"	"82.661"	"61.218"	"256.376"	"204.196"	"132.323"	"85.241"	"129.215"	"0"
"1911"	"0"	"0"	"0.606"	"31.451"	"52.395"	"35.765"	"150.511"	"121.978"	"94.754"	"118.861"	"11.622"	"1.203"
"1912"	"0"	"0.699"	"1.758"	"28.54"	"32.696"	"63.851"	"119.587"	"144.952"	"95.125"	"169.895"	"76.054"	"1.455"
"1913"	"0"	"0"	"0"	"32.121"	"85.031"	"80.27"	"160.108"	"32.235"	"90.078"	"120.224"	"4.235"	"1.067"
"1914"	"0"	"0.143"	"5.42"	"17.648"	"50.654"	"30.965"	"186.157"	"169.583"	"140.029"	"76.325"	"69.342"	"11.978"
"1915"	"9.314"	"2.276"	"38.61"	"35.768"	"72.121"	"190.432"	"287.643"	"37.321"	"208.071"	"56.451"	"61.293"	"0.985"
"1916"	"0"	"0"	"0.135"	"23.53"	"96.249"	"60.625"	"180.274"	"64.6"	"111.486"	"178.747"	"131.339"	"0"
"1917"	"0"	"1.846"	"53.552"	"17.466"	"33.553"	"122.083"	"92.886"	"192.757"	"208.787"	"151.369"	"89.864"	"0"
"1918"	"1.656"	"0"	"3.996"	"13.542"	"110.589"	"28.613"	"12.239"	"58.311"	"142.424"	"20.736"	"106.074"	"2.81"
"1919"	"4.395"	"0"	"0.059"	"8.046"	"85.19"	"153.21"	"63.203"	"29.757"	"235.921"	"77.368"	"71.687"	"4.238"
"1920"	"7.268"	"0"	"0"	"23.865"	"59.943"	"52.949"	"72.168"	"123.983"	"168.65"	"76.589"	"4.852"	"0"
"1921"	"5.139"	"0"	"2.469"	"44.895"	"5.48"	"88.524"	"115.171"	"50.272"	"46.371"	"309.148"	"126.898"	"0"
"1922"	"2.839"	"0"	"0"	"43.363"	"51.774"	"40.701"	"98.147"	"46.765"	"31.385"	"122.872"	"85.755"	"0.195"
"1923"	"0.126"	"2.297"	"59.466"	"21.883"	"78.726"	"28.054"	"193.684"	"54.877"	"65.892"	"24.038"	"0.399"	"0.893"
"1924"	"0.207"	"0"	"0.417"	"41.459"	"54.167"	"72.509"	"130.601"	"177.142"	"175.352"	"46.973"	"14.232"	"3.284"
"1925"	"0"	"0"	"0.083"	"34.288"	"90.975"	"51.286"	"50.683"	"99.704"	"117.943"	"113.036"	"54.274"	"46.611"
"1926"	"11.368"	"1.125"	"0.113"	"51.371"	"83.338"	"101.943"	"107.709"	"64.236"	"131.361"	"68.691"	"2.143"	"0"
"1927"	"0"	"0"	"19.85"	"10.333"	"56.602"	"98.993"	"199.803"	"35.7"	"114.346"	"24.412"	"80.873"	"0"
"1928"	"0"	"4.51"	"15.557"	"25.337"	"38.677"	"100.534"	"231.358"	"118.851"	"76.212"	"137.532"	"0.796"	"5.889"
"1929"	"0.796"	"0.349"	"0"	"94.78"	"68.323"	"62.697"	"52.6"	"26.214"	"186.201"	"131.571"	"90.268"	"3.829"
"1930"	"1.26"	"0"	"8.751"	"17.899"	"92.945"	"79.946"	"110.548"	"54.865"	"115.846"	"260.879"	"21.589"	"13.516"
"1931"	"0"	"0"	"6.979"	"31.115"	"41.481"	"121.944"	"65.392"	"58.646"	"118.372"	"60.702"	"84.621"	"20.107"
"1932"	"0"	"0"	"0.761"	"26.463"	"52.888"	"59.324"	"134.114"	"273.071"	"91.541"	"198.871"	"147.279"	"1.657"
"1933"	"0"	"1.261"	"35.214"	"70.395"	"159.314"	"65.932"	"163.336"	"217.025"	"165.207"	"175.442"	"49.37"	"20.528"
"1934"	"0.86"	"0"	"0"	"44.943"	"28.588"	"98.063"	"273.8"	"60.819"	"25.264"	"129.487"	"49.66"	"0"
"1935"	"3.888"	"0"	"1.494"	"22.982"	"25.469"	"171.611"	"140.883"	"173.779"	"84.903"	"140.765"	"9.955"	"0.256"
"1936"	"0.26"	"2.396"	"29.03"	"7.489"	"63.381"	"72.428"	"31.95"	"121.325"	"126.185"	"28.736"	"122.489"	"0.152"
"1937"	"0"	"1.206"	"13.776"	"126.537"	"23.13"	"18.582"	"109.26"	"24.95"	"87.534"	"119.745"	"0.498"	"5.613"
"1938"	"0"	"0.001"	"18.756"	"20.592"	"27.457"	"68.178"	"92.406"	"148.358"	"183.081"	"20.378"	"2.156"	"0.102"
"1939"	"0"	"0"	"5.519"	"51.361"	"16.125"	"79.396"	"110.08"	"171.128"	"80.556"	"151.825"	"52.624"	"0"
"1940"	"0"	"0"	"0"	"37.54"	"200.179"	"82.089"	"101.306"	"100.109"	"71.131"	"137.954"	"23.236"	"1.322"
"1941"	"3.04"	"2.522"	"4.901"	"39.305"	"96.607"	"45.585"	"82.572"	"160.419"	"137.169"	"100.46"	"1.412"	"34.593"
"1942"	"0"	"3.945"	"0"	"36.599"	"39.327"	"198.442"	"89.472"	"61.296"	"28.332"	"65.456"	"24.738"	"13.224"
"1943"	"2.389"	"0"	"28.494"	"52.568"	"141.412"	"82.598"	"89.525"	"60.739"	"89.857"	"119.269"	"85.991"	"0"
"1944"	"0"	"1.676"	"33.493"	"16.611"	"55.475"	"93.409"	"197.815"	"36.367"	"121.792"	"210.961"	"72.729"	"0"
"1945"	"0.072"	"0"	"0"	"35.361"	"36.997"	"61.825"	"172.994"	"63.585"	"74.453"	"37.696"	"12.254"	"0"
"1946"	"0"	"3.264"	"5.694"	"38.292"	"95.651"	"57.671"	"132.063"	"136.078"	"130.728"	"106.712"	"122.712"	"6.777"
"1947"	"7.337"	"0.103"	"4.436"	"14.377"	"56.467"	"164.181"	"124.682"	"237.863"	"118.265"	"68.696"	"8.175"	"19.524"
"1948"	"1.207"	"0"	"5.9"	"74.39"	"83.321"	"51.73"	"84.974"	"237.674"	"93.949"	"80.852"	"149.488"	"0.011"
"1949"	"0"	"0"	"1.578"	"18.265"	"86.206"	"77.029"	"56.239"	"127.165"	"139.486"	"115.629"	"24.626"	"0"
"1950"	"0"	"2.247"	"1.048"	"5.03"	"66.643"	"102.63"	"110.432"	"251.778"	"92.049"	"182.115"	"38.143"	"0"
"1951"	"0"	"0"	"5.99"	"25.032"	"124.351"	"138.075"	"261.205"	"54.638"	"178.769"	"79.054"	"13.795"	"0"
"1952"	"0"	"3.007"	"0"	"36.122"	"119.468"	"53.059"	"101.17"	"45.153"	"47.875"	"130.047"	"0.399"	"17.948"
"1953"	"0"	"0"	"2.044"	"47.638"	"8.622"	"124.631"	"189.984"	"61.841"	"103.819"	"272.952"	"0.399"	"0"
"1954"	"0"	"0"	"29.502"	"44.504"	"67.363"	"54.873"	"242.376"	"212.414"	"23.299"	"112.837"	"2.279"	"9.677"
"1955"	"0"	"0"	"35.746"	"70.38"	"190.807"	"73.963"	"65.117"	"193.668"	"193.997"	"115.49"	"32.595"	"0.079"
"1956"	"0"	"0.105"	"0"	"104.235"	"93.867"	"122.898"	"275.145"	"96.599"	"150.91"	"214.31"	"107.194"	"4.376"
"1957"	"0"	"0"	"2.953"	"30.28"	"118.359"	"131.36"	"198.292"	"145.334"	"45.172"	"189.999"	"36.67"	"0"
"1958"	"0"	"0"	"18.67"	"26.368"	"148.777"	"65.655"	"161.612"	"98.557"	"83.731"	"132.811"	"46.32"	"0.239"
"1959"	"0"	"0.007"	"0.955"	"28.929"	"70.531"	"196.875"	"194.285"	"52.176"	"108.495"	"31.075"	"28.141"	"2.486"
"1960"	"0"	"0"	"32.494"	"25.325"	"93.987"	"78.165"	"86.708"	"34.911"	"131.335"	"54.804"	"34.415"	"0"
"1961"	"0"	"0.007"	"2.95"	"38.522"	"173.089"	"60.367"	"292.405"	"51.527"	"18.405"	"139.078"	"15.619"	"0"
"1962"	"0.126"	"0.978"	"2.867"	"73.659"	"122.383"	"98.846"	"112.687"	"103.216"	"75.154"	"167.816"	"42.649"	"56.554"
"1963"	"0.025"	"0.367"	"15.131"	"95.004"	"97.473"	"72.699"	"66.72"	"196.364"	"52.568"	"201.732"	"0.967"	"0.015"
"1964"	"0"	"0"	"1.392"	"13.411"	"15.513"	"159.791"	"290.794"	"114.303"	"216.361"	"119.119"	"64.323"	"6.745"
"1965"	"0.734"	"0.279"	"0"	"12.851"	"52.222"	"88.494"	"109.18"	"136.1"	"135.035"	"1.189"	"28.275"	"45.316"
"1966"	"10.594"	"0"	"1.295"	"12.526"	"74.849"	"78.615"	"333.797"	"54.087"	"195.69"	"78.783"	"149.484"	"52.831"
"1967"	"6.153"	"0"	"2.107"	"59.335"	"30.437"	"163.706"	"241.547"	"55.649"	"93.869"	"141.642"	"1.311"	"4.1"
"1968"	"0"	"3.023"	"1.863"	"41.578"	"64.721"	"202.286"	"165.571"	"21.621"	"273.691"	"150.573"	"48.685"	"10.569"
"1969"	"0"	"0"	"8.323"	"26.436"	"75.512"	"105.141"	"97.211"	"214.276"	"40.621"	"174.877"	"34.269"	"4.591"
"1970"	"0.501"	"0"	"3.963"	"102.069"	"78.114"	"45.436"	"121.313"	"123.155"	"130.357"	"124.072"	"0.399"	"0"
"1971"	"0"	"0"	"0.118"	"34.297"	"96.704"	"68.955"	"28.787"	"89.185"	"102.446"	"127.437"	"0.424"	"0.007"
"1972"	"0"	"0"	"0.232"	"39.94"	"49.222"	"78.007"	"83.226"	"19.272"	"145.746"	"48.601"	"24.067"	"6.021"
"1973"	"0"	"0"	"0"	"16.408"	"32.833"	"203.597"	"103.456"	"187.189"	"94.694"	"243.604"	"22.942"	"1.443"
"1974"	"0"	"0"	"10.251"	"79.327"	"104.632"	"64.591"	"105.231"	"75.535"	"213.211"	"152.148"	"9.09"	"0"
"1975"	"0.73"	"0"	"1.271"	"8.385"	"142.734"	"70.098"	"200.087"	"123.658"	"146.037"	"184.298"	"47.747"	"0.295"
"1976"	"0"	"0"	"0.33"	"51.664"	"7.097"	"73.09"	"64.591"	"106.693"	"31.482"	"16.365"	"46.04"	"0"
"1977"	"0"	"0.46"	"17.379"	"71.609"	"191.188"	"118.6"	"141.002"	"142.627"	"41.263"	"118.677"	"78.318"	"0"
"1978"	"0"	"3.426"	"0.083"	"28.756"	"99.328"	"80.264"	"132.499"	"85.06"	"169.345"	"94.885"	"75.566"	"25.955"
"1979"	"0"	"3.477"	"8.618"	"7.101"	"49.948"	"108.626"	"91.463"	"68.929"	"196.625"	"28.515"	"106.182"	"0"
"1980"	"0"	"0"	"8.321"	"51.106"	"50.489"	"98.37"	"122.365"	"82.643"	"145.268"	"60.033"	"23.314"	"3.128"
"1981"	"3.987"	"0"	"13.048"	"32.637"	"69.629"	"83.426"	"89.175"	"104.74"	"227.401"	"113.821"	"66.259"	"9.422"
"1982"	"0"	"0"	"0.033"	"29.286"	"82.82"	"86.034"	"135.746"	"53.901"	"130.2"	"84.007"	"121.283"	"0"
"1983"	"0"	"0"	"0"	"0.39"	"58.685"	"187.103"	"154.33"	"117.461"	"170.889"	"180.55"	"8.705"	"11.896"
"1984"	"0.048"	"0.609"	"8.078"	"35.63"	"12.755"	"70.944"	"246.637"	"49.483"	"88.062"	"72.665"	"2.905"	"16.109"
"1985"	"0.36"	"0"	"8.24"	"13.729"	"42.674"	"91.502"	"97.436"	"65.325"	"54.018"	"97.067"	"11.243"	"3.894"
"1986"	"3.032"	"0.941"	"0"	"42.586"	"14.077"	"127.111"	"83.651"	"103.81"	"90.232"	"44.588"	"67.47"	"15.872"
"1987"	"0.662"	"0.108"	"13.001"	"18.108"	"68.764"	"76.159"	"88.059"	"72.407"	"118.845"	"118.187"	"33.623"	"31.057"
"1988"	"0"	"1.482"	"0"	"69.6"	"28.808"	"97.167"	"207.587"	"128.301"	"225.949"	"34.207"	"4.039"	"17.01"
"1989"	"0"	"0"	"16.728"	"45.867"	"28.996"	"111.235"	"215.895"	"39.737"	"129.001"	"73.944"	"4.542"	"3.014"
"1990"	"0.222"	"0"	"5.261"	"24.835"	"147.093"	"87.374"	"80.196"	"91.519"	"51.452"	"110.297"	"40.031"	"0.407"
"1991"	"0.109"	"0"	"0"	"73.039"	"70.178"	"145.349"	"136.125"	"99.063"	"137.989"	"119.847"	"23.448"	"0"
"1992"	"0"	"0"	"0"	"19.57"	"67.142"	"156.731"	"114.998"	"109.608"	"178.509"	"124.584"	"91.43"	"0"
"1993"	"0"	"0"	"15.889"	"30.012"	"47.396"	"112.241"	"155.644"	"93.463"	"72.938"	"176.616"	"8.983"	"26.886"
"1994"	"1.48"	"0.211"	"5.821"	"58.427"	"26.063"	"121.518"	"184.503"	"94.964"	"58.489"	"237.368"	"24.282"	"0.783"
"1995"	"4.903"	"0"	"9.825"	"20.384"	"81.638"	"83.434"	"128.737"	"90.128"	"131.19"	"242.491"	"23.053"	"0"
"1996"	"0"	"0.108"	"0"	"60.694"	"29.537"	"144.123"	"106.82"	"125.316"	"144.66"	"163.018"	"38.696"	"1.457"
"1997"	"3.095"	"0"	"11.401"	"60.456"	"25.604"	"114.474"	"111.85"	"134.776"	"55.14"	"147.849"	"67.727"	"47.623"
"1998"	"0"	"0"	"0"	"19.643"	"45.162"	"109.665"	"169.24"	"144.896"	"115.835"	"155.993"	"34.848"	"4.967"
"1999"	"0"	"0.362"	"0"	"18.412"	"106.838"	"97.896"	"145.749"	"54.985"	"58.771"	"204.9"	"9.63"	"0.024"
"2000"	"0"	"1.121"	"0"	"42.815"	"76.711"	"121.223"	"124.522"	"155.467"	"158.69"	"113.013"	"8.845"	"1.872"
"2001"	"1.444"	"0"	"11.169"	"39.061"	"17.597"	"97.184"	"73.18"	"81.173"	"93.239"	"129.954"	"31.463"	"1.744"
"2002"	"1.444"	"0.246"	"2.89"	"18.369"	"72.316"	"152.283"	"41.768"	"93.409"	"26.116"	"169.562"	"5.182"	"0.346"
