
"Year"	"Jan"	"Feb"	"Mar"	"Apr"	"May"	"Jun"	"Jul"	"Aug"	"Sep"	"Oct"	"Nov"	"Dec"
"1901"	"2.114"	"4.023"	"34.703"	"53.52"	"84.951"	"170.174"	"79.837"	"62.724"	"70.292"	"84.473"	"177.742"	"42.953"
"1902"	"19.704"	"0.205"	"36.544"	"55.838"	"37.294"	"97.018"	"159.47"	"64.633"	"145.493"	"210.399"	"97.564"	"112.358"
"1903"	"32.658"	"3.75"	"0.136"	"23.863"	"95.314"	"32.93"	"135.403"	"64.497"	"144.198"	"227.171"	"161.992"	"71.928"
"1904"	"71.656"	"2.25"	"11.59"	"36.066"	"58.361"	"149.788"	"144.47"	"63.065"	"83.996"	"182.923"	"1.704"	"36.544"
"1905"	"0.136"	"1.977"	"4.295"	"34.498"	"91.155"	"179.719"	"96.541"	"52.634"	"49.77"	"174.537"	"28.703"	"0.614"
"1906"	"23.044"	"5.386"	"4.773"	"31.294"	"42.271"	"80.655"	"140.925"	"106.972"	"46.43"	"121.699"	"82.36"	"140.652"
"1907"	"82.428"	"1.295"	"33.135"	"81.882"	"39.407"	"132.198"	"145.629"	"99.95"	"133.426"	"164.788"	"78.542"	"120.812"
"1908"	"9.068"	"33.271"	"29.93"	"44.93"	"70.974"	"107.518"	"132.13"	"68.792"	"105.2"	"193.559"	"22.499"	"33.476"
"1909"	"28.976"	"8.113"	"23.863"	"42.884"	"128.448"	"95.382"	"111.813"	"111.267"	"85.973"	"81.61"	"82.428"	"56.793"
"1910"	"9.545"	"24.135"	"2.25"	"103.904"	"69.61"	"131.244"	"124.358"	"145.357"	"72.474"	"182.787"	"189.4"	"0.614"
"1911"	"0.682"	"22.294"	"4.773"	"53.179"	"65.724"	"209.649"	"135.675"	"44.93"	"32.93"	"205.081"	"104.381"	"160.356"
"1912"	"0.818"	"17.522"	"9.75"	"47.248"	"87.882"	"247.011"	"108.949"	"106.086"	"62.792"	"314.849"	"99.813"	"42.475"
"1913"	"18.067"	"3.613"	"9.068"	"42.407"	"102.404"	"90.337"	"107.518"	"43.839"	"52.907"	"241.284"	"49.429"	"29.385"
"1914"	"1.159"	"3.477"	"17.045"	"24.681"	"95.995"	"115.426"	"129.744"	"72.815"	"72.474"	"217.558"	"75.951"	"145.016"
"1915"	"17.249"	"6.75"	"49.975"	"88.564"	"68.315"	"118.017"	"167.515"	"65.383"	"228.535"	"58.02"	"192.877"	"62.656"
"1916"	"0.136"	"8.454"	"8.454"	"65.247"	"134.925"	"113.245"	"182.719"	"94.836"	"141.743"	"161.311"	"97.018"	"2.523"
"1917"	"0.818"	"16.295"	"46.975"	"21.476"	"124.562"	"162.879"	"64.088"	"109.836"	"168.674"	"117.335"	"232.762"	"80.723"
"1918"	"60.611"	"5.25"	"10.704"	"39.816"	"207.536"	"73.633"	"43.157"	"86.723"	"19.704"	"196.354"	"208.695"	"127.971"
"1919"	"53.111"	"6.682"	"14.386"	"11.999"	"128.244"	"161.447"	"106.836"	"88.155"	"158.788"	"116.517"	"230.512"	"116.245"
"1920"	"59.111"	"1.704"	"16.772"	"66.951"	"29.794"	"190.696"	"195.4"	"69.679"	"34.43"	"212.581"	"180.469"	"19.704"
"1921"	"22.158"	"3.477"	"3.136"	"100.904"	"45.816"	"143.652"	"79.633"	"172.151"	"79.973"	"229.898"	"133.835"	"23.113"
"1922"	"14.113"	"7.159"	"5.113"	"50.179"	"146.175"	"168.947"	"181.014"	"67.429"	"52.293"	"143.857"	"172.969"	"29.18"
"1923"	"25.772"	"1.091"	"59.793"	"16.499"	"27.885"	"114.063"	"157.356"	"179.31"	"100.291"	"133.221"	"25.431"	"24.203"
"1924"	"32.453"	"0.136"	"31.158"	"61.77"	"66.201"	"188.65"	"192.468"	"103.154"	"94.973"	"147.607"	"148.288"	"58.361"
"1925"	"6.204"	"9.818"	"51.611"	"42.543"	"86.723"	"125.449"	"71.315"	"108.336"	"53.111"	"150.061"	"187.15"	"74.042"
"1926"	"55.634"	"0.955"	"9"	"7.159"	"122.79"	"102.404"	"103.972"	"81.746"	"102.745"	"167.856"	"60.679"	"21.613"
"1927"	"11.659"	"38.316"	"29.862"	"49.157"	"95.314"	"156.947"	"139.357"	"58.156"	"139.357"	"63.679"	"74.178"	"17.454"
"1928"	"13.636"	"117.267"	"8.795"	"64.838"	"30.612"	"90.2"	"113.79"	"98.791"	"59.588"	"161.856"	"151.97"	"98.45"
"1929"	"6.954"	"44.18"	"13.431"	"111.881"	"54.407"	"220.081"	"171.537"	"48.134"	"107.109"	"221.785"	"120.744"	"52.361"
"1930"	"12.681"	"14.795"	"33.271"	"58.293"	"214.217"	"126.267"	"43.021"	"65.179"	"165.129"	"210.126"	"141.675"	"89.996"
"1931"	"10.704"	"0.136"	"0.955"	"71.588"	"67.497"	"136.971"	"120.403"	"170.446"	"52.498"	"75.746"	"89.041"	"174.674"
"1932"	"0.136"	"4.091"	"6.477"	"50.998"	"201.877"	"63.338"	"84.882"	"120.812"	"89.791"	"284.168"	"166.56"	"46.157"
"1933"	"0.136"	"11.999"	"28.226"	"55.02"	"261.124"	"172.765"	"136.562"	"135.539"	"156.129"	"179.31"	"89.587"	"52.566"
"1934"	"108.745"	"0.136"	"26.726"	"47.793"	"55.156"	"158.72"	"65.383"	"54.952"	"12.477"	"139.016"	"78.746"	"0.614"
"1935"	"102.472"	"7.5"	"11.454"	"48.134"	"29.93"	"170.515"	"118.563"	"101.995"	"72.065"	"175.219"	"214.081"	"13.704"
"1936"	"0.682"	"19.635"	"29.385"	"10.977"	"166.765"	"95.586"	"129.608"	"58.634"	"145.629"	"70.088"	"159.742"	"11.659"
"1937"	"13.022"	"24.749"	"23.317"	"89.246"	"69.747"	"60.747"	"152.106"	"73.974"	"50.725"	"188.173"	"99.473"	"27.544"
"1938"	"0.614"	"53.861"	"16.227"	"27.476"	"63.406"	"100.495"	"144.47"	"69.542"	"73.769"	"104.995"	"44.452"	"33.817"
"1939"	"50.043"	"6.272"	"16.772"	"105.813"	"92.45"	"124.562"	"133.426"	"84.405"	"52.293"	"160.083"	"254.92"	"20.454"
"1940"	"0.614"	"0.136"	"2.114"	"64.156"	"91.087"	"120.403"	"195.264"	"120.403"	"25.294"	"162.879"	"191.855"	"59.52"
"1941"	"25.09"	"8.863"	"1.159"	"76.019"	"119.449"	"145.561"	"75.406"	"98.586"	"98.654"	"192.127"	"129.13"	"93.2"
"1942"	"0.273"	"0.136"	"8.386"	"61.838"	"95.518"	"135.198"	"148.698"	"72.201"	"37.771"	"207.536"	"59.043"	"216.808"
"1943"	"44.521"	"9.477"	"17.522"	"58.361"	"177.878"	"199.9"	"101.995"	"40.225"	"60.338"	"166.492"	"163.765"	"65.929"
"1944"	"1.841"	"39.066"	"35.862"	"29.59"	"163.151"	"193.082"	"112.222"	"44.93"	"76.633"	"173.037"	"112.222"	"85.973"
"1945"	"10.022"	"6"	"6.136"	"69.61"	"22.908"	"75.678"	"101.859"	"76.701"	"31.908"	"154.902"	"179.105"	"8.318"
"1946"	"0.955"	"0.75"	"54.202"	"59.52"	"52.838"	"244.488"	"77.519"	"142.561"	"95.859"	"185.582"	"195.536"	"194.514"
"1947"	"17.726"	"15.681"	"46.975"	"82.701"	"39.135"	"118.835"	"133.289"	"169.765"	"118.154"	"145.289"	"24.067"	"44.452"
"1948"	"12.818"	"5.454"	"21.613"	"23.999"	"110.654"	"152.243"	"163.97"	"105.404"	"46.634"	"121.017"	"166.901"	"59.793"
"1949"	"7.841"	"0.136"	"0.136"	"33.68"	"157.288"	"115.972"	"149.72"	"121.767"	"112.767"	"110.381"	"71.451"	"0.614"
"1950"	"0.341"	"50.248"	"25.158"	"28.635"	"89.109"	"108.472"	"92.518"	"123.812"	"105.95"	"160.288"	"83.655"	"1.295"
"1951"	"0.682"	"0.136"	"15.136"	"102.063"	"65.111"	"144.743"	"99.064"	"58.634"	"130.971"	"177.878"	"130.494"	"7.977"
"1952"	"48.611"	"77.178"	"20.59"	"80.314"	"154.425"	"95.246"	"68.929"	"117.404"	"20.794"	"193.286"	"72.337"	"56.179"
"1953"	"8.863"	"8.454"	"6.886"	"73.019"	"26.317"	"85.7"	"171.469"	"43.566"	"60.27"	"224.717"	"82.769"	"1.227"
"1954"	"31.567"	"3"	"42.407"	"106.018"	"97.018"	"127.221"	"89.723"	"128.244"	"59.315"	"104.109"	"20.522"	"75.61"
"1955"	"1.5"	"6.75"	"5.113"	"64.497"	"222.467"	"166.083"	"83.655"	"45.134"	"146.72"	"187.15"	"148.084"	"33.817"
"1956"	"18.136"	"54.475"	"1.227"	"75.678"	"112.427"	"196.763"	"56.997"	"88.7"	"72.883"	"239.511"	"124.358"	"3.204"
"1957"	"0.614"	"3.954"	"7.977"	"43.362"	"169.628"	"261.465"	"186.809"	"74.042"	"24.612"	"118.358"	"132.198"	"9.886"
"1958"	"1.568"	"45.816"	"24.681"	"48.952"	"183.264"	"165.606"	"53.179"	"104.859"	"29.044"	"109.972"	"125.585"	"16.022"
"1959"	"0.818"	"10.568"	"3.545"	"92.927"	"126.608"	"200.854"	"141.471"	"68.383"	"111.54"	"119.994"	"104.586"	"67.565"
"1960"	"0.136"	"11.795"	"10.704"	"70.156"	"186.196"	"62.792"	"144.607"	"62.588"	"119.108"	"120.267"	"236.034"	"17.386"
"1961"	"33.748"	"68.179"	"12.545"	"36.885"	"165.879"	"170.31"	"135.403"	"131.653"	"123.199"	"126.949"	"27.681"	"19.499"
"1962"	"51.066"	"56.111"	"16.295"	"25.976"	"212.649"	"22.09"	"162.129"	"102.404"	"103.291"	"200.377"	"23.726"	"67.974"
"1963"	"19.158"	"8.045"	"62.111"	"29.726"	"34.157"	"108.336"	"139.63"	"116.858"	"102.95"	"122.858"	"102.404"	"58.838"
"1964"	"0.136"	"4.977"	"59.52"	"12.204"	"38.657"	"49.293"	"178.014"	"81.951"	"100.768"	"146.039"	"80.655"	"50.179"
"1965"	"0.886"	"7.704"	"21.749"	"50.929"	"135.607"	"80.996"	"64.633"	"90.541"	"80.723"	"86.382"	"94.905"	"175.696"
"1966"	"5.659"	"17.522"	"13.636"	"51.27"	"35.453"	"119.79"	"63.679"	"88.087"	"116.381"	"197.036"	"216.74"	"105.745"
"1967"	"74.656"	"0.136"	"34.362"	"15.477"	"113.858"	"149.857"	"89.314"	"131.994"	"55.702"	"101.927"	"37.157"	"53.588"
"1968"	"0.136"	"33.612"	"37.021"	"107.995"	"20.794"	"101.654"	"203.309"	"61.565"	"64.156"	"78.542"	"97.7"	"23.931"
"1969"	"31.158"	"2.386"	"10.772"	"66.747"	"81.269"	"111.813"	"143.516"	"70.36"	"68.042"	"152.72"	"35.044"	"27.067"
"1970"	"83.723"	"4.636"	"19.908"	"84.064"	"93.882"	"114.336"	"102.745"	"127.767"	"101.518"	"167.651"	"92.723"	"5.795"
"1971"	"22.567"	"33.748"	"7.772"	"35.385"	"113.995"	"165.538"	"134.585"	"143.925"	"112.495"	"81.61"	"15.477"	"112.086"
"1972"	"13.295"	"0.205"	"0.136"	"38.794"	"223.694"	"163.97"	"118.154"	"79.905"	"91.905"	"211.149"	"107.995"	"271.351"
"1973"	"0.136"	"0.886"	"1.704"	"54.952"	"41.112"	"120.881"	"121.426"	"96.95"	"38.316"	"135.266"	"76.155"	"23.453"
"1974"	"0.136"	"9.068"	"4.432"	"63.952"	"123.131"	"44.725"	"170.651"	"98.518"	"146.379"	"64.292"	"49.975"	"15.817"
"1975"	"0.545"	"20.181"	"43.157"	"90.473"	"66.883"	"136.016"	"183.809"	"125.38"	"140.721"	"231.398"	"166.697"	"23.181"
"1976"	"0.409"	"0.136"	"12.272"	"68.792"	"39.475"	"46.634"	"95.518"	"84.541"	"61.293"	"145.152"	"220.899"	"68.86"
"1977"	"0.136"	"13.363"	"31.567"	"45.68"	"166.492"	"170.515"	"105.54"	"104.518"	"89.314"	"209.581"	"240.125"	"32.862"
"1978"	"1.977"	"26.794"	"6"	"45.748"	"134.312"	"89.382"	"121.29"	"100.086"	"66.133"	"78.405"	"167.106"	"17.045"
"1979"	"13.636"	"41.384"	"7.636"	"27.135"	"48.884"	"164.583"	"123.676"	"76.974"	"112.017"	"120.131"	"215.922"	"27.34"
"1980"	"0.205"	"9.068"	"13.84"	"55.77"	"66.951"	"140.789"	"133.562"	"88.019"	"38.589"	"179.446"	"107.109"	"138.675"
"1981"	"8.795"	"3.75"	"22.703"	"44.316"	"91.905"	"176.719"	"160.629"	"118.085"	"171.742"	"143.857"	"85.7"	"10.295"
"1982"	"0.136"	"0.136"	"8.454"	"33.476"	"131.994"	"157.765"	"95.518"	"107.109"	"22.635"	"82.905"	"125.653"	"13.431"
"1983"	"0.136"	"0.136"	"0.136"	"35.044"	"46.907"	"94.291"	"113.517"	"113.722"	"136.834"	"58.156"	"137.993"	"157.902"
"1984"	"60.747"	"66.747"	"29.112"	"54.816"	"24.476"	"124.358"	"127.903"	"47.657"	"71.792"	"113.722"	"40.771"	"46.907"
"1985"	"46.157"	"18.067"	"14.727"	"30.953"	"94.768"	"101.791"	"64.701"	"45.816"	"55.156"	"84.064"	"125.585"	"27.408"
"1986"	"43.089"	"28.226"	"1.159"	"59.724"	"72.678"	"102.745"	"69.61"	"118.563"	"97.768"	"69.679"	"141.13"	"22.499"
"1987"	"0.886"	"0.136"	"12.954"	"58.361"	"85.7"	"86.996"	"41.998"	"196.354"	"52.429"	"207.672"	"101.382"	"250.897"
"1988"	"0.136"	"6.409"	"9.545"	"81.133"	"61.702"	"159.402"	"188.377"	"98.791"	"190.968"	"10.636"	"96.2"	"39.475"
"1989"	"33.953"	"0.136"	"7.772"	"32.862"	"64.565"	"150.607"	"171.06"	"66.679"	"93.609"	"164.31"	"38.657"	"11.727"
"1990"	"4.636"	"8.727"	"8.659"	"13.499"	"150.129"	"71.247"	"139.63"	"51.134"	"34.089"	"155.311"	"162.538"	"22.976"
"1991"	"4.773"	"10.568"	"11.59"	"43.907"	"81.951"	"327.666"	"157.356"	"94.973"	"17.249"	"216.263"	"52.293"	"4.909"
"1992"	"8.727"	"0.136"	"0.136"	"15.204"	"87.337"	"235.353"	"169.833"	"72.269"	"63.474"	"189.332"	"156.947"	"16.09"
"1993"	"0.136"	"1.841"	"15.681"	"29.59"	"71.383"	"156.061"	"159.061"	"51.475"	"46.361"	"194.582"	"247.897"	"151.356"
"1994"	"11.318"	"30.749"	"11.863"	"46.089"	"101.654"	"89.518"	"168.265"	"100.973"	"47.248"	"207.058"	"60.679"	"23.658"
"1995"	"39.135"	"0.136"	"10.159"	"72.678"	"162.265"	"109.086"	"111.199"	"88.7"	"70.701"	"115.767"	"104.722"	"0.614"
"1996"	"16.09"	"9.204"	"1.909"	"108.268"	"37.635"	"188.037"	"123.403"	"131.176"	"91.496"	"189.468"	"33.135"	"57.406"
"1997"	"10.5"	"0.136"	"19.704"	"38.794"	"59.247"	"116.245"	"106.427"	"101.791"	"197.377"	"184.082"	"232.421"	"73.292"
"1998"	"1.295"	"1.636"	"0.545"	"61.565"	"141.402"	"97.291"	"151.152"	"175.969"	"170.992"	"220.149"	"156.811"	"142.63"
"1999"	"4.773"	"39.884"	"16.09"	"69.883"	"180.06"	"134.857"	"111.949"	"58.634"	"32.93"	"235.148"	"83.246"	"10.977"
"2000"	"0.409"	"43.362"	"9.818"	"74.315"	"17.795"	"110.654"	"72.61"	"242.307"	"76.633"	"157.22"	"52.975"	"62.043"
"2001"	"8.727"	"14.113"	"2.045"	"135.607"	"89.382"	"83.86"	"171.81"	"118.29"	"206.24"	"132.062"	"72.951"	"19.022"
"2002"	"0.409"	"8.25"	"12.681"	"26.862"	"141.675"	"125.926"	"35.657"	"57.952"	"21.476"	"244.148"	"119.176"	"5.318"
