
"Year"	"Jan"	"Feb"	"Mar"	"Apr"	"May"	"Jun"	"Jul"	"Aug"	"Sep"	"Oct"	"Nov"	"Dec"
"1901"	"3.543"	"3.7"	"3.818"	"4.016"	"3.911"	"3.668"	"3.627"	"3.627"	"3.669"	"3.646"	"3.529"	"3.397"
"1902"	"3.436"	"3.594"	"3.885"	"4.029"	"4.003"	"3.722"	"3.575"	"3.694"	"3.603"	"3.632"	"3.569"	"3.518"
"1903"	"3.543"	"3.647"	"3.858"	"4.015"	"3.884"	"3.709"	"3.535"	"3.601"	"3.563"	"3.579"	"3.461"	"3.318"
"1904"	"3.356"	"3.501"	"3.725"	"3.937"	"3.83"	"3.535"	"3.481"	"3.601"	"3.629"	"3.646"	"3.487"	"3.411"
"1905"	"3.423"	"3.622"	"3.779"	"3.909"	"3.884"	"3.696"	"3.627"	"3.627"	"3.669"	"3.632"	"3.594"	"3.372"
"1906"	"3.49"	"3.595"	"3.805"	"4.069"	"3.964"	"3.629"	"3.522"	"3.574"	"3.589"	"3.632"	"3.541"	"3.425"
"1907"	"3.423"	"3.594"	"3.792"	"3.843"	"3.884"	"3.642"	"3.548"	"3.469"	"3.629"	"3.646"	"3.554"	"3.411"
"1908"	"3.45"	"3.58"	"3.738"	"3.963"	"3.845"	"3.629"	"3.428"	"3.548"	"3.617"	"3.646"	"3.462"	"3.357"
"1909"	"3.357"	"3.554"	"3.819"	"3.909"	"3.87"	"3.629"	"3.469"	"3.574"	"3.589"	"3.632"	"3.515"	"3.425"
"1910"	"3.436"	"3.569"	"3.806"	"3.95"	"3.898"	"3.576"	"3.549"	"3.522"	"3.55"	"3.566"	"3.46"	"3.344"
"1911"	"3.436"	"3.461"	"3.779"	"3.962"	"3.871"	"3.589"	"3.509"	"3.588"	"3.696"	"3.632"	"3.594"	"3.478"
"1912"	"3.37"	"3.674"	"3.858"	"4.016"	"3.952"	"3.629"	"3.548"	"3.561"	"3.656"	"3.606"	"3.515"	"3.371"
"1913"	"3.396"	"3.608"	"3.792"	"4.015"	"3.977"	"3.655"	"3.534"	"3.614"	"3.683"	"3.632"	"3.554"	"3.49"
"1914"	"3.41"	"3.621"	"3.832"	"3.989"	"3.964"	"3.709"	"3.575"	"3.574"	"3.696"	"3.699"	"3.621"	"3.478"
"1915"	"3.49"	"3.621"	"3.779"	"3.989"	"3.938"	"3.761"	"3.602"	"3.628"	"3.669"	"3.672"	"3.541"	"3.397"
"1916"	"3.383"	"3.568"	"3.858"	"4.016"	"3.911"	"3.563"	"3.615"	"3.614"	"3.603"	"3.567"	"3.515"	"3.371"
"1917"	"3.435"	"3.58"	"3.738"	"3.962"	"3.857"	"3.563"	"3.655"	"3.601"	"3.576"	"3.526"	"3.475"	"3.358"
"1918"	"3.384"	"3.408"	"3.725"	"3.962"	"3.724"	"3.642"	"3.628"	"3.615"	"3.656"	"3.739"	"3.661"	"3.451"
"1919"	"3.53"	"3.622"	"3.766"	"4.043"	"3.897"	"3.616"	"3.535"	"3.561"	"3.656"	"3.672"	"3.502"	"3.464"
"1920"	"3.449"	"3.621"	"3.899"	"3.95"	"3.963"	"3.603"	"3.575"	"3.561"	"3.629"	"3.646"	"3.515"	"3.385"
"1921"	"3.49"	"3.555"	"3.872"	"3.909"	"3.951"	"3.656"	"3.535"	"3.535"	"3.589"	"3.632"	"3.515"	"3.385"
"1922"	"3.424"	"3.581"	"3.819"	"3.976"	"3.831"	"3.589"	"3.469"	"3.534"	"3.589"	"3.62"	"3.488"	"3.331"
"1923"	"3.395"	"3.501"	"3.738"	"3.976"	"3.91"	"3.656"	"3.469"	"3.522"	"3.589"	"3.632"	"3.568"	"3.503"
"1924"	"3.436"	"3.634"	"3.858"	"4.03"	"3.951"	"3.603"	"3.482"	"3.588"	"3.629"	"3.62"	"3.514"	"3.397"
"1925"	"3.41"	"3.554"	"3.765"	"3.976"	"3.844"	"3.602"	"3.549"	"3.574"	"3.683"	"3.672"	"3.541"	"3.385"
"1926"	"3.477"	"3.621"	"3.858"	"3.962"	"3.964"	"3.71"	"3.655"	"3.68"	"3.656"	"3.632"	"3.567"	"3.451"
"1927"	"3.489"	"3.648"	"3.872"	"4.016"	"3.845"	"3.589"	"3.469"	"3.615"	"3.63"	"3.619"	"3.5"	"3.478"
"1928"	"3.53"	"3.594"	"3.779"	"4.002"	"3.991"	"3.682"	"3.601"	"3.548"	"3.656"	"3.606"	"3.581"	"3.45"
"1929"	"3.436"	"3.594"	"3.818"	"3.897"	"3.937"	"3.589"	"3.588"	"3.615"	"3.669"	"3.632"	"3.595"	"3.49"
"1930"	"3.463"	"3.594"	"3.832"	"3.95"	"3.831"	"3.629"	"3.602"	"3.601"	"3.656"	"3.646"	"3.568"	"3.478"
"1931"	"3.489"	"3.633"	"3.858"	"4.016"	"4.017"	"3.71"	"3.588"	"3.588"	"3.603"	"3.685"	"3.569"	"3.464"
"1932"	"3.357"	"3.568"	"3.713"	"3.976"	"3.805"	"3.642"	"3.509"	"3.615"	"3.603"	"3.62"	"3.555"	"3.411"
"1933"	"3.463"	"3.621"	"3.753"	"3.924"	"3.725"	"3.523"	"3.481"	"3.495"	"3.536"	"3.526"	"3.581"	"3.424"
"1934"	"3.462"	"3.487"	"3.725"	"3.923"	"3.899"	"3.642"	"3.548"	"3.573"	"3.696"	"3.659"	"3.448"	"3.344"
"1935"	"3.489"	"3.621"	"3.819"	"3.923"	"3.991"	"3.668"	"3.495"	"3.508"	"3.536"	"3.607"	"3.461"	"3.464"
"1936"	"3.53"	"3.648"	"3.753"	"3.963"	"3.871"	"3.496"	"3.495"	"3.522"	"3.617"	"3.62"	"3.568"	"3.531"
"1937"	"3.477"	"3.687"	"3.858"	"3.909"	"3.897"	"3.616"	"3.469"	"3.615"	"3.669"	"3.592"	"3.528"	"3.411"
"1938"	"3.502"	"3.687"	"3.858"	"3.937"	"3.911"	"3.575"	"3.481"	"3.494"	"3.575"	"3.513"	"3.501"	"3.478"
"1939"	"3.397"	"3.515"	"3.739"	"3.883"	"3.911"	"3.629"	"3.455"	"3.534"	"3.603"	"3.632"	"3.54"	"3.411"
"1940"	"3.369"	"3.529"	"3.792"	"3.843"	"3.898"	"3.629"	"3.522"	"3.522"	"3.656"	"3.646"	"3.515"	"3.464"
"1941"	"3.516"	"3.633"	"3.899"	"4.056"	"3.99"	"3.655"	"3.642"	"3.641"	"3.617"	"3.685"	"3.648"	"3.451"
"1942"	"3.423"	"3.647"	"3.899"	"4.003"	"3.964"	"3.642"	"3.522"	"3.547"	"3.617"	"3.633"	"3.515"	"3.505"
"1943"	"3.45"	"3.568"	"3.833"	"3.897"	"3.804"	"3.509"	"3.455"	"3.561"	"3.496"	"3.513"	"3.502"	"3.451"
"1944"	"3.489"	"3.58"	"3.778"	"3.896"	"3.899"	"3.629"	"3.534"	"3.615"	"3.643"	"3.646"	"3.581"	"3.451"
"1945"	"3.436"	"3.648"	"3.858"	"3.937"	"3.951"	"3.668"	"3.523"	"3.561"	"3.616"	"3.62"	"3.541"	"3.438"
"1946"	"3.317"	"3.581"	"3.807"	"3.924"	"3.911"	"3.602"	"3.534"	"3.481"	"3.589"	"3.659"	"3.541"	"3.464"
"1947"	"3.543"	"3.58"	"3.819"	"3.855"	"3.992"	"3.642"	"3.522"	"3.561"	"3.55"	"3.566"	"3.528"	"3.503"
"1948"	"3.53"	"3.634"	"3.858"	"3.989"	"3.91"	"3.642"	"3.509"	"3.522"	"3.589"	"3.659"	"3.622"	"3.451"
"1949"	"3.435"	"3.567"	"3.886"	"3.99"	"3.857"	"3.602"	"3.509"	"3.587"	"3.575"	"3.632"	"3.528"	"3.397"
"1950"	"3.423"	"3.568"	"3.792"	"3.963"	"3.964"	"3.616"	"3.442"	"3.561"	"3.523"	"3.552"	"3.487"	"3.397"
"1951"	"3.489"	"3.594"	"3.846"	"3.909"	"3.951"	"3.563"	"3.508"	"3.627"	"3.683"	"3.699"	"3.648"	"3.424"
"1952"	"3.516"	"3.674"	"3.819"	"3.99"	"3.951"	"3.642"	"3.574"	"3.561"	"3.603"	"3.553"	"3.501"	"3.478"
"1953"	"3.477"	"3.568"	"3.926"	"3.909"	"4.004"	"3.789"	"3.494"	"3.615"	"3.617"	"3.659"	"3.567"	"3.464"
"1954"	"3.543"	"3.648"	"3.806"	"3.977"	"3.951"	"3.668"	"3.48"	"3.534"	"3.588"	"3.552"	"3.487"	"3.503"
"1955"	"3.555"	"3.687"	"3.832"	"3.937"	"3.778"	"3.563"	"3.534"	"3.533"	"3.668"	"3.606"	"3.475"	"3.41"
"1956"	"3.435"	"3.633"	"3.899"	"4.004"	"3.751"	"3.549"	"3.44"	"3.561"	"3.589"	"3.552"	"3.58"	"3.477"
"1957"	"3.488"	"3.661"	"3.778"	"3.976"	"3.912"	"3.668"	"3.561"	"3.587"	"3.656"	"3.672"	"3.569"	"3.584"
"1958"	"3.53"	"3.674"	"3.859"	"4.002"	"3.857"	"3.709"	"3.601"	"3.574"	"3.628"	"3.579"	"3.595"	"3.543"
"1959"	"3.556"	"3.674"	"3.911"	"4.016"	"3.951"	"3.628"	"3.507"	"3.6"	"3.617"	"3.62"	"3.633"	"3.518"
"1960"	"3.556"	"3.673"	"3.846"	"3.951"	"3.818"	"3.668"	"3.575"	"3.615"	"3.563"	"3.62"	"3.514"	"3.49"
"1961"	"3.543"	"3.635"	"3.886"	"4.016"	"3.831"	"3.589"	"3.48"	"3.574"	"3.589"	"3.592"	"3.594"	"3.531"
"1962"	"3.502"	"3.661"	"3.806"	"3.95"	"3.831"	"3.776"	"3.588"	"3.548"	"3.629"	"3.62"	"3.634"	"3.532"
"1963"	"3.569"	"3.594"	"3.832"	"3.95"	"3.963"	"3.668"	"3.602"	"3.574"	"3.696"	"3.646"	"3.674"	"3.531"
"1964"	"3.436"	"3.661"	"3.886"	"4.096"	"4.031"	"3.682"	"3.549"	"3.561"	"3.536"	"3.62"	"3.475"	"3.411"
"1965"	"3.424"	"3.594"	"3.793"	"3.937"	"3.911"	"3.629"	"3.534"	"3.522"	"3.603"	"3.726"	"3.648"	"3.479"
"1966"	"3.556"	"3.727"	"3.86"	"3.977"	"3.911"	"3.696"	"3.575"	"3.681"	"3.657"	"3.632"	"3.555"	"3.478"
"1967"	"3.436"	"3.568"	"3.753"	"4.002"	"3.912"	"3.696"	"3.494"	"3.548"	"3.629"	"3.619"	"3.595"	"3.532"
"1968"	"3.476"	"3.621"	"3.819"	"3.896"	"3.911"	"3.629"	"3.429"	"3.602"	"3.603"	"3.659"	"3.595"	"3.478"
"1969"	"3.489"	"3.674"	"3.926"	"4.03"	"3.938"	"3.683"	"3.482"	"3.601"	"3.563"	"3.606"	"3.568"	"3.503"
"1970"	"3.503"	"3.594"	"3.779"	"3.91"	"3.817"	"3.589"	"3.509"	"3.494"	"3.563"	"3.553"	"3.514"	"3.385"
"1971"	"3.49"	"3.581"	"3.753"	"3.95"	"3.832"	"3.482"	"3.469"	"3.509"	"3.59"	"3.553"	"3.487"	"3.385"
"1972"	"3.343"	"3.515"	"3.753"	"3.99"	"3.778"	"3.723"	"3.535"	"3.601"	"3.683"	"3.659"	"3.595"	"3.543"
"1973"	"3.503"	"3.662"	"3.886"	"4.084"	"4.004"	"3.668"	"3.601"	"3.468"	"3.629"	"3.632"	"3.555"	"3.464"
"1974"	"3.449"	"3.608"	"3.872"	"4.016"	"3.845"	"3.681"	"3.522"	"3.481"	"3.629"	"3.579"	"3.554"	"3.49"
"1975"	"3.424"	"3.688"	"3.858"	"4.017"	"3.845"	"3.576"	"3.469"	"3.509"	"3.51"	"3.539"	"3.54"	"3.385"
"1976"	"3.316"	"3.529"	"3.859"	"3.884"	"3.951"	"3.722"	"3.535"	"3.548"	"3.656"	"3.7"	"3.595"	"3.544"
"1977"	"3.477"	"3.687"	"3.886"	"4.03"	"3.845"	"3.668"	"3.523"	"3.653"	"3.643"	"3.671"	"3.595"	"3.478"
"1978"	"3.49"	"3.622"	"3.846"	"3.989"	"3.765"	"3.523"	"3.429"	"3.509"	"3.616"	"3.66"	"3.635"	"3.544"
"1979"	"3.636"	"3.727"	"3.885"	"3.99"	"3.899"	"3.696"	"3.468"	"3.588"	"3.604"	"3.646"	"3.569"	"3.598"
"1980"	"3.489"	"3.674"	"3.872"	"3.964"	"3.939"	"3.511"	"3.444"	"3.523"	"3.604"	"3.607"	"3.621"	"3.531"
"1981"	"3.503"	"3.647"	"3.818"	"3.95"	"3.899"	"3.551"	"3.484"	"3.455"	"3.55"	"3.633"	"3.541"	"3.517"
"1982"	"3.503"	"3.687"	"3.873"	"4.055"	"3.885"	"3.721"	"3.588"	"3.615"	"3.683"	"3.779"	"3.714"	"3.544"
"1983"	"3.53"	"3.715"	"3.9"	"4.069"	"4.11"	"3.881"	"3.667"	"3.627"	"3.629"	"3.686"	"3.594"	"3.571"
"1984"	"3.569"	"3.7"	"3.832"	"3.923"	"4.071"	"3.589"	"3.509"	"3.574"	"3.643"	"3.62"	"3.661"	"3.518"
"1985"	"3.624"	"3.727"	"3.965"	"4.056"	"3.938"	"3.563"	"3.601"	"3.574"	"3.696"	"3.645"	"3.621"	"3.584"
"1986"	"3.556"	"3.661"	"3.939"	"4.095"	"4.017"	"3.695"	"3.681"	"3.548"	"3.669"	"3.739"	"3.648"	"3.65"
"1987"	"3.543"	"3.581"	"3.884"	"4.002"	"3.964"	"3.696"	"3.773"	"3.627"	"3.816"	"3.725"	"3.727"	"3.597"
"1988"	"3.53"	"3.794"	"3.939"	"4.002"	"3.951"	"3.775"	"3.641"	"3.627"	"3.629"	"3.725"	"3.648"	"3.544"
"1989"	"3.543"	"3.595"	"3.806"	"3.976"	"3.951"	"3.629"	"3.522"	"3.601"	"3.643"	"3.686"	"3.635"	"3.544"
"1990"	"3.516"	"3.687"	"3.858"	"4.055"	"3.844"	"3.709"	"3.575"	"3.573"	"3.683"	"3.686"	"3.621"	"3.544"
"1991"	"3.662"	"3.702"	"3.912"	"4.015"	"4.083"	"3.709"	"3.534"	"3.508"	"3.736"	"3.659"	"3.581"	"3.451"
"1992"	"3.423"	"3.622"	"3.794"	"4.043"	"3.951"	"3.76"	"3.535"	"3.588"	"3.656"	"3.607"	"3.622"	"3.437"
"1993"	"3.503"	"3.648"	"3.832"	"4.03"	"3.978"	"3.682"	"3.535"	"3.64"	"3.668"	"3.646"	"3.634"	"3.503"
"1994"	"3.53"	"3.674"	"3.9"	"3.936"	"3.991"	"3.668"	"3.548"	"3.601"	"3.696"	"3.659"	"3.646"	"3.489"
"1995"	"3.542"	"3.754"	"3.846"	"4.002"	"3.91"	"3.829"	"3.655"	"3.655"	"3.683"	"3.738"	"3.688"	"3.505"
"1996"	"3.582"	"3.714"	"3.925"	"3.989"	"4.07"	"3.761"	"3.628"	"3.614"	"3.656"	"3.659"	"3.674"	"3.425"
"1997"	"3.556"	"3.687"	"3.872"	"3.883"	"3.977"	"3.802"	"3.629"	"3.64"	"3.722"	"3.726"	"3.754"	"3.69"
"1998"	"3.662"	"3.82"	"3.979"	"4.096"	"4.018"	"3.789"	"3.615"	"3.655"	"3.656"	"3.686"	"3.7"	"3.571"
"1999"	"3.57"	"3.688"	"3.979"	"3.976"	"3.791"	"3.642"	"3.575"	"3.641"	"3.749"	"3.699"	"3.661"	"3.531"
"2000"	"3.596"	"3.715"	"3.885"	"3.99"	"3.897"	"3.589"	"3.574"	"3.561"	"3.683"	"3.672"	"3.701"	"3.517"
"2001"	"3.623"	"3.847"	"3.912"	"3.99"	"3.938"	"3.683"	"3.615"	"3.588"	"3.736"	"3.659"	"3.674"	"3.557"
"2002"	"3.649"	"3.648"	"3.965"	"4.044"	"3.964"	"3.696"	"3.667"	"3.667"	"3.829"	"3.753"	"3.701"	"3.624"
