
"Year"	"Jan"	"Feb"	"Mar"	"Apr"	"May"	"Jun"	"Jul"	"Aug"	"Sep"	"Oct"	"Nov"	"Dec"
"1901"	"24.633"	"25.88"	"28.497"	"31.838"	"30.73"	"29.045"	"27.19"	"26.841"	"27.864"	"26.737"	"24.492"	"22.622"
"1902"	"23.602"	"25.355"	"29.585"	"31.726"	"32.766"	"30.01"	"28.449"	"28.218"	"26.761"	"26.574"	"23.595"	"23.331"
"1903"	"23.826"	"25.884"	"29.518"	"32.057"	"31.115"	"30.275"	"27.029"	"26.668"	"26.677"	"25.76"	"23.166"	"21.923"
"1904"	"22.901"	"24.763"	"28.622"	"32.108"	"31.098"	"28.375"	"27.307"	"27.562"	"26.979"	"26.42"	"23.349"	"22.109"
"1905"	"23.132"	"25.411"	"28.995"	"30.878"	"31.825"	"30.221"	"28.314"	"27.285"	"27.087"	"26.526"	"24.684"	"22.366"
"1906"	"24.339"	"26.367"	"28.529"	"32.986"	"33.212"	"28.977"	"27.747"	"27.062"	"26.466"	"26.277"	"24.413"	"23.055"
"1907"	"23.156"	"26.012"	"28.725"	"30.701"	"31.325"	"28.951"	"27.662"	"26.141"	"27.256"	"26.994"	"25.063"	"22.657"
"1908"	"23.157"	"25.587"	"28.387"	"32.746"	"32.202"	"30.16"	"27.065"	"26.676"	"26.603"	"26.34"	"23.364"	"21.619"
"1909"	"23.985"	"26.065"	"29.397"	"30.638"	"31.635"	"28.52"	"26.702"	"27.281"	"26.543"	"26.61"	"24.818"	"24.01"
"1910"	"23.667"	"25.58"	"29.257"	"32.519"	"32.356"	"29.219"	"28.071"	"27.061"	"26.08"	"26.024"	"22.94"	"21.531"
"1911"	"23.572"	"24.477"	"28.919"	"32.248"	"32.45"	"29.192"	"27.817"	"26.58"	"27.776"	"27.053"	"25.092"	"23.149"
"1912"	"23.477"	"26.684"	"29.719"	"31.956"	"32.752"	"30.827"	"27.484"	"26.902"	"27.267"	"26.541"	"23.855"	"21.958"
"1913"	"22.319"	"26.378"	"29.226"	"32.566"	"31.841"	"29.04"	"27.16"	"27.482"	"27.815"	"26.37"	"24.263"	"23.806"
"1914"	"22.805"	"26.416"	"29.255"	"31.298"	"31.982"	"29.424"	"27.128"	"26.587"	"26.636"	"26.21"	"24.479"	"23.49"
"1915"	"23.475"	"25.934"	"28.231"	"31.691"	"31.937"	"30.264"	"27.963"	"27.453"	"26.991"	"26.747"	"25.12"	"21.817"
"1916"	"23.364"	"26.153"	"29.213"	"31.966"	"31.717"	"27.962"	"27.606"	"27.034"	"26.83"	"26.186"	"23.988"	"21.536"
"1917"	"22.308"	"24.508"	"27.48"	"30.608"	"31.03"	"27.7"	"27.554"	"27.148"	"26.385"	"25.793"	"23.801"	"22.209"
"1918"	"22.249"	"24.625"	"28.011"	"31.373"	"29.939"	"28.856"	"28.91"	"27.402"	"27.488"	"27.13"	"25.303"	"23.218"
"1919"	"24.73"	"26.987"	"29.386"	"32.243"	"31.679"	"28.34"	"27.836"	"27.42"	"27.378"	"26.205"	"24.411"	"22.487"
"1920"	"23.101"	"25.66"	"29.454"	"31.329"	"31.751"	"29.817"	"27.944"	"28.079"	"27.602"	"27.228"	"24.751"	"22.717"
"1921"	"24.123"	"25.535"	"29.977"	"31.791"	"33.6"	"29.229"	"27.465"	"27.153"	"26.72"	"25.729"	"22.661"	"22.078"
"1922"	"23.308"	"25.195"	"29.413"	"32.263"	"31.774"	"29.266"	"27.459"	"27.632"	"26.716"	"25.942"	"24.123"	"21.635"
"1923"	"22.476"	"25.109"	"28.004"	"31.815"	"31.944"	"31.151"	"27.05"	"27.325"	"26.518"	"25.824"	"24.295"	"22.973"
"1924"	"23.654"	"26.515"	"29.137"	"32.962"	"32.727"	"29.961"	"27.895"	"27.697"	"26.625"	"25.857"	"23.226"	"21.887"
"1925"	"22.964"	"25.131"	"28.69"	"32.405"	"30.769"	"29.249"	"27.775"	"26.823"	"27.351"	"25.777"	"24.009"	"21.956"
"1926"	"23.848"	"25.865"	"29.413"	"30.919"	"31.731"	"31.31"	"28.464"	"27.484"	"27.151"	"26.586"	"24.032"	"22.941"
"1927"	"24.81"	"26.667"	"30.292"	"32.876"	"32.339"	"29.334"	"27.072"	"27.398"	"27.507"	"26.318"	"23.217"	"23.052"
"1928"	"24.118"	"26.087"	"28.966"	"31.838"	"33.029"	"29.591"	"27.735"	"27.394"	"27.266"	"26.361"	"24.521"	"22.973"
"1929"	"24.472"	"25.6"	"28.998"	"31.008"	"32.658"	"29.343"	"28.093"	"27.913"	"27.339"	"26.451"	"24.523"	"24.112"
"1930"	"24.264"	"25.184"	"29.231"	"31.49"	"31.856"	"30.028"	"27.94"	"27.63"	"27.314"	"26.317"	"23.778"	"23.587"
"1931"	"23.192"	"26.524"	"29.334"	"32.542"	"32.645"	"29.609"	"27.35"	"27.369"	"26.786"	"26.333"	"23.754"	"22.474"
"1932"	"22.251"	"25.053"	"27.774"	"31.51"	"31.089"	"29.319"	"27.095"	"27.603"	"26.768"	"26.832"	"24.697"	"22.561"
"1933"	"23.317"	"26.452"	"28.32"	"31.127"	"29.793"	"28.313"	"26.655"	"26.512"	"26.791"	"25.439"	"24.278"	"22.262"
"1934"	"22.78"	"25.155"	"28.45"	"31.879"	"32.591"	"29.702"	"27.308"	"26.783"	"27.222"	"26.618"	"23.084"	"21.874"
"1935"	"23.718"	"26.076"	"28.841"	"30.888"	"33.066"	"29.848"	"27.159"	"27.256"	"26.379"	"26.539"	"23.431"	"23.246"
"1936"	"24.892"	"25.942"	"28.254"	"31.743"	"31.813"	"28.082"	"27.66"	"26.911"	"27.531"	"26.561"	"24.303"	"23.107"
"1937"	"22.918"	"26.515"	"28.906"	"31.317"	"32.161"	"30.005"	"27.138"	"27.755"	"27.478"	"25.984"	"24.131"	"22.734"
"1938"	"24.428"	"26.354"	"29.765"	"32.04"	"32.076"	"27.374"	"26.818"	"26.732"	"26.357"	"25.375"	"23.22"	"22.201"
"1939"	"22.88"	"25.254"	"28.232"	"31.342"	"32.617"	"29.727"	"27.129"	"27.274"	"26.845"	"26.51"	"23.018"	"21.866"
"1940"	"21.843"	"25.456"	"28.74"	"31.172"	"31.349"	"29.209"	"26.61"	"26.675"	"27.145"	"26.283"	"24.607"	"23.15"
"1941"	"24.096"	"26.167"	"30.251"	"32.856"	"32.719"	"29.593"	"28.658"	"27.742"	"27.184"	"26.888"	"24.688"	"23.947"
"1942"	"23.933"	"26.192"	"29.514"	"32.004"	"32.601"	"29.582"	"27.356"	"26.836"	"26.594"	"26.022"	"23.978"	"23.536"
"1943"	"24.454"	"24.493"	"28.92"	"31.212"	"30.441"	"28.064"	"26.901"	"27.081"	"25.951"	"25.545"	"24.299"	"21.662"
"1944"	"23.967"	"25.683"	"27.318"	"30.896"	"32.413"	"29.55"	"27.077"	"27.635"	"27.025"	"26.321"	"24.14"	"22.687"
"1945"	"23.509"	"25.888"	"29.101"	"31.093"	"32.542"	"29.275"	"27.263"	"26.689"	"26.422"	"26.081"	"23.068"	"21.841"
"1946"	"22.002"	"24.987"	"29.355"	"31.392"	"31.811"	"28.554"	"27.432"	"26.977"	"26.994"	"27.096"	"24.75"	"23.452"
"1947"	"24.378"	"25.679"	"29.452"	"31.61"	"32.681"	"29.939"	"27.063"	"27.149"	"26.32"	"25.282"	"23.641"	"22.65"
"1948"	"23.962"	"26.312"	"28.532"	"31.527"	"32.34"	"29.681"	"27.753"	"27.021"	"26.533"	"26.618"	"25.419"	"21.473"
"1949"	"22.794"	"25.036"	"29.072"	"31.677"	"31.132"	"28.59"	"27.167"	"27.205"	"26.301"	"26.61"	"23.201"	"22.289"
"1950"	"22.936"	"25.492"	"28.211"	"31.801"	"32.107"	"28.973"	"27.162"	"27.611"	"26.262"	"25.661"	"23.485"	"22.169"
"1951"	"23.421"	"25.34"	"29.191"	"31.708"	"31.777"	"28.946"	"27.378"	"27.451"	"27.634"	"27.146"	"25.227"	"22.356"
"1952"	"23.643"	"26.379"	"29.011"	"32.504"	"32.331"	"29.852"	"28.305"	"27.278"	"27.232"	"26.213"	"23.194"	"23.385"
"1953"	"23.735"	"26.19"	"30.619"	"31.927"	"34"	"30.696"	"27.688"	"27.084"	"26.687"	"26.518"	"23.728"	"22.062"
"1954"	"23.466"	"26.602"	"28.972"	"32.624"	"33.047"	"29.615"	"26.951"	"27.074"	"26.299"	"25.403"	"22.959"	"23.186"
"1955"	"23.464"	"26.457"	"29.317"	"31.704"	"31.111"	"28.917"	"27.205"	"26.099"	"26.963"	"26.294"	"22.986"	"21.866"
"1956"	"23.229"	"25.066"	"29.745"	"32.429"	"31.451"	"28.583"	"26.036"	"26.637"	"26.391"	"25.457"	"24.246"	"22.464"
"1957"	"23.569"	"25.947"	"28.046"	"31.332"	"32.095"	"29.667"	"27.269"	"26.46"	"27.079"	"27.158"	"24.796"	"23.579"
"1958"	"23.85"	"26.646"	"29.564"	"32.033"	"32.099"	"31.295"	"27.026"	"27.181"	"26.823"	"26.417"	"25.096"	"22.986"
"1959"	"24.185"	"27.154"	"29.499"	"32.213"	"32.826"	"28.976"	"26.919"	"27.047"	"27.1"	"26.77"	"24.696"	"23.329"
"1960"	"24.488"	"25.864"	"29.343"	"31.959"	"32.011"	"29.344"	"28.124"	"28.264"	"27.071"	"26.423"	"24.239"	"23.399"
"1961"	"23.975"	"26.327"	"30.584"	"32.729"	"31.383"	"28.865"	"26.977"	"27.144"	"26.795"	"26.031"	"23.763"	"22.789"
"1962"	"22.722"	"25.769"	"28.936"	"31.125"	"31.305"	"29.797"	"27.701"	"27.098"	"26.657"	"26.338"	"23.862"	"22.508"
"1963"	"22.494"	"24.834"	"29.022"	"30.682"	"32.035"	"28.679"	"27.879"	"26.71"	"27.231"	"26.271"	"24.554"	"23.212"
"1964"	"23.9"	"26.727"	"30.234"	"32.676"	"33.075"	"29.707"	"27.747"	"26.663"	"26.159"	"26.535"	"23.48"	"22.109"
"1965"	"23.253"	"25.817"	"29.175"	"31.201"	"32.164"	"29.66"	"27.217"	"27.446"	"27.305"	"27.488"	"25.438"	"24.203"
"1966"	"24.656"	"27.114"	"30.499"	"32.577"	"32.338"	"30.156"	"28.35"	"28.109"	"26.844"	"26.372"	"25.178"	"22.941"
"1967"	"23.773"	"25.791"	"28.752"	"32.425"	"32.705"	"30.011"	"27.092"	"26.921"	"26.648"	"25.835"	"24.143"	"24.118"
"1968"	"23.173"	"26.71"	"28.808"	"31.396"	"32.385"	"29.72"	"27.602"	"27.662"	"26.881"	"25.838"	"24.534"	"23.968"
"1969"	"23.66"	"27.188"	"30.954"	"33.235"	"32.199"	"30.367"	"27.785"	"27.907"	"26.537"	"26.397"	"25.167"	"22.682"
"1970"	"24.153"	"26.943"	"30.509"	"32.606"	"32.184"	"28.575"	"27.911"	"26.7"	"26.914"	"26.364"	"23.873"	"21.549"
"1971"	"23.321"	"26.813"	"28.775"	"32.138"	"31.253"	"28.14"	"28.19"	"27.545"	"27.435"	"25.836"	"23.765"	"22.021"
"1972"	"22.777"	"26.212"	"29.382"	"32.006"	"31.859"	"30.821"	"28.283"	"28.44"	"28.032"	"26.886"	"25.081"	"24.196"
"1973"	"24.872"	"27.247"	"30.324"	"33.631"	"33.632"	"29.41"	"28.215"	"26.917"	"27.48"	"26.395"	"23.766"	"22.603"
"1974"	"23.409"	"26.299"	"29.827"	"32.75"	"31.639"	"28.972"	"28.127"	"27.496"	"27.026"	"26.104"	"24.237"	"22.011"
"1975"	"22.981"	"26.711"	"29.565"	"32.937"	"32.653"	"29.186"	"27.189"	"27.515"	"26.476"	"26.308"	"23.572"	"21.673"
"1976"	"22.551"	"25.374"	"29.716"	"31.601"	"31.498"	"30.107"	"27.198"	"26.743"	"26.72"	"28.218"	"25.675"	"24.215"
"1977"	"23.551"	"26.641"	"29.628"	"31.876"	"29.608"	"28.336"	"27.331"	"26.491"	"28.64"	"26.291"	"25.461"	"22.618"
"1978"	"23.913"	"25.565"	"29.312"	"31.671"	"31.542"	"28.306"	"26.86"	"25.675"	"26.641"	"26.557"	"25.433"	"23.849"
"1979"	"24.416"	"26.616"	"29.562"	"32.196"	"31.311"	"30.125"	"28.19"	"27.693"	"27.175"	"27.221"	"24.618"	"23.739"
"1980"	"24.193"	"27.716"	"30.069"	"31.764"	"33.333"	"28.918"	"27.818"	"26.657"	"27.801"	"28.142"	"25.748"	"24.028"
"1981"	"24.217"	"27.342"	"29.204"	"32.228"	"32.464"	"28.76"	"28.466"	"26.718"	"26.914"	"26.568"	"25.134"	"22.819"
"1982"	"24.333"	"28.221"	"30.779"	"32.109"	"32.501"	"29.828"	"28.052"	"28.05"	"27.978"	"27.401"	"25.248"	"23.378"
"1983"	"23.764"	"27.283"	"31.025"	"33.354"	"33.024"	"30.423"	"28.61"	"27.364"	"26.884"	"26.351"	"24.145"	"23.229"
"1984"	"24.557"	"26.058"	"29.687"	"31.924"	"34.125"	"29.303"	"27.261"	"27.754"	"27.819"	"26.812"	"24.587"	"24.293"
"1985"	"25.032"	"27.535"	"30.054"	"32.765"	"32.383"	"29.179"	"27.834"	"27.55"	"28.48"	"25.908"	"24.926"	"24.49"
"1986"	"23.062"	"26.607"	"30.504"	"33.157"	"33.043"	"29.716"	"28.64"	"27.601"	"28.688"	"27.814"	"25.817"	"24.542"
"1987"	"24.708"	"25.983"	"29.767"	"33.129"	"32.237"	"30.391"	"28.401"	"28.091"	"28.992"	"26.811"	"24.804"	"23.55"
"1988"	"24.014"	"27.697"	"31.21"	"31.663"	"33.265"	"30.676"	"27.296"	"27.034"	"26.98"	"27.107"	"25.085"	"23.496"
"1989"	"23.981"	"26.33"	"28.492"	"32.528"	"32.687"	"29.02"	"27.378"	"27.552"	"27.184"	"27.275"	"24.814"	"23.346"
"1990"	"24.274"	"26.708"	"29.67"	"32.792"	"29.355"	"28.377"	"27.706"	"27.211"	"28.021"	"26.26"	"25.383"	"23.585"
"1991"	"24.7"	"27.044"	"30.991"	"32.042"	"33.325"	"28.791"	"27.184"	"27.509"	"28.387"	"27.37"	"24.57"	"23.149"
"1992"	"22.889"	"26.678"	"29.968"	"32.689"	"32.487"	"30.367"	"28.58"	"27.107"	"28.254"	"27.035"	"25.669"	"22.734"
"1993"	"24.266"	"25.86"	"30.067"	"32.854"	"33.169"	"31.011"	"28.714"	"27.701"	"27.555"	"26.6"	"25.321"	"22.387"
"1994"	"24.273"	"26.798"	"30.94"	"31.73"	"33.436"	"29.96"	"27.613"	"27.61"	"29.076"	"26.398"	"24.213"	"22.431"
"1995"	"23.133"	"27.048"	"30.264"	"33.069"	"31.423"	"31.626"	"28.101"	"28.205"	"27.786"	"26.604"	"26.019"	"23.912"
"1996"	"25.101"	"27.001"	"31.043"	"31.858"	"33.653"	"29.71"	"28.537"	"26.917"	"27.264"	"26.002"	"25.37"	"22.923"
"1997"	"23.699"	"26.41"	"29.886"	"30.904"	"32.679"	"30.96"	"28.573"	"27.929"	"27.876"	"27.341"	"26.515"	"24.907"
"1998"	"25.675"	"27.939"	"31.093"	"33.663"	"33.655"	"31.443"	"28.856"	"27.914"	"27.6"	"27.018"	"25.629"	"23.064"
"1999"	"23.797"	"27.231"	"30.831"	"33.099"	"31.313"	"29.01"	"27.88"	"27.575"	"27.412"	"27.04"	"25.331"	"23.458"
"2000"	"24.911"	"27.236"	"29.72"	"33.189"	"31.738"	"28.378"	"27.456"	"27.314"	"27.583"	"27.456"	"25.693"	"23.261"
"2001"	"24.819"	"28.116"	"30.514"	"32.46"	"33.261"	"29.269"	"28.448"	"27.299"	"28.254"	"26.715"	"26.031"	"23.684"
"2002"	"24.568"	"26.936"	"30.842"	"33.46"	"32.992"	"29.577"	"28.813"	"27.32"	"28.152"	"27.397"	"25.02"	"24.022"
