
"Year"	"Jan"	"Feb"	"Mar"	"Apr"	"May"	"Jun"	"Jul"	"Aug"	"Sep"	"Oct"	"Nov"	"Dec"
"1901"	"34.35"	"9.852"	"14.972"	"1.836"	"22.823"	"21.251"	"213.781"	"194.128"	"27.252"	"0.277"	"0"	"3.665"
"1902"	"0.197"	"1.476"	"6.263"	"8.81"	"12.576"	"54.071"	"161.474"	"137.333"	"74.541"	"3.973"	"0"	"0"
"1903"	"12.182"	"1.804"	"11.682"	"1.411"	"11.152"	"11.982"	"113.165"	"139.066"	"57.604"	"9.345"	"0"	"3.212"
"1904"	"15.562"	"0.551"	"43.254"	"3.059"	"13.705"	"43.834"	"97.719"	"170.594"	"88.056"	"1.051"	"20.063"	"7.878"
"1905"	"49.998"	"25.776"	"8.122"	"2.888"	"5.603"	"17.947"	"105.122"	"51.278"	"165.655"	"2.574"	"0"	"7.898"
"1906"	"5.47"	"53.463"	"16.442"	"2.078"	"3.114"	"65.146"	"105.107"	"144.972"	"208.066"	"0.769"	"0"	"4.83"
"1907"	"14.751"	"37.667"	"24.408"	"29.176"	"5.199"	"31.683"	"96.631"	"147.102"	"1.875"	"1.155"	"0.149"	"0"
"1908"	"33.792"	"10.928"	"0.905"	"7.783"	"6.636"	"36.644"	"193.723"	"431.455"	"35.946"	"0.569"	"0.359"	"3.022"
"1909"	"18.194"	"12.711"	"0.28"	"34.271"	"10.807"	"148.403"	"267.226"	"133.146"	"132.874"	"0.7"	"0"	"38.331"
"1910"	"21.638"	"8.375"	"1.529"	"8.578"	"8.223"	"91.515"	"159.537"	"154.423"	"72.336"	"3.028"	"0.725"	"2.199"
"1911"	"53.348"	"1.356"	"47.471"	"5.753"	"5.211"	"70.374"	"35.562"	"116.599"	"94.143"	"6.032"	"43.031"	"0"
"1912"	"37.232"	"10.223"	"6.77"	"21.652"	"10.012"	"31.448"	"109.38"	"211.995"	"93.317"	"0.187"	"14.684"	"3.24"
"1913"	"1.944"	"30.534"	"18.968"	"2.693"	"42.632"	"99.203"	"136.423"	"161.569"	"11.73"	"1.11"	"3.724"	"12.664"
"1914"	"9.143"	"24.119"	"14.254"	"17.509"	"19.695"	"38.814"	"265.839"	"105.048"	"207.615"	"17.969"	"13.989"	"6.244"
"1915"	"13.166"	"49.069"	"38.271"	"14.669"	"4.537"	"40.699"	"72.898"	"159.841"	"83.089"	"10.646"	"0"	"3.077"
"1916"	"0.197"	"16.52"	"1.203"	"4.151"	"11.87"	"61.876"	"298.273"	"179.185"	"79.431"	"9.213"	"0.275"	"0"
"1917"	"6.139"	"10.978"	"13.474"	"20.705"	"26.843"	"99.94"	"158.425"	"208.034"	"173.643"	"20.763"	"0"	"4.062"
"1918"	"4.304"	"0.888"	"18.786"	"20.143"	"3.214"	"56.987"	"29.447"	"135.039"	"12.401"	"0.433"	"11.879"	"3.051"
"1919"	"56.808"	"9.95"	"8.716"	"11.207"	"13.111"	"17.573"	"197.343"	"160.398"	"39.846"	"2.036"	"2.437"	"9.079"
"1920"	"13.916"	"11.101"	"18.413"	"0.937"	"17.523"	"67.686"	"141.992"	"130.347"	"11.351"	"0.478"	"0"	"0.27"
"1921"	"21.45"	"1.03"	"0.92"	"1.879"	"1.702"	"36.256"	"178.741"	"229.496"	"90.718"	"10.856"	"0"	"4.035"
"1922"	"19.133"	"7.694"	"1.039"	"2.765"	"1.978"	"48.014"	"135.336"	"175.07"	"215.277"	"3.004"	"2.204"	"28.332"
"1923"	"19.349"	"43.149"	"2.554"	"11.425"	"16.184"	"6.839"	"139.199"	"209.769"	"47.473"	"11.24"	"8.927"	"25.376"
"1924"	"34.056"	"28.463"	"4.98"	"1.73"	"20.12"	"13.221"	"180.863"	"142.279"	"159.34"	"13.688"	"1.98"	"28.106"
"1925"	"11.855"	"0.901"	"2.954"	"2.954"	"19.525"	"141.811"	"210.384"	"168.492"	"14.793"	"1.967"	"26.615"	"0"
"1926"	"10.053"	"2.561"	"43.254"	"14.755"	"13.226"	"4.516"	"172.637"	"285.04"	"33.804"	"0.84"	"6.411"	"5.096"
"1927"	"0.602"	"20.705"	"10.942"	"5.488"	"22.165"	"19.646"	"132.498"	"204.701"	"23.185"	"16.517"	"0"	"20.644"
"1928"	"20.921"	"34.602"	"9.339"	"14.812"	"5.136"	"39.814"	"124.361"	"94.046"	"68.624"	"1.917"	"20.599"	"15.281"
"1929"	"19.236"	"1.721"	"2.824"	"10.863"	"3.066"	"103.155"	"100.933"	"266.608"	"15.888"	"5.16"	"0"	"37.598"
"1930"	"24.099"	"13.342"	"3.239"	"12.677"	"8.602"	"44.613"	"242.567"	"92.124"	"32.746"	"5.858"	"6.588"	"4.895"
"1931"	"16.343"	"23.642"	"11.97"	"3.765"	"12.961"	"6.267"	"219.068"	"188.594"	"122.041"	"24.57"	"0.725"	"0"
"1932"	"11.221"	"2.712"	"14.57"	"5.051"	"6.951"	"21.744"	"121.835"	"100.17"	"116.448"	"0.899"	"0.359"	"17.687"
"1933"	"6.837"	"15.714"	"7.765"	"9.829"	"22.452"	"94.319"	"149.281"	"289.062"	"135.356"	"15.741"	"5.248"	"0.144"
"1934"	"19.513"	"1.814"	"27.692"	"0.714"	"4.934"	"46.586"	"165.614"	"218.191"	"15.769"	"0"	"0"	"10.275"
"1935"	"49.16"	"38.151"	"6.459"	"13.306"	"2.679"	"17.714"	"117.774"	"106.405"	"79.465"	"0.552"	"13.679"	"6.487"
"1936"	"2.327"	"24.679"	"15.169"	"9.011"	"8.083"	"219.884"	"229.021"	"185.282"	"92.693"	"7.81"	"2.504"	"31.01"
"1937"	"0.808"	"66.286"	"1.772"	"23.148"	"7.951"	"33.849"	"215.581"	"52.178"	"80.917"	"3.246"	"0.54"	"12.49"
"1938"	"44.549"	"15.628"	"5.6"	"3.708"	"1.47"	"130.555"	"109.027"	"92.519"	"16.689"	"5.946"	"0.725"	"0.129"
"1939"	"6.461"	"33.631"	"14.483"	"4.705"	"4.228"	"66.547"	"95.808"	"85.33"	"57.821"	"3.979"	"0"	"0"
"1940"	"40.011"	"35.995"	"10.78"	"4.392"	"4.286"	"58.26"	"119.182"	"142.791"	"25.477"	"0.511"	"0"	"3.705"
"1941"	"33.966"	"6.766"	"4.223"	"0.527"	"19.044"	"59.913"	"64.953"	"91.547"	"88.838"	"0.84"	"0.725"	"9.538"
"1942"	"21.369"	"20.581"	"8.543"	"17.276"	"14.739"	"47.318"	"234.732"	"173.033"	"72.264"	"1.127"	"0"	"19.6"
"1943"	"19.986"	"1.494"	"3.975"	"15.042"	"6.299"	"78.731"	"113.249"	"135.453"	"35.741"	"0"	"0"	"0"
"1944"	"25.605"	"33.262"	"30.025"	"30.034"	"0.218"	"64.724"	"180.078"	"98.987"	"75.377"	"7.155"	"0.359"	"5.278"
"1945"	"28.488"	"0.15"	"6.096"	"23.814"	"8.094"	"44.063"	"173.244"	"165.335"	"135.596"	"7.988"	"0.149"	"0.265"
"1946"	"0.491"	"10.439"	"5.291"	"8.357"	"21.3"	"80.576"	"165.498"	"164.628"	"19.629"	"11.899"	"7.283"	"7.679"
"1947"	"12.139"	"12.929"	"13.058"	"0.629"	"3.682"	"9.451"	"78.859"	"180.298"	"114.421"	"10.286"	"0.725"	"6.475"
"1948"	"17.716"	"29.024"	"29.963"	"5.92"	"4.713"	"31.287"	"205.793"	"252.143"	"76.014"	"4.283"	"4.022"	"9.876"
"1949"	"3.679"	"27.198"	"10.596"	"5.596"	"7.337"	"13.499"	"374.057"	"98.789"	"92.117"	"4.085"	"0.359"	"0.765"
"1950"	"40.059"	"14.846"	"28.841"	"1.144"	"8.52"	"37.834"	"305.893"	"185.995"	"200.569"	"0"	"0.359"	"0.467"
"1951"	"21.377"	"6.175"	"30.161"	"17.739"	"12.497"	"22.248"	"122.483"	"112.976"	"48.368"	"2.725"	"23.042"	"0"
"1952"	"9.438"	"11.343"	"29.826"	"4.737"	"17.718"	"49.614"	"109.83"	"158.28"	"7.65"	"0.964"	"6.14"	"0.102"
"1953"	"45.799"	"1.321"	"1.02"	"6.378"	"4.108"	"32.109"	"209.907"	"212.952"	"88.854"	"0.111"	"2.204"	"2.834"
"1954"	"24.431"	"46.747"	"6.381"	"0.616"	"3.486"	"26.854"	"225.371"	"77.785"	"162.797"	"15.02"	"0"	"0.467"
"1955"	"22.593"	"1.628"	"15.751"	"14.085"	"10.551"	"38.623"	"130.808"	"152.381"	"197.487"	"28.453"	"0"	"2.314"
"1956"	"21.521"	"3.404"	"18.215"	"2.126"	"13.997"	"87.084"	"202.516"	"173.288"	"18.899"	"31.955"	"0.481"	"2.472"
"1957"	"60.365"	"0.928"	"28.536"	"16.291"	"10.767"	"28.887"	"155.872"	"202.244"	"86.43"	"6.868"	"12.594"	"14.05"
"1958"	"11.903"	"3.634"	"10.405"	"4.271"	"3.161"	"38.349"	"212.317"	"169.758"	"199.819"	"14.875"	"2.454"	"18.969"
"1959"	"30.98"	"9.07"	"8.965"	"2.839"	"17.336"	"12.799"	"201.792"	"230.279"	"63.011"	"10.485"	"24.332"	"0"
"1960"	"19.437"	"0.15"	"22.615"	"8.913"	"1.583"	"30.032"	"136.325"	"159.489"	"59.973"	"18.899"	"0"	"4.181"
"1961"	"48.82"	"30.577"	"2.236"	"9.676"	"13.216"	"42.052"	"219.235"	"258.638"	"102.317"	"24.75"	"0.776"	"9.822"
"1962"	"29.986"	"19.529"	"15.146"	"1.983"	"10.044"	"28.101"	"169.18"	"147.964"	"160.21"	"0.069"	"10.391"	"9.341"
"1963"	"3.444"	"9.023"	"16.358"	"7.122"	"22.071"	"48.163"	"97.372"	"158.731"	"118.864"	"1.773"	"7.566"	"14.488"
"1964"	"12.766"	"2.757"	"7.189"	"7.366"	"19.445"	"38.828"	"348.494"	"197.138"	"103.318"	"0"	"1.726"	"8.739"
"1965"	"8.807"	"19.006"	"10.904"	"23.285"	"12.613"	"5.929"	"154.533"	"136.462"	"40.658"	"3.701"	"6.436"	"0"
"1966"	"2.921"	"32.502"	"5.352"	"3.64"	"29.629"	"93.647"	"155.401"	"188.892"	"123.588"	"11.515"	"4.591"	"1.337"
"1967"	"0.388"	"8.542"	"45.155"	"3.535"	"2.605"	"19.766"	"146.084"	"379.608"	"56.07"	"5.021"	"6.992"	"37.839"
"1968"	"28.668"	"19.699"	"9.928"	"3.362"	"5.671"	"35.969"	"156.738"	"183.408"	"16.142"	"7.915"	"0"	"4.834"
"1969"	"8.833"	"8.073"	"17.949"	"13.471"	"20.505"	"28.822"	"206.968"	"127.826"	"138.049"	"0.993"	"0.725"	"0"
"1970"	"28.218"	"22.888"	"24.237"	"0.375"	"26.51"	"65.74"	"70.104"	"188.769"	"54.679"	"5.08"	"0"	"0"
"1971"	"9.158"	"13.015"	"6.336"	"14.655"	"35.863"	"73.668"	"179.711"	"300.487"	"75.238"	"13.516"	"6.701"	"0.036"
"1972"	"8.735"	"15.241"	"4.953"	"8.396"	"0.568"	"22.168"	"180.761"	"176.244"	"105.74"	"10.312"	"9.242"	"4.863"
"1973"	"19.993"	"12.224"	"9.973"	"0.602"	"15.775"	"46.302"	"127.962"	"245.891"	"69.213"	"11.856"	"0"	"8.965"
"1974"	"5.651"	"5.558"	"3.49"	"0.922"	"9.32"	"26.907"	"218.891"	"91.512"	"7.668"	"2.982"	"0"	"10.323"
"1975"	"27.965"	"16.767"	"16.761"	"1.554"	"1.622"	"93.318"	"265.772"	"179.925"	"168.01"	"7.055"	"0"	"0"
"1976"	"7.899"	"26.35"	"12.687"	"10.418"	"24.699"	"59.102"	"206.662"	"441.428"	"95.885"	"7.764"	"0"	"0.507"
"1977"	"25.795"	"1.076"	"1.087"	"27.604"	"38.615"	"79.801"	"236.07"	"129.235"	"66.578"	"16.41"	"0.527"	"9.4"
"1978"	"4.128"	"12.766"	"38.621"	"7.84"	"1.036"	"77.865"	"219.636"	"317.361"	"131.741"	"0.899"	"4.605"	"2.513"
"1979"	"15.117"	"33.906"	"27.877"	"6.173"	"23.166"	"48.496"	"124.611"	"94.341"	"46.497"	"4.006"	"11.964"	"3.476"
"1980"	"9.585"	"8.427"	"24.164"	"3.942"	"4.227"	"100.46"	"405.192"	"257.111"	"96.597"	"7.567"	"6.457"	"6.543"
"1981"	"57.537"	"14.901"	"31.311"	"0.459"	"7.106"	"54.568"	"333.449"	"86.765"	"28.49"	"4.347"	"42.86"	"3.947"
"1982"	"23.28"	"11.25"	"69.748"	"26.599"	"42.61"	"30.109"	"115.185"	"248.818"	"12.208"	"4.332"	"16.498"	"13.773"
"1983"	"48.194"	"18.474"	"21.481"	"32.406"	"57.338"	"47.231"	"173.954"	"204.541"	"113.585"	"17.201"	"0"	"4.358"
"1984"	"3.092"	"37.303"	"5.381"	"19.276"	"1.116"	"41.889"	"268.229"	"221.143"	"82.267"	"0.187"	"0"	"10.088"
"1985"	"6.913"	"0.919"	"2.38"	"16.441"	"17.926"	"59.744"	"253.972"	"206.989"	"94.036"	"23.409"	"1.123"	"22.522"
"1986"	"9.642"	"32.55"	"10.832"	"11.425"	"28.633"	"62.81"	"200.954"	"187.028"	"77.78"	"4.622"	"4.478"	"22.666"
"1987"	"21.275"	"20.138"	"15.084"	"5.993"	"31.348"	"34.664"	"63.85"	"106.166"	"18.419"	"7.561"	"0"	"3.656"
"1988"	"4.407"	"16.692"	"34.712"	"9.22"	"5.105"	"47.866"	"242.694"	"243.627"	"116.258"	"11.024"	"0.359"	"13.779"
"1989"	"49.446"	"5.657"	"23.039"	"1.228"	"8.29"	"40.265"	"169.88"	"140.227"	"64.809"	"1.061"	"9.57"	"3.312"
"1990"	"1.628"	"43.345"	"29.264"	"8.388"	"21.12"	"36.45"	"197.992"	"241.538"	"169.024"	"3.232"	"11.604"	"30.89"
"1991"	"0.667"	"27.781"	"11.02"	"23.099"	"25.969"	"72.383"	"54.244"	"224.457"	"53.492"	"1.506"	"10.468"	"11.501"
"1992"	"20.878"	"29.377"	"6.582"	"7.95"	"23.38"	"25.413"	"103.31"	"205.963"	"80.041"	"3.941"	"31.546"	"0.774"
"1993"	"12.883"	"11.025"	"12.029"	"11.873"	"17.436"	"82.605"	"220.127"	"77.464"	"139.126"	"0"	"0"	"0"
"1994"	"16.286"	"4.982"	"14.641"	"7.39"	"38.698"	"41.208"	"230.714"	"162.215"	"77.089"	"1.246"	"0"	"3.709"
"1995"	"36.059"	"47.834"	"34.724"	"5.17"	"0.829"	"50.622"	"123.306"	"332.1"	"125.929"	"1.335"	"10.494"	"0.854"
"1996"	"23.955"	"22.522"	"11.359"	"3.477"	"16.99"	"161.643"	"129.659"	"267.049"	"75.372"	"7.815"	"0"	"0"
"1997"	"17.412"	"6.357"	"12.47"	"38.226"	"28.107"	"117.534"	"178.578"	"238.582"	"49.806"	"21.827"	"20.489"	"6.027"
"1998"	"11.461"	"25.083"	"29.25"	"15.237"	"14.506"	"33.134"	"192.843"	"177.29"	"78.893"	"18.877"	"10.027"	"0.102"
"1999"	"19.447"	"3.756"	"3.79"	"0"	"13.445"	"67.649"	"72.547"	"98.457"	"73.297"	"5.627"	"0"	"2.308"
"2000"	"18.031"	"31.294"	"9.82"	"1.283"	"13.65"	"82.451"	"235.711"	"126.745"	"32.445"	"0"	"3.356"	"7.653"
"2001"	"7.988"	"7.224"	"9.281"	"15.834"	"35.098"	"70.841"	"215.356"	"69.956"	"29.499"	"0.781"	"0"	"0.764"
"2002"	"12.212"	"16.803"	"14.258"	"3.55"	"10.913"	"39.958"	"67.328"	"112.23"	"134.588"	"0.46"	"0"	"5.89"
