
"Year"	"Jan"	"Feb"	"Mar"	"Apr"	"May"	"Jun"	"Jul"	"Aug"	"Sep"	"Oct"	"Nov"	"Dec"
"1901"	"29.721"	"13.172"	"42.777"	"180.789"	"150.273"	"389.927"	"313.355"	"331.674"	"272.862"	"135.008"	"106.376"	"9.996"
"1902"	"11.628"	"14.877"	"82.018"	"257.645"	"258.14"	"394.147"	"493.349"	"378.88"	"422.681"	"54.326"	"5.958"	"0.859"
"1903"	"24.391"	"34.406"	"93.313"	"125.693"	"211.028"	"481.081"	"263.437"	"495.306"	"231.402"	"139.143"	"36.761"	"1.463"
"1904"	"19.275"	"45.701"	"72.167"	"294.875"	"271.256"	"274.096"	"336.006"	"447.475"	"162.188"	"59.058"	"32.855"	"2.341"
"1905"	"24.856"	"14.114"	"93.873"	"152.433"	"206.606"	"220.017"	"347.671"	"501.934"	"143.708"	"76.973"	"26.704"	"29.616"
"1906"	"16.001"	"58.053"	"76.237"	"287.725"	"167.36"	"324.507"	"354.599"	"363.115"	"183.107"	"100.802"	"21.562"	"0.294"
"1907"	"25.294"	"52.967"	"110.771"	"238.352"	"192.526"	"399.401"	"462.209"	"251.294"	"290.845"	"16.33"	"0.296"	"9.444"
"1908"	"15.226"	"26.174"	"25.735"	"232.45"	"317.895"	"509.918"	"485.844"	"217.026"	"279.302"	"72.739"	"5.891"	"0.407"
"1909"	"39.375"	"7.354"	"6.258"	"168.115"	"339.461"	"565.342"	"329.944"	"396.113"	"127.946"	"92.212"	"5.46"	"2.55"
"1910"	"10.67"	"34.294"	"120.343"	"152.525"	"165.014"	"614.785"	"437.575"	"307.39"	"103.094"	"223.711"	"19.829"	"24.734"
"1911"	"44.643"	"22.657"	"45.882"	"174.795"	"390.774"	"395.235"	"419.83"	"352.932"	"285.693"	"257.467"	"37.586"	"4.477"
"1912"	"11.435"	"69.591"	"65.671"	"184.234"	"193.549"	"401.604"	"520.481"	"425.514"	"249.072"	"122.165"	"33.521"	"9.733"
"1913"	"11.572"	"68.1"	"65.183"	"303.293"	"443.597"	"361.685"	"283.916"	"306.778"	"213.521"	"289.465"	"3.839"	"66.298"
"1914"	"4.999"	"48.071"	"56.275"	"178.221"	"197.088"	"283.573"	"422.986"	"413.561"	"181.545"	"58.376"	"16.901"	"4.21"
"1915"	"6.269"	"50.203"	"99.415"	"125.557"	"444.245"	"484.445"	"611.915"	"392.612"	"209.967"	"111.503"	"14.322"	"7.522"
"1916"	"18.891"	"20.791"	"83.702"	"167.258"	"366.508"	"383.51"	"360.476"	"352.367"	"148.376"	"136.172"	"21.838"	"6.232"
"1917"	"10.315"	"87.118"	"34.729"	"206.506"	"193.496"	"518.285"	"579.318"	"362.282"	"232.841"	"139.52"	"38.03"	"0.248"
"1918"	"7.395"	"22.209"	"80.609"	"90.029"	"215.287"	"610.186"	"472.604"	"359.703"	"226.414"	"76.616"	"3.736"	"0.394"
"1919"	"12.56"	"21.413"	"8.58"	"125.554"	"279.3"	"434.852"	"504.476"	"193.224"	"282.616"	"254.151"	"20.255"	"0.781"
"1920"	"13.886"	"42.751"	"132.079"	"110.207"	"209.594"	"384.902"	"323.2"	"340.55"	"220.422"	"66.479"	"1.522"	"12.311"
"1921"	"36.224"	"29.758"	"105.27"	"295.296"	"405.563"	"389.732"	"338.379"	"461.281"	"270.46"	"164.666"	"9.884"	"18.733"
"1922"	"23.379"	"9.467"	"40.493"	"105.664"	"212.224"	"363.733"	"426.893"	"419.667"	"192.83"	"100.382"	"8.855"	"6.33"
"1923"	"1.21"	"66.385"	"7.262"	"151.659"	"339.547"	"437.378"	"497.394"	"281.858"	"311.183"	"56.023"	"12.344"	"13.064"
"1924"	"11.2"	"26.551"	"22.122"	"123.145"	"337.56"	"377.097"	"608.631"	"404.35"	"282.999"	"130.115"	"63.967"	"0.4"
"1925"	"13.898"	"23.001"	"59.789"	"131.281"	"439.582"	"357.853"	"452.791"	"311.518"	"290.959"	"60.035"	"1.79"	"0.383"
"1926"	"15.819"	"10.807"	"103.247"	"127.053"	"259.384"	"320.158"	"488.267"	"211.414"	"114.286"	"220.592"	"33.915"	"12.7"
"1927"	"34.499"	"68.457"	"87.542"	"194.593"	"179.746"	"373.247"	"412.878"	"369.319"	"442.196"	"208.056"	"13.917"	"0.272"
"1928"	"11.462"	"18.783"	"57.602"	"114.641"	"393.631"	"416.511"	"336.16"	"419.356"	"279.776"	"194.351"	"30.125"	"6.194"
"1929"	"16.483"	"7.969"	"56.977"	"161.068"	"569.479"	"407.54"	"295.942"	"343.591"	"171.779"	"96.346"	"39.007"	"5.783"
"1930"	"13.215"	"27.83"	"66.581"	"223.404"	"113.572"	"434.269"	"216.257"	"442.505"	"400.015"	"233.693"	"77.236"	"6.232"
"1931"	"6.978"	"44.178"	"42.81"	"289.677"	"287.575"	"518.892"	"582.148"	"305.771"	"225.608"	"126.038"	"14.82"	"46.744"
"1932"	"26.916"	"37.195"	"47.976"	"111.631"	"433.43"	"520.716"	"348.922"	"349.272"	"226.226"	"136.352"	"84.983"	"43.053"
"1933"	"18.515"	"43.368"	"22.434"	"185.93"	"243.445"	"421.82"	"349.076"	"451.724"	"112.691"	"129.785"	"3.094"	"4.424"
"1934"	"19.071"	"61.571"	"16.079"	"239.36"	"396.774"	"581.559"	"401.686"	"236.709"	"222.445"	"156.356"	"31.567"	"6.51"
"1935"	"9.418"	"52.05"	"55.618"	"84.36"	"225.812"	"607.972"	"375.618"	"359.453"	"299.21"	"10.981"	"17.353"	"7.062"
"1936"	"25.613"	"77.631"	"42.009"	"127.1"	"285.353"	"510.09"	"429.633"	"304.6"	"282.802"	"103.76"	"35.797"	"33.989"
"1937"	"13.952"	"52.284"	"34.32"	"115.61"	"288.522"	"264.967"	"329.308"	"477.45"	"244.668"	"94.156"	"8.715"	"4.333"
"1938"	"36.32"	"36.359"	"79.721"	"191.903"	"168.439"	"389.689"	"501.747"	"431.718"	"262.256"	"179.24"	"59.606"	"5.633"
"1939"	"5.43"	"34.642"	"19.616"	"125.001"	"245.927"	"449.02"	"368.736"	"176.227"	"308.682"	"125.826"	"0.558"	"0.836"
"1940"	"2.812"	"52.922"	"150.344"	"63.489"	"301.333"	"434.837"	"293.369"	"222.85"	"275.144"	"82.979"	"14.524"	"46.187"
"1941"	"13.814"	"32.011"	"74.912"	"133.474"	"433.141"	"440.494"	"257.439"	"315.655"	"325.772"	"68.845"	"7.792"	"16.142"
"1942"	"4.779"	"29.578"	"106.8"	"162.312"	"385.504"	"404.216"	"283.382"	"355.818"	"348.484"	"8.251"	"6.616"	"0.2"
"1943"	"37.515"	"27.965"	"130.082"	"171.846"	"386.024"	"331.422"	"336.041"	"387.273"	"308.559"	"108.778"	"5.874"	"7.406"
"1944"	"30.632"	"25.824"	"46.186"	"80.834"	"325.052"	"380.535"	"317.889"	"274.634"	"258.709"	"110.44"	"12.053"	"31.563"
"1945"	"39.23"	"32.373"	"59.099"	"118.804"	"323.314"	"480.943"	"489.559"	"298.064"	"207.24"	"173.536"	"0.289"	"18.824"
"1946"	"0.126"	"14.136"	"57.312"	"90.158"	"223.157"	"460.087"	"398.673"	"309.903"	"232.957"	"229.705"	"9.985"	"0.62"
"1947"	"8.073"	"11.83"	"55.978"	"198.13"	"249.911"	"310.946"	"566.8"	"349.058"	"389.908"	"258.629"	"7.814"	"11.93"
"1948"	"11.922"	"25.542"	"56.958"	"214.762"	"674.851"	"363.077"	"545.701"	"325.924"	"128.971"	"156.814"	"30.246"	"7.326"
"1949"	"20.956"	"12.181"	"77.013"	"237.113"	"360.834"	"370.886"	"342.385"	"374.587"	"409.869"	"162.062"	"14.817"	"15.281"
"1950"	"10.934"	"45.906"	"65.091"	"91.039"	"229.867"	"466.972"	"369.831"	"380.018"	"180"	"192.93"	"33.5"	"8.059"
"1951"	"9.197"	"10.605"	"55.177"	"170.703"	"216.822"	"534.781"	"400.026"	"229.3"	"177.828"	"174.494"	"44.397"	"36.208"
"1952"	"11.744"	"10.989"	"104.081"	"104.392"	"325.052"	"271.219"	"351.27"	"439.895"	"408.121"	"185.835"	"37.091"	"2.426"
"1953"	"24.91"	"24.658"	"158.476"	"120.364"	"341.692"	"466.235"	"406.627"	"225.357"	"234.867"	"156.432"	"3.184"	"13.444"
"1954"	"25.234"	"64.537"	"23.077"	"208.859"	"345.037"	"392.694"	"431.818"	"443.208"	"296.464"	"140.012"	"0.545"	"43.057"
"1955"	"5.974"	"25.622"	"117.178"	"123.833"	"280.269"	"414.415"	"636.768"	"291.237"	"169.097"	"100.118"	"16.288"	"19.266"
"1956"	"33.819"	"5.713"	"131.225"	"151.658"	"373.035"	"501.149"	"266.357"	"291.172"	"154.249"	"127.293"	"47.515"	"11.006"
"1957"	"36.929"	"40.092"	"22.425"	"152.84"	"345.404"	"434.778"	"457.216"	"313.208"	"213.137"	"82.427"	"22.93"	"34.375"
"1958"	"21.51"	"37.463"	"5.905"	"90.884"	"543.094"	"270.076"	"469.756"	"464.11"	"233.516"	"219.88"	"0.447"	"13.13"
"1959"	"36.471"	"32.951"	"68.344"	"134.528"	"497.487"	"427.883"	"300.163"	"211.186"	"213.986"	"206.402"	"16.482"	"16.704"
"1960"	"0.728"	"15.976"	"21.851"	"69.402"	"293.252"	"336.615"	"518.023"	"302.002"	"241.92"	"24.259"	"9.99"	"15.29"
"1961"	"12.316"	"12.369"	"131.932"	"164.766"	"311.152"	"276.967"	"408.979"	"348.173"	"269.922"	"145.23"	"22.566"	"7.118"
"1962"	"33.063"	"40.924"	"38.225"	"151.692"	"180.019"	"394.893"	"255.069"	"411.619"	"83.413"	"67.989"	"10.494"	"11.491"
"1963"	"5.125"	"14.178"	"37.674"	"141.06"	"228.966"	"327.577"	"462.592"	"340.334"	"146.032"	"95.903"	"20.453"	"10.671"
"1964"	"16.29"	"39.473"	"94.578"	"168.531"	"179.01"	"477.127"	"469.035"	"293.762"	"198.916"	"159.155"	"6.67"	"28.025"
"1965"	"4.14"	"55.846"	"54.044"	"170.545"	"217.796"	"415.129"	"417.871"	"365.25"	"262.468"	"42.848"	"93.387"	"6.137"
"1966"	"15.068"	"16.372"	"21.684"	"118.482"	"288.775"	"552.984"	"357.546"	"545.537"	"199.674"	"66.445"	"40.346"	"7.765"
"1967"	"13.527"	"21.502"	"97.23"	"100.325"	"222.057"	"305.347"	"284.247"	"238.51"	"262.689"	"36.075"	"22.018"	"3.097"
"1968"	"18.832"	"41.084"	"51.491"	"154.764"	"472.242"	"348.245"	"393.81"	"355.033"	"248.281"	"81.104"	"0.363"	"0.2"
"1969"	"41.094"	"1.8"	"98.887"	"107.997"	"175.859"	"324.113"	"444.36"	"420.944"	"168.204"	"75.155"	"15.648"	"3.069"
"1970"	"36.153"	"50.426"	"87.177"	"149.559"	"409.367"	"360.919"	"477.225"	"433.043"	"262.442"	"185.92"	"12.719"	"0.2"
"1971"	"21.157"	"19.233"	"44.791"	"153.244"	"184.742"	"364.259"	"433.119"	"378.388"	"187.153"	"244.488"	"71.277"	"11.915"
"1972"	"26.538"	"25.603"	"73.084"	"230.602"	"279.678"	"308.336"	"433.498"	"244.238"	"115.117"	"38.131"	"6.279"	"7.539"
"1973"	"17.696"	"43.131"	"19.691"	"233.813"	"299.591"	"574.092"	"258.912"	"297.072"	"357.034"	"85.187"	"35.835"	"52.225"
"1974"	"36.352"	"11.332"	"38.417"	"221.265"	"194.38"	"382.133"	"605.284"	"326.403"	"302.064"	"59.899"	"12.51"	"2.403"
"1975"	"10.904"	"33.294"	"33.405"	"124.868"	"311.178"	"288.235"	"394.741"	"397.76"	"199.168"	"130.057"	"8.807"	"12.077"
"1976"	"9.064"	"52.157"	"102.667"	"166.877"	"166.782"	"473.37"	"467.528"	"281.242"	"101.305"	"50.618"	"15.59"	"4.795"
"1977"	"12.862"	"30.646"	"82.914"	"349.954"	"305.924"	"446.496"	"550.382"	"471.242"	"156.322"	"197.524"	"36.754"	"42.112"
"1978"	"4.38"	"30.798"	"33.882"	"110.658"	"202.082"	"408.102"	"403.588"	"187.371"	"208.045"	"83.602"	"69.269"	"0.2"
"1979"	"7.385"	"8.933"	"21.994"	"58.136"	"179.478"	"264.686"	"454.435"	"221.359"	"250.349"	"229.58"	"14.82"	"69.276"
"1980"	"13.183"	"15.881"	"88.986"	"225.351"	"237.37"	"299.872"	"417.469"	"463.733"	"190.09"	"129.427"	"0.289"	"0.2"
"1981"	"33.15"	"34.519"	"74.307"	"100.211"	"267.086"	"291.493"	"458.11"	"412.837"	"163.8"	"56.328"	"0.839"	"45.273"
"1982"	"1.004"	"36.93"	"44.234"	"229.18"	"167.628"	"332.198"	"302.793"	"390.446"	"208.657"	"31.545"	"72.168"	"25.402"
"1983"	"31.476"	"42.741"	"43.668"	"155.905"	"288.368"	"353.851"	"498.129"	"290.048"	"329.083"	"131.818"	"3.899"	"35.04"
"1984"	"16.002"	"7.563"	"40.016"	"213.826"	"350.136"	"344.646"	"477.725"	"216.503"	"316.141"	"108.269"	"8.532"	"44.903"
"1985"	"6.694"	"27.97"	"98.989"	"218.427"	"165.517"	"420.152"	"517.257"	"240.978"	"226.766"	"49.635"	"8.857"	"25.971"
"1986"	"5.879"	"16.795"	"29.753"	"230.714"	"83.348"	"215.529"	"380.276"	"300.611"	"276.07"	"204.849"	"27.14"	"3.316"
"1987"	"8.104"	"32.977"	"110.933"	"202.079"	"207.14"	"200.393"	"484.943"	"307.682"	"373.614"	"88.803"	"8.807"	"14.505"
"1988"	"12.392"	"32.461"	"86.521"	"162.96"	"461.135"	"245.457"	"523.048"	"560.66"	"251.462"	"189.733"	"52.83"	"24.458"
"1989"	"8.138"	"73.903"	"21.068"	"162.644"	"184.403"	"344.6"	"459.511"	"293.49"	"361.222"	"187.869"	"17.456"	"13.604"
"1990"	"8.958"	"41.31"	"64.262"	"244.059"	"179.375"	"500.584"	"567.543"	"208.158"	"406.967"	"128.066"	"1.893"	"9.086"
"1991"	"10.444"	"7.97"	"65.099"	"126.715"	"422.939"	"439.941"	"400.958"	"411.31"	"300.755"	"261.468"	"10.398"	"37.161"
"1992"	"23.171"	"72.396"	"68.675"	"180.064"	"244.112"	"403.229"	"406.822"	"306.195"	"282.109"	"112.732"	"6.582"	"15.658"
"1993"	"42.345"	"75.19"	"101.117"	"79.051"	"351.007"	"505.403"	"295.948"	"501.674"	"329.234"	"70.209"	"3.235"	"0.559"
"1994"	"24.991"	"39.768"	"106.354"	"185.439"	"234.124"	"343.121"	"250.412"	"297.462"	"187.049"	"259.331"	"14.077"	"0.428"
"1995"	"16.028"	"39.988"	"56.13"	"105.138"	"343.875"	"523.331"	"459.664"	"346.634"	"401.101"	"50.041"	"41.127"	"18.74"
"1996"	"18.651"	"35.172"	"118.597"	"122.944"	"604.046"	"184.265"	"406.081"	"230.051"	"136.974"	"180.523"	"0.228"	"0.207"
"1997"	"15.205"	"40.992"	"82.101"	"106.947"	"208.168"	"368.819"	"329.562"	"214.011"	"275.754"	"23.785"	"17.948"	"45.924"
"1998"	"11.51"	"49.368"	"116.776"	"116.341"	"320.404"	"584.159"	"419.44"	"338.708"	"156.618"	"140.641"	"17.174"	"0.2"
"1999"	"1.081"	"21.424"	"24.231"	"158.498"	"326.04"	"359.748"	"373.775"	"364.584"	"184.365"	"166.432"	"16.193"	"0.825"
"2000"	"29.185"	"16.22"	"64.291"	"197.941"	"380.691"	"325.756"	"341.942"	"450.73"	"261.318"	"55.337"	"5.672"	"1.258"
"2001"	"0.992"	"23.689"	"28.14"	"182.518"	"318.667"	"280.407"	"420.478"	"268.399"	"258.906"	"197.814"	"14.065"	"3.615"
"2002"	"26.424"	"22.793"	"70.83"	"273.749"	"357.644"	"367.78"	"416.664"	"288.956"	"271.673"	"43.615"	"42.003"	"0.213"
