
"Year"	"Jan"	"Feb"	"Mar"	"Apr"	"May"	"Jun"	"Jul"	"Aug"	"Sep"	"Oct"	"Nov"	"Dec"
"1901"	"52.256"	"17.898"	"4.65"	"9.196"	"12.544"	"109.949"	"205.449"	"276.97"	"192.556"	"32.391"	"10.134"	"0"
"1902"	"2.003"	"1.254"	"9.746"	"13.76"	"8.926"	"94.972"	"333.856"	"183.235"	"402.28"	"22.808"	"0.242"	"2.12"
"1903"	"6.272"	"6.884"	"7.792"	"12.302"	"42.395"	"197.249"	"126.245"	"226.65"	"172.575"	"116.474"	"0"	"0"
"1904"	"0.537"	"2.83"	"28.212"	"1.539"	"159.939"	"181.18"	"292.588"	"341.117"	"105.454"	"43.218"	"5.762"	"0.005"
"1905"	"11.602"	"34.235"	"31.668"	"9.728"	"33.721"	"29.354"	"412.005"	"329.711"	"349.179"	"19.599"	"0"	"0.087"
"1906"	"18.432"	"72.596"	"24.261"	"1.65"	"20.962"	"160.1"	"347.078"	"212.725"	"187.481"	"120.079"	"0.866"	"0.087"
"1907"	"0"	"42.6"	"29.218"	"33.399"	"20.168"	"252.518"	"187.567"	"239.814"	"198.488"	"22.548"	"0"	"1.919"
"1908"	"11.896"	"44.676"	"6.511"	"1.449"	"14.64"	"158.814"	"291.625"	"254.245"	"119.73"	"76.728"	"0"	"0.564"
"1909"	"8.226"	"5.756"	"0"	"42.691"	"12.203"	"243.992"	"278.622"	"414.633"	"196.844"	"12.284"	"0.463"	"3.58"
"1910"	"2.699"	"19.093"	"20.663"	"16.343"	"17.223"	"183.885"	"326.517"	"322.009"	"208.356"	"61.361"	"5.553"	"0"
"1911"	"5.237"	"0.2"	"23.217"	"2.243"	"22.604"	"430.656"	"180.093"	"261.423"	"276.521"	"116.933"	"15.897"	"0"
"1912"	"2.082"	"6.025"	"6.12"	"21.651"	"36.406"	"133.318"	"319.339"	"276.049"	"56.399"	"26.842"	"10.673"	"0"
"1913"	"0"	"45.755"	"35.027"	"0.873"	"54.482"	"429.067"	"190.631"	"322.259"	"187.068"	"75.556"	"1.769"	"13.318"
"1914"	"0"	"29.038"	"18.528"	"27.686"	"55.559"	"75.748"	"351.881"	"348.247"	"114.898"	"23.278"	"0"	"4.288"
"1915"	"2.266"	"41.341"	"14.653"	"4.853"	"33.414"	"169.424"	"262.534"	"263.987"	"247.304"	"50.007"	"13.544"	"0"
"1916"	"0"	"15.142"	"2.648"	"7.224"	"8.051"	"253.043"	"331.789"	"276.979"	"229.713"	"210.685"	"2.557"	"0"
"1917"	"1.878"	"26.344"	"5.963"	"6.789"	"67.718"	"165.912"	"287.702"	"274.915"	"242.977"	"235.464"	"0.929"	"0.005"
"1918"	"1.231"	"0.203"	"7.39"	"8.934"	"32.892"	"226.058"	"156.068"	"438.944"	"206.414"	"12.118"	"0"	"1.568"
"1919"	"27.93"	"12.496"	"14.397"	"10.666"	"58.5"	"160.12"	"288.637"	"397.084"	"195.635"	"132.7"	"4.691"	"0"
"1920"	"0"	"32.128"	"34.257"	"3.626"	"26.257"	"83.538"	"457.666"	"281.817"	"258.539"	"13.575"	"0"	"0"
"1921"	"32.207"	"4.651"	"4.275"	"4.561"	"10.269"	"199.345"	"284.801"	"404.024"	"150.098"	"20.045"	"0"	"0"
"1922"	"11.757"	"8.131"	"0.313"	"5.992"	"7.356"	"414.716"	"360.641"	"306.639"	"318.445"	"66.859"	"1.221"	"8.305"
"1923"	"0.443"	"56.86"	"0.539"	"2.241"	"9.468"	"118.774"	"247.212"	"392.43"	"188.825"	"39.278"	"2.453"	"0.652"
"1924"	"6.083"	"10.903"	"1.131"	"19.245"	"19.256"	"174.482"	"353.873"	"268.471"	"251.083"	"91.574"	"31.006"	"0"
"1925"	"30.618"	"6.855"	"5.792"	"18"	"28.727"	"151.918"	"365.926"	"362.5"	"198.177"	"22"	"3.98"	"0"
"1926"	"25.414"	"0.264"	"52.309"	"7.695"	"79.537"	"46.439"	"443.906"	"297.363"	"229.931"	"51.368"	"0.641"	"4.91"
"1927"	"21.857"	"61.847"	"39.717"	"1.651"	"27.304"	"128.344"	"280.232"	"319.464"	"124.04"	"47.735"	"21.034"	"0"
"1928"	"38.204"	"9.485"	"1.413"	"12.601"	"43.79"	"255.224"	"433.433"	"173.606"	"205.341"	"156.556"	"0"	"1.294"
"1929"	"26.262"	"2.609"	"6.354"	"7.945"	"28.877"	"164.885"	"355.193"	"227.506"	"67.102"	"278.22"	"0"	"7.801"
"1930"	"8.374"	"8.131"	"4.812"	"7.091"	"18.659"	"108.23"	"310.529"	"211.849"	"208.219"	"45.271"	"13.427"	"7.427"
"1931"	"9.038"	"55.985"	"18.157"	"1.071"	"16.282"	"90.402"	"486.407"	"264.89"	"346.66"	"59.9"	"9.232"	"0.853"
"1932"	"0"	"27.831"	"2.554"	"7.126"	"42.184"	"115.561"	"297.001"	"286.941"	"210.272"	"38.956"	"23.563"	"5.594"
"1933"	"39.29"	"19.406"	"2.318"	"26.241"	"41.632"	"181.058"	"369.726"	"382.544"	"155.609"	"78.303"	"0"	"0"
"1934"	"20.361"	"24.96"	"0.916"	"15.527"	"16.768"	"174.044"	"294.256"	"348.553"	"255.282"	"54.043"	"5.896"	"1.042"
"1935"	"9.232"	"15.568"	"3.836"	"11.22"	"10.367"	"150.702"	"221.083"	"507.257"	"248.315"	"14.967"	"0"	"0.653"
"1936"	"5.172"	"5.811"	"15.668"	"5.224"	"76.034"	"208.117"	"377.163"	"255.22"	"391.828"	"134.004"	"0.1"	"14.441"
"1937"	"0"	"41.77"	"4.526"	"28.689"	"27.305"	"121.685"	"191.062"	"338.283"	"254.859"	"145.203"	"0.364"	"0.284"
"1938"	"5.497"	"20.953"	"4.271"	"3.911"	"57.851"	"327.839"	"228.113"	"270.365"	"171.114"	"52.244"	"0.281"	"0"
"1939"	"6.291"	"25.495"	"10.267"	"6.762"	"14.956"	"183.954"	"427.473"	"255.617"	"291.218"	"80.058"	"0.845"	"0.001"
"1940"	"0"	"42.355"	"52.653"	"6.865"	"23.696"	"98.347"	"355.782"	"334.81"	"143.948"	"24.822"	"0"	"3.253"
"1941"	"23.062"	"4.702"	"11.316"	"5.123"	"28.786"	"213.916"	"287.222"	"334.065"	"242.55"	"85.662"	"8.597"	"0"
"1942"	"20.121"	"51.62"	"14.878"	"9.936"	"7.229"	"133.388"	"327.556"	"455.606"	"400.735"	"16.667"	"0.745"	"0.564"
"1943"	"29.044"	"14.98"	"9.629"	"38.943"	"43.291"	"122.489"	"472.146"	"419.808"	"242.08"	"54.486"	"0"	"0"
"1944"	"21.004"	"40.123"	"55.403"	"12.523"	"20.393"	"190.49"	"301.211"	"435.672"	"152.002"	"84.697"	"0"	"0"
"1945"	"48.936"	"26.518"	"2.354"	"7.804"	"36.661"	"160.735"	"245.709"	"194.627"	"305.937"	"160.691"	"0"	"1.294"
"1946"	"0"	"15.018"	"19.742"	"18.725"	"41.609"	"149.453"	"376.265"	"349.845"	"304.581"	"121.825"	"15.557"	"0.065"
"1947"	"18.449"	"8.552"	"19.518"	"2"	"17.614"	"115.373"	"373.701"	"218.986"	"348.182"	"70.149"	"0"	"1.68"
"1948"	"7.11"	"10.244"	"7.113"	"22.191"	"42.885"	"141.178"	"352.07"	"252.461"	"296.601"	"87.828"	"15.032"	"0.065"
"1949"	"3.06"	"39.569"	"10.932"	"8.879"	"66.367"	"271.481"	"349.391"	"430.857"	"151.44"	"100.278"	"0"	"0"
"1950"	"1.528"	"10.097"	"44.758"	"2.85"	"4.847"	"280.347"	"278.705"	"338.022"	"148.87"	"39.231"	"2.538"	"0.851"
"1951"	"5.066"	"0.648"	"39.884"	"17.463"	"9.85"	"133.954"	"452.786"	"291.54"	"274.632"	"90.88"	"17.023"	"0"
"1952"	"0.04"	"13.358"	"25.851"	"12.025"	"13.639"	"293.1"	"247.131"	"254.955"	"242.171"	"78.556"	"8.961"	"0.289"
"1953"	"57.842"	"6.72"	"5.699"	"5.11"	"9.48"	"175.614"	"407.373"	"292.942"	"277.105"	"5.457"	"0.281"	"0"
"1954"	"14.411"	"9.783"	"2.124"	"2.243"	"22.642"	"164.105"	"286.55"	"265.709"	"270.663"	"45.791"	"0"	"2.609"
"1955"	"20.433"	"12.546"	"2.055"	"6.727"	"6.517"	"148.236"	"445.633"	"143.234"	"122.976"	"94.61"	"7.772"	"0.955"
"1956"	"15.481"	"21.642"	"9.288"	"16.112"	"90.436"	"278.771"	"197.998"	"336.789"	"378.696"	"96.369"	"26.603"	"5.569"
"1957"	"10.465"	"7.092"	"11.498"	"0.54"	"10.666"	"125.286"	"314.128"	"174.448"	"188.627"	"26.376"	"0"	"1.254"
"1958"	"20.284"	"15.372"	"17.951"	"15.04"	"10.429"	"155.632"	"305.552"	"342.74"	"241.93"	"162.575"	"0.565"	"0"
"1959"	"52.179"	"0.384"	"1.717"	"1.017"	"25.64"	"131.352"	"239.422"	"279.223"	"310.869"	"224.739"	"0"	"0.247"
"1960"	"0.443"	"0.2"	"27.918"	"4.972"	"8.396"	"103.638"	"264.383"	"298.995"	"209.885"	"49.095"	"0.463"	"0"
"1961"	"13.788"	"60.539"	"1.093"	"0.003"	"14.697"	"200.005"	"201.937"	"303.768"	"261.814"	"96.766"	"1.633"	"4.83"
"1962"	"18.874"	"13.348"	"4.479"	"3.635"	"14.911"	"133.723"	"219.982"	"319.298"	"256.829"	"36.201"	"0"	"3.004"
"1963"	"3.597"	"2.426"	"37.394"	"13.404"	"78.647"	"189.647"	"308.736"	"237.453"	"204.012"	"152.104"	"11.947"	"0"
"1964"	"0.04"	"2.161"	"5.762"	"19.81"	"23.192"	"153.609"	"309.338"	"337.202"	"190.449"	"56.172"	"5.502"	"0"
"1965"	"1.001"	"6.693"	"9.813"	"25.917"	"19.93"	"71.063"	"288.473"	"213.059"	"173.571"	"35.569"	"3.586"	"1.495"
"1966"	"41.619"	"12.773"	"0.001"	"1.484"	"9.009"	"105.15"	"132.703"	"222.662"	"102.959"	"13.347"	"27.27"	"11.54"
"1967"	"10.039"	"0.485"	"42.885"	"17.316"	"12.075"	"88.559"	"274.211"	"389.804"	"142.089"	"22.32"	"0"	"1.134"
"1968"	"25.853"	"3.324"	"3.664"	"4.967"	"4.83"	"248.54"	"307.526"	"281.733"	"85.614"	"110.891"	"4.006"	"4.13"
"1969"	"4.041"	"14.442"	"7.39"	"12.65"	"57.293"	"184.016"	"312.004"	"317.359"	"208.475"	"31.25"	"13.91"	"0"
"1970"	"13.737"	"12.973"	"8.794"	"0.972"	"27.259"	"211.99"	"334.222"	"223.094"	"302.499"	"91.886"	"2.518"	"0"
"1971"	"24.449"	"17.779"	"6.322"	"43.658"	"72.474"	"369.916"	"377.273"	"384.206"	"169.25"	"122.69"	"1.575"	"0"
"1972"	"7.418"	"50.47"	"0.983"	"21.733"	"9.728"	"40.323"	"152.119"	"242.589"	"231.331"	"132.162"	"10.193"	"0.608"
"1973"	"39.712"	"4.601"	"6.631"	"1.647"	"22.7"	"263.868"	"274.338"	"302.581"	"278.469"	"268.4"	"16.819"	"2.543"
"1974"	"5.825"	"2.061"	"12.399"	"7.321"	"33.773"	"129.043"	"400.274"	"227.394"	"194.156"	"99.259"	"4.625"	"0.945"
"1975"	"46.84"	"7.906"	"13.084"	"3.811"	"35.698"	"80.635"	"336.646"	"93.034"	"265.726"	"62.324"	"2.077"	"0"
"1976"	"4.227"	"22.341"	"0.419"	"24.799"	"29.726"	"101.422"	"285.947"	"280.54"	"340.398"	"4.838"	"0.004"	"0"
"1977"	"2.308"	"13.776"	"0.958"	"35.928"	"115.327"	"171.512"	"475.764"	"220.439"	"186.605"	"96.328"	"23.716"	"12.559"
"1978"	"7.906"	"54.191"	"37.609"	"35.697"	"28.479"	"208.44"	"283.863"	"248.059"	"387.22"	"89.295"	"10.976"	"8.78"
"1979"	"27.034"	"21.127"	"0.337"	"17.391"	"8.084"	"76.25"	"360.821"	"230.129"	"146.631"	"82.283"	"12.783"	"14.928"
"1980"	"17.557"	"6.287"	"24.573"	"0.684"	"40.271"	"236.189"	"288.988"	"222.684"	"116.583"	"26.355"	"4.442"	"0.608"
"1981"	"16.305"	"6.648"	"27.907"	"16.557"	"45.731"	"83.516"	"353.668"	"165.9"	"152.958"	"0.781"	"4.388"	"5.745"
"1982"	"14.776"	"11.515"	"31.664"	"20.481"	"35.12"	"103.638"	"174.939"	"212.08"	"295.218"	"31.775"	"9.229"	"1.135"
"1983"	"17.914"	"8.292"	"8.617"	"17.032"	"66.737"	"148.296"	"380.452"	"177.536"	"135.341"	"107.822"	"0"	"5.24"
"1984"	"30.34"	"21.287"	"3.94"	"19.075"	"21.555"	"303.197"	"343.01"	"213.25"	"447.069"	"41.513"	"0"	"0"
"1985"	"12.45"	"7.02"	"1.24"	"3.57"	"26.13"	"82.751"	"376.953"	"177.237"	"172.555"	"84.382"	"1.056"	"13.731"
"1986"	"7.229"	"16.737"	"0.823"	"18.871"	"41.235"	"148.653"	"259.312"	"246.492"	"184.463"	"36.663"	"10.72"	"6.251"
"1987"	"0.963"	"8.68"	"12.98"	"7.59"	"28.839"	"153.614"	"250.883"	"504.497"	"441.809"	"149.18"	"9.694"	"1.846"
"1988"	"7.63"	"25.345"	"27.3"	"9.611"	"39.131"	"147.627"	"207.144"	"371.793"	"164.108"	"37.46"	"6.806"	"3.02"
"1989"	"7.889"	"9.727"	"5.33"	"0.477"	"59.654"	"217.132"	"231.063"	"255.134"	"253.351"	"58.18"	"9.111"	"11.042"
"1990"	"0"	"17.991"	"11.034"	"10.088"	"82.437"	"185.449"	"349.308"	"258.861"	"232.14"	"102.638"	"0.866"	"0.004"
"1991"	"10.944"	"2.73"	"27.79"	"9.096"	"26.871"	"99.831"	"198.166"	"466.408"	"192.251"	"41.622"	"1.106"	"7.119"
"1992"	"16.616"	"4.726"	"1.539"	"5.1"	"20.657"	"69.779"	"244.79"	"166.507"	"131.901"	"56.195"	"0.039"	"0"
"1993"	"7.781"	"0.201"	"15.219"	"6.733"	"37.975"	"68.12"	"136.266"	"222.169"	"281.526"	"83.745"	"2.952"	"0"
"1994"	"47.441"	"12.334"	"18.692"	"20.061"	"14.743"	"81.336"	"218.321"	"314.229"	"63.693"	"135.811"	"0.564"	"0"
"1995"	"14.112"	"19.254"	"16.588"	"4.262"	"27.703"	"42.771"	"199.907"	"199.718"	"257.339"	"16.889"	"13.63"	"0"
"1996"	"21.114"	"11.944"	"2.261"	"8.255"	"19.982"	"90.023"	"158.662"	"321.541"	"146.107"	"146.792"	"0"	"0"
"1997"	"19.743"	"10.232"	"7.993"	"7.319"	"84.648"	"38.959"	"182.414"	"315.136"	"164.852"	"48.149"	"19.047"	"11.071"
"1998"	"8.259"	"24.179"	"8.623"	"12.722"	"85.221"	"35.988"	"175.395"	"241.65"	"192.775"	"226.387"	"15.636"	"0"
"1999"	"17.079"	"7.073"	"0.877"	"0.33"	"44.457"	"116.187"	"263.554"	"267.816"	"151.094"	"42.21"	"1.678"	"0"
"2000"	"10.278"	"15.698"	"5.73"	"12.246"	"19.803"	"151.05"	"107.816"	"162.346"	"259.353"	"5.761"	"0.008"	"0.009"
"2001"	"2.248"	"2.264"	"27.354"	"12.34"	"29.497"	"48.107"	"209.45"	"253.151"	"77.299"	"104.136"	"0.618"	"0"
"2002"	"22.113"	"7.426"	"7.114"	"11.093"	"17.909"	"64.412"	"162.622"	"260.996"	"185.504"	"116.216"	"12.348"	"0"
