
"Year"	"Jan"	"Feb"	"Mar"	"Apr"	"May"	"Jun"	"Jul"	"Aug"	"Sep"	"Oct"	"Nov"	"Dec"
"1901"	"15.108"	"18.991"	"24.242"	"30.412"	"31.448"	"32.024"	"28.986"	"28.209"	"27.885"	"26.57"	"21.033"	"16.682"
"1902"	"17.106"	"19.127"	"26.088"	"28.814"	"31.312"	"31.368"	"28.29"	"28.667"	"27.907"	"25.375"	"20.534"	"15.923"
"1903"	"16.348"	"18.327"	"24.268"	"30.256"	"32.987"	"30.745"	"29.667"	"28.35"	"28.129"	"25.594"	"20.033"	"15.802"
"1904"	"16.128"	"18.808"	"24.965"	"31.152"	"30.569"	"29.881"	"27.745"	"27.926"	"27.907"	"25.573"	"20.136"	"17.107"
"1905"	"15.293"	"15.335"	"22.292"	"26.973"	"30.01"	"32.67"	"28.367"	"27.753"	"27.528"	"25.751"	"20.835"	"16.445"
"1906"	"15.726"	"18.268"	"22.408"	"30.631"	"32.389"	"31.205"	"28.748"	"27.949"	"28.309"	"25.593"	"20.955"	"17.024"
"1907"	"17.207"	"18.207"	"21.992"	"27.373"	"31.026"	"31.059"	"28.809"	"28.506"	"28.226"	"25.99"	"20.556"	"16.181"
"1908"	"14.69"	"18.651"	"24.923"	"32.43"	"32.45"	"31.164"	"28.489"	"28.543"	"28.23"	"26.15"	"20.235"	"15.703"
"1909"	"17.251"	"18.831"	"25.898"	"27.872"	"32.329"	"29.538"	"28.525"	"27.666"	"28.207"	"25.848"	"21.039"	"17.025"
"1910"	"15.609"	"18.629"	"24.863"	"30.354"	"31.668"	"30.081"	"28.17"	"28.145"	"28.209"	"25.495"	"20.057"	"15.922"
"1911"	"17.772"	"18.13"	"23.268"	"29.772"	"32.667"	"29.839"	"29.588"	"27.907"	"27.609"	"25.493"	"20.544"	"15.425"
"1912"	"16.311"	"19.831"	"24.466"	"28.317"	"30.891"	"31.345"	"28.29"	"28.127"	"27.907"	"25.674"	"19.778"	"15.904"
"1913"	"15.929"	"18.731"	"22.766"	"31.331"	"30.448"	"28.54"	"28.647"	"27.747"	"28.203"	"25.092"	"19.656"	"15.924"
"1914"	"16.348"	"19.169"	"23.846"	"27.695"	"30.546"	"29.904"	"28.187"	"27.968"	"27.907"	"24.576"	"20.701"	"17.003"
"1915"	"16.81"	"18.833"	"23.588"	"29.675"	"31.73"	"30.266"	"29.567"	"28.73"	"28.108"	"27.272"	"22.536"	"16.584"
"1916"	"15.77"	"19.133"	"26.458"	"30.296"	"34.386"	"29.538"	"28.549"	"28.128"	"28.108"	"25.994"	"20.775"	"15.584"
"1917"	"15.729"	"18.652"	"23.566"	"28.636"	"29.127"	"29.861"	"28.547"	"28.125"	"27.611"	"25.495"	"20.512"	"16.223"
"1918"	"15.03"	"18.732"	"25.243"	"28.576"	"30.988"	"28.936"	"29.949"	"27.427"	"28.305"	"25.831"	"20.715"	"15.908"
"1919"	"17.373"	"17.932"	"25.327"	"28.955"	"31.608"	"30.26"	"28.624"	"28.308"	"27.808"	"25.472"	"20.857"	"16.304"
"1920"	"16.471"	"18.75"	"23.71"	"29.954"	"31.369"	"32.088"	"28.825"	"28.227"	"27.907"	"26.173"	"21.157"	"16.701"
"1921"	"16.93"	"18.708"	"26.003"	"30.974"	"34.248"	"31.362"	"28.968"	"27.905"	"27.808"	"24.873"	"20.014"	"16.433"
"1922"	"16.471"	"19.528"	"25.74"	"30.891"	"33.426"	"29.357"	"28.504"	"27.607"	"27.388"	"24.631"	"20.513"	"16.381"
"1923"	"16.29"	"18.611"	"24.62"	"30.751"	"32.55"	"32.325"	"28.627"	"28.204"	"28.208"	"25.153"	"20.634"	"17.11"
"1924"	"16.213"	"19.131"	"26.544"	"31.053"	"32.412"	"33.103"	"28.525"	"28.228"	"27.409"	"25.97"	"20.457"	"16.721"
"1925"	"14.911"	"17.452"	"24.362"	"29.112"	"31.327"	"30.362"	"28.123"	"28.231"	"27.911"	"25.195"	"20.46"	"16.207"
"1926"	"16.129"	"19.531"	"23.47"	"28.093"	"31.387"	"33.964"	"28.77"	"28.228"	"27.886"	"25.453"	"19.615"	"16.867"
"1927"	"15.995"	"18.832"	"22.864"	"30.311"	"30.829"	"31.705"	"28.768"	"28.028"	"28.33"	"26.055"	"21.118"	"17.308"
"1928"	"16.115"	"19.131"	"25.844"	"29.613"	"32.145"	"29.88"	"28.345"	"28.627"	"28.826"	"26.393"	"20.778"	"17.143"
"1929"	"16.229"	"18.028"	"24.983"	"29.676"	"33.228"	"32.144"	"28.345"	"27.806"	"28.131"	"24.874"	"20.356"	"16.041"
"1930"	"15.33"	"18.41"	"25.162"	"29.632"	"31.904"	"31.205"	"28.326"	"28.027"	"28.128"	"25.995"	"20.259"	"16.024"
"1931"	"17.349"	"18.63"	"24.243"	"30.654"	"31.87"	"32.185"	"28.646"	"28.625"	"28.41"	"26.254"	"20.556"	"17.104"
"1932"	"17.329"	"18.231"	"25.163"	"29.654"	"32.488"	"32.024"	"29.145"	"28.327"	"28.688"	"26.273"	"21.035"	"16.688"
"1933"	"14.832"	"19.529"	"24.885"	"27.853"	"31.647"	"30.16"	"28.267"	"27.645"	"27.947"	"25.573"	"20.533"	"16.703"
"1934"	"15.726"	"18.628"	"24.267"	"30.153"	"32.329"	"30.424"	"28.647"	"28.227"	"28.227"	"25.172"	"20.175"	"17.105"
"1935"	"15.49"	"19.328"	"25.044"	"28.415"	"32.531"	"31.605"	"29.326"	"27.546"	"28.068"	"25.553"	"20.835"	"16.845"
"1936"	"15.409"	"19.106"	"25.167"	"29.254"	"31.647"	"29.74"	"28.526"	"28.409"	"27.807"	"24.953"	"21.337"	"17.108"
"1937"	"14.688"	"18.968"	"23.563"	"29.293"	"31.327"	"31.778"	"29.225"	"27.828"	"28.487"	"24.893"	"20.638"	"15.883"
"1938"	"17.213"	"17.711"	"26.167"	"30.735"	"31.245"	"29.84"	"28.729"	"27.926"	"28.688"	"26.174"	"20.239"	"16.381"
"1939"	"17.011"	"19.831"	"23.666"	"30.313"	"32.568"	"30.784"	"28.824"	"27.823"	"28.067"	"25.773"	"20.814"	"17.084"
"1940"	"15.969"	"19.109"	"22.967"	"29.035"	"32.226"	"31.603"	"28.724"	"28.208"	"28.07"	"26.452"	"21.662"	"17.308"
"1941"	"16.514"	"19.527"	"26.582"	"31.49"	"31.671"	"30.78"	"29.26"	"28.014"	"28.191"	"25.589"	"20.935"	"17.803"
"1942"	"16.157"	"18.895"	"25.243"	"29.654"	"33.563"	"32.386"	"29.021"	"27.744"	"27.19"	"25.554"	"22.037"	"16.826"
"1943"	"18.028"	"17.928"	"25.26"	"27.876"	"32.566"	"31.196"	"28.545"	"27.59"	"28.109"	"26.178"	"21.041"	"18.182"
"1944"	"16.276"	"18.897"	"23.927"	"27.553"	"33.71"	"31.666"	"28.641"	"28.007"	"29.137"	"25.236"	"20.841"	"18.111"
"1945"	"15.674"	"17.812"	"25.246"	"28.332"	"31.448"	"31.899"	"29.638"	"28.651"	"28.073"	"24.756"	"20.338"	"15.884"
"1946"	"16.788"	"20.891"	"24.845"	"27.43"	"30.554"	"30.758"	"28.441"	"28.424"	"27.889"	"25.376"	"20.828"	"17.848"
"1947"	"16.591"	"19.29"	"25.661"	"31.052"	"32.053"	"32.281"	"28.747"	"28.345"	"28.109"	"25.672"	"21.142"	"17.606"
"1948"	"17.497"	"19.628"	"24.638"	"30.592"	"31.987"	"32.51"	"28.045"	"27.961"	"27.888"	"25.358"	"21.162"	"16.32"
"1949"	"17.008"	"18.433"	"24.63"	"27.918"	"29.591"	"31.009"	"28.448"	"28.229"	"27.907"	"26.256"	"19.914"	"15.356"
"1950"	"16.641"	"18.452"	"23.946"	"29.614"	"32.23"	"30.36"	"28.822"	"27.727"	"27.771"	"25.571"	"19.741"	"16.689"
"1951"	"15.773"	"19.13"	"25.143"	"29.651"	"32.665"	"32.018"	"28.548"	"29.126"	"28.391"	"27.094"	"21.557"	"17.308"
"1952"	"17.628"	"20.987"	"24.356"	"29.039"	"31.808"	"31.184"	"28.785"	"28.064"	"27.531"	"25.973"	"20.839"	"16.813"
"1953"	"16.033"	"20.352"	"27.287"	"30.176"	"32.571"	"30.709"	"28.164"	"28.261"	"27.609"	"25.575"	"20.536"	"18.739"
"1954"	"15.312"	"20.85"	"24.648"	"31.932"	"32.651"	"30.733"	"28.504"	"28.183"	"28.104"	"24.373"	"19.137"	"16.906"
"1955"	"16.63"	"19.033"	"26.485"	"29.153"	"32.851"	"31.128"	"27.75"	"27.946"	"27.891"	"25.56"	"21.02"	"16.63"
"1956"	"16.238"	"19.127"	"25.471"	"30.892"	"32.468"	"28.759"	"28.559"	"28.14"	"27.091"	"25.551"	"20.02"	"17.631"
"1957"	"16.359"	"18.231"	"24.163"	"30.27"	"34.408"	"32.122"	"28.742"	"28.643"	"28.6"	"26.409"	"20.957"	"18.006"
"1958"	"17.813"	"19.77"	"25.988"	"31.158"	"34.111"	"33.606"	"29.743"	"27.831"	"28.07"	"26.54"	"21.874"	"18.01"
"1959"	"16.305"	"18.479"	"24.786"	"30.473"	"32.554"	"31.499"	"29.142"	"28.505"	"27.689"	"25.564"	"20.757"	"17.103"
"1960"	"17.276"	"20.443"	"23.688"	"31.227"	"32.804"	"32.136"	"28.462"	"28.82"	"27.907"	"26.172"	"20.333"	"17.307"
"1961"	"17.309"	"17.946"	"25.549"	"30.418"	"32.93"	"30.241"	"28.444"	"28.427"	"27.907"	"25.572"	"19.955"	"14.369"
"1962"	"14.969"	"19.371"	"24.126"	"30.116"	"31.61"	"31.083"	"29.365"	"27.83"	"27.789"	"25.031"	"20.857"	"17.111"
"1963"	"15.19"	"20.351"	"24.449"	"29.094"	"30.547"	"30.482"	"28.627"	"28.231"	"27.773"	"26.272"	"22.002"	"18.244"
"1964"	"16.311"	"19.37"	"25.946"	"30.375"	"30.648"	"31.604"	"27.487"	"28.325"	"28.068"	"26.466"	"20.917"	"17.507"
"1965"	"17.292"	"19.61"	"23.464"	"28.695"	"32.112"	"32.485"	"28.668"	"28.228"	"27.574"	"26.056"	"21.759"	"16.012"
"1966"	"16.312"	"20.634"	"25.346"	"31.059"	"33.292"	"32.144"	"29.369"	"28.032"	"28.212"	"25.797"	"22.6"	"17.106"
"1967"	"17.095"	"20.751"	"23.685"	"28.191"	"32.028"	"32.225"	"29.067"	"28.006"	"27.906"	"25.336"	"20.441"	"18.408"
"1968"	"16.312"	"18.613"	"24.746"	"29.596"	"32.575"	"29.601"	"28.246"	"28.008"	"28.809"	"25.273"	"20.954"	"18.378"
"1969"	"16.012"	"19.876"	"26.546"	"30.554"	"30.965"	"31.481"	"28.766"	"27.547"	"27.508"	"25.99"	"22.254"	"17.344"
"1970"	"16.755"	"18.93"	"24.645"	"30.773"	"32.608"	"29.96"	"28.446"	"28.226"	"27.606"	"25.967"	"20.532"	"16.302"
"1971"	"15.811"	"17.441"	"23.762"	"27.009"	"29.046"	"28.821"	"27.344"	"26.71"	"27.49"	"25.473"	"19.957"	"16.803"
"1972"	"15.791"	"16.729"	"24.464"	"29.275"	"32.81"	"31.825"	"28.849"	"28.186"	"26.444"	"24.773"	"20.394"	"16.526"
"1973"	"16.128"	"19.571"	"23.2"	"30.092"	"31.007"	"29.62"	"28.547"	"28.248"	"27.688"	"25.692"	"20.758"	"16.927"
"1974"	"15.324"	"18.429"	"24.584"	"29.893"	"31.068"	"31.322"	"28.167"	"28.03"	"27.945"	"26.691"	"20.556"	"14.925"
"1975"	"15.791"	"18.95"	"24.447"	"29.793"	"31.788"	"30.602"	"27.284"	"28.027"	"27.508"	"26.573"	"20.923"	"16.506"
"1976"	"16.509"	"19.93"	"25.047"	"29.334"	"30.586"	"31.087"	"28.749"	"27.83"	"27.49"	"26.075"	"22.379"	"17.03"
"1977"	"16.012"	"19.131"	"26.168"	"29.294"	"28.783"	"29.901"	"28.226"	"28.51"	"28.388"	"25.375"	"22.476"	"15.957"
"1978"	"15.212"	"18.533"	"23.127"	"28.495"	"31.686"	"30"	"28.247"	"28.428"	"27.726"	"25.572"	"22.057"	"17.108"
"1979"	"17.111"	"17.392"	"24.244"	"29.753"	"32.809"	"31.647"	"29.067"	"29.705"	"27.328"	"26.395"	"23.379"	"18.123"
"1980"	"16.613"	"19.369"	"24.164"	"31.171"	"31.567"	"29.979"	"28.444"	"27.827"	"27.907"	"25.594"	"21.398"	"17.687"
"1981"	"15.813"	"19.05"	"23.903"	"27.568"	"29.625"	"31.021"	"28.248"	"28.432"	"28.229"	"25.772"	"20.839"	"16.807"
"1982"	"17.654"	"18.93"	"23.002"	"29.191"	"32.629"	"30.663"	"30.551"	"28.429"	"28.592"	"25.877"	"21.555"	"16.356"
"1983"	"15.692"	"19.344"	"24.671"	"28.67"	"30.548"	"32.248"	"29.346"	"28.848"	"28.926"	"25.672"	"20.919"	"17.325"
"1984"	"16.153"	"18.048"	"25.26"	"30.575"	"32.731"	"29.455"	"28.228"	"27.909"	"27.708"	"26.65"	"20.058"	"17.506"
"1985"	"17.151"	"18.651"	"26.2"	"30.473"	"31.226"	"31.703"	"27.944"	"28.329"	"27.827"	"25.654"	"21.341"	"18.509"
"1986"	"16.593"	"19.014"	"24.183"	"29.394"	"29.985"	"31.346"	"28.324"	"27.626"	"27.212"	"24.973"	"22.074"	"17.112"
"1987"	"16.274"	"20.607"	"24.467"	"29.292"	"31.228"	"32.225"	"28.566"	"27.369"	"28.104"	"26.236"	"21.902"	"18.628"
"1988"	"17.671"	"20.031"	"24.466"	"30.155"	"32.168"	"29.861"	"28.827"	"28.334"	"29.409"	"27.195"	"21.899"	"19.151"
"1989"	"15.778"	"19.583"	"25.164"	"30.701"	"32.067"	"29.859"	"28.627"	"27.914"	"28.606"	"26.851"	"21.659"	"16.813"
"1990"	"16.541"	"19.356"	"23.382"	"29.688"	"30.128"	"30.942"	"28.206"	"28.592"	"28.69"	"25.27"	"22.239"	"17.907"
"1991"	"16.306"	"20.42"	"24.942"	"29.234"	"32.714"	"29.66"	"29.05"	"27.888"	"27.906"	"26.334"	"21.647"	"16.906"
"1992"	"14.934"	"17.316"	"25.762"	"30.335"	"30.449"	"31.028"	"29.188"	"28.231"	"28.408"	"26.471"	"22.061"	"17.146"
"1993"	"17.048"	"20.95"	"24.005"	"28.811"	"31.507"	"31.726"	"29.547"	"27.751"	"27.907"	"26.673"	"21.297"	"17.783"
"1994"	"17.613"	"18.851"	"25.501"	"28.873"	"32.032"	"30.997"	"28.706"	"28.01"	"28.185"	"26.294"	"21.878"	"17.328"
"1995"	"14.834"	"20.335"	"24.461"	"29.754"	"32.104"	"32.125"	"28.466"	"27.729"	"27.907"	"26.19"	"22.138"	"18.286"
"1996"	"16.734"	"18.808"	"25.783"	"28.65"	"32.268"	"29.861"	"28.527"	"27.131"	"28.608"	"26.072"	"21.873"	"17.597"
"1997"	"15.797"	"18.392"	"25.045"	"28.989"	"31.131"	"31.644"	"28.328"	"28.307"	"27.508"	"25.436"	"22.16"	"17.547"
"1998"	"16.128"	"19.811"	"23.184"	"29.015"	"31.768"	"32.905"	"28.508"	"28.529"	"28.49"	"28.271"	"22.438"	"18.409"
"1999"	"16.751"	"20.395"	"25.465"	"31.734"	"32.026"	"30.782"	"28.447"	"28.128"	"27.906"	"26.811"	"22.476"	"18.491"
"2000"	"17.372"	"18.796"	"24.626"	"30.492"	"31.631"	"30.641"	"29.065"	"28.33"	"27.49"	"27.112"	"23.195"	"17.723"
"2001"	"16.887"	"19.129"	"24.731"	"30.335"	"32.429"	"29.903"	"28.305"	"28.729"	"28.708"	"27.511"	"23.577"	"19.125"
"2002"	"16.312"	"20.331"	"25.682"	"29.792"	"32.45"	"31.7"	"29.849"	"28.11"	"28.072"	"26.173"	"21.937"	"18.626"
