
"Year"	"Jan"	"Feb"	"Mar"	"Apr"	"May"	"Jun"	"Jul"	"Aug"	"Sep"	"Oct"	"Nov"	"Dec"
"1901"	"27.991"	"2.428"	"16.124"	"37.647"	"46.328"	"188.878"	"175.092"	"138.084"	"102.949"	"35.361"	"0.612"	"0"
"1902"	"0"	"0"	"2.349"	"29.449"	"2.492"	"46.72"	"63.408"	"79.694"	"339.679"	"72.383"	"22.824"	"20.967"
"1903"	"3.955"	"0.168"	"0"	"1.355"	"67.472"	"105.433"	"228.444"	"206.334"	"321.717"	"193.949"	"11.635"	"13.468"
"1904"	"0"	"0.005"	"22.7"	"0.08"	"9.793"	"84.811"	"59.227"	"51.387"	"406.302"	"67.977"	"0.252"	"0"
"1905"	"0"	"8.859"	"0.215"	"37.899"	"14.547"	"106.805"	"27.526"	"120.324"	"198.545"	"46.65"	"0.252"	"0"
"1906"	"26.42"	"0"	"1.154"	"0.096"	"3.974"	"240.589"	"216.379"	"202.038"	"89.755"	"39.89"	"13.644"	"17.992"
"1907"	"0.3"	"1.001"	"1.5"	"65.08"	"0.278"	"101.401"	"185.605"	"158.795"	"71.246"	"1.063"	"2.573"	"2.604"
"1908"	"0"	"2.773"	"18.549"	"1.352"	"8.481"	"84.502"	"109.881"	"108.058"	"453.894"	"1.696"	"0.252"	"0"
"1909"	"2.203"	"1.168"	"29.893"	"15.417"	"27.429"	"199.719"	"203.818"	"154.717"	"271.77"	"3.758"	"0.261"	"4.356"
"1910"	"0"	"0"	"4.932"	"0.032"	"12.708"	"168.328"	"97.206"	"157.569"	"445.209"	"47.307"	"25.344"	"0"
"1911"	"0.031"	"0"	"0.49"	"0.212"	"9.561"	"98.367"	"240.148"	"163.337"	"137.779"	"2.603"	"12.935"	"1.954"
"1912"	"0"	"20.546"	"0"	"25.643"	"12.774"	"55.886"	"199.954"	"156.298"	"51.749"	"51.615"	"23.497"	"0"
"1913"	"0"	"2.4"	"0"	"6.081"	"51.359"	"163.701"	"162.142"	"25.802"	"81.964"	"38.699"	"0.303"	"7.278"
"1914"	"0"	"1.82"	"0.456"	"1.656"	"10.428"	"186.338"	"171.38"	"197.025"	"284.338"	"9.994"	"23.913"	"8.668"
"1915"	"20.082"	"1.154"	"24.843"	"35.292"	"8.128"	"145.08"	"140.998"	"63.924"	"295.329"	"103.446"	"5.373"	"0.567"
"1916"	"0"	"3.072"	"10.091"	"3.022"	"70.414"	"192.524"	"236.71"	"137.636"	"429.311"	"119.241"	"97.698"	"0"
"1917"	"0.011"	"26.137"	"11.536"	"12.694"	"33.733"	"132.763"	"96.239"	"229.812"	"337.181"	"194.315"	"89.762"	"0"
"1918"	"1.291"	"0.266"	"0.005"	"2.105"	"130.715"	"58.681"	"52.11"	"91.467"	"180.669"	"4.014"	"13.361"	"11.26"
"1919"	"5.219"	"0.102"	"0.101"	"4.344"	"29.329"	"200.911"	"106.734"	"86.905"	"250.152"	"28.288"	"33.211"	"3.843"
"1920"	"21.615"	"0"	"0.092"	"9.433"	"14.121"	"81.838"	"80.751"	"71.301"	"221.855"	"23.585"	"0.252"	"0"
"1921"	"0.335"	"0"	"0.671"	"7.359"	"0.35"	"99.544"	"190.642"	"81.136"	"124.637"	"41.637"	"44.995"	"0"
"1922"	"13.729"	"0.94"	"0"	"4.092"	"28.707"	"159.697"	"105.473"	"40.692"	"146.538"	"72.391"	"54.812"	"0"
"1923"	"0.065"	"3.204"	"23.253"	"24.555"	"3.168"	"28.812"	"227.158"	"68.822"	"256.519"	"5.933"	"0.252"	"0.007"
"1924"	"1.802"	"0"	"2.687"	"25.06"	"1.184"	"47.824"	"68.312"	"139.394"	"233.557"	"43.895"	"19.295"	"23.604"
"1925"	"0"	"0"	"1.379"	"0.289"	"51.948"	"85.687"	"68.789"	"196.182"	"157.551"	"83.996"	"25.918"	"0.088"
"1926"	"42.361"	"0.084"	"2.258"	"11.459"	"34.659"	"40.841"	"66.302"	"245.129"	"343.614"	"1.124"	"6.107"	"1.617"
"1927"	"0"	"0.737"	"4.438"	"31.05"	"4.659"	"140.335"	"119.71"	"61.25"	"229.892"	"47.682"	"82.507"	"0"
"1928"	"0"	"33.173"	"8.02"	"12.929"	"1.389"	"192.634"	"182.189"	"102.827"	"329.113"	"87.341"	"0.252"	"5.049"
"1929"	"0"	"41.606"	"0.594"	"34.411"	"10.304"	"164.94"	"87.251"	"46.144"	"201.193"	"25.062"	"0.273"	"9.613"
"1930"	"0"	"0.484"	"12.43"	"3.213"	"17.14"	"105.356"	"60.131"	"93.142"	"323.342"	"92.053"	"27.736"	"1.035"
"1931"	"0.013"	"0"	"20.608"	"26.199"	"13.432"	"103.95"	"179.001"	"77.691"	"238.277"	"141.112"	"113.832"	"12.572"
"1932"	"0"	"1.355"	"27.193"	"9.156"	"41.973"	"59.88"	"220.234"	"96.763"	"197.107"	"77.783"	"41.95"	"0"
"1933"	"0.665"	"3.873"	"28.531"	"47.809"	"72.498"	"157.321"	"122.551"	"136.302"	"288.653"	"50.995"	"40.872"	"19.578"
"1934"	"15.318"	"0"	"0.479"	"44.215"	"2.009"	"67.452"	"234.616"	"302.684"	"178.339"	"27.579"	"47.622"	"0"
"1935"	"4.458"	"0.042"	"0"	"21.545"	"2.153"	"206.376"	"102.983"	"173.837"	"276.961"	"142.54"	"0.904"	"1.52"
"1936"	"0"	"34.357"	"4.928"	"11.508"	"36.893"	"60.172"	"81.456"	"71.906"	"188.682"	"14.648"	"66.683"	"2.773"
"1937"	"0"	"13.022"	"30.405"	"53.013"	"3.282"	"56.93"	"294.601"	"28.067"	"124.11"	"72.639"	"0.252"	"13.255"
"1938"	"0"	"4.847"	"7.616"	"19.422"	"23.979"	"277.936"	"215.469"	"211.034"	"191.415"	"31.832"	"0.252"	"1.021"
"1939"	"0"	"0"	"3.888"	"4.358"	"1.776"	"103.042"	"135.593"	"90.6"	"146.645"	"22.867"	"16.946"	"1.256"
"1940"	"0"	"0"	"0"	"34.922"	"26.706"	"163.569"	"106.579"	"177.075"	"94.531"	"93.491"	"14.141"	"5.317"
"1941"	"16.595"	"8.927"	"2.334"	"1.158"	"2.891"	"49.85"	"84.106"	"115.833"	"322"	"14.783"	"0.252"	"0"
"1942"	"0"	"5.176"	"0.354"	"30.877"	"12.983"	"153.75"	"105.135"	"197.257"	"123.079"	"9.748"	"0.352"	"17.913"
"1943"	"4.429"	"0.112"	"1.594"	"5.226"	"41.801"	"211.205"	"95.997"	"69.106"	"372.307"	"208.072"	"0.799"	"0"
"1944"	"0"	"14.199"	"44.402"	"1.442"	"15.718"	"89.79"	"193.903"	"56.216"	"163.808"	"87.132"	"15.897"	"0"
"1945"	"0.217"	"0"	"0"	"18.066"	"3.075"	"109.788"	"149.399"	"190.047"	"142.436"	"73.571"	"1.833"	"0.35"
"1946"	"0"	"9.813"	"2.806"	"17.573"	"37.064"	"155.569"	"123.069"	"88.205"	"192.974"	"26.956"	"51.461"	"2.256"
"1947"	"30.879"	"8.424"	"3.463"	"6.647"	"7.594"	"113.718"	"143.691"	"272.574"	"260.948"	"12.287"	"3.568"	"8.615"
"1948"	"13.378"	"0"	"10.455"	"14.985"	"14.088"	"181.155"	"221.307"	"111.903"	"133.294"	"15.116"	"38.729"	"0"
"1949"	"0.797"	"2.943"	"0.186"	"1.965"	"83.509"	"171.988"	"188.39"	"80.668"	"459.573"	"63.802"	"3.483"	"0"
"1950"	"0"	"6.521"	"8.847"	"2.723"	"14.304"	"60.442"	"75.092"	"84.662"	"332.407"	"109.257"	"0.252"	"2.526"
"1951"	"1.243"	"0"	"3.704"	"8.756"	"36.049"	"170.172"	"207.975"	"74.771"	"104.606"	"91.099"	"0.484"	"0.017"
"1952"	"0"	"15.742"	"0"	"14.947"	"104.03"	"83.225"	"135.615"	"55.681"	"202.935"	"96.316"	"0.252"	"0.351"
"1953"	"0"	"0"	"0"	"33.182"	"0.278"	"198.423"	"257.145"	"89.485"	"315.503"	"118.825"	"0.252"	"0"
"1954"	"0"	"0"	"34.415"	"19.019"	"20.283"	"257.268"	"322.127"	"81.386"	"382.55"	"10.511"	"0.252"	"17.785"
"1955"	"6.33"	"0"	"4.396"	"4.745"	"44.821"	"180.183"	"234.344"	"395.31"	"215.548"	"27.309"	"5.928"	"0"
"1956"	"0"	"0"	"0"	"3.008"	"138.426"	"92.315"	"278.516"	"106.531"	"180.243"	"89.352"	"121.371"	"0.017"
"1957"	"0"	"1.577"	"24.028"	"44.599"	"36.735"	"90.494"	"168.477"	"233.383"	"81.646"	"120.877"	"0.48"	"0"
"1958"	"0"	"0"	"32.138"	"32.52"	"25.8"	"57.976"	"185.128"	"313.663"	"102.281"	"72.849"	"33.821"	"0"
"1959"	"0.302"	"0"	"0.117"	"26.186"	"20.302"	"121.449"	"185.805"	"191.026"	"270.303"	"129.602"	"12.92"	"0.201"
"1960"	"0.004"	"0"	"20.903"	"10.349"	"67.195"	"105.433"	"121.009"	"27.58"	"323.024"	"27.264"	"52.668"	"0.666"
"1961"	"0"	"0"	"2.404"	"34.598"	"126.001"	"174.739"	"220.004"	"131.181"	"66.013"	"217.193"	"34.1"	"0.904"
"1962"	"0.101"	"1.929"	"1.32"	"37.5"	"58.018"	"109.024"	"113.457"	"286.205"	"316.882"	"86.972"	"57.246"	"15.156"
"1963"	"0"	"5.253"	"16.215"	"23.023"	"26.511"	"209.793"	"133.198"	"367.777"	"95.537"	"120.212"	"0.286"	"0"
"1964"	"0.151"	"0.501"	"12.017"	"7.681"	"1.747"	"112.695"	"199.092"	"141.973"	"322.93"	"31.971"	"7.568"	"0.4"
"1965"	"0.272"	"0.082"	"0"	"2.093"	"0.966"	"116.539"	"180.015"	"133.094"	"118.691"	"2.84"	"1.85"	"12.475"
"1966"	"5.439"	"1.949"	"4.044"	"5.869"	"10.855"	"91.042"	"169.883"	"126.087"	"232.812"	"26.421"	"92.471"	"12.82"
"1967"	"1.318"	"0.705"	"3.735"	"1.509"	"45.454"	"112.012"	"281.585"	"78.833"	"142.765"	"28.162"	"2.32"	"29.748"
"1968"	"2.708"	"54.213"	"35.99"	"3.302"	"8.995"	"84.793"	"161.744"	"29.303"	"282.873"	"59.445"	"9.65"	"0.129"
"1969"	"0"	"0"	"0.804"	"4.353"	"9.161"	"94.602"	"154.272"	"120.363"	"227.808"	"25.49"	"27.642"	"0.688"
"1970"	"3.224"	"0"	"0"	"26.318"	"31.172"	"155.592"	"133.987"	"246.748"	"290.804"	"29.341"	"0.252"	"0"
"1971"	"0.168"	"0"	"0.66"	"1.926"	"31.948"	"66.813"	"36.134"	"156.611"	"201.626"	"163.633"	"0.252"	"0"
"1972"	"0"	"0.649"	"0.025"	"9.806"	"13.941"	"64.323"	"46.536"	"84.567"	"123.976"	"6.477"	"44.157"	"0.1"
"1973"	"0"	"0.092"	"0"	"3.731"	"1.903"	"120.908"	"125.96"	"311.337"	"140.32"	"198.731"	"0.493"	"0"
"1974"	"0"	"0"	"0.424"	"5.076"	"10.591"	"121.562"	"133.356"	"148.488"	"205.555"	"309.761"	"0.252"	"0"
"1975"	"5.373"	"3.417"	"8.247"	"1.251"	"9.506"	"91.383"	"178.344"	"143.016"	"320.925"	"233.602"	"0.887"	"0"
"1976"	"0"	"0"	"12.229"	"34.002"	"21.638"	"141.765"	"130.967"	"141.416"	"79.994"	"13.349"	"31.761"	"0"
"1977"	"0"	"0"	"16.56"	"5.644"	"16.452"	"116.231"	"122.293"	"100.844"	"110.673"	"85.731"	"60.889"	"0.594"
"1978"	"4.803"	"31.123"	"8.601"	"21.344"	"65.22"	"164.357"	"181.632"	"138.564"	"172.35"	"104.284"	"39.416"	"0.308"
"1979"	"0.448"	"19.442"	"11.037"	"12.728"	"45.425"	"86.188"	"146.424"	"80.607"	"341.022"	"23.132"	"119.372"	"0.224"
"1980"	"0.05"	"0"	"26.385"	"31.316"	"2.595"	"63.362"	"62.757"	"244.778"	"146.51"	"2.256"	"2.062"	"7.605"
"1981"	"12.254"	"0.009"	"20.221"	"14.14"	"33.905"	"187.013"	"77.934"	"145.412"	"333.292"	"98.774"	"5.862"	"1.075"
"1982"	"0.533"	"0.407"	"0.309"	"42.417"	"49.104"	"76.278"	"306.499"	"65.364"	"273.494"	"48.813"	"49.625"	"0"
"1983"	"0"	"0"	"0"	"0.6"	"51.663"	"109.512"	"136.203"	"214.649"	"463.36"	"157.987"	"2.89"	"21.036"
"1984"	"7.773"	"33.98"	"0.334"	"0.859"	"0.491"	"60.758"	"125.538"	"86.002"	"131.21"	"83.7"	"0.922"	"1.481"
"1985"	"3.578"	"0"	"11.46"	"10.924"	"2.331"	"138.707"	"140.222"	"95.139"	"55.918"	"125.465"	"36.768"	"2.919"
"1986"	"3.715"	"14.9"	"0"	"20.486"	"8.828"	"194.709"	"118.311"	"183.3"	"87.397"	"14.217"	"22.537"	"19.696"
"1987"	"20.37"	"9.832"	"15.877"	"3.965"	"46.877"	"103.236"	"96.212"	"173.606"	"71.655"	"149.216"	"46.496"	"12.169"
"1988"	"0"	"10.81"	"0"	"32.308"	"14.328"	"84.473"	"255.799"	"163.267"	"366.201"	"56.993"	"1.383"	"4.426"
"1989"	"0"	"0"	"31.565"	"8.615"	"14.656"	"139.363"	"247.331"	"110.405"	"204.858"	"58.829"	"2.333"	"3.705"
"1990"	"1.015"	"0.324"	"9.896"	"0.362"	"117.784"	"145.295"	"140.613"	"228.824"	"83.572"	"135.776"	"31.651"	"2.858"
"1991"	"0.801"	"1.218"	"1.198"	"21.545"	"16.512"	"191.932"	"130.581"	"146.205"	"154.741"	"21.717"	"22.529"	"0"
"1992"	"0"	"0"	"0"	"3.621"	"31.013"	"92.618"	"83.026"	"241.074"	"209.211"	"44.112"	"9.645"	"0"
"1993"	"0"	"1.527"	"2.011"	"5.291"	"5.426"	"79.872"	"156.399"	"133.424"	"140.457"	"189.232"	"2.002"	"8.193"
"1994"	"12.229"	"6.256"	"7.88"	"29.439"	"14.41"	"172.509"	"152.076"	"154.409"	"114.689"	"177.968"	"29.63"	"0"
"1995"	"14.457"	"0"	"22.736"	"2.986"	"47.057"	"112.221"	"199.799"	"104.556"	"251.525"	"196.048"	"19.249"	"0"
"1996"	"0.376"	"3.54"	"1.496"	"20.172"	"5.589"	"102.987"	"173.945"	"235.526"	"220.787"	"183.258"	"43.554"	"0"
"1997"	"11.575"	"0"	"6.189"	"34.975"	"9.236"	"115.624"	"142.485"	"206.324"	"73.199"	"64.386"	"117.881"	"17.124"
"1998"	"0"	"2.786"	"0.76"	"1.652"	"10.623"	"62.992"	"179.184"	"220.036"	"273.964"	"169.971"	"35.534"	"0"
"1999"	"0"	"8.173"	"0"	"2.979"	"67.643"	"100.7"	"120.063"	"112.92"	"208.238"	"129.083"	"0.252"	"0"
"2000"	"0"	"6.343"	"0"	"4.299"	"35.362"	"183.453"	"111.489"	"290.674"	"89.69"	"28.533"	"6.578"	"2.976"
"2001"	"7.385"	"0"	"28.177"	"6.978"	"4.065"	"167.217"	"54.11"	"162.756"	"108.773"	"130.663"	"8.44"	"0"
"2002"	"10.846"	"0.324"	"4.526"	"22.799"	"26.652"	"184.453"	"43.285"	"169.187"	"89.07"	"67.496"	"2.58"	"0"
