
"Year"	"Jan"	"Feb"	"Mar"	"Apr"	"May"	"Jun"	"Jul"	"Aug"	"Sep"	"Oct"	"Nov"	"Dec"
"1901"	"23.301"	"23.872"	"28.371"	"31.435"	"31.123"	"28.778"	"26.122"	"25.478"	"26.938"	"26.537"	"23.239"	"21.849"
"1902"	"23.433"	"25.036"	"29.537"	"31.72"	"33.293"	"29.843"	"27.58"	"27.255"	"26.171"	"26.749"	"22.33"	"22.052"
"1903"	"22.917"	"24.141"	"28.35"	"31.598"	"31.267"	"30.364"	"26.114"	"25.765"	"26.196"	"25.237"	"22.232"	"20.998"
"1904"	"22.574"	"24.198"	"28.049"	"31.875"	"32.101"	"28.333"	"26.825"	"26.746"	"26.036"	"26.08"	"21.945"	"21.244"
"1905"	"22.091"	"23.507"	"27.77"	"29.868"	"32.773"	"30.156"	"27.173"	"26.184"	"26.084"	"26.533"	"23.773"	"21.028"
"1906"	"22.795"	"24.558"	"28.171"	"32.359"	"33.285"	"28.211"	"26.678"	"26.289"	"25.675"	"25.734"	"23.604"	"22.268"
"1907"	"22.647"	"24.95"	"28.147"	"29.858"	"31.338"	"28.678"	"26.895"	"24.828"	"26.555"	"27.106"	"24.607"	"21.236"
"1908"	"22.126"	"24.675"	"28.04"	"32.384"	"32.599"	"29.601"	"25.981"	"25.388"	"26.115"	"26.082"	"22.323"	"19.959"
"1909"	"23.653"	"25.257"	"29.52"	"30.022"	"32.577"	"27.837"	"25.678"	"26.388"	"25.863"	"26.012"	"23.461"	"23.02"
"1910"	"22.824"	"24.418"	"28.767"	"32.08"	"32.576"	"28.608"	"27.176"	"26.266"	"25.595"	"25.339"	"21.172"	"20.624"
"1911"	"23.086"	"23.648"	"27.999"	"31.946"	"33.275"	"28.468"	"27.262"	"25.411"	"26.771"	"27.408"	"24.962"	"22.485"
"1912"	"23.249"	"25.7"	"29.17"	"31.992"	"32.917"	"31.273"	"26.913"	"25.873"	"26.779"	"26.537"	"23.004"	"20.973"
"1913"	"21.551"	"25.918"	"28.392"	"32.594"	"31.955"	"28.015"	"26.379"	"26.248"	"26.775"	"26.486"	"23.38"	"22.971"
"1914"	"22.368"	"25.684"	"28.332"	"30.864"	"32.309"	"28.47"	"26.011"	"25.609"	"25.846"	"26.082"	"23.953"	"22.294"
"1915"	"22.427"	"24.641"	"27.638"	"31.256"	"32.176"	"30.45"	"27.181"	"26.017"	"26.175"	"26.083"	"24.835"	"20.678"
"1916"	"22.785"	"24.832"	"29.17"	"31.761"	"32.554"	"27.205"	"27.008"	"26.184"	"26.27"	"25.937"	"23.305"	"20.4"
"1917"	"21.775"	"23.629"	"26.98"	"29.677"	"31.05"	"27.236"	"26.37"	"26.37"	"25.651"	"25.316"	"22.282"	"21.025"
"1918"	"21.126"	"24.437"	"27.912"	"30.737"	"30.539"	"28.163"	"28.052"	"26.366"	"26.995"	"26.946"	"24.678"	"22.537"
"1919"	"23.851"	"26.017"	"29.203"	"31.418"	"32.12"	"27.611"	"26.823"	"26.277"	"26.634"	"25.612"	"24.05"	"21.212"
"1920"	"22.762"	"24.25"	"28.905"	"31.05"	"31.427"	"29.335"	"26.574"	"26.984"	"27.095"	"27.309"	"23.878"	"21.898"
"1921"	"23.349"	"24.641"	"29.973"	"32.297"	"33.708"	"28.548"	"26.864"	"25.922"	"25.925"	"25.434"	"21.603"	"21.401"
"1922"	"22.623"	"24.919"	"28.868"	"32.092"	"32.272"	"28.724"	"26.296"	"26.388"	"25.696"	"25.699"	"22.874"	"20.232"
"1923"	"22.047"	"23.953"	"28.092"	"31.504"	"32.055"	"31.115"	"26.195"	"25.991"	"25.816"	"25.168"	"23.082"	"22.33"
"1924"	"23.467"	"25.901"	"29.595"	"32.782"	"33.047"	"29.845"	"27.284"	"26.746"	"25.971"	"24.811"	"21.785"	"21.237"
"1925"	"21.477"	"23.929"	"28.557"	"32.502"	"31.259"	"28.254"	"26.451"	"25.791"	"26.66"	"26.007"	"23.836"	"21.042"
"1926"	"23.324"	"25.666"	"28.804"	"29.757"	"31.803"	"31.274"	"27.276"	"26.114"	"26.372"	"26.519"	"23.056"	"21.829"
"1927"	"24.129"	"25.63"	"29.524"	"32.161"	"32.574"	"28.657"	"25.895"	"26.133"	"26.877"	"26.011"	"21.777"	"22.076"
"1928"	"23.302"	"25.066"	"28.79"	"31.479"	"33.077"	"29.09"	"26.54"	"26.413"	"25.974"	"26.014"	"23.88"	"22.178"
"1929"	"23.245"	"24.672"	"29.419"	"30.923"	"33.421"	"28.687"	"26.878"	"26.696"	"26.571"	"26.162"	"23.801"	"23.079"
"1930"	"23.556"	"23.456"	"29.055"	"31.033"	"32.675"	"29.591"	"26.545"	"26.241"	"26.372"	"26.386"	"22.625"	"22.977"
"1931"	"22.615"	"25.915"	"28.613"	"32.523"	"32.896"	"29.725"	"26.234"	"26.147"	"25.872"	"25.316"	"22.705"	"21.179"
"1932"	"21.651"	"23.519"	"27.416"	"30.77"	"31.844"	"28.862"	"25.978"	"26.567"	"26.119"	"26.785"	"23.79"	"21.577"
"1933"	"22.548"	"25.613"	"28.077"	"30.681"	"29.896"	"27.376"	"25.947"	"25.434"	"25.774"	"25.247"	"23.425"	"21.295"
"1934"	"21.623"	"24.377"	"27.993"	"31.857"	"32.785"	"29.21"	"26.104"	"25.466"	"25.75"	"25.91"	"21.972"	"21.039"
"1935"	"22.279"	"24.832"	"27.852"	"29.802"	"33.153"	"29.369"	"25.973"	"26.168"	"25.376"	"26.528"	"22.626"	"22.58"
"1936"	"23.754"	"24.342"	"28.012"	"30.876"	"32.582"	"27.508"	"26.883"	"25.966"	"26.802"	"26.187"	"23.828"	"21.877"
"1937"	"21.682"	"25.275"	"27.989"	"30.78"	"32.635"	"29.587"	"25.954"	"26.569"	"26.449"	"25.541"	"23.501"	"21.857"
"1938"	"24.274"	"24.331"	"29.578"	"31.774"	"32.123"	"26.108"	"25.655"	"25.981"	"25.718"	"24.741"	"22.148"	"20.963"
"1939"	"22.619"	"25.149"	"27.616"	"31.079"	"32.707"	"29.268"	"26.213"	"26.245"	"26.082"	"26.331"	"21.849"	"20.578"
"1940"	"21.317"	"24.936"	"27.548"	"31.002"	"31.862"	"28.812"	"25.497"	"25.489"	"26.391"	"25.885"	"24.276"	"22.431"
"1941"	"23.052"	"25.454"	"30.094"	"32.681"	"33.114"	"29.761"	"27.334"	"26.579"	"26.818"	"26.96"	"23.903"	"23.617"
"1942"	"23.326"	"25.329"	"29.591"	"32.22"	"32.795"	"29.431"	"25.954"	"25.765"	"25.596"	"25.92"	"23.077"	"22.36"
"1943"	"23.849"	"23.067"	"28.553"	"30.824"	"31.362"	"27.67"	"25.903"	"25.866"	"25.358"	"25.286"	"23.778"	"20.29"
"1944"	"23.105"	"24.456"	"27"	"30.479"	"33.152"	"29.338"	"26.155"	"26.268"	"26.447"	"25.91"	"23.178"	"22.506"
"1945"	"22.302"	"24.266"	"28.642"	"30.465"	"32.876"	"29.06"	"26.166"	"25.814"	"25.607"	"25.722"	"21.922"	"20.412"
"1946"	"21.372"	"24.501"	"28.947"	"31.371"	"31.951"	"27.91"	"26.292"	"25.803"	"26.273"	"27.118"	"24.299"	"23.597"
"1947"	"23.501"	"25.275"	"29.178"	"31.175"	"33.053"	"30.018"	"26.422"	"26.61"	"25.675"	"24.833"	"23.262"	"21.934"
"1948"	"23.423"	"25.117"	"28.294"	"31.628"	"33.237"	"29.185"	"26.773"	"26.123"	"25.685"	"26.659"	"25.01"	"20.297"
"1949"	"22.544"	"24.032"	"29.031"	"31.699"	"31.844"	"28.105"	"26.518"	"26.516"	"25.649"	"26.241"	"22.4"	"21.801"
"1950"	"22.469"	"24.144"	"27.694"	"31.58"	"32.372"	"29.067"	"26.4"	"27.028"	"25.993"	"25.384"	"22.496"	"21.625"
"1951"	"22.498"	"24.555"	"28.878"	"31.095"	"32.623"	"29.041"	"27.06"	"26.166"	"27.305"	"27.044"	"24.482"	"21.351"
"1952"	"22.897"	"25.736"	"28.092"	"32.231"	"32.997"	"29.489"	"27.379"	"25.966"	"26.596"	"26.415"	"22.24"	"23.547"
"1953"	"23.032"	"26.501"	"30.69"	"32.077"	"33.833"	"30.312"	"26.939"	"25.885"	"26.398"	"26.369"	"23.174"	"21.298"
"1954"	"22.282"	"26.002"	"28.838"	"32.325"	"33.772"	"29.057"	"26.298"	"26.313"	"25.275"	"24.9"	"22.249"	"22.479"
"1955"	"23.265"	"26.023"	"29.456"	"31.035"	"32.275"	"28.82"	"26.597"	"25.407"	"26.227"	"25.737"	"21.904"	"21.314"
"1956"	"23.091"	"24.421"	"29.591"	"32.118"	"31.69"	"28.159"	"25.098"	"25.716"	"25.796"	"25.348"	"23.47"	"21.901"
"1957"	"23.328"	"24.533"	"27.758"	"31.114"	"32.577"	"29.934"	"26.422"	"25.613"	"26.495"	"27.041"	"24.463"	"23.423"
"1958"	"23.339"	"25.35"	"28.993"	"32.07"	"33.099"	"31.194"	"26.089"	"26.279"	"26.135"	"26.335"	"24.718"	"22.529"
"1959"	"23.803"	"26.226"	"29.492"	"32.102"	"33.497"	"29.195"	"25.985"	"25.845"	"26.05"	"26.221"	"23.991"	"22.783"
"1960"	"23.598"	"25.404"	"28.466"	"31.758"	"32.639"	"28.564"	"27.153"	"26.478"	"26.509"	"25.847"	"23.68"	"23.174"
"1961"	"23.566"	"24.346"	"30.154"	"32.355"	"31.792"	"28.508"	"26.077"	"26.21"	"25.822"	"25.269"	"23.358"	"22.125"
"1962"	"21.39"	"24.877"	"28.369"	"30.896"	"32.158"	"29.399"	"26.634"	"26.176"	"25.753"	"25.917"	"23.227"	"21.719"
"1963"	"22.394"	"24.524"	"28.691"	"30.15"	"32.276"	"28.168"	"26.749"	"25.387"	"26.298"	"26.194"	"24.148"	"22.675"
"1964"	"23.023"	"25.654"	"29.968"	"32.597"	"32.728"	"29.009"	"26.416"	"25.366"	"25.666"	"26.183"	"22.922"	"21.445"
"1965"	"23.05"	"25.031"	"28.592"	"31.023"	"32.603"	"29.191"	"26.094"	"26.539"	"26.521"	"26.932"	"24.531"	"23.5"
"1966"	"23.28"	"26.042"	"29.352"	"31.958"	"32.067"	"30.032"	"27.715"	"26.876"	"26.297"	"26.797"	"25.144"	"22.407"
"1967"	"23.049"	"25.506"	"28.653"	"31.946"	"33.049"	"29.577"	"26.601"	"26.147"	"26.175"	"26.177"	"23.791"	"23.848"
"1968"	"21.947"	"25.269"	"28.128"	"31.008"	"32.361"	"29.497"	"26.868"	"26.12"	"26.565"	"25.337"	"23.382"	"23.051"
"1969"	"23.072"	"26.382"	"30.831"	"33.19"	"32.895"	"29.992"	"26.771"	"26.477"	"25.649"	"26.332"	"25.105"	"22.316"
"1970"	"23.326"	"26.613"	"29.94"	"32.518"	"33.019"	"27.709"	"27.021"	"25.763"	"26.147"	"26.176"	"22.56"	"20.277"
"1971"	"22.331"	"25.841"	"28.292"	"32.468"	"31.572"	"27.709"	"27.637"	"26.708"	"26.845"	"25.641"	"22.374"	"20.783"
"1972"	"21.568"	"24.424"	"29.988"	"32.069"	"32.966"	"30.569"	"27.556"	"26.72"	"27.734"	"27.463"	"24.156"	"23.615"
"1973"	"24.018"	"26.563"	"30.152"	"33.894"	"34.48"	"29.332"	"26.254"	"25.372"	"25.933"	"25.748"	"22.844"	"22.538"
"1974"	"22.762"	"26.056"	"30.153"	"32.576"	"30.587"	"28.694"	"27.508"	"26.239"	"26.939"	"25.79"	"23"	"21.132"
"1975"	"21.807"	"25.447"	"28.85"	"33.157"	"33.144"	"28.616"	"26.58"	"25.953"	"25.803"	"26.482"	"21.876"	"20.274"
"1976"	"21.257"	"24.704"	"29.335"	"31.181"	"32.55"	"28.401"	"26.498"	"25.748"	"26.651"	"27.665"	"25.565"	"23.281"
"1977"	"23.044"	"26.226"	"30.255"	"31.4"	"31.661"	"29.204"	"27.267"	"26.166"	"26.769"	"26.748"	"25.776"	"21.766"
"1978"	"22.646"	"24.831"	"28.093"	"31.681"	"33.11"	"27.99"	"26.202"	"25.592"	"26.497"	"26.653"	"25.337"	"22.652"
"1979"	"24.149"	"25.389"	"28.558"	"32.027"	"32.005"	"30.808"	"27.77"	"26.13"	"26.714"	"27.241"	"25.117"	"22.868"
"1980"	"23.943"	"26.864"	"29.458"	"32.143"	"33.787"	"27.95"	"26.571"	"25.384"	"26.943"	"28.023"	"25.65"	"22.747"
"1981"	"22.23"	"26.434"	"28.543"	"32.104"	"32.601"	"29.155"	"26.938"	"25.985"	"25.996"	"26.528"	"23.596"	"22.388"
"1982"	"23.948"	"26.346"	"29.283"	"31.349"	"31.446"	"29.56"	"27.337"	"26.779"	"26.925"	"27.326"	"24.733"	"23.34"
"1983"	"23.152"	"25.939"	"29.716"	"32.148"	"33.731"	"30.696"	"27.721"	"26.474"	"26.047"	"25.842"	"23.162"	"22.225"
"1984"	"23.884"	"25.086"	"29.667"	"32.161"	"34.484"	"29.262"	"26.574"	"26.141"	"26.941"	"26.754"	"23.528"	"23.776"
"1985"	"24.626"	"26.242"	"30.597"	"32.468"	"33.259"	"28.347"	"26.583"	"26.562"	"27.771"	"25.713"	"24.142"	"23.577"
"1986"	"23.049"	"25.898"	"30.257"	"32.836"	"33.445"	"28.605"	"27.165"	"25.997"	"27.997"	"28.615"	"25.664"	"23.329"
"1987"	"24.373"	"25.622"	"29.346"	"32.683"	"31.762"	"30.09"	"27.273"	"26.796"	"28.586"	"27"	"24.912"	"22.48"
"1988"	"23.833"	"26.893"	"29.979"	"31.864"	"34.163"	"29.302"	"26.267"	"26.512"	"26.809"	"26.49"	"23.83"	"22.43"
"1989"	"23.481"	"25.266"	"27.957"	"32.225"	"33.656"	"28.237"	"26.568"	"25.807"	"26.554"	"26.921"	"25.04"	"22.545"
"1990"	"23.859"	"25.784"	"28.721"	"32.393"	"29.831"	"27.059"	"26.491"	"25.955"	"26.912"	"25.613"	"24.997"	"22.964"
"1991"	"23.586"	"26.184"	"30.062"	"31.69"	"33.572"	"28.438"	"26.222"	"26.343"	"27.863"	"27.464"	"24.516"	"22.455"
"1992"	"22.41"	"24.963"	"29.988"	"32.175"	"33.533"	"30.139"	"28.055"	"26.09"	"26.762"	"27.012"	"24.85"	"21.953"
"1993"	"23.953"	"24.881"	"28.559"	"32.168"	"33.667"	"30.593"	"27.165"	"26.282"	"26.437"	"26.719"	"24.521"	"21.168"
"1994"	"23.394"	"25.611"	"30.481"	"30.717"	"33.436"	"28.559"	"26.144"	"26.083"	"26.605"	"26.68"	"23.486"	"21.296"
"1995"	"21.113"	"25.588"	"28.845"	"31.669"	"31.398"	"31.104"	"27.293"	"27.746"	"27.283"	"26.678"	"25.032"	"23.836"
"1996"	"24.98"	"26.679"	"30.669"	"31.67"	"33.648"	"30.27"	"27.502"	"26.257"	"26.765"	"25.991"	"24.057"	"22.582"
"1997"	"22.031"	"24.396"	"29.152"	"29.897"	"32.135"	"29.417"	"27.231"	"26.467"	"26.627"	"26.8"	"26.465"	"24.583"
"1998"	"24.435"	"25.972"	"29.742"	"33.122"	"34.272"	"31.014"	"27.952"	"26.993"	"26.849"	"26.814"	"24.801"	"21.654"
"1999"	"22.279"	"26.466"	"30.065"	"32.961"	"31.675"	"28.066"	"26.873"	"26.265"	"25.949"	"26.42"	"24.304"	"22.254"
"2000"	"23.78"	"25.585"	"28.649"	"33.183"	"31.679"	"27.789"	"26.253"	"26.613"	"26.895"	"27.742"	"25.027"	"22.291"
"2001"	"23.876"	"26.677"	"29.52"	"31.739"	"33.318"	"28.281"	"26.993"	"26.122"	"27.633"	"26.528"	"25.06"	"23.382"
"2002"	"23.031"	"26.679"	"30.029"	"33.232"	"33.25"	"28.697"	"27.656"	"25.607"	"26.702"	"27.211"	"24.181"	"23.177"
