
"Year"	"Jan"	"Feb"	"Mar"	"Apr"	"May"	"Jun"	"Jul"	"Aug"	"Sep"	"Oct"	"Nov"	"Dec"
"1901"	"13.088"	"19.904"	"9.849"	"136.324"	"266.308"	"672.402"	"710.164"	"627.271"	"426.536"	"307.039"	"318.142"	"5.686"
"1902"	"3.294"	"6.309"	"10.8"	"128.49"	"345.521"	"862.489"	"878.766"	"665.521"	"333.318"	"125.43"	"39.99"	"20.721"
"1903"	"3.34"	"10.842"	"19.268"	"101.007"	"210.112"	"830.007"	"600.787"	"913.576"	"345.032"	"168.872"	"215.551"	"5.686"
"1904"	"3.502"	"31.183"	"13.988"	"230.199"	"276.41"	"584.285"	"703.926"	"559.374"	"234.781"	"147.493"	"108.011"	"3.055"
"1905"	"3.875"	"16.142"	"282.662"	"170.472"	"332.192"	"445.764"	"938.537"	"944.701"	"388.438"	"250.552"	"41.503"	"8.792"
"1906"	"6.909"	"40.085"	"13.462"	"53.554"	"154.569"	"554.528"	"836.088"	"575.718"	"310.906"	"214.032"	"80.126"	"0.146"
"1907"	"14.6"	"31.991"	"68.221"	"91.04"	"292.084"	"885.88"	"694.012"	"576.846"	"235.677"	"131.067"	"39.888"	"12.126"
"1908"	"6.142"	"8.706"	"3.105"	"80.657"	"189.448"	"822.535"	"693.633"	"457.449"	"343.303"	"145.349"	"38.151"	"5.712"
"1909"	"4.102"	"6.794"	"1.062"	"93.177"	"262.736"	"767.488"	"698.66"	"677.968"	"198.934"	"198.278"	"97.551"	"9.486"
"1910"	"10.808"	"9.587"	"59.158"	"104.803"	"285.455"	"645.696"	"861.929"	"651.254"	"338.418"	"255.495"	"96.691"	"4.64"
"1911"	"5.106"	"5.429"	"33"	"99.75"	"429.088"	"947.487"	"537.992"	"530.302"	"446.921"	"471.199"	"18.901"	"1.947"
"1912"	"1.508"	"31.394"	"26.958"	"101.415"	"392.134"	"689.696"	"608.936"	"666.712"	"306.743"	"303.96"	"280.209"	"10.307"
"1913"	"1.453"	"30.674"	"29.819"	"109.618"	"300.591"	"1019.612"	"644.258"	"557.668"	"312.132"	"323.544"	"68.888"	"17.422"
"1914"	"2.793"	"17.784"	"13.189"	"64.385"	"494.597"	"709.255"	"755.796"	"763.639"	"211.119"	"58.379"	"50.193"	"23.647"
"1915"	"4.002"	"24.707"	"17.793"	"81.357"	"786.872"	"569.268"	"749.069"	"766.925"	"220.558"	"192.452"	"62.189"	"11.599"
"1916"	"5.029"	"3.995"	"26.791"	"109.566"	"396.738"	"676.451"	"658.486"	"835.312"	"404.203"	"548.048"	"250.244"	"2.993"
"1917"	"1.648"	"33.072"	"6.709"	"66.313"	"267.501"	"696.145"	"629.426"	"636.254"	"237.845"	"321.821"	"183.466"	"6.875"
"1918"	"1.794"	"4.59"	"43.159"	"64.181"	"372.449"	"855.352"	"779.729"	"724.392"	"350.625"	"91.368"	"17.424"	"4.859"
"1919"	"6.029"	"4.674"	"1.67"	"90.049"	"152.926"	"798.755"	"810.661"	"646.56"	"386.354"	"329.481"	"123.059"	"5.079"
"1920"	"1.594"	"17.186"	"53.662"	"72.34"	"265.032"	"442.902"	"575.118"	"823.953"	"443.861"	"163.999"	"21.4"	"2.993"
"1921"	"15.031"	"3.789"	"17.101"	"107.91"	"410.862"	"771.589"	"801.405"	"723.883"	"303.279"	"94.761"	"29.373"	"3.259"
"1922"	"4.922"	"0.454"	"21.236"	"145.383"	"119.504"	"1021.702"	"680.869"	"561.413"	"369.328"	"320.172"	"33.747"	"12.468"
"1923"	"3.942"	"34.019"	"2.632"	"114.682"	"396.259"	"942.646"	"645.084"	"441.279"	"202.368"	"271.958"	"33.309"	"4.652"
"1924"	"2.855"	"5.017"	"3.405"	"132.898"	"439.767"	"807.236"	"968.217"	"775.072"	"334.723"	"241.316"	"316.977"	"0.272"
"1925"	"15.532"	"13.368"	"13.696"	"121.003"	"336.43"	"487.971"	"850.015"	"481.393"	"316.736"	"228.149"	"22.699"	"6.532"
"1926"	"7.765"	"6.452"	"47.097"	"53.278"	"207.829"	"778.543"	"887.756"	"543.698"	"239.912"	"380.564"	"21.354"	"31.078"
"1927"	"9.86"	"27.988"	"18.082"	"118.136"	"324.222"	"764.066"	"703.127"	"402.902"	"424.159"	"327.263"	"35.083"	"4.751"
"1928"	"3.521"	"10.576"	"14.658"	"86.172"	"332.317"	"940.239"	"810.321"	"547.13"	"356.213"	"276.929"	"42.041"	"0.146"
"1929"	"9.697"	"2.873"	"9.458"	"156.189"	"580.879"	"778.732"	"730.576"	"512.067"	"321.995"	"144.208"	"10.698"	"10.667"
"1930"	"6.016"	"10.191"	"25.291"	"41.793"	"410.987"	"885.616"	"685.649"	"787.346"	"300.176"	"120.895"	"304.98"	"5.005"
"1931"	"0.5"	"16.827"	"14.335"	"106.642"	"343.064"	"868.648"	"854.11"	"397.573"	"238.348"	"101.629"	"39.202"	"5.386"
"1932"	"1.707"	"8.299"	"5.855"	"57.292"	"456.312"	"604.197"	"903.958"	"938.696"	"323.716"	"140.614"	"273.669"	"4.493"
"1933"	"4.034"	"10.303"	"4.139"	"96.716"	"503.193"	"637.436"	"947.21"	"737.286"	"290.231"	"217.707"	"27.286"	"0.146"
"1934"	"5.878"	"24.595"	"3.259"	"145.137"	"185.012"	"927.155"	"918.214"	"639.384"	"306.847"	"351.091"	"58.332"	"8.979"
"1935"	"2.841"	"34.878"	"8.714"	"59.568"	"203.41"	"619.096"	"522.689"	"819.859"	"358.296"	"122.656"	"22.699"	"14.23"
"1936"	"7.277"	"17.117"	"10.138"	"85.121"	"449.434"	"842.367"	"831.387"	"507.606"	"383.237"	"256.082"	"23.957"	"19.068"
"1937"	"2.04"	"12.603"	"4.694"	"12.366"	"366.423"	"799.948"	"1111.477"	"566.306"	"244.653"	"141.53"	"16.544"	"11.999"
"1938"	"16.008"	"7.556"	"24.64"	"99.765"	"641.245"	"996.086"	"919.207"	"764.873"	"385.826"	"176.09"	"75.272"	"0.146"
"1939"	"0.574"	"14.076"	"3.432"	"71.784"	"378.845"	"807.578"	"1008.098"	"548.978"	"411.984"	"246.483"	"61.236"	"5.659"
"1940"	"0"	"35.44"	"149.538"	"11.345"	"412.463"	"593.25"	"780.365"	"601.096"	"484.518"	"150.24"	"30.544"	"4.44"
"1941"	"1.466"	"22.145"	"39.174"	"64.728"	"269.83"	"894.928"	"700.976"	"568.227"	"346.311"	"354.55"	"28.413"	"0.827"
"1942"	"11.851"	"5.347"	"57.052"	"106.401"	"276.192"	"1101.692"	"485.12"	"793.803"	"459.659"	"147.211"	"52.159"	"0.473"
"1943"	"16.517"	"33.747"	"53.255"	"125.702"	"334.649"	"731.768"	"698.2"	"723.012"	"382.141"	"91.029"	"43.674"	"0.628"
"1944"	"21.664"	"4.444"	"29.198"	"38.656"	"250.154"	"692.559"	"620.349"	"546.577"	"271.804"	"228.061"	"30.89"	"4.64"
"1945"	"19"	"9.949"	"57.94"	"110.053"	"229.721"	"678.507"	"694.686"	"879.45"	"311.303"	"266.271"	"25.76"	"2.22"
"1946"	"2.495"	"24.448"	"37.543"	"94.204"	"275.452"	"557.65"	"634.006"	"530.726"	"372.542"	"502.259"	"77.538"	"3.259"
"1947"	"3.401"	"10.11"	"32.387"	"136.129"	"292.138"	"835.76"	"916.435"	"812.24"	"764.974"	"489.798"	"13.919"	"71.597"
"1948"	"2.109"	"55.085"	"18.341"	"203.193"	"428.769"	"417.646"	"488.321"	"663.855"	"405.642"	"249.705"	"40.354"	"1.581"
"1949"	"39.439"	"13.922"	"44.033"	"176.179"	"293.447"	"845.139"	"799.856"	"629.817"	"640.887"	"141.818"	"60.185"	"1.55"
"1950"	"0.607"	"34.033"	"16.102"	"56.415"	"262.332"	"565.101"	"669.293"	"719.708"	"368.703"	"278.642"	"177.484"	"3.174"
"1951"	"4.956"	"0"	"73.909"	"184.929"	"172.467"	"639.5"	"700.815"	"872.615"	"425.7"	"606.123"	"14.786"	"18.249"
"1952"	"0.227"	"5.66"	"49.661"	"245.724"	"173.614"	"453.774"	"608.418"	"454.076"	"270.447"	"444.722"	"151.871"	"0.146"
"1953"	"3.151"	"0.755"	"21.984"	"68.621"	"522.526"	"752.008"	"851.991"	"784.753"	"560.585"	"346.739"	"31.036"	"0.78"
"1954"	"17.698"	"25.401"	"37.574"	"12.835"	"281.681"	"1024.318"	"635.08"	"999.626"	"282.451"	"396.15"	"3.409"	"8.273"
"1955"	"0.454"	"2.695"	"128.091"	"52.8"	"304.391"	"513.243"	"1301.363"	"432.839"	"325.602"	"626.424"	"343.168"	"1.143"
"1956"	"12.838"	"5.011"	"44.265"	"43.733"	"430.651"	"762.301"	"361.463"	"760.788"	"502.877"	"188.04"	"140.262"	"0.3"
"1957"	"17.714"	"3.741"	"5.183"	"26.289"	"164.563"	"554.262"	"740.468"	"461.376"	"260.384"	"253.279"	"0.846"	"0.2"
"1958"	"3.019"	"4.652"	"23.743"	"76.736"	"313.4"	"359.538"	"399.22"	"515.063"	"427.692"	"179.333"	"0.846"	"4.309"
"1959"	"25.16"	"29.503"	"106.855"	"23.922"	"260.184"	"717.087"	"621.312"	"929.882"	"418.842"	"460.272"	"0.846"	"31.846"
"1960"	"3.258"	"0.661"	"19.368"	"2.154"	"196.062"	"509.376"	"876.081"	"387.005"	"375.373"	"197.864"	"94.221"	"11.983"
"1961"	"0.78"	"19.256"	"19.325"	"91.598"	"173.862"	"1025.715"	"1126.702"	"1043.408"	"276.204"	"282.02"	"8.471"	"7.067"
"1962"	"3.186"	"26.501"	"3.186"	"144.078"	"269.663"	"858.015"	"656.571"	"635.853"	"227.282"	"317.568"	"1.958"	"0.228"
"1963"	"0"	"0.746"	"24.951"	"57.488"	"236.719"	"746.297"	"955.52"	"633.63"	"154.897"	"346.599"	"14.108"	"0.954"
"1964"	"15.55"	"22.578"	"25.939"	"131.814"	"270.116"	"605.672"	"1217.481"	"571.831"	"393.218"	"384.771"	"66.632"	"1.034"
"1965"	"0.72"	"18.45"	"3.146"	"28.681"	"213.292"	"516.734"	"785.073"	"748.141"	"271.211"	"164.069"	"33.099"	"12.945"
"1966"	"0.803"	"0"	"41.245"	"46.262"	"155.202"	"742.551"	"667.093"	"918.62"	"593.547"	"209.249"	"56.941"	"108.619"
"1967"	"18.249"	"0.435"	"57.172"	"103.331"	"111.446"	"524.552"	"669.939"	"456.325"	"470.489"	"249.169"	"16.106"	"0.628"
"1968"	"11.183"	"3.501"	"44.033"	"76.713"	"293.107"	"722.659"	"681.323"	"603.975"	"128.708"	"108.018"	"8.14"	"0.2"
"1969"	"3.747"	"0"	"31.403"	"151.596"	"118.575"	"965.974"	"719.933"	"874.806"	"300.349"	"50.105"	"26.443"	"0.228"
"1970"	"2.415"	"40.384"	"36.404"	"110.137"	"305.133"	"791.467"	"1119.532"	"665.87"	"452.377"	"508.801"	"197.675"	"4.466"
"1971"	"0.763"	"0.562"	"1.716"	"20.008"	"216.458"	"990.482"	"955.258"	"630.155"	"257.886"	"232.803"	"227.081"	"2.769"
"1972"	"0.227"	"5.098"	"12.027"	"101.873"	"93.488"	"548.084"	"425.272"	"671.008"	"95.767"	"111.606"	"37.357"	"1.767"
"1973"	"0.508"	"3.251"	"28.626"	"105.347"	"428.48"	"597.733"	"547.3"	"569.872"	"315.323"	"84.729"	"350.933"	"74.605"
"1974"	"10.53"	"0"	"91.881"	"78.532"	"337.995"	"980.091"	"1018.739"	"895.955"	"351.061"	"188.767"	"138.823"	"0.601"
"1975"	"6.569"	"2.763"	"3.44"	"86.875"	"208.658"	"436.87"	"962.784"	"335.496"	"397.508"	"287.751"	"204.295"	"4.124"
"1976"	"1.973"	"6.002"	"24.693"	"64.814"	"175.259"	"1082.815"	"1234.807"	"562.659"	"151.457"	"261.548"	"263.442"	"0.474"
"1977"	"9.418"	"36.336"	"11.481"	"379.419"	"305.097"	"602.698"	"613.527"	"416.043"	"239.385"	"110.512"	"15.466"	"30.047"
"1978"	"2.984"	"4.918"	"1.642"	"37.815"	"424.376"	"882.961"	"541.76"	"549.173"	"535.454"	"212.323"	"1.96"	"0.673"
"1979"	"0.054"	"3.37"	"24.262"	"48.584"	"69.749"	"724.235"	"693.84"	"496.602"	"312.195"	"98.579"	"79.591"	"72.08"
"1980"	"0.38"	"24.104"	"34.357"	"44.946"	"460.676"	"425.214"	"648.536"	"373.012"	"264.07"	"215.793"	"7.797"	"9.77"
"1981"	"38.221"	"3.251"	"60.552"	"203.44"	"380.873"	"722.869"	"869.698"	"729.053"	"209.018"	"31.316"	"26.961"	"14.325"
"1982"	"0"	"26.769"	"5.056"	"123.041"	"89.088"	"838.4"	"516.286"	"867.659"	"482.615"	"22.528"	"36.761"	"7.008"
"1983"	"8.845"	"42.697"	"73.503"	"279.931"	"189.275"	"561.751"	"806.643"	"976.068"	"222.752"	"454.395"	"99.304"	"14.262"
"1984"	"1.115"	"2.476"	"0.427"	"16.774"	"425.259"	"1211.605"	"1376.515"	"1072.597"	"369.665"	"172.985"	"0.846"	"0.835"
"1985"	"0.201"	"6.502"	"44.884"	"126.932"	"384.052"	"770.871"	"1023.785"	"566.821"	"220.546"	"70.818"	"39.589"	"4.334"
"1986"	"8.275"	"0.111"	"4.139"	"139.102"	"218.688"	"776.791"	"769.681"	"380.276"	"184.532"	"266.706"	"163.748"	"6.353"
"1987"	"2.917"	"44.042"	"26.749"	"219.132"	"73.249"	"332.9"	"1297.406"	"831.898"	"504.534"	"45.198"	"79.197"	"20.081"
"1988"	"0.054"	"5.191"	"59.816"	"132.133"	"434.218"	"842.203"	"677.126"	"524.775"	"412.549"	"196.96"	"104.152"	"2.04"
"1989"	"0.054"	"12.558"	"7.642"	"160.351"	"126.243"	"445.109"	"841.268"	"233.768"	"431.563"	"493.639"	"18.68"	"1.777"
"1990"	"0.146"	"43.807"	"103.372"	"180.536"	"241.291"	"749.103"	"1048.66"	"175.734"	"198.812"	"262.695"	"114.501"	"67.613"
"1991"	"7.122"	"3.021"	"104.536"	"305.939"	"236.691"	"612.678"	"684.69"	"666.921"	"295.648"	"399.895"	"40.082"	"45.444"
"1992"	"5.576"	"20.245"	"10.776"	"30.198"	"279.505"	"554.35"	"1071.125"	"570.56"	"339.725"	"185.049"	"87.428"	"25.846"
"1993"	"34.928"	"13.718"	"55.96"	"72.001"	"382.138"	"930.353"	"928.436"	"691.381"	"417.276"	"127.388"	"34.58"	"0.146"
"1994"	"10.695"	"20.191"	"154.739"	"99.178"	"206.455"	"688.599"	"770.967"	"751.912"	"214.901"	"96.487"	"45.053"	"12.652"
"1995"	"9.713"	"14.557"	"4.911"	"67.349"	"225.305"	"513.074"	"927.253"	"788.051"	"243.937"	"65.36"	"200.626"	"1.472"
"1996"	"0.002"	"39.993"	"37.075"	"194.414"	"593.251"	"694.155"	"606.312"	"727.189"	"305.715"	"268.69"	"28.958"	"0.366"
"1997"	"3.655"	"3.447"	"51.749"	"127.992"	"124.328"	"391.064"	"1210.486"	"620.875"	"439.057"	"92.905"	"17.364"	"30.43"
"1998"	"7.523"	"2.564"	"48.349"	"108.105"	"328.104"	"519.705"	"1005.363"	"971.274"	"212.934"	"162.068"	"212.821"	"0.149"
"1999"	"8.856"	"6.209"	"19.048"	"29.081"	"430.839"	"537.96"	"780.313"	"640.489"	"192.897"	"257.814"	"66.867"	"7.859"
"2000"	"10.403"	"20.391"	"38.892"	"211.612"	"419.091"	"388.574"	"473.147"	"683.465"	"309.955"	"182.979"	"43.62"	"9.713"
"2001"	"3.594"	"4.686"	"98.663"	"79.422"	"343.483"	"702.247"	"649.603"	"870.538"	"231.172"	"311.21"	"65.116"	"5.632"
"2002"	"15.561"	"6.756"	"20.429"	"158.347"	"259.666"	"878.93"	"822.964"	"651.773"	"340.663"	"160.571"	"83.725"	"4.447"
