
"Year"	"Jan"	"Feb"	"Mar"	"Apr"	"May"	"Jun"	"Jul"	"Aug"	"Sep"	"Oct"	"Nov"	"Dec"
"1901"	"16.116"	"20.049"	"25.055"	"30.849"	"31.618"	"31.83"	"28.588"	"27.814"	"27.334"	"26.485"	"20.82"	"16.891"
"1902"	"17.769"	"20.152"	"27.142"	"29.423"	"31.607"	"31.517"	"27.99"	"28.314"	"27.604"	"25.576"	"20.419"	"16.48"
"1903"	"17.443"	"19.25"	"25.612"	"30.936"	"33.034"	"30.542"	"29.115"	"28.016"	"27.718"	"25.687"	"19.819"	"16.006"
"1904"	"16.956"	"19.666"	"26.04"	"31.648"	"30.806"	"29.471"	"27.202"	"27.612"	"27.604"	"25.574"	"20.206"	"17.582"
"1905"	"16.446"	"17.011"	"23.8"	"27.719"	"30.207"	"33.004"	"27.903"	"27.701"	"27.123"	"25.6"	"20.722"	"16.98"
"1906"	"16.642"	"19.324"	"23.613"	"31.134"	"32.606"	"31.143"	"28.304"	"27.701"	"27.921"	"25.676"	"20.807"	"17.379"
"1907"	"17.872"	"19.24"	"23.514"	"28.02"	"31.219"	"30.582"	"28.487"	"27.742"	"27.718"	"25.872"	"20.709"	"16.309"
"1908"	"15.757"	"19.741"	"25.666"	"32.763"	"32.705"	"31.041"	"28.185"	"27.639"	"27.905"	"26.002"	"20.217"	"15.993"
"1909"	"18.343"	"19.955"	"26.478"	"28.345"	"32.431"	"29.07"	"27.914"	"27.113"	"27.629"	"25.5"	"21.497"	"17.392"
"1910"	"16.546"	"19.549"	"25.739"	"30.931"	"31.905"	"29.756"	"27.887"	"27.528"	"27.736"	"25.672"	"20.105"	"16.093"
"1911"	"18.944"	"19.239"	"24.526"	"30.334"	"32.72"	"29.283"	"29.187"	"27.528"	"27.219"	"25.586"	"20.892"	"15.68"
"1912"	"17.441"	"20.952"	"25.527"	"29.105"	"31.294"	"31.33"	"27.987"	"27.711"	"27.609"	"25.685"	"20.008"	"16.193"
"1913"	"16.84"	"19.839"	"23.927"	"31.847"	"30.62"	"28.068"	"28.201"	"27.23"	"27.629"	"25.087"	"19.803"	"16.28"
"1914"	"17.169"	"20.337"	"24.941"	"28.318"	"30.532"	"29.657"	"27.786"	"27.616"	"27.522"	"24.776"	"20.993"	"17.29"
"1915"	"17.751"	"19.955"	"24.726"	"30.235"	"32.008"	"30.315"	"29.2"	"28.498"	"27.604"	"27.102"	"22.607"	"16.909"
"1916"	"16.754"	"20.343"	"26.981"	"30.833"	"34.363"	"29.07"	"28.19"	"27.912"	"27.721"	"26.086"	"20.807"	"15.991"
"1917"	"16.641"	"19.837"	"24.639"	"29.438"	"29.423"	"29.557"	"28.102"	"27.614"	"27.308"	"25.676"	"20.232"	"16.492"
"1918"	"16.044"	"19.94"	"26.153"	"29.318"	"31.02"	"28.371"	"29.588"	"27.114"	"27.736"	"25.701"	"20.808"	"16.67"
"1919"	"18.627"	"19.141"	"26.353"	"29.721"	"31.832"	"29.87"	"28.1"	"27.925"	"27.421"	"25.484"	"21.007"	"16.693"
"1920"	"17.456"	"19.854"	"25.112"	"30.45"	"31.635"	"32.141"	"28.23"	"27.812"	"27.519"	"26.187"	"21.205"	"16.806"
"1921"	"17.872"	"19.666"	"26.754"	"31.444"	"34.317"	"31.072"	"28.686"	"27.428"	"27.52"	"24.787"	"19.83"	"17.656"
"1922"	"17.284"	"20.378"	"26.466"	"31.261"	"33.434"	"28.87"	"27.828"	"27.211"	"26.837"	"24.498"	"20.43"	"16.705"
"1923"	"17.27"	"19.75"	"25.179"	"31.06"	"32.821"	"32.145"	"28.117"	"27.343"	"27.834"	"25.186"	"20.52"	"17.78"
"1924"	"17.541"	"20.339"	"27.365"	"31.635"	"32.734"	"32.856"	"28.002"	"27.814"	"27.106"	"25.901"	"20.506"	"16.808"
"1925"	"15.957"	"18.824"	"25.237"	"29.533"	"31.421"	"30.259"	"27.515"	"28.017"	"27.608"	"25.27"	"20.706"	"16.691"
"1926"	"17.156"	"20.743"	"24.729"	"28.821"	"31.534"	"33.755"	"28.391"	"27.814"	"27.336"	"25.385"	"19.718"	"17.408"
"1927"	"17.429"	"20.024"	"23.827"	"30.835"	"31.107"	"31.644"	"28.387"	"27.714"	"28.021"	"26.089"	"21.205"	"17.784"
"1928"	"17.547"	"20.344"	"26.856"	"30.146"	"32.121"	"29.471"	"27.801"	"28.214"	"28.234"	"26.387"	"20.991"	"17.492"
"1929"	"17.244"	"19.039"	"25.84"	"30.32"	"33.334"	"31.973"	"27.716"	"27.328"	"27.823"	"24.886"	"20.319"	"16.378"
"1930"	"16.245"	"19.449"	"26.04"	"30.037"	"31.845"	"31.143"	"27.817"	"27.614"	"27.718"	"26.174"	"20.403"	"16.38"
"1931"	"18.342"	"19.739"	"24.562"	"31.695"	"32.022"	"32.519"	"28.012"	"28.027"	"27.731"	"25.914"	"20.504"	"17.39"
"1932"	"18.156"	"19.237"	"26.327"	"30.334"	"32.534"	"31.753"	"28.14"	"27.827"	"27.845"	"26.385"	"20.732"	"17.382"
"1933"	"15.943"	"20.365"	"25.842"	"28.52"	"31.849"	"29.857"	"27.885"	"27.116"	"27.608"	"25.589"	"20.322"	"16.994"
"1934"	"16.554"	"19.449"	"25.342"	"30.632"	"32.523"	"30.345"	"28.217"	"27.628"	"27.736"	"25.087"	"20.12"	"17.492"
"1935"	"16.456"	"20.253"	"26.231"	"29.32"	"33.742"	"32.209"	"28.527"	"27.114"	"27.434"	"25.486"	"20.717"	"17.279"
"1936"	"16.531"	"19.866"	"26.429"	"30.684"	"30.973"	"29.083"	"27.727"	"27.927"	"27.134"	"25.075"	"21.218"	"17.695"
"1937"	"15.657"	"19.939"	"24.539"	"29.473"	"30.943"	"30.432"	"28.427"	"27.614"	"27.642"	"25.174"	"20.521"	"16.208"
"1938"	"18.543"	"18.836"	"27.615"	"31.997"	"30.282"	"29.285"	"28.029"	"27.515"	"28.235"	"26.288"	"20.322"	"16.694"
"1939"	"18.156"	"21.04"	"24.924"	"31.135"	"32.72"	"31.031"	"27.84"	"27.127"	"27.437"	"25.888"	"20.535"	"17.493"
"1940"	"16.87"	"20.149"	"24.227"	"30.282"	"32.249"	"31.742"	"27.843"	"27.729"	"27.908"	"26.4"	"22.84"	"18.08"
"1941"	"17.745"	"20.634"	"27.436"	"31.931"	"32.094"	"30.466"	"28.229"	"28.001"	"27.823"	"25.299"	"20.833"	"18.396"
"1942"	"17.546"	"20.239"	"26.338"	"30.335"	"33.833"	"32.542"	"28.028"	"27.029"	"27.007"	"25.589"	"22.118"	"17.377"
"1943"	"18.67"	"18.849"	"25.967"	"28.719"	"32.834"	"30.366"	"27.914"	"27.215"	"27.821"	"26.676"	"21.409"	"18.522"
"1944"	"17.831"	"20.324"	"25.155"	"28.237"	"34.419"	"31.843"	"27.711"	"27.53"	"27.959"	"25.575"	"21.294"	"18.969"
"1945"	"16.944"	"19.227"	"26.528"	"28.935"	"31.81"	"31.454"	"28.44"	"28.404"	"27.923"	"25.075"	"20.61"	"16.491"
"1946"	"17.77"	"21.969"	"26.139"	"27.534"	"31.106"	"30.084"	"27.629"	"27.639"	"27.522"	"25.674"	"21.753"	"18.467"
"1947"	"17.755"	"20.337"	"26.466"	"31.936"	"32.708"	"31.769"	"28.199"	"27.729"	"27.716"	"25.688"	"21.51"	"18.191"
"1948"	"18.945"	"20.75"	"24.864"	"31.149"	"31.917"	"31.295"	"27.3"	"27.041"	"27.52"	"25.676"	"21.683"	"16.306"
"1949"	"17.857"	"19.741"	"25.928"	"28.594"	"29.492"	"31.231"	"28.019"	"28.012"	"27.522"	"26.277"	"19.819"	"16.544"
"1950"	"18.129"	"19.927"	"25.022"	"30.433"	"32.322"	"29.969"	"27.929"	"27.212"	"27.354"	"25.4"	"20.024"	"17.382"
"1951"	"16.955"	"20.368"	"25.865"	"30.412"	"32.899"	"31.552"	"28.104"	"28.625"	"28.129"	"27.092"	"21.509"	"18.348"
"1952"	"18.641"	"22.209"	"26.631"	"28.057"	"31.904"	"30.958"	"28"	"27.427"	"27.308"	"25.888"	"21.107"	"17.954"
"1953"	"17.243"	"21.539"	"28.441"	"31.023"	"32.992"	"30.546"	"27.502"	"27.44"	"27.123"	"25.872"	"20.707"	"18.916"
"1954"	"16.441"	"22.038"	"25.724"	"32.549"	"33.008"	"29.581"	"27.701"	"27.53"	"27.149"	"24.473"	"19.106"	"17.377"
"1955"	"17.573"	"20.339"	"27.552"	"30.022"	"33.336"	"31.232"	"27.689"	"27.53"	"27.808"	"26.074"	"21.307"	"17.466"
"1956"	"17.919"	"19.764"	"26.729"	"31.432"	"32.518"	"28.169"	"27.528"	"27.341"	"27.007"	"25.5"	"20.394"	"18.366"
"1957"	"18.204"	"19.426"	"25.05"	"30.847"	"34.935"	"31.859"	"27.812"	"27.924"	"27.745"	"26.301"	"21.094"	"18.483"
"1958"	"19.23"	"20.737"	"26.941"	"32.022"	"34.82"	"33.744"	"29.014"	"27.603"	"27.717"	"27.078"	"21.537"	"18.967"
"1959"	"18.202"	"19.998"	"25.927"	"31.049"	"33.308"	"30.966"	"28.212"	"27.828"	"27.321"	"26.462"	"20.722"	"17.408"
"1960"	"17.508"	"22.015"	"24.911"	"31.458"	"32.534"	"31.281"	"27.614"	"27.652"	"27.522"	"25.999"	"20.121"	"17.782"
"1961"	"18.271"	"18.664"	"26.743"	"31.322"	"33.222"	"29.955"	"27.714"	"27.927"	"27.434"	"25.301"	"19.921"	"15.084"
"1962"	"16.057"	"20.381"	"25.24"	"30.573"	"32.023"	"30.853"	"28.904"	"27.702"	"27.52"	"25.003"	"21.005"	"17.949"
"1963"	"16.259"	"21.639"	"25.642"	"29.819"	"30.622"	"30.254"	"28.202"	"27.999"	"27.824"	"26.29"	"22.592"	"18.489"
"1964"	"17.546"	"20.539"	"26.942"	"30.933"	"31.008"	"31.558"	"27.116"	"27.825"	"27.717"	"26.097"	"21.022"	"18.18"
"1965"	"18.457"	"20.741"	"24.539"	"29.62"	"32.739"	"32.544"	"28.203"	"27.814"	"27.694"	"26.19"	"22.009"	"16.97"
"1966"	"17.441"	"22.14"	"26.44"	"32.035"	"33.823"	"32.055"	"28.991"	"28.004"	"28.096"	"26.06"	"22.792"	"17.678"
"1967"	"18.359"	"22.04"	"24.639"	"28.634"	"32.308"	"32.128"	"28.603"	"27.513"	"27.52"	"25.675"	"20.895"	"19.267"
"1968"	"17.541"	"19.925"	"25.925"	"30.337"	"33.41"	"29.156"	"27.704"	"27.627"	"28.519"	"25.286"	"20.918"	"20.168"
"1969"	"17.244"	"21.414"	"27.539"	"31.136"	"30.835"	"31.141"	"28.201"	"27.114"	"27.021"	"25.886"	"22.191"	"17.779"
"1970"	"18.13"	"20.324"	"25.624"	"31.433"	"32.837"	"29.67"	"28.002"	"27.812"	"27.119"	"25.598"	"20.319"	"16.505"
"1971"	"17.043"	"19.415"	"24.554"	"27.131"	"29.035"	"28.574"	"26.699"	"26.414"	"27.021"	"25.571"	"20.077"	"17.093"
"1972"	"16.844"	"17.811"	"25.426"	"30.037"	"33.221"	"31.745"	"28.416"	"27.701"	"25.807"	"24.974"	"20.291"	"17.069"
"1973"	"17.045"	"20.641"	"24.026"	"30.349"	"31.007"	"28.973"	"28.099"	"27.814"	"27.134"	"25.687"	"20.907"	"17.376"
"1974"	"15.856"	"19.539"	"25.541"	"30.333"	"31.121"	"31.145"	"27.803"	"27.799"	"27.522"	"26.484"	"20.607"	"15.454"
"1975"	"16.855"	"20.224"	"25.525"	"30.333"	"32.092"	"30.446"	"26.674"	"27.614"	"27.021"	"26.587"	"21.405"	"16.996"
"1976"	"17.541"	"21.042"	"26.242"	"29.932"	"30.619"	"31.157"	"28.499"	"27.702"	"27.121"	"26.361"	"22.867"	"17.773"
"1977"	"17.244"	"20.139"	"27.423"	"29.947"	"28.548"	"29.642"	"27.789"	"28.313"	"27.921"	"25.573"	"22.606"	"15.538"
"1978"	"16.357"	"19.826"	"24.237"	"28.965"	"31.719"	"29.373"	"27.899"	"28.113"	"27.221"	"25.486"	"22.122"	"17.785"
"1979"	"18.328"	"18.552"	"25.237"	"30.162"	"32.862"	"31.925"	"28.775"	"28.953"	"26.721"	"26.389"	"23.695"	"18.12"
"1980"	"17.828"	"20.343"	"25.039"	"31.632"	"31.522"	"29.382"	"27.626"	"27.228"	"27.822"	"25.771"	"21.513"	"18.28"
"1981"	"16.944"	"20.242"	"24.838"	"27.719"	"29.318"	"30.756"	"27.803"	"28.201"	"27.816"	"25.886"	"21.109"	"17.565"
"1982"	"19.014"	"20.041"	"23.725"	"29.635"	"33.036"	"30.457"	"30.391"	"27.911"	"28.508"	"26.262"	"21.681"	"17.745"
"1983"	"17.03"	"20.049"	"26.011"	"29.036"	"30.82"	"32.545"	"28.902"	"28.414"	"28.234"	"25.685"	"21.208"	"17.692"
"1984"	"17.547"	"19.052"	"25.938"	"31.236"	"33.121"	"28.769"	"27.989"	"27.714"	"27.406"	"26.415"	"20.208"	"18.08"
"1985"	"18.34"	"19.641"	"26.649"	"31.047"	"30.931"	"31.369"	"27.314"	"27.927"	"27.393"	"25.615"	"21.717"	"19.279"
"1986"	"17.766"	"20.344"	"24.954"	"29.933"	"29.916"	"31.368"	"27.813"	"27.127"	"27.209"	"25"	"21.733"	"18.18"
"1987"	"17.546"	"21.291"	"25.451"	"29.646"	"31.332"	"32.055"	"28.012"	"27.015"	"27.522"	"26.503"	"22.218"	"19.305"
"1988"	"18.768"	"20.967"	"25.35"	"30.66"	"32.231"	"29.382"	"28.315"	"28.586"	"29.12"	"27.401"	"22.208"	"19.996"
"1989"	"17.514"	"22.001"	"26.228"	"31.825"	"31.935"	"29.354"	"28.204"	"28.102"	"28.034"	"26.902"	"21.908"	"17.954"
"1990"	"18.406"	"20.926"	"24.252"	"29.746"	"30.32"	"30.47"	"27.8"	"28.615"	"28.32"	"25"	"22.504"	"18.592"
"1991"	"16.882"	"22.212"	"25.855"	"29.85"	"33.147"	"29.456"	"28.79"	"27.715"	"27.522"	"26.329"	"22.174"	"17.408"
"1992"	"16.401"	"18.926"	"26.551"	"30.947"	"30.805"	"31.055"	"28.789"	"28.199"	"27.934"	"26.399"	"22.392"	"17.782"
"1993"	"18.03"	"21.939"	"25.023"	"29.333"	"31.508"	"31.656"	"29.016"	"27.688"	"27.522"	"26.6"	"21.236"	"18.209"
"1994"	"18.755"	"20.041"	"26.239"	"29.332"	"32.322"	"30.554"	"28.215"	"27.813"	"27.629"	"26.374"	"22.107"	"18.066"
"1995"	"16.232"	"20.294"	"25.154"	"30.336"	"31.948"	"31.959"	"28.003"	"27.502"	"27.437"	"26.185"	"22.217"	"18.706"
"1996"	"18.03"	"19.752"	"26.639"	"29.132"	"32.591"	"29.57"	"28.188"	"27.004"	"28.221"	"25.899"	"21.539"	"17.519"
"1997"	"17.154"	"19.653"	"26.038"	"29.013"	"31.609"	"31.614"	"27.916"	"27.927"	"27.121"	"25.747"	"22.493"	"18.148"
"1998"	"16.969"	"20.853"	"23.895"	"29.663"	"31.949"	"32.927"	"28.215"	"28.313"	"28.137"	"28.015"	"22.604"	"19.008"
"1999"	"17.781"	"21.655"	"26.627"	"32.248"	"31.947"	"30.556"	"28.001"	"27.814"	"27.437"	"26.686"	"22.32"	"19.279"
"2000"	"18.468"	"19.967"	"25.651"	"31.033"	"31.733"	"30.281"	"28.5"	"28.201"	"27.224"	"26.973"	"23.12"	"18.09"
"2001"	"17.601"	"20.541"	"25.855"	"30.947"	"32.346"	"29.496"	"27.728"	"28.43"	"28.324"	"27.371"	"23.519"	"19.307"
"2002"	"17.831"	"21.537"	"26.54"	"30.334"	"32.632"	"31.169"	"29.312"	"27.814"	"27.717"	"26.185"	"21.919"	"18.992"
