
"Year"	"Jan"	"Feb"	"Mar"	"Apr"	"May"	"Jun"	"Jul"	"Aug"	"Sep"	"Oct"	"Nov"	"Dec"
"1901"	"25.913"	"7.272"	"14.975"	"2.628"	"23.489"	"15.497"	"191.796"	"117.427"	"17.433"	"0.072"	"0"	"1.923"
"1902"	"0.072"	"1.199"	"7.428"	"7.408"	"12.79"	"31.714"	"99.573"	"100.058"	"71.441"	"2.872"	"0.004"	"0"
"1903"	"9.725"	"1.541"	"10.184"	"1.076"	"12.817"	"9.612"	"92.791"	"117.384"	"59.672"	"4.305"	"0"	"4.078"
"1904"	"16.877"	"0.396"	"50.634"	"4.366"	"8.708"	"31.381"	"53.256"	"104.084"	"49.073"	"0.672"	"9.797"	"3.585"
"1905"	"36.489"	"23.584"	"6.791"	"1.857"	"3.549"	"14.377"	"79.845"	"26.701"	"208.622"	"2.825"	"0"	"8.456"
"1906"	"2.98"	"52.514"	"14.574"	"2.434"	"3.139"	"38.152"	"70.513"	"101.012"	"220.076"	"0.318"	"0"	"4.187"
"1907"	"11.441"	"39.097"	"19.337"	"28.157"	"3.607"	"31.522"	"64.92"	"127.101"	"1.214"	"1.287"	"0.2"	"0"
"1908"	"27.07"	"6.511"	"0.658"	"11.04"	"4.018"	"37.022"	"148.474"	"387.644"	"38.997"	"0.536"	"0.108"	"3.842"
"1909"	"13.76"	"11.466"	"0.239"	"39.313"	"5.518"	"108.641"	"216.172"	"102.337"	"151.71"	"0.246"	"0.003"	"38.389"
"1910"	"19.682"	"5.085"	"1.103"	"12.873"	"5.56"	"84.427"	"107.196"	"116.34"	"35.11"	"1.153"	"0.405"	"2.375"
"1911"	"41.714"	"2.061"	"47.267"	"6.609"	"7.596"	"55.261"	"27.543"	"91.19"	"48.976"	"3.619"	"25.556"	"0.002"
"1912"	"31.766"	"5.561"	"5.786"	"22.834"	"6.208"	"21.617"	"66.975"	"173.671"	"45.083"	"0.072"	"9.587"	"2.996"
"1913"	"1.119"	"27.147"	"18.376"	"1.926"	"50.179"	"61.594"	"133.782"	"160.618"	"9.604"	"0.996"	"1.905"	"10.251"
"1914"	"11.715"	"25.83"	"10.782"	"17.782"	"19.63"	"28.735"	"225.963"	"76.668"	"165.769"	"17.493"	"10.234"	"8.629"
"1915"	"7.207"	"43.773"	"26.484"	"10.354"	"2.721"	"32.031"	"44.263"	"84.69"	"77.735"	"11.314"	"0"	"2.765"
"1916"	"0.202"	"11.901"	"1.781"	"3.733"	"10.007"	"35.361"	"294.83"	"126.332"	"53.638"	"6.326"	"0.349"	"0"
"1917"	"3.366"	"6.667"	"9.137"	"22.818"	"22.914"	"74.83"	"105.553"	"198.086"	"188.859"	"14.666"	"0"	"2.513"
"1918"	"2.472"	"1.437"	"22.301"	"24.891"	"1.772"	"47.916"	"17.8"	"101.59"	"12.511"	"0.108"	"7.135"	"3.416"
"1919"	"41.313"	"12.632"	"7.621"	"10.633"	"12.945"	"8.857"	"194.422"	"122.853"	"28.524"	"0.847"	"1.53"	"9.485"
"1920"	"14.556"	"12.031"	"13.413"	"0.858"	"15.069"	"30.868"	"75.132"	"116.378"	"9.943"	"0.21"	"0"	"0.108"
"1921"	"9.778"	"0.764"	"0.557"	"1.62"	"2.171"	"32.021"	"180.241"	"154.604"	"69.249"	"6.611"	"0"	"5.492"
"1922"	"12.064"	"7.316"	"1.699"	"3.309"	"2.311"	"41.001"	"86.621"	"102.239"	"243.089"	"1.22"	"1.181"	"24.398"
"1923"	"20.637"	"35.021"	"3.638"	"19.031"	"18.75"	"3.406"	"98.284"	"160.626"	"27.229"	"6.999"	"4.636"	"22.338"
"1924"	"28.931"	"32.436"	"4.848"	"1.643"	"22.276"	"5.388"	"186.104"	"77.392"	"107.676"	"5.277"	"0.894"	"32.184"
"1925"	"8.714"	"1.249"	"3.244"	"2.404"	"17.47"	"122.62"	"158.653"	"123.069"	"9.539"	"1.645"	"18.701"	"0"
"1926"	"8.752"	"1.987"	"36.297"	"13.447"	"11.883"	"2.751"	"107.186"	"250.034"	"31.455"	"0.369"	"3.087"	"6.156"
"1927"	"0.282"	"16.205"	"6.607"	"5.711"	"17.086"	"15.279"	"110.353"	"134.698"	"19.209"	"6.55"	"0"	"23.334"
"1928"	"11.465"	"23.304"	"6.834"	"14.401"	"5.462"	"30.238"	"102.169"	"92.067"	"91.443"	"0.605"	"12.645"	"12.178"
"1929"	"10.376"	"2.207"	"1.84"	"7.187"	"2.054"	"105.465"	"83.413"	"256.988"	"14.091"	"2.478"	"0"	"36.509"
"1930"	"14.091"	"8.64"	"2.186"	"18.402"	"7.841"	"25.812"	"201.201"	"60.989"	"30.152"	"2.353"	"3.322"	"2.578"
"1931"	"19.336"	"20.374"	"11.752"	"4.105"	"14.138"	"3.68"	"190.847"	"181.41"	"95.23"	"15.262"	"0.405"	"0"
"1932"	"14.417"	"1.928"	"12.114"	"4.796"	"6.139"	"17.01"	"117.094"	"66.562"	"62.394"	"0.406"	"0.108"	"20.961"
"1933"	"3.939"	"10.357"	"8.222"	"11.666"	"12.75"	"51.626"	"107.633"	"214.6"	"106.08"	"6.344"	"6.457"	"0.001"
"1934"	"12.134"	"2.283"	"19.767"	"0.861"	"3.58"	"33.564"	"108.151"	"143.616"	"9.815"	"0"	"0"	"7.255"
"1935"	"45.38"	"45.587"	"5.553"	"21.005"	"3.581"	"7.151"	"68.451"	"80.95"	"51.779"	"0.141"	"11.384"	"3.399"
"1936"	"1.674"	"26.921"	"13.52"	"10.312"	"5.282"	"166.328"	"152"	"127.516"	"72.2"	"7.807"	"1.188"	"19.975"
"1937"	"0.498"	"68.874"	"2.566"	"26.281"	"5.894"	"19.027"	"186.741"	"29.291"	"58.056"	"2.239"	"0.36"	"12.307"
"1938"	"31.102"	"17.588"	"3.432"	"5.073"	"0.781"	"122.433"	"62.526"	"54.921"	"8.513"	"5.491"	"0.405"	"0.214"
"1939"	"5.51"	"38.286"	"15.567"	"4.049"	"4.674"	"52.906"	"75.672"	"56.187"	"55.562"	"2.442"	"0"	"0"
"1940"	"35.106"	"28.385"	"9.548"	"4.08"	"3.005"	"60.486"	"68.543"	"95.586"	"28.675"	"0.247"	"0.001"	"1.959"
"1941"	"23.863"	"5.34"	"4.17"	"0.873"	"18.208"	"49.519"	"70.422"	"57.001"	"99.501"	"0.369"	"0.407"	"7.765"
"1942"	"14.288"	"19.481"	"12.061"	"20.182"	"17.298"	"36.259"	"138.284"	"152.886"	"56.54"	"1.187"	"0.002"	"18.383"
"1943"	"18.148"	"1.135"	"3.003"	"11.471"	"7.968"	"70.477"	"93.17"	"77.012"	"19.763"	"0"	"0"	"0"
"1944"	"18.972"	"31.056"	"21.57"	"29.385"	"0.203"	"46.505"	"122.815"	"98.286"	"57.89"	"2.172"	"0.112"	"7.201"
"1945"	"36.903"	"0.201"	"6.799"	"33.23"	"8.346"	"43.648"	"130.547"	"110.733"	"111.592"	"3.541"	"0.2"	"0.404"
"1946"	"0.46"	"8.32"	"6.817"	"7.055"	"19.702"	"61.491"	"120.181"	"143.357"	"9.375"	"10.626"	"4.204"	"6.817"
"1947"	"9.35"	"10.974"	"7.886"	"0.411"	"2.029"	"4.738"	"41.322"	"162.192"	"79.284"	"8.364"	"0.405"	"6.467"
"1948"	"8.54"	"29.269"	"28.471"	"9.245"	"3.396"	"32.291"	"202.091"	"160.349"	"52.238"	"1.77"	"4.889"	"12.951"
"1949"	"3.867"	"27.778"	"13.064"	"4.081"	"4.042"	"8.341"	"322.513"	"61.793"	"74.439"	"1.748"	"0.108"	"0.584"
"1950"	"41.696"	"18.904"	"32.294"	"1.642"	"5.671"	"18.343"	"251.973"	"153.74"	"236.666"	"0.001"	"0.108"	"0.247"
"1951"	"17.966"	"4.568"	"25.085"	"19.617"	"14.155"	"15.571"	"116.977"	"86.076"	"25.201"	"1.103"	"17.871"	"0.003"
"1952"	"7.096"	"8.004"	"23.743"	"3.766"	"12.517"	"38.436"	"105.605"	"81.42"	"5.58"	"1.038"	"3.553"	"0.036"
"1953"	"30.879"	"1.681"	"0.657"	"6.835"	"4.378"	"21.18"	"147.575"	"176.962"	"107.4"	"0.005"	"2.703"	"3.648"
"1954"	"16.281"	"41.375"	"3.663"	"0.838"	"4.637"	"22.672"	"188.146"	"50.409"	"203.919"	"11.26"	"0"	"0.248"
"1955"	"14.198"	"1.541"	"17.504"	"12.096"	"12.332"	"26.356"	"94.442"	"99.996"	"214.025"	"18.153"	"0"	"3.003"
"1956"	"16.823"	"2.985"	"17.113"	"2.347"	"8.487"	"90.359"	"161.585"	"145.585"	"11.048"	"22.787"	"0.153"	"1.334"
"1957"	"53.231"	"1.329"	"24.79"	"22.286"	"11.049"	"17.321"	"112.46"	"199.983"	"43.454"	"3.361"	"9.374"	"7.184"
"1958"	"5.607"	"3.025"	"6.586"	"3.909"	"2.351"	"34.05"	"147.645"	"101.413"	"209.303"	"8.664"	"1.054"	"19.947"
"1959"	"25.531"	"10.116"	"8.953"	"1.885"	"13.555"	"6.34"	"173.619"	"215.996"	"54.733"	"8.072"	"22.936"	"0.001"
"1960"	"16.465"	"0.202"	"21.48"	"10.21"	"0.988"	"22.576"	"88.071"	"90.605"	"61.532"	"6.937"	"0"	"5.205"
"1961"	"49.551"	"24.904"	"3.368"	"12.606"	"10.218"	"25.66"	"191.827"	"157.064"	"114.976"	"14.508"	"0.504"	"7.022"
"1962"	"22.344"	"22.706"	"14.104"	"1.318"	"10.547"	"13.095"	"138.196"	"123.159"	"158.247"	"0"	"9.467"	"6.179"
"1963"	"1.828"	"8.893"	"12.613"	"5.97"	"23.704"	"24.89"	"84.39"	"90.884"	"80.049"	"0.987"	"3.796"	"13.103"
"1964"	"14.518"	"2.929"	"6.141"	"9.595"	"17.157"	"37.314"	"271.049"	"146.889"	"84.504"	"0"	"2.09"	"6.039"
"1965"	"7.059"	"18.84"	"10.839"	"30.382"	"15.114"	"3.345"	"134.185"	"97.477"	"16.962"	"3.136"	"7.578"	"0"
"1966"	"1.397"	"38.357"	"7.216"	"5.564"	"26.178"	"74.21"	"129.219"	"123.88"	"147.576"	"8.838"	"2.316"	"0.8"
"1967"	"0.108"	"11.785"	"39.962"	"4.618"	"3.406"	"10.362"	"100.97"	"300.709"	"44.038"	"3.255"	"3.518"	"34.201"
"1968"	"21.654"	"22.443"	"9.319"	"2.744"	"6.511"	"21.93"	"108.761"	"156.832"	"9.616"	"7.653"	"0"	"5.878"
"1969"	"5.629"	"8.006"	"18.762"	"17.011"	"19.667"	"17.142"	"181.627"	"80.696"	"99.378"	"0.811"	"0.404"	"0"
"1970"	"17.56"	"18.886"	"16.769"	"0.436"	"17.148"	"44.019"	"50.289"	"154.49"	"40.939"	"2.328"	"0"	"0"
"1971"	"4.203"	"12.625"	"5.212"	"17.008"	"31.218"	"56.974"	"131.946"	"250.404"	"43.181"	"6.704"	"3.448"	"0"
"1972"	"7.373"	"13.554"	"5.293"	"5.964"	"0.366"	"13.18"	"116.941"	"119.133"	"102.042"	"7.079"	"8.561"	"6.346"
"1973"	"13.485"	"13.108"	"9.179"	"0.966"	"15.537"	"27.996"	"118.405"	"192.853"	"70.752"	"4.559"	"0"	"10.88"
"1974"	"4.596"	"6.036"	"2.568"	"0.983"	"9.89"	"19.477"	"173.726"	"68.996"	"5.407"	"1.001"	"0"	"7.294"
"1975"	"18.695"	"19.724"	"17.233"	"2.823"	"0.939"	"87.182"	"200.466"	"126.918"	"149.349"	"2.314"	"0"	"0"
"1976"	"9.922"	"23.5"	"13.081"	"9.963"	"18.361"	"49.39"	"162.285"	"399.271"	"115.613"	"8.072"	"0"	"0.199"
"1977"	"20.009"	"0.669"	"1.248"	"28.025"	"38.447"	"66.801"	"172.302"	"117.403"	"51.066"	"14.807"	"0.662"	"6.621"
"1978"	"4.186"	"9.902"	"42.307"	"7.623"	"0.64"	"62.776"	"209.856"	"276.688"	"118.316"	"0.405"	"4.026"	"1.297"
"1979"	"10.584"	"33.283"	"29.501"	"6.105"	"23.167"	"35.824"	"111.04"	"79.576"	"55.802"	"4.127"	"8.227"	"1.652"
"1980"	"9.849"	"6.69"	"19.283"	"5.141"	"2.721"	"87.514"	"361.157"	"237.381"	"80.362"	"5.375"	"6.915"	"6.572"
"1981"	"59.157"	"16.009"	"31.396"	"0.292"	"5.001"	"20.265"	"332.773"	"79.838"	"14.571"	"4.751"	"29.801"	"1.612"
"1982"	"19.849"	"15.687"	"72.876"	"19.883"	"39.762"	"16.588"	"67.259"	"193.333"	"7.383"	"1.475"	"18.074"	"14.242"
"1983"	"37.523"	"20.68"	"25.355"	"29.557"	"65.057"	"28.493"	"134.259"	"195.741"	"80.101"	"14.304"	"0"	"2.471"
"1984"	"1.624"	"39.528"	"6.892"	"18.263"	"0.853"	"26.838"	"295.614"	"188.377"	"89.228"	"0.071"	"0"	"12.195"
"1985"	"4.102"	"1.183"	"3.505"	"18.122"	"19.401"	"48.012"	"195.57"	"155.101"	"99.249"	"14.918"	"1.363"	"16.257"
"1986"	"5.085"	"33.666"	"9.923"	"11.622"	"26.999"	"60.906"	"185.416"	"175.641"	"72.9"	"3.587"	"2.306"	"14.046"
"1987"	"17.368"	"19.531"	"15.859"	"6.679"	"23.654"	"41.351"	"74.484"	"70.742"	"10.997"	"9.127"	"0"	"1.706"
"1988"	"4.346"	"13.483"	"35.753"	"8.333"	"2.882"	"35.289"	"203.5"	"153.504"	"120.562"	"13.688"	"0.108"	"14.948"
"1989"	"34.424"	"5.175"	"18.265"	"1.903"	"7.819"	"28.966"	"177.687"	"116.017"	"54.895"	"0.446"	"7.611"	"1.624"
"1990"	"2.102"	"46.093"	"37.014"	"10.876"	"13.221"	"21.051"	"162.163"	"192.541"	"180.364"	"2.41"	"9.557"	"27.586"
"1991"	"0.37"	"24.269"	"10.281"	"32.549"	"21.426"	"75.632"	"35.772"	"155.114"	"48.857"	"1.865"	"4.349"	"8.424"
"1992"	"28.092"	"27.14"	"7.134"	"9.219"	"30.982"	"19.389"	"85.203"	"178.281"	"86.472"	"2.853"	"18.21"	"1.229"
"1993"	"9.324"	"10.671"	"13.82"	"17.395"	"16.562"	"35.722"	"166.601"	"44.051"	"98.443"	"0"	"0"	"0"
"1994"	"13.061"	"6.544"	"9.355"	"6.691"	"48.79"	"32.367"	"151.244"	"97.494"	"101.577"	"1.339"	"0"	"4.575"
"1995"	"23.042"	"59.657"	"25.032"	"5.062"	"0.518"	"48.817"	"114.336"	"247.411"	"108.589"	"1.387"	"7.367"	"0.915"
"1996"	"20.371"	"21.58"	"13.355"	"3.129"	"11.042"	"147.732"	"95.586"	"228.919"	"47.645"	"3.645"	"0"	"0.003"
"1997"	"16.764"	"8.365"	"13.87"	"31.78"	"23.605"	"90.44"	"213.928"	"271.246"	"48.417"	"17.561"	"15.79"	"3.094"
"1998"	"6.961"	"26.699"	"19.736"	"17.308"	"10.14"	"17.058"	"176.754"	"112.445"	"51.355"	"13.388"	"3.673"	"0.029"
"1999"	"8.955"	"3.921"	"6.063"	"0.01"	"12.712"	"56.242"	"55.22"	"97.591"	"66.764"	"2.289"	"0.003"	"1.305"
"2000"	"13.246"	"19.824"	"5.477"	"0.83"	"9.999"	"51.385"	"223.791"	"87.918"	"29.52"	"0"	"3.705"	"2.968"
"2001"	"5.288"	"4.466"	"12.262"	"9.518"	"23.694"	"55.283"	"235.08"	"26.624"	"27.709"	"0.276"	"0.003"	"0.407"
"2002"	"5.517"	"11.042"	"9.399"	"2.82"	"16.229"	"36.645"	"68.721"	"87.846"	"117.392"	"0.21"	"0"	"5.135"
