
"Year"	"Jan"	"Feb"	"Mar"	"Apr"	"May"	"Jun"	"Jul"	"Aug"	"Sep"	"Oct"	"Nov"	"Dec"
"1901"	"12.789"	"15.183"	"22.61"	"27.384"	"32.01"	"35.04"	"32.026"	"29.423"	"29.691"	"27.812"	"21.065"	"16.609"
"1902"	"15.629"	"17.995"	"24.793"	"28.883"	"32.408"	"32.85"	"30.79"	"30.561"	"28.691"	"26.108"	"20.363"	"15.012"
"1903"	"14.529"	"16.193"	"20.855"	"26.482"	"31.518"	"35.529"	"32.442"	"29.24"	"29.471"	"26.084"	"19.543"	"14.716"
"1904"	"13.931"	"17.011"	"21.481"	"28.681"	"32.024"	"33.655"	"29.858"	"28.407"	"28.38"	"26.017"	"19.863"	"15.79"
"1905"	"12.708"	"11.867"	"18.909"	"25.584"	"33.607"	"34.811"	"31.915"	"29.938"	"30.49"	"27.019"	"21.985"	"16.009"
"1906"	"13.303"	"14.689"	"20.546"	"27.253"	"34.362"	"33.029"	"31.266"	"29.328"	"28.301"	"26.801"	"21.472"	"16.599"
"1907"	"16.131"	"14.713"	"19.839"	"25.43"	"30.408"	"33.451"	"32.962"	"28.452"	"29.516"	"26.691"	"20.972"	"14.692"
"1908"	"14.228"	"16.711"	"21.97"	"28.482"	"32.279"	"34.398"	"29.342"	"27.368"	"28.471"	"25.701"	"19.689"	"15.198"
"1909"	"13.63"	"15.621"	"22.316"	"26.271"	"31.559"	"32.176"	"28.671"	"28.052"	"27.782"	"26.193"	"21.537"	"14.68"
"1910"	"13.637"	"16.697"	"22.29"	"26.555"	"32.696"	"32.801"	"29.908"	"28.469"	"28.79"	"24.991"	"19.337"	"15.309"
"1911"	"15.82"	"17.021"	"20.209"	"27.682"	"33.687"	"33.22"	"32.785"	"30.859"	"28.487"	"26.492"	"18.383"	"15.337"
"1912"	"15.038"	"17.929"	"21.49"	"28.007"	"32.762"	"35.12"	"30.959"	"28.561"	"27.699"	"26.091"	"19.346"	"15.309"
"1913"	"15.019"	"16.421"	"19.9"	"29.055"	"30.698"	"31.24"	"29.57"	"29.753"	"29.866"	"27.306"	"20.289"	"15.274"
"1914"	"16.457"	"16.002"	"21.581"	"27.983"	"33.036"	"32.713"	"29.882"	"29.06"	"28.783"	"25.033"	"20.883"	"14.689"
"1915"	"14.205"	"14.8"	"22.08"	"27.752"	"34.53"	"34.149"	"32.977"	"30.232"	"30.511"	"27.521"	"20.572"	"16.237"
"1916"	"15.309"	"15.664"	"24.661"	"29.234"	"32.008"	"32.302"	"30.235"	"27.951"	"28.28"	"25.153"	"18.327"	"14.491"
"1917"	"14.855"	"16.973"	"21.87"	"24.789"	"28.497"	"31.991"	"28.943"	"27.652"	"26.874"	"24.083"	"17.646"	"15.39"
"1918"	"13.49"	"17.147"	"21.919"	"25.481"	"34.169"	"33.119"	"33.057"	"30.514"	"29.335"	"26.708"	"20.363"	"14.661"
"1919"	"14.51"	"15.602"	"22.688"	"27.062"	"31.543"	"35.352"	"29.934"	"28.135"	"28.362"	"25.801"	"19.563"	"14.606"
"1920"	"14.128"	"15.792"	"22.284"	"27.253"	"28.733"	"31.443"	"29.537"	"29.222"	"30.382"	"27.383"	"21.534"	"15.96"
"1921"	"15.299"	"17.465"	"25.171"	"30.813"	"34.592"	"34.83"	"32.662"	"28.758"	"28.378"	"25.309"	"20.246"	"17.307"
"1922"	"14"	"17.939"	"23.434"	"28.553"	"32.54"	"32.701"	"30.778"	"28.75"	"27.9"	"25.203"	"19.763"	"15.189"
"1923"	"14.131"	"15.838"	"23.018"	"28.742"	"31.56"	"35.282"	"30.779"	"27.771"	"28.797"	"25.395"	"19.738"	"15.478"
"1924"	"13.418"	"16.321"	"23.518"	"28.563"	"29.682"	"34.964"	"31.167"	"28.532"	"27.071"	"24.863"	"19.314"	"15.464"
"1925"	"12.39"	"14.302"	"22.789"	"29.944"	"31.932"	"30.191"	"28.478"	"29.492"	"29.92"	"26.558"	"19.082"	"15.219"
"1926"	"14.818"	"18.25"	"21.09"	"24.881"	"30.008"	"34.838"	"31.271"	"28.292"	"27.672"	"25.102"	"18.071"	"14.696"
"1927"	"12.698"	"14.382"	"20.972"	"26.884"	"31.208"	"33.747"	"29.91"	"27.954"	"28.071"	"26.113"	"19.524"	"16.308"
"1928"	"13.832"	"17.121"	"22.636"	"27.689"	"33.969"	"33.73"	"30.977"	"30.24"	"29.171"	"26.782"	"20.754"	"14.779"
"1929"	"14.09"	"15.301"	"24.579"	"28.76"	"32.931"	"33.601"	"29.868"	"28.27"	"29.66"	"26.184"	"20.681"	"14.198"
"1930"	"13.546"	"16.294"	"22.974"	"27.171"	"31.943"	"32.312"	"28.671"	"28.734"	"28.876"	"26.331"	"19.454"	"15.309"
"1931"	"15.159"	"14.323"	"21.126"	"28.992"	"32.036"	"34.032"	"30.409"	"28.834"	"27.903"	"25.21"	"19.392"	"15.849"
"1932"	"16.485"	"16.037"	"23.079"	"27.727"	"31.408"	"34.8"	"30.453"	"27.759"	"28.844"	"26.138"	"19.361"	"15.34"
"1933"	"12.248"	"16.912"	"22.127"	"26.356"	"29.485"	"32.23"	"29.027"	"26.81"	"27.21"	"25"	"19.492"	"15.889"
"1934"	"12.356"	"18.109"	"21.209"	"27.663"	"31.406"	"32.429"	"30.059"	"27.77"	"29.077"	"25.362"	"19.833"	"16.273"
"1935"	"12.41"	"16.992"	"22.199"	"24.999"	"32.46"	"34.4"	"29.589"	"28.09"	"27.884"	"25.347"	"20.521"	"15.282"
"1936"	"13.002"	"17.174"	"21.401"	"27.663"	"34.278"	"31.089"	"29.408"	"27.891"	"28.092"	"25.983"	"19.893"	"15.306"
"1937"	"13.528"	"16.751"	"20.527"	"26.247"	"32.317"	"33.758"	"29.386"	"29.817"	"28.871"	"25.014"	"19.523"	"13.815"
"1938"	"13.32"	"15.029"	"23.609"	"28.753"	"34.282"	"31.988"	"31.098"	"29.751"	"30.101"	"27.192"	"18.62"	"14.941"
"1939"	"14.948"	"17.119"	"19.689"	"26.37"	"33.631"	"31.66"	"30.407"	"30.509"	"29.503"	"27.031"	"19.872"	"16.021"
"1940"	"14.646"	"16.381"	"20.871"	"26.791"	"33.362"	"33.774"	"30.889"	"27.86"	"28.28"	"26.23"	"20.982"	"15.478"
"1941"	"13.312"	"17.72"	"24.771"	"30.714"	"33.737"	"31.96"	"32.058"	"29.674"	"29.009"	"28.519"	"20.403"	"16.429"
"1942"	"13.019"	"17.612"	"23.862"	"29.888"	"33.09"	"34.412"	"28.895"	"27.442"	"26.827"	"25.592"	"20.928"	"14.117"
"1943"	"14.076"	"16.69"	"23.218"	"26.593"	"32.247"	"32.792"	"29.271"	"27.535"	"28.834"	"25.701"	"20.644"	"16.589"
"1944"	"13.509"	"16.232"	"21.128"	"27.271"	"33.551"	"32.71"	"29.461"	"28.542"	"28.127"	"24.874"	"20.653"	"16.137"
"1945"	"11.989"	"15.603"	"23.001"	"26.791"	"31.97"	"33.874"	"29.551"	"28.95"	"27.699"	"25.356"	"20.043"	"13.781"
"1946"	"14.729"	"18.131"	"21.809"	"30.009"	"32.688"	"33.4"	"29.797"	"28.424"	"28.313"	"26.588"	"19.553"	"14.369"
"1947"	"13.201"	"16.69"	"23.39"	"29.333"	"33.278"	"35.202"	"32.015"	"29.413"	"27.868"	"24.962"	"21.334"	"15.52"
"1948"	"13.465"	"16.066"	"21.338"	"30.404"	"34.015"	"34.457"	"30.659"	"27.889"	"28.815"	"27.102"	"19.093"	"15.449"
"1949"	"15.859"	"16.749"	"22.709"	"29.489"	"34.007"	"33.674"	"29.606"	"28.578"	"29.889"	"25.574"	"18.491"	"14.699"
"1950"	"15.402"	"14.114"	"21.24"	"26.693"	"32.872"	"33.941"	"29.281"	"27.955"	"27.672"	"25.193"	"18.735"	"13.574"
"1951"	"13.402"	"15.883"	"22.061"	"25.779"	"31.923"	"32.855"	"32.107"	"29.112"	"29.219"	"29.063"	"21.541"	"15.851"
"1952"	"15.299"	"18.564"	"22.188"	"30.294"	"32.997"	"32.821"	"30.669"	"27.961"	"29.352"	"26.267"	"20.128"	"15.506"
"1953"	"13.877"	"18.885"	"25.839"	"28.82"	"32.947"	"33.972"	"30.191"	"27.969"	"28.58"	"26.064"	"20.137"	"18.17"
"1954"	"13.49"	"17.573"	"22.371"	"28.614"	"33.922"	"34.195"	"30.666"	"29.851"	"29.224"	"23.862"	"20.327"	"15.859"
"1955"	"14.027"	"17.152"	"24.654"	"26.127"	"30.725"	"34.166"	"31.08"	"28.061"	"27.851"	"24.536"	"19.215"	"15.851"
"1956"	"14.097"	"16.912"	"22.537"	"28.733"	"34.159"	"33.411"	"29.014"	"27.833"	"29.462"	"24.423"	"18.715"	"15.96"
"1957"	"13.444"	"15.262"	"21.277"	"26.553"	"30.548"	"32.892"	"30.367"	"28.933"	"27.76"	"26.042"	"20.864"	"15.537"
"1958"	"15.91"	"16.149"	"23.66"	"30.349"	"32.004"	"34.272"	"29.564"	"29.059"	"27.756"	"25.573"	"20.154"	"16.753"
"1959"	"13.764"	"15.872"	"23.47"	"28.142"	"31.65"	"33.683"	"29.868"	"28.542"	"28.434"	"27.06"	"20.222"	"15.972"
"1960"	"13.771"	"19.044"	"21.645"	"26.553"	"31.96"	"33.982"	"29.927"	"28.142"	"29.352"	"25.575"	"19.418"	"15.894"
"1961"	"14.724"	"15.129"	"23.07"	"27.273"	"32.212"	"32.782"	"29.637"	"28.27"	"28.587"	"25.311"	"18.822"	"13.27"
"1962"	"13.154"	"17.593"	"22.59"	"29.254"	"32.358"	"33.681"	"30.934"	"29.31"	"27.669"	"24.302"	"20.117"	"15.413"
"1963"	"13.475"	"18.895"	"22.652"	"27.927"	"31.568"	"33.387"	"32.169"	"28.775"	"28.146"	"27.283"	"22.185"	"15.554"
"1964"	"12.459"	"16.522"	"24.629"	"29.427"	"31.018"	"33.298"	"29.091"	"28.8"	"27.685"	"25.37"	"18.957"	"15.547"
"1965"	"16.401"	"16.931"	"22.056"	"26.078"	"31.245"	"34.313"	"30.38"	"28.928"	"28.546"	"26.976"	"21.718"	"14.711"
"1966"	"15.257"	"19.47"	"22.424"	"28.209"	"32.065"	"32.084"	"31.736"	"28.532"	"27.964"	"26.714"	"20.147"	"14.63"
"1967"	"12.648"	"19.137"	"21.524"	"27.21"	"31.708"	"33.718"	"30.295"	"27.995"	"27.616"	"25.666"	"20.482"	"15.975"
"1968"	"13.564"	"15.085"	"22.171"	"27.582"	"31.377"	"34.041"	"30.103"	"29.265"	"29.79"	"26.064"	"20.663"	"15.844"
"1969"	"14.646"	"17.402"	"25.128"	"28.999"	"31.106"	"35.005"	"30.541"	"29.276"	"28.47"	"27.44"	"21.883"	"16.21"
"1970"	"15.109"	"16.202"	"22.071"	"29.288"	"33.165"	"31.977"	"31.071"	"29.088"	"28.623"	"26.879"	"19.864"	"16.017"
"1971"	"13.316"	"17.233"	"22.418"	"29.274"	"30.981"	"30.865"	"28.769"	"27.1"	"27.33"	"25.401"	"19.627"	"16.114"
"1972"	"14.548"	"14.463"	"23.351"	"27.253"	"32.921"	"33.175"	"31.281"	"27.873"	"27.636"	"25.252"	"20.826"	"16.037"
"1973"	"14.14"	"18.264"	"22.361"	"30.23"	"33.254"	"34.39"	"30.622"	"27.409"	"28.563"	"25.066"	"19.454"	"13.835"
"1974"	"13.625"	"15.185"	"24.299"	"29.942"	"31.97"	"31.97"	"29.608"	"28.79"	"29.511"	"25.984"	"19.652"	"14.433"
"1975"	"13.114"	"15.735"	"21.98"	"29.257"	"33.108"	"31.891"	"28.817"	"27.771"	"27.009"	"25.751"	"18.832"	"16.088"
"1976"	"15.1"	"17.248"	"21.313"	"27.489"	"31.741"	"30.94"	"29.436"	"26.81"	"27.646"	"26.683"	"20.764"	"15.234"
"1977"	"13.933"	"17.001"	"24.192"	"27.769"	"29.916"	"30.789"	"27.68"	"27.9"	"26.472"	"25.454"	"21.852"	"16.542"
"1978"	"13.473"	"14.8"	"20.182"	"27.917"	"35.24"	"32.518"	"28.15"	"27.169"	"27.03"	"25.428"	"20.154"	"15.257"
"1979"	"13.992"	"15.717"	"20.379"	"27.947"	"28.075"	"32.943"	"29.364"	"28.794"	"27.52"	"26.304"	"21.636"	"16.041"
"1980"	"13.961"	"17.972"	"21.771"	"29.476"	"32.128"	"31.794"	"28.168"	"28.088"	"28.218"	"26.841"	"20.528"	"15.35"
"1981"	"14.841"	"17.664"	"21.709"	"28.962"	"31.44"	"32.347"	"27.797"	"28.475"	"28.606"	"25.729"	"18.942"	"15.424"
"1982"	"14.349"	"15.054"	"19.87"	"26.652"	"29.239"	"32.901"	"31.35"	"27.977"	"29.352"	"26.382"	"20.749"	"15.796"
"1983"	"13.27"	"15.651"	"21.645"	"24.842"	"30.731"	"32.275"	"29.906"	"28.252"	"28.871"	"25.434"	"18.914"	"15.331"
"1984"	"13.261"	"14.635"	"23.487"	"28.643"	"34.912"	"33.962"	"29.306"	"28.28"	"27.073"	"24.33"	"19.434"	"15.461"
"1985"	"13.489"	"17.404"	"24.551"	"28.924"	"33.74"	"33.321"	"29.097"	"28.525"	"27.935"	"23.61"	"20.045"	"16.168"
"1986"	"14.162"	"15.835"	"22.378"	"28.565"	"30.799"	"33.221"	"29.67"	"28.934"	"28.81"	"25.814"	"21.798"	"14.877"
"1987"	"15.052"	"18.074"	"23.19"	"29.17"	"29.305"	"34.447"	"33.634"	"30.487"	"30.788"	"27.509"	"20.724"	"15.642"
"1988"	"15.826"	"18.365"	"22.556"	"29.57"	"35.068"	"32.727"	"29.097"	"28.055"	"28.921"	"25.704"	"20.71"	"16.335"
"1989"	"13.352"	"16.263"	"21.98"	"27.099"	"33.449"	"32.601"	"29.596"	"28.344"	"28.309"	"25.847"	"21.037"	"15.061"
"1990"	"16.088"	"16.425"	"20.881"	"28.098"	"32.267"	"33.664"	"29.154"	"28.452"	"27.861"	"25.102"	"20.71"	"15.824"
"1991"	"13.97"	"17.193"	"22.431"	"27.273"	"32.698"	"33.168"	"32.101"	"28.478"	"28.927"	"25.395"	"20.004"	"15.733"
"1992"	"14.651"	"15.935"	"22.162"	"27.853"	"31.879"	"34.54"	"29.874"	"28.36"	"27.572"	"25.476"	"19.961"	"16.459"
"1993"	"14.663"	"18.444"	"21.092"	"28.382"	"33.548"	"33.142"	"29.48"	"30.241"	"27.34"	"26.059"	"21.234"	"15.761"
"1994"	"15.846"	"16.582"	"24.1"	"26.98"	"33.287"	"33.791"	"29.048"	"27.942"	"27.679"	"25.332"	"20.363"	"16.124"
"1995"	"13.461"	"16.959"	"21.27"	"27.781"	"33.658"	"35.23"	"30.739"	"27.473"	"28.619"	"26.632"	"20.521"	"16.061"
"1996"	"13.972"	"17.273"	"23.736"	"28.744"	"32.142"	"31.395"	"30.467"	"27.968"	"27.974"	"25.673"	"19.751"	"14.851"
"1997"	"13.435"	"16.711"	"22"	"26.279"	"29.96"	"30.921"	"30.575"	"28.378"	"28.384"	"23.503"	"19.473"	"13.48"
"1998"	"13.938"	"17.301"	"20.792"	"28.762"	"33.389"	"32.843"	"30.186"	"29.209"	"28.708"	"25.874"	"21.062"	"15.847"
"1999"	"13.71"	"17.392"	"23.381"	"29.992"	"32.889"	"32.518"	"30.739"	"29.335"	"28.787"	"26.402"	"22.069"	"15.96"
"2000"	"14.648"	"15.99"	"22.373"	"30.271"	"33.72"	"31.953"	"29.378"	"29.009"	"28.701"	"26.521"	"21.677"	"16.32"
"2001"	"13.738"	"17.573"	"22.88"	"28.235"	"31.964"	"30.81"	"29.719"	"29.063"	"30.117"	"27.031"	"21.446"	"16.491"
"2002"	"14.427"	"17.056"	"23.67"	"29.981"	"33.392"	"33.34"	"31.59"	"29.635"	"27.76"	"26.531"	"21.282"	"16.73"
