
"Year"	"Jan"	"Feb"	"Mar"	"Apr"	"May"	"Jun"	"Jul"	"Aug"	"Sep"	"Oct"	"Nov"	"Dec"
"1901"	"71.038"	"14.106"	"10.95"	"0"	"3.181"	"17.15"	"246.536"	"440.091"	"130.015"	"4.389"	"0.173"	"3.47"
"1902"	"10.191"	"2.798"	"0"	"2.44"	"3.087"	"39.825"	"458.397"	"223.743"	"205.476"	"2.111"	"50.344"	"0.204"
"1903"	"4.977"	"1.216"	"2.289"	"0.324"	"6.207"	"21.642"	"175.091"	"424.371"	"225.601"	"58.391"	"0.173"	"0"
"1904"	"7.477"	"3.896"	"19.751"	"0.011"	"4.355"	"72.826"	"459.23"	"446.581"	"54.618"	"39.769"	"17.347"	"25.997"
"1905"	"19.34"	"9.929"	"10.122"	"1.131"	"0.001"	"21.108"	"227.589"	"222.516"	"144.482"	"0.201"	"0.173"	"1.098"
"1906"	"3.299"	"14.423"	"6.825"	"0"	"2.858"	"125.227"	"342.265"	"199.291"	"279.713"	"0.685"	"0.173"	"3.47"
"1907"	"7.092"	"55.656"	"4.428"	"15.276"	"3.418"	"38.914"	"185.911"	"516.987"	"2.863"	"0.201"	"4.04"	"0"
"1908"	"25.838"	"3.728"	"4.303"	"1.454"	"1.21"	"25.785"	"477.636"	"542.428"	"49.961"	"5.844"	"2.184"	"1.343"
"1909"	"14.92"	"7.885"	"0"	"13.601"	"3.93"	"210.342"	"434.418"	"235.517"	"123.664"	"0.201"	"0.173"	"27.915"
"1910"	"11.208"	"1.376"	"0"	"1.757"	"2.982"	"83.706"	"190.723"	"309.005"	"226.083"	"26.396"	"62.981"	"0"
"1911"	"29.379"	"0"	"25.408"	"1.42"	"0"	"87.695"	"116.331"	"217.724"	"342.198"	"42.981"	"84.957"	"4.136"
"1912"	"15.36"	"6.176"	"5.268"	"1.268"	"0.559"	"28.361"	"305.253"	"308.654"	"161.558"	"0.201"	"62.168"	"2.119"
"1913"	"0.2"	"32.917"	"11.115"	"0"	"15.127"	"121.538"	"155.079"	"183.758"	"41.638"	"0.201"	"0.173"	"17.641"
"1914"	"3.494"	"3.429"	"14.082"	"4.974"	"14.199"	"81.934"	"519.265"	"244.594"	"131.491"	"5.886"	"0.399"	"0"
"1915"	"16.324"	"31.517"	"42.075"	"10.863"	"3.427"	"62.247"	"295.512"	"398.773"	"163.615"	"53.565"	"0.893"	"2.435"
"1916"	"0.2"	"18.93"	"0"	"1.454"	"1.027"	"117.819"	"303.561"	"495.063"	"175.156"	"52.484"	"11.129"	"0"
"1917"	"12.775"	"32.56"	"14.791"	"4.966"	"23.807"	"127.687"	"413.358"	"397.637"	"275.537"	"32.68"	"0.173"	"8.098"
"1918"	"10.429"	"1.125"	"1.28"	"0.168"	"3.008"	"144.529"	"120.095"	"328.722"	"86.53"	"0.201"	"7.153"	"1.524"
"1919"	"75.778"	"5.404"	"0.622"	"15.211"	"6.906"	"40.226"	"345.668"	"621.117"	"94.59"	"31.588"	"7.075"	"5.147"
"1920"	"6.656"	"9.997"	"8.302"	"0"	"13.383"	"95.551"	"547.07"	"145.2"	"78.913"	"0.547"	"0.173"	"0"
"1921"	"45.86"	"1.992"	"0"	"0.017"	"0"	"126.704"	"146.449"	"324.957"	"269.326"	"2.632"	"0.173"	"0"
"1922"	"37.641"	"2.611"	"0.455"	"1.548"	"0.595"	"80.711"	"434.926"	"369.369"	"252.353"	"0.238"	"9.811"	"27.572"
"1923"	"3.827"	"9.116"	"2.754"	"1.159"	"3.619"	"9.987"	"368.208"	"512.646"	"247.31"	"24.074"	"1.837"	"10.891"
"1924"	"21.515"	"4.3"	"0"	"0"	"1.208"	"23.452"	"329.267"	"418.492"	"258.125"	"11.234"	"6.167"	"16.793"
"1925"	"0.2"	"0"	"0"	"0"	"19.37"	"140.355"	"748.339"	"237.238"	"202.399"	"3.295"	"69.135"	"0"
"1926"	"9.462"	"3.07"	"36.003"	"8.71"	"15.542"	"20.248"	"272.585"	"394.186"	"287.97"	"19.372"	"0.173"	"1.349"
"1927"	"5.552"	"18.962"	"16.581"	"5.146"	"1.246"	"42.856"	"474.644"	"240.599"	"136.819"	"39.101"	"110.875"	"11.524"
"1928"	"14.89"	"36.537"	"1.998"	"7.279"	"1.127"	"34.565"	"364.312"	"114.014"	"84.185"	"56.73"	"10.209"	"50.594"
"1929"	"40.511"	"3.828"	"0"	"5.161"	"0"	"57.782"	"489.277"	"401.54"	"63.91"	"14.553"	"0.173"	"33.894"
"1930"	"8.493"	"11.393"	"1.102"	"4.151"	"1.199"	"97.46"	"584.071"	"251.133"	"111.387"	"15.94"	"12.128"	"11.376"
"1931"	"1.379"	"12.84"	"0"	"0.017"	"1.389"	"49.54"	"248.364"	"315.876"	"365.893"	"87.593"	"49.505"	"0"
"1932"	"0.2"	"7.601"	"9.089"	"3.99"	"1.051"	"26.611"	"410.763"	"377.241"	"180.536"	"14.365"	"3.837"	"0"
"1933"	"0.2"	"10.712"	"5.828"	"18.978"	"16.64"	"218.618"	"207.669"	"313.735"	"258.474"	"26.314"	"0.604"	"0.163"
"1934"	"21.639"	"0"	"15.771"	"0"	"0"	"150.124"	"268.297"	"410.694"	"329.081"	"1.553"	"23.908"	"26.205"
"1935"	"22.26"	"12.344"	"0.222"	"15.791"	"1.625"	"103.571"	"442.059"	"369.923"	"207.738"	"3.243"	"0.893"	"20.365"
"1936"	"2.364"	"24.889"	"9.556"	"4.586"	"1.871"	"212.577"	"384.193"	"348.944"	"240.168"	"0.647"	"41.143"	"20.649"
"1937"	"0.2"	"44.08"	"3.227"	"10.662"	"2.962"	"126.707"	"307.256"	"295.104"	"142.848"	"30.19"	"10.327"	"11.748"
"1938"	"44.856"	"2.8"	"0.517"	"1.955"	"3.124"	"180.793"	"394.219"	"273.422"	"164.329"	"57.233"	"0.173"	"0"
"1939"	"27.114"	"7.499"	"1.55"	"3.639"	"0"	"127.232"	"440.845"	"287.593"	"202.514"	"5.834"	"0.173"	"0.204"
"1940"	"13.646"	"13.009"	"17.324"	"5.746"	"11.16"	"69.545"	"300.907"	"401.668"	"119.54"	"2.2"	"4.871"	"7.137"
"1941"	"31.548"	"7.072"	"5.741"	"0"	"4.051"	"61.75"	"200.903"	"214.937"	"102.775"	"0.201"	"0.173"	"0"
"1942"	"61.775"	"26.655"	"0.517"	"4.956"	"0.523"	"78.842"	"519.007"	"390.986"	"242.492"	"0.685"	"0.173"	"14.194"
"1943"	"38.938"	"0.735"	"0.371"	"12.982"	"8.368"	"67.689"	"285.716"	"555.422"	"195.364"	"12.532"	"0.173"	"0"
"1944"	"26.556"	"25.194"	"37.782"	"16.347"	"0"	"39.067"	"507.158"	"531.729"	"75.813"	"14.29"	"0.173"	"4.211"
"1945"	"48.497"	"0.289"	"0"	"13.52"	"4.552"	"105.783"	"338.038"	"381.652"	"220.43"	"9.497"	"0.173"	"17.461"
"1946"	"0.2"	"14.034"	"0"	"9.718"	"3"	"125.057"	"370.563"	"506.022"	"21.883"	"20.144"	"47.458"	"9.026"
"1947"	"27.83"	"11.811"	"6.817"	"2.336"	"0.511"	"57.724"	"537.31"	"466.919"	"300.843"	"25.514"	"5.039"	"2.037"
"1948"	"65.933"	"7.872"	"0"	"1.454"	"1.377"	"142.174"	"455.684"	"478.174"	"201.721"	"19.697"	"70.825"	"0"
"1949"	"0.2"	"15.391"	"0.843"	"0"	"1.104"	"37.833"	"380.594"	"450.903"	"307.495"	"48.518"	"0.283"	"0"
"1950"	"21.821"	"3.446"	"20.421"	"0.011"	"2.803"	"44.603"	"337.518"	"477.551"	"127.474"	"0.201"	"0.173"	"19.568"
"1951"	"16.239"	"18.199"	"18.659"	"2.706"	"5.232"	"108.836"	"301.488"	"432.573"	"230.08"	"1.652"	"23.542"	"0"
"1952"	"0.465"	"19.514"	"15.27"	"2.646"	"1.463"	"147.504"	"309.438"	"541.147"	"60.768"	"0.201"	"0.173"	"19.875"
"1953"	"34.628"	"11.274"	"0"	"2.136"	"0.307"	"73.631"	"372.839"	"325.329"	"126.406"	"3.968"	"0.173"	"4.783"
"1954"	"33.589"	"24.262"	"6.912"	"0"	"0"	"54.39"	"273.979"	"333.443"	"293.501"	"30.488"	"0.173"	"0"
"1955"	"50.632"	"10"	"1.117"	"0"	"0.879"	"144.153"	"377.164"	"476.607"	"244.61"	"84.553"	"0.173"	"0.664"
"1956"	"22.87"	"8.929"	"10.471"	"0"	"1.495"	"165.946"	"555.243"	"393.147"	"195.975"	"75.148"	"74.038"	"12.908"
"1957"	"29.508"	"0.289"	"32.896"	"4.143"	"4.273"	"62.422"	"360.797"	"345.433"	"180.243"	"5.571"	"4.084"	"2.977"
"1958"	"12.903"	"3.612"	"16.485"	"0.238"	"0"	"34.797"	"448.765"	"383.018"	"217.252"	"70.006"	"0.173"	"4.105"
"1959"	"42.415"	"4.4"	"0"	"3.425"	"26.077"	"42.6"	"270.912"	"495.919"	"167.054"	"55.526"	"5.138"	"0"
"1960"	"32.589"	"0"	"15.541"	"1.608"	"1.949"	"40.931"	"398.902"	"751.704"	"74.436"	"73.125"	"0.173"	"4.136"
"1961"	"48.41"	"12.926"	"0.977"	"1.744"	"4.065"	"77.53"	"318.546"	"599.181"	"199.914"	"77.584"	"21.131"	"2.924"
"1962"	"27.524"	"11.048"	"6.424"	"17.73"	"1.544"	"25.853"	"365.296"	"508.545"	"347.218"	"0.201"	"0.173"	"6.129"
"1963"	"30.674"	"8.798"	"6.564"	"8.16"	"5.358"	"78.888"	"423.656"	"381.927"	"331.5"	"1.189"	"10.7"	"8.188"
"1964"	"0.2"	"2.799"	"9.921"	"1.433"	"10.534"	"48.109"	"391.915"	"390.25"	"259.464"	"4.178"	"0.173"	"2.037"
"1965"	"7.325"	"3.326"	"10.05"	"15.689"	"1.391"	"20.289"	"270.088"	"196.951"	"180.826"	"25.79"	"0.173"	"9.211"
"1966"	"1.462"	"4.316"	"0"	"0"	"4.72"	"192.777"	"218.966"	"261.438"	"22.07"	"0.547"	"98.357"	"7.438"
"1967"	"1.316"	"0"	"29.361"	"1.693"	"0.199"	"44.395"	"310.424"	"627.525"	"214.11"	"0.285"	"0.173"	"62.088"
"1968"	"32.161"	"3.506"	"6.291"	"0"	"0"	"61.804"	"368.85"	"175.19"	"49.769"	"36.01"	"0.173"	"4.26"
"1969"	"3.777"	"5.699"	"0.517"	"0"	"12.688"	"13.462"	"555.13"	"360.87"	"131.405"	"0.201"	"64.302"	"0"
"1970"	"46.145"	"38.457"	"11.751"	"0"	"12.877"	"104.109"	"227.597"	"413.903"	"370.668"	"13.911"	"0.173"	"0"
"1971"	"21.806"	"8.117"	"1.318"	"10.063"	"13.959"	"253.066"	"316.875"	"400.124"	"173.599"	"88.587"	"2.049"	"0"
"1972"	"14.734"	"18.557"	"0"	"0.238"	"1.208"	"19.045"	"103.49"	"436.245"	"166.502"	"61.686"	"27.715"	"4.637"
"1973"	"10.222"	"4.66"	"0"	"0"	"1.924"	"10.581"	"513.982"	"571.232"	"185.386"	"47.557"	"0.173"	"8.753"
"1974"	"0.2"	"0.612"	"0.231"	"0.719"	"3.44"	"47.492"	"301.47"	"348.241"	"37.968"	"46.112"	"0.56"	"0"
"1975"	"7.527"	"8.789"	"7.077"	"1.967"	"0"	"154.481"	"349.546"	"302.936"	"196.03"	"28.793"	"0.173"	"0"
"1976"	"22.534"	"0.765"	"2.315"	"9.162"	"5.625"	"103.415"	"250.577"	"353.742"	"210.395"	"0.201"	"48.832"	"0"
"1977"	"27.514"	"6.001"	"1.752"	"6.684"	"5.68"	"155.709"	"432.908"	"325.603"	"188.528"	"42.728"	"20.839"	"4.906"
"1978"	"16.118"	"53.107"	"24.306"	"7.032"	"0"	"183.845"	"245.685"	"419.253"	"241.324"	"3.893"	"0.799"	"25.491"
"1979"	"41.564"	"27.908"	"1.585"	"1.344"	"11.328"	"83.08"	"295.548"	"162.489"	"26.293"	"0.238"	"62.33"	"3.558"
"1980"	"0.4"	"3.11"	"6.587"	"0.017"	"0.427"	"166.492"	"421.03"	"559.618"	"91.393"	"8.14"	"2.049"	"35.444"
"1981"	"11.184"	"1.414"	"11.38"	"0"	"7.044"	"171.842"	"350.316"	"373.064"	"105.73"	"0.222"	"18.478"	"8.083"
"1982"	"98.751"	"7.466"	"16.147"	"4.189"	"9.317"	"54.838"	"215.619"	"681.337"	"226.104"	"2.422"	"103.312"	"10.021"
"1983"	"15.351"	"1.74"	"0.231"	"13.043"	"13.8"	"92.087"	"296.689"	"384.594"	"306.478"	"44.218"	"0.173"	"2.741"
"1984"	"48.718"	"22.422"	"0"	"12.009"	"1.93"	"114.576"	"158.15"	"342.001"	"125.287"	"8.824"	"0.173"	"0"
"1985"	"19.089"	"0"	"1.28"	"11.954"	"4.598"	"61.723"	"421.513"	"392.511"	"214.66"	"97.942"	"0.173"	"10.31"
"1986"	"19.063"	"30.816"	"7.645"	"0"	"18.65"	"93.688"	"249.335"	"280.902"	"104.82"	"22.888"	"0.173"	"36.035"
"1987"	"29.507"	"20.265"	"5.711"	"0"	"11.452"	"20.398"	"141.235"	"272.874"	"79.937"	"31.531"	"0.173"	"11.952"
"1988"	"7.794"	"2.232"	"10.147"	"6.896"	"2.181"	"146.291"	"279.232"	"304.775"	"75.658"	"4.637"	"0.173"	"14.233"
"1989"	"7.583"	"0"	"12.984"	"0.369"	"0.307"	"64.146"	"297.093"	"292.33"	"104.048"	"8.857"	"15.239"	"18.207"
"1990"	"0.2"	"22.006"	"1.89"	"3.749"	"12.241"	"232.213"	"472.744"	"442.108"	"322.514"	"2.568"	"0.173"	"6.208"
"1991"	"5.364"	"11.321"	"8.118"	"13.666"	"8.154"	"60.582"	"86.033"	"265.328"	"95.134"	"0.201"	"2.961"	"32.769"
"1992"	"30.845"	"8.506"	"4.387"	"1.037"	"13.875"	"17.28"	"84.681"	"244.808"	"231.672"	"39.944"	"34.053"	"0"
"1993"	"7.762"	"4.734"	"7.523"	"1.034"	"8.533"	"75.271"	"199.781"	"183.159"	"198.072"	"16.508"	"0.173"	"0.42"
"1994"	"37.303"	"18.732"	"20.118"	"4.905"	"6.664"	"180.198"	"586.717"	"370.759"	"104.058"	"5.844"	"0.173"	"0"
"1995"	"45.901"	"11.185"	"14.216"	"8.679"	"0.486"	"58.201"	"250.404"	"281.358"	"187.882"	"5.284"	"20.963"	"20.921"
"1996"	"38.451"	"9.897"	"3.223"	"13.035"	"4.836"	"152.925"	"238.815"	"402.652"	"192.564"	"45.46"	"0.173"	"0"
"1997"	"8.028"	"0"	"1.861"	"4.558"	"8.842"	"100.015"	"150.434"	"268.926"	"190.919"	"37.102"	"84.627"	"37.98"
"1998"	"0.2"	"2.441"	"21.261"	"4.253"	"8.129"	"109.833"	"264.446"	"432.233"	"160.26"	"21.498"	"28.122"	"0.059"
"1999"	"26.953"	"40.791"	"0"	"0"	"7.412"	"82.641"	"400.275"	"335.054"	"276.42"	"55.906"	"0.173"	"1.983"
"2000"	"9.193"	"3.464"	"0.622"	"0.577"	"7.793"	"65.672"	"440.366"	"182.165"	"159.563"	"0.201"	"0.173"	"0"
"2001"	"10.283"	"3.146"	"5.199"	"5.782"	"14.758"	"188.816"	"262.509"	"252.07"	"67.638"	"37.909"	"8.322"	"0"
"2002"	"17.677"	"24.968"	"1.557"	"1.268"	"6.58"	"54.393"	"79.805"	"333.855"	"166.014"	"34.673"	"15.458"	"6.534"
