
"Year"	"Jan"	"Feb"	"Mar"	"Apr"	"May"	"Jun"	"Jul"	"Aug"	"Sep"	"Oct"	"Nov"	"Dec"
"1901"	"36.077"	"12.401"	"5.245"	"20.764"	"39.377"	"137.93"	"286.107"	"333.794"	"157.671"	"62.185"	"29.032"	"0"
"1902"	"0"	"0"	"21.162"	"60.8"	"52.431"	"153.844"	"379.439"	"251.606"	"405.191"	"42.019"	"0.221"	"2.654"
"1903"	"5.361"	"11.115"	"14.521"	"51.374"	"88.325"	"233.364"	"158.156"	"334.411"	"189.918"	"143.97"	"13.223"	"0"
"1904"	"0.268"	"8.336"	"24.597"	"17.542"	"284.827"	"381.93"	"371.954"	"271.297"	"111.537"	"22.125"	"11.293"	"0.295"
"1905"	"15.706"	"28.409"	"33.818"	"30.655"	"139.01"	"70.653"	"396.525"	"452.88"	"244.365"	"38.301"	"0.265"	"1.647"
"1906"	"25.582"	"57.389"	"24.082"	"7.171"	"74.973"	"226.177"	"291.929"	"246.011"	"133.547"	"184.528"	"5.129"	"0"
"1907"	"7.447"	"28.355"	"40.527"	"38.488"	"64.56"	"277.288"	"257.741"	"224.826"	"264.386"	"33.227"	"0"	"2.886"
"1908"	"10.549"	"26.428"	"5.081"	"6.724"	"69.744"	"308.108"	"328.117"	"272.493"	"146.434"	"10.731"	"0.159"	"0.478"
"1909"	"11.783"	"4.626"	"0.047"	"89.107"	"57.958"	"352.117"	"228.579"	"427.288"	"219.703"	"38.367"	"2.094"	"4.171"
"1910"	"1.46"	"23.681"	"23.056"	"56.902"	"57.523"	"220.571"	"403.45"	"340.369"	"169.698"	"93.515"	"7.312"	"0"
"1911"	"9.298"	"0.714"	"21.686"	"8.804"	"69.812"	"556.28"	"215.564"	"310.323"	"285.495"	"155.555"	"12.307"	"0"
"1912"	"0.468"	"9.68"	"16.013"	"63.537"	"87.131"	"236.057"	"369.739"	"299.387"	"63.527"	"47.11"	"19.068"	"2.425"
"1913"	"0.11"	"32.45"	"31.347"	"7.906"	"126.191"	"526.356"	"196.379"	"347.278"	"222.392"	"71.59"	"2.481"	"18.841"
"1914"	"0"	"27.512"	"14.821"	"28.419"	"116.838"	"143.325"	"528.737"	"368.888"	"132.538"	"42.402"	"0"	"5.846"
"1915"	"2.331"	"22.072"	"24.088"	"17.957"	"117.823"	"278.545"	"313.554"	"328.91"	"209.573"	"50.457"	"14.894"	"0"
"1916"	"0.31"	"6.674"	"5.747"	"28.677"	"36.769"	"367.199"	"340.104"	"293.454"	"300.217"	"297.393"	"16.907"	"0"
"1917"	"1.477"	"23.549"	"7.938"	"22.173"	"122.143"	"220.537"	"407.807"	"171.261"	"380.323"	"273.345"	"17.084"	"0"
"1918"	"1.992"	"2.482"	"9.883"	"45.138"	"122.273"	"282.373"	"190.681"	"560.172"	"217.591"	"28.057"	"0.065"	"2.05"
"1919"	"16.007"	"13.858"	"12.142"	"12.901"	"106.352"	"229.703"	"318.499"	"371.711"	"222.667"	"127.738"	"13.155"	"0"
"1920"	"3.217"	"20.72"	"40.76"	"17.191"	"62.884"	"138.961"	"481.236"	"245.154"	"388.9"	"20.509"	"0.037"	"0"
"1921"	"32.432"	"3.889"	"11.617"	"26.569"	"47.772"	"231.329"	"367.308"	"411.388"	"203.018"	"48.382"	"0"	"0"
"1922"	"8.891"	"4.35"	"0.05"	"6.99"	"38.495"	"498.125"	"346.862"	"341.701"	"262.409"	"41.342"	"0"	"7.603"
"1923"	"0.685"	"37.713"	"1.685"	"10.154"	"42.753"	"197.834"	"222.338"	"311.22"	"142.71"	"95.094"	"2.943"	"0.82"
"1924"	"5.087"	"8.227"	"0.603"	"27.346"	"59.531"	"281.789"	"400.685"	"371.357"	"274.051"	"79.084"	"48.717"	"0"
"1925"	"41.949"	"7.881"	"6.169"	"86.116"	"92.473"	"255.638"	"507.74"	"253.245"	"256.144"	"28.899"	"3.518"	"0"
"1926"	"27.84"	"0.585"	"57.7"	"22.358"	"137.38"	"80.237"	"462.899"	"309.124"	"224.905"	"61.131"	"0"	"6.011"
"1927"	"25.157"	"64.529"	"35.772"	"8.111"	"83.997"	"261.659"	"332.699"	"341.042"	"119.969"	"55.326"	"22.853"	"0"
"1928"	"43.565"	"3.52"	"1.429"	"15.07"	"122.448"	"404.867"	"437.454"	"215.454"	"243.003"	"125.069"	"0.745"	"0.934"
"1929"	"32.344"	"1.196"	"14.895"	"35.47"	"91.584"	"214.035"	"387.41"	"215.136"	"82.048"	"289.841"	"0.693"	"4.362"
"1930"	"3.044"	"11.458"	"8.809"	"21.427"	"80.828"	"195.131"	"404.265"	"282.611"	"179.032"	"78.134"	"30.212"	"5.608"
"1931"	"12.735"	"44.144"	"19.916"	"7.907"	"73.87"	"160.65"	"526.735"	"215.298"	"430.996"	"49.811"	"11.365"	"0.77"
"1932"	"0.166"	"29.734"	"6.407"	"31.491"	"110.989"	"123.281"	"348.68"	"254.972"	"255.717"	"50.689"	"37.247"	"4.767"
"1933"	"40.4"	"11.365"	"1.437"	"44.049"	"103.136"	"247.159"	"371.78"	"426.394"	"135.737"	"88.016"	"0"	"0"
"1934"	"15.716"	"29.377"	"0.662"	"52.317"	"76.917"	"256.836"	"320.937"	"304.824"	"266.386"	"88.446"	"5.696"	"1.654"
"1935"	"12.932"	"14.251"	"9.842"	"3.839"	"45.481"	"185.931"	"215.457"	"573.619"	"347.682"	"14.424"	"0.131"	"0.838"
"1936"	"6.074"	"12.051"	"14.094"	"12.542"	"162.26"	"231.684"	"353.343"	"257.115"	"470.599"	"92.235"	"0.332"	"15.023"
"1937"	"0"	"25.663"	"5.55"	"65.894"	"93.995"	"220.722"	"182.245"	"442.041"	"307.939"	"129.979"	"0.611"	"0.493"
"1938"	"2.991"	"24.724"	"10.693"	"11.469"	"136.956"	"340.051"	"247.924"	"296.314"	"128.47"	"53.758"	"4.821"	"0"
"1939"	"6.736"	"12.571"	"7.126"	"14.855"	"65.014"	"218.467"	"509.34"	"269.189"	"341.637"	"141.945"	"1.414"	"0.047"
"1940"	"0.153"	"28.507"	"45.202"	"10.779"	"79.052"	"176.006"	"320.582"	"315.946"	"175.219"	"49.343"	"0.265"	"2.304"
"1941"	"26.112"	"2.874"	"10.963"	"21.219"	"70.9"	"330.028"	"335.406"	"340.078"	"272.524"	"168.947"	"14.53"	"0.094"
"1942"	"4.05"	"40.689"	"7.906"	"15.967"	"34.955"	"147.365"	"409.961"	"561.307"	"457.919"	"58.421"	"2.078"	"0.459"
"1943"	"33.028"	"10.718"	"21.178"	"101.956"	"101.91"	"183.61"	"645.039"	"303.721"	"260.965"	"62.655"	"0"	"0"
"1944"	"18.128"	"30.461"	"44.876"	"41.398"	"79.101"	"210.21"	"367.602"	"444.904"	"157.59"	"50.736"	"0"	"0"
"1945"	"37.522"	"19.201"	"5.971"	"70.436"	"79.045"	"220.536"	"294.156"	"405.333"	"325.913"	"173.79"	"0"	"0.934"
"1946"	"0"	"6.467"	"19.287"	"41.608"	"101.099"	"190.398"	"351.697"	"261.727"	"204.597"	"211.562"	"16.83"	"0"
"1947"	"2.42"	"4.534"	"23.11"	"10.694"	"66.895"	"206.552"	"415.834"	"288.308"	"334.389"	"56.812"	"0.431"	"1.922"
"1948"	"4.653"	"6.666"	"5.58"	"93.536"	"117.051"	"155.127"	"310.25"	"275.805"	"141.508"	"124.288"	"15.024"	"0"
"1949"	"3.494"	"15.35"	"12.206"	"40.927"	"153.842"	"423.709"	"328.334"	"484.161"	"197.702"	"48.943"	"0.002"	"0"
"1950"	"0.59"	"19.628"	"38.832"	"11.071"	"32.224"	"414.554"	"185.579"	"317.516"	"155.768"	"82.003"	"9.288"	"0"
"1951"	"7.857"	"0"	"29.501"	"7.616"	"40.771"	"210.188"	"394.326"	"357.16"	"233.634"	"98.849"	"25.917"	"0"
"1952"	"0"	"5.002"	"23.697"	"74.533"	"42.14"	"388.821"	"282.242"	"315.5"	"296.879"	"121.314"	"35.123"	"0"
"1953"	"44.795"	"8.692"	"23.6"	"3.955"	"46.563"	"184.542"	"459.521"	"219.614"	"297.434"	"8.822"	"0.918"	"0.196"
"1954"	"24.104"	"3.023"	"0.66"	"2.954"	"68.469"	"363.018"	"393.197"	"271.245"	"280.2"	"74.626"	"0"	"2.955"
"1955"	"33.231"	"6.423"	"6.009"	"38.025"	"33.253"	"250.432"	"531.79"	"259.284"	"176.04"	"62.409"	"18.186"	"0.936"
"1956"	"15.777"	"22.577"	"8.77"	"57.095"	"138.899"	"341.726"	"277.404"	"354.107"	"270.457"	"193.502"	"35.178"	"7.513"
"1957"	"8.334"	"8.333"	"9.027"	"3.355"	"22.92"	"137.832"	"265.683"	"169.263"	"221.384"	"73.84"	"0"	"1.264"
"1958"	"10.954"	"15.889"	"11.099"	"22.087"	"38.222"	"103.042"	"346.389"	"568.141"	"215.376"	"114.606"	"2.435"	"0"
"1959"	"17.645"	"0.037"	"7.23"	"18.851"	"93.247"	"194.902"	"308.962"	"321.772"	"263.321"	"372.742"	"0"	"0.052"
"1960"	"0.625"	"0"	"32.048"	"2.06"	"55.615"	"153.8"	"304.699"	"194.994"	"279.19"	"60.495"	"2.593"	"0"
"1961"	"7.037"	"56.198"	"3.162"	"8.656"	"63.091"	"223.027"	"190.429"	"279.69"	"243.249"	"161.906"	"1.44"	"4.162"
"1962"	"11.079"	"14.067"	"3.751"	"2.546"	"90.429"	"193.01"	"221.541"	"479.178"	"145.369"	"60.563"	"0"	"1.841"
"1963"	"0.625"	"1.631"	"33.312"	"67.644"	"116.379"	"251.255"	"324.534"	"150.696"	"218.669"	"204.539"	"15.856"	"0.457"
"1964"	"1.792"	"2.303"	"7.064"	"54.842"	"61.976"	"221.174"	"303.524"	"214.18"	"151.123"	"92.27"	"0.946"	"0"
"1965"	"0"	"9.117"	"14.827"	"29.828"	"76.316"	"115.954"	"270.62"	"382.069"	"168.46"	"27.02"	"9.535"	"1.241"
"1966"	"31.428"	"1.253"	"0.413"	"8.896"	"54.174"	"169.727"	"164.429"	"300.437"	"135.967"	"33.618"	"35.17"	"14.21"
"1967"	"6.571"	"0.52"	"61.502"	"74.847"	"27.79"	"158.107"	"288.431"	"309.951"	"154.411"	"56.918"	"0"	"0.491"
"1968"	"15.533"	"2.084"	"9.841"	"19.795"	"33.198"	"371.381"	"393.847"	"285.434"	"108.592"	"211.919"	"7.136"	"2.552"
"1969"	"9.677"	"3.03"	"22.413"	"32.483"	"108.316"	"171.767"	"347.399"	"378.823"	"215.401"	"63.043"	"12.03"	"0"
"1970"	"21.631"	"11.869"	"6.621"	"8.003"	"57.714"	"226.121"	"319.21"	"265.694"	"284.276"	"125.875"	"4.125"	"0"
"1971"	"20.617"	"10.989"	"9.076"	"124.501"	"99.73"	"261.018"	"400.941"	"491.038"	"301.571"	"123.615"	"10.669"	"0"
"1972"	"7.591"	"24.515"	"2.891"	"18.824"	"41.771"	"111.263"	"200.819"	"317.272"	"200.128"	"56.834"	"0.241"	"0"
"1973"	"9.683"	"6.806"	"15.682"	"7.319"	"118.23"	"426.249"	"256.758"	"200.705"	"463.245"	"207.17"	"39.479"	"13.766"
"1974"	"5.36"	"0"	"39.432"	"36.046"	"109.675"	"145.478"	"361.974"	"225.374"	"308.675"	"49.298"	"5.412"	"2.01"
"1975"	"6.806"	"4.835"	"3.908"	"25.32"	"107.83"	"189.869"	"399.528"	"133.818"	"270.6"	"73.621"	"6.484"	"0"
"1976"	"1.969"	"13.747"	"4.938"	"30.791"	"118.725"	"159.501"	"335.261"	"299.257"	"258.964"	"37.356"	"1.224"	"0"
"1977"	"2.596"	"13.368"	"1.6"	"50.464"	"87.162"	"315.983"	"568.769"	"192.727"	"132.266"	"136.009"	"23.558"	"23.964"
"1978"	"2.506"	"30.116"	"40.295"	"61.424"	"129.861"	"281.846"	"359.052"	"281.007"	"427.175"	"131.131"	"25.196"	"0.708"
"1979"	"23.522"	"25.541"	"2.975"	"39.083"	"28.673"	"121.718"	"341.503"	"309.509"	"207.533"	"92.776"	"9.324"	"29.022"
"1980"	"14.336"	"8.345"	"35.236"	"10.32"	"114.827"	"265.263"	"266.34"	"228.561"	"166.096"	"71.154"	"8.695"	"0"
"1981"	"21.084"	"10.394"	"28.226"	"90.907"	"120.076"	"168.479"	"388.904"	"226.796"	"179.586"	"1.022"	"1.422"	"20.934"
"1982"	"0.186"	"6.706"	"15.109"	"61.225"	"34.223"	"129.288"	"203.145"	"185.212"	"207.12"	"46.937"	"12.953"	"0.178"
"1983"	"16.853"	"7.333"	"15.738"	"25.533"	"133.302"	"185.164"	"441.414"	"215.825"	"164.221"	"162.626"	"0.861"	"11.132"
"1984"	"22.354"	"12.702"	"6.506"	"41.688"	"97.108"	"432.426"	"435.924"	"246.546"	"541.535"	"57.581"	"0"	"0"
"1985"	"3.608"	"6.947"	"2.02"	"18.663"	"93.868"	"157.361"	"389.764"	"118.991"	"230.991"	"55.223"	"2.292"	"21.419"
"1986"	"5.01"	"1.873"	"0.052"	"66.088"	"120.92"	"188.307"	"298.857"	"213.675"	"333.568"	"136.967"	"30.964"	"6.824"
"1987"	"0.595"	"7.698"	"17.891"	"43.719"	"82.033"	"136.648"	"395.51"	"280.032"	"179.669"	"96.241"	"11.638"	"2.509"
"1988"	"3.596"	"25.208"	"21.657"	"31.34"	"80.387"	"159.684"	"331.939"	"492.828"	"173.831"	"41.81"	"32.502"	"4.311"
"1989"	"13.27"	"11.207"	"3.845"	"1.276"	"129.193"	"242.651"	"300.454"	"248.855"	"322.725"	"63.5"	"8.793"	"1.543"
"1990"	"0.291"	"23.654"	"14.594"	"36.828"	"211.951"	"279.333"	"414.308"	"286.175"	"297.278"	"261.58"	"5.182"	"0.277"
"1991"	"15.497"	"7.279"	"18.431"	"24.213"	"35.804"	"215.687"	"301.529"	"452.797"	"276.542"	"72.063"	"1.916"	"11.842"
"1992"	"8.664"	"4.452"	"4.881"	"29.037"	"93.218"	"105.025"	"380.899"	"247.192"	"183"	"29.933"	"1.338"	"0.456"
"1993"	"26.014"	"5.867"	"27.49"	"54.171"	"104.355"	"260.21"	"250.92"	"333.125"	"313.254"	"85.415"	"7.404"	"0"
"1994"	"36.664"	"17.202"	"20.298"	"56.589"	"66.479"	"162.182"	"271.509"	"351.847"	"127.695"	"128.184"	"16.21"	"0.389"
"1995"	"28.491"	"18.913"	"10.41"	"23.247"	"74.349"	"215.549"	"284.049"	"227.861"	"350.288"	"59.781"	"31.521"	"1.966"
"1996"	"11.801"	"10.588"	"5.4"	"42.685"	"88.028"	"97.962"	"209.237"	"381.009"	"147.903"	"118.812"	"0"	"0"
"1997"	"17.79"	"7.355"	"19.587"	"34.336"	"151.082"	"80.538"	"244.135"	"322.468"	"270.781"	"71.18"	"17.314"	"15.147"
"1998"	"8.789"	"25.83"	"15.702"	"34.882"	"140.807"	"88.211"	"212.391"	"271.748"	"240.595"	"274.509"	"19.903"	"0"
"1999"	"7.059"	"2.963"	"1.597"	"2.852"	"113.892"	"180.358"	"304.234"	"370.597"	"239.629"	"92.349"	"10.604"	"0.247"
"2000"	"8.869"	"16.163"	"5.504"	"31.051"	"96.004"	"218.662"	"151.793"	"267.302"	"235.612"	"30.006"	"1.941"	"0.988"
"2001"	"1.553"	"5.21"	"24.496"	"30.101"	"124.54"	"146.629"	"241.728"	"250.798"	"149.862"	"134.148"	"4.88"	"0"
"2002"	"17.476"	"3.692"	"13.473"	"50.303"	"56.854"	"169.657"	"216.701"	"274.066"	"176.777"	"104.932"	"17.878"	"0"
