
"Year"	"Jan"	"Feb"	"Mar"	"Apr"	"May"	"Jun"	"Jul"	"Aug"	"Sep"	"Oct"	"Nov"	"Dec"
"1901"	"14.953"	"20.156"	"3.351"	"19.508"	"58.423"	"48.108"	"143.911"	"169.963"	"164.975"	"94.619"	"143.758"	"0.03"
"1902"	"3.016"	"0"	"4.365"	"44.166"	"53.6"	"101.053"	"190.677"	"276.145"	"209.537"	"45.953"	"13.304"	"26.73"
"1903"	"0"	"0.915"	"0.006"	"24.194"	"29.99"	"165.564"	"440.28"	"265.991"	"220.815"	"114.898"	"57.653"	"16.589"
"1904"	"0"	"0"	"1.498"	"0.345"	"94.328"	"124.427"	"144.141"	"266.87"	"216.064"	"148.625"	"0.474"	"7.624"
"1905"	"0.179"	"22.685"	"21.56"	"180.554"	"94.9"	"74.724"	"151.549"	"252.283"	"394.026"	"14.637"	"0.524"	"0"
"1906"	"6.514"	"13.629"	"15.253"	"0.345"	"2.311"	"309.647"	"227.97"	"170.596"	"141.081"	"51.433"	"9.06"	"2.99"
"1907"	"0"	"0.158"	"18.258"	"137.43"	"24.717"	"278.473"	"126.999"	"266.75"	"79.45"	"18.352"	"19.078"	"7.623"
"1908"	"9.658"	"0.156"	"0"	"37.645"	"54.379"	"70.538"	"169.822"	"308.738"	"334.253"	"5.841"	"0.583"	"0"
"1909"	"0.452"	"18.253"	"0.063"	"111.752"	"7.568"	"89.638"	"207.62"	"176.453"	"126.775"	"8.67"	"0.474"	"6.37"
"1910"	"0"	"0.049"	"0"	"27.969"	"28.973"	"193.811"	"266.141"	"223.633"	"202.808"	"262.607"	"50.486"	"0"
"1911"	"0"	"0"	"10.316"	"34.02"	"30.717"	"151.852"	"157.034"	"201.857"	"173.035"	"72.773"	"61.671"	"15.978"
"1912"	"0"	"9.187"	"7.756"	"31.038"	"46.054"	"72.535"	"244.604"	"253.028"	"217.674"	"60.058"	"41.451"	"12.102"
"1913"	"0"	"22.428"	"0"	"39.937"	"12.409"	"138.78"	"305.392"	"144.393"	"153.064"	"104.7"	"37.288"	"0.218"
"1914"	"0"	"0.4"	"3.033"	"55.181"	"65.117"	"273.606"	"211.739"	"100.225"	"299.512"	"20.163"	"1.402"	"1.496"
"1915"	"11.177"	"10.119"	"19.964"	"65.531"	"65.937"	"164.046"	"345.286"	"317.466"	"205.751"	"92.637"	"51.001"	"0"
"1916"	"0"	"4.05"	"0"	"4.532"	"13.884"	"117.262"	"184.851"	"258.483"	"177.866"	"123.571"	"41.956"	"0"
"1917"	"0"	"12.1"	"0.74"	"12.406"	"96.526"	"207.904"	"232.827"	"213.37"	"255.973"	"298.421"	"65.599"	"5.123"
"1918"	"6.267"	"8.66"	"12.264"	"86.097"	"44.455"	"205.47"	"207.791"	"230.708"	"181.728"	"46.817"	"74.09"	"1.306"
"1919"	"7.622"	"29.156"	"8.156"	"1.282"	"32.501"	"163.157"	"234.208"	"227.371"	"112.122"	"119.153"	"136.94"	"1.744"
"1920"	"8.233"	"2.605"	"11.042"	"12.583"	"34.966"	"85.186"	"182.517"	"146.63"	"148.694"	"61.138"	"19.864"	"0"
"1921"	"10.557"	"0"	"0"	"45.524"	"0.414"	"123.636"	"190.313"	"111.689"	"282.185"	"110.871"	"0.474"	"0"
"1922"	"2.632"	"0"	"0"	"1.144"	"15.2"	"131.019"	"172.528"	"168.228"	"184.806"	"47.696"	"51.8"	"0"
"1923"	"0"	"26.142"	"2.524"	"22.648"	"6.086"	"53.893"	"203.859"	"153.199"	"204.975"	"159.07"	"62.423"	"0"
"1924"	"11.304"	"0"	"3.782"	"28.326"	"22.126"	"76.723"	"119.731"	"217.211"	"301.943"	"79.258"	"165.959"	"0"
"1925"	"1.121"	"0"	"0.169"	"89.921"	"163.322"	"145.029"	"300.231"	"278.975"	"132.024"	"208.853"	"7.561"	"0.565"
"1926"	"12.78"	"0.086"	"35.395"	"39.146"	"65.258"	"92.573"	"272.475"	"222.188"	"233.934"	"46.01"	"1.762"	"0"
"1927"	"0.708"	"15.557"	"54.864"	"18.533"	"22.176"	"238.001"	"333.224"	"314.407"	"173.837"	"92.252"	"45.415"	"0"
"1928"	"0"	"0.248"	"22.788"	"20.357"	"46.238"	"185.781"	"270.963"	"195.644"	"274.929"	"194.961"	"0.474"	"3.677"
"1929"	"0"	"31.642"	"0.051"	"34.339"	"39.001"	"197.115"	"260.173"	"347.648"	"233.812"	"106.778"	"11.389"	"5.146"
"1930"	"0"	"9.461"	"24.466"	"66.584"	"64.448"	"200.786"	"227.75"	"184.155"	"167.934"	"142.037"	"129.403"	"0.312"
"1931"	"0"	"0.214"	"1.236"	"14.602"	"64.532"	"145.715"	"186.64"	"290.985"	"208.945"	"260.003"	"123.379"	"0.04"
"1932"	"0"	"25.988"	"0"	"25.991"	"36.55"	"47.824"	"248.787"	"207.038"	"244.557"	"35.158"	"167.795"	"0.04"
"1933"	"7.951"	"0.051"	"14.015"	"25.438"	"47.599"	"137.858"	"266.44"	"184.796"	"254.909"	"142.104"	"56.857"	"9.445"
"1934"	"0"	"0"	"0.254"	"10.57"	"1.847"	"214.343"	"307.799"	"315.339"	"153.723"	"88.873"	"34.668"	"0.207"
"1935"	"3.462"	"0"	"0.051"	"28.696"	"15.549"	"84.755"	"217.818"	"127.875"	"259.061"	"56.514"	"0.643"	"0"
"1936"	"0.089"	"50.189"	"9.234"	"12.079"	"139.917"	"219.225"	"334.767"	"296.506"	"191.804"	"174.357"	"58.905"	"8.531"
"1937"	"0"	"39.719"	"8.212"	"114.669"	"12.222"	"83.849"	"240.289"	"160.105"	"110.035"	"114.069"	"0.474"	"0"
"1938"	"0.048"	"16.85"	"26.771"	"8.769"	"133.179"	"187.506"	"191.029"	"224.866"	"284.558"	"161.473"	"70.904"	"0"
"1939"	"0.355"	"0.652"	"21.123"	"22.413"	"7.89"	"117.806"	"200.459"	"208.729"	"185.289"	"253.637"	"33.246"	"0.129"
"1940"	"0"	"9.276"	"18.113"	"69.079"	"80.923"	"132.62"	"269.183"	"306.807"	"154.22"	"117.251"	"34.702"	"1.726"
"1941"	"0.388"	"19.665"	"7.051"	"3.907"	"54.323"	"261.203"	"85.828"	"91.041"	"271.065"	"216.514"	"42.098"	"0.431"
"1942"	"0"	"5.072"	"0.605"	"102.979"	"21.023"	"102.843"	"252.409"	"247.514"	"138.807"	"54.965"	"59.242"	"0.158"
"1943"	"7.632"	"3.538"	"0.379"	"88.826"	"28.583"	"176.117"	"201.017"	"159.701"	"162.898"	"171.473"	"56.499"	"0"
"1944"	"6.091"	"22.944"	"45.707"	"58.684"	"29.255"	"86.361"	"259.894"	"170.823"	"217.378"	"213.44"	"28.106"	"0"
"1945"	"2.241"	"0"	"0"	"68.617"	"7.289"	"62.656"	"293.014"	"259.749"	"264.813"	"136.86"	"76.739"	"15.529"
"1946"	"0"	"25.926"	"0.608"	"90.47"	"50.998"	"172.491"	"342.575"	"247.365"	"114.378"	"107.294"	"105.717"	"0"
"1947"	"10.607"	"9.273"	"5.106"	"13.61"	"9.772"	"153.816"	"342.74"	"250.151"	"305.587"	"82.205"	"83.085"	"13.262"
"1948"	"0.791"	"5.737"	"5.881"	"86.655"	"76.705"	"79.69"	"194.997"	"193.761"	"160.798"	"32.856"	"88.545"	"0.237"
"1949"	"3.706"	"0.51"	"0.051"	"38.785"	"52.127"	"92.612"	"227.892"	"131.653"	"272.233"	"213.762"	"0.514"	"0"
"1950"	"0"	"13.894"	"14.98"	"28.328"	"56.001"	"75.276"	"275.451"	"157.282"	"111.295"	"41.075"	"109.134"	"0"
"1951"	"0"	"0"	"29.95"	"12.878"	"47.938"	"184.391"	"371.477"	"278.486"	"175.684"	"43.815"	"41.119"	"5.716"
"1952"	"0"	"3.589"	"2.983"	"73.513"	"19.95"	"82.428"	"300.99"	"198.716"	"295.746"	"152.596"	"0.474"	"6.876"
"1953"	"7.988"	"0"	"0"	"47.317"	"33.027"	"203.692"	"126.819"	"357.18"	"209.842"	"156.233"	"7.366"	"0"
"1954"	"0"	"0"	"8.076"	"18.667"	"45.737"	"44.566"	"203.102"	"215.166"	"325.714"	"128.474"	"0.474"	"15.23"
"1955"	"0"	"0.214"	"12.529"	"34.363"	"39.388"	"165.214"	"136.63"	"335.159"	"357.042"	"239.417"	"17.693"	"0.03"
"1956"	"0.146"	"9.563"	"0"	"29.488"	"57.567"	"191.069"	"540.657"	"316.125"	"176.603"	"168.751"	"6.342"	"0"
"1957"	"0.387"	"1.209"	"7.846"	"10.226"	"24.943"	"249.43"	"226.602"	"300.268"	"158.603"	"79.177"	"12.616"	"0"
"1958"	"6.972"	"0.882"	"2.005"	"90.201"	"32.212"	"75.267"	"367.678"	"223.216"	"232.54"	"177.292"	"111.422"	"0"
"1959"	"2.866"	"6.495"	"0"	"38.928"	"53.177"	"184.598"	"294.071"	"296.239"	"161.471"	"160.366"	"0.474"	"1.003"
"1960"	"0"	"0"	"18.926"	"6.331"	"40.91"	"162.107"	"288.967"	"160.911"	"176.668"	"123.09"	"2.02"	"6.793"
"1961"	"0.738"	"16.492"	"6.31"	"10.586"	"50.428"	"221.538"	"249.359"	"262.047"	"158.503"	"190.23"	"29.315"	"0.639"
"1962"	"2.509"	"18.173"	"0.051"	"79.172"	"18.387"	"99.66"	"300.054"	"193.772"	"358.252"	"231.133"	"74.027"	"21.563"
"1963"	"0"	"0"	"9.584"	"110.128"	"19.424"	"179.413"	"152.268"	"306.559"	"190.663"	"267.108"	"0.474"	"0"
"1964"	"0.019"	"12.821"	"0.77"	"45.55"	"20.5"	"146.654"	"139.029"	"306.639"	"314.813"	"105.138"	"7.822"	"0.109"
"1965"	"0.742"	"0.488"	"10.625"	"50.808"	"40.788"	"76.852"	"415.179"	"181.491"	"172.685"	"24.912"	"0.594"	"10.293"
"1966"	"15.72"	"0"	"0.384"	"13.979"	"17.914"	"126.518"	"232.804"	"151.646"	"165.221"	"88.327"	"48.705"	"0.996"
"1967"	"9.038"	"0"	"57.42"	"26.868"	"4.329"	"184.973"	"298.422"	"183.828"	"174.64"	"25.821"	"0.474"	"22.653"
"1968"	"4.833"	"12.22"	"5.037"	"28.684"	"46.17"	"162.429"	"271.203"	"66.453"	"248.676"	"167.604"	"48.107"	"0.255"
"1969"	"1.334"	"0"	"6.667"	"7.648"	"146.742"	"119.008"	"410.276"	"161.535"	"222.335"	"160.33"	"116.102"	"37.52"
"1970"	"4.292"	"8.76"	"31.229"	"16.35"	"103.287"	"259.877"	"221.899"	"423.032"	"144.031"	"42.439"	"0.474"	"0"
"1971"	"0.577"	"36.146"	"9.698"	"65.874"	"75.468"	"119.066"	"108.824"	"203.715"	"208.415"	"135.762"	"0.474"	"0"
"1972"	"0"	"13.872"	"0"	"17.495"	"29.475"	"103.384"	"172.688"	"142.826"	"250.395"	"105.554"	"125.53"	"0.887"
"1973"	"0"	"0"	"10.281"	"9.777"	"30.448"	"141.933"	"202.055"	"239.356"	"76.379"	"183.996"	"18.985"	"0"
"1974"	"0"	"0.059"	"14.098"	"26.157"	"45.685"	"183.438"	"159.891"	"160.275"	"138.71"	"222.86"	"67.114"	"0"
"1975"	"0.169"	"3.852"	"1.945"	"7.213"	"72.487"	"246.183"	"271.786"	"281.21"	"326.671"	"266.303"	"32.881"	"0"
"1976"	"0"	"2.104"	"1.259"	"71.686"	"39.93"	"102.983"	"273.489"	"335.201"	"142.252"	"48.427"	"162.865"	"0.498"
"1977"	"0.503"	"0"	"2.877"	"64.52"	"64.966"	"120.95"	"227.276"	"214.847"	"171.538"	"121.253"	"150.951"	"5.608"
"1978"	"5.684"	"15.029"	"3.272"	"16.623"	"42.775"	"303.129"	"330.402"	"388.123"	"165.778"	"86.803"	"48.035"	"4.043"
"1979"	"2.56"	"18.825"	"0.557"	"42.427"	"58.481"	"147.236"	"145.086"	"152.074"	"256.632"	"67.407"	"77.997"	"6.47"
"1980"	"1.544"	"0"	"7.391"	"22.951"	"29.081"	"295.368"	"254.065"	"256.492"	"165.145"	"56.052"	"25.179"	"7.494"
"1981"	"11.456"	"0"	"35.117"	"21.944"	"49.767"	"137.195"	"263.448"	"187.582"	"318.824"	"115.915"	"28.694"	"3.859"
"1982"	"0.048"	"1.308"	"1.883"	"50.427"	"37.743"	"131.999"	"327.623"	"224.712"	"149.478"	"127.331"	"25.888"	"0"
"1983"	"0.019"	"7.987"	"1.883"	"1.932"	"29.84"	"172.339"	"209.426"	"277.981"	"183.333"	"207.606"	"8.194"	"7.008"
"1984"	"7.042"	"8.382"	"6.431"	"18.372"	"60.9"	"155.599"	"208.362"	"179.841"	"131.616"	"98.236"	"6.323"	"0.864"
"1985"	"19.304"	"0"	"2.428"	"1.097"	"24.519"	"195.017"	"203.795"	"244.415"	"159.335"	"245.256"	"2.246"	"9.228"
"1986"	"18.179"	"25.723"	"0.723"	"44.21"	"33.756"	"151.467"	"205.076"	"352.506"	"72.655"	"95.488"	"120.372"	"3.388"
"1987"	"1.107"	"0"	"33.088"	"87.865"	"40.065"	"94.192"	"170.534"	"265.988"	"90.487"	"120.751"	"78.42"	"5.847"
"1988"	"0"	"2.935"	"0.9"	"40.032"	"46.599"	"110.868"	"429.065"	"280.805"	"236.577"	"36.353"	"13.429"	"8.247"
"1989"	"0"	"0"	"30.051"	"4.606"	"59.223"	"156.946"	"373.779"	"222.411"	"208.485"	"43.113"	"7.111"	"1.251"
"1990"	"0.926"	"47.267"	"49.457"	"9.662"	"152.073"	"187.611"	"216.759"	"343.052"	"183.179"	"274.711"	"47.18"	"2.266"
"1991"	"3.874"	"0"	"4.869"	"16.945"	"55.253"	"346.755"	"239.271"	"210.74"	"261.306"	"103.869"	"52.668"	"1.542"
"1992"	"1.813"	"0.315"	"0"	"5.801"	"31.622"	"125.201"	"232.827"	"266.009"	"181.767"	"83.685"	"78.678"	"0"
"1993"	"0.101"	"0"	"5.174"	"9.941"	"58.08"	"114.291"	"216.451"	"145.66"	"188.865"	"253.673"	"2.002"	"1.733"
"1994"	"5.257"	"9.715"	"8.487"	"11.43"	"56.834"	"104.363"	"380.693"	"233.138"	"139.158"	"185.426"	"99.119"	"0"
"1995"	"7.963"	"0.75"	"19.841"	"11.147"	"65.021"	"118.592"	"332.509"	"202.835"	"238.617"	"268.252"	"35.597"	"0"
"1996"	"1.955"	"2.511"	"3.342"	"36.833"	"6.896"	"236.841"	"275.226"	"201.571"	"142.107"	"153.789"	"47.436"	"3.74"
"1997"	"6.132"	"0.067"	"27.526"	"45.92"	"9.114"	"60.781"	"237.836"	"166.909"	"316.535"	"46.692"	"135.7"	"18.572"
"1998"	"4.768"	"10.639"	"0"	"38.207"	"38.697"	"114.626"	"216.961"	"173.555"	"193.698"	"242.204"	"148.542"	"0"
"1999"	"0"	"0.093"	"0"	"4.453"	"63.802"	"143.086"	"168.363"	"335.269"	"153.923"	"123.203"	"1.429"	"0"
"2000"	"0"	"40.814"	"0"	"18.43"	"61.528"	"342.412"	"221.29"	"382.211"	"125.949"	"123.513"	"2.526"	"0.106"
"2001"	"0.258"	"0"	"2.76"	"29.162"	"97.238"	"181.66"	"158.044"	"337.487"	"126.523"	"122.355"	"96.644"	"0.188"
"2002"	"17.772"	"0"	"3.064"	"23.873"	"38.878"	"132.275"	"136.197"	"305.016"	"57.088"	"100.325"	"18.438"	"0"
