
"Year"	"Jan"	"Feb"	"Mar"	"Apr"	"May"	"Jun"	"Jul"	"Aug"	"Sep"	"Oct"	"Nov"	"Dec"
"1901"	"18.138"	"20.9"	"24.619"	"27.863"	"27.656"	"27.84"	"27.524"	"27.524"	"27.813"	"27.094"	"22.952"	"19.612"
"1902"	"18.818"	"20.662"	"25.556"	"26.139"	"27.555"	"27.359"	"27.424"	"27.497"	"27.782"	"25.988"	"22.397"	"19.224"
"1903"	"17.923"	"19.758"	"24.539"	"28.012"	"28.01"	"27.367"	"27.824"	"26.56"	"27.47"	"27.139"	"23.261"	"19.752"
"1904"	"18.268"	"20.883"	"25.818"	"26.804"	"27.098"	"27.66"	"27.129"	"27.177"	"27.821"	"26.394"	"22.881"	"18.986"
"1905"	"17.986"	"18.147"	"23.539"	"25.435"	"27.555"	"27.724"	"27.615"	"27.16"	"28.015"	"26.74"	"23.188"	"19.847"
"1906"	"18.463"	"20.403"	"23.622"	"27.73"	"28.411"	"27.598"	"27.923"	"26.742"	"28.549"	"26.281"	"23.199"	"19.908"
"1907"	"19.776"	"19.822"	"23.945"	"26.146"	"27.325"	"27.333"	"27.226"	"27.541"	"27.67"	"26.694"	"23.099"	"19.608"
"1908"	"18.59"	"20.168"	"25.297"	"28.587"	"27.555"	"27.435"	"27.215"	"27.482"	"27.956"	"26.394"	"22.732"	"19.82"
"1909"	"18.707"	"20.558"	"25.873"	"26.428"	"27.74"	"26.933"	"28.148"	"26.749"	"28.35"	"27.234"	"23.892"	"19.706"
"1910"	"18.325"	"20.014"	"24.105"	"25.513"	"27.555"	"27.011"	"26.78"	"27.138"	"27.896"	"26.144"	"23.137"	"18.494"
"1911"	"18.38"	"19.958"	"23.946"	"25.916"	"27.018"	"27.046"	"27.121"	"27.125"	"27.615"	"26.539"	"22.982"	"18.728"
"1912"	"18.429"	"21.02"	"24.81"	"25.73"	"27.555"	"27.359"	"27.365"	"27.13"	"27.325"	"26.095"	"23.217"	"19.395"
"1913"	"19.416"	"22.34"	"24.68"	"27.653"	"27.028"	"27.042"	"27.759"	"26.942"	"27.514"	"25.998"	"22.533"	"18.425"
"1914"	"18.272"	"20.624"	"24.64"	"25.785"	"27.007"	"26.98"	"27.469"	"26.65"	"27.66"	"25.288"	"22.898"	"19.656"
"1915"	"19.724"	"20.458"	"24.478"	"27.16"	"27.024"	"27.141"	"26.407"	"27.393"	"27.555"	"27.694"	"24.411"	"20.246"
"1916"	"18.2"	"20.747"	"25.263"	"26.308"	"27.972"	"27.44"	"27.191"	"27.031"	"27.531"	"26.349"	"23.334"	"19.117"
"1917"	"18.107"	"20.059"	"23.608"	"26.068"	"26.605"	"26.841"	"27.042"	"26.973"	"27.146"	"26.477"	"23.481"	"18.732"
"1918"	"18.321"	"20.258"	"24.669"	"26.164"	"27.253"	"25.924"	"27.506"	"26.86"	"27.796"	"26.6"	"22.729"	"19.263"
"1919"	"19.566"	"20.258"	"25.856"	"26.808"	"27.838"	"27.51"	"27.024"	"27.36"	"26.78"	"26.305"	"23.199"	"19.321"
"1920"	"19.389"	"20.328"	"24.463"	"26.302"	"27.557"	"27.251"	"27.548"	"26.997"	"27.629"	"26.446"	"22.803"	"19.538"
"1921"	"20.243"	"20.379"	"24.805"	"26.794"	"27.769"	"26.803"	"27.257"	"27.048"	"27.497"	"25.227"	"22.515"	"19.556"
"1922"	"19.665"	"20.928"	"25.528"	"27.785"	"28.157"	"27.333"	"27.257"	"27.16"	"27.331"	"25.83"	"22.827"	"19.652"
"1923"	"19.829"	"20.427"	"24.578"	"27.289"	"27.278"	"27.541"	"26.96"	"27.045"	"27.684"	"25.712"	"23.161"	"19.815"
"1924"	"19.121"	"20.458"	"26.616"	"27.714"	"27.179"	"27.496"	"27.339"	"27.059"	"27.032"	"26.826"	"23.269"	"19.108"
"1925"	"17.048"	"19.541"	"24.708"	"26.584"	"27.331"	"27.128"	"26.756"	"27.138"	"27.215"	"25.281"	"22.316"	"19.007"
"1926"	"18.76"	"20.458"	"24.294"	"26.363"	"27.52"	"26.837"	"27.055"	"27.032"	"27.449"	"26.219"	"22.024"	"20.156"
"1927"	"18.062"	"19.941"	"23.101"	"26.898"	"27.035"	"27.344"	"27.308"	"27.059"	"27.225"	"26.209"	"22.53"	"19.724"
"1928"	"19.459"	"21.274"	"25.011"	"27.184"	"26.942"	"26.855"	"27.115"	"27.325"	"27.813"	"26.288"	"22.491"	"20.08"
"1929"	"19.021"	"19.871"	"24.646"	"26.728"	"27.548"	"27.065"	"27.124"	"27.142"	"27.531"	"26.294"	"22.499"	"19.289"
"1930"	"17.135"	"20.823"	"24.502"	"26.713"	"27.555"	"26.603"	"27.26"	"27.124"	"28.315"	"25.974"	"23.249"	"19.594"
"1931"	"17.638"	"19.555"	"24.379"	"28.029"	"26.481"	"26.79"	"26.842"	"27.509"	"27.496"	"27.36"	"23.213"	"20.372"
"1932"	"18.975"	"20.611"	"25.301"	"27.233"	"28.131"	"26.881"	"27.125"	"27.148"	"27.763"	"27.156"	"23.681"	"19.929"
"1933"	"17.98"	"20.622"	"25.534"	"27.197"	"27.062"	"27.772"	"27.524"	"27.072"	"27.94"	"26.833"	"22.015"	"19.157"
"1934"	"18.807"	"20.063"	"25.419"	"27.563"	"27.264"	"26.545"	"26.85"	"26.746"	"27.742"	"26.947"	"21.811"	"19.538"
"1935"	"18.18"	"20.862"	"25.291"	"26.759"	"29.2"	"27.388"	"27.261"	"26.661"	"27.885"	"26.906"	"23.106"	"18.723"
"1936"	"17.356"	"19.931"	"25.24"	"27.232"	"27.23"	"27.337"	"27.26"	"27.544"	"27.544"	"26.396"	"23.581"	"19.908"
"1937"	"16.829"	"20.398"	"24.683"	"28.065"	"27.878"	"27.609"	"27.506"	"26.798"	"27.666"	"26.388"	"22.142"	"19.697"
"1938"	"19.503"	"19.804"	"27.391"	"28.246"	"26.686"	"27.423"	"27.155"	"27.286"	"27.548"	"26.821"	"21.976"	"20.037"
"1939"	"18.422"	"21.207"	"24.884"	"28.736"	"27.555"	"27.341"	"27.1"	"27.541"	"27.692"	"26.438"	"23.581"	"20.282"
"1940"	"17.693"	"20.135"	"23.362"	"28.35"	"27.3"	"27.505"	"27.062"	"27.524"	"27.101"	"26.777"	"23.574"	"20.097"
"1941"	"18.349"	"20.719"	"26.567"	"27.449"	"26.905"	"26.94"	"27.374"	"27.656"	"27.492"	"26.026"	"22.037"	"20.773"
"1942"	"18.665"	"21.056"	"25.551"	"26.861"	"27.291"	"27.347"	"27.585"	"27.222"	"26.961"	"27.055"	"23.406"	"19.15"
"1943"	"19.029"	"19.171"	"23.911"	"25.586"	"27.759"	"27.037"	"27.093"	"26.607"	"27.464"	"26.61"	"23.489"	"19.842"
"1944"	"17.813"	"19.489"	"24.527"	"25.784"	"28.228"	"26.908"	"27.432"	"27.155"	"27.031"	"26.335"	"22.436"	"19.837"
"1945"	"18.28"	"19.627"	"25.052"	"26.74"	"27.179"	"27.582"	"27.318"	"27.055"	"28.108"	"25.868"	"23.076"	"19.597"
"1946"	"18.807"	"22.339"	"25.286"	"25.756"	"27.08"	"27.341"	"27.294"	"27.561"	"27.749"	"25.933"	"23.644"	"20.546"
"1947"	"18.725"	"20.944"	"25.637"	"27.768"	"27.688"	"27.74"	"27.16"	"27.569"	"27.806"	"25.685"	"22.984"	"20.55"
"1948"	"19.21"	"20.8"	"24.373"	"26.068"	"26.578"	"27.757"	"27.024"	"27.574"	"27.635"	"26.108"	"23.853"	"19.61"
"1949"	"18.851"	"20.547"	"24.914"	"24.584"	"26.356"	"27.042"	"26.989"	"26.908"	"27.383"	"27.176"	"22.836"	"18.372"
"1950"	"18.611"	"20.161"	"24.515"	"26.794"	"28.105"	"27.333"	"27.235"	"26.738"	"28.061"	"26.674"	"22.801"	"19.854"
"1951"	"18.167"	"21.114"	"25.116"	"29.141"	"27.122"	"26.824"	"27.132"	"27.824"	"27.758"	"26.888"	"23.513"	"21.489"
"1952"	"19.28"	"22.218"	"23.884"	"26.962"	"27.374"	"28.193"	"27.487"	"27.754"	"27.449"	"27.428"	"23.535"	"19.932"
"1953"	"18.1"	"21.67"	"26.197"	"27.801"	"26.864"	"27.465"	"27.075"	"27.711"	"27.734"	"26.794"	"23.143"	"21.478"
"1954"	"17.518"	"22.643"	"25.137"	"28.042"	"28.106"	"26.59"	"27.142"	"27.29"	"28.145"	"26.063"	"22.07"	"20.2"
"1955"	"18.418"	"20.37"	"25.431"	"26.484"	"27.565"	"27.6"	"26.662"	"26.712"	"27.892"	"27.391"	"23.898"	"19.341"
"1956"	"18.601"	"20.481"	"25.584"	"27.349"	"27.19"	"26.689"	"27.374"	"27.325"	"27.247"	"27.186"	"23.457"	"19.894"
"1957"	"18.973"	"20.005"	"23.896"	"28.015"	"28.497"	"27.524"	"27.335"	"27.442"	"27.514"	"25.861"	"22.434"	"19.902"
"1958"	"18.277"	"20.606"	"24.563"	"27.783"	"27.475"	"28.633"	"27.624"	"26.643"	"27.968"	"26.799"	"22.553"	"20.331"
"1959"	"18.783"	"19.87"	"24.415"	"26.589"	"26.955"	"27.02"	"27.419"	"26.991"	"26.867"	"26.105"	"22.216"	"20.067"
"1960"	"18.369"	"20.637"	"24.215"	"28.269"	"28.778"	"27.673"	"26.525"	"27.848"	"27.414"	"26.362"	"22.742"	"19.275"
"1961"	"18.763"	"19.425"	"25.332"	"27.589"	"28.31"	"27.312"	"27.554"	"27.547"	"27.827"	"26.763"	"22.292"	"18.045"
"1962"	"17.4"	"20.606"	"24.967"	"27.701"	"27.52"	"26.941"	"27.828"	"26.726"	"28.224"	"26.255"	"22.538"	"19.367"
"1963"	"18.436"	"22.374"	"25.106"	"26.434"	"26.617"	"26.772"	"26.918"	"27.497"	"28.152"	"26.355"	"22.76"	"19.776"
"1964"	"18.373"	"21.02"	"26.014"	"26.029"	"27.172"	"27.058"	"26.586"	"27.568"	"27.791"	"27.101"	"24.223"	"19.95"
"1965"	"18.617"	"20.226"	"23.95"	"27.307"	"28.15"	"27.041"	"26.68"	"26.243"	"27.576"	"26.611"	"23.391"	"20.718"
"1966"	"19.179"	"22.129"	"25.426"	"27.946"	"28.188"	"26.34"	"27.56"	"27.034"	"27.611"	"25.727"	"24.123"	"19.546"
"1967"	"19.008"	"21.657"	"24.405"	"26.471"	"27.964"	"27.975"	"27.518"	"27.771"	"27.419"	"26.377"	"21.921"	"19.943"
"1968"	"18.452"	"20.027"	"25.309"	"27"	"26.956"	"26.735"	"27.38"	"27.419"	"27.645"	"26.632"	"23.231"	"19.483"
"1969"	"18.325"	"20.856"	"25.881"	"27.423"	"28.026"	"26.46"	"27.969"	"26.681"	"28.049"	"26.701"	"22.97"	"19.685"
"1970"	"17.768"	"20.766"	"25.036"	"27.721"	"28.122"	"27.841"	"26.856"	"27.342"	"27.289"	"26.24"	"23.037"	"19.892"
"1971"	"18.46"	"20.074"	"25.162"	"25.684"	"27.902"	"27.116"	"26.819"	"26.298"	"27.542"	"26.75"	"22.555"	"19.568"
"1972"	"18.927"	"19.486"	"25.018"	"26.946"	"28.314"	"27.574"	"27.743"	"27.142"	"27.992"	"26.747"	"23.707"	"19.943"
"1973"	"18.934"	"21.706"	"24.607"	"28.277"	"26.693"	"27.204"	"27.701"	"27.142"	"27.615"	"26.835"	"23.562"	"19.036"
"1974"	"18.192"	"20.188"	"24.68"	"26.552"	"27.056"	"27.075"	"25.777"	"27.073"	"26.867"	"27.107"	"24.176"	"18.405"
"1975"	"18.08"	"20.878"	"25.44"	"27.545"	"27.555"	"27.934"	"26.425"	"27.359"	"27.059"	"27.159"	"22.484"	"18.847"
"1976"	"18.693"	"21.744"	"25.495"	"26.988"	"27.234"	"25.641"	"26.625"	"26.699"	"27.504"	"26.113"	"24.047"	"19.303"
"1977"	"17.731"	"19.569"	"25.904"	"24.407"	"25.695"	"26.525"	"27.348"	"27.125"	"27.719"	"25.894"	"24.027"	"19.851"
"1978"	"17.394"	"21.596"	"24.553"	"27.208"	"26.628"	"27.079"	"27.274"	"28.196"	"27.276"	"27.662"	"24.184"	"20.362"
"1979"	"19.597"	"21.226"	"25.505"	"28.177"	"29.618"	"28.186"	"27.725"	"27.329"	"27.415"	"26.625"	"24.671"	"20.715"
"1980"	"18.857"	"20.758"	"24.997"	"28.329"	"26.327"	"27.902"	"28.124"	"27.611"	"27.862"	"26.029"	"23.883"	"21.028"
"1981"	"18.86"	"20.745"	"23.996"	"25.552"	"27.149"	"28.102"	"27.557"	"27.688"	"27.81"	"27.055"	"24.244"	"20.187"
"1982"	"19.686"	"21.119"	"24.923"	"26.347"	"28.539"	"27.341"	"27.477"	"27.436"	"27.758"	"27.135"	"23.016"	"19.752"
"1983"	"19.669"	"20.643"	"24.669"	"26.978"	"26.955"	"27.893"	"27.407"	"27.455"	"28.29"	"27.372"	"23.922"	"19.468"
"1984"	"17.611"	"20.118"	"25.516"	"27.384"	"26.252"	"27.163"	"27.324"	"27.603"	"27.01"	"26.779"	"23.491"	"20.321"
"1985"	"18.963"	"20.625"	"24.945"	"26.876"	"27.473"	"26.913"	"26.664"	"27.394"	"27.466"	"27.234"	"22.991"	"21.413"
"1986"	"18.865"	"21.62"	"26.174"	"26.092"	"27.634"	"27.93"	"26.963"	"27.677"	"27.153"	"25.772"	"23.101"	"20.073"
"1987"	"19.771"	"21.495"	"24.328"	"26.162"	"27.855"	"28.509"	"27.281"	"27.212"	"27.879"	"26.157"	"24.261"	"20.223"
"1988"	"19.958"	"22.069"	"24.994"	"28.115"	"27.485"	"27.422"	"27.442"	"27.303"	"27.837"	"27.007"	"24.224"	"21.687"
"1989"	"17.386"	"20.983"	"24.988"	"28.142"	"28.878"	"27.871"	"27.236"	"27.907"	"27.704"	"26.663"	"22.802"	"19.719"
"1990"	"19.902"	"21.434"	"23.911"	"25.679"	"28.125"	"28.137"	"27.031"	"27.768"	"27.755"	"26.345"	"25.364"	"20.781"
"1991"	"17.732"	"21.93"	"26.023"	"27.304"	"25.893"	"27.112"	"27.842"	"27.786"	"27.584"	"27.257"	"22.398"	"19.638"
"1992"	"18.373"	"19.191"	"26.268"	"28.322"	"27.304"	"28.247"	"27.279"	"27.941"	"28.048"	"26.62"	"23.61"	"18.923"
"1993"	"18.153"	"20.931"	"23.751"	"25.842"	"26.277"	"26.878"	"27.384"	"27.225"	"27.521"	"27.264"	"23.906"	"21.007"
"1994"	"19.432"	"20.191"	"25.305"	"26.676"	"28.159"	"27.609"	"27.851"	"27.753"	"28.691"	"26.257"	"23.999"	"20.004"
"1995"	"18.575"	"20.846"	"25.567"	"28.094"	"29.02"	"27.865"	"27.441"	"27.592"	"27.907"	"27.563"	"24.47"	"19.897"
"1996"	"18.691"	"21.164"	"25.189"	"27.735"	"27.775"	"27.534"	"27.527"	"27.148"	"28.393"	"26.771"	"24.174"	"21.317"
"1997"	"18.703"	"20.035"	"24.813"	"25.838"	"28.006"	"28.052"	"27.2"	"27.986"	"27.645"	"26.383"	"24.399"	"20.727"
"1998"	"18.694"	"21.07"	"23.452"	"27.461"	"28.603"	"28.493"	"28.072"	"27.555"	"28.458"	"27.981"	"24.817"	"21.195"
"1999"	"19.928"	"24.073"	"26.302"	"28.868"	"27.738"	"28.109"	"28.022"	"27.325"	"27.76"	"27.418"	"24.306"	"20.707"
"2000"	"17.858"	"20.885"	"23.922"	"26.97"	"27.273"	"27.478"	"28.393"	"26.963"	"27.197"	"26.651"	"23.56"	"20.307"
"2001"	"19.108"	"21.94"	"25.397"	"27.845"	"27.851"	"27.783"	"28.076"	"27.897"	"28.959"	"27.187"	"23.856"	"20.508"
"2002"	"19.399"	"22.201"	"25.762"	"27.229"	"27.621"	"27.341"	"28.014"	"27.425"	"27.611"	"26.777"	"23.8"	"20.928"
