
"Year"	"Jan"	"Feb"	"Mar"	"Apr"	"May"	"Jun"	"Jul"	"Aug"	"Sep"	"Oct"	"Nov"	"Dec"
"1901"	"12.772"	"14.741"	"21.934"	"27.092"	"31.679"	"36.029"	"33.294"	"32.435"	"31.503"	"28.421"	"21.156"	"15.944"
"1902"	"15.081"	"17.488"	"24.089"	"28.635"	"32.481"	"33.939"	"33.132"	"33.424"	"30.475"	"26.986"	"20.631"	"14.444"
"1903"	"13.742"	"15.915"	"20.269"	"26.344"	"31.606"	"36.805"	"34.474"	"32.024"	"31.503"	"27.514"	"19.984"	"14.482"
"1904"	"12.924"	"16.451"	"20.78"	"28.609"	"32.535"	"35.449"	"32.888"	"31.917"	"30.632"	"27.05"	"20.085"	"15.8"
"1905"	"12.179"	"11.67"	"18.271"	"25.21"	"33.899"	"35.828"	"34.103"	"33.79"	"32.211"	"27.832"	"21.7"	"15.682"
"1906"	"12.662"	"14.405"	"19.77"	"27.156"	"34.624"	"34.483"	"34.113"	"31.094"	"30.039"	"27.85"	"21.72"	"16.546"
"1907"	"15.37"	"14.125"	"18.789"	"24.718"	"30.416"	"33.901"	"34.629"	"31.159"	"31.856"	"27.821"	"21.056"	"14.573"
"1908"	"14.045"	"16.68"	"21.761"	"28.245"	"32.699"	"35.975"	"31.97"	"29.413"	"30.221"	"26.686"	"19.656"	"15.082"
"1909"	"12.916"	"15.053"	"21.723"	"26.409"	"32.565"	"33.322"	"30.703"	"30.432"	"29.364"	"27.158"	"21.656"	"14.464"
"1910"	"13.29"	"16.152"	"21.669"	"26.408"	"33.099"	"34.24"	"31.446"	"30.439"	"30.528"	"26.203"	"19.585"	"14.954"
"1911"	"14.934"	"16.616"	"19.57"	"27.328"	"33.752"	"34.257"	"35.003"	"33.749"	"30.895"	"27.55"	"17.936"	"14.726"
"1912"	"14.38"	"17.257"	"21.451"	"27.592"	"32.989"	"36.339"	"32.829"	"30.731"	"29.539"	"27.15"	"19.62"	"14.972"
"1913"	"14.744"	"15.788"	"19.125"	"28.973"	"30.825"	"32.158"	"31.229"	"31.54"	"30.983"	"27.73"	"20.164"	"14.808"
"1914"	"15.587"	"15.259"	"20.97"	"27.153"	"32.679"	"33.775"	"31.311"	"31.606"	"30.175"	"25.101"	"20.728"	"14.518"
"1915"	"13.726"	"14.562"	"21.998"	"28.173"	"35.379"	"35.167"	"34.939"	"33.024"	"31.711"	"27.829"	"20.82"	"15.754"
"1916"	"14.908"	"15.526"	"24.527"	"29.49"	"32.117"	"34.059"	"31.558"	"30.396"	"30.028"	"26.713"	"18.721"	"14.601"
"1917"	"14.096"	"17.173"	"21.927"	"24.763"	"28.507"	"33.45"	"31.121"	"29.967"	"28.183"	"25.114"	"18.114"	"15.193"
"1918"	"13.372"	"16.751"	"21.305"	"25.081"	"34.708"	"34.193"	"35.038"	"32.921"	"31.074"	"27.486"	"20.392"	"14.81"
"1919"	"13.962"	"15.38"	"22.41"	"27.11"	"31.899"	"37.278"	"32.194"	"30.805"	"30.449"	"26.95"	"19.646"	"14.383"
"1920"	"13.57"	"15.252"	"21.669"	"27.209"	"29.062"	"33.513"	"32.534"	"31.859"	"31.975"	"28.285"	"21.721"	"16.045"
"1921"	"14.88"	"17.316"	"25.027"	"31.454"	"35.635"	"36.212"	"34.4"	"31.242"	"30.731"	"26.131"	"20.4"	"16.853"
"1922"	"13.47"	"17.169"	"23.373"	"28.673"	"33.063"	"34.285"	"32.968"	"31.66"	"29.575"	"25.821"	"19.956"	"15.247"
"1923"	"13.516"	"15.088"	"22.471"	"28.983"	"31.769"	"36.384"	"32.258"	"29.814"	"30.685"	"26.222"	"19.92"	"15.308"
"1924"	"13.272"	"15.952"	"22.954"	"28.673"	"29.506"	"36.65"	"33.76"	"31.325"	"28.685"	"26.242"	"19.895"	"15.674"
"1925"	"12.237"	"14.062"	"23.056"	"30.376"	"32.827"	"32.343"	"30.568"	"31.14"	"31.41"	"26.93"	"18.754"	"14.819"
"1926"	"14.544"	"17.635"	"20.598"	"24.71"	"29.642"	"35.993"	"33.175"	"30.203"	"29.639"	"26.196"	"18.32"	"14.911"
"1927"	"12.826"	"13.899"	"20.672"	"26.634"	"31.042"	"34.674"	"31.602"	"30.278"	"30.038"	"26.722"	"20.203"	"15.982"
"1928"	"12.916"	"16.751"	"21.669"	"27.773"	"34.334"	"34.893"	"33.04"	"32.466"	"30.482"	"27.567"	"20.657"	"14.618"
"1929"	"13.844"	"15.234"	"24.416"	"28.983"	"33.462"	"35.01"	"32.204"	"30.667"	"31.574"	"26.793"	"20.482"	"13.7"
"1930"	"12.698"	"15.852"	"22.235"	"26.816"	"32.38"	"33.329"	"30.586"	"31.368"	"29.355"	"26.729"	"19.392"	"14.79"
"1931"	"14.479"	"13.223"	"20.708"	"28.655"	"32.288"	"34.764"	"32.011"	"31.332"	"29.856"	"26.577"	"19.803"	"15.747"
"1932"	"15.816"	"16.044"	"22.7"	"28.002"	"31.206"	"36.322"	"32.13"	"30.306"	"30.729"	"26.757"	"19.557"	"15.018"
"1933"	"11.416"	"16.515"	"21.206"	"25.471"	"30.437"	"34.834"	"31.714"	"29.26"	"28.612"	"25.932"	"20.049"	"16.075"
"1934"	"11.907"	"17.717"	"20.698"	"27.445"	"31.48"	"34.085"	"32.369"	"30.496"	"31.303"	"26.047"	"19.893"	"16.446"
"1935"	"12.372"	"16.588"	"21.762"	"24.072"	"32.642"	"35.911"	"31.832"	"30.257"	"30.184"	"26.267"	"20.657"	"14.873"
"1936"	"12.416"	"16.524"	"20.559"	"27.09"	"34.972"	"32.55"	"31.404"	"30.587"	"29.949"	"26.575"	"19.92"	"15.19"
"1937"	"13.081"	"16.215"	"20.108"	"26.12"	"32.307"	"35.121"	"31.404"	"32.459"	"30.475"	"25.328"	"19.658"	"13.435"
"1938"	"13.136"	"14.542"	"22.807"	"28.709"	"34.761"	"33.258"	"33.596"	"32.132"	"32.167"	"27.629"	"19.223"	"15.138"
"1939"	"14.69"	"16.224"	"19.125"	"25.806"	"33.742"	"33.195"	"32.304"	"32.394"	"31.568"	"28.341"	"20.249"	"16.185"
"1940"	"14.255"	"15.824"	"20.672"	"26.38"	"33.178"	"34.446"	"32.248"	"30.36"	"30.138"	"27.087"	"21.385"	"15.411"
"1941"	"13.447"	"17.298"	"24.235"	"30.744"	"34.143"	"32.783"	"32.99"	"31.55"	"30.675"	"29.367"	"21.013"	"16.637"
"1942"	"12.827"	"16.532"	"23.281"	"29.417"	"33.07"	"35.037"	"31.121"	"29.44"	"28.757"	"26.357"	"21.602"	"14.238"
"1943"	"13.389"	"16.187"	"22.418"	"26.7"	"32.399"	"34.474"	"31.832"	"30.378"	"31.121"	"26.95"	"21.084"	"16.875"
"1944"	"13.145"	"15.414"	"20.698"	"27"	"33.642"	"34.987"	"31.658"	"31.095"	"30.013"	"26.406"	"20.957"	"15.836"
"1945"	"11.954"	"15.379"	"22.535"	"25.825"	"30.602"	"33.324"	"31.403"	"30.876"	"29.311"	"26.331"	"20.357"	"14.349"
"1946"	"14.726"	"19.065"	"21.298"	"30.665"	"33.263"	"34.412"	"31.64"	"30.878"	"31.123"	"27.611"	"20.246"	"14.075"
"1947"	"13.308"	"16.662"	"23"	"30.292"	"34.244"	"37.441"	"33.968"	"32.616"	"28.727"	"25.711"	"21.62"	"15.364"
"1948"	"14.595"	"16.026"	"21.465"	"30.016"	"33.023"	"35.82"	"32.304"	"30.561"	"31.003"	"27.786"	"18.828"	"15.028"
"1949"	"15.963"	"16.654"	"23.183"	"30.447"	"35.629"	"34.984"	"31.404"	"31.833"	"32.385"	"26.66"	"18.912"	"14.51"
"1950"	"15.282"	"14.162"	"20.99"	"27.24"	"34.3"	"35.959"	"32.316"	"30.686"	"28.919"	"25.729"	"19.402"	"13.108"
"1951"	"13.308"	"16.017"	"22.319"	"26.037"	"32.499"	"34.967"	"34.395"	"31.632"	"31.749"	"29.475"	"21.868"	"16.174"
"1952"	"15.282"	"18.607"	"23.175"	"30.79"	"33.901"	"34.057"	"32.412"	"30.432"	"31.63"	"27.566"	"20.584"	"15.282"
"1953"	"13.818"	"18.854"	"26.001"	"29.738"	"34.774"	"35.292"	"31.997"	"31.444"	"30.994"	"27.403"	"20.713"	"18.247"
"1954"	"13.372"	"17.534"	"22.428"	"29.265"	"34.954"	"35.949"	"32.804"	"33.116"	"30.9"	"24.921"	"20.456"	"15.608"
"1955"	"13.983"	"17.344"	"24.49"	"26.674"	"31.29"	"35.96"	"33.513"	"31.152"	"29.675"	"25.503"	"20.076"	"16.047"
"1956"	"14.364"	"17.563"	"22.819"	"29.593"	"36.204"	"34.821"	"31.505"	"30.459"	"31.948"	"25.521"	"19.448"	"15.882"
"1957"	"13.482"	"15.307"	"21.984"	"26.866"	"31.389"	"34.549"	"33.188"	"31.204"	"29.276"	"26.922"	"20.728"	"15.288"
"1958"	"15.772"	"17.029"	"24.119"	"31.65"	"33.393"	"35.995"	"32.196"	"31.743"	"29.464"	"27.014"	"21.762"	"15.963"
"1959"	"13.707"	"15.669"	"23.264"	"29.229"	"32.654"	"35.739"	"32.669"	"31.095"	"29.792"	"26.179"	"20.426"	"15.882"
"1960"	"13.416"	"19.582"	"21.679"	"28.177"	"34.721"	"36.242"	"33.18"	"31.808"	"31.011"	"26.75"	"19.557"	"14.862"
"1961"	"14.872"	"14.88"	"23.145"	"27.647"	"33.119"	"35.168"	"31.995"	"30.914"	"30.884"	"26.25"	"18.556"	"13.412"
"1962"	"12.517"	"17.316"	"21.969"	"29.754"	"33.254"	"34.829"	"33.07"	"31.779"	"28.665"	"28.293"	"19.6"	"14.383"
"1963"	"12.99"	"18.262"	"22.238"	"28.048"	"31.435"	"35.078"	"33.192"	"30.238"	"29.547"	"27.43"	"20.972"	"14.891"
"1964"	"12.008"	"15.495"	"22.166"	"28.207"	"30.607"	"35.44"	"30.668"	"31.169"	"29.731"	"25.985"	"18.856"	"14.69"
"1965"	"15.854"	"16.898"	"22.23"	"26.111"	"31.562"	"35.867"	"31.975"	"30.739"	"30.404"	"27.166"	"20.983"	"13.562"
"1966"	"13.797"	"18.096"	"21.733"	"28.574"	"33.236"	"34.242"	"33.34"	"31.159"	"29.884"	"26.647"	"19.692"	"14.411"
"1967"	"12.589"	"18.79"	"21.792"	"27.629"	"32.072"	"35.713"	"32.404"	"30.632"	"30.049"	"25.947"	"20.183"	"15.216"
"1968"	"13.244"	"15.054"	"22.53"	"28.421"	"32.582"	"35.713"	"32.202"	"31.405"	"31.978"	"25.937"	"20.802"	"15.775"
"1969"	"14.372"	"17.398"	"25.229"	"29.027"	"31.827"	"36.196"	"32.868"	"32.25"	"30.604"	"28.14"	"21.746"	"16.047"
"1970"	"14.69"	"16.646"	"22.701"	"29.765"	"34.618"	"33.286"	"33.623"	"31.021"	"30.439"	"27.921"	"19.956"	"15.582"
"1971"	"13.181"	"17.38"	"22.539"	"29.692"	"31.765"	"33.233"	"31.327"	"29.502"	"28.893"	"26.64"	"19.822"	"16.347"
"1972"	"14.499"	"14.525"	"23.389"	"27.293"	"32.871"	"34.486"	"32.985"	"30.033"	"29.766"	"25.794"	"20.973"	"15.365"
"1973"	"14.227"	"18.417"	"22.024"	"29.964"	"33.424"	"35.619"	"31.836"	"29.319"	"29.899"	"25.402"	"19.457"	"13.682"
"1974"	"13.35"	"14.554"	"23.643"	"30.08"	"32.499"	"32.623"	"31.138"	"31.049"	"30.818"	"25.938"	"19.628"	"13.613"
"1975"	"13.209"	"15.787"	"21.471"	"28.399"	"33.063"	"33.812"	"30.326"	"30.003"	"28.675"	"27.88"	"19.293"	"16.156"
"1976"	"14.36"	"16.761"	"20.61"	"27.855"	"32.863"	"32.486"	"32.011"	"28.429"	"29.157"	"27.22"	"20.617"	"15.282"
"1977"	"13.95"	"16.664"	"23.64"	"28.022"	"30.393"	"31.848"	"30.181"	"30.098"	"28.195"	"25.923"	"22.47"	"16.058"
"1978"	"12.841"	"14.845"	"20.132"	"28.195"	"36.058"	"34.71"	"30.207"	"30.008"	"28.508"	"26.385"	"20.604"	"15.62"
"1979"	"14.111"	"15.73"	"20.258"	"29.308"	"30.343"	"35.083"	"32.331"	"31.67"	"28.97"	"26.528"	"21.636"	"16.39"
"1980"	"13.775"	"17.812"	"21.067"	"30.221"	"34.051"	"34.701"	"30.98"	"31.047"	"29.746"	"27.308"	"20.532"	"15.267"
"1981"	"14.317"	"17.072"	"21.148"	"28.963"	"32.795"	"34.735"	"30.599"	"31.437"	"30.454"	"25.755"	"18.818"	"14.903"
"1982"	"14.463"	"15.189"	"19.654"	"26.85"	"30.355"	"34.949"	"33.708"	"31.091"	"31.172"	"27.458"	"21.208"	"16.106"
"1983"	"13.491"	"15.979"	"21.534"	"25.657"	"30.878"	"33.903"	"31.944"	"30.858"	"30.693"	"26.219"	"20.179"	"15.762"
"1984"	"13.229"	"14.672"	"24.03"	"28.122"	"35.58"	"36.239"	"31.219"	"30.414"	"28.61"	"24.995"	"20.069"	"14.987"
"1985"	"13.77"	"17.718"	"23.866"	"28.775"	"34.073"	"34.518"	"30.968"	"31.093"	"30.057"	"24.919"	"20.704"	"16.38"
"1986"	"13.616"	"15.943"	"21.306"	"27.907"	"30.551"	"34.085"	"30.983"	"30.874"	"29.997"	"26.166"	"21.031"	"14.594"
"1987"	"14.761"	"17.614"	"22.407"	"28.879"	"29.102"	"34.707"	"34.764"	"32.545"	"32.423"	"27.508"	"21.032"	"15.936"
"1988"	"15.566"	"17.582"	"21.908"	"29.873"	"35.554"	"34.331"	"30.985"	"29.995"	"29.774"	"26.171"	"21.006"	"15.949"
"1989"	"13.197"	"15.683"	"21.359"	"26.72"	"33.757"	"33.281"	"32.146"	"29.868"	"29.562"	"26.26"	"20.568"	"15.097"
"1990"	"15.693"	"16.159"	"20.221"	"28.162"	"33.182"	"34.936"	"30.555"	"30.383"	"29.758"	"25.536"	"20.693"	"15.254"
"1991"	"13.999"	"16.636"	"21.705"	"26.9"	"32.933"	"33.995"	"34.263"	"30.739"	"30.556"	"25.993"	"20.555"	"16.299"
"1992"	"14.944"	"15.88"	"21.824"	"27.819"	"32.018"	"35.283"	"30.95"	"30.486"	"29.51"	"26.113"	"20.294"	"17.121"
"1993"	"14.133"	"18.67"	"20.808"	"28.746"	"34.652"	"35.401"	"31.349"	"32.976"	"28.95"	"26.35"	"21.392"	"15.864"
"1994"	"15.027"	"16.389"	"23.899"	"27.41"	"33.999"	"35.624"	"30.998"	"30.16"	"29.247"	"25.739"	"20.848"	"16.345"
"1995"	"13.672"	"16.697"	"21.188"	"27.343"	"34.524"	"36.531"	"32.738"	"29.188"	"30.086"	"27.057"	"20.892"	"16.21"
"1996"	"14.219"	"17.344"	"23.056"	"29.001"	"32.907"	"32.639"	"32.745"	"30.465"	"29.804"	"26.275"	"20.221"	"14.975"
"1997"	"13.536"	"16.451"	"21.725"	"26.983"	"30.452"	"32.486"	"32.466"	"30.203"	"30.303"	"24.484"	"19.748"	"13.293"
"1998"	"13.844"	"17.079"	"20.616"	"28.873"	"33.927"	"34.677"	"31.904"	"31.323"	"30.082"	"26.739"	"21.184"	"15.272"
"1999"	"13.372"	"17.444"	"23.163"	"30.528"	"33.754"	"33.558"	"32.629"	"31.403"	"31.013"	"27.34"	"21.966"	"16"
"2000"	"14.09"	"15.706"	"21.998"	"30.665"	"35.155"	"33.515"	"31.14"	"31.167"	"30.11"	"27.567"	"21.491"	"16.21"
"2001"	"13.29"	"17.644"	"22.927"	"28.437"	"33.483"	"32.351"	"31.576"	"31.723"	"31.156"	"27.885"	"21.674"	"16.446"
"2002"	"15.384"	"16.196"	"21.501"	"30.757"	"34.482"	"34.509"	"33.396"	"31.804"	"29.047"	"26.729"	"21.804"	"16.545"
