
"Year"	"Jan"	"Feb"	"Mar"	"Apr"	"May"	"Jun"	"Jul"	"Aug"	"Sep"	"Oct"	"Nov"	"Dec"
"1901"	"18.096"	"9.973"	"4.225"	"0"	"8.091"	"20.021"	"134.25"	"218.542"	"6.838"	"2.417"	"0"	"6.151"
"1902"	"0.516"	"0"	"0.423"	"1.523"	"2.525"	"66.973"	"265.813"	"143.846"	"86.981"	"0.683"	"0.185"	"0"
"1903"	"2.679"	"1.532"	"3.643"	"0"	"4.639"	"2.344"	"159.458"	"215.719"	"62.528"	"13.609"	"0"	"0"
"1904"	"4.149"	"0.904"	"12.785"	"0"	"11.602"	"56.495"	"278.102"	"291.16"	"80.831"	"2.225"	"16.938"	"9.567"
"1905"	"16.002"	"17.949"	"5.117"	"2.3"	"0.989"	"19.613"	"116.081"	"8.552"	"66.737"	"0"	"0"	"0.861"
"1906"	"0.4"	"25.289"	"10.861"	"0"	"1.029"	"110.423"	"152.987"	"94.504"	"189.65"	"0"	"0"	"10.47"
"1907"	"7.08"	"49.085"	"4.107"	"26.472"	"9.305"	"9.724"	"63.689"	"340.181"	"1.074"	"0"	"0"	"0"
"1908"	"22.96"	"2.523"	"0"	"1.66"	"9.442"	"20.479"	"468.929"	"431.732"	"76.316"	"3.358"	"0.688"	"0.861"
"1909"	"17.924"	"5.742"	"0"	"17.428"	"24.311"	"76.057"	"351.452"	"116.896"	"127.795"	"0.244"	"0"	"14.17"
"1910"	"9.246"	"4.564"	"0.349"	"4.493"	"0.309"	"41.607"	"161.504"	"194.86"	"116.476"	"11.656"	"0"	"0"
"1911"	"20.678"	"0"	"8.894"	"0"	"0.045"	"32.979"	"30.969"	"56.099"	"239.414"	"5.704"	"57.538"	"5.226"
"1912"	"19.477"	"5.548"	"4.494"	"5.76"	"3.36"	"22.229"	"205.863"	"248.064"	"167.02"	"4.246"	"9.309"	"1.863"
"1913"	"0.316"	"36.691"	"2.16"	"0.56"	"23.305"	"68.124"	"91.18"	"54.34"	"22.269"	"0"	"0"	"4.403"
"1914"	"0"	"5.432"	"0.253"	"11.216"	"14.371"	"62.356"	"317.311"	"134.678"	"180.728"	"8.881"	"8.583"	"0"
"1915"	"11.612"	"22.151"	"29.51"	"7.019"	"2.656"	"32.788"	"124.271"	"121.792"	"51.45"	"13.09"	"0"	"0"
"1916"	"0"	"15.107"	"0"	"1.637"	"6.445"	"54.061"	"215.598"	"359.896"	"114.704"	"7.887"	"0.069"	"0"
"1917"	"2.744"	"12.176"	"7.206"	"19.367"	"38.265"	"70.241"	"377.745"	"310.507"	"221.443"	"31.657"	"0"	"7.024"
"1918"	"10.93"	"0"	"4.088"	"0.996"	"1.852"	"19.397"	"47.474"	"164.755"	"32.251"	"0"	"0.093"	"0"
"1919"	"23.577"	"0.316"	"1.889"	"12.982"	"5.224"	"11.122"	"209.506"	"342.225"	"42.521"	"0.208"	"5.674"	"5.925"
"1920"	"6.539"	"16.578"	"6.791"	"0.045"	"14.024"	"91.361"	"286.79"	"82.418"	"40.168"	"0.147"	"0"	"0"
"1921"	"20.001"	"0"	"0"	"1.132"	"0.045"	"24.644"	"89.016"	"173.547"	"215.755"	"2.812"	"0"	"0"
"1922"	"10.216"	"0.395"	"0.253"	"1.434"	"0.304"	"50.992"	"186.47"	"194.381"	"174.123"	"1.179"	"0.116"	"24.809"
"1923"	"1.956"	"22.11"	"0.526"	"0.046"	"4.118"	"1.205"	"201.464"	"283.288"	"127.393"	"3.374"	"0"	"5.148"
"1924"	"14.595"	"13.502"	"0.349"	"0"	"4.966"	"14.685"	"147.936"	"238.593"	"247.268"	"11.489"	"2.022"	"22.261"
"1925"	"0.996"	"0"	"0"	"0"	"19.23"	"117.383"	"437.353"	"89.394"	"13.051"	"0.544"	"46.457"	"0"
"1926"	"14.697"	"4.112"	"24.445"	"9.084"	"26.002"	"15.633"	"236.898"	"302.212"	"124.576"	"0"	"1.399"	"0"
"1927"	"0"	"21.257"	"4.383"	"2.237"	"9.7"	"15.993"	"206.055"	"328.597"	"57.718"	"11.081"	"20.849"	"11.195"
"1928"	"6.462"	"27.073"	"2.204"	"2.891"	"3.588"	"23.6"	"165.392"	"97.13"	"53.124"	"35.93"	"20.036"	"21.493"
"1929"	"1.052"	"0.691"	"0"	"6.173"	"0.483"	"35.652"	"138.046"	"118.911"	"8.012"	"2.169"	"0"	"12.631"
"1930"	"13.833"	"10.064"	"0"	"1.215"	"7.717"	"89.751"	"379.257"	"148.185"	"37.834"	"16.584"	"0.266"	"0.244"
"1931"	"0.657"	"7.905"	"1.362"	"1.619"	"3.145"	"13.572"	"161.17"	"230.81"	"164.821"	"39.218"	"0"	"0"
"1932"	"0"	"0.502"	"9.354"	"3.817"	"2.416"	"18.14"	"107.216"	"283.459"	"165.248"	"0.046"	"0"	"0"
"1933"	"0.17"	"10.572"	"2.253"	"9.84"	"30.306"	"204.877"	"118.391"	"407.337"	"209.308"	"16.535"	"0"	"0.093"
"1934"	"10.991"	"0"	"16.588"	"0"	"0.657"	"88.148"	"157.708"	"240.765"	"40.819"	"0"	"0.232"	"22.104"
"1935"	"21.306"	"9.356"	"1.341"	"13.796"	"1.091"	"25.691"	"294.104"	"122.054"	"113.737"	"5.172"	"2.055"	"4.504"
"1936"	"0.763"	"9.611"	"12.742"	"0.484"	"4.656"	"209.996"	"189.697"	"278.497"	"88.999"	"0.147"	"17.042"	"15.317"
"1937"	"0"	"49.72"	"0.351"	"6.244"	"7.898"	"32.426"	"128.387"	"70.424"	"120.237"	"0.679"	"4.133"	"9.153"
"1938"	"12.764"	"0.515"	"3.231"	"0.793"	"2.635"	"45.728"	"255.078"	"89.403"	"12.873"	"1.901"	"0"	"0"
"1939"	"7.33"	"15.355"	"3.977"	"0.279"	"0.045"	"71.336"	"212.229"	"74.886"	"80.068"	"0"	"0"	"0.046"
"1940"	"17.484"	"23.84"	"7.168"	"5.78"	"7.64"	"23.453"	"145.606"	"236.257"	"18.286"	"1.36"	"3.454"	"1.865"
"1941"	"17.487"	"1.547"	"1.167"	"0"	"16.214"	"27.936"	"116.576"	"129.966"	"45.1"	"0.888"	"0"	"2.674"
"1942"	"12.895"	"11.943"	"0.045"	"7.173"	"6.396"	"24.639"	"406.214"	"260.83"	"205.037"	"0"	"0"	"5.3"
"1943"	"12.076"	"0"	"0.548"	"19.161"	"16.95"	"55.681"	"195.23"	"278.655"	"153.554"	"0.093"	"0"	"0"
"1944"	"22.149"	"21.737"	"29.228"	"28.576"	"0.045"	"31.384"	"219.067"	"127.725"	"91.082"	"13.866"	"0"	"0"
"1945"	"14.196"	"0"	"0"	"6.336"	"21.1"	"24.152"	"194.874"	"315.99"	"169.137"	"1.767"	"0"	"0"
"1946"	"0"	"3.508"	"0"	"0.499"	"14.824"	"54.998"	"227.832"	"270.49"	"18.575"	"1.914"	"0.278"	"2.964"
"1947"	"5.426"	"4.4"	"3.856"	"0.646"	"2.259"	"16.879"	"222.147"	"232.977"	"297.7"	"32.495"	"0"	"3.621"
"1948"	"32.908"	"16.353"	"3.296"	"1.051"	"5.979"	"6.337"	"301.417"	"256.806"	"156.973"	"10.573"	"5.281"	"0"
"1949"	"3.175"	"13.485"	"1.868"	"0"	"3.52"	"5.745"	"396.592"	"268.445"	"159.855"	"2.838"	"0"	"0"
"1950"	"2.353"	"0.441"	"4.729"	"0"	"17.54"	"8.262"	"295.018"	"236.28"	"148.608"	"0"	"0"	"0.907"
"1951"	"7.527"	"0.147"	"16.699"	"6.538"	"5.647"	"41.061"	"120.099"	"223.487"	"146.667"	"2.367"	"37.969"	"0"
"1952"	"1.217"	"13.198"	"9.701"	"6.433"	"8.033"	"36.133"	"185.122"	"493.427"	"4.257"	"0"	"0"	"19.339"
"1953"	"30.826"	"0"	"0"	"1.236"	"1.221"	"16.841"	"199.727"	"241.501"	"52.07"	"0.409"	"0"	"0"
"1954"	"11.711"	"41.02"	"5.137"	"0"	"0.348"	"6.587"	"259.392"	"165.654"	"127.308"	"27.638"	"2.328"	"0"
"1955"	"20.305"	"0.147"	"1.909"	"3.813"	"3.323"	"87.818"	"216.22"	"369.407"	"168.738"	"53.816"	"0"	"1.613"
"1956"	"8.391"	"1.224"	"13.438"	"0.722"	"0.091"	"48.161"	"427.641"	"197.748"	"20.958"	"59.429"	"0.625"	"9.742"
"1957"	"22.006"	"0"	"18.263"	"5.454"	"9.608"	"24.805"	"344.45"	"155.193"	"151.014"	"11.704"	"11.287"	"4.597"
"1958"	"4.701"	"3.73"	"3.372"	"0.216"	"1.968"	"3.581"	"410.433"	"269.595"	"262.947"	"12.046"	"9.522"	"4.751"
"1959"	"12.841"	"0.472"	"0.423"	"0.349"	"39.949"	"30.68"	"201.621"	"209.867"	"78.651"	"0.37"	"8.61"	"0"
"1960"	"1.717"	"0"	"16.136"	"1.262"	"11.344"	"19.267"	"239.422"	"397.395"	"46.568"	"42.814"	"0"	"2.844"
"1961"	"18.652"	"32.821"	"0"	"4.89"	"7.107"	"51.848"	"160.409"	"537.71"	"83.88"	"26.776"	"4.687"	"1.019"
"1962"	"17.424"	"2.303"	"7.209"	"0.442"	"0.435"	"14.051"	"245.298"	"183.261"	"151.482"	"0"	"1.18"	"2.906"
"1963"	"7.33"	"3.311"	"2.8"	"2.334"	"9.819"	"42.027"	"117.394"	"259.376"	"262.029"	"1.924"	"9.926"	"9.962"
"1964"	"0"	"0.147"	"0.147"	"0.899"	"17.17"	"9.576"	"444.344"	"346.459"	"208.919"	"1.268"	"0"	"5.968"
"1965"	"3.687"	"6.711"	"1.106"	"8.785"	"2.837"	"5.345"	"300.229"	"144.308"	"112.125"	"15.185"	"0"	"0"
"1966"	"0.413"	"6.463"	"0.147"	"0.17"	"39.099"	"78.354"	"149.998"	"334.9"	"36.306"	"5.159"	"31.734"	"0"
"1967"	"0"	"0.367"	"21.432"	"0.17"	"2.512"	"34.094"	"246.822"	"523.223"	"135.577"	"10.123"	"4.884"	"29.602"
"1968"	"16.637"	"3.856"	"6.186"	"0.17"	"1.984"	"16.809"	"272.878"	"181.596"	"24.356"	"13.851"	"0"	"0"
"1969"	"4.989"	"10.218"	"2.727"	"0.17"	"20.527"	"16.999"	"276.212"	"185.791"	"110.143"	"0"	"8.258"	"0"
"1970"	"20.864"	"31.854"	"11.338"	"0.324"	"31.282"	"78.96"	"100.665"	"365.351"	"137.827"	"0.854"	"0"	"0"
"1971"	"10.052"	"12.364"	"0.045"	"4.755"	"17.165"	"107.467"	"243.68"	"228.123"	"102.165"	"17.388"	"2.092"	"0"
"1972"	"2.841"	"14.497"	"0.147"	"2.657"	"1.279"	"26.399"	"115.971"	"321.609"	"75.97"	"5.6"	"3.089"	"3.508"
"1973"	"10.919"	"11.46"	"0.045"	"0"	"7.722"	"18.664"	"201.538"	"407.177"	"116.405"	"28.063"	"0"	"0.899"
"1974"	"0"	"0.139"	"0.642"	"0.417"	"15.063"	"17.833"	"185.19"	"93.342"	"11.138"	"37.428"	"0"	"2.587"
"1975"	"4.67"	"1.304"	"1.808"	"0.102"	"1.08"	"67.906"	"363.519"	"225.96"	"204.312"	"27.493"	"0"	"0"
"1976"	"2.382"	"9.661"	"2.456"	"3.01"	"14.196"	"84.069"	"221.853"	"309.377"	"109.681"	"0"	"9.922"	"0.17"
"1977"	"20.42"	"0.649"	"0.093"	"20.626"	"12.192"	"43.549"	"403.649"	"159.547"	"165.338"	"19.274"	"0.255"	"1.726"
"1978"	"0.208"	"14.411"	"17.858"	"6.094"	"0.045"	"95.097"	"244.977"	"231.48"	"143.842"	"0.069"	"5.391"	"7.286"
"1979"	"5.195"	"47.446"	"4.168"	"1.427"	"20.41"	"38.851"	"192.866"	"103.085"	"12.992"	"7.031"	"2.946"	"4.477"
"1980"	"0.657"	"4.906"	"13.888"	"0.697"	"5.381"	"57.574"	"253.303"	"205.517"	"27.023"	"7.252"	"2.954"	"15.426"
"1981"	"8.182"	"2.84"	"16.322"	"0"	"21.812"	"172.456"	"270.473"	"129.862"	"76.044"	"0.375"	"35.166"	"2.065"
"1982"	"16.794"	"4.63"	"17.416"	"25.025"	"40.442"	"28.162"	"179.406"	"348.189"	"13.439"	"9.977"	"38.251"	"9.703"
"1983"	"14.5"	"7.23"	"1.098"	"37.203"	"39.925"	"54.915"	"138.494"	"296.963"	"107.726"	"22.052"	"0"	"2.64"
"1984"	"0.193"	"0.852"	"3"	"36.222"	"2.328"	"45.625"	"149.996"	"280.389"	"110.531"	"0.139"	"0"	"0"
"1985"	"1.85"	"0"	"3.468"	"15.532"	"10"	"31.073"	"441.308"	"280.96"	"97.796"	"49.7"	"0"	"16.042"
"1986"	"8.538"	"20.937"	"5.688"	"1.069"	"29.785"	"59.972"	"149.289"	"113.954"	"51.731"	"17.149"	"0"	"13.233"
"1987"	"16.825"	"7.553"	"4.344"	"0.73"	"50.003"	"14.095"	"70.789"	"133.292"	"36.535"	"2.026"	"0"	"5.127"
"1988"	"5.442"	"4.579"	"13.53"	"10.882"	"3.27"	"63.286"	"230.197"	"321.547"	"85.712"	"0.102"	"0"	"0.316"
"1989"	"18.889"	"0.736"	"11.937"	"0.476"	"0.509"	"6.038"	"151.113"	"246.755"	"89.618"	"2.264"	"10.118"	"2.853"
"1990"	"0"	"26.937"	"0.642"	"1.206"	"24.108"	"69.752"	"199.11"	"319.752"	"232.715"	"0"	"0.895"	"12.1"
"1991"	"0"	"20.211"	"1.769"	"1.916"	"29.982"	"30.087"	"87.323"	"351.613"	"84.533"	"0"	"16.446"	"22.641"
"1992"	"12.375"	"14.822"	"5.824"	"4.375"	"13.478"	"11.814"	"79.406"	"196.076"	"109.827"	"21.714"	"36.872"	"0"
"1993"	"5.935"	"3.41"	"7.334"	"3.959"	"13.833"	"101.523"	"302.395"	"166.244"	"184.918"	"2.022"	"0"	"0"
"1994"	"19.537"	"12.592"	"8.4"	"6.783"	"14.48"	"55.847"	"521.801"	"261.357"	"23.815"	"0"	"0"	"0"
"1995"	"26.529"	"5.607"	"9.323"	"8.388"	"0.328"	"25.097"	"165.478"	"364.205"	"113.45"	"3.079"	"0.532"	"0.203"
"1996"	"4.435"	"8.563"	"3.062"	"2.243"	"23.307"	"119.025"	"176.412"	"331.95"	"209.989"	"13.318"	"0"	"0"
"1997"	"4.189"	"0.367"	"2.984"	"9.713"	"31.329"	"95.527"	"89.198"	"196.993"	"125.007"	"31.846"	"33.155"	"11.147"
"1998"	"0"	"17.431"	"12.599"	"13.648"	"7.26"	"85.61"	"131.633"	"230.463"	"109.067"	"31.333"	"8.357"	"0.323"
"1999"	"15.011"	"10.123"	"0"	"0"	"5.432"	"115.024"	"160.479"	"224.436"	"142.743"	"31.995"	"0"	"0.102"
"2000"	"8.863"	"15.255"	"4.365"	"2.335"	"14.284"	"31.699"	"273.398"	"139.017"	"38.97"	"0"	"1.722"	"4.691"
"2001"	"6.437"	"7.883"	"2.325"	"20.49"	"50.18"	"99.111"	"146.414"	"254.806"	"34.214"	"6.667"	"0"	"0"
"2002"	"7.97"	"14.633"	"1.296"	"1.271"	"6.739"	"34.574"	"15.087"	"159.587"	"150.404"	"1.721"	"1.261"	"5.897"
