
"Year"	"Jan"	"Feb"	"Mar"	"Apr"	"May"	"Jun"	"Jul"	"Aug"	"Sep"	"Oct"	"Nov"	"Dec"
"1901"	"4.967"	"20.117"	"13.594"	"60.924"	"26.989"	"102.819"	"198.392"	"123.021"	"134.388"	"69.195"	"9.114"	"0"
"1902"	"0"	"0.332"	"0.086"	"18.497"	"7.276"	"53.758"	"82.607"	"170.806"	"217.842"	"94.98"	"50.171"	"11.799"
"1903"	"6.863"	"0.335"	"0"	"5.822"	"54.606"	"57.939"	"348.051"	"295.546"	"216.793"	"274.703"	"62.073"	"13.967"
"1904"	"0"	"0.463"	"8.888"	"1.219"	"20.604"	"113.481"	"138.403"	"45.024"	"300.947"	"84.483"	"0.906"	"0"
"1905"	"0"	"10.069"	"1.617"	"30.354"	"45.383"	"75.414"	"50.659"	"232.288"	"248.129"	"35.731"	"0.21"	"0"
"1906"	"12.887"	"0.335"	"6.532"	"1.585"	"17.984"	"239.897"	"167.663"	"168.124"	"166.856"	"63.865"	"24.314"	"21.865"
"1907"	"0.636"	"4.536"	"5.728"	"70.314"	"0.367"	"159.414"	"125.894"	"212.136"	"116.903"	"0.97"	"6.216"	"14.694"
"1908"	"0.232"	"14.47"	"7.105"	"4.062"	"5.514"	"106.733"	"110.991"	"174.528"	"548.807"	"1.451"	"0.906"	"0"
"1909"	"1.662"	"1.566"	"2.078"	"53.723"	"7.379"	"158.491"	"225.034"	"126.276"	"131.378"	"6.096"	"0.915"	"0.549"
"1910"	"0.151"	"0.335"	"0.412"	"2.469"	"31.883"	"136.87"	"153.938"	"132.755"	"364.273"	"102.903"	"64.46"	"0"
"1911"	"0"	"0.332"	"0.755"	"1.677"	"11.736"	"64.076"	"168.559"	"157.107"	"133.671"	"10.089"	"16.134"	"0.006"
"1912"	"0"	"36.261"	"0"	"20.693"	"16.201"	"48.154"	"206.86"	"185.475"	"103.504"	"36.364"	"45.966"	"0.082"
"1913"	"0"	"11.606"	"0"	"13.134"	"58.839"	"141.283"	"256.313"	"66.181"	"115.866"	"76.751"	"0.21"	"0.266"
"1914"	"0.151"	"0.332"	"1.164"	"8.65"	"31.238"	"200.907"	"272.476"	"213.981"	"362.348"	"7.97"	"3.375"	"7.225"
"1915"	"13.25"	"2.34"	"43.984"	"9.206"	"10.565"	"188.843"	"127.567"	"165.817"	"258.199"	"144.935"	"23.172"	"0.124"
"1916"	"0.255"	"10.131"	"0.366"	"17.457"	"24.107"	"134.756"	"305.108"	"96.491"	"345.686"	"227.451"	"83.526"	"0"
"1917"	"0.151"	"30.502"	"17.197"	"29.828"	"64.89"	"153.041"	"204.189"	"198.119"	"311.176"	"84.192"	"16.728"	"0"
"1918"	"5.962"	"0.678"	"6.541"	"7.813"	"124.754"	"26.737"	"134.169"	"123.47"	"185.435"	"3.693"	"19.562"	"32.753"
"1919"	"4.027"	"1.214"	"2.43"	"19.606"	"58.526"	"175.075"	"126.511"	"93.746"	"194.786"	"49.286"	"66.131"	"9.297"
"1920"	"7.596"	"0.332"	"0.025"	"31.948"	"32.334"	"99.276"	"156.664"	"89.475"	"128.562"	"21.84"	"0.982"	"0"
"1921"	"0.867"	"0"	"1.156"	"20.71"	"0.874"	"179.083"	"202.599"	"111.932"	"140.043"	"53.267"	"62.614"	"0"
"1922"	"12.606"	"1.561"	"0"	"10.692"	"21.652"	"91.039"	"151.531"	"97.838"	"141.188"	"40.66"	"52.427"	"0"
"1923"	"0.204"	"8.382"	"9.073"	"17.048"	"10.61"	"11.51"	"228.421"	"36.226"	"270.657"	"13.779"	"0.21"	"0"
"1924"	"2.793"	"0"	"1.161"	"16.771"	"14.316"	"49.13"	"122.454"	"128.057"	"212.594"	"60.583"	"70.678"	"0.785"
"1925"	"0.151"	"0.332"	"1.761"	"5.612"	"69.806"	"84.693"	"125.201"	"154.16"	"130.995"	"160.016"	"22.78"	"1.141"
"1926"	"19.355"	"0.114"	"9.103"	"51.116"	"86.409"	"29.619"	"125.011"	"217.751"	"243.916"	"7.866"	"1.338"	"0.057"
"1927"	"0.417"	"1.418"	"8.968"	"7.263"	"17.541"	"150.85"	"155.227"	"120.916"	"145.111"	"58.177"	"96.202"	"0"
"1928"	"0.151"	"14.91"	"21.617"	"4.498"	"4.693"	"200.336"	"143.68"	"99.138"	"414.336"	"82.623"	"0.21"	"14.806"
"1929"	"0"	"29.745"	"0.705"	"23.401"	"9.235"	"125.28"	"63.763"	"82.75"	"192.485"	"26.474"	"0.906"	"1.765"
"1930"	"0"	"1.936"	"2.346"	"13.199"	"7.279"	"127.984"	"120.647"	"149.716"	"235.773"	"103.964"	"21.043"	"2.624"
"1931"	"0"	"0.373"	"7.671"	"10.468"	"24.818"	"154.197"	"287.954"	"104.144"	"301.144"	"49.894"	"47.334"	"0.422"
"1932"	"0"	"4.76"	"0.99"	"4.714"	"17.263"	"94"	"217.742"	"121.09"	"155.431"	"46.762"	"68.932"	"0"
"1933"	"0.608"	"7.307"	"9.409"	"29.364"	"91.512"	"220.893"	"162.247"	"134.191"	"183.026"	"89.219"	"27.841"	"29.982"
"1934"	"0.938"	"0.332"	"1.155"	"20.485"	"4.84"	"89.147"	"256.917"	"174.092"	"144.322"	"25.373"	"32.742"	"0"
"1935"	"11.928"	"1.754"	"1.453"	"36.043"	"2.209"	"148.871"	"191.662"	"120.955"	"196.613"	"118.976"	"0.21"	"0.023"
"1936"	"0.173"	"32.914"	"9.011"	"15.738"	"69.434"	"125.031"	"152.483"	"126.523"	"151.301"	"79.6"	"69.562"	"11.203"
"1937"	"0"	"16.612"	"29.343"	"56.717"	"6.277"	"71.359"	"220.66"	"54.857"	"133.976"	"46.664"	"0.235"	"4.719"
"1938"	"0"	"11.272"	"2.805"	"10.721"	"39.057"	"246.718"	"195.744"	"238.468"	"185.854"	"48.86"	"0.21"	"0.094"
"1939"	"0"	"0"	"10.297"	"4.537"	"2.101"	"83.208"	"120.451"	"125.527"	"159.974"	"71.324"	"19.791"	"0.047"
"1940"	"0"	"0.017"	"0"	"31.991"	"77.019"	"105.624"	"132.113"	"190.5"	"152.498"	"100.308"	"7.9"	"0.302"
"1941"	"8.375"	"2.686"	"1.664"	"6.677"	"17.499"	"67.733"	"69.155"	"165.402"	"216.387"	"10.33"	"0.674"	"1.62"
"1942"	"0"	"8.461"	"0.995"	"32.663"	"30.4"	"180.107"	"158.166"	"205.605"	"87.944"	"18.301"	"0.889"	"2.851"
"1943"	"10.871"	"0.12"	"3.568"	"25.447"	"37.388"	"213.579"	"147.489"	"83.662"	"329.582"	"110.657"	"2.747"	"0"
"1944"	"0"	"7.497"	"40.38"	"5.269"	"20.51"	"116.884"	"124.777"	"85.573"	"244.892"	"100.89"	"29.152"	"0"
"1945"	"0.141"	"0"	"0"	"28.159"	"6.43"	"133.15"	"267.225"	"183.687"	"174.478"	"104.154"	"5.471"	"0"
"1946"	"0"	"15.081"	"11.228"	"15.608"	"23.764"	"124.899"	"178.172"	"109.663"	"124.649"	"20.279"	"58.56"	"5.473"
"1947"	"1.43"	"18.088"	"1.018"	"2.393"	"9.137"	"67.185"	"178.33"	"292.765"	"310.903"	"33.442"	"1.481"	"12.649"
"1948"	"0.572"	"0.116"	"2.997"	"23.483"	"19.446"	"81.717"	"192.717"	"159.73"	"314.529"	"30.147"	"122.555"	"0"
"1949"	"0"	"3.614"	"0.164"	"16.24"	"61.792"	"147.936"	"245.775"	"172.435"	"381.064"	"71.678"	"6.397"	"0"
"1950"	"0"	"12.536"	"14.663"	"4.833"	"21.011"	"69.578"	"182.559"	"102.178"	"298.869"	"36.853"	"2.545"	"0.092"
"1951"	"0.054"	"0"	"18.872"	"21.552"	"55.252"	"119.187"	"281.142"	"103.61"	"120.258"	"79.891"	"0.31"	"0"
"1952"	"0"	"8.295"	"0"	"19.586"	"76.445"	"57.204"	"198.642"	"93.962"	"153.493"	"119.896"	"0.21"	"2.617"
"1953"	"1.022"	"0"	"0"	"25.977"	"0.367"	"167.411"	"203.709"	"132.017"	"246.89"	"191.596"	"0.21"	"0"
"1954"	"0"	"0"	"9.475"	"7.17"	"5.641"	"124.567"	"198.501"	"171.515"	"319.993"	"38.243"	"0.21"	"3.632"
"1955"	"0.253"	"0"	"8.369"	"9.781"	"28.676"	"203.029"	"281.737"	"358.797"	"246.658"	"52.365"	"2.427"	"0"
"1956"	"0"	"0.014"	"0"	"1.113"	"81.309"	"142.746"	"320.605"	"133.122"	"172.634"	"80.981"	"71.865"	"0.712"
"1957"	"0"	"3.147"	"19.513"	"44.642"	"40.329"	"145.555"	"130.053"	"290.708"	"83.19"	"118.927"	"0.21"	"0"
"1958"	"1.759"	"1.253"	"7.159"	"33.026"	"17.458"	"51.502"	"305.465"	"296.099"	"121.495"	"92.456"	"23.061"	"0"
"1959"	"0"	"0"	"0"	"16.482"	"17.988"	"178.047"	"245.62"	"263.643"	"204.487"	"82.386"	"14.195"	"0.756"
"1960"	"0"	"0"	"21.782"	"6.394"	"44.357"	"163"	"117.522"	"54.075"	"241.894"	"62.73"	"38.802"	"7.229"
"1961"	"2.411"	"0.146"	"0.866"	"33.171"	"73.572"	"116.964"	"259.495"	"146.714"	"108.109"	"223.438"	"5.767"	"0.312"
"1962"	"0"	"11.69"	"10.397"	"55.159"	"40.813"	"68.649"	"163.916"	"236.918"	"390.576"	"74.626"	"27.524"	"27.58"
"1963"	"0"	"0.434"	"12.184"	"38.023"	"70.533"	"179.837"	"152.056"	"310.375"	"132.961"	"171.97"	"0.21"	"0"
"1964"	"1.396"	"0"	"2.844"	"10.574"	"8.619"	"109.872"	"206.449"	"143.75"	"376.596"	"56.986"	"12.672"	"0"
"1965"	"0.337"	"0"	"1.883"	"2.555"	"13.039"	"170.259"	"381.587"	"129.37"	"243.542"	"0.97"	"0.221"	"1.415"
"1966"	"8.626"	"11.514"	"4.41"	"14.675"	"9.137"	"85.356"	"194.216"	"156.07"	"313.232"	"43.789"	"36.243"	"28.827"
"1967"	"0.519"	"0"	"21.905"	"2.48"	"5.198"	"119.865"	"286.629"	"106.722"	"141.374"	"5.218"	"0.51"	"8.212"
"1968"	"10.662"	"19.628"	"8.514"	"7.501"	"23.14"	"86.252"	"143.757"	"18.068"	"298.386"	"61.151"	"40.279"	"0.862"
"1969"	"1.114"	"0"	"1.735"	"23.922"	"47.925"	"57.694"	"215.871"	"93.022"	"315.956"	"33.455"	"54.1"	"6.424"
"1970"	"3.06"	"0"	"4.199"	"21.494"	"35.74"	"208.297"	"129.84"	"362.149"	"226.836"	"26.275"	"0.21"	"0"
"1971"	"0.595"	"2.934"	"4.378"	"14.389"	"83.422"	"107.046"	"46.384"	"183.704"	"142.874"	"124.339"	"0.21"	"0"
"1972"	"0"	"1.001"	"0"	"51.793"	"12.814"	"127.532"	"67.654"	"100.873"	"103.676"	"33.046"	"44.517"	"0.879"
"1973"	"0"	"0"	"0.021"	"13.677"	"10.128"	"127.014"	"100.695"	"241.357"	"80.837"	"246.926"	"10.622"	"0.171"
"1974"	"0"	"0"	"0.578"	"18.734"	"40.159"	"124.428"	"67.488"	"133.087"	"190.92"	"226.072"	"1.391"	"0"
"1975"	"12.09"	"5.499"	"27.122"	"7.917"	"28.403"	"69.345"	"197.197"	"195.679"	"421.103"	"268.748"	"14.434"	"0"
"1976"	"0"	"0"	"0.81"	"46.631"	"19.211"	"91.248"	"300.236"	"231.344"	"100.431"	"18.65"	"38.877"	"0"
"1977"	"0"	"0"	"5.268"	"15.249"	"40.686"	"71.345"	"154.861"	"164.424"	"73.692"	"63.105"	"71.322"	"1.619"
"1978"	"14.291"	"32.842"	"1.887"	"21.646"	"52.396"	"171.891"	"253.936"	"287.012"	"189.489"	"75.059"	"21.676"	"0.022"
"1979"	"3.738"	"19.025"	"1.858"	"15.521"	"116.442"	"92.35"	"105.233"	"98.93"	"282.867"	"18.655"	"72.832"	"1.104"
"1980"	"1.023"	"0"	"10.036"	"24.13"	"13.285"	"183.758"	"139.474"	"218.583"	"151.676"	"11.006"	"2.388"	"13.508"
"1981"	"5.704"	"0"	"26.851"	"18.985"	"32.341"	"173.996"	"160.783"	"191.361"	"324.724"	"82.988"	"2.463"	"0.047"
"1982"	"0.704"	"0"	"1.816"	"33.763"	"36.125"	"117.271"	"229.182"	"83.932"	"245.089"	"103.89"	"43.688"	"0"
"1983"	"0"	"0.032"	"1.983"	"2.898"	"13.142"	"88.752"	"200.276"	"404.882"	"332.338"	"203.96"	"14.4"	"15.113"
"1984"	"0.426"	"7.613"	"1.846"	"5.971"	"0.964"	"85.982"	"214.263"	"137.458"	"101.885"	"84.084"	"1.912"	"0.239"
"1985"	"2.377"	"0.031"	"17.21"	"7.556"	"2.483"	"142.922"	"184.466"	"69.961"	"40.444"	"123.594"	"6.78"	"5.34"
"1986"	"10.854"	"10.523"	"0.003"	"41.595"	"3.919"	"185.916"	"133.208"	"244.154"	"83.503"	"45.048"	"33.39"	"19.721"
"1987"	"8.644"	"1.546"	"24.362"	"6.569"	"35.57"	"101.065"	"164.034"	"197.022"	"77.673"	"135.267"	"43.308"	"5.469"
"1988"	"0"	"28.987"	"0.175"	"42.089"	"6.747"	"93.59"	"304.52"	"217.937"	"270.195"	"46.588"	"1.818"	"13.142"
"1989"	"0"	"0"	"27.121"	"3.12"	"6.476"	"140.117"	"406.723"	"127.52"	"181.921"	"89.379"	"3.419"	"4.172"
"1990"	"1.599"	"0.488"	"15.535"	"0.871"	"172.738"	"153.152"	"137.654"	"257.147"	"105.623"	"113.885"	"30.152"	"2.465"
"1991"	"1.649"	"0.392"	"0.228"	"18.742"	"17.154"	"202.973"	"154.63"	"218.747"	"169.634"	"38.556"	"24.162"	"0"
"1992"	"0.01"	"0.062"	"0"	"6.888"	"44.767"	"113.193"	"102.636"	"299.932"	"148.905"	"39.785"	"13.481"	"0"
"1993"	"0"	"0.606"	"2.114"	"11.796"	"12.781"	"97.268"	"200.901"	"192.068"	"149.424"	"180.683"	"0.442"	"7.609"
"1994"	"15.038"	"6.286"	"6.988"	"35.208"	"8.287"	"127.83"	"159.31"	"219.063"	"91.848"	"228.406"	"35.922"	"0"
"1995"	"15.093"	"0"	"28.278"	"2.791"	"70.742"	"143.989"	"245.786"	"171.928"	"208.691"	"288.911"	"27.875"	"0"
"1996"	"0.131"	"0.684"	"0.592"	"45.074"	"8.904"	"86.131"	"218.888"	"353.451"	"178.638"	"128.994"	"63.105"	"0"
"1997"	"6.711"	"0"	"7.23"	"53.152"	"15.988"	"49.203"	"197.574"	"199.09"	"92.736"	"91.61"	"64.775"	"19.947"
"1998"	"0.397"	"0.876"	"0.958"	"4.548"	"15.605"	"53.304"	"230.044"	"289.459"	"211.527"	"221.644"	"20.495"	"0.005"
"1999"	"0"	"3.168"	"0"	"6.89"	"89.877"	"61.694"	"167.109"	"148.434"	"165.652"	"63.524"	"0.215"	"0"
"2000"	"0"	"12.614"	"0"	"10.079"	"60.284"	"227.835"	"150.084"	"478.257"	"65.612"	"24.638"	"3.177"	"1.704"
"2001"	"13.848"	"0"	"34.567"	"13.826"	"4.47"	"226.983"	"58.38"	"237.066"	"101.788"	"141.071"	"3.159"	"0"
"2002"	"14.932"	"0.202"	"8.696"	"8.552"	"49.532"	"185.423"	"71.05"	"208.892"	"66.793"	"90.671"	"2.541"	"0"
