
"Year"	"Jan"	"Feb"	"Mar"	"Apr"	"May"	"Jun"	"Jul"	"Aug"	"Sep"	"Oct"	"Nov"	"Dec"
"1901"	"17.622"	"5.602"	"15.39"	"2.497"	"20.893"	"13.765"	"158.069"	"66.468"	"1.74"	"0"	"0"	"0.256"
"1902"	"0"	"0.3"	"7.418"	"4.779"	"11.774"	"33.919"	"72.262"	"72.367"	"52.343"	"1.984"	"0"	"0"
"1903"	"4.982"	"0.585"	"6.504"	"0.3"	"12.217"	"6.057"	"80.617"	"84.124"	"47.456"	"1.782"	"0"	"4.218"
"1904"	"13.173"	"0.199"	"56.45"	"4.255"	"7.774"	"22.075"	"33.919"	"57.704"	"37.33"	"0.33"	"5.932"	"4"
"1905"	"23.122"	"16.053"	"5.707"	"0.561"	"0.671"	"12.028"	"63.933"	"1.17"	"169.418"	"2.722"	"0"	"7.28"
"1906"	"0"	"48.334"	"17.638"	"1.898"	"2.553"	"32.808"	"59.688"	"56.818"	"183.187"	"0"	"0"	"5.581"
"1907"	"9.418"	"37.453"	"11.674"	"30.803"	"1.306"	"24.285"	"27.284"	"107.176"	"0.585"	"1.253"	"0.199"	"0"
"1908"	"21.637"	"3.505"	"0.2"	"12.379"	"2.599"	"29.041"	"145.977"	"349.942"	"28.501"	"0.485"	"0"	"3.838"
"1909"	"7.712"	"11.381"	"0.2"	"41.16"	"7.829"	"88.611"	"173.414"	"68.244"	"132.235"	"0"	"0"	"38.218"
"1910"	"16.448"	"3.534"	"1.055"	"13.669"	"1.27"	"61.484"	"69.131"	"85.525"	"23.656"	"0.788"	"0"	"2.068"
"1911"	"31.829"	"1.884"	"44.732"	"5.161"	"7.921"	"46.13"	"20.647"	"52.417"	"36.717"	"4.151"	"21.925"	"0"
"1912"	"26.868"	"5.443"	"4.252"	"24.863"	"3.74"	"15.183"	"47.05"	"138.451"	"30.553"	"0.136"	"3.702"	"2.354"
"1913"	"0.655"	"25.711"	"16.354"	"1.391"	"48.822"	"44.906"	"113.874"	"128.238"	"7.462"	"0.784"	"0.151"	"8.319"
"1914"	"10.296"	"18.291"	"3.271"	"18.415"	"19.906"	"18.813"	"190.468"	"46.948"	"117.457"	"16.903"	"9.969"	"9.042"
"1915"	"7.811"	"42.936"	"34.002"	"12.919"	"0.2"	"23.097"	"22.232"	"17.182"	"62.721"	"11.184"	"0"	"1.969"
"1916"	"0.23"	"14.583"	"1.973"	"3.819"	"5.81"	"16.333"	"241.77"	"110.802"	"34.703"	"5.411"	"0.385"	"0"
"1917"	"2.778"	"2.678"	"5.191"	"22.396"	"16.562"	"57.364"	"83.137"	"159.782"	"174.734"	"13.037"	"0"	"1.622"
"1918"	"2.182"	"1.399"	"23.403"	"22.65"	"0.641"	"33.907"	"8.128"	"85.2"	"8.787"	"0"	"1.909"	"3.355"
"1919"	"30.466"	"10.826"	"6.346"	"7.164"	"10.429"	"0.3"	"160.368"	"100.851"	"14.354"	"0"	"1.286"	"10.588"
"1920"	"12.413"	"10.484"	"12.431"	"1.762"	"11.388"	"16.104"	"60.02"	"95.286"	"4.818"	"0"	"0"	"0"
"1921"	"5.111"	"0.199"	"0.2"	"1.886"	"2.069"	"23.789"	"149.484"	"115.86"	"54.626"	"4.304"	"0"	"5.795"
"1922"	"7.342"	"3.882"	"1.928"	"2.958"	"2.06"	"35.73"	"45.387"	"49.235"	"194.407"	"0.391"	"0"	"20.896"
"1923"	"16.491"	"32.851"	"4.011"	"20.454"	"18.195"	"0.905"	"86.927"	"139.5"	"3.666"	"4.047"	"0"	"24.99"
"1924"	"26.594"	"30.038"	"4.112"	"1.004"	"21.742"	"4.158"	"152.787"	"56.622"	"68.979"	"2.735"	"0.626"	"31.777"
"1925"	"5.074"	"0.983"	"2.497"	"0.799"	"16.5"	"94.998"	"124.029"	"75.236"	"1.111"	"1.439"	"20.42"	"0"
"1926"	"6.842"	"0.4"	"38.202"	"11.699"	"10.219"	"1.154"	"83.401"	"202.764"	"23.679"	"0"	"0.81"	"6.49"
"1927"	"0"	"12.81"	"9.676"	"5.207"	"11.986"	"11.299"	"103.627"	"76.93"	"8.207"	"2.524"	"0"	"26.519"
"1928"	"6.239"	"17.317"	"6.962"	"13.747"	"5.71"	"24.621"	"66.195"	"70.234"	"76.828"	"1.026"	"9.267"	"10.238"
"1929"	"1.287"	"1.784"	"0.2"	"7.932"	"0.825"	"83.876"	"68.824"	"195.495"	"7.237"	"0.485"	"0"	"33.945"
"1930"	"13.436"	"9.113"	"0.3"	"18.37"	"7.454"	"21.764"	"181.298"	"27.689"	"21.374"	"1.281"	"0.292"	"0.256"
"1931"	"15.963"	"15.634"	"11.022"	"5.063"	"12.738"	"1.351"	"169.207"	"147.865"	"54.128"	"12.064"	"0"	"0"
"1932"	"11.844"	"0.756"	"12.387"	"5.825"	"4.745"	"10.499"	"99.14"	"38.807"	"41.71"	"0"	"0"	"19.67"
"1933"	"0.756"	"5.996"	"8.695"	"9.496"	"11.089"	"49.472"	"69.553"	"194.244"	"90.058"	"1.823"	"6.949"	"0"
"1934"	"9.673"	"1.784"	"27.433"	"0.699"	"2.047"	"26.545"	"98.979"	"92.335"	"0.987"	"0"	"0"	"5.698"
"1935"	"34.388"	"47.281"	"5.735"	"31.2"	"3.468"	"9.493"	"43.03"	"61.877"	"46.389"	"0.316"	"10.01"	"1.582"
"1936"	"1.239"	"24.671"	"12.109"	"7.792"	"0.884"	"136.093"	"77.662"	"79.351"	"53.146"	"7.269"	"0.956"	"18.204"
"1937"	"0"	"67.156"	"2.797"	"25.94"	"2.825"	"10.749"	"155.526"	"5.93"	"41.028"	"1.354"	"0.199"	"10.64"
"1938"	"24.506"	"12.924"	"5.543"	"5.456"	"0.2"	"93.789"	"28.682"	"17.801"	"4.186"	"4.847"	"0"	"0.482"
"1939"	"2.908"	"38.315"	"15.823"	"1.699"	"3.869"	"52.934"	"52.221"	"39.398"	"45.141"	"1.168"	"0"	"0"
"1940"	"29.851"	"23.045"	"5.539"	"2.098"	"0.831"	"49.54"	"50.915"	"72.901"	"20.422"	"0"	"0"	"0"
"1941"	"22.12"	"3.65"	"4.227"	"0.898"	"16.222"	"43.372"	"56.597"	"34.7"	"73.06"	"0"	"0"	"6.674"
"1942"	"7.604"	"15.611"	"12.455"	"19.948"	"16.669"	"25.85"	"106.015"	"125.31"	"47.497"	"1.168"	"0"	"15.914"
"1943"	"12.943"	"0.2"	"0.898"	"9.686"	"8.092"	"53.757"	"87.27"	"23.166"	"18.694"	"0"	"0"	"0"
"1944"	"15.255"	"34.237"	"29.835"	"36.481"	"0.215"	"33.621"	"122.325"	"82.697"	"50.305"	"3.83"	"0"	"7.473"
"1945"	"37.168"	"0.199"	"5.294"	"33.695"	"9.142"	"38.532"	"89.364"	"99.002"	"72.839"	"0.741"	"0.199"	"0.4"
"1946"	"0.285"	"5.889"	"6.391"	"2.712"	"14.828"	"55.852"	"91.393"	"124.308"	"6.749"	"9.139"	"0.755"	"5.283"
"1947"	"6.243"	"7.11"	"3.832"	"0.171"	"0.857"	"0.571"	"16.033"	"112.898"	"64.65"	"9.203"	"0"	"6.703"
"1948"	"11.656"	"28.389"	"25.659"	"9.65"	"2.212"	"27.34"	"182.018"	"108.133"	"46.965"	"0.741"	"5.327"	"13.278"
"1949"	"3.707"	"23.186"	"13.382"	"0.8"	"1.839"	"3.235"	"289.219"	"34.366"	"49.562"	"0"	"0"	"0.3"
"1950"	"31.794"	"15.835"	"32.502"	"1.598"	"4.193"	"2.145"	"236.454"	"120.307"	"194.103"	"0"	"0"	"0"
"1951"	"14.335"	"1.068"	"30.867"	"22.248"	"12.15"	"8.883"	"105.821"	"57.455"	"10.906"	"0.455"	"21.415"	"0"
"1952"	"4.859"	"6.029"	"27.359"	"2.795"	"9.749"	"27.25"	"83.994"	"56.284"	"1.354"	"0.969"	"0.755"	"0.276"
"1953"	"25.901"	"1.284"	"0.2"	"5.921"	"4.039"	"14.915"	"102.906"	"146.633"	"87.398"	"0"	"2.948"	"3.637"
"1954"	"11.155"	"37.239"	"3.448"	"0.799"	"4.753"	"18.624"	"152.392"	"18.34"	"165.384"	"11.272"	"0"	"0"
"1955"	"10.408"	"1.115"	"17.77"	"12.126"	"12.323"	"19.772"	"59.588"	"76.174"	"175.945"	"17.242"	"0"	"3.052"
"1956"	"15.336"	"1.569"	"18.644"	"2.699"	"0.2"	"75.283"	"142.799"	"124.091"	"2.863"	"21.691"	"0.341"	"0.473"
"1957"	"41.732"	"1.183"	"28.063"	"21.55"	"10.431"	"12.894"	"98.851"	"162.814"	"23.715"	"3.733"	"10.51"	"2.669"
"1958"	"5.641"	"1.37"	"6.799"	"2.284"	"2.581"	"23.579"	"142.222"	"60.299"	"176.797"	"3.693"	"1.035"	"18.339"
"1959"	"21.705"	"7.329"	"7.399"	"0.045"	"10.634"	"4.708"	"131.081"	"185.99"	"46.415"	"5.715"	"20.999"	"0"
"1960"	"11.35"	"0.199"	"22.548"	"10.06"	"0.2"	"18.2"	"69.045"	"73.284"	"38.364"	"5.196"	"0"	"5.4"
"1961"	"35.695"	"21.78"	"3.596"	"12.151"	"10.444"	"20.494"	"156.529"	"134.257"	"90.401"	"12.782"	"1.013"	"4.725"
"1962"	"16.293"	"20.596"	"12.184"	"0"	"8.343"	"3.142"	"116.863"	"86.061"	"119.38"	"0"	"8.716"	"6.74"
"1963"	"0"	"8.797"	"5.296"	"3.91"	"21.58"	"20.157"	"59.497"	"64.588"	"56.822"	"0.3"	"0.341"	"14.088"
"1964"	"10.906"	"2.169"	"3.461"	"10.103"	"13.635"	"31.725"	"242.754"	"145.661"	"60.936"	"0"	"2.279"	"5.352"
"1965"	"5.495"	"13.483"	"7.921"	"31.496"	"14.615"	"1.167"	"116.983"	"71.631"	"20.83"	"2.453"	"8.036"	"0"
"1966"	"0.562"	"37.616"	"7.276"	"5.98"	"29.216"	"67.861"	"89.423"	"77.649"	"116.5"	"8.778"	"0.522"	"0.17"
"1967"	"0"	"10.77"	"41.916"	"4.486"	"3.268"	"4.946"	"79.336"	"249.34"	"37.395"	"3.948"	"4.837"	"36.938"
"1968"	"11.765"	"18.843"	"8.929"	"1.285"	"7.172"	"9.754"	"100.326"	"134.896"	"0.585"	"6.885"	"0"	"5.605"
"1969"	"1.539"	"7.502"	"19.926"	"15.177"	"20.048"	"13.916"	"157.841"	"45.725"	"55.07"	"0.777"	"0"	"0"
"1970"	"15.151"	"25.617"	"25.545"	"0.747"	"14.552"	"36.838"	"29.439"	"120.462"	"38.845"	"0.57"	"0"	"0"
"1971"	"2.283"	"10.455"	"2.467"	"17.974"	"30.598"	"43.949"	"93.555"	"208.669"	"22.838"	"2.185"	"0"	"0"
"1972"	"6.406"	"9.528"	"4.28"	"4.99"	"0.2"	"9.994"	"87.378"	"103.79"	"60.932"	"6.699"	"8.601"	"6.496"
"1973"	"10.386"	"10.668"	"5.579"	"0.998"	"14.522"	"9.627"	"107.931"	"158.645"	"52.302"	"2.379"	"0"	"12.029"
"1974"	"2.238"	"3.967"	"2.141"	"1.243"	"9.17"	"13.177"	"170.433"	"49.715"	"2.236"	"1.182"	"0"	"5.058"
"1975"	"10.525"	"16.232"	"16.472"	"3.096"	"0.215"	"77.213"	"173.638"	"102.625"	"120.279"	"3.291"	"0"	"0.151"
"1976"	"8.401"	"17.711"	"13.99"	"8.454"	"22.94"	"42.336"	"157.88"	"321.824"	"97.09"	"7.644"	"0"	"0.171"
"1977"	"16.835"	"0.285"	"0.998"	"31.79"	"34.752"	"58.939"	"164.73"	"91.052"	"44.567"	"14.822"	"0.92"	"5.545"
"1978"	"2.838"	"11.29"	"40.614"	"8.857"	"0.2"	"54.565"	"202.914"	"230.391"	"96.495"	"0"	"3.048"	"0.37"
"1979"	"8.142"	"34.226"	"30.482"	"5.353"	"20.176"	"32.987"	"93.136"	"55.929"	"48.584"	"4.243"	"3.993"	"1.44"
"1980"	"7.755"	"4.706"	"17.858"	"4.795"	"3.044"	"68.836"	"300.677"	"174.529"	"43.624"	"4.093"	"7.629"	"6.995"
"1981"	"47.174"	"15.619"	"27.28"	"0"	"2.789"	"22.666"	"277.163"	"63.475"	"9.389"	"4.561"	"28.675"	"2.664"
"1982"	"15.192"	"16.024"	"74.514"	"25.764"	"43.136"	"17.972"	"68.524"	"143.89"	"0.585"	"1.95"	"19.353"	"13.865"
"1983"	"28.449"	"21.336"	"25.871"	"27.033"	"70.259"	"18.593"	"121.469"	"174.534"	"42.377"	"13.498"	"0"	"1.697"
"1984"	"0.171"	"26.133"	"6.292"	"20.118"	"1.055"	"14.148"	"269.33"	"169.942"	"77.795"	"0"	"0"	"11.611"
"1985"	"0.814"	"0.884"	"3.695"	"19.635"	"16.456"	"37.371"	"187.771"	"122.255"	"71.282"	"13.224"	"1.424"	"13.622"
"1986"	"5.959"	"34.342"	"10.231"	"9.289"	"22.746"	"53.63"	"134.878"	"146.851"	"50.899"	"2.708"	"0"	"9.148"
"1987"	"15.484"	"17.754"	"19.551"	"6.221"	"21.832"	"38.912"	"71.664"	"49.959"	"4.257"	"9.629"	"0"	"1.383"
"1988"	"2.807"	"10.735"	"44.392"	"6.077"	"0.826"	"28.963"	"162.494"	"124.91"	"100.713"	"14.687"	"0"	"13.451"
"1989"	"29.948"	"3.693"	"21.77"	"1.898"	"5.709"	"16.694"	"144.21"	"86.528"	"42.835"	"0.171"	"8.074"	"0.826"
"1990"	"1.754"	"42.779"	"35.167"	"10.877"	"12.246"	"15.757"	"117.399"	"155.567"	"155.389"	"1.655"	"7.537"	"24.857"
"1991"	"0"	"25.822"	"7.503"	"31.768"	"20.086"	"68.005"	"30.746"	"120.098"	"40.858"	"1.954"	"3.585"	"10.393"
"1992"	"25.229"	"22.403"	"5.444"	"9.745"	"30.209"	"11.745"	"64.029"	"143.834"	"73.423"	"2.587"	"14.834"	"1.384"
"1993"	"6.839"	"8.791"	"14.412"	"19.365"	"13.975"	"18.495"	"149.978"	"34.819"	"59.829"	"0.121"	"0"	"0"
"1994"	"13.973"	"7.076"	"8.054"	"6.78"	"49.167"	"28.259"	"142.697"	"65.938"	"79.712"	"1.269"	"0"	"4.892"
"1995"	"21.359"	"57.635"	"19.545"	"3.584"	"0.2"	"40.851"	"89.017"	"211.535"	"78.706"	"1.505"	"4.173"	"0.969"
"1996"	"12.467"	"18.145"	"13.443"	"1.89"	"3.662"	"134.183"	"78.302"	"193.49"	"27.347"	"1.912"	"0"	"0"
"1997"	"12.753"	"7.595"	"14.699"	"27.662"	"24.85"	"74.507"	"197.522"	"256.483"	"39.876"	"17.781"	"17.032"	"3.161"
"1998"	"0"	"25.385"	"13.14"	"15.67"	"4.285"	"22.559"	"146.438"	"70.674"	"52.114"	"13.034"	"4.866"	"0.473"
"1999"	"11.913"	"3.114"	"6.691"	"0"	"12.334"	"45.37"	"50.457"	"81.75"	"44.863"	"1.751"	"0"	"0"
"2000"	"12.532"	"18.557"	"6.995"	"0.256"	"6.91"	"36.411"	"216.152"	"59.488"	"18.698"	"0"	"4.279"	"6.07"
"2001"	"4.516"	"4.505"	"13.587"	"10.734"	"22.952"	"51.745"	"212.624"	"33.37"	"22.894"	"0.432"	"0"	"0"
"2002"	"3.004"	"5.459"	"2.02"	"1.526"	"16.878"	"32.879"	"51.632"	"68.611"	"84.449"	"0"	"0.273"	"7.303"
