
"Year"	"Jan"	"Feb"	"Mar"	"Apr"	"May"	"Jun"	"Jul"	"Aug"	"Sep"	"Oct"	"Nov"	"Dec"
"1901"	"12.498"	"15.64"	"22.619"	"28.437"	"32.449"	"35.53"	"32.234"	"29.819"	"29.668"	"27.763"	"21.363"	"15.853"
"1902"	"15.903"	"18.44"	"24.231"	"28.926"	"32.88"	"33.362"	"30.333"	"30.344"	"29.081"	"25.593"	"20.291"	"15.158"
"1903"	"14.315"	"15.958"	"20.948"	"27.813"	"32.43"	"35.03"	"32.51"	"29.728"	"29.96"	"25.774"	"20.202"	"15.258"
"1904"	"14.271"	"17.946"	"22.066"	"29.737"	"31.765"	"33.849"	"29.821"	"29.04"	"28.682"	"26.072"	"19.472"	"15.082"
"1905"	"11.922"	"12.564"	"18.532"	"25.847"	"32.997"	"34.841"	"31.194"	"30.127"	"30.166"	"26.683"	"21.388"	"15.284"
"1906"	"13.29"	"14.478"	"20.341"	"28.756"	"34.56"	"33.143"	"31.002"	"29.493"	"28.882"	"26.377"	"21.707"	"16.356"
"1907"	"16.375"	"14.37"	"18.681"	"26.213"	"31.056"	"34.139"	"32.526"	"29.502"	"30.37"	"27.257"	"20.793"	"14.891"
"1908"	"14.44"	"17.36"	"22.451"	"30.329"	"32.552"	"35.036"	"29.9"	"28.78"	"29.236"	"26.079"	"19.884"	"14.693"
"1909"	"13.569"	"15.911"	"23.334"	"26.85"	"32.164"	"32.219"	"29.907"	"29.608"	"29.454"	"26.953"	"21.013"	"15.34"
"1910"	"14.552"	"16.761"	"22.766"	"28.354"	"32.844"	"33.04"	"30.305"	"29.695"	"29.259"	"25.081"	"19.591"	"14.853"
"1911"	"15.097"	"17.532"	"19.972"	"28.519"	"34.333"	"33.756"	"32.318"	"30.43"	"28.777"	"26.273"	"18.593"	"14.851"
"1912"	"14.453"	"17.732"	"21.831"	"28.17"	"32.773"	"34.73"	"31.199"	"29.574"	"28.276"	"26.186"	"18.902"	"14.868"
"1913"	"14.797"	"15.831"	"19.964"	"29.547"	"30.974"	"31.901"	"30.772"	"30.885"	"30.74"	"26.763"	"19.519"	"14.202"
"1914"	"16.185"	"16.121"	"21.357"	"28.543"	"32.465"	"33.232"	"30.567"	"29.802"	"29.345"	"24.732"	"20.59"	"14.593"
"1915"	"14.659"	"15.416"	"21.789"	"28.451"	"34.288"	"33.821"	"32.194"	"30.512"	"30.257"	"27.787"	"21.006"	"15.677"
"1916"	"15.071"	"16.437"	"25.619"	"30.228"	"33.246"	"32.644"	"30.517"	"29.499"	"29.032"	"25.751"	"19.692"	"14.273"
"1917"	"14.594"	"16.762"	"21.445"	"25.268"	"28.477"	"32.54"	"29.983"	"29.34"	"28.06"	"24.937"	"19.265"	"14.949"
"1918"	"13.693"	"17.558"	"22.266"	"26.83"	"34.07"	"32.933"	"32.83"	"31.008"	"30.238"	"26.646"	"19.992"	"13.805"
"1919"	"13.612"	"15.873"	"22.372"	"27.177"	"31.565"	"34.663"	"30.006"	"29.393"	"29.077"	"25.862"	"19.861"	"14.349"
"1920"	"15.359"	"15.626"	"21.384"	"28.518"	"29.643"	"32.615"	"29.992"	"30.111"	"30.363"	"27.09"	"21.388"	"16.586"
"1921"	"14.526"	"17.972"	"25.532"	"31.164"	"35.76"	"33.861"	"31.835"	"29.032"	"28.149"	"25.071"	"20.088"	"16.203"
"1922"	"13.368"	"18.146"	"24.229"	"29.247"	"33.775"	"32.948"	"30.605"	"28.82"	"28.338"	"25.372"	"19.886"	"13.891"
"1923"	"14.604"	"15.526"	"23.049"	"29.878"	"32.643"	"35.916"	"30.993"	"29.165"	"29.057"	"25.067"	"20.084"	"14.977"
"1924"	"13.218"	"16.624"	"23.838"	"29.542"	"30.143"	"35.937"	"30.695"	"29.383"	"28.243"	"25.643"	"19.791"	"15.392"
"1925"	"12.297"	"15.803"	"22.608"	"30.337"	"32.373"	"30.864"	"29.291"	"29.914"	"29.557"	"26.059"	"19.005"	"15.168"
"1926"	"14.229"	"18.021"	"20.449"	"25.347"	"30.563"	"35.436"	"31.185"	"29.382"	"28.769"	"25.267"	"17.972"	"14.751"
"1927"	"12.995"	"14.82"	"21.267"	"27.938"	"31.437"	"33.853"	"30.303"	"28.818"	"29.129"	"25.839"	"19.515"	"16.185"
"1928"	"13.684"	"17.213"	"22.651"	"28.06"	"34.051"	"33.449"	"31.015"	"31.024"	"30.541"	"27.058"	"20.669"	"14.87"
"1929"	"13.893"	"15.829"	"24.178"	"29.333"	"33.877"	"33.473"	"30.519"	"29.005"	"29.889"	"25.875"	"20.705"	"13.757"
"1930"	"13.185"	"16.462"	"23.734"	"28.55"	"32.656"	"33.041"	"29.581"	"29.51"	"29.611"	"25.858"	"19.802"	"15.368"
"1931"	"15.666"	"14.939"	"21.929"	"30.256"	"32.856"	"34.949"	"30.99"	"30.197"	"28.639"	"25.47"	"19.761"	"15.531"
"1932"	"16.142"	"15.741"	"23.171"	"28.566"	"31.931"	"35.239"	"31.291"	"29.169"	"29.054"	"26"	"20.585"	"14.849"
"1933"	"12.588"	"16.94"	"22.833"	"26.843"	"29.569"	"32.643"	"29.761"	"28.79"	"28.331"	"25.267"	"20.169"	"15.687"
"1934"	"12.775"	"18.338"	"21.444"	"28.906"	"32.335"	"32.569"	"30.197"	"28.513"	"29.57"	"25.281"	"19.917"	"14.706"
"1935"	"11.993"	"16.973"	"22.342"	"25.447"	"33.624"	"35.048"	"30.293"	"28.993"	"28.856"	"25.485"	"20.198"	"14.183"
"1936"	"12.881"	"16.07"	"22.15"	"27.976"	"33.584"	"30.768"	"29.499"	"28.803"	"28.465"	"25.125"	"20.091"	"14.761"
"1937"	"13.274"	"16.261"	"21.029"	"26.182"	"32.141"	"33.755"	"30.464"	"30.339"	"29.372"	"25.25"	"19.388"	"14.261"
"1938"	"13.104"	"15.094"	"23.74"	"29.842"	"33.779"	"32.049"	"30.396"	"29.826"	"30.07"	"26.608"	"18.565"	"15.603"
"1939"	"14.697"	"16.255"	"19.67"	"27.56"	"34.334"	"32.119"	"30.486"	"30.499"	"29.255"	"26.314"	"20.078"	"15.695"
"1940"	"14.205"	"15.963"	"19.985"	"27.444"	"33.261"	"34.254"	"31.109"	"29.16"	"28.675"	"26.162"	"20.892"	"14.209"
"1941"	"13.014"	"17.674"	"24.773"	"31.551"	"33.787"	"32.731"	"32.428"	"30.393"	"29.732"	"27.608"	"20.395"	"16.759"
"1942"	"13.08"	"18.041"	"24.419"	"29.864"	"33.388"	"35.04"	"29.978"	"28.769"	"28.227"	"26.039"	"21.193"	"14.251"
"1943"	"13.825"	"17.464"	"23.251"	"26.776"	"33.127"	"33.345"	"30.284"	"28.709"	"29.637"	"26.039"	"21.67"	"16.081"
"1944"	"12.909"	"15.872"	"21.17"	"27.336"	"34.676"	"32.848"	"30.284"	"29.897"	"29.247"	"25.877"	"20.775"	"16.743"
"1945"	"11.997"	"15.959"	"23.043"	"27.328"	"32.858"	"34.736"	"30.653"	"29.91"	"28.651"	"25.175"	"20.627"	"14.153"
"1946"	"15.894"	"18.863"	"22.249"	"29.159"	"31.912"	"33.361"	"30.313"	"29.973"	"29.739"	"25.908"	"20.285"	"15.348"
"1947"	"13.027"	"17.715"	"23.155"	"30.25"	"33.479"	"35.259"	"31.132"	"30.106"	"29.043"	"24.968"	"21.09"	"15.643"
"1948"	"14.173"	"16.269"	"21.142"	"30.682"	"34.142"	"35.411"	"30.807"	"28.993"	"29.048"	"25.992"	"19.575"	"14.878"
"1949"	"16.193"	"16.934"	"23.03"	"29.675"	"32.987"	"34.629"	"30.32"	"29.615"	"29.558"	"26.443"	"19.576"	"13.906"
"1950"	"15.179"	"15.602"	"21.06"	"28.137"	"33.176"	"33.833"	"30.106"	"29.356"	"28.554"	"25.675"	"19.989"	"14.179"
"1951"	"13.033"	"17.223"	"22.389"	"26.567"	"32.847"	"33.736"	"32.11"	"30.126"	"29.253"	"28.446"	"21.409"	"15.877"
"1952"	"15.701"	"19.04"	"21.658"	"30.275"	"33.25"	"32.588"	"30.684"	"29.097"	"30.157"	"26.851"	"20.647"	"15.952"
"1953"	"12.816"	"19.167"	"25.872"	"29.851"	"33.758"	"34.755"	"30.683"	"29.582"	"29.553"	"26.337"	"20.575"	"17.101"
"1954"	"12.904"	"17.725"	"23.409"	"30.121"	"34.74"	"34.361"	"30.881"	"30.193"	"29.453"	"24.238"	"20.588"	"14.605"
"1955"	"13.707"	"17.96"	"24.761"	"27.152"	"31.926"	"34.457"	"30.995"	"29.077"	"28.984"	"24.744"	"20.106"	"14.963"
"1956"	"14.175"	"18.141"	"22.852"	"30.035"	"34.073"	"33.394"	"29.606"	"29.419"	"29.844"	"24.95"	"19.835"	"14.81"
"1957"	"13.291"	"16.348"	"21.172"	"27.741"	"32.056"	"33.074"	"30.78"	"30.166"	"28.526"	"26.072"	"21.456"	"15.851"
"1958"	"15.772"	"17.201"	"23.728"	"30.768"	"33.31"	"34.641"	"30.266"	"29.397"	"29.251"	"26.089"	"21.082"	"16.449"
"1959"	"14.686"	"16.719"	"23.929"	"29.26"	"32.944"	"34.255"	"30.118"	"29.918"	"29.745"	"26.594"	"20.604"	"16.754"
"1960"	"13.779"	"20.815"	"22.09"	"28.225"	"33.559"	"34.653"	"30.588"	"29.588"	"29.746"	"25.565"	"19.983"	"17.144"
"1961"	"14.694"	"15.137"	"23.35"	"28.891"	"32.688"	"33.183"	"30.708"	"29.389"	"29.633"	"25.186"	"18.786"	"13.059"
"1962"	"13.484"	"17.375"	"22.618"	"29.373"	"32.88"	"34.358"	"31.4"	"29.986"	"28.538"	"25.208"	"20.781"	"15.589"
"1963"	"14.542"	"19.229"	"22.359"	"27.879"	"31.72"	"33.289"	"31.702"	"29.195"	"28.44"	"26.674"	"21.264"	"15.642"
"1964"	"13.267"	"17.322"	"24.833"	"29.806"	"30.984"	"34.345"	"29.399"	"29.972"	"28.338"	"26.55"	"19.851"	"15.658"
"1965"	"16.075"	"16.385"	"21.567"	"26.835"	"31.944"	"35.42"	"30.612"	"29.62"	"28.969"	"26.078"	"20.982"	"15.138"
"1966"	"15.455"	"19.444"	"23.226"	"29.549"	"33.168"	"33.155"	"31.702"	"29.581"	"29.037"	"26.431"	"20.549"	"15.333"
"1967"	"13.998"	"19.531"	"21.436"	"28.15"	"32.739"	"34.454"	"30.306"	"28.527"	"28.466"	"25.442"	"19.479"	"15.253"
"1968"	"13.106"	"15.525"	"22.37"	"28.267"	"32.573"	"33.349"	"29.817"	"29.409"	"29.962"	"25.655"	"20.295"	"15.751"
"1969"	"14.2"	"18.331"	"25.521"	"28.805"	"31.337"	"34.553"	"30.201"	"29.505"	"28.293"	"26.386"	"21.396"	"16.157"
"1970"	"14.494"	"16.568"	"22.086"	"30.362"	"33.098"	"31.748"	"31.04"	"29.68"	"29.35"	"26.362"	"20.208"	"16.366"
"1971"	"13.604"	"17.565"	"23.043"	"28.969"	"30.167"	"31.299"	"29.407"	"28.307"	"28.476"	"25.774"	"20.195"	"16.383"
"1972"	"15.451"	"15.343"	"23.936"	"27.767"	"34.329"	"34.68"	"31.207"	"29.004"	"28.054"	"25.272"	"20.816"	"16.168"
"1973"	"14.481"	"18.205"	"22.627"	"31.215"	"33.245"	"33.149"	"30.898"	"29.071"	"29.051"	"25.391"	"20.595"	"14.375"
"1974"	"14.011"	"16.518"	"24.598"	"30.738"	"32.552"	"33.077"	"30.014"	"29.619"	"29.479"	"26.936"	"20.132"	"14.194"
"1975"	"12.761"	"16.356"	"22.253"	"30.435"	"33.769"	"31.974"	"29.701"	"29.038"	"27.819"	"26.674"	"19.945"	"16.156"
"1976"	"15.392"	"17.453"	"22.187"	"27.96"	"31.868"	"31.757"	"30.515"	"28.324"	"28.673"	"26.546"	"21.953"	"16.02"
"1977"	"14.484"	"17.823"	"24.705"	"28.254"	"29.892"	"32.338"	"28.922"	"29.388"	"27.854"	"26.08"	"22.092"	"16.138"
"1978"	"13.913"	"16.135"	"20.164"	"28.352"	"34.955"	"32.883"	"29.373"	"28.929"	"28.287"	"26.339"	"20.592"	"16.342"
"1979"	"15.131"	"15.683"	"20.75"	"29.547"	"30.789"	"33.458"	"30.506"	"30.195"	"29.466"	"27.235"	"22.471"	"15.996"
"1980"	"14.59"	"18.341"	"21.68"	"30.78"	"35.073"	"32.339"	"29.305"	"29.516"	"28.929"	"26.386"	"20.895"	"16.456"
"1981"	"13.938"	"18.034"	"21.445"	"29.152"	"32.07"	"34.014"	"29.604"	"29.51"	"29.558"	"26.443"	"20"	"15.165"
"1982"	"15.076"	"16.145"	"19.447"	"27.52"	"29.837"	"33.137"	"31.685"	"29.349"	"29.174"	"26.371"	"20.891"	"16.576"
"1983"	"13.869"	"15.642"	"21.549"	"25.655"	"30.959"	"32.449"	"30.58"	"29.496"	"28.867"	"25.36"	"19.998"	"15.473"
"1984"	"13.198"	"15.618"	"24.735"	"29.044"	"34.884"	"33.534"	"29.764"	"29.365"	"28.264"	"26.039"	"20.017"	"16.147"
"1985"	"13.651"	"18.122"	"25.346"	"29.551"	"33.213"	"33.49"	"29.669"	"29.375"	"28.101"	"24.414"	"20.669"	"16.266"
"1986"	"14.663"	"16.845"	"21.945"	"28.361"	"30.341"	"32.939"	"29.606"	"29.783"	"28.946"	"25.372"	"21.285"	"14.484"
"1987"	"15.197"	"18.747"	"24.11"	"29.823"	"30.35"	"34.638"	"32.564"	"30.365"	"30.375"	"27.331"	"21.76"	"17.04"
"1988"	"16.936"	"19.241"	"23.327"	"30.567"	"34.393"	"32.848"	"29.779"	"29.092"	"29.357"	"27.028"	"20.908"	"16.094"
"1989"	"13.699"	"17.059"	"22.758"	"28.05"	"33.048"	"32.054"	"30.37"	"29.346"	"29.131"	"26.46"	"20.342"	"15.368"
"1990"	"17.667"	"16.741"	"20.46"	"28.258"	"31.493"	"33.84"	"29.674"	"29.502"	"28.545"	"25.378"	"21.079"	"15.965"
"1991"	"12.748"	"18.044"	"22.934"	"27.659"	"33.06"	"32.811"	"31.909"	"29.2"	"29.253"	"25.737"	"19.51"	"15.395"
"1992"	"14.719"	"15.96"	"22.666"	"28.755"	"31.554"	"33.431"	"30.187"	"28.822"	"28.084"	"25.392"	"20.202"	"16.1"
"1993"	"13.935"	"19.334"	"20.117"	"27.586"	"32.974"	"34.091"	"30.053"	"29.838"	"28.528"	"26.046"	"21.196"	"16.065"
"1994"	"16.369"	"17.063"	"24.129"	"27.239"	"33.355"	"34.244"	"30.461"	"29.49"	"28.733"	"25.754"	"20.587"	"16.197"
"1995"	"13.971"	"17.443"	"21.742"	"28.638"	"34.639"	"35.247"	"30.211"	"28.439"	"29.048"	"26.874"	"20.783"	"16.254"
"1996"	"14.011"	"17.545"	"23.449"	"29.032"	"32.819"	"32.223"	"29.608"	"27.694"	"28.704"	"26.044"	"19.965"	"14.696"
"1997"	"14.072"	"16.85"	"22.27"	"27.613"	"30.781"	"31.656"	"31.57"	"29.39"	"29.065"	"23.655"	"19.878"	"13.982"
"1998"	"11.042"	"17.669"	"20.925"	"29.055"	"33.686"	"34.043"	"30.3"	"29.363"	"29.556"	"26.247"	"21.962"	"17.344"
"1999"	"14.182"	"19.621"	"25.124"	"32.614"	"33.373"	"32.737"	"31.505"	"30.511"	"29.257"	"26.674"	"22.346"	"16.754"
"2000"	"15.38"	"16.427"	"22.133"	"30.873"	"33.27"	"31.85"	"30.167"	"29.997"	"29.741"	"27.36"	"22.652"	"17.144"
"2001"	"14.283"	"18.049"	"23.234"	"28.365"	"32.485"	"31.732"	"31.009"	"30.681"	"30.436"	"27.582"	"22.277"	"17.155"
"2002"	"15.199"	"17.738"	"23.932"	"30.26"	"34.379"	"33.714"	"32.841"	"30.327"	"27.766"	"26.937"	"21.191"	"16.272"
