
"Year"	"Jan"	"Feb"	"Mar"	"Apr"	"May"	"Jun"	"Jul"	"Aug"	"Sep"	"Oct"	"Nov"	"Dec"
"1901"	"13.877"	"16.959"	"24.384"	"29.62"	"34.275"	"36.543"	"32.162"	"28.289"	"29.322"	"28.423"	"21.751"	"17.019"
"1902"	"16.97"	"19.349"	"26.699"	"30.817"	"34.58"	"34.606"	"29.99"	"29.792"	"28.176"	"26.626"	"20.64"	"15.341"
"1903"	"15.783"	"17.472"	"23.309"	"28.661"	"33.032"	"36.571"	"32.16"	"28.414"	"28.754"	"25.651"	"19.848"	"15.031"
"1904"	"15.4"	"18.258"	"23.602"	"30.838"	"33.558"	"34.655"	"28.414"	"27.33"	"27.963"	"26.428"	"20.397"	"16.132"
"1905"	"14.072"	"13.637"	"21.204"	"27.64"	"35.03"	"36.545"	"30.856"	"29.26"	"30.014"	"27.388"	"22.7"	"16.517"
"1906"	"14.815"	"16.565"	"22.381"	"29.908"	"36.146"	"33.927"	"29.946"	"28.949"	"27.562"	"26.494"	"21.809"	"16.72"
"1907"	"16.991"	"16.681"	"21.891"	"27.835"	"32.494"	"35.219"	"32.918"	"27.917"	"29.327"	"27.316"	"21.562"	"14.847"
"1908"	"14.776"	"18.291"	"23.48"	"30.937"	"33.955"	"35.679"	"28.616"	"27.57"	"28.213"	"26.022"	"20.605"	"15.137"
"1909"	"15.128"	"17.37"	"24.619"	"27.82"	"32.976"	"32.939"	"28.637"	"28.003"	"27.808"	"26.471"	"22.255"	"15.233"
"1910"	"14.766"	"18.425"	"24.229"	"29.134"	"34.326"	"33.368"	"29.987"	"28.701"	"28.294"	"25.031"	"19.956"	"15.808"
"1911"	"17.298"	"18.511"	"22.219"	"29.741"	"35.553"	"34.677"	"31.72"	"29.299"	"27.553"	"27.014"	"19.492"	"15.779"
"1912"	"16.236"	"19.268"	"23.353"	"30.018"	"34.727"	"36.48"	"30.887"	"28.576"	"27.359"	"26.427"	"19.948"	"15.641"
"1913"	"15.891"	"18.113"	"22.151"	"31.214"	"32.47"	"32.751"	"30.369"	"29.755"	"30.236"	"28.19"	"21.135"	"16.126"
"1914"	"17.484"	"18.365"	"23.67"	"30.606"	"34.508"	"33.836"	"29.787"	"28.48"	"28.997"	"26.173"	"21.99"	"15.362"
"1915"	"15.449"	"16.266"	"23.6"	"29.418"	"35.791"	"35.537"	"32.326"	"29.424"	"30.358"	"28.27"	"21.278"	"16.696"
"1916"	"16.319"	"17.646"	"26.534"	"31.39"	"34.166"	"32.84"	"30.601"	"28.011"	"28.349"	"25.528"	"18.993"	"14.842"
"1917"	"16.073"	"18.133"	"23.483"	"27.164"	"30.471"	"33.122"	"28.901"	"27.715"	"27.412"	"24.878"	"18.166"	"15.871"
"1918"	"14.391"	"18.393"	"23.805"	"28.034"	"35.635"	"34.207"	"32.86"	"30.314"	"29.608"	"27.443"	"21.331"	"15.015"
"1919"	"15.66"	"17.143"	"24.552"	"29.242"	"33.524"	"35.863"	"28.94"	"27.724"	"28.206"	"25.95"	"20.516"	"15.272"
"1920"	"15.47"	"17.798"	"24.509"	"29.638"	"31.165"	"33.29"	"28.861"	"28.874"	"30.329"	"28.362"	"22.548"	"16.822"
"1921"	"16.567"	"18.982"	"26.825"	"32.499"	"36.326"	"35.405"	"32.646"	"28.099"	"27.361"	"26.001"	"20.923"	"17.791"
"1922"	"15.316"	"19.626"	"25.447"	"30.778"	"34.511"	"33.923"	"29.967"	"27.606"	"27.489"	"26.035"	"20.604"	"15.541"
"1923"	"15.36"	"17.625"	"24.621"	"30.58"	"33.538"	"37.167"	"30.831"	"27.575"	"28.415"	"25.631"	"20.716"	"15.937"
"1924"	"14.45"	"17.848"	"25.425"	"30.608"	"32.008"	"36.196"	"29.835"	"28.079"	"27.734"	"25.198"	"20.059"	"15.758"
"1925"	"13.559"	"16.086"	"24.064"	"31.65"	"33.084"	"31.189"	"27.952"	"29.425"	"29.597"	"27.24"	"20.199"	"15.583"
"1926"	"15.775"	"19.64"	"22.837"	"26.775"	"32.089"	"36.344"	"30.721"	"28.231"	"27.427"	"25.113"	"18.547"	"14.553"
"1927"	"13.342"	"16.26"	"22.389"	"28.93"	"33.178"	"34.743"	"29.723"	"27.697"	"28.129"	"26.182"	"19.537"	"16.671"
"1928"	"15.005"	"18.269"	"24.285"	"29.541"	"35.086"	"34.465"	"30.2"	"29.929"	"29.491"	"27.073"	"21.871"	"15.399"
"1929"	"15.011"	"16.471"	"25.684"	"30.568"	"34.844"	"34.636"	"29.668"	"27.899"	"29.653"	"26.743"	"21.712"	"15.259"
"1930"	"15.277"	"17.913"	"25.269"	"29.607"	"33.749"	"34.259"	"28.614"	"28.157"	"29.31"	"27.235"	"20.569"	"16.075"
"1931"	"17.165"	"17.017"	"23.538"	"31.31"	"34.482"	"35.802"	"31.021"	"28.94"	"28.064"	"25.348"	"20.441"	"16.341"
"1932"	"18.234"	"17.429"	"24.318"	"29.341"	"33.394"	"35.926"	"31.147"	"28.285"	"28.694"	"26.528"	"19.831"	"15.744"
"1933"	"13.579"	"18.394"	"24.361"	"28.22"	"31.347"	"33.442"	"29.473"	"27.697"	"27.19"	"25.191"	"20.376"	"15.808"
"1934"	"14.061"	"18.874"	"22.726"	"29.471"	"33.382"	"33.398"	"29.47"	"27.785"	"27.853"	"24.216"	"19.768"	"16.647"
"1935"	"13.694"	"18.358"	"23.882"	"27.055"	"34.189"	"35.786"	"29.709"	"27.941"	"28.105"	"25.352"	"21.375"	"15.843"
"1936"	"13.783"	"18.143"	"23.772"	"29.293"	"35.657"	"32.468"	"29.188"	"28.063"	"27.997"	"26.01"	"21.02"	"15.863"
"1937"	"14.421"	"18.772"	"22.335"	"28.516"	"34.013"	"35.408"	"29.86"	"29.404"	"28.781"	"25.97"	"21.557"	"14.955"
"1938"	"15.079"	"16.67"	"25.743"	"30.913"	"35.87"	"32.135"	"30.14"	"28.923"	"29.872"	"27.146"	"19.816"	"15.72"
"1939"	"16.631"	"18.341"	"21.8"	"28.513"	"34.993"	"33.343"	"29.712"	"30.249"	"28.296"	"27.231"	"20.568"	"15.913"
"1940"	"15.509"	"17.602"	"22.558"	"28.509"	"34.659"	"35.198"	"31.086"	"27.941"	"28.298"	"26.46"	"21.968"	"15.774"
"1941"	"14.887"	"18.867"	"26.19"	"31.998"	"35.282"	"34.22"	"32.056"	"29.683"	"29.672"	"29.246"	"21.791"	"17.746"
"1942"	"14.006"	"19.19"	"25.756"	"31.628"	"35.175"	"36.043"	"29.032"	"27.797"	"27.55"	"26.205"	"21.782"	"15.29"
"1943"	"16.207"	"18.033"	"25.025"	"28.685"	"34.297"	"33.882"	"29.77"	"27.433"	"28.434"	"25.965"	"22.171"	"17.011"
"1944"	"14.943"	"17.792"	"22.745"	"28.808"	"34.995"	"33.366"	"29.497"	"28.823"	"28.621"	"25.384"	"21.492"	"17.318"
"1945"	"13.615"	"17.623"	"25.109"	"28.974"	"33.918"	"35.093"	"30.087"	"28.886"	"27.921"	"25.461"	"20.702"	"14.744"
"1946"	"15.951"	"20.038"	"23.946"	"31.84"	"34.47"	"33.998"	"29.791"	"28.258"	"28.777"	"26.983"	"20.456"	"16.669"
"1947"	"13.993"	"19.071"	"25.487"	"31.046"	"35.052"	"35.596"	"30.418"	"29"	"27.845"	"24.806"	"21.87"	"16.528"
"1948"	"15.392"	"17.56"	"23.12"	"31.254"	"35.642"	"35.926"	"30.482"	"28.431"	"28.149"	"27.038"	"20.385"	"16.435"
"1949"	"17.236"	"18.959"	"24.982"	"31.418"	"35.61"	"35.204"	"30.135"	"28.479"	"28.592"	"26.156"	"19.864"	"15.614"
"1950"	"16.642"	"17.001"	"23.02"	"28.939"	"34.732"	"35.382"	"30.003"	"28.139"	"27.989"	"25.894"	"20.092"	"14.959"
"1951"	"14.526"	"17.817"	"23.849"	"27.777"	"34.004"	"34.598"	"31.77"	"28.559"	"28.326"	"29.456"	"22.725"	"16.353"
"1952"	"16.981"	"20.52"	"24.185"	"31.79"	"35.808"	"33.53"	"29.659"	"27.645"	"29.274"	"27.059"	"21.212"	"16.944"
"1953"	"14.152"	"19.637"	"27.463"	"31.597"	"35.721"	"35.905"	"30.554"	"28.306"	"28.519"	"26.459"	"20.574"	"18.507"
"1954"	"14.207"	"19.913"	"24.497"	"31.102"	"36.07"	"35.63"	"30.66"	"28.696"	"27.709"	"24.39"	"21.596"	"16.055"
"1955"	"15.339"	"18.707"	"26.096"	"28.483"	"33.907"	"35.119"	"30.566"	"28.217"	"28.561"	"25.016"	"20.175"	"16.67"
"1956"	"15.526"	"18.227"	"24.616"	"30.77"	"35.525"	"33.869"	"28.422"	"27.888"	"28.795"	"25.18"	"19.685"	"16.699"
"1957"	"14.911"	"16.87"	"22.624"	"28.983"	"33.193"	"33.936"	"29.653"	"28.965"	"27.307"	"26.35"	"22.43"	"17.178"
"1958"	"17.893"	"19.208"	"25.529"	"32.087"	"34.787"	"35.783"	"29.638"	"28.228"	"27.766"	"25.921"	"21.267"	"17.912"
"1959"	"15.6"	"18.076"	"25.568"	"30.421"	"33.828"	"35.022"	"29.394"	"28.212"	"28.377"	"26.989"	"21.542"	"17.715"
"1960"	"15.193"	"21.18"	"24.138"	"29.702"	"34.797"	"35.625"	"30.151"	"27.712"	"28.797"	"25.71"	"20.447"	"17.165"
"1961"	"15.424"	"16.794"	"24.796"	"29.614"	"34.232"	"33.785"	"29.639"	"27.774"	"28.138"	"25.217"	"20.248"	"14.176"
"1962"	"14.412"	"18.832"	"23.953"	"30.664"	"33.954"	"34.897"	"30.962"	"28.42"	"27.363"	"24.634"	"21.314"	"17.265"
"1963"	"14.889"	"20.427"	"24.252"	"29.131"	"33.235"	"33.919"	"30.886"	"27.634"	"27.418"	"27.137"	"23.544"	"16.713"
"1964"	"14.552"	"18.686"	"26.487"	"31.621"	"32.992"	"33.971"	"29.566"	"28.995"	"27.747"	"26.527"	"20.331"	"17.104"
"1965"	"17.434"	"18.591"	"23.905"	"28.83"	"33.498"	"36.003"	"30.532"	"29.334"	"28.158"	"27.036"	"22.445"	"16.38"
"1966"	"16.571"	"21.303"	"24.407"	"30.376"	"34.107"	"32.996"	"32.029"	"28.048"	"28.915"	"27.87"	"22.35"	"16.062"
"1967"	"14.864"	"20.816"	"23.221"	"29.428"	"34.423"	"34.598"	"29.883"	"27.234"	"27.127"	"26.757"	"21.789"	"17.209"
"1968"	"14.798"	"17.178"	"24.432"	"29.25"	"33.11"	"34.486"	"28.976"	"28.134"	"29.27"	"26.281"	"21.775"	"17.069"
"1969"	"15.976"	"19.412"	"26.79"	"30.363"	"33.072"	"35.672"	"29.628"	"27.945"	"27.534"	"28.212"	"22.876"	"17.014"
"1970"	"16.247"	"17.872"	"24.111"	"31.754"	"34.661"	"32.96"	"31.092"	"28.656"	"28.075"	"26.641"	"20.975"	"17.054"
"1971"	"14.148"	"18.758"	"23.949"	"30.694"	"32.711"	"30.912"	"27.77"	"27.193"	"27.627"	"26.148"	"20.564"	"16.403"
"1972"	"15.341"	"16.364"	"25.01"	"29.773"	"35.414"	"35.699"	"32.092"	"27.534"	"27.186"	"26.038"	"21.749"	"16.86"
"1973"	"15.569"	"19.631"	"23.984"	"32.517"	"35.952"	"35.054"	"29.868"	"27.812"	"27.955"	"25.869"	"20.578"	"15.405"
"1974"	"14.839"	"17.031"	"25.829"	"32.028"	"34.014"	"34.034"	"28.746"	"27.846"	"29.38"	"26.905"	"20.471"	"15.412"
"1975"	"14.11"	"17.557"	"23.656"	"31.274"	"35.605"	"32.933"	"29.114"	"27.785"	"27.185"	"26.497"	"19.82"	"16.973"
"1976"	"16.437"	"19.304"	"24.09"	"29.947"	"34.107"	"32.147"	"29.956"	"27.651"	"27.975"	"26.741"	"22.378"	"16.411"
"1977"	"14.656"	"18.773"	"26.119"	"29.54"	"32.182"	"32.619"	"27.623"	"27.568"	"26.554"	"26.438"	"22.949"	"18.085"
"1978"	"15.307"	"17.574"	"22.363"	"29.419"	"36.12"	"33.756"	"28.511"	"26.672"	"27.1"	"26.835"	"22.382"	"16.62"
"1979"	"16.492"	"16.904"	"22.527"	"29.726"	"30.426"	"32.664"	"28.703"	"28.343"	"29.162"	"28.268"	"23.696"	"17.434"
"1980"	"15.499"	"20.287"	"24.007"	"30.938"	"34.056"	"31.709"	"27.848"	"27.196"	"28.679"	"28.098"	"21.973"	"16.612"
"1981"	"16.102"	"19.378"	"23.902"	"29.806"	"33.148"	"34.034"	"28.113"	"27.85"	"29.532"	"27.039"	"20.752"	"15.868"
"1982"	"15.96"	"17.287"	"21.799"	"29.056"	"31.201"	"33.815"	"31.299"	"27.568"	"28.476"	"27.642"	"21.813"	"17.281"
"1983"	"14.885"	"17.175"	"23.598"	"27.191"	"32.243"	"33.183"	"29.759"	"28.288"	"28.107"	"25.631"	"19.67"	"16.576"
"1984"	"15.055"	"16.127"	"25.743"	"30.688"	"37.035"	"34.511"	"29.876"	"27.628"	"27.331"	"25.759"	"20.59"	"17.002"
"1985"	"15.375"	"19.719"	"26.295"	"31.106"	"35.162"	"34.824"	"29.833"	"27.936"	"27.464"	"24.126"	"21.423"	"17.903"
"1986"	"15.356"	"17.565"	"24.182"	"30.322"	"32.631"	"33.557"	"28.541"	"28.949"	"29.221"	"27.152"	"22.726"	"16.085"
"1987"	"16.226"	"19.883"	"25.171"	"31.158"	"31.874"	"35.608"	"32.698"	"30.441"	"29.855"	"27.79"	"21.672"	"16.487"
"1988"	"16.097"	"20.21"	"24.967"	"31.389"	"36.501"	"33.305"	"28.989"	"28.289"	"29.388"	"26.245"	"21.306"	"17.519"
"1989"	"14.595"	"18.238"	"23.882"	"29.333"	"34.633"	"32.861"	"30.19"	"28.625"	"28.673"	"27.068"	"20.808"	"16.282"
"1990"	"17.452"	"18.553"	"23.172"	"30.633"	"33.716"	"33.883"	"28.73"	"28.446"	"27.591"	"26.304"	"21.826"	"16.856"
"1991"	"15.083"	"19.307"	"24.553"	"29.133"	"34.44"	"35.205"	"31.915"	"28.213"	"28.558"	"25.999"	"20.895"	"16.777"
"1992"	"15.907"	"17.807"	"24.467"	"29.791"	"33.063"	"36.01"	"30.411"	"28.358"	"27.301"	"26.219"	"21.273"	"17.555"
"1993"	"15.944"	"19.514"	"22.679"	"29.486"	"35.459"	"34.543"	"30.56"	"29.799"	"27.272"	"26.873"	"22.567"	"16.694"
"1994"	"17.428"	"18.226"	"25.765"	"28.645"	"35.048"	"34.272"	"28.692"	"27.785"	"27.623"	"26.099"	"21.378"	"17.077"
"1995"	"14.562"	"18.499"	"23.094"	"29.718"	"34.838"	"35.683"	"30.646"	"27.897"	"28.498"	"27.452"	"21.323"	"17.372"
"1996"	"15.528"	"18.357"	"25.063"	"29.66"	"33.701"	"33.297"	"29.421"	"27.187"	"28.115"	"26.186"	"20.833"	"15.106"
"1997"	"14.827"	"18.201"	"24.39"	"28.37"	"32.051"	"32.556"	"30.191"	"28.286"	"28.426"	"24.949"	"21.004"	"14.359"
"1998"	"14.936"	"18.907"	"22.452"	"30.491"	"35.255"	"34.392"	"30.124"	"28.86"	"29.079"	"27.05"	"21.933"	"16.962"
"1999"	"15.371"	"18.981"	"25.243"	"31.973"	"34.502"	"33.517"	"30.527"	"28.852"	"28.018"	"26.629"	"22.588"	"16.736"
"2000"	"16.271"	"17.394"	"23.937"	"32.097"	"34.212"	"32.722"	"29.191"	"29.089"	"28.673"	"27.731"	"23.268"	"17.535"
"2001"	"15.289"	"19.662"	"24.8"	"29.963"	"33.778"	"31.686"	"29.382"	"29.317"	"29.67"	"27.802"	"22.643"	"17.994"
"2002"	"15.859"	"18.79"	"25.421"	"31.88"	"35.354"	"34.23"	"32.337"	"28.866"	"27.724"	"27.439"	"22.262"	"18.354"
