
"Year"	"Jan"	"Feb"	"Mar"	"Apr"	"May"	"Jun"	"Jul"	"Aug"	"Sep"	"Oct"	"Nov"	"Dec"
"1901"	"23.882"	"5.939"	"3.777"	"0.398"	"7.447"	"24.378"	"190.4"	"283.072"	"23.95"	"12.564"	"0"	"5.137"
"1902"	"4.314"	"0.284"	"0"	"0.965"	"0.636"	"46.068"	"362.656"	"147.266"	"125.072"	"6.12"	"13.061"	"0.909"
"1903"	"3.442"	"1.14"	"3.453"	"0"	"4.726"	"7.233"	"222.331"	"289.891"	"79.454"	"25.94"	"0"	"0"
"1904"	"4.699"	"2.255"	"11.728"	"0"	"15.637"	"69.406"	"397.369"	"349.341"	"42.256"	"3.86"	"15.117"	"8.264"
"1905"	"12.253"	"11.889"	"4.797"	"0.159"	"3.583"	"19.583"	"215.215"	"39.046"	"111.853"	"0.157"	"0"	"1.059"
"1906"	"0.526"	"11.191"	"8.187"	"0"	"0.881"	"135.391"	"232.855"	"134.207"	"214.331"	"0.375"	"0"	"6.279"
"1907"	"11.839"	"29.594"	"2.657"	"18.005"	"7.839"	"23.674"	"134.189"	"434.244"	"3.444"	"0.157"	"0.926"	"0"
"1908"	"17.767"	"0.004"	"1.213"	"1.366"	"6.11"	"40.994"	"573.981"	"390.613"	"40.105"	"5.795"	"0.397"	"0.997"
"1909"	"16.789"	"2.565"	"0"	"7.279"	"16.103"	"62.569"	"430.889"	"200.072"	"123.377"	"0.157"	"0"	"11.584"
"1910"	"6.912"	"1.563"	"0"	"2.154"	"3.451"	"59.063"	"195.772"	"261.769"	"143.017"	"17.93"	"1.994"	"0"
"1911"	"16.257"	"0"	"6.299"	"0.002"	"0"	"35.952"	"72.266"	"115.834"	"248.888"	"1.121"	"66.289"	"5.948"
"1912"	"17.208"	"1.834"	"4.451"	"0.694"	"0.518"	"18.886"	"296.677"	"251.898"	"150.693"	"0.793"	"19.029"	"2.022"
"1913"	"0"	"22.39"	"0.61"	"0"	"18.226"	"64.666"	"174.433"	"67.108"	"51.999"	"0.157"	"0"	"3.316"
"1914"	"0.003"	"2.127"	"2.677"	"6.235"	"23.9"	"89.397"	"456.98"	"167.717"	"202.66"	"10.04"	"1.876"	"0.681"
"1915"	"8.854"	"13.668"	"22.697"	"4.061"	"6.077"	"50.863"	"214.245"	"181.483"	"68.599"	"38.103"	"0.27"	"0.59"
"1916"	"0"	"7.214"	"0"	"1.141"	"5.998"	"70.322"	"342.677"	"346"	"121.622"	"17.133"	"2.71"	"0"
"1917"	"2.031"	"6.619"	"6.706"	"12.354"	"37.3"	"41.231"	"457.035"	"324.157"	"269.001"	"43.498"	"0"	"2.42"
"1918"	"12.469"	"0.103"	"2.518"	"0"	"12.038"	"32.93"	"101.168"	"173.823"	"57.847"	"0.157"	"3.958"	"0.127"
"1919"	"21.879"	"0.005"	"0.945"	"8.353"	"4.98"	"37.692"	"293.69"	"460.168"	"71.954"	"10.926"	"10.039"	"5.096"
"1920"	"6.478"	"10.406"	"3.24"	"0"	"10.206"	"84.474"	"359.065"	"86.432"	"72.234"	"0.157"	"0"	"0"
"1921"	"21.647"	"0.244"	"0"	"0.417"	"0"	"54.683"	"157.42"	"153.915"	"284.554"	"0.173"	"0"	"0"
"1922"	"12.732"	"1.269"	"0.364"	"1.269"	"0.242"	"67.391"	"278.874"	"212.911"	"222.176"	"1.566"	"5.519"	"25.474"
"1923"	"0.455"	"5.667"	"1.181"	"1.032"	"2.91"	"3.42"	"280.454"	"295.379"	"234.246"	"4.059"	"0.119"	"5.17"
"1924"	"10.558"	"6.564"	"0"	"0"	"5.994"	"16.222"	"214.511"	"258.509"	"277.407"	"16.356"	"1.688"	"19.702"
"1925"	"0"	"0"	"0"	"0"	"25.159"	"140.078"	"593.904"	"110.192"	"36.752"	"1.015"	"64.868"	"0.111"
"1926"	"10.174"	"3.922"	"18.99"	"6.827"	"24.573"	"23.834"	"266.572"	"370.62"	"138.379"	"1.756"	"2.09"	"0.026"
"1927"	"0.004"	"12.084"	"2.153"	"2.394"	"4.145"	"27.453"	"298.837"	"312.672"	"103.187"	"10.843"	"45.698"	"11.137"
"1928"	"3.442"	"21.859"	"0.591"	"0.586"	"2.279"	"26.275"	"277.81"	"109.884"	"95.212"	"59.764"	"17.22"	"29.912"
"1929"	"2.128"	"4.188"	"0"	"8.095"	"0.03"	"61.807"	"214.139"	"117.568"	"24.375"	"5.522"	"0"	"13.656"
"1930"	"6.955"	"4.002"	"0.001"	"1.146"	"7.767"	"109.329"	"491.103"	"211.221"	"59.469"	"19.369"	"0.568"	"0.012"
"1931"	"0.105"	"3.22"	"0"	"0.417"	"1.439"	"32.753"	"218.204"	"272.482"	"261.569"	"55.756"	"6.552"	"0"
"1932"	"0"	"4.917"	"8.609"	"2.884"	"1.039"	"25.726"	"240.444"	"300.95"	"189.925"	"2.353"	"0.003"	"0"
"1933"	"0"	"2.79"	"1.878"	"6.23"	"22.636"	"235.467"	"162.009"	"318.458"	"275.454"	"18.519"	"1.139"	"2.566"
"1934"	"11.794"	"0"	"8.213"	"0"	"0"	"110.25"	"207.079"	"313.597"	"140.322"	"0.195"	"11.779"	"24.947"
"1935"	"16.534"	"1.775"	"0.35"	"12.638"	"1.334"	"28.061"	"431.754"	"171.566"	"112.565"	"12.508"	"0.05"	"5.32"
"1936"	"0.443"	"2.662"	"12.568"	"1.296"	"12.375"	"221.151"	"234.481"	"326.195"	"109.779"	"0.157"	"45.2"	"8.992"
"1937"	"0"	"24.286"	"0.354"	"4.173"	"6.564"	"48.024"	"160.07"	"114.409"	"140.66"	"5.316"	"7.496"	"16.447"
"1938"	"6.929"	"0.003"	"0.922"	"0.535"	"17.674"	"60.401"	"424.736"	"144.918"	"48.928"	"16.501"	"0"	"0"
"1939"	"10.514"	"4.885"	"2.713"	"0.299"	"0"	"74.12"	"378.731"	"106.479"	"99.914"	"0.973"	"0.97"	"1.181"
"1940"	"11.578"	"9.248"	"7.525"	"5.737"	"16.548"	"48.466"	"188.488"	"275.318"	"48.227"	"5.255"	"6.841"	"2.716"
"1941"	"16.361"	"7.915"	"2.13"	"0.398"	"10.486"	"22.937"	"238.15"	"143.791"	"61.534"	"0.287"	"0"	"0.13"
"1942"	"15.456"	"7.89"	"0.036"	"2.704"	"2.973"	"36.777"	"509.613"	"384.855"	"271.895"	"0.17"	"0"	"5.049"
"1943"	"15.863"	"0"	"0.634"	"14.837"	"18.994"	"82.562"	"186.071"	"363.272"	"177.796"	"5.004"	"0"	"0"
"1944"	"16.175"	"9.319"	"24.296"	"18.264"	"0.254"	"28.369"	"324.498"	"273.719"	"96.837"	"3.899"	"0"	"0.288"
"1945"	"19.573"	"0"	"0"	"6.633"	"15.1"	"35.313"	"216.607"	"365.901"	"255.162"	"0.986"	"0"	"0.018"
"1946"	"0"	"3.37"	"0"	"3.224"	"13.238"	"77.052"	"307.394"	"332.088"	"28.634"	"3.735"	"14.812"	"4.276"
"1947"	"8.273"	"3.469"	"2.871"	"1.451"	"1.125"	"29.962"	"372.263"	"349.372"	"351.364"	"38.427"	"0.028"	"4.777"
"1948"	"41.102"	"5.95"	"0"	"2.532"	"8.237"	"21.529"	"450.235"	"242.774"	"179.496"	"15.593"	"16.415"	"0"
"1949"	"0.294"	"7.322"	"1.256"	"0"	"4.865"	"20.309"	"442.989"	"381.648"	"261.031"	"10.431"	"0"	"0"
"1950"	"1.196"	"0.106"	"2.772"	"0"	"13.744"	"6.334"	"298.332"	"288.465"	"194.584"	"0.8"	"0.111"	"3.075"
"1951"	"6.078"	"1.576"	"9.597"	"6.834"	"4.198"	"49.149"	"181.343"	"273.322"	"209.524"	"14.427"	"39.75"	"0"
"1952"	"0"	"10.035"	"2.322"	"5.018"	"3.523"	"59.855"	"249.334"	"557.53"	"26.135"	"0.318"	"0"	"22.833"
"1953"	"26.602"	"0.012"	"0"	"0.73"	"0.093"	"12.755"	"256.432"	"244.988"	"53.625"	"3.701"	"0"	"0.005"
"1954"	"15.943"	"20.038"	"4.605"	"0"	"0"	"7.186"	"320.85"	"259.562"	"223.384"	"35.413"	"0.423"	"0"
"1955"	"21.612"	"0.01"	"0.351"	"0.123"	"0.763"	"127.757"	"314.767"	"449.198"	"204.708"	"69.489"	"0"	"0.145"
"1956"	"7.736"	"0.778"	"11.367"	"3.007"	"1.821"	"80.646"	"520.681"	"232.812"	"58.317"	"69.755"	"6.571"	"11.161"
"1957"	"19.591"	"0"	"16.737"	"6.28"	"9.036"	"30.168"	"459.207"	"176.287"	"176.268"	"9.16"	"7.288"	"3.033"
"1958"	"1.738"	"2.663"	"0.762"	"0.657"	"6.409"	"14.113"	"502.147"	"368.841"	"264.365"	"32.615"	"5.565"	"3.158"
"1959"	"11.334"	"0.299"	"0"	"2.182"	"34.372"	"37.41"	"308.938"	"273.531"	"136.966"	"13.754"	"14.226"	"0"
"1960"	"7.271"	"0"	"14.681"	"0.297"	"12.504"	"36.484"	"301.509"	"513.88"	"80.717"	"58.133"	"0"	"5.746"
"1961"	"26.428"	"15.649"	"0.183"	"2.037"	"6.314"	"61.271"	"228.207"	"568.127"	"88.19"	"46.693"	"8.616"	"1.338"
"1962"	"17.163"	"0.903"	"8.922"	"6.247"	"3.601"	"19.214"	"313.281"	"257.712"	"217.985"	"0.157"	"4.783"	"5.346"
"1963"	"10.549"	"2.411"	"2.751"	"2.399"	"6.934"	"42.14"	"223.292"	"270.22"	"307.868"	"3.859"	"16.597"	"8.067"
"1964"	"0"	"0.003"	"2.439"	"0.002"	"11.919"	"21.532"	"484.075"	"356.702"	"275.654"	"1.682"	"0"	"3.156"
"1965"	"4.81"	"3.607"	"1.013"	"7.201"	"1.75"	"11.33"	"381.367"	"183.393"	"115.198"	"26.778"	"0"	"1.483"
"1966"	"0.253"	"1.618"	"0"	"0"	"33.383"	"67.042"	"231.7"	"357.852"	"51.076"	"0.157"	"58.579"	"0.752"
"1967"	"0.001"	"0"	"17.837"	"0.401"	"1.131"	"43.799"	"311.11"	"553.546"	"128.185"	"1.434"	"0"	"30.354"
"1968"	"19.713"	"5.715"	"5.837"	"0.453"	"0.072"	"22.843"	"325.77"	"280.044"	"52.674"	"26.959"	"0"	"0.005"
"1969"	"2.968"	"6.523"	"0.036"	"0"	"14.088"	"20.777"	"407.477"	"264.289"	"145.975"	"0.157"	"29.137"	"0"
"1970"	"25.864"	"17.451"	"4.929"	"6.018"	"24.483"	"101.983"	"135.601"	"434.715"	"168.153"	"0.25"	"0"	"0"
"1971"	"11.083"	"5.614"	"0.001"	"1.686"	"11.211"	"133.111"	"311.195"	"217.265"	"118.171"	"35.336"	"3.358"	"0"
"1972"	"1.883"	"9.423"	"0"	"0.057"	"0.584"	"33.11"	"104.252"	"316.916"	"136.887"	"4.636"	"7.94"	"4.241"
"1973"	"8.389"	"12.465"	"0"	"0"	"1.197"	"20.625"	"305.796"	"410.016"	"160.398"	"43.547"	"0"	"1.121"
"1974"	"0"	"2.973"	"0.003"	"8.232"	"18.976"	"16.811"	"167.979"	"194.929"	"37.49"	"58.918"	"0"	"0.145"
"1975"	"2.472"	"0.877"	"0.007"	"0.214"	"2.487"	"80.176"	"391.458"	"243.823"	"174.76"	"21.293"	"0"	"0"
"1976"	"0.934"	"1.449"	"0.886"	"2.069"	"2.495"	"109.406"	"252.612"	"294.874"	"98.923"	"0.157"	"30.919"	"0.86"
"1977"	"14.863"	"0.452"	"2.42"	"10.432"	"6.24"	"42.833"	"455.543"	"232.152"	"210.763"	"28.156"	"12.141"	"0.005"
"1978"	"7.244"	"19.148"	"19.644"	"2.538"	"0"	"117.74"	"280.126"	"235.606"	"151.114"	"2.798"	"3.164"	"10.679"
"1979"	"11.35"	"27.613"	"0.944"	"0.419"	"16.433"	"26.556"	"243.436"	"119.852"	"17.541"	"6.176"	"9.88"	"5.049"
"1980"	"0.803"	"2.411"	"10.165"	"0.417"	"2.109"	"73.996"	"240.816"	"326.885"	"28.473"	"10.021"	"3.409"	"27.853"
"1981"	"9.753"	"0.104"	"13.054"	"0"	"20.266"	"194.896"	"377.93"	"244.138"	"77.153"	"2.626"	"13.153"	"1.07"
"1982"	"20.83"	"3.115"	"11.727"	"4.38"	"16.102"	"34.818"	"163.068"	"452.685"	"36.941"	"3.668"	"65.011"	"8.181"
"1983"	"9.435"	"2.359"	"0"	"22.875"	"26.009"	"63.792"	"132.647"	"456.063"	"187.279"	"23.417"	"0"	"2.115"
"1984"	"4.537"	"3.869"	"2.988"	"26.497"	"2.12"	"63.841"	"194.296"	"269.44"	"94.87"	"4.94"	"0.127"	"0"
"1985"	"4.196"	"0"	"3.687"	"13.336"	"12.235"	"35.131"	"492.544"	"330.098"	"144.248"	"74.733"	"0"	"12.417"
"1986"	"6.781"	"13.655"	"5.66"	"0"	"23.047"	"78.886"	"233.434"	"110.543"	"50.954"	"28.661"	"0"	"12.752"
"1987"	"16.985"	"7.783"	"1.261"	"0"	"34.628"	"20.737"	"118.829"	"185.047"	"68.58"	"3.961"	"0"	"6.102"
"1988"	"5.929"	"1.083"	"6.604"	"14.317"	"1.803"	"83.79"	"251.784"	"264.555"	"75.026"	"0.467"	"0"	"0.216"
"1989"	"9.324"	"0"	"8.195"	"0.378"	"0.359"	"13.563"	"222.194"	"333.207"	"87.725"	"2.705"	"9.69"	"3.577"
"1990"	"0"	"18.628"	"0.294"	"0.383"	"19.19"	"117.376"	"339.883"	"378.187"	"285.132"	"1.044"	"0"	"8.314"
"1991"	"0.226"	"8.53"	"2.675"	"2.982"	"21.667"	"25.534"	"86.25"	"375.783"	"91.647"	"0.157"	"15.062"	"19.284"
"1992"	"13.052"	"5.299"	"6.657"	"2.238"	"20.683"	"13.17"	"84.823"	"217.574"	"165.692"	"32.306"	"34.617"	"0"
"1993"	"4.367"	"0.52"	"5.595"	"2.069"	"11.66"	"95.602"	"298.329"	"182.041"	"183.447"	"6.603"	"0.03"	"0.102"
"1994"	"24.43"	"9.872"	"7.384"	"4.924"	"14.695"	"86.338"	"649.386"	"301.635"	"43.458"	"1.768"	"0"	"0"
"1995"	"23.752"	"1.194"	"6.185"	"8.779"	"0.583"	"35.384"	"256.958"	"276.852"	"132.672"	"6.56"	"0.755"	"0.587"
"1996"	"8.147"	"1.396"	"3.146"	"10.04"	"17.814"	"112.948"	"213.712"	"379.227"	"240.357"	"18.851"	"0"	"0"
"1997"	"3.733"	"0"	"1.563"	"1.727"	"20.392"	"86.819"	"162.269"	"236.517"	"153.836"	"36.675"	"56.395"	"15.296"
"1998"	"0"	"8.213"	"11.743"	"9.512"	"4.272"	"88.082"	"156.931"	"268.836"	"99.075"	"35.081"	"11.408"	"0.197"
"1999"	"8.028"	"14.765"	"0"	"0"	"2.581"	"129.804"	"245.536"	"317.673"	"243.141"	"52.481"	"0"	"0.294"
"2000"	"5.065"	"2.93"	"0.945"	"1.675"	"13.838"	"20.121"	"396.546"	"141.992"	"51.763"	"1.394"	"1.573"	"0"
"2001"	"6.363"	"3.489"	"2.247"	"10.987"	"36.852"	"131.969"	"218.77"	"244.8"	"34.018"	"13.789"	"0.539"	"0"
"2002"	"6.079"	"12.676"	"1.172"	"1.503"	"10.481"	"42.103"	"33.56"	"215.846"	"153.044"	"5.246"	"4.266"	"4.337"
