
"Year"	"Jan"	"Feb"	"Mar"	"Apr"	"May"	"Jun"	"Jul"	"Aug"	"Sep"	"Oct"	"Nov"	"Dec"
"1901"	"15.211"	"19.185"	"24.255"	"30.219"	"30.865"	"31.357"	"28.636"	"28.061"	"27.635"	"26.587"	"20.904"	"16.797"
"1902"	"17.21"	"19.345"	"26.004"	"28.465"	"30.67"	"30.671"	"28.002"	"28.405"	"27.701"	"25.397"	"20.409"	"16.01"
"1903"	"16.426"	"18.421"	"24.269"	"29.969"	"32.399"	"30.061"	"29.276"	"28.045"	"27.78"	"25.657"	"20.026"	"15.901"
"1904"	"16.154"	"18.982"	"24.964"	"30.803"	"29.904"	"29.316"	"27.492"	"27.766"	"27.701"	"25.587"	"20.075"	"17.145"
"1905"	"15.424"	"15.504"	"22.336"	"26.669"	"29.306"	"31.975"	"28.036"	"27.515"	"27.302"	"25.786"	"20.77"	"16.45"
"1906"	"15.754"	"18.26"	"22.365"	"30.298"	"31.705"	"30.566"	"28.436"	"27.706"	"28.161"	"25.591"	"20.866"	"17.041"
"1907"	"17.311"	"18.381"	"22.04"	"27.125"	"30.465"	"30.454"	"28.382"	"28.352"	"27.936"	"25.922"	"20.541"	"16.295"
"1908"	"14.824"	"18.725"	"24.894"	"32.158"	"31.805"	"30.527"	"28.141"	"28.287"	"27.94"	"26.187"	"20.174"	"15.74"
"1909"	"17.265"	"18.99"	"26.01"	"27.625"	"31.704"	"29.011"	"28.232"	"27.336"	"27.996"	"25.877"	"21.049"	"17.046"
"1910"	"15.655"	"18.72"	"24.795"	"30.004"	"31.065"	"29.516"	"27.781"	"27.957"	"28.001"	"25.557"	"20.036"	"15.936"
"1911"	"17.709"	"18.286"	"23.331"	"29.465"	"31.939"	"29.311"	"29.115"	"27.827"	"27.401"	"25.496"	"20.485"	"15.376"
"1912"	"16.426"	"19.93"	"24.399"	"27.909"	"30.27"	"30.665"	"27.941"	"27.9"	"27.701"	"25.631"	"19.744"	"16.001"
"1913"	"15.895"	"18.765"	"22.765"	"31.003"	"29.866"	"28.071"	"28.336"	"27.562"	"27.996"	"25.092"	"19.579"	"15.942"
"1914"	"16.421"	"19.229"	"23.864"	"27.304"	"29.961"	"29.381"	"27.898"	"27.706"	"27.701"	"24.596"	"20.586"	"17.04"
"1915"	"16.86"	"18.93"	"23.565"	"29.364"	"31.011"	"29.567"	"29.181"	"28.505"	"27.891"	"27.347"	"22.475"	"16.705"
"1916"	"15.981"	"19.229"	"26.39"	"29.844"	"33.803"	"29.071"	"28.176"	"28.031"	"27.9"	"25.997"	"20.735"	"15.766"
"1917"	"15.695"	"18.73"	"23.564"	"28.433"	"28.691"	"29.376"	"28.236"	"27.957"	"27.401"	"25.496"	"20.465"	"16.181"
"1918"	"15.06"	"18.829"	"25.198"	"28.269"	"30.361"	"28.406"	"29.515"	"27.266"	"28.095"	"25.886"	"20.674"	"16.015"
"1919"	"17.188"	"17.968"	"25.364"	"28.669"	"31.068"	"29.776"	"28.331"	"28.226"	"27.6"	"25.552"	"20.841"	"16.406"
"1920"	"16.681"	"18.829"	"23.675"	"29.604"	"30.868"	"31.47"	"28.597"	"28.061"	"27.701"	"26.191"	"21.075"	"16.797"
"1921"	"17.025"	"18.885"	"25.895"	"30.543"	"33.479"	"30.759"	"28.642"	"27.821"	"27.666"	"24.887"	"20.03"	"16.535"
"1922"	"16.681"	"19.625"	"25.754"	"30.72"	"32.8"	"28.871"	"28.231"	"27.522"	"27.256"	"24.747"	"20.535"	"16.567"
"1923"	"16.425"	"18.79"	"24.65"	"30.399"	"31.909"	"31.6"	"28.335"	"28.047"	"28.006"	"25.252"	"20.63"	"17.216"
"1924"	"16.395"	"19.229"	"26.559"	"30.764"	"31.814"	"32.4"	"28.232"	"28.001"	"27.201"	"26.053"	"20.374"	"16.797"
"1925"	"15.025"	"17.535"	"24.355"	"28.7"	"30.698"	"29.886"	"27.83"	"28.132"	"27.701"	"25.132"	"20.384"	"16.31"
"1926"	"16.225"	"19.63"	"23.469"	"27.924"	"30.864"	"33.239"	"28.377"	"28.001"	"27.696"	"25.487"	"19.639"	"17.136"
"1927"	"16.134"	"18.864"	"22.855"	"29.998"	"30.204"	"31.065"	"28.437"	"27.927"	"28.045"	"26.092"	"21.075"	"17.287"
"1928"	"16.239"	"19.229"	"25.864"	"29.424"	"31.494"	"29.376"	"28.031"	"28.461"	"28.536"	"26.332"	"20.679"	"17.145"
"1929"	"16.32"	"18.121"	"24.955"	"29.365"	"32.544"	"31.564"	"28.031"	"27.721"	"27.905"	"24.952"	"20.276"	"16.041"
"1930"	"15.295"	"18.524"	"25.095"	"29.233"	"31.299"	"30.566"	"28.035"	"27.862"	"27.901"	"25.936"	"20.18"	"15.981"
"1931"	"17.301"	"18.725"	"24.237"	"30.373"	"31.143"	"31.635"	"28.27"	"28.456"	"28.192"	"26.282"	"20.471"	"17.141"
"1932"	"17.295"	"18.26"	"25.224"	"29.429"	"32.081"	"31.301"	"28.822"	"28.161"	"28.487"	"26.357"	"20.965"	"16.815"
"1933"	"14.864"	"19.621"	"24.92"	"27.625"	"31.167"	"29.676"	"27.937"	"27.397"	"27.701"	"25.591"	"20.466"	"16.801"
"1934"	"15.754"	"18.655"	"24.265"	"29.798"	"31.644"	"29.765"	"28.341"	"28.057"	"28.001"	"25.187"	"20.075"	"17.145"
"1935"	"15.621"	"19.42"	"25.064"	"28.415"	"31.987"	"30.922"	"29.027"	"27.363"	"27.891"	"25.587"	"20.831"	"16.786"
"1936"	"15.52"	"19.214"	"25.17"	"29.108"	"30.982"	"29.388"	"28.288"	"28.322"	"27.591"	"25.053"	"21.331"	"17.216"
"1937"	"14.88"	"18.899"	"23.56"	"29.236"	"30.807"	"31.254"	"28.987"	"27.671"	"28.287"	"24.901"	"20.571"	"16.066"
"1938"	"17.394"	"17.825"	"26.174"	"30.542"	"30.572"	"29.433"	"28.431"	"27.761"	"28.561"	"26.197"	"20.18"	"16.562"
"1939"	"17.129"	"19.93"	"23.73"	"30.255"	"31.964"	"30.294"	"28.583"	"27.652"	"27.952"	"25.735"	"20.827"	"17.206"
"1940"	"16.24"	"19.224"	"22.969"	"28.9"	"31.785"	"31.034"	"28.487"	"28.061"	"27.904"	"26.491"	"21.608"	"17.482"
"1941"	"16.691"	"19.564"	"26.434"	"31.099"	"31.01"	"30.28"	"28.857"	"27.997"	"28.122"	"25.521"	"20.813"	"17.915"
"1942"	"16.576"	"19.155"	"25.324"	"29.368"	"32.852"	"31.835"	"28.777"	"27.492"	"27.066"	"25.591"	"21.98"	"16.79"
"1943"	"17.99"	"18.081"	"25.194"	"27.573"	"31.852"	"30.476"	"28.293"	"27.583"	"27.966"	"26.211"	"21.11"	"18.31"
"1944"	"16.561"	"19.156"	"23.972"	"27.33"	"33.127"	"31.196"	"28.317"	"27.923"	"28.755"	"25.361"	"20.789"	"18.281"
"1945"	"16.011"	"17.995"	"25.268"	"28.184"	"30.809"	"31.251"	"29.252"	"28.406"	"27.971"	"24.861"	"20.344"	"16.075"
"1946"	"16.864"	"21.089"	"24.812"	"26.986"	"30.039"	"30.206"	"28.187"	"28.13"	"27.822"	"25.401"	"20.92"	"17.791"
"1947"	"16.729"	"19.481"	"25.599"	"30.778"	"31.604"	"31.65"	"28.492"	"28.156"	"27.9"	"25.752"	"21.089"	"17.714"
"1948"	"17.7"	"19.729"	"24.693"	"30.087"	"31.235"	"31.706"	"27.723"	"27.565"	"27.821"	"25.401"	"21.089"	"16.392"
"1949"	"17.054"	"18.595"	"24.73"	"27.439"	"28.947"	"30.375"	"28.201"	"28.132"	"27.701"	"26.408"	"19.99"	"15.889"
"1950"	"17.077"	"18.6"	"23.959"	"29.433"	"31.721"	"29.937"	"28.583"	"27.496"	"27.786"	"25.648"	"19.81"	"16.815"
"1951"	"15.989"	"19.359"	"25.215"	"29.429"	"32.066"	"31.23"	"28.236"	"28.96"	"28.326"	"27.091"	"21.47"	"17.425"
"1952"	"17.6"	"20.844"	"24.293"	"28.484"	"30.978"	"30.621"	"28.363"	"27.736"	"27.367"	"26.049"	"20.845"	"16.87"
"1953"	"16.13"	"20.369"	"27.087"	"29.813"	"31.91"	"30.061"	"27.826"	"27.87"	"27.397"	"25.661"	"20.541"	"18.623"
"1954"	"15.485"	"20.87"	"24.721"	"31.788"	"32.07"	"29.907"	"28.063"	"27.775"	"27.943"	"24.453"	"19.131"	"16.945"
"1955"	"16.725"	"19.013"	"26.348"	"28.873"	"32.223"	"30.47"	"27.45"	"27.706"	"27.71"	"25.793"	"21.106"	"16.781"
"1956"	"16.405"	"19.15"	"25.531"	"30.444"	"31.8"	"28.388"	"28.218"	"27.829"	"27.031"	"25.529"	"20.044"	"17.595"
"1957"	"16.449"	"18.446"	"24.16"	"29.968"	"33.943"	"31.339"	"28.417"	"28.391"	"28.326"	"26.149"	"20.814"	"18.167"
"1958"	"17.995"	"19.759"	"25.84"	"30.934"	"33.587"	"32.974"	"29.426"	"27.666"	"28.021"	"26.671"	"21.766"	"18.125"
"1959"	"16.874"	"18.933"	"24.703"	"30.229"	"31.987"	"30.791"	"28.818"	"28.413"	"27.562"	"25.563"	"20.674"	"17.206"
"1960"	"16.881"	"21.181"	"23.666"	"31.015"	"32.306"	"31.381"	"28.122"	"28.638"	"27.64"	"26.248"	"20.326"	"17.468"
"1961"	"17.425"	"18.015"	"25.629"	"30.294"	"32.369"	"29.776"	"28.126"	"28.322"	"27.701"	"25.522"	"19.935"	"14.576"
"1962"	"15.185"	"19.649"	"24.285"	"30.051"	"31.195"	"30.46"	"29.037"	"27.671"	"27.604"	"25.212"	"20.841"	"17.217"
"1963"	"15.446"	"20.434"	"24.47"	"28.77"	"29.9"	"29.981"	"28.335"	"28.067"	"27.679"	"26.353"	"22.115"	"18.181"
"1964"	"16.43"	"19.706"	"25.96"	"30.004"	"30.13"	"31.306"	"27.483"	"28.161"	"27.9"	"26.477"	"21"	"17.615"
"1965"	"17.49"	"19.724"	"23.464"	"28.715"	"32.044"	"31.93"	"28.214"	"28.001"	"27.474"	"26.096"	"21.745"	"16.064"
"1966"	"16.365"	"20.744"	"25.425"	"30.904"	"32.899"	"31.685"	"28.916"	"27.876"	"28.007"	"25.736"	"22.359"	"17.21"
"1967"	"17.294"	"20.835"	"23.6"	"27.799"	"31.525"	"31.44"	"28.616"	"27.857"	"27.701"	"25.521"	"20.449"	"18.519"
"1968"	"16.43"	"18.79"	"24.825"	"29.428"	"32.39"	"28.89"	"27.871"	"27.927"	"28.667"	"25.292"	"20.935"	"19.14"
"1969"	"16.13"	"19.818"	"26.56"	"30.264"	"30.356"	"30.852"	"28.431"	"27.302"	"27.297"	"25.926"	"22.105"	"17.287"
"1970"	"16.715"	"19.094"	"24.655"	"30.53"	"32.19"	"29.542"	"28.197"	"28.122"	"27.456"	"25.978"	"20.527"	"16.402"
"1971"	"15.93"	"17.559"	"23.815"	"26.525"	"28.521"	"28.502"	"27.026"	"26.566"	"27.297"	"25.492"	"19.809"	"16.903"
"1972"	"15.981"	"16.816"	"24.395"	"28.974"	"32.395"	"31.104"	"28.541"	"27.897"	"26.065"	"24.796"	"20.085"	"16.485"
"1973"	"16.154"	"19.504"	"23.091"	"29.695"	"30.175"	"28.825"	"28.236"	"28.061"	"27.496"	"25.692"	"20.679"	"17.006"
"1974"	"15.341"	"18.525"	"24.56"	"29.5"	"30.399"	"30.66"	"27.84"	"27.805"	"27.701"	"26.622"	"20.475"	"14.941"
"1975"	"15.985"	"19.091"	"24.46"	"29.465"	"31.104"	"30.021"	"26.741"	"27.862"	"27.297"	"26.653"	"21.014"	"16.611"
"1976"	"16.681"	"19.964"	"25.129"	"29.126"	"29.9"	"30.535"	"28.506"	"27.671"	"27.301"	"26.096"	"22.285"	"17.055"
"1977"	"16.13"	"19.16"	"26.17"	"28.974"	"28.094"	"29.317"	"27.992"	"28.431"	"28.196"	"25.336"	"22.38"	"15.741"
"1978"	"15.33"	"18.569"	"23.225"	"28.169"	"30.939"	"29.287"	"28.001"	"28.326"	"27.436"	"25.526"	"21.92"	"17.398"
"1979"	"17.164"	"17.651"	"24.38"	"29.525"	"32.391"	"31.195"	"28.677"	"29.496"	"27.031"	"26.271"	"23.285"	"18.076"
"1980"	"16.665"	"19.3"	"24.156"	"30.86"	"30.835"	"29.472"	"28.126"	"27.657"	"27.835"	"25.536"	"21.341"	"17.811"
"1981"	"15.926"	"19.13"	"23.799"	"26.844"	"28.704"	"30.361"	"27.875"	"28.205"	"27.94"	"25.856"	"20.845"	"16.977"
"1982"	"17.609"	"18.964"	"22.765"	"28.86"	"32.536"	"30.182"	"30.185"	"28.197"	"28.47"	"25.901"	"21.47"	"16.258"
"1983"	"15.89"	"19.412"	"24.669"	"28.355"	"30.029"	"31.859"	"29.037"	"28.602"	"28.631"	"25.752"	"21.004"	"17.286"
"1984"	"16.178"	"18.125"	"25.185"	"30.33"	"32.234"	"28.963"	"28.001"	"27.831"	"27.501"	"26.688"	"19.98"	"17.551"
"1985"	"17.169"	"18.599"	"26.021"	"30.229"	"30.31"	"31.06"	"27.632"	"28.166"	"27.47"	"25.696"	"21.414"	"18.621"
"1986"	"16.794"	"19.195"	"24.156"	"29.005"	"29.296"	"31.016"	"28.095"	"27.461"	"27.076"	"24.997"	"21.845"	"17.234"
"1987"	"16.43"	"20.781"	"24.465"	"28.9"	"30.724"	"31.505"	"28.236"	"27.107"	"27.891"	"26.487"	"22.01"	"19"
"1988"	"17.951"	"20.064"	"24.399"	"29.929"	"31.566"	"29.437"	"28.536"	"28.245"	"29.206"	"27.482"	"22.005"	"19.445"
"1989"	"16.065"	"20.013"	"25.16"	"30.664"	"31.394"	"29.307"	"28.335"	"27.845"	"28.335"	"27.078"	"21.646"	"16.931"
"1990"	"16.528"	"19.444"	"23.36"	"29.345"	"29.626"	"30.411"	"28.056"	"28.54"	"28.501"	"25.282"	"22.306"	"18.081"
"1991"	"16.411"	"20.549"	"25.02"	"29.09"	"32.303"	"29.181"	"28.741"	"27.892"	"27.7"	"26.583"	"22.074"	"17.076"
"1992"	"14.969"	"17.505"	"25.815"	"30.19"	"29.931"	"30.651"	"28.655"	"28.136"	"28.201"	"26.553"	"21.925"	"17.216"
"1993"	"16.995"	"21.02"	"23.838"	"28.405"	"30.614"	"31.01"	"29.175"	"27.571"	"27.701"	"26.692"	"21.457"	"18.033"
"1994"	"17.668"	"18.869"	"25.39"	"28.622"	"31.469"	"30.411"	"28.557"	"27.991"	"27.996"	"26.231"	"21.785"	"17.416"
"1995"	"14.994"	"20.388"	"24.451"	"29.464"	"31.676"	"31.345"	"28.076"	"27.566"	"27.822"	"26.191"	"22.08"	"18.35"
"1996"	"16.769"	"18.982"	"25.695"	"28.48"	"31.604"	"29.38"	"28.236"	"27.031"	"28.461"	"26.088"	"21.766"	"17.752"
"1997"	"16.06"	"18.655"	"25.059"	"29.122"	"30.696"	"30.84"	"28.101"	"28.226"	"27.301"	"25.276"	"22.085"	"17.365"
"1998"	"16.221"	"19.925"	"23.44"	"29.015"	"31.51"	"32.264"	"28.366"	"28.431"	"28.366"	"28.226"	"22.379"	"18.58"
"1999"	"17.112"	"20.655"	"25.525"	"31.524"	"31.52"	"30.22"	"28.197"	"27.966"	"27.701"	"26.727"	"22.249"	"18.682"
"2000"	"17.711"	"19.056"	"24.786"	"30.103"	"31.064"	"30.302"	"28.671"	"28.17"	"27.305"	"26.962"	"23.015"	"17.746"
"2001"	"17.141"	"19.238"	"24.829"	"30.19"	"31.861"	"29.602"	"28.217"	"28.631"	"28.501"	"27.363"	"23.415"	"19.08"
"2002"	"16.561"	"20.491"	"25.655"	"29.465"	"31.87"	"31.112"	"29.537"	"27.966"	"27.9"	"26.191"	"21.875"	"18.645"
