
"Year"	"Jan"	"Feb"	"Mar"	"Apr"	"May"	"Jun"	"Jul"	"Aug"	"Sep"	"Oct"	"Nov"	"Dec"
"1901"	"34.28"	"10.924"	"12.703"	"1.042"	"21.112"	"26.533"	"227.089"	"274.473"	"34.771"	"0.491"	"0"	"3.996"
"1902"	"0.153"	"1.219"	"4.25"	"8.91"	"12.186"	"83.709"	"230.416"	"176.987"	"85.419"	"5.26"	"0"	"0"
"1903"	"10.093"	"1.47"	"9.221"	"1.351"	"9.276"	"11.352"	"135.004"	"149.539"	"61.983"	"17.971"	"0"	"1.734"
"1904"	"9.749"	"0.474"	"31.846"	"1.711"	"19.451"	"50.18"	"146.6"	"239.196"	"154.393"	"1.581"	"23.527"	"12.092"
"1905"	"49.135"	"22.808"	"7.349"	"3.209"	"6.471"	"19.749"	"131.721"	"67.448"	"130.43"	"1.948"	"0"	"5.155"
"1906"	"5.344"	"48.559"	"16.426"	"1.475"	"2.863"	"94.413"	"147.534"	"178.014"	"227.637"	"1.363"	"0"	"5.649"
"1907"	"15.472"	"34.257"	"20.931"	"32.014"	"5.79"	"23.432"	"111.722"	"167.311"	"2.449"	"0.869"	"0"	"0"
"1908"	"33.662"	"12.893"	"0.681"	"5.168"	"8.986"	"26.839"	"258.821"	"490.559"	"33.682"	"0.45"	"0.396"	"1.557"
"1909"	"16.656"	"13.151"	"0.171"	"30.5"	"18.651"	"177.159"	"312.653"	"153.062"	"133.424"	"1.459"	"0"	"32.515"
"1910"	"19.412"	"10.128"	"1.64"	"4.867"	"9.188"	"75.4"	"206.826"	"188.567"	"132.529"	"7.018"	"0.824"	"1.461"
"1911"	"53.409"	"0.672"	"37.273"	"4.105"	"2.768"	"79.18"	"42.708"	"126.611"	"171.207"	"12.992"	"49.646"	"0"
"1912"	"36.053"	"13.931"	"5.697"	"21.888"	"13.268"	"37.346"	"155.522"	"251.072"	"171.802"	"0.34"	"14.314"	"2.593"
"1913"	"2.282"	"31.687"	"15.275"	"3.162"	"34.265"	"130.736"	"131.398"	"145.086"	"16.178"	"1.192"	"4.074"	"12.38"
"1914"	"4.027"	"17.896"	"11.188"	"17.728"	"20.582"	"40.777"	"302.785"	"127.076"	"284.839"	"18.572"	"14.561"	"2.878"
"1915"	"18.642"	"50.841"	"45.791"	"20.526"	"5.279"	"42.527"	"96.822"	"221.138"	"103.887"	"8.428"	"0"	"2.413"
"1916"	"0.153"	"21.489"	"0.478"	"4.261"	"11.574"	"77.55"	"274.645"	"254.642"	"119.944"	"14.249"	"0.069"	"0"
"1917"	"7.863"	"12.255"	"12.993"	"17.939"	"27.922"	"113.915"	"218.99"	"198.467"	"203.808"	"33.369"	"0"	"4.53"
"1918"	"5.661"	"0.361"	"13.061"	"14.531"	"4.249"	"53.795"	"38.926"	"179.377"	"12.848"	"0.737"	"12.041"	"1.859"
"1919"	"58.907"	"6.287"	"7.55"	"9.577"	"12.196"	"20.953"	"185.203"	"203.042"	"50.67"	"3.533"	"2.775"	"8.233"
"1920"	"10.324"	"9.235"	"19.231"	"0.885"	"18.726"	"100.374"	"223.702"	"140.896"	"12.422"	"0.962"	"0"	"0.32"
"1921"	"28.301"	"0.889"	"0.74"	"2.36"	"1.105"	"30.285"	"157.943"	"319.969"	"133.703"	"18.021"	"0"	"1.911"
"1922"	"21.267"	"5.978"	"0.44"	"1.901"	"1.467"	"50.315"	"172.464"	"247.735"	"206.323"	"5.919"	"2.431"	"26.341"
"1923"	"12.918"	"47.723"	"1.379"	"4.974"	"13.123"	"8.468"	"190.371"	"277.826"	"67.675"	"17.551"	"9.734"	"26.872"
"1924"	"34.324"	"22.926"	"3.876"	"1.427"	"17.787"	"22.264"	"157.397"	"229.52"	"240.977"	"30.988"	"2.756"	"18.203"
"1925"	"11.294"	"0.524"	"1.82"	"2.664"	"21.911"	"134.679"	"262.05"	"204.889"	"18.728"	"2.34"	"29.745"	"0"
"1926"	"9.134"	"2.201"	"42.914"	"15.391"	"14.134"	"5.317"	"248.048"	"311.972"	"40.429"	"1.449"	"7.843"	"2.958"
"1927"	"0.593"	"21.874"	"14.473"	"5.056"	"25.606"	"21.18"	"161.959"	"269.876"	"26.041"	"35.194"	"0.159"	"16.58"
"1928"	"25.095"	"40.183"	"9.973"	"15.088"	"5.105"	"45.914"	"130.932"	"79.433"	"48.861"	"5.988"	"21.806"	"15.447"
"1929"	"19.662"	"1.008"	"2.383"	"15.042"	"3.304"	"74.783"	"114.876"	"243.121"	"17.218"	"8.793"	"0"	"31.15"
"1930"	"32.263"	"17.185"	"2.619"	"7.001"	"9.244"	"63.784"	"293.271"	"114.237"	"39.165"	"13.134"	"7.324"	"5.195"
"1931"	"9.233"	"23.12"	"9.731"	"4.045"	"11.227"	"7.343"	"249.584"	"178.958"	"159.787"	"42.91"	"0.824"	"0"
"1932"	"4.954"	"2.679"	"14.344"	"5.874"	"7.212"	"21.496"	"118.537"	"130.482"	"204.475"	"1.559"	"0.396"	"10.23"
"1933"	"6.805"	"17.311"	"6.186"	"6.918"	"33.402"	"146.585"	"181.44"	"399.98"	"202.306"	"32.041"	"2.446"	"0.204"
"1934"	"23.79"	"1.105"	"33.673"	"0.527"	"5.638"	"55.246"	"242.835"	"296.126"	"20.437"	"0.009"	"0"	"10.683"
"1935"	"40.338"	"31.53"	"6.032"	"12.287"	"1.664"	"33.636"	"167.104"	"132.687"	"134.412"	"1.782"	"12.048"	"7.919"
"1936"	"2.496"	"20.912"	"13.234"	"6.475"	"8.985"	"254.44"	"284.917"	"240.07"	"131.885"	"6.911"	"3.152"	"38.926"
"1937"	"0.749"	"60.293"	"0.909"	"20.339"	"8.798"	"45.447"	"237.24"	"68.739"	"120.89"	"4.336"	"0.486"	"9.522"
"1938"	"49.982"	"11.025"	"7.582"	"2.578"	"1.84"	"108.716"	"149.427"	"119.675"	"28.643"	"6.347"	"0.824"	"0"
"1939"	"4.874"	"28.33"	"11.119"	"4.066"	"3.394"	"85.028"	"109.346"	"119.235"	"70.21"	"5.832"	"0"	"0"
"1940"	"37.755"	"38.519"	"8.086"	"3.673"	"4.672"	"41.748"	"178.681"	"199.982"	"22.661"	"0.839"	"0"	"3.789"
"1941"	"40.257"	"6.868"	"3.602"	"0.225"	"19.384"	"64.784"	"49.926"	"128.642"	"81.061"	"1.449"	"0.824"	"9.555"
"1942"	"21.643"	"18.662"	"4.211"	"14.591"	"11.557"	"49.955"	"344.579"	"189.125"	"104.139"	"0.834"	"0"	"16.315"
"1943"	"16.176"	"1.278"	"3.103"	"17.475"	"4.572"	"70.768"	"138.518"	"182.431"	"66.41"	"0.009"	"0"	"0"
"1944"	"27.311"	"35.547"	"36.124"	"35.121"	"0.222"	"74.969"	"264.035"	"87.98"	"115.395"	"22.37"	"0.396"	"2.466"
"1945"	"22.089"	"0.078"	"3.736"	"14.677"	"8.18"	"36.871"	"205.087"	"247.693"	"172.515"	"14.933"	"0"	"0.069"
"1946"	"0.35"	"10.68"	"2.813"	"7.381"	"20.988"	"97.388"	"210.935"	"189.209"	"36.655"	"12.977"	"7.573"	"6.28"
"1947"	"11.686"	"12.096"	"13.383"	"0.796"	"5.059"	"11.738"	"113.076"	"172.441"	"181.915"	"16.376"	"0.824"	"5.818"
"1948"	"28.193"	"27.312"	"24.623"	"2.861"	"5.762"	"23.683"	"205.991"	"359.304"	"126.317"	"9.135"	"1.856"	"4.947"
"1949"	"2.697"	"23.253"	"6.859"	"5.318"	"10.245"	"15.345"	"433.062"	"134.924"	"121.995"	"7.274"	"0.396"	"0.63"
"1950"	"27.214"	"9.341"	"20.955"	"0.614"	"11.149"	"48.429"	"376.856"	"213.138"	"182.875"	"0.048"	"0.396"	"0.473"
"1951"	"20.34"	"5.582"	"32.496"	"17.685"	"9.843"	"24.302"	"127.287"	"132.687"	"80.957"	"5.917"	"27.28"	"0"
"1952"	"9.461"	"12.745"	"32.013"	"5.286"	"22.686"	"51.914"	"103.479"	"258.935"	"9.148"	"0.716"	"6.338"	"0.343"
"1953"	"53.505"	"0.834"	"0.862"	"5.614"	"3.725"	"40.046"	"268.374"	"251.371"	"76.98"	"0.639"	"1.024"	"1.498"
"1954"	"27.062"	"47.123"	"7.599"	"0.328"	"2.303"	"27.031"	"258.25"	"94.215"	"126.172"	"25.079"	"0"	"0.473"
"1955"	"26.593"	"1.445"	"11.609"	"16.327"	"8.715"	"47.122"	"158.657"	"214.788"	"207.584"	"53.19"	"0"	"1.192"
"1956"	"23.298"	"2.898"	"16.454"	"2.112"	"16.042"	"64.003"	"251.577"	"205.373"	"27.902"	"53.635"	"0.85"	"2.677"
"1957"	"53.324"	"0.497"	"28.747"	"10.292"	"10.204"	"39.071"	"210.16"	"185.071"	"151.5"	"16.363"	"13.59"	"16.933"
"1958"	"16.905"	"3.135"	"12.086"	"3.785"	"4.37"	"32.945"	"304.95"	"246.673"	"221.701"	"22.73"	"3.347"	"13.375"
"1959"	"31.31"	"6.33"	"6.541"	"2.786"	"20.608"	"19.15"	"213.525"	"238.049"	"82.969"	"12.811"	"18.195"	"0"
"1960"	"16.857"	"0.078"	"20.342"	"7.707"	"1.802"	"34.009"	"191.641"	"257.222"	"57.346"	"46.478"	"0"	"2.258"
"1961"	"32.911"	"32.599"	"0.935"	"6.683"	"17.121"	"57.077"	"238.934"	"407.217"	"96.166"	"48.092"	"1.024"	"9.98"
"1962"	"30.801"	"15.041"	"12.103"	"1.945"	"8.383"	"38.524"	"200.848"	"160.351"	"179.471"	"0.239"	"8.211"	"12.285"
"1963"	"3.408"	"8.861"	"13.319"	"7.275"	"19.684"	"74.067"	"99.775"	"246.163"	"186.235"	"2.782"	"8.545"	"15.03"
"1964"	"6.996"	"2.103"	"5.455"	"5.592"	"20.474"	"33.593"	"446.384"	"283.23"	"140.031"	"0.009"	"0.833"	"10.175"
"1965"	"8.563"	"15.678"	"7.725"	"17.343"	"9.878"	"7.234"	"174.104"	"180.97"	"87.256"	"4.166"	"3.236"	"0"
"1966"	"3.542"	"25.365"	"2.919"	"2.031"	"35.817"	"109.791"	"166.389"	"254.849"	"105.476"	"17.993"	"5.336"	"1.262"
"1967"	"0.295"	"4.966"	"42.043"	"2.418"	"1.687"	"26.744"	"196.562"	"476.569"	"82.542"	"10.246"	"9.851"	"39.036"
"1968"	"25.818"	"14.701"	"8.655"	"3.191"	"5.237"	"42.744"	"222.034"	"216.273"	"21.123"	"7.536"	"0"	"2.768"
"1969"	"8.258"	"7.526"	"14.817"	"9.006"	"22.389"	"40.732"	"231.931"	"174.695"	"192.972"	"1.093"	"0.824"	"0"
"1970"	"35.015"	"28.304"	"30.964"	"0.208"	"36.683"	"85.805"	"83.529"	"221.432"	"85.588"	"9.236"	"0"	"0"
"1971"	"12.042"	"11.85"	"4.964"	"12.934"	"41.6"	"80.162"	"222.181"	"357.302"	"121.971"	"23.211"	"7.287"	"0.009"
"1972"	"8.466"	"14.106"	"3.353"	"10.037"	"0.678"	"29.383"	"251.196"	"258.19"	"108.726"	"18.089"	"7.497"	"2.453"
"1973"	"22.907"	"9.802"	"7.171"	"0.259"	"15.827"	"53.006"	"138.266"	"309.695"	"73.64"	"26.899"	"0"	"6.167"
"1974"	"4.454"	"3.865"	"3.566"	"0.696"	"8.259"	"29.493"	"283.625"	"114.299"	"9.998"	"8.24"	"0"	"10.487"
"1975"	"28.855"	"11.911"	"13.184"	"0.622"	"1.947"	"87.522"	"343.3"	"248.373"	"219.461"	"20.737"	"0"	"0"
"1976"	"3.657"	"24.995"	"10.725"	"9.871"	"35.536"	"63.071"	"272.272"	"462.329"	"83.686"	"6.377"	"0"	"0.786"
"1977"	"27.148"	"1.177"	"0.658"	"29.766"	"37.732"	"84.657"	"323.374"	"131.422"	"98.324"	"20.947"	"0.242"	"10.704"
"1978"	"2.6"	"15.412"	"28.08"	"8.627"	"1.191"	"86.63"	"234.893"	"358.668"	"172.109"	"1.554"	"3.628"	"2.911"
"1979"	"16.498"	"33.258"	"22.166"	"5.931"	"21.976"	"61.054"	"134.647"	"100.932"	"42.81"	"3.748"	"11.339"	"4.878"
"1980"	"6.865"	"8.713"	"23.422"	"2.706"	"6.323"	"96.115"	"436.889"	"246.977"	"115.963"	"11.056"	"4.118"	"5.69"
"1981"	"41.783"	"13.21"	"23.394"	"0.414"	"8.48"	"101.505"	"305.022"	"87.392"	"50.426"	"3.278"	"45.097"	"7.075"
"1982"	"20.906"	"7.326"	"55.549"	"36.399"	"48.681"	"48.101"	"178.806"	"300.557"	"15.931"	"12.099"	"10.34"	"10.78"
"1983"	"48.346"	"16.365"	"14.662"	"37.041"	"52.683"	"61.247"	"223.049"	"208.985"	"158.856"	"23.624"	"0"	"5.474"
"1984"	"3.3"	"27.094"	"2.906"	"21.589"	"1.555"	"49.245"	"225.862"	"268.726"	"89.954"	"0.34"	"0"	"5.697"
"1985"	"6.664"	"0.583"	"1.045"	"15.836"	"14.8"	"63.152"	"338.208"	"261.096"	"93.705"	"42.432"	"0.528"	"24.937"
"1986"	"14.343"	"30.643"	"9.917"	"10.154"	"28.833"	"54.172"	"189.967"	"190.554"	"89.944"	"5.675"	"4.856"	"26.346"
"1987"	"21.967"	"18.721"	"13.508"	"5.123"	"40.081"	"21.183"	"51.431"	"147.414"	"27.846"	"4.503"	"0"	"5.323"
"1988"	"2.921"	"17.503"	"31.784"	"8.961"	"6.661"	"56.551"	"286.782"	"369.533"	"130.605"	"5.901"	"0.396"	"9.349"
"1989"	"57.044"	"5.096"	"25.189"	"0.633"	"7.907"	"42.835"	"140.775"	"156.537"	"87.592"	"2.477"	"9.483"	"4.28"
"1990"	"0.721"	"37.698"	"16.767"	"6.064"	"29.877"	"51.167"	"220.303"	"297.286"	"188.08"	"4.079"	"9.968"	"28.614"
"1991"	"0.648"	"30.788"	"8.53"	"13.802"	"31.149"	"56.545"	"76.706"	"312.342"	"69.558"	"0.821"	"14.902"	"14.954"
"1992"	"21.514"	"27.587"	"4.168"	"7.146"	"14.64"	"25.457"	"115.781"	"229.101"	"85.704"	"5.76"	"37.793"	"0.208"
"1993"	"13.505"	"9.826"	"8.817"	"7.823"	"17.506"	"127.455"	"287.036"	"123.829"	"189.757"	"0.009"	"0"	"0"
"1994"	"18.47"	"3.737"	"16.244"	"8.141"	"28.125"	"47.347"	"340.774"	"239.363"	"51.662"	"0.924"	"0"	"2.382"
"1995"	"45.109"	"34.67"	"34.679"	"4.347"	"0.97"	"42.797"	"117.871"	"449.687"	"162.339"	"1.254"	"9.973"	"0.708"
"1996"	"19.357"	"20.816"	"7.609"	"3.143"	"15.852"	"157.566"	"167.036"	"310.045"	"121.057"	"14.127"	"0"	"0"
"1997"	"13.32"	"4.037"	"9.484"	"40.041"	"34.746"	"131.056"	"128.303"	"200.896"	"60.339"	"32.783"	"21.617"	"8.652"
"1998"	"4.834"	"22.246"	"27.763"	"11.98"	"11.904"	"58.267"	"197.161"	"248.614"	"139.524"	"32.748"	"15.68"	"0.343"
"1999"	"30.77"	"3.019"	"1.443"	"0"	"14.099"	"70.149"	"94.266"	"92.233"	"86.055"	"13.269"	"0"	"2.334"
"2000"	"20.994"	"39.618"	"12.716"	"1.49"	"16.421"	"106.696"	"256.141"	"167.478"	"37.12"	"0.009"	"2.193"	"14.726"
"2001"	"9.627"	"9.448"	"5.771"	"22.868"	"48.79"	"84.512"	"183.163"	"146.348"	"36.167"	"2.422"	"0"	"0.748"
"2002"	"16.296"	"18.435"	"12.348"	"3.361"	"5.36"	"38.949"	"56.055"	"139.25"	"171.455"	"0.986"	"0.018"	"7.166"
