
"Year"	"Jan"	"Feb"	"Mar"	"Apr"	"May"	"Jun"	"Jul"	"Aug"	"Sep"	"Oct"	"Nov"	"Dec"
"1901"	"30.006"	"27.04"	"15.538"	"77.187"	"77.322"	"99.757"	"169.921"	"205.058"	"205.343"	"42.63"	"75.423"	"0"
"1902"	"6.085"	"0"	"0"	"6.613"	"48.873"	"162.522"	"287.481"	"400.533"	"193.846"	"28.825"	"6.105"	"46.98"
"1903"	"0.433"	"1.521"	"0.126"	"2.308"	"90.603"	"230.314"	"720.202"	"287.415"	"219.702"	"100.563"	"14.747"	"31.639"
"1904"	"0.316"	"0.869"	"11.699"	"0.488"	"142.905"	"201.966"	"195.564"	"483.088"	"222.795"	"89.774"	"0.226"	"18.899"
"1905"	"1.356"	"10.246"	"15.583"	"226.121"	"132.504"	"123.796"	"273.645"	"431.895"	"518.966"	"7.883"	"0.226"	"0"
"1906"	"17.171"	"21.645"	"6.043"	"0.488"	"23.259"	"450.863"	"353.599"	"296.184"	"160.448"	"46.424"	"2.339"	"5.387"
"1907"	"0.441"	"9.133"	"13.484"	"256.62"	"40.368"	"337.184"	"166.934"	"351.064"	"90.213"	"13.938"	"10.381"	"2.984"
"1908"	"10.83"	"1.083"	"4.705"	"19.591"	"60.11"	"238.388"	"234.221"	"407.582"	"280.494"	"12.188"	"0.226"	"1.016"
"1909"	"0.004"	"28.303"	"0.468"	"149.146"	"66.082"	"167.642"	"342.651"	"251.312"	"164.173"	"11.734"	"0.226"	"4.269"
"1910"	"0.187"	"0.015"	"0.149"	"38.018"	"40.414"	"239.859"	"470.496"	"323.594"	"292.245"	"247.83"	"28.161"	"0"
"1911"	"0.564"	"0.004"	"16.199"	"7.833"	"49.382"	"253.315"	"307.315"	"405.892"	"313.107"	"140.327"	"32.891"	"2.839"
"1912"	"0.516"	"36.308"	"0.022"	"51.401"	"47.729"	"40.811"	"432.257"	"350.286"	"315.867"	"46.073"	"21.567"	"1.98"
"1913"	"0"	"22.513"	"1.266"	"32.059"	"22.974"	"164.817"	"326.626"	"283.584"	"255.617"	"91.741"	"2.798"	"0.786"
"1914"	"0.003"	"2.415"	"16.212"	"72.994"	"53.671"	"398.736"	"349.722"	"277.515"	"387.328"	"21.914"	"0.275"	"13.401"
"1915"	"40.233"	"29.209"	"27.429"	"51.376"	"64.541"	"205.154"	"271.557"	"415.542"	"210.215"	"99.432"	"14.521"	"0.101"
"1916"	"0"	"3.705"	"0"	"23.604"	"34.936"	"135.309"	"262.371"	"340.186"	"235.892"	"85.672"	"20.309"	"0"
"1917"	"0.002"	"28.141"	"1.275"	"32.799"	"101.209"	"322.617"	"313.252"	"199.059"	"497.41"	"338.427"	"5.67"	"1.075"
"1918"	"29.181"	"0.998"	"9.906"	"27.331"	"89.511"	"279.946"	"278.561"	"466.852"	"188.497"	"16.257"	"8.897"	"12.34"
"1919"	"27.493"	"51.39"	"29.017"	"6.465"	"41.13"	"303.688"	"354.098"	"405.432"	"179.444"	"195.69"	"62.755"	"7.852"
"1920"	"8.897"	"1.065"	"7.653"	"45.94"	"21.377"	"138.94"	"264.275"	"264.81"	"103.173"	"46.751"	"0.605"	"0"
"1921"	"16.078"	"0.039"	"0"	"27.644"	"0.529"	"239.86"	"261.261"	"275.586"	"260.282"	"58.137"	"0.248"	"0"
"1922"	"3.191"	"0.013"	"0"	"6.2"	"43.581"	"239.712"	"435.164"	"245.903"	"272.157"	"89.563"	"47.781"	"0"
"1923"	"0"	"19.912"	"5.982"	"52.201"	"14.088"	"74.94"	"211.217"	"197.189"	"196.209"	"84.007"	"19.607"	"0.071"
"1924"	"36.84"	"0.324"	"2.196"	"34.309"	"37.21"	"128.515"	"202.906"	"361.55"	"361.014"	"108.312"	"58.101"	"0.609"
"1925"	"0"	"0.002"	"0.813"	"44.033"	"223.329"	"316.588"	"500.769"	"466.842"	"163.537"	"58.96"	"3.909"	"0.281"
"1926"	"33.572"	"0.151"	"26.356"	"86.36"	"60.491"	"237.167"	"336.893"	"668.669"	"388.307"	"67.97"	"0.365"	"0.113"
"1927"	"4.729"	"4.008"	"43.707"	"8.885"	"42.989"	"390.627"	"525.721"	"578.366"	"97.048"	"140.693"	"18.196"	"0.408"
"1928"	"0.227"	"1.884"	"11.302"	"21.301"	"34.403"	"154.912"	"601.239"	"284.378"	"402.283"	"112.888"	"0.359"	"1.242"
"1929"	"0.366"	"42.765"	"0.771"	"71.2"	"19.491"	"313.224"	"614.385"	"674.221"	"251.297"	"85.593"	"0.244"	"14.662"
"1930"	"0.002"	"1.331"	"33.949"	"44.078"	"28.433"	"262.335"	"254.625"	"213.948"	"285.202"	"87.963"	"92.108"	"2.72"
"1931"	"0.19"	"1.854"	"5.847"	"56.167"	"40.964"	"48.663"	"255.036"	"494.115"	"245.854"	"192.89"	"75.498"	"0.212"
"1932"	"0"	"18.607"	"0.783"	"39.165"	"37.991"	"108.002"	"493.916"	"418.781"	"273.491"	"15.426"	"71.461"	"0.002"
"1933"	"1.961"	"1.318"	"11.398"	"34.709"	"96.335"	"316.35"	"362.442"	"328.338"	"256.505"	"78.292"	"30.923"	"16.941"
"1934"	"0.288"	"0.026"	"1.054"	"28.375"	"2.942"	"315.635"	"497.651"	"588.447"	"288.212"	"146.236"	"25.004"	"0.254"
"1935"	"1.858"	"0.389"	"0.765"	"31.114"	"17.709"	"132.533"	"408.604"	"233.824"	"264.98"	"15.969"	"0.226"	"0.026"
"1936"	"0.178"	"56.061"	"13.162"	"5.662"	"104.893"	"432.777"	"585.087"	"412.334"	"274.259"	"102.32"	"33.052"	"1.368"
"1937"	"0"	"39.081"	"27.354"	"106.579"	"11.363"	"123.283"	"462.207"	"192.586"	"188.214"	"55.961"	"0.226"	"0.035"
"1938"	"1.169"	"17.309"	"22.771"	"47.363"	"69.181"	"247.029"	"259.094"	"280.194"	"264.033"	"280.383"	"31.63"	"0"
"1939"	"3.201"	"3.314"	"24.414"	"54.069"	"5.593"	"134.967"	"300.95"	"222.178"	"220.36"	"216.329"	"21.198"	"0.019"
"1940"	"0"	"15.1"	"24.246"	"33.728"	"86.122"	"276.322"	"312.172"	"390.713"	"66.534"	"118.3"	"27.17"	"4.603"
"1941"	"1.949"	"3.269"	"20.409"	"10.939"	"70.281"	"327.618"	"141.879"	"211.97"	"142.124"	"58.719"	"23.142"	"0.067"
"1942"	"0.251"	"25.575"	"1.748"	"104.222"	"53.657"	"128.48"	"478.295"	"362.531"	"153.13"	"21.197"	"8.087"	"0.142"
"1943"	"35.935"	"0.66"	"0.173"	"53.978"	"89.194"	"196.048"	"327.379"	"276.657"	"188.263"	"91.276"	"8.813"	"0"
"1944"	"12.342"	"21.147"	"67.692"	"76.536"	"64.852"	"102.143"	"466.389"	"300.124"	"278.213"	"123.012"	"10.191"	"0"
"1945"	"20.35"	"0.055"	"0"	"92.621"	"19.872"	"120.942"	"390.874"	"321.458"	"449.022"	"90.141"	"37.954"	"8.8"
"1946"	"0"	"6.11"	"3.792"	"90.913"	"61.837"	"191.437"	"531.425"	"366.275"	"229.246"	"102.116"	"11.069"	"0.046"
"1947"	"25.076"	"2.624"	"19.584"	"30.646"	"14.032"	"197.189"	"535.98"	"358.976"	"344.891"	"95.042"	"31.103"	"13.887"
"1948"	"1.765"	"7.94"	"15.2"	"49.139"	"34.339"	"185.188"	"218.184"	"244.305"	"331.085"	"48.22"	"100.564"	"0.002"
"1949"	"1.014"	"0.566"	"0.839"	"25.575"	"50.501"	"226.789"	"194.131"	"337.546"	"249.573"	"257.098"	"0.226"	"0"
"1950"	"0.03"	"21.121"	"13.03"	"24.228"	"21.386"	"112.648"	"359.848"	"273.001"	"88.543"	"21.559"	"76.879"	"0.262"
"1951"	"0.34"	"0.105"	"44.484"	"27.365"	"80.181"	"178.218"	"533.235"	"318.68"	"146.404"	"73.387"	"6.273"	"0.81"
"1952"	"0"	"3.957"	"3.718"	"60.551"	"42.06"	"100.832"	"499.17"	"276.112"	"373.075"	"85.742"	"0.226"	"21.668"
"1953"	"18.233"	"0.039"	"0"	"41.362"	"26.22"	"240.566"	"196.862"	"535.713"	"219.809"	"118.713"	"7.039"	"0"
"1954"	"0.022"	"0.096"	"12.603"	"45.745"	"39.745"	"92.943"	"417.874"	"400.806"	"431.528"	"106.02"	"0.226"	"2.906"
"1955"	"1.043"	"1.26"	"39.797"	"55.831"	"26.794"	"161.018"	"289.547"	"482.411"	"266.933"	"236.042"	"7.87"	"0"
"1956"	"0.085"	"4.004"	"0.072"	"8.008"	"95.893"	"242.73"	"525.324"	"469.607"	"147.565"	"65.55"	"6.88"	"0.451"
"1957"	"0.361"	"2.09"	"30.371"	"46.497"	"45.439"	"245.114"	"462.364"	"435.944"	"87.543"	"130.763"	"1.137"	"0.256"
"1958"	"2.408"	"3.039"	"12.191"	"57.9"	"72.687"	"71.749"	"381.789"	"327.529"	"325.638"	"161.9"	"25.812"	"0"
"1959"	"12.441"	"1.262"	"0"	"21.106"	"60.19"	"355.626"	"335.652"	"349.707"	"292.216"	"112.021"	"0.243"	"4.775"
"1960"	"1.432"	"0"	"18.767"	"37.058"	"110.055"	"276.613"	"335.434"	"277.618"	"203.917"	"131.403"	"0.951"	"1.137"
"1961"	"1.864"	"32.213"	"36.654"	"36.831"	"81.622"	"239.746"	"348.105"	"294.279"	"258.439"	"201.765"	"40.17"	"1.394"
"1962"	"6.462"	"21.764"	"2.277"	"83.39"	"37.724"	"188.782"	"361.736"	"357.556"	"214.759"	"33.04"	"12.334"	"42.04"
"1963"	"0.029"	"0.567"	"8.799"	"101.604"	"55.704"	"123.372"	"232.382"	"389.876"	"294.698"	"188.527"	"0.267"	"0"
"1964"	"0"	"36.442"	"4.964"	"94.889"	"21.261"	"140.937"	"198.538"	"448.565"	"239.239"	"143.125"	"1.59"	"0"
"1965"	"6.333"	"0.704"	"20.673"	"21.483"	"56.155"	"188.226"	"410.479"	"206.214"	"191.866"	"4.665"	"0.226"	"2.338"
"1966"	"50.679"	"0.045"	"3.003"	"40.417"	"31.848"	"173.401"	"276.546"	"305.335"	"232.713"	"36.368"	"12.737"	"7.489"
"1967"	"2.456"	"0"	"60.088"	"37.494"	"10.911"	"293.169"	"274.748"	"332.343"	"189.838"	"28.311"	"0.226"	"71.023"
"1968"	"16.539"	"11.204"	"30.472"	"105.466"	"44.744"	"202.342"	"347.13"	"119.314"	"384.174"	"157.707"	"22.553"	"2.154"
"1969"	"0.305"	"0"	"6.953"	"22.701"	"59.087"	"127.827"	"590.401"	"275.939"	"345.045"	"64.347"	"31.286"	"77.361"
"1970"	"4.975"	"5.67"	"37.627"	"68.512"	"42.191"	"300.681"	"259.476"	"582.453"	"175.36"	"17.476"	"0.251"	"0"
"1971"	"5.295"	"14.799"	"1.99"	"89.575"	"127.132"	"245.184"	"195.093"	"365.528"	"182.183"	"78.419"	"0.226"	"0"
"1972"	"0.032"	"17.231"	"0"	"11.017"	"28.226"	"167.944"	"415.159"	"234.866"	"314.89"	"67.496"	"68.417"	"0.244"
"1973"	"0.007"	"0.817"	"7.605"	"29.345"	"13.335"	"256.627"	"78.046"	"243.76"	"101.943"	"183.418"	"1.37"	"0.306"
"1974"	"0"	"0.111"	"7.327"	"18.307"	"65.987"	"395.862"	"235.481"	"169.408"	"124.648"	"124.997"	"24.001"	"0"
"1975"	"2.003"	"8.562"	"1.768"	"36.408"	"66.731"	"465.873"	"277.145"	"395.364"	"395.078"	"247.174"	"5.41"	"0"
"1976"	"0.16"	"0.398"	"7.624"	"61.236"	"85.176"	"123.069"	"410.814"	"389.31"	"201.234"	"5.172"	"48.944"	"3.596"
"1977"	"0.035"	"0.009"	"0.886"	"92.112"	"60.182"	"201.642"	"331.494"	"396.387"	"131.32"	"49.287"	"110.905"	"19.954"
"1978"	"17.616"	"13.155"	"15.973"	"63.722"	"48.233"	"266.859"	"344.297"	"401.375"	"201.969"	"44.05"	"43.294"	"2.618"
"1979"	"2.536"	"11.247"	"0.081"	"20.078"	"24.361"	"340.703"	"336.226"	"373.276"	"239.858"	"95.655"	"11.431"	"6.453"
"1980"	"0.538"	"0.337"	"4.937"	"30.858"	"31.37"	"388.714"	"436.03"	"230.659"	"232.28"	"32.806"	"1.907"	"2.068"
"1981"	"20.008"	"0.029"	"29.373"	"70.773"	"65.771"	"156.729"	"263.595"	"305.595"	"271.127"	"36.357"	"1.932"	"1.567"
"1982"	"2.001"	"4.025"	"11.877"	"50.635"	"35.072"	"207.665"	"366.488"	"400.834"	"208.806"	"32.973"	"33.785"	"0.022"
"1983"	"0.031"	"18.222"	"11.144"	"6.201"	"59.502"	"200.169"	"334.753"	"321.128"	"204.415"	"79.283"	"3.621"	"5.58"
"1984"	"6.901"	"9.641"	"3.576"	"13.506"	"71.534"	"274.979"	"369.985"	"295.046"	"118.646"	"42.943"	"0.422"	"0.182"
"1985"	"31.099"	"0.167"	"3.515"	"4.81"	"33.838"	"340.157"	"299.547"	"356.036"	"220.024"	"205.882"	"0.845"	"1.943"
"1986"	"27.387"	"20.735"	"1.651"	"40.803"	"26.664"	"240.486"	"305.056"	"443.289"	"111.523"	"41.955"	"64.887"	"9.391"
"1987"	"3.01"	"0.358"	"15.354"	"21.519"	"72.795"	"158.388"	"241.507"	"324.476"	"88.565"	"56.392"	"26.934"	"0.984"
"1988"	"0.009"	"4.738"	"3.144"	"60.395"	"78.63"	"185.934"	"426.421"	"275.287"	"184.703"	"33.963"	"10.222"	"2.012"
"1989"	"0"	"0"	"36.781"	"9.36"	"72.465"	"200.348"	"307.734"	"362.348"	"219.858"	"20.426"	"0.459"	"3.776"
"1990"	"3.032"	"46.856"	"50.527"	"15.681"	"174.645"	"284.701"	"353.713"	"545.869"	"181.181"	"241.57"	"24.598"	"6.035"
"1991"	"10.955"	"0.24"	"12.463"	"36.435"	"73.643"	"397.204"	"411.175"	"276.745"	"220.368"	"59.685"	"18.847"	"1.259"
"1992"	"4.878"	"0.895"	"0"	"13.102"	"54.161"	"211.632"	"383.616"	"359.119"	"152.32"	"35.748"	"29.324"	"0"
"1993"	"0.136"	"0.695"	"16.946"	"18.016"	"84.532"	"208.411"	"334.678"	"214.67"	"256.762"	"175.73"	"0.337"	"0.286"
"1994"	"2.142"	"3.241"	"15.713"	"21.011"	"103.061"	"161.833"	"448.725"	"368.581"	"194.403"	"81.215"	"16.861"	"0"
"1995"	"7.548"	"0.085"	"48.579"	"23.424"	"91.679"	"179.161"	"447.858"	"240.507"	"232.734"	"157.805"	"21.508"	"0"
"1996"	"7.031"	"1.213"	"8.483"	"69.996"	"7.957"	"128.158"	"292.639"	"265.662"	"128.681"	"50.545"	"28.494"	"0.626"
"1997"	"14.843"	"0.11"	"52.071"	"66.443"	"16.652"	"68.234"	"238.594"	"220.19"	"205.472"	"19.042"	"77.486"	"38.806"
"1998"	"1.962"	"20.945"	"2.347"	"29.7"	"72.597"	"156.347"	"266.187"	"174.171"	"174.782"	"164.457"	"101.592"	"0"
"1999"	"0.253"	"0.764"	"0"	"0.803"	"72.879"	"229.764"	"167.506"	"659.403"	"191.692"	"90.038"	"1.094"	"0.036"
"2000"	"0.021"	"39.394"	"0"	"26.834"	"52.585"	"371.115"	"244.474"	"353.3"	"107.573"	"107.287"	"0.305"	"0.045"
"2001"	"0.726"	"0"	"10.273"	"46.842"	"96.274"	"281.494"	"343.846"	"462.164"	"116.644"	"73.46"	"55.101"	"0.128"
"2002"	"51.888"	"0.611"	"6.268"	"45.778"	"60.382"	"204.659"	"221.575"	"432.274"	"79.95"	"25.818"	"1.814"	"0"
