
"Year"	"Jan"	"Feb"	"Mar"	"Apr"	"May"	"Jun"	"Jul"	"Aug"	"Sep"	"Oct"	"Nov"	"Dec"
"1901"	"18.428"	"22.215"	"26.938"	"31.725"	"31.368"	"31.261"	"29.573"	"29.054"	"29.104"	"28.346"	"23.33"	"19.448"
"1902"	"19.975"	"22.182"	"28.321"	"29.682"	"30.745"	"30.659"	"29.14"	"29.393"	"29.36"	"27.502"	"23.056"	"19.247"
"1903"	"19.641"	"21.636"	"27.092"	"31.504"	"32.734"	"30.545"	"30.041"	"28.795"	"28.928"	"27.706"	"22.928"	"18.71"
"1904"	"19.11"	"21.976"	"27.602"	"31.525"	"30.555"	"30.037"	"28.737"	"29.073"	"29.167"	"27.483"	"23.145"	"19.922"
"1905"	"18.808"	"19.771"	"25.238"	"28.521"	"30.173"	"32.141"	"29.14"	"29.01"	"28.942"	"27.701"	"23.308"	"19.485"
"1906"	"18.815"	"21.675"	"25.174"	"31.805"	"32.256"	"30.913"	"29.632"	"28.77"	"29.308"	"27.497"	"23.412"	"19.934"
"1907"	"20.258"	"21.786"	"25.193"	"29.078"	"30.937"	"30.196"	"29.166"	"28.951"	"29.187"	"27.805"	"23.409"	"19.192"
"1908"	"18.263"	"22.187"	"27.532"	"33.008"	"31.509"	"30.357"	"28.962"	"28.777"	"29.105"	"27.727"	"22.806"	"18.789"
"1909"	"20.628"	"22.192"	"28.479"	"29.012"	"31.565"	"29.321"	"29.147"	"28.233"	"29.081"	"27.589"	"24.045"	"19.631"
"1910"	"18.912"	"21.678"	"26.932"	"30.565"	"31.342"	"29.795"	"28.976"	"28.767"	"29.045"	"27.304"	"22.792"	"18.482"
"1911"	"20.749"	"21.557"	"26.289"	"30.325"	"31.511"	"29.619"	"29.549"	"28.814"	"28.807"	"27.502"	"23.406"	"18.188"
"1912"	"19.694"	"23.103"	"27.114"	"29.277"	"30.874"	"30.464"	"29.078"	"28.79"	"29.179"	"27.441"	"22.767"	"18.909"
"1913"	"19.215"	"22.293"	"25.901"	"31.823"	"30.401"	"28.536"	"29.194"	"28.494"	"29.08"	"26.943"	"22.392"	"18.836"
"1914"	"19.257"	"22.888"	"26.785"	"28.917"	"30.399"	"29.673"	"28.98"	"28.671"	"28.909"	"26.902"	"23.307"	"19.651"
"1915"	"19.848"	"22.123"	"26.135"	"30.843"	"31.143"	"29.873"	"29.561"	"29.354"	"28.87"	"28.79"	"24.994"	"19.532"
"1916"	"18.999"	"22.263"	"28.282"	"30.94"	"33.032"	"29.376"	"29.117"	"28.7"	"28.974"	"27.791"	"23.414"	"18.789"
"1917"	"18.659"	"21.94"	"26.236"	"30.462"	"29.816"	"29.557"	"29.116"	"28.577"	"28.612"	"27.581"	"23.27"	"18.906"
"1918"	"18.102"	"21.921"	"27.64"	"29.683"	"30.242"	"28.458"	"29.944"	"28.531"	"29.229"	"27.721"	"23.488"	"18.996"
"1919"	"20.179"	"21.435"	"27.927"	"30.404"	"31.421"	"29.813"	"29.167"	"28.865"	"28.722"	"27.5"	"23.472"	"19.23"
"1920"	"19.712"	"21.919"	"26.636"	"30.529"	"31.462"	"31.693"	"29.459"	"28.874"	"28.982"	"27.806"	"23.653"	"19.332"
"1921"	"20.021"	"22.182"	"27.94"	"30.758"	"32.849"	"30.365"	"29.463"	"28.565"	"28.891"	"26.643"	"22.732"	"19.916"
"1922"	"19.721"	"22.642"	"28.232"	"31.636"	"32.17"	"29.257"	"29.259"	"28.676"	"28.535"	"26.687"	"23.337"	"19.485"
"1923"	"19.449"	"21.817"	"26.491"	"30.976"	"31.969"	"31.398"	"29.165"	"28.576"	"29.31"	"27.123"	"23.331"	"19.916"
"1924"	"19.616"	"22.281"	"28.765"	"31.943"	"32.298"	"32.013"	"29.291"	"28.834"	"28.371"	"27.847"	"23.053"	"19.053"
"1925"	"18.014"	"20.732"	"26.796"	"29.842"	"31.147"	"30.156"	"28.668"	"28.971"	"28.79"	"26.767"	"22.997"	"18.995"
"1926"	"18.784"	"22.501"	"25.711"	"29.629"	"31.267"	"32.147"	"29.07"	"28.644"	"28.69"	"27.188"	"22.2"	"19.818"
"1927"	"19.335"	"21.583"	"25.336"	"31.191"	"30.74"	"30.679"	"29.166"	"28.661"	"28.965"	"27.787"	"23.334"	"19.911"
"1928"	"19.802"	"22.677"	"28.162"	"30.437"	"30.987"	"29.464"	"29.062"	"29.054"	"29.527"	"27.885"	"23.505"	"19.965"
"1929"	"19.843"	"21.14"	"27.072"	"30.541"	"32.307"	"30.967"	"28.767"	"28.654"	"29.025"	"27.063"	"22.908"	"18.839"
"1930"	"18.255"	"21.879"	"27.374"	"30.763"	"31.421"	"30.489"	"28.871"	"28.697"	"29.19"	"27.937"	"22.892"	"18.737"
"1931"	"20.613"	"21.821"	"26.1"	"31.674"	"30.915"	"31.704"	"28.859"	"29.099"	"28.902"	"27.514"	"22.614"	"19.728"
"1932"	"20.495"	"21.313"	"27.918"	"30.746"	"31.717"	"30.682"	"28.871"	"28.687"	"28.976"	"28.143"	"23.436"	"20.054"
"1933"	"17.943"	"22.624"	"27.328"	"29.475"	"30.851"	"30.015"	"28.901"	"28.139"	"28.775"	"27.424"	"23.108"	"19.528"
"1934"	"18.754"	"21.677"	"27.348"	"30.944"	"32.065"	"30.112"	"29.308"	"28.698"	"29.105"	"27.199"	"22.453"	"19.689"
"1935"	"18.664"	"22.346"	"27.45"	"29.54"	"33.346"	"31.67"	"29.464"	"28.251"	"28.963"	"27.398"	"22.994"	"19.268"
"1936"	"18.712"	"22.458"	"27.975"	"31.421"	"30.247"	"29.132"	"29.008"	"29.062"	"28.491"	"27.181"	"23.631"	"19.991"
"1937"	"17.701"	"21.523"	"26.076"	"30.293"	"31.028"	"30.053"	"29.229"	"28.618"	"29.014"	"27.143"	"22.915"	"18.738"
"1938"	"20.596"	"20.506"	"29.555"	"32.488"	"29.606"	"29.678"	"29.124"	"28.6"	"29.431"	"27.983"	"22.593"	"18.977"
"1939"	"20.138"	"23.097"	"26.732"	"32.188"	"31.92"	"30.522"	"28.825"	"28.126"	"28.794"	"27.72"	"23.354"	"19.976"
"1940"	"18.939"	"22.003"	"25.497"	"30.807"	"31.452"	"30.96"	"29.01"	"28.657"	"29.032"	"28.044"	"24.966"	"20.002"
"1941"	"19.798"	"22.582"	"28.972"	"31.987"	"31.596"	"30.305"	"29.171"	"29.22"	"29.316"	"27.163"	"23.136"	"20.954"
"1942"	"19.564"	"22.121"	"28.215"	"30.442"	"32.973"	"31.838"	"29.297"	"28.181"	"28.197"	"27.522"	"24.412"	"19.7"
"1943"	"20.599"	"20.625"	"27.157"	"28.853"	"32.004"	"30.017"	"28.809"	"28.522"	"29.066"	"28.222"	"23.622"	"20.991"
"1944"	"19.835"	"21.94"	"26.418"	"29.882"	"33.064"	"31.456"	"28.908"	"28.636"	"29.324"	"27.248"	"23.174"	"20.929"
"1945"	"18.683"	"21.393"	"28.23"	"29.355"	"30.921"	"30.917"	"29.45"	"29.293"	"29.15"	"27.025"	"23.156"	"18.994"
"1946"	"19.449"	"24.016"	"27.448"	"27.851"	"30.639"	"30.369"	"28.927"	"28.879"	"28.777"	"27.128"	"24.254"	"20.18"
"1947"	"19.941"	"22.099"	"27.661"	"32.78"	"32.041"	"31.28"	"29.196"	"28.724"	"29.017"	"27.377"	"23.838"	"20.009"
"1948"	"20.882"	"22.522"	"26.23"	"30.657"	"31.122"	"30.878"	"28.931"	"28.49"	"29.093"	"27.543"	"24.025"	"19.001"
"1949"	"19.804"	"21.714"	"27.478"	"28.649"	"29.428"	"30.384"	"29.166"	"29.134"	"29.067"	"28.209"	"22.279"	"18.61"
"1950"	"19.982"	"22.189"	"26.865"	"31.052"	"31.922"	"30.242"	"28.867"	"28.374"	"29.155"	"27.259"	"22.832"	"19.669"
"1951"	"19.237"	"22.587"	"27.23"	"31.101"	"32.241"	"30.76"	"29.198"	"29.658"	"29.884"	"28.797"	"23.791"	"20.922"
"1952"	"20.315"	"23.713"	"26.792"	"29.181"	"31.243"	"30.798"	"28.746"	"28.979"	"29.201"	"28.024"	"23.759"	"20.106"
"1953"	"19.592"	"23.626"	"29.45"	"32.065"	"32.183"	"30.212"	"29.064"	"28.977"	"28.94"	"27.846"	"23.368"	"21.705"
"1954"	"18.791"	"24.683"	"27.689"	"33.133"	"32.24"	"29.688"	"29.307"	"28.921"	"29.161"	"26.782"	"22.03"	"20.122"
"1955"	"19.63"	"22.36"	"28.757"	"30.693"	"32.83"	"30.858"	"28.98"	"28.589"	"29.307"	"27.621"	"23.986"	"19.535"
"1956"	"20.324"	"21.722"	"27.929"	"31.228"	"31.783"	"28.823"	"28.841"	"28.776"	"28.712"	"27.63"	"23.315"	"20.622"
"1957"	"20.078"	"21.599"	"26.186"	"31.408"	"34.409"	"31.697"	"29.091"	"29.411"	"29.338"	"28.067"	"23.433"	"20.83"
"1958"	"21.32"	"22.675"	"28.145"	"31.832"	"33.119"	"32.563"	"29.807"	"29.032"	"29.155"	"28.571"	"24.357"	"21.009"
"1959"	"20.247"	"21.629"	"27.092"	"31.422"	"32.399"	"30.305"	"29.473"	"28.841"	"28.622"	"27.642"	"23.09"	"19.85"
"1960"	"19.478"	"24.045"	"26.294"	"32.373"	"32.511"	"31.169"	"28.643"	"29.193"	"29.042"	"27.93"	"22.701"	"20.087"
"1961"	"20.254"	"20.717"	"28.774"	"31.777"	"32.046"	"30.341"	"29.087"	"29.113"	"28.982"	"27.481"	"22.472"	"18.031"
"1962"	"18.445"	"22.754"	"27.571"	"31.056"	"31.419"	"30.397"	"30.114"	"29.069"	"29.173"	"26.894"	"23.04"	"20.33"
"1963"	"18.768"	"24.113"	"27.536"	"30.105"	"30.128"	"30.211"	"29.437"	"29.273"	"29.255"	"28.055"	"24.349"	"20.324"
"1964"	"20.117"	"23.439"	"29.096"	"30.83"	"30.717"	"31.492"	"28.548"	"29.015"	"29.229"	"27.97"	"23.964"	"20.626"
"1965"	"20.382"	"22.505"	"25.67"	"30.258"	"32.36"	"31.612"	"29.062"	"28.473"	"28.932"	"27.625"	"24.146"	"19.85"
"1966"	"19.681"	"24.338"	"27.94"	"32.115"	"33.1"	"30.686"	"29.524"	"28.935"	"28.751"	"27.423"	"24.466"	"19.467"
"1967"	"20.107"	"23.545"	"26.371"	"29.155"	"31.83"	"31.08"	"29.355"	"28.636"	"28.675"	"27.603"	"22.924"	"21.44"
"1968"	"19.578"	"21.911"	"27.631"	"30.524"	"32.413"	"28.928"	"28.878"	"28.8"	"29.886"	"27.248"	"23.435"	"20.928"
"1969"	"19.214"	"23.374"	"28.907"	"31.266"	"31.279"	"30.912"	"29.303"	"28.269"	"28.824"	"27.618"	"24.298"	"20.038"
"1970"	"19.783"	"22.796"	"27.323"	"31.403"	"32.33"	"30.075"	"29.184"	"28.92"	"28.687"	"27.598"	"23.116"	"19.212"
"1971"	"19.594"	"22.031"	"26.255"	"27.885"	"28.658"	"28.836"	"28.101"	"27.593"	"28.99"	"27.499"	"22.648"	"19.772"
"1972"	"19.301"	"19.633"	"27.288"	"30.701"	"33.231"	"30.821"	"29.222"	"28.351"	"28.498"	"27.473"	"23.346"	"20.062"
"1973"	"20.449"	"23.455"	"26.171"	"31.566"	"30.159"	"29.449"	"29.191"	"28.666"	"28.373"	"27.516"	"23.489"	"19.357"
"1974"	"18.611"	"21.604"	"26.799"	"30.339"	"30.46"	"30.458"	"28.662"	"28.905"	"28.663"	"28.082"	"24.114"	"18.527"
"1975"	"19.254"	"22.367"	"27.412"	"30.968"	"31.623"	"30.376"	"28.039"	"28.716"	"28.579"	"28.546"	"23.296"	"19.127"
"1976"	"19.539"	"23.026"	"28.057"	"30.561"	"29.975"	"30.498"	"29.386"	"28.449"	"28.788"	"28.235"	"25.405"	"19.789"
"1977"	"19.276"	"22.287"	"28.881"	"29.832"	"29.018"	"29.26"	"29.076"	"29.202"	"29.321"	"27.475"	"24.786"	"19.052"
"1978"	"18.548"	"21.923"	"26.186"	"29.368"	"30.598"	"29.729"	"29.276"	"29.156"	"28.528"	"27.976"	"24.867"	"20.392"
"1979"	"20.545"	"21.201"	"26.909"	"30.82"	"33.211"	"31.036"	"29.972"	"29.525"	"28.231"	"28.168"	"26.307"	"20.532"
"1980"	"19.649"	"22.476"	"26.947"	"32.055"	"30.411"	"29.219"	"28.522"	"28.297"	"29.581"	"27.348"	"24.149"	"20.819"
"1981"	"19.415"	"22.364"	"26.318"	"28.002"	"29.169"	"30.664"	"28.516"	"28.83"	"28.684"	"27.829"	"23.798"	"19.712"
"1982"	"20.608"	"22.178"	"25.464"	"29.928"	"32.71"	"30.389"	"30.605"	"28.759"	"29.633"	"28.297"	"23.537"	"19.799"
"1983"	"19.416"	"21.936"	"27.378"	"30.168"	"30.762"	"31.844"	"29.992"	"29.158"	"29.363"	"27.708"	"24.29"	"19.632"
"1984"	"19.348"	"21.129"	"27.969"	"31.14"	"31.743"	"29.34"	"29.061"	"28.822"	"28.84"	"28.365"	"22.965"	"20.201"
"1985"	"20.454"	"22.188"	"28.795"	"31.858"	"30.627"	"30.758"	"28.601"	"29.118"	"28.76"	"27.746"	"24.025"	"21.498"
"1986"	"20.408"	"22.976"	"27.63"	"30.391"	"30.195"	"31.171"	"28.866"	"29.071"	"28.622"	"26.846"	"24.29"	"20.88"
"1987"	"19.842"	"23.521"	"27.297"	"30.361"	"31.153"	"31.544"	"29.27"	"29.269"	"29.451"	"28.529"	"24.757"	"21.286"
"1988"	"20.443"	"23.374"	"27.262"	"31.241"	"31.414"	"29.779"	"29.536"	"29.316"	"29.854"	"28.808"	"24.478"	"21.936"
"1989"	"18.707"	"23.111"	"27.28"	"32.122"	"31.707"	"29.975"	"29.392"	"29.22"	"29.166"	"28.293"	"24.693"	"20.06"
"1990"	"19.87"	"23.254"	"25.269"	"29.785"	"30.37"	"30.752"	"29.068"	"29.906"	"29.316"	"26.636"	"25.158"	"20.709"
"1991"	"19.002"	"24.105"	"28.125"	"30.444"	"32.143"	"30.178"	"29.94"	"29.429"	"29.486"	"27.801"	"23.887"	"19.591"
"1992"	"18.918"	"21.536"	"28.176"	"31.865"	"30.344"	"31.162"	"29.079"	"29.341"	"29.324"	"27.909"	"24.484"	"19.716"
"1993"	"19.617"	"23.597"	"26.154"	"29.452"	"30.225"	"30.419"	"29.725"	"28.954"	"28.911"	"28.15"	"24.465"	"20.798"
"1994"	"20.389"	"21.866"	"27.601"	"29.981"	"32.126"	"30.186"	"29.826"	"29.22"	"29.204"	"27.993"	"24.294"	"20.359"
"1995"	"18.742"	"22.22"	"27.097"	"31.29"	"32.213"	"30.794"	"29.022"	"29.107"	"28.996"	"28.043"	"24.489"	"20.597"
"1996"	"19.892"	"22.234"	"28.131"	"30.311"	"32.298"	"29.722"	"29.684"	"28.53"	"29.766"	"27.495"	"24.055"	"20.065"
"1997"	"19.202"	"21.387"	"27.837"	"29.268"	"31.594"	"31.056"	"29.291"	"29.223"	"28.58"	"27.751"	"24.941"	"20.092"
"1998"	"18.486"	"22.864"	"25.671"	"30.542"	"31.982"	"32.254"	"29.597"	"29.434"	"29.589"	"29.365"	"25.209"	"21.083"
"1999"	"20.067"	"24.187"	"28.673"	"33.003"	"31.482"	"30.406"	"29.106"	"28.898"	"28.832"	"28.247"	"24.477"	"21.556"
"2000"	"20.087"	"22.166"	"27.012"	"30.946"	"31.143"	"30.201"	"29.227"	"29.475"	"29.003"	"28.01"	"25.086"	"20.092"
"2001"	"19.428"	"23.358"	"27.619"	"31.688"	"31.626"	"29.766"	"29.173"	"29.717"	"29.935"	"28.707"	"25.59"	"20.741"
"2002"	"20.36"	"23.722"	"28.236"	"30.703"	"31.863"	"30.451"	"29.952"	"28.898"	"29.102"	"27.991"	"24.294"	"20.655"
