
"Year"	"Jan"	"Feb"	"Mar"	"Apr"	"May"	"Jun"	"Jul"	"Aug"	"Sep"	"Oct"	"Nov"	"Dec"
"1901"	"23.088"	"1.591"	"28.251"	"223.242"	"141.313"	"623.774"	"415.628"	"416.462"	"302.848"	"156.618"	"97.018"	"8.656"
"1902"	"0.456"	"0.394"	"163.666"	"415.218"	"316.183"	"613.451"	"449.847"	"440.697"	"318.236"	"46.985"	"0.777"	"0.208"
"1903"	"6.908"	"26.648"	"104.94"	"119.889"	"354.138"	"738.252"	"293.76"	"616.802"	"374.372"	"162.065"	"22.701"	"0.208"
"1904"	"0.946"	"36.371"	"19.552"	"317.59"	"512.742"	"801.794"	"589.571"	"454.929"	"200.742"	"134.113"	"18.907"	"1.087"
"1905"	"11.282"	"8.464"	"83.988"	"218.114"	"429.413"	"351.568"	"299.649"	"780.236"	"346.39"	"54.802"	"11.5"	"10.313"
"1906"	"8.357"	"34.521"	"54.521"	"149.675"	"275.204"	"446.016"	"537.151"	"314.761"	"381.719"	"217.471"	"13.465"	"0.208"
"1907"	"28.627"	"30.252"	"176.297"	"311.517"	"341.509"	"741.848"	"599.329"	"311.914"	"360.348"	"10.844"	"0.449"	"6.192"
"1908"	"5.612"	"8.654"	"18.253"	"203.533"	"538.073"	"548.773"	"350.328"	"389.615"	"257.213"	"32.033"	"9.654"	"0.176"
"1909"	"2.3"	"3.17"	"0.832"	"220.369"	"439.992"	"829.906"	"492.587"	"307.424"	"190.375"	"172.65"	"3.487"	"1.75"
"1910"	"5.834"	"13.101"	"98.892"	"226.28"	"328.15"	"539.315"	"620.65"	"301.53"	"74.68"	"149.075"	"16.959"	"0.337"
"1911"	"32.664"	"3.795"	"34.339"	"187.68"	"446.008"	"622.638"	"464.016"	"577.42"	"487.824"	"184.718"	"20.314"	"0.177"
"1912"	"0.606"	"42.665"	"79.732"	"366.611"	"353.65"	"776.711"	"579.456"	"619.467"	"146.612"	"89.61"	"27.79"	"2.646"
"1913"	"0.804"	"45.835"	"70.785"	"200.382"	"480.838"	"550.17"	"426.136"	"364.646"	"278.983"	"297.675"	"2.132"	"43.781"
"1914"	"0.208"	"36.331"	"15.871"	"335.323"	"302.985"	"512.797"	"591.825"	"602.401"	"308.533"	"23.038"	"17.856"	"1.524"
"1915"	"0.916"	"39.727"	"101.296"	"230.422"	"797.191"	"825.264"	"627.5"	"455.299"	"191.329"	"22.058"	"3.353"	"0.277"
"1916"	"1.535"	"7.824"	"54.462"	"192.063"	"269.406"	"369.676"	"352.856"	"452.13"	"217.091"	"316.128"	"28.739"	"0.186"
"1917"	"0.325"	"35.92"	"27.614"	"216.118"	"152.11"	"604.257"	"1042.289"	"511.606"	"487.875"	"227.636"	"44.362"	"0.117"
"1918"	"0.302"	"15.307"	"49.166"	"104.199"	"300.608"	"720.818"	"778.161"	"746.753"	"373.811"	"92.984"	"2.267"	"0.151"
"1919"	"10.611"	"6.096"	"8.806"	"197.939"	"235.334"	"574.071"	"536.952"	"317.423"	"456.304"	"77.812"	"23.297"	"0.117"
"1920"	"13.008"	"16.928"	"126.343"	"197.142"	"291.58"	"546.725"	"422.458"	"335.102"	"371.525"	"82.676"	"0.581"	"0.278"
"1921"	"33.406"	"16.303"	"94.287"	"455.417"	"404.862"	"596.442"	"848.346"	"543.649"	"175.741"	"105.007"	"12.01"	"0.947"
"1922"	"7.62"	"3.022"	"4.68"	"64.628"	"312.092"	"506.931"	"545.282"	"608.653"	"256.283"	"84.286"	"2.775"	"3.568"
"1923"	"0.208"	"34.817"	"3.045"	"210.303"	"385.767"	"868.912"	"327.625"	"458.883"	"149.928"	"28.209"	"9.896"	"8.338"
"1924"	"4.544"	"14.933"	"2.884"	"191.469"	"421.878"	"557.145"	"616.801"	"469.608"	"451.216"	"18.672"	"74.086"	"0.143"
"1925"	"3.86"	"4.35"	"24.529"	"216.951"	"597.964"	"404.602"	"690.52"	"200.148"	"327.991"	"75.538"	"1.325"	"0.208"
"1926"	"12.174"	"3.23"	"174.448"	"150.702"	"275.518"	"343.07"	"504.421"	"296.951"	"113.149"	"168.981"	"1.221"	"7.313"
"1927"	"31.085"	"59.259"	"88.302"	"169.479"	"294.031"	"569.986"	"551.503"	"587.871"	"431.741"	"76.094"	"18.691"	"0.182"
"1928"	"10.538"	"8.221"	"11.112"	"158.37"	"620.569"	"386.154"	"292.195"	"568.31"	"106.296"	"260.733"	"17.332"	"0.219"
"1929"	"16.427"	"0.538"	"84.979"	"198.394"	"659.657"	"677.415"	"391.087"	"581.594"	"174.678"	"142.969"	"7.702"	"2.168"
"1930"	"6.473"	"25.2"	"89.905"	"209.543"	"260.094"	"664.677"	"432.071"	"686.844"	"366.662"	"93.373"	"73.442"	"0.673"
"1931"	"0.716"	"10.023"	"67.263"	"227.747"	"482.836"	"481.177"	"920.015"	"602.038"	"306.869"	"132.368"	"2.118"	"10.866"
"1932"	"0.853"	"20.927"	"48.833"	"187.602"	"387.098"	"544.654"	"455.87"	"241.838"	"304.533"	"112.889"	"37.543"	"16.021"
"1933"	"13.753"	"14.897"	"2.119"	"227.632"	"396.536"	"278.1"	"594.405"	"353.161"	"135.797"	"315.173"	"1.703"	"0.151"
"1934"	"13.784"	"55.41"	"1.519"	"149.64"	"665.34"	"959.07"	"678.612"	"373.75"	"235.207"	"314.547"	"36.692"	"0.484"
"1935"	"1.007"	"33.582"	"60.848"	"45.604"	"360.229"	"698.188"	"360.33"	"486.258"	"260.77"	"3.421"	"0.756"	"1.819"
"1936"	"4.51"	"50.693"	"36.065"	"117.934"	"473.103"	"531.804"	"451.721"	"481.171"	"349.561"	"139.2"	"1.456"	"10.75"
"1937"	"0.244"	"34.609"	"21.017"	"127.146"	"523.957"	"491.824"	"466.488"	"823.218"	"492.115"	"100.981"	"9.422"	"0.158"
"1938"	"3.912"	"16.239"	"62.539"	"218.779"	"347.778"	"438.262"	"708.929"	"556.78"	"370.01"	"124.469"	"29.841"	"0.182"
"1939"	"0.46"	"7.638"	"2.188"	"35.952"	"318.484"	"522.959"	"573.578"	"183.066"	"465.121"	"200.545"	"0.339"	"0.182"
"1940"	"0.683"	"39.362"	"137.363"	"87.525"	"439.918"	"790.402"	"472.505"	"395.029"	"483.649"	"63.378"	"12.712"	"10.59"
"1941"	"2.68"	"10.848"	"40.158"	"306.287"	"753.776"	"787.737"	"282.538"	"324.691"	"270.615"	"170.91"	"14.18"	"3.889"
"1942"	"2.505"	"19.814"	"106.737"	"236.151"	"321.647"	"467.277"	"342.018"	"639.837"	"689.387"	"21.508"	"1.144"	"0"
"1943"	"14.445"	"9.832"	"169.977"	"357.948"	"478.253"	"437.428"	"536.604"	"367.494"	"521.207"	"51.133"	"10.677"	"2.851"
"1944"	"30.214"	"3.326"	"45.04"	"58.084"	"518.016"	"318.038"	"280.432"	"315.203"	"257.811"	"39.066"	"2.863"	"0.395"
"1945"	"39.97"	"12.446"	"48.45"	"189.853"	"521.192"	"697.76"	"525.939"	"391.46"	"219.223"	"186.913"	"0.449"	"0.294"
"1946"	"0"	"16.811"	"91.461"	"135.822"	"434.452"	"583.145"	"377.545"	"250.694"	"354.339"	"478.626"	"18.693"	"0"
"1947"	"0.349"	"0.856"	"80.436"	"161.057"	"445"	"622.482"	"812.636"	"427.727"	"334.321"	"115.628"	"0.406"	"6.274"
"1948"	"1.124"	"4.352"	"47.716"	"217.868"	"929.972"	"399.395"	"454.651"	"390.987"	"241.514"	"296.19"	"51.165"	"0.096"
"1949"	"13.307"	"4.137"	"19.619"	"374.135"	"463.796"	"515.5"	"346.759"	"647.981"	"757.217"	"127.679"	"4.533"	"0.351"
"1950"	"0.389"	"12.275"	"40.912"	"37.335"	"187.656"	"668.612"	"541.403"	"479.542"	"79.514"	"222.055"	"32.506"	"0.216"
"1951"	"3.003"	"2.322"	"27.78"	"193.733"	"294.187"	"687.158"	"634.624"	"387.628"	"190.535"	"310.429"	"24.422"	"0.497"
"1952"	"0.511"	"9.531"	"119.782"	"171.524"	"643.786"	"346.154"	"490.141"	"608.132"	"470.287"	"300.249"	"27.176"	"0"
"1953"	"25.098"	"4.993"	"158.32"	"120.086"	"310.722"	"609.595"	"530.742"	"273.521"	"495.627"	"37.299"	"0.427"	"13.155"
"1954"	"18.832"	"10.172"	"5.664"	"164.4"	"378.956"	"574.859"	"581.333"	"597.917"	"232.262"	"73.825"	"0.242"	"12.802"
"1955"	"3.375"	"5.266"	"89.269"	"252.641"	"280.925"	"676.531"	"782.692"	"366.364"	"243.267"	"121.284"	"24.484"	"10.942"
"1956"	"13.857"	"1.835"	"128.495"	"199.512"	"544.108"	"1055.189"	"467.779"	"536.535"	"254.143"	"114.206"	"23.837"	"3.085"
"1957"	"21.79"	"14.666"	"8.26"	"120.205"	"412.944"	"386.329"	"849.835"	"614.138"	"208.714"	"94.109"	"3.999"	"21.556"
"1958"	"17.269"	"26.905"	"11.39"	"162.601"	"568.632"	"248.555"	"480.319"	"598.906"	"270.355"	"73.163"	"1.321"	"1.172"
"1959"	"38.473"	"7.783"	"88.52"	"141.988"	"481.617"	"509.147"	"466.775"	"284.829"	"305.018"	"287.143"	"3.569"	"0.147"
"1960"	"0.289"	"2.9"	"41.78"	"28.467"	"503.075"	"402.332"	"682.623"	"308.971"	"405.117"	"74.531"	"8.928"	"2.496"
"1961"	"3.978"	"8.914"	"100.759"	"132.475"	"333.795"	"526.995"	"627.295"	"609.227"	"359.211"	"99.591"	"14.144"	"1.096"
"1962"	"11.265"	"13.512"	"15.056"	"87.395"	"340.615"	"732.952"	"312.364"	"332.8"	"91.915"	"105.584"	"0.419"	"2.018"
"1963"	"2.698"	"5.7"	"70.063"	"213.382"	"424.625"	"509.498"	"654.265"	"535.001"	"229.28"	"93.115"	"11.853"	"5.441"
"1964"	"2.266"	"15.529"	"81.476"	"241.527"	"387.911"	"708.49"	"642.522"	"329.886"	"211.354"	"190.065"	"8.269"	"0.23"
"1965"	"0.008"	"31.175"	"79.931"	"241.12"	"514.868"	"615.377"	"618.852"	"508.077"	"261.689"	"45.334"	"40.366"	"1.625"
"1966"	"21.482"	"5.413"	"30.077"	"127.178"	"333.663"	"835.419"	"412.597"	"590.836"	"285.435"	"58.421"	"44.115"	"4.99"
"1967"	"5.994"	"10.421"	"129.666"	"211.967"	"372.383"	"265.383"	"410.738"	"389.186"	"486.807"	"45.971"	"30.164"	"0.763"
"1968"	"4.601"	"6.406"	"42.154"	"187.12"	"583.042"	"678.247"	"546.254"	"437.386"	"171.004"	"172.716"	"1.208"	"0.097"
"1969"	"18.959"	"0.233"	"79.346"	"123.431"	"157.427"	"727.065"	"618.584"	"497.096"	"368.847"	"103.777"	"26.715"	"0.021"
"1970"	"20.469"	"19.86"	"39.037"	"107.067"	"284.993"	"786.349"	"725.416"	"586.519"	"286.593"	"262.608"	"31.939"	"0"
"1971"	"5.627"	"2.452"	"71.25"	"201.701"	"145.097"	"565.8"	"574.056"	"524.645"	"213.928"	"155.455"	"88.092"	"4.749"
"1972"	"8.579"	"24.164"	"76.242"	"258.154"	"363.506"	"565.152"	"514.943"	"417.621"	"210.793"	"45.262"	"20.898"	"0.07"
"1973"	"6.163"	"30.632"	"33.609"	"226.789"	"590.312"	"586.346"	"505.25"	"249.456"	"435.694"	"171.059"	"58.533"	"32.832"
"1974"	"21.454"	"0.345"	"30.261"	"208.47"	"354.316"	"690.15"	"1027.12"	"422.874"	"452.929"	"269.061"	"5.189"	"0.342"
"1975"	"5.557"	"6.877"	"17.4"	"120.746"	"406.433"	"485.529"	"690.26"	"312.424"	"344.146"	"161.795"	"1.481"	"0.77"
"1976"	"7.256"	"25.208"	"67.355"	"211.532"	"217.864"	"748.358"	"449.549"	"481.529"	"199.573"	"86.826"	"10.712"	"0.502"
"1977"	"9.814"	"3.785"	"78.428"	"508.104"	"417.503"	"746.379"	"972.331"	"494.76"	"185.113"	"346.558"	"42.078"	"10.069"
"1978"	"1.107"	"2.924"	"27.675"	"116.23"	"402.14"	"637.645"	"555.445"	"407.793"	"382.11"	"69.706"	"43.374"	"0.064"
"1979"	"1.28"	"9.527"	"15.791"	"98.853"	"347.025"	"451.746"	"646.214"	"202.431"	"285.286"	"201.136"	"20.434"	"39.719"
"1980"	"2.512"	"18.709"	"66.628"	"147.07"	"449.243"	"665.526"	"588.55"	"607.841"	"169.099"	"118.504"	"0.32"	"0.097"
"1981"	"29.586"	"12.863"	"58.386"	"110.425"	"382.391"	"207.788"	"605.678"	"398.723"	"314.863"	"6.724"	"1.843"	"27.868"
"1982"	"0"	"12.589"	"42.058"	"285.654"	"245.392"	"643.191"	"370.72"	"574.557"	"252.697"	"93.602"	"55.935"	"0.638"
"1983"	"9.814"	"38.916"	"73.456"	"223.391"	"495.829"	"434.66"	"435.973"	"459.818"	"467.885"	"249.639"	"0.259"	"14.155"
"1984"	"19.782"	"2.787"	"22.683"	"229.041"	"530.307"	"814.227"	"759.156"	"304.922"	"579.019"	"115.788"	"23.374"	"7.692"
"1985"	"0.876"	"27.621"	"65.866"	"212.425"	"286.079"	"445.72"	"847.194"	"247.914"	"431.726"	"43.177"	"3.975"	"20.489"
"1986"	"2.72"	"3.193"	"11.768"	"309.183"	"159.94"	"396.548"	"442.075"	"423.462"	"362.657"	"354.961"	"30.888"	"14.896"
"1987"	"10.801"	"20.759"	"129.912"	"316.699"	"216.366"	"301.818"	"867.696"	"397.63"	"570.87"	"206.284"	"7.184"	"0.455"
"1988"	"8.779"	"27.647"	"78.902"	"221.236"	"862.804"	"570.924"	"658.059"	"627.653"	"287.978"	"127.326"	"94.142"	"16.955"
"1989"	"3.876"	"40.46"	"17.937"	"220.193"	"410.475"	"646.883"	"798.82"	"381.194"	"565.162"	"178.386"	"3.042"	"4.118"
"1990"	"1.638"	"20.846"	"95.01"	"419.625"	"216.637"	"388.226"	"924.648"	"160.477"	"380.28"	"268.545"	"0.967"	"0.099"
"1991"	"32.504"	"9.79"	"60.699"	"167.173"	"801.73"	"431.25"	"407.115"	"618.617"	"341.345"	"478.653"	"0.684"	"7.758"
"1992"	"9.094"	"23.87"	"28.354"	"161.879"	"451.352"	"679.215"	"641.67"	"629.286"	"320.542"	"96.121"	"6.597"	"13.644"
"1993"	"35.77"	"47.046"	"94.598"	"222.544"	"526.189"	"838.06"	"587.316"	"650.894"	"432.031"	"48.443"	"2.846"	"0.064"
"1994"	"19.471"	"24.751"	"106.747"	"230.166"	"292.817"	"613.59"	"385.725"	"559.885"	"89.477"	"176.084"	"13.391"	"0.199"
"1995"	"14.979"	"14.071"	"37.375"	"173.026"	"232.057"	"657.316"	"854.64"	"498.785"	"562.175"	"43.045"	"58.322"	"4.269"
"1996"	"8.839"	"24.17"	"43.922"	"81.821"	"728.364"	"391.339"	"592.76"	"541.817"	"218.13"	"233.441"	"0.242"	"0"
"1997"	"13.048"	"19.329"	"35.107"	"230.591"	"337.175"	"404.776"	"388.877"	"387.193"	"402.716"	"23.192"	"6.175"	"25.395"
"1998"	"1.679"	"17.612"	"113.089"	"205.944"	"256.261"	"335.429"	"475.91"	"502.314"	"367.889"	"316.933"	"11.645"	"0"
"1999"	"0.161"	"0.991"	"15.075"	"36.818"	"516.067"	"535.838"	"605.784"	"657.641"	"346.171"	"206.336"	"41.241"	"0.82"
"2000"	"6.888"	"14.124"	"58.174"	"56.203"	"619.557"	"640.379"	"358.071"	"644.212"	"291.592"	"69.224"	"2.862"	"1.113"
"2001"	"1.716"	"12.429"	"24.884"	"207.819"	"499.157"	"623.697"	"432.246"	"332.537"	"347.93"	"276.404"	"15.126"	"0.008"
"2002"	"11.956"	"9.477"	"89.102"	"343.631"	"377.018"	"704.161"	"506.471"	"346.294"	"226.646"	"59.939"	"50.926"	"0"
