
"Year"	"Jan"	"Feb"	"Mar"	"Apr"	"May"	"Jun"	"Jul"	"Aug"	"Sep"	"Oct"	"Nov"	"Dec"
"1901"	"3.371"	"0"	"8.104"	"0.719"	"4.011"	"80.116"	"598.074"	"236.581"	"32.005"	"34.394"	"0.28"	"0"
"1902"	"5.196"	"0"	"0"	"0.55"	"0.597"	"95.021"	"638.814"	"517.94"	"453.978"	"22.593"	"16.066"	"10.589"
"1903"	"0.077"	"0"	"0"	"0"	"26.858"	"161.256"	"1091.25"	"309.624"	"425.935"	"4.884"	"0.28"	"0"
"1904"	"0"	"0.521"	"6.559"	"2.042"	"1.585"	"91.207"	"250.288"	"93.809"	"347.731"	"10.049"	"0.28"	"0.453"
"1905"	"0"	"0"	"0"	"0"	"2.013"	"65.192"	"748.786"	"98.037"	"102.206"	"0.313"	"0.771"	"0"
"1906"	"0"	"0.701"	"0"	"0"	"0"	"465.684"	"712.844"	"424.907"	"177.901"	"1.964"	"0.28"	"0"
"1907"	"0.099"	"0.01"	"0"	"3.588"	"0"	"150.863"	"710.808"	"496.739"	"30.785"	"0.313"	"2.902"	"0"
"1908"	"1.981"	"0.003"	"3.196"	"0.55"	"0"	"179.671"	"677.75"	"304.57"	"50.636"	"0.907"	"0.28"	"0"
"1909"	"0.094"	"0.009"	"0.303"	"9.627"	"5.795"	"328.149"	"562.034"	"292.059"	"282.71"	"4.093"	"0.28"	"17.753"
"1910"	"0.033"	"0"	"0"	"0"	"1.036"	"557.092"	"582.866"	"459.431"	"134.875"	"31.711"	"15.428"	"0"
"1911"	"11.049"	"0"	"9.281"	"0"	"0"	"212.635"	"129.804"	"140.434"	"133.02"	"1.164"	"44.172"	"0"
"1912"	"0"	"0.002"	"0"	"0.543"	"1.448"	"185.861"	"1103.072"	"387.3"	"31.729"	"17.842"	"98.032"	"0"
"1913"	"0"	"0.001"	"0.303"	"0"	"8.789"	"570.69"	"571.381"	"277.161"	"251.274"	"0.436"	"0.28"	"9.961"
"1914"	"0"	"0.301"	"0"	"0.935"	"5.938"	"423.899"	"498.645"	"207.596"	"432.196"	"13.74"	"43.661"	"0"
"1915"	"1.19"	"0.003"	"16.85"	"6.898"	"1"	"202.47"	"293.052"	"118.978"	"232.518"	"109.104"	"1.804"	"5.875"
"1916"	"0"	"0.003"	"0"	"0.179"	"4.869"	"209.253"	"533.24"	"715.967"	"530.959"	"63.74"	"32.269"	"0"
"1917"	"0.356"	"0.107"	"1.921"	"14.555"	"42.237"	"263.03"	"282.111"	"428.704"	"494.533"	"105.311"	"3.432"	"0"
"1918"	"0"	"0"	"1.591"	"0"	"30.167"	"97.742"	"299.027"	"151.917"	"21.282"	"0.329"	"10.308"	"0"
"1919"	"7.406"	"0"	"0"	"1.972"	"7.422"	"346.776"	"515.384"	"415.111"	"270.177"	"129.002"	"26.009"	"0.209"
"1920"	"3.112"	"0.432"	"0.626"	"0.374"	"43.38"	"204.169"	"568.248"	"208.387"	"79.616"	"0.313"	"0.28"	"0"
"1921"	"1.292"	"0"	"0"	"0"	"0"	"122.333"	"815.906"	"264.79"	"507.323"	"10.765"	"0.28"	"0"
"1922"	"0.829"	"0"	"0"	"0"	"0.796"	"290.671"	"503.676"	"85.727"	"354.069"	"23.031"	"33.143"	"7.378"
"1923"	"0"	"0.56"	"3.075"	"0.704"	"6.382"	"3.871"	"529.301"	"142.787"	"258.224"	"0.313"	"0.739"	"3.103"
"1924"	"0.765"	"0"	"0.448"	"0.179"	"5.457"	"124.29"	"349.365"	"392.922"	"321.015"	"59.894"	"0.28"	"11.317"
"1925"	"0"	"0"	"0"	"0"	"21.65"	"513.893"	"198.121"	"126.701"	"85.466"	"0.317"	"56.065"	"13.149"
"1926"	"13.458"	"0"	"0.626"	"4.877"	"1.035"	"37.779"	"734.132"	"532.708"	"271.427"	"0.313"	"0.28"	"0.879"
"1927"	"0"	"0.004"	"0"	"0"	"1.593"	"340.073"	"579.8"	"158.017"	"168.95"	"21.536"	"87.986"	"5.851"
"1928"	"0"	"0.029"	"1.942"	"0"	"0.995"	"191.21"	"675.876"	"319.359"	"368.889"	"60.574"	"19.834"	"29.547"
"1929"	"0.008"	"0.021"	"0"	"4.35"	"0"	"302.198"	"738.854"	"158.606"	"94.5"	"22.115"	"0.28"	"3.463"
"1930"	"0"	"0"	"0"	"0.106"	"6.07"	"404.344"	"482.395"	"152.715"	"396.297"	"60.493"	"4.615"	"0"
"1931"	"0.106"	"0"	"0"	"0"	"0"	"34.202"	"710.116"	"450.799"	"147.573"	"224.133"	"12.133"	"3.531"
"1932"	"0"	"0"	"3.426"	"2.042"	"0.381"	"78.095"	"857.569"	"118.138"	"323.196"	"45.181"	"0.28"	"0"
"1933"	"0"	"0.204"	"0"	"0.239"	"25.25"	"230.178"	"346.159"	"493.197"	"353.226"	"19.845"	"1.409"	"1.293"
"1934"	"0.309"	"0"	"0"	"0"	"0"	"336.564"	"415.482"	"486.508"	"326.279"	"0.314"	"40.504"	"1.196"
"1935"	"2.118"	"0.007"	"0"	"5.498"	"2.19"	"256.76"	"437.933"	"234.482"	"275.346"	"39.811"	"2.922"	"0"
"1936"	"0"	"0.004"	"6.833"	"0.763"	"9.937"	"315.838"	"126.769"	"85.499"	"377.302"	"0.381"	"134.845"	"0"
"1937"	"0"	"0.007"	"2.928"	"0.179"	"0"	"228.633"	"680.321"	"78.614"	"314.646"	"22.46"	"0.28"	"9.732"
"1938"	"0"	"0"	"1.591"	"0"	"13.477"	"440.482"	"535.549"	"366.252"	"112.95"	"124.768"	"0.28"	"0"
"1939"	"0"	"0"	"5.317"	"0.179"	"0"	"63.826"	"689.702"	"642.824"	"132.995"	"3.495"	"3.826"	"0.302"
"1940"	"0.693"	"0.026"	"2.862"	"4.778"	"4.217"	"256.733"	"289.528"	"416.703"	"264.492"	"231.189"	"31.047"	"8.12"
"1941"	"1.404"	"0.009"	"0"	"1.991"	"0.587"	"99.845"	"765.342"	"228.407"	"139.55"	"1.633"	"0.28"	"0"
"1942"	"0.897"	"0.159"	"0"	"0"	"0.001"	"231.933"	"1020.471"	"641.242"	"213.197"	"0.313"	"0.28"	"2.48"
"1943"	"0.712"	"0"	"0"	"0.897"	"42.633"	"244.431"	"616.347"	"70.093"	"331.064"	"206.432"	"0.28"	"0"
"1944"	"0.262"	"0"	"3.431"	"0.55"	"0.001"	"155.885"	"756.815"	"705.733"	"207.095"	"64.65"	"0.28"	"0"
"1945"	"10.314"	"0"	"0"	"0"	"0"	"81.781"	"821.777"	"367.742"	"704.561"	"2.963"	"1.959"	"0"
"1946"	"0"	"0.001"	"0"	"0.179"	"1.606"	"703.751"	"590.058"	"419.45"	"396.38"	"0.436"	"94.976"	"8.979"
"1947"	"0.108"	"0"	"0.432"	"11.846"	"2.424"	"43.763"	"663.423"	"579.098"	"763.208"	"22.531"	"0.28"	"7.775"
"1948"	"8.893"	"0.002"	"0.939"	"0.657"	"0.189"	"265.035"	"351.034"	"195.426"	"134.553"	"13.704"	"75.019"	"0.781"
"1949"	"0"	"0"	"0"	"0.179"	"6.99"	"127.71"	"639.279"	"279.026"	"478.007"	"38.453"	"2.902"	"0"
"1950"	"0"	"0"	"1.591"	"0"	"3.121"	"36.338"	"872.905"	"78.919"	"434.411"	"7.433"	"0.28"	"0.371"
"1951"	"0"	"0"	"0"	"0.179"	"1.821"	"147.096"	"612.911"	"163.676"	"29.018"	"10.705"	"11.201"	"0"
"1952"	"0"	"0"	"0"	"0.719"	"0.792"	"276.268"	"632.701"	"132.422"	"38.524"	"1.197"	"0.28"	"0"
"1953"	"11.326"	"0"	"0"	"0.179"	"0"	"134.098"	"422.315"	"491.796"	"209.596"	"20.302"	"0.28"	"0"
"1954"	"0.678"	"0.178"	"6.736"	"0.154"	"0"	"321.075"	"625.877"	"238.788"	"714.301"	"27.321"	"0.28"	"2.757"
"1955"	"1.501"	"0.003"	"0"	"0"	"0.189"	"237.599"	"250.749"	"572.138"	"401.222"	"78.401"	"0.28"	"0"
"1956"	"0.585"	"0"	"0"	"0.365"	"26.893"	"223.451"	"594.756"	"354.881"	"403.418"	"196.531"	"17.981"	"9.038"
"1957"	"0"	"0"	"0.939"	"0.179"	"10.12"	"287.913"	"464.799"	"387.521"	"87.199"	"6.217"	"9.845"	"0"
"1958"	"1.173"	"0"	"0.939"	"0.897"	"0.467"	"168.56"	"478.307"	"596.246"	"432.202"	"99.945"	"61.774"	"0.158"
"1959"	"1.111"	"0"	"0"	"1.473"	"2.697"	"269.986"	"1044.536"	"380.321"	"378.412"	"258.942"	"13.188"	"0"
"1960"	"2.038"	"0"	"2.881"	"0.333"	"31.469"	"272.286"	"319.949"	"357.934"	"244.292"	"9.251"	"0.28"	"0.209"
"1961"	"0.16"	"0.755"	"0"	"0.512"	"22.02"	"142.596"	"410.055"	"470.029"	"452.288"	"50.139"	"12.484"	"0.601"
"1962"	"0.765"	"0"	"8.88"	"2.965"	"12.366"	"46.66"	"601.631"	"190.659"	"408.882"	"0.313"	"14.282"	"27.148"
"1963"	"4.793"	"0.022"	"0.939"	"0"	"1.392"	"117.2"	"597.295"	"492.14"	"202.969"	"30.83"	"34.048"	"0.601"
"1964"	"0"	"0"	"4.16"	"0"	"1.632"	"246.499"	"874.417"	"446.223"	"346.629"	"3.554"	"6.198"	"0"
"1965"	"7.531"	"0"	"0"	"0"	"0.189"	"27.319"	"735.644"	"328.557"	"40.465"	"1.847"	"7.18"	"10.398"
"1966"	"1.143"	"0"	"0"	"0"	"2.346"	"150.385"	"646.211"	"84.781"	"223.665"	"1.822"	"36.16"	"5.168"
"1967"	"0"	"0"	"5.737"	"1.266"	"0.189"	"367.603"	"710.409"	"450.177"	"146.74"	"8.682"	"0.28"	"13.163"
"1968"	"0"	"0.001"	"7.005"	"0"	"0"	"96.549"	"528.618"	"462.664"	"147.798"	"42.994"	"0.28"	"0"
"1969"	"0.765"	"0"	"0"	"0"	"0"	"171.968"	"480.957"	"273.322"	"525.775"	"0.313"	"28.612"	"0"
"1970"	"0"	"0.002"	"2.843"	"0.245"	"13.192"	"573.157"	"300.552"	"496.708"	"485.868"	"6"	"0.28"	"0"
"1971"	"0"	"0"	"0"	"0"	"37.761"	"237.255"	"375.184"	"555.565"	"304.271"	"28.605"	"0.28"	"0"
"1972"	"0"	"0"	"0"	"0.26"	"1.926"	"68.201"	"293.973"	"296.802"	"30.328"	"1.432"	"21.447"	"0"
"1973"	"0.035"	"0.357"	"0"	"0"	"1.704"	"133"	"782.659"	"526.77"	"563.852"	"18.626"	"0.28"	"4.173"
"1974"	"0"	"0"	"0"	"0.167"	"81.591"	"45.116"	"274.02"	"318.852"	"137.269"	"30.847"	"0.28"	"0.262"
"1975"	"0"	"0.001"	"0"	"0"	"1.926"	"182.848"	"421.552"	"568.937"	"400.355"	"172.993"	"0.28"	"0"
"1976"	"0.14"	"0"	"0.237"	"0.012"	"0.112"	"429.767"	"570.813"	"799.745"	"173.053"	"0.313"	"119.836"	"4.285"
"1977"	"0"	"0.003"	"7.421"	"0.896"	"2.778"	"196.555"	"544.361"	"310.035"	"179.204"	"6.17"	"43.493"	"1.375"
"1978"	"0.131"	"0.015"	"1.573"	"8.194"	"2.262"	"302.206"	"366.198"	"450.792"	"110.029"	"28.267"	"48.696"	"30.525"
"1979"	"1.669"	"0.862"	"0.471"	"0"	"0.022"	"156.016"	"344.777"	"548.663"	"129.622"	"27.823"	"124.82"	"1.383"
"1980"	"0"	"0.005"	"0"	"0"	"0"	"539.121"	"356.313"	"452.095"	"34.754"	"0.313"	"3.542"	"14.998"
"1981"	"0.278"	"0"	"1.278"	"0.179"	"2.609"	"207.015"	"619.682"	"514.558"	"282.071"	"91.534"	"27.802"	"0"
"1982"	"2.026"	"0.003"	"0"	"0.897"	"24.511"	"64.404"	"401.427"	"289.055"	"110.441"	"12.563"	"90.928"	"0"
"1983"	"0"	"0"	"0"	"0.897"	"0.995"	"367.252"	"769.983"	"613.862"	"260.92"	"88.517"	"0.28"	"0"
"1984"	"0"	"0.001"	"0"	"0"	"0"	"159.533"	"382.69"	"434.571"	"348.011"	"61.117"	"0.28"	"1.166"
"1985"	"0"	"0"	"0"	"7.371"	"1.255"	"85.91"	"434.702"	"353.09"	"112.867"	"139.982"	"39.507"	"0"
"1986"	"0.024"	"0.002"	"0"	"0"	"4.798"	"409.999"	"436.796"	"381.189"	"99.83"	"7.463"	"0.706"	"13.343"
"1987"	"6.7"	"0.204"	"2.99"	"0.116"	"15.237"	"173.499"	"248.021"	"526.267"	"23.108"	"46.785"	"13.8"	"31.557"
"1988"	"0"	"0"	"0"	"7.962"	"1.279"	"184.073"	"774.657"	"346.803"	"437.717"	"40.21"	"1.201"	"0"
"1989"	"0.307"	"0"	"14.915"	"1.175"	"5.659"	"351.975"	"354.384"	"337.667"	"238.923"	"2.97"	"0.28"	"0.733"
"1990"	"0.024"	"0.11"	"0"	"0"	"32.786"	"210.092"	"589.932"	"725.057"	"236.987"	"29.426"	"16.69"	"18.454"
"1991"	"0"	"0"	"1.196"	"1.446"	"1.741"	"375.607"	"727.93"	"199.913"	"90.056"	"1.03"	"9.792"	"0"
"1992"	"0"	"0"	"0"	"0.056"	"10.048"	"170.549"	"355.993"	"369.25"	"431.2"	"26.421"	"2.378"	"0"
"1993"	"0"	"0"	"2.378"	"0"	"4.846"	"227.803"	"774.249"	"230.354"	"225.903"	"45.203"	"8.384"	"1.35"
"1994"	"7.17"	"0"	"4.011"	"1.734"	"4.673"	"492.286"	"676.011"	"468.082"	"461.637"	"16.836"	"3.832"	"0"
"1995"	"2.339"	"0"	"7.371"	"3.069"	"9.2"	"100.003"	"738.215"	"194.813"	"270.354"	"34.914"	"2.023"	"1.798"
"1996"	"1.917"	"0.001"	"1.778"	"1.494"	"5.274"	"223.043"	"987.536"	"313.81"	"247.209"	"80.297"	"2.613"	"0"
"1997"	"5.051"	"0"	"0"	"7.043"	"4.444"	"370.306"	"629.843"	"569.324"	"96.362"	"19.482"	"23.765"	"14.772"
"1998"	"1.011"	"0.001"	"2.99"	"0.344"	"6.513"	"176.397"	"651.065"	"368.737"	"383.721"	"52.366"	"21.258"	"0"
"1999"	"0"	"0.22"	"0"	"0"	"3.361"	"419.26"	"381.251"	"120.598"	"327.919"	"82.825"	"0.28"	"1.129"
"2000"	"0"	"0"	"0"	"0"	"27.629"	"223.896"	"582.678"	"227.016"	"75.158"	"13.961"	"5.379"	"1.493"
"2001"	"0.265"	"0"	"2.097"	"0"	"16.229"	"445.592"	"362.551"	"202.278"	"73.71"	"60.451"	"8.248"	"0"
"2002"	"0"	"0.174"	"5.843"	"10.387"	"1.943"	"417.015"	"89.817"	"334.147"	"150.926"	"1.959"	"1.825"	"0"
