
"Year"	"Jan"	"Feb"	"Mar"	"Apr"	"May"	"Jun"	"Jul"	"Aug"	"Sep"	"Oct"	"Nov"	"Dec"
"1901"	"19.814"	"20.632"	"26.649"	"29.709"	"31.622"	"31.284"	"28.341"	"26.321"	"27.044"	"27.832"	"24.268"	"22.286"
"1902"	"22.083"	"23.25"	"27.964"	"30.486"	"31.789"	"30.842"	"28.482"	"27.798"	"26.751"	"27.055"	"23.033"	"20.883"
"1903"	"20.811"	"20.977"	"24.574"	"28.789"	"30.902"	"31.042"	"28.341"	"27.11"	"26.614"	"26.363"	"21.987"	"20.417"
"1904"	"21.283"	"22.044"	"25.135"	"30.121"	"31.5"	"29.465"	"26.97"	"26.777"	"26.935"	"27.391"	"23.148"	"21.76"
"1905"	"19.904"	"19.689"	"24.387"	"27.856"	"32.493"	"30.695"	"27.133"	"27.108"	"26.974"	"27.263"	"24.493"	"21.106"
"1906"	"19.5"	"20.7"	"25.453"	"29.584"	"31.981"	"29.214"	"27.155"	"26.91"	"26.135"	"26.462"	"24.301"	"21.63"
"1907"	"21.329"	"22.096"	"25.452"	"28.341"	"30.302"	"30.255"	"28.839"	"25.717"	"26.742"	"27.665"	"24.715"	"20.405"
"1908"	"20.356"	"21.499"	"24.9"	"30.299"	"31.002"	"30.106"	"26.495"	"26.123"	"26.957"	"26.985"	"23.564"	"20.357"
"1909"	"20.893"	"22.358"	"27.147"	"28.735"	"31.491"	"29.268"	"26.733"	"26.487"	"26.353"	"26.185"	"23.626"	"21.373"
"1910"	"20.825"	"22.224"	"26.264"	"29.254"	"30.995"	"28.795"	"26.96"	"26.81"	"26.652"	"25.602"	"21.881"	"21.082"
"1911"	"22.063"	"21.923"	"24.712"	"28.994"	"31.908"	"28.815"	"28.134"	"26.807"	"26.458"	"27.688"	"24.483"	"23.176"
"1912"	"21.829"	"23.463"	"25.895"	"30.154"	"31.895"	"31.487"	"27.899"	"26.55"	"26.834"	"27.081"	"23.005"	"21.013"
"1913"	"20.492"	"22.671"	"24.688"	"30.322"	"30.838"	"28.775"	"27.163"	"26.256"	"27.154"	"27.852"	"24.215"	"21.885"
"1914"	"22.248"	"22.424"	"25.344"	"29.273"	"32.081"	"29.432"	"27.081"	"26.943"	"27.167"	"27.192"	"25.174"	"21.478"
"1915"	"21.312"	"21.429"	"26.206"	"29.5"	"31.964"	"31.838"	"28.942"	"27.017"	"27.804"	"27.511"	"24.855"	"21.593"
"1916"	"21.283"	"21.391"	"27.825"	"30.544"	"32.018"	"28.351"	"28.159"	"26.74"	"27.467"	"26.692"	"22.896"	"20.814"
"1917"	"21.742"	"22.22"	"25.913"	"28.541"	"29.64"	"28.627"	"26.86"	"26.876"	"26.647"	"25.966"	"22.321"	"21.076"
"1918"	"19.743"	"22.907"	"26.186"	"28.36"	"31.595"	"29.205"	"28.511"	"26.917"	"27.07"	"27.752"	"25.433"	"21.433"
"1919"	"21.812"	"22.329"	"26.763"	"29.473"	"31.391"	"29.192"	"27.022"	"26.413"	"27.091"	"26.596"	"24.844"	"21.226"
"1920"	"21.662"	"21.978"	"26.827"	"29.362"	"29.551"	"29.696"	"26.686"	"26.472"	"27.631"	"27.734"	"24.639"	"21.915"
"1921"	"21.603"	"22.26"	"27.828"	"30.963"	"31.844"	"29.996"	"28.581"	"26.708"	"26.091"	"26.706"	"23.077"	"22.451"
"1922"	"20.58"	"23.639"	"26.915"	"30.256"	"31.581"	"29.799"	"26.99"	"26.46"	"26.554"	"26.691"	"23.472"	"20.207"
"1923"	"21.305"	"21.411"	"26.827"	"29.47"	"30.798"	"31.539"	"27.323"	"26.087"	"27.005"	"26.315"	"23.432"	"22.714"
"1924"	"21.545"	"23.042"	"28.116"	"30.65"	"31.131"	"30.703"	"27.661"	"26.899"	"26.854"	"25.574"	"22.196"	"21.544"
"1925"	"18.855"	"20.989"	"26.827"	"31.052"	"30.748"	"28.502"	"26.832"	"27.136"	"27.544"	"28.396"	"24.944"	"21.785"
"1926"	"21.948"	"24.239"	"26.462"	"27.931"	"31.487"	"32.146"	"27.923"	"26.843"	"26.879"	"27.119"	"22.846"	"20.978"
"1927"	"20.123"	"21.646"	"25.631"	"29.126"	"30.781"	"29.6"	"26.633"	"26.048"	"26.944"	"26.64"	"21.465"	"21.626"
"1928"	"20.862"	"22.188"	"25.983"	"29.351"	"31.48"	"29.681"	"26.662"	"26.095"	"26.514"	"26.729"	"24.204"	"20.695"
"1929"	"19.955"	"21.639"	"27.453"	"29.733"	"31.753"	"29.478"	"27.151"	"26.197"	"27.106"	"26.615"	"24.744"	"20.972"
"1930"	"21.157"	"21.189"	"26.781"	"29.332"	"31.48"	"30.005"	"26.193"	"26.044"	"27.115"	"27.657"	"22.774"	"21.791"
"1931"	"22.136"	"22.376"	"25.648"	"30.53"	"31.704"	"31.388"	"27.656"	"26.634"	"26.628"	"25.999"	"23.325"	"21.445"
"1932"	"22.014"	"21.239"	"25.727"	"28.994"	"31.503"	"29.807"	"26.719"	"26.787"	"26.931"	"27.493"	"23.364"	"21.809"
"1933"	"20.905"	"22.845"	"26.586"	"29.335"	"29.789"	"28.994"	"27.167"	"26.247"	"26.372"	"26.372"	"23.863"	"21.088"
"1934"	"19.552"	"22.927"	"25.795"	"29.761"	"30.987"	"29.943"	"26.785"	"26.119"	"26.062"	"26.031"	"22.906"	"21.655"
"1935"	"19.271"	"22.221"	"25.607"	"27.682"	"31.225"	"30.004"	"26.719"	"26.099"	"25.932"	"26.623"	"23.475"	"21.665"
"1936"	"20.175"	"22.126"	"25.937"	"28.589"	"31.92"	"28.436"	"27.073"	"26.647"	"26.87"	"26.739"	"24.255"	"20.786"
"1937"	"19.573"	"22.912"	"25.153"	"28.76"	"31.028"	"29.86"	"26.309"	"26.287"	"26.554"	"26.315"	"24.458"	"20.597"
"1938"	"21.944"	"20.88"	"27.568"	"30.061"	"31.366"	"27.15"	"26.444"	"26.823"	"27.156"	"26.295"	"22.651"	"21.597"
"1939"	"21.719"	"23.238"	"24.935"	"28.7"	"30.794"	"29.803"	"26.981"	"27.097"	"26.202"	"27.092"	"23.195"	"20.87"
"1940"	"21.226"	"22.869"	"24.377"	"28.924"	"31.404"	"29.803"	"26.686"	"26.146"	"26.692"	"26.862"	"23.776"	"20.965"
"1941"	"20.382"	"23.28"	"27.165"	"30.363"	"31.584"	"30.496"	"26.65"	"26.786"	"27.293"	"27.892"	"24.214"	"23.028"
"1942"	"20.473"	"22.946"	"27.253"	"31.001"	"31.519"	"30.659"	"26.309"	"26.185"	"26.165"	"26.77"	"23.145"	"20.966"
"1943"	"21.442"	"21.903"	"26.728"	"29.06"	"31.952"	"28.44"	"26.114"	"25.761"	"26.433"	"26.079"	"24.517"	"20.715"
"1944"	"20.683"	"21.771"	"25.522"	"28.711"	"31.72"	"29.681"	"26.546"	"26.087"	"27.053"	"26.062"	"23.861"	"22.655"
"1945"	"19.575"	"21.426"	"26.35"	"28.571"	"30.907"	"30.195"	"26.299"	"26.729"	"26.366"	"26.41"	"22.46"	"19.751"
"1946"	"20.72"	"23.62"	"26.167"	"30.494"	"30.645"	"28.765"	"26.608"	"25.699"	"26.543"	"27.271"	"22.002"	"22.863"
"1947"	"20.575"	"22.88"	"26.688"	"28.833"	"31.495"	"30.454"	"27.155"	"27.559"	"26.265"	"25.585"	"23.892"	"21.917"
"1948"	"21.381"	"22.37"	"26.827"	"30.714"	"32.268"	"29.849"	"27.529"	"26.644"	"26.584"	"27.846"	"24.793"	"21.03"
"1949"	"22.571"	"22.47"	"27.227"	"30.345"	"31.838"	"29.538"	"27.621"	"27.125"	"26.762"	"26.995"	"23.353"	"20.79"
"1950"	"21.334"	"20.596"	"25.652"	"29.243"	"31.09"	"30.302"	"26.672"	"26.556"	"26.459"	"26.213"	"22.152"	"20.423"
"1951"	"20.067"	"21.964"	"26.438"	"28.343"	"30.971"	"29.919"	"27.716"	"26.251"	"28.116"	"28.804"	"25.532"	"21.099"
"1952"	"21.741"	"23.91"	"25.8"	"30.55"	"31.892"	"29.737"	"27.058"	"25.882"	"26.947"	"27.409"	"23.15"	"23.148"
"1953"	"20.772"	"24.599"	"28.497"	"30.171"	"31.072"	"29.814"	"26.993"	"25.944"	"26.752"	"26.763"	"23.557"	"22.274"
"1954"	"20.185"	"23.637"	"26.876"	"29.87"	"31.85"	"29.954"	"26.975"	"26.843"	"25.356"	"25.378"	"23.587"	"21.414"
"1955"	"21.959"	"23.06"	"27.657"	"28.213"	"31.142"	"29.221"	"27.59"	"26.009"	"26.507"	"26.138"	"22.338"	"21.125"
"1956"	"21.417"	"22.572"	"27.425"	"30.112"	"31.05"	"28.621"	"25.846"	"25.782"	"26.455"	"26.103"	"23.337"	"21.603"
"1957"	"20.87"	"20.966"	"24.849"	"29.359"	"30.716"	"30.371"	"27.256"	"26.489"	"26.731"	"27.505"	"25.684"	"23.207"
"1958"	"22.438"	"22.762"	"27.033"	"30.762"	"31.895"	"30.711"	"26.924"	"26.959"	"26.283"	"26.644"	"24.576"	"22.383"
"1959"	"21.355"	"22.571"	"27.294"	"30.084"	"32.038"	"29.811"	"26.07"	"25.842"	"26.366"	"26.59"	"24.336"	"22.586"
"1960"	"20.178"	"24.361"	"25.611"	"29.508"	"31.221"	"29.286"	"27.566"	"25.77"	"27.302"	"26.939"	"24.086"	"23.341"
"1961"	"21.57"	"21.158"	"27.825"	"29.977"	"31.326"	"29.053"	"26.576"	"26.647"	"25.675"	"25.792"	"24.265"	"21.018"
"1962"	"19.57"	"22.993"	"26.325"	"29.672"	"31.879"	"30.083"	"27.143"	"26.645"	"26.455"	"25.572"	"24.215"	"22.113"
"1963"	"21.343"	"23.981"	"26.535"	"28.771"	"30.93"	"29.799"	"27.323"	"26.044"	"26.283"	"26.938"	"25.29"	"22.482"
"1964"	"19.802"	"22.692"	"27.885"	"31.014"	"30.991"	"29.506"	"26.823"	"26.197"	"26.663"	"27.17"	"23.318"	"21.627"
"1965"	"22.365"	"22.843"	"26.117"	"29.397"	"31.658"	"30.448"	"27.561"	"27.225"	"27.189"	"28.183"	"25.314"	"22.567"
"1966"	"21.804"	"24.627"	"26.167"	"29.787"	"30.662"	"30.347"	"28.402"	"26.781"	"26.964"	"28.394"	"25.794"	"22.165"
"1967"	"20.273"	"24.373"	"26.475"	"29.359"	"31.434"	"29.235"	"27.173"	"26.098"	"26.405"	"27.391"	"24.865"	"23.565"
"1968"	"20.132"	"21.631"	"26.046"	"29.521"	"30.519"	"30.777"	"27.495"	"25.874"	"28.06"	"26.926"	"24.048"	"21.929"
"1969"	"21.385"	"23.646"	"28.622"	"30.873"	"31.919"	"30.305"	"27.593"	"26.26"	"26.765"	"27.694"	"26.234"	"22.637"
"1970"	"21.533"	"23.296"	"26.659"	"30.962"	"32.29"	"28.452"	"27.289"	"26.645"	"26.455"	"27.563"	"22.975"	"20.876"
"1971"	"20.485"	"22.833"	"26.655"	"30.976"	"30.93"	"28.289"	"26.479"	"26.225"	"27.155"	"26.145"	"23.274"	"20.642"
"1972"	"21.161"	"20.806"	"27.457"	"29.293"	"31.472"	"30.469"	"27.575"	"26.754"	"27.186"	"28.096"	"24.178"	"22.258"
"1973"	"20.505"	"23.587"	"27.025"	"31.652"	"32.47"	"30.096"	"26.304"	"26.146"	"25.68"	"26.681"	"23.881"	"21.917"
"1974"	"20.726"	"22.082"	"28.076"	"30.747"	"30.685"	"30.35"	"27.447"	"26.721"	"28.018"	"27.102"	"22.896"	"20.89"
"1975"	"19.85"	"22.335"	"25.742"	"29.84"	"31.492"	"29.506"	"27.167"	"26.576"	"26.59"	"26.979"	"22.909"	"21.094"
"1976"	"21.262"	"23.243"	"27.285"	"29.584"	"30.851"	"28.572"	"27.405"	"26.394"	"26.593"	"28.033"	"26.816"	"22.924"
"1977"	"20.962"	"23.598"	"28.811"	"30.46"	"31.153"	"29.594"	"27.33"	"26.758"	"26.767"	"28.213"	"25.865"	"22.341"
"1978"	"20.468"	"22.382"	"25.471"	"30.292"	"32.055"	"29.197"	"26.867"	"26.182"	"26.833"	"27.592"	"25.632"	"22.069"
"1979"	"22.235"	"21.473"	"25.824"	"30.183"	"30.869"	"30.605"	"27.773"	"26.012"	"28.197"	"28.429"	"26.182"	"22.673"
"1980"	"21.697"	"23.359"	"27.03"	"31.069"	"32.353"	"28.042"	"27.053"	"26.641"	"27.775"	"28.447"	"25.771"	"21.803"
"1981"	"20.614"	"23.538"	"27.118"	"30.392"	"31.573"	"30.965"	"26.984"	"26.164"	"27.172"	"27.73"	"23.24"	"21.626"
"1982"	"21.711"	"22.183"	"25.553"	"29.235"	"30.499"	"30.554"	"28.307"	"26.649"	"27.455"	"28.529"	"24.766"	"23.106"
"1983"	"20.704"	"21.301"	"25.718"	"28.225"	"31.463"	"30.594"	"28.059"	"27.069"	"27.404"	"26.321"	"22.87"	"21.292"
"1984"	"20.109"	"21.21"	"27.984"	"30.636"	"32.103"	"29.807"	"27.322"	"25.822"	"26.456"	"27.058"	"24.007"	"22.3"
"1985"	"21.057"	"22.576"	"28.364"	"30.08"	"31.88"	"29.898"	"27.801"	"26.349"	"27.459"	"25.956"	"24.201"	"22.842"
"1986"	"21.722"	"22.963"	"27.014"	"30.425"	"31.482"	"29.848"	"27.082"	"26.087"	"27.721"	"27.704"	"25.281"	"21.233"
"1987"	"21.932"	"23.855"	"27.521"	"30.326"	"31.299"	"30.522"	"28.851"	"27.772"	"28.506"	"28.487"	"25.602"	"22.493"
"1988"	"22.891"	"24.344"	"26.72"	"31.077"	"32.352"	"30.35"	"27.324"	"27.132"	"28.1"	"26.955"	"24.363"	"22.206"
"1989"	"20.84"	"23.14"	"26.253"	"29.575"	"31.903"	"29.049"	"27.496"	"26.233"	"27.65"	"27.69"	"25.878"	"22.136"
"1990"	"23.281"	"23.333"	"25.714"	"29.844"	"31.057"	"29.117"	"26.768"	"26.565"	"26.771"	"27.507"	"25.214"	"22.662"
"1991"	"20.439"	"23.187"	"26.902"	"29.891"	"32.167"	"30.548"	"27.331"	"26.579"	"27.097"	"27.447"	"25.091"	"21.786"
"1992"	"21.605"	"21.799"	"26.992"	"29.54"	"31.48"	"31.267"	"28.698"	"26.727"	"26.733"	"27.193"	"24.755"	"22.596"
"1993"	"21.987"	"23.425"	"26.366"	"29.44"	"32.042"	"30.67"	"27.521"	"27.294"	"26.978"	"28.05"	"25.381"	"22.565"
"1994"	"22.528"	"22.183"	"27.239"	"29.564"	"32.127"	"29.056"	"26.483"	"26.335"	"26.161"	"27.518"	"24.808"	"21.727"
"1995"	"19.941"	"22.982"	"26.346"	"30.085"	"31.92"	"32.181"	"28.074"	"27.583"	"27.854"	"28.55"	"24.672"	"22.842"
"1996"	"22.27"	"24.113"	"28.64"	"30.16"	"31.704"	"30.882"	"27.998"	"26.572"	"27.289"	"27.066"	"24.696"	"22.424"
"1997"	"20.872"	"22.209"	"27.377"	"28.65"	"30.503"	"29.105"	"27.414"	"26.59"	"27.244"	"27.423"	"26.833"	"22.718"
"1998"	"21.626"	"22.813"	"26.605"	"31.112"	"32.981"	"31.047"	"27.546"	"27.637"	"27.533"	"28.713"	"25.184"	"22.255"
"1999"	"20.901"	"24.16"	"27.586"	"31.038"	"31.397"	"29.091"	"27.335"	"26.735"	"27.187"	"27.083"	"24.414"	"21.826"
"2000"	"22.065"	"21.851"	"26.266"	"31.691"	"30.302"	"29.534"	"26.608"	"27.496"	"27.517"	"28.631"	"25.902"	"23.075"
"2001"	"21.453"	"23.818"	"26.811"	"30.061"	"30.978"	"28.155"	"26.07"	"26.523"	"28.113"	"27.85"	"25.077"	"22.924"
"2002"	"20.469"	"23.428"	"27.316"	"30.99"	"32.091"	"29.538"	"27.884"	"26.058"	"26.964"	"28.513"	"25.457"	"23.619"
