
"Year"	"Jan"	"Feb"	"Mar"	"Apr"	"May"	"Jun"	"Jul"	"Aug"	"Sep"	"Oct"	"Nov"	"Dec"
"1901"	"20.816"	"21.746"	"27.452"	"30.215"	"31.97"	"31.884"	"29.322"	"27.394"	"27.984"	"28.993"	"26.022"	"23.602"
"1902"	"23.093"	"24.163"	"28.679"	"30.999"	"32.091"	"31.324"	"29.364"	"28.789"	"27.789"	"28.448"	"24.754"	"22.244"
"1903"	"21.709"	"22.068"	"25.321"	"29.24"	"31.216"	"31.525"	"29.263"	"28.188"	"27.709"	"27.807"	"23.691"	"21.723"
"1904"	"22.289"	"23.252"	"26.006"	"30.595"	"31.711"	"30.077"	"27.805"	"27.631"	"27.884"	"28.723"	"24.828"	"23.176"
"1905"	"20.815"	"20.736"	"25.201"	"28.34"	"32.603"	"31.146"	"28.036"	"28.088"	"28.092"	"28.575"	"26.149"	"22.502"
"1906"	"20.461"	"21.693"	"26.116"	"29.852"	"32.112"	"29.855"	"28.185"	"27.91"	"27.294"	"27.929"	"25.864"	"22.943"
"1907"	"22.393"	"23.093"	"26.226"	"29.004"	"30.617"	"30.75"	"29.744"	"26.794"	"27.789"	"28.735"	"26.265"	"21.902"
"1908"	"21.514"	"22.489"	"25.648"	"30.716"	"31.291"	"30.65"	"27.468"	"27.009"	"27.984"	"28.249"	"25.118"	"21.776"
"1909"	"21.651"	"23.368"	"27.742"	"29.319"	"31.711"	"29.855"	"27.664"	"27.435"	"27.39"	"27.444"	"25.165"	"22.455"
"1910"	"21.813"	"23.273"	"27.021"	"29.657"	"31.211"	"29.396"	"27.885"	"27.784"	"27.762"	"27.023"	"23.554"	"22.372"
"1911"	"22.884"	"22.973"	"25.526"	"29.356"	"32.008"	"29.455"	"28.981"	"27.784"	"27.505"	"28.756"	"25.897"	"24.499"
"1912"	"22.893"	"24.362"	"26.542"	"30.557"	"32.107"	"31.867"	"28.685"	"27.535"	"27.831"	"28.345"	"24.565"	"22.324"
"1913"	"21.676"	"23.504"	"25.258"	"30.561"	"31.111"	"29.434"	"28.185"	"27.31"	"28.179"	"29.198"	"25.74"	"22.955"
"1914"	"23.268"	"23.285"	"26.021"	"29.712"	"32.208"	"29.976"	"27.963"	"27.91"	"28.184"	"28.524"	"26.745"	"22.735"
"1915"	"22.209"	"22.31"	"26.9"	"29.931"	"32.187"	"32.141"	"29.843"	"28.009"	"28.759"	"28.882"	"26.387"	"22.978"
"1916"	"22.298"	"22.209"	"28.596"	"30.836"	"32.107"	"29.056"	"28.907"	"27.631"	"28.48"	"28.048"	"24.407"	"22.097"
"1917"	"22.798"	"23.273"	"26.679"	"29.199"	"29.938"	"29.255"	"27.706"	"27.726"	"27.605"	"27.403"	"24.074"	"22.293"
"1918"	"20.894"	"23.858"	"27.079"	"28.815"	"31.945"	"29.756"	"29.279"	"27.752"	"28"	"28.86"	"26.782"	"22.581"
"1919"	"22.705"	"23.21"	"27.216"	"29.91"	"31.612"	"29.756"	"27.885"	"27.23"	"28.083"	"27.949"	"26.281"	"22.513"
"1920"	"22.64"	"23.073"	"27.601"	"29.815"	"29.942"	"30.125"	"27.59"	"27.411"	"28.585"	"28.998"	"26.244"	"23.109"
"1921"	"22.508"	"23.269"	"28.495"	"31.31"	"32.012"	"30.55"	"29.358"	"27.688"	"27.109"	"28.122"	"24.674"	"23.776"
"1922"	"21.456"	"24.463"	"27.601"	"30.637"	"31.711"	"30.351"	"27.963"	"27.31"	"27.584"	"28.023"	"25.149"	"21.597"
"1923"	"22.393"	"22.447"	"27.601"	"29.915"	"31.09"	"31.841"	"28.185"	"27.035"	"28.063"	"27.718"	"24.86"	"23.909"
"1924"	"22.351"	"23.858"	"28.795"	"31.01"	"31.338"	"31.229"	"28.506"	"27.826"	"27.885"	"27.028"	"23.949"	"22.918"
"1925"	"19.761"	"21.884"	"27.601"	"31.41"	"31.116"	"29.156"	"27.763"	"28.009"	"28.48"	"29.673"	"26.382"	"23.124"
"1926"	"22.831"	"25.088"	"27.199"	"28.604"	"31.698"	"32.52"	"28.759"	"27.81"	"27.8"	"28.235"	"24.308"	"22.235"
"1927"	"20.873"	"22.688"	"26.262"	"29.431"	"30.932"	"30.309"	"27.565"	"27.014"	"27.984"	"27.944"	"23.092"	"22.918"
"1928"	"21.834"	"23.084"	"26.647"	"29.863"	"31.711"	"30.193"	"27.506"	"27.03"	"27.564"	"28.018"	"25.66"	"21.859"
"1929"	"20.857"	"22.61"	"28.141"	"30.309"	"32.017"	"30.161"	"28.189"	"27.209"	"28.099"	"28.023"	"26.429"	"22.057"
"1930"	"22.03"	"22.351"	"27.396"	"29.894"	"31.633"	"30.55"	"27.163"	"27.009"	"28.163"	"28.998"	"24.37"	"22.934"
"1931"	"23.064"	"23.285"	"26.5"	"30.857"	"31.913"	"31.766"	"28.644"	"27.614"	"27.762"	"27.403"	"24.969"	"22.802"
"1932"	"23.126"	"22.456"	"26.605"	"29.62"	"31.711"	"30.351"	"27.59"	"27.706"	"27.885"	"28.828"	"24.99"	"23.197"
"1933"	"21.994"	"23.825"	"27.375"	"29.915"	"30.121"	"29.736"	"28.185"	"27.209"	"27.489"	"27.908"	"25.385"	"22.423"
"1934"	"20.431"	"23.942"	"26.685"	"30.22"	"31.211"	"30.429"	"27.689"	"27.113"	"27.187"	"27.369"	"24.649"	"23.082"
"1935"	"20.235"	"23.247"	"26.589"	"28.323"	"31.406"	"30.55"	"27.59"	"27.026"	"26.884"	"27.949"	"25.048"	"22.938"
"1936"	"21.135"	"23.231"	"26.801"	"29.041"	"32.029"	"29.156"	"27.963"	"27.61"	"27.805"	"28.118"	"25.79"	"22.144"
"1937"	"20.639"	"23.867"	"25.925"	"29.216"	"31.211"	"30.351"	"27.184"	"27.23"	"27.584"	"27.724"	"26.117"	"21.898"
"1938"	"22.646"	"22.052"	"28.195"	"30.515"	"31.637"	"28.064"	"27.39"	"27.71"	"28.138"	"27.578"	"24.191"	"22.999"
"1939"	"22.688"	"24.163"	"25.801"	"29.137"	"31.007"	"30.355"	"27.864"	"27.984"	"27.208"	"28.423"	"24.953"	"22.386"
"1940"	"22.455"	"23.947"	"25.147"	"29.437"	"31.612"	"30.351"	"27.59"	"27.188"	"27.684"	"28.302"	"25.416"	"22.244"
"1941"	"21.44"	"24.478"	"27.921"	"30.815"	"31.731"	"30.946"	"27.401"	"27.731"	"28.304"	"29.228"	"25.765"	"24.341"
"1942"	"21.539"	"23.968"	"28.021"	"31.435"	"31.677"	"31.125"	"27.184"	"27.026"	"27.204"	"28.143"	"24.87"	"22.156"
"1943"	"22.226"	"23.135"	"27.601"	"29.515"	"32.187"	"28.976"	"26.905"	"26.81"	"27.3"	"27.424"	"26.086"	"22.312"
"1944"	"21.818"	"22.846"	"26.307"	"29.216"	"31.854"	"30.193"	"27.301"	"27.03"	"28.088"	"27.554"	"25.466"	"23.835"
"1945"	"20.53"	"22.677"	"27.315"	"29.121"	"31.032"	"30.646"	"27.105"	"27.605"	"27.385"	"27.64"	"24.069"	"21.202"
"1946"	"21.688"	"24.647"	"26.92"	"30.79"	"30.807"	"29.455"	"27.485"	"26.627"	"27.505"	"28.566"	"23.847"	"23.766"
"1947"	"21.639"	"23.968"	"27.452"	"29.314"	"31.711"	"31.076"	"28.185"	"28.537"	"27.279"	"26.84"	"25.381"	"23.031"
"1948"	"22.147"	"23.389"	"27.601"	"31.115"	"32.406"	"30.661"	"28.683"	"27.719"	"27.873"	"29.123"	"26.387"	"22.507"
"1949"	"23.597"	"23.573"	"28.104"	"30.919"	"32.095"	"30.36"	"28.491"	"28.009"	"27.864"	"28.323"	"24.886"	"22.018"
"1950"	"22.188"	"21.487"	"26.505"	"29.8"	"31.391"	"30.851"	"27.317"	"27.406"	"27.485"	"27.875"	"23.979"	"21.781"
"1951"	"21.039"	"23.047"	"27.279"	"28.842"	"31.185"	"30.529"	"28.623"	"27.214"	"29.164"	"30.077"	"27.165"	"22.527"
"1952"	"22.819"	"24.846"	"26.684"	"30.989"	"32.112"	"30.351"	"27.88"	"26.831"	"27.879"	"28.724"	"24.719"	"24.226"
"1953"	"21.813"	"25.625"	"29.174"	"30.695"	"31.206"	"30.35"	"27.784"	"26.801"	"27.679"	"28.069"	"25.085"	"23.573"
"1954"	"21.235"	"24.746"	"27.727"	"30.315"	"31.907"	"30.45"	"27.759"	"27.789"	"26.411"	"26.745"	"25.06"	"22.613"
"1955"	"22.909"	"24.251"	"28.459"	"28.767"	"31.411"	"29.851"	"28.47"	"26.91"	"27.53"	"27.548"	"23.891"	"22.419"
"1956"	"22.31"	"23.564"	"28.2"	"30.616"	"31.291"	"29.333"	"26.623"	"26.706"	"27.485"	"27.276"	"24.907"	"22.735"
"1957"	"21.834"	"21.989"	"25.6"	"29.736"	"30.832"	"30.793"	"28.189"	"27.489"	"27.894"	"28.925"	"27.243"	"24.336"
"1958"	"23.518"	"23.825"	"27.885"	"31.193"	"32.112"	"31.224"	"27.784"	"27.864"	"27.225"	"27.94"	"26.107"	"23.745"
"1959"	"22.235"	"23.568"	"28.078"	"30.62"	"32.338"	"30.351"	"26.9"	"26.731"	"27.301"	"27.813"	"25.806"	"23.781"
"1960"	"21.344"	"25.473"	"26.422"	"29.962"	"31.466"	"29.751"	"28.359"	"26.736"	"28.283"	"28.302"	"25.607"	"24.43"
"1961"	"22.534"	"22.247"	"28.596"	"30.379"	"31.386"	"29.651"	"27.28"	"27.61"	"26.81"	"27.123"	"25.864"	"22.391"
"1962"	"20.618"	"24.178"	"27.1"	"30.22"	"32.112"	"30.467"	"27.959"	"27.584"	"27.485"	"26.84"	"25.74"	"23.424"
"1963"	"22.65"	"25.024"	"27.411"	"29.323"	"31.132"	"30.351"	"28.184"	"26.989"	"27.199"	"28.324"	"26.735"	"23.924"
"1964"	"20.756"	"23.868"	"28.679"	"31.431"	"31.215"	"30.046"	"27.606"	"27.083"	"27.684"	"28.313"	"24.886"	"22.84"
"1965"	"23.498"	"23.951"	"26.9"	"29.841"	"31.683"	"30.924"	"28.258"	"28.078"	"28.209"	"29.418"	"26.865"	"23.944"
"1966"	"23.005"	"25.732"	"26.92"	"30.137"	"30.995"	"30.845"	"29.076"	"27.915"	"28.083"	"29.698"	"27.261"	"23.439"
"1967"	"21.256"	"25.346"	"27.322"	"29.941"	"31.737"	"29.777"	"27.88"	"27.109"	"27.509"	"28.723"	"26.341"	"24.84"
"1968"	"21.219"	"22.793"	"27.009"	"30.12"	"30.737"	"31.349"	"28.496"	"26.836"	"29.164"	"28.416"	"25.754"	"23.249"
"1969"	"22.419"	"24.667"	"29.4"	"31.44"	"32.137"	"30.855"	"28.57"	"27.31"	"27.894"	"29.025"	"27.865"	"24.128"
"1970"	"22.619"	"24.394"	"27.601"	"31.419"	"32.512"	"29.081"	"27.98"	"27.584"	"27.485"	"28.929"	"24.544"	"22.092"
"1971"	"21.514"	"23.868"	"27.601"	"31.393"	"31.211"	"28.877"	"27.412"	"27.109"	"28.184"	"27.424"	"24.843"	"22.102"
"1972"	"22.114"	"21.788"	"28.074"	"29.741"	"31.612"	"31.03"	"28.355"	"27.814"	"28.393"	"29.423"	"25.74"	"23.439"
"1973"	"21.304"	"24.626"	"27.8"	"31.986"	"32.502"	"30.65"	"27.205"	"27.109"	"26.601"	"27.944"	"25.302"	"23.035"
"1974"	"21.714"	"22.905"	"28.695"	"31.11"	"30.807"	"30.872"	"28.264"	"27.793"	"29.063"	"28.64"	"24.365"	"22.197"
"1975"	"20.84"	"23.472"	"26.422"	"29.734"	"31.711"	"30.046"	"28.185"	"27.509"	"27.58"	"28.118"	"24.491"	"22.398"
"1976"	"22.188"	"24.163"	"27.938"	"30.094"	"31.09"	"29.359"	"28.185"	"27.305"	"27.605"	"29.319"	"28.318"	"24.113"
"1977"	"21.935"	"24.464"	"29.496"	"31.203"	"31.711"	"30.072"	"28.175"	"27.814"	"27.91"	"29.577"	"27.523"	"23.676"
"1978"	"21.414"	"23.451"	"26.199"	"30.878"	"32.291"	"29.934"	"27.81"	"27.315"	"27.675"	"28.924"	"27.144"	"23.629"
"1979"	"22.874"	"22.548"	"26.626"	"30.54"	"31.221"	"31.209"	"28.664"	"26.989"	"29.159"	"29.619"	"27.739"	"23.998"
"1980"	"22.583"	"24.373"	"27.8"	"31.075"	"32.616"	"28.734"	"28.144"	"27.614"	"28.885"	"29.703"	"27.264"	"23.197"
"1981"	"21.908"	"24.437"	"27.926"	"30.973"	"31.896"	"31.503"	"27.889"	"27.209"	"28.217"	"29.045"	"24.676"	"22.918"
"1982"	"22.688"	"23.273"	"26.328"	"29.824"	"30.674"	"31.067"	"29.08"	"27.636"	"28.485"	"29.85"	"26.366"	"24.21"
"1983"	"21.609"	"22.268"	"26.397"	"28.821"	"31.69"	"31.046"	"28.802"	"27.901"	"28.383"	"27.565"	"24.308"	"22.534"
"1984"	"20.93"	"22.156"	"28.642"	"31.199"	"32.307"	"30.351"	"28.175"	"26.752"	"27.526"	"28.26"	"25.487"	"23.41"
"1985"	"21.85"	"23.484"	"28.996"	"30.535"	"32.008"	"30.429"	"28.556"	"27.31"	"28.485"	"27.429"	"25.849"	"24.096"
"1986"	"22.715"	"23.968"	"27.696"	"30.893"	"31.712"	"30.341"	"28.036"	"27.03"	"28.685"	"29.025"	"26.845"	"22.517"
"1987"	"22.994"	"24.867"	"28.295"	"30.819"	"31.686"	"31.03"	"29.744"	"28.772"	"29.749"	"29.991"	"27.358"	"24.012"
"1988"	"23.919"	"25.405"	"27.379"	"31.572"	"32.508"	"30.929"	"28.174"	"28.004"	"29.054"	"28.327"	"25.943"	"23.681"
"1989"	"21.735"	"24.063"	"27.021"	"30.12"	"32.107"	"29.651"	"28.206"	"27.104"	"28.659"	"28.998"	"27.444"	"23.498"
"1990"	"24.214"	"24.267"	"26.417"	"30.295"	"31.425"	"29.865"	"27.715"	"27.401"	"27.705"	"28.714"	"26.766"	"23.939"
"1991"	"21.44"	"24.037"	"27.675"	"30.52"	"32.229"	"31.134"	"28.184"	"27.509"	"28.109"	"28.557"	"26.565"	"23.073"
"1992"	"22.513"	"22.599"	"27.591"	"29.806"	"31.633"	"31.721"	"29.37"	"27.605"	"27.727"	"28.418"	"26.285"	"24.002"
"1993"	"22.969"	"24.552"	"27.121"	"29.999"	"32.187"	"31.229"	"28.379"	"28.293"	"28.068"	"29.376"	"27.023"	"24.007"
"1994"	"23.493"	"23.273"	"28.288"	"30.12"	"32.208"	"29.676"	"27.221"	"27.498"	"27.447"	"28.735"	"26.366"	"22.973"
"1995"	"21.098"	"24.067"	"27.016"	"30.505"	"32.133"	"32.541"	"28.886"	"28.531"	"28.859"	"29.877"	"26.139"	"24.067"
"1996"	"23.084"	"25.04"	"29.374"	"30.616"	"31.908"	"31.24"	"28.675"	"27.426"	"28.195"	"28.318"	"26.056"	"23.718"
"1997"	"21.788"	"23.142"	"27.994"	"29.014"	"30.713"	"29.656"	"28.206"	"27.406"	"28.179"	"28.557"	"28.176"	"23.956"
"1998"	"22.614"	"23.638"	"27.195"	"31.488"	"33.107"	"31.445"	"28.301"	"28.511"	"28.399"	"30.082"	"26.452"	"23.279"
"1999"	"21.684"	"25.142"	"28.085"	"31.305"	"31.277"	"29.55"	"28.174"	"27.605"	"28.267"	"28.214"	"25.964"	"23.114"
"2000"	"22.99"	"22.789"	"26.865"	"31.906"	"30.617"	"30.31"	"27.49"	"28.383"	"28.584"	"29.82"	"27.208"	"24.531"
"2001"	"22.335"	"24.454"	"27.549"	"30.514"	"31.216"	"28.693"	"26.905"	"27.411"	"29.164"	"29.203"	"26.64"	"24.108"
"2002"	"21.493"	"24.305"	"28"	"31.414"	"32.312"	"30.31"	"28.68"	"27.114"	"28.088"	"29.924"	"26.86"	"24.688"
