
"Year"	"Jan"	"Feb"	"Mar"	"Apr"	"May"	"Jun"	"Jul"	"Aug"	"Sep"	"Oct"	"Nov"	"Dec"
"1901"	"13.91"	"14.104"	"17.427"	"18.707"	"19.605"	"19.666"	"18.386"	"17.553"	"17.745"	"18.445"	"16.912"	"15.632"
"1902"	"15.251"	"15.509"	"18.002"	"19.028"	"19.923"	"19.537"	"18.513"	"18.32"	"17.682"	"18.444"	"16.273"	"15.057"
"1903"	"14.357"	"14.296"	"16.022"	"18.196"	"19.413"	"19.665"	"18.386"	"17.937"	"17.681"	"17.808"	"15.824"	"14.611"
"1904"	"14.677"	"15.126"	"16.533"	"18.709"	"19.667"	"19.025"	"17.683"	"17.681"	"17.681"	"18.445"	"16.145"	"15.378"
"1905"	"13.846"	"13.784"	"15.894"	"17.558"	"20.114"	"19.473"	"17.874"	"17.809"	"17.809"	"18.508"	"17.103"	"14.994"
"1906"	"13.782"	"14.104"	"16.533"	"18.515"	"19.859"	"18.771"	"17.874"	"17.809"	"17.362"	"17.999"	"16.974"	"15.44"
"1907"	"14.805"	"15.061"	"16.66"	"17.878"	"19.029"	"19.155"	"18.579"	"17.107"	"17.618"	"18.381"	"17.229"	"14.675"
"1908"	"14.294"	"14.615"	"16.467"	"18.963"	"19.349"	"19.218"	"17.428"	"17.234"	"17.808"	"18.19"	"16.337"	"14.42"
"1909"	"14.42"	"15.126"	"17.681"	"18.07"	"19.731"	"18.707"	"17.492"	"17.616"	"17.426"	"17.679"	"16.528"	"15.184"
"1910"	"14.421"	"15.061"	"17.108"	"18.451"	"19.412"	"18.642"	"17.873"	"17.682"	"17.617"	"17.424"	"15.507"	"14.739"
"1911"	"14.995"	"14.871"	"16.277"	"18.196"	"19.858"	"18.515"	"18.321"	"17.618"	"17.553"	"18.572"	"17.165"	"16.271"
"1912"	"15.124"	"15.7"	"16.915"	"19.025"	"19.859"	"19.984"	"18.193"	"17.617"	"17.871"	"18.254"	"16.208"	"14.994"
"1913"	"14.358"	"15.316"	"16.148"	"18.962"	"19.348"	"18.389"	"17.874"	"17.553"	"17.872"	"18.637"	"16.783"	"15.44"
"1914"	"15.125"	"15.125"	"16.468"	"18.261"	"19.923"	"18.899"	"17.684"	"17.746"	"17.809"	"18.318"	"17.422"	"15.311"
"1915"	"14.74"	"14.614"	"16.979"	"18.58"	"19.86"	"19.984"	"18.705"	"17.872"	"18.065"	"18.319"	"17.357"	"15.186"
"1916"	"14.741"	"14.423"	"18.002"	"19.026"	"19.922"	"18.324"	"18.384"	"17.681"	"18.001"	"18.062"	"16.271"	"14.738"
"1917"	"14.933"	"15.062"	"16.788"	"18.007"	"18.709"	"18.387"	"17.683"	"17.681"	"17.553"	"17.552"	"15.953"	"14.803"
"1918"	"13.975"	"15.317"	"17.044"	"17.751"	"19.667"	"18.707"	"18.512"	"17.808"	"17.808"	"18.636"	"17.611"	"15.375"
"1919"	"14.995"	"15.188"	"17.171"	"18.452"	"19.604"	"18.644"	"17.683"	"17.426"	"17.809"	"18.062"	"17.229"	"14.994"
"1920"	"15.123"	"14.935"	"17.299"	"18.389"	"18.773"	"18.771"	"17.492"	"17.553"	"18.064"	"18.509"	"17.039"	"15.313"
"1921"	"14.931"	"15.061"	"17.937"	"19.282"	"19.732"	"19.154"	"18.449"	"17.554"	"17.297"	"18.126"	"16.272"	"15.697"
"1922"	"14.42"	"15.7"	"17.427"	"18.962"	"19.604"	"19.026"	"17.619"	"17.362"	"17.49"	"18.062"	"16.528"	"14.419"
"1923"	"14.741"	"14.488"	"17.427"	"18.389"	"19.158"	"19.793"	"17.748"	"17.361"	"17.745"	"17.87"	"16.335"	"15.823"
"1924"	"14.931"	"15.444"	"18.192"	"19.154"	"19.665"	"19.474"	"18.13"	"17.808"	"17.682"	"17.36"	"15.825"	"15.313"
"1925"	"13.334"	"14.295"	"17.49"	"19.346"	"19.348"	"18.324"	"17.556"	"17.809"	"18.001"	"18.829"	"17.356"	"15.441"
"1926"	"15.124"	"16.21"	"17.171"	"17.688"	"19.476"	"20.176"	"18.193"	"17.682"	"17.617"	"18.125"	"16.143"	"14.929"
"1927"	"14.1"	"14.806"	"16.786"	"18.196"	"19.221"	"18.836"	"17.429"	"17.298"	"17.809"	"17.998"	"15.378"	"15.249"
"1928"	"14.612"	"14.934"	"16.978"	"18.643"	"19.478"	"19.026"	"17.555"	"17.298"	"17.362"	"17.999"	"16.782"	"14.802"
"1929"	"13.974"	"14.869"	"17.872"	"18.645"	"19.923"	"18.9"	"17.874"	"17.426"	"17.935"	"18.062"	"17.23"	"14.929"
"1930"	"14.612"	"14.424"	"17.235"	"18.389"	"19.667"	"19.09"	"17.173"	"17.171"	"17.809"	"18.509"	"16.018"	"15.377"
"1931"	"15.06"	"15.125"	"16.787"	"19.154"	"19.795"	"19.856"	"18.067"	"17.617"	"17.554"	"17.552"	"16.463"	"15.122"
"1932"	"14.997"	"14.552"	"16.915"	"18.325"	"19.604"	"19.026"	"17.555"	"17.682"	"17.682"	"18.509"	"16.527"	"15.378"
"1933"	"14.549"	"15.254"	"17.172"	"18.516"	"18.774"	"18.581"	"17.874"	"17.362"	"17.427"	"17.935"	"16.718"	"14.994"
"1934"	"13.59"	"15.318"	"16.853"	"18.708"	"19.285"	"19.026"	"17.556"	"17.298"	"17.298"	"17.806"	"16.145"	"15.25"
"1935"	"13.527"	"14.998"	"16.788"	"17.559"	"19.476"	"19.154"	"17.555"	"17.297"	"17.043"	"18.125"	"16.337"	"15.377"
"1936"	"14.101"	"14.872"	"16.98"	"18.006"	"19.922"	"18.324"	"17.683"	"17.553"	"17.745"	"18.125"	"17.037"	"14.929"
"1937"	"13.846"	"15.254"	"16.533"	"18.07"	"19.348"	"19.026"	"17.236"	"17.426"	"17.49"	"17.871"	"16.975"	"14.548"
"1938"	"14.995"	"14.36"	"17.682"	"18.899"	"19.667"	"17.75"	"17.428"	"17.618"	"17.618"	"17.489"	"15.953"	"15.25"
"1939"	"14.932"	"15.572"	"16.404"	"18.069"	"19.157"	"19.09"	"17.556"	"17.682"	"17.298"	"18.317"	"16.4"	"14.931"
"1940"	"14.741"	"15.445"	"16.022"	"18.261"	"19.604"	"19.026"	"17.555"	"17.362"	"17.553"	"18.127"	"16.91"	"14.993"
"1941"	"14.357"	"15.956"	"17.745"	"19.09"	"19.731"	"19.345"	"17.427"	"17.808"	"18.001"	"18.764"	"16.973"	"16.334"
"1942"	"14.549"	"15.509"	"17.809"	"19.473"	"19.604"	"19.41"	"17.236"	"17.234"	"17.298"	"18.254"	"16.463"	"14.929"
"1943"	"14.676"	"14.935"	"17.427"	"18.261"	"19.86"	"18.26"	"17.108"	"17.171"	"17.297"	"17.615"	"17.229"	"14.994"
"1944"	"14.612"	"14.742"	"16.66"	"18.07"	"19.921"	"19.026"	"17.363"	"17.297"	"17.872"	"17.871"	"16.846"	"15.887"
"1945"	"13.719"	"14.87"	"17.427"	"18.006"	"19.284"	"19.154"	"17.299"	"17.616"	"17.362"	"17.806"	"15.889"	"14.228"
"1946"	"14.357"	"15.765"	"17.107"	"18.836"	"19.029"	"18.579"	"17.428"	"17.042"	"17.489"	"18.444"	"16.334"	"15.95"
"1947"	"14.549"	"15.572"	"17.427"	"18.007"	"19.667"	"19.6"	"17.937"	"18.256"	"17.298"	"17.296"	"16.718"	"15.377"
"1948"	"14.803"	"15.19"	"17.427"	"19.218"	"20.051"	"19.345"	"18.322"	"17.809"	"17.745"	"18.637"	"17.484"	"15.058"
"1949"	"15.57"	"15.253"	"17.872"	"19.091"	"19.86"	"19.09"	"18.13"	"17.872"	"17.618"	"18.126"	"16.4"	"14.675"
"1950"	"14.486"	"13.912"	"16.724"	"18.326"	"19.476"	"19.41"	"17.427"	"17.362"	"17.426"	"17.809"	"15.889"	"14.421"
"1951"	"14.101"	"14.934"	"17.172"	"17.941"	"19.221"	"19.09"	"17.876"	"17.362"	"18.384"	"19.021"	"17.804"	"15.122"
"1952"	"15.124"	"15.892"	"16.788"	"19.027"	"19.86"	"19.026"	"17.683"	"17.234"	"17.554"	"18.255"	"16.018"	"16.142"
"1953"	"14.549"	"16.34"	"18.257"	"18.9"	"19.347"	"18.899"	"17.492"	"17.043"	"17.49"	"18.253"	"16.591"	"15.632"
"1954"	"14.229"	"15.892"	"17.682"	"18.708"	"19.604"	"19.026"	"17.492"	"17.618"	"16.787"	"17.423"	"16.463"	"15.121"
"1955"	"15.25"	"15.636"	"17.747"	"18.005"	"19.665"	"18.77"	"17.938"	"17.107"	"17.616"	"17.806"	"15.888"	"15.057"
"1956"	"14.74"	"15.19"	"17.809"	"18.962"	"19.285"	"18.452"	"17.043"	"17.107"	"17.426"	"17.742"	"16.654"	"15.185"
"1957"	"14.612"	"14.359"	"16.086"	"18.388"	"19.22"	"19.472"	"17.748"	"17.427"	"17.682"	"18.637"	"17.741"	"16.206"
"1958"	"15.57"	"15.317"	"17.555"	"19.155"	"19.923"	"19.537"	"17.619"	"17.555"	"17.425"	"17.998"	"17.42"	"16.015"
"1959"	"14.868"	"15.253"	"17.618"	"19.026"	"20.178"	"19.026"	"17.108"	"17.107"	"17.426"	"17.743"	"17.101"	"16.141"
"1960"	"14.484"	"16.53"	"16.852"	"18.643"	"19.794"	"18.643"	"17.875"	"17.17"	"17.873"	"18.126"	"16.973"	"16.206"
"1961"	"14.995"	"14.423"	"18.001"	"18.836"	"19.349"	"18.643"	"17.236"	"17.681"	"17.107"	"17.487"	"17.038"	"15.375"
"1962"	"13.783"	"15.701"	"17.171"	"18.898"	"19.987"	"19.089"	"17.619"	"17.553"	"17.426"	"17.423"	"16.783"	"15.696"
"1963"	"15.441"	"16.02"	"17.427"	"18.133"	"19.348"	"19.026"	"17.684"	"17.108"	"17.297"	"18.317"	"17.357"	"16.079"
"1964"	"13.974"	"15.445"	"18.065"	"19.473"	"19.348"	"18.771"	"17.492"	"17.171"	"17.49"	"18.062"	"16.463"	"15.249"
"1965"	"15.444"	"15.509"	"16.98"	"18.515"	"19.284"	"19.218"	"17.684"	"17.809"	"18"	"18.829"	"17.549"	"16.142"
"1966"	"15.251"	"16.467"	"17.107"	"18.707"	"19.221"	"19.344"	"18.258"	"17.872"	"17.872"	"19.019"	"17.868"	"15.759"
"1967"	"14.293"	"16.211"	"17.426"	"18.706"	"19.795"	"18.835"	"17.619"	"17.298"	"17.553"	"18.381"	"17.166"	"16.653"
"1968"	"14.165"	"14.934"	"17.171"	"18.707"	"19.22"	"19.601"	"18.13"	"17.297"	"18.447"	"18.19"	"16.847"	"15.632"
"1969"	"14.868"	"15.956"	"18.512"	"19.6"	"20.114"	"19.345"	"18.067"	"17.553"	"17.745"	"18.637"	"18.251"	"16.271"
"1970"	"15.059"	"15.955"	"17.49"	"19.474"	"20.114"	"18.451"	"17.683"	"17.553"	"17.489"	"18.573"	"16.081"	"14.612"
"1971"	"14.294"	"15.445"	"17.49"	"19.22"	"19.412"	"18.26"	"17.555"	"17.298"	"17.936"	"17.489"	"16.208"	"14.803"
"1972"	"14.613"	"14.167"	"17.555"	"18.452"	"19.604"	"19.41"	"17.874"	"17.809"	"18.128"	"18.829"	"16.783"	"15.632"
"1973"	"14.038"	"15.702"	"17.49"	"19.602"	"19.987"	"19.281"	"17.427"	"17.298"	"16.915"	"17.999"	"16.718"	"15.377"
"1974"	"14.484"	"14.933"	"17.937"	"19.218"	"19.029"	"19.473"	"17.685"	"17.682"	"18.32"	"18.064"	"16.017"	"14.803"
"1975"	"14.038"	"15.253"	"16.787"	"18.323"	"19.604"	"18.771"	"17.874"	"17.553"	"17.49"	"17.934"	"16.207"	"14.803"
"1976"	"14.613"	"15.635"	"17.745"	"18.453"	"19.158"	"18.58"	"17.874"	"17.552"	"17.553"	"18.829"	"18.316"	"15.952"
"1977"	"14.676"	"15.764"	"18.576"	"19.283"	"19.667"	"18.898"	"17.874"	"17.872"	"17.872"	"18.765"	"17.805"	"15.632"
"1978"	"14.166"	"15.062"	"16.469"	"18.901"	"19.923"	"18.708"	"17.873"	"17.553"	"17.362"	"18.573"	"17.677"	"15.887"
"1979"	"14.805"	"14.552"	"16.852"	"18.899"	"19.413"	"19.346"	"18.13"	"17.108"	"18.32"	"18.956"	"17.996"	"15.952"
"1980"	"14.868"	"15.764"	"17.49"	"19.343"	"20.242"	"17.941"	"17.874"	"17.617"	"18.32"	"18.956"	"17.804"	"15.378"
"1981"	"14.613"	"15.7"	"17.746"	"18.964"	"19.732"	"19.537"	"17.683"	"17.426"	"17.555"	"18.763"	"16.272"	"15.25"
"1982"	"14.995"	"15.126"	"16.787"	"18.452"	"19.346"	"19.536"	"18.322"	"17.745"	"18.064"	"19.274"	"17.357"	"16.079"
"1983"	"14.357"	"14.423"	"16.597"	"17.878"	"19.604"	"19.473"	"18.321"	"17.808"	"17.937"	"17.806"	"16.207"	"15.185"
"1984"	"13.846"	"14.805"	"18.255"	"19.219"	"19.987"	"19.089"	"17.874"	"17.297"	"17.68"	"18.254"	"16.782"	"15.632"
"1985"	"14.549"	"15.316"	"18.192"	"18.836"	"19.795"	"19.026"	"17.938"	"17.552"	"18.001"	"17.743"	"16.847"	"15.888"
"1986"	"15.059"	"15.446"	"17.427"	"19.027"	"19.732"	"18.899"	"17.937"	"17.297"	"18.128"	"18.574"	"17.423"	"15.057"
"1987"	"15.251"	"16.019"	"17.873"	"19.027"	"19.731"	"19.282"	"18.642"	"18.129"	"18.831"	"19.085"	"17.932"	"16.079"
"1988"	"15.762"	"16.148"	"17.172"	"19.41"	"20.114"	"19.345"	"17.873"	"17.872"	"18.257"	"18.19"	"16.974"	"15.633"
"1989"	"14.549"	"15.572"	"17.108"	"18.581"	"19.859"	"18.643"	"17.874"	"17.234"	"18.065"	"18.573"	"17.868"	"15.632"
"1990"	"15.889"	"15.7"	"16.723"	"18.517"	"19.667"	"18.835"	"17.746"	"17.426"	"17.681"	"18.444"	"17.549"	"16.015"
"1991"	"14.294"	"15.445"	"17.3"	"18.899"	"19.987"	"19.474"	"17.747"	"17.553"	"17.936"	"18.444"	"17.421"	"15.187"
"1992"	"14.869"	"14.741"	"17.427"	"18.324"	"19.478"	"19.665"	"18.512"	"17.617"	"17.808"	"18.19"	"17.421"	"15.888"
"1993"	"14.996"	"15.828"	"17.171"	"18.516"	"19.86"	"19.411"	"18.065"	"18.001"	"17.682"	"18.701"	"17.55"	"15.888"
"1994"	"15.443"	"15.126"	"17.874"	"18.644"	"19.859"	"18.77"	"17.363"	"17.554"	"17.426"	"18.507"	"17.293"	"15.122"
"1995"	"14.038"	"15.572"	"17.107"	"18.899"	"19.987"	"20.303"	"18.258"	"18.256"	"18.191"	"18.956"	"16.975"	"15.761"
"1996"	"15.06"	"16.02"	"18.384"	"18.899"	"19.732"	"19.537"	"18.003"	"17.553"	"17.872"	"18.189"	"16.974"	"15.823"
"1997"	"14.294"	"14.744"	"17.491"	"17.814"	"19.029"	"18.643"	"17.937"	"17.426"	"17.809"	"18.317"	"18.441"	"16.205"
"1998"	"15.058"	"15.127"	"17.108"	"19.346"	"20.497"	"19.6"	"17.938"	"18.128"	"17.936"	"19.021"	"17.229"	"15.25"
"1999"	"14.166"	"16.21"	"17.617"	"19.218"	"19.158"	"18.452"	"17.684"	"17.553"	"17.746"	"17.999"	"17.038"	"15.377"
"2000"	"15.124"	"14.806"	"16.725"	"19.537"	"19.029"	"18.9"	"17.492"	"18.001"	"18.128"	"19.02"	"17.486"	"16.017"
"2001"	"14.931"	"15.636"	"17.172"	"18.899"	"19.413"	"18.132"	"17.108"	"17.427"	"18.384"	"18.637"	"17.357"	"15.952"
"2002"	"14.166"	"15.826"	"17.618"	"19.473"	"19.988"	"19.026"	"18.13"	"17.362"	"17.935"	"19.211"	"17.485"	"16.207"
