
"Year"	"Jan"	"Feb"	"Mar"	"Apr"	"May"	"Jun"	"Jul"	"Aug"	"Sep"	"Oct"	"Nov"	"Dec"
"1901"	"24.825"	"25.974"	"27.131"	"30.503"	"31.835"	"31.29"	"29.271"	"28.576"	"28.856"	"27.198"	"24.657"	"23.073"
"1902"	"23.423"	"24.463"	"27.932"	"30.699"	"33.077"	"31.433"	"30.01"	"29.119"	"28.138"	"26.582"	"24.408"	"23.747"
"1903"	"24"	"25.679"	"27.814"	"30.505"	"30.763"	"30.697"	"28.835"	"28.291"	"27.633"	"26.5"	"23.901"	"22.936"
"1904"	"23.334"	"24.226"	"27.426"	"31.008"	"31.208"	"30.807"	"29.224"	"29.312"	"28.899"	"26.937"	"24.401"	"23.088"
"1905"	"22.602"	"25.127"	"28.235"	"30.013"	"31.624"	"32.043"	"30.777"	"28.981"	"29.174"	"26.796"	"25.074"	"22.89"
"1906"	"24.054"	"26.292"	"26.944"	"31.403"	"33.269"	"30.445"	"29.795"	"28.151"	"28.246"	"26.946"	"24.768"	"23.477"
"1907"	"23.165"	"24.826"	"27.636"	"29.779"	"32.527"	"31.019"	"29.469"	"29.108"	"28.944"	"27.114"	"24.847"	"23.235"
"1908"	"23.388"	"24.738"	"27.03"	"31.488"	"32.764"	"31.951"	"29.48"	"28.822"	"27.627"	"26.792"	"23.562"	"22.647"
"1909"	"23.639"	"25.215"	"27.938"	"29.775"	"31.705"	"30.29"	"28.753"	"28.233"	"27.626"	"27.578"	"25.455"	"24.215"
"1910"	"23.745"	"25.089"	"27.338"	"31.192"	"32.667"	"30.487"	"29.286"	"28.19"	"27.812"	"26.87"	"23.641"	"22.58"
"1911"	"23.741"	"23.902"	"27.632"	"30.939"	"32.407"	"31.117"	"30.162"	"29.258"	"29.039"	"27.328"	"25.187"	"23.615"
"1912"	"22.954"	"25.826"	"28.476"	"30.465"	"32.981"	"32.343"	"29.69"	"28.982"	"28.938"	"27.12"	"24.482"	"22.834"
"1913"	"23.094"	"25.726"	"28.133"	"31.238"	"32.048"	"31.271"	"29.321"	"29.862"	"29.208"	"26.612"	"24.497"	"23.818"
"1914"	"23.161"	"25.036"	"28.041"	"30.062"	"32.44"	"31.528"	"29.547"	"28.291"	"27.748"	"26.524"	"24.754"	"23.906"
"1915"	"23.799"	"25.438"	"27.657"	"30.524"	"32.846"	"31.447"	"29.292"	"29.383"	"28.32"	"27.63"	"25.276"	"23.041"
"1916"	"23.369"	"25.468"	"27.24"	"30.866"	"31.69"	"30.348"	"28.751"	"28.827"	"28.507"	"26.922"	"24.693"	"22.846"
"1917"	"23.08"	"24.484"	"26.686"	"30.082"	"31.241"	"29.074"	"29.257"	"28.326"	"27.382"	"26.613"	"24.539"	"22.917"
"1918"	"22.913"	"24.013"	"26.895"	"30.206"	"30.77"	"30.229"	"30.632"	"29.659"	"28.936"	"27.537"	"25.094"	"23.688"
"1919"	"24.938"	"26.113"	"27.371"	"31.002"	"32.258"	"30.359"	"29.22"	"29.562"	"28.27"	"26.886"	"25.025"	"23.499"
"1920"	"23.552"	"25.553"	"27.984"	"30.315"	"32.253"	"31.275"	"30.59"	"29.556"	"29.263"	"27.549"	"24.987"	"23.328"
"1921"	"24.393"	"24.443"	"28.018"	"30.532"	"34.122"	"31.286"	"28.844"	"28.713"	"28.322"	"26.119"	"23.5"	"23.088"
"1922"	"23.233"	"24.486"	"27.889"	"31.29"	"32.148"	"31.151"	"29.573"	"29.427"	"28.73"	"26.438"	"24.503"	"22.492"
"1923"	"22.722"	"24.703"	"27.049"	"30.802"	"32.256"	"32.479"	"29.927"	"29.821"	"28.285"	"26.689"	"24.732"	"23.528"
"1924"	"23.588"	"25.283"	"27.615"	"31.486"	"32.484"	"31.64"	"29.436"	"29.363"	"27.609"	"26.908"	"24.022"	"22.74"
"1925"	"22.892"	"24.375"	"27.038"	"30.804"	"31.149"	"30.917"	"29.57"	"28.49"	"28.759"	"26.402"	"24.387"	"22.812"
"1926"	"23.833"	"24.988"	"28.335"	"30.76"	"32.11"	"32.062"	"29.788"	"29.069"	"28.475"	"27.02"	"24.135"	"23.277"
"1927"	"24.278"	"25.838"	"28.724"	"31.456"	"32.619"	"30.933"	"29.525"	"29.285"	"28.624"	"27.423"	"24.04"	"23.522"
"1928"	"24.314"	"25.436"	"27.319"	"30.816"	"33.344"	"31.562"	"29.689"	"28.812"	"28.57"	"26.937"	"25.062"	"23.723"
"1929"	"23.978"	"24.695"	"27.233"	"30.196"	"32.817"	"31.111"	"30.269"	"29.003"	"28.483"	"27.11"	"24.684"	"24.054"
"1930"	"23.68"	"24.781"	"27.799"	"30.257"	"31.451"	"30.424"	"30.169"	"29.364"	"28.467"	"26.335"	"23.936"	"23.671"
"1931"	"23.478"	"25.251"	"27.693"	"30.908"	"32.358"	"31.367"	"29.067"	"29.089"	"28.206"	"27.282"	"24.368"	"23.295"
"1932"	"22.802"	"24.78"	"27.568"	"30.185"	"30.975"	"31.24"	"29.52"	"28.749"	"28.445"	"26.923"	"24.888"	"23.219"
"1933"	"23.632"	"25.037"	"27.292"	"30.092"	"30.605"	"30.8"	"29.405"	"28.582"	"28.833"	"26.236"	"24.556"	"22.97"
"1934"	"23.226"	"24.031"	"27.059"	"30.637"	"32.505"	"30.852"	"29.35"	"28.576"	"28.767"	"26.872"	"23.955"	"22.687"
"1935"	"23.524"	"24.936"	"27.504"	"30.589"	"33.298"	"31.4"	"29.714"	"28.612"	"28.112"	"26.924"	"24.248"	"23.557"
"1936"	"24.359"	"25.724"	"27.097"	"30.965"	"31.779"	"30.078"	"29.478"	"28.711"	"28.82"	"27.209"	"24.664"	"23.776"
"1937"	"23.301"	"25.782"	"27.756"	"30.298"	"32.521"	"31.839"	"29.145"	"29.114"	"28.845"	"26.442"	"24.288"	"22.77"
"1938"	"23.95"	"25.733"	"28.428"	"30.698"	"33.079"	"29.421"	"29.286"	"28.616"	"27.888"	"27.133"	"24.02"	"23.006"
"1939"	"23.093"	"24.198"	"27.097"	"30.015"	"32.993"	"31.553"	"29.658"	"29.753"	"28.686"	"27.032"	"23.896"	"23.114"
"1940"	"22.253"	"24.498"	"28.453"	"30.153"	"31.942"	"30.812"	"29.257"	"28.997"	"28.69"	"26.877"	"24.718"	"23.671"
"1941"	"24.186"	"25.614"	"28.265"	"31.539"	"33.005"	"31.226"	"30.863"	"30.099"	"28.387"	"27.105"	"24.801"	"23.819"
"1942"	"23.75"	"25.432"	"27.426"	"30.629"	"32.7"	"31.326"	"29.917"	"28.819"	"28.723"	"26.717"	"24.504"	"23.716"
"1943"	"24.07"	"24.245"	"27.322"	"30.411"	"31.122"	"30.176"	"28.969"	"28.732"	"27.891"	"25.763"	"24.588"	"22.906"
"1944"	"23.936"	"25.435"	"26.598"	"30.353"	"31.931"	"30.776"	"28.699"	"28.918"	"28.078"	"27.02"	"24.537"	"23.321"
"1945"	"23.369"	"25.439"	"27.86"	"30.482"	"32.515"	"31.397"	"29.154"	"28.589"	"27.725"	"26.697"	"23.545"	"22.662"
"1946"	"22.44"	"24.383"	"28.091"	"30.379"	"32.379"	"30.207"	"29.62"	"28.633"	"27.974"	"27.164"	"25.168"	"23.733"
"1947"	"24.284"	"24.661"	"27.973"	"31.118"	"32.194"	"31.717"	"29.083"	"28.475"	"27.716"	"26.105"	"24.377"	"23.21"
"1948"	"23.842"	"25.718"	"27.612"	"30.437"	"32.93"	"31.927"	"29.682"	"28.834"	"28.351"	"27.025"	"25.585"	"22.753"
"1949"	"22.953"	"24.611"	"27.999"	"31"	"31.029"	"29.626"	"28.538"	"28.414"	"27.575"	"27.476"	"24.066"	"22.93"
"1950"	"22.753"	"24.987"	"27.487"	"30.601"	"32.149"	"31.038"	"29.161"	"28.747"	"27.639"	"26.423"	"24.149"	"22.989"
"1951"	"23.242"	"24.208"	"28.138"	"30.59"	"32.074"	"30.889"	"29.197"	"29.325"	"28.607"	"27.759"	"25.406"	"23.148"
"1952"	"23.795"	"25.728"	"28.206"	"31.433"	"32.037"	"31.179"	"30.11"	"28.923"	"29.134"	"26.918"	"24.346"	"23.669"
"1953"	"23.763"	"25.178"	"29.402"	"31.218"	"34.444"	"31.864"	"29.748"	"29.483"	"28.205"	"26.733"	"24.431"	"22.952"
"1954"	"23.518"	"25.945"	"28.148"	"31.706"	"33.268"	"31.529"	"28.465"	"28.359"	"28.16"	"26.289"	"23.555"	"23.4"
"1955"	"23.459"	"25.329"	"28.035"	"30.592"	"30.854"	"30.139"	"28.591"	"27.331"	"27.863"	"26.929"	"23.668"	"22.43"
"1956"	"23.219"	"24.266"	"28.145"	"31.322"	"32.53"	"29.669"	"27.936"	"28.159"	"27.687"	"26.077"	"24.574"	"22.954"
"1957"	"23.535"	"25.173"	"27.129"	"30.389"	"31.997"	"30.614"	"28.694"	"27.791"	"28.453"	"27.179"	"24.837"	"23.76"
"1958"	"23.945"	"26.181"	"28.727"	"31.206"	"32.039"	"32.745"	"29.416"	"28.246"	"28.982"	"26.901"	"25.08"	"23.537"
"1959"	"24.14"	"26.49"	"28.261"	"31.251"	"32.515"	"29.926"	"28.606"	"29.108"	"28.645"	"27.219"	"24.666"	"23.345"
"1960"	"23.923"	"25.06"	"28.076"	"31.153"	"32.451"	"30.805"	"29.334"	"30.042"	"28"	"27.175"	"24.011"	"23.612"
"1961"	"24.037"	"25.826"	"28.932"	"31.515"	"32.13"	"29.943"	"28.458"	"28.073"	"27.907"	"26.769"	"24.155"	"22.821"
"1962"	"22.821"	"25.297"	"27.837"	"30.849"	"31.294"	"30.045"	"29.071"	"28.326"	"27.923"	"26.327"	"24.378"	"23.352"
"1963"	"22.805"	"24.193"	"27.894"	"29.866"	"32.081"	"30.452"	"29.502"	"28.293"	"28.443"	"27.142"	"24.765"	"23.508"
"1964"	"23.585"	"25.915"	"29.121"	"31.74"	"33.921"	"31.128"	"29.287"	"28.272"	"27.64"	"27.6"	"23.762"	"22.893"
"1965"	"23.443"	"25.521"	"28.183"	"30.093"	"32.566"	"31.323"	"29.067"	"28.088"	"28.572"	"27.538"	"25.009"	"24.182"
"1966"	"24.425"	"26.011"	"29.106"	"31.374"	"33.185"	"30.583"	"29.534"	"29.015"	"27.88"	"26.601"	"25.378"	"23.394"
"1967"	"23.786"	"25.215"	"27.775"	"31.294"	"32.505"	"30.746"	"28.793"	"28.077"	"28.2"	"26.212"	"23.89"	"24.107"
"1968"	"23.247"	"25.91"	"28.099"	"30.343"	"32.382"	"31.214"	"29.936"	"30.111"	"28.315"	"26.684"	"24.65"	"23.784"
"1969"	"23.342"	"26.098"	"29.205"	"31.915"	"32.349"	"31.548"	"29.372"	"29.208"	"28.837"	"26.66"	"25.469"	"23.123"
"1970"	"23.936"	"25.938"	"29.126"	"31.394"	"32.712"	"30.179"	"29.147"	"27.845"	"28.171"	"26.8"	"24.379"	"21.902"
"1971"	"23.229"	"25.97"	"27.636"	"31.09"	"32.095"	"29.486"	"29.353"	"28.465"	"28.472"	"26.633"	"24.009"	"22.477"
"1972"	"22.577"	"25.51"	"27.693"	"30.95"	"31.888"	"31.765"	"29.851"	"30.15"	"29.471"	"26.915"	"24.968"	"24.236"
"1973"	"24.396"	"26.431"	"28.755"	"32.164"	"33.818"	"30.994"	"30.165"	"28.159"	"28.66"	"27.016"	"24.28"	"23.056"
"1974"	"22.85"	"25.123"	"28.364"	"31.624"	"31.808"	"30.702"	"29.429"	"28.948"	"28.136"	"26.859"	"24.22"	"22.747"
"1975"	"23.231"	"26.03"	"28.589"	"31.501"	"33.281"	"30.701"	"28.37"	"28.723"	"27.355"	"26.679"	"23.981"	"22.389"
"1976"	"22.724"	"24.761"	"28.344"	"31.036"	"32.548"	"31.096"	"28.526"	"27.884"	"28.288"	"27.62"	"25.5"	"24.171"
"1977"	"23.356"	"25.807"	"28.336"	"31.104"	"31.11"	"30.285"	"29.567"	"28.138"	"29.36"	"26.371"	"25.335"	"23.337"
"1978"	"23.856"	"25.371"	"28.127"	"31.03"	"32.521"	"30.303"	"28.768"	"28.113"	"28.187"	"27.372"	"25.466"	"23.875"
"1979"	"24.179"	"26.426"	"28.463"	"31.496"	"31.7"	"31.321"	"29.98"	"29.734"	"28.371"	"27.447"	"24.946"	"24.205"
"1980"	"24.173"	"26.454"	"28.968"	"31.271"	"33.564"	"30.552"	"29.63"	"28.366"	"29.318"	"27.908"	"25.217"	"23.956"
"1981"	"24.055"	"25.964"	"28.092"	"31.476"	"32.745"	"30.767"	"29.645"	"28.364"	"27.861"	"27.002"	"24.961"	"23.181"
"1982"	"23.9"	"26.601"	"28.982"	"31.362"	"32.438"	"31.028"	"29.669"	"29.4"	"29.132"	"27.539"	"25.457"	"23.669"
"1983"	"23.677"	"27.172"	"29.711"	"31.808"	"32.876"	"31.734"	"29.991"	"28.641"	"27.696"	"26.959"	"24.627"	"23.64"
"1984"	"24.401"	"25.279"	"28.205"	"30.992"	"33.542"	"31.038"	"28.422"	"29.712"	"28.683"	"27.133"	"24.58"	"24.039"
"1985"	"24.359"	"26.348"	"28.99"	"31.937"	"32.871"	"30.48"	"28.727"	"28.774"	"28.747"	"26.699"	"24.406"	"24.1"
"1986"	"23.08"	"25.554"	"28.748"	"31.371"	"33.216"	"31.265"	"30.62"	"29.423"	"29.764"	"27.335"	"25.455"	"24.595"
"1987"	"24.484"	"25.16"	"28.285"	"31.889"	"32.145"	"31.76"	"30.332"	"29.331"	"29.895"	"27.291"	"25.294"	"23.881"
"1988"	"24.006"	"26.607"	"29.885"	"30.869"	"33.599"	"32.025"	"28.918"	"28.345"	"28.088"	"27.679"	"24.642"	"23.778"
"1989"	"23.801"	"25.269"	"27.698"	"31.357"	"33.014"	"30.318"	"28.533"	"29.332"	"28.394"	"27.603"	"24.795"	"23.557"
"1990"	"24.025"	"26.562"	"29.152"	"31.841"	"30.161"	"30.243"	"29.476"	"28.983"	"29.107"	"26.789"	"25.412"	"24.03"
"1991"	"24.63"	"26.4"	"29.277"	"31.607"	"33.179"	"29.733"	"29.41"	"29.123"	"29.387"	"27.62"	"24.721"	"23.644"
"1992"	"23.158"	"26.15"	"28.38"	"31.404"	"32.603"	"31.686"	"30.266"	"28.891"	"29.161"	"27.283"	"25.521"	"23.321"
"1993"	"23.854"	"25.522"	"28.99"	"31.551"	"32.941"	"31.557"	"30.18"	"29.166"	"28.878"	"27.01"	"25.277"	"23.307"
"1994"	"24.392"	"26.232"	"29.154"	"31.293"	"33.418"	"31.476"	"29.391"	"29.107"	"29.955"	"26.946"	"24.454"	"23.113"
"1995"	"23.503"	"26.237"	"28.817"	"31.668"	"31.391"	"32.173"	"29.477"	"29.162"	"28.868"	"27.181"	"26.03"	"23.924"
"1996"	"24.615"	"26.163"	"29.027"	"31.123"	"33.9"	"30.395"	"29.633"	"28.893"	"28.367"	"26.788"	"25.455"	"23.47"
"1997"	"23.687"	"25.577"	"29.109"	"30.751"	"32.968"	"31.687"	"30.562"	"29.674"	"28.981"	"27.44"	"25.715"	"24.525"
"1998"	"25.678"	"27.341"	"29.94"	"32.116"	"33.644"	"32.692"	"30.28"	"29.133"	"29.04"	"27.238"	"25.61"	"23.598"
"1999"	"23.81"	"26.489"	"29.809"	"32.04"	"31.94"	"30.563"	"28.749"	"29.123"	"28.542"	"27.307"	"25.372"	"23.756"
"2000"	"24.838"	"26.721"	"28.504"	"32.101"	"32.592"	"30.115"	"29.106"	"28.771"	"28.878"	"27.398"	"25.581"	"23.701"
"2001"	"24.877"	"26.907"	"29.875"	"31.308"	"33.691"	"30.896"	"30.402"	"29.263"	"29.267"	"26.94"	"25.822"	"23.855"
"2002"	"24.801"	"25.861"	"29.354"	"32.077"	"33.609"	"30.914"	"30.953"	"29.178"	"29.638"	"27.526"	"24.946"	"23.94"
