
"Year"	"Jan"	"Feb"	"Mar"	"Apr"	"May"	"Jun"	"Jul"	"Aug"	"Sep"	"Oct"	"Nov"	"Dec"
"1901"	"1.343"	"35.045"	"0.26"	"0.91"	"12.954"	"22.29"	"87.341"	"98.337"	"104.49"	"90.114"	"201.825"	"98.171"
"1902"	"3.448"	"1.605"	"0"	"7.012"	"10.059"	"36.906"	"90.433"	"136.859"	"217.773"	"269.637"	"181.254"	"153.329"
"1903"	"14.083"	"1.376"	"0"	"0.108"	"187.26"	"81.197"	"65.939"	"127.205"	"163.454"	"115.346"	"389.358"	"106.182"
"1904"	"9.421"	"0"	"0"	"0.634"	"77.118"	"18.481"	"73.531"	"76.939"	"58.173"	"89.046"	"4.757"	"36.512"
"1905"	"3.901"	"6.665"	"67.684"	"9.198"	"13.134"	"54.601"	"29.034"	"90.758"	"128.688"	"307.027"	"63.915"	"1.925"
"1906"	"17.463"	"10.543"	"31.077"	"0.101"	"8.824"	"43.259"	"70.713"	"122.368"	"111.856"	"84.752"	"45.754"	"193.555"
"1907"	"2.254"	"0"	"11.656"	"19.047"	"1.052"	"29.602"	"109.26"	"23.471"	"49.011"	"127.696"	"182.217"	"108.249"
"1908"	"15.592"	"8.661"	"0.077"	"0.372"	"18.614"	"10.431"	"63.188"	"96.339"	"251.561"	"318.204"	"93.529"	"6.737"
"1909"	"17.816"	"1.588"	"0"	"44.38"	"86.738"	"36.592"	"87.035"	"155.21"	"313.173"	"22.828"	"12.424"	"3.334"
"1910"	"0.267"	"0.124"	"0.393"	"3.63"	"2.899"	"43.199"	"153.001"	"66.257"	"103.354"	"244.429"	"118.684"	"0.512"
"1911"	"0"	"0"	"0.316"	"4.937"	"13.526"	"27.756"	"35.334"	"44.898"	"201.244"	"145.635"	"192.372"	"74.397"
"1912"	"5.273"	"0"	"0"	"0.224"	"2.64"	"34.549"	"79.999"	"159.538"	"152.971"	"226.76"	"211.128"	"1.301"
"1913"	"0"	"5.882"	"0"	"0.216"	"24.514"	"14.573"	"132.329"	"39.194"	"71.211"	"265.512"	"57.382"	"117.594"
"1914"	"2.547"	"0"	"0.375"	"64.052"	"7.219"	"24.158"	"89.174"	"136.14"	"204.773"	"130.343"	"126.149"	"20.323"
"1915"	"9.192"	"3.759"	"28.041"	"7.322"	"11.964"	"31.296"	"151.581"	"83.712"	"132.305"	"45.717"	"414.709"	"5.026"
"1916"	"0.055"	"0"	"0"	"0.725"	"48.728"	"47.238"	"118.971"	"132.342"	"162.809"	"248.992"	"140.371"	"23.962"
"1917"	"1.848"	"12.409"	"0.242"	"0.57"	"39.84"	"126.883"	"49.659"	"115.325"	"252.649"	"332.906"	"137.81"	"61.97"
"1918"	"19.288"	"10.514"	"1.344"	"0.294"	"135.109"	"28.212"	"17.696"	"52.546"	"101.864"	"3.535"	"462.229"	"52.524"
"1919"	"9.673"	"0"	"41.493"	"7.601"	"66.764"	"28.12"	"120.149"	"52.59"	"178.089"	"94.987"	"216.002"	"124.701"
"1920"	"16.973"	"0"	"0"	"2.378"	"76.448"	"19.846"	"18.882"	"42.571"	"66.227"	"356.217"	"222.325"	"0.512"
"1921"	"14.357"	"0"	"0"	"63.497"	"1.72"	"26.974"	"165.68"	"62.59"	"210.366"	"247.8"	"48.269"	"6.935"
"1922"	"8.4"	"0"	"0"	"5.117"	"30.487"	"42.993"	"67.893"	"97.81"	"41.266"	"206.346"	"332.682"	"9.772"
"1923"	"9.837"	"0.844"	"6.911"	"0.967"	"10.683"	"39.89"	"30.097"	"94.534"	"142.558"	"283.897"	"37.617"	"9.851"
"1924"	"5.361"	"0"	"1.548"	"0.959"	"17.001"	"39.125"	"81.831"	"66.308"	"262.818"	"40.258"	"255.092"	"3.226"
"1925"	"1.566"	"0"	"13.377"	"2.921"	"101.982"	"49.383"	"64.997"	"129.722"	"35.248"	"172.756"	"260.127"	"193.369"
"1926"	"4.27"	"0.002"	"60.276"	"37.783"	"4.488"	"17.118"	"128.754"	"107.182"	"69.262"	"82.102"	"79.038"	"3.18"
"1927"	"2.087"	"0.05"	"0.003"	"0.789"	"16.321"	"55.372"	"61.865"	"95.181"	"168.697"	"49.09"	"256.525"	"6.89"
"1928"	"2.241"	"29.395"	"38.649"	"6.444"	"1.665"	"22.835"	"89.234"	"79.541"	"160.229"	"258.775"	"33.183"	"24.99"
"1929"	"9.476"	"22.425"	"0.144"	"22.763"	"43.716"	"32.515"	"39.679"	"60.118"	"209.039"	"116.097"	"148.729"	"46.516"
"1930"	"2.562"	"35.85"	"23.52"	"0.245"	"161.086"	"110.201"	"49.451"	"32.238"	"82.597"	"412.332"	"153.063"	"101.28"
"1931"	"0.065"	"0"	"0.46"	"21.245"	"51.822"	"89.588"	"96.003"	"58.639"	"164.424"	"221.583"	"181.815"	"72.352"
"1932"	"0"	"16.937"	"0"	"38.654"	"96.36"	"18.727"	"56.098"	"94.069"	"63.178"	"152.216"	"164.152"	"17.326"
"1933"	"0.002"	"0.35"	"12.815"	"2.289"	"36.63"	"19.353"	"43.575"	"100.523"	"61.362"	"273.938"	"97.48"	"137.807"
"1934"	"8.753"	"0"	"0"	"24.005"	"3.41"	"41.375"	"66.587"	"86.271"	"36.095"	"204.812"	"53.668"	"12.278"
"1935"	"8.562"	"0"	"2.001"	"1.16"	"1.011"	"27.561"	"120.049"	"141.775"	"72.785"	"217.344"	"31.13"	"13.775"
"1936"	"0.65"	"44.765"	"8.391"	"15.709"	"22.44"	"38.339"	"102.428"	"56.592"	"95.82"	"116.949"	"310.304"	"13.994"
"1937"	"0.095"	"30.222"	"0.251"	"83.201"	"5.436"	"22.953"	"85.919"	"71.581"	"91.795"	"179.907"	"221.877"	"25.969"
"1938"	"0"	"8.798"	"27.172"	"0.401"	"28.492"	"68.091"	"49.272"	"164.958"	"329.059"	"92.588"	"3.947"	"15.144"
"1939"	"7.201"	"0"	"7.888"	"82.944"	"1.654"	"21.092"	"55.384"	"40.13"	"97.103"	"238.572"	"181.997"	"9.196"
"1940"	"2.544"	"1.368"	"62.772"	"56.215"	"73.752"	"44.734"	"51.069"	"51.351"	"124.195"	"175.848"	"311.202"	"45.451"
"1941"	"2.34"	"8.39"	"0"	"3.139"	"5.951"	"65.174"	"35.904"	"49.697"	"171.143"	"129.34"	"193.654"	"116.418"
"1942"	"0.065"	"0.508"	"0"	"5.71"	"5.344"	"90.149"	"40.225"	"131.74"	"58.218"	"106.541"	"73.495"	"141.681"
"1943"	"6.255"	"11.256"	"0"	"16.368"	"128.107"	"34.983"	"60.944"	"58.598"	"70.305"	"485.989"	"110.996"	"48.846"
"1944"	"1.625"	"14.332"	"48.972"	"3.168"	"11.897"	"59.545"	"120.332"	"87.548"	"190.646"	"211.728"	"288.5"	"36.193"
"1945"	"0"	"0"	"0.151"	"21.714"	"8.654"	"25.931"	"85.651"	"95.133"	"159.142"	"62.01"	"144.46"	"3.272"
"1946"	"1.628"	"9.841"	"7.31"	"4.217"	"71.993"	"90.431"	"64.495"	"152.487"	"85.156"	"132.281"	"400.042"	"216.811"
"1947"	"15.165"	"0.586"	"1.15"	"10.221"	"31.087"	"12.177"	"84.649"	"86.04"	"134.821"	"114.392"	"24.939"	"63.277"
"1948"	"9.362"	"0.321"	"0.464"	"7.649"	"13.353"	"53.763"	"56.995"	"104.803"	"110.302"	"138.248"	"186.899"	"27.831"
"1949"	"0.065"	"0"	"0"	"17.127"	"86.604"	"69.319"	"119.207"	"219.404"	"291.143"	"58.876"	"72.817"	"0.512"
"1950"	"0.469"	"10.111"	"1.848"	"0.101"	"60.483"	"41.928"	"125.518"	"85.084"	"212.151"	"273.01"	"92.629"	"1.388"
"1951"	"1.749"	"0"	"12.419"	"26.069"	"22.786"	"32.691"	"116.325"	"82.358"	"90.634"	"55.553"	"90.274"	"0.562"
"1952"	"0.065"	"6.164"	"0"	"1.297"	"152.153"	"30.271"	"36.67"	"92.119"	"31.14"	"96.78"	"6.98"	"171.09"
"1953"	"1.848"	"4.997"	"0"	"6.562"	"4.125"	"22.265"	"86.317"	"89.762"	"133.086"	"327.366"	"30.971"	"3.636"
"1954"	"4.974"	"0.038"	"17.742"	"0.22"	"24.014"	"19.388"	"155.785"	"80.753"	"93.892"	"255.341"	"4.374"	"96.293"
"1955"	"7.699"	"0.004"	"4.184"	"17.125"	"234.466"	"19.971"	"77.607"	"138.493"	"100.344"	"100.262"	"76.882"	"77.461"
"1956"	"8.146"	"1.528"	"0"	"65.001"	"88.317"	"58.151"	"105.273"	"146.667"	"190.596"	"231.679"	"168.747"	"114.621"
"1957"	"0"	"6.237"	"13.277"	"3.351"	"32.108"	"105.856"	"130.137"	"140.732"	"111.473"	"123.682"	"182.554"	"0.543"
"1958"	"0.47"	"4.357"	"0.204"	"12.78"	"21.121"	"13.076"	"66.831"	"168.801"	"114.305"	"222.176"	"207.98"	"36.33"
"1959"	"0.065"	"14.862"	"0"	"74.3"	"20.864"	"128.026"	"56.434"	"65.439"	"61.945"	"187.898"	"82.125"	"17.942"
"1960"	"1.331"	"0"	"13.513"	"1.867"	"8.904"	"24.604"	"104.946"	"27.935"	"393.217"	"81.029"	"349.345"	"26.906"
"1961"	"11.136"	"35.281"	"0.28"	"0.968"	"28.04"	"142.194"	"105.15"	"272.953"	"162.812"	"128.246"	"154.207"	"1.526"
"1962"	"0.003"	"22.791"	"1.126"	"29.313"	"198.076"	"41.767"	"59.067"	"111.621"	"176.814"	"398.298"	"68.222"	"63.235"
"1963"	"6.798"	"0"	"21.075"	"66.385"	"17.604"	"66.252"	"69.452"	"217.858"	"75.423"	"181.222"	"70.584"	"97.875"
"1964"	"0"	"0"	"0"	"0.666"	"6.558"	"34.76"	"134.94"	"79.366"	"252.427"	"71.572"	"210.108"	"15.766"
"1965"	"0.051"	"11.459"	"0"	"38.369"	"5.597"	"41.035"	"77.192"	"131.425"	"158.512"	"60.669"	"104.278"	"107.526"
"1966"	"6.843"	"0"	"0.007"	"1.116"	"99.609"	"42.399"	"116.288"	"153.42"	"256.742"	"119.399"	"362.669"	"40.701"
"1967"	"9.07"	"0"	"24.131"	"2.973"	"54.633"	"84.199"	"90.472"	"111.243"	"112.892"	"74.835"	"88.398"	"107.793"
"1968"	"0.03"	"8.471"	"18.8"	"62.644"	"14.133"	"38.793"	"53.41"	"20.26"	"143.12"	"111.023"	"102.681"	"55.837"
"1969"	"0.065"	"0"	"0.132"	"0.294"	"68.185"	"32.811"	"142.201"	"99.757"	"19.129"	"391.371"	"166.758"	"151.996"
"1970"	"3.737"	"5.584"	"4.909"	"3.794"	"96.15"	"69.025"	"120.444"	"161.849"	"89.445"	"98.621"	"98.665"	"1.782"
"1971"	"5.508"	"1.674"	"31.618"	"97.271"	"37.61"	"32.734"	"97.897"	"59.422"	"157.185"	"287.959"	"40.123"	"27.438"
"1972"	"1.162"	"10.031"	"0"	"3.274"	"55.35"	"91.27"	"48.278"	"51.321"	"76.54"	"307.811"	"130.444"	"142.216"
"1973"	"0.02"	"0"	"0.02"	"0.201"	"7.447"	"43.437"	"59.483"	"128.626"	"101.195"	"163.907"	"89.691"	"38.659"
"1974"	"1.477"	"0"	"0.54"	"1.083"	"20.499"	"39.418"	"79.11"	"47.838"	"176.952"	"128.607"	"75.238"	"4.913"
"1975"	"0.862"	"0"	"4.127"	"0.405"	"15.723"	"67.313"	"110.961"	"98.549"	"137.105"	"325.174"	"165.222"	"7.192"
"1976"	"1.619"	"0.615"	"0"	"1.476"	"11.888"	"53.427"	"178.298"	"275.306"	"45.751"	"294.369"	"338.81"	"8.957"
"1977"	"2.065"	"2.868"	"0.109"	"31.698"	"49.131"	"39.414"	"45.45"	"76.213"	"54.137"	"273.136"	"147.482"	"9.366"
"1978"	"4.547"	"7.196"	"0.086"	"5.534"	"8.172"	"56.21"	"113.861"	"92.741"	"191.574"	"110.362"	"158.278"	"132.93"
"1979"	"1.907"	"19.715"	"1.671"	"11.556"	"185.987"	"38.92"	"55.118"	"53.505"	"153.166"	"64.846"	"332.669"	"40.649"
"1980"	"1.079"	"0"	"0.82"	"3.419"	"28.599"	"82.904"	"87.949"	"131.021"	"82.934"	"126.163"	"231.736"	"26.484"
"1981"	"10.846"	"0.002"	"10.772"	"18.76"	"46.287"	"35.638"	"121.639"	"137.904"	"235.199"	"253.682"	"67.13"	"47.803"
"1982"	"2.91"	"0"	"0.47"	"4.214"	"4.5"	"67.534"	"87.568"	"50.24"	"108.297"	"151.309"	"126.566"	"4.605"
"1983"	"0"	"0.431"	"6.037"	"1.064"	"51.591"	"50.323"	"163.092"	"190.511"	"275.769"	"213.626"	"65.533"	"79.467"
"1984"	"5.163"	"33.971"	"4.63"	"4.78"	"1.093"	"25.899"	"118.995"	"11.529"	"224.108"	"71.208"	"233.613"	"46.363"
"1985"	"12.297"	"0.002"	"7.516"	"26.072"	"5"	"59.763"	"131.325"	"67.787"	"240.645"	"114.91"	"330.591"	"53.211"
"1986"	"25.009"	"25.681"	"0"	"10.882"	"5.333"	"41.129"	"31.054"	"74.432"	"103.457"	"249.773"	"127.242"	"69.171"
"1987"	"1.806"	"0"	"29.02"	"14.729"	"13.017"	"67.083"	"53.974"	"105.132"	"37.677"	"211.674"	"145.152"	"107.384"
"1988"	"0"	"10.48"	"0.001"	"55.666"	"44.322"	"16.47"	"126.081"	"212.888"	"179.383"	"73.996"	"160.639"	"69.53"
"1989"	"1.325"	"0"	"39.534"	"0.423"	"7.544"	"86.715"	"150.251"	"47.417"	"212.881"	"129.534"	"161.332"	"46.108"
"1990"	"2.222"	"5.692"	"29.31"	"1.571"	"109.678"	"29.482"	"57.885"	"94.629"	"177.08"	"267.895"	"134.745"	"11.515"
"1991"	"1.866"	"0.97"	"0"	"4.772"	"14.059"	"121.191"	"70.35"	"102.811"	"122.301"	"153.403"	"203.177"	"1.237"
"1992"	"4.053"	"0"	"0"	"1.892"	"37.535"	"30.983"	"71.681"	"114.108"	"68.235"	"94.972"	"172.077"	"36.196"
"1993"	"0"	"0"	"2.357"	"4.589"	"106.387"	"60.937"	"82.261"	"153.835"	"79.96"	"259.884"	"137.656"	"102.041"
"1994"	"3.631"	"28.167"	"2.08"	"7.93"	"63.375"	"43.894"	"66.507"	"118.719"	"50.2"	"316.072"	"221.644"	"8.952"
"1995"	"17.94"	"0.018"	"21.78"	"6.579"	"54.838"	"39.44"	"113.273"	"235.21"	"204.012"	"262.231"	"116.342"	"4.712"
"1996"	"0.16"	"0.083"	"0"	"43.566"	"30.875"	"158.55"	"71.579"	"116.118"	"192.415"	"220.675"	"217.133"	"113.183"
"1997"	"3.471"	"0"	"4.48"	"34.998"	"10.745"	"59.933"	"45.835"	"84.902"	"87.338"	"182.232"	"338.43"	"174.323"
"1998"	"0.243"	"0"	"0"	"13.039"	"43.497"	"24.104"	"101.099"	"136.188"	"84.743"	"181.238"	"147.394"	"74.721"
"1999"	"0.524"	"1.599"	"0"	"15.359"	"42.734"	"71.793"	"57.145"	"125.034"	"114.863"	"145.384"	"65.992"	"22.002"
"2000"	"0.001"	"30.855"	"0"	"17.432"	"44.012"	"91.709"	"93.81"	"150.554"	"124.983"	"163.897"	"57.556"	"18.016"
"2001"	"3.245"	"0"	"11.474"	"24.827"	"18.516"	"62.824"	"77.046"	"79.426"	"141.555"	"274.621"	"88.006"	"61.724"
"2002"	"11.512"	"1.914"	"2.947"	"0.771"	"60.741"	"38.6"	"43.289"	"119.725"	"96.242"	"214.807"	"146.023"	"10.256"
