
"Year"	"Jan"	"Feb"	"Mar"	"Apr"	"May"	"Jun"	"Jul"	"Aug"	"Sep"	"Oct"	"Nov"	"Dec"
"1901"	"4.899"	"15.857"	"27.449"	"64.091"	"22.19"	"131.64"	"223.392"	"175.146"	"167.656"	"66.751"	"1.34"	"0"
"1902"	"0"	"0"	"0.26"	"18.326"	"4.86"	"48.859"	"149.676"	"191.96"	"197.328"	"81.731"	"80.541"	"9.566"
"1903"	"11.504"	"0.205"	"0"	"4.206"	"68.191"	"89.359"	"335.582"	"381.408"	"223.003"	"267.432"	"70.017"	"9.904"
"1904"	"0"	"0.009"	"10.176"	"0.248"	"5.735"	"126.68"	"158.917"	"49.424"	"306.515"	"99.223"	"0.231"	"0"
"1905"	"0"	"7.629"	"0.377"	"38.579"	"22.032"	"77.135"	"56.121"	"247.134"	"359.192"	"12.81"	"0.231"	"0"
"1906"	"7.148"	"0.035"	"11.43"	"1.24"	"12.371"	"285.358"	"203.138"	"154.198"	"202.694"	"54.113"	"30.998"	"17.317"
"1907"	"0.513"	"7.152"	"3.619"	"67.805"	"0.247"	"200.967"	"149.16"	"211.823"	"136.168"	"0.939"	"2.223"	"6.37"
"1908"	"0.031"	"21.386"	"8.761"	"6.925"	"2.259"	"108.552"	"118.985"	"222.415"	"549.588"	"0.939"	"0.231"	"0"
"1909"	"1.206"	"1.533"	"5.107"	"55.372"	"5.749"	"164.323"	"213.797"	"121.25"	"122.742"	"1.782"	"0.231"	"2.054"
"1910"	"0"	"0"	"0.581"	"0.317"	"14.378"	"138.433"	"143.715"	"152.484"	"447.391"	"95.108"	"95.577"	"0"
"1911"	"0"	"0"	"0.652"	"0.278"	"2.62"	"78.133"	"171.818"	"163.214"	"201.957"	"4.373"	"17.229"	"0"
"1912"	"0"	"36.044"	"0"	"13.051"	"18.618"	"61.144"	"191.544"	"205.948"	"90.29"	"33.82"	"55.875"	"0.005"
"1913"	"0"	"18.136"	"0.018"	"19.09"	"61.54"	"155.534"	"348.252"	"68.132"	"94.93"	"91.494"	"0.231"	"0.989"
"1914"	"0"	"2.156"	"2.069"	"12.343"	"13.515"	"187.611"	"221.283"	"223.794"	"364.831"	"4.586"	"10.252"	"8.786"
"1915"	"24.603"	"0.213"	"58.983"	"11.176"	"7.061"	"187.757"	"73.296"	"166.504"	"220.526"	"130.72"	"23.642"	"0.172"
"1916"	"0.011"	"13.598"	"1.125"	"3.913"	"26.903"	"150.231"	"218.329"	"103.835"	"306.784"	"210.07"	"76.774"	"0"
"1917"	"0"	"31.781"	"23.352"	"24.611"	"51.171"	"199.362"	"226.339"	"189.631"	"383.61"	"71.099"	"14.446"	"0"
"1918"	"2.641"	"0.155"	"0.385"	"7.909"	"125.795"	"41.583"	"131.372"	"127.305"	"104.342"	"1.187"	"14.243"	"26.427"
"1919"	"5.732"	"0.247"	"0.98"	"20.601"	"62.958"	"162.263"	"145.05"	"112.184"	"155.969"	"40.669"	"72.708"	"2.506"
"1920"	"8.24"	"0"	"0.138"	"32.791"	"11.245"	"118.898"	"156.862"	"75.425"	"130.503"	"7.989"	"0.231"	"0"
"1921"	"1.746"	"0"	"0.823"	"23.174"	"0.324"	"278.405"	"178.786"	"139.165"	"178.137"	"30.967"	"63.392"	"0"
"1922"	"30.135"	"0.559"	"0"	"4.759"	"14.238"	"124.633"	"145.859"	"83.845"	"177.567"	"24.232"	"60.125"	"0"
"1923"	"0"	"8.824"	"15.766"	"19.239"	"0.854"	"6.74"	"238.266"	"37.258"	"312.637"	"5.453"	"0.231"	"0"
"1924"	"1.659"	"0"	"4.407"	"15.487"	"9.365"	"33.216"	"121.486"	"135.579"	"217.029"	"59.777"	"72.29"	"5.843"
"1925"	"0"	"0"	"0.912"	"0.598"	"51.617"	"144.138"	"144.424"	"173.868"	"111.157"	"97.847"	"34.047"	"0.077"
"1926"	"27.928"	"0"	"4.855"	"48.637"	"82.976"	"29.487"	"132.764"	"314.754"	"163.84"	"5.043"	"3.55"	"0.155"
"1927"	"0"	"0.83"	"11.223"	"15.101"	"4.268"	"118.819"	"137.752"	"127.539"	"135.657"	"85.708"	"121.451"	"0"
"1928"	"0"	"14.393"	"32.923"	"7.806"	"1.449"	"265.733"	"129.369"	"105.258"	"506.612"	"73.781"	"0.231"	"10.018"
"1929"	"0"	"33.993"	"0.378"	"34.653"	"3.323"	"152.271"	"74.732"	"88.19"	"217.643"	"16.771"	"0.231"	"3.767"
"1930"	"0"	"0.505"	"2.005"	"14.908"	"3.328"	"164.88"	"92.553"	"171.009"	"258.109"	"98.456"	"17.035"	"0.841"
"1931"	"0"	"0"	"10.097"	"10.86"	"13.516"	"177.692"	"304.44"	"137.198"	"301.725"	"91.932"	"47.688"	"2.345"
"1932"	"0"	"3.886"	"3.366"	"6.234"	"10.392"	"130.496"	"258.601"	"213.018"	"155.311"	"36.5"	"74.225"	"0"
"1933"	"2.076"	"7.393"	"8.395"	"35.868"	"79.471"	"235.523"	"184.226"	"115.922"	"227.799"	"54.694"	"14.666"	"20.537"
"1934"	"2.461"	"0"	"2.095"	"15.779"	"0.626"	"114.333"	"290.995"	"233.212"	"132.561"	"30.501"	"43.48"	"0"
"1935"	"14.315"	"0.462"	"0"	"34.426"	"0.648"	"211.899"	"212.902"	"167.413"	"217.71"	"88.11"	"0.231"	"0.782"
"1936"	"0.728"	"31.337"	"10.794"	"12.215"	"47.194"	"191.211"	"159.436"	"162.234"	"182.225"	"52.532"	"96.744"	"2.431"
"1937"	"0"	"23.691"	"24.76"	"75.264"	"1.89"	"91.212"	"288.217"	"35.365"	"124.474"	"43.737"	"0.231"	"5.641"
"1938"	"0"	"9.741"	"3.342"	"13.048"	"16.461"	"376.632"	"218.294"	"280.4"	"216.285"	"52.692"	"0.231"	"0.097"
"1939"	"0"	"0"	"9.396"	"5.477"	"0.56"	"134.029"	"114.73"	"144.681"	"184.65"	"35.943"	"22.042"	"0.124"
"1940"	"0"	"0.077"	"0.053"	"29.474"	"33.002"	"135.263"	"152.345"	"233.173"	"168.119"	"99.293"	"6.966"	"0.865"
"1941"	"4.494"	"1.605"	"2.367"	"2.686"	"11.785"	"69.726"	"87.049"	"213.258"	"241.865"	"6.667"	"0.242"	"0.032"
"1942"	"0"	"11.356"	"1.251"	"35.261"	"22.485"	"204.156"	"171.873"	"244.6"	"76.618"	"20.096"	"0.231"	"9.374"
"1943"	"28.584"	"0.038"	"4.823"	"21.41"	"30.678"	"208.309"	"176.964"	"90.764"	"310.001"	"125.411"	"1.225"	"0"
"1944"	"0.068"	"10.805"	"41.769"	"1.949"	"11.54"	"86.053"	"158.056"	"110.983"	"301.014"	"89.77"	"40.704"	"0"
"1945"	"0.889"	"0"	"0"	"38.223"	"4.011"	"190.747"	"204.414"	"206.334"	"199.115"	"82.217"	"3.893"	"0"
"1946"	"0"	"17.844"	"17.628"	"19.595"	"13.023"	"163.763"	"204.748"	"155.565"	"108.31"	"12.649"	"53.183"	"6.857"
"1947"	"6.993"	"20.527"	"0.429"	"4.076"	"1.564"	"45.409"	"196.857"	"305.86"	"366.578"	"10.601"	"1.974"	"2.312"
"1948"	"2.081"	"0"	"4.247"	"9.96"	"13.308"	"137.136"	"240.538"	"131.867"	"337.744"	"26.09"	"138.274"	"0"
"1949"	"2.559"	"1.909"	"0.428"	"24.35"	"64.656"	"176.729"	"278.268"	"157.946"	"368.454"	"97.964"	"2.559"	"0"
"1950"	"0"	"14.848"	"25.001"	"2.122"	"14.386"	"66.307"	"157.948"	"81.383"	"310.752"	"25.329"	"0.402"	"0.248"
"1951"	"0.167"	"0"	"22.71"	"20.826"	"50.373"	"168.579"	"294.004"	"111.661"	"143.498"	"96.245"	"0.231"	"0"
"1952"	"0"	"14.909"	"0"	"20.472"	"64.489"	"78.383"	"250.006"	"114.696"	"130.15"	"145.648"	"0.231"	"0.382"
"1953"	"0.171"	"0.024"	"0"	"39.18"	"0.247"	"217.466"	"226.604"	"162.157"	"270.934"	"147.566"	"0.231"	"0"
"1954"	"0"	"0"	"6.508"	"16.764"	"3.415"	"175.676"	"230.732"	"171.365"	"292.452"	"21.112"	"0.231"	"1.882"
"1955"	"1.993"	"0"	"2.702"	"12.096"	"21.654"	"200.213"	"258.607"	"391.959"	"265.601"	"29.339"	"0.946"	"0"
"1956"	"0"	"0"	"0.018"	"0.845"	"68.988"	"149.498"	"348.144"	"148.949"	"216.41"	"87.442"	"92.818"	"0.048"
"1957"	"0.035"	"3.202"	"13.612"	"52.96"	"26.92"	"149.515"	"155.194"	"302.801"	"74.278"	"122.171"	"0.231"	"0"
"1958"	"0.331"	"0.012"	"6.222"	"23.927"	"13.489"	"39.673"	"402.465"	"373.412"	"93.22"	"63.148"	"23.33"	"0"
"1959"	"0.965"	"0"	"0.151"	"23.566"	"10.815"	"215.608"	"298.375"	"299.192"	"325.932"	"102.404"	"20.475"	"0.136"
"1960"	"0"	"0"	"29.264"	"3.963"	"27.473"	"198.453"	"141.688"	"87.533"	"214.156"	"93.112"	"37.816"	"6.902"
"1961"	"0.236"	"0"	"3.111"	"43.998"	"68.441"	"136.575"	"309.926"	"166.77"	"153"	"239.618"	"4.692"	"0.153"
"1962"	"0.299"	"7.268"	"3.412"	"45.897"	"39.565"	"62.077"	"184.251"	"273.023"	"387.083"	"32.64"	"36.497"	"33.723"
"1963"	"0"	"1.265"	"11.245"	"24.247"	"74.843"	"199.755"	"175.222"	"432.473"	"143.759"	"206.643"	"0.231"	"0"
"1964"	"3.609"	"0.03"	"2.788"	"1.841"	"0.341"	"96.52"	"218.442"	"249.672"	"340.922"	"20.326"	"10.364"	"0"
"1965"	"0.631"	"0.104"	"0.091"	"3.612"	"4.467"	"219.077"	"447.318"	"165.399"	"282.676"	"2.051"	"0.263"	"2.068"
"1966"	"17.758"	"19.143"	"3.765"	"16.287"	"6.797"	"106.53"	"262.521"	"166.008"	"328.487"	"17.03"	"25.136"	"28.785"
"1967"	"1.139"	"0.838"	"20.989"	"2.211"	"8.31"	"109.867"	"281.208"	"113.618"	"136.204"	"9.838"	"3.846"	"4.858"
"1968"	"22.766"	"15.718"	"12.616"	"7.472"	"6.586"	"76.067"	"158.842"	"28.305"	"289.948"	"42.857"	"74.305"	"0.092"
"1969"	"0"	"0"	"0.632"	"22.596"	"29.555"	"62.786"	"262.737"	"98.508"	"374.142"	"26.37"	"63.25"	"0.371"
"1970"	"4.117"	"0"	"0.275"	"23.019"	"10.535"	"243.861"	"162.484"	"347.052"	"210.17"	"14.736"	"0.231"	"0"
"1971"	"0.623"	"0.174"	"8.354"	"15.508"	"49.109"	"123.196"	"51.327"	"202.753"	"124.648"	"162.775"	"0.231"	"0"
"1972"	"0"	"0.247"	"0"	"59.595"	"10.39"	"173.504"	"78.315"	"145.579"	"78.655"	"8.604"	"42.822"	"0.018"
"1973"	"0"	"0.122"	"0"	"16.05"	"1.089"	"117.2"	"149.174"	"388.97"	"70.874"	"282.437"	"2.676"	"0"
"1974"	"0"	"0.095"	"0.043"	"26.347"	"37.004"	"135.527"	"90.635"	"161.466"	"174.337"	"257.663"	"0.616"	"0"
"1975"	"14.847"	"3.036"	"30.649"	"11.186"	"21.29"	"67.016"	"273.951"	"176.402"	"455.977"	"196.376"	"1.336"	"0"
"1976"	"0"	"0"	"1.611"	"62.16"	"7.617"	"88.799"	"340.095"	"267.749"	"125.249"	"5.977"	"17.855"	"0"
"1977"	"0"	"0"	"4.867"	"20.831"	"32.674"	"64.976"	"185.237"	"184.785"	"112.061"	"68.261"	"102.653"	"0.32"
"1978"	"22.471"	"38.112"	"1.579"	"21.501"	"29.437"	"236.467"	"285.926"	"277.032"	"165.613"	"76.69"	"16.483"	"0"
"1979"	"7.657"	"23.975"	"1.914"	"18.655"	"109.331"	"121.738"	"130.11"	"125.031"	"287.683"	"17.856"	"72.978"	"1.6"
"1980"	"1.326"	"0"	"9.983"	"25.889"	"10.155"	"208.927"	"143.36"	"263.26"	"154.272"	"10.45"	"2.144"	"10.546"
"1981"	"12.745"	"0"	"45.383"	"17.022"	"35.07"	"211.356"	"210.927"	"222.544"	"336.308"	"34.911"	"4.856"	"1.772"
"1982"	"3.345"	"0.024"	"3.078"	"38.353"	"21.694"	"89.295"	"342.652"	"112.446"	"265.085"	"128.215"	"30.416"	"0"
"1983"	"0"	"0.018"	"0.043"	"0.878"	"11.494"	"136.911"	"226.44"	"563.83"	"413.979"	"207.382"	"24.17"	"9.66"
"1984"	"1.861"	"11.161"	"0"	"1.588"	"0.551"	"55.462"	"179.652"	"165.893"	"105.255"	"72.704"	"0.263"	"0.169"
"1985"	"8.769"	"0.017"	"15.061"	"15.777"	"1.642"	"186.774"	"230.085"	"95.033"	"45.796"	"119.723"	"3.892"	"3.631"
"1986"	"15.262"	"14.381"	"0.012"	"36.001"	"4.197"	"198.337"	"210.022"	"273.663"	"83.418"	"36.41"	"28.029"	"13.668"
"1987"	"12.743"	"2.278"	"21.445"	"4.931"	"32.771"	"135.597"	"167.083"	"180.092"	"87.382"	"120.341"	"49.904"	"3.636"
"1988"	"0"	"23.75"	"0.218"	"34.254"	"15.754"	"109.11"	"368.707"	"248.384"	"268.187"	"85.843"	"3.681"	"9.105"
"1989"	"0"	"0"	"31.105"	"1.743"	"13.393"	"150.811"	"398.624"	"161.972"	"194.308"	"68.226"	"2.876"	"5.161"
"1990"	"2.247"	"0.445"	"13.406"	"0.612"	"134.88"	"167.987"	"171.332"	"297.23"	"96.763"	"128.192"	"24.657"	"2.796"
"1991"	"2.418"	"1.255"	"0.116"	"23.802"	"9.207"	"207.398"	"180.852"	"219.271"	"136.719"	"29.079"	"23.63"	"0"
"1992"	"0"	"0.217"	"0"	"5.48"	"40.313"	"109.206"	"108.719"	"322.708"	"194.43"	"42.659"	"11.684"	"0"
"1993"	"0"	"1.699"	"4.515"	"9.175"	"7.846"	"99.478"	"241.281"	"208.825"	"178.984"	"189.846"	"0.351"	"5.891"
"1994"	"21.375"	"6.172"	"7.711"	"48.864"	"6.243"	"142.146"	"184.833"	"228.088"	"140.382"	"189.128"	"33.708"	"0"
"1995"	"25.535"	"0"	"31.862"	"1.992"	"51.634"	"155.038"	"316.088"	"167.641"	"247.878"	"227.661"	"23.402"	"0"
"1996"	"0.858"	"1.084"	"1.978"	"34.59"	"5.685"	"78.492"	"248.405"	"376.385"	"241.709"	"158.429"	"53.878"	"0"
"1997"	"13.396"	"0"	"5.933"	"53.558"	"11.366"	"62.661"	"209.076"	"218.119"	"90.465"	"80.641"	"92.754"	"15.952"
"1998"	"0.923"	"0.648"	"1.982"	"3.795"	"9.168"	"61.585"	"243.208"	"302.311"	"307.962"	"185.13"	"34.068"	"0"
"1999"	"0.012"	"8.231"	"0"	"5.315"	"81.463"	"92.502"	"194.909"	"191.361"	"217.609"	"81.253"	"0.231"	"0"
"2000"	"0"	"10.476"	"0"	"7.729"	"40.866"	"227.345"	"188.878"	"469.347"	"65.782"	"17.254"	"2.446"	"1.036"
"2001"	"23.04"	"0"	"35.646"	"15.163"	"6.059"	"233.942"	"61.871"	"250.654"	"85.397"	"110.015"	"1.709"	"0"
"2002"	"23.168"	"0.444"	"8.526"	"6.865"	"29.792"	"214.372"	"73.808"	"245.649"	"105.411"	"87.284"	"3.344"	"0"
