
"Year"	"Jan"	"Feb"	"Mar"	"Apr"	"May"	"Jun"	"Jul"	"Aug"	"Sep"	"Oct"	"Nov"	"Dec"
"1901"	"6.728"	"6.969"	"7.72"	"8.31"	"8.256"	"7.586"	"7.291"	"7.211"	"7.425"	"7.425"	"7.264"	"6.835"
"1902"	"6.916"	"7.211"	"7.934"	"8.336"	"8.363"	"7.774"	"7.398"	"7.425"	"7.237"	"7.559"	"7.264"	"6.862"
"1903"	"6.782"	"6.996"	"7.559"	"8.149"	"8.068"	"7.613"	"7.237"	"7.237"	"7.237"	"7.345"	"6.916"	"6.567"
"1904"	"6.755"	"7.13"	"7.666"	"8.229"	"8.122"	"7.452"	"7.237"	"7.237"	"7.345"	"7.532"	"7.023"	"6.675"
"1905"	"6.621"	"6.943"	"7.425"	"7.854"	"8.149"	"7.881"	"7.371"	"7.318"	"7.345"	"7.532"	"7.291"	"6.675"
"1906"	"6.728"	"6.943"	"7.559"	"8.176"	"8.31"	"7.559"	"7.237"	"7.237"	"7.237"	"7.452"	"7.291"	"6.835"
"1907"	"6.916"	"7.103"	"7.693"	"7.854"	"8.042"	"7.559"	"7.237"	"7.05"	"7.345"	"7.506"	"7.291"	"6.728"
"1908"	"6.809"	"6.996"	"7.452"	"8.229"	"8.042"	"7.64"	"7.13"	"7.13"	"7.318"	"7.479"	"6.969"	"6.514"
"1909"	"6.541"	"6.969"	"7.72"	"8.015"	"8.149"	"7.586"	"7.103"	"7.237"	"7.157"	"7.398"	"7.103"	"6.675"
"1910"	"6.755"	"7.211"	"7.747"	"8.176"	"8.122"	"7.479"	"7.345"	"7.13"	"7.157"	"7.291"	"6.675"	"6.514"
"1911"	"6.809"	"6.889"	"7.613"	"8.015"	"8.095"	"7.532"	"7.318"	"7.184"	"7.398"	"7.479"	"7.264"	"6.996"
"1912"	"6.835"	"7.264"	"7.747"	"8.283"	"8.256"	"7.666"	"7.291"	"7.211"	"7.371"	"7.452"	"7.077"	"6.648"
"1913"	"6.728"	"7.103"	"7.532"	"8.149"	"8.229"	"7.559"	"7.211"	"7.264"	"7.371"	"7.452"	"7.077"	"6.701"
"1914"	"6.835"	"7.077"	"7.559"	"8.015"	"8.256"	"7.747"	"7.291"	"7.211"	"7.425"	"7.64"	"7.371"	"6.782"
"1915"	"6.862"	"7.023"	"7.666"	"8.229"	"8.256"	"7.747"	"7.425"	"7.345"	"7.345"	"7.452"	"7.264"	"6.621"
"1916"	"6.782"	"6.889"	"7.8"	"8.229"	"8.149"	"7.425"	"7.345"	"7.237"	"7.291"	"7.318"	"7.13"	"6.621"
"1917"	"6.809"	"7.05"	"7.559"	"8.095"	"7.961"	"7.371"	"7.398"	"7.184"	"7.211"	"7.157"	"6.862"	"6.514"
"1918"	"6.701"	"6.889"	"7.666"	"7.961"	"7.854"	"7.506"	"7.506"	"7.345"	"7.371"	"7.586"	"7.398"	"6.648"
"1919"	"6.889"	"7.023"	"7.586"	"8.176"	"8.149"	"7.586"	"7.291"	"7.211"	"7.398"	"7.532"	"7.237"	"6.728"
"1920"	"6.969"	"7.13"	"7.827"	"8.149"	"8.202"	"7.613"	"7.291"	"7.264"	"7.398"	"7.586"	"7.237"	"6.675"
"1921"	"6.862"	"7.05"	"7.8"	"8.176"	"8.256"	"7.613"	"7.237"	"7.157"	"7.184"	"7.479"	"7.05"	"6.701"
"1922"	"6.809"	"7.103"	"7.747"	"8.229"	"8.122"	"7.506"	"7.157"	"7.157"	"7.211"	"7.479"	"7.211"	"6.594"
"1923"	"6.782"	"6.916"	"7.72"	"8.149"	"8.095"	"7.774"	"7.13"	"7.184"	"7.264"	"7.479"	"7.05"	"6.862"
"1924"	"6.755"	"7.103"	"7.908"	"8.336"	"8.283"	"7.666"	"7.291"	"7.318"	"7.291"	"7.371"	"6.996"	"6.675"
"1925"	"6.567"	"6.755"	"7.8"	"8.31"	"8.122"	"7.425"	"7.318"	"7.291"	"7.425"	"7.693"	"7.371"	"6.862"
"1926"	"6.889"	"7.184"	"7.8"	"8.015"	"8.176"	"7.854"	"7.479"	"7.318"	"7.345"	"7.425"	"7.05"	"6.675"
"1927"	"6.701"	"7.05"	"7.693"	"8.122"	"8.095"	"7.532"	"7.211"	"7.237"	"7.371"	"7.452"	"6.835"	"6.755"
"1928"	"6.889"	"6.943"	"7.666"	"8.229"	"8.256"	"7.613"	"7.291"	"7.184"	"7.264"	"7.398"	"7.264"	"6.755"
"1929"	"6.755"	"6.996"	"7.854"	"8.229"	"8.256"	"7.425"	"7.318"	"7.291"	"7.398"	"7.425"	"7.345"	"6.701"
"1930"	"6.701"	"7.023"	"7.64"	"8.122"	"8.095"	"7.559"	"7.237"	"7.211"	"7.345"	"7.586"	"7.157"	"6.862"
"1931"	"7.05"	"7.13"	"7.693"	"8.363"	"8.336"	"7.854"	"7.291"	"7.291"	"7.371"	"7.371"	"7.291"	"6.809"
"1932"	"6.969"	"7.077"	"7.693"	"8.229"	"8.095"	"7.613"	"7.157"	"7.291"	"7.345"	"7.532"	"7.264"	"6.809"
"1933"	"6.862"	"7.023"	"7.666"	"8.176"	"7.988"	"7.425"	"7.291"	"7.13"	"7.211"	"7.345"	"7.264"	"6.728"
"1934"	"6.594"	"7.023"	"7.506"	"8.149"	"8.149"	"7.479"	"7.211"	"7.103"	"7.345"	"7.532"	"6.889"	"6.755"
"1935"	"6.648"	"6.969"	"7.747"	"7.988"	"8.202"	"7.613"	"7.13"	"7.13"	"7.103"	"7.479"	"7.077"	"6.782"
"1936"	"6.728"	"7.077"	"7.613"	"8.095"	"8.149"	"7.291"	"7.211"	"7.157"	"7.318"	"7.452"	"7.237"	"6.755"
"1937"	"6.675"	"7.077"	"7.586"	"7.961"	"8.068"	"7.532"	"7.077"	"7.237"	"7.291"	"7.345"	"7.237"	"6.567"
"1938"	"6.728"	"7.023"	"7.747"	"8.256"	"8.229"	"7.264"	"7.103"	"7.13"	"7.184"	"7.05"	"6.943"	"6.835"
"1939"	"6.835"	"7.023"	"7.506"	"8.042"	"8.095"	"7.586"	"7.077"	"7.13"	"7.211"	"7.398"	"7.157"	"6.782"
"1940"	"6.567"	"7.077"	"7.506"	"7.934"	"8.229"	"7.532"	"7.211"	"7.13"	"7.345"	"7.479"	"7.291"	"6.755"
"1941"	"6.728"	"7.291"	"7.881"	"8.444"	"8.444"	"7.72"	"7.371"	"7.452"	"7.506"	"7.747"	"7.586"	"7.184"
"1942"	"6.862"	"7.237"	"8.015"	"7.961"	"8.363"	"7.532"	"7.05"	"6.969"	"7.05"	"7.613"	"7.13"	"6.916"
"1943"	"6.943"	"7.05"	"7.586"	"8.042"	"7.908"	"7.264"	"7.103"	"7.157"	"7.05"	"7.291"	"7.264"	"6.648"
"1944"	"6.809"	"6.835"	"7.291"	"7.934"	"8.31"	"7.64"	"7.211"	"7.211"	"7.345"	"7.425"	"7.237"	"6.889"
"1945"	"6.567"	"7.023"	"7.8"	"7.934"	"8.122"	"7.559"	"7.211"	"7.291"	"7.157"	"7.371"	"7.13"	"6.567"
"1946"	"6.648"	"7.05"	"7.666"	"7.934"	"7.961"	"7.345"	"7.157"	"7.13"	"7.211"	"7.559"	"7.157"	"6.969"
"1947"	"6.809"	"6.943"	"7.64"	"7.827"	"8.122"	"7.666"	"7.237"	"7.371"	"7.157"	"7.184"	"6.996"	"6.809"
"1948"	"6.969"	"6.996"	"7.693"	"7.988"	"8.149"	"7.64"	"7.237"	"7.237"	"7.077"	"7.425"	"7.425"	"6.514"
"1949"	"6.809"	"6.916"	"7.666"	"7.961"	"7.961"	"7.506"	"7.318"	"7.291"	"7.13"	"7.371"	"6.969"	"6.728"
"1950"	"6.782"	"6.835"	"7.532"	"8.042"	"8.095"	"7.613"	"7.157"	"7.264"	"7.103"	"7.237"	"7.023"	"6.728"
"1951"	"6.809"	"7.05"	"7.613"	"7.854"	"8.176"	"7.398"	"7.237"	"7.211"	"7.559"	"7.586"	"7.532"	"6.594"
"1952"	"6.943"	"7.184"	"7.452"	"8.256"	"8.31"	"7.559"	"7.291"	"7.157"	"7.291"	"7.425"	"6.889"	"7.211"
"1953"	"6.701"	"7.184"	"8.149"	"7.881"	"8.256"	"7.747"	"7.184"	"7.13"	"7.237"	"7.452"	"7.103"	"6.675"
"1954"	"6.728"	"7.318"	"7.666"	"8.068"	"8.149"	"7.64"	"7.05"	"7.13"	"6.996"	"7.237"	"6.969"	"6.889"
"1955"	"7.023"	"7.345"	"7.666"	"7.988"	"7.934"	"7.345"	"7.211"	"6.996"	"7.425"	"7.398"	"6.862"	"6.594"
"1956"	"6.675"	"6.916"	"7.827"	"8.229"	"7.64"	"7.211"	"6.916"	"6.943"	"6.969"	"7.264"	"7.184"	"6.701"
"1957"	"6.835"	"7.05"	"7.371"	"8.122"	"8.176"	"7.693"	"7.237"	"7.184"	"7.291"	"7.64"	"7.291"	"7.237"
"1958"	"6.969"	"7.103"	"7.747"	"8.31"	"8.31"	"7.854"	"7.237"	"7.237"	"7.103"	"7.371"	"7.425"	"6.969"
"1959"	"6.969"	"7.264"	"7.8"	"8.149"	"8.336"	"7.532"	"7.077"	"7.211"	"7.291"	"7.345"	"7.291"	"7.077"
"1960"	"6.969"	"7.291"	"7.666"	"8.122"	"8.068"	"7.559"	"7.291"	"7.184"	"7.264"	"7.425"	"7.345"	"6.969"
"1961"	"6.996"	"6.916"	"7.961"	"8.283"	"7.827"	"7.345"	"6.969"	"7.157"	"7.077"	"7.318"	"7.264"	"6.996"
"1962"	"6.567"	"7.291"	"7.666"	"8.095"	"8.122"	"7.693"	"7.157"	"7.13"	"7.237"	"7.559"	"7.103"	"6.755"
"1963"	"6.889"	"7.13"	"7.8"	"7.934"	"8.149"	"7.398"	"7.291"	"7.05"	"7.237"	"7.371"	"7.371"	"7.13"
"1964"	"6.755"	"7.237"	"7.827"	"8.256"	"8.149"	"7.64"	"7.237"	"6.996"	"7.103"	"7.318"	"7.023"	"6.648"
"1965"	"6.809"	"6.996"	"7.586"	"8.015"	"8.122"	"7.506"	"7.103"	"7.264"	"7.398"	"7.774"	"7.532"	"7.157"
"1966"	"6.969"	"7.398"	"7.827"	"8.256"	"7.961"	"7.72"	"7.371"	"7.425"	"7.398"	"7.559"	"7.291"	"6.889"
"1967"	"6.862"	"7.237"	"7.693"	"8.283"	"8.444"	"7.854"	"7.237"	"7.184"	"7.237"	"7.425"	"7.291"	"7.264"
"1968"	"6.782"	"7.237"	"7.72"	"8.176"	"8.31"	"7.72"	"7.237"	"7.211"	"7.452"	"7.345"	"7.264"	"6.996"
"1969"	"6.809"	"7.398"	"8.042"	"8.39"	"8.497"	"7.747"	"7.184"	"7.291"	"7.184"	"7.586"	"7.532"	"7.077"
"1970"	"7.023"	"7.237"	"7.747"	"8.336"	"8.202"	"7.479"	"7.237"	"7.103"	"7.157"	"7.479"	"7.264"	"6.541"
"1971"	"6.701"	"7.184"	"7.666"	"8.176"	"8.149"	"7.371"	"7.237"	"7.157"	"7.371"	"7.184"	"7.237"	"6.782"
"1972"	"6.809"	"6.889"	"7.827"	"8.229"	"8.122"	"8.015"	"7.345"	"7.345"	"7.452"	"7.747"	"7.452"	"7.157"
"1973"	"6.862"	"7.398"	"7.908"	"8.739"	"8.551"	"7.666"	"7.371"	"7.211"	"7.157"	"7.506"	"7.371"	"7.023"
"1974"	"6.996"	"7.264"	"8.068"	"8.31"	"8.176"	"7.506"	"7.211"	"7.211"	"7.425"	"7.318"	"6.969"	"6.728"
"1975"	"6.835"	"7.318"	"7.747"	"8.417"	"8.149"	"7.452"	"7.237"	"7.211"	"7.237"	"7.291"	"6.862"	"6.567"
"1976"	"6.701"	"7.103"	"7.72"	"7.988"	"7.961"	"7.479"	"7.345"	"7.211"	"7.452"	"7.854"	"7.693"	"7.13"
"1977"	"6.889"	"7.345"	"7.8"	"8.122"	"8.068"	"7.64"	"7.077"	"7.371"	"7.479"	"7.613"	"7.425"	"6.675"
"1978"	"6.889"	"6.969"	"7.506"	"8.229"	"8.176"	"7.345"	"7.211"	"7.13"	"7.211"	"7.613"	"7.398"	"7.184"
"1979"	"7.13"	"6.835"	"7.693"	"8.256"	"8.202"	"7.506"	"7.237"	"7.13"	"7.425"	"7.72"	"7.398"	"7.13"
"1980"	"6.755"	"7.237"	"7.666"	"8.229"	"8.283"	"7.479"	"7.157"	"7.211"	"7.371"	"7.693"	"7.586"	"6.701"
"1981"	"6.621"	"7.264"	"7.854"	"8.095"	"8.095"	"7.506"	"7.237"	"7.077"	"7.318"	"7.586"	"7.211"	"6.969"
"1982"	"6.916"	"7.345"	"7.854"	"8.068"	"8.229"	"7.72"	"7.345"	"7.211"	"7.264"	"7.8"	"7.371"	"7.13"
"1983"	"6.809"	"6.835"	"7.693"	"8.122"	"8.31"	"8.122"	"7.425"	"7.345"	"7.291"	"7.345"	"6.943"	"6.969"
"1984"	"6.889"	"7.425"	"7.908"	"8.256"	"8.471"	"7.532"	"7.237"	"7.13"	"7.237"	"7.398"	"7.184"	"7.05"
"1985"	"7.13"	"7.264"	"8.149"	"8.256"	"8.095"	"7.479"	"7.184"	"7.13"	"7.398"	"7.237"	"7.237"	"7.211"
"1986"	"6.889"	"7.211"	"8.068"	"8.363"	"8.31"	"7.693"	"7.345"	"7.103"	"7.532"	"7.64"	"7.371"	"7.023"
"1987"	"6.809"	"7.264"	"7.72"	"8.256"	"8.31"	"7.72"	"7.425"	"7.452"	"7.64"	"7.506"	"7.532"	"7.103"
"1988"	"7.023"	"7.345"	"7.854"	"8.39"	"8.524"	"7.72"	"7.291"	"7.237"	"7.371"	"7.452"	"7.291"	"6.862"
"1989"	"6.969"	"7.291"	"7.693"	"8.229"	"8.229"	"7.425"	"7.291"	"7.13"	"7.291"	"7.318"	"7.264"	"7.023"
"1990"	"6.943"	"7.103"	"7.559"	"8.256"	"8.229"	"7.506"	"7.184"	"6.943"	"7.13"	"7.532"	"7.264"	"7.077"
"1991"	"6.755"	"7.237"	"7.881"	"8.149"	"8.31"	"7.827"	"7.211"	"7.157"	"7.345"	"7.506"	"7.425"	"6.621"
"1992"	"6.889"	"6.996"	"8.015"	"8.149"	"8.283"	"7.881"	"7.479"	"7.237"	"7.425"	"7.398"	"7.479"	"6.728"
"1993"	"6.969"	"7.05"	"7.559"	"8.229"	"8.363"	"7.8"	"7.211"	"7.237"	"7.211"	"7.532"	"7.452"	"6.782"
"1994"	"6.943"	"7.077"	"8.095"	"8.095"	"8.31"	"7.506"	"7.211"	"7.211"	"7.184"	"7.506"	"7.237"	"6.701"
"1995"	"6.487"	"7.264"	"7.8"	"8.336"	"8.229"	"8.015"	"7.425"	"7.452"	"7.398"	"7.559"	"7.211"	"6.996"
"1996"	"7.023"	"7.479"	"8.122"	"8.283"	"8.417"	"7.8"	"7.318"	"7.237"	"7.371"	"7.291"	"7.291"	"6.889"
"1997"	"6.675"	"6.835"	"7.908"	"7.988"	"8.363"	"7.8"	"7.371"	"7.211"	"7.479"	"7.774"	"7.666"	"7.345"
"1998"	"7.023"	"7.077"	"7.934"	"8.497"	"8.524"	"7.988"	"7.398"	"7.425"	"7.398"	"7.452"	"7.291"	"6.782"
"1999"	"6.594"	"7.532"	"7.988"	"8.283"	"8.176"	"7.425"	"7.237"	"7.264"	"7.291"	"7.532"	"7.345"	"6.862"
"2000"	"7.077"	"6.969"	"7.693"	"8.336"	"8.149"	"7.613"	"7.157"	"7.264"	"7.479"	"7.559"	"7.398"	"6.835"
"2001"	"6.969"	"7.318"	"7.586"	"8.31"	"8.31"	"7.72"	"7.237"	"7.211"	"7.452"	"7.425"	"7.559"	"6.996"
"2002"	"6.782"	"7.506"	"8.176"	"8.39"	"8.444"	"7.747"	"7.345"	"7.211"	"7.425"	"7.693"	"7.479"	"7.077"
