
"Year"	"Jan"	"Feb"	"Mar"	"Apr"	"May"	"Jun"	"Jul"	"Aug"	"Sep"	"Oct"	"Nov"	"Dec"
"1901"	"19.737"	"20.349"	"20.712"	"21.676"	"20.953"	"19.734"	"19.531"	"19.6"	"19.817"	"19.807"	"19.335"	"18.764"
"1902"	"18.908"	"19.523"	"20.976"	"21.737"	"21.4"	"20.14"	"19.307"	"20.023"	"19.424"	"19.667"	"19.565"	"19.425"
"1903"	"19.677"	"20.002"	"21.077"	"21.689"	"20.885"	"20.064"	"19.086"	"19.399"	"19.163"	"19.439"	"18.961"	"18.39"
"1904"	"18.467"	"19.066"	"20.217"	"21.238"	"20.446"	"18.989"	"18.726"	"19.453"	"19.583"	"19.807"	"19.112"	"18.904"
"1905"	"19.011"	"19.795"	"20.65"	"21.155"	"20.875"	"19.917"	"19.587"	"19.603"	"19.814"	"19.734"	"19.699"	"18.739"
"1906"	"19.457"	"19.848"	"20.652"	"22.16"	"21.386"	"19.639"	"19.003"	"19.31"	"19.294"	"19.734"	"19.408"	"18.981"
"1907"	"18.878"	"19.712"	"20.635"	"20.845"	"20.819"	"19.643"	"19.16"	"18.722"	"19.574"	"19.863"	"19.47"	"18.974"
"1908"	"19.113"	"19.559"	"20.351"	"21.465"	"20.655"	"19.629"	"18.445"	"19.163"	"19.523"	"19.863"	"19.087"	"18.732"
"1909"	"18.722"	"19.506"	"20.795"	"21.145"	"20.667"	"19.626"	"18.719"	"19.3"	"19.307"	"19.8"	"19.384"	"19.112"
"1910"	"19.084"	"19.513"	"20.711"	"21.369"	"21.005"	"19.402"	"19.173"	"19.016"	"19.117"	"19.366"	"19.038"	"18.589"
"1911"	"19.031"	"18.843"	"20.574"	"21.449"	"20.79"	"19.418"	"18.873"	"19.392"	"19.95"	"19.734"	"19.755"	"19.261"
"1912"	"18.587"	"20.142"	"21.068"	"21.689"	"21.322"	"19.573"	"19.147"	"19.237"	"19.73"	"19.519"	"19.312"	"18.682"
"1913"	"18.741"	"19.785"	"20.714"	"21.755"	"21.399"	"19.707"	"19.007"	"19.516"	"19.89"	"19.677"	"19.555"	"19.411"
"1914"	"18.814"	"19.859"	"20.934"	"21.596"	"21.326"	"20.07"	"19.294"	"19.32"	"19.96"	"20.02"	"19.846"	"19.394"
"1915"	"19.378"	"19.925"	"20.521"	"21.533"	"21.169"	"20.304"	"19.453"	"19.683"	"19.804"	"20.019"	"19.475"	"18.831"
"1916"	"18.667"	"19.632"	"20.948"	"21.745"	"21.022"	"19.247"	"19.536"	"19.46"	"19.424"	"19.432"	"19.325"	"18.692"
"1917"	"18.891"	"19.503"	"20.287"	"21.396"	"20.659"	"19.257"	"19.757"	"19.443"	"19.29"	"19.156"	"19.241"	"18.742"
"1918"	"18.734"	"18.694"	"20.135"	"21.449"	"19.938"	"19.687"	"19.667"	"19.529"	"19.73"	"20.388"	"20.122"	"19.203"
"1919"	"19.598"	"19.981"	"20.567"	"21.97"	"20.869"	"19.552"	"19.099"	"19.237"	"19.73"	"19.953"	"19.201"	"19.263"
"1920"	"18.969"	"19.859"	"21.222"	"21.366"	"21.303"	"19.482"	"19.316"	"19.227"	"19.531"	"19.797"	"19.318"	"18.814"
"1921"	"19.391"	"19.493"	"21.089"	"21.026"	"21.243"	"19.707"	"19.086"	"19.145"	"19.307"	"19.734"	"19.269"	"18.757"
"1922"	"18.958"	"19.559"	"20.785"	"21.526"	"20.572"	"19.418"	"18.732"	"19.102"	"19.376"	"19.646"	"19.115"	"18.462"
"1923"	"18.661"	"19.185"	"20.165"	"21.443"	"21.009"	"19.733"	"18.719"	"19.029"	"19.35"	"19.734"	"19.685"	"19.418"
"1924"	"19.028"	"19.933"	"20.826"	"21.767"	"21.243"	"19.416"	"18.797"	"19.383"	"19.57"	"19.713"	"19.269"	"18.831"
"1925"	"19.004"	"19.555"	"20.369"	"21.449"	"20.533"	"19.535"	"19.16"	"19.31"	"19.887"	"19.83"	"19.339"	"18.693"
"1926"	"19.238"	"19.792"	"20.981"	"21.449"	"21.383"	"20.061"	"19.804"	"19.894"	"19.717"	"19.734"	"19.606"	"19.19"
"1927"	"19.454"	"20.072"	"21.154"	"21.812"	"20.725"	"19.462"	"18.709"	"19.529"	"19.583"	"19.593"	"19.249"	"19.337"
"1928"	"19.542"	"19.722"	"20.508"	"21.616"	"21.528"	"19.985"	"19.44"	"19.153"	"19.797"	"19.586"	"19.613"	"19.067"
"1929"	"19.097"	"19.712"	"20.649"	"20.953"	"21.056"	"19.418"	"19.366"	"19.608"	"19.817"	"19.721"	"19.699"	"19.411"
"1930"	"19.24"	"19.699"	"20.799"	"21.379"	"20.516"	"19.683"	"19.463"	"19.466"	"19.784"	"19.751"	"19.562"	"19.327"
"1931"	"19.451"	"19.877"	"20.961"	"21.606"	"21.545"	"20.067"	"19.379"	"19.31"	"19.437"	"19.778"	"19.685"	"19.313"
"1932"	"18.649"	"19.38"	"20.399"	"21.396"	"20.382"	"19.826"	"19.079"	"19.649"	"19.499"	"19.586"	"19.416"	"19.023"
"1933"	"19.247"	"19.869"	"20.567"	"21.351"	"20.199"	"19.297"	"19.052"	"19.065"	"19.122"	"19.222"	"19.51"	"19.03"
"1934"	"19.184"	"19.125"	"20.29"	"21.165"	"21.035"	"19.636"	"19.237"	"19.372"	"19.821"	"19.817"	"19.021"	"18.847"
"1935"	"19.321"	"19.859"	"20.782"	"21.285"	"21.462"	"19.847"	"18.996"	"19.019"	"19.209"	"19.652"	"19.147"	"19.197"
"1936"	"19.468"	"19.877"	"20.544"	"21.506"	"20.922"	"19.151"	"18.929"	"19.069"	"19.705"	"19.788"	"19.619"	"19.64"
"1937"	"19.378"	"20.172"	"20.948"	"21.155"	"21.045"	"19.476"	"18.656"	"19.476"	"19.804"	"19.579"	"19.448"	"18.894"
"1938"	"19.318"	"20.043"	"20.961"	"21.295"	"21.022"	"19.333"	"18.793"	"19.075"	"19.224"	"19.202"	"19.175"	"19.218"
"1939"	"18.884"	"19.464"	"20.355"	"21.012"	"20.946"	"19.431"	"18.827"	"19.142"	"19.37"	"19.67"	"19.263"	"18.967"
"1940"	"18.59"	"19.408"	"20.466"	"21.05"	"20.892"	"19.7"	"19.01"	"19.069"	"19.74"	"19.859"	"19.441"	"19.184"
"1941"	"19.532"	"19.92"	"21.181"	"21.901"	"21.406"	"19.694"	"19.607"	"19.62"	"19.519"	"20.013"	"19.937"	"19.123"
"1942"	"19.096"	"19.927"	"21.112"	"21.543"	"21.253"	"19.7"	"18.959"	"19.163"	"19.51"	"19.68"	"19.259"	"19.354"
"1943"	"19.104"	"19.496"	"20.805"	"20.943"	"20.422"	"18.955"	"18.632"	"19.183"	"18.86"	"19.059"	"19.135"	"19.067"
"1944"	"19.311"	"19.692"	"20.561"	"20.963"	"20.962"	"19.626"	"19.093"	"19.582"	"19.59"	"19.807"	"19.563"	"18.995"
"1945"	"19.106"	"20.063"	"20.948"	"21.172"	"21.243"	"19.922"	"19.026"	"19.247"	"19.497"	"19.649"	"19.339"	"19.063"
"1946"	"18.37"	"19.572"	"20.606"	"21.049"	"21.009"	"19.545"	"19.083"	"18.863"	"19.373"	"19.889"	"19.418"	"19.077"
"1947"	"19.549"	"19.516"	"20.728"	"20.785"	"21.462"	"19.7"	"19.152"	"19.237"	"19.143"	"19.376"	"19.452"	"19.418"
"1948"	"19.552"	"19.999"	"20.935"	"21.533"	"20.943"	"19.646"	"18.993"	"19.016"	"19.417"	"19.889"	"19.902"	"19.133"
"1949"	"19.015"	"19.552"	"21.148"	"21.456"	"20.739"	"19.598"	"19.003"	"19.379"	"19.287"	"19.734"	"19.342"	"18.884"
"1950"	"19.011"	"19.632"	"20.724"	"21.399"	"21.37"	"19.552"	"18.582"	"19.237"	"19.059"	"19.289"	"19.242"	"18.897"
"1951"	"19.321"	"19.646"	"20.941"	"21.106"	"21.161"	"19.183"	"18.949"	"19.603"	"19.877"	"20.163"	"19.983"	"18.987"
"1952"	"19.522"	"20.096"	"20.861"	"21.602"	"21.187"	"19.7"	"19.316"	"19.237"	"19.49"	"19.346"	"19.384"	"19.195"
"1953"	"19.304"	"19.5"	"21.371"	"20.973"	"21.525"	"20.442"	"18.942"	"19.526"	"19.497"	"19.866"	"19.496"	"19.197"
"1954"	"19.615"	"20.019"	"20.655"	"21.529"	"21.315"	"19.962"	"18.855"	"19.086"	"19.414"	"19.302"	"19.165"	"19.438"
"1955"	"19.749"	"20.212"	"20.802"	"21.238"	"20.231"	"19.196"	"19.086"	"19.149"	"19.791"	"19.599"	"19.039"	"18.901"
"1956"	"19.157"	"20.002"	"21.245"	"21.546"	"20.198"	"19.176"	"18.579"	"19.3"	"19.427"	"19.302"	"19.679"	"19.321"
"1957"	"19.395"	"20.076"	"20.69"	"21.513"	"21.012"	"19.919"	"19.231"	"19.446"	"19.794"	"19.953"	"19.49"	"19.792"
"1958"	"19.608"	"20.231"	"20.974"	"21.616"	"20.662"	"20.067"	"19.437"	"19.376"	"19.59"	"19.452"	"19.812"	"19.581"
"1959"	"19.755"	"20.228"	"21.358"	"21.68"	"21.363"	"19.626"	"18.99"	"19.506"	"19.629"	"19.739"	"19.93"	"19.425"
"1960"	"19.755"	"20.096"	"20.954"	"21.382"	"20.578"	"19.847"	"19.372"	"19.529"	"19.27"	"19.716"	"19.192"	"19.398"
"1961"	"19.624"	"20.078"	"21.241"	"21.693"	"20.648"	"19.472"	"18.996"	"19.32"	"19.417"	"19.632"	"19.686"	"19.574"
"1962"	"19.525"	"20.009"	"20.668"	"21.233"	"20.462"	"20.291"	"19.261"	"19.163"	"19.518"	"19.526"	"19.668"	"19.432"
"1963"	"19.613"	"19.501"	"20.735"	"21.376"	"21.303"	"19.857"	"19.443"	"19.376"	"19.884"	"19.807"	"19.997"	"19.432"
"1964"	"19.084"	"20.013"	"21.109"	"22.057"	"21.553"	"19.867"	"19.153"	"19.234"	"19.004"	"19.609"	"18.985"	"18.841"
"1965"	"18.825"	"19.517"	"20.519"	"21.12"	"20.959"	"19.8"	"19.216"	"19.158"	"19.622"	"20.394"	"19.986"	"19.198"
"1966"	"19.768"	"20.394"	"20.964"	"21.539"	"21.042"	"19.854"	"19.231"	"19.834"	"19.588"	"19.657"	"19.483"	"19.337"
"1967"	"18.975"	"19.509"	"20.352"	"21.673"	"20.83"	"19.874"	"18.743"	"18.902"	"19.439"	"19.523"	"19.57"	"19.422"
"1968"	"19.301"	"19.795"	"20.795"	"21.148"	"21.022"	"19.576"	"18.501"	"19.393"	"19.427"	"19.823"	"19.702"	"19.274"
"1969"	"19.245"	"20.142"	"21.328"	"21.767"	"20.973"	"19.727"	"18.863"	"19.38"	"19.217"	"19.586"	"19.685"	"19.351"
"1970"	"19.461"	"19.636"	"20.719"	"21.227"	"20.628"	"19.472"	"18.952"	"18.926"	"19.359"	"19.425"	"19.507"	"18.824"
"1971"	"19.444"	"19.629"	"20.428"	"21.259"	"20.519"	"18.82"	"18.646"	"18.946"	"19.3"	"19.306"	"19.112"	"18.627"
"1972"	"18.44"	"19.354"	"20.375"	"21.589"	"20.282"	"20.081"	"18.969"	"19.532"	"19.943"	"19.817"	"19.627"	"19.637"
"1973"	"19.528"	"20.083"	"21.228"	"22.05"	"21.545"	"19.903"	"19.529"	"18.732"	"19.593"	"19.721"	"19.363"	"19.197"
"1974"	"19.157"	"19.719"	"20.969"	"21.736"	"20.655"	"20.049"	"19.142"	"18.777"	"19.462"	"19.515"	"19.612"	"19.398"
"1975"	"19.011"	"20.282"	"21.133"	"21.75"	"20.668"	"18.955"	"19.107"	"18.955"	"19.042"	"19.219"	"19.455"	"18.834"
"1976"	"18.559"	"19.149"	"20.941"	"20.936"	"21.372"	"20.206"	"19.165"	"19.163"	"19.784"	"19.97"	"19.636"	"19.585"
"1977"	"19.314"	"20.159"	"20.989"	"21.688"	"20.523"	"19.9"	"19.003"	"19.801"	"19.518"	"19.896"	"19.649"	"19.141"
"1978"	"19.258"	"19.729"	"20.888"	"21.675"	"20.089"	"18.962"	"18.425"	"18.824"	"19.562"	"19.892"	"19.91"	"19.465"
"1979"	"20.106"	"20.381"	"21.225"	"21.741"	"20.886"	"19.708"	"18.53"	"19.317"	"19.36"	"19.731"	"19.426"	"19.878"
"1980"	"19.321"	"20.152"	"20.946"	"21.269"	"21.042"	"18.644"	"18.253"	"18.824"	"19.581"	"19.645"	"20.041"	"19.763"
"1981"	"19.594"	"20.148"	"20.914"	"21.445"	"20.939"	"18.931"	"18.683"	"18.651"	"19.137"	"19.737"	"19.465"	"19.358"
"1982"	"19.382"	"20.225"	"21.082"	"22.04"	"20.932"	"20.004"	"19.389"	"19.539"	"19.953"	"20.54"	"20.423"	"19.572"
"1983"	"19.595"	"20.695"	"21.447"	"22.248"	"22.175"	"20.95"	"19.831"	"19.6"	"19.505"	"20.089"	"19.895"	"19.772"
"1984"	"19.772"	"20.03"	"20.59"	"21.165"	"21.848"	"19.34"	"19.198"	"19.32"	"19.733"	"19.659"	"20.139"	"19.451"
"1985"	"20.002"	"20.504"	"21.536"	"21.964"	"21.245"	"19.313"	"19.437"	"19.376"	"19.95"	"19.879"	"19.843"	"19.805"
"1986"	"19.685"	"20.076"	"21.335"	"22.249"	"21.606"	"19.923"	"19.9"	"19.217"	"19.727"	"20.331"	"19.993"	"20.168"
"1987"	"19.817"	"19.884"	"21.089"	"22.061"	"21.628"	"20.056"	"20.467"	"19.657"	"20.622"	"20.443"	"20.367"	"19.995"
"1988"	"19.724"	"20.944"	"21.468"	"21.473"	"21.488"	"20.431"	"19.614"	"19.6"	"19.593"	"20.3"	"19.993"	"19.429"
"1989"	"19.549"	"19.649"	"20.655"	"21.655"	"21.243"	"19.68"	"19.401"	"19.453"	"19.452"	"19.963"	"20.102"	"19.637"
"1990"	"19.348"	"20.279"	"21.146"	"22.097"	"20.921"	"20.074"	"19.294"	"19.307"	"19.877"	"20.036"	"19.912"	"19.637"
"1991"	"20.007"	"20.313"	"21.311"	"21.742"	"21.971"	"19.944"	"19.331"	"19.082"	"20.18"	"19.751"	"19.819"	"19.256"
"1992"	"18.821"	"20.004"	"20.791"	"21.891"	"21.161"	"20.158"	"19.216"	"19.327"	"19.654"	"19.665"	"19.859"	"19.103"
"1993"	"19.06"	"19.685"	"20.934"	"21.806"	"21.39"	"20.178"	"19.152"	"19.664"	"19.801"	"19.754"	"19.92"	"19.405"
"1994"	"19.542"	"20.228"	"21.159"	"21.305"	"21.406"	"19.9"	"19.157"	"19.522"	"20.004"	"19.879"	"19.986"	"19.328"
"1995"	"19.677"	"20.603"	"20.941"	"21.66"	"20.886"	"20.648"	"19.678"	"19.75"	"19.887"	"20.317"	"20.359"	"19.418"
"1996"	"19.901"	"20.25"	"21.315"	"21.596"	"21.838"	"20.291"	"19.6"	"19.516"	"19.654"	"19.879"	"20.259"	"19.034"
"1997"	"19.755"	"20.238"	"21.076"	"21.062"	"21.336"	"20.714"	"19.667"	"19.677"	"19.981"	"20.247"	"20.518"	"20.378"
"1998"	"20.328"	"20.961"	"21.808"	"22.262"	"21.532"	"20.584"	"19.579"	"19.804"	"19.654"	"19.906"	"20.222"	"19.721"
"1999"	"19.699"	"20.159"	"21.546"	"21.406"	"20.163"	"19.7"	"19.307"	"19.677"	"20.244"	"19.97"	"20.132"	"19.627"
"2000"	"20.051"	"20.43"	"21.148"	"21.533"	"21.142"	"19.535"	"19.499"	"19.237"	"19.877"	"19.963"	"20.339"	"19.541"
"2001"	"20.121"	"20.991"	"21.441"	"21.523"	"21.062"	"19.92"	"19.526"	"19.383"	"20.042"	"19.943"	"20.215"	"19.711"
"2002"	"20.139"	"19.94"	"21.396"	"21.774"	"21.197"	"20.122"	"19.883"	"19.704"	"20.556"	"20.265"	"20.156"	"20.002"
