
"Year"	"Jan"	"Feb"	"Mar"	"Apr"	"May"	"Jun"	"Jul"	"Aug"	"Sep"	"Oct"	"Nov"	"Dec"
"1901"	"12.353"	"14.161"	"21.196"	"26.627"	"30.958"	"35.053"	"32.323"	"30.985"	"29.719"	"27.257"	"20.661"	"15.296"
"1902"	"15.296"	"17.53"	"22.693"	"27.457"	"31.758"	"33.054"	"31.319"	"31.25"	"29.388"	"25.288"	"19.762"	"14.735"
"1903"	"13.361"	"15.296"	"19.192"	"26.161"	"31.092"	"35.315"	"33.054"	"30.653"	"30.153"	"26.389"	"19.762"	"15.235"
"1904"	"12.796"	"17"	"20.262"	"28.161"	"31.389"	"34.05"	"31.219"	"30.419"	"29.388"	"25.923"	"19.126"	"15.062"
"1905"	"11.392"	"11.53"	"16.992"	"24.627"	"32.689"	"34.65"	"31.884"	"31.716"	"30.419"	"26.523"	"20.427"	"14.796"
"1906"	"12.362"	"13.427"	"18.927"	"27.096"	"33.623"	"33.453"	"32.184"	"29.588"	"29.258"	"26.288"	"21.162"	"16.231"
"1907"	"15.431"	"13.262"	"17.193"	"24.496"	"30.093"	"33.423"	"32.819"	"30.289"	"30.619"	"27.058"	"20.562"	"14.934"
"1908"	"14.297"	"16.296"	"21.061"	"28.096"	"31.823"	"35.284"	"31.154"	"29.157"	"29.623"	"26.058"	"18.896"	"14.396"
"1909"	"12.327"	"14.731"	"21.831"	"25.827"	"32.023"	"32.119"	"30.292"	"29.689"	"29.492"	"26.493"	"20.726"	"14.265"
"1910"	"13.566"	"15.596"	"20.961"	"26.396"	"32.223"	"33.185"	"30.289"	"29.758"	"29.723"	"25.357"	"18.861"	"14.297"
"1911"	"13.892"	"16.566"	"18.293"	"26.862"	"33.292"	"33.319"	"33.219"	"31.75"	"29.654"	"26.189"	"17.996"	"14.465"
"1912"	"13.692"	"17.196"	"20.627"	"26.592"	"31.889"	"34.75"	"31.554"	"29.923"	"28.923"	"26.223"	"18.492"	"14.53"
"1913"	"14.527"	"14.927"	"18.162"	"28.057"	"30.058"	"31.253"	"30.457"	"30.488"	"30.123"	"26.288"	"18.892"	"13.427"
"1914"	"15.296"	"14.796"	"19.792"	"26.192"	"31.323"	"33.019"	"30.623"	"30.354"	"29.288"	"23.823"	"19.492"	"14.131"
"1915"	"13.896"	"14.631"	"21.127"	"27.392"	"34.154"	"33.784"	"32.749"	"31.184"	"30.289"	"27.427"	"20.461"	"15.031"
"1916"	"14.327"	"15.097"	"23.862"	"28.592"	"31.792"	"32.65"	"30.423"	"29.923"	"29.422"	"25.923"	"19.165"	"14.196"
"1917"	"13.561"	"16.227"	"20.223"	"23.657"	"27.423"	"32.184"	"30.323"	"29.692"	"28.126"	"24.792"	"19.034"	"14.431"
"1918"	"13.061"	"16.531"	"20.461"	"24.796"	"33.588"	"32.65"	"32.615"	"31.084"	"30.088"	"26.223"	"19.327"	"13.626"
"1919"	"12.957"	"15.231"	"20.857"	"25.823"	"30.554"	"35.145"	"30.888"	"30.088"	"29.488"	"26.023"	"19.296"	"13.831"
"1920"	"14.8"	"14.362"	"19.923"	"26.727"	"28.322"	"32.684"	"31.084"	"30.519"	"30.119"	"26.888"	"20.692"	"16.5"
"1921"	"13.892"	"17.131"	"24.127"	"30.323"	"35.123"	"34.615"	"32.385"	"29.954"	"29.184"	"24.723"	"19.427"	"15.526"
"1922"	"12.392"	"17.03"	"22.627"	"27.358"	"32.558"	"32.95"	"31.253"	"30.084"	"28.923"	"24.992"	"19.296"	"13.692"
"1923"	"13.631"	"14.461"	"21.962"	"28.627"	"31.357"	"35.184"	"30.988"	"29.457"	"29.454"	"24.923"	"19.361"	"14.496"
"1924"	"12.727"	"15.731"	"22.396"	"28.227"	"28.623"	"35.919"	"31.984"	"30.054"	"28.223"	"25.993"	"19.361"	"15.431"
"1925"	"11.827"	"14.634"	"21.892"	"29.492"	"31.688"	"31.585"	"29.923"	"30.023"	"29.954"	"25.758"	"18.096"	"15.1"
"1926"	"13.926"	"16.996"	"19.057"	"23.927"	"29.192"	"35.119"	"31.954"	"29.692"	"29.357"	"25.758"	"17.527"	"14.731"
"1927"	"12.761"	"13.396"	"19.861"	"26.261"	"30.358"	"33.919"	"30.823"	"29.488"	"29.523"	"25.758"	"19.427"	"15.831"
"1928"	"12.696"	"16.331"	"20.961"	"26.858"	"34.158"	"33.65"	"31.753"	"31.154"	"30.023"	"26.657"	"19.427"	"14.366"
"1929"	"13.192"	"14.896"	"23.292"	"28.057"	"32.923"	"33.849"	"31.154"	"29.553"	"30.119"	"25.523"	"19.831"	"12.227"
"1930"	"12.261"	"15.431"	"21.761"	"26.461"	"31.523"	"32.519"	"30.058"	"30.153"	"29.027"	"25.288"	"18.761"	"15"
"1931"	"15.031"	"13.131"	"20.396"	"28.596"	"31.523"	"34.588"	"31.357"	"30.723"	"29.088"	"25.688"	"19.361"	"15.431"
"1932"	"15.796"	"15.127"	"21.962"	"27.561"	"30.557"	"35.519"	"31.357"	"29.623"	"29.488"	"26.058"	"19.866"	"14.765"
"1933"	"12.065"	"16.096"	"20.796"	"24.762"	"29.254"	"33.815"	"30.554"	"29.058"	"28.257"	"25.057"	"19.327"	"15.831"
"1934"	"11.193"	"18.234"	"20.161"	"27.43"	"30.757"	"33.384"	"31.054"	"29.488"	"30.588"	"25.827"	"19.497"	"14.657"
"1935"	"11.492"	"15.996"	"21.026"	"23.562"	"32.292"	"35.454"	"31.188"	"29.623"	"29.353"	"25.627"	"19.661"	"13.996"
"1936"	"12.296"	"15.496"	"20.53"	"26.761"	"33.789"	"31.719"	"30.623"	"29.989"	"29.088"	"25.758"	"19.596"	"13.692"
"1937"	"12.996"	"15.496"	"19.762"	"25.627"	"31.557"	"34.219"	"30.723"	"31.119"	"29.588"	"25.027"	"18.727"	"13.8"
"1938"	"13.027"	"14.196"	"22.161"	"28.262"	"33.988"	"32.654"	"31.884"	"30.719"	"30.284"	"26.793"	"18.092"	"15.9"
"1939"	"14.461"	"15.731"	"18.462"	"25.696"	"33.392"	"32.385"	"31.154"	"30.953"	"29.784"	"26.853"	"19.996"	"15.965"
"1940"	"13.961"	"15.196"	"18.923"	"25.627"	"32.457"	"33.619"	"31.323"	"29.588"	"29.053"	"26.123"	"20.327"	"14.227"
"1941"	"12.692"	"16.896"	"23.461"	"30.227"	"33.223"	"32.388"	"31.923"	"30.488"	"29.788"	"27.519"	"19.958"	"16.765"
"1942"	"12.461"	"16.231"	"23.096"	"28.727"	"32.189"	"34.823"	"30.423"	"28.958"	"28.557"	"26.092"	"20.692"	"14.231"
"1943"	"12.692"	"16.8"	"21.662"	"25.993"	"31.523"	"33.819"	"30.854"	"29.254"	"30.153"	"26.258"	"20.896"	"16.296"
"1944"	"12.192"	"14.596"	"19.693"	"26.427"	"33.392"	"33.515"	"30.923"	"30.153"	"29.323"	"26.058"	"20.027"	"15.665"
"1945"	"11.426"	"14.961"	"21.727"	"25.262"	"31.066"	"33.997"	"30.823"	"30.123"	"28.857"	"25.023"	"19.762"	"13.961"
"1946"	"15.431"	"18.727"	"20.562"	"29.288"	"31.854"	"33.388"	"30.958"	"30.323"	"30.219"	"25.823"	"19.627"	"14.166"
"1947"	"12.826"	"16.631"	"21.792"	"29.323"	"33.188"	"36.515"	"32.454"	"30.849"	"28.762"	"24.858"	"20.292"	"15.131"
"1948"	"14.292"	"14.792"	"19.958"	"29.996"	"33.196"	"34.919"	"31.389"	"29.388"	"29.519"	"25.954"	"18.397"	"13.961"
"1949"	"15.692"	"15.526"	"22.022"	"29.323"	"33.849"	"34.319"	"30.488"	"30.384"	"30.584"	"26.157"	"18.662"	"13.796"
"1950"	"14.493"	"14.565"	"19.892"	"26.827"	"32.919"	"34.515"	"31.354"	"29.954"	"28.123"	"24.992"	"19.497"	"13.534"
"1951"	"12.692"	"16.665"	"21.692"	"24.958"	"31.623"	"34.553"	"32.919"	"30.988"	"30.554"	"27.789"	"21.026"	"16.165"
"1952"	"15.027"	"18.397"	"20.885"	"29.758"	"32.853"	"33.453"	"31.323"	"29.923"	"30.554"	"26.019"	"20.496"	"15.5"
"1953"	"12.757"	"18.93"	"25.192"	"28.623"	"33.384"	"34.519"	"30.988"	"30.319"	"29.819"	"26.288"	"20.127"	"17.396"
"1954"	"12.692"	"16.827"	"22.161"	"28.792"	"33.185"	"34.28"	"31.454"	"31.149"	"30.123"	"24.058"	"19.327"	"14.362"
"1955"	"13.393"	"17.196"	"23.627"	"25.623"	"30.119"	"35.184"	"31.785"	"29.784"	"29.058"	"24.692"	"19.961"	"14.726"
"1956"	"13.692"	"17.796"	"21.558"	"28.958"	"34.75"	"33.784"	"30.453"	"29.689"	"30.284"	"24.757"	"19.061"	"14.327"
"1957"	"12.792"	"15.33"	"20.389"	"25.958"	"30.554"	"33.584"	"31.919"	"30.289"	"28.523"	"26.058"	"20.196"	"15.131"
"1958"	"15.327"	"16.626"	"22.623"	"30.289"	"32.119"	"35.184"	"30.854"	"30.354"	"29.357"	"26.223"	"21.058"	"16.034"
"1959"	"14.096"	"15.496"	"22.861"	"28.223"	"31.454"	"34.984"	"31.084"	"30.423"	"29.592"	"25.896"	"19.562"	"16"
"1960"	"13.197"	"20.366"	"20.458"	"26.853"	"33.415"	"35.249"	"31.785"	"30.584"	"30.123"	"25.958"	"19.061"	"16.273"
"1961"	"14.527"	"14.761"	"22.527"	"27.561"	"32.723"	"34.785"	"31.488"	"30.323"	"30.858"	"26.092"	"18.531"	"13.031"
"1962"	"12.696"	"16.996"	"21.327"	"29.058"	"32.523"	"34.019"	"32.189"	"30.789"	"28.592"	"28.019"	"19.566"	"13.965"
"1963"	"13.131"	"17.731"	"21.223"	"27.358"	"31.057"	"34.285"	"31.788"	"29.258"	"28.857"	"26.558"	"20.496"	"14.7"
"1964"	"12.766"	"15.665"	"21.431"	"27.727"	"29.957"	"34.449"	"29.823"	"30.488"	"29.457"	"25.862"	"19.165"	"14.9"
"1965"	"15.761"	"16.361"	"21.223"	"25.961"	"31.123"	"34.85"	"30.988"	"29.654"	"29.588"	"26.157"	"20.496"	"13.935"
"1966"	"13.43"	"17.53"	"21.13"	"27.893"	"32.523"	"33.584"	"31.954"	"30.289"	"29.323"	"25.357"	"18.962"	"14.366"
"1967"	"12.93"	"18.162"	"20.857"	"26.992"	"31.223"	"34.65"	"31.288"	"29.689"	"29.588"	"24.858"	"18.927"	"14.696"
"1968"	"12.627"	"14.562"	"21.492"	"27.757"	"32.023"	"34.449"	"30.888"	"29.954"	"30.854"	"24.692"	"19.762"	"15.396"
"1969"	"14.161"	"17.196"	"24.192"	"27.958"	"31.288"	"34.615"	"31.319"	"30.919"	"29.488"	"26.823"	"21.162"	"15.731"
"1970"	"14.227"	"16.127"	"21.792"	"28.892"	"33.688"	"32.619"	"32.319"	"29.989"	"30.023"	"26.923"	"19.562"	"15.466"
"1971"	"13.561"	"16.762"	"21.957"	"27.953"	"30.185"	"32.115"	"30.488"	"29.119"	"28.823"	"25.923"	"19.727"	"16.131"
"1972"	"14.461"	"14.496"	"22.727"	"26.793"	"33.088"	"35.254"	"31.819"	"29.989"	"28.453"	"24.953"	"20.127"	"15.5"
"1973"	"13.992"	"17.627"	"20.927"	"29.927"	"32.588"	"33.054"	"30.626"	"29.827"	"28.993"	"24.962"	"19.531"	"13.43"
"1974"	"13.1"	"14.83"	"22.262"	"29.362"	"31.723"	"32.954"	"30.658"	"29.623"	"29.258"	"25.596"	"19.331"	"13.5"
"1975"	"13.561"	"15.63"	"20.627"	"28.958"	"33.088"	"33.381"	"30.319"	"29.754"	"28.223"	"27.123"	"18.727"	"15.531"
"1976"	"13.996"	"16.061"	"21.026"	"26.558"	"31.889"	"32.119"	"30.988"	"28.927"	"28.857"	"25.857"	"20.196"	"14.666"
"1977"	"13.566"	"15.33"	"21.9"	"26.827"	"29.027"	"30.754"	"30.323"	"29.357"	"28.223"	"25.923"	"21.061"	"15.031"
"1978"	"12.335"	"14.83"	"19.354"	"26.327"	"33.093"	"32.723"	"29.727"	"29.157"	"28.158"	"25.758"	"19.923"	"15.223"
"1979"	"14.431"	"15.131"	"19.892"	"29.123"	"31.389"	"33.95"	"30.088"	"31.019"	"28.354"	"26.723"	"21.096"	"16.561"
"1980"	"14.127"	"16.696"	"20.892"	"29.758"	"33.289"	"32.885"	"30.088"	"30.153"	"28.458"	"26.088"	"19.096"	"14.5"
"1981"	"13.227"	"16.596"	"21.223"	"27.757"	"32.323"	"33.685"	"30.158"	"29.823"	"29.388"	"24.958"	"19.092"	"14.562"
"1982"	"14.862"	"15.196"	"19.126"	"25.327"	"28.857"	"33.584"	"31.654"	"29.588"	"29.553"	"25.523"	"19.961"	"15.596"
"1983"	"12.761"	"14.892"	"20.193"	"25.092"	"29.892"	"32.45"	"30.988"	"29.623"	"29.723"	"24.658"	"18.761"	"14.896"
"1984"	"12.362"	"14.331"	"22.762"	"27.827"	"34.788"	"33.854"	"30.153"	"29.954"	"28.158"	"24.992"	"19.262"	"15.362"
"1985"	"13.527"	"16.762"	"23.362"	"28.327"	"33.284"	"33.985"	"29.888"	"29.823"	"29.189"	"24.792"	"19.388"	"16.396"
"1986"	"13.131"	"15.696"	"20.927"	"27.392"	"29.923"	"33.284"	"29.923"	"30.054"	"28.788"	"24.523"	"20.661"	"13.866"
"1987"	"13.892"	"17.496"	"21.962"	"28.192"	"28.658"	"34.084"	"33.685"	"31.419"	"31.119"	"27.023"	"20.396"	"15.362"
"1988"	"15.296"	"17.331"	"21.362"	"29.457"	"33.688"	"33.019"	"30.223"	"29.223"	"29.058"	"25.292"	"20.127"	"15.596"
"1989"	"12.323"	"15.596"	"20.761"	"26.027"	"31.623"	"32.085"	"31.253"	"28.057"	"28.823"	"25.758"	"19.661"	"14.696"
"1990"	"15.665"	"16.396"	"19.758"	"27.157"	"31.758"	"34.585"	"29.689"	"29.422"	"28.292"	"24.392"	"20.096"	"15.166"
"1991"	"12.957"	"16.596"	"21.13"	"25.727"	"32.123"	"32.219"	"32.189"	"29.488"	"28.923"	"24.727"	"18.996"	"15.131"
"1992"	"14.297"	"15.127"	"21.061"	"27.496"	"31.023"	"33.75"	"29.954"	"29.323"	"28.623"	"25.227"	"20.062"	"15.962"
"1993"	"13.561"	"17.726"	"19.592"	"27.192"	"33.119"	"33.415"	"30.653"	"31.019"	"28.192"	"25.161"	"20.496"	"15.265"
"1994"	"14.231"	"16.361"	"23.062"	"26.023"	"32.723"	"34.553"	"30.427"	"29.623"	"28.492"	"24.861"	"20.062"	"15.927"
"1995"	"13.192"	"16.162"	"20.262"	"26.427"	"33.858"	"35.184"	"30.55"	"28.354"	"28.923"	"26.258"	"20.362"	"16.096"
"1996"	"13.996"	"17.096"	"22.327"	"28.257"	"31.557"	"32.249"	"30.546"	"28.28"	"28.523"	"25.257"	"19.262"	"14.161"
"1997"	"13.696"	"16.296"	"21.196"	"26.692"	"30.257"	"31.854"	"31.523"	"29.457"	"29.723"	"23.423"	"19.262"	"13.435"
"1998"	"10.854"	"16.931"	"19.693"	"27.792"	"33.188"	"34.684"	"30.823"	"29.989"	"29.592"	"26.092"	"21.162"	"16.534"
"1999"	"13.396"	"19"	"23.796"	"31.996"	"33.289"	"32.454"	"31.857"	"30.522"	"30.223"	"26.723"	"21.731"	"16.365"
"2000"	"14.765"	"15.097"	"20.927"	"30.058"	"33.619"	"32.484"	"30.492"	"30.289"	"29.957"	"27.558"	"21.63"	"16.8"
"2001"	"13.866"	"17.297"	"22.527"	"27.358"	"33.088"	"32.053"	"31.193"	"31.154"	"30.323"	"27.457"	"21.896"	"16.665"
"2002"	"15.792"	"16.335"	"21.004"	"29.654"	"34.488"	"33.819"	"32.853"	"30.688"	"28.023"	"26.226"	"21.162"	"15.861"
