
"Year"	"Jan"	"Feb"	"Mar"	"Apr"	"May"	"Jun"	"Jul"	"Aug"	"Sep"	"Oct"	"Nov"	"Dec"
"1901"	"33.207"	"4.997"	"31.625"	"41.941"	"31.794"	"172.452"	"172.251"	"210.149"	"84.709"	"82.933"	"0.204"	"0"
"1902"	"0.818"	"0"	"1.334"	"18.202"	"0.78"	"46.56"	"97.552"	"81.13"	"279.83"	"67.276"	"72.432"	"48.607"
"1903"	"2.49"	"1.325"	"0"	"1.661"	"57.425"	"111.035"	"228.608"	"252.958"	"242.289"	"128.378"	"0.639"	"14.251"
"1904"	"0"	"0.99"	"18.37"	"0.187"	"8.302"	"82.167"	"86.259"	"51.786"	"397.873"	"77.534"	"0.203"	"0"
"1905"	"0.656"	"3.898"	"0"	"19.443"	"6.817"	"83.922"	"63.282"	"133.995"	"211.801"	"19.532"	"0.686"	"0"
"1906"	"22.54"	"0"	"0.129"	"0.002"	"0.326"	"204.669"	"222.638"	"169.346"	"87.282"	"21.226"	"6.436"	"14.656"
"1907"	"0.764"	"10.234"	"0.358"	"58.114"	"0.153"	"91.399"	"172.357"	"149.029"	"43.747"	"2.448"	"2.318"	"2.353"
"1908"	"0"	"1.388"	"16.081"	"3.814"	"2.481"	"99.966"	"117.218"	"157.064"	"334.795"	"0.866"	"0.203"	"0"
"1909"	"4.002"	"2.132"	"20.045"	"10.912"	"19.917"	"186.091"	"182.018"	"153.42"	"246.723"	"9.884"	"0.203"	"18.348"
"1910"	"0"	"0"	"2.902"	"0"	"4.395"	"200.075"	"104.233"	"182.981"	"475.092"	"63.124"	"53.97"	"0"
"1911"	"4.015"	"0"	"0"	"0"	"5.345"	"88.355"	"197.055"	"162.546"	"101.491"	"0.774"	"35.507"	"0"
"1912"	"0"	"23.331"	"0"	"16.605"	"11.62"	"51.737"	"175.875"	"157.232"	"47.506"	"28.508"	"19.385"	"0.073"
"1913"	"0"	"10.987"	"0"	"3.642"	"40.387"	"151.989"	"221.045"	"85.639"	"66.651"	"22.595"	"0.203"	"23.931"
"1914"	"0"	"13.262"	"10.34"	"1.03"	"8.906"	"209.966"	"156.824"	"180.22"	"312.823"	"13.391"	"20.365"	"38.015"
"1915"	"18.31"	"1.177"	"44.002"	"23.615"	"4.785"	"172.504"	"108.108"	"93.755"	"383.166"	"131.623"	"22.706"	"12.735"
"1916"	"0"	"5.534"	"5.91"	"0.702"	"53.251"	"145.803"	"248.84"	"141.557"	"321.075"	"112.176"	"52.688"	"0"
"1917"	"1.041"	"23.623"	"14.867"	"17.503"	"22.631"	"164.825"	"148.506"	"227.957"	"330.087"	"111.494"	"36.01"	"0"
"1918"	"0.363"	"0"	"0.219"	"3.803"	"71.836"	"88.237"	"75.467"	"82.036"	"109.872"	"1.61"	"19.537"	"24.603"
"1919"	"16.418"	"1.426"	"0.285"	"10.512"	"14.21"	"168.053"	"93.727"	"94.171"	"285.343"	"33.663"	"17.64"	"1.555"
"1920"	"20.787"	"0"	"0.285"	"6.894"	"2.598"	"88.285"	"56.511"	"80.356"	"111.251"	"5.198"	"0.203"	"0"
"1921"	"3.945"	"0"	"0"	"7.615"	"0.153"	"165.623"	"124.913"	"82.975"	"137.336"	"28.907"	"9.714"	"0"
"1922"	"24.504"	"0.78"	"0"	"10.583"	"7.605"	"166.436"	"101.371"	"43.076"	"276.107"	"54.296"	"53.877"	"0.12"
"1923"	"0.543"	"0.263"	"34.668"	"20.601"	"0.838"	"19.358"	"277.791"	"85.262"	"352.764"	"0.759"	"0.203"	"0.171"
"1924"	"2.103"	"0"	"6.962"	"15.836"	"0.17"	"34.332"	"120.941"	"176.895"	"248.045"	"75.384"	"7.043"	"23.453"
"1925"	"0"	"0"	"0"	"0"	"39.107"	"116.5"	"69.024"	"171.507"	"97.847"	"46.597"	"38.756"	"0.926"
"1926"	"40.796"	"1.022"	"0.008"	"2.889"	"25.359"	"34.722"	"106.288"	"251.081"	"187.817"	"0.763"	"9.048"	"1.794"
"1927"	"0"	"2.278"	"17.57"	"15.731"	"0.153"	"137.36"	"109.102"	"92.685"	"181.271"	"48.632"	"91.689"	"0.926"
"1928"	"0"	"27.004"	"8.676"	"4.384"	"0.153"	"142.898"	"140.114"	"131.597"	"283.92"	"73.723"	"0.203"	"3.574"
"1929"	"0"	"32.637"	"0.068"	"23.997"	"1.719"	"131.099"	"92.418"	"55.666"	"181.38"	"73.911"	"0.203"	"8.883"
"1930"	"0"	"0.842"	"5.349"	"16.018"	"4.144"	"127.583"	"40.911"	"77.353"	"338.898"	"44.405"	"11.429"	"0.05"
"1931"	"0"	"0"	"11.144"	"8.917"	"6.475"	"92.408"	"236.174"	"122.661"	"273.337"	"196.059"	"60.376"	"21.321"
"1932"	"0"	"15.894"	"19.281"	"10.527"	"23.622"	"91.607"	"212.286"	"139.891"	"175.539"	"53.48"	"29.76"	"0.917"
"1933"	"5.015"	"7.097"	"16.732"	"32.313"	"70.215"	"208.71"	"175.429"	"173.2"	"287.187"	"38.084"	"14.24"	"38.22"
"1934"	"11.433"	"0"	"0.005"	"21.37"	"1.087"	"87.672"	"195.184"	"308.314"	"214.991"	"23.106"	"106.079"	"0"
"1935"	"10.925"	"0.001"	"0"	"9.612"	"0.642"	"186.04"	"152.137"	"170.225"	"278.597"	"86.594"	"6.561"	"2.634"
"1936"	"0.371"	"29.693"	"6.473"	"3.986"	"32.386"	"128.223"	"75.534"	"105.15"	"136.143"	"5.594"	"99.81"	"7.88"
"1937"	"0"	"21.728"	"13.094"	"50.201"	"2.827"	"79.905"	"223.969"	"29.642"	"181.482"	"118.587"	"0.203"	"34.702"
"1938"	"0"	"6.402"	"9.329"	"15.211"	"31.72"	"258.885"	"225.475"	"161.613"	"253.058"	"65.044"	"0.203"	"1.18"
"1939"	"0.005"	"0"	"2.354"	"11.994"	"0.262"	"87.231"	"120.345"	"176.723"	"79.192"	"11.976"	"19.506"	"0.787"
"1940"	"0"	"6.244"	"0"	"26.783"	"12.436"	"195.336"	"169.384"	"190.978"	"149.115"	"72.51"	"19.754"	"4.152"
"1941"	"10.84"	"13.23"	"2.554"	"6.016"	"0.171"	"32.933"	"78.74"	"121.592"	"213.626"	"11.851"	"0.203"	"0"
"1942"	"0"	"18.573"	"0.003"	"23.222"	"7.679"	"175.172"	"148.785"	"272.434"	"149.713"	"5.179"	"0.203"	"51.527"
"1943"	"12.248"	"2.676"	"1.876"	"0.529"	"47.438"	"165.533"	"108.669"	"61.116"	"423.263"	"154.299"	"0.561"	"0"
"1944"	"0.358"	"19.778"	"36.519"	"0"	"4.838"	"82.002"	"189.755"	"108.66"	"188.44"	"87.803"	"23.311"	"0"
"1945"	"1.705"	"0"	"0"	"20.702"	"1.093"	"145.842"	"117.861"	"144.962"	"192.499"	"38.232"	"0.448"	"0"
"1946"	"0"	"21.317"	"0.046"	"11.343"	"17.301"	"150.021"	"143.308"	"109.559"	"133.543"	"7.409"	"80.033"	"3.674"
"1947"	"30.351"	"17.581"	"6.337"	"27.841"	"5.008"	"86.013"	"131.929"	"250.688"	"271.5"	"5.974"	"2.598"	"8.691"
"1948"	"10.094"	"4.427"	"9.947"	"13.479"	"2.699"	"167.836"	"210.743"	"94.873"	"177.494"	"25.673"	"82.033"	"0"
"1949"	"3.047"	"0.859"	"0.012"	"5.174"	"46.986"	"206.922"	"179.35"	"74.572"	"409.622"	"49.129"	"1.371"	"0"
"1950"	"0"	"26.676"	"12.761"	"1.132"	"18.275"	"48.341"	"110.486"	"97.094"	"332.156"	"47.869"	"0.226"	"5.518"
"1951"	"1.371"	"0"	"0.739"	"11.835"	"21.299"	"128.67"	"224.361"	"106.398"	"88.012"	"92.277"	"0.586"	"0"
"1952"	"0"	"27.15"	"0"	"10.709"	"35.848"	"101.557"	"141.781"	"101"	"183.86"	"69.635"	"0.203"	"0.622"
"1953"	"0"	"0"	"0"	"46.887"	"0.163"	"180.82"	"188.26"	"146.287"	"358.672"	"82.322"	"0.203"	"0"
"1954"	"0"	"0.047"	"18.718"	"24.823"	"6.037"	"195.625"	"280.468"	"105.436"	"301.228"	"7.335"	"0.203"	"10.022"
"1955"	"8.055"	"0"	"5.072"	"5.719"	"18.133"	"207.816"	"157.242"	"353.051"	"253.855"	"137.081"	"2.821"	"0"
"1956"	"0.208"	"0"	"0"	"2.449"	"68.734"	"101.444"	"264.075"	"154.374"	"242.855"	"73.951"	"79.149"	"0.832"
"1957"	"0.047"	"0.007"	"24.58"	"32.501"	"26.232"	"90.9"	"184.3"	"309.951"	"100.737"	"60.827"	"0.436"	"0"
"1958"	"0"	"0"	"15.674"	"48.058"	"17.651"	"64.052"	"292.682"	"336.933"	"94.927"	"37.751"	"70.632"	"0"
"1959"	"1.225"	"0"	"0.554"	"33.414"	"14.9"	"114.105"	"194.126"	"182.66"	"332.229"	"160.508"	"10.137"	"0"
"1960"	"2.531"	"0"	"26.231"	"3.878"	"44.317"	"119.937"	"150.078"	"90.358"	"238.472"	"69.318"	"25.406"	"1.49"
"1961"	"0"	"1.043"	"14.779"	"23.247"	"61.382"	"153.467"	"260.709"	"194.858"	"156.967"	"297.678"	"12.358"	"1.658"
"1962"	"1.191"	"0.02"	"1.668"	"23.596"	"39.716"	"76.128"	"128.344"	"245.372"	"362.785"	"40.571"	"80.136"	"48.311"
"1963"	"0"	"15.272"	"10.486"	"32.261"	"8.762"	"207.077"	"154.757"	"470.664"	"107.194"	"114.932"	"0.219"	"0"
"1964"	"0.005"	"0"	"15.405"	"8.236"	"0.762"	"83.367"	"192.207"	"171.004"	"246.221"	"14.364"	"1.558"	"0"
"1965"	"3.281"	"1.911"	"0.042"	"19.254"	"2.562"	"124.394"	"224.321"	"169.255"	"94.407"	"10.636"	"0.417"	"10.922"
"1966"	"14.045"	"0.057"	"11.203"	"6.62"	"25.941"	"63.002"	"167.169"	"85.348"	"248.542"	"6.538"	"70.475"	"17.42"
"1967"	"0.981"	"2.534"	"7.517"	"7.13"	"18.982"	"116.764"	"209.641"	"108.747"	"178.619"	"52.584"	"7.034"	"46.357"
"1968"	"15.948"	"17.652"	"46.131"	"21.868"	"0.153"	"86.661"	"208.126"	"53.227"	"224.823"	"25.077"	"17.274"	"0.693"
"1969"	"0"	"0"	"0.261"	"0.512"	"9.541"	"105.094"	"171.237"	"137.061"	"263.725"	"32.562"	"42.037"	"0.384"
"1970"	"7.6"	"0"	"0"	"14.631"	"34.266"	"198.713"	"104.48"	"291.928"	"242.025"	"30.611"	"0.203"	"0"
"1971"	"0.619"	"0.068"	"0.023"	"0.027"	"20.367"	"82.594"	"28.961"	"184.61"	"149.979"	"164.847"	"0.203"	"0"
"1972"	"0"	"0"	"0"	"0.84"	"7.08"	"98.107"	"61.838"	"97.434"	"84.497"	"0.783"	"43.52"	"0"
"1973"	"0"	"0.888"	"0"	"10.975"	"1.093"	"84.067"	"154.156"	"395.622"	"148.274"	"146.77"	"0.952"	"0.12"
"1974"	"0"	"0.626"	"3.201"	"11.442"	"41.645"	"107.072"	"119.373"	"148.633"	"161.544"	"171.478"	"0.203"	"0"
"1975"	"1.345"	"15.175"	"12.451"	"0.02"	"14.431"	"139.357"	"214.641"	"237.325"	"409.166"	"134.777"	"0.61"	"0"
"1976"	"0"	"0"	"6.684"	"15.634"	"4.19"	"101.462"	"178.35"	"208.617"	"75.87"	"2.944"	"16.378"	"0"
"1977"	"0"	"15.847"	"8.505"	"1.795"	"8.324"	"96.724"	"120.844"	"121.38"	"132.547"	"65.35"	"99.399"	"1.659"
"1978"	"15.563"	"26.65"	"12.681"	"21.067"	"21.831"	"189.585"	"189.815"	"114.542"	"80.362"	"76.339"	"47.15"	"1.146"
"1979"	"0.905"	"23.244"	"8.091"	"3.987"	"16.421"	"139.213"	"188.204"	"136.221"	"213.295"	"18.069"	"53.136"	"0.705"
"1980"	"0.094"	"0"	"12.533"	"11.067"	"0.937"	"196.923"	"99.373"	"265.002"	"134.471"	"0.774"	"0.646"	"34.418"
"1981"	"20.823"	"1.025"	"31.984"	"4.096"	"19.999"	"122.958"	"127.619"	"176.467"	"316.428"	"64.318"	"10.26"	"23.901"
"1982"	"5.311"	"0.413"	"0.455"	"29.689"	"34.358"	"60.284"	"235.264"	"66.608"	"243.34"	"23.573"	"36.645"	"0"
"1983"	"0.092"	"0"	"5.203"	"0"	"13.902"	"120.299"	"180.642"	"315.259"	"413.859"	"155.721"	"0.289"	"15.438"
"1984"	"5.753"	"16.059"	"0"	"0.202"	"0.153"	"41.606"	"85.39"	"95.634"	"138.281"	"141.006"	"0.416"	"0.781"
"1985"	"11.001"	"0"	"6.488"	"17.066"	"1.061"	"182.894"	"164.42"	"132.151"	"59.726"	"97.63"	"28.615"	"1.921"
"1986"	"1.153"	"23.012"	"0"	"14.001"	"6.318"	"186.773"	"191.302"	"205.386"	"75.58"	"5.66"	"9.467"	"22.263"
"1987"	"21.613"	"10.314"	"8.956"	"1.992"	"35.264"	"139.062"	"72.513"	"136.842"	"77.264"	"108.808"	"47.706"	"17.015"
"1988"	"0"	"1.25"	"0"	"20.033"	"20.463"	"92.885"	"290.203"	"187.142"	"298.087"	"100.264"	"3.539"	"1.898"
"1989"	"0"	"0"	"36.967"	"6.07"	"18.248"	"135.005"	"174.163"	"149.961"	"200.62"	"25.405"	"0.945"	"10.295"
"1990"	"0.585"	"0.782"	"5.598"	"0.039"	"78.697"	"136.483"	"161.734"	"272.332"	"59.019"	"138.11"	"17.634"	"6.063"
"1991"	"0.483"	"3.138"	"1.15"	"23.332"	"6.889"	"171.561"	"137.657"	"123.359"	"89.053"	"8.334"	"18.405"	"0"
"1992"	"0"	"0.073"	"0"	"1.706"	"26.647"	"71.95"	"75.838"	"249.848"	"249.909"	"41.584"	"4.727"	"0"
"1993"	"0"	"3.936"	"3.332"	"2.105"	"1.577"	"69.382"	"171.78"	"138.068"	"162.1"	"179.962"	"1.561"	"14.18"
"1994"	"8.536"	"5.609"	"8.861"	"38.467"	"9.386"	"175.825"	"153.688"	"145.254"	"168.982"	"102.9"	"20.369"	"0"
"1995"	"16.514"	"0"	"26.763"	"3.172"	"31.702"	"106.914"	"246.88"	"77.24"	"278.471"	"97.43"	"7.982"	"0"
"1996"	"1.307"	"4.085"	"3.986"	"7.908"	"2.547"	"81.636"	"176.259"	"232.671"	"287.986"	"194.644"	"18.331"	"0"
"1997"	"16.424"	"0"	"4.468"	"30.867"	"4.978"	"129"	"125.308"	"228.43"	"56.586"	"40.77"	"139.476"	"25.192"
"1998"	"0.214"	"2.122"	"1.972"	"0.606"	"4.027"	"67.672"	"160.994"	"212.509"	"384.479"	"104.6"	"51.938"	"0"
"1999"	"0"	"19.199"	"0"	"1.147"	"56.515"	"137.976"	"125.953"	"163.641"	"259.115"	"130.195"	"0.203"	"0"
"2000"	"0"	"3.258"	"0"	"1.64"	"16.975"	"152.121"	"131.395"	"227.348"	"80.228"	"16.399"	"4.529"	"3.624"
"2001"	"8.159"	"0"	"28.995"	"6.961"	"5.043"	"143.446"	"49.307"	"159.875"	"71.058"	"69.696"	"6.28"	"0"
"2002"	"11.799"	"0.782"	"3.976"	"17.911"	"8.689"	"197.463"	"35.75"	"206.45"	"134.435"	"55.296"	"3.397"	"0"
