
"Year"	"Jan"	"Feb"	"Mar"	"Apr"	"May"	"Jun"	"Jul"	"Aug"	"Sep"	"Oct"	"Nov"	"Dec"
"1901"	"53.776"	"5.014"	"4.843"	"16.376"	"34.063"	"195.572"	"210.292"	"352.248"	"266.35"	"23.94"	"3.366"	"1.485"
"1902"	"0.575"	"0.622"	"8.532"	"18.533"	"27.035"	"162.687"	"478.636"	"211.624"	"366.704"	"22.807"	"0.026"	"0.063"
"1903"	"7.601"	"1.543"	"4.291"	"11.599"	"54.051"	"347.15"	"178.379"	"345.848"	"197.151"	"115.184"	"0.026"	"0.269"
"1904"	"2.251"	"0.294"	"20.6"	"7.119"	"214.152"	"82.935"	"301.206"	"535.715"	"152.244"	"126.136"	"7.653"	"2.22"
"1905"	"13.887"	"22.594"	"22.286"	"16.21"	"26.338"	"37.156"	"587.393"	"327.393"	"400.833"	"15.605"	"0"	"1.33"
"1906"	"6.299"	"42.233"	"16.033"	"5.752"	"42.622"	"185.279"	"483.282"	"312.828"	"264.401"	"75.898"	"0.038"	"0.211"
"1907"	"1.706"	"26.787"	"20.199"	"44.058"	"32.386"	"235.107"	"266.802"	"386.052"	"139.463"	"30.708"	"0.025"	"0.164"
"1908"	"9.404"	"26.701"	"5.018"	"5.348"	"16.85"	"118.549"	"343.065"	"324.365"	"125.308"	"59.741"	"0.186"	"1.502"
"1909"	"5.844"	"4.761"	"0.025"	"65.406"	"14.571"	"332.519"	"503.135"	"434.848"	"201.668"	"14.037"	"0.025"	"7.076"
"1910"	"2.649"	"2.565"	"13.318"	"14.684"	"40.886"	"302.373"	"494.884"	"381.916"	"254.055"	"53.052"	"5.005"	"0.392"
"1911"	"15.154"	"0.232"	"20.652"	"15.976"	"25.814"	"321.346"	"305.491"	"338.162"	"303.57"	"140.902"	"15.399"	"0.051"
"1912"	"5.892"	"7.145"	"4.02"	"31.622"	"54.091"	"172.47"	"406.36"	"368.022"	"98.364"	"18.657"	"11.292"	"0.79"
"1913"	"0.559"	"35.388"	"25.024"	"4.398"	"74.433"	"535.338"	"257.423"	"349.32"	"166.15"	"69.237"	"1.795"	"15.617"
"1914"	"0.271"	"23.651"	"16.033"	"48.663"	"87.488"	"99.877"	"368.372"	"443.963"	"208.363"	"18.566"	"0.18"	"0.164"
"1915"	"2.437"	"46.098"	"25.036"	"15.328"	"28.112"	"248.562"	"372.468"	"294.659"	"285.905"	"123.708"	"4.632"	"0.89"
"1916"	"0.176"	"12.92"	"1.886"	"8.968"	"29.789"	"253.174"	"486.705"	"384.581"	"183.406"	"134.725"	"0.278"	"0.051"
"1917"	"2.788"	"15.792"	"7.713"	"9.683"	"114.952"	"275.438"	"354.101"	"547.026"	"205.801"	"193.226"	"0.038"	"1.52"
"1918"	"0.721"	"0.232"	"6.007"	"15.088"	"29.425"	"229.517"	"304.938"	"397.29"	"186.923"	"16.524"	"5.101"	"0.43"
"1919"	"27.098"	"1.8"	"7.739"	"20.774"	"84.699"	"109.302"	"386.025"	"466.086"	"219.034"	"117.041"	"0.592"	"0.391"
"1920"	"0.509"	"28.046"	"21.056"	"6.79"	"40.856"	"181.339"	"355.113"	"286.761"	"139.224"	"32.185"	"0.026"	"0.205"
"1921"	"20.223"	"0.566"	"1.601"	"6.12"	"16.897"	"177.353"	"332.051"	"384.018"	"160.949"	"18.294"	"0.025"	"0.176"
"1922"	"14.684"	"11.652"	"1.517"	"14.934"	"9.185"	"469.33"	"552.535"	"433.802"	"369.029"	"76.729"	"1.16"	"23.566"
"1923"	"1.495"	"44.15"	"1.892"	"4.484"	"12.723"	"128.937"	"281.491"	"529.956"	"255.577"	"73.957"	"4.362"	"2.242"
"1924"	"2.281"	"4.979"	"3.125"	"26.066"	"27.632"	"184.856"	"406.169"	"265.761"	"351.94"	"129.692"	"24.357"	"2.676"
"1925"	"9.444"	"0.219"	"4.634"	"5.181"	"87.791"	"159.898"	"388.403"	"525.777"	"286.316"	"32.195"	"5.172"	"0.051"
"1926"	"15.434"	"0.963"	"37.742"	"20.008"	"100.544"	"61.521"	"637.921"	"336.2"	"214.214"	"55.28"	"2.598"	"4.12"
"1927"	"18.064"	"21.158"	"26.352"	"6.937"	"32.227"	"107.448"	"273.361"	"507.292"	"164.727"	"118.286"	"20.725"	"0.4"
"1928"	"24.204"	"16.385"	"2.835"	"29.893"	"40.541"	"207.617"	"547.328"	"213.007"	"151.537"	"113.55"	"2.858"	"5.504"
"1929"	"23.834"	"0.451"	"3.877"	"12.363"	"26.926"	"284.78"	"420.031"	"386.373"	"82.05"	"211.153"	"0.025"	"19.929"
"1930"	"14.342"	"6.38"	"5.812"	"14.251"	"28.38"	"159.196"	"300.334"	"278.868"	"226.614"	"46.452"	"7.508"	"17.082"
"1931"	"1.219"	"19.787"	"13.191"	"5.346"	"22.055"	"95.861"	"670.246"	"375.954"	"236.129"	"105.339"	"2.515"	"1.31"
"1932"	"0.176"	"5.807"	"3.523"	"7.129"	"59.653"	"234.957"	"125.005"	"384.101"	"179.479"	"39.932"	"26.207"	"13.835"
"1933"	"21.276"	"15.526"	"3.185"	"48.28"	"67.098"	"187.984"	"680.343"	"435.698"	"177.696"	"82.233"	"0"	"0.15"
"1934"	"26.581"	"16.202"	"2.688"	"15.208"	"14.818"	"254.504"	"444.612"	"347.964"	"233.826"	"50.703"	"0.967"	"2.741"
"1935"	"7.323"	"17.365"	"3.592"	"22.209"	"24.676"	"189.46"	"271.843"	"488.283"	"211.617"	"30.708"	"2.46"	"2.453"
"1936"	"2.832"	"5.117"	"13.075"	"18.158"	"67.945"	"320.815"	"692.248"	"353.716"	"302.419"	"102.891"	"1.02"	"26.78"
"1937"	"0.494"	"39.229"	"2.112"	"41.526"	"37.997"	"129.943"	"233.986"	"357.2"	"230.778"	"103.461"	"0.199"	"2.036"
"1938"	"12.456"	"12.898"	"4.139"	"18.651"	"58.255"	"564.46"	"412.195"	"350.613"	"188.182"	"50.529"	"0.436"	"0.038"
"1939"	"3.076"	"28.961"	"9.527"	"15.099"	"24.268"	"245.194"	"386.251"	"300.832"	"243.276"	"47.564"	"0.025"	"0.164"
"1940"	"2.865"	"39.754"	"31.816"	"16.662"	"32.14"	"151.914"	"624.025"	"399.847"	"185.188"	"20.428"	"0"	"7.675"
"1941"	"8.073"	"6.28"	"8.791"	"5.668"	"43.589"	"161.008"	"287.247"	"413.825"	"212.768"	"48.796"	"0.423"	"1.79"
"1942"	"35.816"	"23.876"	"6.988"	"18.403"	"20.366"	"217.593"	"288.346"	"378.294"	"304.152"	"15.265"	"0"	"4.921"
"1943"	"13.603"	"11.904"	"3.358"	"50.329"	"40.67"	"176.908"	"263.142"	"605.633"	"263.242"	"28.378"	"0.026"	"0.164"
"1944"	"21.669"	"13.869"	"29.165"	"13.985"	"13.73"	"337.13"	"185.857"	"385.655"	"167.546"	"60.934"	"0.211"	"0.124"
"1945"	"45.69"	"14.599"	"2.356"	"11.728"	"32.932"	"135.216"	"345.376"	"195.158"	"244.213"	"141.262"	"0.025"	"3.19"
"1946"	"0.231"	"21.392"	"14.445"	"30.849"	"33.445"	"129.082"	"571.311"	"348.483"	"240.125"	"70.6"	"12.82"	"1.928"
"1947"	"23.298"	"8.647"	"15.317"	"4.532"	"31.173"	"92.533"	"572.892"	"311.583"	"340.707"	"73.777"	"0.541"	"0.542"
"1948"	"5.194"	"11.869"	"5.101"	"9.673"	"44.62"	"125.989"	"508.188"	"428.763"	"302.921"	"71.783"	"3.815"	"0.335"
"1949"	"4.002"	"51.639"	"9.039"	"17.111"	"90.202"	"387.119"	"541.485"	"457.966"	"218.261"	"127.135"	"0.256"	"0.355"
"1950"	"6.703"	"8.373"	"29.476"	"4.572"	"20.047"	"331.352"	"297.95"	"470.408"	"168.45"	"28.051"	"0.211"	"0.851"
"1951"	"5.732"	"2.393"	"25.405"	"41.732"	"19.575"	"144.026"	"568.294"	"393.974"	"222.534"	"46.917"	"18.526"	"0"
"1952"	"1.814"	"11.439"	"16.023"	"10.642"	"29.705"	"481.875"	"289.695"	"315.744"	"204.703"	"43.601"	"2.777"	"0"
"1953"	"53.048"	"2.199"	"2.155"	"11.623"	"14.477"	"247.284"	"542.522"	"349.269"	"248.797"	"14.246"	"0"	"1.056"
"1954"	"13.904"	"14.216"	"6.63"	"9.445"	"30.57"	"164.241"	"444.297"	"343.7"	"247.001"	"35.692"	"0.189"	"0.849"
"1955"	"8.992"	"11.71"	"3.053"	"17.976"	"13.119"	"246.663"	"775.865"	"219.334"	"172.571"	"135.846"	"0"	"3.885"
"1956"	"16.401"	"2.538"	"8.293"	"25.122"	"16.292"	"331.818"	"203.242"	"339.363"	"330.043"	"156.525"	"27.879"	"12.443"
"1957"	"12.243"	"1.688"	"26.826"	"3.681"	"5.738"	"212.096"	"431.219"	"311.172"	"101.1"	"1.261"	"1.146"	"9.977"
"1958"	"21.745"	"3.443"	"32.211"	"16.213"	"4.58"	"306.537"	"269.077"	"319.582"	"155.393"	"47.784"	"0.735"	"2.902"
"1959"	"70.106"	"1.84"	"0.292"	"0.94"	"91.605"	"177.661"	"270.61"	"414.14"	"381.167"	"197.369"	"3.921"	"0"
"1960"	"3.57"	"0"	"10.65"	"3.757"	"2.793"	"126.078"	"338.949"	"476.941"	"212.834"	"57.449"	"0.038"	"0.254"
"1961"	"13.163"	"24.068"	"0"	"0.872"	"12.694"	"232.036"	"355.315"	"383.734"	"264.407"	"71.514"	"5.566"	"3.273"
"1962"	"22.664"	"9.979"	"8.282"	"47.446"	"9.729"	"173.053"	"303.159"	"394.542"	"396.146"	"1.469"	"1.316"	"8.042"
"1963"	"6.42"	"2.065"	"39.375"	"18.489"	"82.968"	"226.362"	"468.278"	"371.738"	"190.905"	"75.906"	"13.325"	"1.231"
"1964"	"1.289"	"0.791"	"2.529"	"12.074"	"18.626"	"133.848"	"539.088"	"391.294"	"183.187"	"15.216"	"0"	"1.496"
"1965"	"1.141"	"3.338"	"14.483"	"57.844"	"10.637"	"76.935"	"405.556"	"200.595"	"100.153"	"40.935"	"3.902"	"0.103"
"1966"	"19.857"	"21.329"	"0.013"	"0.168"	"2.672"	"67.34"	"235.619"	"223.756"	"75.924"	"3.004"	"22.087"	"6.665"
"1967"	"0.623"	"0.414"	"21.994"	"15.112"	"24.574"	"72.024"	"344.14"	"515.497"	"186.149"	"10.222"	"2.11"	"14.118"
"1968"	"23.402"	"4.006"	"2.712"	"10.642"	"14.499"	"194.488"	"380.212"	"305.993"	"113.122"	"116.599"	"0.311"	"5.517"
"1969"	"13.386"	"8.741"	"2.965"	"19.839"	"74.492"	"162.076"	"545.425"	"308.244"	"199.134"	"5.398"	"9.901"	"0"
"1970"	"14.525"	"30.983"	"5.772"	"4.49"	"69.542"	"327.195"	"458.357"	"311.801"	"318.765"	"46.748"	"0.486"	"0"
"1971"	"6.989"	"10.492"	"5.863"	"44.536"	"113.749"	"378.36"	"300.979"	"415.276"	"162.099"	"134.436"	"0.409"	"0"
"1972"	"11.473"	"31.321"	"6.895"	"23.157"	"22.898"	"60.546"	"214.05"	"341.616"	"209.826"	"200.957"	"12.922"	"0"
"1973"	"27.034"	"10.396"	"5.213"	"7.12"	"34.729"	"178.501"	"372.319"	"465.037"	"275.023"	"163.214"	"2.512"	"0"
"1974"	"10.472"	"3.111"	"2.182"	"7.288"	"26.239"	"168.035"	"520.418"	"235.341"	"212.719"	"34.808"	"0.68"	"3.39"
"1975"	"36.021"	"10.777"	"15.472"	"11.03"	"29.944"	"248.494"	"469.995"	"356.567"	"329.151"	"44.975"	"0"	"0"
"1976"	"22.618"	"14.038"	"2.282"	"24.963"	"36.687"	"134.493"	"236.299"	"210.164"	"400.044"	"3.686"	"0.407"	"0"
"1977"	"10.999"	"10.363"	"1.908"	"44.324"	"94.159"	"173.118"	"406.12"	"217.213"	"148.13"	"81.607"	"5.804"	"16.099"
"1978"	"15.234"	"30.609"	"20.525"	"28.885"	"15.312"	"166.696"	"249.29"	"305.973"	"269.945"	"118.295"	"1.179"	"6.394"
"1979"	"14.808"	"10.426"	"2.984"	"20.687"	"13.427"	"132.336"	"481.857"	"270.334"	"82.558"	"15.65"	"32.052"	"10.493"
"1980"	"1.062"	"5.393"	"13.131"	"6.566"	"24.96"	"414.425"	"601.286"	"494.377"	"190.42"	"12.411"	"0.2"	"7.263"
"1981"	"24.414"	"4.833"	"12.266"	"16.127"	"50.427"	"170.08"	"485.605"	"458.652"	"301.025"	"3.714"	"18.633"	"2.674"
"1982"	"34.699"	"13.586"	"32.043"	"15.736"	"103.288"	"177.924"	"245.798"	"412.104"	"400.884"	"22.169"	"14.551"	"4.446"
"1983"	"14.086"	"4.304"	"8.553"	"42.032"	"116.433"	"187.424"	"444.254"	"265.528"	"238.744"	"117.926"	"0"	"7.287"
"1984"	"24.844"	"20.038"	"2.329"	"25.797"	"12.904"	"192.704"	"306.698"	"340.197"	"330.974"	"44.302"	"0.3"	"3.468"
"1985"	"16.76"	"2.667"	"1.21"	"21.577"	"29.674"	"136.356"	"354.079"	"269.207"	"365.963"	"182.398"	"0.423"	"18.26"
"1986"	"4.672"	"14.24"	"6.481"	"19.999"	"115.765"	"179.309"	"454.497"	"358.564"	"339.876"	"17.924"	"0.565"	"21.239"
"1987"	"10.004"	"12.732"	"7.382"	"23.008"	"66.197"	"166.043"	"376.364"	"365.293"	"254.02"	"168.432"	"0"	"4.679"
"1988"	"8.735"	"12.14"	"18.267"	"10.395"	"56.568"	"280.797"	"391.497"	"376.706"	"139.094"	"28.024"	"2.747"	"33.628"
"1989"	"13.972"	"14.572"	"6.699"	"11.462"	"113.044"	"179.445"	"385.293"	"254.605"	"212.16"	"32.365"	"1.977"	"0.79"
"1990"	"0.186"	"11.687"	"6.323"	"17.308"	"63.064"	"87.808"	"384.895"	"215.076"	"275.065"	"30.081"	"0.013"	"2.401"
"1991"	"14.454"	"6.085"	"11.14"	"21.884"	"44.822"	"69.342"	"114.027"	"340.945"	"150.52"	"3.727"	"1.786"	"12.579"
"1992"	"16.406"	"5.027"	"1.937"	"10.76"	"52.872"	"73.124"	"268.395"	"200.034"	"169.512"	"64.743"	"5.319"	"0"
"1993"	"12.214"	"1.051"	"9.127"	"16.285"	"68.706"	"71.871"	"149.739"	"261.334"	"334.581"	"38.746"	"0"	"0"
"1994"	"53.921"	"18.122"	"17.626"	"26.27"	"25.743"	"56.952"	"310.315"	"293.582"	"146.002"	"33.465"	"1.886"	"0"
"1995"	"26.6"	"17.194"	"13.844"	"17.299"	"35.192"	"61.338"	"207.123"	"415.318"	"244.984"	"6.648"	"18.757"	"8.557"
"1996"	"24.274"	"13.736"	"2.855"	"10.826"	"26.489"	"56.7"	"217.627"	"361.612"	"173.508"	"133.809"	"0"	"0.063"
"1997"	"13.453"	"3.724"	"5.298"	"21.958"	"116.63"	"218.969"	"195.872"	"313.808"	"239.908"	"50.037"	"14.476"	"12.015"
"1998"	"0.72"	"6.855"	"10.869"	"20.058"	"128.84"	"53.387"	"261.276"	"397.112"	"173.546"	"41.617"	"8.457"	"0"
"1999"	"26.565"	"17.284"	"1.82"	"0.168"	"66.793"	"109.445"	"289.75"	"267.095"	"209.358"	"44.949"	"0.827"	"1.708"
"2000"	"12.831"	"13.816"	"8.98"	"19.065"	"26.644"	"179.572"	"178.885"	"180.566"	"242.585"	"0.683"	"0"	"1.119"
"2001"	"2.786"	"2.957"	"13.669"	"21.891"	"36.348"	"130.4"	"328.467"	"283.257"	"73.71"	"105.808"	"0"	"1.52"
"2002"	"13.736"	"12.511"	"7.926"	"16.769"	"26.087"	"61.707"	"235.2"	"303.208"	"217.054"	"140.203"	"8.718"	"1.322"
