
"Year"	"Jan"	"Feb"	"Mar"	"Apr"	"May"	"Jun"	"Jul"	"Aug"	"Sep"	"Oct"	"Nov"	"Dec"
"1901"	"14.926"	"18.497"	"23.854"	"29.798"	"31.411"	"33.01"	"30.127"	"29.201"	"28.765"	"27.537"	"22.155"	"17.655"
"1902"	"17.615"	"19.37"	"25.393"	"28.493"	"31.473"	"31.82"	"29.31"	"29.51"	"28.765"	"25.769"	"21.471"	"16.629"
"1903"	"16.288"	"18.125"	"23.016"	"29.37"	"32.353"	"31.812"	"30.682"	"29.026"	"29.227"	"26.564"	"21.672"	"17.003"
"1904"	"16.437"	"19.202"	"24.135"	"30.374"	"30.411"	"31.151"	"29.028"	"28.871"	"28.765"	"26.43"	"20.88"	"17.293"
"1905"	"14.705"	"14.675"	"21.014"	"26.388"	"30.535"	"32.709"	"29.508"	"28.383"	"28.727"	"26.731"	"21.955"	"16.799"
"1906"	"15.699"	"17.607"	"22.065"	"29.942"	"32.489"	"31.62"	"29.816"	"28.672"	"29.279"	"26.493"	"22.566"	"17.847"
"1907"	"17.864"	"17.708"	"20.757"	"27.001"	"30.588"	"31.85"	"29.944"	"29.844"	"29.415"	"27.265"	"21.755"	"17.211"
"1908"	"14.942"	"18.493"	"24.397"	"31.842"	"31.965"	"32.38"	"29.464"	"29.894"	"29.151"	"26.96"	"21.243"	"16.433"
"1909"	"16.801"	"18.302"	"25.754"	"27.734"	"31.871"	"30.507"	"29.63"	"29.063"	"29.64"	"27.355"	"22.005"	"17.723"
"1910"	"16.024"	"18.602"	"24.469"	"29.643"	"31.427"	"30.894"	"28.941"	"29.499"	"29.143"	"26.159"	"21.126"	"16.818"
"1911"	"17.038"	"18.158"	"22.298"	"29.232"	"32.544"	"30.985"	"30.475"	"29.244"	"28.628"	"26.219"	"20.375"	"16.246"
"1912"	"16.346"	"19.541"	"23.708"	"27.899"	"30.91"	"31.862"	"29.359"	"29.166"	"28.765"	"26.532"	"20.465"	"16.669"
"1913"	"16.036"	"17.929"	"21.892"	"30.224"	"30.21"	"29.841"	"29.552"	"29.186"	"29.514"	"26.193"	"20.393"	"16.28"
"1914"	"16.916"	"18.565"	"22.992"	"27.575"	"30.767"	"31.129"	"29.427"	"28.922"	"28.765"	"25.131"	"21.48"	"17.606"
"1915"	"16.909"	"18.189"	"23.154"	"29.098"	"31.812"	"31.183"	"30.284"	"29.422"	"29.166"	"28.294"	"23.251"	"17.26"
"1916"	"16.061"	"18.331"	"26.632"	"29.903"	"33.357"	"30.692"	"29.264"	"29.078"	"28.966"	"26.631"	"22.069"	"16.374"
"1917"	"15.8"	"18.116"	"22.791"	"27.287"	"28.88"	"30.723"	"29.452"	"29.273"	"28.377"	"26.046"	"21.916"	"16.884"
"1918"	"14.899"	"18.386"	"24.507"	"28.038"	"31.681"	"30.164"	"30.493"	"28.551"	"29.367"	"26.731"	"21.38"	"15.828"
"1919"	"16.071"	"17.379"	"24.419"	"27.92"	"30.887"	"31.38"	"29.546"	"29.373"	"28.693"	"26.443"	"21.726"	"16.906"
"1920"	"16.715"	"18.062"	"22.685"	"29.243"	"30.168"	"31.818"	"29.724"	"29.273"	"28.935"	"26.844"	"22.104"	"17.892"
"1921"	"16.632"	"18.852"	"26.137"	"30.516"	"33.966"	"31.424"	"29.591"	"29.001"	"28.392"	"25.531"	"21.198"	"15.978"
"1922"	"16.338"	"19.474"	"25.658"	"30.21"	"33.165"	"30.585"	"29.452"	"28.772"	"28.421"	"25.599"	"21.469"	"16.793"
"1923"	"16.386"	"17.998"	"24.516"	"30.482"	"31.988"	"32.964"	"29.475"	"29.757"	"28.842"	"25.831"	"21.655"	"17.179"
"1924"	"15.559"	"18.602"	"25.991"	"30.577"	"30.934"	"33.58"	"29.552"	"29.066"	"28.16"	"26.821"	"21.337"	"17.667"
"1925"	"14.661"	"17.018"	"24.059"	"29.442"	"31.15"	"30.643"	"29.109"	"28.983"	"28.696"	"25.931"	"20.973"	"16.709"
"1926"	"15.934"	"18.975"	"22.323"	"26.947"	"30.686"	"33.851"	"29.659"	"29.095"	"28.92"	"26.321"	"20.066"	"17.299"
"1927"	"15.216"	"17.913"	"22.682"	"29.281"	"30.499"	"31.986"	"29.653"	"28.91"	"29.075"	"26.57"	"21.418"	"17.584"
"1928"	"15.147"	"18.509"	"24.816"	"28.939"	"32.177"	"31.008"	"29.514"	"29.71"	"29.928"	"27.159"	"21.409"	"17.694"
"1929"	"16.153"	"17.781"	"25.002"	"29.175"	"32.776"	"32.012"	"29.415"	"28.944"	"28.811"	"25.808"	"21.499"	"16.61"
"1930"	"15.091"	"18.118"	"24.869"	"29.098"	"31.655"	"31.333"	"29.331"	"29.072"	"29.227"	"26.296"	"21.142"	"16.728"
"1931"	"17.032"	"17.957"	"24.009"	"30.715"	"31.55"	"33.081"	"29.54"	"29.878"	"28.854"	"26.681"	"21.442"	"17.879"
"1932"	"17.411"	"17.732"	"24.853"	"29.378"	"32.352"	"32.564"	"30.054"	"29.288"	"29.437"	"26.932"	"22.417"	"16.771"
"1933"	"14.603"	"19.313"	"24.666"	"27.46"	"30.191"	"31.089"	"29.266"	"28.894"	"28.765"	"26.386"	"21.805"	"17.501"
"1934"	"15.728"	"19.022"	"23.748"	"29.876"	"31.776"	"30.941"	"29.452"	"29.294"	"29.399"	"26.193"	"21.405"	"17.239"
"1935"	"15.12"	"19.024"	"24.625"	"27.678"	"32.863"	"32.348"	"29.904"	"28.666"	"28.908"	"26.303"	"21.627"	"16.843"
"1936"	"15.36"	"18.703"	"24.404"	"28.871"	"31.44"	"30.109"	"29.176"	"29.218"	"28.517"	"25.601"	"21.964"	"17.36"
"1937"	"14.885"	"18.35"	"23.166"	"28.372"	"31.195"	"32.142"	"30.037"	"28.635"	"29.338"	"25.531"	"20.902"	"16.623"
"1938"	"16.231"	"16.931"	"25.491"	"30.615"	"31.218"	"30.65"	"29.292"	"29.078"	"29.577"	"26.831"	"20.531"	"17.408"
"1939"	"16.589"	"18.793"	"22.436"	"29.928"	"32.684"	"31.07"	"29.737"	"29.244"	"29.099"	"26.268"	"22.082"	"17.795"
"1940"	"16.151"	"18.497"	"21.731"	"28.743"	"32.239"	"32.044"	"29.737"	"29.273"	"28.76"	"27.067"	"22.379"	"16.957"
"1941"	"15.934"	"19.389"	"26.17"	"31.193"	"31.705"	"31.148"	"30.34"	"29.101"	"29.065"	"26.525"	"21.742"	"18.705"
"1942"	"16.154"	"18.806"	"25.094"	"29.275"	"32.965"	"32.863"	"29.852"	"29.166"	"28.199"	"26.493"	"22.68"	"17.206"
"1943"	"17.616"	"18.173"	"24.655"	"27.338"	"32.498"	"32.027"	"29.396"	"28.884"	"29.227"	"26.831"	"22.528"	"18.293"
"1944"	"15.521"	"18.275"	"23.265"	"27.273"	"33.334"	"31.96"	"29.653"	"29.373"	"30.098"	"26.349"	"21.755"	"18.287"
"1945"	"15.212"	"17.246"	"24.553"	"27.872"	"31.49"	"32.732"	"30.328"	"29.495"	"28.92"	"25.493"	"21.405"	"16.061"
"1946"	"16.66"	"20.489"	"24.059"	"27.811"	"30.283"	"31.632"	"29.452"	"29.679"	"29.183"	"25.958"	"21.576"	"17.811"
"1947"	"15.692"	"19.032"	"24.835"	"30.601"	"31.783"	"33.033"	"29.552"	"29.711"	"28.966"	"26.259"	"21.942"	"17.671"
"1948"	"16.589"	"18.926"	"23.906"	"30.395"	"32.302"	"33.621"	"29.316"	"29.267"	"28.889"	"25.846"	"21.776"	"17.007"
"1949"	"17.203"	"18.354"	"24.177"	"28.385"	"30.348"	"31.627"	"29.277"	"29.288"	"28.693"	"26.86"	"21.416"	"16.157"
"1950"	"16.765"	"18.217"	"23.352"	"28.727"	"31.84"	"30.96"	"29.568"	"28.858"	"28.294"	"26.076"	"20.381"	"17.536"
"1951"	"15.574"	"19.04"	"24.751"	"28.803"	"32.423"	"32.133"	"29.732"	"29.634"	"29.078"	"28.219"	"22.836"	"16.909"
"1952"	"16.985"	"20.185"	"23.49"	"29.617"	"31.84"	"31.661"	"29.581"	"29.044"	"28.75"	"27.506"	"21.955"	"17.46"
"1953"	"15.345"	"19.825"	"27.253"	"30.519"	"32.881"	"32.148"	"29.102"	"29.217"	"28.864"	"26.266"	"21.191"	"18.622"
"1954"	"15.529"	"20.602"	"25.446"	"31.288"	"33.514"	"31.677"	"29.519"	"28.887"	"29.128"	"25.956"	"21.274"	"16.66"
"1955"	"15.982"	"18.95"	"26.155"	"28.794"	"31.664"	"31.638"	"29.171"	"29.019"	"28.567"	"26.906"	"22.544"	"17.329"
"1956"	"16.301"	"19.106"	"25.461"	"30.978"	"33.38"	"30.739"	"29.581"	"29.329"	"28.329"	"26.95"	"21.885"	"17.205"
"1957"	"16.634"	"18.203"	"23.23"	"29.539"	"33.02"	"32.087"	"29.967"	"29.6"	"29.593"	"26.697"	"22.716"	"17.991"
"1958"	"17.73"	"18.841"	"24.522"	"30.577"	"32.258"	"32.918"	"29.706"	"28.8"	"29.24"	"27.214"	"22.62"	"18.479"
"1959"	"16.478"	"18.284"	"24.631"	"29.889"	"31.918"	"31.786"	"29.728"	"29.162"	"28.75"	"26.792"	"22.104"	"17.961"
"1960"	"15.844"	"20.72"	"23.383"	"28.973"	"31.797"	"32.19"	"29.331"	"29.503"	"29.037"	"26.446"	"21.433"	"18.82"
"1961"	"16.785"	"17.934"	"24.519"	"29.495"	"32.205"	"31.575"	"30.016"	"29.303"	"29.115"	"26.553"	"21.005"	"15"
"1962"	"15.229"	"18.841"	"23.928"	"29.079"	"31.402"	"32.344"	"30.268"	"28.724"	"28.366"	"26.162"	"21.742"	"17.358"
"1963"	"15.687"	"19.697"	"23.641"	"28.414"	"30.589"	"31.323"	"29.52"	"29.101"	"28.438"	"27.043"	"22.332"	"18.024"
"1964"	"15.788"	"18.576"	"25.531"	"29.795"	"30.439"	"32.479"	"29.097"	"29.275"	"28.765"	"28.234"	"21.91"	"17.069"
"1965"	"16.72"	"18.554"	"23.005"	"28.142"	"31.915"	"32.666"	"29.369"	"28.566"	"28.144"	"26.452"	"22.208"	"16.701"
"1966"	"16.987"	"20.439"	"24.844"	"29.806"	"32.512"	"32.345"	"30.063"	"28.953"	"28.681"	"26.079"	"22.851"	"16.897"
"1967"	"15.763"	"19.95"	"22.941"	"28.355"	"31.483"	"32.084"	"29.458"	"28.804"	"28.765"	"25.754"	"20.506"	"17.68"
"1968"	"15.336"	"17.719"	"23.953"	"28.732"	"31.407"	"30.801"	"29.398"	"29.247"	"29.634"	"25.957"	"22.376"	"17.542"
"1969"	"16.265"	"19.731"	"26.331"	"30.057"	"31.206"	"32.528"	"29.57"	"28.785"	"28.633"	"26.93"	"23.499"	"18.043"
"1970"	"16.507"	"18.354"	"24.043"	"30.088"	"32.121"	"31.164"	"29.738"	"29.472"	"28.877"	"27.532"	"21.895"	"17.804"
"1971"	"15.909"	"17.808"	"23.86"	"27.618"	"29.351"	"29.828"	"28.743"	"28.069"	"28.699"	"26.139"	"20.998"	"17.449"
"1972"	"16.438"	"17.034"	"24.399"	"28.31"	"32.16"	"31.808"	"29.849"	"28.814"	"28.027"	"25.337"	"21.606"	"17.192"
"1973"	"16.618"	"19.231"	"23.383"	"30.24"	"31.282"	"31.073"	"29.674"	"28.88"	"28.765"	"26.463"	"21.227"	"16.303"
"1974"	"15.763"	"18.234"	"24.438"	"30.117"	"31.232"	"31.685"	"28.891"	"28.684"	"28.419"	"27.876"	"21.466"	"16.024"
"1975"	"15.404"	"18.358"	"23.847"	"29.734"	"31.783"	"31.228"	"28.531"	"28.71"	"28.471"	"27.45"	"20.797"	"16.656"
"1976"	"16.152"	"19.119"	"24.059"	"28.766"	"30.566"	"30.676"	"29.201"	"28.087"	"28.266"	"26.631"	"22.831"	"16.432"
"1977"	"15.328"	"19.369"	"25.148"	"28.188"	"29.39"	"30.973"	"29.393"	"29.01"	"29.281"	"25.926"	"23.308"	"17.537"
"1978"	"15.153"	"17.311"	"22.36"	"27.921"	"31.932"	"31.151"	"29.103"	"29.195"	"28.575"	"26.581"	"22.581"	"17.939"
"1979"	"16.938"	"17.657"	"23.947"	"29.373"	"32.467"	"31.249"	"29.479"	"29.256"	"28.734"	"26.913"	"23.875"	"17.813"
"1980"	"16.235"	"19.003"	"23.916"	"30.926"	"31.629"	"31.083"	"29.529"	"28.939"	"28.589"	"25.941"	"22.122"	"17.947"
"1981"	"15.815"	"19.416"	"23.49"	"27.706"	"30.201"	"31.791"	"28.89"	"29.122"	"29.018"	"26.459"	"21.065"	"17.013"
"1982"	"17.479"	"17.759"	"22.586"	"28.899"	"32.34"	"31.115"	"30.616"	"29.493"	"28.569"	"26.163"	"22.29"	"17.613"
"1983"	"15.446"	"19.7"	"23.277"	"28.314"	"30.229"	"31.814"	"30.008"	"29.661"	"29.887"	"26.688"	"21.454"	"17.879"
"1984"	"15.264"	"17.783"	"25.488"	"29.954"	"32.19"	"31.449"	"29.022"	"28.805"	"28.435"	"27.665"	"20.851"	"17.885"
"1985"	"16.663"	"18.538"	"26.582"	"30.082"	"31.471"	"32.32"	"28.846"	"29.279"	"28.703"	"26.047"	"21.764"	"18.478"
"1986"	"16.268"	"18.082"	"24.227"	"28.826"	"30.094"	"31.634"	"29.41"	"29.173"	"27.45"	"25.635"	"22.581"	"16.566"
"1987"	"15.628"	"19.873"	"23.912"	"29.018"	"31.245"	"32.482"	"29.81"	"29.064"	"29.499"	"26.765"	"22.162"	"17.112"
"1988"	"16.854"	"19.353"	"23.997"	"29.785"	"32.112"	"31.269"	"29.402"	"28.919"	"29.858"	"27.644"	"22.453"	"18.582"
"1989"	"15.67"	"18.094"	"24.083"	"29.066"	"32.405"	"31.152"	"29.459"	"28.593"	"29.548"	"27.744"	"22.031"	"16.87"
"1990"	"17.934"	"18.207"	"23.047"	"29.983"	"30.338"	"32.296"	"29.205"	"29.381"	"29.217"	"26.917"	"22.607"	"18.277"
"1991"	"15.813"	"19.982"	"24.844"	"28.9"	"31.817"	"30.976"	"29.803"	"28.735"	"29.422"	"26.809"	"21.132"	"17.639"
"1992"	"16.064"	"17.531"	"25.765"	"30.078"	"30.29"	"31.288"	"29.482"	"29.324"	"29.299"	"27.319"	"22.074"	"17.385"
"1993"	"16.954"	"20.278"	"22.943"	"28.304"	"31.254"	"31.163"	"30.242"	"29.037"	"28.704"	"27.274"	"22.771"	"18.554"
"1994"	"17.361"	"18.146"	"25.781"	"28.95"	"31.935"	"32.094"	"29.821"	"29.17"	"29.472"	"26.567"	"22.121"	"17.311"
"1995"	"15.388"	"19.205"	"24.53"	"29.477"	"33.267"	"32.177"	"29.563"	"29.019"	"29.31"	"27.185"	"22.662"	"18.48"
"1996"	"16.305"	"19.379"	"25.526"	"29.107"	"32.054"	"31.108"	"29.465"	"28.69"	"29.643"	"26.93"	"23.138"	"17.952"
"1997"	"15.579"	"17.949"	"24.548"	"29.843"	"30.556"	"31.836"	"31.432"	"29.371"	"28.357"	"25.275"	"22.096"	"17.587"
"1998"	"16.003"	"19.738"	"23.468"	"29.02"	"32.191"	"32.864"	"29.437"	"29.395"	"29.521"	"28.874"	"23.448"	"19.229"
"1999"	"16.94"	"20.866"	"25.551"	"32.745"	"32.256"	"31.39"	"29.27"	"29.028"	"28.633"	"27.646"	"23.742"	"18.762"
"2000"	"17.445"	"19.132"	"24.265"	"30.145"	"31.511"	"31.486"	"29.896"	"29.244"	"28.945"	"27.952"	"24.252"	"18.386"
"2001"	"17.153"	"20.087"	"24.431"	"29.5"	"32.205"	"31.025"	"29.633"	"29.64"	"30.078"	"28.175"	"24.408"	"19.412"
"2002"	"16.505"	"19.98"	"25.516"	"29.579"	"32.663"	"32.433"	"31.03"	"29.234"	"28.576"	"26.865"	"22.742"	"17.794"
