
"Year"	"Jan"	"Feb"	"Mar"	"Apr"	"May"	"Jun"	"Jul"	"Aug"	"Sep"	"Oct"	"Nov"	"Dec"
"1901"	"12.68"	"14.485"	"21.401"	"26.752"	"31.164"	"35.321"	"32.541"	"31.459"	"30.538"	"27.634"	"20.865"	"15.47"
"1902"	"15.099"	"17.403"	"23.267"	"27.95"	"31.933"	"33.298"	"31.948"	"32.096"	"29.759"	"25.988"	"20.186"	"14.396"
"1903"	"13.589"	"15.47"	"19.725"	"26.156"	"31.27"	"35.765"	"33.586"	"31.088"	"30.746"	"26.675"	"19.889"	"14.705"
"1904"	"12.954"	"16.56"	"20.448"	"28.221"	"31.657"	"34.61"	"31.843"	"30.919"	"29.8"	"26.28"	"19.483"	"15.31"
"1905"	"11.817"	"11.593"	"17.515"	"24.629"	"33.04"	"35.066"	"32.864"	"32.54"	"31.137"	"26.977"	"20.973"	"15.189"
"1906"	"12.568"	"13.955"	"19.243"	"27.016"	"34.066"	"33.648"	"32.929"	"29.958"	"29.408"	"26.913"	"21.353"	"16.281"
"1907"	"15.374"	"13.564"	"17.707"	"24.273"	"30.084"	"33.419"	"33.463"	"30.468"	"31.331"	"27.387"	"20.681"	"14.626"
"1908"	"14.126"	"16.465"	"21.414"	"28.19"	"32.087"	"35.484"	"31.365"	"28.921"	"29.778"	"26.252"	"19.287"	"14.774"
"1909"	"12.756"	"14.824"	"21.722"	"25.983"	"32.175"	"32.41"	"30.259"	"29.824"	"29.323"	"26.755"	"21.093"	"14.528"
"1910"	"13.554"	"15.801"	"21.303"	"26.387"	"32.539"	"33.407"	"30.619"	"29.765"	"29.889"	"25.532"	"19.203"	"14.572"
"1911"	"14.497"	"16.445"	"18.885"	"26.964"	"33.379"	"33.48"	"33.86"	"32.49"	"30.14"	"26.699"	"17.879"	"14.482"
"1912"	"14.053"	"17.222"	"21.025"	"26.894"	"32.335"	"35.232"	"31.878"	"29.933"	"28.912"	"26.486"	"19.032"	"14.563"
"1913"	"14.609"	"15.246"	"18.549"	"28.464"	"30.234"	"31.438"	"30.672"	"30.796"	"30.407"	"26.769"	"19.444"	"14.103"
"1914"	"15.434"	"14.952"	"20.294"	"26.529"	"31.696"	"33.123"	"30.694"	"30.746"	"29.513"	"24.236"	"20.031"	"14.318"
"1915"	"13.874"	"14.461"	"21.412"	"27.73"	"34.688"	"34.154"	"33.662"	"31.901"	"30.715"	"27.438"	"20.652"	"15.324"
"1916"	"14.671"	"15.444"	"24.274"	"29.121"	"32.065"	"33.23"	"30.674"	"29.834"	"29.507"	"26.329"	"19.017"	"14.335"
"1917"	"13.799"	"16.638"	"21.075"	"24.138"	"27.855"	"32.627"	"30.437"	"29.577"	"27.843"	"24.784"	"18.447"	"14.681"
"1918"	"13.347"	"16.602"	"20.929"	"24.882"	"34.035"	"33.204"	"33.93"	"31.847"	"30.532"	"26.76"	"19.832"	"14.226"
"1919"	"13.625"	"15.229"	"21.663"	"26.383"	"31.181"	"36.09"	"31.235"	"30.13"	"29.88"	"26.286"	"19.434"	"14.041"
"1920"	"14.23"	"14.748"	"20.643"	"26.989"	"28.68"	"33.061"	"31.508"	"31.104"	"30.931"	"27.381"	"21.231"	"16.166"
"1921"	"14.454"	"17.193"	"24.556"	"30.818"	"35.456"	"35.017"	"33.138"	"30.296"	"29.744"	"25.26"	"19.95"	"16.18"
"1922"	"12.997"	"16.969"	"23.108"	"28.069"	"32.907"	"33.499"	"31.818"	"30.6"	"28.996"	"25.227"	"19.529"	"14.392"
"1923"	"13.657"	"14.609"	"22.022"	"28.709"	"31.552"	"35.763"	"31.319"	"29.305"	"29.893"	"25.364"	"19.649"	"14.939"
"1924"	"13.101"	"15.729"	"22.505"	"28.393"	"28.994"	"36.147"	"32.563"	"30.415"	"28.245"	"25.815"	"19.617"	"15.449"
"1925"	"12.045"	"14.333"	"22.315"	"29.686"	"32.309"	"31.719"	"29.96"	"30.172"	"30.374"	"25.978"	"18.33"	"14.681"
"1926"	"14.241"	"17.106"	"19.75"	"24.099"	"29.28"	"35.41"	"32.183"	"29.559"	"29.298"	"25.657"	"17.913"	"14.812"
"1927"	"12.94"	"13.683"	"20.213"	"26.342"	"30.533"	"34.095"	"30.865"	"29.512"	"29.606"	"26.027"	"19.73"	"15.778"
"1928"	"12.805"	"16.405"	"21.2"	"27.182"	"33.958"	"34.044"	"32.137"	"31.718"	"30.231"	"27.01"	"20.015"	"14.446"
"1929"	"13.624"	"14.993"	"23.707"	"28.433"	"33.216"	"34.17"	"31.527"	"29.862"	"30.762"	"26.019"	"20.042"	"13.07"
"1930"	"12.428"	"15.505"	"21.957"	"26.647"	"32.037"	"32.821"	"30.041"	"30.589"	"28.828"	"25.881"	"19.112"	"14.761"
"1931"	"14.825"	"13.372"	"20.452"	"28.513"	"31.893"	"34.619"	"31.573"	"30.731"	"29.29"	"26.028"	"19.44"	"15.45"
"1932"	"15.65"	"15.412"	"22.295"	"27.651"	"30.681"	"35.778"	"31.532"	"29.631"	"29.703"	"26.191"	"19.585"	"14.739"
"1933"	"11.815"	"16.288"	"20.948"	"25.054"	"29.598"	"34.022"	"30.748"	"28.839"	"28.188"	"25.304"	"19.504"	"15.839"
"1934"	"11.772"	"17.791"	"20.304"	"27.219"	"31.027"	"33.448"	"31.386"	"29.542"	"30.694"	"25.729"	"19.58"	"15.486"
"1935"	"12.042"	"16.272"	"21.217"	"23.706"	"32.38"	"35.476"	"31.2"	"29.673"	"29.6"	"25.774"	"20.036"	"14.421"
"1936"	"12.423"	"15.944"	"20.499"	"26.81"	"34.224"	"31.831"	"30.724"	"30.03"	"29.248"	"25.922"	"19.734"	"14.516"
"1937"	"13.028"	"15.837"	"19.822"	"25.721"	"31.736"	"34.383"	"30.783"	"31.675"	"29.843"	"25.078"	"19.23"	"13.725"
"1938"	"13.191"	"14.389"	"22.399"	"28.416"	"34.296"	"32.729"	"32.403"	"31.18"	"31.243"	"27.069"	"18.631"	"15.391"
"1939"	"14.663"	"15.919"	"18.701"	"25.71"	"33.563"	"32.583"	"31.486"	"31.423"	"30.44"	"27.44"	"19.974"	"15.844"
"1940"	"14.082"	"15.4"	"19.703"	"25.965"	"32.74"	"34.028"	"31.574"	"29.589"	"29.451"	"26.333"	"20.682"	"14.731"
"1941"	"13.134"	"16.953"	"23.699"	"30.428"	"33.676"	"32.409"	"32.459"	"30.69"	"30.044"	"28.289"	"20.394"	"16.643"
"1942"	"12.664"	"16.389"	"23.067"	"28.929"	"32.676"	"34.766"	"30.442"	"28.794"	"28.459"	"26.073"	"21.04"	"14.237"
"1943"	"13.231"	"16.443"	"21.9"	"26.258"	"31.87"	"33.982"	"31.059"	"29.52"	"30.401"	"26.338"	"20.885"	"16.445"
"1944"	"12.773"	"15.032"	"20.065"	"26.522"	"33.48"	"33.986"	"30.858"	"30.39"	"29.488"	"26.125"	"20.383"	"15.734"
"1945"	"11.782"	"15.188"	"22.054"	"25.501"	"30.62"	"33.636"	"30.978"	"30.225"	"28.789"	"25.475"	"19.976"	"14.103"
"1946"	"15.1"	"18.903"	"20.843"	"29.639"	"32.389"	"33.527"	"30.941"	"30.277"	"30.512"	"26.466"	"19.969"	"14.179"
"1947"	"13.076"	"16.628"	"22.303"	"29.732"	"33.54"	"36.931"	"32.921"	"31.486"	"28.536"	"25.128"	"20.831"	"15.222"
"1948"	"14.396"	"15.438"	"20.501"	"30.009"	"32.925"	"35.261"	"31.601"	"29.537"	"29.909"	"26.762"	"18.658"	"14.473"
"1949"	"15.985"	"16.138"	"22.518"	"29.733"	"34.469"	"34.588"	"30.73"	"30.974"	"31.2"	"26.331"	"18.833"	"14.178"
"1950"	"15.06"	"14.462"	"20.442"	"27.167"	"33.692"	"35.143"	"31.701"	"30.178"	"28.332"	"25.246"	"19.545"	"13.248"
"1951"	"13.123"	"16.394"	"21.958"	"25.47"	"32.01"	"34.587"	"33.486"	"31.029"	"30.938"	"28.425"	"21.395"	"16.074"
"1952"	"15.245"	"18.544"	"22.016"	"30.27"	"33.238"	"33.53"	"31.627"	"29.834"	"31.145"	"26.829"	"20.537"	"15.437"
"1953"	"13.372"	"18.899"	"25.606"	"29.128"	"34.051"	"34.725"	"31.147"	"30.631"	"30.292"	"26.745"	"20.386"	"17.767"
"1954"	"13.123"	"17.153"	"22.125"	"28.973"	"33.99"	"34.975"	"31.88"	"31.881"	"30.313"	"24.232"	"19.863"	"14.981"
"1955"	"13.752"	"17.241"	"24.049"	"26.171"	"30.605"	"35.477"	"32.452"	"30.101"	"29.178"	"24.833"	"19.954"	"15.297"
"1956"	"14.22"	"17.702"	"22.195"	"29.226"	"35.303"	"34.142"	"30.836"	"29.877"	"31.046"	"25.026"	"19.234"	"15.128"
"1957"	"13.276"	"15.327"	"21.108"	"26.406"	"31.032"	"33.931"	"32.295"	"30.437"	"28.586"	"26.234"	"20.376"	"15.276"
"1958"	"15.629"	"16.625"	"23.308"	"30.828"	"32.698"	"35.425"	"31.196"	"30.527"	"29.288"	"26.432"	"21.367"	"15.876"
"1959"	"13.937"	"15.552"	"22.857"	"28.593"	"31.977"	"35.152"	"31.656"	"30.567"	"29.583"	"25.775"	"19.978"	"15.927"
"1960"	"13.375"	"19.947"	"21.044"	"27.482"	"34.108"	"35.683"	"32.248"	"30.847"	"30.332"	"26.132"	"19.277"	"15.435"
"1961"	"14.725"	"14.664"	"22.736"	"27.639"	"32.878"	"34.753"	"31.688"	"30.224"	"30.579"	"25.731"	"18.27"	"13.038"
"1962"	"12.571"	"16.93"	"21.486"	"29.224"	"32.858"	"34.321"	"32.471"	"30.876"	"28.249"	"28.208"	"19.445"	"14.231"
"1963"	"13.238"	"18.075"	"21.706"	"27.4"	"30.97"	"34.317"	"32.048"	"29.203"	"28.831"	"26.579"	"20.213"	"14.609"
"1964"	"12.34"	"15.525"	"21.633"	"27.719"	"30.061"	"35.058"	"29.957"	"30.583"	"29.169"	"25.822"	"18.896"	"14.64"
"1965"	"15.641"	"16.373"	"21.561"	"25.853"	"31.34"	"35.511"	"31.183"	"29.901"	"29.714"	"26.107"	"20.253"	"13.528"
"1966"	"13.65"	"17.743"	"21.486"	"28.427"	"33.093"	"33.873"	"32.445"	"30.468"	"29.538"	"25.818"	"19.48"	"14.512"
"1967"	"13.09"	"18.615"	"21.253"	"27.318"	"31.922"	"35.166"	"31.503"	"29.796"	"29.69"	"25.213"	"19.277"	"14.922"
"1968"	"12.933"	"14.872"	"21.967"	"28.035"	"32.532"	"34.71"	"31.125"	"30.315"	"31.268"	"25.066"	"20.135"	"15.533"
"1969"	"14.159"	"17.436"	"24.768"	"28.346"	"31.377"	"35.245"	"31.738"	"31.212"	"29.63"	"27.162"	"21.191"	"15.782"
"1970"	"14.354"	"16.437"	"22.141"	"29.333"	"33.975"	"32.479"	"32.77"	"30.19"	"30.022"	"27.042"	"19.777"	"15.522"
"1971"	"13.52"	"17.125"	"22.15"	"28.951"	"30.967"	"32.606"	"30.781"	"29.058"	"28.987"	"26.392"	"20.184"	"16.17"
"1972"	"14.704"	"14.674"	"23.043"	"27.035"	"33.6"	"35.365"	"32.594"	"30.187"	"29.06"	"25.859"	"20.619"	"15.242"
"1973"	"14.484"	"18.339"	"21.39"	"29.842"	"32.837"	"33.479"	"30.327"	"29.05"	"29.042"	"24.835"	"19.413"	"13.533"
"1974"	"12.995"	"14.66"	"22.474"	"29.437"	"32.026"	"32.688"	"30.33"	"29.939"	"29.553"	"25.36"	"19.477"	"13.496"
"1975"	"13.761"	"15.818"	"21.079"	"29.144"	"33.452"	"33.803"	"30.518"	"29.889"	"28.211"	"27.516"	"19.248"	"15.802"
"1976"	"14.159"	"16.385"	"21.564"	"27.103"	"32.156"	"31.99"	"31.307"	"28.389"	"28.841"	"26.361"	"20.429"	"14.726"
"1977"	"13.616"	"15.661"	"22.083"	"27.021"	"29.151"	"30.969"	"30.137"	"29.394"	"28.186"	"26.083"	"21.472"	"15.531"
"1978"	"12.256"	"14.839"	"19.965"	"26.682"	"33.667"	"32.806"	"29.568"	"29.124"	"28.141"	"25.944"	"20.609"	"15.545"
"1979"	"14.121"	"15.27"	"20.146"	"29.297"	"31.229"	"34.333"	"30.653"	"31.287"	"28.758"	"26.841"	"21.383"	"16.751"
"1980"	"14.353"	"17.062"	"21.093"	"30.106"	"33.742"	"33.153"	"30.223"	"30.463"	"28.761"	"26.536"	"19.58"	"14.845"
"1981"	"13.695"	"16.865"	"21.241"	"28.146"	"32.323"	"34.02"	"30.098"	"30.206"	"29.793"	"25.43"	"19.478"	"15.125"
"1982"	"14.948"	"15.333"	"19.243"	"25.587"	"29.092"	"34.076"	"32.313"	"29.844"	"30.262"	"26.139"	"20.402"	"15.956"
"1983"	"13.01"	"15.525"	"20.827"	"25.243"	"29.887"	"33.125"	"31.582"	"29.766"	"29.955"	"25.1"	"19.19"	"15.258"
"1984"	"12.581"	"14.436"	"23.048"	"28.07"	"35.115"	"34.186"	"30.485"	"30.101"	"28.267"	"25.12"	"19.552"	"15.484"
"1985"	"13.785"	"17.12"	"23.611"	"28.499"	"33.738"	"34.226"	"30.184"	"29.974"	"29.275"	"24.825"	"20.168"	"16.611"
"1986"	"13.455"	"15.752"	"21.264"	"27.747"	"30.103"	"33.632"	"30.239"	"30.36"	"29.151"	"24.928"	"20.942"	"14.149"
"1987"	"14.493"	"17.718"	"22.148"	"28.552"	"28.762"	"34.612"	"34.453"	"31.869"	"31.594"	"27.507"	"20.723"	"15.837"
"1988"	"15.487"	"17.512"	"21.737"	"29.733"	"34.309"	"33.332"	"30.264"	"29.295"	"29.244"	"25.683"	"20.567"	"15.978"
"1989"	"12.939"	"15.747"	"21.083"	"26.378"	"32.232"	"32.532"	"31.626"	"28.417"	"29.086"	"26.141"	"20.061"	"14.93"
"1990"	"15.747"	"16.439"	"20.069"	"27.523"	"31.918"	"34.795"	"29.87"	"29.686"	"28.395"	"24.652"	"20.508"	"15.352"
"1991"	"13.561"	"16.765"	"21.3"	"26.005"	"32.44"	"32.548"	"32.723"	"29.744"	"29.244"	"25.035"	"19.354"	"15.473"
"1992"	"14.439"	"15.442"	"21.354"	"27.594"	"31.351"	"34.335"	"30.272"	"29.471"	"28.802"	"25.355"	"20.209"	"16.359"
"1993"	"13.893"	"18.138"	"20.037"	"27.58"	"33.678"	"34.046"	"30.95"	"31.537"	"28.123"	"25.309"	"20.74"	"15.399"
"1994"	"14.329"	"16.565"	"23.269"	"26.489"	"33.051"	"34.705"	"30.197"	"29.599"	"28.614"	"24.955"	"20.328"	"16.3"
"1995"	"13.713"	"16.484"	"20.523"	"26.693"	"33.992"	"35.574"	"31.462"	"28.495"	"29.237"	"26.517"	"20.618"	"16.275"
"1996"	"14.104"	"17.162"	"22.57"	"28.526"	"31.989"	"32.428"	"31.562"	"29.115"	"28.767"	"25.539"	"19.582"	"14.567"
"1997"	"13.6"	"16.329"	"21.359"	"26.695"	"30.254"	"31.93"	"31.68"	"29.527"	"29.805"	"23.845"	"19.516"	"13.285"
"1998"	"12.332"	"16.899"	"20.011"	"28.217"	"33.474"	"34.437"	"31.096"	"30.233"	"29.637"	"26.233"	"21.193"	"15.935"
"1999"	"13.427"	"18.185"	"23.477"	"31.201"	"33.425"	"32.785"	"32.03"	"30.773"	"30.294"	"26.784"	"21.57"	"16.168"
"2000"	"14.43"	"15.206"	"21.306"	"30.21"	"34.147"	"32.653"	"30.473"	"30.479"	"29.888"	"27.423"	"21.48"	"16.471"
"2001"	"13.543"	"17.447"	"22.598"	"27.829"	"33.046"	"31.918"	"31.184"	"31.366"	"30.374"	"27.526"	"21.715"	"16.574"
"2002"	"15.713"	"16.145"	"20.93"	"30.163"	"34.456"	"33.794"	"33.023"	"30.932"	"28.19"	"26.238"	"21.335"	"16.277"
