
"Year"	"Jan"	"Feb"	"Mar"	"Apr"	"May"	"Jun"	"Jul"	"Aug"	"Sep"	"Oct"	"Nov"	"Dec"
"1901"	"15.268"	"18.879"	"24.209"	"30.774"	"32.936"	"34.206"	"30.369"	"29.121"	"28.644"	"27.212"	"21.416"	"16.71"
"1902"	"17.322"	"19.265"	"26.4"	"29.837"	"33.282"	"33.747"	"29.697"	"29.866"	"28.793"	"26.054"	"20.886"	"16.052"
"1903"	"16.704"	"18.45"	"24.367"	"30.907"	"34.15"	"33.06"	"31.005"	"29.497"	"29.229"	"26.381"	"20.448"	"15.893"
"1904"	"16.443"	"18.884"	"25.034"	"31.807"	"32.262"	"31.809"	"28.924"	"28.829"	"28.793"	"26.261"	"20.487"	"17.153"
"1905"	"15.333"	"15.322"	"22.54"	"27.703"	"32.072"	"35.045"	"29.649"	"28.867"	"28.566"	"26.291"	"21.238"	"16.621"
"1906"	"15.961"	"18.693"	"22.856"	"31.13"	"34.232"	"33.174"	"29.971"	"29"	"29.251"	"26.359"	"21.545"	"17.212"
"1907"	"17.347"	"18.231"	"22.261"	"28.076"	"32.339"	"32.785"	"30.426"	"29.468"	"29.243"	"26.802"	"21.08"	"16.137"
"1908"	"14.69"	"18.955"	"24.803"	"32.909"	"34.041"	"33.616"	"29.873"	"29.76"	"29.294"	"26.623"	"20.603"	"15.783"
"1909"	"17.62"	"18.855"	"25.591"	"28.614"	"33.755"	"31.116"	"29.565"	"28.956"	"29.177"	"26.426"	"21.46"	"17.288"
"1910"	"15.763"	"18.884"	"25.032"	"30.999"	"33.296"	"31.88"	"29.5"	"29.308"	"29.153"	"26.266"	"20.564"	"16.233"
"1911"	"18.241"	"18.279"	"23.373"	"30.477"	"34.382"	"31.512"	"31.053"	"28.8"	"28.552"	"26.303"	"20.686"	"15.724"
"1912"	"16.583"	"20.031"	"24.637"	"29.441"	"32.755"	"33.554"	"29.748"	"29.152"	"28.793"	"26.396"	"20.301"	"16"
"1913"	"16.155"	"18.86"	"22.842"	"31.718"	"31.955"	"30.189"	"29.792"	"28.914"	"29.125"	"25.897"	"20.088"	"16.178"
"1914"	"16.771"	"19.555"	"23.88"	"28.731"	"32.048"	"31.981"	"29.567"	"29.153"	"28.793"	"25.283"	"21.474"	"17.139"
"1915"	"17.023"	"19.009"	"23.953"	"30.462"	"33.792"	"32.71"	"30.842"	"29.643"	"29.048"	"27.97"	"22.869"	"16.587"
"1916"	"15.699"	"19.232"	"26.626"	"31.313"	"35.397"	"31.131"	"29.736"	"29.041"	"29.018"	"26.766"	"21.362"	"15.582"
"1917"	"16.027"	"18.844"	"23.735"	"29.018"	"30.39"	"31.58"	"29.692"	"29.063"	"28.558"	"26.308"	"20.768"	"16.48"
"1918"	"15.178"	"18.83"	"25.251"	"29.379"	"32.872"	"30.531"	"31.171"	"28.365"	"29.166"	"26.288"	"20.907"	"15.848"
"1919"	"17.88"	"18.107"	"25.296"	"29.517"	"32.806"	"32.029"	"29.57"	"29.187"	"28.694"	"26.096"	"21.313"	"16.401"
"1920"	"16.344"	"18.961"	"24.095"	"30.636"	"32.292"	"33.907"	"29.791"	"29.206"	"28.865"	"26.839"	"21.605"	"16.792"
"1921"	"17.131"	"18.716"	"26.473"	"31.831"	"35.849"	"32.971"	"30.217"	"28.683"	"28.606"	"25.509"	"20.216"	"16.471"
"1922"	"16.507"	"19.695"	"25.811"	"31.154"	"34.827"	"31.029"	"29.367"	"28.487"	"28.167"	"25.056"	"20.701"	"16.275"
"1923"	"16.29"	"18.66"	"24.477"	"31.421"	"34.121"	"34.539"	"29.711"	"29.171"	"29.094"	"25.661"	"20.941"	"17.242"
"1924"	"16.192"	"19.226"	"26.583"	"31.709"	"33.601"	"35.102"	"29.543"	"29.176"	"28.335"	"26.55"	"20.934"	"16.914"
"1925"	"15.034"	"17.614"	"24.486"	"30.244"	"32.728"	"31.973"	"29.071"	"29.159"	"28.911"	"26.023"	"20.934"	"16.242"
"1926"	"16.316"	"19.573"	"23.614"	"28.31"	"32.418"	"35.668"	"30.114"	"29.189"	"28.69"	"25.991"	"19.71"	"16.657"
"1927"	"15.937"	"18.934"	"23.062"	"30.62"	"32.278"	"33.672"	"29.995"	"28.931"	"29.372"	"26.596"	"21.312"	"17.346"
"1928"	"16.184"	"19.149"	"25.756"	"29.995"	"33.661"	"31.714"	"29.472"	"29.589"	"29.849"	"27.215"	"21.353"	"17.478"
"1929"	"16.433"	"18.119"	"25.338"	"30.535"	"34.669"	"33.711"	"29.492"	"28.665"	"29.201"	"25.615"	"20.893"	"16.343"
"1930"	"15.627"	"18.482"	"25.358"	"30.157"	"33.15"	"33.172"	"29.388"	"29.007"	"29.174"	"26.757"	"20.809"	"16.249"
"1931"	"17.716"	"18.778"	"24.349"	"31.405"	"33.574"	"34.102"	"29.792"	"29.637"	"29.263"	"26.811"	"21.063"	"17.332"
"1932"	"17.64"	"18.423"	"25.271"	"30.353"	"33.625"	"34.181"	"30.272"	"29.27"	"29.473"	"26.905"	"21.511"	"16.55"
"1933"	"15.074"	"19.768"	"25.13"	"28.479"	"32.353"	"31.878"	"29.496"	"28.739"	"28.98"	"26.239"	"20.915"	"16.783"
"1934"	"15.975"	"18.896"	"24.475"	"30.867"	"33.753"	"32.472"	"29.769"	"29.281"	"29.228"	"25.87"	"20.778"	"17.242"
"1935"	"15.564"	"19.509"	"25.053"	"28.693"	"34.004"	"33.64"	"30.321"	"28.626"	"28.799"	"26.121"	"21.156"	"17.155"
"1936"	"15.561"	"19.117"	"25.297"	"29.82"	"33.257"	"31.182"	"29.485"	"29.249"	"28.681"	"25.462"	"21.655"	"17.185"
"1937"	"14.722"	"19.414"	"23.672"	"29.482"	"32.721"	"33.535"	"30.215"	"28.723"	"29.275"	"25.608"	"20.983"	"15.868"
"1938"	"17.177"	"17.674"	"26.301"	"31.312"	"32.851"	"31.371"	"29.764"	"28.942"	"29.451"	"26.839"	"20.56"	"16.32"
"1939"	"17.056"	"19.919"	"23.696"	"30.565"	"34.249"	"32.573"	"29.769"	"28.837"	"28.777"	"26.407"	"21.119"	"16.932"
"1940"	"15.844"	"19.144"	"23.069"	"29.502"	"33.578"	"33.494"	"29.715"	"29.122"	"28.796"	"26.991"	"22.134"	"17.19"
"1941"	"16.716"	"19.532"	"26.74"	"32.323"	"33.377"	"32.454"	"30.574"	"29.052"	"29.076"	"26.366"	"21.297"	"17.781"
"1942"	"16.151"	"18.924"	"25.27"	"30.291"	"35.009"	"34.194"	"30.119"	"28.946"	"27.98"	"26.134"	"22.368"	"17.027"
"1943"	"18.416"	"18.047"	"25.413"	"28.657"	"34.107"	"33.328"	"29.758"	"28.468"	"29.018"	"26.757"	"21.42"	"17.853"
"1944"	"16.279"	"18.991"	"23.778"	"28.214"	"34.868"	"33.315"	"29.823"	"28.991"	"30.241"	"25.652"	"21.212"	"18.166"
"1945"	"15.628"	"17.789"	"25.21"	"28.836"	"32.944"	"33.901"	"30.853"	"29.861"	"28.796"	"25.265"	"20.645"	"15.598"
"1946"	"16.509"	"20.666"	"24.769"	"28.705"	"32.116"	"32.536"	"29.541"	"29.384"	"28.748"	"26.044"	"21.052"	"18.181"
"1947"	"16.376"	"19.186"	"25.799"	"31.594"	"33.482"	"34.237"	"29.892"	"29.508"	"29.053"	"26.28"	"21.489"	"17.513"
"1948"	"17.444"	"19.668"	"24.757"	"31.422"	"33.875"	"34.654"	"29.313"	"29.178"	"28.674"	"25.969"	"21.613"	"16.557"
"1949"	"17.112"	"18.753"	"24.595"	"29.157"	"31.616"	"33.053"	"29.673"	"29.087"	"28.793"	"26.9"	"20.166"	"15.525"
"1950"	"16.674"	"18.69"	"23.974"	"29.99"	"33.702"	"32.151"	"29.888"	"28.778"	"28.579"	"26.149"	"20.125"	"16.876"
"1951"	"15.713"	"19.071"	"25.129"	"29.995"	"34.041"	"33.761"	"29.78"	"29.826"	"29.164"	"28.114"	"22.078"	"17.02"
"1952"	"17.608"	"21.142"	"24.134"	"30.607"	"33.739"	"33.021"	"30.144"	"29.159"	"28.549"	"26.671"	"21.222"	"16.932"
"1953"	"16.288"	"20.653"	"27.636"	"30.913"	"34.236"	"33.269"	"29.38"	"29.302"	"28.567"	"26.152"	"20.834"	"18.626"
"1954"	"15.508"	"21.107"	"24.794"	"32.388"	"34.244"	"33.045"	"30.086"	"29.378"	"29.07"	"25.05"	"19.663"	"16.82"
"1955"	"16.637"	"18.983"	"26.728"	"29.778"	"34.205"	"33.167"	"28.892"	"28.871"	"28.627"	"26.13"	"21.296"	"16.843"
"1956"	"16.447"	"19.081"	"25.72"	"31.81"	"34.202"	"30.601"	"29.861"	"28.948"	"27.895"	"26.06"	"20.294"	"18.029"
"1957"	"17.154"	"18.534"	"24.233"	"30.903"	"35.359"	"34.121"	"29.976"	"29.64"	"29.474"	"27.168"	"21.544"	"18.268"
"1958"	"18.123"	"20.267"	"26.255"	"31.863"	"35.144"	"35.433"	"30.775"	"28.958"	"28.858"	"26.916"	"22.471"	"18.196"
"1959"	"16.923"	"18.767"	"25.107"	"31.222"	"33.918"	"33.526"	"30.346"	"29.423"	"28.559"	"26.1"	"21.278"	"17.216"
"1960"	"17.251"	"20.761"	"23.993"	"31.619"	"34.102"	"34.322"	"29.708"	"29.802"	"28.865"	"26.775"	"20.775"	"17.737"
"1961"	"17.412"	"18.335"	"25.474"	"30.727"	"34.238"	"31.88"	"29.652"	"29.435"	"28.852"	"26.344"	"20.383"	"14.179"
"1962"	"14.901"	"19.19"	"23.958"	"30.292"	"32.847"	"33.019"	"30.595"	"28.714"	"28.484"	"25.362"	"21.35"	"17.241"
"1963"	"15.168"	"20.514"	"24.478"	"29.944"	"32.165"	"32.32"	"29.634"	"29.233"	"28.347"	"26.882"	"21.964"	"18.392"
"1964"	"16.344"	"19.078"	"25.981"	"31.125"	"32.177"	"32.855"	"28.173"	"29.321"	"28.796"	"27.173"	"21.152"	"17.5"
"1965"	"17.237"	"19.62"	"23.577"	"28.722"	"32.532"	"34.264"	"29.989"	"29.189"	"28.129"	"26.551"	"22.145"	"16.056"
"1966"	"16.38"	"20.684"	"25.321"	"31.587"	"34.264"	"33.61"	"30.736"	"28.892"	"29.029"	"26.594"	"23.376"	"17.171"
"1967"	"17.053"	"20.916"	"23.994"	"29.183"	"33.323"	"34.395"	"30.416"	"28.902"	"28.698"	"25.638"	"20.708"	"18.373"
"1968"	"16.366"	"18.615"	"24.646"	"29.859"	"33.292"	"31.745"	"29.481"	"28.899"	"29.568"	"25.94"	"21.5"	"17.086"
"1969"	"16.083"	"20.281"	"26.645"	"31.185"	"32.68"	"33.451"	"30.065"	"28.669"	"28.349"	"26.824"	"22.816"	"17.559"
"1970"	"17.129"	"18.936"	"24.653"	"31.503"	"33.746"	"31.612"	"29.526"	"29.177"	"28.503"	"26.628"	"20.948"	"16.445"
"1971"	"15.856"	"17.465"	"23.918"	"28.278"	"30.55"	"30.134"	"28.479"	"27.687"	"28.326"	"26.141"	"20.56"	"16.916"
"1972"	"15.843"	"16.923"	"24.659"	"29.951"	"33.944"	"33.95"	"30.05"	"29.299"	"27.74"	"25.386"	"21.288"	"16.782"
"1973"	"16.382"	"19.997"	"23.651"	"31.14"	"33.116"	"31.932"	"29.837"	"29.289"	"28.525"	"26.401"	"21.124"	"17.098"
"1974"	"15.767"	"18.521"	"24.863"	"30.939"	"32.785"	"33.409"	"29.436"	"29.021"	"28.963"	"27.491"	"20.989"	"15.214"
"1975"	"15.693"	"19.202"	"24.496"	"30.73"	"33.574"	"32.524"	"28.904"	"28.977"	"28.393"	"27.24"	"21.038"	"16.518"
"1976"	"16.5"	"20.108"	"25.05"	"29.879"	"32.442"	"32.816"	"29.785"	"28.744"	"28.296"	"26.71"	"22.901"	"17.244"
"1977"	"16.102"	"19.521"	"26.271"	"30.114"	"30.651"	"31.913"	"29.245"	"29.29"	"29.152"	"26.067"	"23.033"	"16.669"
"1978"	"15.377"	"18.677"	"23.024"	"29.435"	"33.502"	"32.088"	"29.37"	"29.316"	"28.743"	"26.289"	"22.554"	"17.102"
"1979"	"17.214"	"17.271"	"24.234"	"30.379"	"34.022"	"33.138"	"30.357"	"30.617"	"28.401"	"27.295"	"23.96"	"18.519"
"1980"	"16.811"	"19.828"	"24.308"	"31.986"	"33.394"	"31.905"	"29.728"	"28.819"	"28.671"	"26.363"	"22.127"	"17.655"
"1981"	"15.914"	"19.246"	"24.304"	"29.194"	"31.896"	"33.138"	"29.466"	"29.403"	"29.347"	"26.416"	"21.125"	"16.78"
"1982"	"17.931"	"19.107"	"23.569"	"30.109"	"33.149"	"32.346"	"31.651"	"29.501"	"29.3"	"26.463"	"22.033"	"16.526"
"1983"	"15.637"	"19.676"	"24.813"	"29.429"	"32.064"	"33.648"	"30.478"	"29.969"	"29.966"	"26.333"	"21.048"	"17.584"
"1984"	"16.423"	"18.35"	"25.515"	"31.268"	"34.038"	"31.195"	"29.198"	"28.68"	"28.519"	"27.215"	"20.474"	"17.536"
"1985"	"17.479"	"19.031"	"26.853"	"31.222"	"33.466"	"33.681"	"29.094"	"29.275"	"28.999"	"26.154"	"21.609"	"18.493"
"1986"	"16.435"	"18.922"	"24.496"	"30.378"	"31.82"	"32.697"	"29.257"	"28.636"	"28.016"	"25.587"	"22.784"	"17.061"
"1987"	"16.02"	"20.719"	"24.617"	"30.251"	"32.601"	"34.275"	"29.825"	"28.585"	"29.026"	"26.427"	"21.835"	"18"
"1988"	"17.398"	"20.147"	"24.688"	"30.784"	"33.796"	"31.558"	"29.807"	"29.17"	"30.188"	"27.261"	"21.836"	"18.723"
"1989"	"15.502"	"18.96"	"25.284"	"30.788"	"33.859"	"31.645"	"29.634"	"28.678"	"29.508"	"27.244"	"22.058"	"16.753"
"1990"	"16.703"	"19.548"	"23.629"	"30.713"	"31.511"	"32.708"	"28.964"	"29.127"	"29.442"	"26.016"	"22.488"	"17.887"
"1991"	"16.557"	"20.306"	"24.909"	"29.73"	"33.789"	"31.302"	"30.184"	"28.487"	"28.855"	"26.534"	"20.994"	"16.909"
"1992"	"15.224"	"17.244"	"25.915"	"30.846"	"31.925"	"32.531"	"30.671"	"29.07"	"29.293"	"27.157"	"22.507"	"17.439"
"1993"	"17.505"	"21.295"	"24.415"	"29.819"	"33.601"	"33.806"	"30.713"	"28.871"	"28.793"	"27.322"	"21.402"	"17.632"
"1994"	"17.76"	"19.068"	"25.968"	"29.667"	"33.46"	"32.955"	"29.537"	"28.78"	"29.028"	"27.068"	"22.4"	"17.517"
"1995"	"14.975"	"20.792"	"24.62"	"30.46"	"33.322"	"34.25"	"29.748"	"28.653"	"28.857"	"26.939"	"22.475"	"18.19"
"1996"	"16.979"	"18.845"	"26.139"	"29.242"	"33.896"	"31.563"	"29.594"	"28.117"	"29.495"	"26.792"	"22.508"	"17.684"
"1997"	"15.8"	"18.176"	"25.075"	"29.221"	"32.453"	"33.997"	"29.814"	"29.052"	"28.393"	"26.543"	"22.567"	"17.992"
"1998"	"16.435"	"19.856"	"22.814"	"29.233"	"32.633"	"34.932"	"29.321"	"29.452"	"29.326"	"28.993"	"22.865"	"18.524"
"1999"	"16.402"	"20.4"	"25.502"	"32.282"	"33.43"	"32.591"	"29.592"	"29.076"	"28.771"	"27.768"	"23.217"	"18.483"
"2000"	"17.103"	"18.913"	"24.46"	"31.375"	"33.078"	"32.092"	"30.446"	"29.334"	"28.39"	"28.141"	"23.962"	"17.903"
"2001"	"16.745"	"19.415"	"24.84"	"30.736"	"33.856"	"31.188"	"29.154"	"29.601"	"29.66"	"28.512"	"24.206"	"19.316"
"2002"	"16.43"	"20.404"	"25.945"	"30.656"	"34.12"	"33.647"	"31.102"	"29.045"	"28.796"	"26.839"	"22.365"	"18.56"
