
"Year"	"Jan"	"Feb"	"Mar"	"Apr"	"May"	"Jun"	"Jul"	"Aug"	"Sep"	"Oct"	"Nov"	"Dec"
"1901"	"12.729"	"15.918"	"22.351"	"28.935"	"32.493"	"35.242"	"31.325"	"29.551"	"28.87"	"27.237"	"21.512"	"15.908"
"1902"	"16.412"	"18.7"	"24.129"	"29"	"32.876"	"33.34"	"29.755"	"29.637"	"28.811"	"24.944"	"20.44"	"15.782"
"1903"	"14.791"	"16.051"	"20.93"	"28.589"	"32.968"	"34.158"	"31.681"	"29.584"	"29.511"	"25.62"	"20.814"	"16.115"
"1904"	"15.063"	"18.574"	"22.404"	"30.265"	"31.648"	"32.917"	"29.589"	"28.925"	"28.436"	"25.88"	"19.58"	"15.359"
"1905"	"12.168"	"13.024"	"18.709"	"25.942"	"32.451"	"34.22"	"30.254"	"29.598"	"29.069"	"26.165"	"21.106"	"15.359"
"1906"	"13.63"	"14.625"	"20.776"	"29.448"	"34.164"	"32.8"	"30.284"	"29.132"	"28.936"	"25.978"	"22.087"	"16.794"
"1907"	"17.125"	"14.637"	"18.635"	"26.747"	"31.06"	"33.591"	"31.575"	"29.485"	"29.955"	"27.364"	"20.979"	"15.594"
"1908"	"15.12"	"17.825"	"22.891"	"31.377"	"33.034"	"34.599"	"29.808"	"28.952"	"29.223"	"26.252"	"20.192"	"15.266"
"1909"	"14.779"	"16.313"	"24.216"	"27.421"	"32.735"	"31.437"	"29.907"	"29.785"	"29.658"	"27.112"	"20.791"	"16.366"
"1910"	"15.559"	"17.006"	"23.238"	"29.25"	"32.576"	"32.246"	"29.592"	"29.412"	"29.023"	"25.194"	"19.835"	"15.18"
"1911"	"15.368"	"17.873"	"20.131"	"28.903"	"34.237"	"32.604"	"31.556"	"29.858"	"28.512"	"25.746"	"18.991"	"15.093"
"1912"	"14.63"	"18.091"	"22.221"	"28.302"	"32.268"	"33.639"	"30.269"	"29.183"	"28.309"	"25.98"	"18.957"	"15.093"
"1913"	"15.151"	"15.828"	"20.103"	"29.646"	"31.049"	"31.096"	"30.155"	"30.259"	"29.97"	"26.159"	"19.256"	"14.035"
"1914"	"16.623"	"16.307"	"21.189"	"28.261"	"31.934"	"32.857"	"30.045"	"29.573"	"28.849"	"24.416"	"20.585"	"15.345"
"1915"	"15.61"	"16.092"	"21.779"	"28.904"	"33.813"	"33.081"	"30.926"	"29.759"	"29.253"	"27.454"	"21.522"	"15.92"
"1916"	"15.252"	"16.852"	"25.947"	"30.364"	"33.578"	"31.552"	"29.742"	"29.513"	"28.723"	"25.932"	"20.785"	"14.62"
"1917"	"14.852"	"16.778"	"21.245"	"25.682"	"28.548"	"31.775"	"29.811"	"29.485"	"28.023"	"25.271"	"20.546"	"15.232"
"1918"	"14.124"	"18.185"	"22.904"	"27.589"	"33.495"	"31.555"	"31.551"	"29.884"	"29.581"	"26.222"	"19.99"	"13.897"
"1919"	"13.596"	"16"	"22.329"	"27.112"	"31.286"	"33.042"	"29.616"	"29.485"	"28.695"	"25.68"	"20.232"	"14.732"
"1920"	"16.246"	"15.756"	"21.068"	"28.975"	"29.787"	"32.406"	"29.655"	"29.598"	"29.306"	"26.375"	"21.205"	"17.143"
"1921"	"14.584"	"18.139"	"25.726"	"31.002"	"35.638"	"32.484"	"30.317"	"28.639"	"27.761"	"24.818"	"20.012"	"16.189"
"1922"	"13.436"	"18.452"	"24.412"	"29.274"	"34.122"	"32.189"	"29.702"	"28.552"	"28.095"	"24.821"	"20.124"	"13.837"
"1923"	"15.385"	"15.657"	"23.257"	"30.537"	"32.917"	"35.185"	"29.902"	"29.284"	"28.621"	"24.891"	"20.392"	"15.443"
"1924"	"13.903"	"17.265"	"24.408"	"30.249"	"30.628"	"35.412"	"29.811"	"29.039"	"27.961"	"26.005"	"20.092"	"15.821"
"1925"	"12.93"	"16.86"	"22.837"	"30.324"	"32.177"	"30.913"	"29.157"	"29.537"	"28.664"	"25.69"	"19.286"	"15.681"
"1926"	"14.391"	"18.284"	"20.328"	"25.502"	"30.748"	"35.115"	"30.566"	"29.324"	"28.725"	"25.391"	"18.264"	"15.466"
"1927"	"13.837"	"15.27"	"21.652"	"28.56"	"31.42"	"33.327"	"30.057"	"28.851"	"29.135"	"25.691"	"19.648"	"16.531"
"1928"	"14.19"	"17.552"	"22.863"	"28.202"	"33.781"	"32.546"	"30.071"	"30.489"	"30.222"	"26.917"	"20.516"	"15.399"
"1929"	"14.29"	"16.558"	"24.153"	"29.401"	"33.993"	"32.685"	"30"	"28.7"	"29.059"	"25.233"	"20.707"	"14.349"
"1930"	"13.356"	"16.751"	"23.952"	"28.935"	"32.579"	"32.526"	"29.5"	"29.311"	"29.338"	"25.557"	"19.975"	"15.926"
"1931"	"16.251"	"15.23"	"22.498"	"30.809"	"32.876"	"34.571"	"30.226"	"30.212"	"28.463"	"25.491"	"20.28"	"16.047"
"1932"	"16.65"	"15.978"	"23.292"	"28.975"	"32.187"	"34.474"	"30.625"	"29.212"	"28.895"	"25.964"	"21.429"	"15.465"
"1933"	"13.437"	"17.376"	"23.292"	"26.863"	"29.402"	"32.147"	"29.627"	"29.324"	"28.609"	"25.576"	"20.881"	"16.193"
"1934"	"13.655"	"18.758"	"21.978"	"29.724"	"32.761"	"32.226"	"29.654"	"28.651"	"29.296"	"25.579"	"20.566"	"14.491"
"1935"	"12.368"	"17.178"	"22.809"	"25.714"	"33.956"	"34.373"	"29.709"	"28.684"	"28.538"	"25.352"	"20.118"	"14.124"
"1936"	"13.43"	"15.711"	"22.604"	"28.001"	"32.7"	"29.985"	"28.922"	"28.539"	"28.077"	"24.6"	"20.318"	"15.31"
"1937"	"13.724"	"16.143"	"21.493"	"26.311"	"31.834"	"32.828"	"30.054"	"29.102"	"28.811"	"24.762"	"19.366"	"14.632"
"1938"	"13.608"	"15.106"	"23.918"	"30.036"	"32.721"	"30.964"	"29.309"	"29.099"	"29.137"	"26.044"	"18.757"	"16.354"
"1939"	"15.13"	"16.083"	"20.042"	"28.049"	"34.109"	"31.654"	"29.742"	"29.328"	"28.623"	"25.617"	"20.626"	"16.254"
"1940"	"14.692"	"16.118"	"19.769"	"27.821"	"32.746"	"33.313"	"30.084"	"29.324"	"28.223"	"26.179"	"21.074"	"14.191"
"1941"	"13.597"	"17.879"	"24.964"	"31.735"	"33.135"	"32.302"	"31.068"	"29.837"	"29.149"	"26.601"	"20.606"	"17.108"
"1942"	"13.903"	"18.211"	"24.511"	"29.56"	"33.187"	"34.314"	"29.755"	"28.951"	"28.324"	"26.063"	"21.518"	"14.838"
"1943"	"14.386"	"18.018"	"23.575"	"26.912"	"33.634"	"32.938"	"30.095"	"28.74"	"29.423"	"26.124"	"22.214"	"16.358"
"1944"	"13.307"	"15.844"	"21.491"	"27.362"	"34.81"	"32.499"	"29.955"	"29.598"	"29.09"	"25.985"	"21.091"	"17.493"
"1945"	"12.457"	"16.29"	"23.091"	"27.201"	"32.983"	"34.048"	"30.135"	"29.79"	"28.695"	"24.879"	"20.852"	"14.693"
"1946"	"17.032"	"19.411"	"22.664"	"28.613"	"31.072"	"32.563"	"29.742"	"29.986"	"29.521"	"25.415"	"20.763"	"16.27"
"1947"	"13.631"	"18.038"	"23.228"	"30.548"	"33.308"	"34.358"	"29.958"	"29.738"	"28.935"	"25.077"	"21.19"	"16.204"
"1948"	"15.276"	"16.618"	"21.703"	"30.648"	"34.008"	"34.774"	"29.958"	"29.039"	"28.649"	"25.315"	"19.831"	"15.012"
"1949"	"16.797"	"17.015"	"23.323"	"29.645"	"32.132"	"34.059"	"29.994"	"29.299"	"28.922"	"26.737"	"20.054"	"13.997"
"1950"	"15.49"	"16.364"	"21.23"	"28.81"	"33.048"	"32.601"	"29.609"	"29.072"	"28.463"	"25.792"	"20.626"	"15.318"
"1951"	"13.402"	"17.887"	"22.693"	"27.154"	"32.837"	"33.287"	"31.043"	"29.8"	"28.723"	"27.804"	"21.357"	"16.292"
"1952"	"16.408"	"19.177"	"21.428"	"29.8"	"33.047"	"32.128"	"29.755"	"29"	"29.443"	"26.578"	"20.852"	"16.364"
"1953"	"13.153"	"19.771"	"25.964"	"30.091"	"33.434"	"33.833"	"29.69"	"29.36"	"29.184"	"25.94"	"20.987"	"17.171"
"1954"	"13.342"	"17.885"	"24.06"	"30.678"	"34.709"	"33.301"	"30.155"	"29.398"	"28.923"	"24.431"	"20.506"	"14.611"
"1955"	"14.169"	"18.558"	"24.852"	"27.616"	"32.388"	"33.362"	"29.73"	"29.012"	"28.649"	"24.831"	"20.753"	"15.165"
"1956"	"14.642"	"18.546"	"23.131"	"30.549"	"33.776"	"32.009"	"29.269"	"29.299"	"28.83"	"25.032"	"20.353"	"14.802"
"1957"	"13.88"	"16.986"	"21.303"	"28.343"	"32.602"	"32.711"	"30.229"	"29.872"	"28.725"	"25.952"	"21.779"	"16.33"
"1958"	"16.028"	"17.777"	"23.762"	"30.902"	"33.621"	"34.312"	"29.996"	"29.251"	"29.256"	"26.191"	"21.792"	"16.585"
"1959"	"15.463"	"16.966"	"24.124"	"29.747"	"33.382"	"33.498"	"29.634"	"29.744"	"29.383"	"25.977"	"20.845"	"17.152"
"1960"	"14.156"	"21.306"	"22.127"	"28.847"	"33.843"	"33.998"	"30.044"	"29.685"	"29.356"	"25.49"	"20.352"	"18.117"
"1961"	"15.057"	"15.346"	"23.909"	"29.722"	"32.862"	"32.671"	"30.402"	"29.513"	"29.384"	"25.131"	"19.057"	"13.464"
"1962"	"14.051"	"17.378"	"22.909"	"29.346"	"32.895"	"34.323"	"31.1"	"29.399"	"28.312"	"25.513"	"21.252"	"16.045"
"1963"	"15.446"	"19.573"	"22.417"	"28.053"	"31.636"	"32.475"	"30.603"	"29.224"	"28.496"	"26.55"	"21.094"	"16.132"
"1964"	"14.163"	"17.752"	"25.224"	"30.075"	"31.088"	"33.889"	"29.196"	"29.698"	"28.324"	"27.124"	"20.493"	"16.13"
"1965"	"16.322"	"16.528"	"21.529"	"27.314"	"32.227"	"35.071"	"30.066"	"29.222"	"28.856"	"25.856"	"21.057"	"15.585"
"1966"	"15.951"	"19.75"	"23.938"	"30.26"	"33.622"	"33.247"	"30.994"	"29.485"	"29.034"	"26.228"	"21.058"	"16.054"
"1967"	"15.087"	"19.945"	"21.462"	"28.463"	"32.809"	"33.944"	"29.835"	"28.414"	"28.771"	"25.39"	"19.394"	"15.496"
"1968"	"13.301"	"15.852"	"22.564"	"28.676"	"32.868"	"32.073"	"29.453"	"29.297"	"29.88"	"25.624"	"20.53"	"16.018"
"1969"	"14.457"	"18.952"	"25.864"	"29.026"	"31.214"	"33.751"	"29.555"	"28.912"	"27.89"	"26.101"	"21.67"	"16.665"
"1970"	"14.702"	"17.012"	"22.264"	"30.736"	"32.848"	"31.4"	"30.083"	"29.412"	"28.845"	"26.09"	"20.492"	"16.849"
"1971"	"14.23"	"17.613"	"22.933"	"28.191"	"29.614"	"30.65"	"28.989"	"28.073"	"28.596"	"25.792"	"20.459"	"16.954"
"1972"	"16.074"	"15.72"	"24.318"	"27.808"	"34.202"	"33.78"	"30.393"	"28.725"	"27.968"	"24.758"	"20.716"	"16.531"
"1973"	"15.007"	"17.957"	"22.482"	"31.309"	"32.954"	"32.002"	"30.084"	"29.036"	"28.704"	"25.282"	"20.612"	"15.032"
"1974"	"14.162"	"17.248"	"24.854"	"30.903"	"32.659"	"32.504"	"29.527"	"28.864"	"28.694"	"27.392"	"20.37"	"14.377"
"1975"	"13.195"	"16.853"	"21.973"	"29.731"	"33.479"	"31.378"	"28.915"	"28.784"	"27.837"	"27.071"	"20.272"	"16.255"
"1976"	"15.567"	"17.663"	"22.41"	"27.802"	"31.335"	"31.741"	"29.714"	"27.874"	"28.589"	"26.361"	"22.593"	"16.52"
"1977"	"15.033"	"18.533"	"25.406"	"28.383"	"29.61"	"32.137"	"28.896"	"28.944"	"27.976"	"25.878"	"22.033"	"15.452"
"1978"	"14.156"	"16.343"	"19.752"	"28.214"	"34.447"	"32.368"	"29.156"	"28.804"	"27.853"	"26.391"	"20.743"	"16.139"
"1979"	"15.501"	"15.998"	"20.938"	"29.183"	"31.525"	"32.634"	"29.547"	"29.779"	"29.153"	"27.028"	"22.65"	"15.985"
"1980"	"15.027"	"18.311"	"21.97"	"30.254"	"33.268"	"31.177"	"28.467"	"28.653"	"28.416"	"25.764"	"21.203"	"16.994"
"1981"	"14.163"	"18.26"	"21.65"	"28.797"	"31.39"	"32.767"	"29.105"	"29.039"	"28.464"	"26.216"	"19.935"	"15.089"
"1982"	"15.731"	"16.584"	"19.48"	"27.643"	"30.374"	"32.187"	"31.125"	"29.012"	"28.997"	"25.981"	"21.031"	"17.001"
"1983"	"14.262"	"15.796"	"21.702"	"26.153"	"31.249"	"32.302"	"30.32"	"29.552"	"28.595"	"25.23"	"20.184"	"15.751"
"1984"	"14.006"	"16.054"	"24.739"	"29.121"	"34.496"	"32.371"	"29.395"	"29.212"	"28.361"	"26.164"	"20.031"	"16.478"
"1985"	"13.81"	"18.369"	"25.82"	"29.714"	"32.781"	"33.065"	"29.055"	"29.164"	"28.003"	"24.611"	"20.93"	"16.557"
"1986"	"15.256"	"17.653"	"22.19"	"28.348"	"30.163"	"32.747"	"29.127"	"29.254"	"28.53"	"25.126"	"21.159"	"14.918"
"1987"	"15.303"	"18.918"	"24.344"	"29.754"	"30.828"	"34.469"	"30.98"	"30.091"	"29.476"	"26.809"	"22.044"	"17.476"
"1988"	"17.35"	"19.285"	"23.368"	"30.788"	"33.867"	"32.455"	"29.369"	"29.039"	"29.314"	"27.016"	"21.024"	"16.47"
"1989"	"14.014"	"17.498"	"23.086"	"28.82"	"32.848"	"31.255"	"29.728"	"28.108"	"28.783"	"26.311"	"20.504"	"15.753"
"1990"	"18.4"	"17.127"	"20.557"	"28.482"	"31.538"	"33.401"	"29.023"	"29.279"	"28.471"	"25.27"	"21.263"	"16.047"
"1991"	"13.095"	"18.599"	"23.177"	"28.127"	"33.392"	"32.34"	"31.042"	"28.84"	"28.729"	"25.78"	"19.579"	"15.953"
"1992"	"15.453"	"15.809"	"23.012"	"29.616"	"31.121"	"32.371"	"29.488"	"28.526"	"28.083"	"25.057"	"20.743"	"15.965"
"1993"	"14.373"	"19.603"	"20.152"	"27.53"	"32.182"	"33.189"	"29.68"	"29.286"	"28.51"	"26.09"	"21.571"	"16.835"
"1994"	"17.205"	"17.21"	"24.553"	"27.782"	"33.476"	"33.647"	"29.811"	"29.132"	"28.704"	"25.679"	"20.919"	"16.714"
"1995"	"14.153"	"17.606"	"22.305"	"29.181"	"34.846"	"34.547"	"29.543"	"28.912"	"28.883"	"26.849"	"20.579"	"16.628"
"1996"	"15.052"	"17.712"	"23.333"	"29.089"	"33.087"	"32.347"	"30.096"	"27.826"	"28.702"	"25.998"	"20.673"	"15.494"
"1997"	"15.107"	"17.112"	"22.693"	"28.344"	"30.81"	"31.388"	"31.709"	"29.212"	"28.684"	"23.435"	"20.371"	"15.062"
"1998"	"10.221"	"18.052"	"21.404"	"29.061"	"33.548"	"34.234"	"29.681"	"29.123"	"29.384"	"26.469"	"22.976"	"18.944"
"1999"	"15.065"	"20.954"	"25.914"	"33.868"	"33.298"	"32.114"	"30.938"	"30.133"	"28.884"	"26.891"	"23.277"	"17.796"
"2000"	"16.459"	"17.372"	"22.29"	"31.168"	"32.564"	"31.388"	"30.003"	"29.812"	"29.502"	"27.798"	"23.431"	"18.028"
"2001"	"15.286"	"18.38"	"23.598"	"28.23"	"32.579"	"31.689"	"30.55"	"30.446"	"30.386"	"27.685"	"23.223"	"17.88"
"2002"	"16.142"	"18.149"	"24.298"	"30.134"	"34.711"	"33.489"	"32.299"	"29.973"	"27.736"	"26.924"	"21.591"	"16.363"
