
"Year"	"Jan"	"Feb"	"Mar"	"Apr"	"May"	"Jun"	"Jul"	"Aug"	"Sep"	"Oct"	"Nov"	"Dec"
"1901"	"14.152"	"74.733"	"3.366"	"0.688"	"9.159"	"24.424"	"39.728"	"90.598"	"153.867"	"87.558"	"308.127"	"190.215"
"1902"	"44.851"	"26.318"	"12.069"	"0.844"	"63.032"	"13.837"	"89.312"	"87.261"	"115.415"	"384.379"	"280.954"	"293.413"
"1903"	"35.124"	"17.302"	"0.177"	"0.201"	"221.406"	"28.141"	"53.361"	"94.709"	"171.449"	"133.335"	"179.933"	"279.591"
"1904"	"28.675"	"0"	"0.177"	"0.212"	"69.964"	"23.831"	"101.905"	"44.206"	"74.312"	"179.375"	"23.805"	"98.303"
"1905"	"16.507"	"0.84"	"22.911"	"96.164"	"109.847"	"14.319"	"59.793"	"139.727"	"41.456"	"454.989"	"164.774"	"1.972"
"1906"	"45.432"	"17.203"	"39.629"	"0.201"	"1.982"	"37.585"	"72.528"	"113.761"	"96.522"	"108.84"	"404.46"	"393.467"
"1907"	"0.463"	"1.579"	"0.872"	"57.438"	"21.736"	"23.938"	"45.581"	"80.957"	"142.407"	"158.727"	"336.78"	"77.433"
"1908"	"2.807"	"42.142"	"0.177"	"3.887"	"20.007"	"35.978"	"72.172"	"87.201"	"133.088"	"438.741"	"104.441"	"39.987"
"1909"	"68.808"	"5.006"	"0.177"	"26.509"	"173.641"	"63.832"	"68.705"	"101.112"	"294.588"	"50.744"	"49.061"	"17.775"
"1910"	"1.204"	"31.943"	"0.177"	"12.743"	"16.821"	"46.699"	"80.026"	"143.546"	"160.812"	"334.946"	"134.78"	"2.645"
"1911"	"1.192"	"0"	"0.177"	"9.145"	"17.94"	"12.218"	"61.65"	"67.21"	"189.793"	"137.801"	"232.022"	"231.691"
"1912"	"20.927"	"0"	"0.177"	"0.201"	"11.562"	"40.61"	"38.371"	"167.833"	"88.714"	"260.705"	"403.165"	"12.427"
"1913"	"0.201"	"0.191"	"0.177"	"2.509"	"61.856"	"24.662"	"22.962"	"90.285"	"238.008"	"427.144"	"534.814"	"313.497"
"1914"	"9.198"	"5.006"	"0.177"	"93.629"	"16.826"	"42.799"	"36.086"	"171.812"	"278.725"	"359.991"	"186.544"	"270.524"
"1915"	"54.35"	"58.602"	"26.474"	"9.985"	"52.808"	"10.677"	"58.917"	"140.579"	"90.601"	"17.57"	"274.331"	"49.202"
"1916"	"0.201"	"38.5"	"0.177"	"26.253"	"33.868"	"31.388"	"110.688"	"120.242"	"75.362"	"326.955"	"264.805"	"84.219"
"1917"	"12.705"	"9.584"	"1.544"	"0.201"	"42.647"	"124.499"	"53.819"	"146.136"	"71.369"	"97.643"	"186.332"	"61.076"
"1918"	"63.823"	"37.976"	"30.865"	"0.201"	"134.002"	"87.373"	"40.138"	"23.264"	"65.04"	"16.705"	"598.861"	"170.443"
"1919"	"3.523"	"0"	"7.57"	"1.311"	"71.342"	"40.591"	"73.778"	"51.812"	"81.033"	"135.246"	"317.869"	"195.151"
"1920"	"126.298"	"0"	"0.177"	"12.765"	"9.976"	"11.582"	"52.616"	"92.135"	"163.255"	"194.769"	"615.404"	"1.676"
"1921"	"142.42"	"0"	"0.177"	"9.66"	"2.363"	"78.521"	"83.829"	"145.412"	"60.522"	"358.476"	"84.74"	"44.596"
"1922"	"77.148"	"8.72"	"0.177"	"0.474"	"44.473"	"38.517"	"72.787"	"90.085"	"88.738"	"284.8"	"446.527"	"33.234"
"1923"	"138.075"	"0"	"73.208"	"0.737"	"2.534"	"69.545"	"28.225"	"47.252"	"144.673"	"421.246"	"45.238"	"121.824"
"1924"	"41.02"	"0.095"	"43.528"	"0.82"	"26.599"	"20.496"	"60.818"	"45.424"	"217.864"	"137.391"	"262.764"	"71.402"
"1925"	"28.558"	"0.239"	"72.395"	"1.939"	"92.624"	"31.661"	"57.426"	"199.315"	"55.392"	"213.685"	"325.503"	"359.056"
"1926"	"57.54"	"0.297"	"7.395"	"22.159"	"68.138"	"26.045"	"27.999"	"97.026"	"113.001"	"147.787"	"222.072"	"41.412"
"1927"	"14.165"	"10.933"	"1.094"	"75.949"	"65.008"	"97.671"	"48.892"	"31.58"	"38.611"	"60.978"	"98.546"	"81.309"
"1928"	"31.857"	"34.66"	"15.516"	"16.503"	"50.777"	"49.613"	"32.239"	"203.91"	"102.005"	"273.915"	"297.348"	"215.384"
"1929"	"8.821"	"24.915"	"1.545"	"23.926"	"4.496"	"84.308"	"50.421"	"142.393"	"119.833"	"144.138"	"321.397"	"156.649"
"1930"	"96.499"	"44.192"	"4.172"	"0.602"	"181.776"	"41.53"	"33.884"	"70.649"	"81.779"	"504.517"	"219.014"	"24.424"
"1931"	"35.694"	"0"	"0.177"	"48.928"	"33.464"	"39.518"	"28.549"	"54.237"	"65.411"	"126.035"	"217.077"	"525.533"
"1932"	"6.042"	"6.933"	"0.177"	"48.854"	"106.789"	"7.882"	"15.112"	"36.273"	"140.675"	"215.57"	"296.486"	"144.207"
"1933"	"2.953"	"0"	"35.217"	"2.83"	"57.437"	"24.532"	"49.691"	"81.76"	"42.151"	"120.997"	"83.488"	"194.893"
"1934"	"38.967"	"0"	"0.177"	"4.878"	"1.494"	"44.277"	"86.645"	"152.02"	"14.809"	"488.846"	"155.038"	"41.036"
"1935"	"43.944"	"4.644"	"1.18"	"22.279"	"0.78"	"30.746"	"47.451"	"100.8"	"95.135"	"252.239"	"103.112"	"201.232"
"1936"	"1.578"	"39.331"	"72.176"	"16.892"	"85.515"	"36.57"	"46.149"	"67.023"	"125.443"	"58.815"	"350.417"	"77.839"
"1937"	"19.645"	"8.351"	"26.718"	"46.447"	"2.981"	"16.043"	"44.14"	"65.847"	"81.229"	"226.841"	"480.438"	"80.358"
"1938"	"1.005"	"32.646"	"63.238"	"39.941"	"14.851"	"58.093"	"51.583"	"93.326"	"141.182"	"159.731"	"27.979"	"36.112"
"1939"	"49.387"	"0"	"11.082"	"83.283"	"93.395"	"8.627"	"14.047"	"60.697"	"180.057"	"292.629"	"340.031"	"19.525"
"1940"	"2.862"	"0.84"	"19.86"	"29.038"	"175.954"	"54.271"	"42.872"	"79.023"	"150.79"	"193.511"	"606.425"	"149.496"
"1941"	"40.59"	"28.947"	"0.177"	"51.507"	"54.343"	"16.206"	"68.959"	"78.676"	"188.98"	"246.503"	"225.425"	"165.718"
"1942"	"0.201"	"0"	"0.177"	"39.194"	"3.422"	"18.116"	"17.556"	"92.702"	"260.699"	"127.772"	"53.236"	"137.523"
"1943"	"44.202"	"25.98"	"0.817"	"50.286"	"179.738"	"66.433"	"30.105"	"143.952"	"97.019"	"321.238"	"96.837"	"218.903"
"1944"	"34.525"	"29.28"	"111.452"	"9.643"	"5.375"	"46.678"	"89.661"	"57.28"	"42.789"	"193.683"	"485.96"	"205.197"
"1945"	"1.733"	"0.264"	"8.278"	"47.237"	"5.838"	"9.063"	"46.898"	"54.245"	"85.691"	"60.413"	"275.79"	"4.369"
"1946"	"35.051"	"0"	"48.877"	"5.117"	"61.763"	"16.972"	"86.229"	"77.957"	"113.051"	"212.977"	"417.742"	"526.999"
"1947"	"105.293"	"27.685"	"13.937"	"23.632"	"37.377"	"44.138"	"110.286"	"65.471"	"236.255"	"168.432"	"46.567"	"12.614"
"1948"	"44.621"	"4.907"	"0.177"	"0.593"	"20.403"	"27.845"	"52.931"	"87.039"	"183.385"	"105.854"	"264.6"	"62.711"
"1949"	"0.201"	"0"	"0.177"	"27.686"	"209.513"	"111.702"	"159.292"	"95.635"	"73.977"	"71.886"	"79.798"	"4.143"
"1950"	"3.676"	"18.989"	"0.891"	"0.201"	"188.644"	"36.384"	"36.562"	"92.845"	"81.933"	"119.95"	"144.498"	"79.683"
"1951"	"9.157"	"0"	"4.843"	"66.554"	"45.747"	"67.245"	"39.247"	"138.448"	"51.599"	"52.599"	"469.145"	"2.47"
"1952"	"7.696"	"57.984"	"0.177"	"2.936"	"82.165"	"24.137"	"50.347"	"135.487"	"13.696"	"141.353"	"16.387"	"286.377"
"1953"	"13.966"	"0"	"0.177"	"80.115"	"12.907"	"74.9"	"39.439"	"94.64"	"160.316"	"310.835"	"92.923"	"56.984"
"1954"	"65.531"	"23.29"	"15.79"	"47.163"	"12.443"	"23.304"	"117.042"	"92.849"	"64.61"	"342.098"	"14.04"	"230.744"
"1955"	"42.486"	"2.96"	"0.177"	"34.247"	"161.446"	"36.131"	"90.623"	"120.88"	"81.993"	"101.508"	"67.388"	"187.353"
"1956"	"21.44"	"0.84"	"0.177"	"63.829"	"28.879"	"134.537"	"33.537"	"124.032"	"160.421"	"229.91"	"237.028"	"120.615"
"1957"	"0.201"	"12.804"	"3.01"	"0.272"	"20.345"	"54.962"	"111.938"	"49.1"	"75.573"	"252.668"	"223.018"	"106.13"
"1958"	"19.003"	"0.286"	"0.308"	"5.663"	"141.472"	"28.429"	"20.422"	"139.2"	"113.429"	"277.125"	"190.339"	"44.388"
"1959"	"2.232"	"68.714"	"0.177"	"44.496"	"105.481"	"21.659"	"28.351"	"99.045"	"79.854"	"214.273"	"262.367"	"108.511"
"1960"	"20.036"	"0"	"0.272"	"5.572"	"9.925"	"89.047"	"78.113"	"97.933"	"134.656"	"129.798"	"644.474"	"42.927"
"1961"	"87.064"	"33.638"	"0.177"	"2.749"	"68.506"	"106.176"	"95.372"	"261.761"	"139.046"	"123.426"	"114.762"	"136.331"
"1962"	"6.299"	"10.995"	"0.927"	"8.403"	"87.694"	"38.55"	"54.647"	"154.557"	"157.373"	"325.19"	"102.001"	"65.417"
"1963"	"69.376"	"0"	"100.783"	"9.678"	"52.031"	"25.991"	"83.492"	"117.132"	"137.003"	"179.592"	"342.965"	"268.37"
"1964"	"0.201"	"0"	"6.369"	"0.201"	"7.327"	"8.407"	"95.943"	"178.071"	"137.022"	"112.2"	"291.78"	"50.841"
"1965"	"21.608"	"37.565"	"0.177"	"43.275"	"59.998"	"54.684"	"84.703"	"160.226"	"128.864"	"71.598"	"203.588"	"456.312"
"1966"	"26.046"	"7.141"	"24.209"	"0.201"	"105.883"	"55.011"	"41.492"	"257.618"	"133.296"	"359.451"	"388.285"	"209.463"
"1967"	"109.645"	"0"	"14.462"	"26.254"	"75.47"	"39.064"	"81.681"	"127.551"	"51.661"	"198.969"	"308.856"	"254.754"
"1968"	"1.279"	"20.864"	"1.248"	"112.275"	"18.468"	"29.279"	"38.239"	"83.287"	"112.736"	"70.741"	"132.058"	"79.616"
"1969"	"0.201"	"26.441"	"0.177"	"0.201"	"47.003"	"11.451"	"62.203"	"88.72"	"13.501"	"540.59"	"378.677"	"107.461"
"1970"	"5.676"	"9.22"	"8.819"	"14.247"	"20.502"	"75.861"	"36.294"	"89.618"	"96.221"	"120.933"	"563.849"	"37.782"
"1971"	"37.058"	"31.185"	"57.864"	"26.22"	"88.42"	"74.331"	"59.223"	"84.452"	"110.277"	"301.472"	"85.221"	"279.417"
"1972"	"1.72"	"0.463"	"0.177"	"11.777"	"296.42"	"22.722"	"45.627"	"59.817"	"134.407"	"309.711"	"173.904"	"380.008"
"1973"	"0.201"	"0"	"0.177"	"0.201"	"10.432"	"62.953"	"25.416"	"133.315"	"248.197"	"220.967"	"135.082"	"144.187"
"1974"	"5.029"	"0"	"14.91"	"0.416"	"48.13"	"56.801"	"74.055"	"35.378"	"148.041"	"194.657"	"70.349"	"28.614"
"1975"	"7.92"	"0"	"10.86"	"0.201"	"11.401"	"18.301"	"152.404"	"142.972"	"113.045"	"166.256"	"307.931"	"77.779"
"1976"	"1.177"	"0"	"19.546"	"3.058"	"10.908"	"23.668"	"127.537"	"132.127"	"68.788"	"256.804"	"362.255"	"115.387"
"1977"	"4.922"	"25.073"	"1.456"	"6.716"	"82.708"	"85"	"24.64"	"171.179"	"60.228"	"470.568"	"488.841"	"18.927"
"1978"	"3.298"	"27.199"	"0.177"	"43.465"	"3.053"	"42.559"	"96.203"	"166.562"	"256.242"	"155.794"	"325.401"	"355.326"
"1979"	"1.69"	"6.839"	"9.754"	"1.809"	"37.616"	"19.195"	"38.833"	"37.879"	"285.063"	"224.331"	"342.827"	"60.367"
"1980"	"1.304"	"0"	"1.756"	"26.556"	"62.849"	"20.36"	"52.097"	"91.39"	"58.528"	"155.154"	"291.132"	"138.071"
"1981"	"33.439"	"1.635"	"4.421"	"4.364"	"148.233"	"47.667"	"114.859"	"103.68"	"132.527"	"333.081"	"159.874"	"56.942"
"1982"	"1.38"	"0"	"3.188"	"38.513"	"13.583"	"27.201"	"55.913"	"22.382"	"98.787"	"143.733"	"268.303"	"95.026"
"1983"	"0.201"	"0"	"0.748"	"0.498"	"36.94"	"18.051"	"93.47"	"85.398"	"130.022"	"167.937"	"143.912"	"440.508"
"1984"	"41.234"	"74.218"	"67.41"	"25.623"	"4.202"	"14.583"	"160.297"	"107.977"	"173.379"	"92.001"	"177.429"	"66.672"
"1985"	"109.697"	"10.326"	"4.617"	"21.578"	"19.903"	"29.817"	"154.663"	"217.079"	"268.511"	"135.896"	"562.158"	"102.774"
"1986"	"84.047"	"36.321"	"3.375"	"3.557"	"19.352"	"14.152"	"129.366"	"41.415"	"99.813"	"272.451"	"152.841"	"163.972"
"1987"	"2.929"	"0"	"26.644"	"12.205"	"56.163"	"49.687"	"19.257"	"64.041"	"72.27"	"299.854"	"183.653"	"292.783"
"1988"	"0.201"	"0"	"9.757"	"47.935"	"49.038"	"120.268"	"95.588"	"349.698"	"328.921"	"73.692"	"247.528"	"109.588"
"1989"	"9.698"	"0"	"42.201"	"12.629"	"21.546"	"63.77"	"110.587"	"28.401"	"172.526"	"203.34"	"262.775"	"123.62"
"1990"	"34.68"	"6.763"	"29.636"	"1.56"	"74.218"	"63.174"	"24.978"	"47.747"	"137.874"	"388.783"	"152.591"	"112.922"
"1991"	"7.463"	"3.212"	"4.979"	"2.459"	"14.314"	"56.153"	"42.847"	"67.313"	"111.305"	"221.093"	"296.529"	"34.434"
"1992"	"15.783"	"0"	"0.177"	"1.551"	"73.464"	"30.442"	"39.9"	"153.192"	"91.284"	"130.198"	"323.613"	"120.375"
"1993"	"3.709"	"2.042"	"4.512"	"1.872"	"100.119"	"80.627"	"43.68"	"139.407"	"45.198"	"242.421"	"317.549"	"374.668"
"1994"	"5.814"	"45.466"	"3.423"	"8.203"	"62.722"	"23.268"	"30.402"	"67.085"	"30.451"	"288.328"	"310.538"	"54.661"
"1995"	"81.472"	"11.102"	"17.849"	"11.233"	"85.448"	"24.291"	"50.275"	"177.334"	"143.921"	"215.629"	"111.313"	"23.405"
"1996"	"4.221"	"4.494"	"0.177"	"47.618"	"31.591"	"116.752"	"52.844"	"74.466"	"160.541"	"259.264"	"249.549"	"315.222"
"1997"	"16.363"	"0"	"7.761"	"24.248"	"21.216"	"42.353"	"65.865"	"55.677"	"57.147"	"259.808"	"517.13"	"286.742"
"1998"	"12.37"	"0.288"	"0.177"	"17.993"	"46.204"	"17.073"	"104.665"	"164.989"	"56.16"	"130.785"	"258.341"	"258.411"
"1999"	"20.75"	"27.219"	"0.177"	"12.576"	"21.141"	"38.53"	"23.574"	"85.024"	"96.571"	"190.562"	"192.453"	"74.121"
"2000"	"14.927"	"45.688"	"1.403"	"18.476"	"23.829"	"36.345"	"46.339"	"177.034"	"312.212"	"196.868"	"158.626"	"113.839"
"2001"	"13.886"	"0.486"	"0.299"	"37.328"	"19.79"	"114.966"	"80.38"	"54.421"	"94.212"	"291.295"	"204.441"	"198.285"
"2002"	"32.354"	"2.607"	"0.177"	"1.089"	"67.71"	"19.328"	"20.292"	"74.725"	"113.766"	"312.682"	"335.965"	"82.445"
