
"Year"	"Jan"	"Feb"	"Mar"	"Apr"	"May"	"Jun"	"Jul"	"Aug"	"Sep"	"Oct"	"Nov"	"Dec"
"1901"	"25.055"	"26.256"	"28.125"	"31.602"	"32.147"	"31.145"	"28.894"	"28.251"	"28.959"	"27.486"	"24.965"	"23.284"
"1902"	"23.96"	"25.296"	"29.106"	"31.737"	"34.048"	"31.68"	"30.02"	"29.267"	"28.063"	"27.214"	"24.301"	"23.88"
"1903"	"24.188"	"26.138"	"28.948"	"31.764"	"31.653"	"31.491"	"28.476"	"28.019"	"27.71"	"26.677"	"23.998"	"22.824"
"1904"	"23.551"	"24.813"	"28.349"	"32.155"	"32.092"	"30.644"	"29.152"	"29.197"	"28.522"	"27.162"	"24.313"	"22.923"
"1905"	"23.109"	"25.407"	"28.984"	"30.945"	"32.53"	"32.179"	"30.429"	"28.682"	"28.714"	"27.186"	"25.331"	"22.938"
"1906"	"24.486"	"26.633"	"28.03"	"32.596"	"34.118"	"30.495"	"29.534"	"28.189"	"28.138"	"27.205"	"24.947"	"23.649"
"1907"	"23.48"	"25.758"	"28.472"	"30.584"	"32.883"	"30.905"	"29.308"	"28.267"	"28.721"	"27.596"	"25.477"	"23.25"
"1908"	"23.474"	"25.564"	"28.063"	"32.646"	"33.6"	"32.108"	"29.118"	"28.356"	"27.535"	"26.997"	"23.726"	"22.297"
"1909"	"24.142"	"25.98"	"28.913"	"30.537"	"32.696"	"30.121"	"28.405"	"28.283"	"27.695"	"27.72"	"25.543"	"24.486"
"1910"	"24.051"	"25.657"	"28.498"	"32.351"	"33.404"	"30.748"	"29.39"	"28.366"	"27.666"	"27.073"	"23.478"	"22.372"
"1911"	"23.982"	"24.576"	"28.637"	"32.216"	"33.519"	"31.096"	"29.828"	"28.525"	"28.967"	"27.815"	"25.559"	"23.656"
"1912"	"23.573"	"26.522"	"29.45"	"31.513"	"33.7"	"32.832"	"29.348"	"28.537"	"28.689"	"27.474"	"24.603"	"22.697"
"1913"	"23.048"	"26.465"	"28.971"	"32.367"	"32.733"	"31.067"	"28.983"	"29.421"	"29.087"	"27.079"	"24.781"	"24.096"
"1914"	"23.328"	"26.016"	"28.896"	"30.927"	"32.978"	"31.152"	"29"	"27.953"	"27.553"	"26.875"	"25.007"	"23.941"
"1915"	"23.778"	"25.875"	"28.099"	"31.501"	"33.266"	"31.816"	"29.317"	"28.908"	"28.108"	"27.728"	"25.671"	"22.735"
"1916"	"23.869"	"26.198"	"28.394"	"31.753"	"32.567"	"30.012"	"28.71"	"28.641"	"28.302"	"27.082"	"24.725"	"22.449"
"1917"	"23.021"	"24.8"	"27.268"	"30.695"	"31.922"	"29.113"	"28.982"	"28.278"	"27.394"	"26.877"	"24.453"	"22.822"
"1918"	"22.849"	"24.718"	"27.846"	"31.292"	"31.248"	"30.427"	"30.582"	"29.143"	"28.872"	"27.728"	"25.434"	"23.714"
"1919"	"25.198"	"26.95"	"28.704"	"32.001"	"32.955"	"30.161"	"29.297"	"29.257"	"28.428"	"26.962"	"25.028"	"23.206"
"1920"	"23.683"	"25.879"	"28.994"	"31.248"	"32.855"	"31.571"	"30.178"	"29.67"	"29.179"	"28.041"	"25.365"	"23.413"
"1921"	"24.547"	"25.311"	"29.359"	"31.778"	"35.064"	"31.221"	"28.783"	"28.529"	"28.229"	"26.323"	"23.309"	"22.903"
"1922"	"23.459"	"25.151"	"28.9"	"32.311"	"32.962"	"31.231"	"29.351"	"29.336"	"28.268"	"26.693"	"24.754"	"22.41"
"1923"	"22.944"	"25.319"	"27.871"	"31.993"	"33.16"	"33.039"	"29.356"	"29.301"	"28.018"	"26.702"	"24.837"	"23.506"
"1924"	"23.891"	"26.271"	"28.671"	"32.762"	"33.51"	"31.929"	"29.483"	"29.21"	"27.625"	"26.913"	"24.005"	"22.616"
"1925"	"23.07"	"25.064"	"28.151"	"32.062"	"31.8"	"31.01"	"29.391"	"28.171"	"28.617"	"26.564"	"24.65"	"22.656"
"1926"	"24.096"	"25.697"	"29.17"	"31.31"	"32.636"	"32.749"	"29.693"	"28.854"	"28.399"	"27.363"	"24.409"	"23.389"
"1927"	"24.91"	"26.632"	"29.855"	"32.695"	"33.441"	"31.069"	"29.054"	"28.949"	"28.714"	"27.498"	"24.02"	"23.612"
"1928"	"24.514"	"26.166"	"28.443"	"31.72"	"34.186"	"31.492"	"29.369"	"28.839"	"28.451"	"27.259"	"25.355"	"23.868"
"1929"	"24.617"	"25.357"	"28.452"	"31.147"	"33.917"	"31.209"	"30.007"	"29.059"	"28.336"	"27.372"	"25.05"	"24.553"
"1930"	"24.298"	"25.291"	"28.872"	"31.269"	"32.678"	"31.159"	"29.94"	"29.259"	"28.433"	"26.858"	"24.211"	"24.005"
"1931"	"23.521"	"26.286"	"28.726"	"32.111"	"33.254"	"31.306"	"28.781"	"28.819"	"28.079"	"27.266"	"24.307"	"23.21"
"1932"	"22.826"	"25.199"	"28.226"	"31.179"	"31.833"	"31.261"	"29.038"	"28.747"	"28.252"	"27.458"	"25.265"	"23.186"
"1933"	"23.808"	"26.114"	"28.023"	"30.91"	"30.92"	"30.704"	"28.725"	"28.099"	"28.669"	"26.365"	"24.689"	"22.904"
"1934"	"23.184"	"24.928"	"28.061"	"31.789"	"33.564"	"31.252"	"28.983"	"28.279"	"28.461"	"27.178"	"23.92"	"22.64"
"1935"	"23.938"	"25.811"	"28.399"	"31.135"	"34.199"	"31.603"	"29.215"	"28.653"	"27.882"	"27.286"	"24.316"	"23.771"
"1936"	"25.106"	"26.1"	"27.911"	"31.765"	"32.589"	"30.047"	"29.432"	"28.517"	"28.842"	"27.464"	"24.853"	"23.719"
"1937"	"23.278"	"26.465"	"28.48"	"31.338"	"33.27"	"32.072"	"28.945"	"29.104"	"28.797"	"26.726"	"24.703"	"23.034"
"1938"	"24.588"	"26.325"	"29.432"	"31.8"	"33.571"	"29.086"	"28.73"	"28.376"	"27.699"	"26.884"	"23.868"	"22.716"
"1939"	"23.247"	"24.988"	"27.891"	"31.162"	"33.869"	"31.741"	"29.31"	"29.314"	"28.486"	"27.299"	"23.73"	"22.819"
"1940"	"22.239"	"25.309"	"28.859"	"31.136"	"32.502"	"30.921"	"28.587"	"28.492"	"28.534"	"27.068"	"25.246"	"23.861"
"1941"	"24.549"	"26.299"	"29.667"	"32.86"	"33.869"	"31.355"	"30.588"	"29.561"	"28.348"	"27.561"	"25.063"	"24.38"
"1942"	"24.194"	"26.122"	"28.686"	"31.816"	"33.671"	"31.457"	"29.431"	"28.475"	"28.267"	"26.794"	"24.666"	"23.945"
"1943"	"24.667"	"24.483"	"28.357"	"31.359"	"31.713"	"29.994"	"28.707"	"28.542"	"27.578"	"26.309"	"24.915"	"22.561"
"1944"	"24.223"	"26.029"	"27.217"	"31.216"	"33.079"	"31.223"	"28.594"	"28.903"	"28.123"	"27.188"	"24.676"	"23.338"
"1945"	"23.688"	"25.878"	"28.827"	"31.346"	"33.645"	"31.377"	"28.811"	"28.211"	"27.608"	"26.857"	"23.602"	"22.317"
"1946"	"22.417"	"24.886"	"29.087"	"31.422"	"33.21"	"30.217"	"29.299"	"28.461"	"28.149"	"27.775"	"25.471"	"24.069"
"1947"	"24.733"	"25.595"	"29.193"	"32.326"	"33.325"	"31.97"	"28.75"	"28.352"	"27.612"	"26.197"	"24.432"	"23.174"
"1948"	"24.165"	"26.41"	"28.392"	"31.501"	"33.935"	"32.035"	"29.525"	"28.655"	"28.026"	"27.405"	"25.914"	"22.273"
"1949"	"23.135"	"25.115"	"28.839"	"31.943"	"32.03"	"30.003"	"28.47"	"28.404"	"27.618"	"27.673"	"24.035"	"22.994"
"1950"	"23.016"	"25.517"	"28.037"	"31.664"	"32.99"	"31.012"	"28.94"	"28.929"	"27.574"	"26.68"	"24.241"	"22.801"
"1951"	"23.577"	"24.975"	"29.017"	"31.722"	"32.846"	"30.996"	"29.078"	"29.028"	"28.652"	"28.177"	"25.756"	"23.125"
"1952"	"23.964"	"26.387"	"28.95"	"32.484"	"33.101"	"31.68"	"30.138"	"28.781"	"28.919"	"27.186"	"24.149"	"24.011"
"1953"	"24.088"	"26.156"	"30.439"	"32.414"	"35.461"	"32.373"	"29.586"	"28.984"	"28.08"	"27.169"	"24.564"	"22.785"
"1954"	"23.716"	"26.662"	"28.98"	"32.79"	"34.338"	"31.708"	"28.458"	"28.529"	"27.943"	"26.365"	"23.615"	"23.624"
"1955"	"23.759"	"26.215"	"29.053"	"31.707"	"32.045"	"30.581"	"28.633"	"27.35"	"27.922"	"27.109"	"23.635"	"22.544"
"1956"	"23.539"	"24.874"	"29.217"	"32.338"	"33.178"	"30.105"	"27.689"	"28.086"	"27.694"	"26.296"	"24.859"	"23.079"
"1957"	"23.969"	"25.87"	"27.886"	"31.32"	"32.877"	"31.27"	"28.722"	"27.653"	"28.462"	"27.761"	"25.265"	"23.991"
"1958"	"24.234"	"26.733"	"29.54"	"32.13"	"33.182"	"33.309"	"28.88"	"28.189"	"28.648"	"27.203"	"25.519"	"23.644"
"1959"	"24.444"	"27.271"	"29.217"	"32.235"	"33.602"	"30.398"	"28.546"	"28.707"	"28.555"	"27.552"	"25.054"	"23.597"
"1960"	"24.444"	"25.687"	"28.901"	"31.963"	"33.22"	"31.027"	"29.44"	"29.974"	"28.209"	"27.371"	"24.602"	"23.88"
"1961"	"24.349"	"26.304"	"30.031"	"32.661"	"32.789"	"30.377"	"28.474"	"28.21"	"27.949"	"26.9"	"24.314"	"22.915"
"1962"	"22.84"	"25.768"	"28.633"	"31.551"	"32.258"	"30.759"	"28.992"	"28.309"	"27.809"	"26.852"	"24.493"	"23.169"
"1963"	"22.794"	"24.751"	"28.769"	"30.632"	"32.94"	"30.443"	"29.33"	"28.03"	"28.421"	"27.254"	"25.031"	"23.643"
"1964"	"24.093"	"26.709"	"30.083"	"32.619"	"34.538"	"31.314"	"29.07"	"28.075"	"27.478"	"27.599"	"24.06"	"22.77"
"1965"	"23.728"	"26.068"	"28.922"	"31.06"	"33.192"	"31.497"	"28.854"	"28.459"	"28.532"	"27.923"	"25.583"	"24.621"
"1966"	"24.811"	"26.811"	"30.138"	"32.458"	"33.959"	"31.319"	"29.731"	"29.17"	"27.894"	"27.027"	"25.79"	"23.397"
"1967"	"24.139"	"25.914"	"28.575"	"32.314"	"33.516"	"31.298"	"28.762"	"28.239"	"28.085"	"26.659"	"24.313"	"24.431"
"1968"	"23.396"	"26.638"	"28.758"	"31.296"	"33.162"	"31.426"	"29.587"	"29.671"	"28.095"	"26.713"	"24.908"	"24.215"
"1969"	"23.723"	"26.922"	"30.37"	"33.077"	"32.986"	"31.933"	"29.242"	"29.17"	"28.307"	"27.006"	"25.731"	"23.091"
"1970"	"24.261"	"26.823"	"30.208"	"32.425"	"33.494"	"30.098"	"29.222"	"27.828"	"28.153"	"27.059"	"24.488"	"21.795"
"1971"	"23.327"	"26.855"	"28.552"	"32.286"	"32.776"	"29.574"	"29.772"	"28.612"	"28.618"	"26.978"	"24.007"	"22.427"
"1972"	"22.896"	"26.229"	"29.019"	"32.323"	"33.317"	"32.619"	"30.009"	"29.974"	"29.639"	"27.422"	"25.329"	"24.664"
"1973"	"25.048"	"27.44"	"30.075"	"33.648"	"34.931"	"31.409"	"29.874"	"28.334"	"28.785"	"27.239"	"24.507"	"23.318"
"1974"	"23.357"	"26.289"	"29.627"	"32.796"	"32.617"	"30.88"	"29.896"	"28.991"	"28.318"	"27.186"	"24.38"	"22.669"
"1975"	"23.385"	"26.697"	"29.397"	"32.617"	"34.299"	"30.822"	"28.667"	"28.805"	"27.457"	"27.174"	"24.201"	"22.212"
"1976"	"23.11"	"25.531"	"29.575"	"31.925"	"32.474"	"31.531"	"28.146"	"28.006"	"27.654"	"28.176"	"25.952"	"23.929"
"1977"	"23.458"	"26.52"	"29.316"	"31.981"	"31.191"	"30.285"	"29.209"	"27.984"	"29.839"	"27.038"	"25.976"	"23.438"
"1978"	"24.316"	"25.872"	"29.275"	"31.896"	"33.257"	"30.233"	"28.514"	"27.294"	"28.095"	"27.652"	"26.047"	"24.349"
"1979"	"24.412"	"27.077"	"29.403"	"32.332"	"32.458"	"31.687"	"30.283"	"29.622"	"28.588"	"28.039"	"25.434"	"24.4"
"1980"	"24.752"	"27.709"	"30.075"	"32.195"	"34.446"	"30.442"	"29.424"	"28.3"	"29.122"	"28.538"	"25.931"	"24.424"
"1981"	"24.453"	"27.222"	"29.146"	"32.357"	"33.719"	"30.927"	"29.952"	"28.343"	"28.25"	"27.445"	"25.372"	"23.432"
"1982"	"24.513"	"27.916"	"30.428"	"32.231"	"33.312"	"31.447"	"29.675"	"29.306"	"29.128"	"27.916"	"25.782"	"23.942"
"1983"	"24.202"	"27.721"	"30.824"	"33.07"	"33.647"	"31.988"	"30.007"	"28.623"	"27.942"	"27.206"	"24.781"	"23.78"
"1984"	"24.882"	"26.178"	"29.315"	"32.003"	"34.575"	"31.202"	"28.779"	"29.581"	"29.055"	"27.593"	"24.943"	"24.602"
"1985"	"25.105"	"27.354"	"29.819"	"32.947"	"33.571"	"30.698"	"29.021"	"28.849"	"29.381"	"26.628"	"25.153"	"24.499"
"1986"	"23.335"	"26.429"	"29.856"	"32.65"	"33.926"	"31.35"	"30.333"	"29.073"	"29.957"	"28.107"	"26.01"	"24.894"
"1987"	"24.944"	"25.813"	"29.206"	"32.977"	"32.859"	"32.262"	"29.884"	"29.332"	"30.081"	"27.536"	"25.301"	"24.142"
"1988"	"24.417"	"27.474"	"30.821"	"31.572"	"34.258"	"32.342"	"28.572"	"28.296"	"28.209"	"27.781"	"25.332"	"24.003"
"1989"	"24.261"	"26.242"	"28.381"	"32.393"	"33.571"	"30.46"	"28.691"	"28.921"	"28.334"	"27.897"	"25.098"	"23.703"
"1990"	"24.63"	"27.074"	"29.821"	"32.838"	"30.443"	"30.081"	"29.389"	"28.763"	"29.184"	"26.94"	"25.855"	"24.177"
"1991"	"25.037"	"27.103"	"30.412"	"32.316"	"34.05"	"29.997"	"29.018"	"28.995"	"29.456"	"28.015"	"24.859"	"23.548"
"1992"	"23.295"	"26.918"	"29.531"	"32.394"	"33.355"	"31.897"	"30.202"	"28.562"	"29.285"	"27.797"	"26.028"	"23.344"
"1993"	"24.518"	"26.069"	"29.898"	"32.433"	"33.753"	"32.415"	"30.269"	"29.409"	"29.005"	"27.466"	"25.76"	"23.157"
"1994"	"24.609"	"26.89"	"30.358"	"31.974"	"34.34"	"31.766"	"29.203"	"29.005"	"30.159"	"27.224"	"24.685"	"23.026"
"1995"	"23.581"	"26.908"	"29.894"	"32.572"	"31.947"	"32.818"	"29.516"	"29.555"	"28.896"	"27.409"	"26.53"	"24.17"
"1996"	"25.133"	"26.852"	"30.339"	"31.805"	"34.537"	"30.941"	"29.861"	"28.558"	"28.62"	"26.905"	"25.763"	"23.376"
"1997"	"23.871"	"26.311"	"29.92"	"31.379"	"33.726"	"32.306"	"30.398"	"29.664"	"29.009"	"27.904"	"26.585"	"25.326"
"1998"	"26.134"	"28.081"	"30.89"	"33.339"	"34.668"	"33.199"	"30.453"	"29.176"	"29.031"	"27.71"	"26.114"	"23.531"
"1999"	"24.081"	"27.259"	"30.723"	"33.302"	"32.646"	"30.758"	"29.109"	"29.029"	"28.47"	"27.701"	"25.83"	"23.975"
"2000"	"25.178"	"27.399"	"29.497"	"33.337"	"33.203"	"30.036"	"29.006"	"28.664"	"28.874"	"28.148"	"26.087"	"23.862"
"2001"	"25.146"	"27.822"	"30.622"	"32.23"	"34.589"	"30.887"	"30.345"	"28.993"	"29.42"	"27.475"	"26.473"	"24.144"
"2002"	"24.992"	"26.822"	"30.467"	"33.384"	"34.41"	"31.05"	"30.783"	"28.828"	"29.558"	"27.935"	"25.264"	"24.255"
