
"Year"	"Jan"	"Feb"	"Mar"	"Apr"	"May"	"Jun"	"Jul"	"Aug"	"Sep"	"Oct"	"Nov"	"Dec"
"1901"	"79.363"	"23.235"	"9.34"	"1.122"	"3.561"	"15.695"	"176.221"	"341.554"	"246.756"	"2.527"	"0.935"	"0.383"
"1902"	"12.052"	"2.218"	"0.395"	"1.979"	"8.972"	"40.555"	"474.8"	"254.543"	"233.315"	"4.302"	"1.229"	"0"
"1903"	"2.016"	"1.453"	"0.636"	"1.515"	"4.229"	"47.337"	"116.276"	"485.492"	"149.736"	"71.887"	"0"	"0.022"
"1904"	"7.436"	"0.022"	"13.817"	"0.444"	"15.651"	"32.397"	"311.747"	"496.353"	"76.05"	"120.509"	"14.4"	"23.05"
"1905"	"19.763"	"8.319"	"19.187"	"3.805"	"0.996"	"16.99"	"330.433"	"280.722"	"177.068"	"0.814"	"0"	"0.316"
"1906"	"7.018"	"17.233"	"6.249"	"0.254"	"8.583"	"74.401"	"279.848"	"264.225"	"165.087"	"9.712"	"0"	"0.083"
"1907"	"0.894"	"69.05"	"11.582"	"14.979"	"2.941"	"34.883"	"209.243"	"392.406"	"28.524"	"2.192"	"0"	"0"
"1908"	"13.636"	"13.573"	"0.702"	"0.212"	"1.185"	"14.759"	"335.235"	"435.364"	"61.848"	"12.162"	"0.032"	"1.107"
"1909"	"6.167"	"5.47"	"0"	"24.779"	"1.401"	"264.8"	"536.49"	"171.679"	"168.497"	"1.117"	"0"	"23.491"
"1910"	"10.09"	"1.61"	"3.333"	"0.762"	"11.983"	"99.045"	"200.622"	"260.025"	"224.762"	"47.486"	"75.196"	"0.043"
"1911"	"23.731"	"0"	"43.251"	"4.566"	"0.802"	"75.42"	"97.773"	"279.304"	"316.114"	"121.04"	"46.683"	"0.071"
"1912"	"3.29"	"1.746"	"5.968"	"2.203"	"5.423"	"50.989"	"282.788"	"283.128"	"122.868"	"1.069"	"37.492"	"0.929"
"1913"	"0.227"	"42.816"	"26.903"	"0.378"	"18.85"	"140.62"	"185.876"	"245.595"	"79.115"	"10.332"	"0.916"	"18.285"
"1914"	"6.634"	"8.404"	"16.346"	"9.149"	"34.12"	"49.774"	"534.835"	"269.906"	"157.355"	"3.593"	"0"	"0"
"1915"	"18.302"	"48.992"	"53.003"	"6.732"	"0.939"	"78.103"	"349.149"	"327.622"	"264.598"	"98.108"	"1.317"	"3.499"
"1916"	"0.189"	"18.765"	"0"	"0.761"	"2.734"	"139.827"	"333.818"	"486.266"	"180.221"	"66.255"	"10.587"	"0"
"1917"	"5.704"	"46.047"	"21.302"	"0.661"	"37.746"	"190.144"	"278.738"	"296.61"	"251.94"	"49.282"	"0"	"9.466"
"1918"	"0.496"	"0"	"1.733"	"2.155"	"1.836"	"219.202"	"59.632"	"366.438"	"75.804"	"0.846"	"3.845"	"0.043"
"1919"	"54.84"	"13.263"	"3.713"	"3.823"	"4.154"	"41.983"	"298.638"	"388.384"	"157.194"	"44.874"	"0.319"	"1.306"
"1920"	"0.318"	"12.861"	"19.261"	"0.049"	"6.905"	"43.375"	"593.199"	"157.643"	"62.716"	"3.908"	"0"	"0"
"1921"	"50.273"	"0.849"	"0.089"	"0.274"	"0.038"	"100.769"	"186.677"	"317.489"	"158.555"	"7.186"	"0"	"0"
"1922"	"30.79"	"5.725"	"0"	"3.681"	"0.11"	"46.025"	"425.853"	"434.742"	"285.803"	"5.139"	"0.58"	"16.663"
"1923"	"1.174"	"19.486"	"0"	"0.01"	"1.039"	"18.092"	"254.153"	"445.007"	"177.811"	"45.755"	"2.909"	"5.272"
"1924"	"16.027"	"1.637"	"0.459"	"2.431"	"2.054"	"29.313"	"379.238"	"364.955"	"229.478"	"41.331"	"14.278"	"4.181"
"1925"	"2.231"	"0"	"1.14"	"0.589"	"28.333"	"94.319"	"731.241"	"291.159"	"414.929"	"2.5"	"32.678"	"0"
"1926"	"5.746"	"0.906"	"56.989"	"9.082"	"11.084"	"11.069"	"256.986"	"240.604"	"255.258"	"26.2"	"1.289"	"1.456"
"1927"	"14.034"	"23.584"	"26.387"	"0.72"	"3.328"	"40.195"	"475.764"	"270.556"	"164.411"	"59.301"	"57.264"	"0.928"
"1928"	"23.619"	"23.253"	"0.415"	"13.852"	"1.8"	"33.132"	"285.393"	"81.982"	"54.427"	"73.004"	"1.576"	"17.841"
"1929"	"76.393"	"1.942"	"0.976"	"1.881"	"0.861"	"62.982"	"556.692"	"388.243"	"77.725"	"66.964"	"0"	"28.045"
"1930"	"8.011"	"19.805"	"3.629"	"2.45"	"2.738"	"64.634"	"473.293"	"237.731"	"142.183"	"18.573"	"16.596"	"17.751"
"1931"	"0.263"	"20.956"	"3.788"	"0.254"	"1.949"	"70.954"	"252.423"	"236.641"	"302.885"	"104.045"	"0.781"	"0.089"
"1932"	"0.189"	"5.232"	"0.997"	"0.364"	"5.13"	"42.464"	"132.39"	"400.176"	"108.418"	"24.903"	"12.921"	"1.896"
"1933"	"4.538"	"20.961"	"7.286"	"27.256"	"28.565"	"115.408"	"215.454"	"301.736"	"102.809"	"47.144"	"0.225"	"0.268"
"1934"	"25.131"	"2.69"	"19.728"	"0.561"	"0.466"	"92.371"	"212.017"	"256.334"	"185.732"	"7.008"	"4.369"	"3.207"
"1935"	"12.297"	"20.03"	"0.525"	"3.496"	"0.937"	"126.357"	"313.762"	"406.906"	"198.403"	"2.212"	"1.289"	"10.128"
"1936"	"4.228"	"48.147"	"6.981"	"1.324"	"2"	"157.118"	"483.455"	"325.262"	"286.696"	"7.81"	"2.44"	"23.644"
"1937"	"0.21"	"41.377"	"6.91"	"4.349"	"4.845"	"71.735"	"320.079"	"302.373"	"181.67"	"57.588"	"0.113"	"0.653"
"1938"	"52.65"	"10.26"	"0.574"	"5.782"	"4.802"	"230.834"	"351.666"	"314.304"	"294.661"	"36.977"	"0.161"	"0"
"1939"	"18.557"	"14.492"	"3.001"	"6.748"	"0.813"	"144.804"	"308.25"	"362.465"	"273.41"	"16.796"	"0"	"0"
"1940"	"2.529"	"16.842"	"41.544"	"5.622"	"7.703"	"68.751"	"189.428"	"373.464"	"166.127"	"4.333"	"0.05"	"5.301"
"1941"	"28.395"	"3.44"	"2.116"	"0.254"	"7.36"	"67.649"	"177.383"	"230.286"	"145.493"	"8.573"	"0.161"	"0.408"
"1942"	"71.641"	"31.901"	"0.997"	"5.82"	"1.034"	"76.18"	"247.967"	"321.321"	"198.904"	"0.646"	"0"	"13.161"
"1943"	"13.454"	"3.661"	"0.527"	"15.519"	"3.366"	"16.879"	"229.368"	"585.026"	"246.935"	"9.1"	"0"	"0"
"1944"	"18.328"	"32.287"	"46.684"	"5.61"	"1.087"	"34.672"	"345.743"	"525.826"	"46.297"	"16.414"	"0.032"	"2.794"
"1945"	"34.901"	"3.084"	"0.338"	"9.947"	"1.248"	"37.405"	"198.505"	"305.495"	"130.976"	"45.661"	"0"	"24.093"
"1946"	"0.189"	"32.085"	"2.884"	"4.283"	"1.588"	"123.427"	"371.264"	"409.349"	"80.187"	"31.178"	"26.384"	"6.368"
"1947"	"9.683"	"10.501"	"11.116"	"2.321"	"1.205"	"43.089"	"424.092"	"300.352"	"161.106"	"14.977"	"6.604"	"0.094"
"1948"	"13.975"	"11.573"	"1.029"	"0.38"	"2.816"	"225.341"	"431.096"	"508.194"	"197.79"	"28.056"	"39.237"	"0.043"
"1949"	"0.815"	"34.595"	"2.41"	"1.709"	"6.305"	"35.598"	"356.258"	"470.491"	"112.829"	"83.218"	"0.458"	"0.022"
"1950"	"22.176"	"7.076"	"44.637"	"0.316"	"1.228"	"94.47"	"311.447"	"443.631"	"81.863"	"2.082"	"0.032"	"17.003"
"1951"	"16.622"	"15.54"	"32.159"	"8.357"	"1.465"	"166.336"	"234.395"	"465.628"	"161.129"	"7.098"	"7.063"	"0"
"1952"	"1.464"	"17.125"	"32.963"	"0.581"	"5.804"	"174.994"	"223.627"	"348.188"	"119.816"	"2.818"	"1.404"	"0.262"
"1953"	"25.944"	"27.164"	"0.105"	"3.267"	"0.433"	"162.812"	"378.845"	"340.122"	"174.847"	"1.1"	"0"	"6.507"
"1954"	"19.543"	"15.307"	"5.493"	"0.38"	"0.893"	"79.431"	"281.323"	"317.079"	"214.688"	"15.612"	"0"	"0.022"
"1955"	"46.27"	"25.705"	"2.647"	"1.198"	"2.035"	"98.987"	"508.565"	"260.265"	"116.828"	"102.746"	"0"	"1.366"
"1956"	"37.232"	"20.567"	"12.594"	"0.951"	"1.525"	"209.967"	"248.51"	"348.716"	"317.797"	"107.996"	"82.395"	"7.242"
"1957"	"15.423"	"1.015"	"40.672"	"1.701"	"1.001"	"87.724"	"281.497"	"367.984"	"120.936"	"0.88"	"0.651"	"2.653"
"1958"	"25.931"	"5.211"	"43.321"	"1.462"	"0.105"	"53.177"	"220.493"	"306.489"	"115.411"	"29.253"	"0.358"	"3.479"
"1959"	"60.026"	"5.717"	"0.203"	"0.094"	"32.83"	"15.776"	"194.944"	"395.878"	"81.305"	"152.434"	"2.083"	"0"
"1960"	"14.508"	"0"	"10.95"	"1.611"	"0.874"	"51.753"	"448.154"	"526.756"	"90.553"	"45.827"	"0"	"0.093"
"1961"	"30.709"	"12.256"	"0"	"0.112"	"3.097"	"69.362"	"278.552"	"462.357"	"198.063"	"58.174"	"4.793"	"4.424"
"1962"	"21.386"	"11.564"	"8.09"	"15.691"	"3.03"	"36.27"	"324.939"	"343.451"	"334.836"	"0.419"	"0.815"	"4.702"
"1963"	"22.098"	"9.947"	"15.746"	"9.454"	"15.719"	"92.52"	"557.198"	"395.14"	"185.8"	"6.904"	"7.3"	"3.116"
"1964"	"0.378"	"6.125"	"3.865"	"4.513"	"6.156"	"52.372"	"350.097"	"292.747"	"216.222"	"12.617"	"0"	"0.391"
"1965"	"3.102"	"1.776"	"25.484"	"21.62"	"2.401"	"12.71"	"208.064"	"174.901"	"132.246"	"31.074"	"1.155"	"3.707"
"1966"	"4.833"	"10.48"	"0"	"0"	"0.527"	"284.715"	"130.32"	"152.658"	"28.287"	"2.428"	"70.341"	"11.029"
"1967"	"1.941"	"0.06"	"33.831"	"5.238"	"0.813"	"40.8"	"284.607"	"593.645"	"223.348"	"1.644"	"0.718"	"32.939"
"1968"	"27.257"	"6.939"	"4.99"	"0.499"	"0.452"	"71.862"	"196.141"	"120.183"	"54.531"	"21.313"	"0.01"	"6.229"
"1969"	"4.818"	"5.322"	"0.492"	"0.989"	"27.91"	"28.414"	"539.225"	"213.069"	"134.615"	"0.491"	"16.677"	"0"
"1970"	"38.501"	"55.396"	"0.821"	"0.201"	"36.89"	"105.356"	"322.756"	"245.502"	"641.544"	"39.667"	"0.134"	"0"
"1971"	"14.378"	"12.429"	"4.282"	"25.755"	"43.289"	"232.242"	"198.473"	"472.587"	"213.467"	"95.694"	"0.805"	"0"
"1972"	"27.352"	"35.371"	"0.955"	"1.71"	"0.707"	"5.823"	"117.637"	"302.174"	"164.028"	"107.703"	"27.393"	"0.05"
"1973"	"11.854"	"1.998"	"0.866"	"0.312"	"1.267"	"30.597"	"444.613"	"515.539"	"153.936"	"86.822"	"0.694"	"0"
"1974"	"2.197"	"0.599"	"0.338"	"0.338"	"3.54"	"51.033"	"398.305"	"228.167"	"71.892"	"7.37"	"0.974"	"0.669"
"1975"	"11.284"	"7.215"	"20.176"	"5.161"	"0.992"	"175.676"	"312.787"	"237.667"	"144.632"	"38.036"	"0"	"0"
"1976"	"34.685"	"2.747"	"0.375"	"4.48"	"5.69"	"24.401"	"207.965"	"143.465"	"335.449"	"0.473"	"2.841"	"0"
"1977"	"25.107"	"18.148"	"0.263"	"7.316"	"4.252"	"104.22"	"395.778"	"214.509"	"117.864"	"77.935"	"2.449"	"8.497"
"1978"	"30.682"	"53.719"	"21.733"	"2.519"	"0.49"	"162.624"	"137.006"	"258.069"	"292.908"	"19.352"	"0.563"	"4.634"
"1979"	"29.1"	"8.386"	"0.608"	"4.619"	"0.846"	"137.889"	"243.596"	"159.108"	"67.48"	"1.129"	"80.533"	"2.213"
"1980"	"0.323"	"3.326"	"3.316"	"0.309"	"0.883"	"187.381"	"526.3"	"641.055"	"208.192"	"9.726"	"0.093"	"17.958"
"1981"	"18.694"	"1.646"	"6.694"	"0.665"	"5.764"	"140.242"	"446.507"	"471.386"	"151.522"	"0.353"	"24.477"	"3.38"
"1982"	"70.684"	"10.218"	"34.112"	"3.539"	"28.267"	"87.697"	"210.97"	"399.861"	"427.555"	"4.277"	"48.6"	"6.339"
"1983"	"9.104"	"0.837"	"1.244"	"14.997"	"30.07"	"86.563"	"264.102"	"182.094"	"150.216"	"51.385"	"0"	"2.815"
"1984"	"37.898"	"31.009"	"0.346"	"10.748"	"1.046"	"131.013"	"183.013"	"221.532"	"199.073"	"27.527"	"0"	"0.507"
"1985"	"21.117"	"0.426"	"0.129"	"12.313"	"1.23"	"54.441"	"251.967"	"271.374"	"239.083"	"92.416"	"0.016"	"3.633"
"1986"	"18.946"	"31.177"	"0.993"	"1"	"50.335"	"47.853"	"228.802"	"389.304"	"197.837"	"10.038"	"0.578"	"21.002"
"1987"	"21.116"	"12.089"	"13.431"	"0.926"	"7.134"	"11.638"	"114.439"	"189.626"	"33.09"	"87.891"	"0"	"4.614"
"1988"	"12.547"	"3.76"	"18.36"	"0.721"	"9.517"	"146.314"	"259.084"	"301.962"	"89.534"	"13.999"	"0.797"	"22.778"
"1989"	"4.569"	"2.437"	"6.755"	"1.151"	"3.688"	"93.176"	"352.287"	"131.25"	"151.553"	"25.048"	"16.131"	"21.696"
"1990"	"0.189"	"18.285"	"3.289"	"10.714"	"16.407"	"172.11"	"341.214"	"308.403"	"239.755"	"3.412"	"0.583"	"3.653"
"1991"	"12.019"	"10.342"	"7.262"	"9.027"	"10.527"	"72.769"	"98.239"	"46.655"	"122.754"	"0.393"	"0.699"	"27.837"
"1992"	"32.511"	"7.361"	"0.5"	"1.712"	"12.61"	"22.464"	"111.011"	"168.066"	"181.1"	"64.212"	"24.342"	"0"
"1993"	"10.335"	"0.303"	"11.001"	"1.601"	"18.3"	"30.652"	"137.914"	"173.384"	"286.69"	"30.614"	"0.051"	"0"
"1994"	"54.741"	"21.001"	"28.418"	"7.099"	"1.045"	"170.176"	"315.67"	"321.404"	"176.36"	"7.549"	"0.482"	"0"
"1995"	"32.758"	"21.853"	"10.921"	"8.868"	"1.758"	"28.278"	"222.523"	"280.403"	"157.684"	"0.528"	"33.199"	"19.885"
"1996"	"44.706"	"19.009"	"0.712"	"1.205"	"1.599"	"182.811"	"222.339"	"326.583"	"121.316"	"87.05"	"0"	"0"
"1997"	"14.386"	"0.545"	"3.099"	"9.699"	"14.627"	"111.051"	"59.41"	"220.073"	"237.531"	"20.239"	"24.275"	"18.002"
"1998"	"0.401"	"1.441"	"14.369"	"7.546"	"29.779"	"78.664"	"308.933"	"398.552"	"166.189"	"9.344"	"2.084"	"0"
"1999"	"46.913"	"38.077"	"0"	"0"	"15.49"	"11.226"	"379.156"	"202.633"	"208.182"	"33.011"	"0"	"1.41"
"2000"	"11.766"	"9.68"	"0.506"	"1.56"	"9.33"	"85.799"	"207.812"	"169.334"	"278.573"	"0.316"	"0"	"0"
"2001"	"3.937"	"2.253"	"10.508"	"6.94"	"6.194"	"112.78"	"221.012"	"217.165"	"95.532"	"69.542"	"7.723"	"0.212"
"2002"	"25.257"	"16.687"	"3.019"	"1.211"	"0.828"	"27.995"	"109.39"	"267.256"	"186.77"	"83.04"	"13.91"	"3.371"
