
"Year"	"Jan"	"Feb"	"Mar"	"Apr"	"May"	"Jun"	"Jul"	"Aug"	"Sep"	"Oct"	"Nov"	"Dec"
"1901"	"14.504"	"18.051"	"24.098"	"30.219"	"34.257"	"37.004"	"32.422"	"29.587"	"28.831"	"27.23"	"21.136"	"16.556"
"1902"	"17.161"	"19.261"	"26.878"	"31.12"	"34.756"	"35.573"	"30.605"	"29.842"	"28.901"	"26.092"	"20.126"	"15.683"
"1903"	"16.334"	"17.754"	"24.139"	"30.305"	"34.663"	"35.693"	"32.248"	"29.737"	"29.531"	"25.995"	"19.991"	"15.752"
"1904"	"16.534"	"18.668"	"24.824"	"31.377"	"33.699"	"34.053"	"29.574"	"28.784"	"28.842"	"26.215"	"19.925"	"16.9"
"1905"	"14.891"	"14.56"	"22.486"	"27.725"	"33.718"	"36.818"	"30.827"	"29.033"	"29.226"	"26.125"	"21.21"	"16.362"
"1906"	"15.634"	"17.806"	"23.577"	"30.812"	"35.662"	"34.61"	"30.695"	"29.095"	"29.18"	"26.615"	"21.469"	"17.225"
"1907"	"17.536"	"17.907"	"22.654"	"28.558"	"33.103"	"34.799"	"33.352"	"29.379"	"30.12"	"27.644"	"21.305"	"15.657"
"1908"	"14.911"	"18.94"	"24.61"	"32.61"	"35.382"	"36.084"	"30.785"	"29.405"	"29.779"	"26.384"	"20.49"	"15.926"
"1909"	"18.497"	"17.213"	"25.542"	"28.905"	"34.526"	"31.338"	"29.647"	"29.196"	"29.028"	"26.342"	"21.23"	"16.663"
"1910"	"15.441"	"18.66"	"24.977"	"30.674"	"34.178"	"33.294"	"30.81"	"29.18"	"29.379"	"25.868"	"19.799"	"15.672"
"1911"	"18.165"	"18.231"	"23.045"	"30.178"	"35.541"	"33.304"	"32.184"	"29.689"	"28.426"	"26.569"	"19.904"	"15.441"
"1912"	"16.334"	"19.929"	"24.208"	"30.224"	"34.399"	"35.519"	"30.795"	"29.185"	"28.732"	"26.257"	"20.106"	"15.655"
"1913"	"15.92"	"18.98"	"22.719"	"31.313"	"32.64"	"31.262"	"30.885"	"29.873"	"29.489"	"27.331"	"20.248"	"16.56"
"1914"	"17.584"	"19.763"	"24.044"	"29.877"	"33.483"	"34.505"	"30.147"	"29.085"	"29.248"	"25.667"	"21.578"	"16.635"
"1915"	"16.71"	"17.765"	"23.899"	"30.274"	"36.004"	"34.746"	"31.231"	"29.211"	"28.849"	"27.47"	"21.526"	"16.526"
"1916"	"15.825"	"18.46"	"26.421"	"31.689"	"34.867"	"31.343"	"30.273"	"28.801"	"28.926"	"26.9"	"20.023"	"15.063"
"1917"	"15.719"	"18.429"	"23.714"	"27.946"	"30.467"	"32.53"	"30.253"	"29.469"	"28.583"	"26.514"	"19.227"	"16.205"
"1918"	"14.82"	"19.014"	"25.135"	"29.416"	"34.825"	"31.532"	"32.849"	"29.626"	"29.615"	"26.615"	"20.736"	"15.729"
"1919"	"16.401"	"16.988"	"24.944"	"29.63"	"33.772"	"34.467"	"29.615"	"29.384"	"29.047"	"25.936"	"20.783"	"16.14"
"1920"	"15.947"	"18.392"	"24.696"	"30.5"	"32.173"	"34.829"	"29.8"	"29.479"	"29.824"	"27.53"	"21.589"	"16.579"
"1921"	"17.022"	"18.778"	"27.047"	"32.483"	"36.887"	"34.151"	"31.846"	"28.625"	"28.63"	"25.757"	"19.751"	"17.641"
"1922"	"16.196"	"19.929"	"25.668"	"30.758"	"35.709"	"33.288"	"29.59"	"28.609"	"28.426"	"25.416"	"20.463"	"16.149"
"1923"	"15.961"	"18.387"	"24.789"	"31.369"	"34.924"	"36.687"	"30.215"	"29.205"	"29.306"	"25.574"	"20.773"	"16.983"
"1924"	"15.693"	"18.828"	"26.663"	"31.699"	"33.544"	"36.973"	"29.704"	"29.085"	"28.74"	"26.763"	"20.71"	"16.399"
"1925"	"14.729"	"17.308"	"24.531"	"31"	"33.256"	"32.768"	"29.096"	"29.747"	"28.82"	"26.767"	"20.02"	"15.447"
"1926"	"15.745"	"19.687"	"23.691"	"27.435"	"32.656"	"36.467"	"31.679"	"29.566"	"28.49"	"25.88"	"19.01"	"16.041"
"1927"	"14.752"	"18.118"	"23.3"	"30.162"	"33.562"	"35.099"	"30.658"	"29.268"	"29.731"	"26.662"	"20.031"	"17.308"
"1928"	"15.808"	"19.024"	"25.236"	"29.783"	"35.151"	"33.467"	"30.116"	"30.279"	"30.175"	"27.452"	"21.658"	"17.03"
"1929"	"15.934"	"17.54"	"25.657"	"31.261"	"35.768"	"34.331"	"30.379"	"28.415"	"30.198"	"25.825"	"20.585"	"15.762"
"1930"	"15.386"	"18.271"	"25.616"	"30.145"	"34.241"	"34.499"	"29.952"	"29.085"	"29.148"	"27.057"	"20.389"	"15.942"
"1931"	"17.402"	"18.218"	"24.399"	"31.891"	"34.893"	"35.953"	"30.937"	"29.983"	"29.174"	"26.341"	"20.506"	"17.204"
"1932"	"17.814"	"17.855"	"25.289"	"30.421"	"34.072"	"35.767"	"31.558"	"28.969"	"29.368"	"26.794"	"20.748"	"16.205"
"1933"	"14.409"	"19.703"	"25.436"	"27.989"	"31.366"	"32.852"	"30.263"	"29.536"	"29.159"	"26.548"	"20.391"	"16.463"
"1934"	"16.066"	"19.219"	"24.261"	"30.748"	"34.689"	"33.907"	"30.263"	"29.258"	"29.29"	"25.817"	"20.753"	"17.118"
"1935"	"14.934"	"19.06"	"24.893"	"27.983"	"35.209"	"35.588"	"30.32"	"28.684"	"28.625"	"25.806"	"20.814"	"16.324"
"1936"	"15.125"	"18.57"	"25.008"	"29.603"	"34.603"	"31.883"	"29.583"	"28.947"	"28.588"	"25.982"	"20.951"	"16.952"
"1937"	"14.709"	"18.749"	"23.473"	"29.004"	"33.656"	"34.088"	"30.759"	"28.052"	"28.774"	"25.153"	"21.288"	"15.419"
"1938"	"16.365"	"16.756"	"26.23"	"31.246"	"34.23"	"31.662"	"29.935"	"29.085"	"29.195"	"27.078"	"20.035"	"16.08"
"1939"	"17.076"	"19.127"	"23.666"	"29.54"	"35.509"	"33.256"	"30.068"	"28.71"	"28.535"	"26.767"	"20.532"	"16.18"
"1940"	"15.75"	"18.051"	"23.065"	"29.246"	"34.468"	"34.988"	"30.789"	"29.384"	"28.931"	"26.551"	"21.657"	"16.324"
"1941"	"16.092"	"19.166"	"26.935"	"32.81"	"34.71"	"33.089"	"31.678"	"29.757"	"29.546"	"27.739"	"20.867"	"17.115"
"1942"	"15.466"	"19.498"	"25.627"	"30.826"	"35.872"	"35.52"	"30.263"	"29.358"	"28.646"	"26.742"	"22.12"	"16.81"
"1943"	"18.469"	"18.815"	"26.05"	"29.098"	"35.488"	"35.097"	"30.927"	"28.479"	"29.453"	"26.58"	"21.537"	"17.604"
"1944"	"16.096"	"18.344"	"23.589"	"28.62"	"35.851"	"34.142"	"30.337"	"29.394"	"29.521"	"25.806"	"21.674"	"18.184"
"1945"	"14.639"	"18.193"	"25.478"	"28.81"	"34.215"	"35.125"	"31.435"	"30.421"	"29.179"	"25.474"	"20.479"	"15.325"
"1946"	"17.005"	"20.828"	"24.835"	"30.34"	"33.45"	"33.167"	"29.909"	"29.599"	"29.646"	"26.83"	"21.2"	"18.078"
"1947"	"15.708"	"19.538"	"26.271"	"32.105"	"35.056"	"35.819"	"30.253"	"29.583"	"29.389"	"26.446"	"21.827"	"17.214"
"1948"	"16.986"	"18.759"	"24.514"	"32.105"	"35.678"	"35.573"	"29.988"	"29.111"	"28.784"	"26.73"	"20.742"	"16.524"
"1949"	"17.614"	"19.476"	"25.399"	"31.104"	"33.945"	"35.257"	"30.911"	"29.085"	"29.347"	"27.272"	"19.474"	"15.623"
"1950"	"16.904"	"18.125"	"23.982"	"29.589"	"34.641"	"33.814"	"30.205"	"29.085"	"29.131"	"26.178"	"20.407"	"16.821"
"1951"	"15.434"	"18.582"	"24.635"	"29.446"	"33.967"	"34.526"	"31.152"	"29.379"	"28.984"	"28.577"	"22.231"	"16.662"
"1952"	"17.662"	"21.191"	"24.675"	"31.508"	"35.26"	"33.436"	"30.058"	"28.726"	"29.274"	"26.994"	"20.967"	"17.283"
"1953"	"16.144"	"20.993"	"28.451"	"31.168"	"35.203"	"34.478"	"29.237"	"28.236"	"28.722"	"25.895"	"20.449"	"18.593"
"1954"	"15.323"	"20.449"	"25.321"	"31.984"	"35.821"	"34.331"	"31.126"	"29.095"	"29.085"	"25.31"	"20.594"	"16.878"
"1955"	"16.487"	"19.184"	"26.894"	"29.714"	"34.572"	"34.099"	"29.405"	"29.085"	"28.842"	"26.014"	"20.779"	"17.381"
"1956"	"16.741"	"18.853"	"25.825"	"31.753"	"35.593"	"31.806"	"30.184"	"29.085"	"28.131"	"26.384"	"20.091"	"17.595"
"1957"	"16.902"	"18.224"	"24.107"	"30.315"	"34.756"	"34.834"	"30.68"	"29.779"	"28.828"	"26.615"	"21.68"	"17.929"
"1958"	"18.124"	"19.818"	"26.181"	"32.462"	"35.593"	"36.309"	"30.748"	"29.243"	"29.185"	"26.61"	"21.701"	"17.941"
"1959"	"16.83"	"18.381"	"25.972"	"31.404"	"34.551"	"35.171"	"30.873"	"29.221"	"29.254"	"26.788"	"21.521"	"17.473"
"1960"	"16.322"	"21.292"	"24.846"	"30.431"	"34.515"	"35.683"	"30.08"	"29.326"	"29.353"	"26.404"	"20.28"	"17.768"
"1961"	"16.83"	"17.685"	"26.145"	"31.006"	"34.888"	"34.174"	"30.68"	"29.085"	"28.922"	"26.093"	"20.125"	"14.004"
"1962"	"15.109"	"19.423"	"25.031"	"30.874"	"34.468"	"37.179"	"31.917"	"28.78"	"28.136"	"25.337"	"21.036"	"17.366"
"1963"	"15.052"	"20.251"	"24.877"	"30.471"	"33.104"	"33.147"	"30.275"	"29.479"	"28.653"	"26.999"	"23.219"	"17.155"
"1964"	"15.734"	"19.123"	"26.762"	"31.573"	"33.098"	"34.606"	"29.679"	"29.394"	"28.525"	"27.122"	"20.668"	"17.497"
"1965"	"17.518"	"19.715"	"24.382"	"29.2"	"34.159"	"36.54"	"31.273"	"29.835"	"28.653"	"26.977"	"22.398"	"16.842"
"1966"	"16.895"	"21.724"	"25.867"	"31.899"	"35.214"	"34.322"	"32.11"	"29.333"	"29.704"	"27.53"	"22.535"	"16.273"
"1967"	"15.466"	"20.55"	"23.793"	"29.694"	"34.097"	"35.408"	"30.305"	"28.251"	"28.589"	"26.277"	"21.17"	"17.714"
"1968"	"15.448"	"17.76"	"24.535"	"29.846"	"34.095"	"33.152"	"30.401"	"29.479"	"30.511"	"26.302"	"21.536"	"17.109"
"1969"	"16.461"	"20.378"	"27.771"	"31.778"	"33.219"	"35.783"	"29.93"	"28.599"	"28.583"	"27.536"	"23.01"	"17.051"
"1970"	"16.798"	"18.271"	"24.445"	"31.625"	"34.241"	"32.852"	"30.738"	"29.572"	"28.241"	"27.099"	"20.982"	"17.216"
"1971"	"15.698"	"18.289"	"24.302"	"29.288"	"31.51"	"31.341"	"28.827"	"27.963"	"28.88"	"26.183"	"20.741"	"17.115"
"1972"	"15.831"	"16.946"	"25.184"	"29.999"	"34.924"	"36.244"	"31.958"	"29.326"	"28.105"	"25.474"	"21.228"	"17.489"
"1973"	"16.783"	"20.638"	"24.745"	"32.33"	"34.982"	"34.523"	"31.534"	"29.096"	"28.521"	"26.131"	"20.438"	"15.961"
"1974"	"15.535"	"17.904"	"25.782"	"32.084"	"34.578"	"34.421"	"30.046"	"29.04"	"28.71"	"27.701"	"20.858"	"16.005"
"1975"	"15.641"	"18.64"	"24.83"	"31.599"	"35.558"	"33.797"	"29.18"	"28.784"	"28.484"	"27.415"	"19.753"	"16.247"
"1976"	"16.504"	"19.171"	"25.251"	"29.368"	"33.544"	"34.044"	"30.804"	"28.702"	"28.242"	"26.885"	"22.862"	"16.899"
"1977"	"15.813"	"19.235"	"26.352"	"30.517"	"32.714"	"33.62"	"29.417"	"29.268"	"28.704"	"27.005"	"23.457"	"17.778"
"1978"	"15.772"	"17.592"	"22.788"	"30.055"	"35.746"	"34.055"	"29.789"	"28.689"	"28.267"	"26.794"	"22.71"	"16.994"
"1979"	"17.265"	"18.178"	"23.761"	"30.224"	"33.844"	"33.341"	"30.14"	"29.824"	"30.014"	"28.392"	"24.782"	"18.371"
"1980"	"16.604"	"19.523"	"24.631"	"32.198"	"35.274"	"32.009"	"28.813"	"28.235"	"29.004"	"27.209"	"21.683"	"17.462"
"1981"	"16.472"	"19.808"	"24.503"	"30.155"	"33.207"	"34.036"	"29.21"	"29.268"	"28.851"	"26.314"	"20.547"	"16.609"
"1982"	"17.508"	"17.965"	"22.418"	"29.483"	"32.821"	"32.626"	"32.314"	"29.205"	"28.529"	"27.109"	"21.844"	"17.606"
"1983"	"15.125"	"18.419"	"24.145"	"28.305"	"32.189"	"34.584"	"30.301"	"29.746"	"29.405"	"26.415"	"20.38"	"17.351"
"1984"	"16.451"	"17.475"	"25.558"	"31.22"	"35.478"	"32.953"	"29.69"	"29.034"	"28.294"	"27.182"	"20.773"	"17.903"
"1985"	"16.976"	"19.198"	"27.124"	"31.503"	"35.145"	"34.946"	"29.479"	"29.284"	"28.982"	"25.904"	"21.699"	"18.619"
"1986"	"16.741"	"18.908"	"24.899"	"30.61"	"32.158"	"33.629"	"29.07"	"28.555"	"28.652"	"25.941"	"22.13"	"16.972"
"1987"	"16.051"	"20.119"	"24.348"	"30.931"	"33.235"	"36.667"	"31.416"	"30.21"	"29.522"	"27.157"	"21.988"	"16.699"
"1988"	"17.166"	"19.913"	"25.06"	"31.5"	"35.561"	"33.095"	"29.443"	"29.034"	"30.263"	"26.889"	"22.083"	"18.372"
"1989"	"15.657"	"18.776"	"24.351"	"30.219"	"34.929"	"32.836"	"29.895"	"29.139"	"29.08"	"27.172"	"21.898"	"17.03"
"1990"	"17.711"	"19.48"	"23.636"	"30.926"	"33.651"	"33.89"	"28.75"	"29.117"	"28.901"	"26.852"	"21.049"	"17.614"
"1991"	"16.149"	"20.241"	"25.324"	"30.036"	"34.931"	"33.422"	"31.742"	"28.425"	"29.18"	"26.109"	"21.597"	"17.235"
"1992"	"15.996"	"17.72"	"26.444"	"30.942"	"33.257"	"33.044"	"31.094"	"28.892"	"28.557"	"27.14"	"22.923"	"17.172"
"1993"	"16.799"	"20.334"	"23.329"	"29.52"	"34.265"	"33.859"	"31.53"	"30.376"	"28.651"	"27.907"	"21.732"	"17.805"
"1994"	"17.777"	"18.798"	"27.286"	"29.999"	"36.879"	"34.142"	"30.075"	"29.085"	"29.263"	"26.109"	"21.521"	"17.489"
"1995"	"15.457"	"19.322"	"23.718"	"30.675"	"35.738"	"35.845"	"30.947"	"28.765"	"28.448"	"27.383"	"21.754"	"18.33"
"1996"	"17.171"	"19.608"	"25.925"	"30.122"	"35.194"	"33.794"	"30.18"	"28.106"	"29.583"	"26.151"	"20.848"	"16.514"
"1997"	"16.005"	"18.056"	"25.124"	"29.594"	"33.272"	"35.134"	"32.78"	"29.284"	"28.404"	"25.756"	"21.447"	"17.667"
"1998"	"15.031"	"20.471"	"23.505"	"30.837"	"35.072"	"34.957"	"30.169"	"29.566"	"29.3"	"28.277"	"23.81"	"18.259"
"1999"	"15.762"	"20.574"	"25.47"	"32.129"	"34.127"	"33.456"	"30.19"	"29.096"	"28.51"	"27.515"	"23.974"	"18.2"
"2000"	"16.572"	"19.576"	"24.798"	"31.901"	"33.846"	"32.399"	"30.325"	"29.663"	"28.038"	"28.015"	"24.13"	"17.395"
"2001"	"15.693"	"19.74"	"24.935"	"29.771"	"33.84"	"32.343"	"29.689"	"29.795"	"29.705"	"27.732"	"23.258"	"17.936"
"2002"	"16.784"	"17.852"	"25.899"	"31.225"	"35.642"	"34.458"	"32.79"	"29.368"	"28.566"	"26.989"	"22.215"	"17.435"
