
"Year"	"Jan"	"Feb"	"Mar"	"Apr"	"May"	"Jun"	"Jul"	"Aug"	"Sep"	"Oct"	"Nov"	"Dec"
"1901"	"14.581"	"18.181"	"23.158"	"28.958"	"30.959"	"31.825"	"27.768"	"26.609"	"25.906"	"24.778"	"19.214"	"15.29"
"1902"	"16.412"	"18.437"	"25.815"	"28.443"	"31.716"	"31.853"	"27.341"	"27.438"	"26.233"	"24.1"	"18.815"	"15.013"
"1903"	"16.052"	"17.637"	"23.959"	"29.487"	"31.931"	"30.681"	"28.293"	"27.187"	"26.763"	"24.202"	"18.215"	"14.515"
"1904"	"15.737"	"17.937"	"24.283"	"30.116"	"30.559"	"29.024"	"26.139"	"26.334"	"26.233"	"24.075"	"18.588"	"16.287"
"1905"	"14.982"	"15.278"	"22.456"	"26.287"	"30.44"	"33.253"	"27.065"	"26.807"	"26.009"	"23.875"	"19.214"	"15.74"
"1906"	"15.281"	"18.112"	"22.387"	"29.358"	"32.411"	"30.778"	"27.416"	"26.735"	"26.734"	"24.177"	"19.444"	"16.044"
"1907"	"16.409"	"17.484"	"22.156"	"26.511"	"30.305"	"29.853"	"28.096"	"26.591"	"26.563"	"24.432"	"19.211"	"14.715"
"1908"	"14.155"	"18.437"	"23.685"	"30.962"	"32.284"	"31.31"	"27.444"	"26.747"	"26.888"	"24.149"	"18.516"	"14.616"
"1909"	"17.209"	"18.335"	"24.012"	"26.915"	"31.76"	"28.096"	"26.715"	"26.387"	"26.34"	"23.703"	"19.706"	"16.215"
"1910"	"15.181"	"18.065"	"24.112"	"29.389"	"31.433"	"29.225"	"27.14"	"26.491"	"26.588"	"24.202"	"18.644"	"14.944"
"1911"	"18.063"	"17.637"	"22.883"	"28.886"	"32.386"	"28.453"	"28.668"	"26.133"	"26.034"	"24.177"	"19.641"	"14.569"
"1912"	"15.984"	"19.436"	"23.984"	"28.269"	"31.184"	"31.382"	"27.369"	"26.563"	"26.233"	"24.202"	"18.687"	"14.744"
"1913"	"15.637"	"18.409"	"22.159"	"29.912"	"30.056"	"27.197"	"27.14"	"26.261"	"26.233"	"23.632"	"18.315"	"15.116"
"1914"	"15.959"	"19.036"	"23.208"	"27.343"	"29.887"	"29.478"	"26.994"	"26.788"	"26.233"	"23.275"	"19.993"	"15.844"
"1915"	"16.409"	"18.512"	"23.412"	"29.04"	"32.215"	"30.653"	"28.315"	"27.359"	"26.34"	"25.531"	"20.988"	"15.39"
"1916"	"14.957"	"19.008"	"25.243"	"29.944"	"33.106"	"28.096"	"27.24"	"26.634"	"26.463"	"24.703"	"19.415"	"14.315"
"1917"	"15.437"	"18.363"	"23.086"	"27.656"	"28.574"	"28.796"	"27.04"	"26.409"	"26.158"	"24.403"	"18.44"	"15.268"
"1918"	"14.781"	"18.409"	"24.311"	"27.987"	"30.99"	"27.397"	"28.665"	"25.906"	"26.29"	"23.747"	"18.959"	"15.131"
"1919"	"17.913"	"17.734"	"24.487"	"28.16"	"30.803"	"29.123"	"26.74"	"26.563"	"26.133"	"23.775"	"19.516"	"15.215"
"1920"	"15.705"	"18.412"	"23.937"	"29.015"	"30.274"	"31.7"	"26.915"	"26.563"	"26.289"	"24.631"	"19.715"	"15.343"
"1921"	"16.508"	"17.884"	"25.496"	"30.243"	"33.859"	"30.199"	"27.74"	"25.934"	"26.108"	"23.256"	"17.915"	"16.234"
"1922"	"15.711"	"18.865"	"24.613"	"29.187"	"32.586"	"27.924"	"26.366"	"25.734"	"25.434"	"22.503"	"18.516"	"14.916"
"1923"	"15.608"	"18.037"	"23.086"	"29.569"	"32.259"	"32.227"	"27.015"	"26.162"	"26.535"	"23.375"	"18.84"	"16.49"
"1924"	"15.906"	"18.737"	"25.54"	"30.088"	"31.76"	"32.481"	"26.712"	"26.687"	"25.909"	"24.249"	"19.115"	"15.471"
"1925"	"14.581"	"17.334"	"23.512"	"28.743"	"30.631"	"29.397"	"26.139"	"26.806"	"26.463"	"23.956"	"19.314"	"15.268"
"1926"	"15.809"	"19.209"	"23.183"	"26.73"	"30.299"	"33.05"	"27.668"	"26.662"	"25.959"	"23.604"	"17.688"	"15.558"
"1927"	"15.825"	"18.509"	"22.159"	"28.83"	"30.478"	"31.324"	"27.466"	"26.406"	"26.963"	"24.403"	"19.411"	"16.487"
"1928"	"16.221"	"18.781"	"24.884"	"28.258"	"31.486"	"28.852"	"26.715"	"27.034"	"26.991"	"25.031"	"19.69"	"16.24"
"1929"	"15.881"	"17.438"	"24.441"	"29.215"	"32.633"	"31.096"	"26.74"	"25.934"	"26.863"	"23.403"	"18.943"	"15.116"
"1930"	"15.109"	"17.812"	"24.412"	"28.415"	"30.834"	"30.825"	"26.615"	"26.434"	"26.634"	"24.803"	"19.115"	"15.144"
"1931"	"17.337"	"18.209"	"23.221"	"29.878"	"31.813"	"31.688"	"27.093"	"26.891"	"26.715"	"24.485"	"19.168"	"16.044"
"1932"	"17.037"	"17.862"	"24.43"	"28.761"	"31.458"	"31.681"	"27.35"	"26.662"	"26.743"	"24.703"	"19.371"	"15.758"
"1933"	"14.709"	"18.893"	"24.311"	"26.883"	"30.175"	"29.095"	"26.916"	"26.133"	"26.463"	"24.078"	"18.815"	"15.515"
"1934"	"15.209"	"18.037"	"23.784"	"29.187"	"31.856"	"30.106"	"27.115"	"26.563"	"26.588"	"23.504"	"18.843"	"16.143"
"1935"	"14.91"	"18.809"	"24.23"	"27.178"	"32.337"	"31.459"	"27.596"	"26.037"	"26.233"	"23.803"	"19.214"	"16.19"
"1936"	"15.056"	"18.137"	"24.684"	"28.522"	"31.052"	"28.353"	"26.696"	"26.634"	"26.062"	"23.275"	"19.768"	"16.287"
"1937"	"14.055"	"18.865"	"22.811"	"27.715"	"30.569"	"30.547"	"27.397"	"26.381"	"26.491"	"23.522"	"19.267"	"14.59"
"1938"	"16.952"	"17.234"	"25.73"	"29.85"	"30.482"	"28.425"	"27.121"	"26.334"	"26.809"	"24.603"	"18.89"	"14.988"
"1939"	"16.608"	"19.509"	"23.183"	"28.902"	"32.287"	"30.215"	"26.821"	"25.962"	"26.062"	"24.347"	"18.943"	"15.711"
"1940"	"14.985"	"18.509"	"22.659"	"28.095"	"31.433"	"31.096"	"26.796"	"26.51"	"26.327"	"24.603"	"20.794"	"16.431"
"1941"	"16.406"	"18.687"	"25.612"	"30.518"	"31.856"	"29.379"	"27.297"	"26.807"	"26.634"	"23.731"	"19.143"	"16.633"
"1942"	"15.825"	"18.478"	"24.258"	"28.659"	"32.73"	"31.897"	"26.868"	"26.09"	"25.606"	"23.875"	"20.365"	"15.991"
"1943"	"17.64"	"17.238"	"24.14"	"27.259"	"31.959"	"30.134"	"26.869"	"25.906"	"26.609"	"25.021"	"19.784"	"16.586"
"1944"	"16.15"	"18.706"	"23.03"	"26.587"	"32.874"	"30.894"	"26.768"	"26.259"	"26.847"	"23.618"	"19.659"	"17.559"
"1945"	"15.253"	"17.453"	"24.455"	"27.234"	"31.053"	"31.052"	"27.372"	"27.537"	"26.581"	"23.322"	"18.934"	"14.559"
"1946"	"15.884"	"20.005"	"23.856"	"27.075"	"30.732"	"29.479"	"26.444"	"26.491"	"26.205"	"24.149"	"20.031"	"17.469"
"1947"	"16.027"	"18.509"	"24.613"	"29.931"	"31.899"	"31.381"	"27.24"	"26.737"	"26.535"	"23.975"	"19.884"	"16.586"
"1948"	"17.381"	"19.036"	"23.268"	"29.715"	"31.943"	"31.066"	"26.597"	"26.243"	"26.105"	"24.146"	"20.336"	"15.147"
"1949"	"16.337"	"18.285"	"24.081"	"28.144"	"30.044"	"30.996"	"27.115"	"26.506"	"26.158"	"24.803"	"17.987"	"14.975"
"1950"	"16.477"	"18.256"	"23.108"	"28.302"	"31.859"	"29.225"	"26.843"	"26.136"	"26.133"	"23.632"	"18.512"	"15.834"
"1951"	"15.153"	"18.509"	"24.04"	"27.987"	"31.785"	"31.006"	"27.165"	"27.287"	"26.907"	"25.903"	"20.222"	"16.206"
"1952"	"17.009"	"20.612"	"24.143"	"28.215"	"32.043"	"30.6"	"27.45"	"26.491"	"26.208"	"24.403"	"19.512"	"16.431"
"1953"	"16.009"	"20.237"	"26.912"	"29.584"	"32.555"	"30.753"	"26.64"	"26.419"	"26.059"	"24.174"	"18.959"	"17.344"
"1954"	"15.035"	"20.638"	"24.012"	"30.587"	"32.53"	"29.691"	"27.325"	"26.719"	"26.186"	"22.774"	"17.79"	"15.941"
"1955"	"16.337"	"18.809"	"25.94"	"28.231"	"32.53"	"31.224"	"26.584"	"26.434"	"26.377"	"24.419"	"19.483"	"16.187"
"1956"	"16.652"	"18.518"	"25.412"	"30.169"	"32.287"	"27.578"	"26.625"	"26.062"	"25.43"	"23.45"	"18.559"	"17.24"
"1957"	"17.181"	"17.98"	"23.24"	"29.162"	"33.3"	"31.628"	"26.822"	"26.866"	"26.265"	"24.703"	"19.687"	"17.215"
"1958"	"17.681"	"19.59"	"25.74"	"30.687"	"33.272"	"33.197"	"27.968"	"26.634"	"26.233"	"25.146"	"20.548"	"17.463"
"1959"	"17.024"	"18.453"	"24.513"	"29.641"	"32.499"	"30.756"	"27.272"	"26.535"	"25.934"	"24.643"	"19.368"	"15.891"
"1960"	"16.121"	"20.252"	"23.512"	"29.487"	"31.735"	"31.262"	"26.696"	"26.647"	"26.283"	"24.432"	"18.644"	"16.614"
"1961"	"16.808"	"17.294"	"24.984"	"29.455"	"32.53"	"29.095"	"26.668"	"26.709"	"26.161"	"23.859"	"18.415"	"13.23"
"1962"	"14.155"	"18.512"	"23.155"	"28.839"	"31.053"	"30.454"	"27.969"	"26.506"	"26.031"	"22.971"	"19.516"	"16.561"
"1963"	"14.581"	"20.108"	"23.909"	"28.59"	"30.184"	"29.625"	"27.012"	"26.86"	"26.149"	"24.603"	"20.602"	"17.416"
"1964"	"16.052"	"18.352"	"25.211"	"29.615"	"30.378"	"30.24"	"25.355"	"26.563"	"26.233"	"24.381"	"19.261"	"16.611"
"1965"	"16.78"	"19.08"	"22.883"	"27.303"	"30.764"	"32.024"	"27.469"	"26.734"	"25.975"	"24.5"	"20.515"	"15.633"
"1966"	"16.034"	"20.555"	"24.559"	"30.462"	"32.648"	"31.096"	"28.34"	"26.804"	"26.807"	"24.703"	"21.816"	"16.112"
"1967"	"16.805"	"20.508"	"23.241"	"27.515"	"31.477"	"32.127"	"27.894"	"26.208"	"26.105"	"23.618"	"19.258"	"17.659"
"1968"	"16.081"	"18.206"	"23.984"	"28.506"	"31.843"	"28.981"	"26.766"	"26.259"	"27.109"	"23.703"	"19.317"	"16.983"
"1969"	"15.781"	"20.309"	"25.812"	"29.687"	"30.462"	"30.753"	"27.294"	"26.161"	"25.734"	"24.575"	"20.916"	"16.714"
"1970"	"17.109"	"18.653"	"23.859"	"29.991"	"31.777"	"28.771"	"26.74"	"26.51"	"25.759"	"23.931"	"18.715"	"15.044"
"1971"	"15.48"	"17.924"	"22.839"	"26.324"	"28.387"	"27.341"	"25.565"	"25.133"	"25.709"	"23.978"	"18.812"	"15.614"
"1972"	"15.253"	"16.452"	"23.884"	"28.587"	"32.206"	"31.725"	"27.441"	"26.935"	"24.962"	"23.322"	"19.372"	"15.959"
"1973"	"15.881"	"19.49"	"22.74"	"29.371"	"31.071"	"29.035"	"27.068"	"26.835"	"25.762"	"24.202"	"19.487"	"16.14"
"1974"	"14.637"	"17.909"	"24.012"	"29.243"	"30.887"	"30.953"	"26.869"	"26.706"	"26.463"	"25.13"	"19.214"	"14.286"
"1975"	"15.106"	"18.784"	"23.784"	"29.143"	"31.785"	"29.996"	"26.167"	"26.409"	"25.762"	"25.003"	"19.559"	"15.515"
"1976"	"15.984"	"19.634"	"24.484"	"28.312"	"30.415"	"30.625"	"27.312"	"26.506"	"25.781"	"24.747"	"21.555"	"16.686"
"1977"	"15.781"	"18.865"	"25.708"	"28.643"	"28.344"	"29.325"	"26.609"	"26.981"	"26.535"	"24.1"	"21.243"	"14.813"
"1978"	"14.935"	"18.456"	"22.284"	"27.772"	"31.562"	"29.181"	"26.74"	"26.809"	"26.062"	"23.978"	"20.819"	"16.187"
"1979"	"16.834"	"16.755"	"23.409"	"28.715"	"31.884"	"31.012"	"27.913"	"27.715"	"25.715"	"25.059"	"22.462"	"17.025"
"1980"	"16.508"	"19.237"	"23.387"	"30.315"	"31.386"	"28.855"	"26.597"	"26.115"	"26.205"	"24.378"	"20.44"	"16.786"
"1981"	"15.508"	"18.809"	"23.515"	"27.474"	"29.671"	"30.528"	"26.866"	"27.159"	"26.791"	"24.202"	"19.559"	"15.934"
"1982"	"17.906"	"18.634"	"22.64"	"28.443"	"31.122"	"29.725"	"29.412"	"26.888"	"27.078"	"24.647"	"20.23"	"16.706"
"1983"	"15.325"	"18.64"	"24.409"	"27.715"	"30.231"	"31.539"	"27.84"	"27.463"	"27.19"	"24.003"	"19.358"	"16.518"
"1984"	"16.455"	"17.665"	"24.365"	"29.815"	"32.33"	"28.025"	"26.684"	"26.306"	"26.031"	"24.731"	"18.715"	"16.639"
"1985"	"17.137"	"18.465"	"25.549"	"29.644"	"31.3"	"31.052"	"26.269"	"26.762"	"26.484"	"23.906"	"20.015"	"17.715"
"1986"	"16.102"	"18.709"	"23.468"	"28.871"	"29.69"	"30.271"	"26.441"	"25.962"	"25.906"	"23.403"	"20.726"	"16.633"
"1987"	"15.752"	"19.592"	"23.84"	"28.571"	"30.484"	"31.981"	"27.068"	"26.161"	"26.233"	"24.346"	"20.256"	"16.984"
"1988"	"16.805"	"19.565"	"23.84"	"29.168"	"31.791"	"28.578"	"27.14"	"27.278"	"27.834"	"25.046"	"20.231"	"17.956"
"1989"	"15.596"	"19.615"	"24.585"	"29.775"	"31.716"	"28.699"	"27.012"	"26.678"	"26.762"	"24.875"	"20.415"	"16.431"
"1990"	"17.225"	"19.509"	"22.715"	"28.674"	"29.53"	"29.825"	"26.209"	"26.978"	"26.91"	"23.403"	"20.813"	"17.016"
"1991"	"15.465"	"20.527"	"23.959"	"28.187"	"32.084"	"28.596"	"27.812"	"26.077"	"26.18"	"24.227"	"19.486"	"15.789"
"1992"	"15.178"	"17.153"	"24.815"	"29.187"	"30.106"	"30.074"	"28.268"	"26.882"	"26.634"	"24.731"	"21.041"	"16.614"
"1993"	"17.009"	"20.666"	"23.741"	"28.244"	"31.741"	"31.553"	"28.093"	"26.707"	"26.233"	"25.031"	"19.289"	"16.343"
"1994"	"17.434"	"18.734"	"24.893"	"27.94"	"31.731"	"30.024"	"26.687"	"26.331"	"26.233"	"24.928"	"20.716"	"16.786"
"1995"	"14.878"	"18.925"	"23.44"	"28.986"	"30.959"	"31.953"	"27.115"	"26.302"	"26.158"	"24.606"	"20.67"	"17.015"
"1996"	"16.781"	"18.008"	"25.239"	"27.462"	"32.156"	"28.796"	"27.012"	"25.978"	"26.91"	"24.407"	"20.343"	"15.843"
"1997"	"15.58"	"17.681"	"24.236"	"26.818"	"30.732"	"31.725"	"26.712"	"26.434"	"25.834"	"24.8"	"21.088"	"17.24"
"1998"	"15.665"	"19.209"	"21.587"	"27.584"	"30.502"	"32.599"	"26.684"	"27.034"	"26.734"	"26.535"	"21.041"	"17.615"
"1999"	"15.68"	"19.809"	"24.809"	"30.615"	"31.162"	"29.95"	"26.869"	"26.634"	"26.062"	"25.46"	"21.296"	"17.787"
"2000"	"16.356"	"18.309"	"23.585"	"29.843"	"31.184"	"29.148"	"27.743"	"27.006"	"25.781"	"25.859"	"22.097"	"16.742"
"2001"	"15.884"	"18.653"	"24.183"	"29.187"	"31.816"	"28.225"	"26.24"	"27.159"	"27.006"	"26.158"	"22.371"	"18.272"
"2002"	"16.03"	"19.908"	"25.012"	"29.115"	"32.262"	"30.881"	"28.369"	"26.56"	"26.284"	"24.529"	"20.49"	"17.796"
