
"Year"	"Jan"	"Feb"	"Mar"	"Apr"	"May"	"Jun"	"Jul"	"Aug"	"Sep"	"Oct"	"Nov"	"Dec"
"1901"	"36.899"	"34.689"	"5.333"	"16.319"	"38.423"	"86.931"	"272.97"	"348.774"	"203.687"	"44.018"	"19.02"	"0"
"1902"	"1.698"	"0.651"	"20.179"	"47.125"	"46.977"	"117.326"	"341.211"	"248.525"	"391.183"	"35.521"	"0.401"	"4.601"
"1903"	"5.393"	"18.284"	"14.149"	"33.977"	"51.869"	"169.229"	"135.213"	"299.354"	"191.842"	"148.714"	"0.825"	"0"
"1904"	"0.031"	"6.089"	"45.864"	"3.025"	"209.701"	"419.2"	"362.724"	"322.465"	"95.035"	"21.831"	"4.698"	"0.03"
"1905"	"16.932"	"57.202"	"55.899"	"28.688"	"83.747"	"54.467"	"398.491"	"392.618"	"283.036"	"34.627"	"0"	"0.22"
"1906"	"30.392"	"114.368"	"39.227"	"0.896"	"41.177"	"238.157"	"282.16"	"243.839"	"144.174"	"158.143"	"2.209"	"0.152"
"1907"	"0.081"	"50.795"	"57.79"	"42.008"	"44.949"	"284.009"	"204.038"	"247.056"	"217.052"	"24.207"	"0"	"3.888"
"1908"	"13.675"	"53.217"	"6.924"	"0.616"	"37.149"	"353.621"	"351.687"	"318.454"	"128.883"	"38.264"	"0.223"	"0.362"
"1909"	"13.993"	"10.596"	"0.205"	"84.365"	"33.318"	"354.443"	"213.613"	"455.062"	"213.855"	"23.096"	"1.21"	"5.525"
"1910"	"2.661"	"47.93"	"28.151"	"35.784"	"38.718"	"208.055"	"315.206"	"370.615"	"209.792"	"87.335"	"4.218"	"0"
"1911"	"0.719"	"0.319"	"37.134"	"5.174"	"38.198"	"651.699"	"140.811"	"301.161"	"261.766"	"137.489"	"12.954"	"0"
"1912"	"0.211"	"6.663"	"30.435"	"41.718"	"59.319"	"208.733"	"318.698"	"303.48"	"55.889"	"41.557"	"19.776"	"0.108"
"1913"	"0.025"	"48.557"	"44.837"	"3.847"	"94.738"	"558.395"	"198.751"	"380.674"	"193.127"	"72.405"	"3.383"	"10.427"
"1914"	"0"	"44.501"	"23.057"	"35.114"	"93.032"	"142.036"	"459.488"	"378.347"	"116.819"	"30.23"	"0"	"8.698"
"1915"	"3.074"	"26.748"	"40.883"	"8.803"	"62.75"	"242.794"	"252.761"	"341.33"	"234.366"	"55.598"	"18.827"	"0"
"1916"	"0"	"10.483"	"3.516"	"18.895"	"24.9"	"454.518"	"302.268"	"340.576"	"303.135"	"285.89"	"6.746"	"0"
"1917"	"1.767"	"47.344"	"14.385"	"15.682"	"104.048"	"211.692"	"310.442"	"250.193"	"306.046"	"280.932"	"3.136"	"0.03"
"1918"	"2.443"	"0.223"	"13.237"	"36.346"	"73.506"	"303.263"	"103.946"	"546.755"	"205.44"	"11.825"	"0.223"	"3.39"
"1919"	"18.996"	"31.31"	"20.003"	"20.122"	"78.149"	"261.403"	"284.071"	"466.247"	"175.732"	"123.533"	"11.238"	"0"
"1920"	"0.003"	"34.46"	"73.212"	"5.904"	"39.12"	"117.525"	"515.421"	"316.4"	"328.53"	"20.492"	"0.037"	"0"
"1921"	"36.805"	"4.609"	"10.485"	"15.352"	"24.23"	"250.665"	"294.405"	"467.282"	"174.875"	"27.587"	"0"	"0"
"1922"	"9.142"	"6.066"	"0.205"	"8.401"	"19.664"	"516.134"	"319.652"	"372.473"	"325.491"	"47.24"	"0.949"	"5.064"
"1923"	"0.811"	"71.728"	"6.372"	"4.449"	"15.871"	"155.592"	"263.247"	"397.753"	"158.65"	"84.53"	"4.481"	"1.39"
"1924"	"8.068"	"15.132"	"0.776"	"21.957"	"26.237"	"270.531"	"355.253"	"369.032"	"255.559"	"88.769"	"29.162"	"0"
"1925"	"50.497"	"16.351"	"8.872"	"54.802"	"51.596"	"324.172"	"456.579"	"318.151"	"221.744"	"39.213"	"4.109"	"0"
"1926"	"30.362"	"0.913"	"86.34"	"16.241"	"99.008"	"69.396"	"439.574"	"378.563"	"226.074"	"55.645"	"0.519"	"6.705"
"1927"	"20.297"	"120.149"	"47.207"	"5.841"	"51.58"	"267.648"	"302.243"	"327.586"	"101.714"	"51.52"	"15.057"	"0"
"1928"	"49.553"	"2.91"	"1.894"	"21.166"	"78.138"	"467.428"	"446.947"	"218.576"	"237.104"	"125.319"	"0.034"	"0.831"
"1929"	"32.67"	"5.862"	"22.813"	"23.272"	"40.014"	"170.003"	"357.882"	"225.096"	"97.334"	"306.707"	"0.034"	"6.293"
"1930"	"0.983"	"15.817"	"8.212"	"13.545"	"42.679"	"173.132"	"404.629"	"269.863"	"177.511"	"58.053"	"19.98"	"4.647"
"1931"	"15.93"	"97.111"	"28.401"	"2.84"	"50.729"	"152.57"	"426.127"	"236.716"	"398.329"	"62.162"	"10.596"	"0.619"
"1932"	"0.017"	"59.438"	"7.086"	"18.208"	"93.834"	"67.876"	"377.522"	"284.177"	"238.327"	"47.559"	"24.057"	"3.411"
"1933"	"48.119"	"20.259"	"2.437"	"43.631"	"75.866"	"299.759"	"293.735"	"454.015"	"152.743"	"89.919"	"0"	"0"
"1934"	"10.098"	"39.634"	"1.582"	"36.676"	"31.035"	"210.691"	"248.318"	"369.968"	"274.29"	"67.143"	"7.782"	"2.26"
"1935"	"15.883"	"15.138"	"11.845"	"14.693"	"13.313"	"182"	"218.38"	"589.629"	"317.871"	"8.998"	"0"	"1.457"
"1936"	"6.658"	"12.164"	"19.891"	"4.174"	"120.935"	"277.444"	"303.516"	"253.968"	"461.567"	"114.549"	"0.159"	"15.375"
"1937"	"0"	"52.468"	"7.724"	"49.064"	"57.082"	"234.678"	"201.342"	"422.427"	"286.439"	"148.471"	"0.858"	"0.641"
"1938"	"3.171"	"31.489"	"8.302"	"2.66"	"121.08"	"315.716"	"175.057"	"294.708"	"110.816"	"53.773"	"0.874"	"0"
"1939"	"9.559"	"18.42"	"11.321"	"13.187"	"29.371"	"213.86"	"481.952"	"350.576"	"312.278"	"129.607"	"1.941"	"0.219"
"1940"	"0"	"38.804"	"94.179"	"8.431"	"53.982"	"145.666"	"253.823"	"361.909"	"164.671"	"41.76"	"0"	"2.052"
"1941"	"35.003"	"1.016"	"13.081"	"12.532"	"42.227"	"351.675"	"331.366"	"429.377"	"254.065"	"165.835"	"19.872"	"0"
"1942"	"2.45"	"82.793"	"15.735"	"12.043"	"12.736"	"124.085"	"425.275"	"569.896"	"441.477"	"67.295"	"1.767"	"0.362"
"1943"	"39.908"	"17.527"	"16.525"	"84.03"	"55.555"	"183.291"	"622.605"	"407.869"	"237.137"	"66.968"	"0"	"0"
"1944"	"15.034"	"63.679"	"71.219"	"28.474"	"40.249"	"196.683"	"387.927"	"536.304"	"136.777"	"71.38"	"0"	"0"
"1945"	"31.954"	"35.701"	"6.147"	"51.811"	"55.831"	"208.427"	"244.889"	"360.154"	"312.948"	"170.7"	"0"	"0.831"
"1946"	"0"	"3.304"	"22.196"	"32.753"	"70.804"	"213.631"	"308.216"	"333.307"	"270.285"	"176.382"	"17.488"	"0.109"
"1947"	"5.021"	"14.12"	"31.591"	"3.87"	"43.195"	"213.989"	"332.847"	"312.2"	"348.534"	"67.057"	"0.018"	"4.6"
"1948"	"5.442"	"16.161"	"21.094"	"63.877"	"61.205"	"201.644"	"313.706"	"302.062"	"146.919"	"105.319"	"24.738"	"0.109"
"1949"	"1.139"	"19.172"	"22.269"	"34.891"	"119.02"	"336.47"	"330.064"	"490.165"	"163.702"	"70.09"	"0"	"0"
"1950"	"0.147"	"9.252"	"59.908"	"10.26"	"27.124"	"431.534"	"314.119"	"338.369"	"162.671"	"64.448"	"13.561"	"0.632"
"1951"	"5.917"	"0.377"	"53.128"	"17.559"	"23.547"	"217.602"	"444.304"	"361.718"	"305.828"	"107.163"	"19.358"	"0"
"1952"	"0.056"	"14.473"	"39.911"	"39.605"	"26.565"	"262.339"	"305.288"	"297.335"	"235.479"	"109.054"	"15.795"	"0.206"
"1953"	"47.821"	"17.311"	"30.391"	"2.805"	"23.756"	"224.362"	"385.253"	"287.606"	"302.925"	"13.452"	"1.329"	"0"
"1954"	"16.572"	"8.538"	"1.295"	"1.188"	"40.057"	"269.822"	"267.323"	"311.419"	"308.652"	"65.137"	"0"	"5.525"
"1955"	"34.475"	"11.649"	"14.819"	"19.94"	"24.532"	"181.227"	"327.831"	"179.459"	"187.46"	"120.988"	"18.575"	"0.032"
"1956"	"11.882"	"55.508"	"28.941"	"38.885"	"103.862"	"367.624"	"245.057"	"383.525"	"333.708"	"155.89"	"18.509"	"3.702"
"1957"	"28.456"	"17.8"	"26.607"	"4.378"	"3.38"	"120.486"	"282.236"	"184.543"	"264.144"	"77.145"	"0"	"0.041"
"1958"	"11.062"	"38.359"	"17.4"	"17.485"	"18.441"	"111.397"	"348.638"	"515.233"	"231.828"	"155.236"	"2.763"	"0"
"1959"	"11.884"	"1.577"	"10.004"	"11.868"	"51.256"	"168.193"	"268.864"	"333.921"	"264.834"	"341.932"	"0"	"0.526"
"1960"	"0.811"	"0.219"	"44.84"	"3.876"	"29.974"	"145.227"	"309.801"	"288.92"	"215.13"	"69.13"	"1.225"	"0"
"1961"	"13.768"	"115.852"	"1.122"	"0.513"	"32.178"	"236.761"	"161.993"	"386.947"	"300.215"	"127.049"	"1.216"	"3.152"
"1962"	"14.084"	"18.717"	"3.937"	"5.874"	"40.404"	"174.145"	"218.152"	"428.825"	"158.723"	"74.593"	"0"	"1.862"
"1963"	"1.178"	"4.341"	"32.744"	"53.819"	"104.977"	"278.707"	"272.994"	"174.935"	"226.368"	"241.331"	"8.954"	"0.018"
"1964"	"0.108"	"3.413"	"13.656"	"53.623"	"50.871"	"199.505"	"295.482"	"295.168"	"180.89"	"71.742"	"8.158"	"0"
"1965"	"0.868"	"20.248"	"10.95"	"31.194"	"17.74"	"115.447"	"267.881"	"356.403"	"221.805"	"45.428"	"2.655"	"2.046"
"1966"	"47.437"	"3.78"	"1.119"	"6.686"	"11.856"	"191.099"	"111.602"	"294.144"	"149.405"	"31.688"	"23.708"	"14.979"
"1967"	"12.755"	"1.312"	"56.848"	"44.369"	"25.422"	"179.089"	"237.774"	"426.206"	"142.764"	"37.236"	"0"	"1.432"
"1968"	"16.045"	"8.722"	"11.131"	"9.656"	"15.809"	"403.471"	"341.308"	"360.436"	"101.186"	"129.597"	"9.436"	"2.529"
"1969"	"2.314"	"7.357"	"27.725"	"32.246"	"67.139"	"167.076"	"310.341"	"405.15"	"209.198"	"60.635"	"11.369"	"0"
"1970"	"18.954"	"15.779"	"21.368"	"2.745"	"38.846"	"232.172"	"281.305"	"251.105"	"316.562"	"153.739"	"5.895"	"0"
"1971"	"27.967"	"38.054"	"7.117"	"120.223"	"99.405"	"391.477"	"456.597"	"621.535"	"309.085"	"93.652"	"4.625"	"0"
"1972"	"7.318"	"41.919"	"1.282"	"20.622"	"13.679"	"74.678"	"179.491"	"437.424"	"164.662"	"96.623"	"6.362"	"0.349"
"1973"	"7.734"	"5.482"	"24.793"	"5.526"	"84.671"	"416.682"	"243.629"	"260.681"	"513.975"	"189.807"	"19.46"	"14.676"
"1974"	"1.87"	"0.591"	"53.142"	"14.074"	"62.37"	"97.409"	"305.871"	"222.525"	"367.844"	"89.563"	"3.254"	"0.677"
"1975"	"11.59"	"8.943"	"13.228"	"7.865"	"54.781"	"145.508"	"368.616"	"169.358"	"218.73"	"96.492"	"6.768"	"0"
"1976"	"0.48"	"16.329"	"4.573"	"26.007"	"70.322"	"66.543"	"354.51"	"266.036"	"346.927"	"23.903"	"0.893"	"0"
"1977"	"3.652"	"32.54"	"1.103"	"41.395"	"135.388"	"371.002"	"615.173"	"204.602"	"165.431"	"86.215"	"20.07"	"19.243"
"1978"	"1.783"	"76.177"	"55.998"	"59.286"	"67.193"	"303.8"	"320.361"	"343.157"	"515.752"	"149.831"	"14.66"	"6.011"
"1979"	"32.732"	"41.843"	"3.965"	"33.924"	"16.852"	"92.286"	"272.245"	"230.274"	"208.613"	"61.239"	"8.323"	"21.91"
"1980"	"25.025"	"17.088"	"53.681"	"1.645"	"70.967"	"319.103"	"266.412"	"287.581"	"117.647"	"68.666"	"3.222"	"0.349"
"1981"	"14.71"	"23.556"	"49.201"	"66.881"	"93.365"	"125.122"	"359.287"	"210.913"	"197.292"	"0.974"	"2.807"	"10.264"
"1982"	"6.594"	"14.487"	"41.656"	"55.7"	"36.157"	"124.72"	"165.638"	"318.605"	"216.629"	"27.396"	"7.957"	"0.669"
"1983"	"9.616"	"25.633"	"28.777"	"28.758"	"96.794"	"201.579"	"329.251"	"249.106"	"130.816"	"137.766"	"0.234"	"4.065"
"1984"	"27.811"	"18.168"	"4.517"	"38.893"	"40.476"	"532.106"	"332.459"	"317.695"	"331.205"	"58.137"	"0"	"0"
"1985"	"10.869"	"8.386"	"1.37"	"15.309"	"40.183"	"144.335"	"389.753"	"214.008"	"175.935"	"96.892"	"0.733"	"9.174"
"1986"	"9.926"	"14.273"	"1.06"	"34.341"	"70.42"	"196.806"	"309.176"	"243.806"	"397.119"	"65.729"	"21.357"	"3.906"
"1987"	"1.279"	"4.106"	"16.936"	"32.014"	"49.481"	"80.855"	"250.562"	"250.37"	"142.81"	"37.327"	"13.383"	"2.358"
"1988"	"5.604"	"35.183"	"31.49"	"8.128"	"56.576"	"160.182"	"266.058"	"413.963"	"128.953"	"66.314"	"16.923"	"1.999"
"1989"	"4.732"	"0.807"	"5.864"	"0.657"	"85.034"	"245.639"	"210.605"	"301.59"	"264.099"	"87.446"	"6.154"	"7.005"
"1990"	"0"	"20.589"	"28.707"	"19.829"	"145.361"	"318.629"	"511.082"	"256.196"	"279.434"	"238.281"	"5.53"	"0.458"
"1991"	"3.068"	"6.036"	"38.788"	"11.933"	"39.562"	"183.374"	"270.567"	"506.43"	"229.275"	"80.552"	"2.312"	"12.327"
"1992"	"13.565"	"7.021"	"1.779"	"8.386"	"42.302"	"182.386"	"304.675"	"189.513"	"157.029"	"57.397"	"0.098"	"0.017"
"1993"	"5.358"	"1.155"	"36.892"	"38.343"	"64.123"	"264.137"	"234.81"	"311.401"	"323.893"	"114.647"	"5.914"	"0"
"1994"	"24.792"	"32.376"	"28.722"	"39.61"	"46.439"	"142.889"	"264.561"	"354.86"	"100.144"	"161.999"	"2.192"	"0"
"1995"	"14.497"	"24.612"	"20.797"	"11.365"	"51.864"	"89.699"	"246.254"	"241.47"	"357.816"	"70.969"	"13.919"	"0.091"
"1996"	"10.16"	"16.425"	"5.555"	"23.998"	"33.335"	"191.959"	"163.068"	"425.837"	"139.454"	"156.054"	"0"	"0"
"1997"	"22.112"	"10.853"	"22.899"	"30.882"	"105.963"	"57.675"	"282.185"	"374.807"	"217.464"	"60.342"	"13.904"	"11.511"
"1998"	"16.17"	"50.947"	"18.653"	"26.302"	"97.016"	"115.506"	"191.898"	"250.163"	"226.71"	"279.459"	"20.021"	"0"
"1999"	"8.057"	"5.815"	"0.986"	"0.914"	"84.224"	"179.892"	"265.828"	"385.12"	"310.955"	"68.048"	"7.108"	"0"
"2000"	"5.285"	"34.939"	"3.341"	"35.362"	"66.853"	"209.329"	"140.646"	"223.305"	"223.134"	"26.006"	"3.059"	"0.874"
"2001"	"1.083"	"5.53"	"43.756"	"22.354"	"71.155"	"154.184"	"197.177"	"268.385"	"105.392"	"136.325"	"4.768"	"0"
"2002"	"21.02"	"9.741"	"11.117"	"34.51"	"34.197"	"159.01"	"207.541"	"327.272"	"198.448"	"106.947"	"11.238"	"0"
