
"Year"	"Jan"	"Feb"	"Mar"	"Apr"	"May"	"Jun"	"Jul"	"Aug"	"Sep"	"Oct"	"Nov"	"Dec"
"1901"	"21.306"	"20.837"	"25.711"	"28.035"	"28.117"	"26.904"	"25.19"	"24.561"	"25.279"	"25.847"	"23.183"	"22.111"
"1902"	"22.411"	"23.014"	"26.26"	"27.982"	"29.462"	"27.625"	"26.112"	"25.765"	"24.872"	"26.324"	"22.583"	"21.906"
"1903"	"21.489"	"21.363"	"24.094"	"27.69"	"28.473"	"27.928"	"25.39"	"25.035"	"25.227"	"24.566"	"22.592"	"21.199"
"1904"	"21.62"	"22.288"	"24.473"	"27.659"	"29.012"	"26.988"	"25.534"	"25.695"	"25.019"	"25.62"	"22.05"	"21.439"
"1905"	"20.715"	"21.357"	"23.517"	"25.839"	"29.826"	"28.024"	"25.523"	"25.042"	"24.856"	"26.534"	"23.715"	"20.981"
"1906"	"21.116"	"21.498"	"24.814"	"28.552"	"29.559"	"26.493"	"25.195"	"25.17"	"24.217"	"25.041"	"24.026"	"22.643"
"1907"	"21.905"	"22.774"	"24.949"	"26.233"	"28.082"	"27.007"	"25.455"	"23.878"	"24.849"	"26.343"	"24.305"	"20.851"
"1908"	"21.223"	"22.09"	"25.006"	"28.527"	"28.674"	"27.594"	"24.601"	"24.367"	"25.353"	"25.834"	"22.528"	"19.883"
"1909"	"22.344"	"22.78"	"26.846"	"26.691"	"29.399"	"26.297"	"24.566"	"25.175"	"24.589"	"25.222"	"23.402"	"22.815"
"1910"	"21.56"	"22.249"	"25.576"	"28.345"	"28.901"	"26.989"	"25.674"	"24.92"	"24.621"	"24.548"	"21.233"	"20.637"
"1911"	"22.274"	"21.916"	"24.5"	"27.887"	"29.858"	"26.427"	"26.115"	"24.563"	"25.133"	"27.225"	"25.317"	"23.067"
"1912"	"22.201"	"23.529"	"25.817"	"29.071"	"29.578"	"28.946"	"25.968"	"25.122"	"25.841"	"25.979"	"23.143"	"21.451"
"1913"	"20.638"	"23.748"	"24.964"	"29.115"	"28.825"	"25.734"	"25.241"	"24.907"	"25.313"	"25.842"	"23.574"	"23.144"
"1914"	"21.778"	"23.414"	"24.846"	"27.364"	"29.64"	"27.169"	"24.956"	"24.839"	"25.108"	"25.766"	"24.254"	"22.595"
"1915"	"21.958"	"22.561"	"25.093"	"28.168"	"29.009"	"28.478"	"25.932"	"25.066"	"25.213"	"25.157"	"24.921"	"21.045"
"1916"	"21.737"	"22.281"	"26.56"	"28.605"	"29.753"	"26.053"	"26.469"	"25.248"	"25.409"	"25.472"	"23.895"	"20.983"
"1917"	"21.345"	"22.185"	"24.5"	"26.475"	"27.962"	"26.03"	"25.699"	"25.531"	"24.93"	"24.384"	"22.363"	"21.004"
"1918"	"20.465"	"22.991"	"24.785"	"26.754"	"27.69"	"26.548"	"26.583"	"25.725"	"25.66"	"27.104"	"25.561"	"23.205"
"1919"	"22.558"	"23.607"	"25.851"	"27.705"	"28.889"	"26.325"	"25.319"	"25.165"	"25.281"	"25.402"	"24.834"	"21.509"
"1920"	"22.609"	"22.213"	"25.619"	"27.66"	"28.196"	"26.77"	"24.713"	"24.94"	"25.694"	"26.135"	"23.611"	"21.855"
"1921"	"22.316"	"22.433"	"26.616"	"29.085"	"29.299"	"27.288"	"25.879"	"24.568"	"24.637"	"25.466"	"22.634"	"21.848"
"1922"	"22.245"	"23.485"	"25.817"	"28.725"	"28.989"	"26.98"	"24.666"	"24.69"	"24.722"	"25.524"	"23.003"	"20.284"
"1923"	"21.381"	"21.411"	"25.491"	"27.307"	"28.178"	"28.472"	"25.138"	"24.885"	"24.673"	"25.017"	"23.315"	"22.789"
"1924"	"22.806"	"23.451"	"27.127"	"28.902"	"29.485"	"27.678"	"26.115"	"25.63"	"25.016"	"24.087"	"21.907"	"21.837"
"1925"	"20.335"	"21.952"	"25.866"	"29.132"	"28.621"	"26.083"	"24.926"	"25.217"	"25.541"	"25.963"	"24.829"	"21.882"
"1926"	"22.775"	"24.416"	"25.587"	"25.981"	"28.822"	"28.756"	"25.896"	"24.985"	"25.081"	"26.218"	"23.368"	"21.883"
"1927"	"22.381"	"22.795"	"25.899"	"27.918"	"28.841"	"26.418"	"24.582"	"24.565"	"25.465"	"25.571"	"22.033"	"21.951"
"1928"	"22.202"	"22.825"	"25.741"	"28.283"	"28.934"	"27.494"	"25.332"	"24.922"	"24.222"	"25.482"	"23.971"	"22.163"
"1929"	"21.526"	"22.957"	"26.903"	"27.564"	"29.468"	"26.652"	"25.141"	"24.98"	"25.752"	"25.433"	"23.877"	"22.56"
"1930"	"22.326"	"20.801"	"25.817"	"27.24"	"29.281"	"27.127"	"24.276"	"24.333"	"24.835"	"25.849"	"22.436"	"22.824"
"1931"	"21.9"	"23.191"	"24.887"	"29.187"	"29.415"	"28.551"	"25.075"	"24.974"	"24.508"	"24.336"	"23.222"	"21.109"
"1932"	"20.911"	"21.195"	"25.028"	"27.269"	"28.993"	"26.85"	"24.86"	"25.449"	"24.951"	"26.03"	"23.683"	"21.659"
"1933"	"21.281"	"22.681"	"25.031"	"27.448"	"27.524"	"25.799"	"25.181"	"24.471"	"24.489"	"24.881"	"23.883"	"21.439"
"1934"	"20.621"	"22.44"	"24.574"	"28.035"	"28.647"	"26.735"	"24.795"	"24.228"	"24.246"	"25.42"	"22.329"	"21.032"
"1935"	"20.472"	"22.227"	"24.159"	"26.179"	"29.116"	"27.33"	"24.857"	"24.871"	"24.002"	"25.969"	"22.581"	"22.435"
"1936"	"21.518"	"21.611"	"25.118"	"27.263"	"29.809"	"25.866"	"25.058"	"24.871"	"25.52"	"25.586"	"24.556"	"21.815"
"1937"	"20.867"	"22.675"	"24.768"	"27.007"	"28.983"	"27.029"	"24.513"	"24.877"	"24.822"	"25.009"	"23.302"	"21.923"
"1938"	"23.029"	"21.394"	"26.261"	"28.267"	"28.46"	"24.884"	"24.63"	"24.958"	"24.359"	"23.951"	"22.633"	"21.327"
"1939"	"22.037"	"23.327"	"24.455"	"27.464"	"28.609"	"27.149"	"24.742"	"24.958"	"24.583"	"25.798"	"22.35"	"20.771"
"1940"	"20.75"	"22.799"	"24.208"	"27.663"	"28.988"	"27.084"	"24.701"	"24.382"	"25.055"	"25.232"	"24.458"	"21.907"
"1941"	"21.428"	"23.691"	"26.687"	"28.798"	"29.584"	"27.68"	"25.431"	"25.609"	"25.712"	"26.476"	"24.143"	"23.888"
"1942"	"22.093"	"23.204"	"26.756"	"29.204"	"29.464"	"27.615"	"24.518"	"24.662"	"24.513"	"26.18"	"23.271"	"22.072"
"1943"	"22.39"	"21.543"	"25.863"	"27.297"	"28.908"	"26.151"	"24.506"	"24.449"	"24.412"	"24.731"	"24.501"	"20.774"
"1944"	"21.94"	"21.899"	"24.405"	"27.263"	"30.036"	"27.494"	"24.948"	"24.747"	"25.265"	"25.359"	"23.904"	"23.167"
"1945"	"20.896"	"22.153"	"25.725"	"26.885"	"29.062"	"27.367"	"25.028"	"25.102"	"24.458"	"25.435"	"22.471"	"20.756"
"1946"	"21.015"	"23.003"	"25.838"	"27.926"	"28.25"	"26.472"	"24.812"	"24.402"	"24.79"	"26.463"	"24.281"	"24.136"
"1947"	"22.209"	"23.256"	"25.94"	"26.92"	"29.426"	"28.232"	"25.46"	"25.96"	"24.46"	"24.433"	"23.99"	"22.487"
"1948"	"22.767"	"22.891"	"25.714"	"28.641"	"29.711"	"27.504"	"25.513"	"25.137"	"24.622"	"26.172"	"25.371"	"21.033"
"1949"	"22.535"	"22.395"	"26.446"	"28.237"	"28.907"	"26.852"	"25.749"	"25.388"	"24.641"	"25.695"	"23.168"	"22.033"
"1950"	"21.956"	"21.867"	"24.98"	"28.056"	"28.729"	"27.439"	"24.994"	"25.676"	"25.056"	"24.571"	"22.858"	"22.212"
"1951"	"21.628"	"22.793"	"25.689"	"27.056"	"29.556"	"27.361"	"25.98"	"24.986"	"26.587"	"26.304"	"24.715"	"21.524"
"1952"	"22.113"	"23.564"	"24.583"	"28.512"	"29.514"	"27.182"	"25.42"	"24.52"	"25.116"	"26.035"	"22.95"	"24.143"
"1953"	"21.98"	"24.55"	"27.688"	"28.378"	"29.199"	"27.706"	"25.693"	"24.832"	"25.364"	"25.931"	"23.863"	"21.847"
"1954"	"21.372"	"24.027"	"25.775"	"28.398"	"29.775"	"26.676"	"24.961"	"24.936"	"23.803"	"24.615"	"22.829"	"22.768"
"1955"	"22.791"	"23.841"	"26.389"	"27.331"	"29.265"	"27.263"	"25.665"	"24.581"	"25.269"	"25.095"	"22.307"	"21.819"
"1956"	"22.407"	"22.58"	"26.511"	"28.707"	"28.079"	"26.665"	"23.978"	"24.465"	"24.469"	"24.981"	"23.766"	"22.08"
"1957"	"22.503"	"22.05"	"24.865"	"28.173"	"29.411"	"28.14"	"25.256"	"24.904"	"25.224"	"26.476"	"24.526"	"23.817"
"1958"	"22.583"	"22.876"	"25.771"	"28.711"	"29.811"	"28.496"	"25.123"	"25.327"	"24.968"	"25.914"	"25.067"	"23.152"
"1959"	"23.132"	"23.73"	"26.584"	"28.761"	"30.029"	"27.599"	"24.489"	"24.759"	"24.545"	"24.979"	"23.902"	"23.228"
"1960"	"22.493"	"23.835"	"25.327"	"28.624"	"29.302"	"26.936"	"25.695"	"24.379"	"25.003"	"25.091"	"23.861"	"23.461"
"1961"	"22.597"	"21.574"	"26.722"	"28.591"	"28.415"	"26.611"	"24.603"	"25.071"	"24.348"	"24.646"	"24.251"	"22.944"
"1962"	"20.565"	"23.157"	"25.402"	"28.051"	"29.586"	"27.35"	"25.123"	"24.762"	"24.563"	"25.206"	"23.634"	"22.568"
"1963"	"23.13"	"23.059"	"25.764"	"26.789"	"28.96"	"26.669"	"25.107"	"24.054"	"24.794"	"25.915"	"24.541"	"23.255"
"1964"	"21.476"	"22.842"	"26.518"	"29.366"	"28.786"	"26.79"	"25"	"24.052"	"24.416"	"25.625"	"23.456"	"21.938"
"1965"	"22.363"	"22.975"	"25.226"	"27.853"	"28.714"	"27.193"	"24.97"	"25.231"	"25.648"	"26.578"	"24.859"	"23.704"
"1966"	"22.207"	"23.923"	"25.814"	"28.34"	"28.275"	"27.934"	"26.061"	"25.355"	"25.399"	"26.705"	"25.565"	"23.034"
"1967"	"21.958"	"23.664"	"25.95"	"28.403"	"29.626"	"27.361"	"25.307"	"24.641"	"24.937"	"25.786"	"23.982"	"24.43"
"1968"	"20.943"	"22.658"	"25.306"	"28.08"	"28.853"	"27.865"	"25.471"	"24.776"	"25.844"	"24.843"	"23.239"	"22.689"
"1969"	"22.016"	"23.954"	"27.26"	"29.497"	"30.105"	"27.676"	"25.326"	"24.92"	"24.863"	"26.14"	"25.817"	"23.46"
"1970"	"22.32"	"24.272"	"26.077"	"29.109"	"29.753"	"26.371"	"25.277"	"24.609"	"24.857"	"25.866"	"22.48"	"20.493"
"1971"	"21.076"	"23.197"	"25.459"	"28.873"	"28.616"	"25.942"	"25.566"	"24.92"	"25.479"	"24.682"	"22.265"	"20.887"
"1972"	"21.14"	"21.885"	"26.798"	"27.918"	"29.203"	"28.367"	"25.698"	"25.321"	"26.282"	"27.287"	"23.927"	"24.031"
"1973"	"22.471"	"24.211"	"26.461"	"29.735"	"30.151"	"27.432"	"24.907"	"24.451"	"24.151"	"25.345"	"23.048"	"22.962"
"1974"	"21.958"	"23.351"	"26.473"	"28.643"	"28.209"	"27.202"	"25.636"	"24.677"	"25.543"	"25.335"	"22.51"	"21.408"
"1975"	"20.846"	"22.906"	"25.319"	"29.078"	"28.912"	"26.522"	"25.2"	"24.637"	"24.868"	"25.859"	"22.283"	"20.652"
"1976"	"20.683"	"22.44"	"25.99"	"27.415"	"28.177"	"26.093"	"25.19"	"24.649"	"25.263"	"26.923"	"26.27"	"23.585"
"1977"	"21.896"	"23.812"	"27.385"	"27.837"	"28.597"	"27.044"	"25.36"	"24.871"	"25.11"	"25.894"	"26.039"	"21.921"
"1978"	"21.589"	"22.592"	"24.367"	"27.761"	"29.184"	"25.909"	"24.747"	"24.512"	"25.018"	"25.974"	"25.716"	"22.968"
"1979"	"23.052"	"22.236"	"25.01"	"28.188"	"28.825"	"28.058"	"25.865"	"24.543"	"25.303"	"26.72"	"25.759"	"23.24"
"1980"	"22.511"	"23.831"	"25.635"	"28.669"	"29.538"	"25.983"	"25.156"	"24.429"	"25.527"	"27.012"	"25.805"	"22.31"
"1981"	"21.166"	"23.495"	"25.076"	"27.92"	"28.914"	"27.547"	"25.135"	"24.707"	"25.323"	"26.229"	"23.463"	"22.681"
"1982"	"22.727"	"23.482"	"25.207"	"27.223"	"28.641"	"27.594"	"26.081"	"25.4"	"25.558"	"26.883"	"25.066"	"23.261"
"1983"	"21.789"	"22.018"	"25.323"	"27.328"	"29.803"	"28.14"	"26.548"	"25.299"	"25.085"	"25.206"	"22.808"	"22.521"
"1984"	"21.975"	"22.856"	"26.538"	"28.361"	"29.982"	"26.949"	"24.941"	"24.276"	"24.951"	"25.845"	"23.047"	"23.237"
"1985"	"22.86"	"22.937"	"26.721"	"27.604"	"29.317"	"26.625"	"25.127"	"24.883"	"25.878"	"24.774"	"23.677"	"23.371"
"1986"	"22.197"	"23.451"	"26.166"	"28.325"	"29.279"	"26.453"	"25.322"	"24.447"	"25.941"	"27"	"25.491"	"22.812"
"1987"	"23.369"	"23.186"	"25.913"	"28.478"	"28.52"	"27.741"	"26.107"	"25.914"	"26.697"	"25.83"	"25.306"	"22.65"
"1988"	"22.725"	"24.023"	"25.456"	"28.158"	"29.221"	"27.379"	"25.228"	"25.22"	"25.645"	"25.215"	"23.556"	"22.301"
"1989"	"22.149"	"22.412"	"25.014"	"27.768"	"29.18"	"25.975"	"25.328"	"24.368"	"25.197"	"25.962"	"25.03"	"22.359"
"1990"	"22.806"	"22.86"	"24.445"	"27.655"	"27.951"	"25.865"	"24.774"	"24.477"	"25.046"	"25.356"	"25.158"	"23.123"
"1991"	"21.976"	"23.63"	"25.966"	"27.619"	"29.592"	"26.733"	"24.959"	"24.574"	"25.973"	"26.183"	"25.028"	"21.905"
"1992"	"21.372"	"21.785"	"25.818"	"27.708"	"29.562"	"27.977"	"26.308"	"24.743"	"25.873"	"25.897"	"24.916"	"22.019"
"1993"	"22.446"	"22.229"	"24.683"	"27.705"	"29.576"	"27.847"	"25.365"	"24.938"	"24.919"	"26.065"	"24.597"	"21.366"
"1994"	"22.099"	"22.35"	"26.738"	"26.845"	"29.094"	"26.038"	"24.497"	"24.805"	"24.898"	"26.127"	"24.103"	"21.458"
"1995"	"20.055"	"23.155"	"25.325"	"27.816"	"28.327"	"28.923"	"26.014"	"26.064"	"25.494"	"26.06"	"24.373"	"23.364"
"1996"	"23.273"	"23.983"	"26.949"	"27.876"	"29.164"	"27.823"	"25.74"	"24.807"	"25.281"	"25.004"	"23.645"	"22.674"
"1997"	"20.891"	"21.613"	"25.827"	"26.434"	"28.304"	"26.711"	"25.796"	"24.788"	"25.244"	"26.333"	"26.75"	"24.359"
"1998"	"22.761"	"22.737"	"25.614"	"28.935"	"30.596"	"28.117"	"25.884"	"25.808"	"25.563"	"26.022"	"24.778"	"21.719"
"1999"	"20.862"	"24.236"	"26.471"	"28.791"	"28.28"	"26.157"	"25.139"	"24.855"	"24.386"	"25.483"	"24.044"	"22.164"
"2000"	"22.486"	"22.547"	"24.634"	"29.103"	"28.218"	"26.375"	"24.889"	"25.417"	"25.583"	"26.855"	"24.572"	"21.839"
"2001"	"22.708"	"23.773"	"25.184"	"28.325"	"28.982"	"26.462"	"24.751"	"24.647"	"25.878"	"25.76"	"24.5"	"23.114"
"2002"	"20.893"	"24.396"	"26.08"	"29.312"	"29.64"	"26.833"	"25.849"	"24.541"	"25.418"	"26.998"	"24.646"	"23.115"
