
"Year"	"Jan"	"Feb"	"Mar"	"Apr"	"May"	"Jun"	"Jul"	"Aug"	"Sep"	"Oct"	"Nov"	"Dec"
"1901"	"48.815"	"55.007"	"4.374"	"23.151"	"52.432"	"77.324"	"242.469"	"301.746"	"310.115"	"26.792"	"25.84"	"0"
"1902"	"8.291"	"1.739"	"14.026"	"51.94"	"60.281"	"111.283"	"297.726"	"253.769"	"276.187"	"22.687"	"1.177"	"8.206"
"1903"	"8.48"	"29.291"	"9.986"	"15.606"	"46.097"	"137.569"	"156.435"	"217.996"	"227.625"	"119.432"	"0.725"	"0.045"
"1904"	"0.176"	"7.353"	"55.753"	"2.427"	"223.936"	"311.517"	"379.573"	"411.032"	"103.747"	"46.637"	"2.588"	"0.977"
"1905"	"17.347"	"54.846"	"65.621"	"52.304"	"80.243"	"47.618"	"436.106"	"250.226"	"356.774"	"37.665"	"0"	"1.266"
"1906"	"28.658"	"128.306"	"44.464"	"0.32"	"31.465"	"196.441"	"399.932"	"221.841"	"207.813"	"84.797"	"3.894"	"1.38"
"1907"	"0.155"	"58.757"	"62.143"	"80.661"	"49.06"	"258.525"	"178.931"	"271.537"	"118.895"	"8.929"	"0"	"8.033"
"1908"	"20.989"	"56.268"	"6.856"	"2.406"	"35.227"	"301.676"	"402.797"	"378.162"	"126.045"	"83.647"	"0.254"	"0.024"
"1909"	"11.703"	"19.102"	"0.211"	"103.847"	"30.146"	"276.997"	"316.705"	"300.896"	"178.754"	"26.176"	"1.419"	"9.048"
"1910"	"9.578"	"41.502"	"25.733"	"19.36"	"39.464"	"197.847"	"225.577"	"347.391"	"239.958"	"73.176"	"17.03"	"0"
"1911"	"1.59"	"1.093"	"43.751"	"14.141"	"33.546"	"524.51"	"89.45"	"261.35"	"232.752"	"82.62"	"35.917"	"0"
"1912"	"0.67"	"18.238"	"38.167"	"32.545"	"60.307"	"167.451"	"276.731"	"311.843"	"81.972"	"35.806"	"36.87"	"0"
"1913"	"0.155"	"63.302"	"46.364"	"10.53"	"101.31"	"386.802"	"300.257"	"349.784"	"131.895"	"97.698"	"7.536"	"9.309"
"1914"	"0.155"	"57.299"	"25.406"	"73.101"	"104.381"	"144.32"	"260.214"	"341.633"	"142.571"	"4.541"	"0"	"14.281"
"1915"	"4.078"	"37.924"	"50.775"	"15.79"	"51.935"	"189.144"	"230.835"	"336.008"	"254.748"	"56.138"	"42.181"	"0"
"1916"	"0.155"	"13.602"	"0.361"	"16.49"	"26.154"	"403.525"	"248.284"	"404.098"	"245.704"	"196.384"	"11.791"	"0"
"1917"	"1.638"	"85.199"	"18.252"	"20.619"	"121.434"	"204.623"	"265.817"	"479.222"	"142.09"	"219.307"	"3.299"	"0.415"
"1918"	"2.037"	"0.316"	"14.053"	"35.33"	"68.113"	"287.33"	"147.359"	"380.834"	"205.084"	"2.979"	"0.254"	"4.542"
"1919"	"48.59"	"33.003"	"22.6"	"46.643"	"82.65"	"241.343"	"301.14"	"549.579"	"125.981"	"84.667"	"16.855"	"0"
"1920"	"0.155"	"37.042"	"90.922"	"0.597"	"38.525"	"108.572"	"504.802"	"432.234"	"159.778"	"42.632"	"0.075"	"0"
"1921"	"60.511"	"7.755"	"6.557"	"24.271"	"18.903"	"239.815"	"276.149"	"476.609"	"117.637"	"7.269"	"0"	"0"
"1922"	"12.743"	"7.399"	"0.211"	"18.129"	"16.609"	"355.076"	"359.252"	"407.925"	"406.46"	"60.889"	"8.31"	"0.761"
"1923"	"0.685"	"102.245"	"9.818"	"8.625"	"7.124"	"129.377"	"388.644"	"508.18"	"188.974"	"48.679"	"11.635"	"2.665"
"1924"	"18.782"	"20.556"	"0.772"	"27.864"	"18.697"	"168.568"	"312.392"	"298.515"	"234.412"	"78.191"	"40.434"	"0"
"1925"	"42.451"	"14.718"	"9.402"	"30.436"	"58.481"	"335.544"	"348.316"	"380.031"	"145.096"	"75.119"	"12.722"	"2.166"
"1926"	"28.93"	"2.648"	"96.153"	"20.903"	"102.424"	"74.648"	"446.57"	"432.768"	"185.371"	"59.533"	"4.145"	"12.67"
"1927"	"19.175"	"109.536"	"55.271"	"14.558"	"45.428"	"181.701"	"287.703"	"329.942"	"146.066"	"43.753"	"15.586"	"0"
"1928"	"43.635"	"5.095"	"1.9"	"49.29"	"80.836"	"344.822"	"448.346"	"294.068"	"169.287"	"124.198"	"0.197"	"1.318"
"1929"	"29.155"	"15.943"	"25.423"	"21.133"	"28.036"	"137.087"	"292.085"	"323.662"	"150.045"	"239.455"	"0"	"12.587"
"1930"	"2.59"	"16.835"	"5.395"	"20.533"	"39.319"	"152.803"	"382.482"	"293.303"	"198.257"	"20.205"	"42.9"	"5.406"
"1931"	"14.762"	"96.069"	"29.774"	"7.942"	"53.079"	"124.626"	"368.321"	"335.928"	"242.369"	"92.075"	"16.41"	"2.394"
"1932"	"0.155"	"58.296"	"6.043"	"16.378"	"109.954"	"59.336"	"391.868"	"305.357"	"189.832"	"46.32"	"36.91"	"1.09"
"1933"	"54.883"	"23.953"	"2.77"	"63.378"	"82.382"	"266.095"	"292.833"	"394.168"	"190.043"	"121.924"	"0.138"	"0"
"1934"	"11.435"	"36.893"	"2.371"	"24.86"	"16.715"	"192.6"	"245.269"	"437.565"	"243.374"	"67.048"	"25.288"	"3.223"
"1935"	"13.582"	"15.88"	"10.928"	"40.217"	"3.654"	"151.37"	"258.855"	"455.901"	"187.585"	"9.317"	"0"	"1.873"
"1936"	"8.022"	"28.789"	"20.399"	"4.966"	"136.462"	"319.603"	"301.681"	"258.316"	"351.034"	"138.674"	"1.943"	"17.956"
"1937"	"0.155"	"78.912"	"8.031"	"40.692"	"54.299"	"193.355"	"330.993"	"351.399"	"244.763"	"140.369"	"1.067"	"0.817"
"1938"	"6.68"	"31.064"	"4.717"	"3.417"	"153.002"	"245.225"	"183.512"	"293.033"	"145.261"	"57.228"	"0.928"	"0"
"1939"	"13.295"	"18.083"	"14.011"	"17.869"	"18.883"	"174.452"	"398.348"	"415.23"	"247.137"	"94.015"	"2.777"	"0.518"
"1940"	"0.155"	"40.902"	"128.557"	"13.592"	"60.15"	"163.142"	"255.604"	"395.271"	"228.582"	"32.308"	"0.021"	"3.311"
"1941"	"42.255"	"2.31"	"11.618"	"7.125"	"45.286"	"285.199"	"292.827"	"505.816"	"193.919"	"117.639"	"28.219"	"0"
"1942"	"6.585"	"85.333"	"23.436"	"25.779"	"6.108"	"113.004"	"366.837"	"412.829"	"377.193"	"57.425"	"3.511"	"0.024"
"1943"	"45.729"	"16.262"	"7.448"	"89.394"	"44.629"	"155.224"	"422.419"	"522.935"	"188.113"	"55.618"	"0.386"	"0"
"1944"	"26.037"	"60.568"	"86.073"	"23.293"	"32.419"	"164.103"	"335.925"	"535.961"	"131.885"	"90.729"	"0.021"	"0"
"1945"	"36.013"	"34.939"	"4.746"	"41.55"	"59.315"	"166.12"	"217.113"	"162.599"	"267.928"	"159.068"	"0"	"2.93"
"1946"	"0.155"	"4.999"	"19.043"	"35.262"	"74.779"	"237.842"	"286.886"	"396.933"	"367.668"	"130.627"	"33.172"	"0.852"
"1947"	"20.206"	"34.716"	"31.829"	"4.428"	"42.244"	"205.193"	"331.923"	"310.339"	"332.463"	"69.546"	"0"	"12.711"
"1948"	"14.156"	"48.133"	"47.962"	"17.738"	"49.563"	"178.199"	"293.241"	"333.089"	"233.322"	"85.119"	"51.231"	"0.852"
"1949"	"1.483"	"21.147"	"23.279"	"49.605"	"123.845"	"224.087"	"296.4"	"386.521"	"218.638"	"115.252"	"0"	"0"
"1950"	"0.492"	"13.648"	"56.1"	"18.257"	"26.819"	"310.716"	"299.583"	"331.232"	"147.039"	"56.362"	"34.79"	"5.128"
"1951"	"5.319"	"0.966"	"76.686"	"48.932"	"24.255"	"175.09"	"258.542"	"325.292"	"260.772"	"70.419"	"17.172"	"0"
"1952"	"0.459"	"11.162"	"43.686"	"52.009"	"29.272"	"234.57"	"235.815"	"267.095"	"209.123"	"78.848"	"2.201"	"1.686"
"1953"	"58.545"	"14.383"	"2.491"	"7.307"	"15.899"	"165.645"	"230.722"	"372.373"	"296.379"	"25.527"	"7.413"	"0"
"1954"	"14.767"	"20.659"	"1.499"	"2.76"	"61.245"	"249.406"	"112.037"	"252.602"	"298.408"	"45.534"	"0"	"8.62"
"1955"	"28.948"	"11.642"	"6.74"	"8.451"	"18.446"	"152.211"	"220.021"	"218"	"242.12"	"172.798"	"26.256"	"0"
"1956"	"11.827"	"66.786"	"20.877"	"9.235"	"111"	"344.7"	"300.883"	"367.31"	"347.127"	"93.227"	"4.804"	"4.063"
"1957"	"59.669"	"20.804"	"16.459"	"13.093"	"4.809"	"98.176"	"394.15"	"258.04"	"208.163"	"39.55"	"0"	"0"
"1958"	"23.008"	"53.778"	"21.671"	"37.555"	"13.95"	"113.675"	"414.343"	"241.037"	"253.8"	"137.052"	"10.486"	"0"
"1959"	"24.119"	"6.305"	"3.953"	"23.51"	"50.979"	"154.186"	"250.698"	"261.085"	"219.415"	"206.313"	"0"	"1.243"
"1960"	"0.677"	"0.3"	"44.859"	"10.826"	"28.84"	"137.432"	"433.835"	"402.668"	"174.393"	"62.321"	"1.403"	"0.42"
"1961"	"30.285"	"131.388"	"1.64"	"1.852"	"46.291"	"203.951"	"165.144"	"413.083"	"319.656"	"96.023"	"0.091"	"4.898"
"1962"	"14.543"	"14.923"	"4.458"	"12.092"	"21.85"	"154.524"	"265.238"	"217.489"	"202.498"	"76.808"	"0"	"1.805"
"1963"	"1.618"	"4.62"	"34.674"	"35.907"	"120.455"	"203.607"	"260.117"	"312.292"	"217.204"	"180.133"	"11.441"	"0"
"1964"	"0.459"	"14.727"	"17.641"	"57.796"	"63.121"	"153.58"	"422.026"	"402.642"	"210.5"	"65.479"	"25.616"	"0"
"1965"	"4.166"	"23.022"	"19.62"	"56.061"	"21.968"	"90.866"	"336.799"	"287.496"	"225.717"	"56.387"	"0.182"	"2.622"
"1966"	"71.143"	"10.73"	"2.021"	"2.508"	"5.777"	"183.587"	"90.813"	"221.59"	"172.997"	"26.017"	"17.16"	"16.072"
"1967"	"31.85"	"1.083"	"60.43"	"22.721"	"28.852"	"179.598"	"238.237"	"417.115"	"201.929"	"30.975"	"0"	"1.87"
"1968"	"24.182"	"24.203"	"10.602"	"6.136"	"5.226"	"304.794"	"334.969"	"447.321"	"146.171"	"57.968"	"14.039"	"1.849"
"1969"	"2.448"	"6.617"	"16.284"	"50.063"	"73.057"	"121.586"	"348.556"	"377.267"	"202.663"	"32.049"	"19.96"	"0.045"
"1970"	"17.008"	"35.589"	"42.657"	"8.042"	"43.71"	"249.379"	"261.271"	"277.714"	"239.553"	"93.015"	"8.147"	"0"
"1971"	"36.634"	"66.584"	"2.681"	"95.607"	"132.005"	"407.568"	"471.207"	"521.27"	"247.362"	"121.305"	"5.88"	"0"
"1972"	"6.841"	"50.43"	"1.232"	"42.184"	"4.388"	"64.568"	"261.581"	"457.536"	"197.206"	"141.542"	"16.103"	"0.88"
"1973"	"14.507"	"5.115"	"24.156"	"8.787"	"81.171"	"264.901"	"174.33"	"345.876"	"380.382"	"166.638"	"14.945"	"26.278"
"1974"	"2.595"	"1.567"	"57.719"	"4.227"	"51.411"	"84.866"	"400.3"	"289.478"	"284.486"	"150.434"	"3.897"	"0.035"
"1975"	"18.792"	"9.941"	"25.365"	"3.719"	"39.182"	"168.276"	"401.989"	"223.457"	"217.051"	"110.777"	"10.963"	"0"
"1976"	"1.282"	"14.022"	"5.447"	"55.235"	"55.389"	"64.442"	"387.198"	"287.25"	"359.575"	"6.96"	"2.989"	"0"
"1977"	"2.981"	"27.88"	"0.234"	"69.112"	"201.41"	"280.158"	"466.283"	"333.133"	"205.081"	"57.488"	"35.082"	"23.461"
"1978"	"3.085"	"81.964"	"54.705"	"76.971"	"55.253"	"252.94"	"312.311"	"338.001"	"414.438"	"80.99"	"12.326"	"18.58"
"1979"	"28.955"	"45.189"	"4.754"	"37.865"	"12.125"	"97.477"	"334.173"	"212"	"184.326"	"27.478"	"15.612"	"23.124"
"1980"	"45.483"	"30.109"	"52.669"	"2.159"	"65.548"	"285.644"	"321.033"	"332.203"	"101.263"	"56.642"	"0.222"	"2.494"
"1981"	"22.158"	"35.673"	"60.881"	"48.919"	"97.526"	"78.266"	"380.357"	"212.679"	"229.433"	"1.313"	"6"	"7.429"
"1982"	"16.561"	"24.953"	"64.718"	"59.911"	"53.215"	"113.851"	"189.724"	"440.269"	"209.511"	"5.507"	"12.864"	"1.873"
"1983"	"3.917"	"43.575"	"37.988"	"37.317"	"108.625"	"169.139"	"265.967"	"280.19"	"126.357"	"112.46"	"0.458"	"2.563"
"1984"	"42.464"	"22.192"	"0.537"	"44.749"	"33.356"	"507.335"	"302.958"	"370.317"	"137.443"	"58.303"	"0.021"	"0"
"1985"	"24.436"	"6.036"	"0.373"	"17.518"	"26.865"	"145.074"	"421.927"	"297.461"	"154.828"	"115.503"	"0.047"	"0.583"
"1986"	"22.206"	"31.809"	"1.92"	"26.928"	"58.157"	"168.065"	"377.398"	"261.933"	"414.102"	"37.924"	"37.044"	"5.311"
"1987"	"2.983"	"5.85"	"11.407"	"31.931"	"46.573"	"60.367"	"336.9"	"491.858"	"180.823"	"63.786"	"25.716"	"3.895"
"1988"	"6.051"	"31.083"	"34.638"	"18.327"	"67.346"	"126.592"	"277.521"	"296.598"	"175.054"	"64.318"	"20.606"	"0.535"
"1989"	"5.121"	"0.404"	"9.215"	"1.489"	"106.929"	"220.343"	"254.592"	"262.092"	"213.708"	"116.298"	"7.41"	"16.831"
"1990"	"0.155"	"39.994"	"41.06"	"14.446"	"138.449"	"278.803"	"667.717"	"234.67"	"240.021"	"102.706"	"9.732"	"0.896"
"1991"	"8.612"	"13.407"	"51.464"	"16.383"	"36.207"	"227.542"	"264.294"	"510.221"	"222.008"	"63.902"	"4.632"	"29.011"
"1992"	"22.314"	"8.281"	"0.29"	"8.22"	"48.801"	"165.733"	"290.349"	"152.389"	"141.053"	"70.134"	"1.051"	"0"
"1993"	"4.068"	"0.581"	"38.89"	"39.198"	"60.8"	"244.666"	"282.673"	"290.001"	"308.31"	"112.36"	"7.565"	"0"
"1994"	"26.605"	"42.562"	"32.459"	"38.02"	"46.536"	"277.802"	"337.701"	"349.807"	"97.127"	"153.1"	"2.243"	"0"
"1995"	"17.847"	"25.403"	"29.378"	"8.279"	"58.674"	"68.564"	"293.655"	"246.834"	"336.805"	"71.318"	"17.609"	"0"
"1996"	"13.897"	"18.599"	"5.138"	"20.423"	"17.26"	"287.423"	"226.241"	"434.981"	"123.065"	"144.177"	"0.663"	"0"
"1997"	"35.555"	"12.078"	"24.174"	"37.984"	"103.865"	"52.314"	"363.134"	"395.379"	"213.542"	"38.205"	"21.325"	"16.12"
"1998"	"30.241"	"62.405"	"17.306"	"27.483"	"96.358"	"128.934"	"217.955"	"222.38"	"214.703"	"224.65"	"34.177"	"0"
"1999"	"11.04"	"7.115"	"0.234"	"0.308"	"101.005"	"161.991"	"280.794"	"410.007"	"330.241"	"42.41"	"10.11"	"0"
"2000"	"5.839"	"55.326"	"0.35"	"45.157"	"73.091"	"188.494"	"166.34"	"197.047"	"196.007"	"19.739"	"6.35"	"1.047"
"2001"	"0.865"	"3.735"	"52.55"	"23.926"	"63.026"	"168.369"	"205.502"	"282.682"	"80.766"	"110.24"	"9.863"	"0"
"2002"	"35.731"	"17.369"	"5.845"	"34.665"	"40.614"	"139.897"	"245.304"	"367.751"	"206.928"	"84.34"	"15.504"	"0"
