
"Year"	"Jan"	"Feb"	"Mar"	"Apr"	"May"	"Jun"	"Jul"	"Aug"	"Sep"	"Oct"	"Nov"	"Dec"
"1901"	"20.928"	"40.552"	"25.672"	"61.4"	"13.716"	"136.124"	"218.938"	"334.36"	"153.462"	"9.339"	"8.378"	"0.002"
"1902"	"5.344"	"0.127"	"0.033"	"2.159"	"5.022"	"75.445"	"305.904"	"311.98"	"159.272"	"18.615"	"4.723"	"29.393"
"1903"	"1.907"	"3.549"	"0.302"	"1.738"	"47.654"	"179.662"	"699.764"	"364.69"	"173.732"	"92.865"	"1.421"	"6.55"
"1904"	"1.011"	"2.637"	"24.902"	"0.104"	"22.852"	"213.635"	"192.043"	"383.406"	"196.477"	"42.921"	"0.036"	"5.581"
"1905"	"4.783"	"9.62"	"9.817"	"46.337"	"16.199"	"160.698"	"282.616"	"427.835"	"510.672"	"1.984"	"0.003"	"0.138"
"1906"	"7.14"	"16.259"	"12.797"	"0.104"	"12.566"	"412.672"	"425.277"	"428.66"	"138.613"	"15.367"	"1.316"	"5.426"
"1907"	"1.334"	"27.767"	"6.45"	"72.478"	"5.097"	"298.343"	"228.618"	"383.492"	"125.533"	"2.595"	"6.602"	"7.118"
"1908"	"10.374"	"4.352"	"10.122"	"2.223"	"6.355"	"291.935"	"362.537"	"401.14"	"253.959"	"12.641"	"0.003"	"2.865"
"1909"	"0.83"	"9.957"	"0.953"	"54.754"	"37.652"	"183.611"	"553.294"	"242.344"	"126.318"	"4.26"	"0.003"	"24.299"
"1910"	"1.127"	"0.139"	"0.571"	"5.711"	"12.505"	"282.001"	"402.026"	"319.836"	"316.833"	"109.76"	"26.859"	"0.002"
"1911"	"7.001"	"0.411"	"10.178"	"0.737"	"6.741"	"308.912"	"221.95"	"404.502"	"261.515"	"72.706"	"17.782"	"0.276"
"1912"	"5.543"	"40.8"	"0.098"	"21.373"	"7.895"	"39.135"	"475.91"	"416.706"	"221.173"	"11.572"	"11.768"	"1.903"
"1913"	"0"	"27.823"	"13.579"	"5.223"	"25.082"	"214.439"	"329.54"	"383.223"	"187.999"	"26.433"	"0.143"	"8.529"
"1914"	"0.175"	"7.673"	"17.864"	"60.702"	"18.263"	"242.875"	"427.263"	"295.983"	"303.141"	"13.469"	"0.221"	"14.04"
"1915"	"36.515"	"19.763"	"29.157"	"36.607"	"12.273"	"184.356"	"356.176"	"330.864"	"240.209"	"97.24"	"4.726"	"1.075"
"1916"	"0"	"10.21"	"0.114"	"6.065"	"17.831"	"178.812"	"284.976"	"384.189"	"269.45"	"133.296"	"8.913"	"0.002"
"1917"	"0.137"	"41.71"	"8.009"	"9.361"	"43.112"	"234.801"	"342.218"	"219.958"	"384.651"	"149.73"	"0.354"	"0.04"
"1918"	"20.536"	"3.741"	"4.824"	"5.955"	"44.154"	"319.756"	"227.872"	"368.058"	"103.559"	"6.808"	"10.605"	"18.746"
"1919"	"52.319"	"52.737"	"21.144"	"3.264"	"15.456"	"314.223"	"368.622"	"479.71"	"168.989"	"109.45"	"19.244"	"8.784"
"1920"	"14.656"	"0.737"	"14.461"	"12.864"	"6.042"	"109.669"	"338.572"	"260.635"	"117.183"	"11.002"	"0.003"	"0.002"
"1921"	"13.91"	"0.655"	"0"	"4.549"	"0.099"	"213.484"	"331.549"	"284.697"	"293.074"	"13.653"	"0.095"	"0.002"
"1922"	"13.297"	"0.167"	"0"	"3.49"	"6.372"	"230.505"	"373.944"	"238.465"	"298.85"	"27.159"	"25.346"	"0.04"
"1923"	"0.216"	"11.758"	"21.328"	"18.299"	"2.283"	"57.734"	"403.345"	"290.996"	"259.482"	"24.309"	"2.408"	"0.002"
"1924"	"39.683"	"3.509"	"8.093"	"12.18"	"5.309"	"59.137"	"303.328"	"289.049"	"265.842"	"69.013"	"17.989"	"5.882"
"1925"	"0"	"0.104"	"1.318"	"6.117"	"55.249"	"210.966"	"411.838"	"611.478"	"142.122"	"30.82"	"18.009"	"0.216"
"1926"	"33.62"	"1.076"	"39.973"	"52.756"	"42.034"	"109.736"	"419.61"	"608.779"	"316.439"	"87.06"	"0.819"	"2.419"
"1927"	"6.482"	"12.474"	"24.468"	"2.056"	"7.623"	"298.103"	"536.52"	"411.899"	"86.224"	"88.846"	"25.393"	"4.276"
"1928"	"2.685"	"17.957"	"7.197"	"2.515"	"7.676"	"142.815"	"589.053"	"201.813"	"269.84"	"102.555"	"0.003"	"6.958"
"1929"	"5.179"	"31.125"	"0.465"	"14.569"	"2.118"	"188.648"	"627.197"	"451.387"	"260.093"	"43.401"	"0.003"	"23.233"
"1930"	"0.126"	"0.573"	"13.473"	"43.175"	"8.004"	"211.589"	"322.749"	"210.246"	"200.29"	"59.999"	"14.851"	"2.339"
"1931"	"2.765"	"7.183"	"17.216"	"13.063"	"9.771"	"78.817"	"443.102"	"417.237"	"230.016"	"175.896"	"21.719"	"1.624"
"1932"	"0"	"18.874"	"6.529"	"9.973"	"13.327"	"168.732"	"546.469"	"282.859"	"253.451"	"16.112"	"12.348"	"0.087"
"1933"	"1.166"	"10.812"	"18.092"	"42.391"	"46.226"	"210.526"	"456.227"	"402.394"	"255.805"	"76.266"	"7.405"	"10.062"
"1934"	"3.57"	"0.104"	"1.555"	"18.504"	"0.346"	"234.793"	"426.554"	"514.62"	"289.936"	"59.496"	"18.167"	"2.566"
"1935"	"4.229"	"3.404"	"0.478"	"28.895"	"2.578"	"157.202"	"471.087"	"237.156"	"218.699"	"7.072"	"0.003"	"0.542"
"1936"	"2.168"	"44.74"	"17.204"	"8.152"	"21.024"	"317.997"	"460.595"	"362.883"	"239.403"	"100.99"	"17.273"	"3.281"
"1937"	"0"	"40.313"	"34.077"	"72.533"	"4.881"	"197.728"	"529.235"	"235.286"	"205.831"	"88.618"	"0.003"	"0.33"
"1938"	"5.8"	"11.988"	"9.573"	"22.738"	"21.782"	"290.985"	"357.453"	"335.36"	"208.973"	"153.095"	"4.452"	"0.002"
"1939"	"4.494"	"4.634"	"34.26"	"21.945"	"0.476"	"112.946"	"356.002"	"371.378"	"131.397"	"70.519"	"3.104"	"0.08"
"1940"	"0.011"	"12.836"	"10.727"	"17.792"	"12.972"	"245.737"	"562.166"	"408.377"	"66.497"	"77.417"	"9.048"	"6.938"
"1941"	"11.499"	"10.069"	"20.211"	"5.128"	"10.62"	"210.729"	"270.375"	"229.739"	"120.077"	"13.846"	"3.155"	"0.002"
"1942"	"3.712"	"46.618"	"1.245"	"27.156"	"6.411"	"121.387"	"554.485"	"366.173"	"211.723"	"18.55"	"0.593"	"2.761"
"1943"	"53.631"	"0.194"	"0.313"	"14.818"	"24.092"	"135.234"	"333.428"	"276.485"	"256.623"	"103.053"	"1.553"	"0.002"
"1944"	"14.295"	"46.044"	"60.797"	"11.119"	"9.141"	"135.689"	"604.712"	"373.731"	"230.787"	"90.13"	"2.347"	"0.002"
"1945"	"33.634"	"0.518"	"0"	"40.181"	"6.97"	"183.607"	"538.454"	"274.501"	"317.009"	"50.993"	"5.267"	"3.307"
"1946"	"0"	"12.589"	"2.949"	"35.41"	"14.2"	"234.276"	"472.098"	"326.482"	"154.342"	"34.053"	"12.761"	"2.234"
"1947"	"43.27"	"14.001"	"23.918"	"8.957"	"3.956"	"119.49"	"582.489"	"406.911"	"302.49"	"26.386"	"4.186"	"7.16"
"1948"	"26.291"	"7.917"	"16.336"	"10.979"	"4.992"	"194.158"	"315.348"	"311.443"	"279.138"	"32.988"	"43.103"	"0.087"
"1949"	"0.181"	"5.699"	"0.721"	"9.229"	"26.688"	"211.974"	"328.666"	"349.471"	"272.177"	"190.35"	"0.003"	"0.06"
"1950"	"0.67"	"25.709"	"16.117"	"4.502"	"5.912"	"104.529"	"419.893"	"186.566"	"120.841"	"6.938"	"11.078"	"2.295"
"1951"	"4.383"	"1.439"	"43.046"	"18.181"	"21.684"	"131.069"	"469.774"	"314.806"	"158.405"	"83.97"	"0.499"	"0.002"
"1952"	"0.011"	"9.727"	"7.977"	"12.68"	"8.766"	"90.78"	"331.64"	"267"	"225.789"	"27.014"	"0.003"	"11.689"
"1953"	"14.328"	"0.848"	"0"	"24.369"	"2.65"	"125.889"	"306.673"	"443.932"	"216.317"	"55.149"	"0.935"	"0.002"
"1954"	"0.535"	"0.36"	"8.878"	"22.246"	"5.739"	"140.67"	"465.995"	"386.002"	"353.236"	"27.392"	"0.003"	"0.041"
"1955"	"14.127"	"0.868"	"18.462"	"24.383"	"3.552"	"172.895"	"382.457"	"538.901"	"312.103"	"161.878"	"0.773"	"0.002"
"1956"	"0.91"	"2.265"	"1.026"	"0.813"	"41.948"	"220.17"	"543.415"	"323.48"	"223.962"	"35.592"	"27.261"	"4.427"
"1957"	"3.842"	"1.496"	"29.666"	"64.123"	"8.068"	"180.211"	"454.393"	"377.016"	"104.284"	"40.332"	"0.003"	"2.646"
"1958"	"3.565"	"6.512"	"8.383"	"23.537"	"8.367"	"77.317"	"411.375"	"329.526"	"264.029"	"93.931"	"12.435"	"0.002"
"1959"	"12.811"	"5.664"	"0.156"	"21.023"	"29.586"	"256.845"	"389.706"	"354.495"	"296.719"	"68.979"	"0.092"	"2.587"
"1960"	"22.572"	"0.024"	"13.99"	"23.869"	"20.569"	"198.885"	"432.261"	"313.906"	"148.807"	"86.525"	"0.028"	"0.002"
"1961"	"8.897"	"22.965"	"16.949"	"11.538"	"22.551"	"115.308"	"423.605"	"383.373"	"379.241"	"120.098"	"7.282"	"13.087"
"1962"	"5.244"	"21.919"	"13.995"	"40.09"	"19.546"	"109.266"	"338.785"	"355.428"	"276.698"	"5.481"	"7.072"	"60.854"
"1963"	"0.558"	"8.334"	"7.819"	"36.21"	"11.948"	"135.322"	"305.059"	"360.7"	"259.331"	"102.892"	"0.041"	"0.002"
"1964"	"0"	"24.593"	"6.418"	"15.381"	"2.868"	"117.92"	"284.796"	"467.795"	"186.97"	"52.162"	"1.688"	"0.002"
"1965"	"10.241"	"3.646"	"21.353"	"15.945"	"8.318"	"191.447"	"325.664"	"201.704"	"201.737"	"1.942"	"0.003"	"0.234"
"1966"	"36.846"	"0.04"	"7.93"	"11.322"	"42.067"	"158.49"	"359.453"	"269.476"	"182.282"	"12.584"	"12.016"	"11.832"
"1967"	"0.579"	"0.024"	"48.81"	"10.628"	"7.428"	"216.683"	"386.937"	"337.857"	"149.48"	"8.432"	"0.003"	"78.033"
"1968"	"19.503"	"18.159"	"24.682"	"45.559"	"5.049"	"156.345"	"365.685"	"218.649"	"361.485"	"46.916"	"3.108"	"3.919"
"1969"	"1.058"	"0.087"	"4.853"	"4.845"	"11.078"	"105.366"	"605.674"	"296.65"	"280.731"	"15.854"	"4.653"	"41.117"
"1970"	"12.475"	"9.61"	"31.949"	"12.978"	"21.713"	"248.291"	"383.025"	"580.679"	"224.645"	"4.731"	"0.003"	"0.002"
"1971"	"8.052"	"8.527"	"9.599"	"19.405"	"21.986"	"269.811"	"205.703"	"295.038"	"178.506"	"106.187"	"0.003"	"0.002"
"1972"	"0.683"	"12.343"	"0"	"6.418"	"3.328"	"115.507"	"343.882"	"322.275"	"172.304"	"25.652"	"16.008"	"1.029"
"1973"	"0.581"	"8.115"	"2.847"	"5.938"	"1.109"	"123.831"	"367.936"	"306.385"	"175.892"	"115.545"	"0.036"	"0.308"
"1974"	"0"	"1.347"	"2.47"	"3.315"	"9.379"	"230.267"	"317.204"	"263.89"	"107.618"	"159.731"	"8.399"	"0.002"
"1975"	"5.649"	"17.037"	"12.867"	"5.68"	"6.943"	"340.725"	"318.51"	"356.917"	"314.94"	"111.689"	"0.555"	"0.002"
"1976"	"2.689"	"0.149"	"10.101"	"37.457"	"23.867"	"88.247"	"406.295"	"394.649"	"250.754"	"0.503"	"21.415"	"1.95"
"1977"	"1.071"	"0.966"	"4.55"	"18.769"	"17.703"	"216.483"	"366.427"	"367.305"	"192.289"	"26.653"	"41.09"	"24.763"
"1978"	"20.875"	"24.381"	"24.51"	"36.698"	"10.014"	"209.809"	"322.788"	"391.973"	"125.667"	"18.586"	"13.159"	"17.876"
"1979"	"25.322"	"25.966"	"0"	"3.589"	"10.126"	"193.292"	"354.65"	"410.293"	"206.037"	"41.33"	"9.235"	"6.37"
"1980"	"0.527"	"2.156"	"2.555"	"8.831"	"3.512"	"246.614"	"337.343"	"320.007"	"151.171"	"9.45"	"0.003"	"10.24"
"1981"	"18.518"	"0.172"	"28.092"	"17.065"	"14.669"	"157.147"	"354.601"	"307.586"	"331.939"	"19.808"	"0.497"	"10.339"
"1982"	"21.767"	"8.703"	"10.352"	"19.941"	"10.671"	"151.234"	"363.855"	"315.406"	"216.199"	"26.026"	"7.53"	"0.474"
"1983"	"1.934"	"9.765"	"4.742"	"4.971"	"14.578"	"165.977"	"373.759"	"357.52"	"261.524"	"55.159"	"0.52"	"6.823"
"1984"	"26.815"	"20.865"	"1.283"	"6.691"	"8.354"	"188.824"	"382.362"	"279.524"	"89.503"	"21.857"	"0.003"	"0.002"
"1985"	"25.373"	"2.132"	"1.434"	"10.877"	"10.194"	"212.778"	"410.933"	"374.728"	"140.468"	"217.734"	"0.003"	"1.708"
"1986"	"27.662"	"26.364"	"1.091"	"6.128"	"12.529"	"203.308"	"286.447"	"383.094"	"122.963"	"11.402"	"12.417"	"26.552"
"1987"	"6.436"	"4.717"	"15.741"	"2.201"	"15.315"	"123.629"	"288.902"	"388.249"	"92.633"	"49.153"	"25.36"	"3.91"
"1988"	"0.746"	"2.844"	"7.77"	"35.665"	"8.439"	"175.787"	"335.436"	"312.223"	"240.838"	"32.558"	"8.803"	"1.005"
"1989"	"0.033"	"0.024"	"43.554"	"1.175"	"9.769"	"179.496"	"288.384"	"319.528"	"150.14"	"12.896"	"0.684"	"18.092"
"1990"	"1.915"	"26.954"	"23.645"	"1.857"	"54.554"	"283.677"	"375.749"	"473.262"	"135.043"	"96.453"	"2.938"	"12.715"
"1991"	"17.483"	"2.907"	"7.141"	"16.226"	"5.251"	"213.118"	"443"	"355.717"	"104.432"	"14.213"	"4.424"	"5.417"
"1992"	"4.842"	"3.361"	"0"	"9.379"	"8.196"	"112.781"	"311.904"	"405.94"	"237.301"	"32.813"	"5.943"	"0.002"
"1993"	"0.514"	"9.791"	"42.092"	"4.827"	"20.1"	"174.846"	"435.345"	"246.613"	"303.303"	"75.612"	"0.003"	"1.026"
"1994"	"19.916"	"27.177"	"20.669"	"13.173"	"12.246"	"167.05"	"670.368"	"405.693"	"264.8"	"111.709"	"1.931"	"0.002"
"1995"	"24.235"	"1"	"61.533"	"12.905"	"12.249"	"174.93"	"447.415"	"296.396"	"265.956"	"50.725"	"2.848"	"0.002"
"1996"	"6.949"	"6.363"	"5.408"	"51.408"	"0.759"	"65.675"	"320.63"	"293.25"	"142.616"	"53.449"	"10.754"	"0.002"
"1997"	"19.32"	"0.024"	"16.115"	"14.251"	"8.056"	"70.238"	"262.701"	"254.73"	"216.634"	"58.045"	"33.794"	"53.587"
"1998"	"12.261"	"28.087"	"20.817"	"14.231"	"17.555"	"103.642"	"256.223"	"290.833"	"197.164"	"71.845"	"41.554"	"0.002"
"1999"	"3.41"	"10.384"	"0"	"0.198"	"26.463"	"137.997"	"265.994"	"494.336"	"232.129"	"83.715"	"0.028"	"0.002"
"2000"	"0.577"	"26.285"	"0"	"4.425"	"26.342"	"213.481"	"378.729"	"229.806"	"110.084"	"29.986"	"0.005"	"0.035"
"2001"	"2.334"	"0.024"	"14.826"	"31.221"	"25.626"	"245.581"	"340.13"	"388.359"	"107.985"	"112.085"	"6.336"	"0.002"
"2002"	"34.738"	"8.314"	"2.635"	"11.817"	"23.426"	"263.15"	"182.356"	"397.641"	"125.252"	"31.861"	"0.973"	"0.002"
