
"Year"	"Jan"	"Feb"	"Mar"	"Apr"	"May"	"Jun"	"Jul"	"Aug"	"Sep"	"Oct"	"Nov"	"Dec"
"1901"	"3.473"	"0.013"	"0.774"	"0.578"	"13.269"	"76.385"	"353.195"	"249.665"	"47.646"	"54.161"	"0.207"	"0.469"
"1902"	"3.089"	"0"	"0"	"0.151"	"2.884"	"50.686"	"236.704"	"173.164"	"193.437"	"26.59"	"57.551"	"4.266"
"1903"	"0.277"	"0"	"0"	"0"	"7.626"	"32.671"	"478.837"	"267.678"	"204.383"	"3.458"	"0.207"	"0"
"1904"	"0.013"	"3.866"	"4.603"	"0"	"17.143"	"59.873"	"167.746"	"92.532"	"149.614"	"20.931"	"0.47"	"1.042"
"1905"	"0.156"	"1.258"	"0.523"	"0.108"	"5.618"	"21.328"	"484.647"	"67.236"	"238.193"	"0.185"	"0.56"	"0"
"1906"	"0"	"2.361"	"0"	"0"	"0"	"173.172"	"412.85"	"246.627"	"256.317"	"1.38"	"0.207"	"4.181"
"1907"	"6.184"	"3.036"	"0"	"2.917"	"0.091"	"69.928"	"287.07"	"346.474"	"19.676"	"0.185"	"4.242"	"0"
"1908"	"2.479"	"0"	"3.799"	"0.406"	"0.013"	"140.012"	"470.062"	"371.7"	"106.576"	"0.219"	"0.794"	"0"
"1909"	"2.185"	"0"	"0.101"	"2.557"	"3.121"	"99.324"	"366.074"	"271.151"	"343.098"	"0.291"	"0.207"	"5.676"
"1910"	"3.668"	"0"	"0"	"2.751"	"6.154"	"216.694"	"164.131"	"359.402"	"179.385"	"47.901"	"8.413"	"0"
"1911"	"2.699"	"0"	"3.652"	"0"	"0"	"142.104"	"119.934"	"167.921"	"76.546"	"0.427"	"42.559"	"0.047"
"1912"	"0.054"	"0.252"	"0"	"0"	"0.201"	"76.032"	"395.585"	"250.899"	"45.049"	"14.742"	"73.383"	"0.013"
"1913"	"0"	"0.141"	"0.114"	"0"	"5.19"	"133.086"	"427.2"	"157.571"	"231.112"	"0.206"	"0.794"	"2.43"
"1914"	"0"	"0.748"	"0.034"	"0.09"	"27.401"	"178.26"	"400.157"	"150.38"	"380.55"	"5.423"	"15.107"	"2.194"
"1915"	"1.987"	"5.32"	"12.259"	"2.402"	"4.678"	"119.631"	"220.815"	"104.371"	"199.538"	"106.299"	"1.732"	"2.571"
"1916"	"0"	"0.516"	"0"	"0"	"9.471"	"117.913"	"333.166"	"290.236"	"258.21"	"33.96"	"20.351"	"0"
"1917"	"0.194"	"1.882"	"0"	"1.359"	"27.968"	"110.329"	"166.041"	"212.21"	"445.263"	"64.366"	"0.207"	"1.273"
"1918"	"0.034"	"0"	"0.62"	"0"	"21.52"	"90.969"	"113.552"	"170.298"	"41.649"	"0.551"	"26.02"	"0"
"1919"	"8.597"	"0"	"0"	"0.451"	"6.596"	"189.352"	"283.882"	"340.129"	"128.629"	"38.692"	"41.62"	"0.267"
"1920"	"0.837"	"0.889"	"0.211"	"0.101"	"9.097"	"110.285"	"314.263"	"77.828"	"67.871"	"0.185"	"0.207"	"0"
"1921"	"1.507"	"0"	"0"	"0"	"0"	"148.128"	"344.915"	"186.112"	"291.547"	"1.476"	"0.207"	"0"
"1922"	"2.274"	"0.686"	"0"	"0"	"0.252"	"91.948"	"289.267"	"72.984"	"345.541"	"4.887"	"45.878"	"1.6"
"1923"	"0.071"	"0.2"	"3.58"	"0.73"	"2.585"	"12.989"	"478.479"	"213.969"	"249.305"	"0.32"	"0.307"	"0.275"
"1924"	"2.891"	"0.013"	"0.101"	"0"	"13.009"	"71.632"	"268.321"	"204.402"	"239.313"	"56.032"	"0.221"	"2.961"
"1925"	"0"	"0"	"0"	"0"	"17.132"	"144.758"	"202.329"	"125.071"	"69.202"	"0.185"	"71.274"	"0.652"
"1926"	"10.317"	"0.473"	"0.976"	"2.99"	"3.176"	"24.332"	"255.936"	"410.496"	"192.343"	"0.212"	"16.655"	"0"
"1927"	"0"	"1.097"	"1.267"	"0.013"	"1.42"	"82.356"	"460.265"	"214.181"	"169.801"	"25.166"	"56.16"	"6.905"
"1928"	"0.013"	"4.463"	"0.602"	"0"	"0.302"	"64.263"	"285.836"	"181.567"	"208.271"	"67.533"	"27.237"	"19.252"
"1929"	"2.182"	"2.757"	"0"	"6.329"	"0"	"179.272"	"309.731"	"124.105"	"65.025"	"10.85"	"0.207"	"1.464"
"1930"	"4.865"	"0"	"0"	"0.015"	"9.408"	"153.678"	"308.868"	"169.468"	"328.096"	"11.52"	"2.338"	"0"
"1931"	"0"	"0"	"0"	"0"	"0.086"	"112.319"	"296.327"	"451.014"	"262.459"	"95.342"	"5.627"	"1.171"
"1932"	"0"	"2.6"	"6.321"	"0.342"	"0"	"67.975"	"401.053"	"221.01"	"276.001"	"14.918"	"0.207"	"0"
"1933"	"0"	"0.33"	"0.206"	"1.496"	"12.129"	"229.537"	"225.905"	"398.222"	"451.423"	"3.83"	"11.946"	"8.79"
"1934"	"2.706"	"0"	"0.875"	"0"	"0"	"226.512"	"378.19"	"556.522"	"316.327"	"2.138"	"76.243"	"0.209"
"1935"	"1.103"	"0"	"0"	"3.475"	"1.052"	"66.578"	"396.105"	"141.599"	"272.131"	"46.186"	"0.408"	"0.061"
"1936"	"0"	"0.501"	"8.573"	"0.444"	"15.77"	"189.323"	"108.31"	"94.765"	"258.27"	"0.185"	"94.087"	"0.067"
"1937"	"0"	"0.606"	"0.211"	"0.02"	"0.02"	"122.637"	"363.079"	"33.4"	"365.558"	"15.277"	"0.356"	"1.255"
"1938"	"0.282"	"0"	"2.439"	"0.028"	"26.752"	"316.765"	"443.229"	"179.305"	"219.422"	"44.227"	"0.56"	"0"
"1939"	"0.132"	"1.96"	"5.944"	"0"	"0"	"23.46"	"285.825"	"340.022"	"161.727"	"3.683"	"8.17"	"3.745"
"1940"	"0.985"	"1.706"	"2.12"	"1.802"	"13.041"	"183.574"	"284.704"	"247.968"	"102.824"	"28.876"	"25.198"	"0.273"
"1941"	"4.417"	"7.286"	"2.736"	"0.377"	"0.113"	"12.614"	"410.865"	"245.973"	"145.092"	"0.608"	"0.207"	"0.195"
"1942"	"2.514"	"1.322"	"0"	"0.39"	"5.67"	"79.553"	"424.166"	"456.62"	"140.048"	"0.185"	"0.207"	"8.082"
"1943"	"0.902"	"0"	"0"	"2.046"	"4.357"	"125.218"	"282.449"	"89.447"	"297.969"	"24.459"	"0.207"	"0"
"1944"	"1.713"	"0.02"	"6.393"	"0.054"	"0.497"	"108.79"	"462.945"	"501.971"	"190.98"	"18.291"	"0.207"	"0"
"1945"	"4.403"	"0"	"0"	"0.042"	"4.814"	"102.33"	"293.559"	"367.058"	"325.784"	"1.679"	"0.207"	"0"
"1946"	"0"	"1.855"	"0"	"0.554"	"4.626"	"327.914"	"248.732"	"314.628"	"131.621"	"0.247"	"104.74"	"8.339"
"1947"	"0.831"	"0.445"	"2.287"	"1.395"	"0.101"	"26.648"	"232.93"	"360.269"	"356.593"	"27.05"	"0.207"	"6.275"
"1948"	"11.497"	"0.451"	"0.311"	"1.492"	"6.546"	"143.111"	"463.772"	"198.38"	"128.471"	"8.554"	"60.681"	"0.201"
"1949"	"0.2"	"0.013"	"0"	"0"	"6.127"	"116.489"	"348.461"	"261.929"	"288.503"	"38.748"	"1.112"	"0"
"1950"	"0"	"0"	"0.963"	"0"	"2.107"	"10.674"	"395.899"	"72.364"	"394.01"	"3.676"	"1.042"	"4.148"
"1951"	"0.02"	"0"	"1.197"	"5.6"	"0.867"	"62.713"	"205.105"	"187.865"	"87.662"	"61.424"	"7.096"	"0"
"1952"	"0"	"0.818"	"0"	"0.273"	"1.597"	"116.081"	"287.336"	"154.892"	"103.164"	"1.457"	"0.207"	"0.967"
"1953"	"4.29"	"0"	"0"	"0.476"	"0.086"	"83.663"	"288.84"	"299.644"	"121.82"	"14.994"	"0.207"	"0"
"1954"	"5.706"	"0.284"	"1.184"	"0"	"0"	"67.001"	"335.251"	"246.643"	"594.719"	"7.5"	"2.511"	"0"
"1955"	"1.066"	"0"	"0"	"0.113"	"0.165"	"137.532"	"135.738"	"405.846"	"433.828"	"66.751"	"0.207"	"0.429"
"1956"	"5.557"	"0"	"0.34"	"2.83"	"2.115"	"186.063"	"340.821"	"264.57"	"191.981"	"28.657"	"32.975"	"0.409"
"1957"	"0.427"	"0"	"3.747"	"3.004"	"4.55"	"125.069"	"259.755"	"233.143"	"102.158"	"8.154"	"5.946"	"0.183"
"1958"	"0.768"	"0"	"0.554"	"0.847"	"10.489"	"100.214"	"316.829"	"331.462"	"309.216"	"45.048"	"48.197"	"0.449"
"1959"	"6.221"	"0"	"0"	"1.762"	"2.306"	"88.124"	"449.568"	"276.097"	"515.773"	"87.776"	"47.552"	"0"
"1960"	"9.135"	"0"	"0.962"	"0"	"6.899"	"222.458"	"235.683"	"266.224"	"89.974"	"29.3"	"0.207"	"0.155"
"1961"	"3.565"	"2.428"	"0"	"0.151"	"8.107"	"114.273"	"299.453"	"186.366"	"369.513"	"94.126"	"4.59"	"4.341"
"1962"	"0.466"	"0"	"12.47"	"3.28"	"6.49"	"48.618"	"325.415"	"96.231"	"339.539"	"0.185"	"40.559"	"18.169"
"1963"	"0.683"	"1.871"	"0.902"	"0.013"	"1.219"	"121.627"	"274.842"	"265.928"	"176.411"	"46.411"	"51.979"	"0.067"
"1964"	"0"	"0"	"1.929"	"0"	"0.901"	"160.046"	"293.945"	"355.24"	"174.526"	"8.371"	"0.207"	"0.449"
"1965"	"4.406"	"0"	"5.229"	"1.191"	"0"	"36.284"	"317.731"	"279.247"	"38.698"	"1.14"	"0.307"	"2.999"
"1966"	"0.66"	"0"	"3.016"	"0"	"18.366"	"64.358"	"298.738"	"147.038"	"254.046"	"0.669"	"47.51"	"2.456"
"1967"	"0"	"0"	"7.366"	"0.701"	"0.129"	"180.463"	"301.72"	"272.953"	"109.147"	"6.132"	"0.207"	"22.546"
"1968"	"0.061"	"2.685"	"8.136"	"0.426"	"0.086"	"19.119"	"259.233"	"501.852"	"93.096"	"4.386"	"0.207"	"0"
"1969"	"0.282"	"0.013"	"0"	"0"	"0.04"	"140.672"	"317.316"	"231.982"	"324.258"	"0.185"	"36.282"	"0"
"1970"	"5.835"	"0.386"	"0.147"	"6.377"	"12.582"	"316.414"	"129.118"	"381.584"	"293.184"	"1.066"	"0.207"	"0"
"1971"	"0.034"	"0.086"	"0"	"0"	"11.722"	"105.02"	"187.601"	"232.427"	"171.301"	"16.582"	"0.248"	"0"
"1972"	"0"	"0.221"	"0"	"0.015"	"1.259"	"97.923"	"176.725"	"314.66"	"154.285"	"0.273"	"27.503"	"0.034"
"1973"	"0.027"	"3.393"	"0"	"0"	"1.012"	"131.457"	"326.172"	"415.945"	"289.304"	"38.899"	"0.207"	"1.056"
"1974"	"0"	"1.837"	"0"	"7.688"	"29.416"	"80.743"	"279.559"	"356.521"	"154.319"	"50.923"	"0.207"	"0.429"
"1975"	"0"	"0"	"1.134"	"0"	"4.617"	"143.646"	"346.345"	"398.8"	"241.804"	"46.887"	"0.207"	"0"
"1976"	"1.8"	"0.129"	"2.724"	"0.028"	"0.013"	"115.251"	"313.041"	"219.552"	"145.66"	"0.185"	"44.675"	"2.626"
"1977"	"0.412"	"0.381"	"4.221"	"0.692"	"2.633"	"204.762"	"286.224"	"230.484"	"172.399"	"17.183"	"82.687"	"0.285"
"1978"	"5.888"	"7.764"	"4.713"	"1.713"	"0"	"130.982"	"279.054"	"335.474"	"74.214"	"20.248"	"25.376"	"4.718"
"1979"	"5.623"	"0.71"	"1.37"	"0"	"0.319"	"114.241"	"287.498"	"333.016"	"82.602"	"26.472"	"53.586"	"3.712"
"1980"	"0.629"	"0"	"0.027"	"0"	"0.086"	"249.406"	"169.454"	"336.709"	"97.009"	"0.253"	"0.498"	"17.253"
"1981"	"4.789"	"0"	"0.584"	"0"	"5.364"	"56.362"	"286.349"	"464.067"	"144.284"	"13.556"	"40.14"	"1.28"
"1982"	"3.633"	"0.523"	"3.097"	"0.315"	"7.385"	"151.848"	"213.912"	"171.927"	"61.395"	"18.383"	"52.485"	"0.49"
"1983"	"0.027"	"0"	"0"	"0.494"	"0.864"	"55.167"	"345.422"	"361.255"	"324.802"	"46.467"	"0.207"	"0.309"
"1984"	"1.206"	"1.676"	"0.448"	"0.061"	"0"	"48.544"	"250.932"	"250.721"	"73.423"	"26.719"	"1.261"	"0.302"
"1985"	"0.188"	"0"	"1.35"	"6.529"	"6.507"	"28.31"	"188.321"	"271.772"	"91.456"	"88.573"	"0.207"	"0"
"1986"	"0.333"	"1.781"	"0.286"	"0"	"4.581"	"81.314"	"346.058"	"287.585"	"58.844"	"10.691"	"0.207"	"0.445"
"1987"	"3.042"	"1.777"	"2.058"	"0"	"9.856"	"118.668"	"147.096"	"280.554"	"21.536"	"21.622"	"11.698"	"10.93"
"1988"	"1.488"	"0"	"0.466"	"4.021"	"0.313"	"121.309"	"321.287"	"276.407"	"218.063"	"35.97"	"1.283"	"0.02"
"1989"	"1.181"	"0"	"7.014"	"0"	"3.816"	"155.129"	"96.551"	"249.653"	"162.939"	"0.185"	"0.207"	"0.842"
"1990"	"0.25"	"4.063"	"0"	"0"	"22.499"	"96.992"	"246.432"	"441.621"	"246.197"	"3.651"	"3.252"	"12.738"
"1991"	"0"	"0.013"	"0.43"	"0"	"2.627"	"175.605"	"348.329"	"116.966"	"37.466"	"0.931"	"1.924"	"2.439"
"1992"	"0.494"	"0.27"	"0"	"0"	"10.603"	"69.324"	"148.976"	"206.244"	"327.073"	"20.071"	"0.362"	"0"
"1993"	"0"	"0.013"	"1.487"	"0.013"	"2.973"	"148.834"	"382.611"	"191.166"	"214.829"	"15.964"	"4.793"	"0.677"
"1994"	"12.567"	"0.04"	"2.573"	"0.953"	"2.704"	"208.279"	"287.674"	"402.371"	"228.757"	"0.673"	"0.663"	"0"
"1995"	"4.307"	"0.027"	"5.583"	"1.071"	"7.438"	"58.528"	"505.012"	"178.264"	"139.204"	"32.776"	"0.711"	"0.259"
"1996"	"4.509"	"0.383"	"2.718"	"2.147"	"7.747"	"176.449"	"525.49"	"367.428"	"135.417"	"24.651"	"1.283"	"0"
"1997"	"3.054"	"0"	"0"	"3.99"	"2.474"	"174.237"	"356.851"	"371.835"	"72.637"	"22.942"	"49.452"	"9.038"
"1998"	"1.987"	"1.543"	"2.098"	"2.005"	"4.795"	"135.089"	"185.097"	"203.799"	"321.696"	"34.463"	"11.501"	"0"
"1999"	"1.289"	"4.235"	"0"	"0"	"1.062"	"198.453"	"165.436"	"161.238"	"265.226"	"58.299"	"0.207"	"0.934"
"2000"	"0"	"0.811"	"0"	"0.028"	"14.484"	"83.585"	"352.262"	"124.89"	"16.659"	"6.353"	"1.991"	"0"
"2001"	"0.488"	"0"	"2.04"	"0.77"	"14.177"	"271.02"	"206.745"	"131.576"	"15.127"	"32.566"	"0.445"	"0"
"2002"	"0"	"4.411"	"3.406"	"5.898"	"1.462"	"172.628"	"27.124"	"221.211"	"103.709"	"0.192"	"5.524"	"3.407"
