
"Year"	"Jan"	"Feb"	"Mar"	"Apr"	"May"	"Jun"	"Jul"	"Aug"	"Sep"	"Oct"	"Nov"	"Dec"
"1901"	"20.309"	"21.479"	"24.881"	"27.757"	"29.133"	"28.633"	"25.521"	"24.795"	"25.685"	"24.807"	"21.444"	"18.883"
"1902"	"20.096"	"21.932"	"25.758"	"27.742"	"29.415"	"28.702"	"25.208"	"25.605"	"25.292"	"24.614"	"21.39"	"19.172"
"1903"	"20.201"	"21.22"	"25.259"	"28.003"	"28.819"	"27.603"	"25.361"	"25.268"	"25.07"	"23.939"	"20.626"	"18.319"
"1904"	"19.668"	"21.136"	"25.022"	"28.288"	"28.414"	"26.653"	"25.163"	"24.927"	"25.006"	"24.222"	"21.19"	"19.169"
"1905"	"19.609"	"20.606"	"24.686"	"26.807"	"28.425"	"29.161"	"25.355"	"25.325"	"24.763"	"24.186"	"21.55"	"18.718"
"1906"	"20.351"	"22.176"	"24.148"	"28.443"	"30.024"	"27.137"	"25.24"	"25.064"	"25.445"	"24.402"	"21.54"	"19.885"
"1907"	"19.723"	"21.982"	"24.441"	"26.198"	"28.32"	"26.982"	"25.502"	"24.005"	"25.421"	"24.675"	"22.129"	"18.519"
"1908"	"18.295"	"21.731"	"24.636"	"28.439"	"29.237"	"28.001"	"25.001"	"24.218"	"25.188"	"24.232"	"20.78"	"17.876"
"1909"	"20.408"	"21.905"	"25.269"	"25.781"	"28.567"	"26.252"	"24.674"	"24.893"	"24.905"	"23.638"	"21.008"	"19.449"
"1910"	"19.573"	"21.207"	"25.134"	"28.116"	"29.336"	"27.427"	"25.408"	"25.255"	"25.255"	"24.173"	"19.732"	"17.287"
"1911"	"19.885"	"20.944"	"24.647"	"27.571"	"29.187"	"26.19"	"25.738"	"24.551"	"25.117"	"24.084"	"21.749"	"18.311"
"1912"	"19.398"	"22.295"	"26.011"	"27.227"	"29.686"	"29.023"	"24.941"	"24.829"	"25.142"	"24.298"	"20.771"	"17.615"
"1913"	"18.378"	"22.118"	"24.93"	"28.173"	"28.732"	"26.499"	"25.152"	"25.006"	"25.381"	"23.796"	"20.552"	"19.021"
"1914"	"18.698"	"22.491"	"25.159"	"25.639"	"27.712"	"26.789"	"24.961"	"24.942"	"24.893"	"24.124"	"21.375"	"19.173"
"1915"	"19.396"	"21.656"	"24.475"	"27.555"	"29.249"	"28.398"	"25.999"	"25.603"	"25.193"	"24.957"	"22.86"	"18.601"
"1916"	"18.86"	"22.002"	"25.059"	"27.976"	"29.041"	"25.953"	"25.597"	"25.218"	"25.317"	"24.561"	"21.896"	"18.111"
"1917"	"18.843"	"20.802"	"23.899"	"27.008"	"26.871"	"25.726"	"24.944"	"25.153"	"24.845"	"23.91"	"21.068"	"18.215"
"1918"	"18.564"	"20.857"	"24.687"	"26.919"	"27.489"	"25.275"	"25.964"	"24.769"	"25.495"	"24.225"	"22.744"	"19.598"
"1919"	"20.834"	"22.26"	"25.261"	"27.571"	"28.415"	"26.004"	"25.472"	"24.922"	"25.405"	"24.148"	"21.663"	"18.649"
"1920"	"19.471"	"21.907"	"25.522"	"27.343"	"28.339"	"27.886"	"25.12"	"25.195"	"25.64"	"24.645"	"21.404"	"18.049"
"1921"	"19.715"	"21.259"	"25.829"	"27.668"	"31.769"	"27.677"	"25.576"	"25.008"	"24.768"	"23.418"	"19.405"	"18.66"
"1922"	"19.285"	"21.509"	"25.748"	"28.319"	"29.711"	"27.238"	"24.752"	"25.331"	"24.793"	"23.535"	"21.417"	"17.513"
"1923"	"18.533"	"21.23"	"23.96"	"27.408"	"29.634"	"30.018"	"25.226"	"24.846"	"25.195"	"23.759"	"20.814"	"18.595"
"1924"	"19.374"	"22.268"	"25.596"	"28.607"	"29.089"	"29.25"	"25.663"	"25.404"	"24.864"	"24.035"	"20.852"	"18.049"
"1925"	"18.809"	"20.908"	"24.862"	"27.768"	"28.04"	"26.753"	"24.332"	"25.015"	"25.455"	"23.984"	"21.694"	"18.111"
"1926"	"19.869"	"22.171"	"24.946"	"26.947"	"28.451"	"30.16"	"25.589"	"24.781"	"25.216"	"23.61"	"20.401"	"18.835"
"1927"	"21.057"	"22.672"	"25.597"	"28.788"	"29.762"	"27.979"	"24.981"	"24.808"	"25.354"	"23.911"	"20.71"	"18.869"
"1928"	"19.471"	"21.792"	"25.214"	"27.444"	"29.585"	"27.226"	"25.089"	"25.564"	"25.254"	"24.632"	"20.853"	"19.176"
"1929"	"20.26"	"20.557"	"24.859"	"26.824"	"29.725"	"27.152"	"24.787"	"24.757"	"25.361"	"23.322"	"20.252"	"19.377"
"1930"	"19.151"	"20.339"	"24.967"	"27.446"	"28.836"	"27.599"	"25.177"	"24.822"	"24.972"	"24.27"	"20.227"	"18.523"
"1931"	"19.136"	"22.228"	"25.118"	"28.148"	"29.438"	"29.423"	"25.139"	"25.218"	"25.558"	"24.269"	"20.801"	"18.575"
"1932"	"18.936"	"20.569"	"25.073"	"27.719"	"28.831"	"28.26"	"24.764"	"25.316"	"25.243"	"24.957"	"21.848"	"18.652"
"1933"	"19.374"	"22.152"	"24.934"	"27.389"	"27.665"	"25.804"	"25.268"	"25.079"	"24.99"	"24.097"	"21.247"	"19.06"
"1934"	"18.871"	"21.106"	"25.086"	"28.092"	"30.381"	"27.426"	"25.092"	"24.918"	"25.043"	"23.585"	"20.148"	"18.552"
"1935"	"19.395"	"21.958"	"25.097"	"26.873"	"30.585"	"28.933"	"24.728"	"25.082"	"25.106"	"24.484"	"20.69"	"19.473"
"1936"	"21.515"	"21.306"	"25.396"	"27.869"	"28.597"	"25.681"	"25.409"	"24.645"	"25.319"	"24.009"	"22.548"	"19.511"
"1937"	"18.688"	"22.084"	"24.844"	"27.019"	"29.447"	"28.075"	"24.98"	"25.192"	"25.093"	"23.942"	"21.175"	"18.421"
"1938"	"21.243"	"21.405"	"26.262"	"27.835"	"28.966"	"25.304"	"25.037"	"25.304"	"25.079"	"23.771"	"19.976"	"18.072"
"1939"	"19.61"	"21.839"	"24.572"	"27.944"	"30.258"	"28.275"	"24.639"	"25.217"	"25.156"	"24.633"	"20.465"	"18.362"
"1940"	"17.647"	"21.444"	"24.211"	"27.456"	"28.415"	"26.963"	"24.393"	"24.88"	"25.654"	"24.533"	"22.559"	"19.551"
"1941"	"20.595"	"22.25"	"25.907"	"29.131"	"29.415"	"26.74"	"25.45"	"25.803"	"25.627"	"23.889"	"19.741"	"19.599"
"1942"	"19.553"	"21.704"	"25.621"	"27.593"	"30.199"	"28.836"	"24.815"	"25.167"	"25.501"	"23.535"	"20.652"	"19.499"
"1943"	"20.671"	"20.144"	"24.91"	"26.864"	"28.655"	"26.918"	"25.276"	"24.758"	"25.293"	"24.313"	"21.228"	"17.927"
"1944"	"19.72"	"21.121"	"23.638"	"26.399"	"29.583"	"28.323"	"24.651"	"24.908"	"25.254"	"24.115"	"20.654"	"19.211"
"1945"	"18.896"	"21.175"	"25.325"	"27.147"	"29.988"	"28.416"	"25.101"	"25.378"	"24.727"	"23.263"	"20.04"	"17.249"
"1946"	"17.645"	"20.933"	"25.896"	"25.972"	"28.875"	"26.542"	"25.139"	"24.882"	"25.516"	"24.672"	"23.099"	"20.931"
"1947"	"20.982"	"21.174"	"25.919"	"29.491"	"30.547"	"28.289"	"24.613"	"25.363"	"25.413"	"23.828"	"20.851"	"19.008"
"1948"	"20.198"	"22.531"	"24.591"	"28.152"	"30"	"28.85"	"25.783"	"25.229"	"25.331"	"24.546"	"22.87"	"17.984"
"1949"	"19.333"	"21.229"	"25.607"	"27.605"	"28.883"	"27.506"	"25.215"	"25.315"	"25.29"	"24.456"	"21.123"	"17.585"
"1950"	"19.301"	"21.668"	"24.138"	"28.29"	"29.685"	"27.228"	"24.463"	"25.344"	"25.434"	"23.888"	"20.313"	"18.164"
"1951"	"18.858"	"21.832"	"25.046"	"27.446"	"28.811"	"27.338"	"25.538"	"24.97"	"26.162"	"25.346"	"21.751"	"19.484"
"1952"	"19.947"	"22.542"	"24.843"	"27.92"	"29.548"	"28.9"	"25.701"	"25.24"	"25.288"	"24.305"	"21.026"	"20.444"
"1953"	"19.509"	"22.359"	"26.935"	"28.448"	"31.283"	"29.023"	"25.665"	"24.915"	"25.828"	"24.706"	"20.94"	"18.737"
"1954"	"18.934"	"22.818"	"25.212"	"29.046"	"29.875"	"27.737"	"25.551"	"25.518"	"24.829"	"23.452"	"19.636"	"19.456"
"1955"	"19.396"	"22.778"	"25.854"	"27.758"	"28.534"	"28.278"	"25.44"	"25.316"	"25.017"	"23.909"	"20.127"	"18.279"
"1956"	"20.096"	"20.557"	"26.11"	"28.881"	"29.114"	"26.016"	"24.663"	"25.119"	"25.093"	"23.634"	"21.499"	"19.571"
"1957"	"20.471"	"21.767"	"24.35"	"27.634"	"29.901"	"28.503"	"24.925"	"25.153"	"25.795"	"25.197"	"21.555"	"19.96"
"1958"	"20.383"	"22.455"	"25.473"	"28.533"	"29.944"	"30.147"	"24.962"	"25.692"	"25.292"	"24.383"	"22.214"	"19.623"
"1959"	"19.934"	"22.33"	"25.598"	"28.296"	"30.135"	"27.553"	"25.005"	"24.643"	"25.044"	"24.28"	"20.676"	"18.65"
"1960"	"19.538"	"21.645"	"24.574"	"28.498"	"29.536"	"27.991"	"25.103"	"25.258"	"25.878"	"24.037"	"21.208"	"20.235"
"1961"	"19.931"	"20.799"	"26.533"	"28.551"	"29.556"	"27.049"	"24.588"	"25.342"	"24.43"	"23.701"	"20.138"	"17.821"
"1962"	"17.624"	"20.883"	"25.073"	"27.23"	"29.35"	"26.857"	"25.032"	"25.035"	"25.492"	"24.109"	"20.899"	"19.323"
"1963"	"18.21"	"21.618"	"25.161"	"26.598"	"28.952"	"27.565"	"25.163"	"25.143"	"25.48"	"24.446"	"22.144"	"19.327"
"1964"	"20.871"	"22.732"	"26.324"	"28.443"	"30.012"	"28.014"	"25.306"	"24.431"	"25.244"	"24.456"	"21.516"	"19.126"
"1965"	"19.797"	"22.03"	"25.022"	"27.575"	"29.674"	"28.903"	"25.215"	"25.781"	"25.43"	"24.773"	"21.749"	"20.074"
"1966"	"19.338"	"22.539"	"25.767"	"28.018"	"30.884"	"27.873"	"26.291"	"25.822"	"25.914"	"24.384"	"23.137"	"19.072"
"1967"	"19.674"	"22.577"	"24.272"	"27.768"	"30.474"	"28.789"	"25.925"	"25.016"	"25.484"	"24.164"	"21.377"	"21.447"
"1968"	"19.523"	"22.42"	"24.84"	"26.872"	"29.544"	"28.088"	"25.89"	"25.49"	"25.483"	"23.747"	"21.624"	"19.531"
"1969"	"19.72"	"23.629"	"27.148"	"29.244"	"28.509"	"28.101"	"25.035"	"25.254"	"25.368"	"24.661"	"22.524"	"18.985"
"1970"	"19.858"	"23.53"	"25.82"	"27.785"	"29.421"	"26.327"	"25.194"	"25.138"	"25.381"	"24.231"	"20.469"	"17.385"
"1971"	"19.72"	"22.359"	"24.262"	"25.968"	"26.988"	"25.493"	"24.903"	"24.569"	"25.36"	"24.085"	"20.381"	"17.936"
"1972"	"18.921"	"21.307"	"26.095"	"27.909"	"30.598"	"30.072"	"25.903"	"25.645"	"25.415"	"24.114"	"21.832"	"20.808"
"1973"	"21.321"	"23.518"	"25.769"	"29.755"	"30.81"	"28.876"	"25.162"	"25.154"	"25.637"	"24.534"	"20.803"	"18.874"
"1974"	"19.262"	"22.55"	"26.338"	"28.943"	"29.339"	"28.189"	"26.015"	"25.57"	"25.818"	"24.413"	"21.141"	"18.136"
"1975"	"18.447"	"22.298"	"26.098"	"28.795"	"30.638"	"27.068"	"25.041"	"25.293"	"24.762"	"24.721"	"20.19"	"17.835"
"1976"	"17.886"	"21.742"	"25.72"	"27.747"	"29.416"	"27.928"	"24.883"	"24.947"	"25.393"	"24.989"	"23.449"	"20.267"
"1977"	"19.72"	"22.377"	"26.584"	"27.01"	"27.839"	"28.098"	"25.393"	"25.174"	"24.945"	"23.687"	"22.849"	"18.23"
"1978"	"19.098"	"21.46"	"24.898"	"27.495"	"30.213"	"28.072"	"24.985"	"24.519"	"25.64"	"24.907"	"22.922"	"19.678"
"1979"	"20.391"	"22.204"	"25.153"	"28.195"	"29.201"	"28.278"	"26.492"	"25.617"	"25.788"	"24.988"	"23.409"	"20.023"
"1980"	"20.772"	"22.907"	"25.973"	"28.755"	"29.713"	"26.616"	"24.915"	"25.069"	"25.494"	"24.235"	"22.661"	"20.268"
"1981"	"19.223"	"22.755"	"24.902"	"28.089"	"28.841"	"28.063"	"25.653"	"25.243"	"25.777"	"24.888"	"21.684"	"19.871"
"1982"	"21.233"	"23.153"	"25.821"	"27.921"	"29.297"	"28.313"	"26.676"	"24.808"	"25.87"	"25.026"	"22.588"	"20.329"
"1983"	"20.399"	"22.908"	"26.397"	"28.534"	"29.412"	"29.338"	"26.175"	"25.585"	"25.654"	"24.582"	"21.205"	"19.26"
"1984"	"21.094"	"22.043"	"25.525"	"27.672"	"30.323"	"26.668"	"25.276"	"25.149"	"25.417"	"24.897"	"20.564"	"20.285"
"1985"	"21.008"	"22.006"	"26.273"	"28.545"	"29.376"	"27.282"	"24.726"	"24.71"	"25.31"	"23.124"	"20.801"	"19.918"
"1986"	"18.925"	"22.006"	"25.515"	"27.667"	"29.299"	"26.514"	"25.214"	"25.119"	"25.8"	"24.371"	"21.636"	"20.208"
"1987"	"19.469"	"20.936"	"24.124"	"27.563"	"27.863"	"28.467"	"25.567"	"25.443"	"26.189"	"24.559"	"21.801"	"19.485"
"1988"	"19.846"	"22.17"	"25.5"	"27.173"	"29.198"	"27.304"	"24.814"	"25.558"	"25.915"	"24.324"	"21.767"	"20.496"
"1989"	"19.72"	"22.206"	"25.185"	"28.611"	"30.025"	"27.101"	"25.762"	"25.564"	"25.627"	"24.986"	"22.114"	"19.322"
"1990"	"20.683"	"22.418"	"24.312"	"27.48"	"26.815"	"26.506"	"24.928"	"25.488"	"25.842"	"24.185"	"22.712"	"20.35"
"1991"	"20.755"	"23.521"	"26.624"	"27.995"	"29.563"	"27.562"	"25.836"	"25.747"	"25.99"	"24.885"	"21.391"	"19.322"
"1992"	"18.847"	"21.836"	"25.691"	"28.169"	"29.337"	"27.625"	"26.084"	"25.119"	"25.495"	"24.491"	"22.567"	"18.764"
"1993"	"20.322"	"21.383"	"25.101"	"28"	"29.412"	"28.177"	"25.988"	"25.82"	"25.3"	"25.073"	"21.705"	"18.971"
"1994"	"20.495"	"22.09"	"26.574"	"27.92"	"29.675"	"27.491"	"24.79"	"24.568"	"25.345"	"24.698"	"21.54"	"18.872"
"1995"	"18.947"	"22.007"	"25.497"	"27.97"	"27.615"	"29.178"	"25.468"	"26.165"	"25.793"	"24.334"	"22.027"	"19.958"
"1996"	"20.896"	"21.619"	"26.211"	"27.656"	"30.36"	"28.119"	"26.201"	"25.101"	"26.089"	"24.439"	"22.222"	"19.335"
"1997"	"18.975"	"21.442"	"25.638"	"26.384"	"28.738"	"28.901"	"26.324"	"25.318"	"25.694"	"24.534"	"23.698"	"21.557"
"1998"	"21.073"	"22.705"	"25.511"	"27.933"	"29.885"	"28.901"	"26.112"	"25.916"	"26.066"	"25.571"	"23.116"	"18.796"
"1999"	"18.71"	"23.368"	"26.304"	"29.719"	"28.641"	"27.264"	"25.751"	"25.183"	"25.292"	"25.036"	"21.486"	"19.023"
"2000"	"21.267"	"22.444"	"25.239"	"29.018"	"29.364"	"26.84"	"25.585"	"25.519"	"25.864"	"25.421"	"22.341"	"18.944"
"2001"	"19.875"	"22.934"	"26.307"	"27.521"	"29.763"	"26.492"	"25.515"	"25.17"	"26.52"	"25.107"	"23.222"	"19.584"
"2002"	"20.359"	"22.764"	"26.51"	"28.32"	"30.512"	"27.5"	"26.443"	"24.945"	"25.932"	"25.109"	"21.646"	"20.321"
