
"Year"	"Jan"	"Feb"	"Mar"	"Apr"	"May"	"Jun"	"Jul"	"Aug"	"Sep"	"Oct"	"Nov"	"Dec"
"1901"	"14.752"	"18.172"	"23.192"	"29.352"	"32.84"	"34.765"	"30.175"	"28.463"	"27.581"	"26.375"	"20.346"	"15.771"
"1902"	"16.882"	"18.756"	"26.28"	"29.787"	"34.126"	"34.821"	"29.618"	"29.313"	"28.026"	"25.673"	"19.828"	"15.305"
"1903"	"16.501"	"17.858"	"23.961"	"30.139"	"33.413"	"33.795"	"30.591"	"29.111"	"28.855"	"25.883"	"19.283"	"15.005"
"1904"	"16.214"	"18.257"	"24.321"	"30.86"	"32.633"	"31.69"	"28.228"	"28.015"	"28.026"	"25.691"	"19.482"	"16.653"
"1905"	"15.101"	"15.055"	"22.545"	"27.106"	"32.943"	"36.141"	"29.273"	"28.526"	"27.974"	"25.341"	"20.379"	"16.038"
"1906"	"15.632"	"18.419"	"22.879"	"29.915"	"34.646"	"33.35"	"29.506"	"28.547"	"28.526"	"25.858"	"20.775"	"16.619"
"1907"	"16.915"	"17.707"	"22.278"	"27.362"	"31.927"	"32.361"	"30.884"	"28.517"	"28.678"	"26.406"	"20.342"	"15.057"
"1908"	"14.451"	"18.804"	"23.641"	"31.616"	"34.268"	"34.49"	"29.718"	"28.882"	"28.939"	"25.583"	"19.615"	"15.118"
"1909"	"17.874"	"18.208"	"23.87"	"27.841"	"33.558"	"30.145"	"28.631"	"28.464"	"28.343"	"25.314"	"20.607"	"16.639"
"1910"	"15.453"	"18.506"	"24.386"	"30.16"	"33.384"	"31.623"	"29.386"	"28.481"	"28.526"	"25.821"	"19.777"	"15.504"
"1911"	"18.611"	"17.955"	"22.897"	"29.661"	"34.535"	"30.878"	"31.119"	"28.126"	"27.892"	"25.889"	"20.306"	"15.168"
"1912"	"16.23"	"19.755"	"24.101"	"29.561"	"33.397"	"34.277"	"29.718"	"28.449"	"27.926"	"25.824"	"19.806"	"15.256"
"1913"	"15.915"	"18.718"	"22.183"	"30.435"	"31.822"	"29.448"	"29.244"	"28.447"	"28.195"	"25.607"	"19.428"	"15.8"
"1914"	"16.728"	"19.587"	"23.287"	"28.65"	"31.911"	"32.303"	"29.273"	"28.663"	"28.094"	"24.871"	"21.39"	"16.355"
"1915"	"16.752"	"18.558"	"23.741"	"30.038"	"34.793"	"33.706"	"30.421"	"28.966"	"28.209"	"27.143"	"21.843"	"15.839"
"1916"	"15.168"	"19.055"	"25.623"	"31.249"	"34.336"	"30.145"	"29.293"	"28.264"	"28.325"	"26.437"	"20.504"	"14.607"
"1917"	"15.83"	"18.62"	"23.283"	"27.895"	"29.959"	"31.026"	"29.044"	"28.314"	"27.989"	"26.237"	"19.248"	"15.852"
"1918"	"14.931"	"18.688"	"24.406"	"28.872"	"33.466"	"29.599"	"30.857"	"27.911"	"28.228"	"25.15"	"19.715"	"15.302"
"1919"	"18.164"	"17.721"	"24.52"	"28.811"	"32.283"	"31.695"	"28.531"	"28.366"	"27.96"	"25.274"	"20.573"	"15.67"
"1920"	"15.769"	"18.671"	"24.371"	"29.793"	"31.28"	"34.053"	"28.731"	"28.463"	"28.427"	"26.39"	"20.878"	"15.89"
"1921"	"16.916"	"18.17"	"26.211"	"31.424"	"35.872"	"32.442"	"29.991"	"27.616"	"27.809"	"24.958"	"18.817"	"16.708"
"1922"	"16.083"	"19.391"	"24.759"	"29.587"	"34.377"	"30.316"	"28.164"	"27.55"	"27.182"	"23.985"	"19.401"	"15.305"
"1923"	"15.866"	"18.268"	"23.211"	"30.544"	"34.171"	"35.147"	"28.977"	"28.153"	"28.345"	"24.796"	"19.916"	"16.851"
"1924"	"15.931"	"18.903"	"25.704"	"30.827"	"33.174"	"35.215"	"28.531"	"28.464"	"27.809"	"25.858"	"20.308"	"16.055"
"1925"	"14.816"	"17.454"	"23.755"	"30.163"	"32.275"	"31.424"	"27.967"	"28.612"	"28.341"	"25.821"	"20.304"	"15.554"
"1926"	"16.031"	"19.452"	"23.295"	"26.917"	"31.5"	"35.29"	"30.057"	"28.612"	"27.714"	"25.147"	"18.352"	"15.606"
"1927"	"15.581"	"18.59"	"22.356"	"29.185"	"32.289"	"33.851"	"29.593"	"28.2"	"28.939"	"25.858"	"20.163"	"16.901"
"1928"	"16.311"	"18.888"	"24.757"	"28.735"	"33.54"	"31.356"	"28.728"	"28.963"	"29.028"	"26.888"	"20.953"	"16.838"
"1929"	"16.151"	"17.693"	"24.884"	"30.303"	"34.44"	"33.125"	"28.862"	"27.632"	"28.97"	"25.059"	"20.14"	"15.605"
"1930"	"15.564"	"18.105"	"24.719"	"29.179"	"32.547"	"33.35"	"28.528"	"28.215"	"28.592"	"26.57"	"20.289"	"15.654"
"1931"	"17.763"	"18.455"	"23.618"	"30.641"	"33.934"	"33.957"	"29.344"	"28.914"	"28.642"	"26.141"	"20.34"	"16.656"
"1932"	"17.578"	"18.156"	"24.505"	"29.528"	"32.929"	"34.516"	"29.678"	"28.415"	"28.626"	"26.225"	"20.594"	"15.868"
"1933"	"14.88"	"19.44"	"24.668"	"27.459"	"30.921"	"31.325"	"29.041"	"28.262"	"28.389"	"25.758"	"19.862"	"15.955"
"1934"	"15.75"	"18.62"	"23.95"	"30.045"	"33.555"	"32.779"	"29.078"	"28.515"	"28.54"	"25.113"	"20.174"	"16.704"
"1935"	"15.119"	"19.106"	"24.191"	"27.321"	"33.743"	"33.835"	"29.559"	"27.915"	"27.992"	"25.327"	"20.245"	"16.652"
"1936"	"15.252"	"18.422"	"24.749"	"28.828"	"33.418"	"30.394"	"28.629"	"28.295"	"27.875"	"24.726"	"20.759"	"16.639"
"1937"	"14.316"	"19.339"	"22.97"	"28.118"	"32.492"	"33.22"	"29.414"	"27.865"	"28.329"	"25.006"	"20.424"	"14.859"
"1938"	"16.786"	"17.223"	"25.749"	"30.277"	"32.883"	"30.529"	"29.158"	"28.215"	"28.463"	"26.245"	"19.873"	"15.32"
"1939"	"16.916"	"19.62"	"23.152"	"28.968"	"34.369"	"32.29"	"28.815"	"27.866"	"27.813"	"25.957"	"19.962"	"15.891"
"1940"	"15.219"	"18.593"	"22.731"	"28.378"	"33.177"	"33.487"	"28.896"	"28.366"	"28.012"	"26.028"	"21.322"	"16.454"
"1941"	"16.55"	"18.856"	"25.871"	"31.593"	"33.736"	"31.645"	"29.828"	"28.713"	"28.56"	"25.894"	"20.275"	"16.757"
"1942"	"15.818"	"18.753"	"24.387"	"29.544"	"34.509"	"34.185"	"28.984"	"28.228"	"27.473"	"25.523"	"21.347"	"16.452"
"1943"	"18.362"	"17.789"	"24.656"	"28.104"	"33.908"	"33.175"	"29.177"	"27.666"	"28.509"	"26.292"	"20.756"	"16.754"
"1944"	"16.264"	"18.819"	"22.855"	"27.442"	"34.309"	"32.975"	"29.03"	"28.194"	"28.968"	"24.909"	"20.755"	"17.885"
"1945"	"15.171"	"17.618"	"24.471"	"27.895"	"32.806"	"33.64"	"29.797"	"29.611"	"28.322"	"24.708"	"19.86"	"14.641"
"1946"	"16.064"	"20.105"	"23.786"	"28.847"	"32.585"	"31.86"	"28.496"	"28.464"	"28.209"	"25.784"	"20.801"	"18.047"
"1947"	"15.915"	"18.803"	"24.985"	"30.645"	"33.602"	"34.152"	"29.263"	"28.73"	"28.46"	"25.575"	"20.955"	"16.838"
"1948"	"17.363"	"19.092"	"23.723"	"30.777"	"34.302"	"34.045"	"28.826"	"28.382"	"27.877"	"25.77"	"21.059"	"15.902"
"1949"	"16.865"	"18.887"	"24.216"	"29.666"	"32.609"	"33.53"	"29.324"	"28.079"	"28.127"	"26.471"	"18.849"	"15.252"
"1950"	"16.729"	"18.306"	"23.184"	"28.684"	"33.704"	"31.79"	"28.946"	"28.115"	"28.026"	"25.226"	"19.605"	"16.27"
"1951"	"15.283"	"18.472"	"24.108"	"28.466"	"33.244"	"33.287"	"29.425"	"28.864"	"28.574"	"27.908"	"21.542"	"16.103"
"1952"	"17.213"	"20.851"	"23.665"	"30.472"	"34.349"	"32.774"	"29.577"	"28.317"	"28.158"	"26.107"	"20.493"	"16.683"
"1953"	"16.362"	"20.715"	"27.302"	"30.306"	"34.339"	"33.689"	"28.544"	"28.153"	"27.909"	"25.509"	"19.862"	"17.75"
"1954"	"15.315"	"20.889"	"24.268"	"31.183"	"34.438"	"32.889"	"29.872"	"28.651"	"28.277"	"24.31"	"19.24"	"16.349"
"1955"	"16.576"	"18.917"	"26.217"	"28.845"	"34.057"	"33.468"	"28.324"	"28.212"	"28.057"	"25.654"	"20.311"	"16.683"
"1956"	"16.826"	"18.853"	"25.513"	"31.106"	"34.353"	"30.106"	"28.946"	"27.817"	"27.189"	"25.013"	"19.375"	"17.837"
"1957"	"17.678"	"18.291"	"23.455"	"29.81"	"34.351"	"34.053"	"29.129"	"28.816"	"28.132"	"26.261"	"20.922"	"17.753"
"1958"	"18.065"	"20.12"	"26.05"	"31.536"	"34.561"	"35.436"	"30.029"	"28.513"	"28.195"	"26.272"	"21.758"	"17.817"
"1959"	"17.466"	"18.722"	"24.9"	"30.541"	"33.906"	"33.586"	"29.578"	"28.383"	"27.925"	"25.902"	"20.707"	"16.468"
"1960"	"16.366"	"20.807"	"23.862"	"30.102"	"33.548"	"34.29"	"28.928"	"28.703"	"28.31"	"25.963"	"19.762"	"17.369"
"1961"	"17.052"	"17.858"	"25.064"	"29.975"	"34.104"	"31.587"	"28.927"	"28.481"	"28.026"	"25.611"	"19.525"	"13.322"
"1962"	"14.415"	"18.803"	"23.317"	"29.505"	"32.753"	"33.628"	"30.257"	"28.148"	"27.578"	"24.311"	"20.607"	"16.95"
"1963"	"14.717"	"20.354"	"24.017"	"29.603"	"32.109"	"31.942"	"28.928"	"28.699"	"27.61"	"26.195"	"21.505"	"17.442"
"1964"	"16.031"	"18.373"	"25.515"	"30.624"	"32.105"	"32.289"	"27.141"	"28.466"	"27.978"	"26.098"	"20.125"	"16.986"
"1965"	"17.014"	"19.354"	"23.167"	"27.642"	"31.757"	"34.532"	"29.822"	"28.697"	"27.473"	"26.092"	"21.605"	"16.01"
"1966"	"16.418"	"20.948"	"24.682"	"31.137"	"34.007"	"33.105"	"30.656"	"28.461"	"28.623"	"26.538"	"22.955"	"16.271"
"1967"	"16.617"	"20.753"	"23.518"	"28.641"	"33.093"	"34.734"	"29.927"	"27.852"	"27.776"	"24.957"	"20.305"	"17.788"
"1968"	"16.017"	"18.156"	"23.92"	"28.942"	"32.806"	"31.738"	"28.962"	"28.141"	"29.022"	"25.372"	"20.709"	"16.017"
"1969"	"16.078"	"20.648"	"26.301"	"30.604"	"32.458"	"33.585"	"29.316"	"28.051"	"27.576"	"26.455"	"22.291"	"16.853"
"1970"	"17.397"	"18.556"	"23.92"	"30.857"	"33.242"	"30.991"	"28.827"	"28.38"	"27.513"	"25.76"	"19.961"	"15.8"
"1971"	"15.614"	"17.912"	"23.169"	"27.99"	"30.272"	"29.342"	"27.579"	"27.246"	"27.624"	"25.574"	"20.042"	"16.217"
"1972"	"15.417"	"16.738"	"24.151"	"29.343"	"33.755"	"34.543"	"29.806"	"28.345"	"27.178"	"24.774"	"20.872"	"16.598"
"1973"	"16.36"	"20.2"	"23.378"	"30.852"	"33.701"	"32.248"	"29.672"	"28.516"	"27.643"	"25.611"	"20.31"	"16.525"
"1974"	"15.235"	"18.02"	"24.516"	"30.622"	"32.951"	"33.452"	"28.926"	"28.427"	"28.246"	"26.809"	"20.308"	"14.984"
"1975"	"15.217"	"19.072"	"23.868"	"30.339"	"33.986"	"32.472"	"28.478"	"28.164"	"27.626"	"26.625"	"20.061"	"15.852"
"1976"	"16.214"	"19.757"	"24.517"	"28.909"	"32.803"	"32.934"	"29.324"	"28.128"	"27.525"	"26.157"	"22.505"	"17.015"
"1977"	"15.965"	"19.61"	"25.769"	"29.704"	"30.868"	"31.936"	"28.378"	"28.464"	"28.13"	"25.741"	"22.457"	"16.621"
"1978"	"15.263"	"18.454"	"22.12"	"29.005"	"33.937"	"32.137"	"28.677"	"28.415"	"28.026"	"25.758"	"22.142"	"16.318"
"1979"	"17.114"	"16.75"	"23.32"	"29.494"	"33.361"	"32.741"	"29.765"	"29.603"	"27.874"	"27.17"	"23.639"	"18.137"
"1980"	"16.913"	"19.924"	"23.667"	"31.39"	"33.751"	"31.506"	"28.979"	"28.029"	"27.664"	"26.268"	"21.791"	"17.102"
"1981"	"15.792"	"19.252"	"23.916"	"29.338"	"32.304"	"33.04"	"28.731"	"28.877"	"28.728"	"25.71"	"20.409"	"16.152"
"1982"	"18.112"	"18.705"	"22.972"	"29.295"	"31.9"	"31.828"	"31.324"	"28.765"	"28.476"	"26.205"	"21.107"	"17.041"
"1983"	"15.252"	"18.96"	"24.32"	"28.361"	"31.809"	"33.387"	"29.679"	"29.364"	"29.079"	"25.609"	"20.012"	"17.102"
"1984"	"16.712"	"17.956"	"24.756"	"30.576"	"34.052"	"30.606"	"28.477"	"27.915"	"27.678"	"26.375"	"19.871"	"17.149"
"1985"	"17.499"	"19.052"	"26.405"	"30.59"	"34.087"	"33.637"	"28.343"	"28.564"	"28.475"	"25.444"	"21.004"	"18.097"
"1986"	"16.258"	"18.801"	"23.919"	"30.025"	"31.709"	"32.204"	"28.146"	"27.768"	"27.605"	"25.059"	"22.143"	"16.8"
"1987"	"15.778"	"20.023"	"23.969"	"29.887"	"32.209"	"34.847"	"29.439"	"28.457"	"28.209"	"25.656"	"21.121"	"16.743"
"1988"	"16.866"	"19.904"	"24.268"	"30.204"	"34.037"	"31.09"	"28.882"	"28.711"	"29.539"	"26.079"	"20.973"	"17.888"
"1989"	"15.413"	"18.9"	"24.522"	"29.792"	"33.855"	"31.191"	"28.83"	"28.322"	"28.578"	"26.259"	"21.457"	"16.683"
"1990"	"17.405"	"19.786"	"23.019"	"30.008"	"31.552"	"32.206"	"27.731"	"28.264"	"28.512"	"25.358"	"21.414"	"17.301"
"1991"	"16.018"	"20.415"	"24.083"	"28.908"	"33.704"	"31.002"	"29.921"	"27.528"	"27.977"	"25.512"	"20.101"	"16.25"
"1992"	"15.51"	"17.185"	"25.217"	"29.907"	"31.904"	"32.007"	"30.51"	"28.427"	"28.278"	"26.409"	"22.317"	"17.051"
"1993"	"17.403"	"20.956"	"23.857"	"29.208"	"33.969"	"33.889"	"30.24"	"28.857"	"28.026"	"26.907"	"20.379"	"16.754"
"1994"	"17.799"	"18.953"	"25.68"	"28.908"	"34.06"	"32.611"	"28.515"	"27.963"	"28.127"	"26.361"	"21.744"	"17.184"
"1995"	"15.148"	"19.602"	"23.489"	"29.756"	"33.005"	"34.648"	"29.324"	"27.915"	"27.829"	"26.372"	"21.645"	"17.488"
"1996"	"17.161"	"18.469"	"25.519"	"28.391"	"34.067"	"31.335"	"28.943"	"27.563"	"28.711"	"26.209"	"21.269"	"16.297"
"1997"	"15.749"	"17.707"	"24.369"	"27.713"	"32.34"	"34.386"	"29.458"	"28.2"	"27.626"	"26.323"	"21.858"	"17.816"
"1998"	"15.92"	"19.689"	"21.685"	"28.389"	"32.267"	"34.789"	"28.512"	"28.75"	"28.477"	"28.197"	"22.309"	"18.078"
"1999"	"15.62"	"20.071"	"24.783"	"31.293"	"32.994"	"32.19"	"28.928"	"28.378"	"27.829"	"27.26"	"22.917"	"18.081"
"2000"	"16.353"	"18.705"	"23.669"	"30.94"	"32.988"	"31.195"	"29.831"	"28.798"	"27.525"	"27.722"	"23.57"	"17.205"
"2001"	"15.934"	"18.992"	"24.415"	"29.546"	"33.62"	"30.342"	"28.115"	"28.878"	"28.844"	"27.912"	"23.636"	"18.761"
"2002"	"16.248"	"19.785"	"25.234"	"30.175"	"34.434"	"33.47"	"30.743"	"28.378"	"28.012"	"26.195"	"21.693"	"18.001"
