
"Year"	"Jan"	"Feb"	"Mar"	"Apr"	"May"	"Jun"	"Jul"	"Aug"	"Sep"	"Oct"	"Nov"	"Dec"
"1901"	"75.134"	"35.182"	"5.537"	"7.015"	"5.601"	"52.878"	"177.757"	"284.334"	"218.954"	"12.019"	"2.623"	"0"
"1902"	"10.606"	"5.564"	"1.529"	"5.377"	"2.391"	"32.994"	"312.437"	"158.054"	"321.63"	"4.858"	"1.703"	"0"
"1903"	"5.896"	"4.874"	"3.019"	"2.02"	"16.137"	"81.602"	"109.646"	"234.646"	"146.613"	"86.61"	"0"	"0"
"1904"	"3.66"	"5.287"	"32.471"	"0.244"	"69.977"	"68.792"	"296.518"	"514.17"	"72.095"	"77.537"	"7.322"	"5.656"
"1905"	"11.965"	"19.449"	"34.119"	"5.559"	"3.808"	"14.347"	"347.378"	"285.175"	"362.611"	"5.205"	"0"	"1.623"
"1906"	"7.82"	"64.851"	"24.794"	"0.308"	"5.68"	"111.741"	"455.41"	"238.208"	"212.271"	"49.193"	"0.661"	"1.623"
"1907"	"0.201"	"82.94"	"26.16"	"36.5"	"6.35"	"255.544"	"179.575"	"324.095"	"105.539"	"3.093"	"0"	"1.623"
"1908"	"15.675"	"57.103"	"6.056"	"0.263"	"1.435"	"28.017"	"286.631"	"370.964"	"64.538"	"77.821"	"0"	"0.372"
"1909"	"2.99"	"5.899"	"0"	"37.322"	"1.244"	"231.143"	"448.122"	"222.069"	"146.596"	"1.429"	"0"	"8.598"
"1910"	"10.483"	"5.889"	"18.219"	"5.123"	"7.543"	"130.819"	"189.393"	"332.541"	"202.953"	"36.525"	"49.64"	"0"
"1911"	"14.434"	"0.201"	"32.87"	"2.096"	"5.493"	"340.61"	"85.712"	"284.256"	"256.712"	"97.554"	"67.541"	"0"
"1912"	"2.858"	"7.631"	"4.159"	"8.71"	"14.135"	"54.136"	"292.398"	"322.338"	"53.731"	"4.991"	"25.753"	"0.096"
"1913"	"0.201"	"70.805"	"39.796"	"0.351"	"24.41"	"262.371"	"238.67"	"332.978"	"115.268"	"56.278"	"4.652"	"14.363"
"1914"	"3.01"	"18.39"	"23.229"	"27.062"	"29.564"	"49.981"	"236.584"	"398.756"	"118.194"	"3.051"	"0"	"3.264"
"1915"	"9.76"	"62.494"	"26.008"	"2.808"	"6.729"	"57.768"	"264.227"	"249.736"	"250.618"	"58.749"	"38.496"	"0.746"
"1916"	"0.201"	"29.302"	"0.184"	"2.327"	"2.326"	"197.606"	"323.47"	"362.879"	"129.282"	"116.599"	"3.68"	"0"
"1917"	"3.385"	"46.092"	"9.49"	"3.192"	"36.875"	"148.792"	"265.914"	"518.258"	"121.634"	"155.471"	"0"	"2.596"
"1918"	"0.201"	"0.5"	"6.115"	"2.035"	"5.843"	"275.829"	"116.606"	"420.35"	"159.589"	"1.396"	"0.361"	"0"
"1919"	"60.725"	"12.416"	"16.713"	"11.036"	"24.031"	"160.134"	"303.76"	"471.88"	"168.882"	"95.765"	"0.661"	"0.251"
"1920"	"0.201"	"27.425"	"35.188"	"0.286"	"10.275"	"46.362"	"613.941"	"336.494"	"88.823"	"3.469"	"0"	"0"
"1921"	"51.978"	"14.524"	"0.212"	"1.448"	"0.428"	"231.633"	"278.921"	"466.084"	"86.65"	"3.11"	"0"	"0"
"1922"	"22.504"	"4.818"	"0.148"	"6.498"	"0.294"	"205.234"	"420.255"	"369.406"	"328.78"	"51.171"	"12.02"	"5.88"
"1923"	"0.348"	"60.898"	"0.184"	"0.728"	"0.744"	"82.358"	"367.212"	"561.489"	"213.255"	"22.472"	"8.213"	"1.083"
"1924"	"16.003"	"20.364"	"1.079"	"14.436"	"4.961"	"56.282"	"389.048"	"224.953"	"231.628"	"74.372"	"43.51"	"0.746"
"1925"	"5.026"	"4.202"	"5.084"	"0.468"	"15.929"	"108.875"	"391.71"	"489.57"	"183.264"	"7.731"	"25.9"	"0"
"1926"	"13.157"	"1.283"	"61.471"	"6.741"	"34.354"	"24.405"	"337.145"	"314.265"	"192.057"	"39.48"	"6.672"	"8.866"
"1927"	"17.64"	"46.951"	"44.159"	"0.493"	"6.719"	"31.538"	"380.697"	"409.349"	"127.267"	"47.916"	"42.198"	"0.096"
"1928"	"22.213"	"21.79"	"1.013"	"15.743"	"12.954"	"94.06"	"380.306"	"158.138"	"103.953"	"118.184"	"0"	"4.533"
"1929"	"43.251"	"7.048"	"3.186"	"2.778"	"6.076"	"86.975"	"401.303"	"336.002"	"78.074"	"184.551"	"0"	"18.372"
"1930"	"11.057"	"9.526"	"2.843"	"9.448"	"1.502"	"45.206"	"320.979"	"217.751"	"198.328"	"15.931"	"42.261"	"11.968"
"1931"	"1.663"	"63.47"	"17.207"	"0.308"	"2.8"	"57.038"	"410.119"	"381.943"	"198.599"	"74.934"	"18.143"	"2.364"
"1932"	"0.201"	"18.904"	"0.738"	"0.948"	"16.107"	"68.299"	"407.847"	"363.471"	"129.828"	"26.694"	"26.961"	"2.657"
"1933"	"23.296"	"35.155"	"3.64"	"28.332"	"20.451"	"144.68"	"230.109"	"383.01"	"128.031"	"68.413"	"0"	"0"
"1934"	"26.139"	"8.022"	"4.694"	"5.625"	"0.513"	"114.661"	"269.745"	"430.763"	"199.009"	"33.479"	"32.196"	"1.069"
"1935"	"5.815"	"15.477"	"2.331"	"12.605"	"0.922"	"123.366"	"337.46"	"543.552"	"192.211"	"3.093"	"0"	"2.196"
"1936"	"5.024"	"29.701"	"16.612"	"2.357"	"27.936"	"245.157"	"386.589"	"321.875"	"265.934"	"110.633"	"2.478"	"14.798"
"1937"	"0.201"	"56.651"	"5.258"	"19.651"	"9.367"	"61.8"	"368.632"	"324.549"	"190.894"	"103.28"	"0"	"0"
"1938"	"29.011"	"20.573"	"0.667"	"4.178"	"22.945"	"218.651"	"273.2"	"321.744"	"180.93"	"38.958"	"0"	"0"
"1939"	"12.589"	"22.718"	"11.692"	"5.647"	"0.908"	"182.198"	"409.463"	"294.265"	"219.013"	"29.797"	"0"	"0"
"1940"	"0.596"	"45.51"	"68.146"	"7.661"	"7.727"	"53.881"	"274.609"	"422.917"	"142.669"	"5.531"	"0"	"5.237"
"1941"	"24.986"	"8.638"	"10.689"	"0.308"	"11.558"	"168.365"	"226.265"	"379.464"	"173.848"	"40.85"	"2.681"	"0"
"1942"	"50.631"	"62.996"	"18.698"	"7.293"	"0.877"	"117.119"	"325.068"	"427.658"	"299.949"	"4.308"	"0"	"2.934"
"1943"	"21.208"	"11.959"	"1.714"	"28.152"	"15.524"	"50.948"	"354.51"	"636.396"	"214.145"	"35.118"	"0"	"0"
"1944"	"27.974"	"55.905"	"64.996"	"5.826"	"5.409"	"77.318"	"366.261"	"526.921"	"108.397"	"69.737"	"0"	"0.632"
"1945"	"50.186"	"25.2"	"0.359"	"4.113"	"13.067"	"148.444"	"226.978"	"155.317"	"231.905"	"97.402"	"0"	"7.341"
"1946"	"0.201"	"27.191"	"15.143"	"13.701"	"13.683"	"198.03"	"377.648"	"464.567"	"278.534"	"63.01"	"37.213"	"2.454"
"1947"	"27.434"	"12.992"	"20.888"	"0.691"	"3.476"	"77.602"	"344.432"	"242.04"	"299.915"	"54.703"	"1.846"	"2.744"
"1948"	"15.853"	"14.719"	"6.705"	"1.102"	"11.398"	"196.413"	"372.661"	"324.759"	"270.598"	"47.776"	"48.064"	"1.088"
"1949"	"2.766"	"38.463"	"11.451"	"4.076"	"26.58"	"70.39"	"309.175"	"516.751"	"135.134"	"116.06"	"0.028"	"0"
"1950"	"10.959"	"17.761"	"54.183"	"0.216"	"0.942"	"138.477"	"318.55"	"450.189"	"107.114"	"11.234"	"0.661"	"10.386"
"1951"	"9.136"	"8.456"	"44.448"	"21.988"	"2.229"	"123.534"	"230.139"	"323.653"	"199.115"	"48.07"	"4.954"	"0"
"1952"	"0.659"	"17.968"	"33.15"	"3.229"	"5.28"	"217.253"	"129.372"	"258.461"	"196.157"	"32.173"	"0"	"2.188"
"1953"	"50.658"	"10.686"	"0.249"	"4.682"	"1.1"	"125.968"	"360.206"	"388.869"	"216.502"	"3.504"	"0"	"1.463"
"1954"	"13.984"	"21.065"	"3.418"	"0.536"	"4.497"	"104.546"	"171.126"	"284.62"	"221.062"	"18.943"	"0"	"0.534"
"1955"	"22.74"	"20.319"	"1.604"	"1.173"	"0.764"	"71.587"	"361.521"	"161.313"	"85.784"	"98.682"	"0.661"	"0.702"
"1956"	"26.051"	"19.169"	"8.408"	"1.445"	"33.579"	"236.254"	"248.522"	"395.859"	"380.707"	"72.138"	"33.707"	"7.583"
"1957"	"26.739"	"1.829"	"24.867"	"1.117"	"0.918"	"86.169"	"403.194"	"273.837"	"136.332"	"0.486"	"0"	"0.855"
"1958"	"32.45"	"11.427"	"31.031"	"10.551"	"0.17"	"78.291"	"392.072"	"260.046"	"209.335"	"117.098"	"0"	"0.632"
"1959"	"75.111"	"3.637"	"0"	"0"	"17.167"	"52.498"	"274.482"	"305.119"	"161.258"	"157.238"	"0"	"0"
"1960"	"6.093"	"0.201"	"27.298"	"5.795"	"0.266"	"74.292"	"359.593"	"453.517"	"129.004"	"44.35"	"0"	"0"
"1961"	"28.374"	"41.849"	"0"	"0"	"3.329"	"169.984"	"245.773"	"390.704"	"202.298"	"77.003"	"2.396"	"7.374"
"1962"	"20.116"	"11.507"	"6.1"	"7.418"	"1.524"	"94.863"	"276.386"	"263.807"	"288.757"	"15.387"	"0"	"3.835"
"1963"	"12.717"	"7.47"	"31.069"	"4.882"	"36.601"	"105.756"	"360.682"	"397.436"	"180.795"	"54.879"	"14.481"	"0.632"
"1964"	"0.298"	"8.934"	"6.343"	"11.698"	"9.948"	"144.926"	"332.951"	"430.264"	"213.402"	"41.551"	"28.679"	"0"
"1965"	"3.767"	"0.333"	"15.305"	"28.405"	"4.248"	"32.469"	"290.145"	"155.584"	"157.524"	"34.072"	"1.429"	"3.562"
"1966"	"36.191"	"10.288"	"0"	"0"	"0.031"	"217.839"	"86.773"	"155.722"	"43.207"	"0.701"	"31.531"	"17.09"
"1967"	"16.702"	"0.201"	"40.164"	"5.465"	"5.441"	"76.93"	"284.987"	"510.592"	"182.907"	"8.719"	"0"	"12.981"
"1968"	"33.544"	"7.843"	"1.638"	"0.602"	"0.55"	"90.395"	"216.488"	"288.858"	"54.148"	"29.279"	"0"	"4.579"
"1969"	"4.16"	"9.938"	"0.462"	"6.418"	"30.137"	"90.578"	"436.858"	"304.835"	"181.115"	"2.842"	"24.573"	"0"
"1970"	"20.897"	"37.461"	"9.712"	"0.257"	"20.891"	"190.192"	"310.595"	"253.098"	"405.993"	"40.477"	"0"	"0"
"1971"	"28.517"	"8.842"	"3.689"	"25.594"	"47.755"	"363.905"	"389.629"	"515.554"	"122.851"	"92.663"	"0"	"0"
"1972"	"15.403"	"73.561"	"1.827"	"20.727"	"0.871"	"24.623"	"214.636"	"363.24"	"103.355"	"153.221"	"34.349"	"1.088"
"1973"	"42.99"	"3.015"	"1.371"	"0.734"	"1.984"	"105.01"	"240.955"	"363.108"	"207.684"	"142.309"	"2.38"	"0"
"1974"	"5.458"	"4.764"	"0.359"	"0.411"	"7.275"	"60.057"	"489.108"	"222.94"	"102.076"	"66.573"	"4.898"	"0.638"
"1975"	"47.647"	"10.451"	"26.838"	"2.046"	"6.78"	"99.962"	"445.16"	"145.871"	"154.373"	"54.613"	"3.276"	"0"
"1976"	"18.319"	"12.065"	"0.359"	"18.875"	"3.391"	"52.163"	"298.701"	"183.673"	"443.206"	"0.56"	"0.667"	"0"
"1977"	"10.731"	"10.472"	"0.308"	"30.509"	"62.981"	"121.816"	"445.902"	"291.52"	"217.861"	"59.218"	"40.284"	"9.678"
"1978"	"20.41"	"81.243"	"33.657"	"31.045"	"1.698"	"278.29"	"197.906"	"310.059"	"365.647"	"48.581"	"0.204"	"18.338"
"1979"	"23.404"	"16.292"	"0.462"	"11.509"	"1.593"	"127.329"	"338.528"	"164.387"	"105.497"	"6.281"	"57.342"	"8.245"
"1980"	"19.39"	"8.68"	"14.096"	"0.253"	"8.589"	"224.981"	"380.303"	"368.511"	"90.928"	"17.286"	"0"	"4.742"
"1981"	"20.458"	"8.814"	"26.583"	"4.589"	"15.846"	"62.572"	"389.099"	"232.346"	"165.065"	"0.486"	"15.712"	"4.487"
"1982"	"47.847"	"19.202"	"53.346"	"10.504"	"26.749"	"101.623"	"205.036"	"343.941"	"333.916"	"8.949"	"34.035"	"3.7"
"1983"	"12.093"	"8.993"	"6.624"	"17.849"	"34.492"	"117.474"	"309.645"	"194.07"	"121.226"	"71.371"	"0.099"	"3.635"
"1984"	"43.658"	"35.102"	"1.271"	"15.574"	"2.322"	"241.176"	"250.758"	"240.889"	"236.317"	"36.331"	"0.102"	"0"
"1985"	"19.11"	"2.874"	"0.19"	"6.27"	"3.932"	"79.293"	"361.654"	"304.359"	"158.613"	"96.246"	"0"	"2.923"
"1986"	"18.6"	"38.386"	"2.228"	"6.937"	"23.427"	"110.004"	"311.812"	"357.942"	"160.537"	"3.782"	"6.672"	"12.879"
"1987"	"9.953"	"16.21"	"9.698"	"1.828"	"9.819"	"52.377"	"231.873"	"413.411"	"428.345"	"68.553"	"17.369"	"2.842"
"1988"	"11.542"	"19.177"	"31.664"	"4.295"	"18.403"	"191.024"	"245.235"	"203.917"	"116.436"	"30.003"	"0"	"6.643"
"1989"	"6.543"	"4.666"	"7.231"	"0.835"	"25.696"	"169.499"	"268.641"	"252.221"	"140.928"	"47.851"	"15.807"	"25.154"
"1990"	"0.201"	"43.046"	"12.166"	"5.089"	"28.375"	"248.051"	"463.23"	"263.866"	"199.454"	"45.063"	"0"	"0.632"
"1991"	"26.41"	"10.343"	"30.805"	"10.422"	"8.899"	"151.867"	"161.173"	"439.711"	"149.746"	"11.562"	"1.871"	"24.913"
"1992"	"29.826"	"6.071"	"0.494"	"4.342"	"5.248"	"28.444"	"130.26"	"115.703"	"103.908"	"69.911"	"6.745"	"0"
"1993"	"11.023"	"0.336"	"11.433"	"1.192"	"18.769"	"23.124"	"147.925"	"176.19"	"251.44"	"62.445"	"0.201"	"0"
"1994"	"75.378"	"16.678"	"27.899"	"12.243"	"3.794"	"256.544"	"284.821"	"318.889"	"54.874"	"89.397"	"0"	"0"
"1995"	"19.861"	"19.26"	"22.526"	"3.444"	"9.398"	"25.41"	"215.256"	"241.994"	"187.916"	"6.845"	"16.774"	"4.173"
"1996"	"35.416"	"16.465"	"1.135"	"1.333"	"2.886"	"214.623"	"245.062"	"333.69"	"117.325"	"127.816"	"0"	"0"
"1997"	"24.519"	"0.72"	"1.427"	"6.022"	"37.25"	"52.526"	"175.316"	"339.84"	"111.682"	"23.726"	"38.313"	"15.175"
"1998"	"11.494"	"12.529"	"8.564"	"8.266"	"41.757"	"23.562"	"188.859"	"264.74"	"145.156"	"113.284"	"28.012"	"0"
"1999"	"34.436"	"21.226"	"0.184"	"0"	"16.624"	"71.191"	"282.105"	"243.952"	"117.783"	"23.536"	"0.111"	"0.35"
"2000"	"11.775"	"20.772"	"1.03"	"8.946"	"5.128"	"121.057"	"113.728"	"113.256"	"228.617"	"0.486"	"0"	"0.074"
"2001"	"2.999"	"1.065"	"29.932"	"9.445"	"4.774"	"40.351"	"211.712"	"276.786"	"39.089"	"76.788"	"1.149"	"0.111"
"2002"	"30.902"	"13.781"	"6.157"	"4.372"	"3.779"	"25.848"	"133.905"	"289.03"	"157.179"	"95.228"	"21.867"	"0.513"
