
"Year"	"Jan"	"Feb"	"Mar"	"Apr"	"May"	"Jun"	"Jul"	"Aug"	"Sep"	"Oct"	"Nov"	"Dec"
"1901"	"5.727"	"8.485"	"14.7"	"19.481"	"22.233"	"25.278"	"23.128"	"21.841"	"20.659"	"19.32"	"14.83"	"10.659"
"1902"	"9.885"	"11.394"	"15.308"	"19.139"	"22.799"	"23.54"	"21.562"	"21.642"	"20.582"	"16.729"	"13.653"	"10.861"
"1903"	"8.025"	"8.406"	"12.075"	"18.849"	"22.875"	"24.17"	"23.539"	"21.576"	"21.204"	"17.688"	"14.141"	"10.879"
"1904"	"8.202"	"11.58"	"14.289"	"20.662"	"21.865"	"23.367"	"21.716"	"21.343"	"20.195"	"17.821"	"12.664"	"10.039"
"1905"	"5.381"	"5.732"	"9.786"	"16.364"	"22.877"	"24.1"	"21.951"	"21.854"	"20.718"	"18.332"	"14.316"	"9.465"
"1906"	"7.002"	"6.919"	"12.435"	"19.927"	"24.112"	"23.343"	"22.261"	"21.328"	"20.871"	"17.995"	"15.285"	"11.661"
"1907"	"10.713"	"6.986"	"10.092"	"17.38"	"21.189"	"23.889"	"22.963"	"21.906"	"21.407"	"19.078"	"14.483"	"10.924"
"1908"	"9.204"	"10.291"	"14.637"	"21.778"	"22.965"	"24.912"	"21.938"	"21.218"	"20.917"	"18.079"	"13.238"	"9.871"
"1909"	"7.466"	"9.043"	"16.247"	"18.17"	"23.009"	"22.276"	"22.038"	"22.019"	"21.605"	"19.153"	"14.371"	"11.264"
"1910"	"9.981"	"9.709"	"14.783"	"19.669"	"22.787"	"22.976"	"21.328"	"21.806"	"20.961"	"17.166"	"12.754"	"9.783"
"1911"	"8.509"	"10.923"	"11.887"	"19.853"	"24.313"	"23.343"	"23.527"	"22.406"	"20.493"	"17.465"	"12.294"	"10.126"
"1912"	"8.002"	"10.999"	"14.321"	"19.12"	"22.287"	"23.889"	"22.139"	"21.519"	"20.292"	"18.032"	"12.007"	"9.873"
"1913"	"8.75"	"7.949"	"11.726"	"19.762"	"21.263"	"21.939"	"22.003"	"22.417"	"21.605"	"17.843"	"11.976"	"7.996"
"1914"	"10.191"	"8.666"	"12.814"	"18.745"	"22.01"	"23.428"	"22.192"	"21.917"	"20.748"	"16.107"	"13.35"	"9.706"
"1915"	"9.191"	"8.515"	"13.333"	"19.656"	"23.737"	"23.465"	"22.751"	"22.127"	"21.261"	"19.983"	"14.915"	"10.713"
"1916"	"9.077"	"9.399"	"18.101"	"20.979"	"23.74"	"22.606"	"21.78"	"22.106"	"20.594"	"17.995"	"13.878"	"8.977"
"1917"	"8.586"	"9.697"	"13.002"	"15.98"	"18.961"	"22.341"	"21.915"	"21.972"	"19.895"	"17.133"	"14.419"	"9.619"
"1918"	"7.823"	"11.021"	"14.456"	"17.87"	"23.7"	"22.353"	"22.727"	"22.106"	"21.272"	"18.142"	"12.864"	"8.359"
"1919"	"6.108"	"8.934"	"13.826"	"17.469"	"21.241"	"23.654"	"21.751"	"21.906"	"20.317"	"17.996"	"13.496"	"9.095"
"1920"	"10.239"	"8.043"	"12.252"	"19.316"	"19.829"	"22.653"	"21.761"	"21.796"	"20.772"	"18.154"	"14.228"	"11.8"
"1921"	"7.636"	"11.022"	"17.396"	"21.692"	"25.58"	"22.925"	"21.798"	"20.919"	"19.495"	"16.642"	"13.218"	"10.383"
"1922"	"6.567"	"11.223"	"16.072"	"19.404"	"23.844"	"22.654"	"21.818"	"21.016"	"20.194"	"16.995"	"13.329"	"8.138"
"1923"	"8.913"	"8.035"	"15.415"	"21.151"	"22.787"	"25.331"	"21.761"	"21.871"	"20.216"	"16.916"	"13.616"	"9.685"
"1924"	"7.357"	"10.078"	"15.973"	"20.715"	"20.175"	"25.536"	"22.139"	"21.493"	"19.661"	"18.143"	"13.229"	"10.674"
"1925"	"6.466"	"9.59"	"14.85"	"20.986"	"22.453"	"21.563"	"21.415"	"21.718"	"20.506"	"17.696"	"12.318"	"10.972"
"1926"	"8.179"	"11.01"	"11.903"	"16.005"	"20.763"	"25.376"	"22.354"	"21.62"	"20.794"	"17.643"	"11.262"	"10.03"
"1927"	"7.491"	"7.432"	"13.284"	"19.158"	"21.409"	"23.699"	"22.027"	"21.118"	"20.816"	"17.707"	"13.017"	"11.206"
"1928"	"7.504"	"10.135"	"14.297"	"18.637"	"24.259"	"23.186"	"22.141"	"22.339"	"21.728"	"18.842"	"13.318"	"9.531"
"1929"	"7.36"	"9.332"	"16.084"	"19.902"	"23.801"	"23.101"	"21.951"	"21.105"	"20.594"	"17.066"	"13.93"	"7.452"
"1930"	"6.473"	"9.346"	"15.649"	"19.237"	"22.563"	"22.82"	"21.626"	"21.695"	"21.105"	"17.12"	"13.116"	"10.633"
"1931"	"9.649"	"7.069"	"14.195"	"21.327"	"22.689"	"24.954"	"22.041"	"22.618"	"20.282"	"17.53"	"13.44"	"10.421"
"1932"	"10.313"	"8.556"	"15.302"	"19.714"	"22.099"	"24.912"	"22.328"	"21.517"	"20.616"	"18.009"	"14.853"	"9.866"
"1933"	"7.037"	"9.756"	"14.849"	"17.545"	"19.753"	"22.989"	"21.628"	"21.693"	"20.293"	"17.42"	"14.226"	"11.095"
"1934"	"6.489"	"12.224"	"13.838"	"20.26"	"22.574"	"22.889"	"21.64"	"20.919"	"21.242"	"18.01"	"13.664"	"8.584"
"1935"	"5.402"	"9.975"	"14.637"	"16.059"	"24.086"	"24.891"	"21.686"	"21.128"	"20.395"	"17.53"	"12.91"	"8.054"
"1936"	"6.835"	"8.078"	"14.173"	"18.528"	"22.859"	"20.668"	"21.029"	"20.843"	"19.973"	"16.896"	"13.44"	"8.83"
"1937"	"7.448"	"8.447"	"13.196"	"16.652"	"21.901"	"23.391"	"21.862"	"21.652"	"20.683"	"16.93"	"11.71"	"9.13"
"1938"	"6.903"	"7.921"	"15.54"	"20.691"	"23.136"	"21.868"	"21.375"	"21.517"	"20.693"	"18.054"	"11.727"	"11.255"
"1939"	"8.47"	"8.457"	"11.45"	"18.515"	"24.288"	"22.165"	"21.828"	"21.818"	"20.582"	"17.554"	"14.043"	"11.372"
"1940"	"8.546"	"8.888"	"11.48"	"18.447"	"22.822"	"23.552"	"22.04"	"21.628"	"19.895"	"18.319"	"14.129"	"8.649"
"1941"	"7.044"	"10.722"	"16.75"	"22.404"	"23.399"	"22.953"	"22.651"	"22.106"	"20.816"	"18.507"	"13.729"	"12.271"
"1942"	"7.39"	"10.324"	"16.485"	"20.151"	"22.876"	"24.8"	"21.992"	"21.206"	"20.195"	"18.166"	"14.366"	"9.119"
"1943"	"6.802"	"10.958"	"15.161"	"17.495"	"23.464"	"23.212"	"21.994"	"21.259"	"21.284"	"18.099"	"15.223"	"10.752"
"1944"	"6.225"	"8.211"	"13.325"	"18.194"	"24.889"	"22.8"	"22.192"	"21.906"	"20.706"	"18.167"	"13.952"	"11.562"
"1945"	"5.372"	"8.81"	"14.751"	"17.757"	"23.264"	"24.665"	"21.828"	"21.839"	"20.559"	"16.918"	"14.317"	"9.393"
"1946"	"11.013"	"12.301"	"14.25"	"19.673"	"21.356"	"23.102"	"21.842"	"22.341"	"21.218"	"17.207"	"13.752"	"10.13"
"1947"	"7.081"	"10.711"	"14.913"	"21.006"	"23.5"	"24.838"	"22.064"	"22.007"	"20.704"	"16.853"	"14.382"	"10.462"
"1948"	"8.814"	"8.987"	"13.26"	"21.363"	"23.971"	"25.012"	"21.876"	"21.296"	"20.417"	"16.942"	"12.65"	"9.271"
"1949"	"10.325"	"9.461"	"14.906"	"20.263"	"22.347"	"24.312"	"21.65"	"21.607"	"20.641"	"18.575"	"13.34"	"8.484"
"1950"	"8.954"	"8.769"	"12.935"	"19.151"	"22.999"	"23.034"	"21.551"	"21.255"	"19.895"	"17.477"	"13.853"	"9.453"
"1951"	"6.802"	"10.792"	"14.506"	"17.382"	"22.987"	"24.087"	"23.139"	"22.418"	"20.883"	"19.619"	"14.343"	"11.286"
"1952"	"9.989"	"11.735"	"12.981"	"20.603"	"23.101"	"22.955"	"22.038"	"21.596"	"21.282"	"18.153"	"14.153"	"10.665"
"1953"	"6.545"	"12.823"	"17.432"	"20.528"	"23.653"	"24.389"	"22.004"	"21.841"	"21.171"	"17.888"	"14.353"	"11.39"
"1954"	"6.802"	"10.223"	"15.962"	"21.295"	"24.233"	"23.754"	"22.027"	"21.916"	"20.961"	"16.419"	"13.518"	"8.541"
"1955"	"7.336"	"11.51"	"16.573"	"17.815"	"21.798"	"24.354"	"22.027"	"21.373"	"20.483"	"16.895"	"14.063"	"9.789"
"1956"	"7.728"	"11.9"	"14.726"	"21.125"	"24.191"	"23.054"	"21.557"	"21.693"	"20.883"	"16.929"	"13.638"	"8.859"
"1957"	"7.068"	"9.481"	"13.28"	"18.504"	"22.199"	"23"	"22.34"	"21.941"	"20.406"	"17.998"	"14.74"	"10.761"
"1958"	"9.412"	"10.5"	"15.504"	"21.614"	"23.124"	"24.71"	"21.994"	"21.554"	"21.183"	"18.595"	"14.888"	"11.36"
"1959"	"9.002"	"9.709"	"15.985"	"20.303"	"22.935"	"24.089"	"21.526"	"22.305"	"21.437"	"18.096"	"13.717"	"11.718"
"1960"	"7.645"	"14.702"	"13.702"	"18.85"	"23.935"	"24.479"	"22.306"	"22.304"	"21.295"	"17.709"	"13.452"	"13.117"
"1961"	"8.789"	"8.619"	"15.981"	"20.282"	"23.264"	"24.273"	"22.692"	"22.371"	"22.489"	"18.645"	"13.068"	"8.536"
"1962"	"8.031"	"10.664"	"14.837"	"20.547"	"22.945"	"24.354"	"23.105"	"22.36"	"21.053"	"18.608"	"14.847"	"9.928"
"1963"	"8.912"	"11.957"	"13.951"	"19.113"	"22.329"	"23.972"	"22.905"	"21.77"	"20.625"	"18.972"	"14.876"	"10.914"
"1964"	"8.561"	"10.663"	"16.437"	"20.823"	"21.176"	"23.947"	"21.293"	"22.206"	"21.154"	"19.283"	"14.4"	"11.266"
"1965"	"10.695"	"9.64"	"13.516"	"18.423"	"22.199"	"24.581"	"21.928"	"21.306"	"20.883"	"18.426"	"14.968"	"10.644"
"1966"	"9.014"	"11.998"	"15.183"	"19.997"	"23.015"	"23.611"	"22.463"	"21.906"	"20.605"	"17.477"	"13.099"	"10.296"
"1967"	"8.426"	"12.114"	"13.328"	"18.927"	"22.003"	"24.046"	"22.204"	"21.261"	"20.883"	"17.042"	"12.318"	"9.773"
"1968"	"6.79"	"8.246"	"14.284"	"19.416"	"22.591"	"23.419"	"21.639"	"21.451"	"21.451"	"17.231"	"13.542"	"10.761"
"1969"	"8.61"	"11.355"	"17.196"	"19.326"	"21.821"	"23.635"	"21.642"	"21.805"	"20.082"	"18.297"	"15.226"	"11.481"
"1970"	"8.532"	"9.579"	"14.349"	"20.95"	"23.587"	"22.76"	"22.328"	"21.706"	"21.502"	"18.661"	"13.619"	"11.537"
"1971"	"8.103"	"10.28"	"14.839"	"19.387"	"20.424"	"22.265"	"21.569"	"20.659"	"20.106"	"18.162"	"13.648"	"11.859"
"1972"	"10.171"	"8.456"	"16.25"	"18.594"	"23.868"	"24.739"	"22.317"	"21.405"	"19.408"	"16.894"	"13.653"	"11.424"
"1973"	"8.909"	"11.011"	"13.985"	"21.82"	"22.955"	"22.973"	"22.128"	"21.908"	"21.079"	"17.472"	"13.951"	"9.273"
"1974"	"8.301"	"9.52"	"16.336"	"21.625"	"22.309"	"22.789"	"21.628"	"21.363"	"20.466"	"18.853"	"13.828"	"9.227"
"1975"	"7.547"	"9.537"	"13.442"	"20.077"	"23.027"	"22.152"	"20.763"	"21.23"	"19.925"	"18.756"	"12.698"	"10.916"
"1976"	"9.308"	"10.427"	"14.59"	"18.591"	"22.165"	"22.075"	"21.763"	"21.128"	"20.219"	"17.864"	"14.839"	"10.936"
"1977"	"9.13"	"10.523"	"16.748"	"19.333"	"20.647"	"22.499"	"21.381"	"21.341"	"19.735"	"17.948"	"15.27"	"10.337"
"1978"	"8.014"	"8.735"	"10.973"	"18.427"	"24.322"	"23.75"	"21.604"	"21.064"	"19.959"	"18.142"	"12.028"	"8.415"
"1979"	"8.021"	"9.239"	"12.824"	"20.472"	"21.846"	"23.377"	"21.263"	"21.954"	"19.524"	"18.63"	"15.442"	"10.729"
"1980"	"8.591"	"10.922"	"13.704"	"20.949"	"23.747"	"22.695"	"21.293"	"21.517"	"20.371"	"17.519"	"13.829"	"10.928"
"1981"	"7.356"	"10.744"	"13.879"	"19.525"	"22.583"	"23.4"	"21.77"	"21.407"	"20.341"	"17.776"	"12.436"	"9.153"
"1982"	"9.543"	"9.377"	"12.178"	"18.256"	"20.251"	"22.823"	"22.309"	"21.407"	"20.023"	"17.564"	"13.929"	"11.028"
"1983"	"7.779"	"7.759"	"12.907"	"16.77"	"21.541"	"21.87"	"21.731"	"21.717"	"20.838"	"17.018"	"12.976"	"9.994"
"1984"	"7.208"	"8.897"	"17.035"	"19.76"	"24.924"	"24.304"	"20.95"	"21.605"	"20.017"	"18.107"	"13.306"	"9.833"
"1985"	"7.606"	"10.302"	"17.761"	"20.503"	"21.499"	"23.877"	"20.949"	"21.847"	"19.925"	"17.114"	"12.452"	"11.126"
"1986"	"8.59"	"10.022"	"13.901"	"19.346"	"20.419"	"22.865"	"21.116"	"21.43"	"19.985"	"16.885"	"14.682"	"9.165"
"1987"	"8.218"	"11.344"	"15.785"	"20.249"	"20.386"	"23.77"	"22.899"	"21.965"	"21.219"	"18.754"	"15.076"	"11.179"
"1988"	"11.035"	"12.066"	"15.26"	"21.252"	"23.923"	"22.965"	"21.669"	"21.395"	"20.671"	"18.434"	"13.776"	"10.696"
"1989"	"6.376"	"10.045"	"14.839"	"18.662"	"22.6"	"21.94"	"21.763"	"20.705"	"20.406"	"18.064"	"13.63"	"10.119"
"1990"	"12.288"	"10.117"	"12.303"	"18.649"	"22.614"	"24.419"	"21.181"	"21.395"	"20.412"	"17.006"	"14.228"	"10.858"
"1991"	"6.115"	"10.766"	"15.291"	"18.28"	"23.032"	"22.693"	"22.883"	"21.23"	"20.548"	"17.729"	"12.96"	"10.361"
"1992"	"9.397"	"8.533"	"14.704"	"20.18"	"21.355"	"22.489"	"20.851"	"21.125"	"20.201"	"17.683"	"13.84"	"10.784"
"1993"	"8.801"	"11.963"	"12.556"	"19.087"	"23.306"	"22.921"	"21.669"	"22.248"	"19.953"	"18.12"	"14.782"	"11.457"
"1994"	"9.812"	"9.758"	"16.792"	"17.881"	"23.509"	"24.743"	"22.427"	"21.539"	"20.459"	"17.842"	"13.929"	"11.146"
"1995"	"7.519"	"9.78"	"14.014"	"19.028"	"24.902"	"25.311"	"20.756"	"19.815"	"20.282"	"18.539"	"13.454"	"10.618"
"1996"	"8.821"	"10.51"	"14.994"	"19.66"	"22.588"	"22.571"	"20.455"	"19.211"	"20.07"	"17.707"	"13.847"	"9.954"
"1997"	"9.109"	"10.187"	"14.704"	"19.235"	"21.429"	"22.217"	"23.392"	"21.517"	"20.894"	"15.46"	"13.427"	"9.284"
"1998"	"3.333"	"11.253"	"13.126"	"19.781"	"23.621"	"24.876"	"21.839"	"21.43"	"21.482"	"18.33"	"15.879"	"13.922"
"1999"	"8.754"	"14.222"	"18.16"	"24.897"	"23.788"	"22.83"	"23.151"	"22.694"	"21.171"	"19.016"	"16.239"	"12.559"
"2000"	"10.545"	"9.675"	"14.115"	"21.904"	"23.265"	"22.241"	"22.128"	"22.26"	"21.873"	"19.92"	"16.263"	"12.84"
"2001"	"9.379"	"11.288"	"15.838"	"18.994"	"23.288"	"22.795"	"22.949"	"22.826"	"22.349"	"19.907"	"16.506"	"12.442"
"2002"	"9.759"	"11.334"	"16.502"	"20.726"	"25.012"	"24.319"	"23.773"	"22.659"	"19.371"	"19.35"	"15.007"	"10.73"
