
"Year"	"Jan"	"Feb"	"Mar"	"Apr"	"May"	"Jun"	"Jul"	"Aug"	"Sep"	"Oct"	"Nov"	"Dec"
"1901"	"60.91"	"7.076"	"14.994"	"0.456"	"6.221"	"31.02"	"386.488"	"552.52"	"118.522"	"10.002"	"0.2"	"1.294"
"1902"	"8.471"	"4.507"	"0"	"3.06"	"1.312"	"27.44"	"415.506"	"171.405"	"235.798"	"6.502"	"113.271"	"1.638"
"1903"	"5.083"	"0.36"	"0.437"	"0"	"12.431"	"44.123"	"257.507"	"310.944"	"411.684"	"62.901"	"0.2"	"0.016"
"1904"	"1.496"	"10.062"	"34.586"	"0"	"8.374"	"96.754"	"514.74"	"265.555"	"84.206"	"14.145"	"4.283"	"18.814"
"1905"	"6.507"	"7.868"	"4.769"	"0.506"	"1.372"	"22.617"	"195.9"	"249.06"	"228.155"	"0.283"	"0.2"	"1.632"
"1906"	"0.594"	"12.655"	"5.234"	"0"	"2.529"	"139.779"	"503.707"	"176.017"	"410.968"	"2.232"	"0.2"	"2.713"
"1907"	"7.873"	"45.292"	"2.033"	"9.028"	"4.484"	"83.333"	"217.212"	"542.797"	"7.768"	"0.283"	"11.205"	"0.064"
"1908"	"16.117"	"1.676"	"10.329"	"1.753"	"0.293"	"42.617"	"462.909"	"565.694"	"71.55"	"1.796"	"4.99"	"1.216"
"1909"	"5.561"	"11.992"	"0.403"	"10.507"	"4.544"	"230.822"	"259.877"	"339.837"	"125.326"	"0.283"	"0.2"	"22.877"
"1910"	"3.448"	"0.356"	"0"	"1.547"	"1.441"	"121.044"	"191.598"	"357.331"	"288.009"	"13.192"	"41.448"	"0.016"
"1911"	"16.957"	"0.104"	"18.533"	"0.175"	"0"	"187.312"	"185.829"	"207.445"	"334.747"	"22.47"	"70.308"	"1.539"
"1912"	"5.448"	"14.216"	"1.19"	"1.625"	"0.24"	"27.15"	"334.735"	"335.311"	"158.171"	"0.283"	"88.982"	"1.84"
"1913"	"0.113"	"17.775"	"6.975"	"0"	"21.346"	"177.255"	"156.587"	"198.855"	"49.395"	"0.373"	"0.2"	"20.128"
"1914"	"0.627"	"3.057"	"21.37"	"3.31"	"13.832"	"101.802"	"449.157"	"224.818"	"131.934"	"2.74"	"1.176"	"1.711"
"1915"	"7.076"	"25.713"	"38.427"	"11.003"	"7.392"	"70.95"	"272.658"	"505.833"	"175.783"	"49.409"	"3.317"	"1.191"
"1916"	"0.113"	"21.673"	"0"	"1.545"	"2.834"	"129.904"	"239.615"	"430.341"	"232.734"	"86.289"	"11.771"	"0.016"
"1917"	"15.909"	"35.838"	"6.714"	"2.05"	"29.023"	"136.457"	"406.31"	"457.395"	"288.248"	"20.634"	"0.2"	"2.64"
"1918"	"2.292"	"3.076"	"0.419"	"0.162"	"9.487"	"167.338"	"213.998"	"286.683"	"111.383"	"0.397"	"15.631"	"6.693"
"1919"	"64.244"	"4.579"	"1.23"	"16.452"	"14.472"	"72.479"	"382.783"	"812.679"	"88.338"	"55.885"	"16.65"	"5.412"
"1920"	"8.142"	"2.422"	"3.855"	"0"	"25.478"	"144.568"	"474.025"	"170.299"	"96.691"	"0.289"	"0.2"	"0.016"
"1921"	"17.489"	"3.798"	"0"	"0.022"	"0"	"224.942"	"162.266"	"385.04"	"308.143"	"2.224"	"0.2"	"0.016"
"1922"	"32.601"	"3.002"	"0.604"	"0.222"	"1.342"	"159.929"	"485.322"	"266.481"	"252.947"	"0.705"	"30.435"	"12.306"
"1923"	"5.808"	"4.018"	"8.597"	"1.91"	"7.461"	"21.523"	"559.259"	"596.506"	"300.509"	"24.581"	"3.1"	"14.922"
"1924"	"15.61"	"1.819"	"1.357"	"0.097"	"3.073"	"41.248"	"318.78"	"391.502"	"256.31"	"11.899"	"2.557"	"11.212"
"1925"	"0.113"	"0.04"	"0"	"0"	"26.44"	"131.028"	"605.496"	"349.382"	"129.746"	"7.734"	"50.351"	"0.054"
"1926"	"8.863"	"2.76"	"27.896"	"6.482"	"28.133"	"24.657"	"303.332"	"528.632"	"362.326"	"36.886"	"0.854"	"2.373"
"1927"	"1.937"	"13.364"	"20.221"	"5.894"	"0.312"	"75.765"	"522.275"	"179.67"	"117.96"	"67.359"	"143.27"	"17.104"
"1928"	"7.342"	"50.441"	"4.869"	"3.576"	"1.889"	"62.992"	"502.804"	"162.903"	"122.966"	"40.958"	"2.777"	"88.129"
"1929"	"12.113"	"8.656"	"0"	"6.341"	"0.015"	"69.819"	"545.739"	"507.011"	"104.497"	"5.383"	"0.2"	"32.807"
"1930"	"2.218"	"5.005"	"0.297"	"4.678"	"1.918"	"106.355"	"590.9"	"219.765"	"132.081"	"11.773"	"7.282"	"3.653"
"1931"	"2.686"	"12.119"	"1.261"	"0.165"	"2.618"	"48.476"	"334.209"	"418.477"	"447.792"	"109.197"	"112.348"	"0.347"
"1932"	"0.113"	"15.392"	"13.411"	"4.552"	"0.755"	"34.491"	"770.823"	"239.948"	"242.481"	"16.513"	"2.344"	"0.016"
"1933"	"0.113"	"6.08"	"8.079"	"11.753"	"18.137"	"223.921"	"284.68"	"301.963"	"379.819"	"21.79"	"1.319"	"1.32"
"1934"	"12.069"	"0.04"	"8.158"	"0.142"	"0"	"236.232"	"406.613"	"646.484"	"585.553"	"4.572"	"55.284"	"32.963"
"1935"	"10.797"	"12.291"	"0"	"17.202"	"3.435"	"144.23"	"500.842"	"388.49"	"286.231"	"6.083"	"1.986"	"37.317"
"1936"	"0.704"	"16.06"	"10.718"	"6.089"	"4.157"	"200.685"	"332.52"	"246.309"	"295.63"	"5.474"	"53.678"	"7.014"
"1937"	"0.113"	"44.535"	"2.901"	"11.788"	"3.327"	"258.445"	"389.53"	"315.164"	"139.51"	"42.516"	"15.076"	"4.37"
"1938"	"30.177"	"1.372"	"1.221"	"0.566"	"10.969"	"288.446"	"379.322"	"271.246"	"110.319"	"116.045"	"0.2"	"0.016"
"1939"	"20.239"	"3.649"	"6.004"	"2.366"	"0"	"118.616"	"544.429"	"282.912"	"139.204"	"5.912"	"0.323"	"1.08"
"1940"	"8.326"	"11.626"	"7.797"	"4.013"	"19.355"	"100.919"	"555.998"	"412.135"	"136.126"	"7.512"	"7.325"	"15.854"
"1941"	"22.362"	"16.706"	"12.582"	"0.142"	"2.404"	"94.161"	"218.743"	"267.348"	"107.619"	"0.283"	"0.2"	"0.016"
"1942"	"39.172"	"35.149"	"1.092"	"3.709"	"0.136"	"127.888"	"706.805"	"396.507"	"196.363"	"3.488"	"0.2"	"16.863"
"1943"	"47.108"	"0.206"	"0.061"	"7.091"	"14.896"	"106.036"	"391.948"	"417.678"	"174.215"	"37.139"	"0.654"	"0.016"
"1944"	"19.219"	"28.108"	"38.047"	"12.579"	"0"	"88.004"	"787.296"	"536.861"	"134.138"	"32.454"	"0.285"	"7.591"
"1945"	"49.962"	"0.052"	"0"	"11.538"	"5.241"	"249.385"	"568.218"	"294.945"	"255.843"	"7.96"	"0.2"	"5.551"
"1946"	"0.113"	"8.287"	"0"	"12.33"	"3.513"	"188.977"	"374.493"	"564.762"	"54.861"	"27.637"	"65.638"	"10.903"
"1947"	"42.214"	"18.39"	"8.496"	"1.896"	"0.725"	"91.742"	"681.424"	"611.851"	"394.372"	"15.578"	"2.025"	"1.504"
"1948"	"68.757"	"2.869"	"1.461"	"1.85"	"1.888"	"157.496"	"437.71"	"416.409"	"203.919"	"18.363"	"96.758"	"0.016"
"1949"	"0.113"	"5.151"	"0.126"	"0.23"	"4.724"	"115.532"	"322.634"	"319.531"	"509.986"	"73.121"	"0.2"	"0.016"
"1950"	"19.975"	"6.535"	"10.716"	"0.088"	"1.678"	"46.955"	"372.118"	"425.308"	"142.846"	"0.344"	"0.245"	"25.824"
"1951"	"9.099"	"28.167"	"8.468"	"0.866"	"11.852"	"71.714"	"456.749"	"338.266"	"253.057"	"7.526"	"6.326"	"0.016"
"1952"	"0.12"	"22.906"	"6.316"	"1.809"	"0.945"	"201.933"	"394.826"	"458.565"	"62.724"	"0.658"	"0.2"	"20.989"
"1953"	"16.102"	"2.844"	"0"	"2.25"	"0.638"	"34.7"	"432.663"	"304.083"	"152.626"	"10.881"	"0.2"	"1.516"
"1954"	"34.566"	"19.967"	"8.015"	"0.015"	"0.167"	"82.789"	"232.885"	"313.907"	"436.505"	"27.777"	"0.2"	"0.016"
"1955"	"28.293"	"2.555"	"0.763"	"0.23"	"0.991"	"169.728"	"248.993"	"592.986"	"400.986"	"82.212"	"0.2"	"0.222"
"1956"	"11.19"	"2.255"	"2.577"	"0.177"	"5.668"	"184.631"	"765.362"	"432.645"	"205.851"	"39.075"	"69.328"	"9.192"
"1957"	"23.291"	"0.052"	"23.947"	"4.843"	"7.337"	"82.717"	"310.531"	"336.329"	"196.045"	"4.665"	"1.199"	"2.294"
"1958"	"3.488"	"2.14"	"6.557"	"0.475"	"0.373"	"70.201"	"545.302"	"378.133"	"235.648"	"138.082"	"6.324"	"1.426"
"1959"	"23.767"	"6.875"	"0"	"5.192"	"29.61"	"96.843"	"314.311"	"631.194"	"348.704"	"31.288"	"2.363"	"0.016"
"1960"	"47.897"	"0.04"	"9.314"	"2.131"	"1.791"	"72.256"	"333.608"	"872.051"	"63.81"	"103.411"	"0.2"	"1.539"
"1961"	"35.14"	"4.411"	"2.128"	"1.372"	"8.297"	"94.279"	"422.257"	"500.845"	"311.261"	"133.967"	"35.448"	"4.617"
"1962"	"13.028"	"18.974"	"6.284"	"17.234"	"3.167"	"39.37"	"383.15"	"704.791"	"439.935"	"0.47"	"3.456"	"19.68"
"1963"	"23.334"	"13.095"	"3.24"	"6.865"	"3.527"	"106.433"	"357.849"	"324.501"	"381.332"	"8.951"	"7.001"	"4.781"
"1964"	"0.113"	"2.271"	"19.782"	"0.175"	"17.374"	"95.018"	"316.108"	"447.282"	"207.288"	"2.38"	"0.2"	"0.785"
"1965"	"13.827"	"2.413"	"5.965"	"10.146"	"1.761"	"53.767"	"234.635"	"218.332"	"230.592"	"11.656"	"0.2"	"21.901"
"1966"	"2.244"	"2.183"	"1.008"	"0.23"	"3.898"	"134.851"	"319.697"	"218.905"	"38.976"	"0.956"	"74.028"	"3.064"
"1967"	"0.749"	"0.04"	"34.407"	"0.45"	"0.813"	"67.111"	"314.373"	"452.167"	"228.486"	"0.371"	"0.2"	"103.891"
"1968"	"15.223"	"2.756"	"8.914"	"0.669"	"0"	"93.032"	"521.19"	"232.534"	"76.879"	"52.11"	"0.2"	"1.989"
"1969"	"2.071"	"1.369"	"1.608"	"0"	"10.528"	"19.614"	"585.505"	"530.649"	"156.903"	"0.283"	"119.182"	"0.016"
"1970"	"31.3"	"24.67"	"25.403"	"0.315"	"6.011"	"125.027"	"193.936"	"498.676"	"231.063"	"6.219"	"0.2"	"0.016"
"1971"	"14.674"	"3.189"	"1.228"	"2.5"	"9.39"	"327.662"	"365.89"	"326.993"	"168.097"	"130.472"	"0.615"	"0.016"
"1972"	"2.609"	"5.157"	"0"	"0.213"	"2.654"	"34.29"	"117.949"	"572.178"	"183.465"	"76.889"	"26.097"	"7.263"
"1973"	"2.201"	"4.236"	"0"	"0.022"	"4.299"	"9.186"	"642.54"	"575.151"	"225.534"	"21.298"	"0.2"	"28.261"
"1974"	"0.113"	"1.946"	"0.732"	"1.331"	"5.096"	"97.472"	"306.524"	"560.492"	"50.862"	"64.345"	"0.268"	"0.016"
"1975"	"8.39"	"17.553"	"3.472"	"0.226"	"0.145"	"174.071"	"306.728"	"405.606"	"256.639"	"32.575"	"0.2"	"0.016"
"1976"	"13.813"	"0.205"	"4.333"	"9.712"	"9.127"	"120.512"	"305.773"	"475.974"	"205.592"	"0.283"	"65.187"	"1.675"
"1977"	"10.485"	"1.754"	"5.686"	"2.351"	"9.07"	"341.587"	"350.273"	"431.197"	"193.658"	"23.267"	"53.547"	"5.42"
"1978"	"8.101"	"74.316"	"28.557"	"7.616"	"0.537"	"220.013"	"314.021"	"659.979"	"210.445"	"2.518"	"3.118"	"61.462"
"1979"	"50.77"	"27.092"	"2.637"	"0.176"	"20.835"	"69.258"	"395.963"	"246.697"	"27.442"	"3.419"	"35.79"	"2.347"
"1980"	"0.942"	"2.767"	"2.187"	"0"	"0.076"	"230.776"	"355.917"	"437.509"	"51.621"	"2.862"	"0.615"	"32.218"
"1981"	"4.662"	"2.499"	"8.999"	"0.297"	"7.806"	"76.763"	"189.675"	"280.452"	"124.13"	"1.525"	"4.711"	"21.137"
"1982"	"103.079"	"7.51"	"5.208"	"3.166"	"3.106"	"60.271"	"238.663"	"908.451"	"179.078"	"6.692"	"98.132"	"4.729"
"1983"	"10.785"	"1.12"	"0.559"	"2.927"	"7.442"	"109.479"	"467.754"	"454.717"	"535.908"	"63.191"	"0.2"	"1.575"
"1984"	"58.918"	"30.154"	"0.32"	"1.604"	"3.429"	"122.069"	"134.99"	"421.175"	"71.642"	"3.53"	"0.2"	"0.016"
"1985"	"16.863"	"0.202"	"0.407"	"8.839"	"11.044"	"94.099"	"413.208"	"470.269"	"222.875"	"122.124"	"0.2"	"3.437"
"1986"	"11.866"	"35.877"	"12.537"	"0"	"11.973"	"133.394"	"301.68"	"196.159"	"67.989"	"18.781"	"1.094"	"40.793"
"1987"	"21.397"	"35.186"	"2.472"	"0"	"11.883"	"53.495"	"201.448"	"409.748"	"172.543"	"16.755"	"4.522"	"23.376"
"1988"	"2.087"	"2.81"	"3.056"	"5.624"	"0.54"	"186.227"	"227.198"	"243.894"	"101.571"	"2.49"	"1.74"	"6.967"
"1989"	"3.47"	"0.04"	"18.668"	"0"	"0.743"	"96.583"	"236.442"	"396.101"	"62.863"	"2.589"	"3.49"	"15.587"
"1990"	"0.113"	"23.481"	"3.125"	"0.543"	"16.919"	"409.203"	"604.759"	"537.995"	"369.784"	"8.082"	"0.2"	"3.892"
"1991"	"1.944"	"6.939"	"12.288"	"14.162"	"6.487"	"105.385"	"133.255"	"460.194"	"50.293"	"0.298"	"2.79"	"11.532"
"1992"	"14.427"	"7.627"	"0.811"	"0.248"	"22.184"	"13.134"	"58.575"	"266.754"	"335.619"	"12.013"	"7.758"	"0.016"
"1993"	"1.432"	"10.558"	"4.665"	"0.088"	"8.133"	"90.16"	"170.069"	"172.488"	"118.448"	"19.613"	"0.2"	"1.545"
"1994"	"20.423"	"18.833"	"19.088"	"2.728"	"13.616"	"275.975"	"700.516"	"390.135"	"104.427"	"14.944"	"0.2"	"0.016"
"1995"	"36.387"	"9.949"	"27.662"	"5.464"	"0.854"	"108.162"	"311.639"	"176.964"	"249.32"	"14.857"	"8.976"	"28.806"
"1996"	"30.571"	"8.893"	"7.315"	"18.144"	"5.685"	"75.324"	"241.47"	"467.372"	"113.517"	"31.127"	"1.624"	"0.016"
"1997"	"4.869"	"0.04"	"0.434"	"2.132"	"9.901"	"61.491"	"316.925"	"309.224"	"137.11"	"49.253"	"126.933"	"73.562"
"1998"	"1.722"	"3.312"	"27.318"	"0.718"	"2.237"	"102.482"	"188.566"	"416.075"	"242.516"	"17.698"	"71.693"	"0.016"
"1999"	"7.288"	"61.01"	"0"	"0"	"8.589"	"49.57"	"398.96"	"407.212"	"303.42"	"71"	"0.2"	"0.398"
"2000"	"1.664"	"1.743"	"0.103"	"0.03"	"12.774"	"96.806"	"664.366"	"156.155"	"85.058"	"0.797"	"0.306"	"0.016"
"2001"	"10.169"	"1.312"	"5.656"	"2.628"	"24.391"	"329.28"	"340.174"	"202.411"	"30.111"	"37.528"	"4.892"	"0.016"
"2002"	"3.553"	"38.599"	"2.94"	"1.665"	"12.189"	"100.451"	"83.958"	"416.884"	"143.736"	"19.871"	"16.528"	"4.303"
