
"Year"	"Jan"	"Feb"	"Mar"	"Apr"	"May"	"Jun"	"Jul"	"Aug"	"Sep"	"Oct"	"Nov"	"Dec"
"1901"	"59.562"	"11.24"	"4.327"	"8.723"	"15.224"	"128.99"	"178.719"	"263.14"	"199.322"	"34.06"	"9.502"	"0"
"1902"	"1.204"	"0.671"	"9.34"	"10.071"	"12.912"	"105.349"	"362.374"	"180.524"	"376.556"	"24.88"	"0.134"	"1.241"
"1903"	"6.567"	"4.3"	"6.546"	"9.167"	"45.716"	"231.896"	"132.01"	"212.008"	"171.254"	"121.405"	"0.391"	"0"
"1904"	"0.733"	"1.529"	"24.909"	"2.521"	"169.632"	"112.653"	"275.885"	"353.239"	"116.154"	"57.825"	"8.132"	"0"
"1905"	"9.857"	"30.129"	"26.578"	"8.732"	"31.293"	"24.818"	"474.611"	"308.898"	"361.974"	"22.737"	"0"	"0.262"
"1906"	"14.668"	"62.373"	"20.866"	"2.21"	"22.275"	"137.402"	"389.762"	"210.291"	"204.729"	"123.285"	"0.721"	"0.199"
"1907"	"0.129"	"36.564"	"23.325"	"31.278"	"21.881"	"213.601"	"188.771"	"247.052"	"178.829"	"28.802"	"0"	"1.245"
"1908"	"10.743"	"39.803"	"6.413"	"2.081"	"15.011"	"122.822"	"296.041"	"246.662"	"118.873"	"101.231"	"0"	"0.703"
"1909"	"6.504"	"5.205"	"0"	"36.695"	"12.969"	"205.977"	"321.819"	"392.608"	"186.757"	"15.434"	"0.36"	"3.076"
"1910"	"2.136"	"10.98"	"17.162"	"13.627"	"19.389"	"185.882"	"367.142"	"312.99"	"209.149"	"66.318"	"6.571"	"0"
"1911"	"7.54"	"0.131"	"19.898"	"3.256"	"24.308"	"332.484"	"230.204"	"253.101"	"268.221"	"122.429"	"19.194"	"0"
"1912"	"3.035"	"6.943"	"4.84"	"19.211"	"39.23"	"124.855"	"336.438"	"276.945"	"63.86"	"28.416"	"12.431"	"0.094"
"1913"	"0.129"	"44.512"	"30.045"	"1.242"	"56.487"	"397.233"	"202.466"	"311.77"	"178.597"	"93.696"	"1.253"	"13.265"
"1914"	"0.129"	"28.317"	"15.777"	"28.211"	"60.695"	"61.778"	"323.135"	"340.629"	"117.199"	"24.933"	"0"	"2.684"
"1915"	"1.912"	"47.881"	"11.998"	"5.79"	"33.499"	"172.079"	"288.231"	"255.448"	"244.861"	"58.661"	"13.176"	"0"
"1916"	"0.129"	"15.451"	"2.305"	"6.118"	"9.809"	"192.376"	"359.086"	"273.992"	"205.132"	"211.448"	"2.066"	"0"
"1917"	"2.086"	"21.616"	"5.674"	"6.37"	"74.098"	"162.374"	"289.816"	"288.643"	"206.742"	"246.185"	"1.08"	"0"
"1918"	"0.91"	"0.131"	"6.36"	"5.866"	"32.059"	"182.27"	"211.998"	"395.004"	"202.688"	"16.394"	"0"	"0.915"
"1919"	"30.522"	"6.824"	"10.893"	"10.791"	"64.636"	"110.492"	"306.191"	"394.504"	"191.395"	"148.939"	"3.185"	"0"
"1920"	"0.129"	"34.634"	"27.933"	"3.733"	"28.813"	"80.088"	"387.414"	"290.1"	"219.61"	"22.872"	"0"	"0"
"1921"	"28.597"	"2.511"	"2.51"	"4.094"	"12.543"	"159.186"	"283.797"	"388.787"	"138.769"	"20.711"	"0"	"0"
"1922"	"13.076"	"10.722"	"0.779"	"6.299"	"7.175"	"385.346"	"403.62"	"301.42"	"314.509"	"86.265"	"1.067"	"11.078"
"1923"	"0.288"	"55.816"	"1.425"	"2.507"	"10.06"	"105.947"	"241.328"	"401.664"	"189.799"	"29.274"	"1.751"	"0.362"
"1924"	"3.96"	"7.44"	"1.76"	"19.528"	"20.59"	"158.332"	"356.167"	"248.279"	"240.29"	"105.87"	"39.704"	"0"
"1925"	"24.7"	"3.76"	"5.657"	"12.981"	"30.507"	"104.825"	"335.249"	"387.347"	"183.011"	"30.924"	"4.249"	"0"
"1926"	"24.877"	"0.135"	"42.616"	"7.103"	"89.572"	"44.835"	"501.054"	"290.48"	"219.777"	"59.813"	"0.6"	"4.406"
"1927"	"24.07"	"44.675"	"32.728"	"2.245"	"28.72"	"98.493"	"261.626"	"332.106"	"138.687"	"55.775"	"28.89"	"0"
"1928"	"36.129"	"11.414"	"2.058"	"12.424"	"45.206"	"205.236"	"460.226"	"182.399"	"187.88"	"190.416"	"0"	"1.635"
"1929"	"25.52"	"1.37"	"4.595"	"6.13"	"29.528"	"177.961"	"365.5"	"243.203"	"67.841"	"303.414"	"0"	"8.962"
"1930"	"12.041"	"7.056"	"4.485"	"6.602"	"19.028"	"104.34"	"278.491"	"209.492"	"214.905"	"47.852"	"13.158"	"9.442"
"1931"	"6.557"	"40.289"	"15.265"	"1.543"	"17.483"	"78.235"	"547.523"	"282.613"	"315.592"	"71.73"	"7.941"	"0.999"
"1932"	"0.129"	"18.294"	"2.272"	"5.873"	"45.038"	"141.74"	"213.895"	"299.065"	"195.884"	"44.36"	"36.214"	"7.441"
"1933"	"36.582"	"17.738"	"2.794"	"24.067"	"44.5"	"145.207"	"473.697"	"368.604"	"162.489"	"92.104"	"0"	"0"
"1934"	"26.402"	"24.05"	"1.25"	"12.627"	"17.962"	"174.55"	"339.455"	"349.657"	"241.801"	"60.793"	"5.225"	"0.656"
"1935"	"7.187"	"18.384"	"1.897"	"11.641"	"13.404"	"146.319"	"211.31"	"470.406"	"206.279"	"23.757"	"0"	"0.426"
"1936"	"4.748"	"3.634"	"14.01"	"6.461"	"79.656"	"169.692"	"446.54"	"260.427"	"352.743"	"156.696"	"0.2"	"15.729"
"1937"	"0.129"	"43.484"	"3.34"	"24.672"	"23.906"	"97.851"	"173.677"	"318.356"	"236.407"	"158.777"	"0.225"	"0.194"
"1938"	"6.456"	"18.382"	"3.879"	"4.791"	"60.422"	"357.115"	"271.586"	"270.066"	"185.497"	"62.591"	"0.199"	"0"
"1939"	"4.659"	"31.066"	"9.462"	"6.581"	"16.477"	"168.088"	"398.427"	"248.795"	"271.123"	"79.195"	"0.559"	"0"
"1940"	"0.129"	"44.922"	"43.024"	"6.561"	"25.27"	"99.989"	"452.332"	"331.85"	"145.123"	"26.131"	"0"	"4.037"
"1941"	"17.986"	"5.676"	"9.845"	"4.653"	"32.282"	"161.806"	"284.545"	"328.221"	"227.322"	"73.761"	"5.615"	"0"
"1942"	"28.593"	"40.579"	"13.977"	"10.238"	"7.834"	"135.635"	"267.17"	"409.829"	"368.127"	"10.72"	"0.493"	"0.703"
"1943"	"25.283"	"15.386"	"7.085"	"32.216"	"41.651"	"113.891"	"385.004"	"430.764"	"232.031"	"53.814"	"0"	"0"
"1944"	"23.596"	"28.546"	"45.572"	"10.335"	"14.44"	"210.065"	"235.887"	"399.162"	"155.521"	"101.578"	"0"	"0"
"1945"	"58.991"	"23.807"	"1.877"	"2.022"	"40.194"	"130.256"	"252.727"	"144.363"	"288.217"	"178.979"	"0"	"1.635"
"1946"	"0.129"	"20.08"	"19.507"	"16.083"	"43.949"	"111.019"	"431.213"	"344.372"	"302.526"	"120.874"	"17.754"	"0.132"
"1947"	"23.327"	"8.262"	"15.31"	"2.171"	"21.381"	"88.236"	"436.541"	"206.618"	"331.6"	"81.741"	"0"	"1.052"
"1948"	"7.018"	"11.258"	"6.881"	"14.491"	"47.363"	"111.4"	"393.126"	"258.309"	"334.407"	"95.31"	"12.657"	"0.132"
"1949"	"4.063"	"52.231"	"9.858"	"6.575"	"71.427"	"285.991"	"390.752"	"403.211"	"155.775"	"124.083"	"0"	"0"
"1950"	"2.233"	"9.613"	"40.195"	"2.794"	"6.886"	"248.062"	"259.318"	"340.813"	"144.684"	"42.048"	"1.771"	"0.665"
"1951"	"5.082"	"0.337"	"36.236"	"17.615"	"10.42"	"111.132"	"501.368"	"277.72"	"252.697"	"96.388"	"21.126"	"0"
"1952"	"0.131"	"13.004"	"21.42"	"9.657"	"14.966"	"318.47"	"252.732"	"247.313"	"234.839"	"81.009"	"6.332"	"0.201"
"1953"	"64.226"	"4.258"	"2.024"	"5.703"	"9.384"	"172.955"	"426.62"	"295.791"	"262.551"	"9.219"	"0.065"	"0"
"1954"	"14.595"	"9.96"	"3.039"	"3.256"	"26.313"	"141.807"	"321.898"	"257.455"	"250.489"	"48.069"	"0"	"1.536"
"1955"	"16.114"	"13.558"	"2.149"	"5.673"	"8.001"	"158.899"	"558.062"	"146.155"	"117.974"	"108.579"	"5.187"	"1.808"
"1956"	"18.078"	"12.376"	"6.671"	"13.012"	"93.635"	"259.05"	"173.623"	"319.423"	"374.951"	"86.774"	"38.326"	"7.234"
"1957"	"16.397"	"4.902"	"9.762"	"0.604"	"8.789"	"136.984"	"344.862"	"180.573"	"144.267"	"10.651"	"0"	"2.414"
"1958"	"23.891"	"9.939"	"16.17"	"16.072"	"7.898"	"189.637"	"269.014"	"263.415"	"237.596"	"178.062"	"0.46"	"0"
"1959"	"71.649"	"0.202"	"0.486"	"0.356"	"21.976"	"135.495"	"211.575"	"269.195"	"348.47"	"202.729"	"0"	"0.063"
"1960"	"0.288"	"0.131"	"21.918"	"5.058"	"4.122"	"94.267"	"266.94"	"320.883"	"210.341"	"47.338"	"0.391"	"0"
"1961"	"14.003"	"47.284"	"0.421"	"0"	"11.079"	"180.944"	"229.527"	"282.039"	"249.189"	"92.186"	"4.21"	"4.811"
"1962"	"21.541"	"12.48"	"4.775"	"7.253"	"7.97"	"121.778"	"231.782"	"277.16"	"293.943"	"29.267"	"0"	"3.904"
"1963"	"4.798"	"1.262"	"40.622"	"5.963"	"89.299"	"173.152"	"354.195"	"273.757"	"186.953"	"149.886"	"16.203"	"0"
"1964"	"0.131"	"1.144"	"4.203"	"14.577"	"20.84"	"124.34"	"365.762"	"370.599"	"181.758"	"56.52"	"4.077"	"0"
"1965"	"0.603"	"3.712"	"6.194"	"26.553"	"14.898"	"63.261"	"321.584"	"169.956"	"144.522"	"39.156"	"5.382"	"1.018"
"1966"	"37.836"	"18.872"	"0"	"0.549"	"4.251"	"58.563"	"164.553"	"209.976"	"94.798"	"11.34"	"36.801"	"8.972"
"1967"	"6.476"	"0.26"	"31.415"	"13.261"	"11.244"	"56.915"	"309.697"	"378.457"	"139.551"	"21.851"	"0"	"1.093"
"1968"	"30.51"	"2.335"	"2.725"	"5.199"	"2.266"	"227.173"	"327.483"	"279.283"	"90.934"	"129.813"	"2.562"	"5.307"
"1969"	"5.122"	"19.287"	"4.874"	"12.078"	"58.367"	"203.83"	"314.173"	"299.204"	"201.477"	"26.905"	"17.705"	"0"
"1970"	"12.602"	"12.696"	"7.78"	"1.441"	"27.391"	"207.474"	"393.132"	"226.783"	"257.666"	"84.355"	"1.639"	"0"
"1971"	"19.036"	"16.634"	"6.015"	"32.025"	"76.081"	"355.994"	"338.33"	"316.801"	"129.839"	"149.004"	"1.016"	"0"
"1972"	"7.939"	"53.232"	"2.001"	"20.401"	"12.58"	"29.472"	"138.385"	"206.16"	"250.948"	"163.981"	"12.838"	"0.493"
"1973"	"55.447"	"4.614"	"4.829"	"1.568"	"20.131"	"227.24"	"322.606"	"327.544"	"215.853"	"308.837"	"16.726"	"0.006"
"1974"	"7.826"	"2.048"	"7.176"	"6.692"	"34.271"	"158.219"	"477.925"	"233.707"	"159.694"	"111.65"	"4.53"	"1.89"
"1975"	"64.458"	"7.928"	"12.076"	"3.691"	"38.356"	"67.195"	"302.991"	"111.061"	"320.429"	"60.704"	"1.11"	"0"
"1976"	"6.005"	"28.422"	"0.36"	"23.631"	"29.967"	"124.485"	"257.756"	"285.323"	"317.393"	"0.973"	"0"	"0"
"1977"	"2.001"	"8.999"	"1.113"	"33.823"	"123.16"	"106.051"	"389.862"	"224.091"	"174.958"	"106.068"	"21.827"	"14.479"
"1978"	"10.899"	"44.447"	"33.075"	"29.868"	"27.022"	"138.98"	"294.581"	"228.26"	"317.633"	"96.181"	"10.282"	"9.295"
"1979"	"26.755"	"17.061"	"0.5"	"14.843"	"8.781"	"61.787"	"451.856"	"241.62"	"119.497"	"92.732"	"27.022"	"14.867"
"1980"	"12.239"	"3.445"	"19.736"	"0.57"	"41.659"	"202.556"	"320.054"	"226.459"	"120.538"	"19.39"	"5.13"	"0.738"
"1981"	"17.051"	"4.55"	"22.723"	"11.1"	"46.124"	"76.969"	"370.368"	"183.331"	"161.355"	"0.802"	"5.778"	"1.936"
"1982"	"17.531"	"12.049"	"28.044"	"15.847"	"40.875"	"95.113"	"188.363"	"173.302"	"313.932"	"41.172"	"14.093"	"1.368"
"1983"	"23.772"	"3.495"	"4.578"	"15.07"	"73.632"	"132.246"	"438.965"	"160.765"	"134.362"	"113.965"	"0"	"6.728"
"1984"	"30.897"	"22.465"	"4.155"	"16.335"	"21.854"	"234.676"	"355.421"	"184.743"	"506.384"	"40.032"	"0.009"	"0"
"1985"	"9.436"	"6.452"	"1.205"	"3.07"	"29.257"	"82.88"	"381.862"	"172.963"	"193.032"	"85.994"	"1.015"	"16.914"
"1986"	"4.845"	"13.122"	"1.766"	"17.021"	"45.143"	"135.287"	"295.553"	"246.876"	"164.002"	"35.135"	"8.44"	"8.276"
"1987"	"0.623"	"9.898"	"10.975"	"6.931"	"34.182"	"201.487"	"282.846"	"566.274"	"464.39"	"204.9"	"8.028"	"2.109"
"1988"	"7.996"	"23.163"	"24.106"	"10.031"	"42.446"	"125.74"	"182.294"	"370.671"	"170.248"	"35.487"	"4.855"	"5.61"
"1989"	"9.736"	"15.181"	"5.17"	"1.45"	"70.524"	"181.506"	"265.654"	"243.218"	"244.427"	"58.346"	"8.834"	"9.505"
"1990"	"0.129"	"14.331"	"8.385"	"8.872"	"88.013"	"112.97"	"269.743"	"245.869"	"218.459"	"71.239"	"0.002"	"0"
"1991"	"14.903"	"1.502"	"25.211"	"8.631"	"30.44"	"72.411"	"168.674"	"458.951"	"174.812"	"35.895"	"0.759"	"4.967"
"1992"	"17.621"	"4.615"	"1.578"	"4.808"	"20.579"	"37.457"	"244.799"	"205.547"	"120.935"	"59.207"	"0.002"	"0"
"1993"	"11.301"	"0.391"	"11.643"	"8.167"	"41.018"	"50.181"	"104.349"	"179.006"	"275.354"	"81.13"	"2.752"	"0"
"1994"	"60.937"	"22.979"	"19.162"	"14.358"	"18.071"	"51.891"	"207.897"	"302.388"	"59.077"	"132.92"	"0.784"	"0"
"1995"	"15.545"	"19.314"	"13.259"	"2.108"	"28.861"	"37.175"	"193.16"	"214.736"	"189.638"	"10.251"	"18.395"	"0.063"
"1996"	"27.316"	"11.192"	"1.687"	"6.832"	"17.829"	"48.577"	"162.261"	"303.448"	"155.894"	"160.197"	"0"	"0"
"1997"	"17.878"	"15.822"	"5.85"	"6.376"	"92.456"	"56.348"	"186.182"	"307.633"	"151.901"	"53.475"	"24.139"	"9.729"
"1998"	"2.953"	"18.683"	"7.114"	"12.234"	"92.454"	"42.874"	"200.259"	"258.447"	"179.122"	"217.645"	"18.537"	"0"
"1999"	"21.635"	"7.639"	"1.18"	"0"	"53.09"	"104.115"	"275.633"	"246.051"	"160.376"	"35.089"	"0.299"	"0.009"
"2000"	"12.478"	"12.568"	"9.129"	"11.044"	"19.069"	"133.395"	"120.757"	"153.549"	"258.387"	"0.813"	"0"	"0.143"
"2001"	"2.943"	"1.036"	"22.396"	"11.144"	"28.059"	"44.972"	"230.045"	"255.963"	"60.251"	"108.763"	"0.002"	"0.14"
"2002"	"22.017"	"8.247"	"4.189"	"8.974"	"22.105"	"50.374"	"192.614"	"264.336"	"204.591"	"136.124"	"12.652"	"0.14"
