
"Year"	"Jan"	"Feb"	"Mar"	"Apr"	"May"	"Jun"	"Jul"	"Aug"	"Sep"	"Oct"	"Nov"	"Dec"
"1901"	"0.197"	"0.525"	"9.566"	"30.11"	"65.226"	"337.832"	"487.674"	"405.435"	"163.785"	"73.775"	"5.772"	"0"
"1902"	"0.261"	"0"	"0.04"	"1.033"	"32.538"	"344.207"	"590.805"	"185.412"	"190.253"	"106.129"	"28.082"	"52.951"
"1903"	"0.038"	"0"	"0"	"7.476"	"65.415"	"273.19"	"735.371"	"257.606"	"114.406"	"102.174"	"12.434"	"1.004"
"1904"	"0.014"	"0.34"	"0.287"	"5.329"	"34.131"	"225.564"	"329.087"	"117.73"	"148.371"	"102.506"	"0.38"	"0"
"1905"	"0"	"0.149"	"0"	"0.352"	"32.261"	"223.003"	"752.074"	"134.068"	"54.692"	"118.252"	"26.303"	"0"
"1906"	"1.564"	"0.063"	"0"	"0.107"	"25.695"	"609.868"	"442.877"	"367.045"	"118.36"	"21.774"	"31.385"	"9.342"
"1907"	"0.031"	"1.492"	"4.141"	"39.223"	"0.433"	"401.474"	"886.51"	"645.665"	"251.584"	"12.683"	"4.925"	"0.17"
"1908"	"0"	"0.124"	"1.719"	"10.275"	"11.37"	"201.018"	"652.996"	"393.607"	"321.388"	"24.972"	"5.196"	"0"
"1909"	"0.01"	"0"	"0.448"	"0.507"	"53.363"	"457.859"	"605.43"	"176.273"	"212.542"	"50.36"	"0.585"	"0.848"
"1910"	"0"	"0"	"0"	"0.107"	"27.425"	"583.371"	"387.075"	"606.612"	"263.265"	"88.151"	"49.801"	"0"
"1911"	"0.012"	"0"	"0"	"0.321"	"30.512"	"350.606"	"242.132"	"363.206"	"41.123"	"24.762"	"64.285"	"9.417"
"1912"	"0"	"0.057"	"0"	"6.076"	"22.192"	"218.62"	"916.192"	"332.831"	"60.651"	"152.748"	"104.032"	"0"
"1913"	"0"	"0.005"	"0"	"13.611"	"40.053"	"813.65"	"438.561"	"205.316"	"58.665"	"70.073"	"2.224"	"0.104"
"1914"	"0"	"0.202"	"0.268"	"0.42"	"6.743"	"424.884"	"917.672"	"739.357"	"226.501"	"9.922"	"34.203"	"4.49"
"1915"	"0.133"	"0.263"	"8.837"	"13.557"	"11.793"	"845.459"	"602.485"	"238.473"	"456.119"	"36.926"	"27.123"	"9.288"
"1916"	"0"	"0"	"0"	"3.984"	"84.309"	"423.715"	"513.416"	"342.489"	"281.93"	"166.951"	"90.754"	"0"
"1917"	"0"	"1.237"	"4.491"	"2.702"	"6.069"	"539.51"	"241.621"	"285.847"	"250.54"	"202.155"	"93.69"	"0"
"1918"	"0.553"	"0.489"	"0.398"	"1.291"	"105.983"	"95.241"	"136.519"	"217.136"	"44.301"	"20.143"	"58.068"	"2.159"
"1919"	"0.005"	"0"	"3.539"	"6.781"	"57.106"	"311.657"	"468.714"	"296.955"	"304.549"	"45.078"	"43.386"	"1.323"
"1920"	"1.31"	"0.233"	"0"	"23.268"	"3.296"	"415.036"	"583.41"	"188.044"	"205.002"	"50.079"	"0.38"	"0"
"1921"	"0.007"	"0"	"0"	"6.916"	"0.715"	"239.926"	"745.776"	"334.522"	"92.372"	"87.713"	"19.61"	"0"
"1922"	"0.019"	"0.06"	"0"	"17.083"	"34.569"	"542.443"	"545.306"	"179.198"	"50.526"	"80.022"	"134.439"	"0"
"1923"	"0.99"	"0.445"	"15.068"	"9.745"	"6.554"	"75.354"	"582.79"	"275.05"	"221.68"	"25.303"	"0.38"	"6.093"
"1924"	"0.12"	"0"	"2.357"	"20.219"	"7.497"	"220.14"	"504.336"	"474.981"	"213.571"	"36.872"	"10.253"	"0.558"
"1925"	"0"	"0"	"3.564"	"6.508"	"45.557"	"381.304"	"320.271"	"183.997"	"197.85"	"46.151"	"32.518"	"0.182"
"1926"	"0.894"	"0"	"0"	"0.107"	"39.676"	"265.19"	"615.209"	"598.356"	"185.953"	"24.667"	"4.082"	"0.497"
"1927"	"0.006"	"0.046"	"0.259"	"2.739"	"31.112"	"570.983"	"510.325"	"178.452"	"303.893"	"79.387"	"88.584"	"0"
"1928"	"0"	"1.385"	"1.183"	"24.307"	"0.433"	"339.926"	"441.544"	"376.638"	"220.337"	"76.289"	"0.855"	"2.457"
"1929"	"0"	"0.139"	"4.03"	"45.471"	"4.124"	"355.372"	"503.432"	"145.95"	"386.615"	"118.444"	"18.105"	"8.763"
"1930"	"0"	"0"	"0.733"	"8.15"	"42.022"	"568.231"	"536.966"	"166.749"	"316.276"	"196.372"	"101.489"	"4.493"
"1931"	"0"	"0"	"0.177"	"9.308"	"2.994"	"257.167"	"711.476"	"418.023"	"253.83"	"142.907"	"142.519"	"30.291"
"1932"	"0"	"0"	"0.579"	"15.661"	"76.356"	"235.493"	"821.597"	"541.298"	"278.862"	"252.673"	"29.65"	"5.566"
"1933"	"0"	"0.078"	"1.95"	"6.324"	"131.379"	"441.84"	"519.449"	"482.984"	"405.869"	"104.515"	"20.293"	"41.197"
"1934"	"0.012"	"0"	"0.165"	"6.731"	"9.283"	"432.29"	"460.142"	"401.719"	"143.442"	"92.98"	"158.003"	"0"
"1935"	"0.004"	"0"	"0"	"0.921"	"1.407"	"316.377"	"405.179"	"254.191"	"165.601"	"202.095"	"11.756"	"1.108"
"1936"	"0"	"1.734"	"0.603"	"1.675"	"20.923"	"512.401"	"175.339"	"214.191"	"292.91"	"16.561"	"121.474"	"0.149"
"1937"	"0"	"0.394"	"0.898"	"45.017"	"7.855"	"468.365"	"552.52"	"100.722"	"296.779"	"156.919"	"0.38"	"6.767"
"1938"	"0"	"1.052"	"7.127"	"22.196"	"31.801"	"481.563"	"576.528"	"246.433"	"317.979"	"257.338"	"26.413"	"1.6"
"1939"	"0"	"0"	"2.121"	"6.136"	"0.433"	"279.717"	"703.803"	"289.719"	"108.771"	"72.627"	"32.732"	"0"
"1940"	"0"	"1.172"	"0"	"19.544"	"23.256"	"447.481"	"457.356"	"375.498"	"209.769"	"114.214"	"20.478"	"19.776"
"1941"	"0.943"	"2.795"	"0.894"	"8.464"	"0.713"	"337.287"	"752.922"	"150.037"	"99.582"	"55.781"	"0.563"	"0.015"
"1942"	"0"	"0.117"	"0"	"10.764"	"20.373"	"646.005"	"971.884"	"278.04"	"61.849"	"35.922"	"1.389"	"33.298"
"1943"	"0.219"	"0"	"0"	"2.215"	"98.524"	"317.706"	"847.992"	"165.13"	"191.17"	"267.203"	"18.695"	"0"
"1944"	"0"	"0.065"	"1.121"	"0.107"	"108.163"	"415.167"	"1157.727"	"331.011"	"199.583"	"150.206"	"8.61"	"0"
"1945"	"0.051"	"0"	"0"	"13.136"	"1.54"	"374.996"	"659.031"	"557.868"	"77.845"	"53.361"	"8.763"	"0.479"
"1946"	"0"	"1.263"	"0.011"	"25.006"	"41.233"	"358.346"	"891.547"	"705.066"	"232.466"	"13.036"	"187.912"	"27.875"
"1947"	"2.817"	"0"	"3.397"	"52.907"	"53.333"	"79.968"	"628.584"	"589.655"	"268.319"	"23.729"	"34.752"	"2.229"
"1948"	"0.89"	"2.449"	"3.269"	"10.088"	"1.681"	"278.256"	"388.767"	"403.97"	"231.667"	"141.13"	"165.161"	"0"
"1949"	"0"	"0"	"6.276"	"2.546"	"95.953"	"191.29"	"378.596"	"509.761"	"359.766"	"31.196"	"11.219"	"0"
"1950"	"0"	"0.007"	"0.399"	"10.115"	"64.217"	"110.215"	"930.161"	"253.575"	"338.978"	"169.631"	"1.73"	"0.002"
"1951"	"0.021"	"0"	"0.327"	"5.168"	"24.501"	"273.061"	"456.897"	"262.887"	"99.802"	"201.94"	"56.955"	"0"
"1952"	"0"	"0.091"	"0"	"16.396"	"38.495"	"562.498"	"603.914"	"352.477"	"30.556"	"128.449"	"0.38"	"0"
"1953"	"0"	"0"	"0"	"33.778"	"0.433"	"525.202"	"472.153"	"630.844"	"139.372"	"192.642"	"0.38"	"0"
"1954"	"0.022"	"0.052"	"6.448"	"7.438"	"13.422"	"348.575"	"815.96"	"402.898"	"165.365"	"73.666"	"0.38"	"14.675"
"1955"	"0.018"	"0"	"1.516"	"25.516"	"34.854"	"390.86"	"388.485"	"327.314"	"349.379"	"296.182"	"27.919"	"0"
"1956"	"0"	"0.036"	"0"	"31.389"	"89.359"	"310.448"	"753.597"	"540.71"	"141.409"	"260.058"	"104.033"	"0"
"1957"	"0"	"0"	"0.413"	"20.949"	"99.743"	"526.666"	"476.121"	"322.849"	"104.229"	"222.034"	"93.901"	"0"
"1958"	"0.005"	"0"	"2.025"	"21.163"	"60.429"	"287.506"	"938.619"	"445.434"	"88.288"	"97.801"	"21.121"	"0.015"
"1959"	"0.049"	"0"	"0.052"	"18.879"	"77.846"	"407.66"	"945.894"	"296.666"	"380.935"	"39.512"	"101.666"	"0"
"1960"	"0"	"0"	"0.665"	"18.25"	"78.677"	"446.055"	"488.707"	"246.361"	"370.459"	"25.408"	"35.602"	"0.475"
"1961"	"0"	"0"	"0.395"	"22.101"	"154.411"	"557.825"	"1052.582"	"285.004"	"144.096"	"106.912"	"23.208"	"0.185"
"1962"	"0.092"	"0.048"	"4.911"	"5.369"	"110.084"	"116.504"	"715.729"	"392.192"	"200.805"	"105.522"	"16.913"	"56.489"
"1963"	"0.031"	"0.222"	"10.175"	"22.271"	"80.933"	"353.155"	"801.189"	"673.344"	"69.817"	"129.306"	"11.831"	"0"
"1964"	"0"	"0"	"7.669"	"11.968"	"15.854"	"494.132"	"504.86"	"387.315"	"362.018"	"169.115"	"68.718"	"0.712"
"1965"	"0.084"	"0.002"	"0"	"17.582"	"24.848"	"139.325"	"891.342"	"315.801"	"55.892"	"3.468"	"22.946"	"31.113"
"1966"	"0.051"	"0"	"0.072"	"2.763"	"39.114"	"103.429"	"492.523"	"62.73"	"173.217"	"11.217"	"80.89"	"11.737"
"1967"	"0.167"	"1.901"	"1.109"	"15.759"	"26.022"	"335.733"	"810.419"	"280.997"	"228.956"	"80.707"	"26.1"	"21.628"
"1968"	"0.171"	"2.07"	"3.946"	"19.778"	"20.774"	"321.362"	"500.439"	"260.261"	"202.642"	"96.108"	"34.354"	"5.312"
"1969"	"0.235"	"1.97"	"1.203"	"8.013"	"20.608"	"376.297"	"762.248"	"442.701"	"247.084"	"60.794"	"39.674"	"5.259"
"1970"	"0.002"	"0"	"0"	"15.981"	"100.562"	"316.211"	"487.483"	"405.567"	"141.808"	"128.149"	"0.38"	"0"
"1971"	"0"	"0"	"0"	"0.938"	"63.894"	"617.696"	"243.478"	"341.182"	"337.787"	"45.066"	"0.38"	"0"
"1972"	"0"	"0.176"	"0"	"8.105"	"18.213"	"241.543"	"535.616"	"73.65"	"127.789"	"1.752"	"53.404"	"0.138"
"1973"	"0"	"0.194"	"0.259"	"8.19"	"25.95"	"422.462"	"916.651"	"430.18"	"188.681"	"174.14"	"9.284"	"0"
"1974"	"0"	"0"	"16.047"	"30.084"	"82.305"	"227.661"	"594.023"	"392.588"	"318.245"	"212.232"	"0.387"	"0"
"1975"	"0.055"	"0.201"	"0.012"	"0.107"	"38.034"	"651.856"	"502.662"	"503.472"	"482.529"	"145.859"	"2.988"	"0"
"1976"	"0"	"0"	"3.737"	"11.937"	"11.319"	"1032.83"	"802.863"	"396.064"	"129.754"	"20.71"	"63.663"	"13.823"
"1977"	"0"	"0.205"	"3.464"	"3.913"	"39.07"	"515.444"	"663.83"	"223.739"	"131.621"	"91.151"	"147.635"	"19.827"
"1978"	"0.005"	"1.548"	"3.187"	"48.428"	"101.926"	"535.416"	"310.992"	"349.68"	"207.384"	"38.268"	"65.261"	"0.496"
"1979"	"0"	"0.174"	"2.652"	"0.157"	"11.159"	"545.368"	"329.308"	"599.027"	"450.006"	"40.83"	"133.126"	"0"
"1980"	"0.031"	"0"	"11.506"	"31.271"	"8.063"	"551.987"	"376.775"	"463.82"	"114.349"	"18.5"	"23.059"	"14.168"
"1981"	"0.766"	"0.131"	"0.935"	"24.706"	"19.118"	"501.208"	"679.628"	"316.662"	"413.373"	"99.441"	"2.325"	"0"
"1982"	"0"	"0.016"	"0"	"30.259"	"58.941"	"214.633"	"301.266"	"360.931"	"221.953"	"63.902"	"53.014"	"0"
"1983"	"0.01"	"0"	"0"	"0.107"	"1.187"	"365.672"	"413.69"	"648.155"	"369.965"	"16.138"	"2.898"	"4.113"
"1984"	"0.258"	"0.127"	"16.279"	"10.478"	"0.597"	"480.063"	"709.486"	"259.509"	"243.197"	"180.005"	"10.324"	"0.847"
"1985"	"0"	"0"	"1.46"	"11.057"	"15.274"	"324.962"	"388.808"	"372.391"	"100.326"	"153.032"	"119.697"	"0.886"
"1986"	"0"	"0.168"	"0"	"7.151"	"23.332"	"743.92"	"247.278"	"333.599"	"94.452"	"10.269"	"27.173"	"41.393"
"1987"	"1.105"	"1.265"	"2.542"	"4.471"	"95.727"	"266.96"	"243.868"	"517.608"	"110.893"	"169.564"	"24.021"	"49.233"
"1988"	"0"	"0"	"0"	"47.965"	"12.299"	"312.08"	"877.458"	"310.571"	"639.79"	"10.354"	"0.38"	"3.498"
"1989"	"0"	"0"	"13.721"	"27.043"	"23.662"	"526.077"	"632.256"	"207.927"	"263.887"	"27.736"	"1.283"	"0.778"
"1990"	"0"	"0"	"1.2"	"2.999"	"85.947"	"520.527"	"653.821"	"502.729"	"74.041"	"129.751"	"55.538"	"0.775"
"1991"	"0"	"0"	"1.195"	"35.406"	"43.654"	"678.965"	"620.045"	"277.827"	"229.924"	"19.656"	"20.713"	"0"
"1992"	"0"	"0"	"0"	"5.225"	"13.355"	"401.754"	"409.419"	"516.45"	"340.914"	"65.933"	"38.286"	"0"
"1993"	"0"	"0"	"4.487"	"4.441"	"10.428"	"351.064"	"596.198"	"223.119"	"97.614"	"238.213"	"9.045"	"45.37"
"1994"	"0.261"	"0.105"	"3.73"	"20.699"	"40.005"	"927.389"	"929.844"	"314.844"	"114.545"	"164.411"	"16.08"	"0"
"1995"	"0.322"	"0"	"1.942"	"26.627"	"27.806"	"213.424"	"575.011"	"170.556"	"298.515"	"123.701"	"8.078"	"0"
"1996"	"0"	"0.415"	"0"	"8.698"	"6.834"	"594.178"	"618.306"	"258.233"	"232.368"	"205.703"	"15.795"	"0.324"
"1997"	"0.536"	"0"	"1.931"	"24.599"	"6.071"	"862.587"	"526.592"	"678.741"	"59.218"	"52.272"	"76.643"	"29.457"
"1998"	"0"	"0.375"	"0"	"0.462"	"22.933"	"401.631"	"687.987"	"441.191"	"243.076"	"111.491"	"65.77"	"0.683"
"1999"	"0"	"0.002"	"0"	"0.837"	"45.407"	"547.702"	"420.89"	"127.151"	"195.929"	"228.072"	"0.999"	"0"
"2000"	"0"	"0.044"	"0"	"4.676"	"35.948"	"481.896"	"369.293"	"297.793"	"225.503"	"58.23"	"19.526"	"9.094"
"2001"	"0.008"	"0"	"2.673"	"2.968"	"9.597"	"304.997"	"341.33"	"247.283"	"178.539"	"156.504"	"37.08"	"0.452"
"2002"	"0.016"	"0.015"	"0.427"	"53.686"	"25.701"	"651.131"	"118.729"	"342.954"	"66.529"	"57.036"	"0.669"	"0"
