
"Year"	"Jan"	"Feb"	"Mar"	"Apr"	"May"	"Jun"	"Jul"	"Aug"	"Sep"	"Oct"	"Nov"	"Dec"
"1901"	"95.404"	"32.833"	"20.878"	"2.936"	"7.391"	"17.558"	"277.426"	"432.462"	"222.275"	"3.825"	"0.083"	"0.061"
"1902"	"19.881"	"3.301"	"0.033"	"1.449"	"6.686"	"35.816"	"468.216"	"282.69"	"206.449"	"3.842"	"13.81"	"2.069"
"1903"	"4.035"	"1.902"	"0.206"	"0.762"	"10.348"	"59.603"	"200.864"	"558.151"	"229.368"	"52.223"	"0"	"0"
"1904"	"7.601"	"7.38"	"26.075"	"0.213"	"5.051"	"49.206"	"330.405"	"531.929"	"107.616"	"70.475"	"11.203"	"37.495"
"1905"	"21.047"	"9.662"	"22.794"	"4.846"	"6.253"	"31.034"	"313.74"	"355.477"	"212.631"	"0.33"	"0"	"0.295"
"1906"	"6.249"	"21.85"	"11.892"	"0"	"5.402"	"116.243"	"394.487"	"313.535"	"166.298"	"2.783"	"0.033"	"3.801"
"1907"	"1.731"	"104.05"	"8.496"	"17.213"	"1.691"	"65.82"	"232.626"	"509.903"	"9.953"	"0.254"	"6.557"	"0.381"
"1908"	"25.133"	"16.019"	"6.111"	"1.869"	"0.016"	"34.592"	"387.252"	"561.657"	"80.817"	"7.097"	"0.414"	"3.746"
"1909"	"7.92"	"10.647"	"1.709"	"29.96"	"9.394"	"282.741"	"479.014"	"203.887"	"168.838"	"0.254"	"0"	"43.323"
"1910"	"11.803"	"1.418"	"1.049"	"0.598"	"6.742"	"139.192"	"195.528"	"334.449"	"261.355"	"38.755"	"95.226"	"0"
"1911"	"31.341"	"0.558"	"59.645"	"2.793"	"0.16"	"139.494"	"91.619"	"327.982"	"314.624"	"75.764"	"55.579"	"0.075"
"1912"	"9.842"	"13.48"	"7.41"	"1.466"	"2.285"	"47.844"	"323.606"	"364.713"	"138.352"	"0.288"	"51.673"	"2.574"
"1913"	"0.26"	"56.575"	"36.305"	"0"	"22.033"	"158.735"	"215.288"	"354.571"	"75.002"	"1.905"	"0.327"	"29.41"
"1914"	"7.274"	"10.488"	"28.184"	"13.034"	"22.487"	"80.512"	"552.696"	"303.595"	"111.463"	"4.279"	"0.099"	"5.062"
"1915"	"32.555"	"52.896"	"73.342"	"9.717"	"3.682"	"94.96"	"367.554"	"411.065"	"261.866"	"76.005"	"6.249"	"5.542"
"1916"	"0.26"	"27.974"	"0"	"0.84"	"6.687"	"146.516"	"302.091"	"587.913"	"213.103"	"63.743"	"15.46"	"0"
"1917"	"8.002"	"72.372"	"32.024"	"1.249"	"40.243"	"205.593"	"328.267"	"353.711"	"265.731"	"40.121"	"0"	"13.573"
"1918"	"3.734"	"3.311"	"0.929"	"1.254"	"16.174"	"293.736"	"71.55"	"415.412"	"63.086"	"0.632"	"4.8"	"6.127"
"1919"	"101.72"	"29.2"	"5.841"	"6.251"	"8.675"	"88.781"	"326.88"	"548.409"	"151.872"	"37.086"	"17.37"	"5.429"
"1920"	"13.799"	"9.922"	"28.864"	"0"	"8.451"	"53.515"	"603.976"	"239.504"	"75.876"	"0.84"	"0"	"0"
"1921"	"56.045"	"2.649"	"0"	"0.234"	"0"	"154.818"	"253.564"	"371.367"	"230.756"	"3.26"	"0"	"0"
"1922"	"47.427"	"4.315"	"0.107"	"2.795"	"0.153"	"84.112"	"397.733"	"472.553"	"266.212"	"2.381"	"23.512"	"19.666"
"1923"	"1.996"	"16.64"	"11.817"	"2.722"	"1.208"	"24.465"	"367.576"	"552.299"	"213.125"	"25.373"	"1.408"	"8.004"
"1924"	"43.721"	"5.388"	"5.891"	"1.003"	"0.99"	"22.067"	"398.755"	"464.45"	"165.794"	"16.852"	"10.979"	"9.751"
"1925"	"0.26"	"0.357"	"0.236"	"0"	"22.246"	"109.593"	"684.68"	"302.226"	"326.304"	"2.011"	"44.766"	"0"
"1926"	"10.916"	"2.309"	"83.565"	"11.835"	"22.009"	"18.804"	"272.392"	"402.614"	"326.901"	"42.194"	"1.561"	"2.829"
"1927"	"16.798"	"29.602"	"37.986"	"1.491"	"1.34"	"78.903"	"543.158"	"219.656"	"144.142"	"46.017"	"76.671"	"5.249"
"1928"	"23.806"	"54.445"	"2.799"	"10.985"	"3.224"	"54.621"	"383.806"	"114.463"	"66.698"	"68.104"	"0.13"	"50.522"
"1929"	"83.117"	"11.301"	"0.219"	"2.623"	"0.363"	"69.707"	"655.844"	"464.703"	"137.876"	"27.831"	"0"	"47.933"
"1930"	"5.405"	"20.818"	"3.442"	"5.922"	"5.011"	"97.761"	"509.854"	"282.843"	"130.11"	"20.875"	"16.387"	"23.772"
"1931"	"2.395"	"29.697"	"6.347"	"0.982"	"3.641"	"79.244"	"322.851"	"325.721"	"297.71"	"95.853"	"14.67"	"1.326"
"1932"	"0.26"	"14.337"	"6.379"	"1.513"	"5.189"	"60.177"	"299.451"	"419.02"	"152.067"	"18.88"	"10.097"	"0.117"
"1933"	"0.294"	"22.534"	"17.657"	"33.844"	"32.585"	"142.806"	"239.91"	"372.13"	"146.526"	"41.01"	"0.572"	"1.807"
"1934"	"27.08"	"0.341"	"30.504"	"1.007"	"0"	"133.996"	"261.257"	"401.323"	"256.801"	"8.151"	"26.644"	"7.707"
"1935"	"13.598"	"22.883"	"0.117"	"9.521"	"0.902"	"151.731"	"386.484"	"432.487"	"211.168"	"1.706"	"0.158"	"17.086"
"1936"	"5.489"	"63.737"	"14.396"	"2.749"	"5.725"	"171.46"	"420.091"	"371.947"	"275.478"	"18.784"	"12.493"	"30.527"
"1937"	"0.26"	"57.808"	"18.327"	"13.649"	"3.074"	"138.297"	"396.416"	"331.91"	"174.583"	"51.652"	"1.234"	"0.213"
"1938"	"63.377"	"11.193"	"0.337"	"5.7"	"5.172"	"268.563"	"368.454"	"401.308"	"294.744"	"55.355"	"0"	"0"
"1939"	"25.165"	"14.598"	"16.416"	"8.9"	"0"	"146.696"	"366.072"	"538.85"	"239.973"	"13.181"	"0"	"0.017"
"1940"	"2.653"	"17.473"	"49.639"	"8.29"	"8.458"	"85.161"	"326.164"	"466.193"	"141.583"	"14.349"	"6.468"	"10.445"
"1941"	"46.204"	"13.555"	"6.654"	"0.806"	"5.308"	"101.194"	"204.025"	"251.5"	"121.123"	"1.098"	"0.169"	"0"
"1942"	"77.952"	"54.974"	"1.428"	"7.522"	"0.093"	"90.546"	"369.705"	"388.859"	"192.961"	"5.427"	"0"	"19.884"
"1943"	"52.177"	"2.375"	"0.061"	"11.853"	"9.405"	"30.1"	"292.119"	"635.018"	"266.797"	"32.663"	"1.395"	"0"
"1944"	"27.047"	"47.427"	"74.207"	"6.707"	"0.245"	"48.043"	"512.054"	"682.393"	"77.168"	"30.778"	"0.366"	"4.663"
"1945"	"64.103"	"2.156"	"0"	"13.862"	"3.719"	"104.37"	"339.158"	"390.339"	"153.75"	"23.283"	"0"	"35.262"
"1946"	"0.26"	"40.142"	"0.861"	"6.957"	"5.004"	"175.212"	"372.242"	"477.408"	"36.992"	"20.871"	"37.142"	"9.907"
"1947"	"43.145"	"20.753"	"21.711"	"3.778"	"0.165"	"55.567"	"508.696"	"429.041"	"185.316"	"6.348"	"6.242"	"0.831"
"1948"	"44.986"	"12.679"	"6.693"	"2.136"	"1.268"	"269.677"	"421.407"	"621.419"	"202.438"	"19.006"	"74.814"	"0.117"
"1949"	"0.26"	"35.156"	"0.676"	"1.427"	"14.114"	"69.601"	"355.312"	"560.425"	"188.048"	"86.426"	"0.394"	"0"
"1950"	"25.71"	"23.348"	"61.907"	"0.772"	"1.657"	"90.388"	"385.88"	"447.638"	"91.659"	"0.389"	"0.36"	"28.76"
"1951"	"22.735"	"21.983"	"44.99"	"6.473"	"7.179"	"177.39"	"286.478"	"506.825"	"167.156"	"17.641"	"0.305"	"0"
"1952"	"0.971"	"27.336"	"45.751"	"1.566"	"5.32"	"169.036"	"234.022"	"420.29"	"115.8"	"2.134"	"0"	"1.802"
"1953"	"22.216"	"29.393"	"0"	"6.323"	"0.096"	"147.963"	"412.102"	"385.965"	"193.74"	"5.379"	"0"	"9.526"
"1954"	"22.98"	"16.498"	"8.715"	"0.191"	"0.988"	"102.185"	"307.314"	"382.784"	"259.983"	"9.272"	"0"	"0.05"
"1955"	"66.324"	"26.648"	"4.835"	"1.314"	"2.173"	"112.966"	"478.771"	"469.921"	"227.202"	"83.363"	"0.033"	"1.362"
"1956"	"38.589"	"22.776"	"13.978"	"0.124"	"13.625"	"236.852"	"413.222"	"403.193"	"301.477"	"61.153"	"104.804"	"12.239"
"1957"	"17.808"	"0.899"	"56.387"	"11.261"	"2.581"	"111.985"	"329.071"	"426.502"	"135.554"	"1.88"	"0.053"	"3.399"
"1958"	"27.122"	"11.424"	"51.11"	"3.481"	"0"	"48.857"	"319.947"	"381.329"	"149.031"	"40.475"	"14.878"	"4.15"
"1959"	"56.041"	"13.21"	"0"	"5.336"	"37.935"	"42.744"	"236.405"	"498.291"	"126.521"	"90.33"	"0.067"	"0"
"1960"	"40.668"	"0.189"	"13.845"	"5.111"	"5.878"	"86.643"	"492.685"	"621.25"	"71.789"	"49.599"	"0"	"0.075"
"1961"	"43.615"	"16.361"	"1.821"	"1.326"	"6.989"	"60.934"	"359.075"	"579.96"	"274.252"	"54.275"	"8.338"	"14.442"
"1962"	"20.502"	"25.572"	"16.469"	"15.769"	"6.22"	"41.91"	"340.37"	"457.55"	"332.104"	"1.248"	"6.899"	"25.673"
"1963"	"26.019"	"18.879"	"17.33"	"10.998"	"11.934"	"106.453"	"544.393"	"456.671"	"235.041"	"16.71"	"2.959"	"4.377"
"1964"	"0.26"	"13.803"	"10.29"	"3.573"	"5.909"	"76.87"	"363.457"	"413.457"	"193.299"	"10.623"	"2.051"	"0.038"
"1965"	"10.277"	"1.103"	"36.238"	"18.28"	"2.743"	"43.745"	"216.735"	"224.46"	"172.244"	"17.33"	"0"	"7.501"
"1966"	"9.027"	"7.686"	"4.272"	"1.348"	"10.772"	"318.026"	"198.117"	"195.099"	"41.654"	"2.855"	"78.879"	"18.216"
"1967"	"2.152"	"0.189"	"53.853"	"5.063"	"4.236"	"76.904"	"331.249"	"694.96"	"213.14"	"1.032"	"0"	"76.807"
"1968"	"36.181"	"12.536"	"11.982"	"3.972"	"0"	"90.965"	"262.184"	"214.632"	"131.051"	"14.967"	"0"	"8.496"
"1969"	"3.641"	"4.368"	"2.437"	"0.143"	"20.051"	"38.104"	"598.106"	"333.239"	"141.635"	"0.254"	"25.062"	"0"
"1970"	"53.164"	"65.585"	"11.309"	"0.001"	"29.463"	"124.342"	"365.996"	"407.078"	"540.408"	"21.055"	"0"	"0"
"1971"	"20.729"	"14.804"	"7.869"	"19.156"	"26.644"	"285.967"	"225.044"	"543.812"	"201.514"	"82.816"	"0.021"	"0"
"1972"	"27.665"	"38.582"	"0.033"	"2.376"	"0.3"	"23.627"	"143.198"	"451.811"	"141.267"	"63.049"	"30.196"	"1.341"
"1973"	"7.719"	"8.755"	"0.033"	"0.309"	"0.501"	"28.187"	"567.706"	"620.748"	"177.112"	"49.003"	"0.1"	"2.538"
"1974"	"0.26"	"1.155"	"0.846"	"0.37"	"3.44"	"74.313"	"399.319"	"353.783"	"70.548"	"39.741"	"1.27"	"0"
"1975"	"11.151"	"19.585"	"29.51"	"3.399"	"0.202"	"210.903"	"313.903"	"305.94"	"153.768"	"33.48"	"0.05"	"0"
"1976"	"36.83"	"0.44"	"3.601"	"13.904"	"9.939"	"39.836"	"255.271"	"285.979"	"317.74"	"0.254"	"23.055"	"0"
"1977"	"26.662"	"18.799"	"3.318"	"5.691"	"9.577"	"177.384"	"404.425"	"315.144"	"162.407"	"47.782"	"23.878"	"20.657"
"1978"	"41.014"	"80.042"	"33.473"	"10.458"	"2.836"	"204.532"	"182.7"	"388.349"	"239.438"	"10.171"	"2.739"	"21.34"
"1979"	"60.405"	"21.688"	"0.469"	"3.058"	"5.214"	"145.275"	"277.042"	"274.776"	"53.415"	"7.395"	"79.37"	"2.763"
"1980"	"0.827"	"5.152"	"2.474"	"0.101"	"0.16"	"209.384"	"452.578"	"726.473"	"151.632"	"5.443"	"0.021"	"31.618"
"1981"	"19.779"	"1.626"	"16.832"	"1.917"	"6.871"	"147.81"	"446.06"	"507.441"	"192.438"	"1.821"	"19.649"	"13.322"
"1982"	"100.08"	"14.253"	"33.655"	"2.976"	"18.487"	"105.947"	"261.702"	"519.306"	"362.781"	"7.047"	"54.931"	"9.134"
"1983"	"8.38"	"1.926"	"0.477"	"10.576"	"19.026"	"108.604"	"293.208"	"306.533"	"215.631"	"38.478"	"0.05"	"4.688"
"1984"	"65.783"	"45.826"	"0.083"	"8.141"	"0.852"	"160.427"	"229.45"	"290.32"	"146.139"	"16.601"	"0"	"0"
"1985"	"31.439"	"1.141"	"0.033"	"12.732"	"3.568"	"79.636"	"316.183"	"410.772"	"204.528"	"90.018"	"0"	"2.029"
"1986"	"32.514"	"50.612"	"3.263"	"0.116"	"36.199"	"78.124"	"235.807"	"465.029"	"158.46"	"7.356"	"3.112"	"41.123"
"1987"	"28.427"	"21.131"	"20.549"	"0"	"6.951"	"23.304"	"145.465"	"292.542"	"41.46"	"54.534"	"13.936"	"13.942"
"1988"	"12.433"	"2.861"	"23.361"	"4.893"	"5.276"	"173.727"	"239.429"	"363.795"	"123.058"	"7.578"	"4.834"	"30.391"
"1989"	"1.537"	"0.189"	"22.657"	"0.554"	"0.974"	"116.752"	"348.522"	"210.817"	"103.797"	"12.445"	"11.735"	"33.601"
"1990"	"0.419"	"28.007"	"6.571"	"8.059"	"21.223"	"317.73"	"402.444"	"444.95"	"237.323"	"8.877"	"0"	"8.047"
"1991"	"13.468"	"13.389"	"11.402"	"12.023"	"6.787"	"113.022"	"131.566"	"143.678"	"97.822"	"0.489"	"1.72"	"43.698"
"1992"	"35.711"	"11.013"	"0.121"	"2.073"	"11.94"	"28.781"	"84.964"	"212.584"	"233.804"	"41.51"	"12.088"	"0"
"1993"	"7.511"	"8.746"	"10.787"	"0.565"	"15.243"	"56.483"	"135.747"	"189.955"	"190.324"	"23.06"	"0"	"0.447"
"1994"	"57.676"	"38.824"	"42.977"	"6.656"	"2.872"	"255.141"	"472.292"	"395.952"	"200.857"	"20.228"	"0"	"0"
"1995"	"52.388"	"24.748"	"34.838"	"9.12"	"1.377"	"68.062"	"289.245"	"323.646"	"187.365"	"4.725"	"28.976"	"32.972"
"1996"	"51.718"	"24.484"	"2.71"	"12.596"	"1.369"	"192.764"	"260.205"	"437.001"	"121.139"	"58.147"	"4.489"	"0"
"1997"	"22.698"	"0.189"	"3.039"	"8.129"	"8.785"	"111.142"	"100.07"	"283.188"	"230.25"	"23.781"	"49.32"	"49.512"
"1998"	"9.552"	"11.293"	"33.401"	"3.581"	"20.472"	"122.19"	"334.654"	"524.244"	"203.209"	"11.107"	"26.309"	"0"
"1999"	"48.324"	"58.608"	"0"	"0"	"16.807"	"21.676"	"460.448"	"320.046"	"255.176"	"38.082"	"0"	"0.981"
"2000"	"8.211"	"8.489"	"0.016"	"0.144"	"13.323"	"108.044"	"356.356"	"204.045"	"258.202"	"1.309"	"0"	"0"
"2001"	"6.913"	"2.407"	"13.592"	"8.354"	"11.193"	"176.147"	"263.345"	"293.427"	"110.339"	"58.199"	"10.672"	"0"
"2002"	"30.718"	"28.909"	"0.861"	"1.31"	"6.336"	"82.625"	"114.165"	"378.886"	"161.091"	"51.052"	"17.91"	"7.055"
