
"Year"	"Jan"	"Feb"	"Mar"	"Apr"	"May"	"Jun"	"Jul"	"Aug"	"Sep"	"Oct"	"Nov"	"Dec"
"1901"	"18.411"	"20.221"	"25.555"	"29.991"	"33.342"	"32.493"	"27.512"	"25.238"	"26.274"	"25.702"	"20.866"	"18.42"
"1902"	"20.354"	"21.78"	"28.03"	"31.405"	"34.454"	"33.135"	"27.454"	"26.861"	"25.93"	"25.022"	"20.221"	"17.864"
"1903"	"19.45"	"19.894"	"25.584"	"30.538"	"31.857"	"32.419"	"27.625"	"26.21"	"25.919"	"23.629"	"19.02"	"17.379"
"1904"	"19.536"	"21.13"	"25.925"	"31.905"	"33.445"	"30.274"	"26.555"	"25.744"	"25.591"	"24.852"	"20.03"	"18.863"
"1905"	"18.43"	"18.239"	"25.077"	"28.282"	"33.937"	"33.489"	"26.89"	"26.269"	"25.432"	"24.505"	"21.185"	"18.008"
"1906"	"18.495"	"20.975"	"25.043"	"31.536"	"34.948"	"30.423"	"26.387"	"26.005"	"25.415"	"24.405"	"21.051"	"18.93"
"1907"	"19.217"	"20.666"	"24.952"	"27.701"	"32.354"	"31.468"	"28.085"	"24.822"	"26.665"	"25.967"	"21.602"	"17.487"
"1908"	"17.684"	"21.511"	"25.404"	"31.959"	"34.414"	"32.463"	"26.182"	"25.229"	"26.308"	"24.691"	"20.164"	"16.948"
"1909"	"20.213"	"21.161"	"27.116"	"27.979"	"33.141"	"29.44"	"25.881"	"26.305"	"25.575"	"24.754"	"21.086"	"18.745"
"1910"	"18.772"	"20.683"	"26.206"	"31.292"	"33.64"	"29.248"	"26.674"	"25.754"	"25.705"	"24.025"	"19.132"	"18.176"
"1911"	"20.191"	"20.334"	"24.925"	"30.732"	"35.019"	"29.627"	"27.78"	"25.657"	"25.608"	"25.12"	"21.231"	"18.039"
"1912"	"19.303"	"21.993"	"26.195"	"30.375"	"33.825"	"33.92"	"27.316"	"25.743"	"26.014"	"24.938"	"20.351"	"17.586"
"1913"	"18.482"	"21.774"	"25.251"	"32.239"	"32.416"	"29.014"	"26.831"	"25.727"	"26.683"	"25.842"	"21.105"	"18.641"
"1914"	"19.617"	"22.186"	"25.621"	"29.099"	"33.166"	"30.151"	"26.631"	"26.01"	"26.148"	"25.113"	"21.876"	"18.488"
"1915"	"18.819"	"20.496"	"24.883"	"29.905"	"34.427"	"33.354"	"27.68"	"25.753"	"26.334"	"25.699"	"22.151"	"17.943"
"1916"	"18.673"	"21.075"	"27.028"	"31.718"	"33.624"	"27.935"	"27.105"	"25.868"	"25.99"	"24.994"	"20.653"	"17.091"
"1917"	"18.685"	"20.058"	"24.457"	"28.39"	"30.741"	"28.966"	"26.401"	"26.094"	"25.471"	"24.78"	"19.694"	"18.715"
"1918"	"17.323"	"21.724"	"26.155"	"30.144"	"32.792"	"28.324"	"27.978"	"25.847"	"26.817"	"25"	"21.454"	"18.224"
"1919"	"19.586"	"20.273"	"25.961"	"29.683"	"32.479"	"29.892"	"26.304"	"25.396"	"26.257"	"24.241"	"21.59"	"17.988"
"1920"	"19.045"	"21.134"	"26.171"	"30.082"	"31.56"	"31.853"	"26.233"	"26.311"	"27.066"	"26.239"	"21.463"	"18.94"
"1921"	"19.781"	"21.347"	"28.184"	"32.336"	"35.863"	"30.339"	"27.628"	"25.886"	"25.556"	"24.9"	"19.78"	"19.282"
"1922"	"18.611"	"22.097"	"27.263"	"31.455"	"34.486"	"30.289"	"26.338"	"25.792"	"25.571"	"24.455"	"20.646"	"17.642"
"1923"	"18.947"	"20.837"	"25.742"	"30.964"	"33.651"	"34.411"	"26.497"	"25.111"	"25.973"	"23.537"	"20.83"	"18.987"
"1924"	"19.39"	"22.47"	"27.727"	"31.973"	"33.644"	"33.453"	"26.743"	"26.061"	"25.831"	"24.281"	"19.809"	"18.473"
"1925"	"17.742"	"20.514"	"26.197"	"32.017"	"32.02"	"29.308"	"25.336"	"26.048"	"26.452"	"25.403"	"20.979"	"17.525"
"1926"	"18.964"	"22.106"	"25.473"	"27.899"	"31.202"	"34.075"	"27.557"	"25.725"	"25.913"	"24.104"	"19.137"	"17.781"
"1927"	"19.576"	"20.991"	"24.873"	"31.094"	"33.674"	"31.248"	"26.175"	"25.993"	"26.504"	"24.763"	"19.167"	"18.869"
"1928"	"19.594"	"21.144"	"26.224"	"30.401"	"34.771"	"30.844"	"26.313"	"26.695"	"26.574"	"25.129"	"21.337"	"18.465"
"1929"	"19.363"	"19.714"	"26.685"	"30.112"	"34.567"	"30.427"	"26.133"	"25.418"	"26.1"	"24.679"	"20.611"	"18.232"
"1930"	"19.112"	"20.115"	"26.725"	"29.724"	"33.391"	"31.07"	"26.366"	"25.739"	"26.281"	"25.664"	"20.187"	"18.973"
"1931"	"19.883"	"22.67"	"25.972"	"31.971"	"34.689"	"32.553"	"26.826"	"25.735"	"26.148"	"24.086"	"20.413"	"18.276"
"1932"	"19.986"	"19.944"	"25.911"	"30.487"	"33.316"	"32.322"	"26.442"	"26.197"	"26.218"	"25.636"	"21.243"	"18.677"
"1933"	"19.302"	"22.64"	"26.417"	"29.165"	"29.813"	"29.246"	"26.873"	"25.843"	"25.618"	"24.451"	"20.608"	"18.518"
"1934"	"17.81"	"21.44"	"25.927"	"30.969"	"33.868"	"30.872"	"26.401"	"25.574"	"25.224"	"23.735"	"19.729"	"18.558"
"1935"	"18.35"	"21.302"	"26.028"	"28.407"	"34.554"	"31.799"	"25.877"	"25.56"	"25.575"	"24.904"	"21.154"	"19.405"
"1936"	"19.791"	"20.75"	"26.399"	"30.037"	"34.19"	"28.492"	"26.743"	"25.739"	"25.725"	"24.303"	"21.573"	"18.64"
"1937"	"17.845"	"21.319"	"24.645"	"29.102"	"32.602"	"31.255"	"26.228"	"25.457"	"25.869"	"24.042"	"21.428"	"17.967"
"1938"	"20.676"	"19.91"	"27.642"	"30.779"	"33.896"	"27.283"	"25.767"	"25.944"	"26.341"	"24.44"	"20.404"	"18.214"
"1939"	"20.001"	"22.217"	"24.815"	"30.34"	"34.559"	"30.31"	"26.056"	"25.784"	"25.7"	"25.341"	"20.53"	"18.267"
"1940"	"18.534"	"21.578"	"25.381"	"30.292"	"33.826"	"30.881"	"26.025"	"25.71"	"26.153"	"25.02"	"21.233"	"18.619"
"1941"	"19.571"	"20.972"	"27.282"	"32.214"	"34.827"	"31.434"	"27.251"	"26.289"	"26.858"	"26.125"	"21.203"	"19.848"
"1942"	"18.844"	"21.015"	"26.726"	"31.208"	"35.148"	"32.671"	"25.514"	"25.67"	"25.575"	"25.093"	"21.087"	"18.233"
"1943"	"20.219"	"19.958"	"26.853"	"30.28"	"33.964"	"30.116"	"26.257"	"24.769"	"25.596"	"23.849"	"21.049"	"17.251"
"1944"	"18.697"	"20.092"	"24.28"	"29.387"	"34.901"	"31.367"	"25.962"	"25.739"	"26.06"	"24.107"	"20.763"	"20.335"
"1945"	"18.042"	"20.813"	"26.739"	"29.044"	"33.99"	"31.836"	"26.273"	"26.33"	"25.775"	"24.332"	"19.91"	"17.457"
"1946"	"19.07"	"22.029"	"26.527"	"30.587"	"33.67"	"28.688"	"26.276"	"25.516"	"25.321"	"25.59"	"21.048"	"19.917"
"1947"	"18.726"	"20.996"	"26.229"	"31.025"	"34.251"	"32.353"	"26.133"	"26.187"	"25.645"	"24.192"	"21.415"	"19.342"
"1948"	"19.252"	"21.061"	"25.746"	"31.688"	"35.774"	"31.484"	"26.52"	"25.754"	"25.465"	"25.874"	"21.643"	"17.443"
"1949"	"19.52"	"21.058"	"26.937"	"31.472"	"33.669"	"29.914"	"26.573"	"26.061"	"25.744"	"24.975"	"19.364"	"18.662"
"1950"	"19.475"	"20.319"	"25.013"	"30.527"	"34.219"	"31.193"	"26.135"	"26.096"	"25.957"	"24.427"	"20.008"	"18.432"
"1951"	"18.031"	"21.652"	"26.432"	"29.661"	"33.586"	"31.727"	"27.693"	"25.698"	"26.454"	"26.654"	"21.733"	"18.371"
"1952"	"19.779"	"22.766"	"25.905"	"32.116"	"35.351"	"31.896"	"26.966"	"25.414"	"26.548"	"25.536"	"20.553"	"20.123"
"1953"	"19.129"	"23.715"	"29.353"	"31.557"	"35.011"	"33.055"	"26.581"	"25.443"	"26.389"	"24.581"	"20.538"	"19.602"
"1954"	"18.291"	"23.081"	"26.901"	"31.838"	"35.69"	"31.817"	"26.547"	"26.11"	"25.075"	"23.386"	"20.441"	"19.199"
"1955"	"19.427"	"22.508"	"27.976"	"29.417"	"33.662"	"30.807"	"26.363"	"25.691"	"25.685"	"23.892"	"19.423"	"18.428"
"1956"	"19.405"	"21.247"	"27.711"	"32.077"	"34.066"	"28.566"	"25.732"	"25.645"	"25.301"	"24.489"	"20.05"	"19.327"
"1957"	"19.936"	"20.315"	"24.032"	"29.568"	"32.72"	"31.816"	"26.437"	"26.055"	"26.162"	"25.105"	"22.262"	"20.531"
"1958"	"20.296"	"22.303"	"26.836"	"31.964"	"34.715"	"33.56"	"26.435"	"26.29"	"25.677"	"24.552"	"22.069"	"18.921"
"1959"	"19.596"	"21.493"	"27.169"	"30.964"	"34.006"	"30.673"	"25.972"	"25.351"	"25.709"	"25.301"	"21.309"	"19.145"
"1960"	"18.296"	"22.412"	"25.213"	"30.247"	"33.973"	"31.326"	"26.526"	"25.188"	"26.553"	"24.409"	"20.292"	"20.179"
"1961"	"20.107"	"20.122"	"27.742"	"31.207"	"33.659"	"29.961"	"25.998"	"25.54"	"24.822"	"24.003"	"20.647"	"17.754"
"1962"	"17.772"	"21.27"	"25.86"	"30.395"	"32.849"	"31.831"	"26.831"	"25.8"	"25.426"	"23.708"	"21.046"	"18.926"
"1963"	"17.836"	"21.882"	"25.405"	"28.861"	"32.52"	"29.416"	"26.347"	"25.741"	"26.065"	"25.239"	"22.594"	"18.987"
"1964"	"19.381"	"22.122"	"27.519"	"32.407"	"33.793"	"31.305"	"26.527"	"25.526"	"26.235"	"25.563"	"20.385"	"18.748"
"1965"	"19.361"	"21.508"	"25.776"	"29.809"	"34.856"	"31.412"	"26.915"	"26.371"	"25.64"	"25.542"	"21.981"	"19.45"
"1966"	"19.033"	"23.186"	"26.759"	"31.53"	"33.293"	"31.573"	"28.711"	"26.04"	"26.661"	"26.182"	"23.327"	"18.578"
"1967"	"19.267"	"22.902"	"25.257"	"30.008"	"33.836"	"31.644"	"26.889"	"25.432"	"25.759"	"25.256"	"21.86"	"20.294"
"1968"	"18.091"	"20.68"	"25.142"	"28.997"	"32.836"	"31.156"	"26.831"	"25.312"	"27.021"	"24.685"	"21.288"	"18.993"
"1969"	"19.375"	"23.312"	"28.744"	"31.912"	"33.228"	"31.989"	"26.496"	"25.388"	"25.615"	"25.547"	"23.029"	"19.081"
"1970"	"19.751"	"22.734"	"26.456"	"31.868"	"34.475"	"28.42"	"26.733"	"25.669"	"25.731"	"25.35"	"20.098"	"18.1"
"1971"	"19.051"	"21.392"	"25.221"	"30.763"	"31.857"	"27.47"	"25.536"	"25.667"	"26.284"	"25.158"	"20.202"	"17.669"
"1972"	"18.85"	"20.84"	"27.43"	"30.519"	"33.65"	"32.849"	"27.278"	"24.97"	"26.112"	"24.916"	"21.361"	"20.334"
"1973"	"20.323"	"22.807"	"27.394"	"33.033"	"35.586"	"31.653"	"26.113"	"25.716"	"25.722"	"24.402"	"20.648"	"19.164"
"1974"	"18.322"	"21.68"	"27.918"	"31.935"	"32.997"	"30.829"	"27.239"	"25.686"	"27.628"	"25.214"	"20.143"	"18.343"
"1975"	"17.845"	"21.855"	"26.224"	"31.846"	"35.186"	"31.021"	"26.129"	"25.943"	"26.11"	"25.824"	"19.271"	"17.463"
"1976"	"18.254"	"22.043"	"26.31"	"29.613"	"33.605"	"29.804"	"26.579"	"25.884"	"25.671"	"25.7"	"24.369"	"20.359"
"1977"	"19.464"	"22.628"	"28.53"	"30.728"	"32.194"	"30.763"	"26.84"	"25.572"	"25.898"	"25.445"	"23.291"	"19.044"
"1978"	"18.067"	"20.728"	"24.546"	"29.602"	"35.451"	"30.047"	"25.847"	"24.918"	"26.426"	"25.321"	"23.299"	"17.898"
"1979"	"19.911"	"19.907"	"25.077"	"30.262"	"31.132"	"31.716"	"27.059"	"25.787"	"27.037"	"26.544"	"24.758"	"19.541"
"1980"	"20.494"	"23.043"	"27.226"	"32.364"	"35.24"	"29.263"	"26.234"	"24.978"	"26.752"	"25.915"	"22.703"	"18.85"
"1981"	"18.485"	"22.739"	"25.505"	"30.51"	"33.11"	"31.778"	"26.082"	"25.785"	"26.549"	"25.2"	"20.805"	"18.184"
"1982"	"20.715"	"21.407"	"24.825"	"29.765"	"31.747"	"31.264"	"27.646"	"25.501"	"26.68"	"25.576"	"22.069"	"20.668"
"1983"	"19.105"	"21.371"	"26.477"	"30.057"	"33.487"	"32.601"	"27.434"	"26.608"	"26.358"	"24.287"	"19.533"	"18.082"
"1984"	"19.175"	"20.071"	"26.485"	"30.763"	"35.18"	"30.702"	"26.859"	"24.92"	"25.745"	"25.528"	"20.544"	"19.599"
"1985"	"20.372"	"21.575"	"28.152"	"31.157"	"34.428"	"30.448"	"26.12"	"25.428"	"26.475"	"24.18"	"21.031"	"19.85"
"1986"	"18.998"	"21.127"	"26.05"	"31.139"	"33.211"	"30.747"	"25.829"	"25.853"	"26.698"	"25.443"	"22.349"	"19.28"
"1987"	"18.856"	"21.619"	"25.978"	"31.101"	"32.003"	"32.467"	"27.393"	"26.868"	"27.354"	"25.363"	"22.318"	"18.491"
"1988"	"20.478"	"23.256"	"26.945"	"31.159"	"35.716"	"31.443"	"26.544"	"26.536"	"27.282"	"24.745"	"21.07"	"18.972"
"1989"	"18.618"	"22.135"	"25.502"	"30.514"	"34.45"	"29.505"	"26.96"	"26.058"	"26.666"	"25.454"	"22.484"	"18.793"
"1990"	"21.119"	"22.135"	"25.546"	"31.219"	"30.626"	"27.956"	"25.382"	"26.412"	"25.967"	"24.969"	"22.39"	"19.779"
"1991"	"18.824"	"23.462"	"27.131"	"29.865"	"35.089"	"30.247"	"27.134"	"25.256"	"27.243"	"25.509"	"21.273"	"19.181"
"1992"	"19.576"	"21.407"	"27.907"	"31.478"	"33.419"	"32.653"	"28.433"	"25.735"	"26.22"	"25.488"	"21.907"	"18.78"
"1993"	"20.079"	"22.11"	"24.965"	"30.635"	"34.825"	"31.232"	"27.253"	"25.926"	"25.844"	"25.43"	"21.194"	"18.046"
"1994"	"20.637"	"21.157"	"27.538"	"29.438"	"34.704"	"29.239"	"25.307"	"25.15"	"26.088"	"25.129"	"21.616"	"18.886"
"1995"	"17.313"	"21.693"	"24.923"	"29.673"	"32.244"	"33.081"	"26.92"	"26.336"	"26.778"	"25.745"	"21.642"	"20.446"
"1996"	"20.483"	"22.531"	"27.558"	"29.982"	"34.504"	"32.901"	"27.272"	"25.747"	"26.891"	"24.861"	"21.553"	"18.216"
"1997"	"18.07"	"20.884"	"26.946"	"28.486"	"32.772"	"30.695"	"27.061"	"26.304"	"26.391"	"24.892"	"22.936"	"18.529"
"1998"	"19.173"	"21.452"	"24.166"	"30.094"	"33.92"	"31.764"	"27.192"	"26.754"	"26.801"	"26.409"	"22.042"	"18.503"
"1999"	"17.953"	"22.673"	"26.932"	"32.161"	"33.345"	"29.654"	"26.5"	"25.663"	"25.526"	"25.441"	"22.334"	"18.778"
"2000"	"19.733"	"21.113"	"25.749"	"32.217"	"32.51"	"28.422"	"25.999"	"26.558"	"25.914"	"26.437"	"23.239"	"19.438"
"2001"	"19.454"	"23.369"	"26.941"	"29.65"	"33.9"	"28.481"	"26.016"	"26.045"	"27.51"	"25.845"	"23.064"	"19.936"
"2002"	"19.264"	"22.373"	"27.205"	"31.78"	"34.977"	"30.394"	"28.021"	"25.422"	"26.397"	"25.968"	"22.462"	"21.344"
