
"Year"	"Jan"	"Feb"	"Mar"	"Apr"	"May"	"Jun"	"Jul"	"Aug"	"Sep"	"Oct"	"Nov"	"Dec"
"1901"	"40.7"	"15.989"	"9.229"	"0.637"	"15.322"	"22.104"	"210.547"	"403.004"	"136.09"	"3.544"	"0"	"5.766"
"1902"	"3.271"	"2.125"	"1.484"	"7.1"	"11.562"	"51.332"	"351.501"	"229.109"	"151.356"	"15.627"	"0.009"	"0"
"1903"	"10.901"	"2.726"	"8.937"	"2.067"	"5.507"	"28.123"	"131.211"	"320.281"	"82.423"	"88.016"	"0"	"0.513"
"1904"	"7.667"	"0.586"	"12.546"	"0.996"	"12.856"	"90.123"	"272.72"	"447.913"	"132.599"	"41.962"	"6.879"	"15.992"
"1905"	"40.368"	"23.029"	"13.079"	"4.338"	"7.946"	"25.79"	"187.493"	"195.499"	"97.898"	"0.318"	"0"	"3.667"
"1906"	"8.482"	"32.165"	"9.906"	"1.312"	"6.152"	"130.103"	"177.137"	"288.319"	"175.513"	"6.437"	"0"	"2.517"
"1907"	"6.528"	"46.169"	"18.564"	"20.857"	"10.069"	"38.318"	"222.326"	"278.54"	"7.187"	"0.397"	"0"	"0"
"1908"	"22.185"	"11.321"	"0.73"	"1.348"	"8.584"	"39.46"	"290.328"	"340.421"	"52.897"	"6.101"	"0.327"	"1.11"
"1909"	"20.125"	"6.855"	"0.118"	"22.362"	"8.916"	"236.724"	"435.588"	"226.432"	"86.723"	"4.218"	"0"	"23.131"
"1910"	"10.013"	"6.548"	"0.82"	"1.839"	"16.759"	"135.408"	"261.537"	"267.699"	"188.721"	"33.477"	"8.253"	"0.881"
"1911"	"33.083"	"0.255"	"36.364"	"5.352"	"0.457"	"79.152"	"59.263"	"241.274"	"269.249"	"42.662"	"22.174"	"2.422"
"1912"	"16.783"	"5.59"	"8.917"	"5.972"	"11.001"	"58.59"	"231.108"	"266.842"	"207.972"	"1.606"	"15.223"	"2.823"
"1913"	"1.382"	"35.782"	"16.697"	"2.082"	"29.407"	"180.582"	"142.691"	"158.082"	"31.024"	"3.367"	"3.466"	"13.351"
"1914"	"1.667"	"16.602"	"16.492"	"11.304"	"26.485"	"101.317"	"406.879"	"228.949"	"309.54"	"14.41"	"0.145"	"0"
"1915"	"10.463"	"36.456"	"38.903"	"7.314"	"7.532"	"81.942"	"224.623"	"437.949"	"124.488"	"41.69"	"0"	"3.072"
"1916"	"0.092"	"12.16"	"0"	"2.896"	"14.36"	"183.786"	"338.914"	"322.321"	"179.696"	"49.642"	"1.078"	"0"
"1917"	"4.932"	"25.698"	"21.572"	"14.524"	"51.379"	"169.198"	"308.055"	"268.62"	"272.409"	"76.3"	"0"	"7.132"
"1918"	"7.45"	"0.053"	"5.045"	"8.772"	"4.42"	"141.339"	"65.044"	"219.874"	"42.55"	"3.154"	"9.868"	"1.023"
"1919"	"30.707"	"7.878"	"4.577"	"12.55"	"11.158"	"68.563"	"249.776"	"320.023"	"136.639"	"26.48"	"1.581"	"3.208"
"1920"	"3.382"	"12.916"	"15.628"	"0.65"	"18.59"	"168.257"	"365.774"	"128.28"	"52.484"	"3.812"	"0"	"0.368"
"1921"	"36.758"	"1.359"	"0.762"	"0.759"	"0.642"	"71.045"	"184.124"	"323.277"	"202.25"	"45.96"	"0"	"0.053"
"1922"	"23.728"	"7.405"	"0.214"	"3.554"	"1.158"	"54.203"	"338.135"	"426.213"	"225.088"	"18.844"	"2.047"	"28.333"
"1923"	"4.125"	"24.306"	"0.118"	"0"	"7.112"	"22.83"	"193.21"	"291.874"	"220.667"	"66.278"	"8.376"	"9.032"
"1924"	"13.734"	"11.986"	"2.069"	"1.733"	"7.773"	"26.795"	"243.198"	"310.545"	"352.924"	"75.407"	"2.093"	"15.765"
"1925"	"7.984"	"0.367"	"1.388"	"3.149"	"27.989"	"212.029"	"501.239"	"274.171"	"147.579"	"4.603"	"14.439"	"0"
"1926"	"6.377"	"4.598"	"42.095"	"13.492"	"19.013"	"20.225"	"268.792"	"306.406"	"132.017"	"14.051"	"4.886"	"1.357"
"1927"	"3.588"	"24.46"	"10.816"	"3.315"	"21.79"	"47.623"	"236.01"	"394.033"	"111.521"	"105.595"	"6.316"	"4.938"
"1928"	"21.415"	"34.1"	"3.087"	"12.292"	"2.633"	"48.634"	"252.947"	"113.19"	"34.078"	"46.721"	"6.972"	"23.41"
"1929"	"40.558"	"1.535"	"2.435"	"5.426"	"4.294"	"98.496"	"258.028"	"304.701"	"49.24"	"49.482"	"0"	"28.257"
"1930"	"11.16"	"13.262"	"3.793"	"3.914"	"6.551"	"103.12"	"360.866"	"253.159"	"77.121"	"41.819"	"7.341"	"10.842"
"1931"	"0.945"	"20.214"	"4.306"	"0.446"	"7.7"	"42.722"	"210.668"	"207.518"	"326.969"	"128.641"	"0.697"	"0"
"1932"	"0.092"	"3.859"	"8.728"	"1.747"	"7.519"	"48.816"	"136.944"	"309.175"	"231.937"	"14.731"	"1.024"	"4.645"
"1933"	"7.781"	"19.102"	"4.866"	"19.589"	"36.602"	"191.595"	"238.821"	"281.904"	"177.027"	"113.708"	"0"	"0.215"
"1934"	"17.195"	"1.053"	"17.304"	"0.439"	"5.107"	"108.326"	"180.85"	"362.866"	"105.776"	"0.947"	"0.436"	"17.465"
"1935"	"26.374"	"10.795"	"2.544"	"10.432"	"1.168"	"51.276"	"303.211"	"227.258"	"131.983"	"1.752"	"4.886"	"10.36"
"1936"	"2.241"	"24.305"	"12.894"	"5.867"	"12.816"	"378.357"	"473.33"	"386.218"	"185.142"	"6.911"	"5.218"	"25.566"
"1937"	"0.945"	"43.394"	"3.253"	"9.452"	"12.834"	"90.471"	"256.018"	"208.407"	"166.336"	"30.59"	"1.074"	"12.372"
"1938"	"32.499"	"10.765"	"0.374"	"3.076"	"2.969"	"183.427"	"318.109"	"280.678"	"111.875"	"21.804"	"0.697"	"0"
"1939"	"13.466"	"13.079"	"4.598"	"7.474"	"2.775"	"141.898"	"241.086"	"200.071"	"141.4"	"25.586"	"0"	"0"
"1940"	"13.726"	"27.046"	"22.926"	"8.438"	"11.916"	"63.037"	"174.909"	"288.871"	"68.485"	"4.799"	"0.529"	"5.601"
"1941"	"19.606"	"5.048"	"1.871"	"0"	"18.111"	"64.484"	"120.381"	"190.386"	"114.059"	"6.832"	"0.697"	"4.514"
"1942"	"37.74"	"21.767"	"1.247"	"8.601"	"7.236"	"90.549"	"394.055"	"254.263"	"194.501"	"0.318"	"0"	"13.873"
"1943"	"17.029"	"2.298"	"3.484"	"20.495"	"7.327"	"100.279"	"144.664"	"491.595"	"128.431"	"1.623"	"0"	"0"
"1944"	"19.68"	"20.425"	"33.377"	"13.171"	"0.387"	"88.733"	"212.2"	"252.986"	"73.896"	"7.742"	"0.327"	"1.118"
"1945"	"26.699"	"0.399"	"2.674"	"12.804"	"8.497"	"35.883"	"259.267"	"263.513"	"283.602"	"60.411"	"0"	"8.573"
"1946"	"0.306"	"16.505"	"1.721"	"9.328"	"20.83"	"98.484"	"296.679"	"252.905"	"32.678"	"32.295"	"8.546"	"7.727"
"1947"	"10.351"	"12.643"	"12.904"	"1.87"	"4.494"	"46.552"	"289.161"	"320.632"	"227.253"	"21.976"	"1.337"	"2.457"
"1948"	"16.123"	"15.032"	"11.126"	"1.078"	"6.172"	"85.693"	"272.855"	"469.123"	"145.29"	"36.361"	"4.793"	"0.881"
"1949"	"0.49"	"25.336"	"3.201"	"6.426"	"8.936"	"34.941"	"380.696"	"346.093"	"199.332"	"53.653"	"0.392"	"0.636"
"1950"	"16.092"	"7.35"	"25.564"	"0.46"	"12.117"	"124.791"	"286.176"	"334.069"	"127.077"	"0.674"	"0.327"	"6.986"
"1951"	"13.02"	"11.11"	"22.801"	"6.615"	"8.153"	"106.629"	"133.428"	"314.182"	"188.004"	"16.223"	"15.233"	"0"
"1952"	"5.103"	"16.123"	"21.095"	"5.395"	"16.573"	"125.034"	"176.119"	"416.758"	"46.738"	"0.371"	"5.211"	"8.898"
"1953"	"32.561"	"9.44"	"0.853"	"4.358"	"1.946"	"90.908"	"346.564"	"268.393"	"78.312"	"0.322"	"0"	"2.705"
"1954"	"20.967"	"35.021"	"6.659"	"0.263"	"0.748"	"45.661"	"295.989"	"273.538"	"152.168"	"69.922"	"0"	"0.513"
"1955"	"31.94"	"8.903"	"4.968"	"6.079"	"4.501"	"119.761"	"337.936"	"319.273"	"154.232"	"131.081"	"0"	"0.62"
"1956"	"13.423"	"9.742"	"16.004"	"0.385"	"21.325"	"126.628"	"291.321"	"232.66"	"124.996"	"147.469"	"7.717"	"9.165"
"1957"	"29.709"	"0.513"	"28.241"	"7.354"	"7.833"	"68.403"	"271.414"	"233.838"	"222.628"	"15.626"	"2.792"	"13.868"
"1958"	"12.1"	"6.066"	"19.536"	"3.86"	"1.158"	"56.259"	"268.025"	"367.42"	"185.897"	"99.525"	"1.418"	"9.363"
"1959"	"23.847"	"6.945"	"3.815"	"3.527"	"40.48"	"30.495"	"282.69"	"251.744"	"78.145"	"82.536"	"8.171"	"0"
"1960"	"12.784"	"0.053"	"19.253"	"3.568"	"6.416"	"48.865"	"300.175"	"392.944"	"117.206"	"108.496"	"0"	"3.177"
"1961"	"34.614"	"25.9"	"0.118"	"3.997"	"8.019"	"86.641"	"257.727"	"454.131"	"119.925"	"91.597"	"1.063"	"7.98"
"1962"	"25.74"	"9.22"	"12.128"	"8.535"	"8.599"	"78.353"	"256.947"	"288.192"	"260.897"	"1.033"	"3.137"	"4.517"
"1963"	"13.937"	"5.576"	"17.434"	"9.627"	"20.126"	"91.066"	"275.891"	"330.147"	"280.287"	"11.522"	"8.118"	"7.091"
"1964"	"3.196"	"3.437"	"5.784"	"3.13"	"20.566"	"34.478"	"395.21"	"202.888"	"242.829"	"3.725"	"0"	"5.502"
"1965"	"4.143"	"13.229"	"14.677"	"15.797"	"5.996"	"18.375"	"220"	"198.741"	"87.183"	"32.449"	"0.353"	"1.342"
"1966"	"3.178"	"11.314"	"0.926"	"0.21"	"18.706"	"163.705"	"222.013"	"353.17"	"69.908"	"16.055"	"15.605"	"5.086"
"1967"	"0.932"	"1.818"	"31.447"	"3.207"	"1.381"	"59.258"	"251.617"	"526.771"	"131.597"	"3.385"	"1.418"	"27.445"
"1968"	"35.186"	"11.026"	"6.601"	"3.149"	"0.958"	"97.832"	"200.219"	"152.593"	"69.732"	"26.207"	"0"	"3.143"
"1969"	"11.054"	"7.603"	"3.791"	"6.347"	"25.85"	"38.05"	"334.722"	"271.688"	"281.506"	"2.631"	"2.442"	"0"
"1970"	"27.684"	"27.986"	"2.545"	"0.236"	"43.109"	"114.669"	"190.834"	"292.686"	"232.162"	"43.117"	"0"	"0"
"1971"	"14.937"	"12.482"	"5.572"	"14.944"	"39.889"	"193.974"	"290.074"	"344.459"	"208.734"	"121.849"	"6.564"	"0"
"1972"	"9.741"	"24.492"	"2.122"	"6.057"	"0.916"	"41.153"	"213.383"	"257.085"	"222.198"	"49.345"	"4.72"	"2.097"
"1973"	"14.137"	"9.743"	"5.793"	"0"	"7.981"	"112.473"	"228.227"	"383.343"	"131.356"	"98.597"	"0"	"0"
"1974"	"4.664"	"3.565"	"1.511"	"0.688"	"8.963"	"52.605"	"218.435"	"165.998"	"32.887"	"33.459"	"0"	"7.248"
"1975"	"21.864"	"8.757"	"12.421"	"3.369"	"2.387"	"141.386"	"300.362"	"235.233"	"200.693"	"28.118"	"0"	"0"
"1976"	"8.375"	"15.192"	"3.019"	"7.996"	"7.69"	"82.401"	"182.18"	"365.889"	"129.375"	"4.058"	"3.037"	"0.233"
"1977"	"20.128"	"6.702"	"0.485"	"12.85"	"22.978"	"85.292"	"330.08"	"190.133"	"148.086"	"41.973"	"0.079"	"7.305"
"1978"	"9.037"	"22.749"	"41.243"	"3.245"	"1.65"	"140.177"	"158.092"	"271.922"	"203.445"	"10.795"	"2.147"	"6.88"
"1979"	"15.012"	"25.696"	"7.111"	"4.757"	"19.232"	"74.59"	"172.068"	"139.381"	"21.252"	"0.561"	"17.08"	"4.205"
"1980"	"2.285"	"7.199"	"16.421"	"1.624"	"2.674"	"157.859"	"448.089"	"445.15"	"213.55"	"31.811"	"1.037"	"17.706"
"1981"	"17.369"	"4.059"	"22.767"	"0.584"	"25.995"	"167.14"	"399.605"	"220.421"	"91.944"	"0.318"	"13.865"	"1.492"
"1982"	"30.728"	"8.914"	"36.126"	"9.261"	"31.586"	"46.913"	"168.131"	"426.986"	"143.288"	"10.691"	"11.737"	"9.246"
"1983"	"24.882"	"4.295"	"4.915"	"32.154"	"42.056"	"119.644"	"177.309"	"213.604"	"263.114"	"42.936"	"0"	"4.397"
"1984"	"12.174"	"32.897"	"1.577"	"21.88"	"1.243"	"135.77"	"159.086"	"196.819"	"91.703"	"9.63"	"0"	"2.255"
"1985"	"6.877"	"0.485"	"1.66"	"11.965"	"11.405"	"82.93"	"296.371"	"291.745"	"176.994"	"113.838"	"0"	"17.762"
"1986"	"8.653"	"22.431"	"5.624"	"6.897"	"49.775"	"70.16"	"276.071"	"216.252"	"142.717"	"31.472"	"4.153"	"29.729"
"1987"	"14.918"	"13.122"	"7.268"	"1.745"	"33.525"	"7.689"	"77.421"	"183.994"	"42.956"	"32.421"	"0"	"5.295"
"1988"	"6.254"	"9.732"	"14.095"	"11.211"	"10.854"	"113.973"	"339.34"	"332.373"	"84.841"	"4.569"	"0.353"	"11.733"
"1989"	"19.907"	"3.434"	"11.503"	"0.699"	"7.165"	"93.321"	"246.252"	"219.468"	"149.331"	"10.175"	"4.765"	"4.134"
"1990"	"0.092"	"25.912"	"8.503"	"6.736"	"27.306"	"87.683"	"335.47"	"286.685"	"177.332"	"12.774"	"5.159"	"15.774"
"1991"	"4.742"	"14.769"	"8.553"	"10.098"	"36.105"	"19.905"	"16.163"	"189.511"	"88.146"	"0.318"	"3.93"	"19.806"
"1992"	"21.414"	"12.953"	"8.028"	"5.218"	"17.069"	"51.047"	"121.243"	"226.1"	"116.858"	"48.862"	"15.915"	"0"
"1993"	"12.749"	"1.854"	"16.556"	"5.818"	"23.077"	"136.776"	"286.911"	"167.258"	"281.701"	"6.247"	"0"	"0"
"1994"	"23.732"	"11.116"	"20.559"	"8.786"	"11.17"	"77.964"	"350.896"	"270.901"	"77.876"	"1.715"	"0"	"0.21"
"1995"	"26.183"	"16.515"	"17.681"	"10.718"	"1.735"	"41.235"	"194.779"	"339.804"	"198.959"	"0.318"	"9.875"	"7.658"
"1996"	"26.249"	"15.81"	"3.127"	"3.401"	"15.094"	"169.881"	"199.327"	"284.359"	"231.993"	"48.871"	"0"	"0"
"1997"	"9.281"	"1.733"	"6.487"	"3.618"	"22.584"	"145.015"	"51.602"	"216.366"	"130.945"	"41.045"	"15.166"	"12.839"
"1998"	"3.012"	"9.239"	"29.21"	"14.067"	"23.875"	"66.538"	"259.517"	"378.841"	"84.185"	"38.419"	"2.435"	"0.017"
"1999"	"15.45"	"15.648"	"0"	"0"	"15.552"	"110.148"	"196.531"	"159.076"	"201.946"	"51.174"	"0"	"3.75"
"2000"	"11.217"	"16.352"	"3.238"	"2.208"	"18.257"	"41.426"	"187.477"	"212.462"	"130.772"	"0.318"	"0"	"0"
"2001"	"5.414"	"5.622"	"4.774"	"14.554"	"30.239"	"100.863"	"155.899"	"152.666"	"63.44"	"27.535"	"0.949"	"0.873"
"2002"	"18.208"	"20.631"	"11.113"	"3.469"	"4.552"	"34.223"	"83.166"	"194.005"	"222.986"	"31.9"	"1.875"	"3.315"
