
"Year"	"Jan"	"Feb"	"Mar"	"Apr"	"May"	"Jun"	"Jul"	"Aug"	"Sep"	"Oct"	"Nov"	"Dec"
"1901"	"16.402"	"18.242"	"25.209"	"29.808"	"33.518"	"33.319"	"28.754"	"25.326"	"26.571"	"27.036"	"21.562"	"19.07"
"1902"	"19.121"	"21.072"	"27.477"	"31.014"	"33.566"	"32.501"	"28.052"	"27.185"	"25.679"	"25.14"	"20.067"	"17.279"
"1903"	"18.022"	"18.812"	"23.692"	"28.717"	"31.97"	"33.289"	"28.613"	"26.009"	"25.55"	"24.588"	"19.255"	"17.095"
"1904"	"18.148"	"19.496"	"23.811"	"30.813"	"33.022"	"30.731"	"26.151"	"25.431"	"26.021"	"25.646"	"20.655"	"18.315"
"1905"	"16.882"	"15.864"	"22.882"	"27.856"	"34.548"	"32.953"	"27.334"	"26.739"	"26.606"	"25.859"	"22.268"	"18.193"
"1906"	"16.523"	"18.223"	"24.143"	"30.16"	"34.48"	"30.747"	"26.634"	"26.44"	"24.97"	"24.661"	"21.593"	"18.416"
"1907"	"18.712"	"19.055"	"23.736"	"28.212"	"31.487"	"32.006"	"29.509"	"24.934"	"26.166"	"26.642"	"22.039"	"16.909"
"1908"	"17.209"	"19.653"	"23.684"	"30.898"	"32.919"	"31.945"	"25.941"	"25.216"	"25.936"	"25.313"	"21.031"	"17.265"
"1909"	"18.038"	"19.763"	"26.233"	"28.438"	"32.793"	"30.203"	"26.185"	"25.427"	"25.281"	"25.025"	"21.569"	"17.726"
"1910"	"17.628"	"20.083"	"25.216"	"29.324"	"32.886"	"29.389"	"26.48"	"25.972"	"25.681"	"23.824"	"19.354"	"18.285"
"1911"	"19.641"	"19.874"	"23.142"	"29.541"	"34.02"	"29.826"	"28.398"	"26.526"	"25.263"	"26.059"	"20.802"	"19.059"
"1912"	"18.804"	"21.425"	"24.644"	"30.203"	"33.594"	"33.177"	"27.608"	"25.589"	"25.473"	"25.353"	"19.953"	"17.547"
"1913"	"17.683"	"20.026"	"23.343"	"31.123"	"31.97"	"29.533"	"26.894"	"25.595"	"26.65"	"26.856"	"21.533"	"18.327"
"1914"	"19.762"	"20.144"	"24.202"	"29.798"	"33.557"	"30.34"	"26.724"	"26.071"	"26.44"	"25.717"	"22.593"	"18.049"
"1915"	"18.267"	"18.395"	"24.877"	"29.635"	"33.969"	"33.507"	"29.225"	"26.304"	"27.735"	"26.437"	"21.83"	"18.692"
"1916"	"18.473"	"19.225"	"27.083"	"31.152"	"33.472"	"28.809"	"28.092"	"25.718"	"26.404"	"24.625"	"19.5"	"17.299"
"1917"	"18.671"	"19.646"	"24.523"	"28.129"	"30.422"	"29.471"	"26.082"	"25.65"	"25.376"	"24.03"	"18.805"	"18.081"
"1918"	"16.265"	"20.628"	"24.968"	"28.519"	"33.921"	"30.413"	"28.686"	"26.275"	"26.44"	"26.495"	"22.384"	"17.385"
"1919"	"18.408"	"19.401"	"25.726"	"29.591"	"32.605"	"30.917"	"26.274"	"25.363"	"25.813"	"24.814"	"21.508"	"17.726"
"1920"	"18.233"	"19.604"	"25.603"	"29.672"	"30.18"	"30.555"	"26.018"	"25.572"	"27.103"	"26.802"	"22.308"	"19.151"
"1921"	"18.707"	"20.114"	"27.374"	"31.76"	"33.973"	"31.394"	"29.124"	"25.75"	"24.858"	"25.04"	"20.594"	"19.749"
"1922"	"17.241"	"21.58"	"26.051"	"30.662"	"33.333"	"30.673"	"26.685"	"25.601"	"25.42"	"24.987"	"20.594"	"17.24"
"1923"	"18.035"	"19.305"	"25.629"	"30.177"	"32.286"	"33.657"	"27.249"	"24.809"	"25.989"	"24.594"	"20.927"	"18.994"
"1924"	"17.828"	"20.593"	"26.873"	"31.14"	"31.944"	"32.254"	"27.124"	"25.81"	"25.529"	"23.85"	"19.377"	"17.91"
"1925"	"15.851"	"18.491"	"25.551"	"31.62"	"31.705"	"28.916"	"25.774"	"26.654"	"27.028"	"26.885"	"21.345"	"18.022"
"1926"	"18.669"	"21.945"	"24.429"	"27.005"	"31.968"	"33.768"	"27.732"	"25.864"	"25.55"	"24.699"	"19.096"	"16.865"
"1927"	"16.295"	"18.175"	"23.547"	"29.181"	"32.304"	"31.317"	"26.541"	"25.188"	"25.839"	"24.875"	"18.437"	"18.146"
"1928"	"17.433"	"19.835"	"24.824"	"29.321"	"33.148"	"30.931"	"26.346"	"25.742"	"26.062"	"25.241"	"21.593"	"17.069"
"1929"	"16.86"	"18.434"	"26.303"	"29.834"	"33.227"	"30.778"	"26.515"	"25.216"	"26.342"	"25.108"	"22.013"	"17.347"
"1930"	"18.128"	"19.159"	"25.852"	"29.242"	"32.555"	"31.268"	"25.823"	"25.487"	"26.736"	"26.606"	"20.159"	"18.696"
"1931"	"19.762"	"19.341"	"24.551"	"31.294"	"33.478"	"33.099"	"27.742"	"25.896"	"25.67"	"24.098"	"20.512"	"18.268"
"1932"	"20.173"	"18.787"	"24.464"	"29.139"	"32.979"	"31.688"	"26.757"	"25.87"	"26.281"	"25.881"	"20.279"	"18.656"
"1933"	"17.329"	"20.673"	"25.352"	"28.831"	"30.498"	"30.138"	"27.051"	"25.482"	"25.048"	"24.332"	"20.877"	"17.947"
"1934"	"16.542"	"20.963"	"24.243"	"29.992"	"32.587"	"31.178"	"26.347"	"25.441"	"24.88"	"24.078"	"20.295"	"18.307"
"1935"	"15.927"	"19.887"	"24.422"	"27.193"	"33.034"	"31.6"	"26.279"	"25.193"	"25.196"	"24.471"	"21.227"	"18.009"
"1936"	"16.531"	"19.643"	"24.451"	"28.778"	"33.855"	"29.35"	"26.673"	"25.67"	"25.663"	"24.977"	"20.94"	"17.348"
"1937"	"16.59"	"20.516"	"23.489"	"28.744"	"32.746"	"31.47"	"26.061"	"25.633"	"25.841"	"24.574"	"21.898"	"17.172"
"1938"	"18.449"	"18.236"	"26.743"	"30.497"	"33.497"	"27.392"	"26.241"	"26.14"	"27.102"	"25.496"	"19.926"	"18.315"
"1939"	"19.05"	"20.19"	"22.992"	"28.735"	"32.764"	"30.553"	"26.607"	"26.918"	"25.539"	"25.907"	"20.776"	"17.723"
"1940"	"18.017"	"20.053"	"23.266"	"28.97"	"33.148"	"31.146"	"26.826"	"25.179"	"25.841"	"25.284"	"21.124"	"17.632"
"1941"	"17.143"	"20.376"	"26.334"	"31"	"33.401"	"31.8"	"27.11"	"25.986"	"26.693"	"27.059"	"21.809"	"19.749"
"1942"	"16.526"	"20.287"	"25.965"	"31.421"	"33.459"	"32.618"	"25.671"	"25.391"	"25.251"	"25.035"	"20.733"	"17.32"
"1943"	"18.284"	"19.331"	"25.675"	"29.273"	"33.734"	"30.079"	"26.104"	"24.762"	"25.798"	"24.546"	"22.482"	"17.778"
"1944"	"17.241"	"19.316"	"23.855"	"29.032"	"33.274"	"30.47"	"26.01"	"25.218"	"25.973"	"23.833"	"21.01"	"19.435"
"1945"	"16.002"	"18.804"	"25.254"	"28.659"	"32.397"	"31.615"	"26.075"	"25.988"	"25.327"	"24.408"	"19.883"	"16.388"
"1946"	"18.186"	"21.521"	"24.709"	"31.608"	"32.806"	"29.958"	"26.332"	"24.919"	"25.688"	"25.491"	"18.548"	"19.085"
"1947"	"16.493"	"19.755"	"25.495"	"29.716"	"33.473"	"31.76"	"26.724"	"26.47"	"25.165"	"23.976"	"21.4"	"18.77"
"1948"	"17.771"	"19.346"	"24.996"	"31.232"	"34.419"	"30.992"	"27.028"	"25.56"	"25.282"	"26.082"	"20.68"	"17.709"
"1949"	"19.633"	"20.095"	"25.731"	"31.053"	"33.9"	"30.796"	"27.133"	"26.424"	"26.101"	"25.338"	"20.306"	"17.687"
"1950"	"18.919"	"18.346"	"24.105"	"29.208"	"32.961"	"31.687"	"26.645"	"25.78"	"25.597"	"24.494"	"19.349"	"17.073"
"1951"	"16.742"	"19.352"	"25.083"	"28.378"	"32.856"	"31.151"	"28.319"	"25.723"	"27.356"	"27.99"	"22.837"	"17.687"
"1952"	"19.027"	"21.834"	"24.811"	"31.215"	"34.127"	"30.688"	"26.62"	"24.925"	"26.541"	"25.978"	"21.139"	"19.492"
"1953"	"17.184"	"22.443"	"27.909"	"30.665"	"33.172"	"31.884"	"27.346"	"25.804"	"26.294"	"25.084"	"21.062"	"19.861"
"1954"	"17.146"	"21.287"	"25.296"	"30.64"	"34.319"	"31.878"	"27.358"	"26.342"	"24.581"	"23.387"	"21.299"	"18.34"
"1955"	"18.25"	"20.498"	"27.175"	"28.186"	"32.605"	"30.774"	"27.472"	"25.648"	"25.288"	"23.69"	"19.499"	"18.049"
"1956"	"18.249"	"20.067"	"26.082"	"30.378"	"33.478"	"29.526"	"25.413"	"24.931"	"25.624"	"24.062"	"19.612"	"18.572"
"1957"	"17.381"	"18.441"	"23.407"	"29.398"	"31.88"	"31.752"	"26.94"	"26.265"	"25.421"	"25.614"	"22.986"	"19.495"
"1958"	"19.451"	"20.388"	"25.957"	"31.529"	"33.49"	"32.364"	"26.364"	"26.633"	"25.027"	"24.456"	"21.698"	"19.039"
"1959"	"18.033"	"19.756"	"26.545"	"30.179"	"32.868"	"31.146"	"26.104"	"25.178"	"25.281"	"25.286"	"21.279"	"18.926"
"1960"	"16.504"	"22.012"	"24.353"	"29.545"	"32.74"	"31.624"	"27.532"	"24.67"	"26.469"	"24.816"	"20.7"	"19.559"
"1961"	"17.48"	"18"	"26.221"	"29.946"	"33.14"	"30.3"	"26.552"	"25.601"	"24.71"	"23.728"	"21.05"	"16.784"
"1962"	"16.372"	"20.098"	"24.831"	"29.897"	"32.511"	"30.957"	"26.717"	"25.201"	"24.696"	"23.322"	"20.993"	"18.885"
"1963"	"17.175"	"21.75"	"24.784"	"28.635"	"32.136"	"30.409"	"27.158"	"24.904"	"25.375"	"25.237"	"23.192"	"18.736"
"1964"	"16.813"	"20.241"	"26.929"	"31.836"	"32.486"	"30.101"	"26.915"	"25.833"	"25.871"	"26.024"	"20.662"	"18.689"
"1965"	"19.306"	"20.525"	"24.917"	"29.348"	"33.348"	"32.1"	"27.835"	"26.931"	"25.932"	"26.645"	"22.688"	"18.618"
"1966"	"18.655"	"22.699"	"25.077"	"30.114"	"32.457"	"30.869"	"28.672"	"25.358"	"26.076"	"26.783"	"22.836"	"18.194"
"1967"	"16.804"	"22.244"	"23.977"	"28.709"	"32.564"	"30.195"	"26.898"	"24.806"	"24.477"	"25.713"	"22.325"	"19.473"
"1968"	"17.121"	"18.953"	"25.246"	"29.24"	"31.407"	"31.481"	"26.727"	"24.819"	"26.962"	"25.071"	"21.729"	"18.606"
"1969"	"17.951"	"21.042"	"27.216"	"29.839"	"32.386"	"30.965"	"27.054"	"25.059"	"25.632"	"27.065"	"23.384"	"18.957"
"1970"	"18.502"	"20.011"	"25.22"	"31.502"	"34.051"	"29.68"	"27.45"	"25.698"	"25.171"	"25.537"	"20.439"	"18.294"
"1971"	"17.346"	"20.261"	"24.946"	"31.002"	"31.224"	"28.589"	"25.322"	"25.319"	"25.658"	"24.551"	"21.01"	"17.438"
"1972"	"18.241"	"18.454"	"26.534"	"29.099"	"33.043"	"31.436"	"27.982"	"25.919"	"25.58"	"25.792"	"21.909"	"19.224"
"1973"	"17.944"	"21.126"	"25.638"	"31.803"	"34.047"	"30.918"	"25.841"	"25.536"	"25.084"	"24.868"	"21.217"	"18.507"
"1974"	"17.315"	"19.618"	"26.871"	"30.735"	"32.151"	"31.398"	"27.162"	"25.735"	"27.297"	"25.366"	"20.445"	"17.826"
"1975"	"16.572"	"19.524"	"23.888"	"30.711"	"33.32"	"30.479"	"25.879"	"25.724"	"25.428"	"25.139"	"19.647"	"18.368"
"1976"	"18.632"	"20.804"	"25.902"	"29.733"	"32.895"	"29.129"	"27.242"	"25.32"	"25.43"	"26.262"	"23.995"	"19.71"
"1977"	"17.951"	"21.029"	"27.636"	"29.861"	"31.671"	"30.779"	"26.563"	"25.398"	"25.293"	"26.327"	"22.703"	"20.07"
"1978"	"17.59"	"19.451"	"23.904"	"29.829"	"34.081"	"29.891"	"25.784"	"24.54"	"26.003"	"25.921"	"22.945"	"17.28"
"1979"	"19.089"	"18.773"	"23.921"	"30.615"	"31.253"	"31.488"	"26.905"	"25.59"	"27.624"	"26.504"	"23.327"	"19.357"
"1980"	"18.951"	"21.661"	"25.529"	"31.773"	"33.017"	"29.256"	"26.674"	"25.673"	"26.871"	"26.95"	"22.932"	"18.035"
"1981"	"17.367"	"21.596"	"25.02"	"30.446"	"33.075"	"32.151"	"25.86"	"25.241"	"26.544"	"25.986"	"20.642"	"17.946"
"1982"	"18.58"	"19.146"	"23.487"	"28.904"	"31.121"	"31.945"	"28.138"	"25.441"	"26.665"	"26.788"	"21.526"	"20.217"
"1983"	"17.712"	"19.103"	"24.849"	"27.92"	"32.502"	"31.907"	"27.609"	"26.47"	"26.25"	"24.585"	"20.307"	"18.409"
"1984"	"17.481"	"17.749"	"26.639"	"30.956"	"34.327"	"30.949"	"27.468"	"24.624"	"25.011"	"25.606"	"21.611"	"19.604"
"1985"	"18.415"	"20.879"	"27.804"	"30.439"	"33.794"	"31.499"	"27.912"	"25.162"	"26.48"	"23.941"	"21.901"	"20.453"
"1986"	"18.538"	"20.009"	"25.347"	"30.596"	"32.829"	"31.43"	"26.061"	"25.271"	"27.312"	"25.569"	"22.89"	"18.108"
"1987"	"18.315"	"21.505"	"26.124"	"30.929"	"31.773"	"32.212"	"28.599"	"27.436"	"27.585"	"26.785"	"22.433"	"18.884"
"1988"	"19.519"	"22.182"	"25.861"	"31.593"	"34.627"	"31.539"	"26.655"	"26.437"	"27.588"	"25.384"	"21.817"	"19.217"
"1989"	"17.653"	"20.672"	"24.802"	"29.69"	"33.913"	"29.968"	"27.327"	"25.387"	"27.142"	"26.37"	"23.183"	"18.694"
"1990"	"20.541"	"20.542"	"24.225"	"30.408"	"32.111"	"29.828"	"25.871"	"26.287"	"25.543"	"25.918"	"22.493"	"19.062"
"1991"	"17.241"	"21.391"	"26.139"	"29.657"	"33.087"	"31.943"	"27.602"	"25.554"	"26.367"	"26.268"	"21.83"	"19.031"
"1992"	"18.979"	"19.541"	"26.032"	"30.175"	"32.634"	"32.528"	"28.523"	"25.819"	"25.609"	"25.598"	"21.533"	"19.546"
"1993"	"19.272"	"21.029"	"24.336"	"29.947"	"34.253"	"31.779"	"27.114"	"26.307"	"25.432"	"26.444"	"22.516"	"19.149"
"1994"	"19.48"	"19.664"	"26.444"	"29.219"	"34.248"	"30.098"	"25.948"	"25.2"	"25.3"	"25.725"	"21.939"	"18.785"
"1995"	"16.585"	"20.283"	"24.114"	"29.764"	"33.365"	"34.028"	"27.82"	"26.148"	"26.939"	"27.16"	"22.066"	"19.681"
"1996"	"18.922"	"21.476"	"27.146"	"30.6"	"33.581"	"32.581"	"27.963"	"25.379"	"26.437"	"25.315"	"22.206"	"18.748"
"1997"	"17.872"	"20.286"	"26.222"	"28.776"	"31.388"	"29.97"	"27.086"	"26.071"	"26.41"	"24.926"	"22.966"	"17.7"
"1998"	"17.984"	"20.804"	"24.678"	"31.022"	"34.577"	"32.36"	"27.433"	"27.207"	"27.099"	"27.064"	"22.72"	"20.107"
"1999"	"18.329"	"21.275"	"26.464"	"32.173"	"33.577"	"30.474"	"27.279"	"25.983"	"25.989"	"25.715"	"22.634"	"18.725"
"2000"	"19.412"	"19.326"	"25.364"	"32.473"	"31.899"	"30.533"	"26.302"	"27.024"	"26.641"	"27.299"	"24.031"	"20.265"
"2001"	"18.289"	"21.921"	"26.073"	"29.989"	"32.565"	"28.812"	"25.572"	"26.311"	"27.821"	"26.712"	"22.896"	"20.344"
"2002"	"17.931"	"20.8"	"26.361"	"31.683"	"34.294"	"31.17"	"28.683"	"25.541"	"26.424"	"26.742"	"23.085"	"21.457"
