
"Year"	"Jan"	"Feb"	"Mar"	"Apr"	"May"	"Jun"	"Jul"	"Aug"	"Sep"	"Oct"	"Nov"	"Dec"
"1901"	"52.035"	"11.874"	"5.119"	"4.251"	"26.007"	"73.274"	"250.631"	"392.575"	"269.821"	"10.224"	"0.806"	"4.737"
"1902"	"2.72"	"1.829"	"3.196"	"11.315"	"12.776"	"84.181"	"430.694"	"263.696"	"256.08"	"26.588"	"0.044"	"0"
"1903"	"10.434"	"2.102"	"2.867"	"3.991"	"21.61"	"130.248"	"158.353"	"400.232"	"171.368"	"116.582"	"0"	"0.628"
"1904"	"5.238"	"0.551"	"17.282"	"1.422"	"76.96"	"91.846"	"283.327"	"446.514"	"194.33"	"122.393"	"5.643"	"14.491"
"1905"	"32.944"	"22.927"	"15.219"	"6.893"	"13.448"	"29.136"	"351.41"	"261.551"	"288.421"	"3.773"	"0"	"4.085"
"1906"	"8.971"	"38.064"	"11.987"	"2.095"	"17.408"	"140.256"	"302.612"	"329.657"	"266.426"	"34.943"	"0"	"0.628"
"1907"	"4.145"	"36.387"	"22.26"	"19.866"	"16.821"	"104.038"	"285.444"	"295.696"	"76.198"	"9.655"	"0"	"0"
"1908"	"15.266"	"20.2"	"2.131"	"1.697"	"11.611"	"64.496"	"285.449"	"301.515"	"100.268"	"16.459"	"0.296"	"1.521"
"1909"	"12.934"	"6.371"	"0.153"	"31.006"	"6.17"	"297.68"	"507.368"	"324.106"	"177.076"	"8.307"	"0"	"23.641"
"1910"	"6.494"	"5.232"	"7.619"	"2.323"	"31.241"	"215.816"	"377.505"	"259.051"	"276.59"	"63.323"	"7.283"	"1.105"
"1911"	"26.58"	"0.153"	"25.07"	"8.103"	"4.913"	"171.134"	"151.227"	"299.36"	"322.504"	"122.599"	"13.158"	"0"
"1912"	"9.257"	"6.729"	"4.412"	"12.376"	"28.085"	"107.919"	"310.84"	"312.117"	"190.849"	"7.056"	"12.758"	"2.533"
"1913"	"1.204"	"33.234"	"19.971"	"2.906"	"43.055"	"327.586"	"202.48"	"227.303"	"98.057"	"32.028"	"2.927"	"24.814"
"1914"	"1.5"	"21.813"	"16.165"	"19.607"	"72.565"	"105.61"	"433.931"	"256.616"	"438.285"	"14.251"	"0.174"	"0"
"1915"	"6.885"	"43.833"	"39.594"	"6.526"	"9.974"	"144.165"	"306.341"	"350.69"	"252.031"	"85.091"	"1.126"	"3.829"
"1916"	"0.154"	"12.272"	"0.447"	"4.399"	"24.415"	"268.041"	"428.647"	"428.014"	"251.667"	"85.969"	"0.844"	"0"
"1917"	"4.635"	"24.857"	"9.684"	"7.289"	"67.423"	"249.566"	"315.642"	"267.469"	"332.866"	"67.898"	"0"	"7.751"
"1918"	"1.481"	"0"	"5.64"	"11.907"	"10.366"	"210.019"	"148.603"	"284.096"	"93.42"	"6.976"	"8.297"	"1.226"
"1919"	"30.528"	"6.695"	"8.817"	"10.373"	"11.66"	"97.239"	"316.897"	"349.692"	"234.346"	"68.228"	"0.894"	"1.477"
"1920"	"1.082"	"17.528"	"16.381"	"1.439"	"21.053"	"197.52"	"404.89"	"172.638"	"92.336"	"13.995"	"0"	"0.474"
"1921"	"30.48"	"1.15"	"1.001"	"1.59"	"2.85"	"114.022"	"267.598"	"347.49"	"214.877"	"28.596"	"0"	"0.153"
"1922"	"21.505"	"10.516"	"0.293"	"5.037"	"2.797"	"170.815"	"463.867"	"448.466"	"354.031"	"15.087"	"1.735"	"32.392"
"1923"	"3.696"	"35.029"	"0.526"	"0.617"	"11.348"	"61.035"	"250.033"	"358.471"	"225.811"	"91.025"	"7.026"	"8.683"
"1924"	"8.048"	"8.231"	"2.416"	"8.607"	"17.14"	"79.475"	"335.134"	"258.852"	"494.955"	"137.557"	"7.263"	"10.092"
"1925"	"9.996"	"0.296"	"3.241"	"4.29"	"50.4"	"212.373"	"491.105"	"451.405"	"373.828"	"13.806"	"7.553"	"0"
"1926"	"9.552"	"2.506"	"49.605"	"14.947"	"43.402"	"29.676"	"420.313"	"271.672"	"153.158"	"28.574"	"4.097"	"3.629"
"1927"	"10.427"	"23.06"	"18.646"	"3.553"	"27.907"	"78.641"	"278.976"	"486.913"	"145.609"	"161.538"	"8.415"	"1.097"
"1928"	"25.791"	"27.095"	"2.331"	"14.551"	"6.788"	"103.613"	"380.135"	"140.24"	"76.868"	"53.255"	"4.397"	"13.52"
"1929"	"42.128"	"1.155"	"3.547"	"7.364"	"7.971"	"168.812"	"363.167"	"362.806"	"83.026"	"138.759"	"0"	"36.451"
"1930"	"12.22"	"11.206"	"4.952"	"7.555"	"12.738"	"116.063"	"352.81"	"256.799"	"167.485"	"48.661"	"7.087"	"21.111"
"1931"	"1.148"	"22.698"	"10.304"	"1.905"	"11.909"	"66.333"	"394.054"	"230.374"	"395.105"	"150.349"	"1.062"	"0.641"
"1932"	"0.154"	"5.413"	"4.597"	"2.161"	"13.941"	"112.48"	"147.247"	"309.682"	"264.01"	"22.915"	"7.127"	"12.315"
"1933"	"14.885"	"20.14"	"2.642"	"18.126"	"40.261"	"166.562"	"429.515"	"343.086"	"193.546"	"132.054"	"0"	"0.276"
"1934"	"21.718"	"7.843"	"3.812"	"1.914"	"6.834"	"152.342"	"299.233"	"345.347"	"182.42"	"17.993"	"0.568"	"9.662"
"1935"	"17.904"	"15.251"	"2.196"	"8.124"	"6.454"	"103.792"	"305.029"	"346.274"	"207.146"	"9.655"	"4.097"	"10.758"
"1936"	"2.698"	"20.01"	"11.553"	"9.157"	"13.768"	"407.334"	"639.89"	"356.733"	"299.437"	"14.745"	"1.592"	"38.22"
"1937"	"0.828"	"40.515"	"1.529"	"19.25"	"22.777"	"119.513"	"310.313"	"271.938"	"244.002"	"67.55"	"0.296"	"6.891"
"1938"	"29.186"	"15.034"	"1.974"	"6.677"	"22.398"	"354.31"	"369.984"	"318.647"	"138.065"	"30.864"	"0.595"	"0"
"1939"	"8.542"	"20.492"	"8.001"	"8.186"	"8.211"	"193.393"	"294.706"	"223.149"	"175.926"	"37.428"	"0"	"0"
"1940"	"7.84"	"34.004"	"27.043"	"8.302"	"15.996"	"99.216"	"355.726"	"321.367"	"194.832"	"9.66"	"0"	"9.223"
"1941"	"14.968"	"6.462"	"5.421"	"1.828"	"24.597"	"107.128"	"176.169"	"306.739"	"190.053"	"29.357"	"0.595"	"5.663"
"1942"	"41.029"	"28.011"	"2.459"	"10.336"	"11.798"	"149.072"	"380.06"	"271.458"	"222.707"	"3.483"	"0"	"16.779"
"1943"	"14.281"	"6.826"	"2.88"	"23.878"	"15.586"	"127.349"	"202.683"	"510.454"	"234.143"	"15.5"	"0"	"0"
"1944"	"19.622"	"20.198"	"24.469"	"6.927"	"5.02"	"183.454"	"239.13"	"280.978"	"148.826"	"22.917"	"0.296"	"1.375"
"1945"	"23.327"	"6.601"	"2.174"	"9.045"	"8.211"	"67.927"	"334.585"	"173.411"	"267.378"	"125.487"	"0"	"11.619"
"1946"	"0.275"	"21.476"	"7.817"	"16.998"	"22.675"	"127.046"	"420.466"	"280.636"	"196.281"	"52.797"	"9.306"	"8.086"
"1947"	"15.97"	"12.403"	"14.734"	"1.067"	"11.131"	"65.848"	"404.417"	"301.471"	"345.487"	"29.52"	"1.093"	"1.58"
"1948"	"5.133"	"13.959"	"8.308"	"2.363"	"17.679"	"129.894"	"353.588"	"445.175"	"236.692"	"57.248"	"3.798"	"1.105"
"1949"	"1.992"	"38.685"	"6.407"	"10.261"	"36.762"	"149.867"	"461.428"	"370.19"	"268.832"	"97.839"	"0.322"	"0.75"
"1950"	"15.393"	"9.113"	"23.937"	"0.792"	"12.956"	"226.719"	"329.289"	"364.225"	"172.921"	"8.593"	"0.296"	"7.986"
"1951"	"10.568"	"9.506"	"19.048"	"13.94"	"14.082"	"137.877"	"290.818"	"384.272"	"223.976"	"26.595"	"12.491"	"0"
"1952"	"4.603"	"13.94"	"15.915"	"4.423"	"26.175"	"258.131"	"226.192"	"316.161"	"128.523"	"8.218"	"4.397"	"0"
"1953"	"38.49"	"8.253"	"1.176"	"6.133"	"4.967"	"168.57"	"474.779"	"316.183"	"170.156"	"3.005"	"0"	"3.296"
"1954"	"19.362"	"24.199"	"5.831"	"2.009"	"6.635"	"97.07"	"372.621"	"296.604"	"224.158"	"50.186"	"0"	"0.628"
"1955"	"21.841"	"12.047"	"4.166"	"8.975"	"6.653"	"151.239"	"520.923"	"239.757"	"190.837"	"154.788"	"0"	"2.679"
"1956"	"17.548"	"8.225"	"9.675"	"4.801"	"25.239"	"209.565"	"250.19"	"268.226"	"266.594"	"181.091"	"12.657"	"11.666"
"1957"	"19.929"	"1.119"	"25.938"	"5.422"	"7.462"	"128.825"	"311.527"	"275.018"	"227.221"	"12.369"	"1.735"	"18.443"
"1958"	"18.34"	"4.951"	"27.116"	"5.994"	"2.244"	"150.849"	"248.454"	"339.555"	"183.643"	"107.58"	"1.191"	"10.163"
"1959"	"46.344"	"5.967"	"2.537"	"3.242"	"54.594"	"75.767"	"305.378"	"308.944"	"218.988"	"153.633"	"6.13"	"0"
"1960"	"11.491"	"0"	"10.151"	"3.812"	"3.778"	"85.756"	"344.876"	"393.872"	"187.919"	"110.642"	"0"	"0.95"
"1961"	"25.064"	"22.7"	"0"	"2.967"	"11.451"	"140.176"	"334.079"	"386.31"	"228.279"	"110.948"	"1.617"	"10.116"
"1962"	"23.443"	"11.36"	"9.402"	"16.811"	"12.011"	"130.162"	"297.493"	"322.737"	"398.268"	"1.203"	"2.607"	"8.869"
"1963"	"10.528"	"4.761"	"24.35"	"11.818"	"37.455"	"152.466"	"390.597"	"346.491"	"283.053"	"32.979"	"8.307"	"4.83"
"1964"	"2.861"	"2.883"	"4.78"	"5.025"	"23.507"	"75.642"	"463.168"	"241.12"	"253.931"	"8.53"	"0"	"5.332"
"1965"	"3.746"	"9.777"	"16.124"	"22.927"	"8.343"	"39.678"	"273.4"	"201.841"	"102.06"	"34.161"	"1.205"	"1.624"
"1966"	"10.684"	"17.005"	"0.605"	"0.153"	"10.733"	"167.733"	"244.331"	"272.155"	"96.388"	"16.953"	"12.249"	"9.804"
"1967"	"1.1"	"1.455"	"26.42"	"6.187"	"5.638"	"75.523"	"289.877"	"498.567"	"194.078"	"5.874"	"1.678"	"31.651"
"1968"	"28.022"	"9.388"	"4.715"	"4.6"	"4.211"	"134.75"	"257.183"	"176.822"	"107.827"	"51.63"	"0.041"	"5.655"
"1969"	"14.257"	"4.229"	"3.483"	"8.404"	"42.782"	"61.927"	"468.54"	"266.255"	"333.554"	"3.977"	"3.696"	"0"
"1970"	"22.933"	"33.491"	"2.657"	"1.092"	"62.865"	"186.164"	"303.323"	"265.17"	"395.569"	"61.317"	"0.177"	"0"
"1971"	"10.695"	"11.064"	"6.047"	"23.543"	"72.061"	"251.089"	"302.557"	"379.237"	"269.588"	"160.018"	"4.044"	"0"
"1972"	"13.363"	"25.199"	"4.115"	"7.558"	"6.057"	"53.091"	"258.601"	"268.982"	"291.244"	"118.836"	"6.857"	"0.454"
"1973"	"11.726"	"9.706"	"5.526"	"1.557"	"15.789"	"144.594"	"293.36"	"421.281"	"207.072"	"133.728"	"0.684"	"0"
"1974"	"8.074"	"3.971"	"1.789"	"1.965"	"12.537"	"88.286"	"348.344"	"197.404"	"119.638"	"13.239"	"0.343"	"8.125"
"1975"	"22.617"	"11.77"	"14.821"	"6.299"	"8.057"	"212.806"	"325.248"	"289.258"	"289.033"	"37.865"	"0"	"0"
"1976"	"20.305"	"12.589"	"2.526"	"10.06"	"16.908"	"69.703"	"214.246"	"286.627"	"281.574"	"5.115"	"0.344"	"0.249"
"1977"	"17.248"	"11.495"	"1.103"	"13.782"	"31.388"	"152.515"	"380.205"	"181.982"	"141.587"	"66.82"	"2.274"	"13.436"
"1978"	"14.832"	"30.119"	"31.279"	"5.239"	"4.858"	"165.001"	"170.065"	"281.436"	"279.632"	"46.107"	"1.69"	"6.384"
"1979"	"16.272"	"12.468"	"5.161"	"9.043"	"17.4"	"123.031"	"267.497"	"194.712"	"65.976"	"4.634"	"18.21"	"6.468"
"1980"	"1.914"	"7.511"	"10.639"	"2.614"	"5.333"	"283.287"	"602.868"	"502.621"	"314.132"	"30.182"	"0.497"	"14.782"
"1981"	"23.391"	"4.526"	"12.405"	"3.222"	"22.556"	"157.739"	"475.433"	"344.42"	"208.153"	"1.46"	"10.601"	"4.08"
"1982"	"38.921"	"11.559"	"34.095"	"9.148"	"56.275"	"104.587"	"216.287"	"423.562"	"336.622"	"15.75"	"8.341"	"9.111"
"1983"	"19.018"	"4.513"	"7.039"	"27.494"	"57.816"	"154.469"	"300.223"	"192.406"	"343.876"	"77.849"	"0"	"6.904"
"1984"	"21.039"	"32.437"	"1.59"	"13.412"	"3.413"	"167.211"	"218.002"	"242.844"	"176.469"	"26.688"	"0"	"4.581"
"1985"	"12.205"	"1.468"	"0.65"	"13.624"	"17.606"	"107.394"	"281.014"	"261.72"	"313.693"	"128.87"	"0.046"	"20.071"
"1986"	"7.856"	"21.442"	"4.425"	"8.835"	"84.685"	"91.525"	"365.356"	"288.368"	"284.15"	"24.4"	"2.818"	"37.85"
"1987"	"13.734"	"14.547"	"8.223"	"4.932"	"36.769"	"14.562"	"136.696"	"223.975"	"95.59"	"103.761"	"0"	"5.557"
"1988"	"8.18"	"10.64"	"13.697"	"6.748"	"25.667"	"192.59"	"384.624"	"350.187"	"132.883"	"12.432"	"1.279"	"35.02"
"1989"	"18.355"	"8.119"	"7.257"	"2.753"	"28.423"	"149.551"	"326.65"	"192.144"	"218.597"	"18.294"	"3.041"	"3.192"
"1990"	"0.195"	"19.513"	"7.102"	"10.573"	"35.206"	"96.77"	"414.591"	"246.044"	"237.669"	"17.359"	"3.271"	"14.678"
"1991"	"9.474"	"10.949"	"7.766"	"12.936"	"44.928"	"44.936"	"53.966"	"106.024"	"126.314"	"0.541"	"0.409"	"23.53"
"1992"	"21.666"	"9.136"	"2.603"	"5.013"	"28.594"	"73.267"	"187.073"	"201.798"	"166.151"	"57.775"	"9.868"	"0"
"1993"	"13.236"	"1.728"	"12.514"	"7.274"	"38.63"	"107.278"	"262.969"	"208.202"	"382.843"	"16.726"	"0"	"0"
"1994"	"39.003"	"14.703"	"21.294"	"11.116"	"15.382"	"79.04"	"326.109"	"267.244"	"159.04"	"3.815"	"0.409"	"0.353"
"1995"	"27.932"	"19.879"	"21.64"	"10.954"	"8.339"	"53.79"	"224.296"	"354.092"	"270.206"	"1.381"	"14.96"	"21.877"
"1996"	"29.988"	"18.359"	"3.227"	"4.748"	"7.658"	"144.591"	"224.417"	"304.725"	"125.061"	"84.771"	"0"	"0"
"1997"	"11.877"	"2.889"	"5.646"	"10.64"	"50.316"	"156.074"	"136.81"	"234.354"	"211.307"	"43.184"	"8.533"	"17.705"
"1998"	"3.647"	"7.202"	"19.559"	"13.602"	"57.572"	"14.06"	"267.323"	"356.254"	"140.591"	"12.708"	"1.744"	"0"
"1999"	"28.805"	"26.805"	"0.371"	"0"	"26.254"	"63.848"	"186.166"	"161.471"	"207.068"	"42.624"	"0.062"	"4.225"
"2000"	"12.678"	"21.008"	"3.979"	"6.003"	"22.821"	"114.339"	"154.254"	"201.516"	"188.977"	"0.479"	"0"	"0.296"
"2001"	"5.172"	"3.699"	"10.757"	"12.414"	"32.617"	"145.811"	"236.3"	"164.83"	"57.156"	"60.82"	"0"	"1.644"
"2002"	"17.334"	"19.078"	"12.452"	"6.744"	"5.998"	"35.576"	"147.068"	"224.913"	"304.291"	"86.182"	"3.273"	"0.371"
