
"Year"	"Jan"	"Feb"	"Mar"	"Apr"	"May"	"Jun"	"Jul"	"Aug"	"Sep"	"Oct"	"Nov"	"Dec"
"1901"	"14.381"	"17.963"	"23.827"	"30.058"	"32.371"	"34.204"	"30.735"	"29.345"	"28.796"	"27.695"	"22.044"	"17.178"
"1902"	"17.448"	"19.426"	"25.593"	"29.212"	"32.605"	"32.972"	"29.742"	"29.572"	"28.906"	"25.817"	"21.25"	"16.444"
"1903"	"16.125"	"17.76"	"23.02"	"29.857"	"33.355"	"33.078"	"31.334"	"29.252"	"29.355"	"26.51"	"21.34"	"16.834"
"1904"	"16.326"	"19.222"	"24.21"	"31.214"	"31.523"	"32.011"	"29.45"	"28.873"	"28.707"	"26.51"	"20.55"	"16.889"
"1905"	"14.264"	"14.432"	"20.908"	"26.824"	"31.778"	"33.972"	"29.906"	"28.746"	"28.712"	"26.794"	"21.65"	"16.55"
"1906"	"15.359"	"17.075"	"22.2"	"30.469"	"33.729"	"32.599"	"30.228"	"28.845"	"29.205"	"26.605"	"22.423"	"17.649"
"1907"	"17.844"	"17.107"	"20.704"	"27.42"	"31.368"	"32.9"	"30.69"	"29.667"	"29.573"	"27.506"	"21.522"	"16.761"
"1908"	"15.217"	"18.605"	"24.421"	"32.364"	"33.123"	"33.652"	"29.911"	"29.599"	"29.189"	"27.022"	"20.945"	"16.249"
"1909"	"16.725"	"17.876"	"25.661"	"28.118"	"33.039"	"31.222"	"29.971"	"29.241"	"29.601"	"27.417"	"21.655"	"17.373"
"1910"	"16.011"	"18.432"	"24.678"	"30.319"	"32.551"	"31.811"	"29.444"	"29.399"	"29.111"	"26.215"	"20.756"	"16.372"
"1911"	"16.943"	"18.327"	"22.217"	"29.815"	"33.924"	"31.728"	"31.312"	"29.444"	"28.608"	"26.385"	"20.032"	"15.977"
"1912"	"16.125"	"19.437"	"23.983"	"28.691"	"32.005"	"33.055"	"29.917"	"29.078"	"28.635"	"26.678"	"20.038"	"16.271"
"1913"	"15.95"	"17.754"	"21.911"	"30.769"	"31.144"	"30.522"	"30.05"	"29.518"	"29.595"	"26.278"	"20.06"	"15.872"
"1914"	"17.127"	"18.353"	"22.914"	"28.307"	"31.635"	"31.993"	"29.771"	"29.073"	"28.805"	"25.211"	"21.389"	"17.079"
"1915"	"16.753"	"17.859"	"23.294"	"29.708"	"33.183"	"32.428"	"30.933"	"29.466"	"29.205"	"28.299"	"22.855"	"16.978"
"1916"	"16.017"	"18.167"	"26.991"	"30.808"	"34.384"	"31.254"	"29.756"	"29.168"	"28.906"	"26.783"	"21.826"	"15.874"
"1917"	"15.722"	"18.038"	"22.915"	"27.478"	"29.199"	"31.438"	"29.944"	"29.372"	"28.284"	"26.192"	"21.561"	"16.483"
"1918"	"14.921"	"18.706"	"24.605"	"28.53"	"32.696"	"30.851"	"31.138"	"28.952"	"29.394"	"26.746"	"20.944"	"15.461"
"1919"	"15.669"	"17.159"	"24.311"	"28.257"	"31.69"	"32.133"	"29.751"	"29.372"	"28.707"	"26.429"	"21.329"	"16.383"
"1920"	"16.737"	"17.743"	"22.783"	"29.919"	"30.816"	"32.805"	"29.97"	"29.372"	"28.98"	"26.905"	"21.827"	"17.734"
"1921"	"16.362"	"18.934"	"26.585"	"31.396"	"35.417"	"32.366"	"30.066"	"28.8"	"28.205"	"25.605"	"20.762"	"16.389"
"1922"	"15.763"	"19.438"	"25.724"	"30.386"	"34.234"	"31.322"	"29.741"	"28.673"	"28.227"	"25.417"	"21.034"	"16.088"
"1923"	"16.314"	"17.643"	"24.442"	"31.142"	"33.151"	"34.377"	"29.756"	"29.498"	"28.807"	"25.796"	"21.245"	"16.861"
"1924"	"15.426"	"18.537"	"26.032"	"31.114"	"31.778"	"34.802"	"29.81"	"28.979"	"28.083"	"26.8"	"21.028"	"17.173"
"1925"	"14.453"	"17.3"	"24.205"	"30.275"	"32.261"	"31.239"	"29.373"	"29.151"	"28.782"	"26.183"	"20.633"	"16.438"
"1926"	"15.722"	"19.11"	"22.293"	"27.069"	"31.383"	"35.117"	"30.24"	"29.179"	"28.828"	"26.228"	"19.572"	"16.873"
"1927"	"15.047"	"17.475"	"22.904"	"29.762"	"31.445"	"33.099"	"30.066"	"28.951"	"29.189"	"26.604"	"21.082"	"17.451"
"1928"	"15.231"	"18.537"	"24.833"	"29.263"	"33.339"	"31.834"	"29.756"	"30.056"	"29.984"	"27.484"	"21.239"	"17.183"
"1929"	"15.855"	"17.66"	"25.211"	"29.903"	"34.008"	"32.938"	"29.756"	"28.795"	"28.894"	"25.806"	"21.329"	"16.266"
"1930"	"14.932"	"18.032"	"25.206"	"29.614"	"32.556"	"32.472"	"29.645"	"29.073"	"29.284"	"26.489"	"20.905"	"16.573"
"1931"	"17.126"	"17.475"	"24.004"	"31.214"	"32.796"	"34.017"	"29.96"	"29.972"	"28.912"	"26.638"	"21.228"	"17.481"
"1932"	"17.498"	"17.537"	"24.805"	"29.746"	"32.688"	"33.874"	"30.383"	"29.2"	"29.233"	"26.905"	"22.217"	"16.55"
"1933"	"14.548"	"19.071"	"24.711"	"27.746"	"30.8"	"31.833"	"29.659"	"29.05"	"28.812"	"26.406"	"21.545"	"17.173"
"1934"	"15.466"	"19.2"	"23.717"	"30.447"	"32.939"	"32"	"29.756"	"29.078"	"29.307"	"26.3"	"21.228"	"16.666"
"1935"	"14.591"	"18.766"	"24.432"	"27.323"	"33.734"	"33.595"	"30.156"	"28.579"	"28.8"	"26.299"	"21.15"	"16.192"
"1936"	"15.053"	"18.104"	"24.415"	"28.975"	"32.521"	"30.36"	"29.35"	"28.973"	"28.405"	"25.432"	"21.523"	"17.062"
"1937"	"14.75"	"18.043"	"23.138"	"27.995"	"31.941"	"32.915"	"30.251"	"28.591"	"29.133"	"25.612"	"20.466"	"15.967"
"1938"	"15.685"	"16.665"	"25.584"	"30.841"	"32.318"	"31.055"	"29.588"	"28.979"	"29.327"	"26.806"	"20.134"	"17.139"
"1939"	"16.532"	"18.281"	"22.247"	"29.584"	"33.818"	"31.817"	"29.81"	"29.095"	"28.828"	"26.383"	"21.544"	"17.296"
"1940"	"15.949"	"17.993"	"21.794"	"28.868"	"32.861"	"33.021"	"29.97"	"29.273"	"28.534"	"27.127"	"22.061"	"16.288"
"1941"	"15.565"	"19.161"	"26.379"	"32.092"	"32.817"	"32.18"	"30.862"	"29.35"	"29.079"	"26.788"	"21.523"	"18.2"
"1942"	"15.681"	"19.011"	"25.468"	"29.925"	"33.751"	"33.89"	"30.15"	"29.078"	"28.111"	"26.604"	"22.429"	"16.688"
"1943"	"17.079"	"18.505"	"24.987"	"27.762"	"33.545"	"32.827"	"29.961"	"28.768"	"29.206"	"26.9"	"22.323"	"17.877"
"1944"	"15.237"	"17.87"	"23.205"	"27.824"	"34.606"	"32.643"	"30.05"	"29.372"	"29.833"	"26.394"	"21.533"	"18.222"
"1945"	"14.682"	"17.343"	"24.611"	"28.146"	"32.639"	"33.718"	"30.661"	"29.655"	"28.805"	"25.506"	"21.318"	"15.779"
"1946"	"17.089"	"20.438"	"24.209"	"28.435"	"31.055"	"32.499"	"29.756"	"29.768"	"29.111"	"26.015"	"21.261"	"17.633"
"1947"	"15.454"	"19.038"	"24.922"	"31.124"	"32.921"	"33.991"	"29.955"	"29.673"	"29.012"	"26.137"	"21.733"	"17.355"
"1948"	"16.532"	"18.564"	"23.841"	"31.096"	"33.517"	"34.606"	"29.751"	"29.105"	"28.707"	"25.915"	"21.155"	"16.555"
"1949"	"17.394"	"18.349"	"24.383"	"29.204"	"31.255"	"33.067"	"29.766"	"29.267"	"28.879"	"27.273"	"20.862"	"15.683"
"1950"	"16.655"	"17.964"	"23.138"	"29.581"	"33.011"	"32.022"	"29.812"	"28.879"	"28.484"	"26.474"	"20.867"	"17.083"
"1951"	"15.252"	"18.927"	"24.527"	"28.846"	"32.989"	"33.015"	"30.43"	"29.572"	"29.002"	"28.378"	"22.461"	"16.822"
"1952"	"17.104"	"20.315"	"23.449"	"30.297"	"32.949"	"32.245"	"29.81"	"28.968"	"28.91"	"27.428"	"21.65"	"17.355"
"1953"	"15.142"	"20.211"	"27.414"	"30.842"	"33.64"	"33.111"	"29.373"	"28.991"	"28.901"	"26.296"	"21.118"	"18.36"
"1954"	"15.252"	"20.098"	"25.328"	"31.716"	"34.434"	"32.689"	"30.133"	"28.973"	"29.008"	"25.727"	"21.123"	"16.365"
"1955"	"15.838"	"19.133"	"26.21"	"28.953"	"32.55"	"32.612"	"29.477"	"28.979"	"28.607"	"26.46"	"21.944"	"16.995"
"1956"	"16.23"	"19.222"	"25.238"	"31.345"	"34.074"	"31.428"	"29.756"	"29.268"	"28.395"	"26.631"	"21.372"	"16.771"
"1957"	"16.262"	"18.066"	"23.216"	"29.679"	"33.466"	"32.921"	"30.351"	"29.673"	"29.327"	"26.701"	"22.452"	"17.66"
"1958"	"17.533"	"18.916"	"24.862"	"31.229"	"33.323"	"34"	"30.062"	"28.951"	"29.201"	"27.027"	"22.351"	"18.056"
"1959"	"16.425"	"18.135"	"24.983"	"30.424"	"32.939"	"32.967"	"30.061"	"29.241"	"28.979"	"26.805"	"21.826"	"17.818"
"1960"	"15.664"	"21.072"	"23.589"	"29.423"	"32.938"	"33.4"	"29.751"	"29.467"	"29.178"	"26.406"	"21.118"	"18.845"
"1961"	"16.553"	"17.465"	"24.89"	"30.124"	"33.044"	"32.52"	"30.45"	"29.268"	"29.102"	"26.333"	"20.489"	"14.466"
"1962"	"15.121"	"18.744"	"24.182"	"29.769"	"32.545"	"33.956"	"30.933"	"28.873"	"28.3"	"26.089"	"21.623"	"17.255"
"1963"	"15.711"	"19.906"	"23.787"	"28.935"	"31.472"	"32.106"	"30.05"	"29.178"	"28.477"	"27.105"	"22.321"	"17.481"
"1964"	"15.555"	"18.61"	"25.884"	"30.497"	"31.272"	"33.411"	"29.45"	"29.345"	"28.634"	"28.017"	"21.451"	"17.033"
"1965"	"16.905"	"18.427"	"23.122"	"28.452"	"32.67"	"34.167"	"30.039"	"28.861"	"28.379"	"26.611"	"22.045"	"16.66"
"1966"	"16.95"	"20.715"	"25.082"	"30.597"	"33.512"	"33.139"	"30.839"	"29.372"	"28.957"	"26.561"	"22.632"	"16.945"
"1967"	"15.916"	"20.299"	"23.01"	"29.02"	"32.113"	"33.165"	"29.756"	"28.4"	"28.801"	"25.91"	"20.09"	"17.072"
"1968"	"14.638"	"17.565"	"24.005"	"29.119"	"32.312"	"31.844"	"29.66"	"29.246"	"29.984"	"25.878"	"21.728"	"17.057"
"1969"	"15.96"	"20.038"	"26.756"	"30.335"	"31.672"	"33.501"	"29.583"	"28.768"	"28.539"	"26.788"	"23.233"	"17.446"
"1970"	"16.136"	"18.038"	"23.707"	"30.694"	"32.639"	"31.771"	"30.157"	"29.473"	"28.729"	"27.039"	"21.201"	"17.777"
"1971"	"15.818"	"18.3"	"23.639"	"28.545"	"30.329"	"30.786"	"28.883"	"27.906"	"28.806"	"26.462"	"21.258"	"17.744"
"1972"	"16.601"	"17.218"	"24.935"	"28.993"	"33.212"	"32.785"	"30.608"	"28.684"	"28.106"	"25.663"	"21.344"	"17.581"
"1973"	"16.525"	"19.322"	"23.616"	"30.925"	"32.947"	"32.092"	"30.035"	"29.14"	"28.963"	"26.761"	"21.185"	"16.469"
"1974"	"15.554"	"18.478"	"25.109"	"31.059"	"32.584"	"32.793"	"29.328"	"28.58"	"28.642"	"28.257"	"21.589"	"16.121"
"1975"	"15.432"	"18.437"	"23.814"	"30.788"	"33.195"	"32.117"	"28.951"	"28.679"	"28.505"	"27.862"	"20.78"	"16.712"
"1976"	"15.937"	"19.033"	"24.378"	"28.874"	"31.246"	"31.692"	"29.472"	"27.783"	"28.468"	"26.91"	"23.126"	"17.016"
"1977"	"15.753"	"19.421"	"25.573"	"28.893"	"30.42"	"32.117"	"29.477"	"29.073"	"28.739"	"26.64"	"23.206"	"16.941"
"1978"	"14.908"	"17.432"	"22.142"	"28.661"	"33.676"	"32.18"	"29.382"	"28.904"	"28.206"	"26.867"	"22.6"	"17.476"
"1979"	"16.999"	"17.733"	"23.47"	"29.619"	"32.107"	"32.111"	"29.488"	"29.347"	"29.094"	"27.384"	"24.007"	"17.277"
"1980"	"16.063"	"19.105"	"24.009"	"30.826"	"31.995"	"31.192"	"28.58"	"28.333"	"28.607"	"26.451"	"21.935"	"17.912"
"1981"	"15.581"	"19.564"	"23.422"	"28.823"	"31.407"	"32.378"	"29.045"	"29.074"	"28.476"	"26.5"	"20.828"	"16.688"
"1982"	"17.259"	"17.505"	"22.296"	"28.984"	"31.908"	"31.671"	"31.071"	"29.11"	"28.474"	"26.388"	"22.133"	"17.66"
"1983"	"15.058"	"17.987"	"23.572"	"28.049"	"31.327"	"32.631"	"30.286"	"29.409"	"29.37"	"26.628"	"21.055"	"17.459"
"1984"	"15.929"	"17.617"	"25.494"	"30.162"	"33.674"	"32.062"	"29.55"	"28.873"	"28.239"	"27.334"	"20.638"	"17.823"
"1985"	"16.205"	"18.964"	"26.439"	"30.524"	"32.723"	"33.227"	"29.055"	"29.435"	"28.54"	"26.189"	"21.963"	"18.623"
"1986"	"16.393"	"18.378"	"24.504"	"29.424"	"31.037"	"33.139"	"29.577"	"29.298"	"28.544"	"25.874"	"22.161"	"16.534"
"1987"	"15.632"	"19.647"	"24.367"	"29.694"	"31.546"	"34.207"	"30.698"	"29.906"	"29.578"	"26.979"	"22.448"	"17.723"
"1988"	"17.346"	"19.689"	"24.206"	"30.687"	"33.385"	"32.238"	"29.674"	"29.067"	"30.011"	"27.002"	"21.776"	"18"
"1989"	"15.128"	"18.043"	"23.936"	"29.522"	"33.078"	"31.672"	"29.756"	"27.851"	"29.232"	"27.17"	"21.476"	"16.565"
"1990"	"18.107"	"18.317"	"22.78"	"29.732"	"31.937"	"33.237"	"29.372"	"29.372"	"29.101"	"26.547"	"22.513"	"17.359"
"1991"	"15.632"	"19.944"	"24.548"	"29.422"	"33.212"	"32.501"	"30.993"	"28.763"	"29.21"	"26.432"	"20.749"	"17.197"
"1992"	"16.746"	"17.279"	"25.177"	"30.288"	"31.153"	"32.61"	"29.704"	"29.205"	"28.967"	"26.681"	"21.818"	"16.798"
"1993"	"16.491"	"19.938"	"22.476"	"28.819"	"32.045"	"32.012"	"30.468"	"29.42"	"28.243"	"27.043"	"22.528"	"18.083"
"1994"	"17.326"	"18.238"	"25.554"	"28.927"	"32.939"	"33.009"	"29.822"	"29.074"	"29.232"	"26.337"	"21.408"	"17.329"
"1995"	"14.939"	"18.753"	"24.163"	"30.123"	"34.539"	"33.626"	"30.13"	"28.973"	"29.132"	"27.565"	"22.169"	"17.908"
"1996"	"16.431"	"19.169"	"25.348"	"29.813"	"33.221"	"32.285"	"30.021"	"28.767"	"29.437"	"26.627"	"22.473"	"17.372"
"1997"	"15.893"	"17.932"	"24.41"	"29.794"	"31.276"	"32.396"	"32.061"	"29.3"	"28.406"	"25.047"	"21.661"	"17.166"
"1998"	"14.584"	"19.648"	"23.232"	"29.693"	"33.245"	"33.712"	"29.756"	"29.305"	"29.405"	"28.36"	"23.329"	"19.494"
"1999"	"16.537"	"21.095"	"25.889"	"33.286"	"33.061"	"32.116"	"30.013"	"29.241"	"28.702"	"27.632"	"23.806"	"18.729"
"2000"	"17.31"	"19.137"	"24.137"	"30.992"	"32.444"	"31.86"	"30.15"	"29.377"	"29.169"	"28.105"	"24.138"	"18.307"
"2001"	"16.665"	"19.759"	"24.782"	"29.541"	"33.04"	"31.634"	"30.038"	"29.841"	"30.169"	"28.194"	"24.339"	"19.328"
"2002"	"16.622"	"19.865"	"25.506"	"30.292"	"34.09"	"33.39"	"31.729"	"29.373"	"28.337"	"27.101"	"22.456"	"17.454"
