
"Year"	"Jan"	"Feb"	"Mar"	"Apr"	"May"	"Jun"	"Jul"	"Aug"	"Sep"	"Oct"	"Nov"	"Dec"
"1901"	"20.038"	"22.047"	"26.36"	"30.714"	"32.583"	"32.53"	"27.763"	"26.727"	"27.264"	"26.817"	"22.228"	"19.376"
"1902"	"20.69"	"22.977"	"28.028"	"30.386"	"32.934"	"31.98"	"27.616"	"27.695"	"27.482"	"26.414"	"22.144"	"19.59"
"1903"	"20.823"	"21.546"	"27.078"	"31.249"	"32.75"	"30.929"	"27.848"	"27.333"	"27.094"	"25.47"	"21.461"	"18.594"
"1904"	"20.089"	"22.078"	"26.91"	"31.446"	"31.999"	"29.366"	"27.029"	"26.63"	"26.882"	"26.117"	"21.898"	"20.108"
"1905"	"19.872"	"20.827"	"26.063"	"28.766"	"32.014"	"33.295"	"27.33"	"27.695"	"26.881"	"25.833"	"22.329"	"19.11"
"1906"	"20.312"	"22.775"	"25.594"	"31.648"	"33.7"	"30.565"	"27.548"	"27.329"	"27.173"	"26.065"	"22.432"	"20.279"
"1907"	"20.107"	"22.912"	"25.86"	"28.218"	"31.419"	"30.111"	"27.964"	"26.061"	"27.334"	"26.547"	"23.194"	"18.797"
"1908"	"18.356"	"22.792"	"26.208"	"31.735"	"32.932"	"30.767"	"26.912"	"26.062"	"27.131"	"25.817"	"21.427"	"18.128"
"1909"	"21.21"	"22.677"	"27.158"	"27.767"	"32.148"	"28.977"	"26.53"	"27.229"	"26.816"	"25.001"	"21.715"	"19.91"
"1910"	"19.639"	"22.064"	"26.694"	"30.767"	"32.616"	"29.78"	"27.412"	"26.928"	"27.095"	"25.734"	"20.684"	"17.98"
"1911"	"20.795"	"21.675"	"26.009"	"30.117"	"32.748"	"28.583"	"28.017"	"26.143"	"26.897"	"25.751"	"22.65"	"18.696"
"1912"	"19.844"	"23.046"	"27.359"	"29.782"	"32.934"	"31.895"	"27.036"	"26.728"	"26.982"	"25.897"	"21.543"	"18.096"
"1913"	"18.891"	"22.859"	"25.93"	"30.801"	"31.665"	"28.546"	"27.029"	"26.578"	"27.082"	"25.367"	"21.132"	"19.377"
"1914"	"19.278"	"23.393"	"26.442"	"28.285"	"30.73"	"29.6"	"26.929"	"26.897"	"26.698"	"25.452"	"22.415"	"19.609"
"1915"	"19.875"	"22.495"	"25.961"	"30.163"	"32.768"	"31.427"	"28.064"	"27.548"	"27.148"	"26.683"	"23.815"	"19.092"
"1916"	"18.922"	"22.779"	"26.794"	"30.783"	"32.486"	"28.329"	"27.646"	"26.928"	"27.132"	"26.38"	"22.728"	"18.363"
"1917"	"19.24"	"21.645"	"25.262"	"29.136"	"29.784"	"28.198"	"26.865"	"26.728"	"26.715"	"25.7"	"21.711"	"18.776"
"1918"	"18.609"	"21.829"	"26.264"	"29.351"	"30.937"	"27.485"	"28.18"	"26.36"	"27.191"	"25.537"	"23.179"	"19.827"
"1919"	"21.609"	"22.629"	"26.715"	"29.835"	"31.366"	"28.631"	"27.06"	"26.429"	"27.082"	"25.616"	"22.463"	"18.93"
"1920"	"19.608"	"22.511"	"26.929"	"29.764"	"31.1"	"30.865"	"26.598"	"26.728"	"27.223"	"26.229"	"22.15"	"18.544"
"1921"	"20.077"	"21.861"	"27.643"	"30.584"	"35.25"	"30.096"	"27.546"	"26.397"	"26.499"	"24.878"	"19.95"	"19.343"
"1922"	"19.506"	"22.312"	"27.144"	"30.6"	"33.002"	"29.108"	"26.212"	"26.493"	"26.247"	"24.597"	"21.76"	"17.844"
"1923"	"18.907"	"21.945"	"25.192"	"29.969"	"33.031"	"32.811"	"26.929"	"26.21"	"27.094"	"25.116"	"21.459"	"19.275"
"1924"	"19.72"	"22.859"	"27.245"	"31.152"	"31.881"	"32.328"	"27.234"	"27.111"	"26.694"	"25.468"	"21.661"	"18.595"
"1925"	"18.859"	"21.525"	"26.226"	"30.222"	"31.172"	"29.333"	"25.93"	"26.727"	"27.134"	"25.616"	"22.441"	"18.591"
"1926"	"20.056"	"23.04"	"26.276"	"28.87"	"31.236"	"33.096"	"27.58"	"26.545"	"26.962"	"25.05"	"20.796"	"19.195"
"1927"	"21.134"	"23.425"	"26.525"	"30.984"	"32.57"	"31.05"	"26.977"	"26.446"	"27.232"	"25.485"	"21.549"	"19.562"
"1928"	"20.107"	"22.612"	"26.809"	"29.698"	"32.599"	"29.448"	"26.899"	"27.211"	"27.232"	"26.464"	"21.798"	"19.81"
"1929"	"20.473"	"21.229"	"26.563"	"29.556"	"33.137"	"30.082"	"26.415"	"26.229"	"27.365"	"24.847"	"21.198"	"19.775"
"1930"	"19.476"	"21.281"	"26.661"	"29.719"	"31.983"	"30.567"	"26.748"	"26.51"	"26.997"	"26.151"	"21.215"	"19.012"
"1931"	"20.065"	"23.008"	"26.543"	"30.838"	"32.85"	"32.266"	"27.032"	"26.789"	"27.498"	"25.913"	"21.78"	"19.158"
"1932"	"19.862"	"21.428"	"26.542"	"30.05"	"32.117"	"31.364"	"26.764"	"27.011"	"27.111"	"26.517"	"22.61"	"19.243"
"1933"	"19.54"	"22.989"	"26.647"	"29.402"	"30.601"	"28.484"	"27.017"	"26.728"	"26.897"	"25.719"	"21.899"	"19.576"
"1934"	"19.289"	"21.978"	"26.612"	"30.666"	"33.62"	"30.245"	"27.029"	"26.71"	"26.917"	"25.081"	"21.166"	"19.36"
"1935"	"19.575"	"22.976"	"26.711"	"28.902"	"33.767"	"31.878"	"26.667"	"26.629"	"26.882"	"25.863"	"21.598"	"20.159"
"1936"	"21.357"	"22.078"	"27.113"	"30.204"	"31.918"	"28.265"	"27.029"	"26.478"	"27.116"	"25.346"	"23.295"	"19.947"
"1937"	"18.673"	"22.964"	"26.078"	"29.101"	"32.465"	"30.811"	"26.881"	"26.728"	"26.894"	"25.448"	"21.996"	"18.779"
"1938"	"21.638"	"21.812"	"28.027"	"30.452"	"31.984"	"27.851"	"26.96"	"26.89"	"26.999"	"25.483"	"20.912"	"18.675"
"1939"	"20.277"	"23.039"	"26.009"	"30.253"	"33.6"	"30.693"	"26.461"	"26.695"	"26.764"	"26.263"	"21.247"	"18.829"
"1940"	"18.056"	"22.263"	"25.494"	"29.719"	"31.553"	"29.996"	"26.263"	"26.56"	"27.416"	"26.149"	"23.434"	"20.013"
"1941"	"20.959"	"22.977"	"27.693"	"31.834"	"32.752"	"29.216"	"27.26"	"27.28"	"27.45"	"25.433"	"20.714"	"20.128"
"1942"	"19.825"	"22.577"	"27.127"	"30.001"	"33.503"	"31.797"	"26.547"	"26.681"	"27.144"	"25.083"	"21.697"	"19.91"
"1943"	"21.389"	"20.811"	"26.442"	"28.902"	"32.071"	"29.815"	"26.943"	"26.209"	"27.098"	"26.097"	"22.08"	"18.667"
"1944"	"20.107"	"21.929"	"24.96"	"28.287"	"32.833"	"30.898"	"26.548"	"26.429"	"27.141"	"25.431"	"21.597"	"20.198"
"1945"	"19.107"	"21.777"	"26.884"	"29.02"	"32.884"	"30.968"	"26.976"	"27.282"	"26.649"	"24.702"	"20.931"	"17.715"
"1946"	"18.394"	"22.313"	"27.141"	"28.369"	"31.833"	"29.032"	"26.744"	"26.529"	"27.138"	"26.147"	"23.827"	"21.71"
"1947"	"21.103"	"22.099"	"27.391"	"31.764"	"33.566"	"31.03"	"26.681"	"27.21"	"27.26"	"25.366"	"21.898"	"19.741"
"1948"	"20.809"	"23.26"	"25.931"	"30.716"	"33.216"	"31.53"	"27.477"	"26.728"	"26.963"	"26.049"	"23.812"	"18.61"
"1949"	"19.925"	"22.095"	"27.164"	"30.255"	"32.047"	"30.452"	"27.066"	"26.712"	"27.164"	"26.248"	"21.608"	"18.166"
"1950"	"19.956"	"22.396"	"25.641"	"30.385"	"33.08"	"29.68"	"26.382"	"26.89"	"27.138"	"25.331"	"21.178"	"18.945"
"1951"	"19.103"	"22.729"	"26.594"	"29.365"	"32.064"	"30.331"	"27.411"	"26.728"	"27.964"	"27.097"	"22.763"	"19.906"
"1952"	"20.594"	"23.725"	"26.08"	"30.451"	"32.964"	"31.462"	"27.546"	"26.712"	"26.912"	"25.928"	"21.898"	"20.943"
"1953"	"19.956"	"23.646"	"28.794"	"30.969"	"34.385"	"31.78"	"27.311"	"26.578"	"27.512"	"26.215"	"21.646"	"19.664"
"1954"	"19.207"	"23.978"	"26.594"	"31.466"	"33.083"	"30.195"	"27.679"	"27.229"	"26.698"	"24.832"	"20.5"	"19.91"
"1955"	"19.872"	"23.477"	"27.658"	"29.9"	"32.156"	"31.148"	"26.899"	"27.025"	"26.897"	"25.664"	"21.13"	"19.08"
"1956"	"20.673"	"21.711"	"27.812"	"31.482"	"32.485"	"28.093"	"26.533"	"26.594"	"26.764"	"25.033"	"22.027"	"20.445"
"1957"	"21.21"	"22.49"	"25.597"	"30.08"	"33.154"	"31.367"	"26.667"	"26.962"	"27.355"	"26.614"	"22.464"	"20.731"
"1958"	"21.047"	"23.48"	"27.293"	"31.204"	"33.07"	"33.014"	"26.912"	"27.326"	"27.05"	"26.097"	"23.164"	"20.362"
"1959"	"20.56"	"22.947"	"27.113"	"30.734"	"33.235"	"30.348"	"27.029"	"26.429"	"26.763"	"25.865"	"21.665"	"19.291"
"1960"	"19.82"	"22.984"	"26.047"	"30.802"	"32.819"	"30.867"	"26.86"	"26.727"	"27.649"	"25.684"	"21.761"	"20.879"
"1961"	"20.438"	"21.374"	"27.963"	"30.836"	"32.768"	"29.466"	"26.529"	"26.946"	"26.298"	"25.334"	"20.995"	"17.943"
"1962"	"17.825"	"21.899"	"26.248"	"29.552"	"32.236"	"29.484"	"27.07"	"26.727"	"27.134"	"25.315"	"21.879"	"19.947"
"1963"	"18.525"	"23.017"	"26.612"	"29.202"	"31.768"	"29.929"	"26.929"	"26.944"	"26.977"	"26.049"	"23.033"	"19.91"
"1964"	"21.057"	"23.196"	"27.829"	"30.948"	"32.711"	"30.429"	"26.528"	"26.28"	"27.163"	"26.062"	"22.23"	"19.909"
"1965"	"20.205"	"22.826"	"26.16"	"29.38"	"32.181"	"31.564"	"27.017"	"27.293"	"26.963"	"26.15"	"22.781"	"20.258"
"1966"	"19.705"	"23.745"	"27.076"	"30.647"	"33.964"	"30.444"	"28.329"	"27.482"	"27.715"	"26.252"	"24.367"	"19.727"
"1967"	"20.156"	"23.778"	"25.747"	"29.865"	"33.38"	"31.799"	"27.864"	"26.544"	"27.033"	"25.465"	"22.279"	"21.977"
"1968"	"19.992"	"22.862"	"26.066"	"29.174"	"32.519"	"30.293"	"27.414"	"26.643"	"27.232"	"25.183"	"22.26"	"19.777"
"1969"	"20.075"	"24.764"	"28.593"	"31.499"	"31.716"	"30.831"	"26.946"	"26.728"	"26.866"	"26.652"	"23.815"	"19.782"
"1970"	"20.578"	"23.997"	"26.964"	"30.368"	"32.863"	"28.764"	"26.845"	"26.759"	"26.932"	"25.667"	"21.096"	"18.228"
"1971"	"19.989"	"22.81"	"25.61"	"28.563"	"29.265"	"27.38"	"25.964"	"25.711"	"27.237"	"25.867"	"22.533"	"18.645"
"1972"	"20.475"	"22.108"	"27.944"	"30.663"	"34.032"	"33.078"	"27.862"	"26.885"	"27.26"	"26.147"	"23.131"	"21.495"
"1973"	"22.103"	"24.296"	"27.025"	"32.28"	"33.513"	"31.593"	"26.769"	"26.728"	"27.11"	"25.57"	"21.778"	"19.51"
"1974"	"20.272"	"22.977"	"27.31"	"31.216"	"31.886"	"30.847"	"27.629"	"27.63"	"27.862"	"26.216"	"22.312"	"19.189"
"1975"	"18.79"	"22.977"	"26.879"	"31.449"	"33.715"	"30.132"	"26.66"	"26.928"	"26.565"	"26.449"	"20.731"	"18.513"
"1976"	"18.491"	"22.927"	"27.093"	"29.8"	"31.847"	"30.444"	"26.663"	"26.63"	"26.812"	"26.616"	"25.129"	"20.908"
"1977"	"20.074"	"23.528"	"28.146"	"29.401"	"30.38"	"30.53"	"27.029"	"26.728"	"26.863"	"25.567"	"23.98"	"19.044"
"1978"	"19.159"	"22.311"	"25.778"	"29.616"	"33.216"	"30.245"	"26.73"	"26.113"	"27.145"	"26.218"	"24.213"	"19.879"
"1979"	"21.007"	"21.926"	"26.424"	"30.151"	"32.239"	"30.892"	"28.145"	"27.113"	"26.697"	"26.767"	"25.016"	"20.527"
"1980"	"21.173"	"23.697"	"27.177"	"31.065"	"32.798"	"28.364"	"26.327"	"26.61"	"27.017"	"25.78"	"23.495"	"20.557"
"1981"	"19.391"	"23.96"	"25.948"	"29.648"	"31.15"	"30.648"	"27.249"	"27.031"	"27.033"	"26.433"	"22.65"	"19.744"
"1982"	"21.724"	"23.427"	"25.995"	"30.284"	"32.25"	"30.743"	"29.161"	"26.414"	"27.913"	"26.928"	"23.662"	"21.459"
"1983"	"20.988"	"22.76"	"27.36"	"29.982"	"31.835"	"32.06"	"27.964"	"27.163"	"27.277"	"25.616"	"21.982"	"19.431"
"1984"	"20.297"	"21.829"	"27.195"	"30.635"	"33.549"	"29.413"	"27.126"	"26.695"	"27.101"	"26.514"	"21.932"	"20.811"
"1985"	"21.073"	"22.811"	"27.74"	"30.57"	"31.667"	"29.764"	"25.764"	"25.545"	"27.134"	"24.098"	"21.465"	"20.374"
"1986"	"18.908"	"22.342"	"26.077"	"29.597"	"30.764"	"29.344"	"26.329"	"26.063"	"26.894"	"24.733"	"22.228"	"19.744"
"1987"	"18.823"	"21.68"	"25.275"	"29.666"	"30.997"	"30.992"	"26.428"	"26.609"	"26.98"	"25.379"	"21.692"	"18.559"
"1988"	"19.535"	"22.242"	"25.876"	"28.965"	"31.797"	"28.459"	"26.261"	"27.63"	"27.798"	"26.148"	"22.98"	"21.228"
"1989"	"20.038"	"23.791"	"26.733"	"31.531"	"33.114"	"29.38"	"27.726"	"27.028"	"27.406"	"26.614"	"23.427"	"19.744"
"1990"	"22.006"	"23.328"	"25.511"	"29.797"	"29.852"	"28.705"	"26.512"	"27.375"	"26.999"	"25.181"	"23.129"	"20.242"
"1991"	"20.922"	"24.426"	"27.643"	"30.064"	"32.399"	"29.863"	"27.631"	"26.729"	"27.548"	"26.215"	"22.029"	"19.808"
"1992"	"19.206"	"22.227"	"27.428"	"30.599"	"32.165"	"29.932"	"27.977"	"26.735"	"27.131"	"26.148"	"23.847"	"19.575"
"1993"	"20.823"	"22.679"	"26.311"	"30.197"	"32.601"	"30.946"	"27.762"	"27.131"	"27.065"	"26.533"	"22.212"	"19.458"
"1994"	"21.123"	"22.863"	"27.877"	"29.981"	"32.548"	"29.914"	"26.514"	"26.243"	"26.865"	"26.335"	"22.527"	"19.644"
"1995"	"19.107"	"22.811"	"26.563"	"30.133"	"30.618"	"31.996"	"27.229"	"27.481"	"27.264"	"26.034"	"22.894"	"20.61"
"1996"	"21.289"	"22.161"	"27.778"	"29.665"	"33.403"	"30.596"	"27.795"	"26.728"	"28.03"	"25.864"	"22.964"	"19.724"
"1997"	"19.207"	"21.861"	"26.993"	"28.301"	"31.732"	"31.661"	"27.696"	"26.76"	"27.163"	"26.213"	"24.628"	"21.975"
"1998"	"20.937"	"23.377"	"26.092"	"30.034"	"32.563"	"32.03"	"27.78"	"27.63"	"27.831"	"27.464"	"23.779"	"19.581"
"1999"	"18.674"	"24.063"	"27.412"	"32.184"	"31.632"	"29.762"	"27.163"	"26.629"	"26.764"	"26.665"	"22.515"	"20.045"
"2000"	"21.509"	"22.827"	"26.312"	"31.4"	"32.083"	"29.097"	"27.447"	"27.226"	"27.164"	"27.05"	"23.531"	"19.645"
"2001"	"20.003"	"23.376"	"27.394"	"29.751"	"32.584"	"28.397"	"26.614"	"26.929"	"28.063"	"26.847"	"24.428"	"20.495"
"2002"	"20.323"	"23.694"	"27.81"	"30.615"	"33.481"	"30.08"	"28.21"	"26.478"	"27.131"	"26.449"	"22.812"	"21.127"
