
"Year"	"Jan"	"Feb"	"Mar"	"Apr"	"May"	"Jun"	"Jul"	"Aug"	"Sep"	"Oct"	"Nov"	"Dec"
"1901"	"16.931"	"63.482"	"8.901"	"13.143"	"34.607"	"114.732"	"179.306"	"190.044"	"211.563"	"30.298"	"39.267"	"0"
"1902"	"8.67"	"0.481"	"0.904"	"8.78"	"23.277"	"141.024"	"292.006"	"324.549"	"246.328"	"12.618"	"2.748"	"14.633"
"1903"	"4.226"	"26.355"	"2.287"	"1.988"	"24.805"	"163.952"	"551.448"	"212.316"	"190.901"	"64.544"	"5.547"	"0.675"
"1904"	"0.251"	"4.804"	"24.958"	"0.281"	"110.926"	"243.145"	"266.499"	"538.122"	"154.958"	"62.599"	"0.105"	"2.862"
"1905"	"4.58"	"15.203"	"39.314"	"100.922"	"62.043"	"102.892"	"325.909"	"373.526"	"439.323"	"7.718"	"0.031"	"0.071"
"1906"	"4.682"	"50.076"	"19.405"	"0.266"	"5.5"	"274.341"	"438.806"	"225.121"	"178.173"	"50.554"	"8.879"	"1.095"
"1907"	"0.309"	"27.911"	"33.184"	"139.712"	"22.846"	"247.053"	"164.292"	"325.867"	"83.54"	"8.307"	"4.261"	"9.91"
"1908"	"12.476"	"5.497"	"5.292"	"9.407"	"28.127"	"373.337"	"231.139"	"398.227"	"185.469"	"47.808"	"0.031"	"0.302"
"1909"	"0.365"	"21.748"	"0.201"	"87.235"	"7.331"	"202.088"	"339.001"	"236.759"	"155.654"	"1.739"	"0.031"	"2.382"
"1910"	"6.724"	"2.013"	"13.515"	"14.102"	"9.531"	"204.94"	"410.937"	"538.062"	"163.42"	"66.816"	"14.351"	"0"
"1911"	"1.449"	"0.744"	"25.197"	"0.715"	"17.663"	"349.362"	"126.224"	"307.065"	"329.439"	"49.634"	"24.173"	"0.002"
"1912"	"0.002"	"55.171"	"3.163"	"19.492"	"21.306"	"80.125"	"304.861"	"320.513"	"174.035"	"26.314"	"27.04"	"0"
"1913"	"0"	"49.89"	"26.422"	"2.377"	"25.363"	"190.088"	"376.145"	"247.217"	"130.115"	"74.462"	"5.027"	"2.693"
"1914"	"0.498"	"21.826"	"19.197"	"83.91"	"35.747"	"244.387"	"226.298"	"284.413"	"273.131"	"5.742"	"0.031"	"5.323"
"1915"	"18.46"	"54.303"	"35.305"	"34.514"	"16.091"	"145.705"	"233.193"	"448.565"	"258.491"	"67.812"	"35.581"	"0"
"1916"	"0"	"8.181"	"0.2"	"4.29"	"6.679"	"251.859"	"310.06"	"304.846"	"115.29"	"83.828"	"20.506"	"0"
"1917"	"0.365"	"74.791"	"10.445"	"13.395"	"51.925"	"247.55"	"210.181"	"534.408"	"164.537"	"169.778"	"2.45"	"0.068"
"1918"	"12.181"	"0.233"	"12.866"	"3.017"	"34.346"	"283.317"	"227.225"	"408.727"	"206.798"	"5.868"	"1.148"	"2.551"
"1919"	"44.953"	"41.887"	"17.387"	"14.076"	"33.624"	"263.658"	"453.373"	"493.308"	"130.372"	"94.251"	"23.397"	"1.557"
"1920"	"3.129"	"11.053"	"39.224"	"3.327"	"20.746"	"112.734"	"379.572"	"362.422"	"120.119"	"32.969"	"0.031"	"0"
"1921"	"31.82"	"5.684"	"0.363"	"19.711"	"0.548"	"253.701"	"346.135"	"352.86"	"201.271"	"39.239"	"0.031"	"0"
"1922"	"5.655"	"2.258"	"0.2"	"7.467"	"8.772"	"253.572"	"294.009"	"343.892"	"273.96"	"44.955"	"19.262"	"0.068"
"1923"	"0"	"63.544"	"0.946"	"19.055"	"3.092"	"94.771"	"289.449"	"351.393"	"244.23"	"44.926"	"22.553"	"1.924"
"1924"	"24.786"	"10.01"	"0.634"	"19.731"	"19.803"	"82.418"	"258.773"	"280.146"	"279.006"	"65.91"	"36.913"	"0"
"1925"	"0"	"1.593"	"3.866"	"42.741"	"82.739"	"330.118"	"382.354"	"446.733"	"105.893"	"94.303"	"5.657"	"4.818"
"1926"	"8.438"	"1.954"	"67.821"	"36.114"	"41.076"	"149.074"	"286.87"	"362.594"	"285.691"	"40.887"	"1.998"	"1.95"
"1927"	"2.653"	"14.031"	"116.446"	"1.743"	"13.529"	"194.702"	"446.971"	"517.554"	"167.431"	"30.608"	"10.609"	"0"
"1928"	"1.32"	"4.992"	"2.072"	"60.067"	"46.751"	"169.437"	"397.083"	"281.271"	"237.409"	"148.436"	"0.883"	"0.373"
"1929"	"5.588"	"33.602"	"2.895"	"30.834"	"26.655"	"189.617"	"284.299"	"519.778"	"90.488"	"150.756"	"0.031"	"6.611"
"1930"	"0.365"	"3.471"	"6.838"	"40.382"	"51.094"	"169.404"	"459.099"	"260.881"	"224.984"	"36.014"	"40.078"	"2.081"
"1931"	"1.217"	"22.905"	"14.945"	"7.81"	"9.858"	"65.158"	"274.208"	"422.765"	"219.815"	"110.596"	"30.914"	"1.728"
"1932"	"0"	"28.685"	"0.345"	"63.468"	"30.717"	"76.51"	"400.764"	"363.464"	"181.05"	"24.543"	"39.233"	"0.239"
"1933"	"10.199"	"11.186"	"3.121"	"39.156"	"32.576"	"267.217"	"351.606"	"333.942"	"212.465"	"67.698"	"9.341"	"2.998"
"1934"	"1.449"	"4.058"	"2.684"	"9.078"	"1.6"	"230.408"	"368.69"	"479.542"	"173.488"	"43.69"	"15.646"	"0.068"
"1935"	"1.351"	"3.917"	"1.94"	"35.692"	"4.151"	"121.838"	"324.303"	"343.822"	"175.224"	"24.93"	"0.031"	"0"
"1936"	"2.085"	"79.878"	"13.211"	"9.465"	"79.933"	"414.538"	"521.508"	"391.467"	"180.597"	"100.415"	"12.042"	"2.067"
"1937"	"0"	"76.24"	"8.801"	"73.088"	"17.814"	"122.328"	"392.171"	"276.235"	"143.329"	"83.277"	"0.031"	"0"
"1938"	"6.705"	"25.329"	"3.752"	"5.496"	"84.932"	"197.052"	"197.182"	"286.125"	"368.981"	"70.474"	"9.141"	"0"
"1939"	"6.752"	"8.474"	"25.182"	"8.847"	"7.489"	"144.542"	"343.119"	"298.289"	"263.723"	"64.029"	"7.14"	"0.473"
"1940"	"0.002"	"35.55"	"111.463"	"27.276"	"38.581"	"214.744"	"321.2"	"475.025"	"175.512"	"33.237"	"7.59"	"1.993"
"1941"	"12.517"	"2.383"	"11.065"	"0.896"	"36.665"	"263.038"	"184.479"	"284.236"	"203.462"	"83.987"	"11.999"	"0"
"1942"	"5.038"	"49.561"	"16.918"	"51.613"	"8.766"	"119.305"	"380.218"	"423.632"	"241.856"	"23.244"	"14.808"	"0"
"1943"	"23.808"	"3"	"2.396"	"91.306"	"18.982"	"147.802"	"391.638"	"473.208"	"152.802"	"79.764"	"2.983"	"0"
"1944"	"14.371"	"88.276"	"116.062"	"59.731"	"18.038"	"110.569"	"376.846"	"363.358"	"171.293"	"74.085"	"2.899"	"0"
"1945"	"11.851"	"7.817"	"0.307"	"95.015"	"22.653"	"129.567"	"409.397"	"179.545"	"277.695"	"99.518"	"10.27"	"5.216"
"1946"	"0"	"7.035"	"11.521"	"36.065"	"32.154"	"242.623"	"480.987"	"495.411"	"186.39"	"82.485"	"24.354"	"0.239"
"1947"	"19.342"	"21.906"	"17.319"	"10.827"	"3.882"	"191.463"	"431.039"	"281.576"	"284.584"	"47.312"	"8.17"	"5.947"
"1948"	"8.133"	"39.942"	"8.906"	"74.838"	"17.424"	"175.879"	"285.962"	"314.034"	"270.662"	"29.066"	"48.615"	"0.239"
"1949"	"0"	"7.474"	"8.673"	"18.281"	"36.199"	"141.256"	"221.707"	"408.046"	"252.91"	"119.812"	"0.031"	"0"
"1950"	"1.503"	"29.385"	"56.239"	"27.714"	"8.487"	"145.085"	"299.296"	"268.967"	"53.13"	"29.443"	"16.755"	"1.576"
"1951"	"1.135"	"1.039"	"37.477"	"65.698"	"13.353"	"141.972"	"415.291"	"379.102"	"229.521"	"39.512"	"11.074"	"0"
"1952"	"0.363"	"6.934"	"29.895"	"58.688"	"17.532"	"172.08"	"279.474"	"266.875"	"253.495"	"79.004"	"0.031"	"4.95"
"1953"	"17.837"	"0.203"	"0.2"	"6.863"	"7.24"	"153.564"	"193.085"	"506.422"	"222.081"	"34.892"	"18.026"	"0"
"1954"	"1.185"	"14.106"	"3.105"	"3.263"	"23.753"	"167.776"	"97.436"	"162.037"	"322.148"	"58.813"	"0.031"	"2.537"
"1955"	"3.27"	"4.483"	"26.847"	"32.443"	"25.951"	"125.236"	"197.067"	"335.035"	"231.517"	"124.653"	"13.204"	"0"
"1956"	"2.501"	"23.085"	"4.065"	"25.241"	"62.116"	"287.841"	"701.2"	"598.76"	"234.997"	"67.938"	"5.408"	"1.137"
"1957"	"4.409"	"7.792"	"23.162"	"7.657"	"12.803"	"139.503"	"403.588"	"424.417"	"90.111"	"31.148"	"0.031"	"0"
"1958"	"10.616"	"23.558"	"15.509"	"90.79"	"21.312"	"97.212"	"610"	"293.975"	"235.211"	"125.908"	"21.154"	"0"
"1959"	"11.693"	"4.707"	"0.272"	"1.498"	"33.866"	"226.187"	"388.88"	"183.444"	"206.506"	"113.376"	"0.031"	"2.205"
"1960"	"0.952"	"0.203"	"23.985"	"9.917"	"37.002"	"188.222"	"469.958"	"365.229"	"147.768"	"47.54"	"0.2"	"0.931"
"1961"	"17.341"	"72.802"	"6.5"	"6.658"	"35.409"	"212.61"	"227.212"	"410.07"	"259.949"	"80.666"	"11.415"	"1.443"
"1962"	"3.671"	"29.22"	"2.688"	"7.259"	"9.397"	"163.508"	"500.154"	"218.243"	"210.104"	"113.608"	"2.333"	"8.115"
"1963"	"1.533"	"1.425"	"20.976"	"95.527"	"53.709"	"111.811"	"219.967"	"316.736"	"214.022"	"127.57"	"2.644"	"0"
"1964"	"0.317"	"48.32"	"9.765"	"53.735"	"25.41"	"126.178"	"260.663"	"526.127"	"219.58"	"53.863"	"8.914"	"0"
"1965"	"5.389"	"6.161"	"29.16"	"40.019"	"18.088"	"115.266"	"590.598"	"256.42"	"186.316"	"32.245"	"0.031"	"0.629"
"1966"	"43.205"	"7.201"	"0.454"	"2.827"	"6.953"	"180.609"	"148.102"	"219.226"	"190.133"	"33.036"	"17.935"	"4.8"
"1967"	"17.244"	"0.203"	"100.435"	"9.726"	"5.412"	"223.815"	"313.575"	"356.069"	"246.205"	"21.712"	"0.031"	"13.686"
"1968"	"13.537"	"26.878"	"5.503"	"7.288"	"13.856"	"180.041"	"383.114"	"190.117"	"260.483"	"72.171"	"13.831"	"0.978"
"1969"	"0.061"	"1.191"	"19.883"	"10.281"	"30.711"	"93.727"	"513.034"	"225.272"	"250.414"	"14.603"	"20.067"	"16.016"
"1970"	"4.776"	"27.219"	"54.574"	"8.226"	"25.88"	"289.939"	"256.318"	"363.4"	"155.712"	"31.588"	"2.15"	"0"
"1971"	"10.242"	"43.316"	"1.685"	"69.964"	"66.863"	"375.703"	"270.092"	"411.884"	"140.086"	"57.496"	"0.031"	"0"
"1972"	"1.866"	"41.286"	"0.634"	"36.501"	"8.266"	"100.509"	"250.889"	"311.034"	"250.917"	"100.099"	"27.778"	"0.239"
"1973"	"0.45"	"0.203"	"2.432"	"13.811"	"14.048"	"162.87"	"216.758"	"360.965"	"123.289"	"112.896"	"4.206"	"8.319"
"1974"	"0"	"1.644"	"46.199"	"1.341"	"26.441"	"209.376"	"313.911"	"240.788"	"116.523"	"90.51"	"10.705"	"0"
"1975"	"0.929"	"12.406"	"17.239"	"2.76"	"23.707"	"299.886"	"461.315"	"269.578"	"255.832"	"108.76"	"10.412"	"0"
"1976"	"2.236"	"1.746"	"1.417"	"90.332"	"20.792"	"88.73"	"492.515"	"357.401"	"293.783"	"23.062"	"17.625"	"0.756"
"1977"	"1.637"	"1.291"	"0.2"	"65.501"	"68.314"	"180.853"	"399.684"	"362.996"	"172.538"	"47.09"	"49.086"	"4.936"
"1978"	"8.905"	"37.158"	"31.508"	"49.288"	"25.127"	"244.141"	"403.328"	"413.46"	"222.992"	"43.268"	"14.052"	"13.351"
"1979"	"1.901"	"20.734"	"0.597"	"24.881"	"3.407"	"216.73"	"276.609"	"176.029"	"168.437"	"19.257"	"8.719"	"3.15"
"1980"	"19.587"	"21.507"	"19.319"	"12.148"	"17.44"	"316.214"	"398.807"	"337.41"	"194.226"	"36.638"	"0.031"	"3.924"
"1981"	"18.131"	"5.101"	"60.157"	"13.349"	"21.908"	"104.261"	"293.184"	"326.647"	"295.218"	"14.875"	"2.691"	"1.443"
"1982"	"4.066"	"9.37"	"37.812"	"35.175"	"22.315"	"153.911"	"320.719"	"411.861"	"191.006"	"10.824"	"17.766"	"0.49"
"1983"	"0.584"	"37.308"	"22.151"	"14.645"	"41.601"	"164.132"	"337.365"	"276.112"	"151.927"	"63.027"	"1.45"	"1.713"
"1984"	"11.152"	"18.698"	"2.997"	"20.708"	"34.452"	"329.492"	"302.524"	"308.655"	"108.432"	"35.069"	"0.881"	"0"
"1985"	"26.965"	"1.498"	"3.03"	"5.526"	"16.446"	"234.268"	"360.912"	"326.141"	"181.2"	"117.316"	"0.031"	"0.316"
"1986"	"22.801"	"38.703"	"2.088"	"22.565"	"17.659"	"186.25"	"360.987"	"360.219"	"175.602"	"27.443"	"36.304"	"3.073"
"1987"	"3.814"	"3.792"	"13.057"	"15.042"	"32.428"	"89.348"	"293.745"	"369.165"	"184.562"	"39.843"	"20.858"	"1.371"
"1988"	"0.816"	"18.02"	"14.18"	"25.28"	"42.853"	"148.434"	"399.409"	"253.874"	"176.132"	"30.787"	"2.333"	"0.335"
"1989"	"0"	"0.203"	"33.035"	"4.14"	"61.507"	"230.515"	"291.495"	"317.887"	"163.563"	"39.793"	"3.427"	"5.273"
"1990"	"1.241"	"77.782"	"56.224"	"9.329"	"75.946"	"268.746"	"503.422"	"418.211"	"165.4"	"139.511"	"12.311"	"1.376"
"1991"	"9.336"	"3.764"	"28.655"	"18.706"	"8.326"	"165.41"	"387.72"	"368.983"	"156.59"	"42.838"	"8.151"	"6.628"
"1992"	"7.613"	"3.186"	"0.2"	"6.905"	"51.245"	"147.83"	"376.168"	"259.712"	"128.77"	"34.22"	"9.927"	"0"
"1993"	"0.832"	"0.219"	"23.7"	"16.07"	"36.028"	"199.408"	"330.619"	"220.183"	"211.999"	"109.599"	"2.655"	"0"
"1994"	"5.318"	"11.567"	"23.286"	"17.581"	"33.495"	"214.632"	"422.608"	"344.727"	"158.444"	"98.143"	"6.162"	"0"
"1995"	"6.543"	"6.562"	"51.459"	"9.849"	"44.061"	"148.515"	"424.027"	"226.714"	"193.378"	"86.428"	"13.825"	"0"
"1996"	"7.869"	"5.962"	"9.453"	"26.246"	"8.065"	"172.609"	"293.836"	"302.281"	"93.557"	"58.521"	"10.075"	"0"
"1997"	"16.545"	"2.868"	"55.504"	"34.403"	"13.03"	"94.122"	"286.957"	"267.998"	"177.478"	"13.784"	"35.12"	"12.927"
"1998"	"5.362"	"43.58"	"4.984"	"17.585"	"43.778"	"139.237"	"258.87"	"167.355"	"180.709"	"135.729"	"48.39"	"0"
"1999"	"2.285"	"2.178"	"0.2"	"0.266"	"50.974"	"187.244"	"215.489"	"559.455"	"141.002"	"47.603"	"3.833"	"0"
"2000"	"1.164"	"72.421"	"0.2"	"23.357"	"26.823"	"311.251"	"219.877"	"273.827"	"116.883"	"30.259"	"2.203"	"0"
"2001"	"0.43"	"0.863"	"27.956"	"22.576"	"40.841"	"254.743"	"328.245"	"384.592"	"98.357"	"55.917"	"24.216"	"0"
"2002"	"44.665"	"4.928"	"7.753"	"24.775"	"34.889"	"146.676"	"247.376"	"390.802"	"118.078"	"33.457"	"13.09"	"0"
