
"Year"	"Jan"	"Feb"	"Mar"	"Apr"	"May"	"Jun"	"Jul"	"Aug"	"Sep"	"Oct"	"Nov"	"Dec"
"1901"	"12.802"	"15.097"	"22.297"	"27.344"	"31.718"	"35.241"	"32.37"	"30.505"	"30.417"	"27.959"	"20.985"	"15.871"
"1902"	"15.448"	"17.642"	"24.44"	"28.688"	"32.438"	"32.972"	"31.22"	"31.523"	"29.291"	"26.415"	"20.257"	"14.328"
"1903"	"14.1"	"15.938"	"20.965"	"26.625"	"31.451"	"35.598"	"33.231"	"30.184"	"30.345"	"26.329"	"19.569"	"14.262"
"1904"	"13.428"	"16.64"	"21.426"	"28.766"	"31.911"	"34.364"	"30.623"	"29.619"	"29.146"	"26.327"	"19.559"	"15.507"
"1905"	"12.44"	"11.911"	"18.669"	"25.401"	"33.315"	"35.199"	"32.335"	"31.059"	"31.149"	"27.132"	"21.577"	"15.539"
"1906"	"13.167"	"14.669"	"20.016"	"27.508"	"34.524"	"33.279"	"32.069"	"29.58"	"28.804"	"26.999"	"21.271"	"16.206"
"1907"	"15.581"	"14.371"	"19.106"	"25.076"	"30.452"	"33.432"	"33.483"	"29.58"	"30.879"	"27.154"	"20.705"	"14.232"
"1908"	"13.82"	"16.596"	"21.965"	"28.639"	"32.363"	"35.023"	"30.259"	"28.287"	"29.259"	"25.969"	"19.52"	"14.638"
"1909"	"13.252"	"15.147"	"22.04"	"26.198"	"31.772"	"32.06"	"29.433"	"29.142"	"28.662"	"26.47"	"21.458"	"14.361"
"1910"	"13.376"	"16.317"	"22.012"	"26.854"	"32.862"	"33.181"	"30.658"	"29.428"	"29.463"	"25.312"	"19.385"	"14.737"
"1911"	"15.425"	"16.659"	"19.969"	"27.612"	"33.738"	"33.771"	"33.264"	"31.54"	"29.298"	"26.881"	"17.98"	"14.552"
"1912"	"14.555"	"17.485"	"21.531"	"27.802"	"32.924"	"35.415"	"31.693"	"29.559"	"28.277"	"26.428"	"19.357"	"14.752"
"1913"	"14.805"	"16.057"	"19.682"	"29.184"	"30.557"	"31.474"	"30.565"	"30.745"	"30.654"	"27.38"	"20.044"	"14.912"
"1914"	"15.884"	"15.901"	"21.537"	"28.017"	"32.476"	"33.027"	"30.372"	"29.914"	"29.439"	"24.825"	"20.591"	"14.321"
"1915"	"13.949"	"14.597"	"21.989"	"27.95"	"34.985"	"34.079"	"33.436"	"31.253"	"30.797"	"27.649"	"20.584"	"15.623"
"1916"	"15.006"	"15.809"	"24.761"	"29.733"	"32.249"	"32.895"	"30.567"	"29.025"	"29.091"	"26.041"	"18.48"	"14.22"
"1917"	"14.368"	"16.907"	"21.99"	"24.852"	"28.295"	"32.556"	"29.822"	"28.755"	"27.652"	"24.67"	"17.64"	"14.939"
"1918"	"13.436"	"16.629"	"21.612"	"25.54"	"34.432"	"33.505"	"34.119"	"31.853"	"30.422"	"26.96"	"20.229"	"14.461"
"1919"	"14.24"	"15.396"	"22.636"	"27.323"	"31.863"	"36.122"	"30.364"	"29.253"	"29.459"	"26.143"	"19.54"	"14.306"
"1920"	"13.936"	"15.516"	"22.041"	"27.594"	"29.236"	"32.675"	"30.7"	"30.581"	"31.164"	"27.914"	"21.674"	"15.93"
"1921"	"15.193"	"17.449"	"25.164"	"31.373"	"35.57"	"35.058"	"33.337"	"29.652"	"29.202"	"25.559"	"20.174"	"16.726"
"1922"	"13.825"	"17.514"	"23.746"	"28.867"	"33.047"	"33.279"	"31.297"	"29.623"	"28.476"	"25.473"	"19.739"	"14.865"
"1923"	"13.796"	"15.4"	"22.681"	"29.033"	"31.851"	"35.924"	"31.372"	"28.673"	"29.565"	"25.474"	"19.785"	"15.039"
"1924"	"13.221"	"15.898"	"23.183"	"28.681"	"29.657"	"35.805"	"31.65"	"29.666"	"28.173"	"25.437"	"19.654"	"15.37"
"1925"	"12.288"	"14.138"	"22.605"	"30.137"	"32.326"	"30.861"	"29.037"	"29.977"	"30.297"	"26.363"	"18.751"	"14.582"
"1926"	"14.506"	"17.518"	"20.856"	"24.885"	"29.817"	"35.17"	"31.763"	"28.99"	"28.587"	"25.326"	"18.04"	"14.473"
"1927"	"12.702"	"14.296"	"20.85"	"26.859"	"31.056"	"33.841"	"30.424"	"28.813"	"29.074"	"26.161"	"19.725"	"15.968"
"1928"	"13.302"	"16.769"	"22.115"	"27.822"	"34.077"	"33.847"	"31.663"	"31.479"	"30.149"	"27.127"	"20.774"	"14.649"
"1929"	"14.021"	"15.167"	"24.322"	"29.119"	"33.486"	"33.981"	"30.875"	"29.212"	"30.815"	"26.375"	"20.472"	"13.907"
"1930"	"13.168"	"16"	"22.925"	"27.442"	"32.356"	"32.854"	"29.318"	"29.75"	"28.934"	"26.277"	"19.486"	"14.751"
"1931"	"14.978"	"14.34"	"20.978"	"29.093"	"32.489"	"34.596"	"31.248"	"29.826"	"28.727"	"25.778"	"19.224"	"15.404"
"1932"	"15.471"	"15.557"	"23.247"	"28.163"	"31.155"	"35.423"	"31.266"	"28.712"	"29.051"	"26.206"	"19.496"	"14.57"
"1933"	"11.875"	"16.783"	"21.927"	"26.209"	"29.602"	"32.839"	"29.617"	"27.706"	"27.652"	"25.159"	"19.325"	"15.687"
"1934"	"12.318"	"17.673"	"21.064"	"27.645"	"31.538"	"32.795"	"30.735"	"28.454"	"30.013"	"25.649"	"19.732"	"15.918"
"1935"	"12.375"	"16.769"	"21.883"	"24.776"	"32.767"	"35.037"	"30.374"	"28.958"	"28.881"	"25.856"	"20.472"	"14.854"
"1936"	"12.764"	"16.801"	"21.34"	"27.591"	"34.531"	"31.193"	"29.973"	"28.962"	"28.677"	"26.01"	"19.785"	"14.979"
"1937"	"13.068"	"16.369"	"20.445"	"26.083"	"32.139"	"33.828"	"30.205"	"31.249"	"29.577"	"25.316"	"19.575"	"13.841"
"1938"	"13.285"	"14.897"	"23.296"	"29.064"	"34.574"	"32.455"	"31.718"	"30.699"	"31.099"	"27.388"	"18.748"	"14.681"
"1939"	"14.688"	"16.546"	"19.58"	"26.573"	"34.135"	"32.062"	"30.992"	"31.131"	"30.089"	"27.434"	"19.725"	"15.473"
"1940"	"14.038"	"15.933"	"20.696"	"26.813"	"33.485"	"34.431"	"31.4"	"28.598"	"29.16"	"26.189"	"20.745"	"14.993"
"1941"	"13.161"	"17.3"	"24.498"	"31.166"	"34.275"	"32.102"	"33.012"	"30.277"	"29.778"	"28.717"	"20.365"	"16.203"
"1942"	"12.706"	"17.276"	"23.793"	"29.762"	"33.42"	"34.763"	"29.574"	"28.105"	"27.686"	"25.915"	"21.011"	"13.998"
"1943"	"13.935"	"16.47"	"22.815"	"26.718"	"32.259"	"33.526"	"30.127"	"28.619"	"29.797"	"26.093"	"20.754"	"16.259"
"1944"	"13.208"	"15.846"	"20.851"	"27.031"	"34.048"	"33.393"	"30.062"	"29.695"	"29.006"	"25.657"	"20.543"	"15.848"
"1945"	"11.989"	"15.535"	"22.933"	"26.692"	"31.484"	"34.145"	"30.647"	"29.806"	"28.223"	"25.645"	"20.086"	"13.823"
"1946"	"14.73"	"18.459"	"21.65"	"29.734"	"32.749"	"33.449"	"30.238"	"29.425"	"29.764"	"26.717"	"19.875"	"14.131"
"1947"	"13.306"	"16.702"	"23.139"	"30.025"	"33.531"	"36.312"	"32.463"	"30.677"	"28.443"	"25.355"	"21.229"	"15.121"
"1948"	"13.547"	"16.007"	"20.976"	"30.854"	"33.539"	"35.009"	"31.074"	"28.57"	"29.334"	"27.2"	"19.101"	"14.907"
"1949"	"16.023"	"16.791"	"22.825"	"29.843"	"34.196"	"34.52"	"30.221"	"30.024"	"30.657"	"26.24"	"18.821"	"14.421"
"1950"	"15.388"	"14.34"	"21.186"	"27.195"	"33.365"	"34.786"	"30.477"	"29.342"	"28.172"	"25.335"	"19.163"	"13.278"
"1951"	"13.456"	"16.259"	"22.455"	"26.12"	"32.274"	"33.858"	"32.96"	"30.226"	"30.152"	"28.964"	"21.673"	"15.786"
"1952"	"15.37"	"18.831"	"22.69"	"31.019"	"33.298"	"33.155"	"31.338"	"28.81"	"30.695"	"27.133"	"20.553"	"15.646"
"1953"	"13.861"	"18.964"	"26.268"	"29.459"	"33.888"	"34.541"	"30.628"	"29.381"	"29.765"	"26.795"	"20.39"	"17.893"
"1954"	"13.475"	"17.522"	"22.433"	"29.3"	"34.471"	"34.82"	"31.478"	"31.159"	"30.206"	"24.16"	"20.258"	"15.721"
"1955"	"14.088"	"17.349"	"24.833"	"26.774"	"30.932"	"35.059"	"32"	"29.105"	"28.79"	"24.858"	"19.689"	"15.592"
"1956"	"14.41"	"17.465"	"22.926"	"29.554"	"34.844"	"34.009"	"30.228"	"29.146"	"30.653"	"25.056"	"19.221"	"15.692"
"1957"	"13.575"	"15.363"	"21.598"	"26.987"	"31.395"	"33.576"	"31.366"	"29.913"	"27.924"	"26.259"	"20.719"	"15.463"
"1958"	"15.788"	"16.028"	"23.912"	"30.899"	"32.752"	"34.977"	"30.332"	"29.474"	"28.863"	"26.242"	"20.797"	"16.077"
"1959"	"13.916"	"15.881"	"23.349"	"28.812"	"32.183"	"34.776"	"31.067"	"29.807"	"29.447"	"26.739"	"20.472"	"15.93"
"1960"	"13.681"	"19.526"	"21.804"	"27.515"	"33.544"	"35.112"	"31.173"	"29.437"	"30.025"	"25.894"	"19.501"	"15.445"
"1961"	"14.956"	"14.936"	"23.086"	"27.875"	"32.627"	"33.98"	"31.136"	"29.08"	"29.709"	"25.442"	"18.488"	"12.887"
"1962"	"12.782"	"17.455"	"22.297"	"29.587"	"32.941"	"34.324"	"31.687"	"30.398"	"28.07"	"25.869"	"19.679"	"14.495"
"1963"	"12.975"	"18.328"	"22.357"	"27.923"	"31.222"	"33.633"	"32.393"	"28.926"	"28.226"	"26.709"	"21.227"	"14.899"
"1964"	"12.244"	"16.19"	"23.405"	"28.828"	"30.59"	"34.408"	"29.192"	"29.68"	"28.044"	"25.483"	"18.914"	"14.882"
"1965"	"15.654"	"16.693"	"21.942"	"26.132"	"31.286"	"35.187"	"31.092"	"29.545"	"28.788"	"26.314"	"20.941"	"14.141"
"1966"	"14.447"	"18.593"	"22.325"	"28.729"	"32.586"	"32.972"	"32.293"	"29.58"	"28.707"	"26.224"	"19.8"	"14.297"
"1967"	"12.808"	"18.763"	"21.593"	"27.468"	"32.001"	"34.943"	"30.963"	"28.998"	"28.508"	"25.474"	"19.781"	"15.223"
"1968"	"13.607"	"15.149"	"22.339"	"27.853"	"32.218"	"34.42"	"30.843"	"29.816"	"30.613"	"25.571"	"20.503"	"15.488"
"1969"	"14.375"	"17.445"	"24.984"	"29.124"	"31.358"	"35.148"	"31.248"	"30.538"	"29.134"	"27.318"	"21.559"	"15.72"
"1970"	"14.806"	"16.219"	"22.293"	"29.517"	"33.584"	"31.898"	"32.196"	"29.744"	"29.659"	"27.114"	"20.036"	"15.665"
"1971"	"13.27"	"17.437"	"22.567"	"29.612"	"31.023"	"32.296"	"30.104"	"28.218"	"28.601"	"26.125"	"20.287"	"15.934"
"1972"	"14.653"	"14.83"	"23.37"	"27.497"	"33.864"	"35.022"	"32.122"	"29.403"	"28.695"	"25.975"	"21.054"	"15.743"
"1973"	"14.455"	"18.885"	"22.337"	"29.98"	"33.131"	"34.608"	"30.914"	"28.952"	"29.398"	"25.594"	"19.843"	"13.681"
"1974"	"13.964"	"15.071"	"23.7"	"30.265"	"32.274"	"32.932"	"30.17"	"30.19"	"30.083"	"25.921"	"19.929"	"14.296"
"1975"	"13.618"	"15.948"	"22.094"	"29.255"	"33.725"	"32.579"	"29.953"	"29.212"	"27.773"	"26.825"	"19.289"	"15.888"
"1976"	"15.029"	"17.031"	"21.775"	"27.705"	"32.085"	"31.767"	"31.168"	"28.141"	"28.712"	"26.793"	"20.947"	"15.007"
"1977"	"13.925"	"16.666"	"23.668"	"27.727"	"30.174"	"31.572"	"29.176"	"29.5"	"27.812"	"26.306"	"22.161"	"17.146"
"1978"	"13.363"	"15.175"	"20.499"	"27.876"	"35.043"	"33.282"	"29.363"	"28.954"	"28.305"	"26.285"	"20.918"	"15.603"
"1979"	"14.544"	"15.884"	"20.601"	"29.349"	"30.695"	"33.734"	"30.842"	"30.391"	"28.845"	"27.054"	"22.13"	"16.711"
"1980"	"14.413"	"17.888"	"21.629"	"30.673"	"35.31"	"33.104"	"29.47"	"29.793"	"29.038"	"26.993"	"20.643"	"15.799"
"1981"	"14.649"	"17.6"	"21.53"	"29.055"	"32.52"	"34.099"	"29.496"	"29.919"	"29.952"	"26.188"	"19.794"	"15.608"
"1982"	"14.848"	"15.708"	"19.821"	"26.69"	"29.324"	"33.481"	"32.211"	"29.38"	"29.881"	"26.728"	"21.178"	"16.333"
"1983"	"13.567"	"15.99"	"21.623"	"25.385"	"30.174"	"32.68"	"30.721"	"29.026"	"29.563"	"25.711"	"19.903"	"15.837"
"1984"	"13.272"	"14.911"	"24.136"	"28.914"	"35.032"	"34.396"	"30.107"	"29.166"	"27.933"	"25.51"	"20.218"	"16.163"
"1985"	"14.228"	"17.64"	"24.451"	"29.237"	"33.735"	"33.824"	"29.721"	"29.631"	"28.971"	"24.849"	"20.757"	"16.887"
"1986"	"14.083"	"16.096"	"22.283"	"28.341"	"30.409"	"33.319"	"30.124"	"29.927"	"29.128"	"25.725"	"21.554"	"14.785"
"1987"	"14.968"	"18.238"	"23.079"	"29.198"	"29.353"	"34.63"	"34.269"	"31.188"	"31.166"	"27.76"	"21.202"	"16.131"
"1988"	"15.851"	"18.261"	"22.537"	"29.915"	"34.873"	"33.012"	"29.821"	"28.659"	"29.351"	"26.046"	"20.986"	"16.369"
"1989"	"13.468"	"16.182"	"21.98"	"27.157"	"32.924"	"32.835"	"31.416"	"29.119"	"29.023"	"26.485"	"20.877"	"15.036"
"1990"	"16.282"	"16.792"	"20.833"	"28.04"	"32.123"	"34.349"	"29.885"	"29.506"	"28.544"	"25.268"	"21.004"	"16.015"
"1991"	"13.926"	"17.337"	"22.197"	"27.232"	"32.677"	"32.867"	"32.95"	"29.326"	"29.533"	"25.477"	"20.069"	"16.008"
"1992"	"15.023"	"15.87"	"22.266"	"27.865"	"31.795"	"34.578"	"30.184"	"29.183"	"28.491"	"25.735"	"19.986"	"16.853"
"1993"	"14.438"	"18.753"	"20.822"	"28.314"	"33.79"	"33.939"	"30.403"	"30.746"	"27.709"	"25.625"	"21.206"	"15.636"
"1994"	"15.137"	"16.746"	"23.836"	"26.995"	"33.235"	"34.179"	"29.721"	"29.04"	"28.639"	"25.406"	"20.525"	"16.416"
"1995"	"13.784"	"17.096"	"21.323"	"27.718"	"33.915"	"35.313"	"31.583"	"27.943"	"29.024"	"26.702"	"20.739"	"16.055"
"1996"	"14.516"	"17.335"	"23.384"	"28.904"	"32.35"	"31.889"	"31.107"	"28.674"	"28.629"	"25.692"	"19.743"	"14.82"
"1997"	"13.37"	"16.428"	"21.918"	"26.786"	"30.388"	"31.408"	"31.155"	"29.058"	"29.259"	"24.094"	"19.621"	"13.249"
"1998"	"13.582"	"17.081"	"20.604"	"28.938"	"33.659"	"33.305"	"30.825"	"29.519"	"29.338"	"26.188"	"20.981"	"15.352"
"1999"	"13.548"	"17.533"	"23.602"	"30.466"	"33.273"	"32.842"	"31.62"	"30.456"	"29.531"	"26.475"	"21.42"	"15.829"
"2000"	"14.276"	"15.502"	"22.122"	"30.451"	"34.189"	"32.08"	"29.871"	"29.927"	"29.433"	"26.836"	"21.614"	"16.143"
"2001"	"13.463"	"17.634"	"22.886"	"28.55"	"32.512"	"31.153"	"30.82"	"30.572"	"30.004"	"27.355"	"21.398"	"16.444"
"2002"	"14.872"	"16.675"	"22.789"	"30.426"	"33.84"	"33.32"	"32.334"	"30.445"	"27.74"	"26.521"	"21.211"	"16.47"
