
"Year"	"Jan"	"Feb"	"Mar"	"Apr"	"May"	"Jun"	"Jul"	"Aug"	"Sep"	"Oct"	"Nov"	"Dec"
"1901"	"18.519"	"21.449"	"25.029"	"28.7"	"28.53"	"28.585"	"28.046"	"27.961"	"28.343"	"27.898"	"23.642"	"20.02"
"1902"	"19.437"	"21.267"	"26.028"	"26.919"	"28.211"	"28.079"	"27.927"	"28.01"	"28.412"	"26.91"	"23.146"	"19.72"
"1903"	"18.621"	"20.5"	"24.861"	"28.883"	"29.015"	"27.949"	"28.346"	"27.165"	"28.041"	"27.811"	"23.765"	"20.133"
"1904"	"18.767"	"21.484"	"26.311"	"27.67"	"27.897"	"28.245"	"27.633"	"27.711"	"28.343"	"27.195"	"23.543"	"19.637"
"1905"	"18.467"	"18.869"	"23.844"	"26.147"	"28.213"	"28.417"	"28.046"	"27.711"	"28.473"	"27.496"	"23.825"	"20.3"
"1906"	"18.885"	"21.052"	"23.829"	"28.815"	"29.344"	"28.229"	"28.377"	"27.281"	"28.924"	"27.094"	"23.875"	"20.353"
"1907"	"20.17"	"20.584"	"24.281"	"26.949"	"28.344"	"28"	"27.681"	"27.926"	"28.242"	"27.496"	"23.745"	"19.916"
"1908"	"18.803"	"20.971"	"25.683"	"29.551"	"28.429"	"28.083"	"27.646"	"27.881"	"28.428"	"27.195"	"23.309"	"19.969"
"1909"	"19.44"	"21.2"	"26.365"	"27.134"	"28.846"	"27.595"	"28.396"	"27.197"	"28.727"	"27.877"	"24.462"	"20.088"
"1910"	"18.819"	"20.648"	"24.497"	"26.116"	"28.375"	"27.764"	"27.411"	"27.596"	"28.328"	"26.896"	"23.659"	"18.887"
"1911"	"19.19"	"20.601"	"24.296"	"26.585"	"27.977"	"27.699"	"27.646"	"27.597"	"28.124"	"27.296"	"23.711"	"19.051"
"1912"	"19.037"	"21.769"	"25.253"	"26.431"	"28.459"	"28.065"	"27.845"	"27.596"	"27.958"	"26.964"	"23.692"	"19.688"
"1913"	"19.681"	"22.565"	"25.181"	"28.834"	"28.109"	"27.632"	"28.078"	"27.396"	"28.094"	"26.795"	"23.059"	"19.023"
"1914"	"18.771"	"21.485"	"24.947"	"26.518"	"27.915"	"27.599"	"27.873"	"27.211"	"28.124"	"26.28"	"23.63"	"20.054"
"1915"	"20.052"	"21.102"	"24.699"	"27.999"	"28.032"	"27.865"	"27.2"	"27.896"	"28.043"	"28.429"	"25.078"	"20.636"
"1916"	"18.621"	"21.299"	"25.733"	"27.218"	"29.1"	"28.015"	"27.646"	"27.396"	"28.073"	"27.2"	"23.932"	"19.518"
"1917"	"18.523"	"20.801"	"23.997"	"27.118"	"27.365"	"27.497"	"27.58"	"27.396"	"27.678"	"27.244"	"24.038"	"19.193"
"1918"	"18.551"	"20.9"	"25.132"	"26.897"	"27.879"	"26.561"	"28.111"	"27.365"	"28.343"	"27.327"	"23.544"	"19.587"
"1919"	"20.017"	"20.801"	"26.212"	"27.601"	"28.682"	"28.197"	"27.55"	"27.716"	"27.428"	"27.16"	"23.83"	"19.688"
"1920"	"19.751"	"20.967"	"24.976"	"27.166"	"28.527"	"28.048"	"27.98"	"27.498"	"28.124"	"27.296"	"23.519"	"19.823"
"1921"	"20.483"	"21.007"	"25.215"	"27.597"	"28.847"	"27.613"	"27.715"	"27.43"	"27.973"	"26.095"	"23.112"	"20.053"
"1922"	"19.952"	"21.534"	"26.066"	"28.767"	"29.026"	"28.01"	"27.72"	"27.594"	"27.779"	"26.529"	"23.451"	"20.051"
"1923"	"20.033"	"21.048"	"24.665"	"28.086"	"28.379"	"28.3"	"27.483"	"27.369"	"28.247"	"26.548"	"23.78"	"20.188"
"1924"	"19.518"	"21.1"	"27.075"	"28.614"	"28.398"	"28.302"	"27.72"	"27.531"	"27.527"	"27.563"	"23.796"	"19.486"
"1925"	"17.503"	"20.142"	"25.08"	"27.268"	"28.293"	"27.715"	"27.232"	"27.596"	"27.745"	"26.1"	"23.049"	"19.388"
"1926"	"19.002"	"21.118"	"24.645"	"27.215"	"28.362"	"27.666"	"27.58"	"27.365"	"27.938"	"26.93"	"22.597"	"20.423"
"1927"	"18.603"	"20.545"	"23.578"	"28.038"	"28.027"	"28.083"	"27.681"	"27.48"	"27.842"	"27.044"	"23.179"	"20.088"
"1928"	"19.819"	"21.833"	"25.418"	"27.767"	"27.795"	"27.496"	"27.584"	"27.696"	"28.443"	"27.209"	"23.411"	"20.437"
"1929"	"19.585"	"20.446"	"24.928"	"27.502"	"28.668"	"27.945"	"27.531"	"27.596"	"28.043"	"27.014"	"23.225"	"19.649"
"1930"	"17.756"	"21.316"	"24.998"	"27.601"	"28.363"	"27.43"	"27.675"	"27.531"	"28.675"	"26.98"	"23.758"	"19.835"
"1931"	"18.243"	"20.105"	"24.644"	"28.941"	"27.196"	"27.54"	"27.372"	"27.941"	"28.038"	"28.142"	"23.84"	"20.783"
"1932"	"18.921"	"21.34"	"25.015"	"28.084"	"27.803"	"27.508"	"27.519"	"27.594"	"28.192"	"27.929"	"24.511"	"20.35"
"1933"	"18.088"	"21.229"	"25.784"	"27.979"	"28.104"	"28.45"	"27.983"	"27.51"	"28.499"	"27.621"	"22.769"	"19.65"
"1934"	"18.992"	"20.609"	"25.811"	"28.44"	"28.484"	"27.257"	"27.341"	"27.156"	"28.225"	"27.693"	"22.478"	"20.008"
"1935"	"18.731"	"21.455"	"25.575"	"27.537"	"30.209"	"28.18"	"27.62"	"27.165"	"28.372"	"27.67"	"23.707"	"19.064"
"1936"	"17.891"	"20.629"	"25.521"	"27.965"	"27.864"	"27.914"	"27.679"	"27.958"	"28.016"	"27.209"	"24.239"	"20.329"
"1937"	"17.355"	"20.815"	"24.507"	"28.297"	"28.511"	"28.281"	"27.939"	"27.157"	"28.078"	"27.079"	"22.711"	"19.881"
"1938"	"20.004"	"20.268"	"27.26"	"29.085"	"27.179"	"28.115"	"27.683"	"27.581"	"27.973"	"27.484"	"22.629"	"20.301"
"1939"	"19.324"	"21.874"	"25.327"	"29.213"	"28.461"	"28.003"	"27.577"	"27.911"	"28.136"	"27.266"	"24.282"	"20.729"
"1940"	"18.524"	"20.561"	"23.551"	"29.69"	"28.371"	"28.148"	"27.715"	"27.912"	"27.596"	"27.545"	"24.536"	"20.414"
"1941"	"18.842"	"21.372"	"26.982"	"28.107"	"27.699"	"27.553"	"27.749"	"28.085"	"28.027"	"26.73"	"22.662"	"21.331"
"1942"	"19.349"	"21.628"	"25.763"	"27.14"	"28.091"	"27.877"	"28.147"	"28.012"	"27.568"	"27.832"	"24.112"	"19.507"
"1943"	"19.923"	"19.763"	"24.288"	"26.154"	"28.98"	"27.937"	"27.581"	"27.175"	"28.171"	"27.509"	"24.092"	"19.548"
"1944"	"18.477"	"19.974"	"24.715"	"26.386"	"29.793"	"27.8"	"28.131"	"27.613"	"27.692"	"27.311"	"23.041"	"20.315"
"1945"	"18.559"	"20.225"	"25.667"	"27.015"	"27.915"	"27.685"	"27.788"	"27.494"	"28.595"	"26.715"	"23.656"	"20.178"
"1946"	"19.398"	"22.885"	"25.384"	"25.572"	"27.782"	"28.016"	"27.876"	"28.023"	"28.185"	"26.599"	"24.277"	"20.865"
"1947"	"19.285"	"21.452"	"25.842"	"28.825"	"28.579"	"28.465"	"27.665"	"28.058"	"28.272"	"26.493"	"23.642"	"20.854"
"1948"	"19.737"	"21.361"	"25.08"	"27.014"	"28.013"	"28.733"	"27.546"	"27.946"	"28.165"	"26.94"	"24.345"	"20.114"
"1949"	"19.529"	"21.198"	"25.692"	"25.195"	"27.194"	"27.781"	"27.627"	"27.556"	"27.894"	"28.085"	"23.523"	"18.765"
"1950"	"19.456"	"20.865"	"24.944"	"27.951"	"29.11"	"28.083"	"27.742"	"27.187"	"28.866"	"27.718"	"23.499"	"20.478"
"1951"	"18.922"	"21.665"	"24.468"	"29.509"	"28.425"	"27.536"	"27.645"	"28.243"	"28.349"	"27.695"	"24.232"	"21.965"
"1952"	"20.087"	"22.932"	"24.399"	"27.298"	"28.409"	"28.874"	"27.902"	"28.171"	"27.901"	"28.091"	"24.274"	"20.437"
"1953"	"18.541"	"22.304"	"26.463"	"28.615"	"28.386"	"28.047"	"27.485"	"28.122"	"28.217"	"27.528"	"23.821"	"21.867"
"1954"	"18.314"	"23.451"	"25.778"	"28.619"	"29.207"	"27.265"	"27.777"	"27.728"	"28.685"	"26.801"	"22.734"	"20.615"
"1955"	"18.986"	"20.967"	"25.732"	"27.184"	"28.631"	"28.374"	"27.201"	"27.164"	"28.411"	"28.224"	"24.618"	"19.902"
"1956"	"19.377"	"21.047"	"26.178"	"28.175"	"28.569"	"27.461"	"27.879"	"27.698"	"27.72"	"28.053"	"24.109"	"20.362"
"1957"	"19.535"	"20.597"	"24.138"	"28.839"	"29.585"	"28.332"	"27.941"	"28.101"	"28.31"	"27.144"	"23.201"	"20.375"
"1958"	"20.069"	"21.344"	"25.638"	"28.852"	"29.141"	"29.336"	"28.33"	"27.516"	"28.644"	"28.045"	"24.37"	"20.975"
"1959"	"19.337"	"20.587"	"24.941"	"27.689"	"28.187"	"27.884"	"27.711"	"27.262"	"27.278"	"26.931"	"22.872"	"20.315"
"1960"	"18.771"	"22.13"	"24.58"	"29.215"	"29.747"	"28.06"	"26.962"	"27.945"	"27.654"	"27.222"	"23.281"	"20.424"
"1961"	"19.818"	"19.866"	"26.142"	"28.615"	"28.858"	"27.847"	"28.029"	"27.987"	"28.305"	"27.635"	"22.939"	"18.469"
"1962"	"17.785"	"21.603"	"25.661"	"28.449"	"28.459"	"27.718"	"28.346"	"27.227"	"28.789"	"27.143"	"23.088"	"19.804"
"1963"	"18.681"	"23.147"	"25.359"	"27.149"	"27.699"	"27.784"	"27.513"	"27.763"	"28.609"	"27.092"	"23.425"	"20.511"
"1964"	"18.712"	"21.818"	"26.666"	"27.125"	"28.325"	"28.019"	"27.181"	"28.01"	"28.278"	"27.733"	"24.867"	"20.639"
"1965"	"19.339"	"21.003"	"24.348"	"28.033"	"28.759"	"27.847"	"27.198"	"26.879"	"27.992"	"27.365"	"24.112"	"21.049"
"1966"	"19.57"	"23.067"	"25.898"	"29.111"	"29.506"	"27.391"	"28.244"	"27.382"	"27.942"	"26.26"	"24.631"	"19.854"
"1967"	"19.57"	"22.553"	"24.814"	"27.151"	"29.014"	"28.632"	"28.164"	"28.164"	"27.577"	"26.776"	"22.447"	"20.319"
"1968"	"19.087"	"20.777"	"25.849"	"27.367"	"28.368"	"27.248"	"27.742"	"27.932"	"28.362"	"27.313"	"23.912"	"20.345"
"1969"	"18.619"	"20.995"	"25.743"	"27.585"	"28.767"	"26.993"	"27.589"	"26.566"	"27.889"	"27.156"	"23.579"	"20.422"
"1970"	"19.026"	"21.88"	"25.463"	"28.314"	"29.154"	"28.601"	"27.534"	"27.796"	"28.126"	"26.758"	"23.778"	"20.117"
"1971"	"19.433"	"20.832"	"25.078"	"25.564"	"28.669"	"27.648"	"27.026"	"26.947"	"27.892"	"27.042"	"22.708"	"19.555"
"1972"	"19.318"	"19.651"	"25.514"	"27.703"	"29.133"	"28.049"	"27.996"	"27.378"	"28.609"	"27.593"	"24.046"	"20.649"
"1973"	"20.179"	"22.065"	"24.478"	"27.909"	"26.96"	"27.783"	"27.852"	"27.546"	"27.669"	"27.489"	"23.219"	"19.488"
"1974"	"18.587"	"20.879"	"25.536"	"27.441"	"27.97"	"27.467"	"26.34"	"27.318"	"27.375"	"28.025"	"25.42"	"19.062"
"1975"	"18.842"	"22.18"	"26.151"	"28.415"	"28.583"	"28.566"	"27.099"	"27.781"	"27.543"	"27.911"	"23.059"	"19.417"
"1976"	"18.482"	"22.364"	"25.981"	"28.205"	"27.943"	"26.537"	"27.212"	"27.093"	"27.909"	"26.825"	"24.781"	"19.582"
"1977"	"18.234"	"20.908"	"26.533"	"24.778"	"26.626"	"27.165"	"27.783"	"27.737"	"28.262"	"26.161"	"24.67"	"20.318"
"1978"	"17.569"	"21.071"	"24.711"	"27.68"	"27.195"	"27.045"	"27.742"	"28.562"	"27.84"	"28.003"	"24.674"	"20.508"
"1979"	"19.822"	"21.293"	"25.743"	"28.809"	"30.378"	"27.711"	"28.076"	"27.795"	"27.627"	"27.126"	"25.5"	"21.019"
"1980"	"19.202"	"21.562"	"25.835"	"29.168"	"27.057"	"27.841"	"28.091"	"27.696"	"28.138"	"26.846"	"24.077"	"21.132"
"1981"	"19.239"	"21.285"	"24.222"	"25.642"	"27.339"	"28.411"	"27.424"	"27.459"	"28.176"	"27.543"	"24.355"	"20.279"
"1982"	"19.615"	"21.36"	"24.492"	"26.849"	"29.621"	"27.661"	"28.254"	"28.002"	"28.31"	"28.097"	"23.257"	"19.701"
"1983"	"19.16"	"20.74"	"25.281"	"26.788"	"27.764"	"28.464"	"28.433"	"27.675"	"28.602"	"27.419"	"24.929"	"19.869"
"1984"	"18.524"	"20.765"	"26.448"	"28.3"	"27.276"	"27.946"	"27.591"	"27.829"	"27.495"	"27.729"	"23.94"	"20.539"
"1985"	"19.69"	"21.448"	"26.316"	"28.057"	"28.128"	"28.028"	"27.23"	"27.965"	"28.239"	"27.948"	"23.766"	"22.055"
"1986"	"19.498"	"22.044"	"26.569"	"26.817"	"27.49"	"28.878"	"27.917"	"28.262"	"27.662"	"26.801"	"24.382"	"21.262"
"1987"	"20.712"	"22.217"	"25.213"	"27.272"	"29.052"	"29.347"	"27.649"	"28.067"	"28.816"	"27.618"	"24.974"	"20.922"
"1988"	"20.529"	"22.718"	"25.45"	"28.517"	"28.361"	"28.031"	"27.956"	"27.91"	"28.536"	"27.793"	"24.965"	"21.954"
"1989"	"17.901"	"21.544"	"25.507"	"28.986"	"29.707"	"28.648"	"27.95"	"28.544"	"28.338"	"27.568"	"23.71"	"19.953"
"1990"	"20.334"	"22.294"	"24.172"	"27.086"	"29.108"	"28.988"	"27.475"	"28.061"	"28.741"	"26.874"	"26.091"	"21.638"
"1991"	"18.176"	"22.839"	"26.282"	"28.049"	"27.109"	"27.978"	"28.656"	"28.228"	"28.003"	"27.838"	"23.176"	"20.283"
"1992"	"18.771"	"20.279"	"26.719"	"29.17"	"28.3"	"29.012"	"27.856"	"28.718"	"28.672"	"27.49"	"24.365"	"19.802"
"1993"	"18.716"	"21.867"	"24.049"	"26.608"	"27.211"	"27.975"	"27.725"	"27.765"	"28.167"	"27.698"	"24.449"	"21.255"
"1994"	"19.759"	"20.557"	"25.657"	"27.522"	"29.313"	"28.523"	"28.563"	"28.228"	"29.027"	"27.423"	"24.496"	"20.327"
"1995"	"18.699"	"21.085"	"25.323"	"28.947"	"30.07"	"28.776"	"28.16"	"28.022"	"28.51"	"28.339"	"24.648"	"20.096"
"1996"	"19.209"	"21.539"	"26.056"	"27.885"	"29.071"	"28.283"	"28.224"	"27.735"	"29.088"	"27.417"	"24.685"	"21.002"
"1997"	"19.153"	"20.742"	"25.532"	"26.493"	"28.965"	"28.765"	"27.752"	"28.462"	"28.359"	"27.28"	"25.176"	"20.936"
"1998"	"19.083"	"21.715"	"23.73"	"28.4"	"29.36"	"29.397"	"28.558"	"28.099"	"28.926"	"28.68"	"25.481"	"21.771"
"1999"	"20.52"	"24.044"	"26.615"	"29.821"	"28.429"	"28.763"	"28.475"	"27.696"	"28.16"	"28.326"	"24.862"	"21.404"
"2000"	"18.419"	"21.313"	"24.277"	"27.8"	"28.043"	"28.162"	"28.774"	"27.431"	"27.76"	"27.341"	"24.462"	"20.653"
"2001"	"19.42"	"22.534"	"25.727"	"28.667"	"28.598"	"28.095"	"28.299"	"28.394"	"29.376"	"28.044"	"24.809"	"20.95"
"2002"	"19.935"	"22.931"	"26.298"	"27.898"	"28.578"	"27.945"	"28.38"	"27.829"	"28.123"	"27.593"	"24.478"	"21.238"
