
"Year"	"Jan"	"Feb"	"Mar"	"Apr"	"May"	"Jun"	"Jul"	"Aug"	"Sep"	"Oct"	"Nov"	"Dec"
"1901"	"29.772"	"42.169"	"0.306"	"30.723"	"96.768"	"169.713"	"245.805"	"315.063"	"427.377"	"57.646"	"91.061"	"0.216"
"1902"	"1.118"	"0.911"	"29.726"	"116.112"	"138.54"	"118.474"	"292.787"	"339.027"	"167.134"	"77.954"	"2.117"	"25.987"
"1903"	"5.227"	"15.044"	"15.558"	"33.2"	"25.52"	"208.187"	"127.832"	"243.318"	"313.865"	"209.333"	"2.529"	"0.365"
"1904"	"0.185"	"51.027"	"52.373"	"8.499"	"151.539"	"206.727"	"387.113"	"245.2"	"141.329"	"30.876"	"5.023"	"0.593"
"1905"	"21.246"	"32.684"	"81.397"	"96.546"	"155.58"	"38.861"	"464.696"	"159.238"	"256.915"	"126.672"	"0.511"	"0.284"
"1906"	"39.711"	"83.675"	"45.082"	"1.079"	"59.416"	"133.216"	"243.926"	"216.107"	"189.094"	"145.694"	"11.867"	"0.135"
"1907"	"0.296"	"3.375"	"83.113"	"32.79"	"85.311"	"350.849"	"157.862"	"245.97"	"103.932"	"31.7"	"0.71"	"21.309"
"1908"	"20.134"	"0.767"	"0.295"	"4.784"	"69.899"	"504.056"	"455.848"	"345.894"	"186.373"	"52.84"	"1.765"	"0.185"
"1909"	"0.325"	"4.231"	"0.247"	"116.479"	"68.424"	"419.732"	"192.955"	"364.217"	"212.14"	"98.947"	"6.781"	"24.886"
"1910"	"38.106"	"9.436"	"14.222"	"24.266"	"73.528"	"137.79"	"223.778"	"273.199"	"288.76"	"184.598"	"0.789"	"0.154"
"1911"	"0.613"	"1.327"	"39.723"	"39.24"	"49.687"	"230.352"	"108.822"	"203.271"	"182.095"	"95.994"	"13.719"	"0.123"
"1912"	"0.114"	"16.767"	"85.423"	"47.229"	"77.383"	"189.277"	"224.118"	"270.077"	"127.042"	"114.426"	"104.141"	"0.055"
"1913"	"1.518"	"66.332"	"18.136"	"29.428"	"128.875"	"578.743"	"279.145"	"313.623"	"134.425"	"179.991"	"17.271"	"5.51"
"1914"	"0.092"	"23.32"	"7.614"	"65.723"	"131.893"	"186.08"	"318.226"	"229.276"	"182.362"	"9.468"	"0.573"	"43.043"
"1915"	"9.348"	"9.404"	"84.06"	"33.205"	"95.756"	"210.037"	"204.777"	"388.808"	"236.133"	"107.56"	"70.878"	"0.339"
"1916"	"0.2"	"0.293"	"0.449"	"34.449"	"59.743"	"338.586"	"153.022"	"446.517"	"396.166"	"387.427"	"37.063"	"0.092"
"1917"	"0.073"	"29.632"	"28.728"	"38.204"	"125.562"	"231.709"	"234.522"	"343.185"	"185.831"	"299.665"	"12.762"	"0.247"
"1918"	"0.261"	"0.337"	"17.378"	"90.336"	"125.902"	"314.48"	"148.007"	"261.556"	"212.57"	"9.755"	"1.535"	"17.023"
"1919"	"16.44"	"23.811"	"10.383"	"76.633"	"62.249"	"254.898"	"230.172"	"542.952"	"70.107"	"21.408"	"61.231"	"0.185"
"1920"	"0.247"	"30.083"	"126.684"	"2.017"	"42.084"	"105.983"	"270.176"	"438.982"	"216.25"	"152.171"	"0.914"	"0.092"
"1921"	"49.676"	"9.589"	"14.61"	"55.666"	"47.196"	"275.72"	"187.237"	"396.111"	"155.974"	"14.641"	"0.634"	"0.247"
"1922"	"4.566"	"0.791"	"0.557"	"23.722"	"36.913"	"438.111"	"274.305"	"429.932"	"473.473"	"61.726"	"1.825"	"0.312"
"1923"	"0.57"	"76.86"	"24.097"	"16.484"	"23.684"	"112.196"	"306.557"	"388.8"	"126.064"	"145.365"	"23.032"	"8.2"
"1924"	"6.584"	"13.837"	"0.247"	"7.86"	"24.634"	"158.652"	"201.14"	"358.233"	"236.962"	"89.999"	"58.114"	"0.062"
"1925"	"16.828"	"4.953"	"10.57"	"67.584"	"75.681"	"173.835"	"336.569"	"199.372"	"169.919"	"231.193"	"9.562"	"2.819"
"1926"	"13.316"	"15.881"	"91.807"	"32.18"	"64.403"	"126.963"	"472.707"	"498.262"	"153.916"	"109.718"	"0.365"	"24.623"
"1927"	"7.96"	"24.822"	"7.85"	"39.977"	"76.337"	"220.173"	"164.931"	"176.582"	"167.654"	"79.747"	"7.477"	"0.185"
"1928"	"4.321"	"1.052"	"2.655"	"63.672"	"106.935"	"348.538"	"412.546"	"392.838"	"200.927"	"90.497"	"0.788"	"0.011"
"1929"	"26.055"	"15.081"	"52.149"	"39.856"	"32.343"	"135.532"	"209.868"	"276.785"	"242.505"	"301.798"	"0.301"	"10.821"
"1930"	"0.244"	"16.994"	"9.025"	"2.673"	"84.589"	"174.186"	"379.038"	"351.317"	"166.787"	"32.8"	"75.138"	"0.238"
"1931"	"1.643"	"57.427"	"26.833"	"22.124"	"117.806"	"125.625"	"261.128"	"218.459"	"284.232"	"168.508"	"21"	"1.369"
"1932"	"0.025"	"6.042"	"13.7"	"21.079"	"175.244"	"143.327"	"195.824"	"223.913"	"234.799"	"101.79"	"96.186"	"0.159"
"1933"	"18.928"	"50.706"	"2.278"	"60.491"	"117.516"	"305.967"	"326.759"	"346.753"	"239.342"	"256.45"	"0.737"	"0"
"1934"	"0.121"	"3.351"	"3.251"	"37.857"	"39.122"	"160.885"	"180.657"	"341.221"	"277.676"	"142.917"	"25.713"	"10.926"
"1935"	"12.054"	"26.482"	"19.714"	"44.877"	"8.705"	"86.227"	"128.273"	"279.568"	"154.812"	"28.917"	"0.449"	"7.5"
"1936"	"10.045"	"23.337"	"8.871"	"6.748"	"148.301"	"323.332"	"207.841"	"159.173"	"438.023"	"130.039"	"1.613"	"44.364"
"1937"	"0.247"	"49.658"	"8.679"	"6.476"	"85.939"	"336.636"	"210.16"	"335.419"	"294.265"	"209.51"	"4.683"	"3.706"
"1938"	"9.751"	"22.76"	"10.535"	"1.588"	"218.733"	"185.514"	"122.988"	"234.555"	"67.593"	"102.55"	"3.931"	"0"
"1939"	"2.042"	"29.117"	"7.534"	"30.212"	"44.913"	"287.264"	"285.768"	"505.085"	"253.871"	"252.65"	"11.053"	"1.569"
"1940"	"0"	"8.222"	"130.733"	"1.273"	"110.484"	"161.677"	"204.643"	"293.015"	"328.489"	"99.59"	"0.602"	"0.557"
"1941"	"28.764"	"0.574"	"1.34"	"18.536"	"45.97"	"382.038"	"290.885"	"574.67"	"181.587"	"282.238"	"103.446"	"0.092"
"1942"	"1.088"	"4.622"	"2.799"	"32.046"	"13.005"	"73.288"	"277.941"	"302.515"	"408.65"	"194.698"	"10.952"	"0.062"
"1943"	"58.009"	"27.229"	"13.018"	"104.645"	"24.401"	"184.492"	"332.336"	"349.75"	"156.314"	"74.4"	"1.131"	"0.062"
"1944"	"46.416"	"12.616"	"36.883"	"24.601"	"47.738"	"177.869"	"216.115"	"472.731"	"137.831"	"106.372"	"0.725"	"0.154"
"1945"	"22.699"	"7.837"	"11.531"	"74.696"	"62.93"	"155.65"	"139.729"	"164.078"	"247.903"	"300.18"	"0.511"	"2.029"
"1946"	"0.216"	"11.528"	"7.454"	"33.358"	"93.881"	"177.018"	"163.512"	"241.809"	"424.454"	"221.188"	"55.021"	"0.247"
"1947"	"7.08"	"15.279"	"27.778"	"10.292"	"87.6"	"187.6"	"308.773"	"365.583"	"328.58"	"92.227"	"0.514"	"39.473"
"1948"	"18.614"	"33.837"	"96.099"	"19.276"	"62.693"	"240.603"	"215.596"	"348.62"	"157.096"	"180.18"	"103.068"	"0"
"1949"	"1.354"	"1.284"	"25.595"	"113.514"	"160.831"	"181.38"	"267.576"	"197.605"	"323.095"	"101.457"	"0.511"	"0"
"1950"	"0"	"9.259"	"4.481"	"39.088"	"62.321"	"284.856"	"232.624"	"192.237"	"200.154"	"168.054"	"142.246"	"0.014"
"1951"	"0.036"	"0.211"	"82.634"	"27.215"	"50.902"	"186.548"	"265.53"	"321.392"	"307.456"	"104.009"	"57.656"	"1.687"
"1952"	"0.244"	"1.246"	"29.935"	"112.025"	"52.284"	"187.984"	"315.307"	"258.023"	"196.71"	"171.082"	"5.04"	"0.006"
"1953"	"19.396"	"12.711"	"1.304"	"2.395"	"41.543"	"225.718"	"119.149"	"295.6"	"291.588"	"80.279"	"22.459"	"0"
"1954"	"14.905"	"22.69"	"0.247"	"7.256"	"116.108"	"213.494"	"125.091"	"240.888"	"201.335"	"112.164"	"0.449"	"28.05"
"1955"	"0.212"	"0.27"	"16.137"	"12.059"	"34.345"	"168.229"	"169.736"	"261.282"	"191.246"	"379.976"	"95.986"	"0.062"
"1956"	"4.636"	"17.74"	"34.848"	"13.691"	"53.994"	"384.699"	"227.932"	"251.929"	"353.564"	"202.678"	"7.816"	"0.039"
"1957"	"55.204"	"17.499"	"5.969"	"29.878"	"10.727"	"123.533"	"290.215"	"230.752"	"210.86"	"133.283"	"0.449"	"0"
"1958"	"10.076"	"57.675"	"4.833"	"26.078"	"33.722"	"89.969"	"255.463"	"175.377"	"253.809"	"82.347"	"33.859"	"0.401"
"1959"	"22.301"	"13.97"	"13.565"	"61.571"	"74.198"	"258.59"	"149.121"	"244.628"	"439.885"	"355.982"	"0.233"	"6.748"
"1960"	"0.16"	"0.211"	"37.339"	"0.849"	"74.449"	"75.175"	"435.574"	"344.144"	"277.556"	"116.175"	"6.609"	"0.803"
"1961"	"35.222"	"28.451"	"4.058"	"4.259"	"90.61"	"196.289"	"107.121"	"395.973"	"308.688"	"133.7"	"0.519"	"0.039"
"1962"	"11.809"	"10.984"	"1.615"	"33.343"	"49.776"	"204.952"	"197.255"	"173.49"	"211.864"	"187.441"	"0.233"	"0.022"
"1963"	"0.006"	"0.228"	"13.695"	"64.505"	"89.968"	"227.867"	"234.897"	"199.416"	"341.163"	"160.269"	"5.155"	"0.012"
"1964"	"0.074"	"8.616"	"23.052"	"54.812"	"91.001"	"82.003"	"458.869"	"279.776"	"182.743"	"101.473"	"29.949"	"0"
"1965"	"1.423"	"32.313"	"21.018"	"41.245"	"37.751"	"232.712"	"276.021"	"397.716"	"303.467"	"125.307"	"0.518"	"7.061"
"1966"	"27.169"	"2.458"	"13.787"	"7.22"	"13.333"	"307.572"	"110.403"	"264.183"	"202.603"	"85.089"	"45.4"	"16.21"
"1967"	"11.102"	"0.211"	"42.593"	"37.569"	"43.153"	"95.71"	"183.052"	"349.089"	"297.2"	"111.239"	"0.233"	"5.138"
"1968"	"9.222"	"29.872"	"24.481"	"16.498"	"17.215"	"434.669"	"362.44"	"535.455"	"124.511"	"131.873"	"49.306"	"0.028"
"1969"	"20.379"	"0.245"	"38.932"	"102.87"	"39.192"	"102.399"	"228.338"	"404.099"	"302.909"	"104.226"	"18.951"	"0.265"
"1970"	"5.049"	"11.88"	"65.653"	"21.97"	"39.306"	"402.135"	"222.162"	"272.03"	"415.583"	"234.877"	"30.522"	"0"
"1971"	"46.771"	"38.342"	"1.766"	"142.392"	"97.43"	"307.176"	"398.876"	"443.922"	"200.609"	"227.598"	"23.87"	"0"
"1972"	"0.045"	"55.714"	"0.798"	"9.575"	"12.237"	"66.119"	"215.018"	"484.616"	"217.1"	"119.495"	"1.156"	"0.006"
"1973"	"0.42"	"18.975"	"53.165"	"20.884"	"183.052"	"152.513"	"172.681"	"343.171"	"283.026"	"196.574"	"52.747"	"87.744"
"1974"	"1.99"	"0.211"	"122.901"	"13.133"	"89.076"	"113.564"	"283.418"	"345.415"	"247.518"	"305.297"	"3.469"	"0.006"
"1975"	"7.417"	"27.06"	"1.209"	"9.366"	"56.741"	"173.661"	"229.25"	"315.8"	"201.199"	"242.146"	"55.173"	"1.748"
"1976"	"0"	"45.612"	"12.72"	"38.264"	"118.494"	"110.155"	"336.294"	"337.541"	"181.565"	"21.228"	"13.746"	"0"
"1977"	"4.974"	"36.415"	"0.371"	"36.065"	"101.287"	"350.146"	"348.658"	"308.856"	"222.24"	"79.109"	"33.282"	"69.508"
"1978"	"0.006"	"7.769"	"44.739"	"51.854"	"119.37"	"170.337"	"319.352"	"300.533"	"752.631"	"149.857"	"43.255"	"12.832"
"1979"	"27.864"	"6.12"	"11.194"	"46.917"	"30.113"	"155.206"	"281.842"	"248.046"	"153.79"	"73.355"	"0.501"	"75.569"
"1980"	"26.336"	"55.19"	"82.797"	"2.964"	"69"	"278.943"	"255.864"	"338.035"	"127.143"	"140.354"	"0.363"	"5.596"
"1981"	"19.585"	"37.563"	"62.152"	"107.585"	"149.329"	"135.972"	"329.802"	"255.041"	"287.36"	"4.141"	"0.264"	"17.797"
"1982"	"0.196"	"16.811"	"31.076"	"104.874"	"14.485"	"116.778"	"152.919"	"439.605"	"113.514"	"20.414"	"22.744"	"0.011"
"1983"	"2.63"	"42.713"	"61.91"	"30.435"	"99.09"	"205.81"	"214.458"	"323.398"	"132.656"	"213.53"	"4.873"	"7.331"
"1984"	"32.655"	"1.666"	"0.591"	"51.502"	"59.203"	"683.222"	"280.29"	"430.398"	"110.453"	"100.922"	"0.542"	"0.624"
"1985"	"7.73"	"4.646"	"1.067"	"36.919"	"44.943"	"200.681"	"368.133"	"248.33"	"178.991"	"140.524"	"5.441"	"0.325"
"1986"	"16.203"	"3.523"	"1.098"	"35.379"	"86.673"	"189.578"	"351.538"	"161.174"	"732.445"	"133.596"	"131.066"	"2.673"
"1987"	"0.464"	"10.723"	"15.206"	"78.088"	"62.822"	"176.371"	"348.342"	"493.231"	"208.303"	"114.973"	"52.791"	"9.038"
"1988"	"0.031"	"19.154"	"10.679"	"28.647"	"68.346"	"435.808"	"257.137"	"391.411"	"233.484"	"144.684"	"78.185"	"5.497"
"1989"	"0.803"	"12.443"	"4.32"	"6.979"	"97.052"	"186.461"	"251.672"	"193.563"	"265.501"	"283.613"	"0.292"	"2.7"
"1990"	"0"	"32.581"	"62.734"	"32.451"	"195.992"	"229.423"	"631.848"	"169.102"	"309.025"	"159.792"	"38.113"	"5.225"
"1991"	"20.813"	"8.456"	"40.165"	"5.874"	"41.724"	"241.201"	"258.701"	"414.336"	"285.371"	"179.515"	"12.397"	"52.938"
"1992"	"14.86"	"10.658"	"0.263"	"6.171"	"78.873"	"310.356"	"358.569"	"180.237"	"200.227"	"72.569"	"4.673"	"0.247"
"1993"	"3.508"	"0.932"	"64.685"	"100.234"	"109.619"	"381.842"	"347.951"	"384.139"	"387.227"	"198.53"	"27.619"	"0"
"1994"	"3.93"	"47.032"	"69.238"	"50.947"	"94.04"	"186.524"	"315.534"	"335.036"	"168.269"	"208.941"	"8.085"	"0.216"
"1995"	"17.331"	"23.042"	"12.034"	"20.293"	"77.233"	"118.313"	"288.466"	"258.045"	"496.648"	"216.516"	"56.265"	"0.018"
"1996"	"2.127"	"13.865"	"8.108"	"46.588"	"36.029"	"304.895"	"153.988"	"501.341"	"143"	"185.243"	"0.556"	"0.803"
"1997"	"31.07"	"16.336"	"46.887"	"81.888"	"63.376"	"85.829"	"441.772"	"390.085"	"379.506"	"84.43"	"9.003"	"25.283"
"1998"	"31.471"	"67.52"	"30.246"	"42.199"	"35.508"	"223.986"	"234.186"	"209.396"	"268.866"	"370.425"	"61.858"	"0.185"
"1999"	"0.535"	"0.576"	"0.596"	"0.789"	"151.126"	"221.743"	"244.716"	"486.055"	"627.743"	"106.976"	"39.374"	"0.337"
"2000"	"1.428"	"49.142"	"0.655"	"77.403"	"155.517"	"221.999"	"189.89"	"268.508"	"159.559"	"71.876"	"25.054"	"4.149"
"2001"	"0.2"	"4.869"	"49.101"	"25.242"	"129.101"	"330.818"	"159.74"	"234.861"	"127.108"	"212.852"	"33.798"	"0.427"
"2002"	"26.612"	"13.565"	"0.534"	"73.234"	"64.867"	"272.241"	"288.091"	"397.521"	"272.408"	"74.867"	"20.478"	"0.092"
