
"Year"	"Jan"	"Feb"	"Mar"	"Apr"	"May"	"Jun"	"Jul"	"Aug"	"Sep"	"Oct"	"Nov"	"Dec"
"1901"	"18.712"	"21.294"	"25.816"	"31.045"	"33.341"	"33.586"	"28.356"	"27.169"	"27.32"	"26.655"	"21.76"	"18.507"
"1902"	"19.711"	"22.017"	"27.979"	"30.835"	"33.997"	"33.23"	"28.082"	"28.17"	"27.705"	"26.234"	"21.638"	"18.662"
"1903"	"19.879"	"20.858"	"26.732"	"31.723"	"33.832"	"32.043"	"28.338"	"27.928"	"27.663"	"25.754"	"21.068"	"17.805"
"1904"	"19.14"	"21.2"	"26.612"	"31.938"	"32.827"	"30.273"	"27.217"	"26.991"	"27.263"	"26.017"	"21.375"	"19.424"
"1905"	"18.746"	"19.56"	"25.552"	"29.043"	"32.911"	"34.704"	"27.777"	"28.006"	"27.241"	"25.696"	"21.879"	"18.55"
"1906"	"19.244"	"21.935"	"25.29"	"31.789"	"34.654"	"31.885"	"28.128"	"27.731"	"27.741"	"26.077"	"22.116"	"19.531"
"1907"	"19.417"	"21.709"	"25.306"	"28.776"	"32.233"	"30.948"	"28.73"	"26.737"	"27.653"	"26.416"	"22.47"	"17.966"
"1908"	"17.405"	"22.009"	"25.836"	"32.396"	"33.995"	"32.202"	"27.756"	"26.892"	"27.74"	"25.741"	"20.997"	"17.544"
"1909"	"20.524"	"21.779"	"26.363"	"28.547"	"33.282"	"29.498"	"26.982"	"27.529"	"27.269"	"25.247"	"21.812"	"19.319"
"1910"	"18.844"	"21.488"	"26.376"	"31.233"	"33.578"	"30.65"	"27.815"	"27.251"	"27.394"	"25.749"	"20.726"	"17.781"
"1911"	"20.755"	"20.94"	"25.588"	"30.637"	"33.892"	"29.512"	"28.979"	"26.629"	"27.184"	"25.873"	"22.436"	"18.117"
"1912"	"19.194"	"22.482"	"26.874"	"30.635"	"33.953"	"32.698"	"27.874"	"27.169"	"27.281"	"25.92"	"21.162"	"17.492"
"1913"	"18.44"	"21.832"	"25.267"	"31.279"	"32.33"	"29.041"	"27.542"	"27.069"	"27.363"	"25.413"	"20.839"	"18.572"
"1914"	"18.898"	"22.526"	"25.826"	"29.302"	"31.604"	"30.639"	"27.535"	"27.45"	"27.07"	"25.404"	"22.478"	"18.965"
"1915"	"19.363"	"21.838"	"25.896"	"31.013"	"34.039"	"32.395"	"28.723"	"28.06"	"27.384"	"26.82"	"23.371"	"18.302"
"1916"	"18.092"	"22.173"	"26.906"	"31.662"	"33.948"	"29.354"	"28.064"	"27.184"	"27.499"	"26.343"	"22.222"	"17.604"
"1917"	"18.562"	"21.178"	"25.128"	"29.749"	"30.7"	"29.604"	"27.539"	"27.169"	"27.198"	"26.023"	"21.173"	"18.385"
"1918"	"17.762"	"21.321"	"26.268"	"30.091"	"32.545"	"28.518"	"29.005"	"26.805"	"27.513"	"25.584"	"22.342"	"18.757"
"1919"	"21.054"	"21.568"	"26.629"	"30.526"	"32.557"	"29.913"	"27.423"	"26.962"	"27.344"	"25.527"	"22.08"	"18.285"
"1920"	"18.719"	"21.779"	"26.681"	"30.508"	"31.981"	"32.129"	"26.966"	"27.152"	"27.463"	"26.187"	"22.029"	"18.015"
"1921"	"19.238"	"20.93"	"27.566"	"31.539"	"36.029"	"30.986"	"28.072"	"26.647"	"26.855"	"24.862"	"19.836"	"18.975"
"1922"	"18.567"	"21.745"	"26.816"	"30.937"	"34.028"	"29.477"	"26.56"	"26.501"	"26.3"	"24.202"	"20.973"	"17.315"
"1923"	"18.078"	"21.07"	"24.757"	"30.792"	"34.084"	"33.663"	"27.437"	"26.592"	"27.331"	"25.027"	"21.066"	"18.884"
"1924"	"18.813"	"21.945"	"27.129"	"31.924"	"32.632"	"33.422"	"27.487"	"27.313"	"26.986"	"25.665"	"21.46"	"18.099"
"1925"	"17.876"	"20.781"	"26.01"	"31.012"	"32.653"	"30.523"	"26.411"	"27.18"	"27.463"	"25.568"	"21.926"	"17.831"
"1926"	"18.882"	"22.276"	"25.732"	"29.26"	"32.251"	"33.986"	"28.228"	"27.037"	"27.145"	"25.008"	"20.213"	"18.435"
"1927"	"19.558"	"22.301"	"25.647"	"31.221"	"33.287"	"32.412"	"27.731"	"26.932"	"27.841"	"25.772"	"21.433"	"19.174"
"1928"	"19.384"	"21.996"	"26.806"	"30.128"	"33.506"	"30.127"	"27.348"	"27.591"	"27.747"	"26.496"	"21.921"	"19.246"
"1929"	"19.5"	"20.636"	"26.672"	"31.009"	"34.366"	"31.508"	"26.962"	"26.57"	"27.771"	"24.9"	"21.257"	"18.848"
"1930"	"18.66"	"20.679"	"26.595"	"30.445"	"32.815"	"31.86"	"27.209"	"26.935"	"27.445"	"26.392"	"21.293"	"18.334"
"1931"	"20.033"	"22.078"	"26.257"	"31.728"	"33.945"	"33.199"	"27.581"	"27.361"	"27.813"	"25.958"	"21.606"	"18.756"
"1932"	"19.691"	"20.983"	"26.373"	"30.697"	"33.094"	"32.602"	"27.455"	"27.306"	"27.591"	"26.419"	"22.101"	"18.721"
"1933"	"18.394"	"21.96"	"26.544"	"29.729"	"31.482"	"29.974"	"27.427"	"27.086"	"27.348"	"25.759"	"21.474"	"18.753"
"1934"	"18.402"	"21.279"	"26.37"	"31.418"	"34.486"	"31.3"	"27.502"	"27.098"	"27.377"	"25.163"	"21.087"	"18.985"
"1935"	"18.477"	"22.18"	"26.452"	"29.371"	"34.52"	"32.615"	"27.466"	"26.97"	"27.243"	"25.734"	"21.557"	"19.547"
"1936"	"19.731"	"21.314"	"26.964"	"30.745"	"32.948"	"29.627"	"27.418"	"27.028"	"27.284"	"25.066"	"22.716"	"19.32"
"1937"	"17.601"	"22.23"	"25.622"	"29.624"	"33.029"	"31.701"	"27.582"	"27.127"	"27.252"	"25.322"	"21.854"	"17.828"
"1938"	"20.389"	"20.707"	"27.797"	"31.278"	"32.818"	"29.13"	"27.452"	"27.05"	"27.356"	"25.702"	"20.879"	"17.923"
"1939"	"19.481"	"22.466"	"25.675"	"30.768"	"34.417"	"31.435"	"26.991"	"26.965"	"27.044"	"26.206"	"21.1"	"18.307"
"1940"	"17.466"	"21.492"	"25.116"	"30.321"	"32.738"	"31.475"	"26.932"	"26.99"	"27.499"	"26.121"	"23.226"	"19.252"
"1941"	"19.976"	"22.044"	"27.48"	"32.488"	"33.865"	"30.306"	"27.692"	"27.59"	"27.711"	"25.438"	"20.83"	"19.486"
"1942"	"19.031"	"21.706"	"26.767"	"30.578"	"34.567"	"32.87"	"27.192"	"26.947"	"27.008"	"25.344"	"21.806"	"19.131"
"1943"	"20.566"	"20.173"	"26.237"	"29.476"	"33.502"	"31.357"	"27.436"	"26.49"	"27.443"	"26.298"	"21.99"	"18.644"
"1944"	"19.274"	"21.334"	"24.854"	"28.808"	"34.037"	"31.881"	"27.226"	"26.87"	"27.746"	"25.33"	"21.727"	"20.195"
"1945"	"18.298"	"21.029"	"26.813"	"29.608"	"33.761"	"32.338"	"27.712"	"28.072"	"27.32"	"24.948"	"21.119"	"17.261"
"1946"	"18.195"	"22.332"	"26.544"	"29.274"	"32.796"	"30.284"	"27.097"	"26.983"	"27.306"	"25.964"	"23.144"	"20.841"
"1947"	"19.643"	"21.534"	"26.915"	"32.088"	"34.183"	"32.203"	"27.485"	"27.552"	"27.706"	"25.478"	"21.984"	"19.138"
"1948"	"20.047"	"22.272"	"25.731"	"31.33"	"34.155"	"32.515"	"27.688"	"27.169"	"27.106"	"25.928"	"23.224"	"18.077"
"1949"	"19.282"	"21.538"	"26.74"	"30.914"	"33.003"	"31.985"	"27.734"	"26.936"	"27.37"	"26.314"	"20.728"	"18.105"
"1950"	"19.278"	"21.617"	"25.316"	"30.602"	"33.895"	"30.442"	"27.019"	"27.043"	"27.318"	"25.306"	"20.921"	"18.427"
"1951"	"18.156"	"21.761"	"26.236"	"29.666"	"33.279"	"31.655"	"27.78"	"27.44"	"28.156"	"27.232"	"22.512"	"18.997"
"1952"	"19.806"	"23.127"	"25.733"	"31.114"	"34.198"	"32.202"	"28.087"	"27.081"	"27.32"	"25.95"	"21.85"	"19.988"
"1953"	"19.253"	"23.338"	"28.956"	"31.907"	"35.108"	"32.51"	"27.653"	"27.128"	"27.485"	"26.022"	"21.336"	"19.51"
"1954"	"18.378"	"23.652"	"26.308"	"32.237"	"34.194"	"31.014"	"28.308"	"27.651"	"27.131"	"24.696"	"20.386"	"19.189"
"1955"	"19.193"	"22.518"	"27.642"	"30.466"	"33.597"	"32.394"	"27.296"	"27.212"	"27.255"	"25.746"	"21.185"	"18.906"
"1956"	"20.056"	"21.309"	"27.676"	"32.188"	"33.847"	"28.853"	"27.119"	"26.864"	"26.909"	"24.905"	"21.342"	"20.05"
"1957"	"20.592"	"21.671"	"25.399"	"30.953"	"34.545"	"32.856"	"27.352"	"27.469"	"27.376"	"26.458"	"22.305"	"20.286"
"1958"	"20.688"	"22.936"	"27.462"	"32.279"	"34.418"	"34.129"	"27.796"	"27.626"	"27.298"	"26.263"	"22.985"	"20.102"
"1959"	"20.099"	"22.101"	"26.971"	"31.481"	"34.324"	"31.688"	"27.716"	"26.929"	"27.061"	"25.855"	"21.595"	"18.618"
"1960"	"18.93"	"22.763"	"25.938"	"31.405"	"33.832"	"32.249"	"27.298"	"27.169"	"27.868"	"25.915"	"21.408"	"20.172"
"1961"	"19.704"	"20.5"	"27.52"	"31.459"	"34.011"	"30.387"	"27.056"	"27.403"	"26.842"	"25.327"	"20.857"	"16.825"
"1962"	"17.095"	"21.367"	"25.767"	"30.398"	"33.306"	"31.057"	"28.076"	"27.169"	"27.304"	"24.898"	"21.8"	"19.589"
"1963"	"17.754"	"22.84"	"26.37"	"30.365"	"32.563"	"30.924"	"27.411"	"27.49"	"27.179"	"26.023"	"22.882"	"19.554"
"1964"	"20.02"	"22.027"	"27.663"	"31.582"	"32.999"	"31.427"	"26.367"	"26.939"	"27.384"	"26.047"	"21.929"	"19.426"
"1965"	"19.621"	"22.16"	"25.645"	"29.559"	"32.745"	"32.909"	"27.698"	"27.453"	"27.041"	"26.05"	"22.68"	"19.219"
"1966"	"18.856"	"23.257"	"26.659"	"31.371"	"34.642"	"31.541"	"28.934"	"27.901"	"28.175"	"26.399"	"24.323"	"19.11"
"1967"	"19.384"	"23.458"	"25.639"	"30.219"	"33.943"	"33.236"	"28.465"	"26.964"	"27.255"	"25.441"	"22.075"	"21.28"
"1968"	"19.408"	"21.973"	"26.215"	"30.271"	"33.512"	"30.878"	"27.843"	"26.989"	"27.781"	"25.221"	"21.845"	"18.916"
"1969"	"19.267"	"24.169"	"28.31"	"31.924"	"32.679"	"32.046"	"27.695"	"27.131"	"27.136"	"26.945"	"23.774"	"19.566"
"1970"	"20.235"	"22.838"	"26.521"	"31.471"	"33.57"	"29.882"	"27.282"	"27.19"	"27.081"	"25.642"	"20.971"	"17.765"
"1971"	"19.158"	"21.68"	"25.378"	"28.987"	"30.15"	"28.468"	"26.303"	"25.818"	"27.11"	"25.944"	"22.362"	"18.363"
"1972"	"19.495"	"20.968"	"27.293"	"30.976"	"34.717"	"33.853"	"28.219"	"27.477"	"27.266"	"25.979"	"22.977"	"20.446"
"1973"	"20.557"	"23.527"	"26.219"	"32.075"	"33.862"	"31.725"	"27.963"	"27.329"	"27.262"	"25.699"	"21.635"	"18.952"
"1974"	"19.278"	"21.894"	"26.782"	"31.477"	"33.138"	"31.972"	"27.85"	"27.889"	"27.926"	"26.375"	"21.815"	"18.291"
"1975"	"18.099"	"22.25"	"26.11"	"31.773"	"34.473"	"31.671"	"27.085"	"27.061"	"26.868"	"26.499"	"20.488"	"18.049"
"1976"	"18.189"	"22.504"	"26.774"	"30.003"	"32.586"	"31.517"	"27.359"	"27.09"	"27.052"	"26.871"	"25.26"	"20.083"
"1977"	"19.169"	"22.898"	"27.794"	"30.171"	"30.96"	"31.042"	"27.413"	"27.169"	"27.376"	"26.222"	"23.774"	"18.968"
"1978"	"18.234"	"21.646"	"24.929"	"29.901"	"34.148"	"30.965"	"27.277"	"26.637"	"27.264"	"26.12"	"23.874"	"18.926"
"1979"	"20.199"	"20.068"	"25.974"	"30.356"	"33.14"	"31.451"	"28.613"	"27.534"	"26.524"	"26.948"	"25.251"	"19.94"
"1980"	"20.192"	"23.211"	"26.287"	"31.622"	"33.641"	"29.063"	"26.521"	"26.668"	"27.212"	"25.863"	"22.961"	"19.557"
"1981"	"18.727"	"22.99"	"25.99"	"30.155"	"32.296"	"31.777"	"27.688"	"27.691"	"27.575"	"26.252"	"22.428"	"19.015"
"1982"	"21.213"	"22.457"	"25.566"	"30.821"	"32.961"	"31.149"	"29.752"	"27.169"	"28.185"	"26.742"	"23.264"	"20.693"
"1983"	"19.609"	"21.894"	"26.974"	"30.281"	"32.518"	"32.542"	"28.422"	"27.833"	"27.862"	"25.528"	"21.843"	"19.159"
"1984"	"19.621"	"21.001"	"26.975"	"31.541"	"34.18"	"29.969"	"27.483"	"26.989"	"27.241"	"26.381"	"21.592"	"19.989"
"1985"	"20.287"	"22.063"	"27.622"	"31.223"	"32.732"	"31.328"	"26.247"	"26.105"	"27.503"	"24.238"	"21.57"	"19.831"
"1986"	"18.292"	"21.462"	"25.732"	"30.264"	"31.481"	"30.284"	"26.561"	"26.661"	"26.879"	"24.69"	"22.218"	"18.929"
"1987"	"17.924"	"21.335"	"25.237"	"30.111"	"31.749"	"32.071"	"26.97"	"26.722"	"27.036"	"25.187"	"21.274"	"18.101"
"1988"	"18.49"	"21.627"	"25.49"	"29.72"	"32.545"	"29.002"	"26.766"	"27.97"	"28.312"	"26.14"	"22.582"	"20.629"
"1989"	"18.938"	"22.866"	"26.838"	"31.785"	"33.816"	"30.171"	"27.874"	"27.306"	"27.658"	"26.398"	"22.925"	"19.222"
"1990"	"20.98"	"22.644"	"25.195"	"30.319"	"31.282"	"30.501"	"26.859"	"27.491"	"27.365"	"25.099"	"22.689"	"19.579"
"1991"	"19.466"	"23.758"	"26.958"	"30.425"	"33.415"	"30.493"	"28.17"	"26.986"	"27.663"	"25.952"	"21.54"	"18.954"
"1992"	"18.477"	"21.122"	"27.115"	"31.125"	"32.725"	"31.013"	"28.607"	"27.37"	"27.561"	"26.449"	"23.488"	"19.182"
"1993"	"20.123"	"22.666"	"26.117"	"30.574"	"33.637"	"32.165"	"28.319"	"27.569"	"27.298"	"26.528"	"21.809"	"18.973"
"1994"	"20.407"	"22.066"	"27.457"	"30.274"	"33.549"	"31.008"	"27"	"26.725"	"27.206"	"26.406"	"22.572"	"19.228"
"1995"	"18.283"	"22.095"	"26.095"	"30.846"	"32.009"	"33.001"	"27.691"	"27.639"	"27.376"	"26.143"	"22.746"	"19.86"
"1996"	"20.339"	"21.373"	"27.573"	"29.9"	"34.309"	"30.96"	"28.052"	"27.02"	"28.171"	"25.759"	"22.744"	"18.953"
"1997"	"18.492"	"21.036"	"26.675"	"28.646"	"32.696"	"32.832"	"27.807"	"27.155"	"27.308"	"26.388"	"24.074"	"20.947"
"1998"	"19.606"	"22.581"	"24.96"	"30.138"	"32.972"	"33.292"	"27.82"	"27.906"	"27.954"	"27.621"	"23.479"	"19.499"
"1999"	"18.138"	"23.239"	"27.171"	"32.588"	"32.69"	"30.878"	"27.498"	"27.162"	"26.984"	"26.823"	"22.852"	"19.937"
"2000"	"20.184"	"21.83"	"25.972"	"31.897"	"32.995"	"30.089"	"28.046"	"27.729"	"27.278"	"27.135"	"23.711"	"19.188"
"2001"	"19.001"	"22.38"	"26.884"	"30.573"	"33.529"	"29.261"	"26.91"	"27.527"	"28.244"	"27.198"	"24.41"	"20.295"
"2002"	"19.464"	"23.034"	"27.474"	"31.115"	"34.28"	"31.431"	"28.686"	"27.047"	"27.376"	"26.322"	"22.875"	"20.561"
