
"Year"	"Jan"	"Feb"	"Mar"	"Apr"	"May"	"Jun"	"Jul"	"Aug"	"Sep"	"Oct"	"Nov"	"Dec"
"1901"	"2.714"	"0"	"2.115"	"0.776"	"1.595"	"77.731"	"445.8"	"194.179"	"20.291"	"19.766"	"0.196"	"0"
"1902"	"2.275"	"0"	"0"	"0.029"	"0.411"	"55.08"	"581.097"	"387.121"	"389.041"	"10.537"	"4.281"	"7.703"
"1903"	"0.008"	"0"	"0"	"0"	"20.701"	"96.372"	"724.489"	"206.228"	"262.72"	"10.658"	"0.196"	"0.048"
"1904"	"0"	"0.804"	"2.363"	"0.329"	"0.405"	"63.648"	"191.236"	"74.714"	"211.709"	"10.66"	"0.196"	"0.904"
"1905"	"0"	"0.184"	"0"	"0.001"	"0.095"	"29.427"	"501.574"	"47.41"	"49.12"	"3.354"	"0.369"	"0"
"1906"	"0"	"0.756"	"0"	"0"	"0"	"376.048"	"481.484"	"268.472"	"74.134"	"8.156"	"0.196"	"1.467"
"1907"	"0.005"	"0.001"	"0"	"0.325"	"0"	"149.926"	"520.099"	"468.598"	"19.369"	"0.234"	"0.326"	"0"
"1908"	"1.045"	"0"	"0.749"	"0.049"	"0"	"133.01"	"586.881"	"251.706"	"40.555"	"0.565"	"0.196"	"0"
"1909"	"0.184"	"0.156"	"0.014"	"1.313"	"1.695"	"385.489"	"497.19"	"243.829"	"212.651"	"5.167"	"0.196"	"4.584"
"1910"	"0.002"	"0"	"0"	"0"	"0.936"	"452.581"	"408.077"	"383.016"	"65.711"	"28.824"	"10.391"	"0"
"1911"	"6.028"	"0"	"3.661"	"0"	"0"	"222.253"	"88.749"	"143.973"	"84.097"	"0.276"	"15.083"	"1.11"
"1912"	"0"	"0"	"0"	"0.039"	"0.359"	"167.64"	"968.976"	"294.29"	"22.752"	"25.233"	"60.595"	"0"
"1913"	"0"	"0"	"0.014"	"0"	"0.556"	"600.229"	"401.035"	"187.185"	"231.943"	"0.358"	"0.197"	"1.901"
"1914"	"0"	"0.355"	"0"	"0.046"	"0.469"	"425.751"	"587.563"	"160.362"	"322.813"	"11.614"	"27.692"	"0"
"1915"	"0.464"	"0"	"3.785"	"0.575"	"0.656"	"236.215"	"198.789"	"67.908"	"149.524"	"90.061"	"1.385"	"0.832"
"1916"	"0"	"0"	"0"	"0.009"	"5.588"	"125.083"	"356.569"	"519.011"	"432.905"	"66.248"	"7.719"	"0"
"1917"	"0.018"	"0.013"	"0.483"	"2.145"	"43.164"	"246.2"	"214.982"	"315.428"	"392.211"	"98.12"	"1.108"	"0"
"1918"	"0"	"0.003"	"0.394"	"0"	"28.804"	"65.272"	"246.489"	"129.59"	"12.968"	"0.377"	"2.737"	"0"
"1919"	"3.117"	"0"	"0"	"0.346"	"1.297"	"243.342"	"433.813"	"257.687"	"196.572"	"127.162"	"10.218"	"0.011"
"1920"	"1.589"	"0.449"	"0.028"	"0.024"	"42.357"	"199.944"	"292.518"	"161.414"	"59.113"	"0.234"	"0.196"	"0"
"1921"	"0.374"	"0"	"0"	"0"	"0"	"63.81"	"651.183"	"209.646"	"383.271"	"5.854"	"0.196"	"0"
"1922"	"0.136"	"0"	"0"	"0"	"0.037"	"273.805"	"343.626"	"79.912"	"273.024"	"22.666"	"13.597"	"2.561"
"1923"	"0"	"0.628"	"1.408"	"0.051"	"1.823"	"3.708"	"321.495"	"107.275"	"181.376"	"0.696"	"0.22"	"0.599"
"1924"	"0.052"	"0"	"0.023"	"0.009"	"1.235"	"116.897"	"205.122"	"258.419"	"275.905"	"29.948"	"0.196"	"1.625"
"1925"	"0"	"0"	"0"	"0"	"17.145"	"523.558"	"173.953"	"95.052"	"41.795"	"0.234"	"16.292"	"2.638"
"1926"	"5.951"	"0"	"0.028"	"0.639"	"0.052"	"46.007"	"624.94"	"445.858"	"317.614"	"3.007"	"0.196"	"0.152"
"1927"	"0"	"0.013"	"0"	"0"	"6.038"	"304.38"	"547.619"	"104.567"	"129.58"	"16.277"	"41.224"	"0.619"
"1928"	"0"	"0"	"0.089"	"0"	"0.045"	"127.156"	"467.135"	"194.962"	"268.021"	"41.495"	"14.172"	"7.904"
"1929"	"0"	"0"	"0.056"	"0.394"	"0"	"259.118"	"631.248"	"118.669"	"55.3"	"37.83"	"0.196"	"7.598"
"1930"	"0"	"0.157"	"0"	"0.011"	"1.21"	"401.818"	"339.218"	"115.206"	"188.68"	"50.967"	"1.466"	"0.107"
"1931"	"0.005"	"0"	"0"	"0"	"0"	"86.559"	"615.856"	"334.654"	"83.866"	"235.187"	"17.876"	"2.846"
"1932"	"0"	"0"	"0.255"	"0.209"	"0.648"	"62.718"	"646.149"	"134.006"	"188.425"	"52.442"	"2.134"	"0.575"
"1933"	"0"	"0.222"	"0.188"	"0.013"	"26.553"	"242.518"	"217.352"	"468.807"	"282.405"	"23.848"	"0.399"	"1.422"
"1934"	"0.016"	"0"	"0"	"0.256"	"0"	"277.967"	"283.183"	"322.606"	"156.244"	"6.193"	"23.248"	"0.223"
"1935"	"1.108"	"0"	"0"	"0.377"	"0.102"	"217.805"	"287.392"	"158.73"	"177.449"	"20.498"	"0.755"	"0"
"1936"	"0"	"0.005"	"0.887"	"0.037"	"1.049"	"266.124"	"127.858"	"68.42"	"230.732"	"0.281"	"84.089"	"0"
"1937"	"0"	"0.135"	"0.882"	"0.009"	"0"	"220.098"	"522.788"	"55.011"	"275.789"	"17.781"	"0.196"	"2.884"
"1938"	"0"	"0"	"0.073"	"0"	"11.927"	"384.384"	"333.339"	"265.617"	"64.942"	"76.166"	"0.992"	"0.133"
"1939"	"0"	"0"	"1.075"	"0.012"	"0"	"54.311"	"512.809"	"497.826"	"97.805"	"2.561"	"8.38"	"0.069"
"1940"	"0.175"	"0.45"	"0.263"	"0.422"	"0.303"	"180.773"	"208.162"	"331.077"	"186.338"	"173.243"	"10.219"	"1.668"
"1941"	"0.374"	"0.003"	"0"	"0.308"	"0.134"	"117.412"	"727.767"	"98.227"	"48.687"	"7.037"	"0.196"	"0"
"1942"	"0.041"	"0.302"	"0"	"0"	"0.339"	"250.545"	"776.986"	"467.737"	"165.506"	"0.234"	"0.196"	"1.123"
"1943"	"0.037"	"0"	"0"	"0.048"	"40.958"	"168.804"	"503.563"	"41.949"	"197.746"	"185.857"	"0.199"	"0"
"1944"	"0.012"	"0"	"0.881"	"0.029"	"1.87"	"153.923"	"558.542"	"441.52"	"97.011"	"43.871"	"0.196"	"0"
"1945"	"4.813"	"0"	"0"	"0.004"	"0"	"167.449"	"657.43"	"293.122"	"496.65"	"6.678"	"0.764"	"0"
"1946"	"0"	"0.026"	"0"	"0.141"	"0.953"	"508.587"	"405.649"	"417.779"	"334.812"	"2.25"	"47.524"	"1.44"
"1947"	"0.056"	"0"	"0.095"	"1.791"	"0.508"	"33.807"	"561.476"	"390.066"	"528.479"	"22.995"	"0.196"	"2.616"
"1948"	"4.099"	"0"	"0.042"	"0.036"	"0.009"	"149.942"	"247.932"	"115.251"	"50.512"	"30.895"	"42.992"	"0.041"
"1949"	"0"	"0.003"	"0"	"0.009"	"6.231"	"51.756"	"388.576"	"246.456"	"307.625"	"26.794"	"0.367"	"0"
"1950"	"0"	"0"	"0.073"	"0"	"0.436"	"14.521"	"731.883"	"51.751"	"306.801"	"4.327"	"0.196"	"0.021"
"1951"	"0"	"0"	"0.036"	"0.221"	"0.085"	"85.071"	"386.888"	"128.904"	"17.929"	"22.57"	"8.06"	"0"
"1952"	"0"	"0"	"0"	"0.038"	"0.195"	"247.935"	"508.895"	"107.905"	"22.012"	"2.048"	"0.196"	"0"
"1953"	"4.949"	"0"	"0.054"	"0.009"	"0.608"	"157.917"	"294.117"	"386.804"	"145.697"	"6.605"	"0.196"	"0"
"1954"	"0.237"	"0.21"	"4.804"	"0.018"	"0"	"339.437"	"554.016"	"160.459"	"433.449"	"11.892"	"1.408"	"1.76"
"1955"	"0.161"	"0"	"0.099"	"0"	"0.009"	"177.428"	"189.459"	"366.325"	"317.962"	"75.273"	"0.196"	"0"
"1956"	"0.03"	"0"	"0"	"0.024"	"19.431"	"144.559"	"579.366"	"300.765"	"252.117"	"202.776"	"5.343"	"2.114"
"1957"	"0.013"	"0"	"0.042"	"0.009"	"5.136"	"244.154"	"372.332"	"252.112"	"38.25"	"1.716"	"3.048"	"0"
"1958"	"0.073"	"0"	"0.042"	"0.336"	"0.077"	"130.3"	"428.219"	"386.897"	"365.674"	"82.898"	"19.029"	"0.014"
"1959"	"0.05"	"0"	"0"	"0.079"	"1.36"	"236.339"	"736.2"	"286.197"	"250.023"	"177.696"	"3.317"	"0"
"1960"	"0.101"	"0"	"0.131"	"0.021"	"22.64"	"235.539"	"304.406"	"206.27"	"216.324"	"2.704"	"0.196"	"0.011"
"1961"	"0.007"	"0.533"	"0"	"0.031"	"12.919"	"134.918"	"305.745"	"338.099"	"222.241"	"40.597"	"0.8"	"0.032"
"1962"	"0.039"	"0"	"2.78"	"0.523"	"5.222"	"59.464"	"366.882"	"120.413"	"240.954"	"0.234"	"6.064"	"10.106"
"1963"	"2.129"	"0"	"0.042"	"0.043"	"0.174"	"121.327"	"423.859"	"394.73"	"176.571"	"18.289"	"27.871"	"0.844"
"1964"	"0"	"0"	"0.189"	"0"	"1.362"	"188.607"	"713.969"	"386.237"	"215.598"	"11.856"	"3.103"	"0"
"1965"	"2.994"	"0"	"0"	"0"	"0.035"	"26.79"	"641.374"	"342.234"	"11.845"	"0.312"	"5.737"	"2.563"
"1966"	"0.128"	"0"	"0"	"0"	"2.369"	"157.663"	"503.372"	"43.086"	"191.505"	"2.079"	"8.159"	"1.056"
"1967"	"0"	"0"	"0.793"	"0.068"	"0.009"	"238.053"	"602.463"	"261.24"	"93.671"	"3.226"	"0.196"	"8.01"
"1968"	"0"	"0.004"	"0.65"	"0.042"	"0"	"96.808"	"356.221"	"340.055"	"90.291"	"34.958"	"0.386"	"0"
"1969"	"0.039"	"0"	"0"	"0"	"0"	"171.183"	"323.519"	"167.162"	"374.382"	"0.65"	"3.224"	"0.095"
"1970"	"0"	"0.001"	"0.99"	"0.075"	"22.52"	"512.457"	"276.364"	"418.316"	"371.479"	"16.326"	"0.196"	"0"
"1971"	"0"	"0"	"0"	"0"	"26.279"	"233.999"	"223.827"	"392.872"	"258.59"	"16.787"	"0.196"	"0"
"1972"	"0"	"0"	"0"	"0.013"	"0.21"	"36.77"	"270.76"	"189.892"	"28.11"	"1.744"	"6.342"	"0"
"1973"	"0.043"	"0.351"	"0"	"0"	"0.702"	"128.472"	"419.015"	"325.082"	"404.535"	"10.741"	"0.196"	"0.656"
"1974"	"0"	"0"	"0"	"0.009"	"71.149"	"20.366"	"189.836"	"136.093"	"103.036"	"26.936"	"0.196"	"0.003"
"1975"	"0"	"0.005"	"0"	"0"	"0.091"	"166.249"	"234.813"	"437.884"	"353.391"	"156.65"	"0.196"	"0"
"1976"	"0.026"	"0"	"0.011"	"0"	"0.009"	"339.473"	"646.066"	"606.701"	"145.039"	"0.421"	"71.848"	"1.481"
"1977"	"0.18"	"0"	"1.697"	"0.203"	"0.705"	"214.358"	"392.461"	"200.38"	"103.871"	"2.075"	"21.333"	"0.18"
"1978"	"0.148"	"0.159"	"0.393"	"1.04"	"0.53"	"328.313"	"231.38"	"254.253"	"62.436"	"27.603"	"37.245"	"14.283"
"1979"	"0.229"	"0.853"	"0.024"	"0"	"1.085"	"136.071"	"247.126"	"416.913"	"99.748"	"18.87"	"145.531"	"0.074"
"1980"	"0"	"0.009"	"0"	"0"	"0.167"	"402.355"	"261.173"	"318.695"	"25.738"	"0.234"	"4.259"	"8.204"
"1981"	"0.067"	"0"	"0.058"	"0.009"	"0.49"	"223.784"	"545.367"	"320.669"	"246.187"	"76.358"	"10.54"	"0"
"1982"	"0.331"	"0"	"0"	"0.048"	"18.706"	"104.68"	"308.494"	"236.232"	"49.023"	"8.097"	"57.339"	"0"
"1983"	"0"	"0"	"0"	"0.054"	"0.045"	"345.42"	"572.504"	"480.658"	"195.856"	"60.838"	"0.196"	"0"
"1984"	"0"	"0"	"0"	"0"	"0"	"180.847"	"392.837"	"280.987"	"290.745"	"16.688"	"0.196"	"0.062"
"1985"	"0"	"0"	"0"	"0.733"	"0.789"	"80.765"	"343.136"	"270.002"	"65.163"	"102.762"	"37.579"	"0"
"1986"	"0"	"0.001"	"0"	"0"	"5.65"	"473.655"	"209.702"	"222.228"	"61.655"	"2.418"	"0.69"	"9.343"
"1987"	"3.259"	"0.175"	"0.46"	"0.012"	"10.763"	"115.916"	"137.461"	"370.995"	"17.648"	"33.628"	"5.585"	"18.88"
"1988"	"0"	"0"	"0"	"1.196"	"1.118"	"130.576"	"633.383"	"224.331"	"365.681"	"13.204"	"0.34"	"0"
"1989"	"0.158"	"0"	"3.34"	"0.216"	"2.816"	"281.45"	"348.84"	"272.745"	"144.787"	"3.332"	"0.196"	"0.091"
"1990"	"0"	"0.014"	"0"	"0"	"19.627"	"185.335"	"453.383"	"552.863"	"154.961"	"33.763"	"13.787"	"10.787"
"1991"	"0"	"0"	"0.28"	"0.258"	"2.622"	"309.168"	"546.283"	"148.038"	"84.585"	"0.343"	"5.56"	"0"
"1992"	"0"	"0"	"0"	"0.004"	"2.84"	"136.591"	"299.717"	"283.301"	"315.662"	"12.609"	"2.599"	"0"
"1993"	"0"	"0"	"0.46"	"0"	"3.845"	"168.728"	"585.5"	"131.322"	"138.156"	"50.711"	"8.114"	"0.401"
"1994"	"2.502"	"0"	"1.071"	"0.169"	"3.671"	"407.231"	"594.618"	"321.555"	"409.123"	"18.995"	"3.23"	"0"
"1995"	"0.766"	"0"	"1.666"	"0.494"	"3.541"	"75.46"	"462.424"	"113.541"	"200.621"	"19.031"	"2.256"	"1.57"
"1996"	"0.479"	"0.003"	"0.277"	"0.098"	"1.683"	"246.637"	"630.189"	"235.972"	"173.335"	"81.13"	"1.689"	"0"
"1997"	"2.435"	"0"	"0"	"0.931"	"6.264"	"329.068"	"379.427"	"442.757"	"89.561"	"9.9"	"10.878"	"6.035"
"1998"	"0.243"	"0.005"	"0.46"	"0.02"	"2.799"	"189.66"	"569.576"	"286.552"	"283.534"	"61.086"	"17.686"	"0"
"1999"	"0"	"0.069"	"0"	"0"	"3.902"	"365.552"	"326.201"	"72.753"	"170.465"	"61.484"	"0.196"	"0.236"
"2000"	"0"	"0"	"0"	"0"	"24.947"	"201.995"	"462.272"	"161.763"	"68.905"	"9.152"	"5.13"	"0.75"
"2001"	"0.062"	"0"	"0.319"	"0"	"15.596"	"353.117"	"298.942"	"171.183"	"71.119"	"55.329"	"7.84"	"0"
"2002"	"0"	"0.013"	"1.143"	"1.213"	"1.557"	"363.91"	"78.702"	"209.834"	"99.116"	"2.236"	"0.483"	"0"
