
"Year"	"Jan"	"Feb"	"Mar"	"Apr"	"May"	"Jun"	"Jul"	"Aug"	"Sep"	"Oct"	"Nov"	"Dec"
"1901"	"15.463"	"17.624"	"21.118"	"24.293"	"24.7"	"25.437"	"25.548"	"25.513"	"25.46"	"24.349"	"19.966"	"16.712"
"1902"	"16.009"	"17.399"	"21.928"	"22.44"	"24.795"	"24.761"	"25.648"	"25.412"	"25.36"	"23.052"	"19.342"	"16.171"
"1903"	"14.944"	"16.707"	"20.93"	"24.205"	"24.858"	"25.003"	"26.078"	"24.642"	"25.39"	"24.561"	"20.318"	"16.813"
"1904"	"15.255"	"17.59"	"21.808"	"22.973"	"24.254"	"25.403"	"25.414"	"25.213"	"25.561"	"23.803"	"19.689"	"15.913"
"1905"	"14.955"	"14.524"	"19.862"	"21.871"	"24.753"	"25.609"	"25.847"	"24.917"	"25.89"	"23.984"	"20.177"	"16.729"
"1906"	"15.621"	"16.999"	"20.093"	"23.455"	"25.269"	"25.356"	"26.178"	"24.547"	"26.36"	"23.648"	"20.253"	"16.847"
"1907"	"16.654"	"16.671"	"20.098"	"22.316"	"24.147"	"24.507"	"25.119"	"25.612"	"25.131"	"24.05"	"20.295"	"16.724"
"1908"	"15.708"	"17.136"	"21.793"	"24.85"	"24.334"	"25.091"	"25.248"	"25.459"	"25.531"	"23.748"	"19.819"	"16.693"
"1909"	"15.544"	"17.306"	"22.392"	"22.757"	"24.038"	"24.361"	"26.194"	"24.771"	"26.259"	"24.814"	"21.285"	"16.989"
"1910"	"15.509"	"16.971"	"20.669"	"22.39"	"24.6"	"24.307"	"24.683"	"25.071"	"25.701"	"23.547"	"20.384"	"15.92"
"1911"	"15.851"	"16.707"	"20.403"	"22.623"	"23.876"	"24.627"	"25.083"	"25.012"	"25.36"	"23.849"	"19.966"	"15.837"
"1912"	"15.609"	"17.666"	"20.975"	"21.982"	"24.457"	"24.884"	"25.253"	"24.982"	"25.06"	"23.383"	"20.354"	"16.612"
"1913"	"16.254"	"18.658"	"20.72"	"23.212"	"23.449"	"24.461"	"25.695"	"25.012"	"25.26"	"23.502"	"19.542"	"15.613"
"1914"	"15.421"	"17.153"	"21.071"	"22.17"	"23.976"	"24.826"	"25.69"	"24.417"	"25.33"	"22.507"	"19.996"	"16.878"
"1915"	"16.884"	"17.495"	"21.082"	"23.604"	"23.887"	"24.331"	"24.447"	"25.017"	"25.195"	"25.486"	"21.685"	"17.467"
"1916"	"15.509"	"17.59"	"21.745"	"22.703"	"24.516"	"25.078"	"25.03"	"25.143"	"25.502"	"23.735"	"20.749"	"16.095"
"1917"	"15.21"	"16.707"	"20.257"	"22.15"	"23.965"	"24.403"	"25.26"	"25.113"	"25.114"	"23.849"	"21.015"	"16.066"
"1918"	"15.479"	"16.999"	"21.094"	"22.757"	"24.772"	"23.401"	"25.436"	"24.813"	"25.46"	"23.664"	"19.755"	"16.684"
"1919"	"16.708"	"17.141"	"22.504"	"23.204"	"24.7"	"24.979"	"25.16"	"25.696"	"24.46"	"23.506"	"20.572"	"16.795"
"1920"	"16.708"	"16.888"	"20.562"	"22.562"	"24.105"	"24.607"	"26.031"	"24.947"	"25.472"	"23.748"	"20.313"	"17.173"
"1921"	"17.188"	"17.766"	"21.359"	"23.091"	"24.492"	"24.107"	"25.602"	"25.378"	"25.26"	"22.548"	"20.026"	"16.472"
"1922"	"16.778"	"17.96"	"21.916"	"23.98"	"24.988"	"24.583"	"25.82"	"25.454"	"25.402"	"23.631"	"20.756"	"16.912"
"1923"	"16.854"	"17.053"	"21.577"	"23.746"	"23.851"	"25.003"	"25.401"	"25.737"	"25.602"	"23.189"	"20.627"	"17.119"
"1924"	"16.144"	"17.206"	"23.091"	"23.992"	"23.803"	"25.102"	"25.731"	"25.378"	"25.002"	"24.708"	"20.926"	"16.443"
"1925"	"14.385"	"16.07"	"21.118"	"23.081"	"24.346"	"24.886"	"25.166"	"25.113"	"24.86"	"22.66"	"19.584"	"16.431"
"1926"	"15.932"	"17.141"	"20.475"	"22.649"	"24.4"	"24.361"	"25.401"	"25.572"	"25.184"	"23.933"	"19.626"	"17.567"
"1927"	"15.233"	"16.599"	"19.516"	"22.742"	"23.945"	"24.607"	"25.502"	"25.284"	"24.795"	"23.624"	"19.86"	"17.012"
"1928"	"16.597"	"18.484"	"21.658"	"24.013"	"23.958"	"24.502"	"25.643"	"25.378"	"25.46"	"23.353"	"19.201"	"17.354"
"1929"	"16.197"	"16.554"	"21.347"	"23.057"	"23.962"	"24.296"	"25.543"	"25.213"	"25.402"	"23.933"	"19.642"	"16.325"
"1930"	"14.263"	"17.707"	"20.917"	"23.003"	"24.642"	"23.948"	"25.713"	"25.213"	"26.03"	"23.136"	"20.542"	"16.67"
"1931"	"15.24"	"16.427"	"21.124"	"24.075"	"23.565"	"24.29"	"24.948"	"25.612"	"25.119"	"24.86"	"20.33"	"17.325"
"1932"	"16.242"	"17.004"	"22.016"	"23.823"	"24.821"	"24.427"	"25.378"	"25.295"	"25.694"	"24.553"	"20.766"	"17.036"
"1933"	"15.321"	"17.429"	"22.146"	"23.361"	"23.846"	"25.206"	"25.594"	"25.213"	"25.847"	"24.261"	"19.173"	"16.401"
"1934"	"16.021"	"17.071"	"21.882"	"23.816"	"23.794"	"23.83"	"25.203"	"24.92"	"25.484"	"24.207"	"19.226"	"16.559"
"1935"	"15.156"	"17.412"	"21.847"	"23.234"	"25.463"	"24.401"	"25.567"	"24.683"	"25.418"	"24.349"	"20.627"	"15.825"
"1936"	"14.467"	"16.599"	"21.871"	"23.628"	"24.565"	"25.395"	"25.572"	"25.471"	"25.502"	"23.618"	"20.773"	"17.06"
"1937"	"14.061"	"17.577"	"21.393"	"24.593"	"24.934"	"25.478"	"25.772"	"24.943"	"25.472"	"23.978"	"19.384"	"17.048"
"1938"	"16.367"	"16.814"	"23.07"	"24.517"	"24.401"	"24.979"	"25.207"	"25.248"	"25.373"	"24.349"	"19.067"	"17.06"
"1939"	"15.685"	"17.79"	"21.512"	"24.514"	"24.541"	"24.749"	"25.271"	"25.755"	"25.46"	"23.706"	"20.665"	"17.271"
"1940"	"14.95"	"17.106"	"19.738"	"24.416"	"24.246"	"25.061"	"25.272"	"25.743"	"24.96"	"24.149"	"20.434"	"17.454"
"1941"	"15.391"	"17.44"	"22.775"	"24.047"	"24.054"	"24.863"	"25.789"	"25.671"	"25.23"	"23.601"	"19.295"	"17.737"
"1942"	"15.814"	"18.084"	"21.904"	"23.665"	"24.101"	"24.86"	"25.989"	"25.389"	"24.914"	"24.49"	"20.53"	"16.325"
"1943"	"16.038"	"16.225"	"20.457"	"22.124"	"24.363"	"24.738"	"25.501"	"24.712"	"25.26"	"23.648"	"20.848"	"17.214"
"1944"	"15.044"	"16.484"	"21.312"	"22.541"	"24.787"	"24.537"	"25.712"	"25.39"	"24.596"	"23.783"	"19.696"	"17.208"
"1945"	"15.651"	"16.254"	"21.511"	"23.741"	"24.136"	"25.432"	"25.436"	"25.036"	"25.848"	"23.224"	"20.154"	"16.518"
"1946"	"16.174"	"19.248"	"21.794"	"23.066"	"24.342"	"24.85"	"25.318"	"25.789"	"25.549"	"23.502"	"20.939"	"17.571"
"1947"	"15.814"	"17.862"	"22.205"	"23.709"	"24.825"	"25.119"	"25.59"	"25.378"	"25.373"	"23.048"	"20.271"	"17.692"
"1948"	"16.296"	"17.229"	"20.75"	"23.028"	"23.191"	"25.024"	"25.149"	"25.559"	"25.602"	"23.418"	"21.039"	"16.484"
"1949"	"16.008"	"17.347"	"21.139"	"21.312"	"23.586"	"24.461"	"25.03"	"24.824"	"25.226"	"24.537"	"19.942"	"15.678"
"1950"	"15.685"	"16.953"	"20.993"	"23.157"	"24.758"	"24.637"	"25.401"	"24.713"	"25.566"	"23.907"	"20.095"	"17.059"
"1951"	"15.496"	"17.955"	"22.005"	"24.46"	"23.975"	"24.349"	"25.006"	"25.912"	"25.502"	"24.326"	"20.63"	"18.271"
"1952"	"16.397"	"19.129"	"20.623"	"23.9"	"24.323"	"25.814"	"25.748"	"25.724"	"25.072"	"24.719"	"20.884"	"17.485"
"1953"	"15.439"	"18.454"	"22.515"	"24.058"	"23.899"	"25.155"	"25.173"	"25.912"	"25.46"	"23.966"	"20.295"	"18.513"
"1954"	"14.81"	"19.141"	"21.682"	"24.12"	"24.693"	"24.161"	"24.906"	"24.929"	"25.76"	"23.359"	"19.459"	"17.236"
"1955"	"15.732"	"17.272"	"21.721"	"23.157"	"24.576"	"24.854"	"24.848"	"24.713"	"25.889"	"24.753"	"21.162"	"16.489"
"1956"	"15.597"	"17.713"	"21.686"	"24.024"	"24.164"	"24.313"	"25.701"	"25.412"	"25.39"	"24.394"	"20.518"	"17.035"
"1957"	"16.208"	"16.665"	"21.359"	"24.263"	"24.517"	"24.886"	"25.531"	"25.755"	"25.502"	"23.194"	"19.814"	"17.036"
"1958"	"15.718"	"17.141"	"21.554"	"24.512"	"24.093"	"26.531"	"26.232"	"24.659"	"25.978"	"24.125"	"20.113"	"17.012"
"1959"	"15.92"	"16.641"	"20.858"	"23.565"	"24"	"24.755"	"26.119"	"25.584"	"25.102"	"23.278"	"19.684"	"17.366"
"1960"	"15.791"	"18.1"	"20.854"	"24.834"	"25.975"	"25.468"	"25.131"	"26.166"	"25.301"	"24.208"	"20.196"	"17.137"
"1961"	"16.302"	"16.349"	"21.285"	"24.188"	"25.057"	"25.297"	"26.053"	"25.853"	"25.802"	"24.125"	"19.354"	"15.791"
"1962"	"14.449"	"16.761"	"21.442"	"24.436"	"24.914"	"24.549"	"26.048"	"24.749"	"25.847"	"23.636"	"19.796"	"16.778"
"1963"	"15.497"	"18.724"	"21.728"	"22.98"	"23.841"	"24.465"	"25.202"	"25.306"	"26.014"	"23.395"	"19.546"	"16.989"
"1964"	"15.343"	"17.487"	"21.625"	"22.458"	"24.022"	"24.066"	"24.494"	"25.471"	"25.776"	"24.708"	"20.977"	"16.67"
"1965"	"15.555"	"16.864"	"20.15"	"23.532"	"24.869"	"24.756"	"24.925"	"24.312"	"25.107"	"23.895"	"19.794"	"17.636"
"1966"	"16.296"	"18.766"	"22.235"	"24.174"	"25.2"	"23.76"	"25.701"	"24.783"	"25.26"	"23.06"	"21.451"	"16.867"
"1967"	"16.32"	"18.308"	"20.728"	"23.252"	"24.846"	"25.167"	"25.636"	"25.955"	"25.119"	"23.547"	"19.132"	"17.254"
"1968"	"15.72"	"16.73"	"21.557"	"23.292"	"23.757"	"24.633"	"25.524"	"25.579"	"25.149"	"23.971"	"20.265"	"16.637"
"1969"	"15.356"	"17.732"	"22.262"	"24.025"	"25.087"	"24.703"	"26.036"	"24.725"	"25.814"	"24.038"	"20.131"	"16.978"
"1970"	"14.921"	"17.306"	"21.417"	"24.003"	"24.658"	"25.26"	"25.114"	"25.412"	"24.818"	"23.571"	"20.295"	"16.882"
"1971"	"15.579"	"16.843"	"21.835"	"22.895"	"24.809"	"24.803"	"25.101"	"24.489"	"25.373"	"23.818"	"19.513"	"16.573"
"1972"	"16.198"	"16.736"	"21.317"	"22.832"	"25.028"	"25.203"	"25.806"	"25.454"	"25.543"	"24.162"	"20.625"	"17.036"
"1973"	"16.287"	"18.242"	"21.566"	"24.923"	"24.295"	"24.815"	"26.155"	"25.378"	"25.561"	"23.942"	"20.41"	"16.225"
"1974"	"15.421"	"17.403"	"21.205"	"22.686"	"24.242"	"24.802"	"24.048"	"25.331"	"24.814"	"24.69"	"21.451"	"15.792"
"1975"	"15.464"	"17.761"	"21.829"	"24.341"	"24.346"	"25.832"	"24.79"	"25.4"	"25.026"	"24.495"	"19.838"	"15.98"
"1976"	"15.79"	"18.266"	"21.651"	"23.569"	"24.288"	"23.543"	"24.99"	"24.89"	"25.39"	"23.406"	"21.055"	"16.501"
"1977"	"14.909"	"16.802"	"22.38"	"21.288"	"22.953"	"23.83"	"25.578"	"25.012"	"25.561"	"23.048"	"20.611"	"17.06"
"1978"	"14.676"	"18.024"	"21.005"	"23.521"	"24.15"	"25.003"	"25.39"	"26.312"	"25.048"	"24.807"	"20.581"	"17.14"
"1979"	"16.813"	"17.877"	"21.829"	"24.824"	"26.104"	"26.067"	"25.706"	"25.567"	"25.161"	"23.694"	"21.656"	"17.66"
"1980"	"15.779"	"17.542"	"21.317"	"24.375"	"23.818"	"25.644"	"26.148"	"25.547"	"25.648"	"23.401"	"20.78"	"17.948"
"1981"	"16.409"	"17.984"	"21.205"	"22.311"	"24.484"	"25.79"	"25.683"	"25.736"	"25.648"	"24.383"	"21.189"	"17.3"
"1982"	"16.896"	"17.677"	"21.371"	"22.616"	"25.499"	"24.802"	"25.561"	"25.743"	"25.406"	"24.183"	"20.042"	"16.837"
"1983"	"15.939"	"17.021"	"20.874"	"22.938"	"24"	"25.284"	"25.436"	"25.588"	"25.641"	"24.8"	"20.918"	"16.359"
"1984"	"14.822"	"17.171"	"22.067"	"23.678"	"23.387"	"25.066"	"25.207"	"25.701"	"24.66"	"24.211"	"20.035"	"17.397"
"1985"	"16.108"	"17.33"	"21.536"	"23.345"	"24.6"	"24.49"	"24.761"	"25.678"	"25.248"	"24.661"	"20.042"	"18.283"
"1986"	"16.096"	"18.859"	"22.644"	"22.569"	"24.818"	"25.702"	"25.331"	"25.625"	"24.872"	"23.018"	"20.094"	"17.236"
"1987"	"16.843"	"18.749"	"20.705"	"22.757"	"24.658"	"25.96"	"25.319"	"25.236"	"25.161"	"23.589"	"21.577"	"17.376"
"1988"	"16.625"	"18.707"	"21.171"	"24.809"	"24.112"	"25.385"	"25.648"	"24.713"	"25.09"	"24.349"	"21.443"	"18.913"
"1989"	"14.504"	"17.913"	"21.288"	"24.421"	"25.899"	"25.102"	"24.948"	"25.612"	"25.161"	"24.19"	"19.785"	"16.97"
"1990"	"16.146"	"17.901"	"19.611"	"21.159"	"24.8"	"25.003"	"25.39"	"26.066"	"25.131"	"23.872"	"22.142"	"17.755"
"1991"	"15.004"	"18.707"	"22.428"	"23.717"	"22.965"	"24.645"	"25.748"	"25.847"	"25.43"	"24.83"	"19.638"	"16.514"
"1992"	"15.767"	"15.361"	"22.65"	"24.622"	"24.058"	"25.719"	"24.492"	"25.8"	"25.848"	"23.648"	"20.542"	"15.567"
"1993"	"15.385"	"17.566"	"20.28"	"22.66"	"23.24"	"24.133"	"25.502"	"25.125"	"25.126"	"24.907"	"21.273"	"18.455"
"1994"	"16.819"	"17.248"	"21.779"	"23.087"	"25.083"	"25.174"	"25.901"	"26.008"	"26.558"	"23.147"	"21.16"	"17.129"
"1995"	"16.067"	"18.042"	"22.708"	"24.628"	"25.974"	"25.232"	"25.343"	"25.719"	"25.46"	"25.007"	"22.155"	"17.176"
"1996"	"15.92"	"18.337"	"21.358"	"25.162"	"24.457"	"25.074"	"25.448"	"25.239"	"26.056"	"24.249"	"21.443"	"18.871"
"1997"	"15.743"	"16.611"	"21.046"	"22.576"	"24.911"	"25.579"	"25.578"	"26.242"	"25.218"	"23.802"	"21.278"	"18.038"
"1998"	"15.908"	"18.02"	"20.246"	"24.123"	"26.093"	"25.564"	"26.224"	"25.558"	"26.547"	"25.579"	"22.326"	"18.336"
"1999"	"16.989"	"21.484"	"23.099"	"25.292"	"25.206"	"25.955"	"26.254"	"25.248"	"25.901"	"24.585"	"21.631"	"17.861"
"2000"	"15.221"	"18.126"	"20.527"	"23.292"	"24.684"	"25.331"	"26.612"	"25.224"	"25.014"	"24.257"	"20.518"	"17.501"
"2001"	"16.497"	"18.773"	"22"	"24.117"	"25.122"	"25.678"	"26.535"	"26.154"	"26.905"	"24.69"	"20.956"	"17.714"
"2002"	"16.774"	"19.213"	"22.388"	"23.758"	"24.7"	"25.068"	"26.247"	"25.654"	"25.532"	"24.279"	"21.18"	"17.871"
