
"Year"	"Jan"	"Feb"	"Mar"	"Apr"	"May"	"Jun"	"Jul"	"Aug"	"Sep"	"Oct"	"Nov"	"Dec"
"1901"	"58.153"	"19.756"	"17.646"	"3.708"	"42.536"	"43.793"	"384.73"	"426.414"	"116.063"	"2.126"	"0.002"	"12.175"
"1902"	"0.675"	"6.582"	"10.427"	"27.567"	"26.2"	"83.2"	"366.805"	"244.948"	"126.678"	"18.107"	"1.82"	"0.125"
"1903"	"35.443"	"10.517"	"27.369"	"6.154"	"15.628"	"47.816"	"285.707"	"243.321"	"70.609"	"51.808"	"0.001"	"2.634"
"1904"	"22.768"	"3.391"	"33.859"	"5.307"	"34.8"	"124.677"	"264.92"	"380.405"	"174.199"	"11.352"	"20.533"	"12.749"
"1905"	"107.382"	"59.699"	"15.086"	"11.607"	"22.854"	"43.057"	"185.274"	"246.56"	"124.152"	"1.903"	"0.004"	"14.849"
"1906"	"22.819"	"94.689"	"15.307"	"7.374"	"31.953"	"126.578"	"170.121"	"401.922"	"186.391"	"5.748"	"0.002"	"2.388"
"1907"	"19.523"	"48.583"	"60.721"	"35.284"	"19.403"	"112.388"	"299.503"	"232.358"	"13.848"	"1.684"	"0.002"	"0.007"
"1908"	"43.495"	"30.814"	"2.951"	"8.782"	"35.636"	"77.638"	"207.345"	"350.089"	"181.392"	"0.866"	"0.941"	"2.444"
"1909"	"44.648"	"16.578"	"2.318"	"41.101"	"10.12"	"268.123"	"495.328"	"310.153"	"146.003"	"4.19"	"1.874"	"40.233"
"1910"	"26.64"	"20.819"	"4.383"	"13.586"	"36.298"	"209.344"	"389.803"	"323.386"	"166.463"	"12.149"	"1.877"	"5.207"
"1911"	"77.68"	"3.49"	"76.52"	"13.855"	"3.497"	"113.079"	"127.996"	"290.984"	"224.253"	"8.643"	"39.332"	"1.286"
"1912"	"40.549"	"20.617"	"15.364"	"23.047"	"37.401"	"85.996"	"237.227"	"271.608"	"192.292"	"1.812"	"29.739"	"9.915"
"1913"	"15.748"	"48.48"	"35.448"	"14.11"	"55.657"	"241.215"	"187.764"	"221.46"	"38.489"	"3.697"	"9.151"	"24.276"
"1914"	"10.339"	"55.314"	"45.523"	"23.647"	"25.031"	"121.707"	"399.86"	"263.417"	"402.431"	"20.28"	"13.049"	"3.522"
"1915"	"10.652"	"75.528"	"32.543"	"15.199"	"23.345"	"108.213"	"190.726"	"580.068"	"107.927"	"22.408"	"0.004"	"6.599"
"1916"	"2.202"	"13.47"	"1.378"	"10.884"	"40.85"	"244.487"	"463.981"	"243.323"	"194.785"	"30.417"	"0.004"	"0.055"
"1917"	"11.764"	"32.492"	"32.827"	"35.226"	"73.323"	"240.398"	"295.651"	"378.751"	"286.886"	"55.64"	"0.004"	"12.292"
"1918"	"5.408"	"0.671"	"20.646"	"34.038"	"10.935"	"134.528"	"119.81"	"156.636"	"38.417"	"3.12"	"26.375"	"8.016"
"1919"	"87.767"	"16.739"	"19.186"	"33.41"	"29.29"	"92.355"	"278.837"	"222.162"	"139.372"	"16.285"	"2.882"	"4.722"
"1920"	"15.049"	"20.771"	"31.522"	"9.777"	"42.905"	"234.841"	"258.706"	"140.593"	"80.029"	"3.827"	"0.002"	"1.231"
"1921"	"50.102"	"3.987"	"4.279"	"4.23"	"17.351"	"79.783"	"262.482"	"397.198"	"149.242"	"50.352"	"0.002"	"8.143"
"1922"	"43.298"	"29.363"	"5.071"	"7.736"	"13.723"	"70.979"	"352.767"	"440.146"	"246.664"	"20.932"	"5.524"	"49.925"
"1923"	"20.112"	"68.11"	"2.556"	"4.363"	"23.469"	"36.148"	"345.424"	"281.004"	"185.295"	"55.7"	"21.981"	"21.821"
"1924"	"29.803"	"42.83"	"11.089"	"6.794"	"29.519"	"35.396"	"285.229"	"241.919"	"401.344"	"66.286"	"2.763"	"32.801"
"1925"	"26.7"	"2.732"	"5.816"	"11.091"	"34.177"	"271.009"	"399.771"	"405.408"	"73.145"	"5.321"	"17.122"	"0.007"
"1926"	"15.533"	"10.698"	"53.795"	"29.216"	"28.851"	"37.062"	"337.659"	"332.307"	"89.964"	"6.459"	"12.943"	"7.004"
"1927"	"2.993"	"44.062"	"13.076"	"10.512"	"58.728"	"59.147"	"146.185"	"507.15"	"92.895"	"91.489"	"0.699"	"7.633"
"1928"	"49.859"	"73.478"	"14.432"	"25.5"	"5.184"	"69.601"	"293.741"	"169.427"	"134.764"	"1.08"	"16.021"	"26.632"
"1929"	"70.168"	"3.007"	"9.98"	"17.651"	"13.908"	"161.49"	"221.309"	"355.751"	"43.776"	"34.734"	"0.002"	"51.648"
"1930"	"35.546"	"18.681"	"11.008"	"15.169"	"15.153"	"91.348"	"325.542"	"261.566"	"55.002"	"28.166"	"15.528"	"17.687"
"1931"	"14.773"	"53.65"	"18.367"	"9.627"	"28.99"	"41.142"	"402.942"	"236.029"	"313.019"	"84.518"	"1.877"	"0.009"
"1932"	"5.808"	"8.665"	"19.909"	"6.735"	"17.291"	"97.984"	"167.123"	"246.555"	"239.931"	"6.743"	"0.941"	"20.168"
"1933"	"26.318"	"43.707"	"12.091"	"21.344"	"45.968"	"145.794"	"345.074"	"383.214"	"179.303"	"92.716"	"2.579"	"0.986"
"1934"	"30.3"	"6.328"	"16.902"	"2.088"	"15.974"	"94.901"	"289.738"	"490.103"	"64.92"	"0.21"	"0.002"	"25.144"
"1935"	"64.102"	"26.983"	"12.075"	"25.523"	"11.832"	"12.22"	"268.311"	"188.226"	"113.602"	"1.772"	"15.669"	"18.704"
"1936"	"6.927"	"37.384"	"33.756"	"24.083"	"35.553"	"426.201"	"692.643"	"377.242"	"154.531"	"15.882"	"4.592"	"50.975"
"1937"	"7.172"	"79.969"	"4.532"	"31.924"	"31.011"	"114.705"	"397.347"	"172.691"	"169.884"	"23.029"	"1.179"	"20.984"
"1938"	"65.196"	"32.771"	"2.1"	"3.993"	"5.432"	"252.103"	"314.937"	"322.246"	"50.006"	"13.12"	"1.972"	"1.282"
"1939"	"21.713"	"36.655"	"22.035"	"18.823"	"10.365"	"136.411"	"225.891"	"162.39"	"66.439"	"26.805"	"0.073"	"0.1"
"1940"	"33.935"	"69.736"	"30.528"	"17.184"	"22.425"	"110.815"	"232.846"	"279.392"	"76.743"	"4.662"	"0.525"	"13.829"
"1941"	"30.372"	"20.315"	"6.688"	"5.817"	"41.945"	"89.331"	"129.118"	"184.301"	"191.843"	"6.293"	"2.542"	"17.312"
"1942"	"59.297"	"50.889"	"6.971"	"25.094"	"29.438"	"126.319"	"511.346"	"224.017"	"128.523"	"2.469"	"0.782"	"31.069"
"1943"	"29.92"	"6.247"	"14.503"	"34.258"	"5.807"	"155.785"	"136.924"	"392.015"	"102.987"	"0.201"	"0"	"0.001"
"1944"	"41.195"	"30.705"	"21.283"	"15.908"	"3.405"	"169.75"	"206.051"	"185.093"	"111.718"	"4.134"	"2.864"	"3.468"
"1945"	"32.517"	"1.459"	"18.51"	"29.817"	"12.964"	"86.442"	"448.376"	"187.482"	"326.81"	"58.198"	"0"	"2.168"
"1946"	"2.267"	"24.194"	"7.451"	"30.365"	"51.74"	"111.466"	"312.458"	"161.668"	"52.776"	"28.21"	"17.069"	"15.849"
"1947"	"23.763"	"33.379"	"33.643"	"2.598"	"18.047"	"58.295"	"263.17"	"360.866"	"172.947"	"11.124"	"1.873"	"9.674"
"1948"	"3.808"	"39.129"	"53.939"	"6.467"	"17.862"	"82.748"	"301.919"	"493.43"	"110.377"	"22.873"	"0.369"	"6.108"
"1949"	"7.4"	"54.196"	"11.56"	"24.209"	"29.095"	"74.549"	"434.998"	"252.363"	"195.045"	"30.81"	"1.08"	"2.607"
"1950"	"67.575"	"28.239"	"36.246"	"4.476"	"28.362"	"186.416"	"394.559"	"287.435"	"213.657"	"1.487"	"1.576"	"1.82"
"1951"	"27.604"	"31.362"	"26.333"	"14.51"	"28.702"	"109.446"	"142.146"	"284.616"	"146.726"	"17.084"	"32.244"	"1.047"
"1952"	"22.717"	"28.485"	"33.001"	"12.628"	"42.409"	"121.27"	"168.436"	"296.718"	"28.714"	"1.264"	"13.834"	"6.484"
"1953"	"59.488"	"9.774"	"12.257"	"14.106"	"6.389"	"103.476"	"528.706"	"266.768"	"122.919"	"9.942"	"1.081"	"6.349"
"1954"	"47.262"	"86.225"	"10.872"	"1.669"	"13.892"	"69.652"	"350.283"	"232.762"	"259.201"	"40.485"	"0"	"2.752"
"1955"	"41.794"	"3.768"	"26.972"	"23.121"	"20.272"	"96.592"	"296.78"	"308.725"	"186.24"	"84.176"	"0"	"1.751"
"1956"	"21.679"	"16.007"	"25.458"	"11.706"	"62.406"	"131.087"	"273.827"	"225.989"	"64.445"	"82.443"	"0"	"10.23"
"1957"	"81.555"	"5.365"	"29.13"	"28.749"	"20.402"	"92.519"	"215.998"	"345.095"	"213.316"	"28.525"	"9.843"	"43.913"
"1958"	"22.126"	"12.193"	"16.929"	"15.175"	"9.457"	"91.867"	"240.504"	"392.755"	"200.424"	"85.802"	"3.673"	"29.77"
"1959"	"31.482"	"21.931"	"19.514"	"13.577"	"63.365"	"41.292"	"509.497"	"204.308"	"90.373"	"42.51"	"23.463"	"0.786"
"1960"	"32.209"	"2.355"	"26.129"	"13.899"	"17.181"	"90.328"	"309.825"	"275.148"	"125.749"	"73.085"	"0.004"	"4.511"
"1961"	"90.451"	"53.219"	"7.296"	"14.585"	"19.391"	"79.519"	"376.87"	"307.497"	"141.987"	"62.695"	"1.364"	"25.839"
"1962"	"54.567"	"25.754"	"28.893"	"6.514"	"20.947"	"90.432"	"251.646"	"236.518"	"266.792"	"0.798"	"9.527"	"17.69"
"1963"	"10.537"	"26.589"	"66.111"	"16.748"	"37.371"	"82.213"	"195.037"	"271.847"	"211.817"	"8.879"	"13.193"	"16.095"
"1964"	"21.881"	"8.252"	"18.695"	"8.414"	"40.438"	"67.413"	"459.107"	"180.066"	"159.725"	"0.201"	"0.956"	"14.532"
"1965"	"13.073"	"45.179"	"26.052"	"30.638"	"19.199"	"24.05"	"233.505"	"250.632"	"27.921"	"32.667"	"3.941"	"0.001"
"1966"	"8.382"	"46.448"	"22.049"	"12.682"	"31.871"	"151.686"	"290.713"	"388.291"	"157.57"	"32.076"	"17.316"	"3.468"
"1967"	"1.036"	"18.685"	"58.579"	"6.48"	"3.935"	"54.192"	"234.297"	"462.716"	"67.83"	"6.002"	"3.359"	"38.056"
"1968"	"60.784"	"37.562"	"14.288"	"10.674"	"5.511"	"105.95"	"246.889"	"234.427"	"52.322"	"18.461"	"0"	"6.561"
"1969"	"24.337"	"13.373"	"23.325"	"45.255"	"37.834"	"48.721"	"299.385"	"331.165"	"363.837"	"7.14"	"1.375"	"0.001"
"1970"	"37.601"	"17.109"	"8.366"	"0.782"	"44.828"	"116.003"	"153.813"	"301.193"	"81.896"	"25.004"	"0"	"0.113"
"1971"	"18.153"	"23.486"	"14.533"	"20.804"	"88.573"	"169.518"	"366.256"	"356.495"	"178.92"	"78.838"	"12.499"	"0.256"
"1972"	"15.171"	"31.533"	"8.468"	"17.572"	"8.819"	"57.36"	"283.577"	"231.426"	"332.092"	"44.533"	"9.879"	"5.131"
"1973"	"29.027"	"20.124"	"20.901"	"0.557"	"26.139"	"214.133"	"205.557"	"384.589"	"111.811"	"55.646"	"0"	"6.327"
"1974"	"18.822"	"19.095"	"5.147"	"2.101"	"32.082"	"83.011"	"255.971"	"165.172"	"47.097"	"7.184"	"0"	"20.377"
"1975"	"62.717"	"29.677"	"30.735"	"1.526"	"5.646"	"133.9"	"362.967"	"300.77"	"261.456"	"16.433"	"0"	"0.001"
"1976"	"8.316"	"52.96"	"12.85"	"20.572"	"20.053"	"230.472"	"236.775"	"614.561"	"106.913"	"15.246"	"0"	"0.611"
"1977"	"43.54"	"4.347"	"1.853"	"43.667"	"71.312"	"227.98"	"321.642"	"194.769"	"111.662"	"25.976"	"0.289"	"15.397"
"1978"	"6.741"	"12.1"	"59.018"	"13.436"	"3.497"	"137.852"	"316.029"	"439.675"	"246.161"	"5.137"	"10.194"	"6.064"
"1979"	"22.932"	"52.347"	"32.064"	"10.622"	"44.374"	"65.015"	"240.609"	"146.707"	"91.321"	"8.716"	"18.358"	"5.541"
"1980"	"11.803"	"28.144"	"36.315"	"6.132"	"17.042"	"184.671"	"622.496"	"409.95"	"228.028"	"24.62"	"4.211"	"8.169"
"1981"	"64.432"	"19.004"	"52.419"	"9.734"	"28.728"	"68.003"	"482.927"	"146.712"	"52.019"	"7.278"	"36.868"	"1.886"
"1982"	"31.673"	"9.726"	"84.311"	"28.134"	"51.452"	"29.682"	"150.041"	"370.129"	"40.107"	"8.547"	"9.58"	"19.287"
"1983"	"64.346"	"18.725"	"40.359"	"63.239"	"61.693"	"174.957"	"285.658"	"222.504"	"251.914"	"38.562"	"0"	"7.626"
"1984"	"8.454"	"91.048"	"7.614"	"21.769"	"0.879"	"114.84"	"371.292"	"253.899"	"140.32"	"1.212"	"0"	"14.105"
"1985"	"30.578"	"1.771"	"6.767"	"28.242"	"33.937"	"152.068"	"452.993"	"302.483"	"149.236"	"65.07"	"0.598"	"36.396"
"1986"	"4.284"	"34.519"	"18.564"	"22.328"	"59.8"	"90.031"	"419.457"	"226.69"	"195.633"	"21.845"	"8.904"	"55.644"
"1987"	"35.21"	"31.219"	"11.582"	"12.754"	"53.621"	"28.099"	"59.771"	"214.638"	"42.9"	"6.725"	"0"	"15.508"
"1988"	"8.619"	"28.049"	"34.892"	"21.083"	"14.748"	"118.202"	"477.779"	"337.25"	"134.375"	"8.323"	"0.671"	"24.407"
"1989"	"68.278"	"12.142"	"19.565"	"2.343"	"19.273"	"107.707"	"313.285"	"212.415"	"91.584"	"5.007"	"6.148"	"8.383"
"1990"	"3.165"	"74.02"	"49.205"	"11.201"	"73.99"	"75.284"	"364.32"	"341.221"	"173.533"	"12.123"	"14.412"	"44.042"
"1991"	"3.287"	"26.613"	"20.41"	"34.288"	"47.379"	"97.391"	"69.534"	"318.526"	"88.362"	"1.117"	"9.408"	"9.003"
"1992"	"32.913"	"60.924"	"20.908"	"9.041"	"36.05"	"80.467"	"225.165"	"260.435"	"85.033"	"12.252"	"38.797"	"0.269"
"1993"	"19.925"	"23.173"	"16.15"	"10.128"	"31.584"	"250.497"	"266.93"	"96.001"	"227.93"	"0.201"	"0"	"0.001"
"1994"	"15.105"	"8.465"	"21.774"	"10.19"	"53.7"	"60.308"	"322.529"	"311.532"	"96.683"	"2.081"	"0"	"3.25"
"1995"	"47.334"	"74.797"	"53.888"	"12.133"	"3.102"	"107.504"	"253.519"	"442.153"	"195.637"	"2.846"	"24.55"	"0.755"
"1996"	"59.637"	"49.169"	"21.249"	"16.133"	"41.158"	"212.536"	"234.826"	"393.387"	"244.313"	"26.169"	"0"	"2.274"
"1997"	"21.976"	"9.329"	"15.82"	"22.465"	"37.107"	"207.387"	"151.29"	"213.777"	"76.163"	"27.013"	"18.053"	"8.32"
"1998"	"12.754"	"36.052"	"47.375"	"34.951"	"16.043"	"17.934"	"291.182"	"350.338"	"111.161"	"42.91"	"6.389"	"2.271"
"1999"	"18.318"	"13.683"	"3.202"	"7.804"	"28.654"	"116.091"	"137.628"	"167.319"	"140.467"	"21.042"	"1.652"	"8.518"
"2000"	"17.052"	"55.598"	"12.87"	"5.741"	"39.398"	"190.614"	"190.605"	"245.862"	"82.988"	"0.201"	"0.714"	"0.629"
"2001"	"10.236"	"13.947"	"6.43"	"26.13"	"63.74"	"90.531"	"238.305"	"102.023"	"59.62"	"3.937"	"1.392"	"4.8"
"2002"	"34.938"	"53.92"	"50.195"	"14.068"	"7.148"	"64.419"	"142.22"	"190.204"	"259.261"	"3.517"	"0.393"	"0.931"
