
"Year"	"Jan"	"Feb"	"Mar"	"Apr"	"May"	"Jun"	"Jul"	"Aug"	"Sep"	"Oct"	"Nov"	"Dec"
"1901"	"23.127"	"14.514"	"51.158"	"236.632"	"236.563"	"569.608"	"386.931"	"346.444"	"275.628"	"253.358"	"193.745"	"3.782"
"1902"	"4.666"	"16.43"	"34.41"	"234.101"	"231.954"	"639.575"	"599.722"	"448.221"	"320.646"	"81.02"	"21.794"	"2.583"
"1903"	"9.178"	"23.244"	"71.15"	"169.152"	"207.067"	"679.892"	"385.088"	"547.484"	"167.945"	"136.56"	"121.018"	"3.453"
"1904"	"12.245"	"72.848"	"74.507"	"448.22"	"291.342"	"364.083"	"389.765"	"425.355"	"187.704"	"103.601"	"76.017"	"2.699"
"1905"	"12.146"	"17.854"	"388.713"	"135.92"	"305.589"	"491.327"	"453.634"	"631.354"	"273.01"	"327.999"	"46.777"	"16.415"
"1906"	"10.587"	"81.034"	"66.844"	"271.837"	"169.392"	"415.584"	"613.39"	"571.605"	"232.17"	"140.568"	"58.281"	"0"
"1907"	"16.735"	"73.804"	"124.828"	"196.183"	"125.527"	"537.781"	"538.153"	"328.455"	"234.314"	"78.126"	"14.411"	"7.728"
"1908"	"10.921"	"23.251"	"20.493"	"208.14"	"274.946"	"590.125"	"538.8"	"237.382"	"329.731"	"124.969"	"16.71"	"3.828"
"1909"	"18.04"	"15.035"	"6.498"	"161.446"	"365.154"	"623.479"	"349.951"	"440.391"	"144.53"	"146.287"	"44.299"	"5.168"
"1910"	"8.679"	"39.77"	"137.682"	"180.462"	"280.034"	"741.669"	"623.06"	"449.565"	"187.159"	"213.906"	"55.231"	"5.731"
"1911"	"29.084"	"25.21"	"68.428"	"242.342"	"490.594"	"762.091"	"444.334"	"411.812"	"348.006"	"418.426"	"25.671"	"2.322"
"1912"	"6.57"	"64.624"	"61.294"	"160.081"	"167.917"	"469.338"	"395.649"	"367.332"	"257.664"	"320.672"	"140.324"	"19.123"
"1913"	"6.626"	"70.303"	"69.016"	"257.676"	"299.214"	"477.416"	"356.162"	"350.333"	"216.835"	"267.307"	"26.454"	"16.219"
"1914"	"1.889"	"58.682"	"59.597"	"107.521"	"298.219"	"592.092"	"383.782"	"566.205"	"143.689"	"81.157"	"14.512"	"15.874"
"1915"	"6.26"	"49.344"	"79.042"	"146.101"	"679.026"	"399.759"	"593.384"	"483.814"	"187.494"	"162.157"	"28.448"	"4.383"
"1916"	"8.654"	"17.371"	"83.388"	"228.19"	"464.858"	"455.442"	"400.691"	"426.858"	"260.015"	"414.042"	"158.073"	"6.412"
"1917"	"1.603"	"84.912"	"30.311"	"114.858"	"279.494"	"551.877"	"419.259"	"343.66"	"203.567"	"232.486"	"181.008"	"4.583"
"1918"	"2.779"	"7.637"	"105.242"	"101.065"	"334.704"	"768.343"	"550.955"	"522.126"	"311.781"	"109.151"	"4.413"	"1.245"
"1919"	"9.89"	"6.552"	"6.886"	"86.461"	"258.249"	"508.849"	"482.713"	"254.171"	"331.358"	"341.402"	"86.349"	"2.842"
"1920"	"1.28"	"33.044"	"169.29"	"110.35"	"338.307"	"427.254"	"285.272"	"520.433"	"338.718"	"107.211"	"5.944"	"1.154"
"1921"	"24.739"	"8.611"	"83.927"	"159.552"	"512.437"	"576.53"	"600.143"	"416.87"	"294.534"	"139.253"	"15.083"	"0.396"
"1922"	"6.361"	"1.554"	"54.212"	"265.416"	"156.038"	"631.234"	"444.301"	"359.09"	"170.162"	"349.315"	"26.606"	"10.217"
"1923"	"2.629"	"80.912"	"8.103"	"214.743"	"336.868"	"729.862"	"368.111"	"263.649"	"183.418"	"102.697"	"9.558"	"2.431"
"1924"	"5.635"	"14.813"	"22.586"	"222.598"	"185.169"	"628.243"	"616.381"	"480.977"	"319.471"	"148.951"	"202.599"	"0.33"
"1925"	"20.979"	"31.773"	"60.053"	"234.901"	"430.009"	"313.719"	"437.109"	"343.687"	"262.466"	"120.843"	"15.035"	"3.983"
"1926"	"18.361"	"24.377"	"95.685"	"90.713"	"128.651"	"677.314"	"535.597"	"298.862"	"211.111"	"281.103"	"27.736"	"19.418"
"1927"	"26.383"	"50.69"	"72.989"	"257.752"	"253.221"	"585.092"	"437.406"	"279.88"	"541.573"	"361.427"	"36.352"	"0"
"1928"	"3.691"	"28.582"	"62.392"	"70.225"	"301.222"	"513.724"	"565.373"	"315.562"	"287.463"	"368.584"	"17.659"	"0"
"1929"	"12.333"	"3.382"	"35.401"	"274.194"	"634.657"	"606.932"	"404.974"	"303.224"	"272.21"	"104.473"	"37.816"	"7.514"
"1930"	"14.061"	"24.749"	"57.371"	"157.673"	"236.091"	"739.012"	"228.435"	"463.066"	"298.722"	"226.983"	"204.123"	"2.816"
"1931"	"2.424"	"27.94"	"34.505"	"308.718"	"268.255"	"734.698"	"613.468"	"214.047"	"197.586"	"93.727"	"18.561"	"11.991"
"1932"	"4.846"	"27.084"	"34.91"	"102.36"	"582.807"	"554.872"	"466.56"	"580.619"	"236.109"	"79.406"	"166.448"	"3.081"
"1933"	"2.458"	"22.107"	"23.875"	"152.516"	"312.095"	"481.233"	"439.676"	"403.872"	"178.682"	"75.9"	"7.641"	"0.458"
"1934"	"16.715"	"66.054"	"17.254"	"237.156"	"251.852"	"898.714"	"617.822"	"337.706"	"245.727"	"390.35"	"53.551"	"4.425"
"1935"	"1.155"	"48.001"	"41.302"	"74.619"	"280.727"	"682.156"	"326.171"	"686.528"	"287.738"	"74.646"	"15.398"	"4.109"
"1936"	"11.789"	"49.845"	"36.903"	"142.668"	"360.976"	"432.887"	"487.937"	"296.074"	"291.317"	"271.79"	"5.233"	"14.101"
"1937"	"0.195"	"29.368"	"30.167"	"67.172"	"366.767"	"466.016"	"510.047"	"468.164"	"180.802"	"75.975"	"5.392"	"7.788"
"1938"	"28.058"	"15.151"	"76.331"	"145.22"	"383.37"	"788.315"	"540.164"	"531.31"	"471.295"	"179.312"	"91.412"	"1.513"
"1939"	"1.705"	"35.265"	"20.894"	"154.183"	"303.741"	"684.299"	"532.405"	"292.164"	"341.848"	"183.011"	"19.888"	"2.986"
"1940"	"0.688"	"75.326"	"261.924"	"35.022"	"392.851"	"518.983"	"424.609"	"309.117"	"395.916"	"133.055"	"11.605"	"12.808"
"1941"	"3.49"	"42.283"	"86.88"	"129.047"	"391.911"	"596.43"	"375.171"	"334.522"	"372.263"	"180.955"	"7.755"	"4.417"
"1942"	"15.163"	"20.474"	"157.312"	"155.801"	"429.901"	"872.473"	"288.059"	"396.808"	"341.303"	"28.27"	"25.86"	"0.3"
"1943"	"14.473"	"59.969"	"108.613"	"123.567"	"377.473"	"532.756"	"399.432"	"419.685"	"362.329"	"72.839"	"20.735"	"1.95"
"1944"	"30.69"	"15.272"	"47.734"	"72.43"	"572.375"	"544.047"	"359.591"	"322.177"	"332.662"	"180.084"	"23.378"	"15.089"
"1945"	"24.069"	"34.037"	"101.547"	"107.609"	"262.586"	"625.549"	"518.665"	"464.583"	"207.944"	"196.756"	"0.5"	"6.471"
"1946"	"2.998"	"40.715"	"84.864"	"136.437"	"263.166"	"547.761"	"493.204"	"366.879"	"252.408"	"423.109"	"10.776"	"0.133"
"1947"	"9.211"	"15.615"	"55.112"	"301.893"	"327.765"	"600.279"	"561.655"	"451.528"	"577.747"	"453.731"	"10.368"	"40.233"
"1948"	"7.462"	"81.987"	"54.777"	"320.73"	"527.235"	"445.198"	"501.542"	"386.065"	"231.203"	"191.82"	"32.503"	"4.278"
"1949"	"42.844"	"22.55"	"117.782"	"272.116"	"246.526"	"618.921"	"476.101"	"358.291"	"452.173"	"198.328"	"40.216"	"8.033"
"1950"	"5.481"	"63.966"	"64.551"	"112.238"	"185.176"	"564.833"	"417.86"	"424.721"	"286.725"	"267.082"	"89.985"	"5.392"
"1951"	"1.328"	"1.493"	"85.608"	"246.733"	"275.355"	"820.42"	"812.664"	"506.37"	"365.123"	"378.198"	"65.757"	"17.355"
"1952"	"14.184"	"5.387"	"71.41"	"445.309"	"242.993"	"922.819"	"706.066"	"436.733"	"517.89"	"411.238"	"114.964"	"0.619"
"1953"	"7.81"	"6.368"	"101.998"	"60.081"	"385.217"	"720.505"	"717.955"	"375.461"	"478.044"	"196.743"	"10.835"	"2.129"
"1954"	"10.708"	"68.198"	"113.72"	"146.325"	"320.365"	"1052.276"	"496.763"	"415.508"	"284.935"	"275.508"	"1.615"	"6.198"
"1955"	"2.64"	"5.518"	"192.392"	"93.305"	"266.394"	"414.375"	"772.374"	"392.141"	"247.71"	"119.325"	"144.684"	"4.318"
"1956"	"19.565"	"4.275"	"158.679"	"136.726"	"413.546"	"847.595"	"473.013"	"382.797"	"351.803"	"172.875"	"45.223"	"1.609"
"1957"	"35.772"	"80.439"	"21.912"	"106.47"	"326.114"	"546.376"	"502.593"	"616.383"	"352.013"	"77.15"	"9.577"	"5.035"
"1958"	"6.927"	"93.383"	"68.967"	"166.134"	"423.109"	"352.997"	"402.077"	"713.545"	"242.477"	"252.14"	"4.712"	"3.461"
"1959"	"32.592"	"101.965"	"282.468"	"148.23"	"433.088"	"747.155"	"501.626"	"509.589"	"246.659"	"336.198"	"7.017"	"3.21"
"1960"	"0.403"	"6.323"	"59.848"	"49.461"	"264.228"	"454.714"	"711.194"	"328.604"	"381.199"	"156.963"	"61.181"	"2.437"
"1961"	"5.714"	"27.25"	"97.905"	"146.284"	"199.815"	"660.378"	"456.303"	"536.386"	"163.859"	"192.38"	"17.721"	"5.455"
"1962"	"13.217"	"49.624"	"7.665"	"154.387"	"211.654"	"647.887"	"431.714"	"350.943"	"139.747"	"232.479"	"5.748"	"1.952"
"1963"	"0.558"	"11.488"	"95.084"	"194.739"	"262.081"	"607.658"	"439.203"	"382.225"	"206.374"	"189.9"	"11.427"	"2.03"
"1964"	"28.929"	"45.277"	"95.924"	"257.458"	"279.511"	"624.115"	"850.009"	"410.571"	"393.169"	"417.331"	"25.146"	"6.697"
"1965"	"1.568"	"25.811"	"45.789"	"57.658"	"119.698"	"805.343"	"592.197"	"657.466"	"254.593"	"137.143"	"105.295"	"51.833"
"1966"	"18.82"	"2.994"	"59.693"	"77.341"	"162.3"	"877.691"	"460.247"	"438.342"	"416.583"	"274.16"	"33.653"	"63.958"
"1967"	"47.032"	"3.975"	"152.527"	"194.333"	"171.78"	"338.063"	"423.433"	"333.444"	"409.63"	"169.525"	"5.134"	"1.197"
"1968"	"20.054"	"19.239"	"91.408"	"202.957"	"336.683"	"492.028"	"685.842"	"511.599"	"226.444"	"74.243"	"22.146"	"0.462"
"1969"	"6.519"	"0.516"	"109.557"	"244.929"	"280.169"	"849.601"	"595.065"	"525.385"	"282.667"	"81.173"	"29.959"	"0.914"
"1970"	"31.804"	"21.529"	"129.354"	"178.323"	"375.882"	"266.847"	"602.393"	"285.305"	"114.003"	"280.215"	"90.697"	"5.204"
"1971"	"12.424"	"18.19"	"11.156"	"91.105"	"143.928"	"306.371"	"433.93"	"343.442"	"219.085"	"215.339"	"66.072"	"7.056"
"1972"	"4.413"	"36.437"	"55.09"	"192.801"	"237.122"	"478.033"	"353.457"	"358.102"	"99.049"	"67.959"	"12.833"	"2.624"
"1973"	"16.256"	"42.277"	"85.047"	"141.569"	"399.367"	"709.438"	"421.753"	"227.12"	"227.145"	"196.224"	"199.698"	"4.053"
"1974"	"7.302"	"2.681"	"178.854"	"300.008"	"248.127"	"627.239"	"872.203"	"415.502"	"424.15"	"183.351"	"72.123"	"1.091"
"1975"	"3.006"	"60.537"	"30.231"	"125.96"	"264.059"	"335.374"	"588.857"	"261.093"	"287.664"	"183.837"	"142.047"	"2.314"
"1976"	"4.951"	"33.651"	"108.782"	"133.312"	"210.352"	"664.631"	"636.005"	"387.919"	"78.33"	"99.75"	"37.781"	"1.271"
"1977"	"7.379"	"103.491"	"38.694"	"448.563"	"304.517"	"574.384"	"526.473"	"270.831"	"207.727"	"140.753"	"38.852"	"19.459"
"1978"	"0.23"	"1.793"	"19.71"	"110.403"	"394.595"	"561.732"	"391.849"	"237.658"	"275.966"	"74.292"	"5.28"	"0.967"
"1979"	"9.609"	"11.989"	"82.928"	"43.755"	"136.462"	"317.392"	"297.197"	"449.322"	"354.551"	"207.83"	"30.934"	"39.759"
"1980"	"2.944"	"29.416"	"125.83"	"144.21"	"340.277"	"363.034"	"502.197"	"424.555"	"281.114"	"232.198"	"0.5"	"4.366"
"1981"	"23.723"	"24.897"	"183.932"	"416.432"	"404.24"	"542.207"	"563.609"	"315.604"	"188.48"	"24.1"	"22.05"	"63.558"
"1982"	"0.157"	"37.876"	"25.666"	"321.667"	"186.024"	"700.71"	"307.439"	"484.678"	"263.277"	"38.245"	"70.958"	"5.4"
"1983"	"17.788"	"48.024"	"192.743"	"173.297"	"226.436"	"419.628"	"491.052"	"548.494"	"372.875"	"227.211"	"38.367"	"51.587"
"1984"	"20.238"	"8.715"	"9.356"	"174.532"	"563.744"	"671.528"	"488.314"	"421.912"	"309.174"	"216.424"	"0.5"	"12.659"
"1985"	"5.12"	"18.504"	"151.476"	"230.151"	"137.683"	"570.002"	"345.625"	"340.117"	"294.739"	"64.505"	"8.791"	"3.217"
"1986"	"7.776"	"5.487"	"25.07"	"290.082"	"66.635"	"259.519"	"528.571"	"274.052"	"318.712"	"264.915"	"127.384"	"3.634"
"1987"	"3.315"	"14.788"	"100.322"	"258.268"	"128.449"	"293.85"	"546.485"	"354.923"	"399.194"	"125.664"	"57.778"	"32.91"
"1988"	"1.71"	"31.118"	"72.52"	"65.827"	"506.078"	"491.847"	"534.962"	"476.766"	"287.586"	"242.808"	"67.188"	"1.803"
"1989"	"1.481"	"31.661"	"62.256"	"108.267"	"234.226"	"466.158"	"500.723"	"176.914"	"266.932"	"313.196"	"9.796"	"6.481"
"1990"	"2.692"	"63.99"	"176.035"	"280.854"	"243.786"	"443.932"	"526.608"	"148.531"	"374.833"	"130.248"	"40.716"	"15.514"
"1991"	"20.158"	"39.76"	"97.79"	"112.161"	"460.001"	"392.198"	"364.981"	"395.944"	"252.996"	"470.795"	"21.566"	"35.965"
"1992"	"9.537"	"57.814"	"65.404"	"115.649"	"267.977"	"343.447"	"657.748"	"497.935"	"278.356"	"182.704"	"18.984"	"20.27"
"1993"	"43.643"	"74.588"	"105.854"	"103.132"	"313.908"	"674.77"	"584.639"	"422.324"	"339.524"	"82.736"	"9.245"	"0"
"1994"	"14.534"	"51.597"	"229.1"	"160.778"	"188.929"	"572.651"	"355.288"	"436.6"	"194.882"	"39.59"	"27.289"	"8.809"
"1995"	"18.669"	"32.703"	"34.612"	"96.884"	"310.227"	"553.175"	"547.333"	"432.734"	"297.748"	"81.324"	"117.31"	"0.813"
"1996"	"1.159"	"30.391"	"128.824"	"187.032"	"384.696"	"360.073"	"470.82"	"440.804"	"247.922"	"150.695"	"13.886"	"3.16"
"1997"	"7.336"	"11.983"	"112.696"	"115.953"	"175.548"	"364.387"	"670.247"	"331.183"	"412.343"	"61.827"	"20.128"	"36.284"
"1998"	"14.614"	"30.907"	"156.522"	"200.7"	"361.065"	"363.893"	"577.049"	"490.867"	"153.571"	"87.054"	"104.129"	"0"
"1999"	"6.032"	"4.154"	"29.326"	"76.462"	"383.969"	"313.53"	"533.363"	"378.907"	"162.231"	"214.517"	"32.831"	"5.213"
"2000"	"16.836"	"38.016"	"88.517"	"301.091"	"405.192"	"236.173"	"315.284"	"507.763"	"244.463"	"119.366"	"6.881"	"4.927"
"2001"	"3.148"	"18.449"	"115.292"	"181.056"	"337.738"	"498.506"	"422.564"	"530.803"	"261.711"	"228.035"	"41.833"	"1.594"
"2002"	"31.093"	"5.711"	"78.712"	"288.821"	"305.587"	"692.933"	"583.099"	"331.023"	"224.538"	"103.444"	"40.217"	"4.077"
