
"Year"	"Jan"	"Feb"	"Mar"	"Apr"	"May"	"Jun"	"Jul"	"Aug"	"Sep"	"Oct"	"Nov"	"Dec"
"1901"	"12.96"	"14.786"	"18.006"	"21.242"	"21.535"	"22.195"	"22.131"	"22.125"	"22.202"	"21.204"	"17.183"	"14.127"
"1902"	"13.354"	"14.551"	"18.771"	"19.545"	"21.7"	"21.636"	"22.231"	"21.957"	"22.034"	"19.9"	"16.483"	"13.625"
"1903"	"12.322"	"13.748"	"18.042"	"21.141"	"21.77"	"22.031"	"22.631"	"21.192"	"22.095"	"21.363"	"17.342"	"14.257"
"1904"	"12.588"	"14.782"	"18.503"	"19.872"	"21.272"	"22.157"	"22.062"	"21.825"	"22.265"	"20.666"	"16.711"	"13.254"
"1905"	"12.322"	"11.72"	"16.945"	"18.912"	"21.704"	"22.529"	"22.431"	"21.461"	"22.599"	"20.8"	"17.279"	"14.226"
"1906"	"13.161"	"14.121"	"17.177"	"20.209"	"22.139"	"22.228"	"22.761"	"21.095"	"23.064"	"20.467"	"17.342"	"14.159"
"1907"	"13.953"	"13.716"	"17.211"	"19.346"	"20.935"	"21.299"	"21.7"	"22.157"	"21.834"	"20.866"	"17.412"	"14.017"
"1908"	"13.088"	"14.18"	"18.639"	"21.571"	"21.204"	"21.963"	"21.831"	"21.991"	"22.232"	"20.566"	"16.845"	"13.991"
"1909"	"12.923"	"14.383"	"19.068"	"19.744"	"20.672"	"21.165"	"22.696"	"21.358"	"22.965"	"21.632"	"18.308"	"14.289"
"1910"	"12.956"	"13.95"	"17.606"	"19.748"	"21.47"	"21.133"	"21.27"	"21.627"	"22.364"	"20.366"	"17.475"	"13.285"
"1911"	"13.289"	"13.749"	"17.407"	"19.745"	"20.636"	"21.499"	"21.664"	"21.595"	"22.064"	"20.666"	"17.149"	"13.292"
"1912"	"12.988"	"14.714"	"17.977"	"19.217"	"21.236"	"21.732"	"21.8"	"21.527"	"21.799"	"20.2"	"17.378"	"13.988"
"1913"	"13.554"	"15.617"	"17.437"	"19.841"	"20.243"	"21.333"	"22.232"	"21.557"	"21.965"	"20.332"	"16.612"	"13.022"
"1914"	"12.72"	"14.217"	"18.111"	"19.276"	"20.77"	"21.698"	"22.231"	"20.961"	"22.03"	"19.336"	"17.145"	"14.319"
"1915"	"14.185"	"14.609"	"18.242"	"20.439"	"20.598"	"21.203"	"21.099"	"21.561"	"21.865"	"22.195"	"18.703"	"14.889"
"1916"	"12.852"	"14.782"	"18.404"	"19.608"	"21.309"	"21.795"	"21.772"	"21.657"	"22.127"	"20.463"	"17.77"	"13.625"
"1917"	"12.588"	"13.782"	"17.105"	"18.974"	"20.836"	"21.196"	"21.831"	"21.657"	"21.659"	"20.662"	"18.038"	"13.279"
"1918"	"12.854"	"14.083"	"17.935"	"19.67"	"21.563"	"20.263"	"22.068"	"21.395"	"22.165"	"20.607"	"16.777"	"13.984"
"1919"	"14.089"	"14.218"	"19.301"	"20.078"	"21.638"	"21.732"	"21.726"	"22.15"	"21.165"	"20.404"	"17.642"	"13.983"
"1920"	"14.051"	"14.055"	"17.446"	"19.545"	"20.973"	"21.432"	"22.456"	"21.495"	"22.092"	"20.566"	"17.064"	"14.342"
"1921"	"14.488"	"14.398"	"18.27"	"20.046"	"21.173"	"20.902"	"22.09"	"21.881"	"21.965"	"19.298"	"16.902"	"13.925"
"1922"	"14.155"	"14.845"	"18.596"	"20.503"	"21.908"	"21.299"	"22.153"	"21.881"	"21.959"	"20.291"	"17.423"	"14.252"
"1923"	"14.222"	"14.293"	"18.532"	"20.574"	"20.606"	"21.833"	"21.821"	"21.976"	"22.16"	"19.895"	"17.574"	"14.383"
"1924"	"13.522"	"14.284"	"19.631"	"20.877"	"20.505"	"21.895"	"22.19"	"21.784"	"21.627"	"21.288"	"17.904"	"13.754"
"1925"	"11.923"	"13.396"	"18.044"	"20.18"	"20.998"	"21.729"	"21.593"	"21.657"	"21.602"	"19.398"	"16.574"	"13.651"
"1926"	"13.392"	"14.183"	"17.408"	"19.473"	"21.305"	"21.165"	"21.923"	"21.881"	"21.969"	"20.628"	"16.574"	"14.955"
"1927"	"12.692"	"13.754"	"16.409"	"19.341"	"20.735"	"21.402"	"22.131"	"21.757"	"21.498"	"20.294"	"16.804"	"14.351"
"1928"	"14.06"	"15.408"	"18.464"	"21.004"	"20.874"	"21.228"	"21.987"	"21.957"	"22.165"	"20.204"	"16.383"	"14.65"
"1929"	"13.66"	"13.754"	"18.274"	"20.046"	"20.915"	"20.93"	"22.094"	"21.765"	"22.027"	"20.628"	"16.745"	"13.859"
"1930"	"11.761"	"14.782"	"17.809"	"19.941"	"21.432"	"20.698"	"22.293"	"21.757"	"22.73"	"19.97"	"17.68"	"14.161"
"1931"	"12.86"	"13.754"	"18.173"	"21.182"	"20.676"	"21.168"	"21.531"	"22.157"	"21.903"	"21.594"	"17.239"	"14.826"
"1932"	"13.625"	"14.087"	"18.905"	"20.774"	"21.917"	"21.366"	"21.961"	"21.821"	"22.324"	"21.329"	"17.845"	"14.525"
"1933"	"12.893"	"14.559"	"19.074"	"20.278"	"20.636"	"22.066"	"22.131"	"21.753"	"22.392"	"20.998"	"16.211"	"13.583"
"1934"	"13.559"	"14.113"	"18.805"	"20.845"	"21.051"	"20.905"	"21.857"	"21.455"	"22.269"	"21.1"	"16.237"	"13.887"
"1935"	"12.454"	"14.718"	"18.769"	"20.108"	"22.479"	"21.511"	"22.131"	"21.258"	"22.269"	"21.163"	"17.571"	"13.364"
"1936"	"11.961"	"13.754"	"18.839"	"20.577"	"21.501"	"22.052"	"22.194"	"22.091"	"22.123"	"20.432"	"17.876"	"14.588"
"1937"	"11.559"	"14.715"	"18.239"	"21.473"	"21.598"	"22.09"	"22.431"	"21.591"	"22.299"	"20.8"	"16.58"	"14.69"
"1938"	"13.791"	"13.984"	"19.98"	"21.541"	"20.995"	"21.833"	"21.831"	"21.961"	"22.168"	"21.167"	"16.249"	"14.694"
"1939"	"12.947"	"15.02"	"18.34"	"21.448"	"21.303"	"21.636"	"21.961"	"22.289"	"22.199"	"20.604"	"17.845"	"14.726"
"1940"	"12.183"	"14.355"	"16.501"	"21.378"	"21.036"	"21.933"	"21.762"	"22.289"	"21.664"	"20.966"	"17.411"	"14.819"
"1941"	"12.926"	"14.551"	"19.78"	"21.08"	"21.004"	"21.458"	"22.29"	"22.33"	"21.931"	"20.433"	"16.48"	"15.156"
"1942"	"13.189"	"15.117"	"18.978"	"20.707"	"21.108"	"21.66"	"22.322"	"21.72"	"21.427"	"21.195"	"17.578"	"13.792"
"1943"	"13.388"	"13.145"	"17.301"	"19.314"	"21.417"	"21.529"	"21.951"	"21.158"	"21.792"	"20.504"	"17.803"	"14.654"
"1944"	"12.456"	"13.618"	"18.236"	"19.542"	"21.539"	"21.363"	"22.09"	"21.957"	"21.436"	"20.6"	"16.879"	"14.652"
"1945"	"13.088"	"13.455"	"18.573"	"20.808"	"21.108"	"22.399"	"22.099"	"21.694"	"22.632"	"19.966"	"17.416"	"14.06"
"1946"	"13.519"	"16.21"	"18.839"	"19.929"	"21.238"	"21.698"	"21.999"	"22.324"	"22.265"	"20.332"	"18.042"	"15.059"
"1947"	"13.356"	"14.949"	"19.139"	"20.547"	"21.642"	"22.032"	"22.09"	"22.032"	"22.111"	"19.866"	"17.239"	"15.259"
"1948"	"13.517"	"14.387"	"17.502"	"19.899"	"19.902"	"21.63"	"21.765"	"22.127"	"22.295"	"20.266"	"18.141"	"13.994"
"1949"	"13.288"	"14.413"	"17.666"	"18.41"	"20.332"	"21.333"	"21.631"	"21.395"	"21.931"	"21.297"	"17.113"	"13.123"
"1950"	"12.849"	"13.983"	"17.839"	"20.108"	"21.64"	"21.432"	"21.961"	"21.326"	"22.265"	"20.838"	"17.175"	"14.419"
"1951"	"12.716"	"15.082"	"18.767"	"21.212"	"20.766"	"21.234"	"21.702"	"22.457"	"22.165"	"21.066"	"17.608"	"15.764"
"1952"	"13.685"	"16.012"	"17.469"	"20.77"	"21.274"	"22.591"	"22.293"	"22.395"	"21.937"	"21.738"	"17.839"	"14.542"
"1953"	"12.788"	"15.483"	"19.404"	"21.046"	"20.695"	"22.03"	"21.933"	"22.457"	"22.165"	"20.903"	"17.412"	"15.925"
"1954"	"12.151"	"16.148"	"18.605"	"21.149"	"21.439"	"21.066"	"21.636"	"21.632"	"22.499"	"20.27"	"16.408"	"14.688"
"1955"	"13.155"	"14.346"	"18.604"	"20.143"	"21.367"	"21.77"	"21.394"	"21.262"	"22.39"	"21.498"	"18.108"	"13.612"
"1956"	"12.885"	"14.504"	"18.676"	"21.038"	"20.798"	"21.028"	"22.16"	"21.957"	"21.821"	"21.133"	"17.477"	"14.385"
"1957"	"13.521"	"13.82"	"18.088"	"21.212"	"21.621"	"21.636"	"21.993"	"22.19"	"22.131"	"19.966"	"16.67"	"14.488"
"1958"	"12.583"	"14.217"	"18.264"	"21.47"	"20.98"	"23.122"	"22.583"	"21.158"	"22.561"	"20.77"	"16.902"	"14.323"
"1959"	"13.258"	"13.648"	"17.668"	"20.433"	"20.87"	"21.258"	"22.551"	"21.844"	"21.689"	"20.139"	"16.67"	"14.823"
"1960"	"13.255"	"14.599"	"17.736"	"21.502"	"22.565"	"22.228"	"21.552"	"22.582"	"21.999"	"20.863"	"17.346"	"14.176"
"1961"	"13.179"	"13.521"	"17.981"	"20.935"	"21.871"	"21.919"	"22.356"	"22.252"	"22.427"	"20.866"	"16.445"	"13.047"
"1962"	"12.065"	"14.168"	"18.03"	"21.099"	"21.421"	"21.296"	"22.627"	"21.458"	"22.465"	"20.332"	"16.874"	"14.252"
"1963"	"12.854"	"15.714"	"18.668"	"19.67"	"20.632"	"21.095"	"21.697"	"21.897"	"22.765"	"20.2"	"16.616"	"14.488"
"1964"	"12.756"	"14.559"	"18.613"	"19.479"	"20.838"	"21.042"	"21.032"	"22.091"	"22.527"	"21.566"	"18.018"	"14.093"
"1965"	"12.858"	"13.786"	"17.076"	"20.511"	"21.804"	"21.603"	"21.465"	"20.861"	"21.764"	"20.594"	"16.852"	"14.923"
"1966"	"13.588"	"15.715"	"19.13"	"21.245"	"22.237"	"20.632"	"22.327"	"21.395"	"21.935"	"19.966"	"18.679"	"14.356"
"1967"	"13.894"	"15.348"	"17.743"	"20.308"	"21.804"	"22.235"	"22.265"	"22.557"	"21.903"	"20.404"	"16.441"	"14.548"
"1968"	"13.185"	"13.948"	"18.641"	"20.173"	"20.707"	"21.391"	"22.066"	"22.258"	"21.907"	"20.725"	"17.445"	"14.226"
"1969"	"12.821"	"14.949"	"19.072"	"21.104"	"21.698"	"21.421"	"22.631"	"21.426"	"22.561"	"20.866"	"17.445"	"14.488"
"1970"	"12.456"	"14.421"	"18.474"	"20.911"	"21.577"	"22.133"	"21.693"	"21.988"	"21.506"	"20.471"	"17.408"	"14.426"
"1971"	"13.157"	"14.221"	"19.008"	"19.767"	"21.266"	"21.492"	"21.593"	"20.953"	"22.165"	"20.636"	"16.715"	"14.327"
"1972"	"13.788"	"13.947"	"18.308"	"19.948"	"22.14"	"22.166"	"22.431"	"21.957"	"22.57"	"21.066"	"17.984"	"14.523"
"1973"	"13.956"	"15.324"	"18.703"	"21.871"	"21.164"	"21.698"	"22.789"	"21.957"	"22.231"	"20.666"	"17.281"	"13.722"
"1974"	"12.923"	"14.651"	"18.002"	"19.711"	"21.032"	"21.633"	"20.669"	"21.881"	"21.496"	"21.432"	"18.747"	"13.461"
"1975"	"12.988"	"14.782"	"18.912"	"21.171"	"21.175"	"22.591"	"21.294"	"21.957"	"21.726"	"21.271"	"16.907"	"13.454"
"1976"	"13.086"	"15.416"	"18.714"	"20.641"	"21.002"	"20.261"	"21.497"	"21.554"	"22.023"	"20.266"	"18.078"	"13.822"
"1977"	"12.36"	"14.047"	"19.006"	"18.109"	"19.869"	"20.736"	"21.955"	"21.629"	"22.299"	"19.9"	"17.582"	"14.55"
"1978"	"12.26"	"15.32"	"18.008"	"20.383"	"21.032"	"21.761"	"21.863"	"22.613"	"21.559"	"21.535"	"17.582"	"14.525"
"1979"	"14.117"	"14.887"	"18.839"	"21.77"	"23.046"	"22.823"	"22.368"	"22.12"	"21.834"	"20.604"	"18.98"	"15.054"
"1980"	"13.322"	"14.511"	"18.243"	"21.483"	"20.804"	"22.324"	"22.692"	"22.058"	"22.303"	"20.266"	"18.083"	"15.188"
"1981"	"13.78"	"14.945"	"18.094"	"19.136"	"21.333"	"22.423"	"22.431"	"22.358"	"22.265"	"21.104"	"18.211"	"14.588"
"1982"	"14.117"	"14.714"	"18.34"	"19.577"	"22.469"	"21.595"	"22.231"	"22.292"	"22.064"	"20.836"	"17.11"	"14.217"
"1983"	"13.062"	"13.848"	"17.672"	"19.678"	"20.874"	"22.269"	"22.106"	"22.058"	"22.268"	"21.4"	"17.807"	"13.654"
"1984"	"12.227"	"14.152"	"18.43"	"20.274"	"20.205"	"21.453"	"21.834"	"22.12"	"21.335"	"20.66"	"17.052"	"15.431"
"1985"	"13.622"	"14.549"	"18.71"	"20.377"	"21.299"	"21.23"	"21.499"	"22.22"	"21.965"	"21.562"	"17.077"	"15.62"
"1986"	"13.457"	"15.952"	"19.54"	"19.746"	"21.395"	"22.457"	"21.957"	"22.258"	"21.732"	"20"	"16.877"	"14.688"
"1987"	"14.151"	"15.727"	"17.506"	"19.57"	"21.642"	"22.627"	"22.068"	"21.995"	"21.869"	"20.328"	"18.652"	"14.618"
"1988"	"14.164"	"15.821"	"18.245"	"21.811"	"21.178"	"22.058"	"22.231"	"21.4"	"21.875"	"21.239"	"18.503"	"16.216"
"1989"	"12.032"	"15.082"	"18.173"	"21.374"	"22.771"	"21.97"	"21.599"	"22.195"	"21.895"	"20.974"	"16.849"	"14.396"
"1990"	"13.672"	"15.036"	"16.536"	"18.268"	"21.501"	"21.84"	"21.957"	"22.658"	"21.895"	"20.8"	"19.279"	"15.046"
"1991"	"12.39"	"15.734"	"19.372"	"20.776"	"20.073"	"21.429"	"22.331"	"22.391"	"22.232"	"21.732"	"16.748"	"13.887"
"1992"	"13.181"	"12.412"	"19.777"	"21.582"	"21.008"	"22.632"	"21.661"	"22.358"	"22.561"	"20.432"	"17.646"	"12.852"
"1993"	"12.726"	"14.476"	"17.235"	"19.597"	"20.04"	"20.967"	"22.164"	"21.661"	"21.865"	"21.766"	"18.345"	"15.819"
"1994"	"14.186"	"14.318"	"18.807"	"19.907"	"21.898"	"21.857"	"22.461"	"22.515"	"23.23"	"20"	"18.342"	"14.553"
"1995"	"13.496"	"15.12"	"19.61"	"21.612"	"22.867"	"22.059"	"21.927"	"22.321"	"22.13"	"21.829"	"19.308"	"14.419"
"1996"	"13.322"	"15.28"	"18.204"	"21.899"	"21.271"	"21.753"	"22.027"	"21.724"	"22.727"	"21.104"	"18.575"	"16.28"
"1997"	"13.088"	"13.754"	"18.111"	"19.366"	"21.77"	"22.292"	"21.993"	"22.616"	"21.861"	"20.529"	"18.382"	"15.489"
"1998"	"13.356"	"15.049"	"17.239"	"20.866"	"22.656"	"22.471"	"22.659"	"22.058"	"23.056"	"22.332"	"19.27"	"15.757"
"1999"	"14.46"	"18.41"	"19.864"	"22.002"	"21.861"	"22.589"	"22.69"	"21.833"	"22.493"	"21.606"	"18.641"	"15.222"
"2000"	"12.726"	"14.973"	"17.473"	"20.447"	"21.391"	"21.953"	"23.093"	"21.825"	"21.66"	"21.096"	"17.507"	"14.889"
"2001"	"13.956"	"15.845"	"18.832"	"21.145"	"21.798"	"22.395"	"22.993"	"22.62"	"23.599"	"21.46"	"17.904"	"15.122"
"2002"	"14.151"	"16.144"	"19.169"	"20.707"	"21.502"	"21.861"	"22.763"	"22.12"	"22.161"	"21.028"	"18.205"	"15.33"
