
"Year"	"Jan"	"Feb"	"Mar"	"Apr"	"May"	"Jun"	"Jul"	"Aug"	"Sep"	"Oct"	"Nov"	"Dec"
"1901"	"13.418"	"15.099"	"18.132"	"21.285"	"22.799"	"25.052"	"25.111"	"25.254"	"24.57"	"22.558"	"17.8"	"14.18"
"1902"	"13.631"	"14.869"	"18.878"	"19.186"	"23.621"	"24.052"	"25.387"	"24.955"	"24.169"	"20.769"	"16.844"	"13.227"
"1903"	"12.332"	"14.769"	"17.833"	"20.753"	"22.831"	"24.723"	"25.972"	"24.654"	"24.96"	"22.858"	"17.9"	"14.095"
"1904"	"12.631"	"15.068"	"17.929"	"19.582"	"22.717"	"25.352"	"25.473"	"25.254"	"24.57"	"22.159"	"16.71"	"13.095"
"1905"	"12.318"	"12.802"	"16.519"	"18.871"	"23.507"	"25.728"	"25.686"	"24.065"	"25.27"	"21.959"	"17.514"	"13.55"
"1906"	"13.232"	"14.268"	"17.134"	"19.251"	"23.231"	"25.252"	"26.072"	"23.879"	"25.47"	"22.058"	"17.856"	"13.794"
"1907"	"13.742"	"14.569"	"16.565"	"18.941"	"22.041"	"23.563"	"24.211"	"25.456"	"23.594"	"22.459"	"18.299"	"14.095"
"1908"	"13.263"	"15.319"	"18.874"	"21.551"	"22.231"	"24.752"	"24.686"	"25.056"	"24.179"	"21.959"	"17.387"	"13.349"
"1909"	"12.641"	"14.968"	"19.589"	"19.732"	"21.255"	"23.666"	"25.296"	"24.456"	"25.57"	"23.4"	"19.458"	"14.695"
"1910"	"13.232"	"14.954"	"17.775"	"20.176"	"22.916"	"23.308"	"23.917"	"24.654"	"24.97"	"21.959"	"18.285"	"14.184"
"1911"	"14.321"	"14.282"	"17.333"	"20.176"	"21.932"	"24.153"	"24.388"	"24.586"	"24.47"	"21.959"	"17.599"	"13.227"
"1912"	"13.332"	"14.968"	"17.317"	"18.661"	"22.532"	"24.184"	"24.296"	"24.456"	"24.37"	"21.559"	"17.999"	"14.095"
"1913"	"13.242"	"14.889"	"17.043"	"18.735"	"20.631"	"23.852"	"24.907"	"24.855"	"24.27"	"22.058"	"16.899"	"13.295"
"1914"	"13.208"	"14.5"	"18.032"	"19.118"	"22.231"	"24.853"	"25.487"	"23.68"	"24.169"	"20.648"	"17.699"	"14.595"
"1915"	"14.431"	"15.645"	"18.309"	"20.486"	"21.932"	"23.177"	"24.101"	"24.009"	"23.969"	"23.873"	"19.755"	"14.995"
"1916"	"13.521"	"15.099"	"18.933"	"19.818"	"22.031"	"24.752"	"23.773"	"24.955"	"25.069"	"22.058"	"19.077"	"13.986"
"1917"	"12.442"	"14.382"	"17.633"	"18.799"	"22.935"	"23.983"	"24.831"	"25.254"	"24.538"	"22.817"	"19.001"	"14.277"
"1918"	"12.833"	"14.869"	"18.076"	"20.155"	"24.059"	"22.927"	"24.63"	"24.699"	"24.669"	"22.658"	"17.944"	"13.971"
"1919"	"13.773"	"14.968"	"19.874"	"20.217"	"22.731"	"24.353"	"25.087"	"26.514"	"23.514"	"21.559"	"19.159"	"14.852"
"1920"	"14.732"	"14.569"	"17.006"	"19.371"	"21.642"	"23.937"	"25.686"	"24.599"	"24.57"	"22.617"	"18.469"	"15.709"
"1921"	"14.31"	"14.923"	"18.535"	"19.961"	"22.272"	"23.17"	"24.741"	"24.756"	"24.169"	"20.927"	"18.258"	"14.511"
"1922"	"13.828"	"15.768"	"18.878"	"20.559"	"22.931"	"23.753"	"24.628"	"24.497"	"24.97"	"22.058"	"18.667"	"14.394"
"1923"	"14.128"	"14.8"	"19.678"	"20.855"	"21.417"	"24.194"	"24.696"	"26.024"	"24.011"	"21.727"	"18.958"	"14.964"
"1924"	"13.286"	"14.968"	"20.143"	"20.611"	"21.473"	"24.752"	"24.473"	"24.342"	"23.969"	"23.526"	"18.531"	"15.043"
"1925"	"12.165"	"14.258"	"18.064"	"20.285"	"21.42"	"24.752"	"25.087"	"24.497"	"22.969"	"21.661"	"17.712"	"12.891"
"1926"	"13.174"	"15.036"	"17.022"	"19.496"	"22.5"	"23.883"	"24.473"	"25.401"	"25.328"	"22.659"	"17.699"	"14.713"
"1927"	"13.119"	"13.51"	"16.35"	"18.897"	"22.031"	"23.739"	"25.287"	"25"	"23.545"	"22.417"	"17.999"	"13.937"
"1928"	"13.105"	"15.868"	"19.064"	"21.761"	"22.307"	"24.296"	"25.531"	"24.855"	"24.514"	"20.915"	"16.8"	"14.022"
"1929"	"12.6"	"14.503"	"18.823"	"20.017"	"21.072"	"23.439"	"25.118"	"25.356"	"24.415"	"21.6"	"17.599"	"13.312"
"1930"	"12.049"	"14.455"	"17.764"	"19.872"	"23.186"	"23.238"	"26.331"	"25.369"	"24.38"	"20.7"	"17.217"	"13.536"
"1931"	"13.721"	"14.621"	"18.622"	"20.358"	"22.007"	"23.784"	"24.63"	"25.555"	"23.901"	"23.227"	"17.968"	"14.326"
"1932"	"13.432"	"13.478"	"18.833"	"21.386"	"21.316"	"24.128"	"25.186"	"24.654"	"24.211"	"22.179"	"18.599"	"14.595"
"1933"	"13.081"	"15.1"	"19.433"	"19.927"	"21.673"	"24.408"	"25.186"	"24.955"	"25.138"	"22.683"	"17.291"	"14.208"
"1934"	"13.432"	"15.158"	"18.919"	"20.54"	"21.518"	"22.685"	"25.377"	"25.287"	"24.584"	"21.885"	"17.644"	"13.752"
"1935"	"12.577"	"14.572"	"19.033"	"20.416"	"22.329"	"22.813"	"25.487"	"24.37"	"23.939"	"22.703"	"19.115"	"13.297"
"1936"	"11.991"	"14"	"19.088"	"20.54"	"23.29"	"24.494"	"25.287"	"24.969"	"24.939"	"21.559"	"18.713"	"14.507"
"1937"	"11.991"	"15.145"	"18.333"	"21.342"	"23.076"	"25.166"	"25.601"	"25.254"	"24.601"	"22.673"	"17.392"	"14.827"
"1938"	"13.388"	"14.976"	"18.03"	"21.317"	"23.734"	"24.298"	"24.63"	"24.958"	"24.502"	"22.773"	"16.844"	"14.285"
"1939"	"13.976"	"15.158"	"18.933"	"19.998"	"22.775"	"24.052"	"25.003"	"25.899"	"24.37"	"21.918"	"18.231"	"14.34"
"1940"	"13.09"	"15.044"	"16.423"	"21.258"	"22.431"	"24.669"	"25.244"	"25.755"	"24.228"	"22.517"	"17.678"	"15.28"
"1941"	"12.793"	"15.054"	"19.218"	"21.346"	"22.632"	"24.949"	"25.873"	"25.287"	"24.169"	"22.268"	"17.449"	"14.995"
"1942"	"13.777"	"16.182"	"18.676"	"21.26"	"22.035"	"24.156"	"26.241"	"25.623"	"24.538"	"23.028"	"18.544"	"13.828"
"1943"	"13.686"	"14.485"	"17.631"	"19.52"	"21.863"	"24.669"	"25.661"	"24.714"	"24.497"	"21.583"	"19.173"	"14.654"
"1944"	"12.932"	"14.534"	"18.923"	"20.261"	"22.386"	"24.467"	"25.941"	"25.599"	"23.474"	"22.504"	"17.804"	"15.353"
"1945"	"13.721"	"13.599"	"18.764"	"21.852"	"22.174"	"25.142"	"25.131"	"24.701"	"25.028"	"21.617"	"17.875"	"13.626"
"1946"	"14.375"	"17.268"	"18.733"	"21.489"	"23.032"	"24.443"	"24.787"	"25.956"	"24.727"	"22.127"	"19.091"	"14.841"
"1947"	"13.432"	"15.754"	"19.319"	"20"	"22.559"	"24.869"	"25.087"	"25.346"	"24.915"	"21.472"	"18.403"	"15.24"
"1948"	"13.832"	"14.312"	"17.777"	"21.319"	"20.969"	"24.167"	"24.801"	"25.254"	"25.228"	"21.702"	"18.814"	"13.585"
"1949"	"13.746"	"15.168"	"17.888"	"19.066"	"22.39"	"23.842"	"24.63"	"24.501"	"24.614"	"22.858"	"17.731"	"13.411"
"1950"	"13.432"	"14.7"	"18.09"	"20.517"	"22.432"	"23.838"	"25.131"	"24.456"	"24.394"	"22.159"	"18.391"	"14.851"
"1951"	"13.763"	"15.32"	"18.833"	"18.976"	"22.231"	"23.757"	"24.246"	"25.655"	"24.68"	"22.729"	"18.568"	"14.963"
"1952"	"14.142"	"16.878"	"18.25"	"21.786"	"22.69"	"25.525"	"25.672"	"25.226"	"24"	"22.705"	"19.203"	"15.638"
"1953"	"13.432"	"16.053"	"19.191"	"20.961"	"22.735"	"25.038"	"24.717"	"25.914"	"24.47"	"21.758"	"18.133"	"15.625"
"1954"	"13.021"	"16.482"	"19.135"	"20.388"	"22.276"	"23.787"	"23.989"	"24.098"	"24.628"	"21.551"	"17.732"	"14.281"
"1955"	"13.932"	"15.517"	"18.278"	"20.561"	"22.99"	"23.683"	"24.586"	"24.442"	"25.57"	"22.631"	"19.107"	"14.059"
"1956"	"13.186"	"16.223"	"18.174"	"21.789"	"22.833"	"24.224"	"25.567"	"25.297"	"25.207"	"22.296"	"18.258"	"14.719"
"1957"	"13.873"	"13.938"	"18.457"	"20.428"	"21.983"	"25.107"	"25.887"	"25.82"	"25.115"	"21.37"	"18.769"	"14.664"
"1958"	"14.256"	"14.234"	"19.719"	"22.143"	"21.787"	"26.762"	"26.656"	"24.369"	"25.57"	"22.562"	"18.931"	"15.097"
"1959"	"13.915"	"13.924"	"18.1"	"21.744"	"22.346"	"24.839"	"26.755"	"26.453"	"24.611"	"21.914"	"17.986"	"15.428"
"1960"	"13.403"	"17.122"	"19.063"	"22.069"	"24.483"	"25.379"	"25.628"	"26.482"	"24.754"	"23.386"	"18.376"	"16.081"
"1961"	"14.95"	"14.52"	"17.43"	"21.595"	"22.839"	"25.852"	"26.441"	"26.169"	"25.279"	"22.607"	"17.042"	"12.892"
"1962"	"12.243"	"14.868"	"17.233"	"20.841"	"21.705"	"24.153"	"25.828"	"24.356"	"24.754"	"22.003"	"17.884"	"14.64"
"1963"	"12.888"	"15.633"	"18.729"	"20.416"	"22.563"	"24.339"	"25.23"	"24.623"	"25.369"	"21.181"	"16.84"	"14.478"
"1964"	"12.721"	"14.579"	"17.134"	"19.736"	"22.138"	"22.816"	"23.934"	"24.654"	"23.859"	"22.765"	"18.359"	"13.522"
"1965"	"12.99"	"14.312"	"16.708"	"20.398"	"22.7"	"24.752"	"24.787"	"24.156"	"23.825"	"22.087"	"16.342"	"14.727"
"1966"	"13.974"	"16.328"	"19.876"	"20.753"	"23.491"	"23.053"	"25.369"	"24.214"	"24.11"	"21.199"	"19.616"	"14.671"
"1967"	"14.249"	"15.635"	"17.389"	"20.854"	"22.831"	"23.92"	"25.186"	"25.97"	"24.143"	"21.545"	"16.851"	"14.86"
"1968"	"13.452"	"14.034"	"18.147"	"19.963"	"21.88"	"24.664"	"25.128"	"25.497"	"25.26"	"21.544"	"17.944"	"13.999"
"1969"	"12.701"	"15.453"	"19.28"	"21.385"	"23.662"	"24.752"	"25.442"	"24.613"	"24.956"	"22.145"	"18.048"	"14.698"
"1970"	"12.634"	"14.556"	"18.233"	"20.663"	"21.869"	"24.591"	"25.087"	"25.312"	"23.76"	"21.746"	"18.209"	"14.044"
"1971"	"13.09"	"14.313"	"19.198"	"21.462"	"22.983"	"24.752"	"25.186"	"24.613"	"24.717"	"21.673"	"16.855"	"13.55"
"1972"	"14.004"	"15.158"	"18.17"	"18.844"	"22.632"	"24.853"	"25.327"	"25.755"	"24.1"	"22.459"	"17.842"	"14.457"
"1973"	"14.335"	"15.47"	"19.408"	"22.207"	"23.631"	"24.408"	"26.242"	"25.511"	"25.069"	"21.948"	"17.664"	"13.842"
"1974"	"13.055"	"15.858"	"18.322"	"19.274"	"23.314"	"24.752"	"23.985"	"25.296"	"24.179"	"23.621"	"19.43"	"13.674"
"1975"	"13.422"	"15.737"	"18.733"	"21.969"	"22.256"	"25.953"	"24.787"	"25.011"	"24.57"	"22.89"	"17.974"	"13.467"
"1976"	"13.549"	"15.528"	"17.957"	"20.841"	"22.676"	"23.697"	"25.087"	"24.955"	"24.579"	"21.559"	"18.831"	"14.27"
"1977"	"12.721"	"15.211"	"19.489"	"19.492"	"21.618"	"22.952"	"25.555"	"24.6"	"24.842"	"20.915"	"17.599"	"14.415"
"1978"	"12.563"	"14.823"	"17.906"	"20.486"	"23.345"	"25.083"	"25.087"	"26.176"	"24.311"	"22.858"	"17.315"	"14.164"
"1979"	"13.553"	"15.169"	"18.416"	"22.316"	"23.621"	"26.138"	"24.97"	"25.697"	"24.066"	"21.325"	"19.216"	"14.64"
"1980"	"13.031"	"15.024"	"18.108"	"20.685"	"23.039"	"25.518"	"25.597"	"25.254"	"24.871"	"21.713"	"17.999"	"15.123"
"1981"	"13.873"	"16.185"	"17.803"	"20.326"	"23.32"	"25.565"	"25.318"	"25.613"	"24.97"	"22.807"	"18.685"	"14.639"
"1982"	"14.714"	"14.82"	"18.333"	"19.471"	"23.441"	"24.323"	"25.145"	"26.09"	"24.415"	"21.969"	"17.599"	"14.177"
"1983"	"12.038"	"13.821"	"17.424"	"19.196"	"22.367"	"24.552"	"24.993"	"25.555"	"24.16"	"23.345"	"18.609"	"13.453"
"1984"	"12.721"	"15.637"	"19.679"	"20.81"	"22.065"	"25.462"	"24.431"	"25.597"	"23.569"	"22.799"	"16.9"	"14.423"
"1985"	"13.675"	"14.896"	"18.751"	"20.486"	"23.2"	"24.167"	"24.314"	"25.956"	"24.37"	"22.968"	"17.727"	"15.277"
"1986"	"14.047"	"15.679"	"18.362"	"19.7"	"23.602"	"25.653"	"25.24"	"25.254"	"23.955"	"20.959"	"17.889"	"14.681"
"1987"	"14.043"	"16.729"	"17.794"	"20.299"	"22.663"	"25.42"	"24.686"	"24.797"	"24.284"	"22.159"	"18.783"	"14.909"
"1988"	"13.791"	"16.339"	"18.279"	"20.487"	"22.166"	"26.138"	"25.087"	"24.77"	"24.469"	"22.746"	"18.782"	"16.205"
"1989"	"13.422"	"14.652"	"19.267"	"19.963"	"24.072"	"24.897"	"24.6"	"25.541"	"24.572"	"22.87"	"17.668"	"13.79"
"1990"	"15.204"	"15.162"	"17.312"	"18.669"	"23.341"	"24.752"	"25.327"	"25.927"	"23.756"	"22.014"	"19.52"	"15.85"
"1991"	"13.546"	"16.641"	"19.329"	"20.215"	"21.651"	"24.494"	"25.343"	"25.093"	"24.156"	"22.715"	"17.756"	"13.837"
"1992"	"13.344"	"13.365"	"17.659"	"20.427"	"22.187"	"24.494"	"25.215"	"25.694"	"25.025"	"21.98"	"18.193"	"13.424"
"1993"	"13.043"	"16.224"	"17.679"	"21.549"	"22.291"	"24.194"	"25.373"	"25.011"	"24.612"	"22.715"	"19.198"	"16.033"
"1994"	"14.863"	"15.557"	"17.633"	"20.903"	"24.536"	"25.838"	"25.786"	"26.553"	"25.794"	"21.362"	"17.883"	"14.092"
"1995"	"13.305"	"15.567"	"18.903"	"21.224"	"23.056"	"25.366"	"25.373"	"26.028"	"24.424"	"23.015"	"19.44"	"14.709"
"1996"	"13.964"	"16.478"	"18.823"	"21.837"	"22.646"	"25.835"	"25.254"	"25.645"	"25.743"	"22.759"	"19.145"	"15.577"
"1997"	"13.374"	"13.914"	"17.819"	"20.182"	"23.032"	"24.905"	"25.711"	"26.479"	"24.011"	"22.179"	"18.814"	"14.322"
"1998"	"13.746"	"16.053"	"17.984"	"21.795"	"25.299"	"24.266"	"25.897"	"25.311"	"25.838"	"24.304"	"20.099"	"15.768"
"1999"	"14.548"	"19.011"	"20.791"	"22.441"	"24.214"	"26.106"	"25.938"	"25.269"	"25.57"	"22.604"	"19.525"	"15.413"
"2000"	"13.422"	"15.611"	"17.819"	"20.231"	"22.956"	"25.578"	"26.44"	"25.397"	"24.37"	"23.149"	"18.459"	"14.795"
"2001"	"14.945"	"16.812"	"19.651"	"20.828"	"22.98"	"26.104"	"25.328"	"26.382"	"25.079"	"22.444"	"19.3"	"15.27"
"2002"	"14.173"	"17.459"	"19.236"	"21.13"	"22.317"	"26.042"	"25.628"	"25.796"	"24.871"	"22.159"	"19.132"	"15.195"
