
"Year"	"Jan"	"Feb"	"Mar"	"Apr"	"May"	"Jun"	"Jul"	"Aug"	"Sep"	"Oct"	"Nov"	"Dec"
"1901"	"21.823"	"17.73"	"46.868"	"140.384"	"135.072"	"354.359"	"297.416"	"312.149"	"273.401"	"140.52"	"124.211"	"2.837"
"1902"	"15.414"	"23.348"	"33.344"	"169.496"	"218.568"	"362.943"	"513.664"	"364.139"	"469.6"	"67.51"	"11.474"	"1.407"
"1903"	"28.154"	"24.73"	"71.865"	"110.173"	"157.372"	"447.967"	"260.125"	"459.28"	"199.252"	"147.31"	"50.933"	"2.057"
"1904"	"27.304"	"35.191"	"88.018"	"240.836"	"193.231"	"174.724"	"279.51"	"449.742"	"165.124"	"42.433"	"46.95"	"1.83"
"1905"	"25.909"	"14.825"	"123.592"	"110.002"	"138.711"	"212.735"	"373.58"	"412.48"	"91.002"	"96.523"	"40.915"	"23.925"
"1906"	"15.987"	"53.957"	"78.586"	"272.005"	"122.02"	"321.652"	"314.148"	"389.02"	"130.226"	"71.11"	"30.517"	"0.029"
"1907"	"11.217"	"50.028"	"74.475"	"175.175"	"135.379"	"340.906"	"427.756"	"243.96"	"280.721"	"26.394"	"1.708"	"5.316"
"1908"	"17.147"	"31.879"	"24.697"	"202.444"	"232.111"	"550.058"	"539.495"	"168.621"	"299.278"	"99.277"	"6.086"	"0.991"
"1909"	"52.299"	"8.313"	"7.664"	"128.922"	"275.512"	"531.192"	"295.521"	"441.918"	"121.293"	"72.784"	"11.56"	"1.52"
"1910"	"11.281"	"39.125"	"102.375"	"110.401"	"130.833"	"684.576"	"397.498"	"326.146"	"128.651"	"270.728"	"25.978"	"27.396"
"1911"	"34.081"	"30.664"	"48.82"	"153.312"	"333.496"	"394.518"	"395.428"	"297.877"	"236.666"	"305.682"	"51.998"	"4.992"
"1912"	"15.166"	"58.593"	"45.307"	"97.209"	"142.696"	"302.707"	"473.962"	"340.041"	"288.391"	"164.798"	"47.29"	"12.039"
"1913"	"15.755"	"57.523"	"56.748"	"259.442"	"361.689"	"332.304"	"258.142"	"302.369"	"189.092"	"275.673"	"8.576"	"30.805"
"1914"	"5.325"	"41.68"	"68.364"	"101.634"	"158.777"	"272.475"	"385.037"	"389.357"	"142.199"	"83.073"	"14.538"	"10.843"
"1915"	"7.63"	"36.071"	"87.019"	"86.757"	"318.767"	"389.399"	"586.579"	"389.601"	"223.768"	"155.564"	"20.716"	"6.6"
"1916"	"21.391"	"22.061"	"75.683"	"141.419"	"325.53"	"381.908"	"370.369"	"315.84"	"159.765"	"124.189"	"34.189"	"9.642"
"1917"	"11.545"	"94.746"	"33.139"	"159.522"	"182.257"	"494.514"	"429.797"	"299.734"	"167.391"	"120.964"	"48.36"	"0.029"
"1918"	"10.234"	"14.225"	"88.677"	"79.89"	"190.112"	"585.666"	"380.102"	"295.448"	"220.082"	"86.38"	"3.756"	"0.122"
"1919"	"8.907"	"23.638"	"7.312"	"81.559"	"251.11"	"400.883"	"483.664"	"176.007"	"253.213"	"305.527"	"31.411"	"2.294"
"1920"	"7.515"	"44.293"	"124.439"	"67.481"	"181.675"	"356.139"	"299.818"	"376.106"	"193.899"	"66.738"	"1.583"	"11.006"
"1921"	"29.088"	"23.699"	"96.882"	"168.952"	"331.61"	"360.968"	"259.504"	"422.02"	"322.83"	"198.307"	"11.502"	"16.785"
"1922"	"22.123"	"8.801"	"48.056"	"119.099"	"153.414"	"359.499"	"424.847"	"364.183"	"173.964"	"133.708"	"18.482"	"6.081"
"1923"	"1.144"	"69.664"	"7.806"	"113.009"	"281.633"	"365.368"	"505.844"	"237.807"	"316.695"	"67.936"	"12.608"	"6.85"
"1924"	"10.526"	"25.257"	"26.903"	"93.23"	"266.725"	"375.308"	"593.033"	"414.285"	"248.677"	"172.688"	"73.088"	"0.176"
"1925"	"20.273"	"34.951"	"63.631"	"109.625"	"345.127"	"330.007"	"399.443"	"350.444"	"275.414"	"76.631"	"5.405"	"1.365"
"1926"	"15.837"	"21.302"	"67.565"	"94.079"	"217.35"	"349.687"	"509.586"	"205.932"	"139.483"	"240.99"	"54.618"	"11.157"
"1927"	"24.354"	"48.905"	"77.377"	"182.252"	"144.553"	"341.094"	"381.93"	"282.911"	"477.087"	"294.416"	"18.421"	"0.029"
"1928"	"6.733"	"22.81"	"65.532"	"75.946"	"282.012"	"421.677"	"393.806"	"362.468"	"342.969"	"221.766"	"34.708"	"5.461"
"1929"	"11.511"	"10.441"	"37.98"	"132.5"	"483.334"	"370.162"	"285.999"	"260.207"	"191.099"	"92.679"	"61.829"	"4.221"
"1930"	"13.449"	"14.739"	"44.045"	"184.79"	"84.338"	"415.879"	"161.91"	"356.278"	"426.324"	"298.757"	"93.812"	"7.014"
"1931"	"8.997"	"54.178"	"29.845"	"253.832"	"205.334"	"559.836"	"482.832"	"206.462"	"207.72"	"134.052"	"23.659"	"41.585"
"1932"	"30.299"	"31.366"	"42.645"	"73.707"	"381.381"	"506.801"	"340.155"	"408.989"	"212.078"	"131.73"	"119.514"	"27.175"
"1933"	"13.237"	"40.974"	"27.716"	"137.072"	"200.073"	"455.797"	"307.692"	"452.272"	"123.419"	"72.206"	"5.423"	"4.209"
"1934"	"15.85"	"47.152"	"19.98"	"203.05"	"269.285"	"517.63"	"374.728"	"214.105"	"232.77"	"135.585"	"41.126"	"6.761"
"1935"	"10.236"	"42.373"	"45.056"	"80.065"	"172.088"	"574.683"	"358.102"	"388.905"	"299.461"	"28.995"	"26.648"	"4.931"
"1936"	"28.676"	"65.297"	"37.941"	"115.706"	"214.792"	"468.133"	"409.012"	"256.912"	"272.731"	"115.48"	"48.619"	"26.135"
"1937"	"15.459"	"41.824"	"36.519"	"97.084"	"207.474"	"235.36"	"293.96"	"404.187"	"179.065"	"88.89"	"8.514"	"6.48"
"1938"	"45.388"	"35.291"	"70.33"	"136.618"	"146.697"	"424.678"	"423.54"	"399.566"	"264.495"	"221.796"	"84.756"	"6.068"
"1939"	"7.175"	"46.372"	"27.293"	"128.013"	"208.872"	"456.868"	"337.501"	"190.397"	"277.138"	"112.831"	"3.988"	"1.402"
"1940"	"3.279"	"47.121"	"143.875"	"43.986"	"247.841"	"366.623"	"261.775"	"178.292"	"223.893"	"98.358"	"17.243"	"41.837"
"1941"	"16.824"	"36.515"	"81.759"	"60.113"	"303.101"	"381.279"	"261.907"	"323.437"	"358.467"	"49.401"	"4.286"	"14.46"
"1942"	"5.349"	"25.211"	"92.755"	"117.463"	"353.372"	"436.935"	"279.234"	"291.072"	"255.422"	"9.134"	"12.572"	"0.133"
"1943"	"39.736"	"39.072"	"96.555"	"89.877"	"311.255"	"325.835"	"293.567"	"413.194"	"258.565"	"139.597"	"6.394"	"5.466"
"1944"	"18.326"	"34.937"	"43.784"	"74.461"	"233.986"	"441.98"	"345.443"	"283.529"	"273.045"	"157.379"	"20.042"	"36.041"
"1945"	"20.577"	"36.645"	"55.389"	"85.346"	"232.004"	"459.804"	"484.258"	"278.902"	"217.085"	"180.402"	"0.301"	"21.189"
"1946"	"0.98"	"10.407"	"35.613"	"71.072"	"151.117"	"455.933"	"407.719"	"340.399"	"203.583"	"160.3"	"7.188"	"0.679"
"1947"	"12.946"	"19.017"	"42.105"	"181.666"	"169.765"	"271.658"	"494.589"	"341.908"	"447.263"	"344.016"	"12.393"	"13.002"
"1948"	"16.06"	"39.785"	"54.907"	"192.484"	"496.814"	"367.502"	"569.033"	"316.189"	"110.859"	"129.248"	"22.898"	"8.502"
"1949"	"21.433"	"14.472"	"98.633"	"166.671"	"282.682"	"360.699"	"357.688"	"289.092"	"319.345"	"200.205"	"25.447"	"17.314"
"1950"	"14.378"	"56.759"	"68.877"	"90.216"	"202.674"	"447.052"	"328.295"	"353.221"	"243.124"	"214.194"	"38.665"	"9.656"
"1951"	"9.489"	"9.99"	"64.441"	"144.465"	"162.883"	"538.244"	"365.169"	"202.995"	"195.854"	"150.493"	"58.919"	"41.297"
"1952"	"16.227"	"6.189"	"82.387"	"116.675"	"194.554"	"323.056"	"351.379"	"382.286"	"417.16"	"186.519"	"48.88"	"2.554"
"1953"	"14.898"	"27.165"	"125.596"	"85.627"	"295.96"	"460.921"	"423.338"	"238.986"	"197.209"	"215.691"	"6.287"	"2.563"
"1954"	"19.038"	"82.724"	"37.254"	"171.923"	"284.093"	"428.289"	"401.144"	"378.33"	"320.163"	"193.397"	"1.139"	"33.332"
"1955"	"6.157"	"28.174"	"119.118"	"61.138"	"246.612"	"361.113"	"617.373"	"290.976"	"161.65"	"112.961"	"23.824"	"8.731"
"1956"	"36.055"	"5.406"	"115.798"	"104.197"	"282.529"	"378.527"	"244.536"	"217.564"	"148.043"	"155.01"	"63.79"	"8.207"
"1957"	"40.01"	"51.733"	"25.331"	"119.275"	"270.177"	"463.37"	"353.262"	"253.329"	"231.849"	"83.253"	"32.928"	"17.231"
"1958"	"13.692"	"38.465"	"10.277"	"68.939"	"449.728"	"289.136"	"463.477"	"463.163"	"228.564"	"281.606"	"0.577"	"13.051"
"1959"	"25.086"	"56.267"	"72.673"	"112.47"	"424.848"	"424.434"	"292.35"	"237.591"	"201.854"	"208.689"	"23.655"	"17.565"
"1960"	"0.218"	"15.477"	"19.597"	"65.499"	"212.466"	"334.271"	"498.558"	"334.099"	"217.175"	"29.25"	"16.977"	"13.788"
"1961"	"14.573"	"16.846"	"127.605"	"146.224"	"263.367"	"241.195"	"353.77"	"288.902"	"222.046"	"187.781"	"29.149"	"8.779"
"1962"	"29.002"	"42.393"	"33.62"	"115.133"	"158.797"	"338.714"	"249.675"	"436.272"	"89.228"	"79.344"	"16.273"	"10.658"
"1963"	"3.542"	"11.956"	"29.632"	"116.571"	"148.294"	"326.214"	"394.035"	"283.056"	"137.894"	"112.691"	"23.966"	"6.683"
"1964"	"25.125"	"44.931"	"81.868"	"124.17"	"127.592"	"437.344"	"460.945"	"295.974"	"231.976"	"183.831"	"7.577"	"30.059"
"1965"	"5.572"	"51.074"	"36.668"	"107.937"	"107.356"	"404.461"	"367.17"	"358.501"	"263.823"	"63.779"	"121.956"	"18.362"
"1966"	"8.009"	"17.26"	"21.278"	"92.411"	"224.957"	"495.204"	"363.063"	"519.081"	"202.069"	"91.394"	"41.857"	"15.35"
"1967"	"25.254"	"19.227"	"81.075"	"65.672"	"153.245"	"314.453"	"277.281"	"212.347"	"238.681"	"57.464"	"17.847"	"2.784"
"1968"	"24.261"	"38.39"	"54.1"	"133.069"	"361.658"	"284.15"	"400.355"	"355.314"	"281.916"	"73.63"	"3.043"	"0.176"
"1969"	"37.821"	"2.402"	"84.995"	"106.056"	"180.052"	"278.532"	"417.249"	"409.053"	"126.45"	"72.265"	"15.819"	"3.298"
"1970"	"36.205"	"52.304"	"97.565"	"135.043"	"388.709"	"244.883"	"400.178"	"367.416"	"238.922"	"158.612"	"15.061"	"2.125"
"1971"	"24.335"	"25.51"	"15.639"	"111.233"	"175.628"	"310.094"	"399.432"	"326.297"	"203.362"	"285.955"	"63.357"	"12.52"
"1972"	"27.543"	"27.992"	"62.774"	"183.741"	"217.03"	"261.697"	"397.826"	"202.048"	"90.218"	"44.383"	"3.482"	"8.391"
"1973"	"21.332"	"32.028"	"19.65"	"175.575"	"216.106"	"601.351"	"215"	"307.448"	"334.772"	"94.434"	"44.763"	"17.264"
"1974"	"30.399"	"14.943"	"58.281"	"198.917"	"139.313"	"325.449"	"509.857"	"316.633"	"291.735"	"41.319"	"24.85"	"2.761"
"1975"	"10.426"	"35.255"	"36.771"	"103.643"	"257.776"	"241.182"	"329.448"	"410.282"	"175.881"	"121.443"	"29.558"	"12.131"
"1976"	"3.373"	"53.378"	"96.8"	"134.628"	"142.174"	"415.131"	"504.968"	"232.714"	"81.086"	"46.514"	"24.429"	"4.769"
"1977"	"11.415"	"54.396"	"61.909"	"251.789"	"229.343"	"399.629"	"431.941"	"436.985"	"161.625"	"147.613"	"37.316"	"37.394"
"1978"	"5.326"	"36.567"	"30.493"	"92.969"	"157.383"	"369.748"	"369.49"	"124.878"	"182.671"	"78.757"	"83.77"	"0.386"
"1979"	"10.41"	"5.993"	"26.627"	"39.259"	"102.71"	"229.222"	"369.989"	"266.976"	"256.152"	"228.258"	"16.459"	"43.978"
"1980"	"9.915"	"16.335"	"95.676"	"203.527"	"175.074"	"241.369"	"379.342"	"421.717"	"230.74"	"163.599"	"0.301"	"0.722"
"1981"	"22.994"	"38.412"	"84.988"	"113.034"	"218.549"	"362.499"	"423.646"	"408.215"	"150.862"	"74.2"	"5.542"	"28.202"
"1982"	"1.27"	"47.489"	"38.619"	"180.332"	"125.774"	"310.75"	"281.17"	"351.896"	"217.281"	"16.328"	"86.687"	"25.467"
"1983"	"35.066"	"47.575"	"46.37"	"117.365"	"197.497"	"370.401"	"511.103"	"286.314"	"287.16"	"112.668"	"12.267"	"35.331"
"1984"	"12.168"	"10.274"	"38.717"	"172.483"	"279.142"	"309.276"	"386.445"	"231.321"	"261.849"	"135.059"	"0.83"	"39.603"
"1985"	"8.79"	"16.661"	"98.878"	"189.486"	"113.523"	"456.139"	"388.303"	"257.549"	"192.053"	"70.611"	"12.982"	"10.619"
"1986"	"6.639"	"20.534"	"35.746"	"171.254"	"59.993"	"188.578"	"379.156"	"259.679"	"261.398"	"167.171"	"36.933"	"4.242"
"1987"	"2.88"	"27.416"	"88.388"	"141.632"	"169.005"	"205.574"	"391.931"	"277.848"	"337.531"	"67.194"	"15.81"	"20.05"
"1988"	"8.473"	"24.265"	"77.271"	"108.442"	"324.932"	"206.927"	"485.333"	"508.541"	"254.363"	"218.05"	"27.232"	"9.44"
"1989"	"7.962"	"60.834"	"29.739"	"107.166"	"135.954"	"299.414"	"376.042"	"250.332"	"290.662"	"233.364"	"25.858"	"12.482"
"1990"	"9.434"	"49.852"	"62.02"	"152.856"	"169.534"	"524.088"	"449.664"	"216.679"	"423.745"	"83.038"	"6.165"	"10.62"
"1991"	"13.805"	"10.349"	"59.388"	"94.871"	"294.711"	"427.033"	"387.849"	"337.25"	"307.822"	"205.884"	"23.513"	"38.608"
"1992"	"23.173"	"81.789"	"79.957"	"131.269"	"169.117"	"327.487"	"387.087"	"258.896"	"283.631"	"135.325"	"8.767"	"8.419"
"1993"	"35.854"	"76.62"	"86.032"	"55.591"	"268.277"	"454.94"	"296.36"	"440.734"	"328.918"	"87.62"	"3.523"	"0.515"
"1994"	"18.781"	"43.288"	"108.628"	"128.499"	"188.985"	"314.654"	"224.746"	"252.969"	"239.006"	"246.688"	"21.131"	"2.027"
"1995"	"13.451"	"47.551"	"56.17"	"65.044"	"299.556"	"446.691"	"354.743"	"286.64"	"349.537"	"62.709"	"44.445"	"14.847"
"1996"	"15.902"	"29.637"	"132.221"	"117.55"	"475.619"	"142.188"	"383.892"	"176.597"	"135.981"	"155.036"	"2.987"	"1.266"
"1997"	"10.843"	"34.816"	"86.869"	"64.473"	"156.964"	"351.396"	"347.781"	"193.748"	"271.375"	"34.928"	"24.146"	"31.037"
"1998"	"17.621"	"63.553"	"110.377"	"79.767"	"293.762"	"571.359"	"396.585"	"287.915"	"105.12"	"89.292"	"31.317"	"0.029"
"1999"	"1.144"	"21.185"	"23.419"	"153.63"	"254.826"	"305.956"	"361.089"	"313.524"	"164.302"	"164.733"	"17.132"	"1.634"
"2000"	"31.618"	"15.547"	"60.947"	"195.039"	"257.792"	"254.793"	"334.844"	"379.558"	"258.943"	"63.12"	"7.297"	"0.68"
"2001"	"0.472"	"24.669"	"44.487"	"139.699"	"246.667"	"244.823"	"415.119"	"277.165"	"249.464"	"181.308"	"19.718"	"3.293"
"2002"	"31.742"	"17.615"	"53.813"	"207.149"	"296.468"	"304.625"	"402.891"	"282.16"	"270.69"	"47.153"	"38.246"	"1.448"
