
"Year"	"Jan"	"Feb"	"Mar"	"Apr"	"May"	"Jun"	"Jul"	"Aug"	"Sep"	"Oct"	"Nov"	"Dec"
"1901"	"16.285"	"20.613"	"25.521"	"31.075"	"30.77"	"30.877"	"28.611"	"28.111"	"27.783"	"27.027"	"21.527"	"17.467"
"1902"	"18.098"	"20.621"	"27.23"	"29.075"	"30.439"	"30.368"	"28.043"	"28.412"	"27.883"	"25.966"	"21.119"	"16.959"
"1903"	"17.5"	"19.652"	"25.753"	"30.807"	"32.341"	"29.607"	"29.311"	"28.051"	"27.851"	"26.219"	"20.68"	"16.687"
"1904"	"17.129"	"20.221"	"26.322"	"31.483"	"29.802"	"29"	"27.512"	"27.944"	"27.944"	"26.026"	"20.95"	"18.027"
"1905"	"16.753"	"17.368"	"23.914"	"27.506"	"29.001"	"31.739"	"28.043"	"27.775"	"27.444"	"26.227"	"21.488"	"17.419"
"1906"	"16.83"	"19.453"	"23.682"	"31.114"	"31.44"	"30.368"	"28.504"	"27.812"	"28.312"	"26.128"	"21.418"	"17.818"
"1907"	"18.329"	"19.652"	"23.614"	"27.906"	"30.502"	"30.076"	"28.312"	"28.181"	"27.944"	"26.267"	"21.41"	"17.027"
"1908"	"16.213"	"20.045"	"26.161"	"32.884"	"31.647"	"29.976"	"28.213"	"27.889"	"28.051"	"26.696"	"20.98"	"16.619"
"1909"	"18.4"	"20.354"	"27.222"	"28.335"	"31.578"	"28.76"	"28.273"	"27.212"	"28.02"	"26.196"	"22.402"	"17.787"
"1910"	"16.822"	"19.882"	"25.929"	"30.683"	"30.911"	"29.199"	"27.851"	"27.752"	"28.051"	"26.128"	"20.818"	"16.587"
"1911"	"18.921"	"19.644"	"24.813"	"30.183"	"31.586"	"28.968"	"29.02"	"27.912"	"27.483"	"26.026"	"21.35"	"16.026"
"1912"	"17.722"	"21.321"	"25.601"	"28.515"	"30.101"	"30.277"	"27.944"	"27.912"	"28.051"	"26.128"	"20.711"	"16.88"
"1913"	"17.022"	"20.244"	"24.184"	"31.883"	"29.771"	"27.728"	"28.412"	"27.512"	"27.96"	"25.588"	"20.419"	"16.718"
"1914"	"17.398"	"20.645"	"25.313"	"27.906"	"29.832"	"29.028"	"27.912"	"27.712"	"27.851"	"25.258"	"21.319"	"17.818"
"1915"	"17.959"	"20.313"	"24.821"	"29.954"	"30.71"	"29.199"	"29.189"	"28.651"	"27.944"	"27.764"	"23.319"	"17.619"
"1916"	"17.289"	"20.713"	"27.338"	"30.414"	"33.756"	"28.828"	"28.252"	"28.181"	"28.051"	"26.527"	"21.418"	"16.619"
"1917"	"16.79"	"20.213"	"24.86"	"29.538"	"28.923"	"29.128"	"28.312"	"27.98"	"27.552"	"26.058"	"21.18"	"16.979"
"1918"	"16.29"	"20.313"	"26.521"	"29.075"	"29.999"	"28.037"	"29.52"	"27.444"	"28.152"	"26.427"	"21.519"	"17.219"
"1919"	"18.421"	"19.445"	"26.781"	"29.607"	"31.171"	"29.436"	"28.412"	"28.342"	"27.752"	"26.026"	"21.68"	"17.318"
"1920"	"17.959"	"20.213"	"25.053"	"30.315"	"31.102"	"31.407"	"28.712"	"28.111"	"27.752"	"26.696"	"21.879"	"17.548"
"1921"	"18.23"	"20.252"	"26.898"	"31.06"	"33.127"	"30.576"	"28.721"	"27.912"	"27.944"	"25.327"	"20.787"	"18.143"
"1922"	"17.821"	"20.922"	"26.921"	"31.544"	"32.616"	"28.568"	"28.312"	"27.704"	"27.412"	"25.288"	"21.379"	"17.519"
"1923"	"17.79"	"20.213"	"25.818"	"30.951"	"31.81"	"31.116"	"28.412"	"27.788"	"28.252"	"25.826"	"21.387"	"18.318"
"1924"	"17.821"	"20.713"	"27.83"	"31.483"	"32.042"	"32.016"	"28.312"	"28.111"	"27.351"	"26.588"	"21.18"	"17.456"
"1925"	"16.23"	"19.113"	"25.521"	"29.143"	"30.55"	"29.86"	"27.912"	"28.381"	"27.851"	"25.628"	"21.319"	"17.159"
"1926"	"17.398"	"21.122"	"24.89"	"28.968"	"30.971"	"32.892"	"28.412"	"28.08"	"27.812"	"26.087"	"20.587"	"18.219"
"1927"	"17.714"	"20.221"	"24.021"	"30.815"	"30.17"	"30.776"	"28.48"	"28.08"	"28.16"	"26.696"	"21.926"	"18.318"
"1928"	"17.821"	"20.913"	"27.23"	"30.244"	"31.147"	"29.036"	"28.072"	"28.42"	"28.551"	"26.735"	"21.519"	"17.858"
"1929"	"17.492"	"19.421"	"25.998"	"29.954"	"32.318"	"31.445"	"27.98"	"27.72"	"28.051"	"25.518"	"20.988"	"16.788"
"1930"	"16.329"	"19.945"	"26.23"	"29.954"	"31.179"	"30.308"	"28.172"	"27.912"	"27.944"	"26.558"	"20.98"	"16.82"
"1931"	"18.521"	"20.082"	"24.735"	"31.627"	"30.879"	"31.86"	"28.12"	"28.441"	"27.928"	"26.472"	"21.056"	"17.887"
"1932"	"18.421"	"19.461"	"26.781"	"30.335"	"32.088"	"30.724"	"28.326"	"28.15"	"28.197"	"26.927"	"21.488"	"18.111"
"1933"	"16.089"	"20.729"	"26.089"	"28.406"	"31.439"	"29.459"	"28.072"	"27.381"	"27.912"	"26.188"	"21.119"	"17.619"
"1934"	"16.83"	"19.814"	"25.653"	"30.474"	"31.542"	"29.507"	"28.512"	"27.92"	"28.111"	"25.659"	"20.787"	"17.928"
"1935"	"16.851"	"20.681"	"26.742"	"29.625"	"33.109"	"31.553"	"28.85"	"27.32"	"27.82"	"26.087"	"21.448"	"17.527"
"1936"	"16.66"	"20.453"	"26.721"	"30.873"	"29.932"	"28.765"	"28.048"	"28.472"	"27.359"	"25.779"	"21.855"	"18.279"
"1937"	"16.15"	"20.11"	"24.821"	"29.893"	"30.147"	"29.766"	"28.718"	"27.972"	"28.089"	"25.659"	"21.156"	"16.979"
"1938"	"18.861"	"19.251"	"27.975"	"32.242"	"29.2"	"29.189"	"28.281"	"27.873"	"28.781"	"26.888"	"20.988"	"17.448"
"1939"	"18.521"	"21.353"	"25.214"	"31.648"	"31.739"	"30.46"	"28.218"	"27.601"	"27.972"	"26.358"	"21.517"	"18.287"
"1940"	"17.459"	"20.582"	"24.422"	"30.511"	"31.668"	"31.068"	"28.249"	"28.141"	"28.312"	"27.035"	"23.526"	"18.627"
"1941"	"18.082"	"20.982"	"27.53"	"31.583"	"30.911"	"30.029"	"28.488"	"28.373"	"28.281"	"25.834"	"21.587"	"19.119"
"1942"	"18.082"	"20.713"	"26.813"	"30.214"	"32.889"	"31.868"	"28.509"	"27.401"	"27.412"	"26.227"	"22.98"	"17.698"
"1943"	"18.897"	"19.29"	"26.298"	"28.414"	"31.881"	"29.483"	"28.15"	"27.62"	"28.213"	"27.159"	"22.24"	"19.358"
"1944"	"18.093"	"20.653"	"25.682"	"28.329"	"33.709"	"31.36"	"28.009"	"27.98"	"28.168"	"26.287"	"21.887"	"19.358"
"1945"	"17.39"	"19.584"	"26.885"	"29.064"	"30.809"	"30.676"	"28.749"	"28.452"	"28.373"	"25.719"	"21.41"	"17.219"
"1946"	"18.411"	"22.56"	"26.46"	"26.992"	"30.162"	"29.728"	"28.04"	"28.04"	"28.032"	"26.128"	"22.463"	"18.748"
"1947"	"18.282"	"20.91"	"26.798"	"32.038"	"31.923"	"31.076"	"28.441"	"28.101"	"27.944"	"26.295"	"22.219"	"18.848"
"1948"	"19.382"	"21.122"	"25.356"	"30.823"	"30.679"	"30.492"	"27.472"	"27.401"	"28.064"	"26.219"	"22.151"	"16.856"
"1949"	"18.25"	"20.173"	"26.342"	"27.823"	"28.17"	"30.308"	"28.312"	"28.343"	"28.004"	"26.916"	"20.808"	"17.027"
"1950"	"18.429"	"20.176"	"25.321"	"30.567"	"31.6"	"29.628"	"28.37"	"27.48"	"28.204"	"26.156"	"21.002"	"18.01"
"1951"	"17.482"	"21.074"	"26.451"	"30.398"	"31.909"	"30.484"	"28.373"	"28.981"	"28.803"	"27.467"	"22.288"	"18.842"
"1952"	"18.829"	"22.001"	"26.864"	"27.429"	"30.55"	"30.268"	"27.928"	"27.772"	"27.583"	"26.588"	"21.819"	"18.25"
"1953"	"17.393"	"21.814"	"28.401"	"30.777"	"31.81"	"29.607"	"27.643"	"27.833"	"27.452"	"26.419"	"21.579"	"19.55"
"1954"	"16.721"	"22.376"	"26.113"	"32.796"	"32.071"	"28.655"	"27.552"	"27.712"	"27.681"	"25.058"	"19.841"	"17.858"
"1955"	"17.838"	"20.653"	"27.7"	"29.937"	"32.541"	"30.238"	"27.783"	"27.691"	"28.304"	"26.747"	"22.332"	"17.858"
"1956"	"18.085"	"20.15"	"26.951"	"31.022"	"31.418"	"27.949"	"27.78"	"27.752"	"27.504"	"26.259"	"21.303"	"18.598"
"1957"	"18.093"	"19.633"	"25.359"	"30.807"	"34.503"	"30.919"	"28.08"	"28.092"	"28.16"	"26.517"	"21.559"	"18.927"
"1958"	"19.522"	"20.85"	"26.969"	"31.803"	"34.138"	"32.908"	"29.349"	"27.843"	"28.241"	"27.787"	"22.187"	"19.419"
"1959"	"18.329"	"20.23"	"26.021"	"30.974"	"32.401"	"30.175"	"28.48"	"28.342"	"27.772"	"26.89"	"21.488"	"18.088"
"1960"	"17.73"	"22.65"	"25.022"	"31.703"	"31.967"	"30.416"	"27.849"	"28.048"	"27.691"	"26.656"	"20.917"	"18.287"
"1961"	"18.751"	"18.99"	"27.153"	"31.435"	"32.499"	"29.62"	"28.133"	"28.342"	"27.933"	"25.987"	"20.748"	"16.002"
"1962"	"16.773"	"21.235"	"25.905"	"31.056"	"31.27"	"30.167"	"29.112"	"27.975"	"28.064"	"25.795"	"21.587"	"18.318"
"1963"	"16.934"	"22.044"	"25.952"	"29.514"	"29.739"	"29.788"	"28.512"	"28.304"	"28.464"	"26.866"	"23.198"	"18.795"
"1964"	"17.824"	"21.184"	"27.352"	"30.744"	"30.101"	"31.267"	"27.712"	"28.181"	"28.111"	"26.704"	"21.971"	"18.658"
"1965"	"18.889"	"21.182"	"24.85"	"29.996"	"32.57"	"31.655"	"28.252"	"27.96"	"28.143"	"26.727"	"22.506"	"17.594"
"1966"	"17.903"	"22.605"	"26.943"	"32.096"	"33.11"	"31.484"	"28.921"	"28.304"	"28.221"	"26.207"	"22.906"	"18.255"
"1967"	"18.729"	"22.261"	"24.821"	"28.254"	"31.449"	"31.015"	"28.672"	"27.941"	"27.972"	"26.298"	"21.458"	"19.539"
"1968"	"17.821"	"20.132"	"26.254"	"30.375"	"32.878"	"28.488"	"27.873"	"28.072"	"28.891"	"25.826"	"21.68"	"20.933"
"1969"	"17.522"	"21.436"	"27.729"	"30.982"	"30.062"	"30.376"	"28.32"	"27.312"	"27.444"	"26.235"	"22.627"	"18.119"
"1970"	"18.061"	"20.713"	"25.861"	"31.283"	"32.331"	"29.36"	"28.312"	"28.12"	"27.521"	"26.196"	"21.059"	"17.127"
"1971"	"17.352"	"19.88"	"24.93"	"26.835"	"28.399"	"28.528"	"27.011"	"26.712"	"27.383"	"26.087"	"20.579"	"17.779"
"1972"	"17.341"	"18.102"	"25.673"	"30.058"	"32.722"	"30.715"	"28.619"	"27.849"	"26.007"	"25.55"	"20.582"	"17.451"
"1973"	"17.436"	"20.928"	"24.152"	"30.206"	"29.739"	"28.26"	"28.312"	"28.08"	"27.521"	"26.227"	"21.611"	"17.947"
"1974"	"16.029"	"20.034"	"25.509"	"30.013"	"30.078"	"30.216"	"27.912"	"27.952"	"27.752"	"27.056"	"21.342"	"15.843"
"1975"	"17.482"	"20.673"	"25.913"	"30.327"	"31.062"	"29.86"	"26.503"	"27.98"	"27.412"	"27.227"	"22.248"	"17.588"
"1976"	"17.838"	"21.373"	"26.713"	"30.075"	"29.639"	"30.568"	"28.712"	"27.912"	"27.483"	"26.819"	"23.37"	"18.119"
"1977"	"17.461"	"20.474"	"27.681"	"29.804"	"27.762"	"28.876"	"28.072"	"28.68"	"28.351"	"25.897"	"23.067"	"16.058"
"1978"	"16.561"	"20.113"	"24.652"	"28.875"	"30.366"	"28.8"	"28.143"	"28.512"	"27.612"	"26.111"	"22.811"	"18.68"
"1979"	"18.553"	"19.526"	"25.621"	"30.296"	"32.502"	"31.328"	"28.752"	"29.189"	"27.233"	"26.827"	"24.25"	"18.567"
"1980"	"17.821"	"20.613"	"25.542"	"31.536"	"30.227"	"29.217"	"28.101"	"27.741"	"28.283"	"26.128"	"22.28"	"19.039"
"1981"	"17.192"	"20.634"	"24.921"	"27.003"	"28.131"	"30.06"	"27.941"	"28.381"	"27.912"	"26.487"	"21.819"	"18.119"
"1982"	"18.99"	"20.313"	"23.721"	"29.383"	"32.779"	"29.968"	"30.419"	"28.12"	"28.852"	"26.69"	"22.187"	"18.123"
"1983"	"17.292"	"20.209"	"26.121"	"28.946"	"30.002"	"32.069"	"29.112"	"28.58"	"28.46"	"26.287"	"22.05"	"18.035"
"1984"	"17.714"	"19.443"	"26.282"	"31.051"	"32.307"	"28.468"	"28.312"	"28.111"	"27.691"	"27.187"	"20.91"	"18.619"
"1985"	"18.452"	"20.006"	"26.822"	"31.006"	"29.679"	"30.676"	"27.612"	"28.312"	"27.452"	"26.358"	"22.458"	"19.85"
"1986"	"18.413"	"21.036"	"25.353"	"29.615"	"29.001"	"31.168"	"28.181"	"27.543"	"27.643"	"25.628"	"22.319"	"18.782"
"1987"	"18.153"	"21.921"	"25.821"	"29.506"	"30.671"	"31.299"	"28.213"	"27.367"	"28.035"	"27.307"	"23.098"	"20.327"
"1988"	"19.459"	"21.573"	"25.682"	"30.776"	"31.378"	"29.168"	"28.712"	"28.803"	"29.42"	"28.235"	"23.119"	"20.727"
"1989"	"17.911"	"22.574"	"26.39"	"31.915"	"31.07"	"28.899"	"28.512"	"28.496"	"28.32"	"27.603"	"22.59"	"18.381"
"1990"	"18.655"	"21.176"	"24.459"	"29.391"	"29.722"	"30.068"	"28.312"	"29.143"	"28.721"	"25.565"	"23.379"	"19.188"
"1991"	"17.086"	"22.605"	"26.353"	"30.075"	"32.579"	"29.091"	"29.004"	"28.396"	"27.791"	"27.296"	"23.757"	"18.088"
"1992"	"16.565"	"19.369"	"26.99"	"31.075"	"29.97"	"30.82"	"28.399"	"28.504"	"28.32"	"26.783"	"22.859"	"18.127"
"1993"	"17.838"	"22.25"	"24.869"	"28.984"	"29.926"	"30.684"	"29.212"	"27.936"	"27.912"	"27.227"	"22.5"	"19.139"
"1994"	"18.929"	"20.252"	"26.33"	"29.235"	"31.501"	"29.936"	"28.924"	"28.404"	"28.051"	"26.767"	"22.719"	"18.619"
"1995"	"16.705"	"20.856"	"25.581"	"30.206"	"31.591"	"30.916"	"28.051"	"27.775"	"27.912"	"26.787"	"22.98"	"19.067"
"1996"	"17.94"	"20.373"	"26.73"	"29.327"	"31.44"	"29.229"	"28.343"	"27.496"	"28.611"	"26.435"	"22.288"	"18.255"
"1997"	"17.582"	"19.748"	"26.421"	"29.428"	"30.801"	"30.499"	"28.373"	"28.472"	"27.452"	"26.01"	"22.898"	"18.318"
"1998"	"17.258"	"21.321"	"24.598"	"29.954"	"31.57"	"31.939"	"28.611"	"28.611"	"28.651"	"28.564"	"23.319"	"19.587"
"1999"	"18.61"	"22.374"	"27.014"	"32.427"	"31.307"	"30.128"	"28.213"	"28.111"	"27.912"	"27.096"	"22.948"	"19.819"
"2000"	"18.725"	"20.642"	"25.716"	"30.463"	"31.007"	"30.037"	"28.52"	"28.444"	"27.675"	"27.074"	"23.527"	"18.524"
"2001"	"18.266"	"21.228"	"26.222"	"31.014"	"31.508"	"29.588"	"28.433"	"28.812"	"28.682"	"27.595"	"23.995"	"19.604"
"2002"	"18.245"	"22.013"	"26.822"	"30.175"	"31.647"	"30.545"	"29.489"	"28.111"	"28.051"	"26.727"	"22.618"	"19.396"
