
"Year"	"Jan"	"Feb"	"Mar"	"Apr"	"May"	"Jun"	"Jul"	"Aug"	"Sep"	"Oct"	"Nov"	"Dec"
"1901"	"39.098"	"22.128"	"5.491"	"16.147"	"42.43"	"99.145"	"290.152"	"371.012"	"159.362"	"57.691"	"27.973"	"0"
"1902"	"0"	"0.079"	"22.991"	"54.542"	"54.854"	"123.618"	"368.579"	"266.086"	"423.109"	"44.053"	"0.323"	"3.999"
"1903"	"5.462"	"13.302"	"15.656"	"47.912"	"66.958"	"185.46"	"145.749"	"349.24"	"183.523"	"159.465"	"6.596"	"0"
"1904"	"0"	"7.766"	"36.295"	"6.887"	"243.231"	"419.247"	"366.778"	"288.13"	"99.313"	"10.796"	"8.689"	"0.121"
"1905"	"19.471"	"44.322"	"46.972"	"27.781"	"118.504"	"58.108"	"393.371"	"468.655"	"245.111"	"35.993"	"0.121"	"0.725"
"1906"	"34.969"	"85.793"	"32.93"	"2.61"	"60.262"	"231.274"	"246.078"	"259.353"	"118.517"	"196.46"	"4.04"	"0"
"1907"	"2.336"	"36.697"	"52.507"	"31.063"	"56.078"	"267.692"	"226.421"	"241.693"	"259.185"	"33.376"	"0"	"3.566"
"1908"	"13.574"	"38.165"	"6.074"	"1.898"	"53.337"	"350.464"	"339.156"	"299.485"	"139.565"	"6.093"	"0.231"	"0.401"
"1909"	"15.888"	"6.58"	"0.2"	"86.143"	"46.137"	"358.107"	"182.937"	"514.898"	"226.727"	"28.105"	"1.903"	"5.02"
"1910"	"2.184"	"37.582"	"26.635"	"49.669"	"49.183"	"199.417"	"370.967"	"386.577"	"186.873"	"98.091"	"4.891"	"0"
"1911"	"2.927"	"0.357"	"30.435"	"3.819"	"52.812"	"612.215"	"175.901"	"326.791"	"278.352"	"162.594"	"12.544"	"0"
"1912"	"0.096"	"5.77"	"25.8"	"53.868"	"73.114"	"218.758"	"344.86"	"310.725"	"54.321"	"48.187"	"23.268"	"1.078"
"1913"	"0.094"	"37.726"	"38.882"	"3.251"	"112.076"	"567.923"	"174.567"	"390.897"	"219.493"	"63.386"	"3.515"	"13.585"
"1914"	"0"	"33.918"	"19.033"	"23.5"	"106.867"	"137.398"	"545.32"	"393.911"	"119.19"	"44.29"	"0"	"7.696"
"1915"	"3.332"	"20.301"	"35.257"	"10.734"	"88.477"	"256.914"	"275.892"	"361.045"	"219.469"	"55.588"	"19.243"	"0"
"1916"	"0"	"7.193"	"5.16"	"24.037"	"32.084"	"422.15"	"326.143"	"322.187"	"323.228"	"327.169"	"12.861"	"0"
"1917"	"1.937"	"30.319"	"11.992"	"17.422"	"115.116"	"205.065"	"348.877"	"163.669"	"381.411"	"301.996"	"10.11"	"0"
"1918"	"2.821"	"0.924"	"12.316"	"43.358"	"101.789"	"281.834"	"115.36"	"618.511"	"209.207"	"20.409"	"0.231"	"3.013"
"1919"	"17.045"	"23.527"	"16.23"	"11.038"	"91.087"	"242.79"	"292.797"	"431.73"	"200.985"	"135.893"	"14.715"	"0"
"1920"	"0.966"	"27.134"	"59.814"	"10.878"	"50.061"	"119.726"	"504.792"	"272.831"	"400.911"	"14.931"	"0.063"	"0"
"1921"	"36.684"	"3.399"	"12.288"	"17.701"	"35.752"	"230.22"	"319.352"	"460.058"	"205.204"	"43.843"	"0"	"0"
"1922"	"9.445"	"4.742"	"0.2"	"5.067"	"28.871"	"501.579"	"311.837"	"369.66"	"280.093"	"37.265"	"0"	"6.184"
"1923"	"0.961"	"51.255"	"4.552"	"5.495"	"27.575"	"163.282"	"216.203"	"344.583"	"142.232"	"106.4"	"4.361"	"1.218"
"1924"	"6.166"	"10.701"	"0.671"	"21.292"	"40.294"	"287.843"	"375.995"	"410.118"	"268.52"	"88.176"	"42.569"	"0"
"1925"	"57.63"	"12.652"	"7.883"	"78.184"	"68.886"	"286.044"	"509.738"	"282.749"	"255.185"	"28.854"	"3.763"	"0"
"1926"	"34.418"	"0.954"	"75.307"	"18.569"	"115.691"	"69.36"	"448.538"	"358.676"	"238.867"	"55.981"	"0"	"6.184"
"1927"	"24.728"	"94.089"	"42.089"	"4.421"	"70.555"	"280.616"	"315.716"	"339.767"	"95.021"	"55.198"	"20.943"	"0"
"1928"	"56.069"	"2.11"	"1.812"	"13.071"	"100.012"	"464.061"	"448.055"	"210.743"	"263.27"	"122.862"	"0.381"	"0.768"
"1929"	"38.59"	"2.588"	"20.816"	"30.297"	"61.798"	"179.69"	"382.709"	"205.01"	"77.994"	"324.441"	"0.321"	"4.689"
"1930"	"0.996"	"13.579"	"9.335"	"14.223"	"65.738"	"178.297"	"423.751"	"282.181"	"169.69"	"80.361"	"27.009"	"4.763"
"1931"	"17.68"	"72.625"	"25.25"	"2.984"	"64.846"	"155.468"	"463.139"	"205.74"	"458.299"	"49.248"	"13.211"	"0.56"
"1932"	"0.063"	"45.11"	"7.548"	"26.267"	"107.32"	"80.391"	"362.245"	"275.483"	"260.423"	"49.791"	"32.716"	"3.995"
"1933"	"51.45"	"15.973"	"1.913"	"39.594"	"90.94"	"281.016"	"319.723"	"477.718"	"138.495"	"78.257"	"0"	"0"
"1934"	"13.062"	"33.705"	"1.191"	"47.714"	"51.462"	"214.72"	"268.022"	"340.726"	"279.985"	"74.772"	"6.801"	"2.064"
"1935"	"18.252"	"14.163"	"11.905"	"4.5"	"24.978"	"178.274"	"203.098"	"637.077"	"367.069"	"11.418"	"0"	"1.249"
"1936"	"7.402"	"9.163"	"17.363"	"6.216"	"142.256"	"235.248"	"318.733"	"261.599"	"497.228"	"93.366"	"0.121"	"15.292"
"1937"	"0"	"35.54"	"6.986"	"60.061"	"75.242"	"237.109"	"158.087"	"465.976"	"304.971"	"144.02"	"0.946"	"0.623"
"1938"	"2.874"	"27.451"	"9.997"	"4.322"	"135.424"	"317.811"	"187.799"	"304.617"	"107.659"	"53.313"	"2.799"	"0"
"1939"	"9.311"	"15.443"	"9.122"	"13.044"	"47.29"	"213.388"	"513.072"	"325.422"	"342.231"	"152.148"	"2.185"	"0.2"
"1940"	"0"	"32.032"	"70.909"	"7.958"	"68.031"	"143.408"	"269.489"	"350.271"	"151.671"	"50.031"	"0.121"	"1.997"
"1941"	"36.715"	"1.139"	"12.297"	"17.795"	"52.589"	"347.226"	"347.381"	"397.25"	"277.833"	"193.132"	"22.058"	"0"
"1942"	"1.315"	"60.898"	"8.967"	"10.349"	"22.304"	"121.551"	"442.6"	"633.502"	"463.998"	"73.81"	"2.306"	"0.401"
"1943"	"43.871"	"14.696"	"20.808"	"95.287"	"74.813"	"182.947"	"692.58"	"347.384"	"255.543"	"72.061"	"0"	"0"
"1944"	"16.454"	"49.638"	"58.663"	"37.743"	"57.759"	"197.748"	"399.52"	"524.715"	"144.266"	"54.952"	"0"	"0"
"1945"	"36.453"	"27.156"	"6.736"	"70.086"	"66.435"	"207.311"	"269.222"	"452.432"	"329.092"	"176.712"	"0"	"0.768"
"1946"	"0"	"3.661"	"21.566"	"36.447"	"86.399"	"184.553"	"324.821"	"299.773"	"214.172"	"207.645"	"19.639"	"0"
"1947"	"0.999"	"6.912"	"28.607"	"6.034"	"56.4"	"204.531"	"358.703"	"321.802"	"347.763"	"61.364"	"0.244"	"2.935"
"1948"	"4.435"	"7.599"	"10.295"	"96.267"	"85.576"	"183.582"	"316.69"	"300.382"	"109.72"	"119.767"	"23.597"	"0"
"1949"	"1.844"	"15.288"	"19.142"	"35.205"	"141.475"	"373.668"	"339.992"	"528.514"	"163.966"	"41.892"	"0"	"0"
"1950"	"0.206"	"11.617"	"53.191"	"10.009"	"34.557"	"437.408"	"283.917"	"339.541"	"163.411"	"76.099"	"11.144"	"0"
"1951"	"7.448"	"0.079"	"38.699"	"5.234"	"31.687"	"215.951"	"493.621"	"389.188"	"301.027"	"119.471"	"27.013"	"0"
"1952"	"0"	"10.591"	"33.56"	"49.461"	"33.484"	"283.712"	"329.999"	"326.177"	"257.534"	"126.618"	"31.992"	"0"
"1953"	"50.507"	"13.897"	"31.995"	"1.085"	"35.474"	"219.596"	"450.51"	"256.91"	"302.698"	"8.804"	"1.156"	"0"
"1954"	"21.853"	"3.982"	"0.911"	"1.257"	"46.401"	"288.964"	"342.54"	"328.302"	"302.076"	"79.526"	"0"	"4.724"
"1955"	"40.435"	"8.678"	"15.607"	"32.205"	"37.593"	"197.73"	"405.5"	"202.74"	"171.134"	"84.307"	"23.054"	"0.267"
"1956"	"14.582"	"39.276"	"26.117"	"57.668"	"119.793"	"346.328"	"251.463"	"396.719"	"309.255"	"192.809"	"30.702"	"5.368"
"1957"	"20.449"	"13.685"	"24.406"	"2.126"	"6.953"	"124.721"	"245.324"	"170.852"	"265.355"	"94.883"	"0"	"0.335"
"1958"	"9.653"	"26.894"	"13.341"	"15.556"	"27.292"	"99.748"	"331.437"	"634.174"	"215.464"	"145.64"	"2.663"	"0"
"1959"	"11.5"	"0.582"	"10.096"	"11.405"	"71.103"	"173.953"	"284.846"	"363.402"	"275.955"	"409.111"	"0"	"0.363"
"1960"	"0.9"	"0.079"	"40.451"	"0.748"	"42.31"	"140.366"	"286.312"	"233.708"	"243.939"	"70.614"	"2.276"	"0"
"1961"	"10.751"	"84.857"	"1.603"	"2.117"	"40.93"	"227.339"	"167.269"	"364.633"	"278.445"	"148.632"	"2.089"	"3.057"
"1962"	"13.391"	"17.261"	"3.535"	"3.905"	"64.446"	"175.139"	"213.394"	"525.391"	"141.373"	"78.461"	"0"	"1.745"
"1963"	"0.94"	"2.94"	"30.883"	"73.073"	"114.884"	"281.242"	"291.419"	"125.398"	"230.011"	"254.38"	"13.576"	"0.244"
"1964"	"0.732"	"0.869"	"11.142"	"58.875"	"57.547"	"202.132"	"267.091"	"245.041"	"162.082"	"83.797"	"4.886"	"0"
"1965"	"0"	"15.263"	"10.205"	"22.996"	"29.857"	"125.422"	"256.035"	"408.804"	"211.089"	"35.514"	"6.185"	"1.886"
"1966"	"44.545"	"1.551"	"0.744"	"10.058"	"24.816"	"175.52"	"133.782"	"330.861"	"142.399"	"39.265"	"34.216"	"16.346"
"1967"	"8.405"	"1.01"	"58.327"	"63.069"	"27.893"	"162.033"	"250.588"	"407.233"	"134.457"	"47.744"	"0"	"1.034"
"1968"	"15.557"	"3.892"	"11.527"	"14.231"	"26.383"	"404.852"	"366.438"	"324.022"	"93.197"	"186.746"	"10.556"	"2.454"
"1969"	"5.187"	"5.395"	"31.113"	"29.301"	"79.559"	"171.957"	"312.346"	"419.718"	"216.545"	"75.141"	"11.811"	"0"
"1970"	"23.835"	"9.981"	"13.027"	"2.528"	"47.773"	"212.673"	"300.114"	"259.276"	"333.523"	"176.043"	"6.365"	"0"
"1971"	"29.204"	"22.867"	"8.958"	"142.112"	"92.269"	"324.95"	"437.289"	"641.252"	"327.419"	"87.817"	"6.771"	"0"
"1972"	"8.35"	"32.784"	"1.194"	"12.971"	"24.737"	"82.261"	"159.421"	"417.402"	"166.685"	"60.02"	"2.427"	"0.016"
"1973"	"6.051"	"5.237"	"24.776"	"6.703"	"114.468"	"436.091"	"272.367"	"229.849"	"538.634"	"196.328"	"35.894"	"15.277"
"1974"	"2.739"	"0.088"	"52.743"	"24.035"	"87.306"	"109.931"	"290.942"	"209.926"	"378.057"	"53.151"	"5.074"	"1.173"
"1975"	"8.416"	"7.311"	"3.878"	"14.433"	"80.746"	"141.253"	"367.684"	"158.326"	"231.568"	"88.559"	"10.269"	"0"
"1976"	"0.6"	"15.201"	"4.03"	"19.643"	"104.777"	"86.785"	"352.657"	"281.262"	"307.239"	"37.297"	"1.13"	"0"
"1977"	"4.343"	"25.434"	"1.646"	"35.542"	"105.83"	"369.314"	"651.401"	"167.85"	"144.447"	"111.233"	"21.307"	"22.742"
"1978"	"1.561"	"52.984"	"52.194"	"55.502"	"99.489"	"285.356"	"342.031"	"341.751"	"521.505"	"173.71"	"26.318"	"2.47"
"1979"	"36.347"	"32.923"	"3.514"	"35.989"	"25.978"	"94.156"	"269.413"	"268.32"	"215.974"	"84.803"	"6.907"	"28.24"
"1980"	"21.557"	"13.547"	"52.222"	"2.146"	"90.584"	"293.935"	"252.398"	"270.79"	"142.692"	"79.819"	"7.387"	"0.016"
"1981"	"15.173"	"15.644"	"41.146"	"86.589"	"113.937"	"152.257"	"367.129"	"228.55"	"183.036"	"1.092"	"2.017"	"15.196"
"1982"	"1.929"	"9.073"	"23.211"	"64.69"	"28.763"	"117"	"164.245"	"257.928"	"205.679"	"43.743"	"9.943"	"0.127"
"1983"	"14.333"	"16.542"	"23.81"	"26.252"	"110.506"	"201.649"	"385.587"	"242.67"	"132.487"	"149.165"	"0.291"	"5.862"
"1984"	"27.271"	"12.747"	"6.232"	"41.217"	"61.638"	"496.872"	"375.336"	"301.43"	"444.641"	"53.849"	"0"	"0"
"1985"	"6.735"	"8.103"	"2.039"	"16.962"	"62.769"	"135.432"	"394.955"	"162.376"	"193.088"	"72.864"	"1.715"	"16.291"
"1986"	"8.165"	"4.252"	"0.45"	"46.692"	"99.055"	"195.569"	"291.487"	"236.054"	"392.529"	"90.808"	"29.831"	"4.018"
"1987"	"0.9"	"4.24"	"19.105"	"38.643"	"66.666"	"100.036"	"267.816"	"181.174"	"132.937"	"37.119"	"14.432"	"2.453"
"1988"	"5.425"	"30.404"	"25.214"	"10.772"	"63.662"	"161.224"	"283.282"	"490.944"	"129.504"	"62.791"	"25.683"	"3.275"
"1989"	"7.299"	"4.242"	"4.775"	"1.242"	"95.908"	"236.958"	"222.393"	"306.884"	"294.104"	"69.15"	"8.467"	"2.65"
"1990"	"0.121"	"17.864"	"22.73"	"27.68"	"190.929"	"296.598"	"451.521"	"282.32"	"297.313"	"308.424"	"7.277"	"0.456"
"1991"	"6.332"	"4.832"	"28.19"	"13.793"	"42.401"	"190.167"	"288.352"	"498.083"	"244.319"	"89.013"	"2.569"	"11.484"
"1992"	"11.699"	"5.808"	"3.108"	"14.616"	"65.698"	"148.796"	"333.778"	"230.198"	"173.412"	"42.229"	"0.725"	"0.184"
"1993"	"16.053"	"4.064"	"35.065"	"47.797"	"83.399"	"270.456"	"239.567"	"342.609"	"323.89"	"109.555"	"8.35"	"0"
"1994"	"31.419"	"24.463"	"27.123"	"47.337"	"58.484"	"135.663"	"258.108"	"369.2"	"117.957"	"158.465"	"9.003"	"0.121"
"1995"	"22.739"	"21.875"	"15.453"	"16.872"	"63.802"	"149.379"	"255.24"	"246.358"	"364.59"	"75.24"	"24.333"	"0.857"
"1996"	"10.923"	"12.924"	"6.003"	"33.756"	"56.622"	"134.49"	"166.03"	"434.295"	"144.726"	"141.987"	"0"	"0"
"1997"	"21.59"	"9.277"	"24.745"	"34.427"	"125.401"	"68.561"	"262.166"	"365.975"	"248.272"	"75.159"	"17.077"	"12.695"
"1998"	"13.836"	"41.241"	"18.719"	"30.623"	"114.421"	"107.06"	"195.465"	"271.843"	"239.375"	"300.539"	"23.414"	"0"
"1999"	"7.457"	"3.888"	"1.415"	"1.748"	"101.579"	"178.343"	"272.085"	"401.24"	"293.068"	"86.172"	"10.381"	"0.121"
"2000"	"6.314"	"24.536"	"4.869"	"35.097"	"84.976"	"208.496"	"143.134"	"260.989"	"227.81"	"31.823"	"3.303"	"1.106"
"2001"	"1.366"	"5.591"	"35.147"	"25.204"	"101.868"	"155.819"	"210.46"	"269.202"	"130.133"	"146.966"	"5.889"	"0"
"2002"	"20.648"	"5.78"	"13.186"	"42.796"	"45.689"	"166.913"	"208.255"	"316.637"	"191.893"	"111.508"	"15.193"	"0"
