
"Year"	"Jan"	"Feb"	"Mar"	"Apr"	"May"	"Jun"	"Jul"	"Aug"	"Sep"	"Oct"	"Nov"	"Dec"
"1901"	"13.229"	"15.027"	"18.196"	"21.422"	"21.881"	"22.815"	"22.73"	"22.77"	"22.714"	"21.636"	"17.371"	"14.263"
"1902"	"13.493"	"14.794"	"18.895"	"19.703"	"22.237"	"22.16"	"22.831"	"22.621"	"22.514"	"20.247"	"16.654"	"13.697"
"1903"	"12.47"	"14.111"	"18.229"	"21.258"	"22.144"	"22.622"	"23.281"	"21.921"	"22.737"	"21.804"	"17.523"	"14.417"
"1904"	"12.729"	"14.982"	"18.457"	"19.958"	"21.748"	"22.818"	"22.753"	"22.621"	"22.814"	"21.137"	"16.818"	"13.348"
"1905"	"12.426"	"11.896"	"17.063"	"19.125"	"22.25"	"23.217"	"23.053"	"21.995"	"23.217"	"21.185"	"17.433"	"14.291"
"1906"	"13.374"	"14.294"	"17.38"	"20.133"	"22.508"	"22.913"	"23.432"	"21.667"	"23.613"	"20.972"	"17.543"	"14.245"
"1907"	"13.995"	"14.08"	"17.277"	"19.468"	"21.277"	"21.776"	"22.164"	"22.821"	"22.228"	"21.338"	"17.693"	"14.135"
"1908"	"13.27"	"14.572"	"18.858"	"21.675"	"21.512"	"22.551"	"22.408"	"22.621"	"22.676"	"21.037"	"17.043"	"13.99"
"1909"	"13.005"	"14.645"	"19.291"	"19.954"	"20.852"	"21.692"	"23.192"	"21.97"	"23.518"	"22.159"	"18.611"	"14.5"
"1910"	"13.161"	"14.299"	"17.798"	"20.127"	"21.913"	"21.596"	"21.807"	"22.221"	"22.964"	"20.871"	"17.757"	"13.638"
"1911"	"13.679"	"13.946"	"17.566"	"20.092"	"21.041"	"22.063"	"22.207"	"22.218"	"22.614"	"21.114"	"17.37"	"13.481"
"1912"	"13.193"	"14.824"	"18.029"	"19.338"	"21.612"	"22.247"	"22.293"	"22.098"	"22.415"	"20.637"	"17.588"	"14.147"
"1913"	"13.591"	"15.521"	"17.458"	"19.663"	"20.42"	"21.892"	"22.696"	"22.221"	"22.511"	"20.858"	"16.735"	"13.251"
"1914"	"12.921"	"14.423"	"18.294"	"19.442"	"21.211"	"22.379"	"22.882"	"21.495"	"22.511"	"19.736"	"17.358"	"14.548"
"1915"	"14.358"	"15.016"	"18.464"	"20.617"	"20.978"	"21.624"	"21.699"	"22.031"	"22.351"	"22.928"	"18.978"	"15.049"
"1916"	"13.095"	"15.013"	"18.674"	"19.867"	"21.597"	"22.428"	"22.286"	"22.385"	"22.769"	"20.924"	"18.134"	"13.732"
"1917"	"12.757"	"14.01"	"17.364"	"19.134"	"21.4"	"21.811"	"22.432"	"22.323"	"22.3"	"21.137"	"18.433"	"13.521"
"1918"	"12.989"	"14.346"	"18.095"	"19.947"	"22.187"	"20.859"	"22.624"	"22.02"	"22.714"	"20.999"	"16.991"	"14.299"
"1919"	"14.238"	"14.546"	"19.548"	"20.27"	"22.058"	"22.274"	"22.318"	"22.976"	"21.714"	"20.786"	"17.915"	"14.257"
"1920"	"14.296"	"14.242"	"17.519"	"19.704"	"21.222"	"21.975"	"23.185"	"22.118"	"22.665"	"21.038"	"17.412"	"14.708"
"1921"	"14.535"	"14.918"	"18.494"	"20.216"	"21.522"	"21.372"	"22.769"	"22.62"	"22.514"	"19.767"	"17.293"	"14.002"
"1922"	"14.289"	"15.187"	"18.746"	"20.619"	"22.289"	"21.802"	"22.919"	"22.62"	"22.619"	"20.939"	"17.922"	"14.499"
"1923"	"14.357"	"14.477"	"18.973"	"20.763"	"20.883"	"22.406"	"22.52"	"22.866"	"22.75"	"20.392"	"17.963"	"14.654"
"1924"	"13.627"	"14.546"	"19.81"	"21.035"	"20.821"	"22.464"	"22.867"	"22.523"	"22.265"	"21.932"	"18.394"	"14.007"
"1925"	"12.225"	"13.589"	"18.229"	"20.44"	"21.411"	"22.415"	"22.313"	"22.317"	"22.11"	"19.871"	"16.842"	"13.946"
"1926"	"13.562"	"14.445"	"17.504"	"19.636"	"21.675"	"21.727"	"22.631"	"22.726"	"22.53"	"21.242"	"16.997"	"15.211"
"1927"	"12.906"	"13.991"	"16.529"	"19.362"	"21.11"	"21.903"	"22.73"	"22.549"	"21.948"	"20.772"	"17.142"	"14.595"
"1928"	"14.254"	"15.799"	"18.747"	"21.38"	"21.325"	"21.844"	"22.765"	"22.621"	"22.678"	"20.58"	"16.47"	"14.896"
"1929"	"13.871"	"13.98"	"18.539"	"20.267"	"21.117"	"21.424"	"22.782"	"22.453"	"22.615"	"21.245"	"16.958"	"14.028"
"1930"	"12.025"	"15.038"	"17.929"	"20.104"	"21.944"	"21.226"	"23.019"	"22.408"	"23.175"	"20.447"	"17.984"	"14.265"
"1931"	"13.276"	"14.164"	"18.429"	"21.25"	"21.164"	"21.76"	"22.13"	"22.824"	"22.383"	"22.068"	"17.405"	"14.893"
"1932"	"13.738"	"14.104"	"19.024"	"21.081"	"21.963"	"21.996"	"22.631"	"22.418"	"22.874"	"21.769"	"18.08"	"14.657"
"1933"	"13.144"	"14.91"	"19.33"	"20.392"	"20.976"	"22.561"	"22.73"	"22.357"	"22.932"	"21.489"	"16.524"	"13.79"
"1934"	"13.773"	"14.469"	"18.995"	"21.035"	"21.408"	"21.388"	"22.631"	"22.245"	"22.827"	"21.415"	"16.613"	"14.013"
"1935"	"12.57"	"14.906"	"18.995"	"20.345"	"22.616"	"21.885"	"22.782"	"21.87"	"22.729"	"21.636"	"17.963"	"13.593"
"1936"	"12.159"	"13.992"	"19.058"	"20.753"	"22.047"	"22.711"	"22.831"	"22.67"	"22.704"	"20.814"	"18.159"	"14.761"
"1937"	"11.824"	"15.075"	"18.396"	"21.619"	"21.967"	"22.746"	"23.065"	"22.323"	"22.882"	"21.358"	"16.893"	"14.964"
"1938"	"13.836"	"14.38"	"19.68"	"21.704"	"21.623"	"22.409"	"22.38"	"22.627"	"22.726"	"21.639"	"16.49"	"14.823"
"1939"	"13.214"	"15.204"	"18.6"	"21.278"	"21.713"	"22.16"	"22.629"	"23.019"	"22.71"	"21.047"	"18.026"	"14.815"
"1940"	"12.415"	"14.69"	"16.547"	"21.554"	"21.381"	"22.525"	"22.389"	"23.019"	"22.217"	"21.437"	"17.521"	"15.071"
"1941"	"13.051"	"14.814"	"19.852"	"21.39"	"21.525"	"22.172"	"22.983"	"22.967"	"22.415"	"21.023"	"16.792"	"15.316"
"1942"	"13.457"	"15.481"	"19.063"	"21.021"	"21.459"	"22.128"	"23.003"	"22.523"	"22.072"	"21.691"	"17.812"	"13.961"
"1943"	"13.592"	"13.503"	"17.485"	"19.61"	"21.735"	"22.186"	"22.639"	"21.872"	"22.346"	"20.933"	"18.129"	"14.764"
"1944"	"12.725"	"13.981"	"18.539"	"19.895"	"21.826"	"22.049"	"22.804"	"22.625"	"21.932"	"21.15"	"17.192"	"15.005"
"1945"	"13.358"	"13.692"	"18.828"	"21.259"	"21.459"	"23.011"	"22.729"	"22.302"	"23.213"	"20.438"	"17.638"	"14.197"
"1946"	"13.816"	"16.5"	"18.994"	"20.356"	"21.734"	"22.303"	"22.624"	"23.043"	"22.814"	"20.872"	"18.379"	"15.229"
"1947"	"13.542"	"15.268"	"19.317"	"20.521"	"22.211"	"22.502"	"22.775"	"22.621"	"22.73"	"20.372"	"17.498"	"15.464"
"1948"	"13.649"	"14.461"	"17.614"	"20.336"	"20.207"	"22.122"	"22.4"	"22.721"	"22.936"	"20.733"	"18.344"	"14.106"
"1949"	"13.494"	"14.746"	"17.755"	"18.791"	"20.865"	"21.873"	"22.23"	"22.017"	"22.549"	"21.836"	"17.37"	"13.384"
"1950"	"13.011"	"14.248"	"18.026"	"20.358"	"21.922"	"21.959"	"22.631"	"21.989"	"22.763"	"21.288"	"17.523"	"14.671"
"1951"	"12.979"	"15.293"	"18.91"	"20.794"	"21.178"	"21.793"	"22.248"	"23.12"	"22.717"	"21.588"	"17.8"	"15.806"
"1952"	"13.881"	"16.265"	"17.753"	"21.176"	"21.725"	"23.202"	"22.934"	"22.967"	"22.493"	"22.166"	"18.142"	"14.812"
"1953"	"13.055"	"15.745"	"19.458"	"21.255"	"21.215"	"22.685"	"22.568"	"23.156"	"22.714"	"21.247"	"17.657"	"16.046"
"1954"	"12.396"	"16.31"	"18.848"	"21.177"	"21.655"	"21.695"	"22.121"	"22.176"	"22.991"	"20.685"	"16.715"	"14.79"
"1955"	"13.459"	"14.696"	"18.566"	"20.492"	"21.799"	"22.206"	"22.017"	"21.921"	"23.058"	"21.933"	"18.398"	"13.787"
"1956"	"13.06"	"14.942"	"18.723"	"21.394"	"21.262"	"21.647"	"22.814"	"22.621"	"22.539"	"21.502"	"17.69"	"14.597"
"1957"	"13.725"	"14.028"	"18.445"	"21.268"	"21.808"	"22.318"	"22.688"	"22.876"	"22.804"	"20.437"	"17.12"	"14.651"
"1958"	"13.052"	"14.358"	"18.657"	"21.809"	"21.342"	"23.79"	"23.308"	"21.821"	"23.268"	"21.245"	"17.316"	"14.494"
"1959"	"13.447"	"13.824"	"17.818"	"20.866"	"21.313"	"21.982"	"23.328"	"22.733"	"22.369"	"20.64"	"17.013"	"15.135"
"1960"	"13.505"	"15.244"	"18.106"	"21.81"	"23.054"	"22.846"	"22.326"	"23.378"	"22.65"	"21.578"	"17.727"	"14.715"
"1961"	"13.651"	"13.894"	"18.075"	"21.242"	"22.246"	"22.723"	"23.14"	"23.005"	"23.068"	"21.372"	"16.657"	"13.519"
"1962"	"12.238"	"14.313"	"18.285"	"21.577"	"21.957"	"21.915"	"23.262"	"22.052"	"23.013"	"20.835"	"17.075"	"14.499"
"1963"	"12.956"	"15.774"	"18.812"	"19.98"	"21.135"	"21.752"	"22.4"	"22.368"	"23.345"	"20.57"	"16.753"	"14.644"
"1964"	"12.938"	"14.763"	"18.531"	"19.738"	"21.281"	"21.488"	"21.58"	"22.65"	"22.969"	"22.014"	"18.207"	"14.08"
"1965"	"12.97"	"14.059"	"17.177"	"20.656"	"22.125"	"22.272"	"22.153"	"21.534"	"22.261"	"21.025"	"16.88"	"15.13"
"1966"	"13.829"	"15.933"	"19.366"	"21.372"	"22.661"	"21.161"	"22.897"	"21.966"	"22.415"	"20.373"	"18.99"	"14.65"
"1967"	"14.195"	"15.512"	"17.864"	"20.62"	"22.126"	"22.604"	"22.831"	"23.252"	"22.427"	"20.814"	"16.643"	"14.768"
"1968"	"13.38"	"14.11"	"18.647"	"20.321"	"21.089"	"22.069"	"22.73"	"22.921"	"22.508"	"21.109"	"17.656"	"14.358"
"1969"	"12.926"	"15.16"	"19.195"	"21.326"	"22.249"	"22.178"	"23.207"	"22.055"	"23.081"	"21.278"	"17.656"	"14.677"
"1970"	"12.641"	"14.642"	"18.632"	"21.104"	"21.805"	"22.692"	"22.333"	"22.721"	"21.996"	"20.918"	"17.661"	"14.493"
"1971"	"13.337"	"14.39"	"19.193"	"20.251"	"21.732"	"22.134"	"22.285"	"21.653"	"22.714"	"20.983"	"16.834"	"14.357"
"1972"	"13.957"	"14.383"	"18.439"	"19.912"	"22.39"	"22.782"	"22.999"	"22.675"	"23.007"	"21.536"	"18.088"	"14.731"
"1973"	"14.191"	"15.527"	"19.052"	"22.145"	"21.82"	"22.307"	"23.448"	"22.625"	"22.881"	"21.084"	"17.47"	"13.933"
"1974"	"13.059"	"15.082"	"18.219"	"19.767"	"21.567"	"22.364"	"21.378"	"22.594"	"22.069"	"22.005"	"19.059"	"13.696"
"1975"	"13.224"	"15.111"	"19.063"	"21.543"	"21.58"	"23.269"	"21.953"	"22.621"	"22.337"	"21.75"	"17.212"	"13.563"
"1976"	"13.213"	"15.558"	"18.736"	"20.858"	"21.445"	"20.98"	"22.217"	"22.207"	"22.633"	"20.673"	"18.288"	"14.083"
"1977"	"12.61"	"14.483"	"19.263"	"18.584"	"20.367"	"21.229"	"22.685"	"22.301"	"22.915"	"20.27"	"17.652"	"14.659"
"1978"	"12.505"	"15.35"	"18.195"	"20.559"	"21.618"	"22.466"	"22.421"	"23.259"	"22.052"	"21.938"	"17.637"	"14.63"
"1979"	"14.189"	"15.127"	"18.943"	"22.045"	"23.303"	"23.469"	"22.879"	"22.845"	"22.315"	"20.946"	"19.115"	"15.11"
"1980"	"13.39"	"14.713"	"18.363"	"21.549"	"21.414"	"22.968"	"23.214"	"22.686"	"22.962"	"20.737"	"18.214"	"15.347"
"1981"	"14.042"	"15.332"	"18.34"	"19.511"	"21.853"	"23.002"	"22.994"	"23.031"	"22.866"	"21.641"	"18.357"	"14.784"
"1982"	"14.299"	"14.824"	"18.494"	"19.705"	"22.763"	"22.163"	"22.807"	"23.084"	"22.614"	"21.185"	"17.273"	"14.302"
"1983"	"12.98"	"13.979"	"17.761"	"19.769"	"21.358"	"22.773"	"22.726"	"22.752"	"22.689"	"21.977"	"18.047"	"13.726"
"1984"	"12.51"	"14.618"	"18.788"	"20.626"	"20.734"	"22.271"	"22.309"	"22.809"	"21.814"	"21.145"	"17.116"	"15.437"
"1985"	"13.77"	"14.709"	"18.938"	"20.708"	"21.767"	"21.899"	"22.079"	"22.97"	"22.501"	"22.003"	"17.289"	"15.628"
"1986"	"13.715"	"16.056"	"19.421"	"20.006"	"21.955"	"23.102"	"22.605"	"22.866"	"22.263"	"20.349"	"17.112"	"14.848"
"1987"	"14.339"	"16.235"	"17.697"	"19.883"	"22.059"	"23.179"	"22.642"	"22.619"	"22.415"	"20.859"	"18.721"	"14.851"
"1988"	"14.235"	"16.059"	"18.426"	"21.814"	"21.557"	"22.824"	"22.779"	"22.021"	"22.415"	"21.75"	"18.72"	"16.364"
"1989"	"12.417"	"15.272"	"18.508"	"21.363"	"23.212"	"22.528"	"22.199"	"22.821"	"22.514"	"21.524"	"17.088"	"14.424"
"1990"	"13.938"	"15.461"	"16.883"	"18.845"	"21.884"	"22.367"	"22.634"	"23.308"	"22.464"	"21.185"	"19.42"	"15.353"
"1991"	"12.783"	"16.167"	"19.529"	"20.984"	"20.628"	"22.114"	"22.931"	"22.967"	"22.791"	"22.113"	"17.011"	"14.049"
"1992"	"13.36"	"12.768"	"19.675"	"21.694"	"21.41"	"23.106"	"22.034"	"23.071"	"23.136"	"20.868"	"17.86"	"13.137"
"1993"	"12.93"	"14.955"	"17.531"	"20.234"	"20.521"	"21.651"	"22.865"	"22.321"	"22.481"	"22.181"	"18.579"	"16.053"
"1994"	"14.528"	"14.732"	"18.853"	"20.36"	"22.708"	"22.622"	"23.12"	"23.266"	"23.768"	"20.449"	"18.447"	"14.611"
"1995"	"13.674"	"15.359"	"19.605"	"21.803"	"23.139"	"22.718"	"22.633"	"23.071"	"22.615"	"22.285"	"19.501"	"14.651"
"1996"	"13.629"	"15.63"	"18.494"	"22.122"	"21.712"	"22.574"	"22.632"	"22.549"	"23.371"	"21.601"	"18.824"	"16.407"
"1997"	"13.294"	"13.992"	"18.272"	"19.68"	"22.189"	"22.879"	"22.686"	"23.345"	"22.379"	"21.028"	"18.524"	"15.681"
"1998"	"13.592"	"15.412"	"17.553"	"21.2"	"23.24"	"22.906"	"23.25"	"22.721"	"23.685"	"22.904"	"19.659"	"15.98"
"1999"	"14.661"	"18.699"	"20.14"	"22.165"	"22.385"	"23.257"	"23.35"	"22.422"	"23.171"	"22.065"	"18.91"	"15.481"
"2000"	"13.059"	"15.385"	"17.731"	"20.666"	"21.981"	"22.656"	"23.75"	"22.621"	"22.265"	"21.675"	"17.788"	"15.048"
"2001"	"14.137"	"16.169"	"19.15"	"21.291"	"22.164"	"22.987"	"23.618"	"23.39"	"24.048"	"22.082"	"18.368"	"15.382"
"2002"	"14.443"	"16.565"	"19.512"	"20.992"	"21.965"	"22.539"	"23.362"	"22.876"	"22.869"	"21.591"	"18.697"	"15.41"
