
"Year"	"Jan"	"Feb"	"Mar"	"Apr"	"May"	"Jun"	"Jul"	"Aug"	"Sep"	"Oct"	"Nov"	"Dec"
"1901"	"19.53"	"14.881"	"48.57"	"159.042"	"175.247"	"438.361"	"292.48"	"282.444"	"220.382"	"193.895"	"162.805"	"3.617"
"1902"	"6.226"	"18.298"	"29.486"	"182.936"	"188.051"	"467.968"	"463.589"	"351.166"	"290.045"	"73.189"	"20.024"	"2.352"
"1903"	"12.303"	"22.505"	"63.045"	"129.991"	"160.789"	"527.274"	"277.815"	"428.933"	"145.301"	"129.757"	"91.237"	"3.197"
"1904"	"14.861"	"60.794"	"74.236"	"325.873"	"214.414"	"263.354"	"290.316"	"358.68"	"149.821"	"78.685"	"66.26"	"2.306"
"1905"	"14.453"	"16.843"	"305.062"	"112.376"	"211.708"	"347.266"	"336.988"	"467.807"	"173.104"	"222.417"	"48.3"	"16.668"
"1906"	"10.881"	"68.24"	"65.884"	"231.26"	"127.655"	"341.389"	"415.664"	"425.258"	"162.31"	"107.628"	"49.09"	"0"
"1907"	"13.34"	"62.564"	"103.563"	"163.164"	"105.126"	"412.021"	"405.191"	"255.74"	"199.937"	"57.296"	"11.256"	"6.719"
"1908"	"11.435"	"24.774"	"20.675"	"183.458"	"215.796"	"511.65"	"446.373"	"183.938"	"256.522"	"108.565"	"14.315"	"3.301"
"1909"	"23.249"	"12.516"	"6.467"	"130.198"	"275.997"	"516.845"	"274.355"	"368.117"	"113.192"	"110"	"35.039"	"4.031"
"1910"	"9.116"	"37.727"	"108.634"	"137.016"	"199.992"	"630.801"	"443.235"	"343.697"	"139.578"	"211.223"	"44.584"	"9.562"
"1911"	"27.392"	"25.871"	"58.97"	"197.821"	"361.092"	"568.508"	"333.991"	"332.726"	"245.706"	"338.565"	"36.53"	"2.847"
"1912"	"7.487"	"58.188"	"46.344"	"119.287"	"136.249"	"321.121"	"309.432"	"276.311"	"206.024"	"258.755"	"112.77"	"18.421"
"1913"	"8.182"	"66.045"	"58.916"	"192.605"	"257.606"	"355.38"	"272.091"	"287.759"	"153.346"	"199.894"	"23.31"	"16.196"
"1914"	"1.048"	"56.8"	"57.617"	"92.413"	"210.258"	"448.299"	"309.669"	"454.349"	"112.146"	"79.942"	"7.711"	"20.025"
"1915"	"5.782"	"44.689"	"75.356"	"120.501"	"457.036"	"305.71"	"455.004"	"391.012"	"158.541"	"136.766"	"20.095"	"2.176"
"1916"	"7.103"	"16.786"	"68.676"	"180.535"	"333.322"	"318.639"	"316.276"	"313.615"	"200.961"	"322.654"	"128.045"	"8.827"
"1917"	"1.458"	"83.992"	"28.904"	"102.634"	"203.883"	"414.215"	"333.132"	"261.043"	"156.376"	"166.135"	"140.266"	"2.288"
"1918"	"4.09"	"6.272"	"94.407"	"89.03"	"237.531"	"576.078"	"392.969"	"432.399"	"252.485"	"101.054"	"2.153"	"0.818"
"1919"	"8.941"	"8.717"	"6.342"	"74.061"	"210.657"	"367.698"	"370.757"	"207.521"	"261.951"	"244.016"	"79.975"	"3.828"
"1920"	"1.872"	"30.905"	"152.907"	"87.5"	"245.288"	"339.979"	"231.145"	"418.244"	"243.292"	"82.429"	"2.884"	"0.638"
"1921"	"28.259"	"8.933"	"81.716"	"111.91"	"357.676"	"433.713"	"457.527"	"328.564"	"244.575"	"140.188"	"16.164"	"0.687"
"1922"	"5.905"	"1.403"	"43.435"	"203.41"	"122.869"	"451.529"	"379.459"	"303.676"	"127.137"	"266.468"	"30.524"	"9.062"
"1923"	"1.417"	"78.052"	"6.89"	"157.164"	"262.499"	"535.533"	"290.355"	"228.407"	"128.858"	"65.978"	"6.224"	"3.84"
"1924"	"5.249"	"17.785"	"22.622"	"161.329"	"170.868"	"490.067"	"465.366"	"400.725"	"245.019"	"119.667"	"156.407"	"0.418"
"1925"	"20.39"	"35.183"	"55.223"	"185.332"	"323.093"	"224.765"	"346.211"	"280.761"	"195.804"	"112.579"	"16.04"	"3.788"
"1926"	"18.843"	"30.169"	"82.03"	"75.592"	"125.554"	"493.697"	"445.876"	"240.309"	"164.308"	"208.146"	"33.958"	"17.764"
"1927"	"25.413"	"50.617"	"70.798"	"215.013"	"187.653"	"421.551"	"336.629"	"221.852"	"434.559"	"322.696"	"35.865"	"0"
"1928"	"3.333"	"26.815"	"56.999"	"55.274"	"237.547"	"363.292"	"434.224"	"266.732"	"232.865"	"326.886"	"14.921"	"0.028"
"1929"	"10.807"	"4.719"	"32.615"	"197.049"	"483.998"	"459.845"	"299.948"	"242.636"	"202.46"	"90.445"	"47.99"	"6.628"
"1930"	"12.86"	"20.565"	"47.678"	"141.949"	"163.764"	"552.007"	"170.656"	"355.108"	"273.581"	"227.827"	"164.253"	"3.631"
"1931"	"3.416"	"31.655"	"32.446"	"245.851"	"201.793"	"584.518"	"456.438"	"179.442"	"157.995"	"98.152"	"20.812"	"17.425"
"1932"	"4.446"	"23.547"	"35.298"	"84.028"	"415.54"	"414.334"	"343.758"	"450.733"	"180.421"	"55.44"	"137.446"	"2.751"
"1933"	"3.052"	"16.008"	"23.449"	"121.924"	"234.602"	"376.998"	"331.559"	"298.755"	"135.762"	"66.003"	"9.035"	"0.766"
"1934"	"15.473"	"68.139"	"16.867"	"165.188"	"205.315"	"659.937"	"470.975"	"262.362"	"191.328"	"301.442"	"62.95"	"4.053"
"1935"	"1.049"	"38.723"	"38.777"	"63.962"	"196.411"	"504.303"	"251.627"	"550.839"	"202.262"	"63.278"	"15.48"	"2.069"
"1936"	"11.672"	"51.482"	"33.074"	"127.606"	"257.137"	"294.956"	"350.575"	"244.988"	"225.031"	"214.765"	"5.251"	"12.605"
"1937"	"0.459"	"30.217"	"30.504"	"68.689"	"258.954"	"336.998"	"333.407"	"419.984"	"139.501"	"54.574"	"4.98"	"7.428"
"1938"	"27.8"	"19.452"	"63.407"	"100.173"	"264.537"	"586.749"	"384.973"	"405.333"	"348.534"	"179.785"	"91.225"	"2.343"
"1939"	"2.59"	"36.611"	"22.529"	"123.42"	"228.126"	"523.992"	"385.953"	"221.224"	"259.708"	"144.442"	"15.874"	"2.664"
"1940"	"1.086"	"67.681"	"217.422"	"32.68"	"291.112"	"409.126"	"305.661"	"227.647"	"274.984"	"109.797"	"14.034"	"18.368"
"1941"	"5.635"	"37.675"	"78.411"	"90.205"	"296.247"	"454.946"	"272.043"	"276.354"	"293.023"	"126.252"	"6.534"	"6.186"
"1942"	"11.963"	"19.926"	"128.085"	"127.912"	"333.785"	"635.984"	"234.898"	"314.786"	"253.215"	"21.609"	"22.345"	"0.247"
"1943"	"17.666"	"54.643"	"96.234"	"95.829"	"289.264"	"402.112"	"297.367"	"352.6"	"265.883"	"86.967"	"17.358"	"2.552"
"1944"	"25.289"	"18.533"	"43.012"	"61.861"	"370.621"	"453.492"	"291.961"	"263.533"	"249.942"	"161.319"	"24.045"	"19.261"
"1945"	"20.198"	"32.629"	"79.049"	"88.145"	"207.591"	"507.296"	"411.767"	"337.119"	"171.279"	"171.616"	"0.436"	"9.293"
"1946"	"2.75"	"34.009"	"65.092"	"101.444"	"186.293"	"450.063"	"372.241"	"298.062"	"189.467"	"301.596"	"9.843"	"0.266"
"1947"	"9.988"	"16.64"	"48.157"	"227.441"	"224.068"	"430.713"	"432.161"	"348.35"	"426.907"	"372.696"	"10.215"	"31.278"
"1948"	"8.387"	"66.048"	"48.312"	"240.086"	"422.723"	"366.509"	"419.492"	"304.888"	"161.396"	"161.697"	"29.167"	"4.943"
"1949"	"34.873"	"19.414"	"91.571"	"207.174"	"207.627"	"457.868"	"354.484"	"281.733"	"331.86"	"184.647"	"36.963"	"9.311"
"1950"	"6.587"	"57.953"	"59.621"	"91.959"	"155.901"	"462.043"	"316.557"	"336.824"	"226.341"	"228.086"	"74.268"	"6.21"
"1951"	"2.134"	"2.544"	"76.53"	"183.962"	"196.789"	"636.106"	"548.419"	"360.269"	"257.923"	"280.403"	"61.396"	"21.145"
"1952"	"13.217"	"5.973"	"68.7"	"299.353"	"183.068"	"628.783"	"492.431"	"349.27"	"384.318"	"313.643"	"91.121"	"0.892"
"1953"	"8.704"	"9.223"	"98.662"	"56.437"	"291.322"	"532.472"	"514.704"	"286.658"	"333.228"	"176.94"	"10.55"	"2.345"
"1954"	"10.913"	"65.503"	"84.396"	"124.627"	"255.082"	"732.884"	"375.524"	"336.107"	"228.377"	"226.257"	"1.61"	"9.631"
"1955"	"3.204"	"8.462"	"159.042"	"72.078"	"211.881"	"336.941"	"576.704"	"311.315"	"181.495"	"117.277"	"109.114"	"5.095"
"1956"	"20.86"	"4.045"	"133.655"	"108.756"	"307.731"	"594.44"	"332.132"	"287.702"	"237.14"	"148.501"	"48.87"	"2.46"
"1957"	"35.23"	"71.138"	"20.502"	"90.895"	"256.777"	"440.013"	"373.417"	"428.704"	"256.582"	"70.767"	"15.084"	"6.282"
"1958"	"7.409"	"89.862"	"48.864"	"123.123"	"355.781"	"283.499"	"331.545"	"539.605"	"186.952"	"220.502"	"3.526"	"4.729"
"1959"	"30.714"	"90.584"	"211.581"	"117.053"	"349.001"	"546.441"	"362.534"	"368.984"	"189.841"	"269.229"	"10.934"	"4.972"
"1960"	"0.392"	"7.902"	"44.899"	"42.956"	"205.717"	"349.443"	"523.203"	"267.283"	"267.393"	"113.565"	"47.666"	"3.883"
"1961"	"6.784"	"25.799"	"97.488"	"119.292"	"182.693"	"451.636"	"339.919"	"397.293"	"140.208"	"170.229"	"21.222"	"6.327"
"1962"	"16.451"	"48.024"	"5.931"	"96.379"	"165.58"	"484.176"	"299.113"	"309.182"	"106.355"	"173.71"	"8.329"	"3.029"
"1963"	"0.858"	"11.894"	"77.973"	"156.611"	"187.033"	"466.966"	"316.357"	"304.508"	"162.184"	"151.59"	"13.242"	"2.591"
"1964"	"26.316"	"42.198"	"82.895"	"186.702"	"194.901"	"471.496"	"588.062"	"313.49"	"280.935"	"305.815"	"19.377"	"9.747"
"1965"	"2.065"	"30.932"	"40.908"	"60.508"	"98.691"	"573.647"	"417.515"	"477.35"	"198.538"	"114.973"	"102.637"	"45.058"
"1966"	"16.178"	"4.8"	"46.415"	"67.62"	"139.346"	"653.443"	"353.392"	"378.619"	"284.036"	"196.286"	"33.841"	"50.51"
"1967"	"45.088"	"5.717"	"127.71"	"145.604"	"137.609"	"265.303"	"316.667"	"263.814"	"311.211"	"126.445"	"7.26"	"1.423"
"1968"	"19.57"	"21.317"	"73.954"	"169.755"	"263.403"	"370.157"	"521.532"	"411.768"	"195.808"	"61.71"	"19.195"	"0.477"
"1969"	"9.819"	"0.776"	"91.664"	"173.69"	"209.574"	"579.677"	"430.805"	"406.979"	"190.668"	"74.092"	"25.367"	"1.216"
"1970"	"30.197"	"24.57"	"108.851"	"140.144"	"329.307"	"224.758"	"434.683"	"247.54"	"112.858"	"219.026"	"70.845"	"5.167"
"1971"	"13.399"	"18.256"	"11.874"	"86.611"	"132.415"	"266.028"	"340.529"	"280.141"	"173.244"	"201.423"	"62.164"	"8.254"
"1972"	"6.827"	"43.84"	"52.605"	"160.743"	"190.152"	"354.327"	"291.478"	"266.678"	"78.969"	"55.455"	"11.522"	"3.466"
"1973"	"15.707"	"37.91"	"61.65"	"125.798"	"285.506"	"570.923"	"300.482"	"204.601"	"201.171"	"151.012"	"158.889"	"5.681"
"1974"	"9.987"	"4.301"	"139.069"	"230.548"	"168.928"	"461.023"	"622.568"	"338.493"	"310.7"	"209.75"	"58.292"	"1.361"
"1975"	"3.959"	"53.123"	"29.785"	"101.546"	"213.882"	"258.749"	"417.894"	"244.954"	"212.048"	"148.339"	"110.747"	"3.587"
"1976"	"5.322"	"36.456"	"94.879"	"117.163"	"154.718"	"500.368"	"477.548"	"288.915"	"67.594"	"76.841"	"35.799"	"1.754"
"1977"	"8.479"	"88.967"	"40.656"	"336.322"	"225.784"	"444.131"	"396.698"	"258.844"	"161.586"	"122.563"	"36.457"	"20.463"
"1978"	"0.622"	"4.979"	"19.418"	"91.78"	"264.959"	"412.961"	"319.279"	"177.574"	"194.856"	"53.689"	"16.777"	"0.979"
"1979"	"8.835"	"10.531"	"65.418"	"36.965"	"99.619"	"253.924"	"251.035"	"336.33"	"263.977"	"186.946"	"26.024"	"38.606"
"1980"	"3.854"	"25.327"	"108.746"	"130.733"	"237.932"	"287.348"	"367.489"	"344.402"	"218.51"	"193.674"	"0.436"	"3.304"
"1981"	"21.839"	"25.551"	"143.423"	"276.724"	"280.688"	"426.598"	"414.083"	"275.669"	"157.89"	"31.551"	"19.923"	"51.451"
"1982"	"0.263"	"39.464"	"25.986"	"244.657"	"132.326"	"499.781"	"239.535"	"371.749"	"205.879"	"31.276"	"74.562"	"7.989"
"1983"	"16.753"	"51.556"	"145.445"	"138.648"	"171.497"	"351.994"	"386.879"	"412.171"	"275.732"	"175.979"	"33.011"	"45.837"
"1984"	"18.505"	"8.516"	"14.005"	"147.551"	"395.46"	"498.675"	"367.234"	"313.705"	"279.107"	"175.168"	"0.472"	"15.607"
"1985"	"5.169"	"18.549"	"124.698"	"185.977"	"101.132"	"470.074"	"283.817"	"264.288"	"218.796"	"60.9"	"10.233"	"4.23"
"1986"	"7.16"	"7.605"	"26.27"	"219.113"	"50.726"	"204.957"	"395.329"	"223.83"	"235.323"	"216.899"	"98.669"	"4.143"
"1987"	"3.617"	"17.494"	"87.355"	"192.459"	"112.257"	"235.653"	"405.529"	"278.118"	"306.934"	"94.664"	"45.129"	"27.682"
"1988"	"2.458"	"29.141"	"65.077"	"65.628"	"375.296"	"353.701"	"412.929"	"397.322"	"226.59"	"205.573"	"55.393"	"2.755"
"1989"	"2.159"	"33.398"	"52.683"	"90.145"	"165.954"	"355.535"	"380.837"	"164.279"	"213.534"	"294.129"	"13.756"	"7.55"
"1990"	"3.213"	"57.971"	"145.842"	"205.097"	"183.521"	"354.971"	"387.672"	"131.137"	"314.215"	"95.354"	"30.177"	"9"
"1991"	"21.773"	"34.876"	"72.034"	"97.202"	"344.248"	"317.822"	"289.857"	"319.209"	"221.456"	"353.371"	"28.662"	"32.316"
"1992"	"10.522"	"59.894"	"66.502"	"102.777"	"189.987"	"260.151"	"478.493"	"398.495"	"219.43"	"160.307"	"14.096"	"17.791"
"1993"	"40.167"	"80.304"	"85.42"	"81.931"	"243.875"	"517.949"	"441.553"	"345.992"	"280.649"	"78.137"	"5.706"	"0"
"1994"	"13.024"	"53.685"	"177.945"	"122.007"	"154.475"	"427.349"	"256.08"	"341.165"	"169.389"	"29.291"	"27.554"	"7.294"
"1995"	"17.521"	"33.44"	"39.336"	"75.506"	"232.696"	"426.086"	"405.066"	"294.009"	"250.085"	"70.426"	"113.453"	"0.463"
"1996"	"1.903"	"28.418"	"114.959"	"129.384"	"331.666"	"250.961"	"400.028"	"341.203"	"170.756"	"111.438"	"13.071"	"3.345"
"1997"	"6.913"	"14.818"	"81.773"	"89.619"	"144.931"	"288.409"	"446.563"	"267.733"	"309.388"	"52.483"	"18.681"	"33.422"
"1998"	"15.582"	"45.836"	"138.818"	"133.727"	"272.803"	"274.827"	"408.387"	"352.76"	"113.789"	"66.381"	"99.312"	"0"
"1999"	"3.265"	"2.163"	"21.452"	"71.67"	"288.415"	"231.049"	"435.137"	"338.481"	"147.569"	"173.862"	"42.029"	"4.847"
"2000"	"15.818"	"32.184"	"77.754"	"207.242"	"288.973"	"181.476"	"258.165"	"386.416"	"198.283"	"93.675"	"7.179"	"3.582"
"2001"	"2.477"	"18.687"	"94.766"	"148.079"	"253.309"	"408.672"	"335.389"	"398.468"	"215.469"	"188.263"	"37.112"	"0.797"
"2002"	"31.886"	"3.984"	"65.229"	"223.667"	"240.818"	"487.206"	"439.59"	"266.1"	"174.434"	"77.733"	"31.215"	"4.003"
