
"Year"	"Jan"	"Feb"	"Mar"	"Apr"	"May"	"Jun"	"Jul"	"Aug"	"Sep"	"Oct"	"Nov"	"Dec"
"1901"	"6.856"	"9.044"	"12.142"	"15.597"	"17.74"	"20.686"	"20.906"	"20.688"	"19.711"	"16.788"	"11.701"	"8.116"
"1902"	"7.692"	"8.934"	"12.827"	"13.541"	"18.355"	"19.741"	"21.007"	"20.514"	"19.395"	"15.169"	"10.867"	"7.476"
"1903"	"6.088"	"8.383"	"11.631"	"14.769"	"17.428"	"19.794"	"21.391"	"20.087"	"19.886"	"17.037"	"11.796"	"8.11"
"1904"	"6.692"	"8.994"	"11.787"	"13.641"	"17.161"	"20.826"	"20.941"	"20.672"	"19.607"	"16.327"	"10.852"	"7.433"
"1905"	"6.022"	"6.708"	"10.18"	"12.676"	"17.709"	"20.736"	"21.23"	"19.586"	"20.123"	"16.383"	"11.885"	"8.072"
"1906"	"6.776"	"8.166"	"11.118"	"14.159"	"17.775"	"20.643"	"21.493"	"19.604"	"20.458"	"16.285"	"11.796"	"8.181"
"1907"	"7.609"	"8.422"	"10.593"	"13.352"	"16.991"	"19.341"	"20.187"	"20.888"	"19.053"	"16.533"	"12.144"	"7.959"
"1908"	"6.844"	"8.88"	"12.523"	"15.808"	"17.192"	"20.298"	"20.47"	"20.487"	"19.409"	"16.172"	"11.068"	"7.52"
"1909"	"6.351"	"8.579"	"13.521"	"14.21"	"16.606"	"19.552"	"21.006"	"20.113"	"20.557"	"17.406"	"13.39"	"8.843"
"1910"	"7.196"	"8.639"	"11.526"	"14.347"	"17.334"	"19.356"	"19.66"	"20.243"	"20.084"	"16.34"	"11.827"	"8.256"
"1911"	"8.06"	"8.355"	"11.439"	"14.541"	"16.685"	"19.984"	"20.234"	"20.086"	"19.499"	"15.922"	"11.334"	"7.405"
"1912"	"7.249"	"8.929"	"10.859"	"12.798"	"17.339"	"19.788"	"20.166"	"20.047"	"19.565"	"15.81"	"11.886"	"8.244"
"1913"	"7.126"	"8.743"	"10.795"	"14.08"	"15.962"	"19.382"	"20.523"	"20.441"	"19.467"	"16.285"	"10.983"	"7.55"
"1914"	"6.963"	"8.557"	"12.033"	"13.192"	"17.091"	"20.601"	"21.076"	"19.61"	"19.243"	"15.058"	"11.59"	"8.577"
"1915"	"8.192"	"9.091"	"11.977"	"14.788"	"16.844"	"19.152"	"20.17"	"19.964"	"19.264"	"18.363"	"13.585"	"8.897"
"1916"	"7.369"	"8.877"	"12.981"	"14.097"	"17.089"	"20.499"	"19.584"	"20.387"	"19.971"	"16.405"	"12.759"	"8.01"
"1917"	"6.468"	"8.574"	"11.465"	"13.78"	"18.08"	"19.639"	"20.56"	"20.715"	"19.612"	"16.821"	"12.817"	"8.425"
"1918"	"6.641"	"8.637"	"11.942"	"14.436"	"18.825"	"18.778"	"20.193"	"20.137"	"19.744"	"16.622"	"11.683"	"7.845"
"1919"	"7.653"	"8.706"	"13.574"	"14.493"	"17.373"	"20.281"	"20.771"	"21.806"	"18.61"	"15.997"	"13.101"	"8.87"
"1920"	"8.278"	"8.337"	"10.891"	"13.748"	"16.598"	"19.585"	"21.406"	"19.987"	"19.598"	"16.886"	"12.4"	"9.838"
"1921"	"7.876"	"8.606"	"12.321"	"14.233"	"16.935"	"18.667"	"20.323"	"20.465"	"19.376"	"15.315"	"12.071"	"8.675"
"1922"	"7.223"	"9.49"	"12.981"	"15.761"	"17.853"	"19.567"	"20.459"	"20.154"	"19.886"	"16.34"	"12.486"	"8.426"
"1923"	"7.683"	"8.547"	"13.356"	"15.037"	"16.279"	"19.837"	"20.391"	"21.483"	"19.095"	"16.113"	"12.905"	"8.867"
"1924"	"7.11"	"8.845"	"13.928"	"15.11"	"16.238"	"20.099"	"20.288"	"19.898"	"19.11"	"17.634"	"12.288"	"9.168"
"1925"	"6.047"	"7.932"	"11.99"	"14.346"	"16.073"	"20.289"	"20.577"	"20.154"	"18.326"	"15.953"	"11.803"	"7.026"
"1926"	"6.942"	"8.96"	"11.174"	"13.877"	"17.134"	"19.487"	"20.176"	"20.673"	"20.301"	"16.873"	"11.488"	"8.609"
"1927"	"6.737"	"7.398"	"10.07"	"13.727"	"16.856"	"19.285"	"20.923"	"20.321"	"18.766"	"16.591"	"11.861"	"8.152"
"1928"	"6.854"	"9.692"	"12.727"	"15.679"	"16.971"	"19.985"	"21.092"	"20.219"	"19.793"	"15.452"	"10.798"	"7.705"
"1929"	"6.137"	"8.247"	"12.916"	"14.264"	"16"	"19.199"	"20.788"	"20.673"	"19.565"	"15.885"	"11.599"	"7.161"
"1930"	"5.638"	"8.329"	"11.689"	"14.178"	"17.774"	"18.872"	"21.741"	"20.672"	"19.428"	"15.251"	"11.312"	"7.675"
"1931"	"7.458"	"8.403"	"12.534"	"14.446"	"16.584"	"19.644"	"20.306"	"21.087"	"18.83"	"17.424"	"11.709"	"8.295"
"1932"	"7.248"	"7.301"	"12.578"	"15.483"	"15.972"	"19.687"	"20.906"	"20.094"	"19.451"	"16.642"	"12.713"	"8.611"
"1933"	"6.525"	"8.86"	"13.253"	"14.249"	"16.551"	"20.094"	"20.906"	"20.513"	"20.101"	"16.832"	"11.525"	"8.407"
"1934"	"6.986"	"9.149"	"12.473"	"14.639"	"16.26"	"18.551"	"20.948"	"20.573"	"20.206"	"15.776"	"11.242"	"8.027"
"1935"	"7.117"	"9.072"	"13.146"	"14.847"	"17.8"	"19.516"	"21.103"	"19.992"	"19.842"	"16.938"	"13.1"	"8.028"
"1936"	"6.641"	"7.58"	"13.018"	"15.214"	"18.282"	"19.934"	"21.091"	"20.716"	"20.133"	"15.853"	"13.167"	"8.791"
"1937"	"6.9"	"8.762"	"12.72"	"16.101"	"17.825"	"21.187"	"21.774"	"20.567"	"19.84"	"17.179"	"12.044"	"9.164"
"1938"	"7.723"	"8.479"	"12.648"	"15.763"	"18.361"	"20.597"	"20.219"	"20.968"	"19.715"	"17.19"	"10.865"	"8.543"
"1939"	"7.845"	"9.301"	"12.828"	"15.316"	"17.623"	"19.897"	"20.827"	"21.18"	"19.615"	"16.395"	"12.197"	"8.681"
"1940"	"7.059"	"8.822"	"10.538"	"14.92"	"17.259"	"20.594"	"21.165"	"21.09"	"19.668"	"16.892"	"11.796"	"8.953"
"1941"	"5.955"	"8.588"	"13.142"	"15.09"	"17.325"	"19.669"	"21.138"	"20.662"	"19.564"	"16.028"	"11.647"	"8.934"
"1942"	"7.406"	"10.225"	"12.349"	"15.068"	"17.656"	"20.121"	"21.623"	"20.876"	"19.716"	"17.184"	"12.599"	"8.373"
"1943"	"7.566"	"8.849"	"11.135"	"13.589"	"16.954"	"20.503"	"20.652"	"20.569"	"20.026"	"16.257"	"13.627"	"8.583"
"1944"	"6.653"	"8.102"	"12.859"	"14.1"	"17.317"	"20.814"	"21.425"	"21.118"	"19.367"	"17.156"	"12.247"	"9.99"
"1945"	"7.458"	"7.562"	"12.668"	"15.986"	"16.805"	"20.872"	"20.906"	"20.602"	"20.479"	"16.023"	"11.912"	"7.532"
"1946"	"7.893"	"10.597"	"12.614"	"15.218"	"17.785"	"20.388"	"20.697"	"21.403"	"20.36"	"16.343"	"13.204"	"9.131"
"1947"	"6.984"	"9.191"	"12.719"	"15.163"	"17.039"	"20.798"	"20.808"	"20.807"	"20.003"	"16.232"	"12.494"	"9.782"
"1948"	"7.543"	"8.145"	"11.704"	"15.481"	"16.466"	"20.366"	"20.779"	"20.88"	"20.724"	"15.938"	"13.361"	"7.835"
"1949"	"8.205"	"9.111"	"12.108"	"13.585"	"17.699"	"19.728"	"20.459"	"20.352"	"19.728"	"17.106"	"11.811"	"7.054"
"1950"	"7.702"	"8.733"	"12.258"	"14.971"	"17.61"	"19.47"	"21.018"	"19.992"	"19.822"	"16.44"	"12.201"	"8.87"
"1951"	"6.984"	"9.025"	"12.95"	"14.13"	"17.046"	"20.103"	"20.904"	"21.008"	"20.053"	"17.779"	"12.347"	"8.257"
"1952"	"7.511"	"10.221"	"11.373"	"15.857"	"17.819"	"20.542"	"20.828"	"20.33"	"19.239"	"17.203"	"13.061"	"8.983"
"1953"	"7.134"	"9.48"	"13.297"	"15.264"	"17.855"	"20.307"	"20.217"	"21.49"	"19.7"	"16.158"	"12.172"	"9.367"
"1954"	"6.57"	"10.43"	"13.526"	"15.262"	"17.447"	"19.704"	"20.318"	"19.734"	"20.29"	"16.489"	"11.504"	"8.223"
"1955"	"7.633"	"9.611"	"12.561"	"14.736"	"18.685"	"19.299"	"20.457"	"19.905"	"20.537"	"17.573"	"12.883"	"7.91"
"1956"	"6.898"	"9.36"	"12.29"	"16.026"	"18.231"	"20.006"	"19.856"	"19.92"	"19.258"	"16.694"	"12.659"	"8.832"
"1957"	"7.587"	"8.175"	"11.75"	"14.686"	"16.803"	"20.732"	"21.448"	"21.115"	"20.312"	"15.734"	"12.529"	"8.793"
"1958"	"7.828"	"8.344"	"13.178"	"16.271"	"17.363"	"22.142"	"22.119"	"20.053"	"20.53"	"17.496"	"12.863"	"9.06"
"1959"	"8.051"	"7.725"	"12.059"	"15.961"	"17.368"	"20.144"	"21.892"	"21.657"	"19.07"	"16.416"	"12.763"	"9.602"
"1960"	"6.35"	"10.471"	"12.53"	"16.001"	"18.952"	"20.722"	"20.652"	"20.847"	"19.098"	"16.401"	"11.575"	"8.907"
"1961"	"8.129"	"8.555"	"11.687"	"15.615"	"17.722"	"21.202"	"21.877"	"21.971"	"20.097"	"17.157"	"10.635"	"6.292"
"1962"	"6.189"	"8.221"	"11.326"	"15.141"	"16.855"	"20.032"	"21.445"	"19.984"	"19.601"	"16.186"	"12.777"	"8.799"
"1963"	"6.658"	"9.049"	"12.05"	"14.425"	"16.989"	"19.783"	"20.95"	"20.353"	"20.217"	"15.975"	"10.606"	"8.171"
"1964"	"7.07"	"8.397"	"11.854"	"14.78"	"16.854"	"19.789"	"20.242"	"20.609"	"19.584"	"18.026"	"12.765"	"8.017"
"1965"	"6.466"	"7.602"	"10.549"	"14.984"	"17.665"	"20.529"	"20.505"	"19.629"	"19.275"	"15.615"	"10.007"	"8.921"
"1966"	"7.227"	"10.308"	"13.522"	"14.71"	"18.643"	"19.215"	"21.495"	"20.447"	"18.946"	"14.997"	"14.015"	"9.072"
"1967"	"7.891"	"9.15"	"11.541"	"14.507"	"17.598"	"19.797"	"20.988"	"21.689"	"19.788"	"15.274"	"10.053"	"8.591"
"1968"	"6.659"	"7.701"	"12.407"	"14.257"	"17.209"	"19.921"	"20.29"	"20.932"	"20.431"	"14.896"	"11.731"	"8.018"
"1969"	"7.01"	"9.611"	"13.088"	"15.242"	"18.301"	"20.232"	"21.194"	"20.342"	"19.558"	"15.647"	"12.556"	"8.992"
"1970"	"6.658"	"8.33"	"12.53"	"14.901"	"17.558"	"20.078"	"20.96"	"20.721"	"19.566"	"16.083"	"11.663"	"8.626"
"1971"	"7.152"	"8.411"	"12.742"	"15.218"	"17.362"	"20.388"	"20.687"	"20.212"	"20.002"	"16.291"	"10.487"	"7.576"
"1972"	"8.469"	"9.577"	"12.68"	"13.843"	"17.65"	"20.41"	"21.868"	"20.902"	"19.211"	"16.752"	"11.436"	"8.728"
"1973"	"8.384"	"9.706"	"12.875"	"16.263"	"18.46"	"20.095"	"21.383"	"20.975"	"20.217"	"16.394"	"11.543"	"8.276"
"1974"	"7.218"	"10.013"	"12.387"	"14.94"	"17.974"	"20.312"	"19.76"	"20.558"	"18.981"	"18.345"	"13.092"	"7.987"
"1975"	"7.281"	"9.281"	"12.704"	"15.723"	"17.054"	"21.08"	"20.345"	"20.58"	"19.503"	"18.114"	"12.957"	"8.241"
"1976"	"7.312"	"9.686"	"12.519"	"15.047"	"17.651"	"19.299"	"20.179"	"20.33"	"19.51"	"15.85"	"14.23"	"9.511"
"1977"	"7.253"	"10.23"	"13.625"	"14.512"	"16.314"	"18.803"	"21.307"	"20.435"	"19.77"	"15.129"	"11.518"	"7.971"
"1978"	"6.189"	"8.507"	"11.642"	"14.585"	"18.121"	"20.241"	"20.303"	"20.765"	"19.18"	"16.969"	"12.32"	"9.035"
"1979"	"7.965"	"8.885"	"12.104"	"16.048"	"18.806"	"21.067"	"20.44"	"20.831"	"18.889"	"15.833"	"14.121"	"8.807"
"1980"	"6.8"	"9.027"	"12.146"	"15.506"	"17.201"	"20.902"	"21.211"	"20.841"	"19.928"	"15.722"	"12.502"	"10.254"
"1981"	"7.134"	"10.578"	"11.9"	"14.495"	"17.646"	"20.861"	"20.998"	"21.245"	"19.848"	"17.643"	"12.367"	"6.804"
"1982"	"8.599"	"8.541"	"12.224"	"14.654"	"17.474"	"20.332"	"21.218"	"21.305"	"20.001"	"16.103"	"11.606"	"8.673"
"1983"	"5.387"	"7.129"	"11.889"	"13.564"	"17.194"	"20.611"	"21.45"	"21.072"	"19.84"	"17.264"	"12.237"	"8.282"
"1984"	"7.315"	"10.293"	"13.845"	"15.505"	"17.313"	"20.877"	"20.1"	"20.389"	"18.817"	"18.175"	"11.13"	"9.586"
"1985"	"7.4"	"9.352"	"13.953"	"15.737"	"17.887"	"20.486"	"19.286"	"21.249"	"19.756"	"16.998"	"12.047"	"9.841"
"1986"	"8.411"	"9.46"	"12.354"	"14.153"	"17.417"	"21.169"	"20.352"	"20.229"	"18.97"	"15.239"	"12.403"	"8.273"
"1987"	"7.697"	"9.835"	"12.328"	"14.74"	"17.505"	"20.99"	"20.661"	"19.713"	"19.676"	"16.742"	"13.275"	"9.554"
"1988"	"8.489"	"10.861"	"13.219"	"15.204"	"18.017"	"20.648"	"20.911"	"20.466"	"19.649"	"17.182"	"12.08"	"9.845"
"1989"	"7.632"	"8.731"	"13.365"	"14.76"	"18.769"	"20.454"	"20.386"	"20.547"	"20.236"	"17.384"	"11.699"	"7.46"
"1990"	"9.46"	"8.997"	"11.038"	"13.506"	"18.038"	"20.444"	"20.524"	"20.553"	"19.322"	"16.294"	"12.678"	"9.855"
"1991"	"6.636"	"10.34"	"13.292"	"14.896"	"17.297"	"19.837"	"20.987"	"20.222"	"19.408"	"16.903"	"11.596"	"7.861"
"1992"	"6.806"	"6.984"	"12.953"	"15.12"	"16.835"	"20.088"	"20.178"	"20.476"	"20.094"	"16.289"	"11.612"	"6.742"
"1993"	"7.219"	"9.837"	"11.762"	"14.999"	"17.292"	"19.704"	"21.38"	"20.588"	"19.49"	"17.287"	"12.627"	"9.859"
"1994"	"8.999"	"8.872"	"12.276"	"15.103"	"18.874"	"21.304"	"21.268"	"21.094"	"21.033"	"16.327"	"11.61"	"7.929"
"1995"	"6.667"	"9.082"	"13.433"	"15.043"	"19.088"	"21.19"	"20.661"	"20.888"	"19.854"	"17.326"	"12.884"	"9.095"
"1996"	"7.847"	"9.823"	"13.261"	"15.844"	"18.123"	"20.719"	"20.803"	"20.926"	"20.348"	"17.041"	"13.3"	"9.464"
"1997"	"6.846"	"8.298"	"11.659"	"13.84"	"17.676"	"19.764"	"21.489"	"21.849"	"19.106"	"15.755"	"12.929"	"8.556"
"1998"	"7.84"	"9.36"	"11.596"	"15.492"	"19.922"	"20.748"	"21.312"	"20.688"	"20.836"	"18.759"	"13.985"	"9.517"
"1999"	"8.04"	"12.526"	"15.013"	"17.99"	"19.024"	"21.544"	"21.124"	"20.674"	"20.327"	"17.341"	"13.576"	"9.23"
"2000"	"7.524"	"9.467"	"11.599"	"14.797"	"17.849"	"21.286"	"21.382"	"20.441"	"19.52"	"17.268"	"12.727"	"8.927"
"2001"	"9.059"	"10.702"	"12.798"	"15.031"	"18.243"	"20.723"	"20.904"	"21.142"	"20.455"	"16.716"	"13.3"	"9.426"
"2002"	"7.995"	"11.247"	"12.494"	"15.211"	"16.806"	"21.307"	"21.202"	"21.008"	"19.928"	"16.425"	"13.237"	"9.324"
