
"Year"	"Jan"	"Feb"	"Mar"	"Apr"	"May"	"Jun"	"Jul"	"Aug"	"Sep"	"Oct"	"Nov"	"Dec"
"1901"	"15.558"	"19.058"	"24.476"	"31.017"	"32.818"	"33.823"	"30.441"	"29.379"	"29.078"	"27.636"	"21.819"	"17.158"
"1902"	"17.639"	"19.457"	"26.337"	"29.579"	"32.7"	"33.003"	"29.66"	"30.039"	"29.078"	"26.238"	"21.238"	"16.258"
"1903"	"16.819"	"18.638"	"24.337"	"30.818"	"34.119"	"32.603"	"31.041"	"29.559"	"29.358"	"26.639"	"20.937"	"16.278"
"1904"	"16.719"	"19.157"	"25.157"	"31.877"	"31.82"	"31.741"	"29.16"	"29.079"	"29.078"	"26.537"	"20.836"	"17.358"
"1905"	"15.438"	"15.258"	"22.356"	"27.598"	"31.501"	"34.282"	"29.759"	"28.86"	"28.86"	"26.757"	"21.619"	"16.759"
"1906"	"16.138"	"18.699"	"22.738"	"31.298"	"33.801"	"32.822"	"30.061"	"29.06"	"29.478"	"26.639"	"21.917"	"17.539"
"1907"	"17.639"	"18.457"	"22.057"	"28.098"	"32.219"	"32.841"	"30.321"	"29.88"	"29.558"	"27.118"	"21.419"	"16.578"
"1908"	"14.858"	"18.918"	"25.155"	"33.117"	"33.699"	"33.103"	"29.841"	"30.16"	"29.458"	"27.136"	"21.019"	"16.058"
"1909"	"17.599"	"18.958"	"26.194"	"28.617"	"33.518"	"31.181"	"29.86"	"29.141"	"29.578"	"27.037"	"21.818"	"17.538"
"1910"	"15.938"	"19.038"	"25.157"	"30.998"	"33.001"	"31.741"	"29.46"	"29.659"	"29.378"	"26.438"	"20.818"	"16.538"
"1911"	"18.1"	"18.338"	"23.377"	"30.498"	"34.08"	"31.562"	"30.94"	"29.099"	"28.78"	"26.518"	"20.539"	"15.937"
"1912"	"16.738"	"20.138"	"24.656"	"29.079"	"32.3"	"33.003"	"29.74"	"29.379"	"29.078"	"26.639"	"20.419"	"16.338"
"1913"	"16.239"	"18.838"	"22.956"	"31.897"	"31.719"	"30.261"	"29.959"	"29.16"	"29.478"	"26.137"	"20.319"	"16.419"
"1914"	"16.918"	"19.518"	"23.976"	"28.578"	"31.919"	"31.722"	"29.64"	"29.26"	"29.078"	"25.538"	"21.479"	"17.458"
"1915"	"17.219"	"19.038"	"23.937"	"30.298"	"33.18"	"32.104"	"30.859"	"29.779"	"29.378"	"28.337"	"23.139"	"16.877"
"1916"	"15.959"	"19.218"	"26.955"	"31.078"	"35.438"	"31.261"	"29.839"	"29.279"	"29.279"	"26.937"	"21.619"	"15.977"
"1917"	"16.119"	"18.819"	"23.756"	"29.018"	"30.259"	"31.561"	"29.86"	"29.379"	"28.76"	"26.418"	"21.338"	"16.738"
"1918"	"15.239"	"18.739"	"25.457"	"29.299"	"32.5"	"30.661"	"31.239"	"28.58"	"29.578"	"26.858"	"21.338"	"15.958"
"1919"	"17.679"	"18.118"	"25.457"	"29.417"	"32.738"	"32.041"	"29.879"	"29.498"	"28.979"	"26.456"	"21.539"	"16.757"
"1920"	"16.498"	"19.019"	"23.838"	"30.598"	"32.257"	"33.522"	"30.079"	"29.478"	"29.078"	"27.137"	"21.918"	"17.158"
"1921"	"17.238"	"18.877"	"26.537"	"31.779"	"35.579"	"32.841"	"30.24"	"29.099"	"28.899"	"25.739"	"20.756"	"16.238"
"1922"	"16.858"	"19.758"	"26.156"	"31.437"	"34.719"	"31.161"	"29.78"	"28.8"	"28.578"	"25.558"	"21.238"	"16.677"
"1923"	"16.439"	"18.757"	"24.975"	"31.498"	"33.8"	"34.103"	"29.959"	"29.598"	"29.378"	"26.057"	"21.338"	"17.357"
"1924"	"16.239"	"19.237"	"26.856"	"31.799"	"33.318"	"34.821"	"29.86"	"29.378"	"28.56"	"26.937"	"21.118"	"17.258"
"1925"	"15.139"	"17.518"	"24.657"	"30.079"	"32.619"	"31.861"	"29.378"	"29.279"	"29.079"	"26.137"	"21.117"	"16.457"
"1926"	"16.418"	"19.538"	"23.556"	"28.536"	"32.438"	"35.52"	"30.14"	"29.378"	"29.078"	"26.437"	"20.158"	"16.997"
"1927"	"15.937"	"18.938"	"23.256"	"30.817"	"32.02"	"33.322"	"30.06"	"29.18"	"29.559"	"26.937"	"21.637"	"17.458"
"1928"	"16.038"	"19.138"	"25.976"	"30.217"	"33.5"	"31.662"	"29.679"	"29.78"	"30.06"	"27.418"	"21.499"	"17.738"
"1929"	"16.599"	"18.237"	"25.437"	"30.378"	"34.499"	"33.64"	"29.66"	"28.999"	"29.279"	"25.937"	"21.218"	"16.639"
"1930"	"15.718"	"18.558"	"25.557"	"30.217"	"33.138"	"32.802"	"29.66"	"29.279"	"29.379"	"26.838"	"21.018"	"16.439"
"1931"	"17.7"	"18.837"	"24.556"	"31.498"	"33.18"	"33.942"	"29.959"	"29.98"	"29.478"	"27.057"	"21.318"	"17.638"
"1932"	"17.718"	"18.438"	"25.458"	"30.398"	"33.579"	"33.802"	"30.46"	"29.579"	"29.799"	"27.237"	"21.917"	"16.677"
"1933"	"15.119"	"19.838"	"25.257"	"28.518"	"32.456"	"31.861"	"29.56"	"28.96"	"29.079"	"26.537"	"21.318"	"17.059"
"1934"	"16.138"	"19.019"	"24.557"	"30.898"	"33.499"	"32.122"	"29.959"	"29.578"	"29.478"	"26.238"	"21.019"	"17.459"
"1935"	"15.758"	"19.638"	"25.277"	"28.857"	"33.919"	"33.323"	"30.48"	"28.88"	"29.118"	"26.457"	"21.438"	"17.318"
"1936"	"15.739"	"19.278"	"25.356"	"29.917"	"32.921"	"31.181"	"29.679"	"29.579"	"28.979"	"25.856"	"21.938"	"17.458"
"1937"	"14.957"	"19.397"	"23.856"	"29.657"	"32.539"	"33.341"	"30.48"	"28.899"	"29.598"	"25.838"	"21.139"	"16.278"
"1938"	"17.238"	"17.658"	"26.357"	"31.437"	"32.599"	"31.381"	"29.879"	"29.18"	"29.799"	"27.137"	"20.738"	"16.677"
"1939"	"17.138"	"19.838"	"23.675"	"30.857"	"34.001"	"32.342"	"30.079"	"29.18"	"29.118"	"26.638"	"21.558"	"17.277"
"1940"	"16.177"	"19.237"	"23.057"	"29.637"	"33.459"	"33.241"	"29.98"	"29.398"	"29.078"	"27.436"	"22.318"	"17.358"
"1941"	"16.819"	"19.739"	"26.936"	"32.278"	"33.02"	"32.421"	"30.84"	"29.26"	"29.279"	"26.719"	"21.619"	"18.159"
"1942"	"16.438"	"19.037"	"25.538"	"30.297"	"34.819"	"33.923"	"30.459"	"29.261"	"28.199"	"26.456"	"22.619"	"17.238"
"1943"	"18.519"	"18.159"	"25.617"	"28.598"	"33.9"	"33.24"	"29.94"	"28.881"	"29.279"	"26.938"	"21.719"	"18.118"
"1944"	"16.338"	"19.038"	"23.975"	"28.199"	"34.7"	"33.141"	"30.059"	"29.379"	"30.698"	"26.038"	"21.419"	"18.237"
"1945"	"15.838"	"17.759"	"25.356"	"28.918"	"32.699"	"33.742"	"31.158"	"29.94"	"29.078"	"25.557"	"20.919"	"15.817"
"1946"	"16.517"	"20.777"	"24.955"	"28.599"	"31.74"	"32.463"	"29.86"	"29.7"	"29.079"	"26.237"	"21.119"	"18.199"
"1947"	"16.477"	"19.277"	"25.955"	"31.598"	"33.099"	"34.042"	"30.06"	"29.86"	"29.279"	"26.639"	"21.719"	"17.678"
"1948"	"17.357"	"19.738"	"25.055"	"31.397"	"33.519"	"34.721"	"29.46"	"29.459"	"28.998"	"26.137"	"21.74"	"16.857"
"1949"	"17.258"	"18.8"	"24.657"	"28.899"	"31.221"	"32.623"	"29.759"	"29.398"	"29.078"	"27.156"	"20.738"	"15.819"
"1950"	"16.917"	"18.738"	"24.158"	"30.097"	"33.438"	"32.061"	"30.159"	"29.06"	"28.799"	"26.536"	"20.319"	"17.22"
"1951"	"15.959"	"19.157"	"25.377"	"30.136"	"33.94"	"33.58"	"29.94"	"30.018"	"29.378"	"28.298"	"22.319"	"17.197"
"1952"	"17.678"	"21.058"	"24.039"	"30.578"	"33.281"	"32.842"	"30.259"	"29.378"	"28.761"	"27.058"	"21.519"	"17.018"
"1953"	"16.319"	"20.6"	"27.717"	"30.899"	"34.001"	"32.944"	"29.58"	"29.58"	"28.86"	"26.438"	"21.138"	"18.797"
"1954"	"15.639"	"21.118"	"25.076"	"32.497"	"34.022"	"32.902"	"30.14"	"29.559"	"29.378"	"25.459"	"20.018"	"16.897"
"1955"	"16.479"	"18.757"	"26.837"	"29.798"	"33.82"	"32.822"	"29.061"	"28.999"	"28.799"	"26.458"	"21.739"	"16.918"
"1956"	"16.298"	"18.995"	"25.757"	"31.799"	"34.002"	"30.682"	"30.16"	"29.238"	"28.179"	"26.537"	"20.738"	"18.179"
"1957"	"17.201"	"18.698"	"24.357"	"30.917"	"35.238"	"33.802"	"30.26"	"29.899"	"29.979"	"27.418"	"21.898"	"18.518"
"1958"	"18.299"	"20.298"	"26.136"	"31.699"	"34.838"	"35.021"	"30.879"	"29.141"	"29.278"	"27.157"	"22.719"	"18.318"
"1959"	"17.139"	"18.998"	"25.138"	"31.197"	"33.52"	"33.222"	"30.56"	"29.879"	"28.86"	"26.318"	"21.519"	"17.578"
"1960"	"17.297"	"21.179"	"23.957"	"31.636"	"33.958"	"34.022"	"29.959"	"30.199"	"29.078"	"27.057"	"21.138"	"18.099"
"1961"	"17.558"	"18.519"	"25.476"	"30.657"	"33.94"	"31.861"	"29.959"	"29.78"	"29.239"	"26.718"	"20.737"	"14.496"
"1962"	"15.158"	"19.297"	"24.197"	"30.256"	"32.639"	"32.722"	"30.659"	"28.779"	"28.779"	"25.877"	"21.619"	"17.338"
"1963"	"15.359"	"20.439"	"24.557"	"29.779"	"31.919"	"32.242"	"29.86"	"29.378"	"28.6"	"27.237"	"22.096"	"18.658"
"1964"	"16.438"	"19.298"	"26.076"	"30.998"	"31.919"	"32.9"	"28.618"	"29.599"	"29.078"	"27.738"	"21.539"	"17.659"
"1965"	"17.358"	"19.658"	"23.657"	"28.876"	"32.557"	"33.922"	"30.021"	"29.378"	"28.299"	"26.838"	"22.317"	"15.958"
"1966"	"16.438"	"20.458"	"25.476"	"31.418"	"34.059"	"33.481"	"30.72"	"28.979"	"29.079"	"26.719"	"23.379"	"17.459"
"1967"	"17.137"	"20.837"	"24.037"	"29.179"	"33.138"	"33.903"	"30.442"	"29.28"	"28.998"	"25.976"	"20.838"	"18.477"
"1968"	"16.438"	"18.657"	"24.776"	"29.857"	"33.098"	"31.523"	"29.66"	"29.199"	"29.799"	"26.238"	"21.917"	"17.194"
"1969"	"16.039"	"19.998"	"26.757"	"31.117"	"32.52"	"33.242"	"30.24"	"28.86"	"28.68"	"27.118"	"23.119"	"17.739"
"1970"	"16.998"	"18.938"	"24.875"	"31.398"	"33.659"	"31.662"	"29.78"	"29.498"	"28.899"	"27.237"	"21.438"	"16.858"
"1971"	"15.938"	"17.037"	"24.176"	"28.259"	"30.42"	"30.221"	"28.78"	"27.879"	"28.68"	"26.438"	"20.799"	"17.258"
"1972"	"16.058"	"17.038"	"24.836"	"29.798"	"33.659"	"33.501"	"30.159"	"29.56"	"28.04"	"25.638"	"21.479"	"16.918"
"1973"	"16.439"	"19.899"	"23.738"	"31.079"	"32.661"	"31.703"	"29.94"	"29.559"	"28.88"	"26.738"	"21.338"	"17.259"
"1974"	"16.218"	"18.639"	"24.936"	"30.879"	"32.499"	"33.102"	"29.54"	"29.18"	"29.239"	"27.838"	"21.237"	"15.438"
"1975"	"15.878"	"19.118"	"24.656"	"30.678"	"33.2"	"32.343"	"29.002"	"29.18"	"28.68"	"27.538"	"21.258"	"16.756"
"1976"	"16.757"	"20.119"	"25.076"	"29.918"	"32.101"	"32.342"	"29.859"	"28.879"	"28.6"	"26.937"	"23.019"	"17.237"
"1977"	"16.138"	"19.518"	"26.256"	"29.878"	"30.4"	"31.722"	"29.578"	"29.499"	"29.498"	"26.238"	"23.218"	"16.998"
"1978"	"15.438"	"18.618"	"23.177"	"29.279"	"33.179"	"31.922"	"29.56"	"29.579"	"29.059"	"26.618"	"22.719"	"17.278"
"1979"	"17.239"	"17.357"	"24.495"	"30.417"	"33.959"	"32.882"	"30.441"	"30.999"	"28.66"	"27.398"	"24.018"	"18.818"
"1980"	"16.819"	"19.798"	"24.456"	"31.997"	"33.08"	"31.941"	"30.06"	"29.079"	"28.998"	"26.519"	"22.297"	"17.857"
"1981"	"15.938"	"19.237"	"24.337"	"29"	"31.543"	"32.822"	"29.64"	"29.479"	"29.559"	"26.738"	"21.338"	"16.957"
"1982"	"17.799"	"19.118"	"23.618"	"30.098"	"33.317"	"32.241"	"31.64"	"29.76"	"29.499"	"26.737"	"22.217"	"16.118"
"1983"	"15.759"	"19.919"	"24.755"	"29.498"	"31.819"	"33.38"	"30.659"	"30.16"	"30.259"	"26.738"	"21.358"	"17.738"
"1984"	"16.298"	"18.418"	"25.756"	"31.198"	"33.739"	"31.362"	"29.378"	"28.899"	"28.799"	"27.657"	"20.717"	"17.659"
"1985"	"17.419"	"19.019"	"27.017"	"31.198"	"33.04"	"33.422"	"29.26"	"29.479"	"29.239"	"26.457"	"21.759"	"18.558"
"1986"	"16.478"	"18.858"	"24.657"	"30.179"	"31.58"	"32.5"	"29.579"	"28.98"	"28.098"	"25.838"	"23.08"	"17.058"
"1987"	"16.077"	"20.958"	"24.755"	"30.178"	"32.459"	"33.803"	"29.94"	"28.641"	"29.379"	"26.796"	"22.077"	"18.336"
"1988"	"17.579"	"20.138"	"24.756"	"30.718"	"33.499"	"31.562"	"29.979"	"29.179"	"30.38"	"27.717"	"22.096"	"18.916"
"1989"	"15.46"	"18.617"	"25.356"	"30.676"	"33.6"	"31.642"	"29.86"	"28.698"	"29.86"	"27.677"	"22.217"	"16.639"
"1990"	"16.319"	"19.239"	"23.756"	"30.778"	"31.339"	"32.742"	"29.318"	"29.239"	"29.699"	"26.457"	"22.738"	"18.058"
"1991"	"17.138"	"20.038"	"25.176"	"29.738"	"33.459"	"31.261"	"30.258"	"28.719"	"29.279"	"26.976"	"21.236"	"17.157"
"1992"	"15.118"	"17.157"	"26.157"	"30.937"	"31.639"	"32.382"	"30.62"	"29.179"	"29.579"	"27.537"	"22.519"	"17.538"
"1993"	"17.5"	"21.318"	"24.417"	"29.678"	"33.161"	"33.302"	"30.84"	"28.86"	"29.078"	"27.539"	"21.858"	"17.977"
"1994"	"17.74"	"19.018"	"26.136"	"29.717"	"33.119"	"32.842"	"29.899"	"28.998"	"29.398"	"27.317"	"22.519"	"17.637"
"1995"	"14.839"	"21.419"	"24.956"	"30.418"	"33.359"	"33.802"	"29.86"	"28.88"	"29.299"	"27.237"	"22.719"	"18.477"
"1996"	"16.918"	"19.058"	"26.238"	"29.417"	"33.599"	"31.462"	"29.78"	"28.258"	"29.799"	"27.138"	"22.9"	"18.278"
"1997"	"15.819"	"18.276"	"25.257"	"29.676"	"32.159"	"33.582"	"30.202"	"29.398"	"28.68"	"26.579"	"22.719"	"18"
"1998"	"16.6"	"19.937"	"23.236"	"29.377"	"32.598"	"34.602"	"29.599"	"29.679"	"29.678"	"29.338"	"23.119"	"18.638"
"1999"	"16.796"	"20.519"	"25.578"	"32.319"	"33.339"	"32.442"	"29.779"	"29.279"	"29.078"	"28.018"	"23.398"	"18.558"
"2000"	"17.397"	"19.018"	"24.696"	"31.278"	"32.819"	"32.182"	"30.541"	"29.48"	"28.761"	"28.398"	"24.099"	"18.139"
"2001"	"17.078"	"19.738"	"24.916"	"30.836"	"33.619"	"31.32"	"29.517"	"29.799"	"29.98"	"28.699"	"24.398"	"19.436"
"2002"	"16.439"	"20.458"	"26.137"	"30.598"	"33.78"	"33.443"	"31.24"	"29.279"	"29.078"	"27.137"	"22.618"	"18.577"
