
"Year"	"Jan"	"Feb"	"Mar"	"Apr"	"May"	"Jun"	"Jul"	"Aug"	"Sep"	"Oct"	"Nov"	"Dec"
"1901"	"58.165"	"19.513"	"4.3"	"7.667"	"12.077"	"122.139"	"158.89"	"258.458"	"204.511"	"28.63"	"5.734"	"0"
"1902"	"2.765"	"2.604"	"7.512"	"6.362"	"8.896"	"88.617"	"338.68"	"168.428"	"347.96"	"18.029"	"0.361"	"0.376"
"1903"	"6.056"	"4.598"	"5.395"	"4.773"	"35.571"	"210.661"	"125.671"	"191.873"	"160.407"	"115.571"	"0"	"0"
"1904"	"1.122"	"3.162"	"26.756"	"1.261"	"138.889"	"71.431"	"264.772"	"410.507"	"105.909"	"67.74"	"7.131"	"0.163"
"1905"	"6.388"	"36.977"	"27.598"	"6.543"	"17.055"	"19.204"	"465.002"	"293.208"	"378.462"	"18.175"	"0"	"0.46"
"1906"	"6.593"	"87.178"	"21.735"	"1.601"	"13.961"	"124.868"	"449.537"	"215.068"	"217.067"	"104.282"	"0.359"	"0.46"
"1907"	"0.039"	"62.048"	"22.351"	"31.001"	"15.908"	"239.603"	"180.299"	"269.583"	"148.186"	"22.212"	"0"	"0.717"
"1908"	"9.555"	"64.212"	"6.899"	"1.581"	"8.32"	"79.227"	"284.16"	"261.632"	"104.636"	"122.581"	"0"	"0.54"
"1909"	"2.388"	"7.062"	"0"	"31.287"	"7.606"	"203.121"	"373.815"	"399.97"	"164.321"	"11.724"	"0.058"	"2.299"
"1910"	"3.704"	"7.663"	"17.095"	"9.017"	"13.929"	"176.701"	"328.263"	"320.47"	"203.628"	"57.465"	"11.315"	"0"
"1911"	"8.844"	"0.2"	"21.24"	"2.521"	"17.101"	"325.402"	"209.146"	"261.796"	"253.856"	"114.18"	"26.957"	"0"
"1912"	"3.22"	"11.668"	"4.036"	"14.481"	"30.359"	"100.832"	"327.436"	"294.804"	"58.425"	"23.944"	"12.558"	"0"
"1913"	"0.039"	"73.526"	"31.677"	"0.941"	"44.288"	"361.378"	"223.873"	"320.791"	"154.654"	"97.669"	"1.56"	"9.708"
"1914"	"0.361"	"37.264"	"16.98"	"26.362"	"48.85"	"52.017"	"236.85"	"363.514"	"109.396"	"17.265"	"0"	"1.553"
"1915"	"2.202"	"78.291"	"11.395"	"4.142"	"21.784"	"137.328"	"281.082"	"246.734"	"241.433"	"56.489"	"17.063"	"0"
"1916"	"0.039"	"27.741"	"1.697"	"4.018"	"6.741"	"168.45"	"357.596"	"291.663"	"161.196"	"190.991"	"0.717"	"0"
"1917"	"1.919"	"33.14"	"5.941"	"4.842"	"61.636"	"151.155"	"277.004"	"375.731"	"146.149"	"240.192"	"0.119"	"0.161"
"1918"	"0.118"	"0.281"	"6.218"	"2.761"	"19.603"	"195.945"	"219.263"	"383.094"	"192.007"	"12.366"	"0"	"0.158"
"1919"	"35.009"	"6.174"	"11.58"	"10.555"	"52.75"	"118.237"	"311.295"	"422.844"	"179.803"	"149.877"	"1.111"	"0"
"1920"	"0.039"	"50.159"	"28.394"	"2.399"	"22.124"	"70.754"	"430.836"	"326.237"	"156.498"	"20.37"	"0"	"0"
"1921"	"26.991"	"7.97"	"1.377"	"2.8"	"7.649"	"179.623"	"286.871"	"418.425"	"108.208"	"13.877"	"0"	"0"
"1922"	"13.14"	"14.844"	"0.88"	"6.048"	"3.793"	"348.344"	"427.941"	"314.658"	"316.3"	"92.25"	"3.449"	"7.953"
"1923"	"0.039"	"85.376"	"1.58"	"1.9"	"5.487"	"102.406"	"286.191"	"465.441"	"197.658"	"30.559"	"2.642"	"0.058"
"1924"	"4.883"	"14.992"	"2.041"	"15.682"	"14.004"	"124.599"	"361.778"	"224.946"	"226.263"	"107.54"	"39.417"	"0"
"1925"	"9.368"	"3.516"	"5.458"	"5.803"	"21.665"	"86.09"	"287.83"	"441.083"	"151.805"	"28.003"	"6.918"	"0"
"1926"	"17.109"	"0.601"	"43.413"	"5.462"	"70.011"	"40.245"	"484.359"	"301.698"	"201.538"	"60.762"	"1.945"	"4.198"
"1927"	"19.641"	"52.208"	"34.036"	"1.681"	"19.595"	"62.936"	"270.717"	"349.828"	"138.821"	"55.788"	"28.834"	"0"
"1928"	"22.873"	"20.278"	"2.179"	"11.996"	"33.147"	"157.01"	"453.457"	"188.738"	"153.635"	"178.766"	"0"	"1.461"
"1929"	"19.884"	"3.624"	"3.737"	"3.76"	"19.612"	"162.399"	"356.999"	"277.308"	"62.75"	"286.446"	"0"	"8.461"
"1930"	"12.939"	"7.621"	"3.817"	"5.431"	"9.975"	"82.785"	"248.711"	"210.747"	"215.761"	"36.629"	"16.645"	"8.099"
"1931"	"1.964"	"57.573"	"15.538"	"1.241"	"11.063"	"63.605"	"549.057"	"335.46"	"251.643"	"77.697"	"8.545"	"1.1"
"1932"	"0.039"	"19.971"	"1.779"	"3.296"	"35.216"	"137.793"	"250.577"	"322.092"	"167.058"	"42.518"	"34.941"	"5.475"
"1933"	"25.957"	"31.182"	"2.979"	"21.885"	"34.62"	"132.332"	"454.499"	"371.919"	"156.18"	"98.042"	"0"	"0"
"1934"	"25.894"	"28.275"	"1.461"	"8.539"	"9.837"	"161.091"	"345.417"	"392.69"	"220.265"	"59.453"	"10.18"	"0.279"
"1935"	"2.886"	"25.791"	"2.323"	"11.799"	"8.532"	"136.55"	"244.481"	"479.543"	"192.864"	"20.668"	"0"	"0.079"
"1936"	"3.595"	"7.655"	"14.597"	"4.942"	"63.419"	"189.766"	"453.214"	"283.823"	"299.603"	"175.107"	"0.621"	"11.69"
"1937"	"0.039"	"68.199"	"3.299"	"20.133"	"19.133"	"74.359"	"228.01"	"312.53"	"210.31"	"148.161"	"0.039"	"0.039"
"1938"	"9.091"	"25.464"	"2.956"	"4.023"	"45.672"	"330.272"	"285.858"	"287.839"	"177.986"	"60.839"	"0"	"0"
"1939"	"3.698"	"46.261"	"10.422"	"5.384"	"9.282"	"170.281"	"386.563"	"249.878"	"239.907"	"62.828"	"0.099"	"0"
"1940"	"0.039"	"69.493"	"47.403"	"6.168"	"17.921"	"85.466"	"457.795"	"363.798"	"141.171"	"19.493"	"0"	"3.56"
"1941"	"11.618"	"10.549"	"10.058"	"2.697"	"25.286"	"152.691"	"263.541"	"356.369"	"202.13"	"67.487"	"2.466"	"0"
"1942"	"33.273"	"58.199"	"16.704"	"7.441"	"5.8"	"138.074"	"252.74"	"399.577"	"334.397"	"13.914"	"0.08"	"0.541"
"1943"	"17.048"	"21.987"	"4.71"	"25.917"	"31.389"	"97.307"	"325.269"	"504.144"	"215.485"	"50.037"	"0"	"0"
"1944"	"23.854"	"41.896"	"45.827"	"6.938"	"10.851"	"188.676"	"233.187"	"413.44"	"140.547"	"112.285"	"0"	"0"
"1945"	"54.993"	"34.971"	"1.54"	"2.266"	"32.138"	"136.935"	"248.456"	"140.215"	"267.248"	"155.4"	"0"	"1.463"
"1946"	"0.039"	"33.044"	"17.788"	"13.431"	"33.851"	"128.481"	"441.211"	"362.12"	"280.963"	"106.675"	"19.511"	"0.281"
"1947"	"26.702"	"13.208"	"16.983"	"1.501"	"14.626"	"76.826"	"428.518"	"218.641"	"313.358"	"86.226"	"0.001"	"0.938"
"1948"	"8.463"	"18.091"	"7.399"	"5.74"	"31.43"	"115.827"	"397.207"	"278.891"	"301.619"	"80.669"	"15.499"	"0.28"
"1949"	"3.978"	"78.72"	"10.56"	"5.047"	"56.847"	"235.931"	"378.747"	"417.909"	"149.213"	"145.2"	"0"	"0"
"1950"	"3.285"	"17.413"	"40.763"	"1.679"	"5.123"	"207.282"	"262.266"	"377.819"	"129.78"	"33.695"	"0.696"	"1.804"
"1951"	"4.118"	"1.385"	"35.246"	"18.33"	"7.274"	"96.782"	"433.71"	"274.033"	"224.88"	"90.573"	"16.292"	"0"
"1952"	"0.2"	"19.288"	"21.896"	"6.056"	"11.094"	"308.331"	"200.749"	"234.24"	"223.415"	"69.867"	"1.822"	"0.621"
"1953"	"56.599"	"2.518"	"1.661"	"4.663"	"6.275"	"152.324"	"407.709"	"314.752"	"241.307"	"12.493"	"0"	"0.001"
"1954"	"10.968"	"18.717"	"3.42"	"2.52"	"17.537"	"123.372"	"277.797"	"259.462"	"230.713"	"39.491"	"0"	"0.596"
"1955"	"7.556"	"20.452"	"2.019"	"4.304"	"4.954"	"135.244"	"537.679"	"147.617"	"110.166"	"115.247"	"1.786"	"1.48"
"1956"	"17.177"	"10.971"	"4.701"	"7.559"	"69.073"	"246.026"	"179.437"	"334.567"	"367.125"	"82.264"	"32.838"	"6.018"
"1957"	"16.055"	"4.115"	"11.777"	"0.681"	"2.829"	"128.006"	"389.94"	"205.648"	"123.809"	"1.886"	"0"	"1.921"
"1958"	"25.62"	"10.814"	"18.194"	"13.18"	"2.11"	"178.553"	"300.091"	"234.415"	"224.063"	"173.655"	"0.078"	"0"
"1959"	"76.918"	"0.862"	"0.059"	"0.04"	"17.896"	"119.169"	"220.472"	"273.489"	"305.054"	"186.796"	"0"	"0"
"1960"	"0.682"	"0.2"	"21.751"	"4.881"	"0.733"	"87.324"	"282.531"	"364.528"	"184.381"	"48.371"	"0.058"	"0"
"1961"	"14.78"	"59.284"	"0.059"	"0"	"6.349"	"183.728"	"244.445"	"300.268"	"225.809"	"91.049"	"4.23"	"4.034"
"1962"	"19.628"	"16.122"	"5.123"	"6.978"	"2.413"	"117.566"	"243.468"	"255.473"	"299.294"	"23.499"	"0"	"3.2"
"1963"	"5.744"	"2.283"	"40.561"	"2.325"	"73.09"	"147.492"	"354.402"	"323.504"	"175.841"	"121.734"	"15.744"	"0"
"1964"	"0.04"	"3.865"	"4.2"	"10.882"	"16.042"	"129.434"	"383.103"	"407.573"	"183.987"	"56.003"	"8.755"	"0"
"1965"	"1.222"	"1.431"	"6.55"	"24.325"	"8.504"	"53.489"	"335.686"	"148.433"	"134.94"	"41.052"	"4.486"	"0.939"
"1966"	"31.286"	"28.435"	"0"	"0.059"	"0.732"	"70.962"	"152.35"	"189.695"	"74.285"	"5.815"	"31.005"	"7.251"
"1967"	"7.398"	"0.2"	"29.066"	"7.831"	"10.254"	"52.788"	"317.503"	"411.619"	"145.066"	"17.996"	"0"	"1.745"
"1968"	"30.172"	"4.363"	"1.677"	"3.299"	"1.232"	"178.722"	"300.252"	"295.862"	"80.548"	"103.093"	"0.773"	"4.278"
"1969"	"4.898"	"28.252"	"2.913"	"9.424"	"46.84"	"188.816"	"338.51"	"300.053"	"194.139"	"15.686"	"18.308"	"0"
"1970"	"9.03"	"21.984"	"8.641"	"1.14"	"21.944"	"212.2"	"393.437"	"239.159"	"258.698"	"64.727"	"0.536"	"0"
"1971"	"17.088"	"18.776"	"5.056"	"21.715"	"66.795"	"370.083"	"345.382"	"374.46"	"113.408"	"133.479"	"0.318"	"0"
"1972"	"7.178"	"88.456"	"3.264"	"19.043"	"8.172"	"26.028"	"163.896"	"268.917"	"178.894"	"193.212"	"16.212"	"0.419"
"1973"	"57.851"	"6.481"	"4.037"	"1.08"	"13.41"	"184.045"	"295.669"	"323.839"	"223.445"	"251.354"	"6.745"	"0.001"
"1974"	"7.818"	"4.484"	"4.128"	"3.494"	"21.277"	"144.848"	"529.1"	"218.183"	"150.795"	"103.343"	"2.571"	"1.762"
"1975"	"66.185"	"12.407"	"15.911"	"2.218"	"23.976"	"60.246"	"338.121"	"147.998"	"279.508"	"63.138"	"0.859"	"0"
"1976"	"7.787"	"40.432"	"0.822"	"18.951"	"16.702"	"119.006"	"257.953"	"237.69"	"370.567"	"1.485"	"0"	"0"
"1977"	"2.002"	"7.513"	"1.1"	"29.427"	"112.292"	"81.513"	"352.177"	"238.841"	"189.337"	"82.542"	"16.994"	"11.798"
"1978"	"12.505"	"69.457"	"31.078"	"27.611"	"13.535"	"162.621"	"270.4"	"259.194"	"316.985"	"101.451"	"3.373"	"9.116"
"1979"	"19.093"	"20.778"	"1.102"	"11.443"	"5.854"	"72.371"	"473.144"	"215.857"	"105.406"	"50.857"	"40.185"	"9.363"
"1980"	"10.167"	"5.221"	"17.306"	"0.422"	"27.897"	"201.31"	"338.727"	"262.271"	"101.756"	"20.796"	"2.57"	"0.801"
"1981"	"15.837"	"9.372"	"22.774"	"7.902"	"35.533"	"61.169"	"373.571"	"203.754"	"184.841"	"0.72"	"6.864"	"1.94"
"1982"	"22.057"	"21.459"	"34.535"	"11.401"	"38.069"	"95.236"	"197.801"	"199.937"	"316.831"	"34.579"	"16.736"	"1.422"
"1983"	"20.859"	"4.224"	"3.841"	"13.555"	"60.534"	"125.149"	"429.097"	"163.89"	"126.944"	"107.341"	"0"	"4.995"
"1984"	"29.731"	"36.581"	"3.676"	"13.55"	"11.565"	"218.337"	"315.526"	"189.436"	"441.499"	"40.868"	"0.161"	"0.001"
"1985"	"11.168"	"7.095"	"0.938"	"3.106"	"18.007"	"98.098"	"374.827"	"219.789"	"195.801"	"96.659"	"0.318"	"9.919"
"1986"	"5.682"	"21.392"	"3.145"	"11.557"	"31.045"	"131.219"	"359.197"	"277.874"	"184.583"	"20.352"	"4.202"	"7.401"
"1987"	"1.504"	"17.455"	"8.267"	"5.786"	"27.337"	"186.537"	"294.238"	"491.74"	"452.191"	"153.854"	"6.954"	"1.961"
"1988"	"7.96"	"31.626"	"24.595"	"6.798"	"34.621"	"141.761"	"174.682"	"297.235"	"144.458"	"38.797"	"1.426"	"5.527"
"1989"	"8.935"	"22.45"	"5.621"	"1.924"	"62.287"	"156.882"	"273.933"	"252.461"	"194.47"	"58.427"	"5.547"	"7.606"
"1990"	"0.039"	"30.39"	"9.582"	"4.733"	"65.009"	"126.355"	"292.496"	"225.312"	"206.811"	"70.106"	"0"	"0"
"1991"	"17.806"	"3.905"	"26.788"	"8.01"	"22.804"	"86.784"	"150.38"	"472.525"	"158.219"	"26.726"	"0.719"	"6.062"
"1992"	"18.058"	"6.802"	"1.419"	"4.023"	"12.053"	"23.069"	"208.242"	"193.683"	"103.082"	"68.644"	"0.165"	"0"
"1993"	"10.239"	"0.2"	"10.151"	"6.553"	"31.863"	"43.484"	"84.275"	"159.832"	"262.772"	"79.461"	"1.616"	"0"
"1994"	"60.854"	"38.155"	"21.384"	"10.234"	"14.708"	"97.904"	"217.838"	"293.671"	"48.152"	"130.396"	"0.058"	"0"
"1995"	"12.832"	"26.189"	"14.023"	"0.725"	"22.45"	"26.56"	"190.01"	"239.432"	"165.87"	"10.32"	"15.603"	"0.002"
"1996"	"27.804"	"16.166"	"1.781"	"3.776"	"12.252"	"76.895"	"186.339"	"304.099"	"142.736"	"167.512"	"0"	"0"
"1997"	"16.217"	"15.242"	"3.591"	"4.241"	"75.178"	"68.665"	"187.194"	"325.412"	"117.175"	"46.199"	"24.254"	"8.055"
"1998"	"2.168"	"21.272"	"6.076"	"8.66"	"75.441"	"33.827"	"192.29"	"264.811"	"160.736"	"176.517"	"19.47"	"0"
"1999"	"23.098"	"12.689"	"1.199"	"0"	"38.523"	"97.184"	"272.153"	"244.82"	"145.255"	"34.957"	"0.725"	"0.162"
"2000"	"11.474"	"20.876"	"7.391"	"9.891"	"12.061"	"126.427"	"120.119"	"134.309"	"237.097"	"0.721"	"0"	"0.281"
"2001"	"2.837"	"2.484"	"22.393"	"9.126"	"15.423"	"33.762"	"232.093"	"269.405"	"52.824"	"102.115"	"0"	"0.281"
"2002"	"21.029"	"13.45"	"5.043"	"6.661"	"14.801"	"39.77"	"183.31"	"267.874"	"174.84"	"136.409"	"13.363"	"0.281"
