
"Year"	"Jan"	"Feb"	"Mar"	"Apr"	"May"	"Jun"	"Jul"	"Aug"	"Sep"	"Oct"	"Nov"	"Dec"
"1901"	"14.706"	"14.722"	"18.105"	"19.349"	"20.284"	"20.305"	"19.015"	"18.285"	"18.485"	"19.174"	"17.756"	"16.557"
"1902"	"16.064"	"16.193"	"18.66"	"19.636"	"20.664"	"20.264"	"19.241"	"19.087"	"18.418"	"19.266"	"17.18"	"16.049"
"1903"	"15.175"	"14.97"	"16.68"	"18.86"	"20.177"	"20.397"	"19.108"	"18.685"	"18.464"	"18.505"	"16.758"	"15.581"
"1904"	"15.509"	"15.792"	"17.169"	"19.303"	"20.444"	"19.775"	"18.464"	"18.557"	"18.418"	"19.22"	"16.954"	"16.244"
"1905"	"14.64"	"14.573"	"16.501"	"18.146"	"20.911"	"20.289"	"18.619"	"18.598"	"18.552"	"19.334"	"18.002"	"15.889"
"1906"	"14.619"	"14.815"	"17.215"	"19.241"	"20.643"	"19.462"	"18.619"	"18.598"	"18.037"	"18.706"	"17.914"	"16.403"
"1907"	"15.643"	"15.817"	"17.349"	"18.434"	"19.775"	"19.909"	"19.216"	"17.817"	"18.351"	"19.154"	"18.089"	"15.602"
"1908"	"15.109"	"15.303"	"17.195"	"19.616"	"20.109"	"20.022"	"18.151"	"17.996"	"18.598"	"18.999"	"17.154"	"15.242"
"1909"	"15.335"	"15.838"	"18.418"	"18.68"	"20.51"	"19.396"	"18.171"	"18.397"	"18.151"	"18.464"	"17.447"	"16.228"
"1910"	"15.242"	"15.725"	"17.817"	"19.174"	"20.177"	"19.421"	"18.619"	"18.418"	"18.305"	"18.151"	"16.331"	"15.622"
"1911"	"15.843"	"15.57"	"16.948"	"18.907"	"20.69"	"19.287"	"19.087"	"18.351"	"18.285"	"19.493"	"18.208"	"17.226"
"1912"	"15.931"	"16.439"	"17.617"	"19.775"	"20.643"	"20.777"	"18.953"	"18.443"	"18.665"	"19.067"	"17.16"	"15.935"
"1913"	"15.083"	"16.131"	"16.861"	"19.663"	"20.156"	"19.061"	"18.619"	"18.285"	"18.619"	"19.375"	"17.715"	"16.495"
"1914"	"15.885"	"15.931"	"17.149"	"18.881"	"20.711"	"19.734"	"18.418"	"18.485"	"18.552"	"19.087"	"18.336"	"16.316"
"1915"	"15.576"	"15.396"	"17.637"	"19.262"	"20.597"	"20.731"	"19.396"	"18.619"	"18.772"	"18.994"	"18.361"	"16.043"
"1916"	"15.576"	"15.196"	"18.706"	"19.683"	"20.711"	"19.087"	"19.2"	"18.464"	"18.752"	"18.866"	"17.318"	"15.668"
"1917"	"15.73"	"15.771"	"17.391"	"18.567"	"19.488"	"19.108"	"18.557"	"18.511"	"18.285"	"18.285"	"16.846"	"15.689"
"1918"	"14.727"	"16.131"	"17.658"	"18.393"	"20.212"	"19.442"	"19.287"	"18.644"	"18.598"	"19.513"	"18.628"	"16.475"
"1919"	"15.843"	"15.997"	"17.838"	"19.081"	"20.423"	"19.375"	"18.464"	"18.244"	"18.552"	"18.819"	"18.228"	"15.935"
"1920"	"16.023"	"15.638"	"17.971"	"19.061"	"19.554"	"19.508"	"18.171"	"18.285"	"18.819"	"19.287"	"17.935"	"16.223"
"1921"	"15.776"	"15.771"	"18.639"	"19.996"	"20.51"	"19.909"	"19.174"	"18.285"	"18.064"	"18.887"	"17.133"	"16.577"
"1922"	"15.335"	"16.439"	"18.105"	"19.663"	"20.376"	"19.775"	"18.305"	"18.13"	"18.217"	"18.819"	"17.4"	"15.289"
"1923"	"15.529"	"15.124"	"18.105"	"18.969"	"19.909"	"20.577"	"18.485"	"18.176"	"18.439"	"18.619"	"17.247"	"16.804"
"1924"	"15.823"	"16.172"	"18.953"	"19.816"	"20.397"	"20.243"	"18.933"	"18.644"	"18.418"	"18.084"	"16.665"	"16.269"
"1925"	"14.151"	"15.016"	"18.171"	"20.017"	"20.156"	"19.04"	"18.285"	"18.598"	"18.752"	"19.529"	"18.361"	"16.403"
"1926"	"16.023"	"16.975"	"17.838"	"18.233"	"20.243"	"20.932"	"18.907"	"18.464"	"18.351"	"18.979"	"17.092"	"15.915"
"1927"	"15.047"	"15.597"	"17.53"	"18.86"	"20.022"	"19.529"	"18.151"	"18.064"	"18.598"	"18.799"	"16.29"	"16.203"
"1928"	"15.488"	"15.684"	"17.683"	"19.328"	"20.243"	"19.821"	"18.331"	"18.11"	"18.037"	"18.799"	"17.761"	"15.828"
"1929"	"14.867"	"15.663"	"18.665"	"19.282"	"20.664"	"19.642"	"18.619"	"18.244"	"18.731"	"18.819"	"18.089"	"15.961"
"1930"	"15.488"	"15.011"	"17.95"	"19.015"	"20.444"	"19.842"	"17.884"	"17.93"	"18.505"	"19.241"	"16.913"	"16.429"
"1931"	"15.817"	"15.885"	"17.437"	"19.862"	"20.577"	"20.69"	"18.726"	"18.397"	"18.285"	"18.238"	"17.38"	"15.977"
"1932"	"15.658"	"15.191"	"17.571"	"18.948"	"20.376"	"19.775"	"18.285"	"18.511"	"18.418"	"19.287"	"17.493"	"16.29"
"1933"	"15.33"	"15.926"	"17.791"	"19.102"	"19.508"	"19.262"	"18.619"	"18.13"	"18.151"	"18.685"	"17.694"	"15.935"
"1934"	"14.419"	"15.992"	"17.457"	"19.349"	"20.042"	"19.683"	"18.285"	"18.017"	"18.017"	"18.598"	"17"	"16.111"
"1935"	"14.352"	"15.658"	"17.345"	"18.146"	"20.243"	"19.909"	"18.285"	"18.11"	"17.75"	"18.933"	"17.201"	"16.337"
"1936"	"14.954"	"15.524"	"17.637"	"18.66"	"20.757"	"19.04"	"18.372"	"18.331"	"18.532"	"18.887"	"18.028"	"15.915"
"1937"	"14.686"	"15.926"	"17.215"	"18.68"	"20.156"	"19.775"	"17.95"	"18.197"	"18.217"	"18.619"	"17.822"	"15.468"
"1938"	"15.889"	"14.99"	"18.372"	"19.549"	"20.305"	"18.439"	"18.151"	"18.397"	"18.258"	"18.125"	"16.893"	"16.157"
"1939"	"15.776"	"16.305"	"17.082"	"18.726"	"19.909"	"19.842"	"18.285"	"18.464"	"18.064"	"19.087"	"17.221"	"15.823"
"1940"	"15.437"	"16.172"	"16.727"	"18.928"	"20.376"	"19.775"	"18.238"	"18.084"	"18.331"	"18.887"	"17.941"	"15.935"
"1941"	"15.175"	"16.707"	"18.485"	"19.75"	"20.556"	"20.109"	"18.197"	"18.644"	"18.799"	"19.554"	"17.914"	"17.386"
"1942"	"15.422"	"16.239"	"18.552"	"20.15"	"20.376"	"20.177"	"17.95"	"17.996"	"18.064"	"19.113"	"17.38"	"15.915"
"1943"	"15.556"	"15.591"	"18.151"	"18.881"	"20.597"	"19.02"	"17.817"	"17.93"	"18.017"	"18.351"	"18.182"	"15.843"
"1944"	"15.442"	"15.391"	"17.303"	"18.726"	"20.757"	"19.821"	"18.084"	"18.064"	"18.619"	"18.665"	"17.781"	"16.918"
"1945"	"14.553"	"15.57"	"18.105"	"18.614"	"20.088"	"19.909"	"18.064"	"18.397"	"18.084"	"18.598"	"16.825"	"15.134"
"1946"	"15.129"	"16.46"	"17.817"	"19.529"	"19.775"	"19.308"	"18.151"	"17.797"	"18.217"	"19.266"	"17.386"	"17.031"
"1947"	"15.468"	"16.305"	"18.151"	"18.614"	"20.49"	"20.423"	"18.685"	"19.067"	"18.017"	"18.064"	"17.694"	"16.337"
"1948"	"15.735"	"15.951"	"18.105"	"19.883"	"20.845"	"20.156"	"19.04"	"18.598"	"18.439"	"19.421"	"18.541"	"15.956"
"1949"	"16.398"	"15.926"	"18.573"	"19.75"	"20.597"	"19.842"	"18.887"	"18.665"	"18.351"	"18.887"	"17.313"	"15.556"
"1950"	"15.262"	"14.614"	"17.37"	"18.901"	"20.243"	"20.177"	"18.197"	"18.084"	"18.151"	"18.413"	"16.732"	"15.242"
"1951"	"14.954"	"15.638"	"17.838"	"18.639"	"19.93"	"19.842"	"18.48"	"18.13"	"19.108"	"19.729"	"18.784"	"16.07"
"1952"	"15.931"	"16.547"	"17.391"	"19.683"	"20.643"	"19.775"	"18.418"	"18.043"	"18.285"	"18.928"	"16.866"	"17.185"
"1953"	"15.376"	"17.016"	"18.928"	"19.549"	"20.109"	"19.595"	"18.171"	"17.843"	"18.217"	"19.067"	"17.56"	"16.511"
"1954"	"15.088"	"16.593"	"18.372"	"19.303"	"20.423"	"19.775"	"18.171"	"18.397"	"17.53"	"18.197"	"17.427"	"16.116"
"1955"	"16.157"	"16.326"	"18.347"	"18.706"	"20.444"	"19.508"	"18.639"	"17.863"	"18.397"	"18.598"	"16.825"	"16.002"
"1956"	"15.576"	"15.905"	"18.459"	"19.616"	"19.996"	"19.174"	"17.843"	"17.863"	"18.197"	"18.624"	"17.673"	"16.182"
"1957"	"15.535"	"15.083"	"16.655"	"19.015"	"20.022"	"20.289"	"18.439"	"18.105"	"18.418"	"19.421"	"18.717"	"17.206"
"1958"	"16.444"	"15.992"	"18.192"	"19.816"	"20.664"	"20.264"	"18.305"	"18.238"	"18.197"	"18.799"	"18.475"	"17.051"
"1959"	"15.755"	"15.926"	"18.258"	"19.683"	"21.025"	"19.775"	"17.863"	"17.909"	"18.244"	"18.485"	"18.048"	"17.231"
"1960"	"15.355"	"17.308"	"17.596"	"19.328"	"20.67"	"19.375"	"18.619"	"17.93"	"18.573"	"18.84"	"18.007"	"17.206"
"1961"	"15.889"	"15.104"	"18.706"	"19.529"	"20.063"	"19.375"	"17.95"	"18.464"	"17.863"	"18.217"	"18.028"	"16.475"
"1962"	"14.619"	"16.439"	"17.838"	"19.549"	"20.777"	"19.842"	"18.351"	"18.285"	"18.151"	"18.197"	"17.715"	"16.67"
"1963"	"16.357"	"16.68"	"18.105"	"18.701"	"20.156"	"19.683"	"18.418"	"17.863"	"18.064"	"19.087"	"18.315"	"17.119"
"1964"	"14.867"	"16.079"	"18.726"	"20.15"	"20.109"	"19.508"	"18.217"	"17.884"	"18.171"	"18.866"	"17.427"	"16.203"
"1965"	"16.264"	"16.239"	"17.637"	"19.195"	"19.996"	"19.93"	"18.372"	"18.552"	"18.799"	"19.622"	"18.516"	"17.185"
"1966"	"16.064"	"17.149"	"17.817"	"19.488"	"19.93"	"20.109"	"19.02"	"18.665"	"18.665"	"19.775"	"18.851"	"16.784"
"1967"	"15.201"	"16.928"	"18.105"	"19.488"	"20.623"	"19.622"	"18.397"	"18.064"	"18.331"	"19.108"	"18.069"	"17.719"
"1968"	"14.974"	"15.684"	"17.838"	"19.349"	"20.022"	"20.376"	"18.84"	"18.064"	"19.22"	"18.86"	"17.735"	"16.604"
"1969"	"15.663"	"16.707"	"19.195"	"20.284"	"20.958"	"20.109"	"18.819"	"18.285"	"18.485"	"19.375"	"19.252"	"17.318"
"1970"	"15.91"	"16.753"	"18.171"	"20.15"	"20.911"	"19.22"	"18.418"	"18.238"	"18.217"	"19.308"	"16.934"	"15.442"
"1971"	"15.109"	"16.172"	"18.171"	"19.837"	"20.177"	"19.02"	"18.377"	"18.064"	"18.685"	"18.217"	"17.113"	"15.689"
"1972"	"15.442"	"14.882"	"18.192"	"19.081"	"20.376"	"20.13"	"18.619"	"18.598"	"18.933"	"19.622"	"17.715"	"16.65"
"1973"	"14.841"	"16.392"	"18.171"	"20.284"	"20.777"	"20.088"	"18.197"	"18.064"	"17.709"	"18.799"	"17.694"	"16.337"
"1974"	"15.309"	"15.73"	"18.593"	"19.93"	"19.775"	"20.243"	"18.326"	"18.418"	"18.994"	"18.726"	"16.913"	"15.689"
"1975"	"14.887"	"15.926"	"17.483"	"19.04"	"20.376"	"19.508"	"18.619"	"18.331"	"18.264"	"18.639"	"17.113"	"15.689"
"1976"	"15.396"	"16.372"	"18.532"	"19.035"	"19.862"	"19.308"	"18.665"	"18.331"	"18.285"	"19.622"	"19.272"	"16.939"
"1977"	"15.602"	"16.46"	"19.308"	"19.95"	"20.444"	"19.734"	"18.619"	"18.665"	"18.665"	"19.462"	"18.69"	"16.465"
"1978"	"14.974"	"15.725"	"17.057"	"19.549"	"20.664"	"19.396"	"18.619"	"18.285"	"18.084"	"19.308"	"18.557"	"16.872"
"1979"	"15.597"	"15.237"	"17.55"	"19.595"	"20.13"	"20.017"	"18.84"	"17.863"	"18.994"	"19.709"	"18.938"	"16.893"
"1980"	"15.709"	"16.506"	"18.125"	"20.248"	"21.046"	"18.593"	"18.526"	"18.351"	"19.087"	"19.709"	"18.737"	"16.29"
"1981"	"15.35"	"16.439"	"18.439"	"19.524"	"20.464"	"20.264"	"18.418"	"18.197"	"18.192"	"19.601"	"17.226"	"16.203"
"1982"	"15.843"	"15.838"	"17.483"	"19.035"	"20.341"	"20.356"	"19.087"	"18.532"	"18.772"	"20.088"	"18.361"	"17.072"
"1983"	"15.175"	"15.104"	"17.236"	"18.48"	"20.423"	"20.289"	"19.133"	"18.598"	"18.685"	"18.644"	"17.206"	"16.182"
"1984"	"14.686"	"15.643"	"19.02"	"19.883"	"20.824"	"19.842"	"18.665"	"18.156"	"18.511"	"19.113"	"17.761"	"16.604"
"1985"	"15.422"	"16.131"	"18.907"	"19.483"	"20.577"	"19.683"	"18.685"	"18.285"	"18.752"	"18.485"	"17.688"	"16.779"
"1986"	"15.91"	"16.172"	"18.105"	"19.683"	"20.556"	"19.734"	"18.685"	"18.064"	"18.887"	"19.355"	"18.336"	"15.956"
"1987"	"16.111"	"16.773"	"18.573"	"19.683"	"20.51"	"19.996"	"19.282"	"18.84"	"19.529"	"19.796"	"18.871"	"17.026"
"1988"	"16.598"	"16.814"	"17.745"	"20.038"	"20.911"	"20.063"	"18.619"	"18.665"	"18.974"	"18.953"	"17.868"	"16.557"
"1989"	"15.376"	"16.305"	"17.77"	"19.216"	"20.643"	"19.375"	"18.665"	"17.996"	"18.819"	"19.308"	"18.805"	"16.604"
"1990"	"16.732"	"16.439"	"17.37"	"19.102"	"20.305"	"19.575"	"18.485"	"18.197"	"18.418"	"19.22"	"18.516"	"17.051"
"1991"	"15.109"	"16.079"	"17.925"	"19.549"	"20.777"	"20.197"	"18.439"	"18.331"	"18.731"	"19.266"	"18.382"	"16.09"
"1992"	"15.709"	"15.529"	"18.105"	"18.948"	"20.243"	"20.397"	"19.287"	"18.397"	"18.69"	"18.953"	"18.429"	"16.825"
"1993"	"15.796"	"16.572"	"17.884"	"19.102"	"20.597"	"20.13"	"18.819"	"18.752"	"18.372"	"19.442"	"18.47"	"16.779"
"1994"	"16.218"	"15.838"	"18.526"	"19.282"	"20.597"	"19.508"	"18.176"	"18.285"	"18.058"	"19.334"	"18.295"	"15.977"
"1995"	"14.841"	"16.305"	"17.817"	"19.595"	"20.824"	"21.112"	"19.02"	"19.113"	"18.953"	"19.663"	"17.868"	"16.645"
"1996"	"15.864"	"16.727"	"19.061"	"19.549"	"20.51"	"20.31"	"18.752"	"18.331"	"18.665"	"18.953"	"17.868"	"16.804"
"1997"	"15.063"	"15.391"	"18.171"	"18.367"	"19.775"	"19.375"	"18.685"	"18.197"	"18.552"	"19.133"	"19.498"	"17.298"
"1998"	"15.956"	"15.838"	"17.77"	"19.971"	"21.313"	"20.376"	"18.685"	"18.933"	"18.731"	"19.729"	"18.182"	"16.157"
"1999"	"14.928"	"16.928"	"18.305"	"19.837"	"19.862"	"19.174"	"18.418"	"18.331"	"18.393"	"18.752"	"17.935"	"16.337"
"2000"	"15.977"	"15.55"	"17.324"	"20.171"	"19.775"	"19.595"	"18.217"	"18.752"	"18.887"	"19.821"	"18.402"	"16.866"
"2001"	"15.823"	"16.372"	"17.745"	"19.549"	"20.177"	"18.933"	"17.863"	"18.197"	"19.108"	"19.375"	"18.269"	"16.939"
"2002"	"14.928"	"16.618"	"18.258"	"20.15"	"20.777"	"19.775"	"18.887"	"18.13"	"18.685"	"20.022"	"18.402"	"17.16"
