
"Year"	"Jan"	"Feb"	"Mar"	"Apr"	"May"	"Jun"	"Jul"	"Aug"	"Sep"	"Oct"	"Nov"	"Dec"
"1901"	"29.126"	"23.247"	"1.624"	"13.551"	"56.442"	"57.63"	"103.745"	"123.84"	"188.319"	"142.431"	"266.315"	"2.202"
"1902"	"4.518"	"0"	"3.347"	"32.344"	"42.637"	"91.605"	"148.905"	"254.023"	"202.655"	"116.725"	"22.049"	"54.504"
"1903"	"0.042"	"4.541"	"0.149"	"16.636"	"22.478"	"172.951"	"326.114"	"184.177"	"194.054"	"117.006"	"120.656"	"24.882"
"1904"	"0.221"	"0"	"0.545"	"0.327"	"103.123"	"106.87"	"146.98"	"241.478"	"227.022"	"163.334"	"0.85"	"21.048"
"1905"	"0.2"	"36.111"	"27.364"	"147.869"	"101.78"	"83.803"	"132.216"	"203.258"	"326.334"	"26.984"	"3.929"	"0.04"
"1906"	"8.673"	"33.814"	"22.053"	"0.327"	"2.451"	"277.671"	"191.231"	"270.743"	"136.787"	"74.671"	"4.923"	"10.423"
"1907"	"0"	"4.783"	"20.21"	"131.648"	"24.924"	"224.53"	"95.878"	"213.419"	"75.415"	"42.301"	"42.68"	"33.349"
"1908"	"22.398"	"0.318"	"0"	"27.21"	"43.07"	"53.188"	"122.917"	"237.059"	"310.41"	"18.078"	"5.937"	"0.04"
"1909"	"0.6"	"14.955"	"0.001"	"96.444"	"9.498"	"108.218"	"168.126"	"180.771"	"134.315"	"5.55"	"0.85"	"35.709"
"1910"	"0.041"	"0.75"	"0"	"17.284"	"17.595"	"171.177"	"306.155"	"255.471"	"206.971"	"279.722"	"94.072"	"0.04"
"1911"	"0"	"0"	"5.527"	"19.452"	"20.154"	"119.178"	"125.612"	"142.193"	"138.199"	"40.203"	"76.35"	"11.773"
"1912"	"0"	"3.453"	"19.998"	"17.415"	"28.382"	"48.734"	"211.037"	"254.923"	"207.687"	"79.39"	"66.174"	"5.559"
"1913"	"0"	"33.017"	"0"	"25.082"	"12.601"	"188.416"	"276.705"	"86.787"	"92.326"	"193.674"	"63.604"	"16.05"
"1914"	"0"	"0.899"	"0.745"	"70.464"	"57.308"	"257.903"	"156.17"	"93.514"	"400.356"	"15.054"	"11.827"	"0.14"
"1915"	"14.703"	"14.17"	"15.604"	"62.147"	"67.042"	"182.822"	"261.978"	"334.435"	"200.644"	"157.963"	"167.188"	"0.04"
"1916"	"0"	"15.621"	"0"	"0.643"	"16.447"	"128.78"	"247.155"	"185.615"	"111.856"	"226.492"	"81.464"	"0.04"
"1917"	"0"	"15.246"	"2.406"	"9.165"	"74.265"	"197.341"	"182.424"	"251.386"	"162.867"	"270.766"	"123.056"	"32.409"
"1918"	"3.558"	"5.953"	"7.036"	"50.286"	"54.18"	"158.796"	"155.923"	"179.344"	"175.47"	"46.085"	"124.916"	"0.611"
"1919"	"17.307"	"33.542"	"4.697"	"3.378"	"22.481"	"162.824"	"214.792"	"184.029"	"104.074"	"159.452"	"275.674"	"2.765"
"1920"	"11.71"	"12.062"	"11.359"	"3.075"	"34.527"	"90.941"	"112.362"	"127.612"	"139.502"	"158.013"	"57.834"	"0.04"
"1921"	"20.721"	"0"	"0"	"53.438"	"0.903"	"79.255"	"168.841"	"100.079"	"270.463"	"183.791"	"1.478"	"0.04"
"1922"	"5.302"	"0"	"0"	"0.356"	"7.349"	"91.428"	"107.913"	"184.981"	"152.201"	"42.815"	"130.081"	"0.04"
"1923"	"0.123"	"51.597"	"4.72"	"16.361"	"22.195"	"37.506"	"138.948"	"94.47"	"220.626"	"214.516"	"218.294"	"0.04"
"1924"	"16.238"	"0"	"1.873"	"12.75"	"28.611"	"53.154"	"86.096"	"161.896"	"362.416"	"92.837"	"251.562"	"0.04"
"1925"	"5.177"	"0"	"3.976"	"104.335"	"131.579"	"90.274"	"223.095"	"246.451"	"112.381"	"311.502"	"25.336"	"17.364"
"1926"	"14.094"	"0.371"	"28.37"	"48.175"	"31.735"	"78.066"	"190.218"	"153.887"	"286.958"	"63.521"	"2.122"	"0.04"
"1927"	"10.074"	"24.047"	"56.887"	"10.082"	"15.521"	"278.219"	"230.1"	"266.812"	"228.108"	"52.026"	"125.746"	"0.04"
"1928"	"0"	"5.759"	"12.681"	"38.818"	"45.224"	"115.155"	"238.415"	"229.042"	"218.667"	"384.027"	"0.964"	"4.514"
"1929"	"0"	"28.914"	"0"	"26.172"	"49.787"	"251.497"	"136.192"	"295.536"	"175.968"	"170.956"	"49.384"	"12.909"
"1930"	"0"	"20.797"	"11.476"	"50.888"	"122.335"	"149.853"	"239.897"	"166.126"	"174.993"	"179.588"	"193.932"	"0.076"
"1931"	"0.288"	"0.001"	"1.482"	"15.44"	"46.336"	"121.718"	"146.208"	"176.82"	"195.517"	"329.157"	"283.83"	"3.049"
"1932"	"0"	"29.908"	"0"	"18.735"	"33.419"	"34.06"	"186.049"	"116.832"	"181.105"	"67.899"	"326.911"	"3.049"
"1933"	"8.269"	"0"	"10.712"	"18.486"	"34.691"	"96.139"	"226.154"	"130.356"	"220.503"	"197.181"	"77.328"	"34.407"
"1934"	"0"	"0"	"0.305"	"4.32"	"3.684"	"143.396"	"269.667"	"242.511"	"132.174"	"84.343"	"66.473"	"15.014"
"1935"	"7.032"	"0"	"0"	"16.092"	"13.61"	"90.305"	"139.043"	"81.538"	"172.395"	"116.727"	"8.418"	"0.04"
"1936"	"4.889"	"64.163"	"5.289"	"13.675"	"121.288"	"148.395"	"240.228"	"252.411"	"132.785"	"235.024"	"64.992"	"11.494"
"1937"	"0"	"52.581"	"6.059"	"133.362"	"26.15"	"80.406"	"143.174"	"159.555"	"88.337"	"172.224"	"0.85"	"0.04"
"1938"	"0"	"28.799"	"14.437"	"0.809"	"112.018"	"203.754"	"145.892"	"179.675"	"358.138"	"131.502"	"206.529"	"0.04"
"1939"	"0.19"	"0.036"	"33.892"	"8.354"	"8.973"	"94.432"	"183.933"	"154.087"	"165.571"	"282.249"	"70.778"	"9.172"
"1940"	"0"	"11.155"	"27.276"	"47.163"	"124.037"	"107.108"	"206.734"	"244.553"	"167.162"	"125.716"	"42.269"	"25.212"
"1941"	"0.166"	"30.15"	"11.724"	"1.318"	"52.477"	"251.912"	"72.811"	"71.986"	"233.196"	"304.873"	"112.062"	"0.496"
"1942"	"0.065"	"8.513"	"0.467"	"73.62"	"8.831"	"103.696"	"149.474"	"161.046"	"120.053"	"118.668"	"156.966"	"11.933"
"1943"	"14.557"	"5.026"	"0.458"	"105.077"	"11.177"	"152.75"	"199.751"	"129.84"	"129.071"	"262.464"	"102.964"	"0.04"
"1944"	"11.592"	"27.217"	"45.389"	"56.918"	"30.533"	"105.048"	"188.649"	"116.055"	"192.955"	"298.722"	"33.103"	"0.04"
"1945"	"0.514"	"0"	"0"	"120.805"	"5.999"	"44.708"	"231.661"	"163.496"	"246.613"	"209.907"	"69.786"	"27.359"
"1946"	"0"	"21.161"	"0.027"	"73.56"	"32.158"	"117.447"	"276.701"	"203.971"	"71.375"	"116.767"	"139.225"	"0.04"
"1947"	"19.797"	"7.125"	"2.583"	"15.233"	"4.856"	"119.239"	"288.165"	"207.236"	"266.356"	"129.547"	"124.836"	"31.068"
"1948"	"2.618"	"11.465"	"4.883"	"112.517"	"53.944"	"78.023"	"153.443"	"149.2"	"172.2"	"42.115"	"137.314"	"17.615"
"1949"	"7.757"	"0.317"	"0"	"31.481"	"70.747"	"84.275"	"162.341"	"176.667"	"346.995"	"265.23"	"3.328"	"0.058"
"1950"	"0"	"11.188"	"16.721"	"28.703"	"40.484"	"89.604"	"226.718"	"103.113"	"121.618"	"100.426"	"130.694"	"0.04"
"1951"	"0.018"	"0"	"13.96"	"19.129"	"45.719"	"154.738"	"408.793"	"272.18"	"203.592"	"28.131"	"95.979"	"6.483"
"1952"	"0"	"4.233"	"3.199"	"69.153"	"39.051"	"93.769"	"209.077"	"143.955"	"215.487"	"248.551"	"0.85"	"16.247"
"1953"	"16.865"	"0"	"0"	"23.171"	"46.681"	"182.324"	"108.305"	"239.542"	"219.9"	"184.781"	"9.372"	"0.04"
"1954"	"0.028"	"0"	"4.027"	"9.405"	"29.45"	"116.487"	"130.733"	"171.813"	"322.14"	"181.639"	"0.85"	"39.451"
"1955"	"0.137"	"0.001"	"8.676"	"18.066"	"57.116"	"114.043"	"80.038"	"283.333"	"344.779"	"281.628"	"48.172"	"2.202"
"1956"	"0.759"	"6.121"	"0"	"38.533"	"33.772"	"173.785"	"482.134"	"281.337"	"237.007"	"300.721"	"19.01"	"0.04"
"1957"	"0.878"	"1.742"	"13.399"	"7.287"	"14.84"	"211.232"	"158.236"	"294.858"	"213.385"	"68.416"	"27.729"	"0.04"
"1958"	"5.762"	"0.498"	"0.221"	"96.493"	"13.834"	"73.537"	"302.978"	"174.38"	"225.69"	"313.901"	"224.392"	"0.04"
"1959"	"9.082"	"20.556"	"0"	"25.995"	"24.332"	"143.616"	"301.367"	"173.102"	"147.323"	"218.494"	"0.85"	"0.919"
"1960"	"0.012"	"0"	"11.104"	"0.661"	"22.113"	"128.809"	"232.951"	"152.207"	"184.151"	"136.478"	"3.081"	"18.515"
"1961"	"2.996"	"32.218"	"0.326"	"4.795"	"28.227"	"198.448"	"198.902"	"269.168"	"129.644"	"252.555"	"38.97"	"1.359"
"1962"	"3.778"	"10.104"	"0"	"48.393"	"22.448"	"58.801"	"277.462"	"156.784"	"375.523"	"396.52"	"85.553"	"26.863"
"1963"	"0"	"0"	"5.075"	"107.262"	"10.887"	"160.125"	"202.624"	"202.569"	"158.549"	"402.007"	"0.85"	"0.04"
"1964"	"0.822"	"7.173"	"0.242"	"27.683"	"30.417"	"122.339"	"184.203"	"271.493"	"332.959"	"86.566"	"62.257"	"8.009"
"1965"	"1.451"	"1.369"	"8.491"	"44.894"	"31.754"	"40.822"	"342.212"	"219.947"	"180.028"	"62.275"	"7.73"	"21.401"
"1966"	"33.884"	"0"	"0.018"	"4.026"	"27.994"	"117.258"	"184.872"	"159.936"	"131.615"	"105.836"	"199.031"	"12.873"
"1967"	"13.445"	"0"	"58.605"	"13.871"	"3.927"	"160.987"	"294.038"	"128.007"	"161.184"	"20.036"	"0.986"	"67.534"
"1968"	"7.835"	"7.133"	"0.491"	"20.294"	"31.652"	"162.802"	"229.935"	"47.108"	"172.183"	"199.401"	"144.89"	"0.772"
"1969"	"1.021"	"0"	"10.459"	"3.938"	"142.027"	"83.745"	"293.743"	"108.81"	"172.042"	"167.656"	"239.225"	"53.424"
"1970"	"3.679"	"8.002"	"34.315"	"7.238"	"111.854"	"298.752"	"178.065"	"316.347"	"119.742"	"73.677"	"0.85"	"0.04"
"1971"	"0.029"	"36.693"	"10.949"	"102.016"	"58.902"	"65.82"	"89.711"	"208.633"	"203.86"	"183.531"	"0.85"	"0.04"
"1972"	"0"	"16.094"	"0"	"35.63"	"14.566"	"72.495"	"136.035"	"125.072"	"211.664"	"155.303"	"117.124"	"1.342"
"1973"	"0"	"0.042"	"7.842"	"5.677"	"49.712"	"90.698"	"193.368"	"205.083"	"93.457"	"180.368"	"18.207"	"0.04"
"1974"	"0"	"2.517"	"19.961"	"27.085"	"24.365"	"120.97"	"127.897"	"193.438"	"151.966"	"273.796"	"60.597"	"0.04"
"1975"	"0.001"	"1.737"	"1.141"	"0.716"	"55.447"	"251.231"	"203.831"	"232.588"	"240.545"	"282.098"	"59.672"	"0.191"
"1976"	"0"	"3.209"	"1.322"	"76.964"	"28.78"	"79.201"	"204.708"	"298.648"	"121.865"	"84.329"	"303.358"	"3.991"
"1977"	"2.257"	"0"	"1.732"	"63.923"	"74.653"	"140.21"	"194.718"	"175.307"	"183.886"	"156.794"	"175.067"	"5.337"
"1978"	"22.307"	"27.1"	"1.133"	"38.757"	"31.516"	"261.517"	"276.223"	"329.38"	"170.096"	"96.983"	"53.529"	"8.247"
"1979"	"5.199"	"23.555"	"0.392"	"29.381"	"82.077"	"100.828"	"103.307"	"110.362"	"238.101"	"47.549"	"209.925"	"33.463"
"1980"	"2.445"	"0"	"4.146"	"12.833"	"25.363"	"268.139"	"218.025"	"243.059"	"141.401"	"107.595"	"93.974"	"11.266"
"1981"	"11.708"	"0"	"25.912"	"19.272"	"38.479"	"115.724"	"213.757"	"153.324"	"334.257"	"112.957"	"35.857"	"9.942"
"1982"	"0"	"0.727"	"0.094"	"70.066"	"26.313"	"117.363"	"260.471"	"145.413"	"180.016"	"321.502"	"32.877"	"0.529"
"1983"	"0.782"	"9.422"	"0.094"	"0.584"	"19.42"	"218.939"	"206.88"	"200.052"	"146.163"	"289.436"	"14.287"	"23.51"
"1984"	"10.438"	"12.764"	"3.363"	"5.509"	"49.991"	"124.156"	"219.407"	"158.398"	"138.17"	"84.962"	"22.825"	"6.2"
"1985"	"26.266"	"0"	"0.665"	"2.02"	"14.868"	"196.132"	"188.903"	"201.674"	"138.566"	"312.852"	"35.201"	"12.976"
"1986"	"22.016"	"24.558"	"1.61"	"36.683"	"32.863"	"124.985"	"137.403"	"424.257"	"145.163"	"138.521"	"202.148"	"18.405"
"1987"	"3.737"	"0"	"43.386"	"60.534"	"40.541"	"66.577"	"102.256"	"219.341"	"86.725"	"171.637"	"209.287"	"11.345"
"1988"	"0"	"4.628"	"0.525"	"34.599"	"53.067"	"87.224"	"378.824"	"243.349"	"330.38"	"84.15"	"28.186"	"11.227"
"1989"	"0"	"0"	"30.425"	"2.964"	"46.333"	"105.432"	"420.642"	"193.876"	"196.164"	"45.521"	"8.375"	"1.253"
"1990"	"0.77"	"70.821"	"60.453"	"21.952"	"125.561"	"125.401"	"149.233"	"358.011"	"170.065"	"249.286"	"75.448"	"21.704"
"1991"	"6.809"	"0"	"2.721"	"8.574"	"35.523"	"332.709"	"181.256"	"144.682"	"323.267"	"179.975"	"101.84"	"12.353"
"1992"	"3.818"	"0.199"	"0"	"2.786"	"48.132"	"120.157"	"225.788"	"255.519"	"234.605"	"143.066"	"233.118"	"0.04"
"1993"	"2.189"	"0"	"2.878"	"22.501"	"51.56"	"90.094"	"139.249"	"155.277"	"205.773"	"316.673"	"3.403"	"1.972"
"1994"	"4.708"	"7.653"	"10.331"	"20.024"	"48.502"	"66.832"	"346.869"	"194.851"	"123.558"	"225.443"	"153.943"	"0.046"
"1995"	"14.815"	"0.598"	"12.973"	"15.712"	"44.176"	"86.548"	"246.603"	"151.738"	"209.589"	"419.306"	"67.967"	"0.04"
"1996"	"1.733"	"1.982"	"1.868"	"37.507"	"21.819"	"319.146"	"157.682"	"190.327"	"171.032"	"261.746"	"48.03"	"15.21"
"1997"	"7.431"	"1.024"	"32.23"	"45.267"	"5.361"	"42.192"	"251.523"	"163.414"	"289.707"	"73.698"	"154.552"	"40.206"
"1998"	"15.711"	"35.276"	"0.422"	"36.634"	"36.908"	"110.179"	"251.776"	"194.88"	"263.615"	"267.06"	"181.704"	"0.04"
"1999"	"0.217"	"0"	"0"	"2.276"	"56.495"	"147.084"	"110.456"	"255.325"	"134.977"	"164.574"	"3.126"	"0.825"
"2000"	"0"	"41.441"	"0"	"13.864"	"43.201"	"306.308"	"168.055"	"312.672"	"134.718"	"144.511"	"2.897"	"0.048"
"2001"	"0.232"	"0"	"1.496"	"26.45"	"66.507"	"101.618"	"108.7"	"300.458"	"162.769"	"170.687"	"134.315"	"3.66"
"2002"	"19.054"	"0"	"1.346"	"63.912"	"23.661"	"111.031"	"116.604"	"272.423"	"48.552"	"129.709"	"49.242"	"0.04"
