
"Year"	"Jan"	"Feb"	"Mar"	"Apr"	"May"	"Jun"	"Jul"	"Aug"	"Sep"	"Oct"	"Nov"	"Dec"
"1901"	"23.453"	"24.136"	"26.568"	"29.192"	"30.686"	"29.645"	"27.416"	"26.769"	"27.835"	"26.587"	"24.323"	"21.996"
"1902"	"22.603"	"24.091"	"26.807"	"29.394"	"31.267"	"30.412"	"27.215"	"27.602"	"26.998"	"26.691"	"24.161"	"22.341"
"1903"	"22.581"	"24.176"	"26.759"	"29.184"	"30.016"	"29.478"	"26.982"	"27.128"	"26.962"	"26.204"	"23.291"	"21.566"
"1904"	"22.272"	"23.399"	"26.357"	"29.436"	"30.076"	"28.887"	"27.404"	"27.227"	"27.018"	"26.229"	"24.041"	"21.819"
"1905"	"22.287"	"23.522"	"26.536"	"28.831"	"30.163"	"30.071"	"27.695"	"26.89"	"26.512"	"26.368"	"24.375"	"21.921"
"1906"	"23.353"	"24.784"	"25.961"	"29.57"	"31.611"	"28.694"	"27.174"	"26.774"	"27.466"	"26.57"	"24.229"	"23"
"1907"	"22.435"	"24.24"	"26.324"	"28.323"	"30.344"	"28.822"	"27.303"	"25.928"	"27.491"	"26.681"	"24.756"	"21.788"
"1908"	"21.249"	"23.926"	"26.302"	"29.498"	"30.868"	"30.345"	"27.354"	"26.358"	"27.295"	"26.411"	"23.685"	"21.195"
"1909"	"22.671"	"24.392"	"26.572"	"28.05"	"30.354"	"28.42"	"27.308"	"26.498"	"26.841"	"26.57"	"24.622"	"22.699"
"1910"	"22.638"	"23.671"	"26.536"	"29.406"	"30.913"	"29.885"	"27.211"	"27.394"	"27.49"	"26.622"	"22.684"	"20.804"
"1911"	"22.711"	"23.469"	"26.46"	"29.247"	"30.921"	"28.705"	"27.614"	"26.851"	"27.227"	"26.452"	"24.46"	"21.842"
"1912"	"22.219"	"24.898"	"27.484"	"29.021"	"31.205"	"30.787"	"26.925"	"26.454"	"26.957"	"26.483"	"23.689"	"20.994"
"1913"	"21.41"	"24.52"	"26.658"	"29.546"	"30.675"	"28.747"	"27.023"	"27.484"	"27.682"	"26.098"	"23.907"	"22.299"
"1914"	"21.638"	"24.653"	"26.785"	"27.804"	"30.1"	"28.698"	"27.08"	"26.552"	"27.105"	"26.523"	"24.326"	"22.559"
"1915"	"22.163"	"24.084"	"26.29"	"29.114"	"31.099"	"29.813"	"27.823"	"27.041"	"26.921"	"26.907"	"25.022"	"21.632"
"1916"	"22.208"	"24.821"	"26.652"	"29.419"	"30.93"	"28.098"	"26.915"	"27.18"	"27.246"	"26.189"	"24.142"	"21.518"
"1917"	"21.875"	"23.754"	"25.856"	"28.859"	"29.381"	"28.197"	"27.318"	"27.08"	"26.967"	"26.002"	"23.645"	"21.481"
"1918"	"21.799"	"23.31"	"26.266"	"28.827"	"29.714"	"28.291"	"27.908"	"26.95"	"27.845"	"26.626"	"24.846"	"22.695"
"1919"	"23.404"	"25.255"	"27.196"	"29.485"	"30.994"	"28.614"	"27.654"	"27.746"	"27.535"	"26.331"	"24.288"	"22.2"
"1920"	"22.562"	"24.67"	"27.361"	"29.4"	"30.776"	"29.816"	"28.31"	"27.941"	"28.077"	"26.993"	"24.621"	"21.683"
"1921"	"22.821"	"24.151"	"27.343"	"29.303"	"32.537"	"30.184"	"27.707"	"27.5"	"27.28"	"25.936"	"22.965"	"21.986"
"1922"	"22.317"	"24.36"	"27.421"	"29.799"	"31.484"	"30.122"	"27.711"	"28.217"	"27.552"	"26.24"	"24.485"	"21.382"
"1923"	"21.622"	"23.976"	"26.123"	"29.555"	"31.153"	"31.638"	"27.643"	"27.943"	"26.972"	"26.157"	"24.025"	"22.179"
"1924"	"22.224"	"25.138"	"27.15"	"30.248"	"31.324"	"30.645"	"27.995"	"27.535"	"26.833"	"26.765"	"23.848"	"21.55"
"1925"	"22.103"	"23.821"	"26.765"	"29.351"	"30.211"	"28.984"	"27.156"	"27.2"	"27.566"	"26.118"	"24.432"	"21.604"
"1926"	"22.696"	"24.36"	"26.786"	"28.966"	"30.694"	"31.452"	"27.624"	"27.108"	"27.256"	"26.355"	"23.642"	"21.982"
"1927"	"23.385"	"24.614"	"27.362"	"29.939"	"31.496"	"29.492"	"27.372"	"27.23"	"27.517"	"26.452"	"23.583"	"22.089"
"1928"	"21.882"	"24.358"	"26.652"	"29.193"	"31.647"	"29.815"	"27.116"	"27.837"	"27.36"	"26.444"	"24.142"	"22.482"
"1929"	"23.092"	"23.504"	"26.524"	"29.097"	"31.456"	"29.309"	"27.799"	"27.436"	"27.251"	"25.976"	"23.553"	"22.525"
"1930"	"22.219"	"22.875"	"26.304"	"29.3"	"30.415"	"29.381"	"27.828"	"27.296"	"27.024"	"26.111"	"23.243"	"22.02"
"1931"	"21.554"	"23.976"	"26.449"	"29.569"	"31.004"	"30.223"	"27.095"	"27.556"	"27.267"	"26.253"	"23.491"	"22.215"
"1932"	"21.27"	"23.323"	"26.944"	"29.51"	"30.148"	"29.772"	"26.985"	"27.229"	"27.423"	"26.958"	"24.563"	"21.694"
"1933"	"22.175"	"24.394"	"26.088"	"28.912"	"29.596"	"28.409"	"27.374"	"26.751"	"27.344"	"26.109"	"23.952"	"21.968"
"1934"	"21.518"	"23.558"	"26.318"	"29.321"	"31.388"	"29.589"	"27.063"	"26.799"	"27.213"	"25.942"	"22.807"	"21.473"
"1935"	"21.914"	"23.935"	"26.319"	"28.66"	"31.561"	"29.877"	"27.331"	"27.314"	"27.149"	"26.705"	"23.379"	"22.365"
"1936"	"23.842"	"23.7"	"26.386"	"29.193"	"30.549"	"28.039"	"27.711"	"26.815"	"27.35"	"26.344"	"24.643"	"22.46"
"1937"	"21.673"	"24.436"	"26.397"	"29.06"	"30.986"	"30.104"	"27.347"	"27.402"	"27.408"	"26.048"	"24.148"	"21.353"
"1938"	"23.309"	"24.314"	"27.308"	"29.274"	"31.244"	"27.852"	"27.031"	"27.317"	"26.887"	"26.085"	"22.843"	"20.849"
"1939"	"21.756"	"23.391"	"26.012"	"29.22"	"31.461"	"30.397"	"27.253"	"27.511"	"27.624"	"26.435"	"23.414"	"21.598"
"1940"	"20.603"	"24.012"	"26.241"	"28.965"	"30.773"	"29.105"	"26.893"	"26.968"	"27.473"	"26.447"	"25.001"	"22.625"
"1941"	"23.115"	"24.497"	"27.564"	"30.628"	"31.455"	"28.886"	"27.947"	"28.061"	"27.509"	"26.431"	"23.127"	"22.818"
"1942"	"22.194"	"23.843"	"26.72"	"29.325"	"31.997"	"30.482"	"27.446"	"27.372"	"27.502"	"26.109"	"23.836"	"22.717"
"1943"	"23.061"	"22.768"	"26.702"	"29.315"	"30.375"	"28.791"	"27.595"	"27.277"	"27.34"	"26.419"	"24.247"	"21.39"
"1944"	"22.186"	"24.187"	"25.806"	"28.984"	"31.42"	"30.598"	"26.91"	"27.308"	"27.207"	"26.548"	"23.835"	"21.893"
"1945"	"21.848"	"23.927"	"26.853"	"29.374"	"32.101"	"30.834"	"27.164"	"27.392"	"26.768"	"25.909"	"23.186"	"20.661"
"1946"	"20.393"	"22.972"	"27.49"	"28.73"	"31.725"	"29.19"	"27.484"	"27.091"	"27.635"	"26.99"	"25.33"	"23.349"
"1947"	"23.28"	"23.582"	"27.572"	"31.137"	"32.199"	"30.823"	"26.806"	"27.262"	"27.266"	"26.175"	"23.611"	"21.974"
"1948"	"22.687"	"25.133"	"26.677"	"30.016"	"32.29"	"31.146"	"28.014"	"27.446"	"27.442"	"26.904"	"25.107"	"21.156"
"1949"	"21.837"	"23.816"	"27.064"	"29.359"	"31.099"	"29.776"	"27.163"	"27.546"	"27.26"	"26.759"	"23.84"	"20.918"
"1950"	"21.73"	"24.096"	"26.008"	"29.637"	"31.275"	"29.649"	"26.813"	"27.769"	"27.272"	"26.329"	"23.203"	"21.116"
"1951"	"21.737"	"23.82"	"26.652"	"29.705"	"30.751"	"29.29"	"27.713"	"27.347"	"28.132"	"27.798"	"24.804"	"22.363"
"1952"	"22.316"	"24.814"	"27.108"	"30.114"	"31.46"	"31.054"	"28.371"	"27.866"	"27.818"	"26.463"	"23.917"	"23.233"
"1953"	"22.384"	"24.405"	"28.348"	"30.155"	"33.037"	"30.932"	"28.157"	"27.219"	"27.744"	"26.819"	"23.958"	"21.83"
"1954"	"21.993"	"25.117"	"27.394"	"30.884"	"31.947"	"30.619"	"27.413"	"27.705"	"27.168"	"25.797"	"22.567"	"22.374"
"1955"	"22.194"	"24.993"	"27.517"	"29.801"	"30.301"	"30.48"	"28.157"	"27.071"	"27.192"	"26.19"	"23.046"	"21.55"
"1956"	"22.365"	"23.116"	"27.669"	"30.38"	"31.544"	"29.216"	"26.843"	"27.372"	"27.342"	"25.886"	"24.363"	"22.242"
"1957"	"22.815"	"24.205"	"26.577"	"29.334"	"31.424"	"30.665"	"27.691"	"27.011"	"28.116"	"27.426"	"24.306"	"22.801"
"1958"	"22.848"	"24.856"	"27.607"	"30.3"	"32.155"	"32.227"	"27.435"	"27.548"	"27.517"	"26.586"	"25.014"	"22.739"
"1959"	"22.747"	"25.03"	"27.381"	"29.949"	"31.994"	"29.866"	"27.097"	"26.696"	"27.391"	"26.641"	"23.704"	"21.826"
"1960"	"22.516"	"23.758"	"26.605"	"29.926"	"31.199"	"30.348"	"27.595"	"28.164"	"27.654"	"26.486"	"24.225"	"22.837"
"1961"	"22.447"	"24.077"	"28.052"	"30.35"	"31.805"	"29.398"	"26.623"	"27.409"	"26.81"	"26.021"	"23.298"	"20.862"
"1962"	"20.68"	"23.207"	"26.911"	"29.539"	"31.381"	"29.707"	"27.297"	"27.085"	"27.423"	"26.203"	"23.571"	"22.132"
"1963"	"20.985"	"23.42"	"26.891"	"28.475"	"31.246"	"29.975"	"27.552"	"27.091"	"27.92"	"26.706"	"24.556"	"22.537"
"1964"	"23.021"	"25.025"	"27.851"	"30.24"	"32.273"	"29.919"	"27.769"	"26.539"	"26.869"	"26.634"	"24.092"	"21.896"
"1965"	"22.611"	"24.433"	"26.724"	"29.273"	"31.281"	"31.237"	"27.88"	"27.956"	"27.706"	"27.239"	"24.65"	"23.4"
"1966"	"22.57"	"24.63"	"27.649"	"30.171"	"32.721"	"30.385"	"28.302"	"27.858"	"27.648"	"26.342"	"25.283"	"21.905"
"1967"	"22.575"	"24.6"	"26.187"	"29.594"	"32.067"	"30.542"	"27.972"	"27.247"	"27.799"	"26.375"	"23.7"	"23.568"
"1968"	"21.864"	"24.908"	"27.088"	"28.759"	"31.253"	"30.624"	"28.234"	"28.539"	"27.668"	"26.182"	"24.384"	"22.483"
"1969"	"22.247"	"25.154"	"28.512"	"30.709"	"30.075"	"30.282"	"27.288"	"27.485"	"27.479"	"26.444"	"24.817"	"21.835"
"1970"	"22.33"	"25.413"	"27.591"	"29.807"	"30.729"	"28.591"	"27.532"	"26.901"	"27.563"	"26.286"	"23.674"	"20.147"
"1971"	"22.22"	"25.066"	"26.404"	"28.218"	"29.735"	"28.224"	"27.888"	"27.215"	"27.36"	"26.092"	"22.765"	"20.867"
"1972"	"20.919"	"24.043"	"27.312"	"30.018"	"32.743"	"32.106"	"28.854"	"28.317"	"28.011"	"26.363"	"24.643"	"23.766"
"1973"	"23.757"	"25.793"	"27.565"	"31.315"	"32.98"	"31.185"	"28.071"	"27.604"	"28.192"	"26.726"	"23.992"	"22.197"
"1974"	"21.765"	"24.69"	"28.483"	"30.397"	"31.812"	"30.44"	"28.725"	"27.866"	"27.761"	"26.586"	"24.15"	"21.338"
"1975"	"21.436"	"24.961"	"27.972"	"30.574"	"32.851"	"29.566"	"27.535"	"27.657"	"26.684"	"26.687"	"23.213"	"20.965"
"1976"	"20.931"	"23.932"	"27.685"	"29.914"	"31.763"	"30.337"	"27.013"	"27.167"	"27.543"	"26.968"	"25.274"	"22.579"
"1977"	"22.074"	"24.734"	"28.017"	"29.474"	"30.557"	"30.219"	"27.934"	"27.446"	"27.721"	"26.431"	"25.604"	"22.025"
"1978"	"22.425"	"24.307"	"27.233"	"29.802"	"32.806"	"30.308"	"27.535"	"26.645"	"27.987"	"27.459"	"25.604"	"23.041"
"1979"	"22.947"	"25.351"	"27.395"	"30.4"	"31.29"	"30.486"	"29.301"	"28.428"	"28.085"	"27.414"	"25.682"	"23.389"
"1980"	"23.693"	"25.717"	"28.229"	"30.512"	"32.194"	"29.407"	"27.812"	"27.477"	"27.777"	"26.832"	"25.038"	"23.236"
"1981"	"22.319"	"25.144"	"27.151"	"30.344"	"31.498"	"30.749"	"28.107"	"27.423"	"27.835"	"27.249"	"24.441"	"23.074"
"1982"	"23.343"	"25.592"	"28.106"	"29.932"	"31.228"	"30.607"	"28.702"	"27.329"	"27.867"	"26.977"	"25.068"	"23.017"
"1983"	"22.888"	"26.019"	"28.544"	"30.459"	"31.562"	"31.255"	"28.374"	"27.774"	"27.497"	"26.95"	"24.353"	"22.577"
"1984"	"23.861"	"24.806"	"27.263"	"29.823"	"32.16"	"29.79"	"27.548"	"27.975"	"27.767"	"27.015"	"23.624"	"23.416"
"1985"	"23.503"	"24.928"	"28.233"	"30.842"	"32.464"	"29.988"	"27.469"	"27.641"	"27.65"	"26.12"	"24.002"	"22.876"
"1986"	"22.084"	"24.615"	"27.66"	"29.794"	"32.028"	"29.451"	"28.342"	"27.807"	"28.527"	"27.109"	"24.776"	"23.598"
"1987"	"22.943"	"23.778"	"26.56"	"29.976"	"30.377"	"31.606"	"28.986"	"28.076"	"29.024"	"27.199"	"25.035"	"23.375"
"1988"	"23.256"	"25.279"	"28.275"	"29.681"	"32.024"	"31.079"	"27.446"	"27.432"	"27.773"	"26.691"	"24.865"	"23.343"
"1989"	"22.572"	"24.686"	"26.866"	"30.107"	"32.072"	"29.65"	"27.786"	"27.68"	"27.633"	"27.307"	"24.685"	"22.316"
"1990"	"23.24"	"25.067"	"26.957"	"29.734"	"29.23"	"29.089"	"27.631"	"27.656"	"28.178"	"26.623"	"25.554"	"23.538"
"1991"	"23.444"	"25.771"	"28.457"	"30.253"	"31.927"	"29.464"	"28.331"	"28.331"	"28.251"	"27.206"	"24.139"	"22.253"
"1992"	"21.739"	"24.755"	"27.157"	"29.834"	"31.41"	"30.268"	"28.658"	"27.315"	"27.94"	"27.209"	"24.919"	"21.916"
"1993"	"23.068"	"24.057"	"27.385"	"29.941"	"31.431"	"30.797"	"28.547"	"28.621"	"27.667"	"27.474"	"24.825"	"22.176"
"1994"	"23.015"	"24.729"	"28.376"	"29.986"	"32.085"	"30.317"	"27.337"	"27.077"	"27.997"	"26.921"	"24.273"	"21.984"
"1995"	"22.006"	"24.594"	"27.685"	"29.929"	"29.77"	"31.275"	"27.907"	"28.536"	"28.054"	"26.688"	"25.212"	"22.895"
"1996"	"23.404"	"24.336"	"27.846"	"29.648"	"32.33"	"29.931"	"28.523"	"27.355"	"28.037"	"26.707"	"25.113"	"22.305"
"1997"	"21.978"	"24.416"	"27.505"	"28.682"	"31.03"	"31.391"	"28.981"	"28.014"	"28.015"	"26.952"	"26.118"	"24.582"
"1998"	"24.299"	"25.491"	"27.916"	"29.777"	"32.033"	"31.109"	"28.32"	"28.015"	"28.154"	"27.608"	"26.001"	"22.099"
"1999"	"22.14"	"25.628"	"28.422"	"31.162"	"30.873"	"29.857"	"28.63"	"27.92"	"27.824"	"27.418"	"24.72"	"22.199"
"2000"	"23.526"	"25.374"	"27.405"	"30.85"	"32.035"	"29.171"	"27.987"	"27.483"	"28.338"	"27.871"	"25.144"	"22.08"
"2001"	"22.898"	"25.545"	"28.4"	"29.573"	"32.328"	"29.484"	"28.874"	"27.537"	"28.82"	"27.623"	"25.758"	"22.795"
"2002"	"23.465"	"25.081"	"28.281"	"30.358"	"32.813"	"29.872"	"29.168"	"27.58"	"28.885"	"27.365"	"24.394"	"23.082"
