
"Year"	"Jan"	"Feb"	"Mar"	"Apr"	"May"	"Jun"	"Jul"	"Aug"	"Sep"	"Oct"	"Nov"	"Dec"
"1901"	"21.864"	"23.298"	"28.034"	"31.964"	"34.44"	"32.578"	"27.768"	"25.908"	"27.524"	"27.194"	"22.801"	"20.598"
"1902"	"23.206"	"24.912"	"30.097"	"33.414"	"35.769"	"33.753"	"28.52"	"27.937"	"27.058"	"26.823"	"22.464"	"20.569"
"1903"	"22.375"	"22.946"	"28.052"	"32.567"	"32.917"	"33.297"	"27.779"	"26.919"	"26.879"	"25.459"	"21.282"	"19.925"
"1904"	"22.44"	"24.12"	"28.251"	"33.691"	"34.976"	"30.968"	"27.857"	"26.908"	"26.535"	"26.556"	"21.887"	"21.105"
"1905"	"21.399"	"21.728"	"27.831"	"30.416"	"35.667"	"33.761"	"27.939"	"27.267"	"26.399"	"26.226"	"23.45"	"20.076"
"1906"	"21.492"	"24.173"	"27.858"	"33.335"	"35.943"	"30.816"	"27.504"	"27.061"	"26.292"	"25.969"	"23.379"	"21.383"
"1907"	"21.949"	"23.8"	"27.713"	"29.946"	"33.561"	"31.924"	"28.502"	"25.609"	"27.836"	"27.909"	"24.347"	"20.1"
"1908"	"20.899"	"24.419"	"27.608"	"33.497"	"35.346"	"32.486"	"26.997"	"25.952"	"27.209"	"26.573"	"22.418"	"19.228"
"1909"	"23.213"	"24.811"	"29.671"	"30.469"	"34.506"	"30.726"	"26.988"	"27.335"	"26.494"	"26.338"	"23.133"	"21.494"
"1910"	"21.966"	"23.538"	"28.561"	"33.021"	"34.82"	"30.227"	"27.896"	"26.815"	"26.45"	"25.635"	"21.149"	"20.644"
"1911"	"22.567"	"22.844"	"27.257"	"32.584"	"36.009"	"30.593"	"28.545"	"26.452"	"27.01"	"27.146"	"24.522"	"21.068"
"1912"	"22.421"	"25.085"	"28.879"	"32.6"	"35.209"	"34.723"	"28.265"	"26.538"	"27.33"	"26.815"	"22.754"	"19.972"
"1913"	"21.209"	"25.365"	"28.014"	"34.142"	"34.065"	"30.407"	"27.668"	"26.674"	"27.522"	"27.259"	"23.236"	"21.432"
"1914"	"22.019"	"25.188"	"28.038"	"31.341"	"34.456"	"30.632"	"27.503"	"26.872"	"27.065"	"26.809"	"24.312"	"21.063"
"1915"	"21.475"	"23.876"	"27.463"	"31.718"	"35.236"	"34.214"	"28.7"	"26.7"	"27.268"	"27.093"	"24.909"	"20.14"
"1916"	"21.43"	"24.049"	"29.138"	"33.43"	"34.902"	"28.938"	"28.066"	"26.771"	"26.866"	"26.604"	"23.167"	"19.588"
"1917"	"21.392"	"22.851"	"26.875"	"30.484"	"32.629"	"29.774"	"27.186"	"27.148"	"26.154"	"26.015"	"21.994"	"20.985"
"1918"	"20.11"	"24.476"	"28.339"	"31.866"	"33.655"	"29.408"	"28.758"	"26.764"	"28.012"	"26.782"	"23.874"	"21.038"
"1919"	"22.755"	"24.303"	"28.749"	"31.75"	"34.152"	"30.051"	"27.487"	"26.431"	"27.233"	"25.782"	"24.219"	"20.529"
"1920"	"21.822"	"23.803"	"28.655"	"32.165"	"32.983"	"32.599"	"27.49"	"27.508"	"28.158"	"28.226"	"23.651"	"21.356"
"1921"	"22.729"	"24.217"	"30.354"	"33.926"	"36.517"	"30.642"	"28.364"	"26.992"	"26.359"	"26.261"	"21.673"	"21.387"
"1922"	"21.514"	"24.962"	"29.183"	"33.26"	"35.291"	"31.043"	"27.462"	"26.916"	"26.435"	"26.082"	"22.447"	"19.492"
"1923"	"21.644"	"23.595"	"28.127"	"32.649"	"34.546"	"34.657"	"27.386"	"26.233"	"26.801"	"25.033"	"22.817"	"21.606"
"1924"	"22.781"	"25.79"	"30.014"	"33.943"	"35.169"	"33.48"	"28.033"	"27.121"	"26.735"	"25.327"	"21.624"	"20.939"
"1925"	"20.431"	"23.224"	"28.416"	"33.944"	"33.469"	"30.23"	"26.749"	"26.685"	"27.579"	"27.18"	"23.525"	"19.903"
"1926"	"22.064"	"25.054"	"28.305"	"30.165"	"33.354"	"34.769"	"28.402"	"26.391"	"27.035"	"26.242"	"21.95"	"20.526"
"1927"	"23.333"	"24.643"	"28.041"	"33.198"	"35.041"	"31.711"	"27.056"	"27.058"	"27.535"	"26.358"	"21.077"	"21.36"
"1928"	"22.534"	"24.084"	"28.706"	"32.433"	"35.954"	"31.592"	"27.32"	"27.582"	"27.233"	"26.47"	"23.492"	"20.905"
"1929"	"22.012"	"23.201"	"29.261"	"32.003"	"35.921"	"30.959"	"27.382"	"27.157"	"27.034"	"26.571"	"23.092"	"21.163"
"1930"	"22.251"	"22.689"	"29.081"	"32.113"	"34.783"	"31.975"	"27.635"	"26.698"	"27.244"	"27.321"	"22.47"	"21.948"
"1931"	"22.57"	"26.02"	"28.694"	"33.798"	"35.852"	"33.195"	"27.652"	"26.487"	"26.909"	"25.677"	"22.674"	"20.472"
"1932"	"22.013"	"22.692"	"27.895"	"32.112"	"34.74"	"32.384"	"27.077"	"27.18"	"27.17"	"27.516"	"23.638"	"20.996"
"1933"	"22.391"	"25.482"	"28.83"	"31.683"	"31.577"	"29.664"	"27.916"	"26.675"	"26.485"	"26.089"	"23.087"	"20.885"
"1934"	"20.71"	"24.005"	"28.372"	"33.07"	"35.328"	"31.796"	"27.423"	"26.213"	"26.143"	"25.499"	"21.537"	"20.932"
"1935"	"21.25"	"24.089"	"28.114"	"30.59"	"35.672"	"32.164"	"26.649"	"26.516"	"26.282"	"26.869"	"23.245"	"22.205"
"1936"	"22.927"	"23.838"	"28.585"	"31.776"	"35.256"	"29.35"	"28.074"	"26.62"	"26.808"	"26.02"	"23.881"	"21.149"
"1937"	"20.619"	"24.538"	"27.425"	"31.429"	"34.225"	"32.121"	"26.907"	"26.887"	"26.953"	"25.897"	"23.715"	"20.741"
"1938"	"24.073"	"23.031"	"29.995"	"32.647"	"35.004"	"27.943"	"26.643"	"26.877"	"27.196"	"25.745"	"22.522"	"20.518"
"1939"	"22.794"	"25.479"	"27.396"	"32.344"	"35.43"	"31.395"	"27.245"	"26.955"	"26.895"	"26.989"	"22.377"	"20.34"
"1940"	"21.407"	"24.833"	"27.578"	"32.292"	"34.939"	"31.356"	"26.687"	"26.437"	"27.255"	"26.74"	"23.586"	"21.541"
"1941"	"22.402"	"24.068"	"29.826"	"33.899"	"36.013"	"32.944"	"27.991"	"27.088"	"27.869"	"27.763"	"23.595"	"22.388"
"1942"	"22.28"	"24.172"	"29.33"	"33.231"	"35.763"	"33.019"	"26.519"	"26.422"	"26.326"	"26.598"	"22.948"	"20.847"
"1943"	"23.008"	"22.405"	"28.77"	"32.225"	"34.726"	"30.555"	"27.077"	"26.087"	"26.291"	"25.289"	"23.029"	"19.185"
"1944"	"21.76"	"23.336"	"27.019"	"31.366"	"35.911"	"32.238"	"26.954"	"26.593"	"27.068"	"26.027"	"22.66"	"22.491"
"1945"	"21.278"	"23.579"	"28.697"	"31.275"	"35.408"	"32.408"	"27.098"	"26.919"	"26.624"	"26.235"	"21.93"	"19.906"
"1946"	"21.422"	"24.612"	"28.937"	"32.739"	"34.75"	"29.663"	"27.296"	"26.443"	"26.529"	"27.412"	"23.799"	"22.721"
"1947"	"21.951"	"24.286"	"28.511"	"32.477"	"35.556"	"33.049"	"27.433"	"27.325"	"26.651"	"25.473"	"23.59"	"21.688"
"1948"	"22.177"	"24.141"	"28.32"	"33.29"	"36.68"	"31.688"	"27.318"	"26.64"	"26.277"	"27.668"	"24.466"	"19.659"
"1949"	"21.869"	"23.463"	"29.331"	"33.325"	"34.937"	"30.15"	"27.456"	"27.38"	"26.303"	"26.597"	"21.849"	"21.418"
"1950"	"22.213"	"23.395"	"27.675"	"32.826"	"35.449"	"32.194"	"27.327"	"27.61"	"26.903"	"26.218"	"22.097"	"21.051"
"1951"	"21.019"	"24.455"	"29.102"	"31.83"	"35.237"	"32.168"	"28.701"	"26.66"	"27.752"	"27.996"	"23.932"	"20.581"
"1952"	"22.275"	"25.671"	"28.192"	"34.026"	"36.243"	"32.67"	"28.382"	"26.502"	"27.659"	"27.159"	"22.398"	"23.144"
"1953"	"22.164"	"26.8"	"31.243"	"33.331"	"36.158"	"33.61"	"27.792"	"26.442"	"27.595"	"26.426"	"22.752"	"21.299"
"1954"	"21.109"	"25.898"	"29.387"	"33.737"	"36.769"	"32.368"	"27.471"	"27.204"	"25.891"	"25.071"	"22.486"	"21.425"
"1955"	"22.491"	"25.889"	"30.258"	"31.276"	"34.943"	"31.356"	"27.644"	"26.336"	"26.686"	"25.886"	"21.566"	"20.627"
"1956"	"22.471"	"24.41"	"29.94"	"33.67"	"34.72"	"29.672"	"26.546"	"26.741"	"26.685"	"26.206"	"22.716"	"21.469"
"1957"	"22.805"	"23.473"	"27.15"	"31.619"	"34.183"	"32.702"	"27.576"	"26.849"	"27.428"	"26.982"	"24.82"	"23.355"
"1958"	"22.908"	"25.074"	"29.104"	"33.682"	"35.98"	"34.234"	"27.461"	"27.248"	"26.645"	"26.585"	"24.653"	"21.4"
"1959"	"22.778"	"25.042"	"29.582"	"32.921"	"35.775"	"31.839"	"26.912"	"26.222"	"26.608"	"27.03"	"23.807"	"21.754"
"1960"	"21.505"	"25.112"	"27.605"	"32.413"	"35.086"	"31.031"	"27.693"	"26.16"	"27.535"	"26.202"	"22.85"	"22.739"
"1961"	"23.194"	"23.214"	"30.182"	"33.239"	"34.77"	"30.853"	"27.023"	"26.705"	"25.821"	"25.515"	"23.238"	"20.661"
"1962"	"20.478"	"24.333"	"28.128"	"31.911"	"34.142"	"32.251"	"27.819"	"27.025"	"26.481"	"25.76"	"23.421"	"21.118"
"1963"	"20.848"	"24.78"	"28.209"	"31.127"	"34.335"	"30.617"	"27.938"	"26.493"	"27.297"	"26.947"	"24.702"	"21.584"
"1964"	"22.32"	"25.171"	"29.876"	"34.204"	"35.039"	"31.899"	"27.657"	"26.133"	"27.252"	"27.209"	"22.677"	"21.114"
"1965"	"22.212"	"24.37"	"28.412"	"31.905"	"36.163"	"31.842"	"27.413"	"27.108"	"26.653"	"27.093"	"23.797"	"21.816"
"1966"	"21.391"	"25.445"	"28.451"	"32.947"	"33.983"	"32.745"	"29.419"	"27.254"	"27.387"	"27.746"	"25.522"	"21.288"
"1967"	"22.157"	"25.476"	"28.114"	"32.098"	"35.173"	"32.232"	"27.987"	"26.666"	"27.038"	"26.96"	"24.323"	"22.831"
"1968"	"20.869"	"23.809"	"27.33"	"30.87"	"34.32"	"32.294"	"27.976"	"26.056"	"27.896"	"26.096"	"23.198"	"21.547"
"1969"	"22.351"	"26.253"	"31.164"	"34.005"	"35.045"	"32.77"	"27.417"	"26.345"	"26.248"	"26.61"	"25.163"	"21.453"
"1970"	"22.539"	"26.286"	"29.176"	"33.611"	"35.787"	"29.169"	"27.998"	"26.505"	"26.781"	"26.616"	"22.147"	"19.926"
"1971"	"21.809"	"24.667"	"27.719"	"33.202"	"33.573"	"29.155"	"27.772"	"27.444"	"27.469"	"26.482"	"22.352"	"19.926"
"1972"	"21.495"	"23.779"	"30.334"	"32.654"	"35.115"	"33.182"	"28.191"	"26.43"	"27.196"	"27.019"	"23.44"	"22.835"
"1973"	"23.052"	"25.681"	"30.035"	"35.339"	"36.763"	"32.386"	"26.961"	"26.429"	"26.626"	"26.159"	"22.41"	"21.88"
"1974"	"20.804"	"24.699"	"29.841"	"33.472"	"34.01"	"31.545"	"28.673"	"26.397"	"28.598"	"26.523"	"21.955"	"20.295"
"1975"	"20.204"	"24.257"	"28.504"	"33.334"	"35.695"	"30.904"	"27.207"	"26.692"	"26.704"	"27.188"	"21.255"	"19.492"
"1976"	"20.719"	"24.826"	"28.768"	"32.061"	"34.527"	"30.838"	"27.667"	"26.688"	"26.698"	"27.537"	"26.401"	"23.143"
"1977"	"21.688"	"25.568"	"30.886"	"32.7"	"33.871"	"31.565"	"27.94"	"26.444"	"26.706"	"26.851"	"25.496"	"20.938"
"1978"	"20.912"	"24.071"	"27.493"	"32.104"	"36.154"	"30.576"	"26.688"	"26.038"	"27.718"	"27.325"	"26.074"	"20.878"
"1979"	"23.204"	"23.497"	"27.996"	"32.467"	"32.962"	"32.901"	"28.145"	"26.66"	"28.144"	"28.222"	"26.192"	"21.882"
"1980"	"23.324"	"25.877"	"29.702"	"34.032"	"36.249"	"29.703"	"27.719"	"26.216"	"28.079"	"27.882"	"25.514"	"21.287"
"1981"	"20.566"	"25.747"	"27.909"	"32.754"	"34.487"	"32.255"	"26.949"	"26.67"	"27.51"	"27.174"	"22.75"	"20.854"
"1982"	"23.629"	"24.584"	"27.958"	"32.048"	"33.581"	"32.411"	"28.84"	"26.932"	"27.729"	"27.306"	"24.922"	"23.265"
"1983"	"22.421"	"24.758"	"29.127"	"32.184"	"35.156"	"33.463"	"28.757"	"27.529"	"27.082"	"25.878"	"22.028"	"20.353"
"1984"	"22.684"	"23.637"	"29.244"	"32.879"	"36.223"	"31.25"	"28.11"	"26.183"	"27.133"	"27.215"	"22.831"	"22.434"
"1985"	"23.94"	"24.833"	"30.67"	"32.894"	"35.417"	"30.752"	"27.48"	"26.711"	"28.108"	"25.802"	"23.315"	"22.645"
"1986"	"22.165"	"25.152"	"29.507"	"33.14"	"35.043"	"31.101"	"27.59"	"26.561"	"28.701"	"27.961"	"23.798"	"22.371"
"1987"	"22.628"	"24.996"	"28.618"	"33.153"	"33.576"	"32.828"	"28.757"	"27.712"	"28.944"	"27.315"	"25.093"	"21.446"
"1988"	"23.693"	"26.438"	"29.535"	"32.927"	"36.484"	"32.063"	"27.387"	"27.559"	"27.736"	"26.114"	"23.401"	"21.212"
"1989"	"21.978"	"24.558"	"27.823"	"32.234"	"35.48"	"30.587"	"27.64"	"25.946"	"27.166"	"26.712"	"24.765"	"21.025"
"1990"	"23.153"	"24.684"	"27.501"	"33.133"	"31.879"	"28.721"	"26.855"	"26.985"	"27.28"	"26.316"	"24.615"	"22.09"
"1991"	"21.572"	"26.176"	"29.526"	"32.011"	"35.899"	"30.501"	"27.778"	"26.429"	"28.324"	"27.263"	"23.818"	"21.341"
"1992"	"22.426"	"24.455"	"30.384"	"32.929"	"35.103"	"33.19"	"29.379"	"26.346"	"27.167"	"26.966"	"23.696"	"20.862"
"1993"	"22.856"	"24.289"	"27.636"	"32.933"	"35.963"	"33.076"	"27.931"	"26.841"	"27.131"	"27.067"	"23.327"	"19.95"
"1994"	"22.501"	"24.28"	"29.705"	"31.201"	"35.816"	"29.947"	"26.202"	"25.938"	"26.952"	"27.127"	"23.564"	"20.928"
"1995"	"19.519"	"24.49"	"27.9"	"31.859"	"33.616"	"33.844"	"28.037"	"27.759"	"27.753"	"27.27"	"24.42"	"23.599"
"1996"	"24.079"	"25.966"	"30.341"	"32.563"	"35.878"	"32.726"	"28.578"	"27.032"	"27.588"	"26.2"	"23.612"	"21.014"
"1997"	"20.355"	"23.395"	"29.01"	"30.113"	"33.947"	"31.013"	"27.649"	"27.266"	"27.122"	"26.545"	"25.809"	"21.974"
"1998"	"22.504"	"24.192"	"27.703"	"32.83"	"35.79"	"33.309"	"28.64"	"27.825"	"27.509"	"27.706"	"24.161"	"20.587"
"1999"	"20.769"	"25.692"	"29.445"	"33.986"	"34.307"	"30.181"	"27.583"	"26.701"	"26.458"	"26.737"	"24.011"	"20.883"
"2000"	"22.546"	"24.165"	"28.164"	"34.236"	"33.829"	"29.658"	"26.971"	"27.703"	"27.559"	"28.281"	"25.23"	"21.849"
"2001"	"22.577"	"26.33"	"29.591"	"31.543"	"35.503"	"29.759"	"27.68"	"26.842"	"28.748"	"27.126"	"24.958"	"23.086"
"2002"	"22.097"	"26.274"	"29.643"	"33.696"	"35.793"	"30.925"	"28.577"	"25.892"	"27.029"	"27.423"	"24.238"	"23.348"
