
"Year"	"Jan"	"Feb"	"Mar"	"Apr"	"May"	"Jun"	"Jul"	"Aug"	"Sep"	"Oct"	"Nov"	"Dec"
"1901"	"22.147"	"23.093"	"27.894"	"31.628"	"33.577"	"31.176"	"26.761"	"25.345"	"27.039"	"26.752"	"22.225"	"20.446"
"1902"	"23.227"	"25.181"	"29.591"	"33.078"	"34.58"	"32.253"	"27.673"	"27.651"	"26.636"	"26.597"	"22.187"	"20.765"
"1903"	"22.504"	"22.934"	"27.552"	"31.845"	"32.238"	"32.311"	"26.95"	"26.428"	"26.441"	"25.434"	"21.2"	"20.189"
"1904"	"22.618"	"24.11"	"27.827"	"32.725"	"34.184"	"30.049"	"27.217"	"26.627"	"26.063"	"26.34"	"21.231"	"21.084"
"1905"	"21.318"	"21.738"	"27.271"	"29.852"	"35.162"	"32.156"	"27.244"	"26.855"	"25.99"	"26.092"	"23.217"	"19.794"
"1906"	"21.465"	"23.899"	"28.008"	"32.428"	"34.626"	"29.498"	"27.022"	"26.761"	"25.581"	"25.563"	"23.383"	"21.47"
"1907"	"22.288"	"23.731"	"27.581"	"30.005"	"32.434"	"30.598"	"27.739"	"25.327"	"27.621"	"28.084"	"24.472"	"20.254"
"1908"	"21.404"	"24.224"	"27.186"	"32.556"	"33.755"	"30.498"	"26.144"	"25.482"	"26.907"	"26.559"	"22.306"	"19.367"
"1909"	"23.664"	"25.15"	"29.714"	"30.874"	"33.718"	"29.844"	"26.496"	"26.851"	"25.886"	"25.773"	"22.635"	"21.905"
"1910"	"22.375"	"23.541"	"28.191"	"31.948"	"33.535"	"29.445"	"27.418"	"26.447"	"25.878"	"25.062"	"20.722"	"20.83"
"1911"	"22.556"	"22.479"	"26.515"	"31.743"	"34.626"	"29.658"	"27.822"	"26.058"	"26.657"	"27.238"	"25.055"	"21.65"
"1912"	"22.875"	"25.289"	"28.655"	"32.483"	"34.39"	"33.151"	"27.602"	"26.058"	"27.058"	"26.568"	"22.593"	"19.994"
"1913"	"21.327"	"25.872"	"27.663"	"33.498"	"33.312"	"29.521"	"27"	"26.137"	"26.676"	"26.944"	"22.749"	"21.804"
"1914"	"22.106"	"25.182"	"27.58"	"31.403"	"33.533"	"29.566"	"26.626"	"26.458"	"26.66"	"26.559"	"24.29"	"21.26"
"1915"	"21.637"	"24.08"	"27.643"	"31.178"	"33.992"	"32.83"	"28.048"	"26.175"	"26.671"	"26.458"	"24.969"	"20.194"
"1916"	"21.462"	"23.728"	"28.886"	"32.814"	"34.113"	"28.093"	"27.432"	"26.177"	"26.362"	"26.237"	"22.821"	"19.789"
"1917"	"21.627"	"22.998"	"26.967"	"30.056"	"31.909"	"28.861"	"26.277"	"26.823"	"25.499"	"25.181"	"21.479"	"20.783"
"1918"	"20.206"	"24.401"	"27.988"	"30.856"	"32.906"	"28.701"	"28.032"	"26.451"	"27.649"	"26.852"	"23.911"	"21.46"
"1919"	"23.116"	"25.07"	"29.112"	"31.329"	"33.705"	"28.878"	"26.72"	"26.061"	"26.586"	"25.375"	"24.352"	"20.759"
"1920"	"21.954"	"23.347"	"28.544"	"32.005"	"31.934"	"31.051"	"26.811"	"27.018"	"27.66"	"28.29"	"23.396"	"21.372"
"1921"	"23.027"	"24.112"	"29.862"	"33.232"	"34.547"	"29.132"	"27.831"	"26.367"	"25.57"	"25.573"	"21.306"	"21.49"
"1922"	"21.824"	"25.221"	"28.315"	"32.424"	"33.754"	"29.792"	"26.697"	"26.346"	"25.788"	"25.722"	"21.676"	"18.921"
"1923"	"21.639"	"23.308"	"28.243"	"31.829"	"33.047"	"32.594"	"26.75"	"25.951"	"26.24"	"24.77"	"22.305"	"22.042"
"1924"	"23.314"	"25.79"	"29.936"	"33.321"	"34.023"	"31.511"	"27.452"	"26.681"	"26.087"	"24.466"	"21.029"	"21.137"
"1925"	"20.152"	"22.649"	"28.069"	"33.305"	"32.731"	"29.045"	"26.318"	"26.066"	"27.047"	"27.214"	"23.492"	"20.005"
"1926"	"22.516"	"25.252"	"28.357"	"29.717"	"33.531"	"33.245"	"27.627"	"25.781"	"26.463"	"26.333"	"22.172"	"20.752"
"1927"	"23.497"	"24.841"	"28.147"	"32.264"	"33.874"	"30.364"	"26.412"	"26.626"	"26.954"	"25.982"	"20.453"	"21.461"
"1928"	"22.339"	"23.99"	"28.54"	"31.949"	"34.514"	"30.39"	"26.616"	"26.774"	"26.253"	"25.899"	"23.219"	"20.878"
"1929"	"21.385"	"23.778"	"29.346"	"31.794"	"34.892"	"29.61"	"26.918"	"27.208"	"26.767"	"26.309"	"23.13"	"21.289"
"1930"	"22.421"	"22.264"	"28.735"	"32.069"	"33.898"	"30.762"	"26.834"	"26.049"	"26.557"	"27.042"	"22.186"	"22.329"
"1931"	"22.899"	"25.682"	"28.53"	"33.311"	"34.575"	"32.226"	"27.075"	"26.058"	"25.977"	"25.256"	"22.498"	"20.388"
"1932"	"21.759"	"22.507"	"27.467"	"31.235"	"34.095"	"30.466"	"26.422"	"26.576"	"26.636"	"27.248"	"23.111"	"20.872"
"1933"	"22.172"	"25.035"	"28.795"	"31.682"	"31.411"	"28.505"	"27.398"	"26.132"	"25.871"	"25.839"	"23.094"	"20.859"
"1934"	"21.172"	"23.669"	"27.957"	"32.625"	"34.294"	"30.64"	"26.713"	"25.56"	"25.581"	"25.273"	"21.113"	"21.054"
"1935"	"20.94"	"23.759"	"27.354"	"30.121"	"34.209"	"30.589"	"25.951"	"25.894"	"25.386"	"26.718"	"22.793"	"22.332"
"1936"	"22.332"	"23.827"	"28.141"	"30.933"	"34.121"	"28.451"	"27.417"	"25.977"	"26.286"	"25.839"	"23.698"	"21.158"
"1937"	"20.63"	"24.691"	"27.441"	"30.942"	"33.606"	"30.662"	"25.97"	"26.716"	"26.28"	"25.641"	"23.495"	"20.952"
"1938"	"24.09"	"22.728"	"29.661"	"32.247"	"33.714"	"26.817"	"25.947"	"26.527"	"26.657"	"25.269"	"22.183"	"20.569"
"1939"	"23.002"	"25.753"	"27.332"	"31.721"	"33.715"	"30.366"	"26.713"	"26.634"	"26.418"	"26.731"	"21.896"	"19.982"
"1940"	"21.78"	"24.982"	"26.68"	"31.62"	"33.859"	"30.09"	"26.037"	"25.93"	"26.732"	"26.439"	"23.558"	"22.025"
"1941"	"22.103"	"24.339"	"29.808"	"33.13"	"34.682"	"32.21"	"26.928"	"26.454"	"27.331"	"27.543"	"23.496"	"22.394"
"1942"	"22.589"	"24.512"	"29.362"	"32.937"	"33.963"	"31.387"	"25.92"	"25.853"	"25.594"	"26.248"	"22.523"	"21.062"
"1943"	"23.1"	"22.058"	"28.21"	"31.519"	"33.627"	"29.516"	"26.39"	"26.003"	"25.766"	"24.943"	"23.017"	"19.376"
"1944"	"22.022"	"23.602"	"27.345"	"30.852"	"34.609"	"30.934"	"26.352"	"25.878"	"26.658"	"25.938"	"22.331"	"22.444"
"1945"	"21.397"	"23.213"	"27.987"	"31.007"	"34.277"	"31.16"	"26.521"	"26.428"	"25.954"	"26.114"	"21.622"	"19.954"
"1946"	"21.44"	"24.713"	"28.555"	"32.782"	"33.388"	"29.026"	"26.451"	"26.02"	"26.438"	"27.146"	"23.893"	"23.257"
"1947"	"22.119"	"24.693"	"28.441"	"31.522"	"34.573"	"31.77"	"27.289"	"27.307"	"26.237"	"24.878"	"23.468"	"21.599"
"1948"	"22.517"	"24.089"	"28.339"	"32.733"	"35.13"	"30.009"	"26.372"	"25.988"	"25.641"	"27.344"	"24.411"	"19.874"
"1949"	"22.025"	"23.143"	"29.237"	"32.904"	"34.083"	"29.087"	"26.871"	"27.231"	"25.486"	"26.34"	"22.004"	"21.613"
"1950"	"22.434"	"23.404"	"27.906"	"32.471"	"34.276"	"31.393"	"26.973"	"27.605"	"26.532"	"26.012"	"21.699"	"21.508"
"1951"	"21.248"	"24.119"	"28.956"	"31.308"	"34.581"	"30.663"	"28.202"	"26.138"	"27.486"	"27.543"	"23.93"	"20.409"
"1952"	"22.354"	"25.889"	"27.831"	"33.319"	"34.729"	"30.957"	"27.81"	"26.029"	"27.161"	"26.92"	"22.032"	"23.728"
"1953"	"22.301"	"27.054"	"30.594"	"32.634"	"34.444"	"31.693"	"27.073"	"25.958"	"27.233"	"26.264"	"22.597"	"21.091"
"1954"	"21.122"	"25.681"	"29.134"	"33.138"	"35.244"	"30.763"	"27.036"	"26.755"	"25.18"	"24.818"	"22.278"	"21.195"
"1955"	"22.999"	"26.151"	"30.127"	"30.655"	"34.165"	"29.997"	"27.246"	"25.837"	"26.241"	"25.83"	"21.503"	"20.787"
"1956"	"22.926"	"24.69"	"29.457"	"32.732"	"33.228"	"28.71"	"25.8"	"26.343"	"26.448"	"25.979"	"22.682"	"21.652"
"1957"	"22.892"	"23.506"	"27.925"	"31.506"	"33.564"	"31.613"	"27.179"	"26.371"	"27.005"	"26.918"	"24.851"	"23.822"
"1958"	"23.099"	"24.708"	"28.824"	"33.232"	"35.003"	"32.738"	"26.997"	"26.828"	"26.133"	"26.529"	"24.64"	"21.847"
"1959"	"23.297"	"25.306"	"29.52"	"32.7"	"35.146"	"31.488"	"26.49"	"25.781"	"25.879"	"26.592"	"23.886"	"22.173"
"1960"	"21.924"	"25.391"	"27.569"	"32.281"	"33.907"	"29.156"	"27.223"	"25.55"	"26.853"	"26.034"	"22.888"	"23.041"
"1961"	"23.415"	"23.008"	"29.851"	"32.631"	"33.696"	"30.014"	"26.422"	"26.43"	"25.364"	"25.039"	"23.392"	"20.965"
"1962"	"20.419"	"24.503"	"27.763"	"31.164"	"33.586"	"31.037"	"27.324"	"26.747"	"25.787"	"25.607"	"23.391"	"21.216"
"1963"	"21.432"	"25.083"	"28.448"	"31.122"	"33.673"	"30.011"	"27.677"	"25.771"	"26.809"	"26.804"	"24.677"	"22.067"
"1964"	"22.013"	"24.864"	"29.737"	"33.51"	"33.451"	"30.446"	"26.994"	"25.464"	"26.649"	"26.844"	"22.622"	"21.466"
"1965"	"22.698"	"24.413"	"28.328"	"31.453"	"34.764"	"30.761"	"26.462"	"26.405"	"26.114"	"26.754"	"23.157"	"21.611"
"1966"	"20.935"	"24.769"	"27.087"	"31.691"	"32.288"	"31.652"	"28.352"	"26.921"	"26.746"	"27.615"	"25.189"	"21.637"
"1967"	"22.042"	"25.318"	"28.263"	"31.559"	"34.11"	"30.853"	"27.424"	"26.204"	"26.705"	"26.944"	"24.344"	"22.884"
"1968"	"20.952"	"23.711"	"27.281"	"30.558"	"33.304"	"31.053"	"27.4"	"25.38"	"27.464"	"25.653"	"22.729"	"21.644"
"1969"	"22.496"	"25.98"	"30.86"	"33.356"	"34.486"	"31.429"	"26.549"	"25.588"	"25.318"	"26.176"	"24.925"	"21.649"
"1970"	"22.53"	"26.295"	"28.933"	"33.137"	"34.692"	"28.304"	"27.621"	"26.114"	"26.099"	"25.887"	"21.826"	"19.702"
"1971"	"21.645"	"24.726"	"27.958"	"33.129"	"32.766"	"28.719"	"27.664"	"27.281"	"27.198"	"25.951"	"22.249"	"20.06"
"1972"	"21.31"	"23.5"	"30.4"	"31.928"	"33.769"	"31.311"	"27.551"	"26.033"	"26.787"	"27.247"	"23.227"	"23.056"
"1973"	"22.82"	"25.462"	"29.546"	"34.447"	"35.256"	"31.057"	"26.068"	"25.765"	"25.825"	"26.107"	"22.222"	"22.33"
"1974"	"20.896"	"24.692"	"29.593"	"32.655"	"32.854"	"30.561"	"28.088"	"25.882"	"28.317"	"26.139"	"21.638"	"20.373"
"1975"	"20.274"	"24.392"	"28.506"	"33.244"	"33.807"	"29.134"	"26.551"	"25.693"	"25.513"	"26.47"	"20.78"	"19.304"
"1976"	"20.941"	"24.454"	"28.38"	"31.566"	"33.301"	"29.374"	"26.914"	"25.948"	"25.906"	"27.476"	"25.742"	"23.076"
"1977"	"21.484"	"25.16"	"30.654"	"32.001"	"33.044"	"30.262"	"27.232"	"25.846"	"25.814"	"26.566"	"25.139"	"20.622"
"1978"	"20.739"	"23.928"	"27.05"	"31.815"	"34.717"	"29.328"	"26.22"	"25.765"	"27.161"	"27.111"	"25.759"	"21.428"
"1979"	"23.482"	"23.737"	"27.755"	"31.944"	"32.904"	"31.863"	"27.594"	"26.054"	"27.44"	"27.705"	"25.393"	"21.981"
"1980"	"23.123"	"25.423"	"28.964"	"33.31"	"34.892"	"28.567"	"27.167"	"25.568"	"27.613"	"28.045"	"25.881"	"21.468"
"1981"	"20.336"	"25.707"	"27.684"	"32.116"	"33.583"	"30.88"	"26.501"	"26.103"	"26.623"	"26.813"	"22.504"	"21.011"
"1982"	"23.514"	"23.977"	"27.704"	"31.524"	"32.768"	"31.467"	"28.137"	"26.65"	"27.14"	"27.521"	"25.123"	"23.605"
"1983"	"22.684"	"24.608"	"28.826"	"31.618"	"34.592"	"32.162"	"28.42"	"26.868"	"26.158"	"25.38"	"21.853"	"20.675"
"1984"	"22.787"	"23.679"	"29.445"	"32.531"	"34.77"	"29.808"	"27.567"	"25.727"	"26.653"	"26.936"	"22.907"	"22.581"
"1985"	"24.108"	"24.735"	"30.27"	"32.082"	"34.043"	"29.872"	"26.94"	"26.338"	"28.097"	"25.547"	"23.382"	"23.028"
"1986"	"22.889"	"25.284"	"29.727"	"32.843"	"34.028"	"29.718"	"26.861"	"25.671"	"28.433"	"28.459"	"23.198"	"22.441"
"1987"	"23.686"	"25.545"	"28.933"	"32.638"	"32.786"	"31.209"	"28.298"	"27.072"	"28.535"	"27.044"	"25.221"	"21.831"
"1988"	"23.788"	"26.371"	"29.163"	"32.614"	"34.838"	"30.557"	"26.683"	"27.203"	"26.901"	"25.765"	"23.45"	"21.271"
"1989"	"22.125"	"24.145"	"27.392"	"31.662"	"34.03"	"29.321"	"26.862"	"24.819"	"25.938"	"26.26"	"25.054"	"21.197"
"1990"	"22.975"	"24.441"	"26.893"	"32.446"	"31.497"	"27.786"	"26.511"	"26.231"	"26.554"	"25.775"	"24.119"	"21.997"
"1991"	"21.565"	"25.757"	"29.067"	"31.512"	"34.425"	"29.295"	"27.037"	"26.061"	"27.816"	"27.243"	"23.917"	"21.199"
"1992"	"22.696"	"24.029"	"29.844"	"31.9"	"33.98"	"32.226"	"28.371"	"25.864"	"26.213"	"26.578"	"23.451"	"20.927"
"1993"	"22.858"	"23.778"	"27.299"	"32.504"	"34.723"	"32.671"	"27.215"	"26.299"	"26.533"	"26.944"	"23.578"	"20.107"
"1994"	"22.142"	"24.311"	"29.641"	"30.462"	"34.413"	"28.986"	"25.68"	"25.466"	"26.339"	"27.224"	"23.391"	"20.962"
"1995"	"19.594"	"24.483"	"27.569"	"31.791"	"33.192"	"32.773"	"27.738"	"27.527"	"27.185"	"27.054"	"24.679"	"24.196"
"1996"	"24.397"	"25.833"	"30.445"	"32.793"	"34.456"	"30.554"	"28.192"	"26.636"	"26.668"	"25.75"	"22.959"	"21.26"
"1997"	"20.016"	"22.526"	"28.299"	"29.366"	"32.458"	"29.21"	"26.682"	"26.539"	"26.019"	"26.024"	"25.875"	"23.024"
"1998"	"22.468"	"23.969"	"28.41"	"33.128"	"35.478"	"32.797"	"28.102"	"27.43"	"26.593"	"27.247"	"24.044"	"20.697"
"1999"	"20.94"	"25.538"	"29.072"	"33.153"	"32.953"	"28.803"	"26.928"	"26.257"	"25.71"	"26.062"	"23.446"	"20.722"
"2000"	"22.449"	"24.004"	"27.783"	"33.725"	"32.795"	"29.248"	"26.333"	"27.506"	"27.536"	"28.246"	"25.091"	"21.888"
"2001"	"22.621"	"25.833"	"29.357"	"30.992"	"34.279"	"29.131"	"27.285"	"26.324"	"28.324"	"26.54"	"24.155"	"23.976"
"2002"	"22.136"	"26.647"	"29.186"	"33.034"	"34.182"	"29.671"	"27.654"	"25.011"	"25.91"	"26.974"	"23.634"	"22.697"
