
"Year"	"Jan"	"Feb"	"Mar"	"Apr"	"May"	"Jun"	"Jul"	"Aug"	"Sep"	"Oct"	"Nov"	"Dec"
"1901"	"19.65"	"14.735"	"33.673"	"123.179"	"123.523"	"292.064"	"272.935"	"264.242"	"230.378"	"87.471"	"56.704"	"5.787"
"1902"	"12.439"	"13.561"	"45.699"	"145.053"	"175.696"	"289.758"	"437.343"	"296.925"	"334.789"	"47.259"	"7.442"	"2.439"
"1903"	"21.155"	"22.168"	"59.026"	"96.69"	"143.671"	"354.73"	"250.391"	"368.33"	"186.492"	"96.128"	"23.547"	"3.006"
"1904"	"13.435"	"21.6"	"65.8"	"190.337"	"167.867"	"152.749"	"267.763"	"344.32"	"144.231"	"37.984"	"23.438"	"2.676"
"1905"	"18.833"	"12.433"	"66.339"	"103.062"	"130.428"	"178.478"	"305.044"	"364.952"	"111.865"	"55.704"	"19.095"	"18.267"
"1906"	"12.279"	"34.829"	"58.272"	"226.59"	"116.755"	"269.251"	"278.689"	"299.667"	"120.01"	"61.797"	"15.83"	"2.444"
"1907"	"8.945"	"31.794"	"60.77"	"155.28"	"130.148"	"282.688"	"366.494"	"208.315"	"241.925"	"27.194"	"1.941"	"5.147"
"1908"	"12.547"	"22.925"	"25.637"	"174.887"	"195.706"	"375.441"	"447.724"	"163.013"	"229.817"	"61.666"	"6.098"	"3.103"
"1909"	"35.125"	"7.925"	"8.615"	"116.096"	"225.352"	"410.931"	"274.157"	"312.379"	"121.512"	"58.384"	"6.131"	"4.083"
"1910"	"8.933"	"26.327"	"77.261"	"100.616"	"104.058"	"388.227"	"341.38"	"241.276"	"115.282"	"167.523"	"13.13"	"18.294"
"1911"	"24.444"	"19.775"	"37.639"	"121.325"	"221.041"	"295.891"	"361.235"	"245.416"	"206.291"	"184.661"	"26.499"	"5.351"
"1912"	"10.484"	"41.703"	"40.528"	"133.503"	"129.507"	"276.789"	"444.913"	"306.891"	"238.247"	"72.851"	"19.019"	"6.963"
"1913"	"11.336"	"39.05"	"42.659"	"173.804"	"301.355"	"285.571"	"241.454"	"251.93"	"177.822"	"189.502"	"5.607"	"38.515"
"1914"	"5.801"	"25.406"	"45.804"	"100.318"	"133.177"	"207.994"	"347.711"	"291.487"	"148.188"	"54.089"	"11.72"	"3.972"
"1915"	"5.73"	"28.671"	"65.692"	"83.433"	"233.665"	"347.518"	"500.28"	"310.832"	"193.855"	"68.641"	"11.732"	"7.71"
"1916"	"17.972"	"17.443"	"57.961"	"115.824"	"229.74"	"333.536"	"333.631"	"271.349"	"123.449"	"56.616"	"11.233"	"5.907"
"1917"	"10.961"	"60.138"	"30.435"	"137.401"	"142.182"	"348.415"	"449.134"	"282.415"	"175.521"	"82.361"	"19.728"	"1.605"
"1918"	"6.862"	"19.19"	"62.778"	"73.753"	"149.026"	"464.473"	"355.503"	"227.947"	"176.932"	"55.942"	"5.61"	"2.688"
"1919"	"7.822"	"20.134"	"10.155"	"83.475"	"205.089"	"323.755"	"434.143"	"165.334"	"208.269"	"194.129"	"11.878"	"1.74"
"1920"	"8.557"	"30.428"	"87.029"	"79.399"	"139.725"	"302.109"	"290.845"	"278.747"	"168.581"	"49.64"	"4.407"	"11.05"
"1921"	"18.037"	"21.978"	"73.105"	"181.799"	"248.475"	"296.326"	"237.542"	"345.503"	"232.454"	"130.343"	"7.7"	"14.177"
"1922"	"19.188"	"10.002"	"27.503"	"84.253"	"142.327"	"280.53"	"356.044"	"307.303"	"167.612"	"71.022"	"8.798"	"4.974"
"1923"	"2.536"	"44.139"	"12.589"	"101.779"	"229.274"	"300.605"	"432.079"	"246.309"	"303.035"	"55.716"	"9.38"	"7.358"
"1924"	"9.54"	"19.375"	"24.824"	"80.985"	"226.055"	"288.603"	"472.457"	"310.744"	"204.329"	"113.082"	"32.062"	"3.103"
"1925"	"12.158"	"19.814"	"50.223"	"85.049"	"271.361"	"292.226"	"355.179"	"289.663"	"242.314"	"49.166"	"4.176"	"2.668"
"1926"	"9.531"	"11.321"	"50.586"	"96.328"	"191.573"	"240.256"	"412.648"	"175.358"	"113.891"	"149.606"	"25.763"	"7.01"
"1927"	"16.731"	"38.318"	"61.965"	"144.419"	"121.076"	"283.263"	"338.236"	"277.401"	"362.931"	"170.82"	"10.677"	"1.944"
"1928"	"9.691"	"15.087"	"51.887"	"83.111"	"234.296"	"356.148"	"317.002"	"316.517"	"217.736"	"114.437"	"22.272"	"5.907"
"1929"	"10.668"	"11.048"	"34.938"	"108.075"	"349.008"	"300.881"	"264.409"	"273.512"	"150.214"	"67.518"	"27.243"	"5.785"
"1930"	"10.031"	"22.059"	"48.899"	"163.983"	"76.511"	"318.02"	"220.964"	"333.675"	"347.492"	"192.408"	"41.739"	"6.137"
"1931"	"8.11"	"39.908"	"37.038"	"189.646"	"176.287"	"400.405"	"442.116"	"209.956"	"184.35"	"89.631"	"13.944"	"31.373"
"1932"	"22.352"	"25.845"	"36.543"	"82.849"	"260.93"	"345.722"	"294.752"	"299.549"	"185.777"	"106.371"	"58.898"	"25.372"
"1933"	"12.53"	"31.785"	"24.651"	"126.969"	"158.829"	"388.307"	"278.361"	"358.496"	"108.673"	"62.225"	"5.579"	"4.642"
"1934"	"12.457"	"27.116"	"18.342"	"187.232"	"239.302"	"406.337"	"297.753"	"181.423"	"177.916"	"71.073"	"20.053"	"5.907"
"1935"	"7.783"	"25.671"	"30.749"	"57.924"	"124.652"	"409.901"	"411.827"	"276.567"	"252.698"	"13.429"	"14.702"	"4.44"
"1936"	"19.364"	"38.482"	"32.1"	"129.51"	"207.816"	"404.484"	"411.652"	"235.424"	"227.828"	"68.888"	"27.972"	"18.592"
"1937"	"12.055"	"31.414"	"27.161"	"76.84"	"141.237"	"156.335"	"263.957"	"336.762"	"143.002"	"63.824"	"4.247"	"3.95"
"1938"	"30.521"	"60.463"	"75.144"	"109.967"	"104.567"	"324.335"	"472.593"	"311.794"	"183.123"	"134.72"	"40.697"	"5.767"
"1939"	"6.511"	"25.818"	"21.216"	"114.971"	"185.353"	"353.411"	"295.911"	"160.87"	"231.653"	"76.11"	"0.396"	"2.256"
"1940"	"2.059"	"30.192"	"100.176"	"55.416"	"192.621"	"324.245"	"227.336"	"165.819"	"195.979"	"67.423"	"10.511"	"31.767"
"1941"	"12.997"	"20.334"	"39.836"	"39.99"	"196.865"	"325.246"	"214.68"	"244.4"	"257.014"	"31.155"	"9.662"	"9.693"
"1942"	"2.08"	"13.977"	"108.877"	"118.647"	"230.588"	"360.664"	"270.6"	"219.526"	"226.165"	"5.223"	"4.821"	"0.455"
"1943"	"34.137"	"17.374"	"71.138"	"89.259"	"225.375"	"287.892"	"296.287"	"295.363"	"191.722"	"73.621"	"3.007"	"3.861"
"1944"	"9.402"	"19.86"	"31.737"	"72.503"	"141.382"	"314.95"	"304.148"	"204.625"	"221.359"	"73.562"	"8.633"	"22.722"
"1945"	"19.642"	"24.373"	"41.288"	"66.745"	"186.832"	"334.555"	"408.081"	"245.794"	"213.042"	"139.661"	"1.87"	"13.809"
"1946"	"0.081"	"7.051"	"59.455"	"56.595"	"126.58"	"351.381"	"366.623"	"215.457"	"161.415"	"144.655"	"5.266"	"0.41"
"1947"	"7.932"	"9.349"	"28.188"	"150.919"	"177.876"	"188.945"	"445.797"	"280.67"	"328.257"	"167.12"	"5.518"	"6.245"
"1948"	"10.904"	"17.514"	"68.512"	"124.269"	"419.703"	"282.744"	"482.583"	"268.987"	"117.911"	"88.458"	"12.793"	"5.34"
"1949"	"15.045"	"11.285"	"55.51"	"135.554"	"242.975"	"288.595"	"311.122"	"269.168"	"274.77"	"115.82"	"10.953"	"12.889"
"1950"	"10.376"	"28.485"	"51.778"	"85.756"	"173.051"	"340.519"	"306.256"	"287.461"	"191.003"	"123.534"	"17.936"	"7.655"
"1951"	"7.823"	"27.011"	"64.056"	"103.484"	"139.36"	"418.137"	"322.234"	"216.921"	"160.19"	"88.921"	"48.453"	"24.363"
"1952"	"12.62"	"23.944"	"48.21"	"76.641"	"162.912"	"327.979"	"314.519"	"347.986"	"306.296"	"84.299"	"32.105"	"2.128"
"1953"	"9.249"	"38.597"	"80.717"	"105.064"	"230.942"	"269.459"	"317.364"	"118.594"	"144.225"	"74.7"	"1.568"	"3.74"
"1954"	"27.603"	"39.579"	"25.832"	"120.381"	"234.297"	"284.289"	"336.186"	"392.3"	"219.054"	"73.448"	"0.215"	"19.315"
"1955"	"10.2"	"20.087"	"74.627"	"71.617"	"132.947"	"327.137"	"546.322"	"331.9"	"98.627"	"47.57"	"4.02"	"21.347"
"1956"	"22.696"	"12.984"	"88.917"	"141.859"	"227.452"	"340.139"	"182.935"	"292.938"	"188.73"	"82.526"	"30.484"	"11.939"
"1957"	"20.62"	"37.549"	"21.488"	"170.272"	"233.185"	"348.09"	"376.532"	"175.66"	"198.95"	"57.399"	"15.292"	"15.163"
"1958"	"14.675"	"22.584"	"7.229"	"55.625"	"324.064"	"246.02"	"387.296"	"365.679"	"174.223"	"166.808"	"0.145"	"9.486"
"1959"	"14.385"	"27.97"	"50.14"	"96.205"	"300.905"	"360.695"	"259.179"	"177.757"	"174.428"	"133.528"	"14.085"	"8.276"
"1960"	"3.445"	"32.515"	"12.961"	"45.835"	"121.017"	"237.569"	"393.957"	"234.09"	"190.872"	"38.091"	"7.715"	"14.565"
"1961"	"11.317"	"18.924"	"82.841"	"102.396"	"235.457"	"151.937"	"293.749"	"227.507"	"204.562"	"87.721"	"12.606"	"3.387"
"1962"	"16.792"	"23.5"	"45.903"	"103.873"	"209.393"	"396.792"	"246.507"	"436.173"	"180.912"	"38.344"	"7.199"	"5.408"
"1963"	"7.163"	"17.289"	"25.481"	"105.796"	"158.031"	"240.398"	"410.193"	"301.311"	"81.613"	"109.542"	"18.401"	"3.364"
"1964"	"10.317"	"22.065"	"72.661"	"94.459"	"115.328"	"300.687"	"313.093"	"225.176"	"177.24"	"62.191"	"2.678"	"13.806"
"1965"	"2.85"	"24.223"	"28.409"	"93.461"	"162.071"	"226.33"	"327.414"	"375.325"	"229.581"	"31.764"	"74.219"	"3.397"
"1966"	"13.373"	"9.605"	"17.181"	"109.09"	"193.656"	"417.472"	"268.75"	"360.2"	"168.115"	"61.503"	"13.504"	"8.428"
"1967"	"10.978"	"15.285"	"59.362"	"57.914"	"113.369"	"298.807"	"213.4"	"141.99"	"173.967"	"21.934"	"8.386"	"2.515"
"1968"	"19.203"	"62.256"	"31.63"	"102.303"	"267.12"	"292.753"	"416.178"	"194.075"	"197.525"	"60.043"	"3.647"	"0.097"
"1969"	"26.244"	"2.49"	"86.1"	"62.953"	"139.39"	"310.042"	"377.473"	"317.578"	"141.17"	"74.845"	"7.152"	"1.459"
"1970"	"15.122"	"35.012"	"47.815"	"108.064"	"280.652"	"288.336"	"374.849"	"274.965"	"165.353"	"132.72"	"7.665"	"0.066"
"1971"	"10.617"	"24.706"	"48.957"	"84.504"	"128.049"	"321.221"	"299.563"	"257.16"	"116.293"	"144.239"	"50.597"	"6.999"
"1972"	"13.229"	"7.341"	"43.572"	"136.411"	"197.413"	"166.132"	"303.162"	"152.009"	"144.304"	"26.086"	"1.638"	"3.738"
"1973"	"12.828"	"21.302"	"28.422"	"158.046"	"167.085"	"473.919"	"190.895"	"289.105"	"206.25"	"41.578"	"14.883"	"23.094"
"1974"	"13.703"	"8.566"	"30.56"	"142.999"	"101.397"	"274.766"	"490.183"	"333.876"	"200.971"	"25.093"	"6.108"	"2.216"
"1975"	"12.3"	"59.122"	"25.592"	"111.574"	"214.807"	"181.874"	"260.671"	"276.971"	"157.103"	"95.914"	"3.48"	"5.643"
"1976"	"15.02"	"29.142"	"60.767"	"113.321"	"123.319"	"370.623"	"305.195"	"182.63"	"104.863"	"41.164"	"15.325"	"2.481"
"1977"	"11.069"	"21.806"	"46.751"	"201.088"	"219.29"	"303.03"	"297.198"	"368.917"	"187.104"	"105.418"	"30.55"	"33.185"
"1978"	"9.03"	"20.392"	"30.716"	"114.027"	"173.254"	"336.618"	"279.015"	"167.558"	"248.347"	"83.094"	"40.331"	"0.066"
"1979"	"10.135"	"14.928"	"70.411"	"49.966"	"73.55"	"262.547"	"402.867"	"227.404"	"225.269"	"161.212"	"5.441"	"49.231"
"1980"	"26.31"	"14.525"	"59.221"	"168.867"	"161.164"	"225.899"	"383.107"	"450.802"	"202.451"	"81.041"	"1.768"	"0.066"
"1981"	"20.368"	"21.31"	"48.567"	"143.483"	"190.003"	"241.632"	"386.165"	"259.848"	"134.46"	"34.184"	"2.738"	"49.344"
"1982"	"5.401"	"20.852"	"38.215"	"148.478"	"106.085"	"255.305"	"273.355"	"168.807"	"164.866"	"25.842"	"42.443"	"22.8"
"1983"	"28.108"	"36.219"	"25.294"	"118.972"	"158.108"	"210.191"	"351.839"	"192.783"	"225.391"	"86.897"	"7.787"	"13.564"
"1984"	"4.496"	"6.442"	"37.053"	"153.876"	"181.627"	"243.531"	"412.401"	"191.788"	"196.449"	"51.186"	"0.706"	"17.953"
"1985"	"4.705"	"19.191"	"52.424"	"141.692"	"117.942"	"308.099"	"488.811"	"170.468"	"197.541"	"55.275"	"8.251"	"19.048"
"1986"	"3.093"	"20.687"	"28.649"	"175.427"	"60.442"	"204.077"	"423.884"	"269.058"	"226.499"	"134.47"	"13.591"	"3.184"
"1987"	"0.764"	"25.445"	"55.792"	"114.294"	"128.725"	"160.325"	"462.995"	"397.919"	"271.765"	"85.371"	"9.614"	"7.329"
"1988"	"10.668"	"13.492"	"42.802"	"122.942"	"224.246"	"128.454"	"353.748"	"418.671"	"206.754"	"129.703"	"30.471"	"4.471"
"1989"	"4.536"	"41.88"	"15.893"	"116.378"	"121.022"	"211.18"	"271.886"	"217.145"	"220.935"	"106.368"	"17.975"	"6.16"
"1990"	"5.837"	"26.799"	"35.081"	"122.911"	"162.32"	"413.061"	"407.573"	"196.192"	"338.195"	"112.043"	"1.99"	"5.64"
"1991"	"4.834"	"10.131"	"58.459"	"94.64"	"207.751"	"359.87"	"474.582"	"319.091"	"220.923"	"113.259"	"6.192"	"19.573"
"1992"	"14.825"	"39.298"	"60.557"	"153.94"	"116.155"	"228.382"	"307.387"	"244.999"	"141.533"	"98.981"	"5.962"	"2.953"
"1993"	"16.373"	"41.52"	"48.97"	"61.287"	"203.904"	"270.714"	"263.619"	"432.699"	"287.556"	"67.353"	"6.941"	"1.26"
"1994"	"13.283"	"18.254"	"85.228"	"157.15"	"159.507"	"241.166"	"237.234"	"236.544"	"154.981"	"134.407"	"8.322"	"3.266"
"1995"	"21.152"	"23.486"	"34.425"	"78.314"	"292.573"	"357.666"	"383.571"	"238.076"	"255.438"	"38.53"	"27.406"	"8.907"
"1996"	"10.545"	"15.284"	"79.614"	"95.678"	"359.069"	"209.545"	"324.689"	"138.323"	"153.994"	"104.658"	"0.75"	"0.066"
"1997"	"9.433"	"48.316"	"80.946"	"83.113"	"135.422"	"321.177"	"249.495"	"127.912"	"231.027"	"26.416"	"15.92"	"16.486"
"1998"	"10.397"	"36.071"	"76.081"	"108.961"	"194.218"	"530.051"	"369.32"	"331.799"	"114.534"	"95.364"	"5.979"	"2.174"
"1999"	"1.751"	"35.451"	"20.196"	"112.255"	"257.911"	"288.346"	"285.789"	"291.156"	"175.097"	"96.473"	"7.904"	"0.07"
"2000"	"25.891"	"5.504"	"73.796"	"158.747"	"245.479"	"230.269"	"307.051"	"359.293"	"228.461"	"30.284"	"6.29"	"0.561"
"2001"	"1.012"	"12.621"	"23.609"	"140.585"	"193.042"	"283.779"	"404.109"	"217.785"	"186.951"	"115.541"	"7.009"	"2.355"
"2002"	"18.383"	"27.015"	"29.668"	"177.29"	"250.332"	"252.11"	"377.174"	"240.922"	"269.038"	"35.971"	"18.992"	"0.488"
