
"Year"	"Jan"	"Feb"	"Mar"	"Apr"	"May"	"Jun"	"Jul"	"Aug"	"Sep"	"Oct"	"Nov"	"Dec"
"1901"	"12.209"	"14.379"	"21.379"	"26.69"	"30.87"	"34.539"	"31.969"	"30.559"	"29.629"	"27.059"	"20.69"	"15.18"
"1902"	"15.08"	"17.5"	"22.77"	"27.459"	"31.559"	"32.549"	"30.829"	"30.938"	"29.149"	"25.039"	"19.78"	"14.6"
"1903"	"13.369"	"15.18"	"19.27"	"26.2"	"31.169"	"34.618"	"32.539"	"30.27"	"29.949"	"26.039"	"19.8"	"15.01"
"1904"	"12.99"	"17.01"	"20.4"	"28.19"	"31.039"	"33.418"	"30.829"	"30.049"	"29.049"	"25.749"	"19.069"	"14.869"
"1905"	"11.249"	"11.59"	"17.069"	"24.38"	"32.339"	"34.018"	"31.518"	"31.339"	"30.118"	"26.249"	"20.569"	"14.77"
"1906"	"12.27"	"13.469"	"18.99"	"27.19"	"33.449"	"32.749"	"31.719"	"29.28"	"28.959"	"26.139"	"21.29"	"16.18"
"1907"	"15.49"	"13.27"	"17.159"	"24.4"	"29.87"	"33.059"	"32.229"	"29.88"	"30.528"	"26.959"	"20.479"	"14.8"
"1908"	"14.18"	"16.479"	"21.379"	"28.5"	"31.539"	"34.629"	"30.549"	"28.6"	"29.259"	"25.86"	"19.09"	"14.569"
"1909"	"12.559"	"14.79"	"22.01"	"25.78"	"31.849"	"31.629"	"29.87"	"29.3"	"29.19"	"26.569"	"20.77"	"14.69"
"1910"	"13.79"	"15.68"	"21.379"	"26.61"	"31.949"	"32.438"	"29.749"	"29.39"	"29.349"	"24.959"	"18.979"	"14.369"
"1911"	"13.949"	"16.59"	"18.469"	"26.979"	"33.069"	"32.539"	"32.729"	"31.349"	"29.339"	"25.938"	"17.99"	"14.49"
"1912"	"13.559"	"17.08"	"20.78"	"26.569"	"31.739"	"34.018"	"30.938"	"29.39"	"28.459"	"25.949"	"18.469"	"14.379"
"1913"	"14.27"	"14.77"	"18.28"	"28.069"	"29.86"	"30.749"	"30.069"	"30.18"	"29.86"	"26.039"	"18.859"	"13.449"
"1914"	"15.28"	"14.68"	"19.77"	"26.27"	"31.149"	"32.349"	"30.069"	"30.069"	"28.949"	"23.659"	"19.569"	"14.18"
"1915"	"13.879"	"14.59"	"21.08"	"27.469"	"33.729"	"33.129"	"32.309"	"30.849"	"29.938"	"27.38"	"20.59"	"15.08"
"1916"	"14.359"	"15.379"	"24.29"	"28.77"	"31.87"	"32.219"	"30.069"	"29.489"	"28.959"	"25.749"	"19.311"	"14.08"
"1917"	"13.68"	"16.26"	"20.349"	"23.86"	"27.349"	"31.729"	"29.759"	"29.3"	"27.579"	"24.469"	"19.03"	"14.469"
"1918"	"13.069"	"16.69"	"20.79"	"24.989"	"33.239"	"32.118"	"32.408"	"30.749"	"29.759"	"26.049"	"19.359"	"13.649"
"1919"	"13.039"	"15.19"	"21.059"	"25.849"	"30.428"	"34.387"	"30.349"	"29.68"	"29.149"	"25.749"	"19.29"	"13.78"
"1920"	"14.721"	"14.469"	"19.949"	"26.88"	"28.159"	"32.028"	"30.329"	"30.259"	"29.928"	"26.539"	"20.76"	"16.3"
"1921"	"13.749"	"17.18"	"24.38"	"30.249"	"34.949"	"33.608"	"31.618"	"29.37"	"28.618"	"24.539"	"19.569"	"15.649"
"1922"	"12.349"	"16.99"	"22.88"	"27.669"	"32.659"	"32.418"	"30.739"	"29.659"	"28.459"	"24.87"	"19.28"	"13.639"
"1923"	"13.69"	"14.369"	"21.889"	"28.579"	"31.36"	"34.819"	"30.449"	"29"	"29.039"	"24.749"	"19.479"	"14.569"
"1924"	"12.76"	"15.79"	"22.489"	"28.28"	"28.459"	"35.329"	"31.329"	"29.669"	"27.77"	"25.569"	"19.379"	"15.28"
"1925"	"11.76"	"14.821"	"21.969"	"29.37"	"31.729"	"30.928"	"29.37"	"29.579"	"29.438"	"25.349"	"18.18"	"14.8"
"1926"	"13.859"	"17.08"	"19.159"	"23.87"	"29.069"	"34.639"	"31.239"	"29.1"	"28.87"	"25.169"	"17.569"	"14.68"
"1927"	"12.77"	"13.58"	"20.08"	"26.39"	"30.159"	"33.339"	"30.259"	"28.979"	"29.159"	"25.36"	"19.369"	"15.68"
"1928"	"12.67"	"16.28"	"21.09"	"26.86"	"33.459"	"33.018"	"31.139"	"30.87"	"29.87"	"26.459"	"19.67"	"14.28"
"1929"	"13.159"	"14.879"	"23.27"	"28.059"	"32.849"	"33.028"	"30.639"	"29.169"	"29.729"	"25.249"	"19.99"	"12.449"
"1930"	"12.069"	"15.479"	"21.9"	"26.68"	"31.549"	"32.049"	"29.469"	"29.87"	"28.69"	"25.139"	"18.889"	"14.9"
"1931"	"15.08"	"13.479"	"20.4"	"28.69"	"31.36"	"34.149"	"30.949"	"30.29"	"28.649"	"25.349"	"19.19"	"15.28"
"1932"	"15.58"	"15.059"	"22.08"	"27.669"	"30.37"	"34.928"	"30.959"	"29.09"	"28.949"	"25.86"	"19.821"	"14.68"
"1933"	"12.09"	"16.18"	"21"	"25.079"	"28.739"	"32.729"	"29.749"	"28.51"	"27.88"	"24.86"	"19.19"	"15.68"
"1934"	"11.27"	"18.2"	"20.19"	"27.411"	"30.569"	"32.629"	"30.438"	"28.88"	"30.049"	"25.569"	"19.5"	"14.629"
"1935"	"11.439"	"16.08"	"21.08"	"23.78"	"32.18"	"34.829"	"30.549"	"29.28"	"28.849"	"25.36"	"19.67"	"14.149"
"1936"	"12.369"	"15.649"	"20.7"	"26.88"	"33.418"	"30.918"	"30.049"	"29.479"	"28.649"	"25.528"	"19.58"	"13.749"
"1937"	"12.969"	"15.559"	"19.79"	"25.559"	"31.339"	"33.528"	"30.159"	"30.749"	"29.249"	"24.86"	"18.76"	"13.879"
"1938"	"12.949"	"14.369"	"22.28"	"28.38"	"33.719"	"32.028"	"31.219"	"30.349"	"30.118"	"26.639"	"17.969"	"15.61"
"1939"	"14.359"	"15.959"	"18.569"	"25.89"	"33.259"	"31.629"	"30.639"	"30.659"	"29.329"	"26.428"	"19.78"	"15.78"
"1940"	"13.859"	"15.27"	"18.949"	"25.78"	"32.349"	"33.329"	"30.949"	"29.09"	"28.739"	"25.759"	"20.27"	"14.149"
"1941"	"12.549"	"16.979"	"23.579"	"30.28"	"33.039"	"31.86"	"31.849"	"30.18"	"29.449"	"27.319"	"19.77"	"16.59"
"1942"	"12.369"	"16.59"	"23.19"	"28.86"	"32.049"	"34.449"	"29.759"	"28.6"	"28.169"	"25.86"	"20.479"	"14.08"
"1943"	"12.849"	"16.811"	"21.79"	"25.959"	"31.27"	"33.129"	"30.149"	"28.68"	"29.649"	"25.86"	"20.8"	"16.069"
"1944"	"12.239"	"14.869"	"19.78"	"26.37"	"33.27"	"32.618"	"30.169"	"29.77"	"28.87"	"25.669"	"19.979"	"15.7"
"1945"	"11.359"	"14.979"	"21.78"	"25.579"	"31.2"	"33.969"	"30.36"	"29.88"	"28.469"	"24.749"	"19.78"	"13.78"
"1946"	"15.2"	"18.369"	"20.59"	"28.928"	"31.518"	"32.928"	"30.36"	"29.89"	"29.649"	"25.528"	"19.49"	"14.19"
"1947"	"12.76"	"16.59"	"21.869"	"29.059"	"32.739"	"35.708"	"31.918"	"30.259"	"28.59"	"24.659"	"20.27"	"15.08"
"1948"	"13.77"	"14.869"	"19.78"	"30.169"	"33.18"	"34.339"	"30.849"	"28.79"	"29.039"	"25.829"	"18.58"	"14.059"
"1949"	"15.559"	"15.659"	"21.77"	"29.049"	"33.108"	"33.839"	"29.959"	"29.759"	"30.028"	"25.87"	"18.6"	"13.859"
"1950"	"14.549"	"14.6"	"19.969"	"27.079"	"32.918"	"33.708"	"30.639"	"29.479"	"27.87"	"24.969"	"19.59"	"13.51"
"1951"	"12.649"	"16.6"	"21.569"	"24.969"	"31.36"	"33.829"	"32.329"	"30.579"	"29.938"	"27.639"	"21.059"	"15.979"
"1952"	"14.969"	"18.369"	"20.629"	"29.739"	"32.438"	"32.928"	"30.849"	"29.39"	"30.239"	"25.839"	"20.389"	"15.59"
"1953"	"12.739"	"18.889"	"25.159"	"28.469"	"32.829"	"33.938"	"30.449"	"29.669"	"29.349"	"25.949"	"19.99"	"17.359"
"1954"	"12.649"	"16.77"	"22"	"28.68"	"32.839"	"33.608"	"30.938"	"30.549"	"29.749"	"23.77"	"19.379"	"14.539"
"1955"	"13.349"	"17.19"	"23.669"	"25.569"	"29.77"	"34.518"	"31.129"	"29.169"	"28.669"	"24.459"	"19.69"	"14.649"
"1956"	"13.549"	"17.59"	"21.469"	"28.77"	"34.018"	"33.219"	"29.839"	"29.28"	"29.829"	"24.559"	"18.99"	"14.439"
"1957"	"12.749"	"15.3"	"20.249"	"25.969"	"30.259"	"32.928"	"31.139"	"29.979"	"28.069"	"25.759"	"20.3"	"15.18"
"1958"	"15.26"	"16.18"	"22.459"	"29.949"	"31.649"	"34.528"	"30.149"	"29.77"	"29.069"	"25.86"	"20.67"	"16.19"
"1959"	"13.99"	"15.58"	"22.79"	"27.969"	"31.069"	"34.319"	"30.428"	"29.989"	"29.37"	"26.069"	"19.68"	"16"
"1960"	"13.26"	"20.2"	"20.469"	"26.469"	"32.629"	"34.508"	"30.928"	"29.78"	"29.849"	"25.559"	"19.09"	"16.43"
"1961"	"14.26"	"14.469"	"22.489"	"27.69"	"32.339"	"33.629"	"30.949"	"29.79"	"30.069"	"25.27"	"18.1"	"12.879"
"1962"	"12.58"	"16.67"	"21.379"	"28.659"	"32.339"	"33.539"	"31.649"	"30.18"	"27.989"	"27.319"	"19.6"	"14.19"
"1963"	"13.5"	"18.08"	"21.17"	"26.969"	"30.659"	"33.329"	"31.159"	"28.8"	"28.469"	"26.159"	"19.99"	"14.69"
"1964"	"12.49"	"15.8"	"21.92"	"27.7"	"29.759"	"34.118"	"29.36"	"29.979"	"28.77"	"25.88"	"19.11"	"14.7"
"1965"	"15.379"	"15.869"	"20.859"	"25.69"	"31.049"	"34.629"	"30.349"	"29.27"	"29.249"	"25.569"	"20.09"	"13.71"
"1966"	"13.78"	"17.79"	"21.59"	"28.27"	"32.639"	"33.129"	"31.438"	"29.87"	"29.059"	"25.349"	"19.28"	"14.59"
"1967"	"13.28"	"18.58"	"20.76"	"27.069"	"31.449"	"34.118"	"30.649"	"29.079"	"29.249"	"24.759"	"18.77"	"14.569"
"1968"	"12.449"	"14.67"	"21.569"	"27.669"	"32.049"	"33.319"	"30.239"	"29.669"	"30.539"	"24.669"	"19.78"	"15.28"
"1969"	"13.77"	"17.479"	"24.469"	"27.759"	"30.749"	"34.018"	"30.729"	"30.259"	"28.839"	"26.339"	"20.889"	"15.78"
"1970"	"13.859"	"16.26"	"21.659"	"29.169"	"33.139"	"31.639"	"31.528"	"29.579"	"29.459"	"26.349"	"19.58"	"15.59"
"1971"	"13.379"	"16.869"	"21.559"	"27.938"	"29.809"	"31.309"	"29.949"	"28.259"	"28.459"	"25.749"	"19.67"	"16.09"
"1972"	"14.469"	"14.58"	"22.79"	"26.77"	"33.049"	"34.749"	"31.528"	"29.479"	"28.239"	"25.028"	"20.27"	"15.4"
"1973"	"14.149"	"17.959"	"21.08"	"29.78"	"32.039"	"32.659"	"29.979"	"29.03"	"28.88"	"24.68"	"19.5"	"13.49"
"1974"	"13.3"	"14.79"	"22.39"	"29.39"	"31.449"	"32.049"	"29.759"	"29.489"	"29.169"	"25.4"	"19.6"	"13.6"
"1975"	"13.459"	"15.889"	"20.879"	"28.959"	"32.938"	"32.498"	"29.839"	"29.479"	"27.77"	"26.938"	"18.869"	"15.58"
"1976"	"14.069"	"16.17"	"21.18"	"26.659"	"31.438"	"31.239"	"30.549"	"28.421"	"28.459"	"25.759"	"20.28"	"14.69"
"1977"	"13.5"	"15.811"	"22.22"	"26.68"	"28.88"	"30.9"	"29.559"	"29.1"	"27.759"	"25.649"	"21.18"	"15.379"
"1978"	"12.52"	"14.79"	"19.139"	"26.38"	"33.069"	"32.159"	"29.28"	"28.8"	"27.87"	"25.569"	"20.229"	"15.518"
"1979"	"14.649"	"14.889"	"19.77"	"28.86"	"31.249"	"33.319"	"29.759"	"30.659"	"28.459"	"26.459"	"21.29"	"16.149"
"1980"	"14.159"	"16.879"	"20.77"	"29.749"	"33.239"	"31.928"	"29.459"	"29.77"	"28.27"	"25.739"	"19.3"	"14.9"
"1981"	"12.949"	"16.68"	"20.77"	"27.669"	"31.449"	"33.129"	"29.469"	"29.39"	"29.149"	"25.069"	"19.369"	"14.659"
"1982"	"14.67"	"15.28"	"18.58"	"25.29"	"28.559"	"33.018"	"31.339"	"29.18"	"29.539"	"25.539"	"19.979"	"15.869"
"1983"	"12.78"	"14.959"	"20.359"	"24.86"	"29.669"	"32.118"	"30.749"	"29.3"	"29.159"	"24.459"	"18.99"	"14.78"
"1984"	"12.069"	"14.49"	"23"	"27.669"	"34.528"	"32.928"	"29.649"	"29.579"	"27.979"	"24.979"	"19.18"	"14.739"
"1985"	"13.68"	"16.76"	"23.61"	"28.28"	"32.168"	"33.539"	"29.449"	"29.3"	"28.438"	"24.459"	"19.328"	"16.059"
"1986"	"13.389"	"15.889"	"20.77"	"27.38"	"29.349"	"32.528"	"29.449"	"29.669"	"28.449"	"24.259"	"20.479"	"14.09"
"1987"	"14.26"	"17.67"	"22.09"	"28.37"	"28.569"	"33.819"	"33.008"	"30.86"	"30.629"	"26.938"	"20.79"	"16.18"
"1988"	"15.69"	"17.69"	"21.69"	"29.569"	"33.438"	"32.339"	"29.559"	"28.8"	"28.759"	"25.78"	"20.27"	"15.569"
"1989"	"12.749"	"15.79"	"21.11"	"26.29"	"31.549"	"31.329"	"30.739"	"27.9"	"28.569"	"25.759"	"19.68"	"14.78"
"1990"	"16.11"	"16.069"	"19.469"	"27.059"	"30.86"	"33.729"	"29.069"	"29.079"	"27.88"	"24.169"	"20.28"	"15.08"
"1991"	"12.729"	"16.78"	"21.2"	"25.78"	"32.049"	"31.449"	"31.539"	"29.079"	"28.469"	"24.77"	"18.78"	"15.069"
"1992"	"13.979"	"15.069"	"21.18"	"27.489"	"30.549"	"32.908"	"29.449"	"28.68"	"28.27"	"25.079"	"19.979"	"15.859"
"1993"	"13.659"	"17.76"	"19.569"	"27.069"	"32.819"	"32.708"	"30.149"	"30.659"	"27.77"	"25.079"	"20.49"	"15.389"
"1994"	"14.29"	"16.369"	"23.09"	"25.949"	"32.449"	"33.949"	"29.89"	"29.19"	"28.27"	"24.79"	"20.069"	"15.949"
"1995"	"13.559"	"16.28"	"20.29"	"26.59"	"33.569"	"34.749"	"29.998"	"27.669"	"28.649"	"26.059"	"20.27"	"15.849"
"1996"	"13.859"	"16.869"	"22.159"	"27.959"	"31.449"	"31.518"	"29.877"	"27.719"	"28.159"	"25.069"	"19.28"	"14.159"
"1997"	"13.469"	"16.28"	"21.18"	"26.469"	"29.959"	"31.149"	"31.059"	"29.19"	"29.259"	"23.039"	"19.28"	"13.29"
"1998"	"10.478"	"16.889"	"19.67"	"27.759"	"32.949"	"34.049"	"30.149"	"29.479"	"29.27"	"25.759"	"21.4"	"16.841"
"1999"	"13.379"	"19.03"	"24.02"	"32.03"	"32.949"	"31.839"	"31.36"	"30.28"	"29.749"	"26.459"	"21.8"	"16.5"
"2000"	"14.71"	"15.08"	"20.969"	"29.979"	"33.118"	"31.729"	"29.969"	"29.89"	"29.579"	"27.28"	"21.7"	"16.811"
"2001"	"13.7"	"17.28"	"22.479"	"27.159"	"32.549"	"31.36"	"30.669"	"30.78"	"30.169"	"27.27"	"22"	"16.7"
"2002"	"15.67"	"16.51"	"21.221"	"29.649"	"34.259"	"33.149"	"32.459"	"30.28"	"27.659"	"25.979"	"20.979"	"15.869"
