
"Year"	"Jan"	"Feb"	"Mar"	"Apr"	"May"	"Jun"	"Jul"	"Aug"	"Sep"	"Oct"	"Nov"	"Dec"
"1901"	"22.031"	"16.198"	"29.318"	"30.521"	"13.193"	"104.916"	"223.163"	"365.451"	"121.423"	"63.198"	"0.058"	"0"
"1902"	"0.48"	"0"	"0"	"5.212"	"1.8"	"40.997"	"291.954"	"188.112"	"163.054"	"36.99"	"27.037"	"14.045"
"1903"	"3.277"	"1.421"	"0.037"	"4.057"	"33.025"	"117.433"	"378.728"	"399.438"	"171.59"	"97.029"	"0.227"	"13.391"
"1904"	"0.641"	"1.785"	"13.004"	"0"	"9.793"	"160.678"	"150.478"	"85.665"	"239.849"	"81.355"	"0.057"	"0.391"
"1905"	"5.675"	"6.81"	"4.58"	"8.995"	"5.131"	"83.491"	"152.39"	"232.348"	"329.082"	"2.302"	"0.13"	"0"
"1906"	"6.728"	"0.949"	"7.608"	"0.003"	"5.547"	"244.726"	"327.607"	"223.747"	"89.468"	"4.401"	"36.623"	"8.189"
"1907"	"1.151"	"16.103"	"0.013"	"26.516"	"2.548"	"118.499"	"275.712"	"273.884"	"55.389"	"0.664"	"11.724"	"4.353"
"1908"	"0.204"	"1.778"	"10.534"	"5.321"	"2.146"	"149.877"	"275.292"	"328.969"	"367.418"	"0.876"	"0.057"	"1.842"
"1909"	"0.815"	"10.605"	"5.554"	"25.927"	"19.081"	"148.896"	"267.677"	"153.109"	"167.677"	"5.972"	"0.057"	"40.743"
"1910"	"0"	"0"	"0"	"0.024"	"9.88"	"262.97"	"204.586"	"341.028"	"391.999"	"86.229"	"53.495"	"0"
"1911"	"8.498"	"0"	"3.45"	"0"	"3.676"	"126.858"	"146.254"	"249.17"	"161.62"	"18.447"	"25.709"	"0"
"1912"	"0"	"12.329"	"0"	"6.696"	"8.093"	"40.275"	"296.162"	"373.292"	"128.889"	"4.524"	"13.497"	"0.045"
"1913"	"0"	"23.644"	"2.046"	"3.869"	"23.504"	"164.787"	"388.872"	"201.371"	"132.511"	"26.246"	"3.673"	"14.171"
"1914"	"0"	"11.501"	"10.222"	"30.781"	"24.801"	"169.052"	"212.396"	"169.635"	"342.095"	"6.993"	"12.504"	"12.276"
"1915"	"35.873"	"0.524"	"56.314"	"36.031"	"2.649"	"139.376"	"217.726"	"169.295"	"356.058"	"96.131"	"4.844"	"5.638"
"1916"	"0"	"2.858"	"0.001"	"3.261"	"12.478"	"230.192"	"329.646"	"241.881"	"289.686"	"105.825"	"47.978"	"0"
"1917"	"0"	"48.052"	"13.285"	"4.774"	"33.936"	"132.223"	"239.749"	"192.682"	"471.159"	"132.57"	"0.065"	"0"
"1918"	"1.129"	"0.267"	"1.953"	"0.078"	"56.116"	"213.356"	"154.212"	"105.647"	"69.276"	"1"	"7.789"	"31.002"
"1919"	"24.95"	"10.179"	"18.034"	"6.576"	"26.126"	"193.134"	"260.956"	"129.131"	"264.063"	"78.122"	"36.457"	"0.748"
"1920"	"17.801"	"0"	"1.159"	"5.649"	"0.638"	"71.33"	"168.491"	"123.513"	"81.821"	"0.601"	"0.057"	"0"
"1921"	"12.116"	"0"	"0"	"3.979"	"0.175"	"194.488"	"210.6"	"157.789"	"205.811"	"16.066"	"0.863"	"0"
"1922"	"36.198"	"0.404"	"0"	"6.74"	"2.972"	"181.898"	"228.949"	"100.406"	"352.413"	"25.185"	"65.275"	"0.099"
"1923"	"1.034"	"2.934"	"26.184"	"6.884"	"0.416"	"12.081"	"347.342"	"114.399"	"303.451"	"4.558"	"0.057"	"0"
"1924"	"8.557"	"0.379"	"10.721"	"4.926"	"2.828"	"53.72"	"232.546"	"195.392"	"172.741"	"159.127"	"26.811"	"23.083"
"1925"	"0"	"0"	"0.709"	"2.752"	"20.725"	"151.696"	"190.811"	"232.828"	"66.848"	"39.081"	"55.568"	"5.478"
"1926"	"61.807"	"0.186"	"10.141"	"14.773"	"22.882"	"32.259"	"297.88"	"326.315"	"97.135"	"116.772"	"12.005"	"0.179"
"1927"	"0"	"5.676"	"8.487"	"7.263"	"4.253"	"237.221"	"296.551"	"102.764"	"109.308"	"62.076"	"65.034"	"1.141"
"1928"	"0.001"	"21.952"	"15.32"	"0.438"	"2.892"	"141.548"	"176.186"	"162.53"	"226.157"	"88.588"	"0.057"	"11.463"
"1929"	"1.472"	"31.353"	"0.152"	"9.005"	"0.128"	"156.21"	"191.811"	"72.247"	"270.576"	"19.8"	"0.057"	"15.292"
"1930"	"0"	"2.586"	"0.503"	"18.616"	"1.842"	"162.324"	"161.97"	"150.686"	"263.59"	"46.396"	"21.208"	"0.831"
"1931"	"0.747"	"0.529"	"11.104"	"6.996"	"3.281"	"81.847"	"445.968"	"242.312"	"303.444"	"207.73"	"28.091"	"8.049"
"1932"	"0"	"22.06"	"8.37"	"5.539"	"35.795"	"127.081"	"333.268"	"235.062"	"180.965"	"47.6"	"28.173"	"0"
"1933"	"8.822"	"19.943"	"7.78"	"19.669"	"43.323"	"227.314"	"272.396"	"321.145"	"328.855"	"103.772"	"2.466"	"17.017"
"1934"	"2.311"	"0"	"0.008"	"10.834"	"0.529"	"138.743"	"305.804"	"442.692"	"240.635"	"8.636"	"49.578"	"0"
"1935"	"27.687"	"3.829"	"0"	"22.964"	"0.71"	"147.399"	"387.669"	"223.257"	"252.548"	"13.891"	"0.057"	"4.067"
"1936"	"2.531"	"39.679"	"24.522"	"3.58"	"47.657"	"284.597"	"140.918"	"231.22"	"178.996"	"81.582"	"48.084"	"4.321"
"1937"	"0"	"26.453"	"28.933"	"49.992"	"0.49"	"105.552"	"435.229"	"109.51"	"191.626"	"116.258"	"0.057"	"16.11"
"1938"	"0.552"	"9.953"	"11.742"	"8.41"	"19.806"	"299.486"	"338.586"	"171.092"	"214.17"	"92.511"	"0.057"	"0"
"1939"	"1.156"	"0.039"	"21.423"	"14.669"	"0.11"	"83.5"	"157.867"	"374.705"	"54.189"	"21.854"	"4.731"	"0.02"
"1940"	"0.013"	"5.911"	"0.493"	"12.787"	"5.364"	"222.656"	"452.687"	"240.689"	"91.84"	"100.441"	"26.925"	"7.253"
"1941"	"3.654"	"2.901"	"15.518"	"6.681"	"3.72"	"71.744"	"271.429"	"190.527"	"160.215"	"8.854"	"0.057"	"0"
"1942"	"0.424"	"37.169"	"0.017"	"21.012"	"8.429"	"169.885"	"307.174"	"382.537"	"138.462"	"7.482"	"0.057"	"33.215"
"1943"	"43.943"	"0.24"	"3.565"	"2.066"	"36.007"	"153.56"	"194.724"	"97.58"	"333.319"	"88.899"	"0.275"	"0"
"1944"	"0.838"	"25.585"	"42.66"	"1.433"	"0.259"	"68.254"	"365.847"	"257.023"	"248.603"	"67.175"	"34.004"	"0"
"1945"	"9.644"	"0"	"0"	"24.051"	"4.949"	"138.22"	"292.725"	"238.039"	"233.197"	"31.309"	"0.1"	"0.689"
"1946"	"0"	"10.603"	"0.229"	"18.605"	"11.373"	"182.035"	"350.083"	"166.5"	"121.19"	"2.89"	"56.569"	"3.194"
"1947"	"23.569"	"16.297"	"10.869"	"4.192"	"3.866"	"101.718"	"229.393"	"263.105"	"257.688"	"7.213"	"0.06"	"5.552"
"1948"	"18.286"	"3.085"	"4.006"	"2.668"	"1.711"	"106.89"	"318.09"	"201.427"	"321.253"	"25.439"	"103.169"	"0"
"1949"	"9.855"	"3.316"	"0.103"	"3.294"	"33.398"	"162.813"	"381.047"	"207.24"	"416.015"	"132.916"	"0.057"	"0"
"1950"	"0.043"	"27.461"	"3.658"	"0.827"	"5.421"	"56.766"	"275.309"	"103.89"	"170.891"	"14.338"	"0.061"	"4.576"
"1951"	"1.703"	"0.066"	"17.24"	"21.455"	"19.09"	"129.645"	"315.192"	"221.837"	"183.094"	"74.373"	"0.105"	"0"
"1952"	"0"	"20.864"	"1.592"	"9.841"	"12.094"	"120.035"	"163.846"	"215.904"	"147.998"	"96.031"	"0.057"	"0.049"
"1953"	"1.1"	"0.447"	"0"	"14.31"	"0.382"	"163.292"	"244.515"	"320.012"	"208.912"	"45.147"	"0.057"	"0"
"1954"	"0.094"	"0.166"	"2.168"	"11.884"	"0.782"	"132.544"	"427.254"	"202.959"	"269.092"	"7.893"	"0.057"	"0.063"
"1955"	"15.961"	"0.006"	"3.11"	"8.257"	"9.975"	"215.684"	"268.745"	"393.658"	"193.533"	"138.3"	"0.164"	"0"
"1956"	"0.047"	"0.274"	"0.194"	"0.176"	"62.875"	"202.73"	"262.387"	"127.149"	"242.167"	"79.034"	"44.097"	"5.728"
"1957"	"1.544"	"1.314"	"46.665"	"47.909"	"7.393"	"121.251"	"219.044"	"299.961"	"123.906"	"30.275"	"0.057"	"0"
"1958"	"1.988"	"0.198"	"9.675"	"19.016"	"13.366"	"110.754"	"392.552"	"407.145"	"176.436"	"47.317"	"35.87"	"0"
"1959"	"7.068"	"0.106"	"0.547"	"24.437"	"5.757"	"175.293"	"334.899"	"298.076"	"460.921"	"86.287"	"2.43"	"0"
"1960"	"24.498"	"0"	"43.139"	"4.111"	"6.919"	"197.443"	"300.631"	"121.524"	"142.626"	"60.872"	"9.707"	"0.247"
"1961"	"0.189"	"0.386"	"16.751"	"11.446"	"21.603"	"101.221"	"347.888"	"308.025"	"217.242"	"177.289"	"0.057"	"1.201"
"1962"	"3.338"	"0.492"	"22.161"	"25.223"	"12.519"	"61.899"	"308.234"	"216.692"	"300.527"	"24.798"	"82.135"	"60.397"
"1963"	"0"	"8.006"	"9.032"	"25.223"	"21.411"	"181.255"	"172.515"	"426.443"	"108.664"	"124.73"	"0.108"	"0"
"1964"	"0.014"	"0.621"	"3.016"	"1.278"	"0.157"	"123.366"	"182.782"	"354.75"	"200.304"	"27.719"	"1.78"	"0"
"1965"	"8.098"	"5.626"	"2.188"	"33.453"	"4.62"	"166.628"	"329.194"	"138.851"	"137.065"	"3.165"	"0.057"	"4.413"
"1966"	"33.993"	"0.077"	"24.597"	"9.523"	"41.954"	"39.623"	"275.866"	"118.446"	"266.623"	"1.553"	"36.544"	"23.068"
"1967"	"3.602"	"3.544"	"33.765"	"9.118"	"4.42"	"146.264"	"231.901"	"159.849"	"130.491"	"16.522"	"6.827"	"50.606"
"1968"	"20.021"	"13.67"	"56.806"	"24.663"	"1.509"	"95.332"	"276.804"	"126.149"	"235.468"	"9.12"	"12.366"	"1.131"
"1969"	"0.089"	"0"	"0.433"	"3.176"	"13.865"	"113.307"	"296.39"	"122.318"	"327.665"	"10.835"	"33.667"	"0"
"1970"	"9.664"	"0.719"	"0.731"	"7.434"	"24.059"	"281.509"	"178.794"	"440.826"	"268.755"	"6.523"	"0.057"	"0"
"1971"	"4.303"	"3.915"	"6.771"	"8.497"	"29.947"	"204.369"	"82.7"	"171.108"	"134.882"	"195.129"	"0.057"	"0"
"1972"	"0"	"0.004"	"0.004"	"3.744"	"13.609"	"149.113"	"154.203"	"172.459"	"56.403"	"5.033"	"23.06"	"1.622"
"1973"	"0"	"2.369"	"0"	"7.891"	"0.231"	"76.755"	"372.896"	"360.21"	"174.336"	"177.851"	"0.062"	"0.307"
"1974"	"0"	"2.012"	"1.373"	"4.053"	"9.693"	"70.315"	"113.153"	"232.688"	"77.855"	"159.536"	"2.914"	"0"
"1975"	"6.787"	"21.038"	"20.305"	"0.026"	"14.598"	"134.449"	"291.739"	"214.139"	"411.809"	"64.069"	"0.06"	"0"
"1976"	"2.509"	"0"	"5.095"	"12.928"	"8.124"	"61.275"	"333.503"	"186.877"	"138.923"	"0.662"	"66.813"	"0"
"1977"	"0"	"0.609"	"1.914"	"4.822"	"26.102"	"89.617"	"247.995"	"353.526"	"96.002"	"34.46"	"62.94"	"3.149"
"1978"	"24.111"	"25.017"	"29.448"	"30.358"	"5.21"	"187.956"	"303.664"	"300.948"	"74.343"	"46.714"	"23.114"	"21.614"
"1979"	"29.609"	"40.808"	"1.485"	"2.115"	"32.532"	"215.078"	"183.036"	"318.09"	"126.667"	"2.729"	"30.071"	"19.796"
"1980"	"9.262"	"1.485"	"0.923"	"7.263"	"0.579"	"220.585"	"223.929"	"390.519"	"110.068"	"2.073"	"0.06"	"30.138"
"1981"	"20.225"	"1.145"	"23.646"	"10.934"	"18.195"	"149.042"	"248.562"	"243.722"	"377.479"	"47.508"	"7.913"	"15.737"
"1982"	"39.419"	"4.059"	"2.24"	"18.232"	"26.175"	"102.407"	"314.644"	"113.592"	"232.919"	"49.077"	"19.551"	"0"
"1983"	"0.046"	"0.306"	"1.588"	"0.02"	"3.657"	"201.672"	"325.166"	"363.125"	"282.465"	"93.379"	"0.157"	"11.374"
"1984"	"13.807"	"9.794"	"0"	"4.02"	"1.434"	"70.708"	"222.877"	"211.512"	"61.328"	"77.515"	"0.091"	"0"
"1985"	"29.122"	"0.446"	"6.834"	"16.921"	"3.639"	"218.649"	"299.378"	"183.26"	"56.28"	"132.009"	"0.467"	"2.727"
"1986"	"12.377"	"30.313"	"0.165"	"10.647"	"7.34"	"174.377"	"329.35"	"297.578"	"73.514"	"7.548"	"8.994"	"17.953"
"1987"	"13.533"	"5.601"	"13.35"	"0.923"	"24.451"	"161.998"	"145.075"	"140.683"	"72.703"	"67.345"	"41.993"	"5.594"
"1988"	"0"	"11.552"	"1.404"	"16.205"	"16.934"	"117.766"	"405.675"	"282.119"	"230.849"	"100.805"	"8.824"	"6.041"
"1989"	"0"	"0"	"45.492"	"0.129"	"14.61"	"136.299"	"252.965"	"246.209"	"160.105"	"16.301"	"0.571"	"17.432"
"1990"	"1.257"	"2.54"	"8.584"	"0.057"	"79.76"	"173.253"	"230.304"	"359.292"	"63.022"	"109.554"	"4.691"	"10.003"
"1991"	"5.14"	"4.25"	"0.061"	"18.363"	"1.708"	"162.557"	"234.29"	"191.681"	"39.815"	"6.828"	"10.858"	"0"
"1992"	"0.005"	"1.46"	"0"	"3.084"	"25.145"	"71.337"	"121.383"	"332.365"	"243.232"	"35.025"	"4.893"	"0"
"1993"	"0"	"6.829"	"21.471"	"2.514"	"6.593"	"91.09"	"303.397"	"211.12"	"207.288"	"149.3"	"0.07"	"8.695"
"1994"	"17.135"	"12.038"	"10.709"	"36.237"	"4.716"	"139.849"	"285.919"	"228.791"	"213.8"	"94.692"	"11.693"	"0"
"1995"	"37.221"	"0.039"	"48.433"	"1.711"	"21.788"	"136.607"	"407.104"	"142.245"	"261.992"	"67.463"	"4.552"	"0.036"
"1996"	"3.06"	"3.563"	"6.138"	"5.328"	"1.718"	"41.203"	"260.309"	"334.258"	"269.355"	"139.594"	"15.921"	"0"
"1997"	"26.892"	"0"	"2.7"	"26.131"	"6.689"	"82.798"	"188.604"	"232.244"	"91.573"	"51.556"	"92.557"	"31.918"
"1998"	"5.746"	"4.585"	"9.593"	"3.527"	"5.747"	"69.104"	"212.667"	"277.319"	"370.856"	"75.561"	"51.495"	"0"
"1999"	"0.177"	"24.769"	"0"	"1.011"	"56.187"	"132.907"	"218.419"	"287.394"	"257.769"	"94.944"	"0.057"	"0"
"2000"	"0"	"9.814"	"0"	"1.482"	"23.164"	"157.387"	"262.314"	"299.11"	"60.016"	"7.045"	"0.446"	"0.66"
"2001"	"24.188"	"0"	"32.1"	"14.441"	"12.485"	"187.701"	"95.259"	"243.491"	"49.571"	"62.732"	"0.307"	"0"
"2002"	"22.258"	"2.694"	"6.653"	"4.761"	"14.115"	"228.952"	"71.77"	"302.998"	"146.674"	"51.333"	"2.413"	"0"
